<?xml version="1.0" encoding="UTF-8"?>
<svg xmlns="http://www.w3.org/2000/svg" xmlns:xlink="http://www.w3.org/1999/xlink" width="36pt" height="36pt" viewBox="0 0 36 36" version="1.1">
<g id="surface1">
<path style=" stroke:none;fill-rule:evenodd;fill:rgb(37.647059%,54.117647%,70.980392%);fill-opacity:1;" d="M 8.40625 2.136719 L 27.59375 2.136719 C 31.054688 2.136719 33.863281 4.945312 33.863281 8.40625 L 33.863281 27.59375 C 33.863281 31.054688 31.054688 33.863281 27.59375 33.863281 L 8.40625 33.863281 C 4.945312 33.863281 2.136719 31.054688 2.136719 27.59375 L 2.136719 8.40625 C 2.136719 4.945312 4.945312 2.136719 8.40625 2.136719 Z M 8.40625 2.136719 "/>
<path style=" stroke:none;fill-rule:nonzero;fill:rgb(80.392157%,87.45098%,94.117647%);fill-opacity:1;" d="M 29.777344 19.628906 C 29.777344 25.964844 24.640625 31.101562 18.304688 31.101562 C 11.96875 31.101562 6.832031 25.964844 6.832031 19.628906 C 6.832031 13.292969 11.96875 8.15625 18.304688 8.15625 C 24.640625 8.15625 29.777344 13.292969 29.777344 19.628906 Z M 29.777344 19.628906 "/>
<path style=" stroke:none;fill-rule:nonzero;fill:rgb(52.156863%,70.588235%,87.45098%);fill-opacity:1;" d="M 25.394531 30.054688 C 19.261719 33.597656 11.417969 31.492188 7.878906 25.363281 C 4.335938 19.230469 6.4375 11.386719 12.570312 7.847656 C 19.796875 7.8125 24.386719 23.425781 25.394531 30.054688 Z M 25.394531 30.054688 "/>
<path style=" stroke:none;fill-rule:nonzero;fill:rgb(37.647059%,54.117647%,70.980392%);fill-opacity:1;" d="M 31.128906 19.402344 C 31.128906 26.484375 25.386719 32.222656 18.304688 32.222656 C 11.222656 32.222656 5.484375 26.484375 5.484375 19.402344 C 9.066406 13.128906 24.882812 16.960938 31.128906 19.402344 Z M 31.128906 19.402344 "/>
</g>
</svg>
