<?xml version="1.0" encoding="UTF-8"?>
<svg xmlns="http://www.w3.org/2000/svg" xmlns:xlink="http://www.w3.org/1999/xlink" width="36pt" height="36pt" viewBox="0 0 36 36" version="1.1">
<g id="surface1">
<path style=" stroke:none;fill-rule:evenodd;fill:rgb(19.607843%,52.54902%,49.019608%);fill-opacity:1;" d="M 8.40625 2.136719 L 27.59375 2.136719 C 31.054688 2.136719 33.863281 4.945312 33.863281 8.40625 L 33.863281 27.59375 C 33.863281 31.054688 31.054688 33.863281 27.59375 33.863281 L 8.40625 33.863281 C 4.945312 33.863281 2.136719 31.054688 2.136719 27.59375 L 2.136719 8.40625 C 2.136719 4.945312 4.945312 2.136719 8.40625 2.136719 Z M 8.40625 2.136719 "/>
<path style=" stroke:none;fill-rule:nonzero;fill:rgb(49.019608%,100%,48.627451%);fill-opacity:1;" d="M 10.738281 15.242188 C 10.089844 15.242188 9.5625 15.839844 9.5625 16.574219 L 9.5625 21.78125 C 9.5625 22.515625 10.089844 23.117188 10.738281 23.117188 C 11.382812 23.117188 11.8125 22.515625 11.8125 21.78125 L 11.8125 16.574219 C 11.8125 15.835938 11.386719 15.242188 10.738281 15.242188 "/>
<path style=" stroke:none;fill-rule:nonzero;fill:rgb(49.019608%,100%,48.627451%);fill-opacity:1;" d="M 12.9375 15.242188 L 12.9375 24.804688 C 12.9375 25.070312 13.234375 25.367188 13.5 25.367188 L 15.1875 25.367188 L 15.1875 27.476562 C 15.1875 28.175781 15.632812 28.742188 16.3125 28.742188 C 16.988281 28.742188 17.460938 28.175781 17.4375 27.476562 L 17.4375 25.367188 L 18.5625 25.367188 L 18.5625 27.476562 C 18.5625 28.175781 19.007812 28.742188 19.6875 28.742188 C 20.363281 28.742188 20.8125 28.167969 20.8125 27.476562 L 20.8125 25.367188 L 22.5 25.367188 C 22.765625 25.367188 23.0625 25.070312 23.0625 24.804688 L 23.0625 15.242188 Z M 12.9375 15.242188 "/>
<path style=" stroke:none;fill-rule:nonzero;fill:rgb(49.019608%,100%,48.627451%);fill-opacity:1;" d="M 25.363281 15.242188 C 24.714844 15.242188 24.1875 15.839844 24.1875 16.574219 L 24.1875 21.78125 C 24.1875 22.515625 24.714844 23.117188 25.363281 23.117188 C 26.007812 23.117188 26.4375 22.515625 26.4375 21.78125 L 26.4375 16.574219 C 26.4375 15.835938 26.011719 15.242188 25.363281 15.242188 "/>
<path style=" stroke:none;fill-rule:nonzero;fill:rgb(49.019608%,100%,48.627451%);fill-opacity:1;" d="M 15.035156 7.257812 L 14.0625 7.820312 L 15.410156 10.152344 C 12.949219 11.34375 12.9375 14.117188 12.9375 14.117188 L 23.0625 14.117188 C 23.0625 14.117188 23.050781 11.34375 20.589844 10.152344 L 21.9375 7.820312 L 20.964844 7.257812 L 19.507812 9.78125 C 19.0625 9.679688 18.566406 9.617188 18.003906 9.617188 C 17.433594 9.617188 16.941406 9.679688 16.492188 9.78125 Z M 15.753906 11.867188 C 16.0625 11.867188 16.3125 12.117188 16.3125 12.425781 C 16.3125 12.738281 16.058594 12.992188 15.753906 12.992188 C 15.441406 12.992188 15.1875 12.742188 15.1875 12.425781 C 15.1875 12.117188 15.441406 11.867188 15.753906 11.867188 Z M 20.253906 11.867188 C 20.5625 11.867188 20.8125 12.117188 20.8125 12.425781 C 20.8125 12.738281 20.558594 12.992188 20.253906 12.992188 C 19.941406 12.992188 19.6875 12.742188 19.6875 12.425781 C 19.6875 12.117188 19.941406 11.867188 20.253906 11.867188 Z M 20.253906 11.867188 "/>
</g>
</svg>
