<?xml version="1.0" encoding="UTF-8"?>
<svg xmlns="http://www.w3.org/2000/svg" xmlns:xlink="http://www.w3.org/1999/xlink" width="36pt" height="36pt" viewBox="0 0 36 36" version="1.1">
<g id="surface1">
<path style=" stroke:none;fill-rule:evenodd;fill:rgb(80%,80%,80%);fill-opacity:1;" d="M 33.863281 9.675781 L 33.863281 8.40625 C 33.863281 4.933594 31.066406 2.136719 27.59375 2.136719 L 14.882812 2.136719 C 14.855469 3.289062 14.683594 4.445312 14.757812 5.5625 C 16.761719 5.285156 18.746094 5.214844 20.6875 5.34375 C 22.632812 5.472656 24.535156 5.792969 26.378906 6.296875 C 28.21875 6.800781 30 7.484375 31.699219 8.328125 C 32.460938 8.707031 33.136719 9.230469 33.863281 9.675781 Z M 33.863281 9.675781 "/>
<path style=" stroke:none;fill-rule:evenodd;fill:rgb(80%,80%,80%);fill-opacity:1;" d="M 33.863281 20.996094 L 33.863281 11.65625 C 33.652344 11.519531 33.46875 11.335938 33.253906 11.207031 C 31.78125 10.3125 30.222656 9.546875 28.601562 8.925781 C 26.976562 8.308594 25.289062 7.832031 23.550781 7.511719 C 21.8125 7.191406 20.023438 7.027344 18.203125 7.03125 C 17.121094 7.035156 16.027344 7.09375 14.925781 7.21875 C 15.175781 8.710938 15.550781 10.203125 16.070312 11.671875 C 16.589844 13.140625 17.253906 14.59375 18.085938 16 C 19.941406 16.039062 21.746094 16.246094 23.492188 16.605469 C 25.238281 16.960938 26.921875 17.46875 28.535156 18.117188 C 30.144531 18.761719 31.683594 19.546875 33.140625 20.453125 C 33.394531 20.613281 33.613281 20.828125 33.863281 20.996094 Z M 33.863281 20.996094 "/>
<path style=" stroke:none;fill-rule:evenodd;fill:rgb(80%,80%,80%);fill-opacity:1;" d="M 16.730469 33.863281 L 27.59375 33.863281 C 31.066406 33.863281 33.863281 31.066406 33.863281 27.59375 L 33.863281 23.300781 C 33.546875 23.066406 33.277344 22.785156 32.949219 22.5625 C 31.628906 21.65625 30.21875 20.84375 28.730469 20.140625 C 27.835938 22.246094 26.714844 24.210938 25.402344 26.011719 C 24.089844 27.816406 22.589844 29.453125 20.9375 30.90625 C 19.644531 32.046875 18.191406 32.964844 16.730469 33.863281 Z M 16.730469 33.863281 "/>
<path style=" stroke:none;fill-rule:evenodd;fill:rgb(80%,80%,80%);fill-opacity:1;" d="M 2.632812 30.046875 C 3.585938 32.292969 5.804688 33.863281 8.40625 33.863281 L 13.28125 33.863281 C 13.328125 33.84375 13.382812 33.835938 13.429688 33.8125 C 15.433594 32.855469 17.324219 31.65625 19.054688 30.242188 C 20.785156 28.824219 22.363281 27.1875 23.738281 25.359375 C 25.117188 23.527344 26.292969 21.503906 27.234375 19.3125 C 25.820312 18.816406 24.320312 18.402344 22.785156 18.113281 C 21.246094 17.824219 19.664062 17.65625 18.085938 17.65625 C 17.109375 19.273438 15.996094 20.765625 14.765625 22.121094 C 13.535156 23.476562 12.191406 24.699219 10.757812 25.785156 C 9.324219 26.871094 7.796875 27.816406 6.207031 28.621094 C 5.058594 29.199219 3.84375 29.617188 2.632812 30.046875 Z M 2.632812 30.046875 "/>
<path style=" stroke:none;fill-rule:evenodd;fill:rgb(80%,80%,80%);fill-opacity:1;" d="M 3.21875 5.085938 C 2.589844 6.0625 2.136719 7.15625 2.136719 8.40625 L 2.136719 27.59375 C 2.136719 27.871094 2.257812 28.105469 2.292969 28.371094 C 3.152344 28.0625 4.03125 27.816406 4.859375 27.425781 C 6.339844 26.722656 7.761719 25.890625 9.105469 24.945312 C 7.984375 23.390625 7.015625 21.769531 6.207031 20.097656 C 5.398438 18.425781 4.742188 16.703125 4.25 14.953125 C 3.753906 13.203125 3.421875 11.421875 3.246094 9.628906 C 3.101562 8.121094 3.132812 6.601562 3.21875 5.085938 Z M 3.21875 5.085938 "/>
<path style=" stroke:none;fill-rule:evenodd;fill:rgb(80%,80%,80%);fill-opacity:1;" d="M 12.988281 2.136719 L 8.40625 2.136719 C 7.171875 2.136719 6.09375 2.582031 5.125 3.191406 C 4.921875 4.792969 4.800781 6.410156 4.875 8.035156 C 4.957031 9.878906 5.21875 11.722656 5.667969 13.539062 C 6.113281 15.351562 6.746094 17.132812 7.566406 18.851562 C 8.386719 20.570312 9.394531 22.226562 10.601562 23.785156 C 11.765625 22.875 12.84375 21.796875 13.84375 20.617188 C 14.839844 19.4375 15.753906 18.152344 16.585938 16.828125 C 15.777344 15.417969 15.105469 13.957031 14.570312 12.46875 C 14.03125 10.976562 13.628906 9.457031 13.355469 7.929688 C 13.078125 6.398438 12.933594 4.855469 12.910156 3.324219 C 12.90625 2.921875 12.976562 2.535156 12.988281 2.136719 Z M 12.988281 2.136719 "/>
<path style=" stroke:none;fill-rule:evenodd;fill:rgb(40%,40%,40%);fill-opacity:1;" d="M 12.988281 2.136719 C 12.976562 2.535156 12.90625 2.921875 12.910156 3.324219 C 12.933594 4.855469 13.078125 6.398438 13.355469 7.929688 C 13.628906 9.457031 14.03125 10.976562 14.570312 12.46875 C 15.105469 13.957031 15.777344 15.417969 16.585938 16.828125 C 15.753906 18.152344 14.839844 19.4375 13.84375 20.617188 C 12.84375 21.796875 11.765625 22.875 10.601562 23.785156 C 9.394531 22.226562 8.386719 20.570312 7.566406 18.851562 C 6.746094 17.132812 6.113281 15.351562 5.667969 13.539062 C 5.21875 11.722656 4.957031 9.878906 4.875 8.035156 C 4.800781 6.410156 4.921875 4.792969 5.125 3.191406 C 4.347656 3.679688 3.710938 4.3125 3.21875 5.085938 C 3.132812 6.601562 3.101562 8.121094 3.246094 9.628906 C 3.421875 11.421875 3.753906 13.203125 4.25 14.953125 C 4.742188 16.703125 5.398438 18.425781 6.207031 20.097656 C 7.015625 21.769531 7.984375 23.390625 9.105469 24.945312 C 7.761719 25.890625 6.339844 26.722656 4.859375 27.425781 C 4.03125 27.816406 3.152344 28.0625 2.292969 28.371094 C 2.367188 28.945312 2.417969 29.53125 2.632812 30.046875 C 3.84375 29.617188 5.058594 29.199219 6.207031 28.621094 C 7.796875 27.816406 9.324219 26.871094 10.757812 25.785156 C 12.191406 24.699219 13.535156 23.476562 14.765625 22.121094 C 15.996094 20.765625 17.109375 19.273438 18.085938 17.65625 C 19.664062 17.65625 21.246094 17.824219 22.785156 18.113281 C 24.320312 18.402344 25.820312 18.816406 27.234375 19.3125 C 26.292969 21.503906 25.117188 23.527344 23.738281 25.359375 C 22.363281 27.1875 20.785156 28.824219 19.054688 30.242188 C 17.324219 31.65625 15.433594 32.855469 13.429688 33.8125 C 13.382812 33.835938 13.328125 33.84375 13.28125 33.863281 L 16.730469 33.863281 C 18.191406 32.964844 19.644531 32.046875 20.9375 30.90625 C 22.589844 29.453125 24.089844 27.816406 25.402344 26.011719 C 26.714844 24.210938 27.835938 22.246094 28.730469 20.140625 C 30.21875 20.84375 31.628906 21.65625 32.949219 22.5625 C 33.277344 22.785156 33.546875 23.066406 33.863281 23.300781 L 33.863281 20.996094 C 33.613281 20.828125 33.394531 20.613281 33.140625 20.453125 C 31.683594 19.546875 30.144531 18.761719 28.535156 18.117188 C 26.921875 17.46875 25.238281 16.960938 23.492188 16.605469 C 21.746094 16.246094 19.941406 16.039062 18.085938 16 C 17.253906 14.59375 16.589844 13.140625 16.070312 11.671875 C 15.550781 10.203125 15.175781 8.710938 14.925781 7.21875 C 16.027344 7.09375 17.121094 7.035156 18.203125 7.03125 C 20.023438 7.027344 21.8125 7.191406 23.550781 7.511719 C 25.289062 7.832031 26.976562 8.308594 28.597656 8.925781 C 30.222656 9.546875 31.78125 10.3125 33.253906 11.207031 C 33.46875 11.335938 33.652344 11.519531 33.863281 11.65625 L 33.863281 9.675781 C 33.136719 9.230469 32.460938 8.707031 31.699219 8.328125 C 30 7.484375 28.21875 6.800781 26.378906 6.296875 C 24.535156 5.792969 22.632812 5.472656 20.6875 5.34375 C 18.746094 5.214844 16.761719 5.285156 14.757812 5.5625 C 14.683594 4.445312 14.855469 3.289062 14.882812 2.136719 Z M 12.988281 2.136719 "/>
</g>
</svg>
