<?xml version="1.0" encoding="UTF-8"?>
<svg xmlns="http://www.w3.org/2000/svg" xmlns:xlink="http://www.w3.org/1999/xlink" width="36pt" height="36pt" viewBox="0 0 36 36" version="1.1">
<g id="surface1">
<path style=" stroke:none;fill-rule:evenodd;fill:rgb(0%,77.254902%,52.54902%);fill-opacity:1;" d="M 8.40625 2.136719 L 27.59375 2.136719 C 31.054688 2.136719 33.863281 4.945312 33.863281 8.40625 L 33.863281 27.59375 C 33.863281 31.054688 31.054688 33.863281 27.59375 33.863281 L 8.40625 33.863281 C 4.945312 33.863281 2.136719 31.054688 2.136719 27.59375 L 2.136719 8.40625 C 2.136719 4.945312 4.945312 2.136719 8.40625 2.136719 Z M 8.40625 2.136719 "/>
<path style=" stroke:none;fill-rule:nonzero;fill:rgb(100%,100%,100%);fill-opacity:1;" d="M 26.4375 9.5625 L 9.5625 14.964844 L 15.808594 17.5625 L 18 18 L 18.46875 20.246094 L 21.035156 26.4375 Z M 15.109375 19.703125 C 15.109375 19.671875 14.914062 19.691406 14.746094 19.734375 C 14.105469 19.902344 13.175781 20.585938 12.679688 21.261719 C 12.113281 22.027344 11.8125 22.925781 11.8125 23.84375 C 11.8125 24.097656 11.824219 24.140625 11.898438 24.175781 C 11.984375 24.210938 12.710938 24.164062 13.003906 24.105469 C 13.851562 23.933594 14.570312 23.539062 15.214844 22.894531 C 15.617188 22.488281 15.859375 22.152344 16.09375 21.664062 C 16.246094 21.34375 16.351562 20.953125 16.300781 20.898438 C 16.289062 20.886719 16.203125 20.9375 16.109375 21.011719 C 15.410156 21.457031 14.855469 21.78125 14.0625 21.9375 C 14.269531 21.160156 14.488281 20.566406 14.894531 20.007812 C 15.011719 19.847656 15.109375 19.710938 15.109375 19.703125 Z M 15.109375 19.703125 "/>
<path style=" stroke:none;fill-rule:nonzero;fill:rgb(76.862745%,94.509804%,89.019608%);fill-opacity:1;" d="M 9.5625 14.960938 L 15.808594 17.558594 L 18 18 L 26.4375 9.5625 Z M 9.5625 14.960938 "/>
</g>
</svg>
