<?xml version="1.0" encoding="UTF-8"?>
<svg xmlns="http://www.w3.org/2000/svg" xmlns:xlink="http://www.w3.org/1999/xlink" width="36pt" height="36pt" viewBox="0 0 36 36" version="1.1">
<g id="surface1">
<path style=" stroke:none;fill-rule:evenodd;fill:rgb(30.588235%,48.235294%,75.294118%);fill-opacity:1;" d="M 10.21875 33.867188 L 27.589844 33.867188 C 31.066406 33.867188 33.863281 31.070312 33.863281 27.59375 L 33.863281 8.410156 C 33.863281 4.933594 31.066406 2.136719 27.589844 2.136719 L 10.21875 2.136719 Z M 10.21875 33.867188 "/>
<path style=" stroke:none;fill-rule:evenodd;fill:rgb(24.313725%,38.431373%,60.392157%);fill-opacity:1;" d="M 10.21875 33.867188 L 10.21875 2.136719 L 8.40625 2.136719 C 4.933594 2.136719 2.136719 4.933594 2.136719 8.410156 L 2.136719 27.59375 C 2.136719 31.070312 4.933594 33.867188 8.40625 33.867188 Z M 10.21875 33.867188 "/>
<path style=" stroke:none;fill-rule:nonzero;fill:rgb(91.372549%,69.019608%,39.215686%);fill-opacity:1;" d="M 22.351562 2.132812 L 22.351562 17.882812 L 24.601562 15.632812 L 26.851562 17.882812 L 26.851562 2.132812 Z M 22.351562 2.132812 "/>
</g>
</svg>
