<?xml version="1.0" encoding="UTF-8"?>
<svg xmlns="http://www.w3.org/2000/svg" xmlns:xlink="http://www.w3.org/1999/xlink" width="36pt" height="36pt" viewBox="0 0 36 36" version="1.1">
<g id="surface1">
<path style=" stroke:none;fill-rule:evenodd;fill:rgb(98.431373%,40%,31.764706%);fill-opacity:1;" d="M 8.40625 2.136719 L 27.59375 2.136719 C 31.054688 2.136719 33.863281 4.945312 33.863281 8.40625 L 33.863281 27.59375 C 33.863281 31.054688 31.054688 33.863281 27.59375 33.863281 L 8.40625 33.863281 C 4.945312 33.863281 2.136719 31.054688 2.136719 27.59375 L 2.136719 8.40625 C 2.136719 4.945312 4.945312 2.136719 8.40625 2.136719 Z M 8.40625 2.136719 "/>
<path style=" stroke:none;fill-rule:evenodd;fill:rgb(100%,100%,100%);fill-opacity:1;" d="M 16.195312 11.269531 C 16.195312 11.269531 15.90625 11.265625 15.78125 11.28125 C 12.953125 11.265625 11.371094 14.359375 9.976562 16.089844 C 9.359375 16.855469 8.867188 17.464844 8.867188 17.464844 C 7.800781 18.566406 6.339844 19.710938 5.136719 20.402344 C 5.191406 20.804688 5.257812 21.203125 5.347656 21.601562 C 5.796875 21.402344 6.328125 21.203125 6.546875 21.03125 C 7.734375 20.078125 9.8125 18.527344 10.023438 18.527344 C 10.234375 18.527344 10.597656 18.441406 10.75 18.964844 C 10.902344 19.492188 10.550781 20.117188 10.550781 20.117188 C 10.550781 20.117188 10.089844 20.902344 10.105469 21.335938 C 10.324219 22.890625 11.578125 24.449219 12.851562 24.664062 C 13.769531 24.789062 15.125 24.707031 15.125 24.707031 L 15.152344 24.476562 C 15.121094 24.125 14.40625 23.976562 14.40625 23.976562 C 14.398438 23.980469 13.492188 24.152344 13.097656 23.96875 C 12.429688 23.664062 11.644531 22.457031 11.644531 22.304688 C 11.644531 22.152344 11.871094 21.464844 11.871094 21.464844 C 11.871094 21.464844 12.609375 21.566406 12.851562 21.566406 C 13.097656 21.566406 13.730469 21.597656 13.730469 21.597656 L 14.203125 22.328125 C 14.351562 22.617188 14.539062 22.472656 14.785156 22.539062 L 15.839844 22.550781 L 16.570312 22.535156 L 16.570312 22.164062 C 16.570312 22.535156 16.570312 21.8125 16.097656 21.800781 C 15.6875 21.78125 15.152344 21.726562 15.109375 21.582031 C 15.03125 21.335938 15.136719 20.707031 15.136719 20.707031 C 15.136719 20.707031 15.664062 20.453125 16.777344 20.671875 C 17.890625 20.890625 19.15625 21.8125 19.15625 21.8125 C 18.835938 22.398438 18.546875 22.523438 18.488281 23.125 C 18.429688 23.671875 18.433594 23.671875 18.789062 23.671875 L 20.496094 23.671875 C 20.496094 23.671875 20.496094 22.949219 20.007812 22.984375 C 19.664062 22.972656 19.472656 22.953125 19.472656 22.925781 C 19.472656 22.789062 20.128906 22.210938 20.128906 22.210938 L 20.59375 21.875 C 20.59375 21.875 21.242188 22.3125 22.078125 22.523438 C 22.910156 22.738281 23.953125 22.632812 23.953125 22.632812 C 24.277344 22.828125 24.339844 22.992188 24.503906 23.273438 C 24.632812 23.777344 24.632812 23.671875 24.914062 23.683594 C 25.527344 23.699219 26.050781 23.671875 26.652344 23.628906 C 26.652344 23.628906 26.699219 22.949219 25.699219 22.949219 C 25.699219 22.949219 25.332031 22.71875 25.265625 22.375 C 25.199219 22.03125 25.238281 21.128906 25.238281 21.128906 L 25.734375 21.085938 L 26.386719 21.644531 L 26.792969 21.679688 L 27.355469 22.585938 C 27.355469 22.585938 28.476562 22.671875 28.855469 22.527344 C 29.230469 22.382812 29.910156 22.003906 30.304688 21.578125 C 30.699219 21.152344 30.960938 20.144531 30.828125 19.574219 C 30.695312 19.007812 29.960938 18.328125 29.960938 18.328125 C 28.402344 16.851562 25.976562 14.382812 24.472656 14.367188 C 24.230469 14.367188 23.632812 14.933594 23.289062 14.683594 C 21.132812 13.199219 18.777344 11.375 16.195312 11.269531 Z M 26.699219 17.46875 C 27.269531 17.46875 27.734375 17.929688 27.734375 18.5 C 27.734375 19.070312 27.269531 19.535156 26.699219 19.535156 C 26.128906 19.535156 25.667969 19.074219 25.667969 18.5 C 25.667969 17.929688 26.128906 17.46875 26.699219 17.46875 Z M 26.699219 17.46875 "/>
</g>
</svg>
