<?xml version="1.0" encoding="UTF-8"?>
<svg xmlns="http://www.w3.org/2000/svg" xmlns:xlink="http://www.w3.org/1999/xlink" width="36pt" height="36pt" viewBox="0 0 36 36" version="1.1">
<g id="surface1">
<path style=" stroke:none;fill-rule:evenodd;fill:rgb(49.411765%,61.176471%,21.960784%);fill-opacity:1;" d="M 8.40625 2.136719 L 27.59375 2.136719 C 31.054688 2.136719 33.863281 4.945312 33.863281 8.40625 L 33.863281 27.59375 C 33.863281 31.054688 31.054688 33.863281 27.59375 33.863281 L 8.40625 33.863281 C 4.945312 33.863281 2.136719 31.054688 2.136719 27.59375 L 2.136719 8.40625 C 2.136719 4.945312 4.945312 2.136719 8.40625 2.136719 Z M 8.40625 2.136719 "/>
<path style=" stroke:none;fill-rule:nonzero;fill:rgb(100%,100%,100%);fill-opacity:1;" d="M 18 8.761719 L 7.222656 16.460938 L 8.761719 16.460938 L 8.761719 26.472656 C 8.761719 26.847656 9.042969 27.238281 9.449219 27.238281 L 26.550781 27.238281 C 26.957031 27.238281 27.238281 26.847656 27.238281 26.472656 L 27.238281 16.460938 L 28.777344 16.460938 Z M 18 8.761719 "/>
<path style=" stroke:none;fill-rule:nonzero;fill:rgb(49.411765%,61.176471%,21.960784%);fill-opacity:1;" d="M 18.386719 17.230469 C 17.746094 17.230469 17.230469 17.746094 17.230469 18.386719 C 17.230469 19.023438 17.746094 19.539062 18.386719 19.539062 C 19.023438 19.539062 19.539062 19.023438 19.539062 18.386719 C 19.539062 17.746094 19.023438 17.230469 18.386719 17.230469 Z M 21.464844 17.230469 C 20.824219 17.230469 20.308594 17.746094 20.308594 18.386719 C 20.308594 19.023438 20.824219 19.539062 21.464844 19.539062 C 22.101562 19.539062 22.617188 19.023438 22.617188 18.386719 C 22.617188 17.746094 22.101562 17.230469 21.464844 17.230469 Z M 24.542969 17.230469 C 23.90625 17.230469 23.386719 17.746094 23.386719 18.386719 C 23.386719 19.023438 23.90625 19.539062 24.542969 19.539062 C 25.179688 19.539062 25.699219 19.023438 25.699219 18.386719 C 25.699219 17.746094 25.179688 17.230469 24.542969 17.230469 Z M 18.386719 20.308594 C 17.746094 20.308594 17.230469 20.824219 17.230469 21.464844 C 17.230469 22.101562 17.746094 22.617188 18.386719 22.617188 C 19.023438 22.617188 19.539062 22.101562 19.539062 21.464844 C 19.539062 20.824219 19.023438 20.308594 18.386719 20.308594 Z M 21.464844 20.308594 C 20.824219 20.308594 20.308594 20.824219 20.308594 21.464844 C 20.308594 22.101562 20.824219 22.617188 21.464844 22.617188 C 22.101562 22.617188 22.617188 22.101562 22.617188 21.464844 C 22.617188 20.824219 22.101562 20.308594 21.464844 20.308594 Z M 24.542969 20.308594 C 23.90625 20.308594 23.386719 20.824219 23.386719 21.464844 C 23.386719 22.101562 23.90625 22.617188 24.542969 22.617188 C 25.179688 22.617188 25.699219 22.101562 25.699219 21.464844 C 25.699219 20.824219 25.179688 20.308594 24.542969 20.308594 Z M 18.386719 23.386719 C 17.746094 23.386719 17.230469 23.90625 17.230469 24.542969 C 17.230469 25.179688 17.746094 25.699219 18.386719 25.699219 C 19.023438 25.699219 19.539062 25.179688 19.539062 24.542969 C 19.539062 23.90625 19.023438 23.386719 18.386719 23.386719 Z M 21.464844 23.386719 C 20.824219 23.386719 20.308594 23.90625 20.308594 24.542969 C 20.308594 25.179688 20.824219 25.699219 21.464844 25.699219 C 22.101562 25.699219 22.617188 25.179688 22.617188 24.542969 C 22.617188 23.90625 22.101562 23.386719 21.464844 23.386719 Z M 24.542969 23.386719 C 23.90625 23.386719 23.386719 23.90625 23.386719 24.542969 C 23.386719 25.179688 23.90625 25.699219 24.542969 25.699219 C 25.179688 25.699219 25.699219 25.179688 25.699219 24.542969 C 25.699219 23.90625 25.179688 23.386719 24.542969 23.386719 Z M 24.542969 23.386719 "/>
</g>
</svg>
