<?xml version="1.0" encoding="UTF-8"?>
<svg xmlns="http://www.w3.org/2000/svg" xmlns:xlink="http://www.w3.org/1999/xlink" width="36pt" height="36pt" viewBox="0 0 36 36" version="1.1">
<defs>
<radialGradient id="radial0" gradientUnits="userSpaceOnUse" cx="24.391607" cy="16.559441" fx="24.391607" fy="16.559441" r="14.101694" gradientTransform="matrix(1.749832,0,0,1.749832,-24.681454,-10.976479)">
<stop offset="0" style="stop-color:rgb(33.72549%,34.117647%,16.862745%);stop-opacity:1;"/>
<stop offset="1" style="stop-color:rgb(10.196078%,10.980392%,5.490196%);stop-opacity:1;"/>
</radialGradient>
</defs>
<g id="surface1">
<path style=" stroke:none;fill-rule:evenodd;fill:rgb(33.72549%,34.117647%,16.862745%);fill-opacity:1;" d="M 8.40625 2.136719 L 27.59375 2.136719 C 31.054688 2.136719 33.863281 4.945312 33.863281 8.40625 L 33.863281 27.59375 C 33.863281 31.054688 31.054688 33.863281 27.59375 33.863281 L 8.40625 33.863281 C 4.945312 33.863281 2.136719 31.054688 2.136719 27.59375 L 2.136719 8.40625 C 2.136719 4.945312 4.945312 2.136719 8.40625 2.136719 Z M 8.40625 2.136719 "/>
<path style=" stroke:none;fill-rule:evenodd;fill:rgb(13.333333%,14.509804%,7.843137%);fill-opacity:1;" d="M 20.171875 33.863281 C 19.28125 33.480469 18.148438 33.148438 17.414062 32.730469 C 15.742188 31.773438 14.453125 30.738281 13.441406 29.660156 C 12.429688 28.578125 11.691406 27.457031 11.113281 26.320312 C 10.535156 25.183594 10.117188 24.035156 9.746094 22.910156 C 9.378906 21.785156 9.058594 20.679688 8.671875 19.632812 C 8.285156 18.585938 7.835938 17.59375 7.207031 16.691406 C 6.578125 15.792969 5.769531 14.976562 4.671875 14.289062 C 4.019531 13.882812 3.015625 13.621094 2.136719 13.304688 L 2.136719 27.589844 C 2.136719 31.066406 4.933594 33.863281 8.40625 33.863281 Z M 20.171875 33.863281 "/>
<path style=" stroke:none;fill-rule:evenodd;fill:url(#radial0);" d="M 14.484375 2.136719 L 8.40625 2.136719 C 4.933594 2.136719 2.136719 4.933594 2.136719 8.40625 L 2.136719 13.304688 C 3.015625 13.621094 4.019531 13.882812 4.671875 14.289062 C 5.769531 14.976562 6.578125 15.792969 7.207031 16.691406 C 7.835938 17.59375 8.285156 18.585938 8.671875 19.632812 C 9.058594 20.679688 9.378906 21.785156 9.746094 22.910156 C 10.117188 24.035156 10.535156 25.183594 11.113281 26.320312 C 11.691406 27.457031 12.429688 28.578125 13.441406 29.660156 C 14.453125 30.738281 15.742188 31.773438 17.414062 32.730469 C 18.148438 33.148438 19.28125 33.480469 20.171875 33.863281 L 27.589844 33.863281 C 31.066406 33.863281 33.863281 31.066406 33.863281 27.589844 L 33.863281 23.257812 C 33.125 22.972656 32.21875 22.753906 31.652344 22.398438 C 30.554688 21.707031 29.746094 20.898438 29.117188 19.996094 C 28.488281 19.09375 28.039062 18.101562 27.652344 17.054688 C 27.265625 16.007812 26.945312 14.90625 26.578125 13.78125 C 26.207031 12.652344 25.789062 11.503906 25.210938 10.371094 C 24.632812 9.234375 23.894531 8.109375 22.878906 7.03125 C 21.867188 5.949219 20.578125 4.914062 18.90625 3.960938 C 17.730469 3.289062 16.082031 2.71875 14.484375 2.136719 Z M 14.484375 2.136719 "/>
<path style=" stroke:none;fill-rule:evenodd;fill:rgb(33.72549%,34.117647%,16.862745%);fill-opacity:1;" d="M 14.484375 2.136719 C 16.082031 2.71875 17.730469 3.289062 18.90625 3.960938 C 20.578125 4.914062 21.867188 5.949219 22.878906 7.03125 C 23.894531 8.109375 24.632812 9.234375 25.210938 10.371094 C 25.789062 11.503906 26.207031 12.652344 26.578125 13.78125 C 26.945312 14.90625 27.265625 16.007812 27.652344 17.054688 C 28.039062 18.101562 28.488281 19.09375 29.117188 19.996094 C 29.746094 20.898438 30.554688 21.707031 31.652344 22.398438 C 32.21875 22.753906 33.125 22.972656 33.863281 23.257812 L 33.863281 8.40625 C 33.863281 4.933594 31.066406 2.136719 27.589844 2.136719 Z M 14.484375 2.136719 "/>
<path style=" stroke:none;fill-rule:nonzero;fill:rgb(100%,100%,100%);fill-opacity:1;" d="M 17.191406 27.945312 C 17.652344 27.71875 17.714844 27.597656 17.734375 26.847656 L 17.75 26.21875 L 16.199219 26.21875 L 16.230469 27.140625 L 13.082031 27.140625 L 13.082031 24.480469 L 16.230469 24.480469 L 16.214844 24.921875 L 16.199219 25.367188 L 16.546875 25.332031 C 16.992188 25.292969 17.503906 25.046875 17.679688 24.785156 C 17.78125 24.640625 17.796875 24.566406 17.773438 24.382812 C 17.726562 24.042969 17.574219 23.839844 17.242188 23.675781 L 16.949219 23.53125 L 12.492188 23.53125 L 12.226562 23.652344 C 11.867188 23.816406 11.613281 24.097656 11.570312 24.386719 C 11.554688 24.507812 11.546875 25.230469 11.554688 25.988281 C 11.574219 27.542969 11.582031 27.574219 11.96875 27.84375 C 12.339844 28.097656 12.476562 28.113281 14.773438 28.101562 L 16.898438 28.089844 Z M 23.75 28.0625 C 24.046875 27.984375 24.355469 27.761719 24.464844 27.550781 C 24.535156 27.410156 24.554688 27.242188 24.554688 26.742188 C 24.554688 26 24.5 25.828125 24.199219 25.628906 C 23.824219 25.378906 23.558594 25.351562 21.648438 25.351562 L 19.894531 25.351562 L 19.894531 24.480469 L 22.222656 24.480469 C 24.53125 24.480469 24.554688 24.476562 24.554688 24.375 C 24.554688 24.214844 24.425781 23.953125 24.292969 23.832031 C 24.222656 23.773438 24.054688 23.679688 23.914062 23.628906 C 23.675781 23.539062 23.488281 23.53125 21.429688 23.53125 L 19.203125 23.53125 L 18.921875 23.671875 C 18.589844 23.832031 18.378906 24.117188 18.328125 24.464844 C 18.273438 24.835938 18.328125 25.5625 18.425781 25.75 C 18.539062 25.964844 18.90625 26.199219 19.234375 26.269531 C 19.386719 26.300781 20.203125 26.324219 21.253906 26.324219 L 23.015625 26.324219 L 23.015625 27.140625 L 20.65625 27.140625 C 18.523438 27.140625 18.296875 27.148438 18.324219 27.222656 C 18.34375 27.269531 18.355469 27.335938 18.355469 27.375 C 18.355469 27.585938 18.859375 27.964844 19.265625 28.058594 C 19.550781 28.125 23.488281 28.128906 23.75 28.0625 Z M 23.75 28.0625 "/>
<path style=" stroke:none;fill-rule:nonzero;fill:rgb(100%,100%,100%);fill-opacity:1;" d="M 18.203125 8.855469 C 13.597656 8.855469 9.855469 12.601562 9.855469 17.207031 C 9.855469 19.511719 10.792969 21.597656 12.304688 23.109375 L 13.671875 23.109375 C 11.902344 21.75 10.753906 19.617188 10.753906 17.207031 C 10.753906 13.085938 14.085938 9.757812 18.203125 9.757812 C 22.324219 9.757812 25.652344 13.085938 25.652344 17.207031 C 25.652344 19.617188 24.507812 21.75 22.738281 23.109375 L 24.101562 23.109375 C 25.617188 21.597656 26.554688 19.511719 26.554688 17.207031 C 26.554688 12.601562 22.808594 8.855469 18.203125 8.855469 Z M 18.203125 8.855469 "/>
<path style=" stroke:none;fill-rule:nonzero;fill:rgb(100%,100%,100%);fill-opacity:1;" d="M 20.542969 22.613281 C 20.695312 22.472656 20.660156 22.203125 20.441406 21.898438 C 20.253906 21.628906 20.253906 21.625 20.117188 20.589844 C 19.988281 19.597656 19.972656 19.539062 19.785156 19.179688 C 19.660156 18.9375 19.523438 18.757812 19.398438 18.664062 C 19.167969 18.496094 19.050781 18.191406 19.148438 18.011719 C 19.203125 17.90625 19.183594 17.863281 18.945312 17.558594 C 18.796875 17.375 18.652344 17.195312 18.617188 17.160156 C 18.582031 17.125 18.484375 16.996094 18.398438 16.875 C 18.285156 16.71875 18.214844 16.660156 18.152344 16.679688 C 18.085938 16.699219 18.0625 16.667969 18.046875 16.519531 C 18.035156 16.414062 18.007812 16.292969 17.984375 16.246094 C 17.957031 16.175781 17.972656 16.15625 18.074219 16.15625 C 18.25 16.15625 18.304688 16.03125 18.304688 15.640625 L 18.304688 15.316406 L 18.6875 15.316406 C 18.898438 15.316406 19.148438 15.292969 19.242188 15.265625 C 19.464844 15.203125 19.679688 14.996094 19.792969 14.734375 C 19.890625 14.515625 19.984375 14.472656 20.089844 14.601562 C 20.128906 14.648438 20.214844 14.671875 20.304688 14.664062 C 20.445312 14.648438 20.460938 14.628906 20.472656 14.460938 C 20.484375 14.359375 20.503906 14.277344 20.523438 14.277344 C 20.542969 14.277344 20.660156 14.515625 20.785156 14.808594 C 20.996094 15.316406 21.015625 15.339844 21.148438 15.332031 C 21.226562 15.324219 21.300781 15.308594 21.316406 15.292969 C 21.328125 15.277344 21.257812 15.039062 21.152344 14.757812 C 21.046875 14.480469 20.953125 14.226562 20.945312 14.199219 C 20.933594 14.167969 21.023438 14.105469 21.140625 14.054688 C 21.308594 13.988281 21.367188 13.929688 21.402344 13.8125 L 21.449219 13.65625 L 22.019531 13.625 C 22.332031 13.609375 22.59375 13.59375 22.601562 13.589844 C 22.605469 13.585938 22.613281 13.550781 22.613281 13.511719 C 22.613281 13.46875 22.550781 13.433594 22.453125 13.425781 C 22.292969 13.410156 22.289062 13.40625 22.277344 13.128906 C 22.273438 13.03125 22.105469 13.039062 22.019531 12.992188 C 22.019531 13.128906 22.007812 13.136719 21.820312 13.136719 C 21.675781 13.136719 21.621094 13.117188 21.621094 13.0625 C 21.621094 12.980469 21.539062 12.960938 21.515625 13.039062 C 21.507812 13.066406 21.394531 13.101562 21.261719 13.117188 L 21.027344 13.152344 L 21.027344 13 C 21.027344 12.917969 20.996094 12.839844 20.960938 12.824219 C 20.882812 12.792969 20.78125 12.878906 20.78125 12.972656 C 20.78125 13.023438 20.660156 13.039062 20.285156 13.039062 L 19.789062 13.039062 L 19.789062 12.890625 C 19.789062 12.753906 19.777344 12.742188 19.617188 12.742188 C 19.503906 12.742188 19.445312 12.765625 19.445312 12.808594 C 19.445312 12.894531 19.335938 12.941406 19.144531 12.941406 C 19.050781 12.941406 18.984375 12.976562 18.949219 13.039062 C 18.878906 13.167969 18.574219 13.183594 18.625 13.054688 C 18.925781 12.269531 18.496094 11.527344 17.746094 11.546875 C 17.265625 11.558594 16.96875 11.96875 16.96875 12.625 C 16.96875 12.972656 16.96875 12.976562 16.808594 13.042969 C 16.285156 13.257812 15.910156 14.089844 15.929688 14.992188 C 15.9375 15.277344 15.910156 15.574219 15.851562 15.8125 C 15.796875 16.058594 15.761719 16.425781 15.753906 16.925781 C 15.746094 17.605469 15.730469 17.722656 15.570312 18.285156 C 15.425781 18.804688 15.328125 19.25 15.207031 19.949219 C 15.195312 20.003906 15.066406 20.136719 14.914062 20.242188 C 14.617188 20.445312 14.414062 20.671875 14.257812 20.984375 L 14.15625 21.183594 L 14.335938 21.652344 C 14.5625 22.238281 14.558594 22.234375 14.773438 22.292969 C 14.90625 22.332031 14.992188 22.324219 15.117188 22.273438 L 15.285156 22.203125 L 15.285156 21.457031 L 15.484375 21.457031 C 15.914062 21.457031 16.242188 20.960938 16.671875 19.664062 C 17.054688 18.5 17.171875 18.1875 17.222656 18.1875 C 17.246094 18.1875 17.265625 18.210938 17.265625 18.238281 C 17.265625 18.265625 17.355469 18.429688 17.464844 18.601562 C 17.691406 18.964844 18.074219 19.34375 18.464844 19.59375 C 18.707031 19.75 18.742188 19.789062 18.769531 19.980469 C 18.789062 20.097656 18.894531 20.460938 19.003906 20.789062 C 19.113281 21.113281 19.234375 21.554688 19.273438 21.765625 C 19.359375 22.261719 19.464844 22.402344 19.851562 22.5625 C 20.214844 22.710938 20.417969 22.726562 20.542969 22.613281 Z M 18.574219 14.164062 C 18.589844 14.050781 18.640625 13.925781 18.6875 13.894531 C 18.855469 13.765625 19.542969 13.855469 19.542969 14.003906 C 19.542969 14.074219 19.390625 14.125 19.1875 14.128906 C 19.105469 14.128906 19.019531 14.175781 18.957031 14.25 C 18.890625 14.339844 18.8125 14.375 18.699219 14.375 L 18.539062 14.375 Z M 18.574219 14.164062 "/>
</g>
</svg>
