<?xml version="1.0" encoding="UTF-8"?>
<svg xmlns="http://www.w3.org/2000/svg" xmlns:xlink="http://www.w3.org/1999/xlink" width="36pt" height="36pt" viewBox="0 0 36 36" version="1.1">
<g id="surface1">
<path style=" stroke:none;fill-rule:evenodd;fill:rgb(89.019608%,74.901961%,12.54902%);fill-opacity:1;" d="M 33.863281 12.425781 L 22.679688 14.496094 L 33.824219 27.800781 C 33.824219 27.726562 33.863281 27.667969 33.863281 27.59375 Z M 33.863281 12.425781 "/>
<path style=" stroke:none;fill-rule:evenodd;fill:rgb(15.686275%,63.529412%,14.901961%);fill-opacity:1;" d="M 32.738281 30.949219 L 23.417969 20.246094 L 18.265625 33.863281 L 27.59375 33.863281 C 29.800781 33.863281 31.632812 32.667969 32.738281 30.949219 Z M 32.738281 30.949219 "/>
<path style=" stroke:none;fill-rule:evenodd;fill:rgb(16.078431%,46.666667%,81.960784%);fill-opacity:1;" d="M 15.128906 33.863281 L 18.734375 23.75 L 2.136719 26.5 L 2.136719 27.59375 C 2.136719 31.066406 4.933594 33.863281 8.40625 33.863281 Z M 15.128906 33.863281 "/>
<path style=" stroke:none;fill-rule:evenodd;fill:rgb(75.294118%,16.078431%,75.294118%);fill-opacity:1;" d="M 2.136719 23.574219 L 13.320312 21.503906 L 2.175781 8.199219 C 2.175781 8.273438 2.136719 8.332031 2.136719 8.40625 Z M 2.136719 23.574219 "/>
<path style=" stroke:none;fill-rule:evenodd;fill:rgb(20.392157%,20.392157%,20.392157%);fill-opacity:1;" d="M 3.261719 5.050781 C 2.664062 5.980469 2.21875 7.015625 2.175781 8.199219 L 13.320312 21.503906 L 2.136719 23.574219 L 2.136719 26.5 L 18.734375 23.75 L 15.128906 33.863281 L 18.265625 33.863281 L 23.417969 20.246094 L 32.738281 30.949219 C 33.335938 30.019531 33.78125 28.984375 33.824219 27.800781 L 22.679688 14.496094 L 33.863281 12.425781 L 33.863281 9.5 L 17.265625 12.253906 L 20.867188 2.136719 L 17.734375 2.136719 L 12.582031 15.753906 Z M 3.261719 5.050781 "/>
<path style=" stroke:none;fill-rule:evenodd;fill:rgb(75.294118%,9.019608%,15.686275%);fill-opacity:1;" d="M 3.261719 5.050781 L 12.582031 15.753906 L 17.734375 2.136719 L 8.40625 2.136719 C 6.199219 2.136719 4.367188 3.332031 3.261719 5.050781 Z M 3.261719 5.050781 "/>
<path style=" stroke:none;fill-rule:evenodd;fill:rgb(91.372549%,44.705882%,10.196078%);fill-opacity:1;" d="M 20.867188 2.136719 L 17.265625 12.253906 L 33.863281 9.5 L 33.863281 8.40625 C 33.863281 4.933594 31.066406 2.136719 27.59375 2.136719 Z M 20.867188 2.136719 "/>
</g>
</svg>
