<?xml version="1.0" encoding="UTF-8"?>
<svg xmlns="http://www.w3.org/2000/svg" xmlns:xlink="http://www.w3.org/1999/xlink" width="36pt" height="36pt" viewBox="0 0 36 36" version="1.1">
<g id="surface1">
<path style=" stroke:none;fill-rule:evenodd;fill:rgb(55.686275%,55.686275%,55.686275%);fill-opacity:1;" d="M 8.40625 2.136719 L 27.59375 2.136719 C 31.054688 2.136719 33.863281 4.945312 33.863281 8.40625 L 33.863281 27.59375 C 33.863281 31.054688 31.054688 33.863281 27.59375 33.863281 L 8.40625 33.863281 C 4.945312 33.863281 2.136719 31.054688 2.136719 27.59375 L 2.136719 8.40625 C 2.136719 4.945312 4.945312 2.136719 8.40625 2.136719 Z M 8.40625 2.136719 "/>
<path style=" stroke:none;fill-rule:evenodd;fill:rgb(55.686275%,55.686275%,55.686275%);fill-opacity:1;" d="M 33.863281 21.457031 L 33.863281 8.40625 C 33.863281 4.933594 31.066406 2.132812 27.59375 2.132812 L 18.183594 2.132812 C 19.226562 2.144531 20.210938 2.257812 21.132812 2.492188 C 22.085938 2.734375 22.976562 3.089844 23.808594 3.539062 C 24.640625 3.992188 25.414062 4.539062 26.128906 5.167969 C 26.847656 5.796875 27.511719 6.507812 28.121094 7.28125 C 29.34375 8.828125 30.359375 10.632812 31.207031 12.566406 C 32.054688 14.5 32.734375 16.5625 33.277344 18.628906 C 33.53125 19.589844 33.667969 20.507812 33.863281 21.457031 Z M 33.863281 21.457031 "/>
<path style=" stroke:none;fill-rule:evenodd;fill:rgb(55.686275%,55.686275%,55.686275%);fill-opacity:1;" d="M 17.96875 2.132812 L 8.410156 2.132812 C 4.933594 2.132812 2.136719 4.933594 2.136719 8.40625 L 2.136719 22.183594 C 2.367188 21 2.554688 19.839844 2.871094 18.628906 C 3.414062 16.5625 4.09375 14.5 4.941406 12.566406 C 5.789062 10.632812 6.808594 8.828125 8.03125 7.28125 C 8.640625 6.507812 9.300781 5.796875 10.019531 5.167969 C 10.738281 4.539062 11.507812 3.992188 12.339844 3.539062 C 13.171875 3.089844 14.0625 2.734375 15.015625 2.492188 C 15.9375 2.257812 16.925781 2.144531 17.96875 2.132812 Z M 17.96875 2.132812 "/>
<path style=" stroke:none;fill-rule:evenodd;fill:rgb(73.333333%,26.666667%,60%);fill-opacity:1;" d="M 17.96875 2.132812 C 16.925781 2.144531 15.9375 2.257812 15.015625 2.492188 C 14.0625 2.734375 13.171875 3.089844 12.339844 3.539062 C 11.507812 3.992188 10.738281 4.539062 10.019531 5.167969 C 9.300781 5.796875 8.640625 6.507812 8.03125 7.28125 C 6.808594 8.828125 5.789062 10.632812 4.941406 12.566406 C 4.09375 14.5 3.414062 16.5625 2.871094 18.628906 C 2.554688 19.839844 2.367188 21 2.136719 22.183594 L 2.136719 27.59375 C 2.136719 31.066406 4.933594 33.867188 8.410156 33.867188 L 27.59375 33.867188 C 31.066406 33.867188 33.863281 31.066406 33.863281 27.59375 L 33.863281 21.457031 C 33.667969 20.507812 33.53125 19.589844 33.277344 18.628906 C 32.734375 16.5625 32.054688 14.5 31.207031 12.566406 C 30.359375 10.632812 29.34375 8.828125 28.121094 7.28125 C 27.511719 6.507812 26.847656 5.796875 26.128906 5.167969 C 25.414062 4.539062 24.640625 3.992188 23.808594 3.539062 C 22.976562 3.089844 22.085938 2.734375 21.132812 2.492188 C 20.210938 2.257812 19.226562 2.144531 18.183594 2.132812 Z M 17.96875 2.132812 "/>
<path style=" stroke:none;fill-rule:nonzero;fill:rgb(41.176471%,88.627451%,49.019608%);fill-opacity:1;" d="M 28.003906 19.496094 C 28.003906 24.980469 23.558594 29.425781 18.074219 29.425781 C 12.59375 29.425781 8.148438 24.980469 8.148438 19.496094 C 8.148438 15.820312 10.144531 12.609375 13.117188 10.894531 C 14.578125 10.050781 16.160156 12.335938 17.964844 12.335938 C 19.835938 12.335938 21.699219 10.085938 23.191406 10.988281 C 26.074219 12.722656 28.003906 15.886719 28.003906 19.496094 Z M 28.003906 19.496094 "/>
<path style=" stroke:none;fill-rule:nonzero;fill:rgb(0%,63.529412%,0%);fill-opacity:1;" d="M 24.28125 19.496094 C 24.28125 22.925781 21.503906 25.703125 18.074219 25.703125 C 14.648438 25.703125 11.871094 22.925781 11.871094 19.496094 C 11.871094 16.070312 14.648438 13.292969 18.074219 13.292969 C 21.503906 13.292969 24.28125 16.070312 24.28125 19.496094 Z M 24.28125 19.496094 "/>
<path style="fill:none;stroke-width:3;stroke-linecap:round;stroke-linejoin:round;stroke:rgb(24.705882%,24.705882%,24.705882%);stroke-opacity:1;stroke-miterlimit:4;" d="M -42.156032 12.996636 C -42.156032 12.996636 -39.482421 10.777886 -37.520615 10.791775 C -34.985893 10.809136 -33.107421 14.100803 -30.572699 14.100803 C -28.037977 14.100803 -26.156032 10.809136 -23.62131 10.791775 C -21.662977 10.777886 -18.989365 12.996636 -18.989365 12.996636 " transform="matrix(1.125,0,0,1.125,52.468505,-3.191528)"/>
</g>
</svg>
