<?xml version="1.0" encoding="UTF-8"?>
<svg xmlns="http://www.w3.org/2000/svg" xmlns:xlink="http://www.w3.org/1999/xlink" width="36pt" height="36pt" viewBox="0 0 36 36" version="1.1">
<g id="surface1">
<path style=" stroke:none;fill-rule:evenodd;fill:rgb(20%,20%,20%);fill-opacity:1;" d="M 8.40625 2.136719 L 27.59375 2.136719 C 31.054688 2.136719 33.863281 4.945312 33.863281 8.40625 L 33.863281 27.59375 C 33.863281 31.054688 31.054688 33.863281 27.59375 33.863281 L 8.40625 33.863281 C 4.945312 33.863281 2.136719 31.054688 2.136719 27.59375 L 2.136719 8.40625 C 2.136719 4.945312 4.945312 2.136719 8.40625 2.136719 Z M 8.40625 2.136719 "/>
<path style=" stroke:none;fill-rule:nonzero;fill:rgb(57.647059%,20%,20%);fill-opacity:1;" d="M 5.574219 26.285156 L 9.714844 26.285156 L 9.714844 28.355469 L 5.574219 28.355469 Z M 5.574219 26.285156 "/>
<path style=" stroke:none;fill-rule:nonzero;fill:rgb(57.647059%,20%,20%);fill-opacity:1;" d="M 5.574219 23.179688 L 9.714844 23.179688 L 9.714844 25.25 L 5.574219 25.25 Z M 5.574219 23.179688 "/>
<path style=" stroke:none;fill-rule:nonzero;fill:rgb(57.647059%,20%,20%);fill-opacity:1;" d="M 5.574219 20.070312 L 9.714844 20.070312 L 9.714844 22.140625 L 5.574219 22.140625 Z M 5.574219 20.070312 "/>
<path style=" stroke:none;fill-rule:nonzero;fill:rgb(97.254902%,51.372549%,51.372549%);fill-opacity:1;" d="M 5.574219 16.964844 L 9.714844 16.964844 L 9.714844 19.035156 L 5.574219 19.035156 Z M 5.574219 16.964844 "/>
<path style=" stroke:none;fill-rule:nonzero;fill:rgb(97.254902%,51.372549%,51.372549%);fill-opacity:1;" d="M 5.574219 13.859375 L 9.714844 13.859375 L 9.714844 15.929688 L 5.574219 15.929688 Z M 5.574219 13.859375 "/>
<path style=" stroke:none;fill-rule:nonzero;fill:rgb(90.980392%,66.666667%,20.392157%);fill-opacity:1;" d="M 10.75 26.285156 L 14.894531 26.285156 L 14.894531 28.355469 L 10.75 28.355469 Z M 10.75 26.285156 "/>
<path style=" stroke:none;fill-rule:nonzero;fill:rgb(90.980392%,66.666667%,20.392157%);fill-opacity:1;" d="M 10.75 23.179688 L 14.894531 23.179688 L 14.894531 25.25 L 10.75 25.25 Z M 10.75 23.179688 "/>
<path style=" stroke:none;fill-rule:nonzero;fill:rgb(90.980392%,66.666667%,20.392157%);fill-opacity:1;" d="M 10.75 20.070312 L 14.894531 20.070312 L 14.894531 22.140625 L 10.75 22.140625 Z M 10.75 20.070312 "/>
<path style=" stroke:none;fill-rule:nonzero;fill:rgb(46.27451%,9.411765%,36.862745%);fill-opacity:1;" d="M 15.929688 26.285156 L 20.070312 26.285156 L 20.070312 28.355469 L 15.929688 28.355469 Z M 15.929688 26.285156 "/>
<path style=" stroke:none;fill-rule:nonzero;fill:rgb(46.27451%,9.411765%,36.862745%);fill-opacity:1;" d="M 15.929688 23.179688 L 20.070312 23.179688 L 20.070312 25.25 L 15.929688 25.25 Z M 15.929688 23.179688 "/>
<path style=" stroke:none;fill-rule:nonzero;fill:rgb(46.27451%,9.411765%,36.862745%);fill-opacity:1;" d="M 15.929688 20.070312 L 20.070312 20.070312 L 20.070312 22.140625 L 15.929688 22.140625 Z M 15.929688 20.070312 "/>
<path style=" stroke:none;fill-rule:nonzero;fill:rgb(88.627451%,44.705882%,77.254902%);fill-opacity:1;" d="M 15.929688 16.964844 L 20.070312 16.964844 L 20.070312 19.035156 L 15.929688 19.035156 Z M 15.929688 16.964844 "/>
<path style=" stroke:none;fill-rule:nonzero;fill:rgb(88.627451%,44.705882%,77.254902%);fill-opacity:1;" d="M 15.929688 13.859375 L 20.070312 13.859375 L 20.070312 15.929688 L 15.929688 15.929688 Z M 15.929688 13.859375 "/>
<path style=" stroke:none;fill-rule:nonzero;fill:rgb(88.627451%,44.705882%,77.254902%);fill-opacity:1;" d="M 15.929688 10.75 L 20.070312 10.75 L 20.070312 12.820312 L 15.929688 12.820312 Z M 15.929688 10.75 "/>
<path style=" stroke:none;fill-rule:nonzero;fill:rgb(29.019608%,69.803922%,14.509804%);fill-opacity:1;" d="M 21.105469 26.285156 L 25.25 26.285156 L 25.25 28.355469 L 21.105469 28.355469 Z M 21.105469 26.285156 "/>
<path style=" stroke:none;fill-rule:nonzero;fill:rgb(29.019608%,69.803922%,14.509804%);fill-opacity:1;" d="M 21.105469 23.179688 L 25.25 23.179688 L 25.25 25.25 L 21.105469 25.25 Z M 21.105469 23.179688 "/>
<path style=" stroke:none;fill-rule:nonzero;fill:rgb(29.019608%,69.803922%,14.509804%);fill-opacity:1;" d="M 21.105469 20.070312 L 25.25 20.070312 L 25.25 22.140625 L 21.105469 22.140625 Z M 21.105469 20.070312 "/>
<path style=" stroke:none;fill-rule:nonzero;fill:rgb(59.607843%,91.372549%,48.235294%);fill-opacity:1;" d="M 21.105469 16.964844 L 25.25 16.964844 L 25.25 19.035156 L 21.105469 19.035156 Z M 21.105469 16.964844 "/>
<path style=" stroke:none;fill-rule:nonzero;fill:rgb(59.607843%,91.372549%,48.235294%);fill-opacity:1;" d="M 21.105469 13.859375 L 25.25 13.859375 L 25.25 15.929688 L 21.105469 15.929688 Z M 21.105469 13.859375 "/>
<path style=" stroke:none;fill-rule:nonzero;fill:rgb(5.882353%,23.137255%,58.431373%);fill-opacity:1;" d="M 26.285156 26.285156 L 30.425781 26.285156 L 30.425781 28.355469 L 26.285156 28.355469 Z M 26.285156 26.285156 "/>
<path style=" stroke:none;fill-rule:nonzero;fill:rgb(5.882353%,23.137255%,58.431373%);fill-opacity:1;" d="M 26.285156 23.179688 L 30.425781 23.179688 L 30.425781 25.25 L 26.285156 25.25 Z M 26.285156 23.179688 "/>
<path style=" stroke:none;fill-rule:nonzero;fill:rgb(5.882353%,23.137255%,58.431373%);fill-opacity:1;" d="M 26.285156 20.070312 L 30.425781 20.070312 L 30.425781 22.140625 L 26.285156 22.140625 Z M 26.285156 20.070312 "/>
<path style=" stroke:none;fill-rule:nonzero;fill:rgb(30.980392%,76.078431%,88.235294%);fill-opacity:1;" d="M 26.285156 16.964844 L 30.425781 16.964844 L 30.425781 19.035156 L 26.285156 19.035156 Z M 26.285156 16.964844 "/>
<path style=" stroke:none;fill-rule:nonzero;fill:rgb(30.980392%,76.078431%,88.235294%);fill-opacity:1;" d="M 26.285156 13.859375 L 30.425781 13.859375 L 30.425781 15.929688 L 26.285156 15.929688 Z M 26.285156 13.859375 "/>
<path style=" stroke:none;fill-rule:nonzero;fill:rgb(30.980392%,76.078431%,88.235294%);fill-opacity:1;" d="M 26.285156 10.886719 L 30.425781 10.886719 L 30.425781 12.820312 L 26.285156 12.820312 Z M 26.285156 10.886719 "/>
<path style=" stroke:none;fill-rule:nonzero;fill:rgb(30.980392%,76.078431%,88.235294%);fill-opacity:1;" d="M 26.285156 7.644531 L 30.425781 7.644531 L 30.425781 9.714844 L 26.285156 9.714844 Z M 26.285156 7.644531 "/>
</g>
</svg>
