<?xml version="1.0" encoding="UTF-8"?>
<svg xmlns="http://www.w3.org/2000/svg" xmlns:xlink="http://www.w3.org/1999/xlink" width="36pt" height="36pt" viewBox="0 0 36 36" version="1.1">
<defs>
<filter id="alpha" filterUnits="objectBoundingBox" x="0%" y="0%" width="100%" height="100%">
  <feColorMatrix type="matrix" in="SourceGraphic" values="0 0 0 0 1 0 0 0 0 1 0 0 0 0 1 0 0 0 1 0"/>
</filter>
<mask id="mask0">
  <g filter="url(#alpha)">
<rect x="0" y="0" width="36" height="36" style="fill:rgb(0%,0%,0%);fill-opacity:0.2;stroke:none;"/>
  </g>
</mask>
<clipPath id="clip1">
  <rect width="36" height="36"/>
</clipPath>
<g id="surface6" clip-path="url(#clip1)">
<path style=" stroke:none;fill-rule:nonzero;fill:rgb(0%,0%,0%);fill-opacity:1;" d="M 4.785156 13.933594 L 8.851562 13.933594 L 8.851562 14.949219 L 4.785156 14.949219 Z M 4.785156 13.933594 "/>
</g>
<mask id="mask1">
  <g filter="url(#alpha)">
<rect x="0" y="0" width="36" height="36" style="fill:rgb(0%,0%,0%);fill-opacity:0.2;stroke:none;"/>
  </g>
</mask>
<clipPath id="clip2">
  <rect width="36" height="36"/>
</clipPath>
<g id="surface9" clip-path="url(#clip2)">
<path style=" stroke:none;fill-rule:nonzero;fill:rgb(0%,0%,0%);fill-opacity:1;" d="M 4.785156 11.902344 L 8.851562 11.902344 L 8.851562 12.917969 L 4.785156 12.917969 Z M 4.785156 11.902344 "/>
</g>
<mask id="mask2">
  <g filter="url(#alpha)">
<rect x="0" y="0" width="36" height="36" style="fill:rgb(0%,0%,0%);fill-opacity:0.2;stroke:none;"/>
  </g>
</mask>
<clipPath id="clip3">
  <rect width="36" height="36"/>
</clipPath>
<g id="surface12" clip-path="url(#clip3)">
<path style=" stroke:none;fill-rule:nonzero;fill:rgb(0%,0%,0%);fill-opacity:1;" d="M 4.785156 9.867188 L 8.851562 9.867188 L 8.851562 10.886719 L 4.785156 10.886719 Z M 4.785156 9.867188 "/>
</g>
<mask id="mask3">
  <g filter="url(#alpha)">
<rect x="0" y="0" width="36" height="36" style="fill:rgb(0%,0%,0%);fill-opacity:0.2;stroke:none;"/>
  </g>
</mask>
<clipPath id="clip4">
  <rect width="36" height="36"/>
</clipPath>
<g id="surface15" clip-path="url(#clip4)">
<path style=" stroke:none;fill-rule:nonzero;fill:rgb(0%,0%,0%);fill-opacity:1;" d="M 27.148438 13.933594 L 31.214844 13.933594 L 31.214844 14.949219 L 27.148438 14.949219 Z M 27.148438 13.933594 "/>
</g>
<mask id="mask4">
  <g filter="url(#alpha)">
<rect x="0" y="0" width="36" height="36" style="fill:rgb(0%,0%,0%);fill-opacity:0.2;stroke:none;"/>
  </g>
</mask>
<clipPath id="clip5">
  <rect width="36" height="36"/>
</clipPath>
<g id="surface18" clip-path="url(#clip5)">
<path style=" stroke:none;fill-rule:nonzero;fill:rgb(0%,0%,0%);fill-opacity:1;" d="M 27.148438 11.902344 L 31.214844 11.902344 L 31.214844 12.917969 L 27.148438 12.917969 Z M 27.148438 11.902344 "/>
</g>
<mask id="mask5">
  <g filter="url(#alpha)">
<rect x="0" y="0" width="36" height="36" style="fill:rgb(0%,0%,0%);fill-opacity:0.2;stroke:none;"/>
  </g>
</mask>
<clipPath id="clip6">
  <rect width="36" height="36"/>
</clipPath>
<g id="surface21" clip-path="url(#clip6)">
<path style=" stroke:none;fill-rule:nonzero;fill:rgb(0%,0%,0%);fill-opacity:1;" d="M 27.148438 9.867188 L 31.214844 9.867188 L 31.214844 10.886719 L 27.148438 10.886719 Z M 27.148438 9.867188 "/>
</g>
</defs>
<g id="surface1">
<path style=" stroke:none;fill-rule:evenodd;fill:rgb(39.215686%,41.176471%,73.333333%);fill-opacity:1;" d="M 2.136719 18 L 2.136719 27.589844 C 2.136719 31.066406 4.933594 33.863281 8.40625 33.863281 L 27.589844 33.863281 C 31.066406 33.863281 33.863281 31.066406 33.863281 27.589844 L 33.863281 18 Z M 2.136719 18 "/>
<path style=" stroke:none;fill-rule:evenodd;fill:rgb(57.254902%,57.647059%,100%);fill-opacity:1;" d="M 2.136719 18 L 33.863281 18 L 33.863281 8.40625 C 33.863281 4.933594 31.066406 2.136719 27.589844 2.136719 L 8.40625 2.136719 C 4.933594 2.136719 2.136719 4.933594 2.136719 8.40625 Z M 2.136719 18 "/>
<path style=" stroke:none;fill-rule:nonzero;fill:rgb(24.313725%,24.313725%,24.313725%);fill-opacity:1;" d="M 9.867188 5.800781 L 26.132812 5.800781 L 26.132812 14.949219 L 9.867188 14.949219 M 9.867188 5.800781 "/>
<path style=" stroke:none;fill-rule:nonzero;fill:rgb(24.313725%,24.313725%,24.313725%);fill-opacity:1;" d="M 11.902344 21.050781 L 24.097656 21.050781 L 24.097656 30.199219 L 11.902344 30.199219 M 11.902344 21.050781 "/>
<path style=" stroke:none;fill-rule:nonzero;fill:rgb(80%,80%,80%);fill-opacity:1;" d="M 6.820312 22.066406 L 8.851562 22.066406 L 8.851562 28.164062 L 6.820312 28.164062 Z M 6.820312 22.066406 "/>
<path style=" stroke:none;fill-rule:nonzero;fill:rgb(80%,80%,80%);fill-opacity:1;" d="M 10.886719 24.097656 L 10.886719 26.132812 L 4.785156 26.132812 L 4.785156 24.097656 Z M 10.886719 24.097656 "/>
<path style=" stroke:none;fill-rule:nonzero;fill:rgb(80%,80%,80%);fill-opacity:1;" d="M 31.214844 25.113281 C 31.214844 25.675781 30.757812 26.132812 30.199219 26.132812 C 29.636719 26.132812 29.179688 25.675781 29.179688 25.113281 C 29.179688 24.554688 29.636719 24.097656 30.199219 24.097656 C 30.757812 24.097656 31.214844 24.554688 31.214844 25.113281 Z M 31.214844 25.113281 "/>
<path style=" stroke:none;fill-rule:nonzero;fill:rgb(80%,80%,80%);fill-opacity:1;" d="M 27.148438 25.113281 C 27.148438 25.675781 26.691406 26.132812 26.132812 26.132812 C 25.570312 26.132812 25.113281 25.675781 25.113281 25.113281 C 25.113281 24.554688 25.570312 24.097656 26.132812 24.097656 C 26.691406 24.097656 27.148438 24.554688 27.148438 25.113281 Z M 27.148438 25.113281 "/>
<path style=" stroke:none;fill-rule:nonzero;fill:rgb(80%,80%,80%);fill-opacity:1;" d="M 28.164062 24.097656 C 27.601562 24.097656 27.148438 23.644531 27.148438 23.082031 C 27.148438 22.519531 27.601562 22.066406 28.164062 22.066406 C 28.726562 22.066406 29.179688 22.519531 29.179688 23.082031 C 29.179688 23.644531 28.726562 24.097656 28.164062 24.097656 Z M 28.164062 24.097656 "/>
<path style=" stroke:none;fill-rule:nonzero;fill:rgb(80%,80%,80%);fill-opacity:1;" d="M 28.164062 28.164062 C 27.601562 28.164062 27.148438 27.710938 27.148438 27.148438 C 27.148438 26.585938 27.601562 26.132812 28.164062 26.132812 C 28.726562 26.132812 29.179688 26.585938 29.179688 27.148438 C 29.179688 27.710938 28.726562 28.164062 28.164062 28.164062 Z M 28.164062 28.164062 "/>
<use xlink:href="#surface6" mask="url(#mask0)"/>
<use xlink:href="#surface9" mask="url(#mask1)"/>
<use xlink:href="#surface12" mask="url(#mask2)"/>
<use xlink:href="#surface15" mask="url(#mask3)"/>
<use xlink:href="#surface18" mask="url(#mask4)"/>
<use xlink:href="#surface21" mask="url(#mask5)"/>
</g>
</svg>
