<?xml version="1.0" encoding="UTF-8"?>
<svg xmlns="http://www.w3.org/2000/svg" xmlns:xlink="http://www.w3.org/1999/xlink" width="36pt" height="36pt" viewBox="0 0 36 36" version="1.1">
<g id="surface1">
<path style=" stroke:none;fill-rule:evenodd;fill:rgb(50.980392%,43.529412%,23.921569%);fill-opacity:1;" d="M 8.40625 2.136719 L 27.59375 2.136719 C 31.054688 2.136719 33.863281 4.945312 33.863281 8.40625 L 33.863281 27.59375 C 33.863281 31.054688 31.054688 33.863281 27.59375 33.863281 L 8.40625 33.863281 C 4.945312 33.863281 2.136719 31.054688 2.136719 27.59375 L 2.136719 8.40625 C 2.136719 4.945312 4.945312 2.136719 8.40625 2.136719 Z M 8.40625 2.136719 "/>
<path style=" stroke:none;fill-rule:nonzero;fill:rgb(100%,100%,100%);fill-opacity:1;" d="M 5.265625 7.386719 L 30.734375 7.386719 L 30.734375 22.246094 L 5.265625 22.246094 Z M 5.265625 7.386719 "/>
<path style=" stroke:none;fill-rule:nonzero;fill:rgb(100%,43.137255%,43.137255%);fill-opacity:1;" d="M 15.878906 13.753906 L 15.878906 15.878906 L 9.511719 15.878906 L 9.511719 13.753906 Z M 15.878906 13.753906 "/>
<path style=" stroke:none;fill-rule:nonzero;fill:rgb(100%,43.137255%,43.137255%);fill-opacity:1;" d="M 15.878906 9.511719 L 15.878906 11.632812 L 9.511719 11.632812 L 9.511719 9.511719 Z M 15.878906 9.511719 "/>
<path style=" stroke:none;fill-rule:nonzero;fill:rgb(100%,43.137255%,43.137255%);fill-opacity:1;" d="M 9.511719 9.511719 L 11.632812 9.511719 L 11.632812 20.121094 L 9.511719 20.121094 Z M 9.511719 9.511719 "/>
<path style=" stroke:none;fill-rule:nonzero;fill:rgb(0.392157%,85.098039%,0%);fill-opacity:1;" d="M 30.734375 27.019531 C 30.734375 27.898438 30.019531 28.613281 29.140625 28.613281 C 28.261719 28.613281 27.550781 27.898438 27.550781 27.019531 C 27.550781 26.140625 28.261719 25.429688 29.140625 25.429688 C 30.019531 25.429688 30.734375 26.140625 30.734375 27.019531 Z M 30.734375 27.019531 "/>
<path style=" stroke:none;fill-rule:nonzero;fill:rgb(58.431373%,51.764706%,22.352941%);fill-opacity:1;" d="M 5.265625 23.304688 L 20.121094 23.304688 L 20.121094 24.367188 L 5.265625 24.367188 Z M 5.265625 23.304688 "/>
<path style=" stroke:none;fill-rule:nonzero;fill:rgb(100%,43.137255%,43.137255%);fill-opacity:1;" d="M 19.0625 20.121094 L 16.9375 20.121094 L 16.9375 13.753906 L 19.0625 13.753906 Z M 19.0625 20.121094 "/>
<path style=" stroke:none;fill-rule:nonzero;fill:rgb(100%,43.137255%,43.137255%);fill-opacity:1;" d="M 23.304688 20.121094 L 21.183594 20.121094 L 21.183594 13.753906 L 23.304688 13.753906 Z M 23.304688 20.121094 "/>
<path style=" stroke:none;fill-rule:nonzero;fill:rgb(100%,43.137255%,43.137255%);fill-opacity:1;" d="M 27.550781 20.121094 L 25.429688 20.121094 L 25.429688 13.753906 L 27.550781 13.753906 Z M 27.550781 20.121094 "/>
<path style=" stroke:none;fill-rule:nonzero;fill:rgb(100%,43.137255%,43.137255%);fill-opacity:1;" d="M 27.550781 13.753906 L 27.550781 15.878906 L 16.9375 15.878906 L 16.9375 13.753906 Z M 27.550781 13.753906 "/>
<path style=" stroke:none;fill-rule:nonzero;fill:rgb(58.431373%,51.764706%,22.352941%);fill-opacity:1;" d="M 5.265625 25.429688 L 20.121094 25.429688 L 20.121094 26.488281 L 5.265625 26.488281 Z M 5.265625 25.429688 "/>
<path style=" stroke:none;fill-rule:nonzero;fill:rgb(58.431373%,51.764706%,22.352941%);fill-opacity:1;" d="M 5.265625 27.550781 L 20.121094 27.550781 L 20.121094 28.613281 L 5.265625 28.613281 Z M 5.265625 27.550781 "/>
</g>
</svg>
