<?xml version="1.0" encoding="UTF-8"?>
<svg xmlns="http://www.w3.org/2000/svg" xmlns:xlink="http://www.w3.org/1999/xlink" width="36pt" height="36pt" viewBox="0 0 36 36" version="1.1">
<g id="surface1">
<path style=" stroke:none;fill-rule:evenodd;fill:rgb(96.862745%,39.215686%,39.215686%);fill-opacity:1;" d="M 8.40625 2.136719 L 27.59375 2.136719 C 31.054688 2.136719 33.863281 4.945312 33.863281 8.40625 L 33.863281 27.59375 C 33.863281 31.054688 31.054688 33.863281 27.59375 33.863281 L 8.40625 33.863281 C 4.945312 33.863281 2.136719 31.054688 2.136719 27.59375 L 2.136719 8.40625 C 2.136719 4.945312 4.945312 2.136719 8.40625 2.136719 Z M 8.40625 2.136719 "/>
<path style=" stroke:none;fill-rule:nonzero;fill:rgb(100%,100%,100%);fill-opacity:1;" d="M 18 7.3125 C 15.515625 7.3125 13.5 9.328125 13.5 11.8125 C 13.5 14.296875 15.515625 16.3125 18 16.3125 C 20.484375 16.3125 22.5 14.296875 22.5 11.8125 C 22.5 9.328125 20.484375 7.3125 18 7.3125 Z M 18 7.3125 "/>
<path style=" stroke:none;fill-rule:nonzero;fill:rgb(100%,100%,100%);fill-opacity:1;" d="M 18 18.5625 C 10.125 18.566406 10.125 23.546875 10.125 23.546875 L 10.125 25.570312 C 10.125 25.570312 11.578125 28.6875 18 28.6875 C 24.421875 28.6875 25.875 25.570312 25.875 25.570312 L 25.875 23.546875 C 25.875 23.546875 25.875 18.558594 18 18.5625 Z M 18 18.5625 "/>
</g>
</svg>
