<?xml version="1.0" encoding="UTF-8"?>
<svg xmlns="http://www.w3.org/2000/svg" xmlns:xlink="http://www.w3.org/1999/xlink" width="36pt" height="36pt" viewBox="0 0 36 36" version="1.1">
<g id="surface1">
<path style=" stroke:none;fill-rule:evenodd;fill:rgb(80%,80%,80%);fill-opacity:1;" d="M 8.40625 2.136719 L 27.59375 2.136719 C 31.054688 2.136719 33.863281 4.945312 33.863281 8.40625 L 33.863281 27.59375 C 33.863281 31.054688 31.054688 33.863281 27.59375 33.863281 L 8.40625 33.863281 C 4.945312 33.863281 2.136719 31.054688 2.136719 27.59375 L 2.136719 8.40625 C 2.136719 4.945312 4.945312 2.136719 8.40625 2.136719 Z M 8.40625 2.136719 "/>
<path style=" stroke:none;fill-rule:nonzero;fill:rgb(30.980392%,30.980392%,30.980392%);fill-opacity:1;" d="M 7.929688 13.421875 L 28.070312 13.421875 L 28.070312 22.578125 L 7.929688 22.578125 Z M 7.929688 13.421875 "/>
<path style=" stroke:none;fill-rule:nonzero;fill:rgb(100%,100%,100%);fill-opacity:1;" d="M 18 5.179688 C 12.175781 5.179688 7.304688 9.035156 5.734375 14.335938 L 30.265625 14.335938 C 28.695312 9.035156 23.824219 5.179688 18 5.179688 Z M 5.734375 21.664062 C 7.308594 26.964844 12.175781 30.820312 18 30.820312 C 23.824219 30.820312 28.695312 26.964844 30.265625 21.664062 Z M 5.734375 21.664062 "/>
<path style=" stroke:none;fill-rule:nonzero;fill:rgb(100%,38.823529%,38.823529%);fill-opacity:1;" d="M 20.746094 18 C 20.746094 19.515625 19.515625 20.746094 18 20.746094 C 16.484375 20.746094 15.253906 19.515625 15.253906 18 C 15.253906 16.484375 16.484375 15.253906 18 15.253906 C 19.515625 15.253906 20.746094 16.484375 20.746094 18 Z M 20.746094 18 "/>
<path style=" stroke:none;fill-rule:nonzero;fill:rgb(100%,38.823529%,38.823529%);fill-opacity:1;" d="M 27.15625 18 C 27.15625 19.515625 25.925781 20.746094 24.410156 20.746094 C 22.890625 20.746094 21.664062 19.515625 21.664062 18 C 21.664062 16.484375 22.890625 15.253906 24.410156 15.253906 C 25.925781 15.253906 27.15625 16.484375 27.15625 18 Z M 27.15625 18 "/>
<path style=" stroke:none;fill-rule:nonzero;fill:rgb(100%,38.823529%,38.823529%);fill-opacity:1;" d="M 14.335938 18 C 14.335938 19.515625 13.105469 20.746094 11.589844 20.746094 C 10.074219 20.746094 8.84375 19.515625 8.84375 18 C 8.84375 16.484375 10.074219 15.253906 11.589844 15.253906 C 13.105469 15.253906 14.335938 16.484375 14.335938 18 Z M 14.335938 18 "/>
</g>
</svg>
