<?xml version="1.0" encoding="UTF-8"?>
<svg xmlns="http://www.w3.org/2000/svg" xmlns:xlink="http://www.w3.org/1999/xlink" width="36pt" height="36pt" viewBox="0 0 36 36" version="1.1">
<g id="surface1">
<path style=" stroke:none;fill-rule:evenodd;fill:rgb(94.901961%,94.901961%,94.901961%);fill-opacity:1;" d="M 8.40625 2.136719 L 27.59375 2.136719 C 31.054688 2.136719 33.863281 4.945312 33.863281 8.40625 L 33.863281 27.59375 C 33.863281 31.054688 31.054688 33.863281 27.59375 33.863281 L 8.40625 33.863281 C 4.945312 33.863281 2.136719 31.054688 2.136719 27.59375 L 2.136719 8.40625 C 2.136719 4.945312 4.945312 2.136719 8.40625 2.136719 Z M 8.40625 2.136719 "/>
<path style=" stroke:none;fill-rule:nonzero;fill:rgb(20.392157%,46.27451%,80%);fill-opacity:1;" d="M 18.03125 4.160156 C 17.777344 4.148438 17.523438 4.21875 17.300781 4.351562 L 6.835938 10.554688 C 6.402344 10.8125 6.136719 11.285156 6.136719 11.796875 L 6.136719 24.203125 C 6.136719 24.714844 6.402344 25.1875 6.835938 25.445312 L 17.300781 31.648438 C 17.734375 31.90625 18.265625 31.90625 18.699219 31.648438 L 29.164062 25.445312 C 29.597656 25.1875 29.863281 24.714844 29.863281 24.203125 L 29.863281 11.796875 C 29.863281 11.285156 29.597656 10.8125 29.164062 10.554688 L 18.699219 4.351562 C 18.496094 4.230469 18.265625 4.164062 18.03125 4.160156 Z M 18.03125 4.160156 "/>
<path style=" stroke:none;fill-rule:nonzero;fill:rgb(96.078431%,40%,40%);fill-opacity:1;" d="M 18 31.839844 C 17.757812 31.839844 17.519531 31.777344 17.300781 31.648438 L 6.832031 25.445312 C 6.402344 25.191406 6.136719 24.714844 6.136719 24.203125 L 6.136719 11.796875 C 6.136719 11.589844 6.179688 11.386719 6.261719 11.203125 L 18 18.125 Z M 18 31.839844 "/>
<path style=" stroke:none;fill-rule:nonzero;fill:rgb(48.627451%,80.784314%,26.666667%);fill-opacity:1;" d="M 18 31.839844 C 18.242188 31.839844 18.480469 31.777344 18.699219 31.648438 L 29.167969 25.445312 C 29.597656 25.191406 29.863281 24.714844 29.863281 24.203125 L 29.863281 11.796875 C 29.863281 11.589844 29.820312 11.386719 29.738281 11.203125 L 18 18.125 Z M 18 31.839844 "/>
</g>
</svg>
