<?xml version="1.0" encoding="UTF-8"?>
<svg xmlns="http://www.w3.org/2000/svg" xmlns:xlink="http://www.w3.org/1999/xlink" width="36pt" height="36pt" viewBox="0 0 36 36" version="1.1">
<g id="surface1">
<path style=" stroke:none;fill-rule:evenodd;fill:rgb(60%,60%,60%);fill-opacity:1;" d="M 8.40625 2.136719 L 27.59375 2.136719 C 31.054688 2.136719 33.863281 4.945312 33.863281 8.40625 L 33.863281 27.59375 C 33.863281 31.054688 31.054688 33.863281 27.59375 33.863281 L 8.40625 33.863281 C 4.945312 33.863281 2.136719 31.054688 2.136719 27.59375 L 2.136719 8.40625 C 2.136719 4.945312 4.945312 2.136719 8.40625 2.136719 Z M 8.40625 2.136719 "/>
<path style=" stroke:none;fill-rule:nonzero;fill:rgb(14.117647%,54.117647%,99.215686%);fill-opacity:1;" d="M 13.589844 29.824219 C 13.429688 29.585938 13.136719 29.066406 12.941406 28.667969 C 12.519531 27.816406 12.351562 27.792969 11.441406 28.429688 C 10.304688 29.230469 9.867188 29.007812 10.214844 27.8125 C 10.328125 27.417969 10.351562 27.027344 10.269531 26.945312 C 10.183594 26.867188 9.65625 26.964844 9.09375 27.167969 C 7.8125 27.628906 7.429688 27.464844 7.871094 26.652344 C 8.046875 26.332031 8.136719 26.023438 8.074219 25.964844 C 8.015625 25.90625 7.597656 25.984375 7.148438 26.132812 C 5.597656 26.65625 5.386719 26.386719 6.375 25.144531 C 6.707031 24.726562 6.980469 24.226562 6.984375 24.027344 C 6.988281 23.832031 7.261719 23.371094 7.597656 23.011719 C 8.359375 22.183594 9.21875 20.59375 9.210938 20.015625 C 7.257812 17.167969 8.136719 15.835938 9.414062 13.394531 C 9.75 12.691406 10.195312 11.300781 10.605469 10.933594 C 12.34375 8.683594 15.722656 8.75 17.546875 10.902344 C 18.097656 11.246094 19.050781 13.199219 19.234375 13.902344 C 21.484375 16.601562 18.738281 18.679688 19.042969 20.125 C 19.207031 20.871094 19.980469 22.171875 20.769531 23.027344 C 21.097656 23.378906 21.363281 23.867188 21.363281 24.105469 C 21.363281 24.347656 21.589844 24.828125 21.871094 25.175781 C 22.710938 26.226562 22.476562 26.5625 21.199219 26.132812 C 20.214844 25.804688 20.070312 25.902344 20.46875 26.628906 C 20.742188 27.132812 20.738281 27.195312 20.433594 27.308594 C 20.25 27.375 19.660156 27.296875 19.125 27.132812 C 18.585938 26.96875 18.101562 26.878906 18.046875 26.929688 C 17.992188 26.984375 18 27.449219 18.0625 27.96875 C 18.164062 28.789062 18.132812 28.910156 17.816406 28.910156 C 17.617188 28.910156 17.15625 28.695312 16.789062 28.429688 C 16.425781 28.164062 16.03125 27.949219 15.914062 27.949219 C 15.796875 27.949219 15.425781 28.46875 15.085938 29.101562 C 14.433594 30.335938 14.058594 30.515625 13.589844 29.824219 Z M 13.589844 29.824219 "/>
<path style=" stroke:none;fill-rule:nonzero;fill:rgb(81.960784%,61.960784%,0.392157%);fill-opacity:1;" d="M 10.140625 7.535156 C 10.140625 7.535156 10.734375 11.078125 14.101562 11.886719 C 14.101562 11.886719 14.382812 9.417969 13.441406 8.5625 C 12.496094 7.710938 10.140625 7.535156 10.140625 7.535156 Z M 10.140625 7.535156 "/>
<path style=" stroke:none;fill-rule:nonzero;fill:rgb(81.960784%,61.960784%,0.392157%);fill-opacity:1;" d="M 18 7.460938 C 18 7.460938 17.46875 10.960938 14.101562 11.886719 C 14.101562 11.886719 13.789062 9.421875 14.71875 8.550781 C 15.648438 7.679688 18 7.460938 18 7.460938 Z M 18 7.460938 "/>
<path style=" stroke:none;fill-rule:nonzero;fill:rgb(99.607843%,80.392157%,21.960784%);fill-opacity:1;" d="M 14.113281 5.773438 C 14.113281 5.773438 10.742188 8.910156 14.101562 11.886719 C 17.300781 8.789062 14.113281 5.773438 14.113281 5.773438 Z M 14.113281 5.773438 "/>
<path style=" stroke:none;fill-rule:nonzero;fill:rgb(99.607843%,80.392157%,21.960784%);fill-opacity:1;" d="M 12.324219 16.035156 C 12.324219 17.601562 11.054688 18.875 9.484375 18.875 C 7.917969 18.875 6.648438 17.601562 6.648438 16.035156 C 6.648438 14.46875 7.917969 13.195312 9.484375 13.195312 C 11.054688 13.195312 12.324219 14.46875 12.324219 16.035156 Z M 12.324219 16.035156 "/>
<path style=" stroke:none;fill-rule:nonzero;fill:rgb(32.54902%,32.54902%,32.54902%);fill-opacity:1;" d="M 9.484375 14.289062 C 8.519531 14.289062 7.738281 15.070312 7.738281 16.035156 C 7.738281 17 8.519531 17.78125 9.484375 17.78125 C 10.449219 17.78125 11.230469 17 11.230469 16.035156 C 11.230469 15.070312 10.449219 14.289062 9.484375 14.289062 Z M 9.484375 15.453125 C 9.808594 15.453125 10.066406 15.714844 10.066406 16.035156 C 10.066406 16.355469 9.808594 16.617188 9.484375 16.617188 C 9.164062 16.617188 8.902344 16.355469 8.902344 16.035156 C 8.902344 15.714844 9.164062 15.453125 9.484375 15.453125 Z M 9.484375 15.453125 "/>
<path style=" stroke:none;fill-rule:nonzero;fill:rgb(99.607843%,80.392157%,21.960784%);fill-opacity:1;" d="M 21.929688 16.035156 C 21.929688 17.601562 20.660156 18.875 19.089844 18.875 C 17.523438 18.875 16.253906 17.601562 16.253906 16.035156 C 16.253906 14.46875 17.523438 13.195312 19.089844 13.195312 C 20.660156 13.195312 21.929688 14.46875 21.929688 16.035156 Z M 21.929688 16.035156 "/>
<path style=" stroke:none;fill-rule:nonzero;fill:rgb(32.54902%,32.54902%,32.54902%);fill-opacity:1;" d="M 19.089844 14.289062 C 18.128906 14.289062 17.34375 15.070312 17.34375 16.035156 C 17.34375 17 18.125 17.78125 19.089844 17.78125 C 20.054688 17.78125 20.839844 17 20.839844 16.035156 C 20.839844 15.070312 20.054688 14.289062 19.089844 14.289062 Z M 19.089844 15.453125 C 19.414062 15.453125 19.671875 15.714844 19.671875 16.035156 C 19.671875 16.355469 19.414062 16.617188 19.089844 16.617188 C 18.769531 16.617188 18.507812 16.355469 18.507812 16.035156 C 18.507812 15.714844 18.769531 15.453125 19.089844 15.453125 Z M 19.089844 15.453125 "/>
<path style=" stroke:none;fill-rule:nonzero;fill:rgb(99.607843%,80.392157%,21.960784%);fill-opacity:1;" d="M 10.140625 18.050781 C 10.140625 18.050781 11.546875 16.691406 13.992188 16.691406 C 16.4375 16.691406 18 18.351562 18 18.351562 C 18 18.351562 17.949219 19.3125 17.375 19.613281 C 16.804688 19.914062 15.242188 18.203125 13.785156 18.203125 C 12.328125 18.203125 10.816406 19.410156 10.816406 19.410156 Z M 10.140625 18.050781 "/>
<path style=" stroke:none;fill-rule:nonzero;fill:rgb(32.54902%,32.54902%,32.54902%);fill-opacity:1;" d="M 14.019531 17.523438 C 12.941406 17.515625 11.910156 17.757812 11.121094 18.230469 L 10.257812 18.753906 L 11.03125 20.238281 C 11.527344 21.1875 12.175781 22.070312 12.835938 22.699219 C 13.402344 23.238281 14.007812 23.675781 14.1875 23.675781 C 14.722656 23.675781 16.617188 21.617188 17.355469 20.230469 C 17.738281 19.523438 17.960938 18.992188 17.859375 19.050781 C 17.753906 19.113281 17.589844 18.964844 17.496094 18.722656 C 17.386719 18.449219 17.015625 18.167969 16.523438 17.980469 C 15.722656 17.675781 14.859375 17.523438 14.019531 17.523438 Z M 14.019531 17.523438 "/>
<path style=" stroke:none;fill-rule:nonzero;fill:rgb(94.901961%,94.901961%,94.901961%);fill-opacity:1;" d="M 27.375 13.691406 L 25.660156 13.691406 L 25.203125 15.320312 L 26.921875 15.320312 Z M 26.640625 10.140625 L 26.015625 12.425781 L 27.734375 12.425781 L 28.363281 10.140625 L 29.804688 10.140625 L 29.171875 12.425781 L 30.226562 12.425781 L 30.226562 13.691406 L 28.828125 13.691406 L 28.378906 15.320312 L 30.226562 15.320312 L 30.226562 16.597656 L 28.039062 16.597656 L 27.414062 18.875 L 25.976562 18.875 L 26.601562 16.597656 L 24.882812 16.597656 L 24.261719 18.875 L 22.808594 18.875 L 23.433594 16.597656 L 22.367188 16.597656 L 22.367188 15.320312 L 23.753906 15.320312 L 24.207031 13.691406 L 22.367188 13.691406 L 22.367188 12.425781 L 24.566406 12.425781 L 25.191406 10.140625 Z M 26.640625 10.140625 "/>
</g>
</svg>
