<?xml version="1.0" encoding="UTF-8"?>
<svg xmlns="http://www.w3.org/2000/svg" xmlns:xlink="http://www.w3.org/1999/xlink" width="36pt" height="36pt" viewBox="0 0 36 36" version="1.1">
<g id="surface1">
<path style="fill:none;stroke-width:0.914724;stroke-linecap:butt;stroke-linejoin:miter;stroke:rgb(100%,100%,100%);stroke-opacity:1;stroke-miterlimit:4.5;" d="M 23.868056 8.434028 C 23.885417 11.520833 23.930556 13.961806 23.930556 16.534722 C 23.930556 20.958333 20.34375 24.541667 15.920139 24.541667 C 11.496528 24.541667 7.913194 20.958333 7.913194 16.534722 C 7.913194 12.111111 11.496528 8.524306 15.993056 8.517361 C 19.045139 8.371528 21.90625 8.416667 23.868056 8.434028 Z M 23.868056 8.434028 " transform="matrix(1.125,0,0,1.125,0,0)"/>
<path style=" stroke:none;fill-rule:evenodd;fill:rgb(0%,49.411765%,100%);fill-opacity:1;" d="M 8.40625 2.136719 L 27.59375 2.136719 C 31.054688 2.136719 33.863281 4.945312 33.863281 8.40625 L 33.863281 27.59375 C 33.863281 31.054688 31.054688 33.863281 27.59375 33.863281 L 8.40625 33.863281 C 4.945312 33.863281 2.136719 31.054688 2.136719 27.59375 L 2.136719 8.40625 C 2.136719 4.945312 4.945312 2.136719 8.40625 2.136719 Z M 8.40625 2.136719 "/>
<path style=" stroke:none;fill-rule:evenodd;fill:rgb(0%,49.411765%,100%);fill-opacity:1;" d="M 10.375 33.863281 L 27.59375 33.863281 C 31.066406 33.863281 33.863281 31.066406 33.863281 27.589844 L 33.863281 8.40625 C 33.863281 4.933594 31.066406 2.136719 27.59375 2.136719 L 10.375 2.136719 Z M 10.375 33.863281 "/>
<path style=" stroke:none;fill-rule:evenodd;fill:rgb(0%,36.862745%,63.921569%);fill-opacity:1;" d="M 10.375 33.863281 L 10.375 2.136719 L 8.40625 2.136719 C 4.933594 2.136719 2.136719 4.933594 2.136719 8.40625 L 2.136719 27.589844 C 2.136719 31.066406 4.933594 33.863281 8.40625 33.863281 Z M 10.375 33.863281 "/>
<path style=" stroke:none;fill-rule:nonzero;fill:rgb(100%,100%,100%);fill-opacity:1;" d="M 22.113281 9.804688 C 21.019531 9.804688 20.117188 10.710938 20.117188 11.804688 C 20.117188 12.890625 20.988281 13.800781 22.089844 13.800781 C 23.191406 13.800781 24.109375 12.898438 24.109375 11.804688 C 24.109375 10.710938 23.207031 9.804688 22.113281 9.804688 Z M 23.878906 14.953125 L 23.046875 15.003906 L 18.382812 15.273438 L 18.382812 17.703125 L 20.234375 17.703125 C 20.3125 17.703125 20.320312 17.707031 20.367188 17.710938 C 20.347656 17.703125 20.34375 17.664062 20.34375 17.960938 L 20.34375 23.78125 C 20.34375 23.875 20.339844 23.878906 20.335938 23.921875 C 20.328125 23.910156 20.132812 23.972656 19.566406 23.972656 L 18.632812 23.972656 L 18.632812 26.296875 L 25.609375 26.296875 L 25.609375 23.972656 L 24.675781 23.972656 C 24.101562 23.972656 23.902344 23.910156 23.890625 23.921875 C 23.886719 23.875 23.878906 23.875 23.878906 23.78125 Z M 23.878906 14.953125 "/>
</g>
</svg>
