<?xml version="1.0" encoding="UTF-8"?>
<svg xmlns="http://www.w3.org/2000/svg" xmlns:xlink="http://www.w3.org/1999/xlink" width="36pt" height="36pt" viewBox="0 0 36 36" version="1.1">
<g id="surface1">
<path style=" stroke:none;fill-rule:evenodd;fill:rgb(21.568627%,71.372549%,28.235294%);fill-opacity:1;" d="M 8.40625 2.136719 L 27.59375 2.136719 C 31.054688 2.136719 33.863281 4.945312 33.863281 8.40625 L 33.863281 27.59375 C 33.863281 31.054688 31.054688 33.863281 27.59375 33.863281 L 8.40625 33.863281 C 4.945312 33.863281 2.136719 31.054688 2.136719 27.59375 L 2.136719 8.40625 C 2.136719 4.945312 4.945312 2.136719 8.40625 2.136719 Z M 8.40625 2.136719 "/>
<path style=" stroke:none;fill-rule:nonzero;fill:rgb(97.647059%,97.647059%,97.647059%);fill-opacity:1;" d="M 14.644531 30.339844 C 14.167969 30.28125 13.820312 30.175781 13.441406 29.976562 C 12.628906 29.542969 12.078125 28.789062 11.878906 27.832031 C 11.8125 27.511719 11.8125 26.773438 11.878906 26.4375 C 12.058594 25.554688 12.433594 24.902344 13.710938 23.238281 C 14.488281 22.230469 15.890625 20.503906 15.933594 20.503906 C 15.949219 20.503906 16.050781 20.570312 16.164062 20.648438 C 16.5625 20.929688 17.035156 21.121094 17.554688 21.207031 C 17.605469 21.214844 17.652344 21.230469 17.660156 21.246094 C 17.667969 21.257812 17.714844 21.808594 17.765625 22.472656 C 17.941406 24.867188 18.011719 26.300781 17.976562 26.898438 C 17.945312 27.464844 17.792969 28.070312 17.5625 28.550781 C 17.230469 29.242188 16.679688 29.800781 16.042969 30.089844 C 15.609375 30.289062 15.054688 30.386719 14.644531 30.339844 Z M 21.039062 29.015625 C 19.964844 28.8125 19.167969 27.871094 18.800781 26.375 C 18.628906 25.679688 18.089844 22.292969 18.019531 21.449219 L 18 21.25 L 18.113281 21.238281 C 18.738281 21.164062 18.984375 21.097656 19.382812 20.902344 C 19.527344 20.832031 19.730469 20.710938 19.832031 20.636719 C 19.933594 20.5625 20.027344 20.503906 20.035156 20.503906 C 20.046875 20.503906 21.078125 21.667969 21.605469 22.28125 C 22.417969 23.234375 23.078125 24.050781 23.300781 24.394531 C 23.953125 25.390625 24.1875 26.519531 23.917969 27.390625 C 23.792969 27.796875 23.570312 28.128906 23.246094 28.402344 C 22.644531 28.902344 21.753906 29.152344 21.039062 29.015625 Z M 26.179688 24.738281 C 25.355469 24.652344 24.554688 24.292969 23.851562 23.695312 C 23.449219 23.351562 22.265625 22.253906 21.703125 21.699219 C 21.230469 21.234375 20.308594 20.28125 20.308594 20.253906 C 20.308594 20.242188 20.367188 20.164062 20.433594 20.082031 C 20.785156 19.660156 21.003906 19.207031 21.152344 18.601562 L 21.179688 18.488281 L 22.464844 18.5 C 26.128906 18.535156 26.457031 18.550781 27.179688 18.769531 C 28.058594 19.03125 28.769531 19.582031 29.148438 20.300781 C 29.585938 21.125 29.574219 22.140625 29.121094 23.085938 C 28.976562 23.386719 28.871094 23.539062 28.636719 23.792969 C 28.214844 24.253906 27.707031 24.542969 27.101562 24.671875 C 26.847656 24.722656 26.378906 24.757812 26.179688 24.738281 Z M 21.222656 17.800781 C 21.214844 17.601562 21.191406 17.347656 21.167969 17.238281 C 21.078125 16.804688 20.902344 16.363281 20.6875 16.03125 C 20.632812 15.949219 20.59375 15.863281 20.601562 15.839844 C 20.628906 15.765625 22.617188 14.078125 23.445312 13.425781 C 24.011719 12.980469 24.339844 12.757812 24.75 12.546875 C 26.003906 11.898438 27.164062 11.9375 28.027344 12.65625 C 28.421875 12.984375 28.757812 13.535156 28.898438 14.089844 C 28.988281 14.457031 28.996094 15.035156 28.910156 15.386719 C 28.648438 16.476562 27.84375 17.226562 26.609375 17.527344 C 26.1875 17.628906 24.636719 17.847656 23.378906 17.980469 C 22.789062 18.042969 21.410156 18.167969 21.308594 18.167969 L 21.238281 18.167969 Z M 9.476562 17.953125 C 8.550781 17.855469 7.792969 17.519531 7.277344 16.980469 C 6.4375 16.101562 6.292969 14.730469 6.910156 13.488281 C 7.328125 12.644531 7.992188 12.109375 8.875 11.910156 C 9.199219 11.835938 9.894531 11.84375 10.246094 11.921875 C 10.761719 12.035156 11.308594 12.273438 11.761719 12.578125 C 12.316406 12.957031 14.113281 14.414062 15.0625 15.257812 L 15.53125 15.675781 L 15.484375 15.746094 C 15.460938 15.785156 15.394531 15.882812 15.335938 15.964844 C 15.089844 16.3125 14.871094 16.875 14.792969 17.367188 L 14.75 17.632812 L 14.632812 17.648438 C 14.191406 17.707031 12.292969 17.875 11.460938 17.929688 C 10.839844 17.96875 9.742188 17.980469 9.476562 17.953125 Z M 20.21875 15.453125 C 19.824219 15.027344 19.101562 14.664062 18.445312 14.5625 C 18.296875 14.542969 18.171875 14.519531 18.164062 14.515625 C 18.160156 14.511719 18.136719 14.191406 18.109375 13.808594 C 17.953125 11.558594 17.90625 10.214844 17.953125 9.359375 C 17.996094 8.511719 18.070312 8.128906 18.277344 7.65625 C 18.492188 7.175781 18.964844 6.597656 19.390625 6.304688 C 20.3125 5.660156 21.449219 5.480469 22.503906 5.808594 C 24.15625 6.320312 25.140625 8.195312 24.699219 10 C 24.488281 10.855469 23.953125 11.703125 22.6875 13.160156 C 22.214844 13.710938 20.421875 15.5625 20.363281 15.5625 C 20.339844 15.5625 20.277344 15.515625 20.21875 15.453125 Z M 14.59375 14.230469 C 12.53125 12.089844 11.921875 11.300781 11.625 10.375 C 11.488281 9.953125 11.453125 9.671875 11.46875 9.191406 C 11.484375 8.707031 11.53125 8.484375 11.703125 8.105469 C 12.03125 7.390625 12.582031 6.90625 13.390625 6.632812 C 13.960938 6.4375 14.507812 6.417969 15.054688 6.5625 C 15.347656 6.640625 15.78125 6.871094 16.039062 7.085938 C 16.503906 7.476562 16.878906 8.097656 17.035156 8.726562 C 17.144531 9.175781 17.304688 10.273438 17.507812 11.980469 C 17.699219 13.589844 17.796875 14.488281 17.78125 14.507812 C 17.769531 14.519531 17.675781 14.539062 17.574219 14.554688 C 16.976562 14.640625 16.433594 14.882812 15.972656 15.261719 C 15.878906 15.339844 15.785156 15.40625 15.765625 15.40625 C 15.746094 15.40625 15.21875 14.875 14.59375 14.230469 Z M 14.59375 14.230469 "/>
<path style=" stroke:none;fill-rule:nonzero;fill:rgb(94.509804%,35.686275%,26.27451%);fill-opacity:1;" d="M 10.5 24.242188 C 9.496094 24.125 8.523438 23.1875 8.234375 22.054688 C 8.15625 21.753906 8.140625 21.246094 8.195312 20.953125 C 8.289062 20.46875 8.515625 20.054688 8.886719 19.6875 C 9.476562 19.097656 10.203125 18.792969 11.804688 18.460938 C 12.769531 18.261719 14.671875 17.96875 14.722656 18.011719 C 14.738281 18.023438 14.761719 18.125 14.769531 18.234375 C 14.824219 18.839844 15.097656 19.523438 15.484375 19.996094 C 15.570312 20.105469 15.652344 20.207031 15.664062 20.226562 C 15.683594 20.25 15.660156 20.296875 15.589844 20.386719 C 15.4375 20.578125 13.71875 22.363281 13.351562 22.710938 C 12.996094 23.046875 12.371094 23.605469 12.214844 23.734375 C 12.027344 23.882812 11.707031 24.058594 11.472656 24.140625 C 11.273438 24.207031 10.867188 24.28125 10.742188 24.269531 C 10.722656 24.269531 10.613281 24.257812 10.5 24.242188 Z M 10.5 24.242188 "/>
<path style=" stroke:none;fill-rule:nonzero;fill:rgb(100%,79.215686%,16.862745%);fill-opacity:1;" d="M 21.527344 18 C 21.527344 19.949219 19.949219 21.527344 18 21.527344 C 16.050781 21.527344 14.472656 19.949219 14.472656 18 C 14.472656 16.050781 16.050781 14.472656 18 14.472656 C 19.949219 14.472656 21.527344 16.050781 21.527344 18 Z M 21.527344 18 "/>
</g>
</svg>
