<?xml version="1.0" encoding="UTF-8"?>
<svg xmlns="http://www.w3.org/2000/svg" xmlns:xlink="http://www.w3.org/1999/xlink" width="36pt" height="36pt" viewBox="0 0 36 36" version="1.1">
<defs>
<clipPath id="clip1">
  <rect width="36" height="36"/>
</clipPath>
<g id="surface6" clip-path="url(#clip1)">
<path style=" stroke:none;fill-rule:nonzero;fill:rgb(100%,30.196078%,30.196078%);fill-opacity:1;" d="M 32.195312 25.226562 C 32.195312 28.953125 29.175781 31.976562 25.445312 31.976562 C 21.71875 31.976562 18.695312 28.953125 18.695312 25.226562 C 18.695312 21.5 21.71875 18.476562 25.445312 18.476562 C 29.175781 18.476562 32.195312 21.5 32.195312 25.226562 Z M 32.195312 25.226562 "/>
</g>
</defs>
<g id="surface1">
<path style=" stroke:none;fill-rule:evenodd;fill:rgb(52.156863%,52.156863%,52.156863%);fill-opacity:1;" d="M 8.40625 2.136719 L 27.59375 2.136719 C 31.054688 2.136719 33.863281 4.945312 33.863281 8.40625 L 33.863281 27.59375 C 33.863281 31.054688 31.054688 33.863281 27.59375 33.863281 L 8.40625 33.863281 C 4.945312 33.863281 2.136719 31.054688 2.136719 27.59375 L 2.136719 8.40625 C 2.136719 4.945312 4.945312 2.136719 8.40625 2.136719 Z M 8.40625 2.136719 "/>
<path style=" stroke:none;fill-rule:nonzero;fill:rgb(52.156863%,52.156863%,52.156863%);fill-opacity:1;" d="M 18 11.6875 C 14.511719 11.6875 11.6875 14.511719 11.6875 18 C 11.6875 21.488281 14.511719 24.3125 18 24.3125 C 21.488281 24.3125 24.3125 21.488281 24.3125 18 C 24.3125 14.511719 21.488281 11.6875 18 11.6875 Z M 18 15.476562 C 19.394531 15.476562 20.523438 16.605469 20.523438 18 C 20.523438 19.394531 19.394531 20.523438 18 20.523438 C 16.605469 20.523438 15.476562 19.394531 15.476562 18 C 15.476562 16.605469 16.605469 15.476562 18 15.476562 Z M 18 15.476562 "/>
<path style=" stroke:none;fill-rule:nonzero;fill:rgb(80%,80%,80%);fill-opacity:1;" d="M 18 6.214844 C 11.472656 6.214844 6.214844 11.472656 6.214844 18 C 6.214844 24.527344 11.472656 29.785156 18 29.785156 C 24.527344 29.785156 29.785156 24.527344 29.785156 18 C 29.785156 11.472656 24.527344 6.214844 18 6.214844 Z M 18 12.949219 C 20.789062 12.949219 23.050781 15.210938 23.050781 18 C 23.050781 20.789062 20.789062 23.050781 18 23.050781 C 15.210938 23.050781 12.949219 20.789062 12.949219 18 C 12.949219 15.210938 15.210938 12.949219 18 12.949219 Z M 18 12.949219 "/>
<path style=" stroke:none;fill-rule:nonzero;fill:rgb(100%,100%,100%);fill-opacity:1;" d="M 18 14.585938 C 16.113281 14.585938 14.585938 16.113281 14.585938 18 C 14.585938 19.886719 16.113281 21.414062 18 21.414062 C 19.886719 21.414062 21.414062 19.886719 21.414062 18 C 21.414062 16.113281 19.886719 14.585938 18 14.585938 Z M 18 14.585938 "/>
<use xlink:href="#surface6"/>
<path style=" stroke:none;fill-rule:nonzero;fill:rgb(100%,100%,100%);fill-opacity:1;" d="M 25.445312 21.007812 C 23.117188 21.007812 21.226562 22.898438 21.226562 25.226562 C 21.226562 27.558594 23.117188 29.445312 25.445312 29.445312 C 27.777344 29.445312 29.664062 27.558594 29.664062 25.226562 C 29.664062 22.898438 27.777344 21.007812 25.445312 21.007812 Z M 25.445312 23.539062 C 26.378906 23.539062 27.132812 24.292969 27.132812 25.226562 C 27.132812 26.160156 26.378906 26.914062 25.445312 26.914062 C 24.515625 26.914062 23.757812 26.160156 23.757812 25.226562 C 23.757812 24.292969 24.515625 23.539062 25.445312 23.539062 Z M 25.445312 23.539062 "/>
</g>
</svg>
