<?xml version="1.0" encoding="UTF-8"?>
<svg xmlns="http://www.w3.org/2000/svg" xmlns:xlink="http://www.w3.org/1999/xlink" width="36pt" height="36pt" viewBox="0 0 36 36" version="1.1">
<g id="surface1">
<path style=" stroke:none;fill-rule:evenodd;fill:rgb(91.372549%,65.882353%,29.019608%);fill-opacity:1;" d="M 8.40625 2.136719 L 27.59375 2.136719 C 31.054688 2.136719 33.863281 4.945312 33.863281 8.40625 L 33.863281 27.59375 C 33.863281 31.054688 31.054688 33.863281 27.59375 33.863281 L 8.40625 33.863281 C 4.945312 33.863281 2.136719 31.054688 2.136719 27.59375 L 2.136719 8.40625 C 2.136719 4.945312 4.945312 2.136719 8.40625 2.136719 Z M 8.40625 2.136719 "/>
<path style=" stroke:none;fill-rule:evenodd;fill:rgb(0%,0%,0%);fill-opacity:0.4;" d="M 17.496094 4.894531 C 16.695312 4.878906 15.992188 5.429688 15.820312 6.210938 C 15.820312 6.210938 15.492188 7.625 15.136719 9.71875 C 15.132812 9.71875 15.125 9.71875 15.125 9.714844 C 15.125 9.722656 15.132812 9.734375 15.132812 9.734375 C 15.132812 9.738281 15.132812 9.746094 15.132812 9.75 C 15.109375 9.746094 15.066406 9.722656 14.972656 9.664062 C 15.003906 9.683594 15.082031 9.699219 15.125 9.714844 C 15.097656 9.652344 14.925781 9.457031 14.835938 9.214844 C 14.6875 8.832031 14.605469 8.476562 14.605469 8.476562 C 14.433594 7.675781 13.710938 7.109375 12.890625 7.144531 C 12.382812 7.164062 11.914062 7.40625 11.609375 7.8125 C 11.304688 8.214844 11.195312 8.734375 11.3125 9.226562 C 11.3125 9.226562 11.4375 9.777344 11.675781 10.410156 C 11.914062 11.042969 12.085938 11.851562 13.195312 12.535156 C 13.660156 12.824219 14.140625 13.023438 14.632812 13.175781 C 14.503906 14.265625 14.394531 15.410156 14.328125 16.589844 C 14.320312 16.730469 14.328125 16.871094 14.320312 17.007812 C 13.429688 17.160156 12.542969 17.324219 11.722656 17.621094 C 9.671875 18.371094 7.820312 19.652344 6.917969 21.660156 C 6.484375 22.628906 6.597656 23.703125 6.945312 24.523438 C 7.292969 25.34375 7.835938 25.996094 8.457031 26.558594 C 9.699219 27.679688 11.214844 28.492188 12.914062 28.539062 C 14.046875 28.570312 15.074219 28.210938 16.054688 27.722656 C 16.757812 28.957031 17.664062 30.03125 19.011719 30.640625 C 21.421875 31.734375 24.007812 30.746094 26.046875 29.339844 C 27.0625 28.632812 27.960938 27.769531 28.59375 26.722656 C 29.222656 25.671875 29.589844 24.34375 29.207031 23.007812 C 28.605469 20.929688 26.980469 19.453125 25.089844 18.464844 C 25.289062 18.152344 25.652344 17.601562 25.652344 17.601562 C 25.992188 17.085938 26.019531 16.425781 25.730469 15.878906 C 25.4375 15.335938 24.875 14.992188 24.253906 14.988281 C 23.636719 14.984375 23.066406 15.316406 22.765625 15.855469 C 22.765625 15.855469 21.976562 16.898438 21.757812 17.234375 C 20.679688 16.972656 19.5625 16.808594 18.433594 16.746094 C 18.1875 16.730469 17.945312 16.773438 17.695312 16.765625 C 17.761719 15.644531 17.867188 14.550781 17.992188 13.511719 C 18.582031 13.484375 19.160156 13.429688 19.714844 13.371094 C 21.777344 13.160156 23.484375 12.742188 23.484375 12.742188 C 24.085938 12.613281 24.566406 12.167969 24.746094 11.582031 C 24.921875 10.992188 24.769531 10.355469 24.339844 9.914062 C 23.910156 9.472656 23.277344 9.300781 22.6875 9.464844 C 22.6875 9.464844 21.171875 9.832031 19.371094 10.015625 C 19.085938 10.042969 18.789062 10.046875 18.496094 10.058594 C 18.8125 8.210938 19.101562 6.992188 19.101562 6.992188 C 19.226562 6.496094 19.117188 5.964844 18.804688 5.554688 C 18.492188 5.148438 18.011719 4.902344 17.496094 4.894531 Z M 18.242188 20.113281 C 18.679688 20.140625 19.089844 20.242188 19.515625 20.304688 C 19.339844 20.519531 19.378906 20.523438 19.195312 20.742188 C 18.78125 21.226562 18.308594 21.574219 17.863281 22.027344 C 17.789062 21.398438 17.699219 20.808594 17.671875 20.132812 C 17.867188 20.136719 18.050781 20.101562 18.242188 20.113281 Z M 14.292969 20.464844 C 14.355469 21.875 14.503906 23.261719 14.804688 24.566406 C 14.105469 24.933594 13.460938 25.179688 13.007812 25.164062 C 12.585938 25.15625 11.417969 24.6875 10.722656 24.054688 C 10.371094 23.742188 10.136719 23.402344 10.054688 23.207031 C 9.96875 23.007812 10 23.042969 10 23.042969 C 10.40625 22.140625 11.378906 21.339844 12.882812 20.792969 C 13.300781 20.640625 13.816406 20.570312 14.292969 20.464844 Z M 23.046875 21.25 C 23.171875 21.308594 23.335938 21.339844 23.453125 21.398438 C 24.855469 22.113281 25.691406 23.003906 25.964844 23.945312 C 26.027344 24.164062 26.003906 24.476562 25.699219 24.980469 C 25.394531 25.488281 24.820312 26.085938 24.125 26.566406 C 22.734375 27.527344 20.933594 27.804688 20.40625 27.566406 C 19.761719 27.273438 19.257812 26.601562 18.824219 25.746094 C 19.859375 24.855469 20.902344 23.9375 21.757812 22.9375 C 22.285156 22.324219 22.605469 21.832031 23.046875 21.25 Z M 23.046875 21.25 "/>
</g>
</svg>
