<?xml version="1.0" encoding="UTF-8"?>
<svg xmlns="http://www.w3.org/2000/svg" xmlns:xlink="http://www.w3.org/1999/xlink" width="36pt" height="36pt" viewBox="0 0 36 36" version="1.1">
<g id="surface1">
<path style=" stroke:none;fill-rule:evenodd;fill:rgb(94.901961%,94.901961%,94.901961%);fill-opacity:1;" d="M 8.40625 2.136719 L 27.59375 2.136719 C 31.054688 2.136719 33.863281 4.945312 33.863281 8.40625 L 33.863281 27.59375 C 33.863281 31.054688 31.054688 33.863281 27.59375 33.863281 L 8.40625 33.863281 C 4.945312 33.863281 2.136719 31.054688 2.136719 27.59375 L 2.136719 8.40625 C 2.136719 4.945312 4.945312 2.136719 8.40625 2.136719 Z M 8.40625 2.136719 "/>
<path style=" stroke:none;fill-rule:nonzero;fill:rgb(30.588235%,55.294118%,80%);fill-opacity:1;" d="M 30.476562 21.328125 L 25.902344 28.8125 L 10.097656 28.8125 L 14.257812 21.328125 Z M 30.476562 21.328125 "/>
<path style=" stroke:none;fill-rule:nonzero;fill:rgb(98.823529%,76.470588%,27.058824%);fill-opacity:1;" d="M 14.257812 7.1875 L 22.574219 7.1875 L 30.476562 21.328125 L 22.160156 21.328125 Z M 14.257812 7.1875 "/>
<path style=" stroke:none;fill-rule:nonzero;fill:rgb(42.352941%,74.901961%,28.235294%);fill-opacity:1;" d="M 14.257812 7.1875 L 5.523438 21.328125 L 10.097656 28.8125 L 18.347656 14.511719 Z M 14.257812 7.1875 "/>
</g>
</svg>
