<?xml version="1.0" encoding="UTF-8"?>
<svg xmlns="http://www.w3.org/2000/svg" xmlns:xlink="http://www.w3.org/1999/xlink" width="36pt" height="36pt" viewBox="0 0 36 36" version="1.1">
<defs>
<clipPath id="clip1">
  <rect width="36" height="36"/>
</clipPath>
<g id="surface6" clip-path="url(#clip1)">
<path style=" stroke:none;fill-rule:evenodd;fill:rgb(100%,100%,100%);fill-opacity:1;" d="M 25.429688 6.726562 C 27.898438 6.726562 29.902344 8.730469 29.902344 11.199219 C 29.902344 13.671875 27.898438 15.671875 25.429688 15.671875 C 22.960938 15.671875 20.957031 13.671875 20.957031 11.199219 C 20.957031 8.730469 22.960938 6.726562 25.429688 6.726562 Z M 25.429688 6.726562 "/>
</g>
</defs>
<g id="surface1">
<path style=" stroke:none;fill-rule:evenodd;fill:rgb(59.607843%,76.470588%,1.960784%);fill-opacity:1;" d="M 8.40625 2.136719 L 27.59375 2.136719 C 31.054688 2.136719 33.863281 4.945312 33.863281 8.40625 L 33.863281 27.59375 C 33.863281 31.054688 31.054688 33.863281 27.59375 33.863281 L 8.40625 33.863281 C 4.945312 33.863281 2.136719 31.054688 2.136719 27.59375 L 2.136719 8.40625 C 2.136719 4.945312 4.945312 2.136719 8.40625 2.136719 Z M 8.40625 2.136719 "/>
<path style=" stroke:none;fill-rule:evenodd;fill:rgb(59.607843%,76.470588%,1.960784%);fill-opacity:1;" d="M 9.832031 19.683594 C 8.605469 19.566406 7.195312 19.578125 5.484375 19.78125 C 4.554688 19.894531 3.265625 20.226562 2.132812 20.457031 L 2.132812 25.605469 C 3.070312 25.957031 4.164062 26.210938 5.488281 26.332031 C 8.417969 26.601562 12.160156 26.398438 16.09375 26.140625 C 20.027344 25.882812 24.160156 25.566406 27.867188 25.601562 C 29.71875 25.621094 31.46875 25.726562 33.03125 25.972656 C 33.351562 26.023438 33.5625 26.15625 33.867188 26.21875 L 33.867188 24.316406 C 32.453125 24.371094 30.800781 24.511719 29.609375 24.488281 C 27.210938 24.433594 25.226562 24.234375 23.535156 23.945312 C 21.847656 23.652344 20.453125 23.269531 19.234375 22.855469 C 18.019531 22.4375 16.976562 21.988281 15.996094 21.558594 C 15.011719 21.128906 14.085938 20.71875 13.097656 20.386719 C 12.113281 20.058594 11.0625 19.804688 9.832031 19.683594 Z M 9.832031 19.683594 "/>
<path style=" stroke:none;fill-rule:evenodd;fill:rgb(100%,46.27451%,41.568627%);fill-opacity:1;" d="M 8.40625 2.136719 C 4.933594 2.136719 2.132812 4.933594 2.132812 8.40625 L 2.132812 20.457031 C 3.265625 20.226562 4.554688 19.894531 5.484375 19.78125 C 7.195312 19.578125 8.605469 19.566406 9.832031 19.683594 C 11.0625 19.804688 12.113281 20.058594 13.097656 20.386719 C 14.085938 20.71875 15.011719 21.128906 15.996094 21.558594 C 16.976562 21.988281 18.019531 22.4375 19.234375 22.855469 C 20.453125 23.269531 21.847656 23.652344 23.535156 23.945312 C 25.226562 24.234375 27.210938 24.433594 29.609375 24.484375 C 30.800781 24.511719 32.453125 24.371094 33.867188 24.316406 L 33.867188 8.40625 C 33.867188 4.933594 31.066406 2.136719 27.59375 2.136719 Z M 8.40625 2.136719 "/>
<use xlink:href="#surface6"/>
<path style=" stroke:none;fill-rule:evenodd;fill:rgb(67.843137%,85.882353%,11.764706%);fill-opacity:1;" d="M 33.867188 26.21875 C 20.457031 18.792969 15.863281 26.863281 5.488281 26.332031 C 4.164062 26.210938 3.070312 25.957031 2.132812 25.605469 L 2.132812 27.59375 C 2.132812 31.066406 4.933594 33.863281 8.40625 33.863281 L 27.59375 33.863281 C 31.066406 33.863281 33.867188 31.066406 33.867188 27.59375 Z M 33.867188 26.21875 "/>
</g>
</svg>
