<?xml version="1.0" encoding="UTF-8"?>
<svg xmlns="http://www.w3.org/2000/svg" xmlns:xlink="http://www.w3.org/1999/xlink" width="36pt" height="36pt" viewBox="0 0 36 36" version="1.1">
<g id="surface1">
<path style=" stroke:none;fill-rule:evenodd;fill:rgb(76.078431%,20.784314%,16.470588%);fill-opacity:1;" d="M 8.40625 2.136719 L 27.59375 2.136719 C 31.054688 2.136719 33.863281 4.945312 33.863281 8.40625 L 33.863281 27.59375 C 33.863281 31.054688 31.054688 33.863281 27.59375 33.863281 L 8.40625 33.863281 C 4.945312 33.863281 2.136719 31.054688 2.136719 27.59375 L 2.136719 8.40625 C 2.136719 4.945312 4.945312 2.136719 8.40625 2.136719 Z M 8.40625 2.136719 "/>
<path style=" stroke:none;fill-rule:nonzero;fill:rgb(100%,61.176471%,100%);fill-opacity:1;" d="M 22.03125 18 C 22.03125 20.226562 20.226562 22.03125 18 22.03125 C 15.773438 22.03125 13.96875 20.226562 13.96875 18 C 13.96875 15.773438 15.773438 13.96875 18 13.96875 C 20.226562 13.96875 22.03125 15.773438 22.03125 18 Z M 22.03125 18 "/>
<path style=" stroke:none;fill-rule:nonzero;fill:rgb(100%,100%,100%);fill-opacity:1;" d="M 30.097656 26.0625 C 30.097656 28.289062 28.289062 30.097656 26.0625 30.097656 C 23.835938 30.097656 22.03125 28.289062 22.03125 26.0625 C 22.03125 23.835938 23.835938 22.03125 26.0625 22.03125 C 28.289062 22.03125 30.097656 23.835938 30.097656 26.0625 Z M 30.097656 26.0625 "/>
<path style=" stroke:none;fill-rule:nonzero;fill:rgb(100%,100%,100%);fill-opacity:1;" d="M 13.96875 9.9375 C 13.96875 12.164062 12.164062 13.96875 9.9375 13.96875 C 7.710938 13.96875 5.902344 12.164062 5.902344 9.9375 C 5.902344 7.710938 7.710938 5.902344 9.9375 5.902344 C 12.164062 5.902344 13.96875 7.710938 13.96875 9.9375 Z M 13.96875 9.9375 "/>
</g>
</svg>
