<?xml version="1.0" encoding="UTF-8"?>
<svg xmlns="http://www.w3.org/2000/svg" xmlns:xlink="http://www.w3.org/1999/xlink" width="36pt" height="36pt" viewBox="0 0 36 36" version="1.1">
<defs>
<g>
<symbol overflow="visible" id="glyph0-0">
<path style="stroke:none;" d="M 0.34375 1.234375 L 0.34375 -4.9375 L 3.84375 -4.9375 L 3.84375 1.234375 Z M 0.734375 0.84375 L 3.453125 0.84375 L 3.453125 -4.546875 L 0.734375 -4.546875 Z M 0.734375 0.84375 "/>
</symbol>
<symbol overflow="visible" id="glyph0-1">
<path style="stroke:none;" d="M 3.75 -4.9375 L 3.75 -4.265625 C 3.488281 -4.390625 3.238281 -4.484375 3 -4.546875 C 2.769531 -4.609375 2.546875 -4.640625 2.328125 -4.640625 C 1.953125 -4.640625 1.660156 -4.566406 1.453125 -4.421875 C 1.253906 -4.273438 1.15625 -4.066406 1.15625 -3.796875 C 1.15625 -3.566406 1.222656 -3.394531 1.359375 -3.28125 C 1.492188 -3.164062 1.75 -3.070312 2.125 -3 L 2.546875 -2.921875 C 3.054688 -2.816406 3.429688 -2.640625 3.671875 -2.390625 C 3.921875 -2.148438 4.046875 -1.820312 4.046875 -1.40625 C 4.046875 -0.914062 3.878906 -0.539062 3.546875 -0.28125 C 3.222656 -0.03125 2.738281 0.09375 2.09375 0.09375 C 1.851562 0.09375 1.597656 0.0664062 1.328125 0.015625 C 1.054688 -0.0351562 0.773438 -0.113281 0.484375 -0.21875 L 0.484375 -0.9375 C 0.765625 -0.78125 1.035156 -0.660156 1.296875 -0.578125 C 1.566406 -0.503906 1.832031 -0.46875 2.09375 -0.46875 C 2.488281 -0.46875 2.789062 -0.539062 3 -0.6875 C 3.21875 -0.84375 3.328125 -1.066406 3.328125 -1.359375 C 3.328125 -1.609375 3.25 -1.800781 3.09375 -1.9375 C 2.945312 -2.082031 2.695312 -2.191406 2.34375 -2.265625 L 1.921875 -2.34375 C 1.410156 -2.445312 1.039062 -2.609375 0.8125 -2.828125 C 0.582031 -3.046875 0.46875 -3.347656 0.46875 -3.734375 C 0.46875 -4.191406 0.625 -4.550781 0.9375 -4.8125 C 1.257812 -5.070312 1.695312 -5.203125 2.25 -5.203125 C 2.488281 -5.203125 2.734375 -5.175781 2.984375 -5.125 C 3.234375 -5.082031 3.488281 -5.019531 3.75 -4.9375 Z M 3.75 -4.9375 "/>
</symbol>
<symbol overflow="visible" id="glyph0-2">
<path style="stroke:none;" d="M 0.609375 -5.109375 L 1.296875 -5.109375 L 1.296875 -2 C 1.296875 -1.457031 1.394531 -1.066406 1.59375 -0.828125 C 1.789062 -0.585938 2.113281 -0.46875 2.5625 -0.46875 C 3.007812 -0.46875 3.332031 -0.585938 3.53125 -0.828125 C 3.726562 -1.066406 3.828125 -1.457031 3.828125 -2 L 3.828125 -5.109375 L 4.515625 -5.109375 L 4.515625 -1.921875 C 4.515625 -1.253906 4.347656 -0.75 4.015625 -0.40625 C 3.691406 -0.0703125 3.207031 0.09375 2.5625 0.09375 C 1.914062 0.09375 1.425781 -0.0703125 1.09375 -0.40625 C 0.769531 -0.75 0.609375 -1.253906 0.609375 -1.921875 Z M 0.609375 -5.109375 "/>
</symbol>
<symbol overflow="visible" id="glyph0-3">
<path style="stroke:none;" d="M 1.375 -4.53125 L 1.375 -0.5625 L 2.21875 -0.5625 C 2.914062 -0.5625 3.425781 -0.722656 3.75 -1.046875 C 4.082031 -1.367188 4.25 -1.875 4.25 -2.5625 C 4.25 -3.238281 4.082031 -3.734375 3.75 -4.046875 C 3.425781 -4.367188 2.914062 -4.53125 2.21875 -4.53125 Z M 0.6875 -5.109375 L 2.109375 -5.109375 C 3.097656 -5.109375 3.820312 -4.898438 4.28125 -4.484375 C 4.75 -4.078125 4.984375 -3.4375 4.984375 -2.5625 C 4.984375 -1.675781 4.75 -1.023438 4.28125 -0.609375 C 3.8125 -0.203125 3.085938 0 2.109375 0 L 0.6875 0 Z M 0.6875 -5.109375 "/>
</symbol>
<symbol overflow="visible" id="glyph0-4">
<path style="stroke:none;" d="M 2.765625 -4.640625 C 2.253906 -4.640625 1.851562 -4.453125 1.5625 -4.078125 C 1.269531 -3.703125 1.125 -3.191406 1.125 -2.546875 C 1.125 -1.898438 1.269531 -1.390625 1.5625 -1.015625 C 1.851562 -0.648438 2.253906 -0.46875 2.765625 -0.46875 C 3.265625 -0.46875 3.660156 -0.648438 3.953125 -1.015625 C 4.242188 -1.390625 4.390625 -1.898438 4.390625 -2.546875 C 4.390625 -3.191406 4.242188 -3.703125 3.953125 -4.078125 C 3.660156 -4.453125 3.265625 -4.640625 2.765625 -4.640625 Z M 2.765625 -5.203125 C 3.472656 -5.203125 4.039062 -4.957031 4.46875 -4.46875 C 4.894531 -3.988281 5.109375 -3.347656 5.109375 -2.546875 C 5.109375 -1.742188 4.894531 -1.101562 4.46875 -0.625 C 4.039062 -0.144531 3.472656 0.09375 2.765625 0.09375 C 2.046875 0.09375 1.46875 -0.144531 1.03125 -0.625 C 0.601562 -1.101562 0.390625 -1.742188 0.390625 -2.546875 C 0.390625 -3.347656 0.601562 -3.988281 1.03125 -4.46875 C 1.46875 -4.957031 2.046875 -5.203125 2.765625 -5.203125 Z M 2.765625 -5.203125 "/>
</symbol>
<symbol overflow="visible" id="glyph0-5">
<path style="stroke:none;" d="M 0.6875 -5.109375 L 1.375 -5.109375 L 1.375 -2.953125 L 3.671875 -5.109375 L 4.5625 -5.109375 L 2.03125 -2.71875 L 4.734375 0 L 3.828125 0 L 1.375 -2.453125 L 1.375 0 L 0.6875 0 Z M 0.6875 -5.109375 "/>
</symbol>
</g>
</defs>
<g id="surface1">
<path style=" stroke:none;fill-rule:evenodd;fill:rgb(27.843137%,67.843137%,36.470588%);fill-opacity:1;" d="M 8.40625 2.136719 L 27.59375 2.136719 C 31.054688 2.136719 33.863281 4.945312 33.863281 8.40625 L 33.863281 27.59375 C 33.863281 31.054688 31.054688 33.863281 27.59375 33.863281 L 8.40625 33.863281 C 4.945312 33.863281 2.136719 31.054688 2.136719 27.59375 L 2.136719 8.40625 C 2.136719 4.945312 4.945312 2.136719 8.40625 2.136719 Z M 8.40625 2.136719 "/>
<path style=" stroke:none;fill-rule:evenodd;fill:rgb(100%,100%,100%);fill-opacity:1;" d="M 6.109375 5.027344 L 12.085938 5.027344 C 12.6875 5.027344 13.175781 5.515625 13.175781 6.117188 L 13.175781 12.09375 C 13.175781 12.695312 12.6875 13.183594 12.085938 13.183594 L 6.109375 13.183594 C 5.507812 13.183594 5.019531 12.695312 5.019531 12.09375 L 5.019531 6.117188 C 5.019531 5.515625 5.507812 5.027344 6.109375 5.027344 Z M 6.109375 5.027344 "/>
<path style=" stroke:none;fill-rule:evenodd;fill:rgb(100%,100%,100%);fill-opacity:1;" d="M 15.023438 5.027344 L 21.003906 5.027344 C 21.605469 5.027344 22.089844 5.515625 22.089844 6.117188 L 22.089844 12.09375 C 22.089844 12.695312 21.605469 13.183594 21.003906 13.183594 L 15.023438 13.183594 C 14.421875 13.183594 13.9375 12.695312 13.9375 12.09375 L 13.9375 6.117188 C 13.9375 5.515625 14.421875 5.027344 15.023438 5.027344 Z M 15.023438 5.027344 "/>
<path style=" stroke:none;fill-rule:evenodd;fill:rgb(100%,100%,100%);fill-opacity:1;" d="M 23.914062 5.027344 L 29.890625 5.027344 C 30.492188 5.027344 30.980469 5.515625 30.980469 6.117188 L 30.980469 12.09375 C 30.980469 12.695312 30.492188 13.183594 29.890625 13.183594 L 23.914062 13.183594 C 23.3125 13.183594 22.824219 12.695312 22.824219 12.09375 L 22.824219 6.117188 C 22.824219 5.515625 23.3125 5.027344 23.914062 5.027344 Z M 23.914062 5.027344 "/>
<path style=" stroke:none;fill-rule:evenodd;fill:rgb(100%,100%,100%);fill-opacity:1;" d="M 6.109375 13.953125 L 12.085938 13.953125 C 12.6875 13.953125 13.175781 14.4375 13.175781 15.039062 L 13.175781 21.019531 C 13.175781 21.617188 12.6875 22.105469 12.085938 22.105469 L 6.109375 22.105469 C 5.507812 22.105469 5.019531 21.617188 5.019531 21.019531 L 5.019531 15.039062 C 5.019531 14.4375 5.507812 13.953125 6.109375 13.953125 Z M 6.109375 13.953125 "/>
<path style=" stroke:none;fill-rule:evenodd;fill:rgb(100%,100%,100%);fill-opacity:1;" d="M 15.023438 13.953125 L 21.003906 13.953125 C 21.605469 13.953125 22.089844 14.4375 22.089844 15.039062 L 22.089844 21.019531 C 22.089844 21.617188 21.605469 22.105469 21.003906 22.105469 L 15.023438 22.105469 C 14.421875 22.105469 13.9375 21.617188 13.9375 21.019531 L 13.9375 15.039062 C 13.9375 14.4375 14.421875 13.953125 15.023438 13.953125 Z M 15.023438 13.953125 "/>
<path style=" stroke:none;fill-rule:evenodd;fill:rgb(100%,100%,100%);fill-opacity:1;" d="M 23.914062 13.953125 L 29.890625 13.953125 C 30.492188 13.953125 30.980469 14.4375 30.980469 15.039062 L 30.980469 21.019531 C 30.980469 21.617188 30.492188 22.105469 29.890625 22.105469 L 23.914062 22.105469 C 23.3125 22.105469 22.824219 21.617188 22.824219 21.019531 L 22.824219 15.039062 C 22.824219 14.4375 23.3125 13.953125 23.914062 13.953125 Z M 23.914062 13.953125 "/>
<path style=" stroke:none;fill-rule:evenodd;fill:rgb(100%,100%,100%);fill-opacity:1;" d="M 6.109375 22.816406 L 12.085938 22.816406 C 12.6875 22.816406 13.175781 23.304688 13.175781 23.90625 L 13.175781 29.882812 C 13.175781 30.484375 12.6875 30.972656 12.085938 30.972656 L 6.109375 30.972656 C 5.507812 30.972656 5.019531 30.484375 5.019531 29.882812 L 5.019531 23.90625 C 5.019531 23.304688 5.507812 22.816406 6.109375 22.816406 Z M 6.109375 22.816406 "/>
<path style=" stroke:none;fill-rule:evenodd;fill:rgb(100%,100%,100%);fill-opacity:1;" d="M 15.023438 22.816406 L 21.003906 22.816406 C 21.605469 22.816406 22.089844 23.304688 22.089844 23.90625 L 22.089844 29.882812 C 22.089844 30.484375 21.605469 30.972656 21.003906 30.972656 L 15.023438 30.972656 C 14.421875 30.972656 13.9375 30.484375 13.9375 29.882812 L 13.9375 23.90625 C 13.9375 23.304688 14.421875 22.816406 15.023438 22.816406 Z M 15.023438 22.816406 "/>
<path style=" stroke:none;fill-rule:evenodd;fill:rgb(100%,100%,100%);fill-opacity:1;" d="M 23.914062 22.816406 L 29.890625 22.816406 C 30.492188 22.816406 30.980469 23.304688 30.980469 23.90625 L 30.980469 29.882812 C 30.980469 30.484375 30.492188 30.972656 29.890625 30.972656 L 23.914062 30.972656 C 23.3125 30.972656 22.824219 30.484375 22.824219 29.882812 L 22.824219 23.90625 C 22.824219 23.304688 23.3125 22.816406 23.914062 22.816406 Z M 23.914062 22.816406 "/>
<g style="fill:rgb(0%,35.686275%,0%);fill-opacity:1;">
  <use xlink:href="#glyph0-1" x="6.914062" y="11.569946"/>
</g>
<g style="fill:rgb(0%,35.686275%,0%);fill-opacity:1;">
  <use xlink:href="#glyph0-2" x="15.535156" y="11.523071"/>
</g>
<g style="fill:rgb(0%,35.686275%,0%);fill-opacity:1;">
  <use xlink:href="#glyph0-3" x="15.277344" y="20.495728"/>
</g>
<g style="fill:rgb(0%,35.686275%,0%);fill-opacity:1;">
  <use xlink:href="#glyph0-4" x="24.238281" y="20.491821"/>
</g>
<g style="fill:rgb(0%,35.686275%,0%);fill-opacity:1;">
  <use xlink:href="#glyph0-5" x="6.476562" y="29.362915"/>
</g>
<g style="fill:rgb(0%,35.686275%,0%);fill-opacity:1;">
  <use xlink:href="#glyph0-2" x="15.535156" y="29.312134"/>
</g>
</g>
</svg>
