<?xml version="1.0" encoding="UTF-8"?>
<svg xmlns="http://www.w3.org/2000/svg" xmlns:xlink="http://www.w3.org/1999/xlink" width="36pt" height="36pt" viewBox="0 0 36 36" version="1.1">
<g id="surface1">
<path style=" stroke:none;fill-rule:evenodd;fill:rgb(93.72549%,35.294118%,18.823529%);fill-opacity:1;" d="M 8.40625 2.136719 L 27.59375 2.136719 C 31.054688 2.136719 33.863281 4.945312 33.863281 8.40625 L 33.863281 27.59375 C 33.863281 31.054688 31.054688 33.863281 27.59375 33.863281 L 8.40625 33.863281 C 4.945312 33.863281 2.136719 31.054688 2.136719 27.59375 L 2.136719 8.40625 C 2.136719 4.945312 4.945312 2.136719 8.40625 2.136719 Z M 8.40625 2.136719 "/>
<path style=" stroke:none;fill-rule:nonzero;fill:rgb(100%,100%,100%);fill-opacity:1;" d="M 8.4375 6.75 L 8.4375 29.25 L 12.9375 29.25 L 12.9375 24.429688 L 15.75 29.25 L 20.8125 29.25 L 16.667969 21.9375 L 20.8125 14.625 L 15.75 14.625 L 12.9375 19.445312 L 12.9375 6.75 Z M 22.5 14.625 L 18.5625 21.375 L 18.222656 21.9375 L 18.5625 22.5 L 22.5 29.25 L 27.5625 29.25 L 23.417969 21.9375 L 27.5625 14.625 Z M 22.5 14.625 "/>
</g>
</svg>
