<?xml version="1.0" encoding="UTF-8"?>
<svg xmlns="http://www.w3.org/2000/svg" xmlns:xlink="http://www.w3.org/1999/xlink" width="36pt" height="36pt" viewBox="0 0 36 36" version="1.1">
<g id="surface1">
<path style=" stroke:none;fill-rule:evenodd;fill:rgb(76.078431%,20.784314%,16.470588%);fill-opacity:1;" d="M 8.40625 2.136719 L 27.59375 2.136719 C 31.054688 2.136719 33.863281 4.945312 33.863281 8.40625 L 33.863281 27.59375 C 33.863281 31.054688 31.054688 33.863281 27.59375 33.863281 L 8.40625 33.863281 C 4.945312 33.863281 2.136719 31.054688 2.136719 27.59375 L 2.136719 8.40625 C 2.136719 4.945312 4.945312 2.136719 8.40625 2.136719 Z M 8.40625 2.136719 "/>
<path style=" stroke:none;fill-rule:nonzero;fill:rgb(100%,100%,100%);fill-opacity:1;" d="M 13.558594 23.570312 C 13.199219 23.523438 12.558594 23.3125 12.132812 23.101562 C 9.347656 21.746094 8.210938 18.335938 9.582031 15.460938 C 11.148438 12.171875 15.421875 11.335938 17.996094 13.8125 C 18.738281 14.527344 19.070312 15.136719 20.1875 17.839844 C 21.355469 20.667969 21.574219 21.113281 21.953125 21.488281 C 22.359375 21.890625 22.734375 22.027344 23.453125 22.027344 C 24.636719 22.027344 25.480469 21.285156 25.480469 20.246094 C 25.480469 19.371094 25.175781 19.089844 23.628906 18.53125 C 21.273438 17.667969 20.511719 16.890625 20.507812 15.324219 C 20.507812 14.488281 20.714844 13.929688 21.246094 13.351562 C 22.007812 12.527344 23.316406 12.253906 24.480469 12.664062 C 24.972656 12.84375 26.011719 13.773438 26.011719 14.042969 C 26.011719 14.171875 25.410156 14.566406 25.078125 14.660156 C 24.902344 14.707031 24.75 14.644531 24.546875 14.449219 C 24.132812 14.046875 23.855469 13.921875 23.363281 13.921875 C 22.515625 13.921875 21.988281 14.441406 21.988281 15.28125 C 21.988281 16.117188 22.320312 16.398438 23.996094 16.972656 C 26.304688 17.765625 26.984375 18.480469 27 20.132812 C 27.011719 21.5625 26.378906 22.59375 25.121094 23.203125 C 24.546875 23.476562 24.351562 23.511719 23.414062 23.511719 C 22.078125 23.511719 21.476562 23.261719 20.730469 22.402344 C 20.226562 21.828125 19.714844 20.742188 18.078125 16.792969 C 17.398438 15.152344 16.527344 14.351562 15.074219 14.035156 C 14.339844 13.875 13.3125 14.023438 12.644531 14.382812 C 11.992188 14.726562 11.265625 15.507812 10.921875 16.222656 C 10.636719 16.800781 10.609375 16.964844 10.609375 17.972656 C 10.609375 18.933594 10.648438 19.164062 10.886719 19.691406 C 11.246094 20.496094 11.953125 21.238281 12.734375 21.640625 C 13.296875 21.929688 13.472656 21.964844 14.371094 21.964844 C 15.234375 21.964844 15.457031 21.921875 15.96875 21.671875 C 16.558594 21.382812 17.347656 20.667969 17.667969 20.132812 L 17.835938 19.855469 L 18.167969 20.621094 C 18.351562 21.042969 18.5 21.441406 18.5 21.515625 C 18.5 21.726562 17.753906 22.417969 17.066406 22.851562 C 16.03125 23.5 14.835938 23.746094 13.5625 23.570312 M 13.558594 23.570312 "/>
</g>
</svg>
