<?xml version="1.0" encoding="UTF-8"?>
<svg xmlns="http://www.w3.org/2000/svg" xmlns:xlink="http://www.w3.org/1999/xlink" width="36pt" height="36pt" viewBox="0 0 36 36" version="1.1">
<defs>
<clipPath id="clip1">
  <rect width="36" height="36"/>
</clipPath>
<g id="surface6" clip-path="url(#clip1)">
<path style=" stroke:none;fill-rule:evenodd;fill:rgb(27.058824%,52.941176%,81.176471%);fill-opacity:1;" d="M 9.292969 23.417969 L 4.980469 13.433594 L 8.554688 11.78125 L 11.335938 18.480469 L 14.695312 16.769531 L 16.207031 19.996094 Z M 9.292969 23.417969 "/>
<path style=" stroke:none;fill-rule:evenodd;fill:rgb(87.058824%,32.54902%,15.686275%);fill-opacity:1;" d="M 21.855469 9.945312 L 25.644531 10.675781 L 26.460938 13.132812 L 28.125 11.234375 L 32.277344 12.109375 L 28.546875 16.261719 L 30.652344 22.453125 L 26.183594 22.019531 L 25.386719 18.664062 L 23.367188 21.425781 L 19.890625 20.339844 L 23.386719 15.394531 Z M 21.855469 9.945312 "/>
<path style=" stroke:none;fill-rule:evenodd;fill:rgb(87.45098%,65.490196%,13.333333%);fill-opacity:1;" d="M 12.285156 13.347656 L 16.625 13.9375 L 17.914062 16.628906 L 19.535156 14.304688 L 23.902344 14.863281 L 19.902344 20.585938 L 18.921875 26.054688 L 14.863281 25.410156 L 15.5625 20.5 Z M 12.285156 13.347656 "/>
</g>
</defs>
<g id="surface1">
<path style=" stroke:none;fill-rule:evenodd;fill:rgb(94.901961%,94.901961%,94.901961%);fill-opacity:1;" d="M 8.40625 2.136719 L 27.59375 2.136719 C 31.054688 2.136719 33.863281 4.945312 33.863281 8.40625 L 33.863281 27.59375 C 33.863281 31.054688 31.054688 33.863281 27.59375 33.863281 L 8.40625 33.863281 C 4.945312 33.863281 2.136719 31.054688 2.136719 27.59375 L 2.136719 8.40625 C 2.136719 4.945312 4.945312 2.136719 8.40625 2.136719 Z M 8.40625 2.136719 "/>
<use xlink:href="#surface6"/>
</g>
</svg>
