<?xml version="1.0" encoding="UTF-8"?>
<svg xmlns="http://www.w3.org/2000/svg" xmlns:xlink="http://www.w3.org/1999/xlink" width="36pt" height="36pt" viewBox="0 0 36 36" version="1.1">
<defs>
<clipPath id="clip1">
  <rect width="36" height="36"/>
</clipPath>
<g id="surface6" clip-path="url(#clip1)">
<path style=" stroke:none;fill-rule:nonzero;fill:rgb(99.607843%,59.215686%,0%);fill-opacity:1;" d="M 29.25 18 C 29.25 11.785156 24.214844 6.75 18 6.75 C 11.785156 6.75 6.75 11.785156 6.75 18 C 6.75 24.214844 11.785156 29.25 18 29.25 C 24.214844 29.25 29.25 24.214844 29.25 18 Z M 29.25 18 "/>
</g>
<clipPath id="clip2">
  <rect width="36" height="36"/>
</clipPath>
<g id="surface9" clip-path="url(#clip2)">
<path style=" stroke:none;fill-rule:nonzero;fill:rgb(100%,100%,100%);fill-opacity:1;" d="M 15.855469 13.242188 L 15.855469 19.171875 C 15.511719 18.972656 15.125 18.867188 14.730469 18.867188 C 13.488281 18.867188 12.480469 19.875 12.480469 21.117188 C 12.480469 22.359375 13.488281 23.367188 14.730469 23.367188 C 15.972656 23.367188 16.980469 22.359375 16.980469 21.117188 L 16.980469 15.492188 L 21.480469 15.492188 L 21.480469 19.171875 C 21.136719 18.972656 20.75 18.867188 20.355469 18.867188 C 19.113281 18.867188 18.105469 19.875 18.105469 21.117188 C 18.105469 22.359375 19.113281 23.367188 20.355469 23.367188 C 21.597656 23.367188 22.605469 22.359375 22.605469 21.117188 L 22.605469 13.242188 Z M 15.855469 13.242188 "/>
</g>
</defs>
<g id="surface1">
<path style=" stroke:none;fill-rule:evenodd;fill:rgb(100%,34.117647%,13.333333%);fill-opacity:1;" d="M 8.40625 2.136719 L 27.59375 2.136719 C 31.054688 2.136719 33.863281 4.945312 33.863281 8.40625 L 33.863281 27.59375 C 33.863281 31.054688 31.054688 33.863281 27.59375 33.863281 L 8.40625 33.863281 C 4.945312 33.863281 2.136719 31.054688 2.136719 27.59375 L 2.136719 8.40625 C 2.136719 4.945312 4.945312 2.136719 8.40625 2.136719 Z M 8.40625 2.136719 "/>
<use xlink:href="#surface6"/>
<use xlink:href="#surface9"/>
</g>
</svg>
