<?xml version="1.0" encoding="UTF-8"?>
<svg xmlns="http://www.w3.org/2000/svg" xmlns:xlink="http://www.w3.org/1999/xlink" width="36pt" height="36pt" viewBox="0 0 36 36" version="1.1">
<defs>
<clipPath id="clip1">
  <rect width="36" height="36"/>
</clipPath>
<g id="surface6" clip-path="url(#clip1)">
<path style=" stroke:none;fill-rule:nonzero;fill:rgb(50.196078%,50.196078%,50.196078%);fill-opacity:1;" d="M 14.753906 26.957031 L 14.753906 29.917969 L 17.710938 29.917969 L 25.183594 22.445312 L 22.226562 19.484375 Z M 27.800781 19.835938 C 28.113281 19.523438 28.113281 19.03125 27.800781 18.71875 L 25.953125 16.867188 C 25.640625 16.554688 25.148438 16.554688 24.832031 16.867188 L 23.289062 18.425781 L 26.246094 21.382812 Z M 27.800781 19.835938 "/>
</g>
<clipPath id="clip2">
  <rect width="36" height="36"/>
</clipPath>
<g id="surface9" clip-path="url(#clip2)">
<path style=" stroke:none;fill-rule:nonzero;fill:rgb(50.196078%,50.196078%,50.196078%);fill-opacity:1;" d="M 9.273438 29.917969 L 9.273438 28.582031 L 13.242188 28.582031 L 13.242188 29.917969 Z M 9.273438 25.917969 L 9.273438 24.582031 L 13.285156 24.582031 L 13.285156 25.917969 Z M 9.273438 21.917969 L 9.273438 20.582031 L 17.023438 20.582031 L 17.023438 21.917969 Z M 9.273438 17.917969 L 9.273438 16.582031 L 22.289062 16.582031 L 22.289062 17.917969 C -3.121094 17.917969 14.027344 17.917969 9.273438 17.917969 Z M 9.273438 17.917969 "/>
</g>
</defs>
<g id="surface1">
<path style=" stroke:none;fill-rule:evenodd;fill:rgb(92.54902%,92.54902%,92.54902%);fill-opacity:1;" d="M 2.136719 10.003906 L 2.136719 27.59375 C 2.136719 31.066406 4.933594 33.863281 8.40625 33.863281 L 27.59375 33.863281 C 31.066406 33.863281 33.863281 31.066406 33.863281 27.59375 L 33.863281 10.003906 Z M 2.136719 10.003906 "/>
<path style=" stroke:none;fill-rule:evenodd;fill:rgb(14.901961%,59.607843%,34.509804%);fill-opacity:1;" d="M 2.136719 10.003906 L 33.863281 10.003906 L 33.863281 8.40625 C 33.863281 4.933594 31.066406 2.136719 27.59375 2.136719 L 8.40625 2.136719 C 4.933594 2.136719 2.136719 4.933594 2.136719 8.40625 Z M 2.136719 10.003906 "/>
<use xlink:href="#surface6"/>
<use xlink:href="#surface9"/>
</g>
</svg>
