<?xml version="1.0" encoding="UTF-8"?>
<svg xmlns="http://www.w3.org/2000/svg" xmlns:xlink="http://www.w3.org/1999/xlink" width="36pt" height="36pt" viewBox="0 0 36 36" version="1.1">
<g id="surface1">
<path style=" stroke:none;fill-rule:evenodd;fill:rgb(38.431373%,68.235294%,100%);fill-opacity:1;" d="M 8.40625 2.136719 L 27.59375 2.136719 C 31.054688 2.136719 33.863281 4.945312 33.863281 8.40625 L 33.863281 27.59375 C 33.863281 31.054688 31.054688 33.863281 27.59375 33.863281 L 8.40625 33.863281 C 4.945312 33.863281 2.136719 31.054688 2.136719 27.59375 L 2.136719 8.40625 C 2.136719 4.945312 4.945312 2.136719 8.40625 2.136719 Z M 8.40625 2.136719 "/>
<path style=" stroke:none;fill-rule:nonzero;fill:rgb(63.529412%,49.803922%,74.117647%);fill-opacity:1;" d="M 19.472656 21.835938 L 26.347656 28.714844 C 27.941406 30.371094 30.390625 27.917969 28.734375 26.328125 L 21.753906 19.347656 C 19.085938 20.234375 20.210938 20.234375 19.472656 21.835938 Z M 19.472656 21.835938 "/>
<path style=" stroke:none;fill-rule:nonzero;fill:rgb(100%,100%,100%);fill-opacity:1;" d="M 15.710938 6.734375 C 10.742188 6.734375 6.710938 10.761719 6.710938 15.734375 C 6.710938 20.703125 10.742188 24.734375 15.710938 24.734375 C 20.683594 24.734375 24.710938 20.703125 24.710938 15.734375 C 24.710938 10.761719 20.683594 6.734375 15.710938 6.734375 Z M 15.710938 6.734375 "/>
<path style=" stroke:none;fill-rule:nonzero;fill:rgb(38.431373%,68.235294%,100%);fill-opacity:1;" d="M 11.210938 11.714844 L 11.210938 19.75 C 11.210938 21.359375 12.335938 21.359375 12.335938 21.359375 C 12.335938 21.359375 13.460938 21.359375 13.460938 19.75 L 13.460938 17.984375 L 17.960938 17.984375 L 17.960938 19.75 C 17.960938 21.359375 19.085938 21.359375 19.085938 21.359375 C 19.085938 21.359375 20.210938 21.359375 20.210938 19.75 L 20.210938 11.714844 C 20.210938 11.714844 20.210938 10.109375 18.710938 10.109375 L 12.710938 10.109375 C 11.210938 10.109375 11.210938 11.714844 11.210938 11.714844 Z M 13.460938 12.359375 L 17.960938 12.359375 L 17.960938 15.734375 L 13.460938 15.734375 Z M 13.460938 12.359375 "/>
</g>
</svg>
