<?xml version="1.0" encoding="UTF-8"?>
<svg xmlns="http://www.w3.org/2000/svg" xmlns:xlink="http://www.w3.org/1999/xlink" width="36pt" height="36pt" viewBox="0 0 36 36" version="1.1">
<defs>
<filter id="alpha" filterUnits="objectBoundingBox" x="0%" y="0%" width="100%" height="100%">
  <feColorMatrix type="matrix" in="SourceGraphic" values="0 0 0 0 1 0 0 0 0 1 0 0 0 0 1 0 0 0 1 0"/>
</filter>
<mask id="mask0">
  <g filter="url(#alpha)">
<rect x="0" y="0" width="36" height="36" style="fill:rgb(0%,0%,0%);fill-opacity:0.501961;stroke:none;"/>
  </g>
</mask>
<clipPath id="clip1">
  <rect width="36" height="36"/>
</clipPath>
<g id="surface6" clip-path="url(#clip1)">
<path style=" stroke:none;fill-rule:nonzero;fill:rgb(100%,100%,100%);fill-opacity:1;" d="M 16.875 11.25 L 16.875 24.75 L 6.75 24.75 L 6.75 25.875 L 18 25.875 L 18 19.125 L 29.25 19.125 L 29.25 18 L 18 18 L 18 11.25 Z M 16.875 11.25 "/>
</g>
</defs>
<g id="surface1">
<path style=" stroke:none;fill-rule:evenodd;fill:rgb(30.980392%,30.980392%,30.980392%);fill-opacity:1;" d="M 8.40625 2.136719 L 27.59375 2.136719 C 31.054688 2.136719 33.863281 4.945312 33.863281 8.40625 L 33.863281 27.59375 C 33.863281 31.054688 31.054688 33.863281 27.59375 33.863281 L 8.40625 33.863281 C 4.945312 33.863281 2.136719 31.054688 2.136719 27.59375 L 2.136719 8.40625 C 2.136719 4.945312 4.945312 2.136719 8.40625 2.136719 Z M 8.40625 2.136719 "/>
<use xlink:href="#surface6" mask="url(#mask0)"/>
<path style=" stroke:none;fill-rule:nonzero;fill:rgb(100%,100%,100%);fill-opacity:1;" d="M 17.4375 9 C 16.503906 9 15.75 9.753906 15.75 10.6875 C 15.75 11.621094 16.503906 12.375 17.4375 12.375 C 18.371094 12.375 19.125 11.621094 19.125 10.6875 C 19.125 9.753906 18.371094 9 17.4375 9 Z M 17.4375 16.875 C 16.503906 16.875 15.75 17.628906 15.75 18.5625 C 15.75 19.496094 16.503906 20.25 17.4375 20.25 C 18.371094 20.25 19.125 19.496094 19.125 18.5625 C 19.125 17.628906 18.371094 16.875 17.4375 16.875 Z M 28.6875 16.875 C 27.753906 16.875 27 17.628906 27 18.5625 C 27 19.496094 27.753906 20.25 28.6875 20.25 C 29.621094 20.25 30.375 19.496094 30.375 18.5625 C 30.375 17.628906 29.621094 16.875 28.6875 16.875 Z M 7.3125 23.625 C 6.378906 23.625 5.625 24.378906 5.625 25.3125 C 5.625 26.246094 6.378906 27 7.3125 27 C 8.246094 27 9 26.246094 9 25.3125 C 9 24.378906 8.246094 23.625 7.3125 23.625 Z M 17.4375 23.625 C 16.503906 23.625 15.75 24.378906 15.75 25.3125 C 15.75 26.246094 16.503906 27 17.4375 27 C 18.371094 27 19.125 26.246094 19.125 25.3125 C 19.125 24.378906 18.371094 23.625 17.4375 23.625 Z M 17.4375 23.625 "/>
</g>
</svg>
