<?xml version="1.0" encoding="UTF-8"?>
<svg xmlns="http://www.w3.org/2000/svg" xmlns:xlink="http://www.w3.org/1999/xlink" width="36pt" height="36pt" viewBox="0 0 36 36" version="1.1">
<defs>
<clipPath id="clip1">
  <rect width="36" height="36"/>
</clipPath>
<g id="surface6" clip-path="url(#clip1)">
<path style=" stroke:none;fill-rule:nonzero;fill:rgb(49.411765%,49.411765%,49.411765%);fill-opacity:1;" d="M 12.867188 25.714844 C 11.628906 25.714844 10.769531 25.851562 10.292969 26.125 C 9.816406 26.402344 9.578125 26.871094 9.578125 27.535156 C 9.578125 28.066406 9.753906 28.484375 10.109375 28.800781 C 10.472656 29.105469 10.960938 29.261719 11.574219 29.261719 C 12.425781 29.261719 13.105469 28.96875 13.617188 28.386719 C 14.132812 27.796875 14.390625 27.019531 14.390625 26.046875 L 14.390625 25.714844 L 12.867188 25.714844 M 15.921875 25.097656 L 15.921875 30.273438 L 14.390625 30.273438 L 14.390625 28.898438 C 14.042969 29.449219 13.605469 29.855469 13.082031 30.121094 C 12.5625 30.378906 11.925781 30.507812 11.167969 30.507812 C 10.214844 30.507812 9.453125 30.25 8.886719 29.730469 C 8.328125 29.207031 8.046875 28.507812 8.046875 27.632812 C 8.046875 26.613281 8.398438 25.84375 9.097656 25.328125 C 9.800781 24.808594 10.851562 24.546875 12.242188 24.546875 L 14.390625 24.546875 L 14.390625 24.402344 C 14.390625 23.71875 14.15625 23.1875 13.691406 22.816406 C 13.230469 22.4375 12.582031 22.25 11.742188 22.25 C 11.210938 22.25 10.691406 22.3125 10.1875 22.433594 C 9.679688 22.558594 9.195312 22.746094 8.730469 22.992188 L 8.730469 21.617188 C 9.289062 21.40625 9.835938 21.25 10.363281 21.148438 C 10.886719 21.039062 11.402344 20.984375 11.902344 20.984375 C 13.25 20.984375 14.257812 21.324219 14.921875 22.007812 C 15.589844 22.6875 15.921875 23.71875 15.921875 25.097656 M 10.761719 17.007812 L 13.109375 20.039062 L 11.835938 20.039062 L 9.121094 17.011719 L 10.761719 17.011719 "/>
</g>
</defs>
<g id="surface1">
<path style=" stroke:none;fill-rule:evenodd;fill:rgb(60%,60%,60%);fill-opacity:1;" d="M 21.582031 20.59375 L 21.582031 33.863281 L 27.589844 33.863281 C 31.066406 33.863281 33.863281 31.066406 33.863281 27.589844 L 33.863281 20.59375 Z M 21.582031 20.59375 "/>
<path style=" stroke:none;fill-rule:evenodd;fill:rgb(60%,60%,60%);fill-opacity:1;" d="M 15.101562 2.136719 L 8.40625 2.136719 C 4.933594 2.136719 2.136719 4.933594 2.136719 8.40625 L 2.136719 14.335938 L 15.101562 14.335938 Z M 15.101562 2.136719 "/>
<path style=" stroke:none;fill-rule:evenodd;fill:rgb(76.078431%,76.078431%,76.078431%);fill-opacity:1;" d="M 15.101562 2.136719 L 15.101562 14.335938 L 21.582031 14.335938 L 21.582031 20.59375 L 33.863281 20.59375 L 33.863281 8.40625 C 33.863281 4.933594 31.066406 2.136719 27.589844 2.136719 Z M 15.101562 2.136719 "/>
<path style=" stroke:none;fill-rule:nonzero;fill:rgb(61.568627%,61.568627%,61.568627%);fill-opacity:1;" d="M 28.632812 12.398438 L 28.632812 13.117188 L 21.890625 13.117188 C 21.953125 14.125 22.253906 14.898438 22.796875 15.429688 C 23.34375 15.953125 24.105469 16.21875 25.078125 16.21875 C 25.640625 16.21875 26.183594 16.148438 26.710938 16.011719 C 27.242188 15.871094 27.769531 15.664062 28.289062 15.386719 L 28.289062 16.773438 C 27.761719 16.996094 27.222656 17.167969 26.671875 17.285156 C 26.117188 17.402344 25.558594 17.460938 24.988281 17.460938 C 23.566406 17.460938 22.4375 17.046875 21.601562 16.21875 C 20.773438 15.386719 20.359375 14.265625 20.359375 12.855469 C 20.359375 11.394531 20.75 10.234375 21.539062 9.378906 C 22.328125 8.519531 23.394531 8.089844 24.734375 8.089844 C 25.933594 8.089844 26.882812 8.476562 27.578125 9.25 C 28.28125 10.023438 28.632812 11.070312 28.632812 12.398438 M 27.164062 11.96875 C 27.152344 11.167969 26.929688 10.527344 26.488281 10.046875 C 26.050781 9.570312 25.472656 9.332031 24.75 9.332031 C 23.929688 9.332031 23.273438 9.5625 22.78125 10.023438 C 22.292969 10.488281 22.011719 11.136719 21.9375 11.976562 L 27.164062 11.96875 M 25.394531 4.859375 L 27.011719 4.859375 L 27.011719 6.46875 L 25.394531 6.46875 L 25.394531 4.859375 M 22.277344 4.859375 L 23.898438 4.859375 L 23.898438 6.46875 L 22.277344 6.46875 L 22.277344 4.859375 "/>
<path style=" stroke:none;fill-rule:evenodd;fill:rgb(82.745098%,82.745098%,82.745098%);fill-opacity:1;" d="M 21.582031 33.863281 L 21.582031 14.335938 L 2.136719 14.335938 L 2.136719 27.589844 C 2.136719 31.066406 4.933594 33.863281 8.40625 33.863281 Z M 21.582031 33.863281 "/>
<use xlink:href="#surface6"/>
</g>
</svg>
