<?xml version="1.0" encoding="UTF-8"?>
<svg xmlns="http://www.w3.org/2000/svg" xmlns:xlink="http://www.w3.org/1999/xlink" width="36pt" height="36pt" viewBox="0 0 36 36" version="1.1">
<defs>
<clipPath id="clip1">
  <rect width="36" height="36"/>
</clipPath>
<g id="surface6" clip-path="url(#clip1)">
<path style=" stroke:none;fill-rule:nonzero;fill:rgb(20%,20%,20%);fill-opacity:1;" d="M 14.632812 7.875 C 13.078125 7.875 11.820312 9.132812 11.820312 10.6875 C 11.820312 12.242188 13.078125 13.5 14.632812 13.5 C 16.183594 13.5 17.445312 12.242188 17.445312 10.6875 C 17.445312 9.132812 16.183594 7.875 14.632812 7.875 Z M 12.382812 14.625 C 11.925781 14.625 11.515625 14.898438 11.339844 15.316406 L 8.527344 20.941406 C 7.90625 22.34375 10.046875 23.238281 10.605469 21.808594 L 11.855469 18.816406 L 11.8125 19.125 L 11.8125 27 C 11.8125 27.625 12.316406 28.125 12.9375 28.125 L 12.945312 28.125 C 13.566406 28.125 14.070312 27.625 14.070312 27 L 14.0625 22.5 L 15.1875 22.5 L 15.195312 27 C 15.195312 27.625 15.695312 28.125 16.320312 28.125 C 16.941406 28.125 17.445312 27.625 17.445312 27 L 17.4375 19.125 L 17.398438 18.789062 L 18.652344 21.808594 C 18.90625 22.449219 19.667969 22.714844 20.261719 22.371094 L 21.984375 22.28125 C 21.96875 22.355469 21.9375 22.421875 21.9375 22.5 L 21.9375 27.5625 C 21.9375 27.875 22.191406 28.125 22.5 28.125 C 22.8125 28.125 23.0625 27.875 23.0625 27.5625 L 23.058594 24.75 L 24.1875 24.75 L 24.195312 27.5625 C 24.195312 27.875 24.445312 28.125 24.757812 28.125 C 25.066406 28.125 25.320312 27.875 25.320312 27.5625 L 25.320312 23.296875 L 26.605469 24.585938 C 27.132812 25.136719 27.953125 24.320312 27.398438 23.789062 L 25.152344 21.539062 C 25.046875 21.433594 24.90625 21.375 24.757812 21.375 L 22.65625 21.375 L 20.828125 21.398438 C 20.828125 21.242188 20.792969 21.085938 20.730469 20.941406 L 17.917969 15.316406 C 17.742188 14.898438 17.335938 14.625 16.882812 14.625 Z M 23.625 16.59375 C 22.542969 16.59375 21.65625 17.480469 21.65625 18.5625 C 21.65625 19.648438 22.542969 20.53125 23.625 20.53125 C 24.710938 20.53125 25.59375 19.648438 25.59375 18.5625 C 25.59375 17.480469 24.710938 16.59375 23.625 16.59375 Z M 23.625 16.59375 "/>
</g>
</defs>
<g id="surface1">
<path style=" stroke:none;fill-rule:evenodd;fill:rgb(99.607843%,80.392157%,21.960784%);fill-opacity:1;" d="M 8.40625 2.136719 L 27.59375 2.136719 C 31.054688 2.136719 33.863281 4.945312 33.863281 8.40625 L 33.863281 27.59375 C 33.863281 31.054688 31.054688 33.863281 27.59375 33.863281 L 8.40625 33.863281 C 4.945312 33.863281 2.136719 31.054688 2.136719 27.59375 L 2.136719 8.40625 C 2.136719 4.945312 4.945312 2.136719 8.40625 2.136719 Z M 8.40625 2.136719 "/>
<use xlink:href="#surface6"/>
</g>
</svg>
