<?xml version="1.0" encoding="UTF-8"?>
<svg xmlns="http://www.w3.org/2000/svg" xmlns:xlink="http://www.w3.org/1999/xlink" width="36pt" height="36pt" viewBox="0 0 36 36" version="1.1">
<defs>
<filter id="alpha" filterUnits="objectBoundingBox" x="0%" y="0%" width="100%" height="100%">
  <feColorMatrix type="matrix" in="SourceGraphic" values="0 0 0 0 1 0 0 0 0 1 0 0 0 0 1 0 0 0 1 0"/>
</filter>
<mask id="mask0">
  <g filter="url(#alpha)">
<rect x="0" y="0" width="36" height="36" style="fill:rgb(0%,0%,0%);fill-opacity:0.988235;stroke:none;"/>
  </g>
</mask>
<clipPath id="clip1">
  <rect width="36" height="36"/>
</clipPath>
<g id="surface6" clip-path="url(#clip1)">
<path style="fill:none;stroke-width:0.109435;stroke-linecap:round;stroke-linejoin:bevel;stroke:rgb(100%,100%,100%);stroke-opacity:0.552941;stroke-miterlimit:4;" d="M 16.217109 7.208641 C 20.867398 7.310087 24.714233 10.937799 25.351315 15.442005 " transform="matrix(0.962642,0,0,0.962642,2.564513,2.677848)"/>
</g>
</defs>
<g id="surface1">
<path style=" stroke:none;fill-rule:evenodd;fill:rgb(0%,49.411765%,100%);fill-opacity:1;" d="M 8.40625 2.136719 L 27.59375 2.136719 C 31.054688 2.136719 33.863281 4.945312 33.863281 8.40625 L 33.863281 27.59375 C 33.863281 31.054688 31.054688 33.863281 27.59375 33.863281 L 8.40625 33.863281 C 4.945312 33.863281 2.136719 31.054688 2.136719 27.59375 L 2.136719 8.40625 C 2.136719 4.945312 4.945312 2.136719 8.40625 2.136719 Z M 8.40625 2.136719 "/>
<path style=" stroke:none;fill-rule:nonzero;fill:rgb(32.156863%,65.882353%,91.764706%);fill-opacity:1;" d="M 17.535156 27.757812 C 15.546875 27.675781 13.664062 26.941406 12.113281 25.644531 C 11.855469 25.429688 11.382812 24.964844 11.144531 24.695312 C 10.183594 23.605469 9.496094 22.296875 9.148438 20.898438 C 8.910156 19.929688 8.832031 18.960938 8.910156 17.953125 C 8.933594 17.703125 8.972656 17.378906 8.984375 17.367188 C 8.988281 17.363281 9.039062 17.371094 9.097656 17.386719 C 9.152344 17.398438 9.269531 17.410156 9.359375 17.410156 L 9.523438 17.410156 L 9.683594 17.574219 L 9.847656 17.738281 L 10.167969 17.738281 L 10.171875 18.335938 L 10.175781 18.9375 L 10.179688 18.335938 L 10.183594 17.738281 L 10.507812 17.902344 C 10.820312 18.058594 10.832031 18.066406 10.984375 18.21875 L 11.140625 18.375 L 11.800781 18.375 L 11.949219 18.539062 L 12.101562 18.703125 L 12.765625 18.703125 L 12.765625 19.019531 L 12.597656 19.195312 L 12.425781 19.367188 L 12.269531 19.84375 L 12.109375 20.320312 L 12.277344 20.652344 L 12.441406 20.984375 L 12.753906 21.300781 L 13.066406 21.613281 L 13.730469 21.613281 L 13.730469 22.269531 L 14.386719 23.574219 L 14.386719 24.230469 L 14.542969 24.542969 C 14.671875 24.804688 14.726562 24.941406 14.863281 25.339844 L 15.023438 25.824219 L 15.359375 26.160156 L 16.011719 26.160156 L 15.847656 25.992188 C 15.683594 25.828125 15.675781 25.816406 15.519531 25.503906 L 15.363281 25.1875 L 15.683594 24.21875 L 16.007812 24.054688 L 16.332031 23.894531 L 16.332031 22.921875 L 16.65625 22.757812 L 16.984375 22.59375 L 16.984375 21.941406 L 17.308594 21.777344 L 17.632812 21.617188 L 17.792969 21.128906 L 17.953125 20.644531 L 17.792969 20.316406 L 17.632812 19.992188 L 17.296875 19.820312 C 16.964844 19.65625 16.957031 19.648438 16.804688 19.496094 L 16.648438 19.339844 L 16.332031 19.339844 L 16.167969 19.015625 L 16.007812 18.695312 L 15.367188 18.375 L 14.703125 18.375 L 14.546875 18.535156 L 14.386719 18.691406 L 14.066406 18.050781 L 13.410156 18.050781 L 13.085938 18.375 L 12.441406 18.375 L 12.441406 18.039062 L 12.277344 17.875 L 12.113281 17.714844 L 12.113281 17.394531 L 11.792969 17.394531 L 11.640625 17.550781 C 11.554688 17.636719 11.480469 17.703125 11.476562 17.703125 C 11.46875 17.703125 11.398438 17.566406 11.3125 17.394531 L 11.15625 17.085938 L 11.484375 16.757812 L 12.421875 16.757812 L 12.753906 16.921875 L 13.082031 17.085938 L 13.414062 16.757812 L 13.746094 16.425781 L 13.902344 15.785156 L 14.0625 15.148438 L 14.390625 14.816406 L 14.722656 14.484375 L 15.675781 14.484375 L 15.675781 14.167969 C 15.675781 13.992188 15.679688 13.847656 15.679688 13.847656 C 15.683594 13.847656 15.902344 13.921875 16.171875 14.007812 L 16.652344 14.171875 L 16.980469 13.847656 L 17.304688 13.519531 L 16.984375 13.519531 L 16.816406 13.179688 C 16.648438 12.847656 16.640625 12.835938 16.488281 12.6875 L 16.335938 12.535156 L 16.007812 12.703125 L 15.675781 12.867188 L 14.375 12.867188 L 14.054688 13.507812 L 13.898438 13.351562 L 13.738281 13.195312 L 13.421875 13.195312 L 13.421875 12.546875 L 13.898438 12.386719 L 14.375 12.230469 L 14.53125 12.382812 C 14.617188 12.46875 14.699219 12.539062 14.714844 12.539062 C 14.726562 12.539062 14.949219 12.46875 15.203125 12.382812 L 15.667969 12.230469 L 16 12.230469 C 16.183594 12.230469 16.332031 12.226562 16.332031 12.21875 C 16.332031 12.214844 16.261719 12.070312 16.175781 11.898438 C 16.023438 11.589844 16.015625 11.578125 15.851562 11.414062 L 15.6875 11.246094 L 15.03125 11.246094 L 14.871094 11.40625 C 14.714844 11.5625 14.707031 11.570312 14.386719 11.730469 L 14.058594 11.894531 L 13.890625 11.726562 C 13.726562 11.566406 13.710938 11.554688 13.421875 11.410156 L 13.121094 11.257812 L 12.957031 11.25 L 12.792969 11.238281 L 12.949219 11.136719 C 14.207031 10.300781 15.640625 9.804688 17.191406 9.660156 C 17.5 9.632812 18.34375 9.632812 18.65625 9.660156 C 20.25 9.804688 21.695312 10.300781 22.960938 11.148438 L 23.125 11.257812 L 23.128906 11.738281 L 23.132812 12.222656 L 23.292969 12.382812 C 23.449219 12.539062 23.457031 12.546875 23.777344 12.707031 L 24.101562 12.871094 L 23.777344 13.195312 L 23.121094 13.195312 L 22.804688 13.511719 L 22.804688 14.148438 L 22.644531 13.988281 L 22.484375 13.832031 L 21.832031 13.832031 L 21.667969 14.15625 L 21.503906 14.484375 L 21.832031 15.140625 L 22.488281 15.140625 L 22.640625 14.984375 C 22.792969 14.832031 22.804688 14.824219 23.132812 14.65625 C 23.460938 14.492188 23.472656 14.484375 23.621094 14.332031 L 23.777344 14.175781 L 23.9375 14.488281 L 24.09375 14.804688 L 24.09375 14.96875 L 24.097656 15.128906 L 24.261719 15.296875 L 24.429688 15.464844 L 24.757812 15.300781 L 25.082031 15.136719 L 24.761719 14.816406 L 24.441406 14.492188 L 24.601562 14.335938 L 24.757812 14.175781 L 25.082031 14.5 L 25.40625 14.820312 L 25.40625 15.140625 L 25.722656 15.140625 L 25.886719 15.304688 L 26.050781 15.464844 L 26.417969 15.464844 L 26.457031 15.566406 C 26.523438 15.742188 26.59375 15.953125 26.65625 16.164062 C 26.6875 16.277344 26.71875 16.382812 26.722656 16.402344 C 26.730469 16.429688 26.710938 16.429688 26.394531 16.429688 L 26.058594 16.429688 L 25.730469 16.265625 L 25.40625 16.101562 L 25.074219 16.269531 C 24.75 16.429688 24.738281 16.4375 24.582031 16.589844 L 24.421875 16.75 L 24.113281 16.59375 C 23.808594 16.441406 23.800781 16.4375 23.636719 16.273438 L 23.46875 16.101562 L 22.476562 16.101562 L 22.152344 16.265625 L 21.824219 16.429688 L 21.175781 16.429688 L 21.019531 16.589844 L 20.859375 16.75 L 20.859375 17.730469 L 20.53125 18.058594 L 20.53125 19.023438 L 20.695312 19.511719 L 20.859375 20.003906 L 21.179688 20.164062 L 21.496094 20.320312 L 22.167969 20.320312 L 22.496094 20.160156 L 22.820312 19.996094 L 23.441406 19.996094 L 23.769531 20.160156 L 24.097656 20.320312 L 24.097656 20.960938 L 24.425781 21.617188 L 23.777344 22.265625 L 24.101562 22.914062 L 24.421875 23.558594 L 24.421875 24.203125 L 24.828125 24.609375 L 24.785156 24.65625 C 24.378906 25.105469 24.105469 25.367188 23.746094 25.667969 C 22.359375 26.820312 20.6875 27.527344 18.894531 27.714844 C 18.667969 27.742188 17.984375 27.78125 17.878906 27.773438 C 17.855469 27.773438 17.703125 27.765625 17.535156 27.757812 Z M 10.195312 19.269531 C 10.191406 19.253906 10.1875 19.257812 10.183594 19.277344 C 10.183594 19.296875 10.1875 19.308594 10.195312 19.300781 C 10.199219 19.296875 10.199219 19.28125 10.195312 19.269531 Z M 16.175781 15.300781 L 16.339844 15.140625 L 15.996094 14.804688 L 16.160156 14.972656 L 16.320312 15.140625 L 16.003906 15.457031 L 15.667969 15.128906 L 15.832031 15.296875 C 15.921875 15.390625 16 15.464844 16.003906 15.464844 C 16.007812 15.464844 16.085938 15.394531 16.175781 15.300781 Z M 16.828125 14.980469 L 16.988281 14.820312 L 16.980469 14.648438 L 16.976562 14.476562 L 16.96875 14.820312 L 16.8125 14.976562 L 16.65625 15.128906 L 16.332031 14.804688 L 16.324219 14.476562 L 16.316406 14.640625 L 16.3125 14.800781 L 16.480469 14.96875 C 16.574219 15.0625 16.652344 15.140625 16.65625 15.140625 C 16.664062 15.140625 16.738281 15.066406 16.828125 14.980469 Z M 21.359375 13.355469 L 21.523438 13.195312 L 21.179688 12.859375 L 21.339844 13.027344 L 21.503906 13.195312 L 21.34375 13.351562 L 21.1875 13.511719 L 21.03125 13.355469 L 20.875 13.203125 L 20.871094 13.03125 L 20.871094 12.859375 L 20.863281 13.027344 L 20.859375 13.199219 L 21.015625 13.359375 C 21.105469 13.449219 21.179688 13.519531 21.1875 13.519531 C 21.191406 13.519531 21.269531 13.445312 21.359375 13.355469 Z M 22.195312 13.417969 C 22.207031 13.390625 22.214844 13.367188 22.210938 13.367188 C 22.207031 13.367188 22.191406 13.390625 22.175781 13.417969 C 22.160156 13.445312 22.152344 13.46875 22.160156 13.46875 C 22.164062 13.46875 22.179688 13.445312 22.195312 13.417969 Z M 22.296875 13.226562 C 22.3125 13.199219 22.320312 13.175781 22.316406 13.175781 C 22.308594 13.175781 22.292969 13.199219 22.28125 13.226562 C 22.265625 13.257812 22.257812 13.28125 22.261719 13.28125 C 22.265625 13.28125 22.28125 13.257812 22.296875 13.226562 Z M 21.6875 13.03125 L 21.523438 12.867188 L 21.835938 12.554688 L 22.148438 12.710938 C 22.320312 12.796875 22.464844 12.867188 22.472656 12.867188 C 22.480469 12.863281 22.339844 12.789062 22.160156 12.699219 L 21.835938 12.535156 L 21.671875 12.703125 L 21.503906 12.867188 L 21.667969 13.03125 C 21.757812 13.121094 21.835938 13.195312 21.839844 13.195312 C 21.84375 13.195312 21.773438 13.121094 21.6875 13.03125 Z M 22.390625 13.054688 C 22.410156 13.019531 22.421875 12.988281 22.417969 12.988281 C 22.414062 12.988281 22.394531 13.019531 22.375 13.054688 C 22.355469 13.09375 22.34375 13.125 22.347656 13.125 C 22.351562 13.125 22.371094 13.09375 22.390625 13.054688 Z M 22.472656 12.890625 C 22.46875 12.886719 22.460938 12.894531 22.453125 12.914062 C 22.445312 12.9375 22.445312 12.941406 22.460938 12.921875 C 22.472656 12.910156 22.480469 12.898438 22.472656 12.890625 Z M 22.472656 12.890625 "/>
<path style="fill:none;stroke-width:1.069;stroke-linecap:butt;stroke-linejoin:miter;stroke:rgb(100%,100%,100%);stroke-opacity:1;stroke-miterlimit:4.5;" d="M 25.408124 6.04404 C 25.022629 9.334951 25.17277 12.528474 25.355372 15.693592 C 25.383777 15.977641 25.400009 16.286037 25.400009 16.594433 C 25.400009 21.796588 21.183909 26.012687 15.985812 26.012687 C 10.783657 26.012687 6.567557 21.796588 6.567557 16.594433 C 6.567557 11.396336 10.783657 7.180236 16.066969 7.172121 C 19.333533 7.054443 22.628502 6.916476 25.408124 6.04404 Z M 25.408124 6.04404 " transform="matrix(0.962642,0,0,0.962642,2.564513,2.677848)"/>
<path style="fill:none;stroke-width:0.10965;stroke-linecap:butt;stroke-linejoin:miter;stroke:rgb(100%,100%,100%);stroke-opacity:0.74902;stroke-miterlimit:4;" d="M 6.624367 15.255345 C 9.671808 6.579675 23.70383 8.097309 25.335083 15.705765 " transform="matrix(0.962642,0,0,0.962642,2.564513,2.677848)"/>
<path style="fill:none;stroke-width:1.069;stroke-linecap:butt;stroke-linejoin:miter;stroke:rgb(100%,100%,100%);stroke-opacity:0.988235;stroke-miterlimit:4.5;" d="M 9.351238 23.322337 C 12.67867 24.365203 21.009422 17.418175 23.427897 10.848527 C 25.2661 5.857379 25.111902 6.713584 25.408124 6.04404 " transform="matrix(0.962642,0,0,0.962642,2.564513,2.677848)"/>
<path style="fill:none;stroke-width:0.10965;stroke-linecap:butt;stroke-linejoin:miter;stroke:rgb(100%,100%,100%);stroke-opacity:0.647059;stroke-dasharray:0.657899,0.657899;stroke-miterlimit:4;" d="M 8.941396 22.912495 C 8.775024 19.613468 12.025357 15.709823 15.786978 12.698903 C 22.807047 7.082848 25.94376 6.177949 25.408124 6.04404 " transform="matrix(0.962642,0,0,0.962642,2.564513,2.677848)"/>
<path style="fill:none;stroke-width:0.10965;stroke-linecap:butt;stroke-linejoin:miter;stroke:rgb(100%,100%,100%);stroke-opacity:0.647059;stroke-dasharray:0.657899,0.657899;stroke-miterlimit:4;" d="M 15.356846 26.016745 C 26.735039 24.896781 26.215635 10.856642 18.931806 7.736161 " transform="matrix(0.962642,0,0,0.962642,2.564513,2.677848)"/>
<path style="fill:none;stroke-width:0.10965;stroke-linecap:butt;stroke-linejoin:miter;stroke:rgb(100%,100%,100%);stroke-opacity:0.647059;stroke-dasharray:0.657899,0.657899;stroke-miterlimit:4;" d="M 10.101939 9.221331 C 13.928485 9.014381 25.11596 18.043083 22.46213 23.379147 " transform="matrix(0.962642,0,0,0.962642,2.564513,2.677848)"/>
<path style="fill:none;stroke-width:0.10965;stroke-linecap:butt;stroke-linejoin:miter;stroke:rgb(100%,100%,100%);stroke-opacity:0.619608;stroke-miterlimit:4;" d="M 9.002264 10.235792 C 7.736216 15.608377 19.45121 25.752986 22.46213 23.379147 " transform="matrix(0.962642,0,0,0.962642,2.564513,2.677848)"/>
<path style="fill:none;stroke-width:0.10965;stroke-linecap:butt;stroke-linejoin:miter;stroke:rgb(100%,100%,100%);stroke-opacity:0.647059;stroke-dasharray:0.657899,0.657899;stroke-miterlimit:4;" d="M 6.693351 18.051199 C 9.25385 25.079384 23.46036 26.475282 25.35943 16.943407 " transform="matrix(0.962642,0,0,0.962642,2.564513,2.677848)"/>
<use xlink:href="#surface6" mask="url(#mask0)"/>
<path style=" stroke:none;fill-rule:nonzero;fill:rgb(100%,100%,100%);fill-opacity:1;" d="M 11.566406 25.128906 C 22.203125 22.820312 23.816406 15.1875 27.023438 8.496094 C 26.949219 14.898438 27.742188 22.667969 24.828125 24.609375 C 18.898438 29.617188 15.082031 27.847656 11.566406 25.128906 Z M 11.566406 25.128906 "/>
<path style=" stroke:none;fill-rule:nonzero;fill:rgb(60%,60%,60%);fill-opacity:1;" d="M 22.292969 24.949219 L 28.875 24.949219 L 28.875 30.125 L 22.292969 30.125 Z M 22.292969 24.949219 "/>
<path style=" stroke:none;fill-rule:nonzero;fill:rgb(30.196078%,30.196078%,30.196078%);fill-opacity:1;" d="M 22.152344 15.167969 L 29.015625 15.167969 C 29.832031 15.167969 30.492188 15.828125 30.492188 16.644531 L 30.492188 24.519531 C 30.492188 25.335938 29.832031 25.996094 29.015625 25.996094 L 22.152344 25.996094 C 21.335938 25.996094 20.675781 25.335938 20.675781 24.519531 L 20.675781 16.644531 C 20.675781 15.828125 21.335938 15.167969 22.152344 15.167969 Z M 22.152344 15.167969 "/>
<path style=" stroke:none;fill-rule:nonzero;fill:rgb(20%,20%,20%);fill-opacity:1;" d="M 23.335938 26.730469 L 25.089844 26.730469 L 25.089844 27.730469 L 23.335938 27.730469 Z M 23.335938 26.730469 "/>
<path style=" stroke:none;fill-rule:nonzero;fill:rgb(20%,20%,20%);fill-opacity:1;" d="M 26.078125 26.730469 L 27.832031 26.730469 L 27.832031 27.730469 L 26.078125 27.730469 Z M 26.078125 26.730469 "/>
</g>
</svg>
