<?xml version="1.0" encoding="UTF-8"?>
<svg xmlns="http://www.w3.org/2000/svg" xmlns:xlink="http://www.w3.org/1999/xlink" width="36pt" height="36pt" viewBox="0 0 36 36" version="1.1">
<g id="surface1">
<path style=" stroke:none;fill-rule:evenodd;fill:rgb(0%,49.411765%,100%);fill-opacity:1;" d="M 8.40625 2.136719 L 27.59375 2.136719 C 31.054688 2.136719 33.863281 4.945312 33.863281 8.40625 L 33.863281 27.59375 C 33.863281 31.054688 31.054688 33.863281 27.59375 33.863281 L 8.40625 33.863281 C 4.945312 33.863281 2.136719 31.054688 2.136719 27.59375 L 2.136719 8.40625 C 2.136719 4.945312 4.945312 2.136719 8.40625 2.136719 Z M 8.40625 2.136719 "/>
<path style=" stroke:none;fill-rule:nonzero;fill:rgb(71.764706%,71.764706%,71.764706%);fill-opacity:1;" d="M 24.882812 27.558594 L 11.117188 27.558594 L 11.117188 20.675781 L 24.882812 20.675781 Z M 24.882812 27.558594 "/>
<path style=" stroke:none;fill-rule:nonzero;fill:rgb(60%,60%,60%);fill-opacity:1;" d="M 26.671875 21.363281 L 9.328125 21.363281 C 8.792969 21.363281 8.363281 20.925781 8.363281 20.386719 L 8.363281 10.636719 C 8.363281 10.097656 8.792969 9.660156 9.328125 9.660156 L 26.671875 9.660156 C 27.207031 9.660156 27.636719 10.097656 27.636719 10.636719 L 27.636719 20.386719 C 27.636719 20.925781 27.207031 21.363281 26.671875 21.363281 Z M 26.671875 21.363281 "/>
<path style=" stroke:none;fill-rule:nonzero;fill:rgb(40%,40%,40%);fill-opacity:1;" d="M 23.507812 18.609375 L 12.492188 18.609375 L 12.492188 17.234375 L 23.507812 17.234375 Z M 23.507812 18.609375 "/>
<path style=" stroke:none;fill-rule:nonzero;fill:rgb(40%,40%,40%);fill-opacity:1;" d="M 22.128906 15.855469 L 13.871094 15.855469 L 13.871094 14.480469 L 22.128906 14.480469 Z M 22.128906 15.855469 "/>
<path style=" stroke:none;fill-rule:nonzero;fill:rgb(40%,40%,40%);fill-opacity:1;" d="M 20.753906 13.105469 L 15.246094 13.105469 L 15.246094 11.726562 L 20.753906 11.726562 Z M 20.753906 13.105469 "/>
<path style=" stroke:none;fill-rule:nonzero;fill:rgb(40%,40%,40%);fill-opacity:1;" d="M 23.507812 26.183594 L 20.066406 26.183594 L 20.066406 24.117188 L 23.507812 24.117188 Z M 23.507812 26.183594 "/>
<path style=" stroke:none;fill-rule:nonzero;fill:rgb(40%,40%,40%);fill-opacity:1;" d="M 15.933594 26.183594 L 12.492188 26.183594 L 12.492188 24.117188 L 15.933594 24.117188 Z M 15.933594 26.183594 "/>
</g>
</svg>
