<?xml version="1.0" encoding="UTF-8"?>
<svg xmlns="http://www.w3.org/2000/svg" xmlns:xlink="http://www.w3.org/1999/xlink" width="36pt" height="36pt" viewBox="0 0 36 36" version="1.1">
<g id="surface1">
<path style=" stroke:none;fill-rule:evenodd;fill:rgb(22.745098%,40.784314%,71.372549%);fill-opacity:1;" d="M 8.40625 2.136719 L 27.59375 2.136719 C 31.054688 2.136719 33.863281 4.945312 33.863281 8.40625 L 33.863281 27.59375 C 33.863281 31.054688 31.054688 33.863281 27.59375 33.863281 L 8.40625 33.863281 C 4.945312 33.863281 2.136719 31.054688 2.136719 27.59375 L 2.136719 8.40625 C 2.136719 4.945312 4.945312 2.136719 8.40625 2.136719 Z M 8.40625 2.136719 "/>
<path style=" stroke:none;fill-rule:evenodd;fill:rgb(34.901961%,35.294118%,99.215686%);fill-opacity:1;" d="M 27.472656 20.257812 C 27.753906 20.355469 28.308594 20.683594 28.558594 20.742188 C 31.386719 21.421875 32.851562 21.515625 33.863281 21.46875 L 33.863281 19.539062 C 33.542969 19.441406 33.304688 19.304688 32.859375 19.269531 C 32.066406 19.207031 31.066406 19.269531 29.839844 19.5625 C 29.105469 19.738281 28.203125 19.976562 27.472656 20.257812 Z M 27.472656 20.257812 "/>
<path style=" stroke:none;fill-rule:evenodd;fill:rgb(28.235294%,50.980392%,89.019608%);fill-opacity:1;" d="M 2.136719 20.347656 L 2.136719 27.59375 C 2.136719 31.066406 4.933594 33.863281 8.40625 33.863281 L 27.589844 33.863281 C 31.066406 33.863281 33.863281 31.066406 33.863281 27.59375 L 33.863281 21.46875 C 32.851562 21.515625 31.386719 21.421875 28.558594 20.742188 C 28.308594 20.683594 27.753906 20.355469 27.472656 20.257812 C 25.851562 20.886719 24.417969 21.703125 22.867188 22.382812 C 21.746094 22.871094 20.652344 23.289062 19.605469 23.511719 C 18.554688 23.734375 17.546875 23.761719 16.597656 23.46875 C 15.253906 23.054688 13.589844 22.101562 11.984375 21.242188 C 11.386719 21.324219 10.804688 21.449219 10.191406 21.464844 C 9.074219 21.492188 7.929688 21.394531 6.773438 21.117188 C 4.320312 20.53125 3.035156 20.335938 2.136719 20.347656 Z M 2.136719 20.347656 "/>
<path style=" stroke:none;fill-rule:evenodd;fill:rgb(34.901961%,35.294118%,99.215686%);fill-opacity:1;" d="M 2.136719 20.347656 C 3.035156 20.335938 4.320312 20.53125 6.773438 21.117188 C 7.929688 21.394531 9.074219 21.492188 10.191406 21.464844 C 10.804688 21.449219 11.386719 21.324219 11.984375 21.242188 C 11.3125 20.882812 10.707031 20.671875 10.050781 20.3125 C 8.941406 19.703125 7.882812 19.125 6.957031 18.691406 C 6.035156 18.261719 5.25 17.972656 4.691406 17.941406 C 4.019531 17.902344 3.402344 18.042969 2.867188 18.253906 C 2.574219 18.367188 2.375 18.515625 2.136719 18.65625 Z M 2.136719 20.347656 "/>
<path style=" stroke:none;fill-rule:evenodd;fill:rgb(61.568627%,51.372549%,75.294118%);fill-opacity:1;" d="M 33.863281 16.835938 C 33.339844 16.859375 32.839844 16.835938 32.230469 17.039062 C 31.378906 17.320312 29.574219 17.804688 27.46875 18.199219 C 25.363281 18.597656 22.957031 18.910156 20.890625 18.851562 C 19.566406 18.765625 18.3125 18.441406 17.097656 18.003906 C 15.886719 17.5625 14.707031 17.011719 13.539062 16.46875 C 12.367188 15.929688 11.203125 15.402344 10.007812 15.011719 C 8.8125 14.621094 7.585938 14.367188 6.300781 14.375 L 6.296875 14.375 C 5.566406 14.378906 4.808594 14.59375 4.03125 14.902344 C 3.417969 15.144531 2.78125 15.460938 2.136719 15.761719 L 2.136719 18.65625 C 2.375 18.515625 2.574219 18.367188 2.867188 18.253906 C 3.402344 18.042969 4.019531 17.902344 4.691406 17.941406 C 5.25 17.972656 6.035156 18.261719 6.957031 18.691406 C 7.882812 19.125 8.941406 19.703125 10.050781 20.3125 C 12.273438 21.53125 14.691406 22.882812 16.597656 23.46875 C 17.546875 23.761719 18.554688 23.734375 19.605469 23.511719 C 20.652344 23.289062 21.746094 22.871094 22.867188 22.382812 C 25.113281 21.398438 27.46875 20.132812 29.839844 19.5625 C 31.066406 19.269531 32.066406 19.207031 32.859375 19.269531 C 33.304688 19.304688 33.542969 19.441406 33.863281 19.539062 Z M 33.863281 16.835938 "/>
<path style=" stroke:none;fill-rule:evenodd;fill:rgb(46.666667%,40.392157%,75.294118%);fill-opacity:1;" d="M 33.863281 15.605469 C 32.675781 15.929688 31.128906 16.367188 29.246094 16.796875 C 27.113281 17.289062 24.769531 17.722656 22.734375 17.8125 C 20.921875 17.71875 19.226562 17.351562 17.570312 16.925781 C 15.910156 16.503906 14.289062 16.019531 12.625 15.691406 C 12.261719 15.621094 11.859375 15.679688 11.492188 15.625 C 12.171875 15.90625 12.859375 16.15625 13.539062 16.472656 C 14.707031 17.011719 15.886719 17.5625 17.097656 18.003906 C 18.3125 18.441406 19.566406 18.765625 20.890625 18.851562 C 22.957031 18.910156 25.363281 18.597656 27.46875 18.199219 C 29.574219 17.804688 31.378906 17.320312 32.230469 17.039062 C 32.839844 16.835938 33.339844 16.859375 33.863281 16.835938 Z M 33.863281 15.605469 "/>
<path style=" stroke:none;fill-rule:evenodd;fill:rgb(22.745098%,40.784314%,71.372549%);fill-opacity:1;" d="M 8.40625 2.136719 C 4.933594 2.136719 2.136719 4.933594 2.136719 8.410156 L 2.136719 15.761719 C 2.78125 15.460938 3.417969 15.144531 4.03125 14.902344 C 4.808594 14.59375 5.566406 14.378906 6.296875 14.375 L 6.300781 14.375 C 7.585938 14.367188 8.8125 14.621094 10.007812 15.011719 C 10.507812 15.175781 10.996094 15.421875 11.492188 15.625 C 11.859375 15.679688 12.261719 15.621094 12.625 15.691406 C 14.289062 16.019531 15.910156 16.503906 17.570312 16.925781 C 19.226562 17.351562 20.921875 17.71875 22.734375 17.8125 C 24.769531 17.722656 27.113281 17.289062 29.246094 16.796875 C 31.128906 16.367188 32.675781 15.929688 33.863281 15.605469 L 33.863281 8.410156 C 33.863281 4.933594 31.066406 2.136719 27.589844 2.136719 Z M 8.40625 2.136719 "/>
<path style=" stroke:none;fill-rule:nonzero;fill:rgb(31.372549%,74.509804%,93.333333%);fill-opacity:1;" d="M 24.550781 7.28125 C 23.160156 7.214844 21.800781 8.007812 20.988281 9.125 C 20.023438 10.472656 19.515625 12.339844 19.089844 13.882812 C 18.507812 16.046875 17.523438 18.09375 16.28125 19.960938 C 13.710938 23.816406 10.367188 27.171875 6.019531 28.867188 C 5.992188 28.878906 5.96875 28.894531 5.945312 28.914062 L 5.773438 29.078125 C 5.605469 29.230469 5.734375 29.507812 5.960938 29.484375 C 9.007812 29.125 10.96875 26.855469 13.214844 25.054688 C 15.023438 24.878906 17.097656 24.765625 18.847656 24.296875 C 21.304688 23.605469 23.964844 22.519531 25.640625 20.449219 C 27.3125 18.402344 27.59375 15.550781 26.980469 13.082031 C 26.773438 12.097656 25.921875 11.085938 24.84375 10.871094 C 24.816406 10.769531 24.789062 10.667969 24.757812 10.566406 C 24.992188 10.308594 25.75 10.035156 25.980469 9.699219 C 26.238281 9.324219 26.417969 8.582031 26.289062 8.070312 C 26.28125 8.042969 26.269531 8.019531 26.253906 7.996094 C 25.96875 7.585938 25.015625 7.28125 24.550781 7.28125 Z M 24.550781 7.28125 "/>
</g>
</svg>
