<?xml version="1.0" encoding="UTF-8"?>
<svg xmlns="http://www.w3.org/2000/svg" xmlns:xlink="http://www.w3.org/1999/xlink" width="36pt" height="36pt" viewBox="0 0 36 36" version="1.1">
<g id="surface1">
<path style=" stroke:none;fill-rule:evenodd;fill:rgb(100%,78.823529%,27.843137%);fill-opacity:1;" d="M 8.40625 2.136719 L 27.59375 2.136719 C 31.054688 2.136719 33.863281 4.945312 33.863281 8.40625 L 33.863281 27.59375 C 33.863281 31.054688 31.054688 33.863281 27.59375 33.863281 L 8.40625 33.863281 C 4.945312 33.863281 2.136719 31.054688 2.136719 27.59375 L 2.136719 8.40625 C 2.136719 4.945312 4.945312 2.136719 8.40625 2.136719 Z M 8.40625 2.136719 "/>
<path style=" stroke:none;fill-rule:nonzero;fill:rgb(70.196078%,55.294118%,19.607843%);fill-opacity:1;" d="M 18 10.820312 C 15.078125 10.824219 12.445312 12.597656 11.347656 15.308594 L 9.925781 15.308594 L 9.027344 17.101562 L 10.886719 17.101562 C 10.847656 17.398438 10.824219 17.699219 10.820312 18 L 9.925781 19.792969 L 11.058594 19.792969 C 11.878906 22.960938 14.730469 25.171875 18 25.179688 C 20.179688 25.179688 22.242188 24.1875 23.601562 22.488281 L 20.972656 22.488281 C 20.089844 23.070312 19.058594 23.382812 18 23.382812 C 15.722656 23.382812 13.691406 21.945312 12.929688 19.792969 L 18.898438 19.792969 L 19.792969 18 L 12.617188 18 C 12.617188 17.699219 12.644531 17.398438 12.695312 17.101562 L 19.792969 17.101562 L 20.691406 15.308594 L 13.34375 15.308594 C 14.304688 13.644531 16.078125 12.617188 18 12.617188 C 19.054688 12.617188 20.089844 12.929688 20.96875 13.511719 L 23.59375 13.511719 C 22.234375 11.8125 20.175781 10.824219 18 10.820312 Z M 18 10.820312 "/>
<path style=" stroke:none;fill-rule:nonzero;fill:rgb(70.196078%,55.294118%,19.607843%);fill-opacity:1;" d="M 18 6.335938 C 11.539062 6.335938 6.335938 11.539062 6.335938 18 C 6.335938 24.460938 11.539062 29.664062 18 29.664062 C 24.460938 29.664062 29.664062 24.460938 29.664062 18 C 29.664062 11.539062 24.460938 6.335938 18 6.335938 Z M 18 8.128906 C 23.5 8.128906 27.871094 12.5 27.871094 18 C 27.871094 23.5 23.5 27.871094 18 27.871094 C 12.5 27.871094 8.128906 23.5 8.128906 18 C 8.128906 12.5 12.5 8.128906 18 8.128906 Z M 18 8.128906 "/>
</g>
</svg>
