<?xml version="1.0" encoding="UTF-8"?>
<svg xmlns="http://www.w3.org/2000/svg" xmlns:xlink="http://www.w3.org/1999/xlink" width="36pt" height="36pt" viewBox="0 0 36 36" version="1.1">
<g id="surface1">
<path style=" stroke:none;fill-rule:evenodd;fill:rgb(80%,80%,80%);fill-opacity:1;" d="M 2.136719 11.898438 L 2.136719 27.59375 C 2.136719 31.066406 4.933594 33.867188 8.40625 33.867188 L 27.589844 33.867188 C 31.066406 33.867188 33.863281 31.066406 33.863281 27.59375 L 33.863281 11.898438 Z M 2.136719 11.898438 "/>
<path style=" stroke:none;fill-rule:evenodd;fill:rgb(76.078431%,20.784314%,16.470588%);fill-opacity:1;" d="M 2.136719 11.898438 L 33.863281 11.898438 L 33.863281 8.40625 C 33.863281 4.933594 31.066406 2.132812 27.589844 2.132812 L 8.40625 2.132812 C 4.933594 2.132812 2.136719 4.933594 2.136719 8.40625 Z M 2.136719 11.898438 "/>
<path style=" stroke:none;fill-rule:nonzero;fill:rgb(40%,40%,40%);fill-opacity:1;" d="M 8.394531 16.179688 L 8.394531 17.140625 L 27.605469 17.140625 L 27.605469 16.179688 Z M 8.394531 20.023438 L 8.394531 20.984375 L 27.605469 20.984375 L 27.605469 20.023438 Z M 8.394531 23.863281 L 8.394531 24.824219 L 27.605469 24.824219 L 27.605469 23.863281 Z M 8.394531 27.707031 L 8.394531 28.667969 L 27.605469 28.667969 L 27.605469 27.707031 Z M 8.394531 27.707031 "/>
</g>
</svg>
