<?xml version="1.0" encoding="UTF-8"?>
<svg xmlns="http://www.w3.org/2000/svg" xmlns:xlink="http://www.w3.org/1999/xlink" width="36pt" height="36pt" viewBox="0 0 36 36" version="1.1">
<g id="surface1">
<path style=" stroke:none;fill-rule:evenodd;fill:rgb(40%,40%,40%);fill-opacity:1;" d="M 8.40625 2.136719 L 27.59375 2.136719 C 31.054688 2.136719 33.863281 4.945312 33.863281 8.40625 L 33.863281 27.59375 C 33.863281 31.054688 31.054688 33.863281 27.59375 33.863281 L 8.40625 33.863281 C 4.945312 33.863281 2.136719 31.054688 2.136719 27.59375 L 2.136719 8.40625 C 2.136719 4.945312 4.945312 2.136719 8.40625 2.136719 Z M 8.40625 2.136719 "/>
<path style=" stroke:none;fill-rule:nonzero;fill:rgb(80%,80%,80%);fill-opacity:1;" d="M 18.074219 6.519531 C 16.582031 6.515625 15.066406 6.800781 13.597656 7.410156 C 7.730469 9.847656 4.96875 16.53125 7.410156 22.402344 C 9.847656 28.269531 16.535156 31.03125 22.402344 28.59375 C 28.269531 26.152344 31.03125 19.46875 28.589844 13.601562 C 26.761719 9.199219 22.542969 6.542969 18.074219 6.519531 Z M 18 11.441406 C 21.621094 11.441406 24.558594 14.378906 24.558594 18 C 24.558594 21.621094 21.621094 24.558594 18 24.558594 C 14.378906 24.558594 11.441406 21.621094 11.441406 18 C 11.441406 14.378906 14.378906 11.441406 18 11.441406 Z M 18 11.441406 "/>
<path style=" stroke:none;fill-rule:nonzero;fill:rgb(90.588235%,29.803922%,23.529412%);fill-opacity:1;" d="M 18.074219 6.519531 C 16.691406 6.515625 15.285156 6.761719 13.917969 7.285156 L 15.667969 11.871094 C 16.410156 11.585938 17.203125 11.441406 18 11.441406 C 18.796875 11.441406 19.585938 11.589844 20.332031 11.875 L 22.082031 7.28125 C 20.808594 6.796875 19.457031 6.527344 18.074219 6.519531 Z M 7.285156 13.917969 C 6.765625 15.285156 6.515625 16.691406 6.523438 18.070312 C 6.53125 19.453125 6.800781 20.8125 7.285156 22.082031 L 11.871094 20.335938 C 11.585938 19.589844 11.441406 18.796875 11.441406 18 C 11.445312 17.203125 11.589844 16.410156 11.878906 15.667969 Z M 28.714844 13.917969 L 24.128906 15.664062 C 24.414062 16.410156 24.558594 17.203125 24.558594 18 C 24.558594 18.796875 24.410156 19.585938 24.125 20.332031 L 28.714844 22.082031 C 29.199219 20.8125 29.46875 19.453125 29.476562 18.070312 C 29.484375 16.691406 29.238281 15.285156 28.714844 13.917969 Z M 15.667969 24.125 L 13.917969 28.714844 C 15.285156 29.238281 16.691406 29.484375 18.074219 29.480469 C 19.457031 29.472656 20.808594 29.203125 22.082031 28.71875 L 20.335938 24.128906 C 19.589844 24.414062 18.796875 24.558594 18 24.558594 C 17.203125 24.558594 16.414062 24.410156 15.667969 24.125 Z M 15.667969 24.125 "/>
</g>
</svg>
