<?xml version="1.0" encoding="UTF-8"?>
<svg xmlns="http://www.w3.org/2000/svg" xmlns:xlink="http://www.w3.org/1999/xlink" width="36pt" height="36pt" viewBox="0 0 36 36" version="1.1">
<g id="surface1">
<path style=" stroke:none;fill-rule:evenodd;fill:rgb(21.568627%,62.745098%,94.901961%);fill-opacity:1;" d="M 8.40625 2.136719 L 27.59375 2.136719 C 31.054688 2.136719 33.863281 4.945312 33.863281 8.40625 L 33.863281 27.59375 C 33.863281 31.054688 31.054688 33.863281 27.59375 33.863281 L 8.40625 33.863281 C 4.945312 33.863281 2.136719 31.054688 2.136719 27.59375 L 2.136719 8.40625 C 2.136719 4.945312 4.945312 2.136719 8.40625 2.136719 Z M 8.40625 2.136719 "/>
<path style=" stroke:none;fill-rule:nonzero;fill:rgb(100%,100%,100%);fill-opacity:1;" d="M 19.347656 25.183594 C 18.9375 24.9375 18.679688 24.507812 17.546875 22.222656 C 16.921875 20.957031 16.324219 19.832031 16.222656 19.722656 C 16.109375 19.601562 15.164062 19.097656 13.753906 18.410156 C 10.96875 17.050781 10.6875 16.835938 10.6875 16.066406 C 10.6875 15.707031 10.863281 15.363281 11.136719 15.183594 C 11.230469 15.121094 14.144531 14.078125 17.609375 12.867188 C 23.695312 10.738281 23.921875 10.664062 24.339844 10.691406 C 24.699219 10.710938 24.804688 10.75 24.976562 10.914062 C 25.234375 11.160156 25.351562 11.503906 25.300781 11.871094 C 25.246094 12.265625 20.875 24.609375 20.714844 24.828125 C 20.367188 25.292969 19.777344 25.449219 19.347656 25.183594 Z M 19.347656 25.183594 "/>
</g>
</svg>
