<?xml version="1.0" encoding="UTF-8"?>
<svg xmlns="http://www.w3.org/2000/svg" xmlns:xlink="http://www.w3.org/1999/xlink" width="36pt" height="36pt" viewBox="0 0 36 36" version="1.1">
<g id="surface1">
<path style=" stroke:none;fill-rule:evenodd;fill:rgb(20%,30.196078%,36.078431%);fill-opacity:1;" d="M 33.863281 17.367188 L 2.136719 17.367188 L 2.136719 27.523438 C 2.136719 30.996094 4.933594 33.792969 8.40625 33.792969 L 27.59375 33.792969 C 31.066406 33.792969 33.863281 30.996094 33.863281 27.523438 Z M 33.863281 17.367188 "/>
<path style=" stroke:none;fill-rule:evenodd;fill:rgb(81.568627%,49.411765%,20.392157%);fill-opacity:1;" d="M 33.863281 11.460938 L 2.136719 11.460938 L 2.136719 17.367188 L 33.863281 17.367188 Z M 33.863281 11.460938 "/>
<path style=" stroke:none;fill-rule:evenodd;fill:rgb(50.196078%,50.196078%,50.196078%);fill-opacity:1;" d="M 8.40625 2.066406 C 4.933594 2.066406 2.136719 4.863281 2.136719 8.335938 L 2.136719 11.460938 L 33.863281 11.460938 L 33.863281 8.335938 C 33.863281 4.863281 31.066406 2.066406 27.59375 2.066406 Z M 8.40625 2.066406 "/>
<path style=" stroke:none;fill-rule:evenodd;fill:rgb(91.764706%,67.843137%,26.27451%);fill-opacity:1;" d="M 33.863281 16.492188 L 2.136719 16.492188 L 2.136719 27.664062 C 2.136719 31.136719 4.933594 33.933594 8.40625 33.933594 L 27.589844 33.933594 C 31.066406 33.933594 33.863281 31.136719 33.863281 27.664062 Z M 33.863281 16.492188 "/>
<path style=" stroke:none;fill-rule:evenodd;fill:rgb(79.607843%,49.803922%,17.254902%);fill-opacity:1;" d="M 10.191406 20.253906 C 10.191406 20.890625 9.675781 21.40625 9.039062 21.40625 C 8.402344 21.40625 7.886719 20.890625 7.886719 20.253906 C 7.886719 19.617188 8.402344 19.101562 9.039062 19.101562 C 9.675781 19.101562 10.191406 19.617188 10.191406 20.253906 Z M 10.191406 20.253906 "/>
<path style=" stroke:none;fill-rule:evenodd;fill:rgb(79.607843%,49.803922%,17.254902%);fill-opacity:1;" d="M 28.664062 20.273438 C 28.664062 20.910156 28.148438 21.425781 27.511719 21.425781 C 26.875 21.425781 26.359375 20.910156 26.359375 20.273438 C 26.359375 19.636719 26.875 19.121094 27.511719 19.121094 C 28.148438 19.121094 28.664062 19.636719 28.664062 20.273438 Z M 28.664062 20.273438 "/>
<path style="fill:none;stroke-width:1.290687;stroke-linecap:round;stroke-linejoin:miter;stroke:rgb(100%,100%,100%);stroke-opacity:1;stroke-miterlimit:4;" d="M -37.336923 20.290666 C -36.573035 32.075389 -21.607757 30.957333 -21.03484 20.290666 " transform="matrix(1.125,0,0,1.125,51.101695,-2.135593)"/>
<path style=" stroke:none;fill-rule:evenodd;fill:rgb(0%,69.803922%,0%);fill-opacity:1;" d="M 31.234375 25.035156 C 31.234375 28.144531 28.714844 30.660156 25.609375 30.660156 C 22.5 30.660156 19.984375 28.144531 19.984375 25.035156 C 19.984375 21.929688 22.5 19.410156 25.609375 19.410156 C 28.714844 19.410156 31.234375 21.929688 31.234375 25.035156 Z M 31.234375 25.035156 "/>
<path style=" stroke:none;fill-rule:evenodd;fill:rgb(100%,100%,100%);fill-opacity:1;" d="M 25.523438 28.765625 L 22.042969 22.738281 L 29.003906 22.738281 Z M 25.523438 28.765625 "/>
</g>
</svg>
