<?xml version="1.0" encoding="UTF-8"?>
<svg xmlns="http://www.w3.org/2000/svg" xmlns:xlink="http://www.w3.org/1999/xlink" width="36pt" height="36pt" viewBox="0 0 36 36" version="1.1">
<g id="surface1">
<path style=" stroke:none;fill-rule:evenodd;fill:rgb(14.117647%,22.745098%,52.156863%);fill-opacity:1;" d="M 8.40625 2.136719 L 27.59375 2.136719 C 31.054688 2.136719 33.863281 4.945312 33.863281 8.40625 L 33.863281 27.59375 C 33.863281 31.054688 31.054688 33.863281 27.59375 33.863281 L 8.40625 33.863281 C 4.945312 33.863281 2.136719 31.054688 2.136719 27.59375 L 2.136719 8.40625 C 2.136719 4.945312 4.945312 2.136719 8.40625 2.136719 Z M 8.40625 2.136719 "/>
<path style=" stroke:none;fill-rule:nonzero;fill:rgb(100%,100%,100%);fill-opacity:1;" d="M 18.441406 28.15625 C 15.832031 27.816406 13.335938 27.046875 11.832031 25.75 C 11.40625 25.382812 10.554688 24.492188 10.628906 24.46875 C 10.875 24.515625 11.382812 24.742188 11.878906 24.753906 C 12.375 24.769531 12.636719 24.242188 12.878906 23.84375 L 12.878906 19.644531 C 12.878906 15.015625 12.988281 15.09375 12.660156 14.808594 C 12.261719 14.460938 11.085938 14.570312 10.292969 15.101562 C 9.085938 15.910156 7.648438 17.703125 6.625 19.570312 C 6.441406 19.902344 6.277344 20.1875 6.261719 20.203125 C 6.242188 20.222656 6.238281 19.863281 6.253906 19.40625 C 6.292969 18.144531 6.527344 17.261719 7.167969 15.960938 C 7.753906 14.773438 8.046875 14.453125 9.296875 13.09375 C 11.367188 10.839844 13.410156 9.28125 15.433594 8.414062 C 15.910156 8.210938 17.390625 7.820312 17.492188 7.820312 C 17.511719 7.820312 16.796875 8.234375 16.628906 8.355469 C 15.625 9.089844 15.28125 9.597656 15.136719 10.488281 C 15.027344 11.148438 15.402344 11.949219 15.691406 12.277344 C 15.84375 12.445312 15.898438 12.472656 16.105469 12.492188 C 16.394531 12.464844 17.085938 12.34375 17.378906 12.320312 L 17.378906 22.78125 C 17.378906 23.570312 17.714844 23.617188 18.5 23.617188 C 19.292969 23.617188 19.96875 23.019531 20.753906 22.507812 L 20.753906 13.695312 L 20.476562 12.6875 C 20.359375 12.273438 20.050781 11.773438 19.628906 11.195312 C 20.4375 11.210938 20.949219 12.171875 21.65625 12.429688 C 23.707031 10.804688 25.160156 9.484375 27.503906 8.945312 C 26.484375 10.5625 26.347656 11.25 25.253906 12.824219 L 25.253906 22.242188 C 25.367188 22.375 25.953125 22.542969 26.226562 22.566406 C 28.078125 22.304688 28.523438 21.261719 29.753906 20.195312 C 29.792969 20.230469 28.800781 22.101562 28.382812 22.726562 C 27.105469 24.640625 25.269531 25.832031 23.570312 26.914062 C 23.253906 27.117188 23.25 27.117188 23.140625 27.027344 C 22.335938 26.664062 21.878906 26.464844 20.945312 25.757812 C 20.035156 26.625 19.59375 27.261719 18.640625 28.179688 C 18.609375 28.175781 18.523438 28.164062 18.441406 28.15625 Z M 18.441406 28.15625 "/>
</g>
</svg>
