<?xml version="1.0" encoding="UTF-8"?>
<svg xmlns="http://www.w3.org/2000/svg" xmlns:xlink="http://www.w3.org/1999/xlink" width="36pt" height="36pt" viewBox="0 0 36 36" version="1.1">
<g id="surface1">
<path style=" stroke:none;fill-rule:evenodd;fill:rgb(30.980392%,30.980392%,30.980392%);fill-opacity:1;" d="M 8.40625 2.136719 L 27.59375 2.136719 C 31.054688 2.136719 33.863281 4.945312 33.863281 8.40625 L 33.863281 27.59375 C 33.863281 31.054688 31.054688 33.863281 27.59375 33.863281 L 8.40625 33.863281 C 4.945312 33.863281 2.136719 31.054688 2.136719 27.59375 L 2.136719 8.40625 C 2.136719 4.945312 4.945312 2.136719 8.40625 2.136719 Z M 8.40625 2.136719 "/>
<path style=" stroke:none;fill-rule:nonzero;fill:rgb(0.392157%,59.607843%,76.862745%);fill-opacity:1;" d="M 6.1875 6.75 L 11.8125 6.75 L 17.738281 27.375 L 18.140625 29.25 L 12.9375 29.25 Z M 6.1875 6.75 "/>
<path style=" stroke:none;fill-rule:nonzero;fill:rgb(30.196078%,72.941176%,76.078431%);fill-opacity:1;" d="M 20.074219 18.566406 L 15.441406 18.5625 L 12.9375 29.25 L 18 29.25 C 20.3125 19.214844 20.074219 18.570312 20.074219 18.570312 Z M 20.074219 18.566406 "/>
<path style=" stroke:none;fill-rule:nonzero;fill:rgb(2.352941%,71.764706%,53.333333%);fill-opacity:1;" d="M 18.5625 6.75 L 15.1875 18.5625 L 18.140625 29.25 L 29.8125 29.25 L 27.5625 23.625 L 22.5 23.625 L 20.8125 18.5625 L 22.5 12.375 L 27.5625 12.375 L 29.8125 6.75 Z M 18.5625 6.75 "/>
</g>
</svg>
