<?xml version="1.0" encoding="UTF-8"?>
<svg xmlns="http://www.w3.org/2000/svg" xmlns:xlink="http://www.w3.org/1999/xlink" width="36pt" height="36pt" viewBox="0 0 36 36" version="1.1">
<g id="surface1">
<path style=" stroke:none;fill-rule:evenodd;fill:rgb(80%,80%,80%);fill-opacity:1;" d="M 8.40625 2.136719 L 27.59375 2.136719 C 31.054688 2.136719 33.863281 4.945312 33.863281 8.40625 L 33.863281 27.59375 C 33.863281 31.054688 31.054688 33.863281 27.59375 33.863281 L 8.40625 33.863281 C 4.945312 33.863281 2.136719 31.054688 2.136719 27.59375 L 2.136719 8.40625 C 2.136719 4.945312 4.945312 2.136719 8.40625 2.136719 Z M 8.40625 2.136719 "/>
<path style=" stroke:none;fill-rule:nonzero;fill:rgb(76.078431%,20.784314%,16.470588%);fill-opacity:1;" d="M 25.644531 8.4375 C 25.238281 8.4375 24.828125 8.523438 24.496094 8.695312 C 24.015625 8.941406 23.53125 9.46875 23.316406 9.972656 C 23.089844 10.511719 23.058594 11.460938 23.25 11.964844 C 23.332031 12.175781 23.472656 12.542969 23.5625 12.777344 C 23.765625 13.308594 23.835938 14.472656 23.707031 15.128906 C 23.5625 15.863281 23.113281 16.714844 22.582031 17.25 C 20.996094 18.855469 18.59375 18.882812 17.015625 17.316406 C 16.472656 16.773438 16.394531 16.644531 13.9375 12.160156 C 13.105469 10.636719 12.355469 9.359375 12.199219 9.195312 C 11.710938 8.667969 11.035156 8.476562 10.410156 8.476562 C 9.074219 8.453125 8.148438 9.523438 7.929688 10.671875 C 7.765625 11.589844 7.691406 11.433594 12.007812 19.304688 C 14.734375 24.273438 16.03125 26.5625 16.242188 26.789062 C 16.996094 27.585938 18.066406 27.78125 19.070312 27.308594 C 19.332031 27.183594 19.632812 26.960938 19.820312 26.742188 C 20.195312 26.320312 27.917969 12.292969 28.042969 11.808594 C 28.175781 11.304688 28.144531 10.585938 27.964844 10.085938 C 27.746094 9.46875 27.140625 8.832031 26.542969 8.597656 C 26.273438 8.488281 25.960938 8.4375 25.644531 8.4375 Z M 25.644531 8.4375 "/>
</g>
</svg>
