<?xml version="1.0" encoding="UTF-8"?>
<svg xmlns="http://www.w3.org/2000/svg" xmlns:xlink="http://www.w3.org/1999/xlink" width="36pt" height="36pt" viewBox="0 0 36 36" version="1.1">
<g id="surface1">
<path style=" stroke:none;fill-rule:evenodd;fill:rgb(65.882353%,9.019608%,9.019608%);fill-opacity:1;" d="M 8.40625 2.136719 L 27.59375 2.136719 C 31.054688 2.136719 33.863281 4.945312 33.863281 8.40625 L 33.863281 27.59375 C 33.863281 31.054688 31.054688 33.863281 27.59375 33.863281 L 8.40625 33.863281 C 4.945312 33.863281 2.136719 31.054688 2.136719 27.59375 L 2.136719 8.40625 C 2.136719 4.945312 4.945312 2.136719 8.40625 2.136719 Z M 8.40625 2.136719 "/>
<path style=" stroke:none;fill-rule:nonzero;fill:rgb(80%,80%,80%);fill-opacity:1;" d="M 18.027344 6.039062 C 17.808594 6.035156 17.589844 6.09375 17.398438 6.207031 L 8.351562 11.566406 C 7.976562 11.789062 7.75 12.195312 7.75 12.640625 L 7.75 23.359375 C 7.75 23.804688 7.976562 24.210938 8.351562 24.433594 L 17.398438 29.792969 C 17.769531 30.015625 18.230469 30.015625 18.601562 29.792969 L 27.648438 24.433594 C 28.023438 24.210938 28.25 23.804688 28.25 23.359375 L 28.25 12.640625 C 28.25 12.195312 28.023438 11.789062 27.648438 11.566406 L 18.601562 6.207031 C 18.429688 6.101562 18.230469 6.042969 18.027344 6.039062 Z M 18.027344 6.039062 "/>
<path style="fill:none;stroke-width:3;stroke-linecap:square;stroke-linejoin:round;stroke:rgb(65.882353%,9.019608%,9.019608%);stroke-opacity:1;stroke-miterlimit:4;" d="M -37.75603 3.094846 L -29.401864 3.094846 L -37.75603 13.042763 L -29.401864 13.042763 " transform="matrix(1.125,0,0,1.125,55.776315,8.881579)"/>
</g>
</svg>
