<?xml version="1.0" encoding="UTF-8"?>
<svg xmlns="http://www.w3.org/2000/svg" xmlns:xlink="http://www.w3.org/1999/xlink" width="36pt" height="36pt" viewBox="0 0 36 36" version="1.1">
<g id="surface1">
<path style=" stroke:none;fill-rule:evenodd;fill:rgb(85.098039%,16.078431%,16.078431%);fill-opacity:1;" d="M 8.40625 2.136719 L 27.59375 2.136719 C 31.054688 2.136719 33.863281 4.945312 33.863281 8.40625 L 33.863281 27.59375 C 33.863281 31.054688 31.054688 33.863281 27.59375 33.863281 L 8.40625 33.863281 C 4.945312 33.863281 2.136719 31.054688 2.136719 27.59375 L 2.136719 8.40625 C 2.136719 4.945312 4.945312 2.136719 8.40625 2.136719 Z M 8.40625 2.136719 "/>
<path style="fill:none;stroke-width:2;stroke-linecap:round;stroke-linejoin:round;stroke:rgb(100%,53.72549%,36.862745%);stroke-opacity:1;stroke-miterlimit:4;" d="M 6.013868 12.899603 L 13.715257 12.899603 L 6.715257 22.000297 L 14.413173 22.000297 " transform="matrix(1.125,0,0,1.125,0.0000239002,-0.00814656)"/>
<path style="fill:none;stroke-width:2;stroke-linecap:round;stroke-linejoin:round;stroke:rgb(100%,53.72549%,36.862745%);stroke-opacity:1;stroke-miterlimit:4;" d="M 16.999979 22.000297 L 16.999979 10.000297 L 21.499979 17.000297 L 25.999979 10.000297 L 25.999979 21.986408 " transform="matrix(1.125,0,0,1.125,0.0000239002,-0.00814656)"/>
</g>
</svg>
