<?xml version="1.0" encoding="UTF-8"?>
<svg xmlns="http://www.w3.org/2000/svg" xmlns:xlink="http://www.w3.org/1999/xlink" width="17pt" height="17pt" viewBox="0 0 17 17" version="1.1">
<g id="surface1">
<path style=" stroke:none;fill-rule:evenodd;fill:rgb(51.764706%,51.764706%,51.764706%);fill-opacity:1;" d="M 4.015625 1.019531 L 13.1875 1.019531 C 14.839844 1.019531 16.183594 2.363281 16.183594 4.015625 L 16.183594 13.1875 C 16.183594 14.839844 14.839844 16.183594 13.1875 16.183594 L 4.015625 16.183594 C 2.363281 16.183594 1.019531 14.839844 1.019531 13.1875 L 1.019531 4.015625 C 1.019531 2.363281 2.363281 1.019531 4.015625 1.019531 Z M 4.015625 1.019531 "/>
<path style=" stroke:none;fill-rule:nonzero;fill:rgb(51.764706%,51.764706%,51.764706%);fill-opacity:1;" d="M 8.527344 5.203125 C 6.664062 5.203125 5.15625 6.710938 5.15625 8.574219 C 5.15625 10.433594 6.664062 11.945312 8.527344 11.945312 C 10.386719 11.945312 11.898438 10.433594 11.898438 8.574219 C 11.898438 6.710938 10.386719 5.203125 8.527344 5.203125 Z M 8.527344 7.222656 C 9.273438 7.222656 9.875 7.828125 9.875 8.574219 C 9.875 9.316406 9.273438 9.921875 8.527344 9.921875 C 7.78125 9.921875 7.179688 9.316406 7.179688 8.574219 C 7.179688 7.828125 7.78125 7.222656 8.527344 7.222656 Z M 8.527344 7.222656 "/>
<path style=" stroke:none;fill-rule:nonzero;fill:rgb(100%,100%,100%);fill-opacity:1;" d="M 8.527344 2.277344 C 5.039062 2.277344 2.234375 5.082031 2.234375 8.574219 C 2.234375 12.058594 5.039062 14.867188 8.527344 14.867188 C 12.011719 14.867188 14.824219 12.058594 14.824219 8.574219 C 14.824219 5.082031 12.011719 2.277344 8.527344 2.277344 Z M 8.527344 5.875 C 10.015625 5.875 11.226562 7.082031 11.226562 8.574219 C 11.226562 10.0625 10.015625 11.269531 8.527344 11.269531 C 7.035156 11.269531 5.832031 10.0625 5.832031 8.574219 C 5.832031 7.082031 7.035156 5.875 8.527344 5.875 Z M 8.527344 5.875 "/>
<path style=" stroke:none;fill-rule:nonzero;fill:rgb(72.941176%,13.333333%,100%);fill-opacity:1;" d="M 15.71875 11.71875 C 15.71875 13.703125 14.109375 15.316406 12.125 15.316406 C 10.136719 15.316406 8.527344 13.703125 8.527344 11.71875 C 8.527344 9.730469 10.136719 8.121094 12.125 8.121094 C 14.109375 8.121094 15.71875 9.730469 15.71875 11.71875 Z M 15.71875 11.71875 "/>
<path style=" stroke:none;fill-rule:nonzero;fill:rgb(100%,100%,100%);fill-opacity:1;" d="M 10.324219 11.871094 C 10.324219 12.863281 11.132812 13.667969 12.125 13.667969 C 13.105469 13.667969 13.902344 12.878906 13.921875 11.898438 C 13.921875 11.890625 13.921875 11.878906 13.921875 11.871094 C 13.921875 11.703125 13.789062 11.570312 13.621094 11.570312 C 13.457031 11.570312 13.320312 11.703125 13.320312 11.871094 C 13.320312 12.53125 12.789062 13.066406 12.125 13.066406 C 11.464844 13.066406 10.925781 12.53125 10.925781 11.871094 C 10.925781 11.207031 11.464844 10.671875 12.125 10.671875 L 12.125 11.269531 L 13.320312 10.371094 L 12.125 9.472656 L 12.125 10.070312 C 11.132812 10.070312 10.324219 10.878906 10.324219 11.871094 Z M 10.324219 11.871094 "/>
</g>
</svg>
