<?xml version="1.0" encoding="UTF-8"?>
<svg xmlns="http://www.w3.org/2000/svg" xmlns:xlink="http://www.w3.org/1999/xlink" width="17pt" height="17pt" viewBox="0 0 17 17" version="1.1">
<g id="surface1">
<path style=" stroke:none;fill-rule:evenodd;fill:rgb(57.647059%,69.411765%,20%);fill-opacity:1;" d="M 4.015625 1.019531 L 13.1875 1.019531 C 14.839844 1.019531 16.183594 2.363281 16.183594 4.015625 L 16.183594 13.1875 C 16.183594 14.839844 14.839844 16.183594 13.1875 16.183594 L 4.015625 16.183594 C 2.363281 16.183594 1.019531 14.839844 1.019531 13.1875 L 1.019531 4.015625 C 1.019531 2.363281 2.363281 1.019531 4.015625 1.019531 Z M 4.015625 1.019531 "/>
<path style=" stroke:none;fill-rule:nonzero;fill:rgb(100%,100%,100%);fill-opacity:1;" d="M 4.972656 7.9375 C 4.652344 7.9375 4.398438 8.160156 4.398438 8.429688 L 4.398438 10.886719 C 4.398438 11.160156 4.652344 11.375 4.972656 11.375 C 5.289062 11.375 5.546875 11.160156 5.546875 10.886719 L 5.546875 8.429688 C 5.546875 8.160156 5.289062 7.9375 4.972656 7.9375 Z M 4.972656 7.9375 "/>
<path style=" stroke:none;fill-rule:nonzero;fill:rgb(100%,100%,100%);fill-opacity:1;" d="M 7.105469 3.535156 C 7.074219 3.53125 7.039062 3.53125 7.007812 3.542969 C 6.871094 3.578125 6.789062 3.714844 6.828125 3.855469 L 7.148438 5.054688 C 5.546875 5.824219 5.546875 7.8125 5.546875 7.8125 L 5.546875 11.054688 C 5.546875 11.65625 6 12.144531 6.5625 12.144531 L 7.070312 12.144531 L 7.070312 13.164062 C 7.070312 13.441406 7.300781 13.671875 7.582031 13.671875 C 7.867188 13.671875 8.089844 13.441406 8.089844 13.164062 L 8.089844 12.144531 L 9.109375 12.144531 L 9.109375 13.164062 C 9.109375 13.441406 9.335938 13.671875 9.621094 13.671875 C 9.902344 13.671875 10.132812 13.441406 10.132812 13.164062 L 10.132812 12.144531 L 10.640625 12.144531 C 11.207031 12.144531 11.660156 11.65625 11.660156 11.054688 L 11.660156 7.8125 C 11.660156 7.8125 11.65625 5.824219 10.054688 5.054688 L 10.375 3.855469 C 10.410156 3.714844 10.332031 3.578125 10.195312 3.542969 C 10.058594 3.503906 9.921875 3.585938 9.882812 3.71875 L 9.574219 4.878906 C 9.289062 4.796875 8.96875 4.753906 8.601562 4.753906 C 8.234375 4.753906 7.914062 4.796875 7.628906 4.878906 L 7.320312 3.71875 C 7.292969 3.617188 7.207031 3.546875 7.105469 3.535156 Z M 7.105469 3.535156 "/>
<path style=" stroke:none;fill-rule:nonzero;fill:rgb(100%,100%,100%);fill-opacity:1;" d="M 12.230469 7.9375 C 11.914062 7.9375 11.65625 8.160156 11.65625 8.429688 L 11.65625 10.886719 C 11.65625 11.160156 11.914062 11.375 12.230469 11.375 C 12.550781 11.375 12.804688 11.160156 12.804688 10.886719 L 12.804688 8.429688 C 12.804688 8.160156 12.550781 7.9375 12.230469 7.9375 Z M 12.230469 7.9375 "/>
<path style=" stroke:none;fill-rule:nonzero;fill:rgb(57.647059%,69.411765%,20%);fill-opacity:1;" d="M 6.421875 7.558594 L 10.777344 7.558594 C 10.84375 7.558594 10.894531 7.640625 10.894531 7.746094 C 10.894531 7.855469 10.84375 7.9375 10.777344 7.9375 L 6.421875 7.9375 C 6.359375 7.9375 6.308594 7.855469 6.308594 7.746094 C 6.308594 7.640625 6.359375 7.558594 6.421875 7.558594 Z M 6.421875 7.558594 "/>
<path style=" stroke:none;fill-rule:nonzero;fill:rgb(57.647059%,69.411765%,20%);fill-opacity:1;" d="M 7.453125 6.410156 C 7.453125 6.621094 7.285156 6.789062 7.070312 6.789062 C 6.863281 6.789062 6.691406 6.621094 6.691406 6.410156 C 6.691406 6.199219 6.863281 6.027344 7.070312 6.027344 C 7.285156 6.027344 7.453125 6.199219 7.453125 6.410156 Z M 7.453125 6.410156 "/>
<path style=" stroke:none;fill-rule:nonzero;fill:rgb(57.647059%,69.411765%,20%);fill-opacity:1;" d="M 10.511719 6.410156 C 10.511719 6.621094 10.339844 6.789062 10.132812 6.789062 C 9.917969 6.789062 9.746094 6.621094 9.746094 6.410156 C 9.746094 6.199219 9.917969 6.027344 10.132812 6.027344 C 10.339844 6.027344 10.511719 6.199219 10.511719 6.410156 Z M 10.511719 6.410156 "/>
</g>
</svg>
