<?xml version="1.0" encoding="UTF-8"?>
<svg xmlns="http://www.w3.org/2000/svg" xmlns:xlink="http://www.w3.org/1999/xlink" width="17pt" height="17pt" viewBox="0 0 17 17" version="1.1">
<g id="surface1">
<path style=" stroke:none;fill-rule:evenodd;fill:rgb(28.235294%,79.215686%,76.078431%);fill-opacity:1;" d="M 4.015625 1.019531 L 13.1875 1.019531 C 14.839844 1.019531 16.183594 2.363281 16.183594 4.015625 L 16.183594 13.1875 C 16.183594 14.839844 14.839844 16.183594 13.1875 16.183594 L 4.015625 16.183594 C 2.363281 16.183594 1.019531 14.839844 1.019531 13.1875 L 1.019531 4.015625 C 1.019531 2.363281 2.363281 1.019531 4.015625 1.019531 Z M 4.015625 1.019531 "/>
<path style=" stroke:none;fill-rule:nonzero;fill:rgb(100%,100%,100%);fill-opacity:1;" d="M 8.277344 2.957031 C 7.78125 2.957031 7.355469 3.292969 7.234375 3.769531 C 6.695312 4.0625 6.246094 4.574219 5.90625 5.1875 C 5.671875 5.609375 5.484375 6.09375 5.339844 6.617188 C 4.871094 6.890625 4.453125 7.199219 4.105469 7.535156 C 3.304688 8.308594 2.820312 9.292969 3.082031 10.261719 C 3.34375 11.230469 4.25 11.84375 5.332031 12.109375 C 5.457031 12.148438 5.59375 12.171875 5.726562 12.195312 C 5.78125 12.316406 5.84375 12.4375 5.90625 12.554688 C 6.449219 13.53125 7.273438 14.246094 8.277344 14.246094 C 9.28125 14.246094 10.101562 13.53125 10.648438 12.554688 C 10.882812 12.132812 11.070312 11.644531 11.214844 11.125 C 11.679688 10.851562 12.097656 10.542969 12.445312 10.207031 C 12.703125 9.957031 12.921875 9.6875 13.097656 9.40625 C 13.101562 9.40625 13.105469 9.40625 13.117188 9.40625 C 13.707031 9.40625 14.191406 8.925781 14.191406 8.332031 C 14.191406 7.851562 13.867188 7.425781 13.402344 7.296875 C 13.082031 6.433594 12.234375 5.882812 11.222656 5.628906 C 11.089844 5.59375 10.960938 5.570312 10.828125 5.546875 C 10.769531 5.421875 10.710938 5.300781 10.648438 5.1875 C 10.308594 4.574219 9.855469 4.0625 9.316406 3.769531 C 9.199219 3.292969 8.765625 2.957031 8.277344 2.957031 Z M 7.5625 4.835938 C 7.757812 5.007812 8.011719 5.105469 8.277344 5.105469 C 8.539062 5.105469 8.785156 5.011719 8.984375 4.839844 C 9.179688 4.984375 9.371094 5.183594 9.550781 5.449219 C 8.878906 5.460938 8.167969 5.5625 7.441406 5.753906 C 7.195312 5.824219 6.953125 5.898438 6.71875 5.984375 C 6.761719 5.894531 6.796875 5.789062 6.847656 5.707031 C 7.066406 5.3125 7.3125 5.023438 7.5625 4.835938 Z M 9.472656 6.53125 C 9.675781 6.523438 9.871094 6.535156 10.058594 6.546875 C 10.285156 7.214844 10.425781 8.007812 10.425781 8.871094 C 10.425781 9.410156 10.363281 9.921875 10.269531 10.398438 C 9.832031 10.613281 9.355469 10.808594 8.835938 10.945312 C 8 11.171875 7.199219 11.238281 6.496094 11.195312 C 6.269531 10.527344 6.125 9.730469 6.125 8.871094 C 6.125 8.328125 6.191406 7.820312 6.285156 7.339844 C 6.71875 7.125 7.199219 6.933594 7.71875 6.792969 C 8.324219 6.632812 8.921875 6.546875 9.472656 6.53125 Z M 11.25 6.753906 C 11.828125 6.949219 12.183594 7.246094 12.347656 7.578125 C 12.152344 7.777344 12.039062 8.050781 12.039062 8.332031 C 12.039062 8.519531 12.085938 8.695312 12.179688 8.859375 C 12.054688 9.042969 11.902344 9.238281 11.699219 9.433594 C 11.632812 9.5 11.542969 9.5625 11.46875 9.625 C 11.488281 9.378906 11.503906 9.125 11.503906 8.871094 C 11.503906 8.117188 11.410156 7.40625 11.25 6.753906 Z M 8.277344 7.257812 C 7.382812 7.257812 6.664062 7.980469 6.664062 8.871094 C 6.664062 9.757812 7.382812 10.484375 8.277344 10.484375 C 9.167969 10.484375 9.890625 9.757812 9.890625 8.871094 C 9.890625 7.980469 9.167969 7.257812 8.277344 7.257812 Z M 5.082031 8.113281 C 5.0625 8.359375 5.050781 8.613281 5.050781 8.871094 C 5.050781 9.621094 5.140625 10.332031 5.304688 10.984375 C 4.625 10.753906 4.234375 10.390625 4.121094 9.980469 C 4 9.519531 4.21875 8.921875 4.855469 8.304688 C 4.921875 8.242188 5.007812 8.179688 5.082031 8.113281 Z M 9.832031 11.753906 C 9.789062 11.847656 9.75 11.949219 9.707031 12.03125 C 9.277344 12.804688 8.753906 13.171875 8.277344 13.171875 C 7.855469 13.171875 7.398438 12.886719 7.003906 12.289062 C 7.671875 12.277344 8.386719 12.179688 9.109375 11.984375 C 9.359375 11.917969 9.597656 11.84375 9.832031 11.753906 Z M 9.832031 11.753906 "/>
<path style=" stroke:none;fill-rule:nonzero;fill:rgb(29.803922%,29.803922%,29.803922%);fill-opacity:1;" d="M 8.277344 2.957031 C 7.683594 2.957031 7.203125 3.4375 7.203125 4.03125 C 7.203125 4.625 7.683594 5.105469 8.277344 5.105469 C 8.871094 5.105469 9.351562 4.625 9.351562 4.03125 C 9.351562 3.4375 8.871094 2.957031 8.277344 2.957031 Z M 8.277344 7.257812 C 7.382812 7.257812 6.664062 7.980469 6.664062 8.871094 C 6.664062 9.757812 7.382812 10.484375 8.277344 10.484375 C 9.167969 10.484375 9.890625 9.757812 9.890625 8.871094 C 9.890625 7.980469 9.167969 7.257812 8.277344 7.257812 Z M 13.117188 7.257812 C 12.523438 7.257812 12.039062 7.738281 12.039062 8.332031 C 12.039062 8.925781 12.523438 9.40625 13.117188 9.40625 C 13.707031 9.40625 14.191406 8.925781 14.191406 8.332031 C 14.191406 7.738281 13.707031 7.257812 13.117188 7.257812 Z M 13.117188 7.257812 "/>
</g>
</svg>
