<?xml version="1.0" encoding="UTF-8"?>
<svg xmlns="http://www.w3.org/2000/svg" xmlns:xlink="http://www.w3.org/1999/xlink" width="17pt" height="17pt" viewBox="0 0 17 17" version="1.1">
<g id="surface1">
<path style=" stroke:none;fill-rule:evenodd;fill:rgb(30.980392%,30.980392%,30.980392%);fill-opacity:1;" d="M 4.015625 1.019531 L 13.1875 1.019531 C 14.839844 1.019531 16.183594 2.363281 16.183594 4.015625 L 16.183594 13.1875 C 16.183594 14.839844 14.839844 16.183594 13.1875 16.183594 L 4.015625 16.183594 C 2.363281 16.183594 1.019531 14.839844 1.019531 13.1875 L 1.019531 4.015625 C 1.019531 2.363281 2.363281 1.019531 4.015625 1.019531 Z M 4.015625 1.019531 "/>
<path style=" stroke:none;fill-rule:nonzero;fill:rgb(69.019608%,69.019608%,69.019608%);fill-opacity:1;" d="M 3.632812 2.390625 L 3.632812 8.851562 L 6.363281 7.234375 L 9.097656 5.621094 L 6.363281 4.007812 Z M 9.59375 5.871094 L 9.59375 10.839844 L 11.582031 9.59375 L 13.570312 8.351562 Z M 5.121094 8.851562 L 5.121094 14.8125 L 7.609375 13.320312 L 10.089844 11.832031 L 7.609375 10.339844 Z M 5.121094 8.851562 "/>
</g>
</svg>
