<?xml version="1.0" encoding="UTF-8"?>
<svg xmlns="http://www.w3.org/2000/svg" xmlns:xlink="http://www.w3.org/1999/xlink" width="17pt" height="17pt" viewBox="0 0 17 17" version="1.1">
<g id="surface1">
<path style=" stroke:none;fill-rule:evenodd;fill:rgb(76.078431%,20.784314%,16.470588%);fill-opacity:1;" d="M 11.949219 1.019531 L 5.363281 1.019531 L 8.667969 13.042969 Z M 11.949219 1.019531 "/>
<path style=" stroke:none;fill-rule:evenodd;fill:rgb(76.078431%,20.784314%,16.470588%);fill-opacity:1;" d="M 12.164062 16.183594 L 13.183594 16.183594 C 14.847656 16.183594 16.183594 14.847656 16.183594 13.183594 L 16.183594 4.015625 C 16.183594 3.621094 16.09375 3.246094 15.957031 2.898438 Z M 12.164062 16.183594 "/>
<path style=" stroke:none;fill-rule:evenodd;fill:rgb(99.607843%,80.392157%,21.960784%);fill-opacity:1;" d="M 12.164062 16.183594 L 15.957031 2.898438 C 15.515625 1.796875 14.449219 1.019531 13.183594 1.019531 L 11.949219 1.019531 L 8.667969 13.042969 L 9.535156 16.183594 Z M 12.164062 16.183594 "/>
<path style=" stroke:none;fill-rule:evenodd;fill:rgb(76.078431%,20.784314%,16.470588%);fill-opacity:1;" d="M 1.316406 2.757812 C 1.132812 3.144531 1.019531 3.566406 1.019531 4.015625 L 1.019531 13.183594 C 1.019531 14.847656 2.355469 16.183594 4.015625 16.183594 L 5.152344 16.183594 Z M 1.316406 2.757812 "/>
<path style=" stroke:none;fill-rule:evenodd;fill:rgb(99.607843%,84.313725%,37.647059%);fill-opacity:1;" d="M 1.316406 2.757812 L 5.152344 16.183594 L 9.535156 16.183594 L 5.363281 1.019531 L 4.015625 1.019531 C 2.808594 1.019531 1.789062 1.734375 1.316406 2.757812 Z M 1.316406 2.757812 "/>
</g>
</svg>
