<?xml version="1.0" encoding="UTF-8"?>
<svg xmlns="http://www.w3.org/2000/svg" xmlns:xlink="http://www.w3.org/1999/xlink" width="17pt" height="17pt" viewBox="0 0 17 17" version="1.1">
<defs>
<filter id="alpha" filterUnits="objectBoundingBox" x="0%" y="0%" width="100%" height="100%">
  <feColorMatrix type="matrix" in="SourceGraphic" values="0 0 0 0 1 0 0 0 0 1 0 0 0 0 1 0 0 0 1 0"/>
</filter>
<image id="image9" width="17" height="17" xlink:href="data:image/png;base64,iVBORw0KGgoAAAANSUhEUgAAABEAAAARCAYAAAA7bUf6AAAABmJLR0QA/wD/AP+gvaeTAAAAS0lEQVQ4jWNgGFaAEZ9kJRubOozdJSv74O/duz+xqWPBZ8iUf/+4YWyTb9+YT+JQx4TPEGLBqCE0MgQvYBYU5INh1vp62ls4ClABAMTFDTdbQtkYAAAAAElFTkSuQmCC"/>
<mask id="mask0">
  <g filter="url(#alpha)">
<use xlink:href="#image9"/>
  </g>
</mask>
<clipPath id="clip1">
  <rect width="17" height="17"/>
</clipPath>
<g id="surface11" clip-path="url(#clip1)">
<path style=" stroke:none;fill-rule:nonzero;fill:rgb(100%,100%,100%);fill-opacity:1;" d="M 8.601562 3.226562 C 8.601562 3.226562 8.0625 3.226562 8.0625 3.761719 C 8.0625 4.300781 7.527344 4.300781 7.527344 4.300781 C 7.527344 4.300781 6.988281 4.300781 6.988281 3.761719 L 6.988281 11.289062 L 10.214844 11.289062 L 10.214844 3.761719 C 10.214844 4.300781 9.675781 4.300781 9.675781 4.300781 C 9.675781 4.300781 9.140625 4.300781 9.140625 3.761719 C 9.140625 3.226562 8.601562 3.226562 8.601562 3.226562 Z M 8.601562 3.226562 "/>
</g>
<image id="image17" width="17" height="17" xlink:href="data:image/png;base64,iVBORw0KGgoAAAANSUhEUgAAABEAAAARCAYAAAA7bUf6AAAABmJLR0QA/wD/AP+gvaeTAAAAUklEQVQ4jWNgGAU0AYz4JE2YmPxh7H5e3oO2Hz9+wKaOBZcBbP/+MZ5nZdWH8af+/HmGgYEBqyFMBN1KBKCKIXjBNT4+QRhmCQlhprmFo2CwAgCM2BAQZBErmAAAAABJRU5ErkJggg=="/>
<mask id="mask1">
  <g filter="url(#alpha)">
<use xlink:href="#image17"/>
  </g>
</mask>
<clipPath id="clip2">
  <rect width="17" height="17"/>
</clipPath>
<g id="surface19" clip-path="url(#clip2)">
<path style=" stroke:none;fill-rule:nonzero;fill:rgb(100%,100%,100%);fill-opacity:1;" d="M 7.527344 5.375 C 7.527344 5.375 6.988281 5.375 6.988281 5.914062 L 6.988281 9.140625 L 10.214844 9.140625 L 10.214844 5.914062 C 10.214844 5.375 9.675781 5.375 9.675781 5.375 C 9.675781 5.375 9.140625 5.375 9.140625 5.914062 C 9.140625 6.449219 8.601562 6.449219 8.601562 6.449219 C 8.601562 6.449219 8.0625 6.449219 8.0625 5.914062 C 8.0625 5.375 7.527344 5.375 7.527344 5.375 Z M 7.527344 5.375 "/>
</g>
</defs>
<g id="surface1">
<path style=" stroke:none;fill-rule:evenodd;fill:rgb(35.294118%,66.27451%,94.117647%);fill-opacity:1;" d="M 4.015625 1.019531 L 13.1875 1.019531 C 14.839844 1.019531 16.183594 2.363281 16.183594 4.015625 L 16.183594 13.1875 C 16.183594 14.839844 14.839844 16.183594 13.1875 16.183594 L 4.015625 16.183594 C 2.363281 16.183594 1.019531 14.839844 1.019531 13.1875 L 1.019531 4.015625 C 1.019531 2.363281 2.363281 1.019531 4.015625 1.019531 Z M 4.015625 1.019531 "/>
<path style=" stroke:none;fill-rule:nonzero;fill:rgb(100%,100%,100%);fill-opacity:1;" d="M 4.839844 9.675781 L 8.601562 13.976562 L 12.363281 9.675781 L 10.214844 9.675781 L 10.214844 8.0625 C 10.214844 8.601562 9.675781 8.601562 9.675781 8.601562 C 9.675781 8.601562 9.140625 8.601562 9.140625 8.0625 C 9.140625 7.527344 8.601562 7.527344 8.601562 7.527344 C 8.601562 7.527344 8.0625 7.527344 8.0625 8.0625 C 8.0625 8.601562 7.527344 8.601562 7.527344 8.601562 C 7.527344 8.601562 6.988281 8.601562 6.988281 8.0625 L 6.988281 9.675781 Z M 4.839844 9.675781 "/>
<use xlink:href="#surface11" mask="url(#mask0)"/>
<use xlink:href="#surface19" mask="url(#mask1)"/>
</g>
</svg>
