<?xml version="1.0" encoding="UTF-8"?>
<svg xmlns="http://www.w3.org/2000/svg" xmlns:xlink="http://www.w3.org/1999/xlink" width="17pt" height="17pt" viewBox="0 0 17 17" version="1.1">
<g id="surface1">
<path style=" stroke:none;fill-rule:evenodd;fill:rgb(92.54902%,92.54902%,92.54902%);fill-opacity:1;" d="M 3.96875 1.007812 L 13.03125 1.007812 C 14.664062 1.007812 15.992188 2.335938 15.992188 3.96875 L 15.992188 13.03125 C 15.992188 14.664062 14.664062 15.992188 13.03125 15.992188 L 3.96875 15.992188 C 2.335938 15.992188 1.007812 14.664062 1.007812 13.03125 L 1.007812 3.96875 C 1.007812 2.335938 2.335938 1.007812 3.96875 1.007812 Z M 3.96875 1.007812 "/>
<path style=" stroke:none;fill-rule:nonzero;fill:rgb(70.196078%,70.196078%,70.196078%);fill-opacity:1;" d="M 3.675781 3.859375 L 13.324219 3.859375 L 13.324219 5.628906 L 3.675781 5.628906 Z M 3.675781 3.859375 "/>
<path style=" stroke:none;fill-rule:nonzero;fill:rgb(70.196078%,70.196078%,70.196078%);fill-opacity:1;" d="M 3.675781 6.484375 L 13.324219 6.484375 L 13.324219 8.253906 L 3.675781 8.253906 Z M 3.675781 6.484375 "/>
<path style=" stroke:none;fill-rule:nonzero;fill:rgb(70.196078%,70.196078%,70.196078%);fill-opacity:1;" d="M 3.675781 9.109375 L 13.324219 9.109375 L 13.324219 10.878906 L 3.675781 10.878906 Z M 3.675781 9.109375 "/>
<path style=" stroke:none;fill-rule:nonzero;fill:rgb(70.196078%,70.196078%,70.196078%);fill-opacity:1;" d="M 3.675781 11.734375 L 13.324219 11.734375 L 13.324219 13.503906 L 3.675781 13.503906 Z M 3.675781 11.734375 "/>
<path style=" stroke:none;fill-rule:nonzero;fill:rgb(100%,93.333333%,66.666667%);fill-opacity:1;" d="M 8.300781 11.113281 L 11.300781 6.03125 C 12.242188 5.46875 13.988281 5.808594 13.976562 7.570312 L 10.996094 12.761719 L 8.429688 14.078125 Z M 8.300781 11.113281 "/>
<path style=" stroke:none;fill-rule:nonzero;fill:rgb(18.823529%,1.960784%,1.176471%);fill-opacity:1;" d="M 8.386719 13.082031 L 8.429688 14.078125 L 9.320312 13.621094 Z M 8.386719 13.082031 "/>
<path style=" stroke:none;fill-rule:nonzero;fill:rgb(100%,90.196078%,50.588235%);fill-opacity:1;" d="M 10.179688 12.207031 L 9.101562 13.496094 L 9.316406 13.617188 L 10.996094 12.761719 L 11.027344 12.703125 Z M 10.179688 12.207031 "/>
<path style=" stroke:none;fill-rule:nonzero;fill:rgb(20%,20%,20%);fill-opacity:1;" d="M 13.621094 8.1875 L 10.9375 6.644531 L 8.300781 11.113281 L 11.03125 12.703125 Z M 13.621094 8.1875 "/>
<path style=" stroke:none;fill-rule:nonzero;fill:rgb(89.019608%,88.627451%,85.882353%);fill-opacity:1;" d="M 13.976562 7.566406 L 11.304688 6.027344 C 11.304688 6.03125 11.300781 6.03125 11.300781 6.03125 L 10.9375 6.644531 L 13.621094 8.1875 L 13.976562 7.570312 C 13.976562 7.570312 13.976562 7.570312 13.976562 7.566406 Z M 13.976562 7.566406 "/>
<path style=" stroke:none;fill-rule:nonzero;fill:rgb(100%,0%,0%);fill-opacity:1;" d="M 12.117188 5.785156 C 11.824219 5.804688 11.542969 5.890625 11.304688 6.027344 L 13.976562 7.566406 C 13.984375 6.246094 13.003906 5.726562 12.117188 5.785156 Z M 12.117188 5.785156 "/>
<path style=" stroke:none;fill-rule:nonzero;fill:rgb(10.196078%,10.196078%,10.196078%);fill-opacity:1;" d="M 12.746094 7.683594 L 10.179688 12.207031 L 11.03125 12.703125 L 13.621094 8.1875 Z M 12.746094 7.683594 "/>
<path style=" stroke:none;fill-rule:nonzero;fill:rgb(20%,20%,20%);fill-opacity:1;" d="M 11.769531 7.125 L 9.175781 11.621094 L 10.179688 12.207031 L 12.746094 7.683594 Z M 11.769531 7.125 "/>
<path style=" stroke:none;fill-rule:nonzero;fill:rgb(80%,80%,80%);fill-opacity:1;" d="M 11.652344 7.054688 L 9.058594 11.550781 L 9.175781 11.621094 L 11.769531 7.125 Z M 11.652344 7.054688 "/>
</g>
</svg>
