<?xml version="1.0" encoding="UTF-8"?>
<svg xmlns="http://www.w3.org/2000/svg" xmlns:xlink="http://www.w3.org/1999/xlink" width="17pt" height="17pt" viewBox="0 0 17 17" version="1.1">
<g id="surface1">
<path style=" stroke:none;fill-rule:evenodd;fill:rgb(76.078431%,20.784314%,16.470588%);fill-opacity:1;" d="M 1.007812 8.777344 L 1.007812 13.027344 C 1.007812 14.671875 2.328125 15.992188 3.972656 15.992188 L 13.03125 15.992188 C 14.671875 15.992188 15.992188 14.671875 15.992188 13.027344 L 15.992188 8.777344 Z M 1.007812 8.777344 "/>
<path style=" stroke:none;fill-rule:evenodd;fill:rgb(43.529412%,73.333333%,20.392157%);fill-opacity:1;" d="M 1.007812 8.777344 L 15.992188 8.777344 L 15.992188 3.96875 C 15.992188 2.328125 14.671875 1.007812 13.03125 1.007812 L 3.972656 1.007812 C 2.328125 1.007812 1.007812 2.328125 1.007812 3.96875 Z M 1.007812 8.777344 "/>
<path style=" stroke:none;fill-rule:nonzero;fill:rgb(100%,100%,100%);fill-opacity:1;" d="M 8.5 1.941406 L 9.5625 3.800781 L 11.6875 4.09375 L 10.09375 5.660156 L 10.46875 7.785156 L 8.5 6.722656 L 6.53125 7.785156 L 6.90625 5.660156 L 5.3125 4.09375 L 7.4375 3.800781 Z M 8.5 1.941406 "/>
<path style=" stroke:none;fill-rule:nonzero;fill:rgb(0%,0%,0%);fill-opacity:1;" d="M 7.625 9.84375 L 8.207031 12.179688 L 5.871094 11.59375 L 5.871094 13.347656 L 8.207031 12.761719 L 7.625 15.097656 L 9.375 15.097656 L 8.792969 12.761719 L 11.128906 13.347656 L 11.128906 11.59375 L 8.792969 12.179688 L 9.375 9.84375 Z M 7.625 9.84375 "/>
</g>
</svg>
