<?xml version="1.0" encoding="UTF-8"?>
<svg xmlns="http://www.w3.org/2000/svg" xmlns:xlink="http://www.w3.org/1999/xlink" width="17pt" height="17pt" viewBox="0 0 17 17" version="1.1">
<g id="surface1">
<path style=" stroke:none;fill-rule:evenodd;fill:rgb(41.176471%,61.568627%,22.352941%);fill-opacity:1;" d="M 3.96875 1.007812 L 13.03125 1.007812 C 14.664062 1.007812 15.992188 2.335938 15.992188 3.96875 L 15.992188 13.03125 C 15.992188 14.664062 14.664062 15.992188 13.03125 15.992188 L 3.96875 15.992188 C 2.335938 15.992188 1.007812 14.664062 1.007812 13.03125 L 1.007812 3.96875 C 1.007812 2.335938 2.335938 1.007812 3.96875 1.007812 Z M 3.96875 1.007812 "/>
<path style=" stroke:none;fill-rule:evenodd;fill:rgb(41.176471%,61.568627%,22.352941%);fill-opacity:1;" d="M 15.992188 7.984375 C 14.90625 7.773438 13.816406 7.570312 12.730469 7.472656 C 11.324219 7.34375 9.914062 7.304688 8.507812 7.328125 C 7.097656 7.355469 5.691406 7.445312 4.28125 7.589844 C 3.191406 7.699219 2.101562 7.855469 1.007812 8.011719 L 1.007812 13.03125 C 1.007812 14.671875 2.328125 15.992188 3.96875 15.992188 L 13.03125 15.992188 C 14.671875 15.992188 15.992188 14.671875 15.992188 13.03125 Z M 15.992188 7.984375 "/>
<path style=" stroke:none;fill-rule:evenodd;fill:rgb(56.470588%,74.509804%,40.392157%);fill-opacity:1;" d="M 3.96875 1.007812 C 2.328125 1.007812 1.007812 2.328125 1.007812 3.96875 L 1.007812 8.011719 C 2.101562 7.855469 3.191406 7.699219 4.28125 7.589844 C 5.691406 7.445312 7.097656 7.355469 8.507812 7.328125 C 9.914062 7.304688 11.324219 7.34375 12.730469 7.472656 C 13.816406 7.570312 14.90625 7.773438 15.992188 7.984375 L 15.992188 3.96875 C 15.992188 2.328125 14.671875 1.007812 13.03125 1.007812 Z M 3.96875 1.007812 "/>
<path style=" stroke:none;fill-rule:nonzero;fill:rgb(100%,100%,100%);fill-opacity:1;" d="M 8.476562 3.710938 C 14.117188 7.851562 11.296875 5.78125 8.476562 3.710938 Z M 6.035156 9.972656 C 6.199219 9.90625 6.488281 9.707031 6.679688 9.535156 C 6.992188 9.25 7.035156 9.234375 7.109375 9.367188 C 7.289062 9.691406 7.699219 10.082031 7.859375 10.082031 C 8.058594 10.082031 9.078125 9.210938 9.078125 9.039062 C 9.078125 8.972656 8.976562 8.765625 8.851562 8.578125 L 8.621094 8.234375 C 8.527344 7.0625 8.710938 4.59375 8.246094 3.839844 C 7.65625 3.03125 6.664062 2.933594 6.0625 2.9375 C 4.480469 2.949219 3.621094 3.480469 3.308594 4.644531 C 3.203125 5.03125 3.265625 5.082031 3.910156 5.15625 C 4.179688 5.1875 4.488281 5.230469 4.589844 5.257812 C 4.75 5.296875 4.800781 5.25 4.941406 4.929688 C 5.042969 4.6875 5.191406 4.507812 5.351562 4.425781 C 5.636719 4.277344 6.121094 4.257812 6.363281 4.386719 C 6.570312 4.496094 6.761719 4.945312 6.761719 5.320312 L 6.761719 5.605469 L 6.289062 5.660156 C 5.484375 5.753906 4.597656 5.953125 4.289062 6.113281 C 3.90625 6.308594 3.425781 6.796875 3.238281 7.175781 C 3.128906 7.394531 3.085938 7.667969 3.085938 8.179688 C 3.085938 8.777344 3.117188 8.9375 3.292969 9.246094 C 3.671875 9.914062 4.246094 10.1875 5.15625 10.132812 C 5.480469 10.113281 5.875 10.039062 6.035156 9.972656 Z M 5.214844 8.714844 C 4.957031 8.535156 4.832031 8.019531 4.945312 7.605469 C 5.085938 7.074219 5.746094 6.703125 6.546875 6.695312 L 6.78125 6.691406 L 6.75 7.292969 C 6.730469 7.648438 6.652344 8.019531 6.558594 8.210938 C 6.292969 8.761719 5.636719 9.007812 5.214844 8.714844 Z M 5.214844 8.714844 "/>
<path style=" stroke:none;fill-rule:evenodd;fill:rgb(100%,100%,100%);fill-opacity:1;" d="M 2.535156 11.203125 L 6.140625 11.203125 C 6.175781 11.203125 6.207031 11.226562 6.207031 11.25 L 6.207031 11.890625 C 6.207031 11.914062 6.175781 11.9375 6.140625 11.9375 L 2.535156 11.9375 C 2.5 11.9375 2.46875 11.914062 2.46875 11.890625 L 2.46875 11.25 C 2.46875 11.226562 2.5 11.203125 2.535156 11.203125 Z M 2.535156 11.203125 "/>
<path style=" stroke:none;fill-rule:evenodd;fill:rgb(100%,100%,100%);fill-opacity:1;" d="M 2.535156 12.308594 L 6.140625 12.308594 C 6.175781 12.308594 6.207031 12.332031 6.207031 12.359375 L 6.207031 12.996094 C 6.207031 13.023438 6.175781 13.042969 6.140625 13.042969 L 2.535156 13.042969 C 2.5 13.042969 2.46875 13.023438 2.46875 12.996094 L 2.46875 12.359375 C 2.46875 12.332031 2.5 12.308594 2.535156 12.308594 Z M 2.535156 12.308594 "/>
<path style=" stroke:none;fill-rule:evenodd;fill:rgb(100%,100%,100%);fill-opacity:1;" d="M 2.535156 13.464844 L 6.140625 13.464844 C 6.175781 13.464844 6.207031 13.484375 6.207031 13.511719 L 6.207031 14.148438 C 6.207031 14.175781 6.175781 14.199219 6.140625 14.199219 L 2.535156 14.199219 C 2.5 14.199219 2.46875 14.175781 2.46875 14.148438 L 2.46875 13.511719 C 2.46875 13.484375 2.5 13.464844 2.535156 13.464844 Z M 2.535156 13.464844 "/>
<path style=" stroke:none;fill-rule:evenodd;fill:rgb(100%,100%,100%);fill-opacity:1;" d="M 6.621094 12.308594 L 10.226562 12.308594 C 10.261719 12.308594 10.292969 12.332031 10.292969 12.359375 L 10.292969 12.996094 C 10.292969 13.023438 10.261719 13.042969 10.226562 13.042969 L 6.621094 13.042969 C 6.585938 13.042969 6.554688 13.023438 6.554688 12.996094 L 6.554688 12.359375 C 6.554688 12.332031 6.585938 12.308594 6.621094 12.308594 Z M 6.621094 12.308594 "/>
<path style=" stroke:none;fill-rule:evenodd;fill:rgb(100%,100%,100%);fill-opacity:1;" d="M 6.621094 13.464844 L 10.226562 13.464844 C 10.261719 13.464844 10.292969 13.484375 10.292969 13.511719 L 10.292969 14.148438 C 10.292969 14.175781 10.261719 14.199219 10.226562 14.199219 L 6.621094 14.199219 C 6.585938 14.199219 6.554688 14.175781 6.554688 14.148438 L 6.554688 13.511719 C 6.554688 13.484375 6.585938 13.464844 6.621094 13.464844 Z M 6.621094 13.464844 "/>
<path style=" stroke:none;fill-rule:evenodd;fill:rgb(100%,100%,100%);fill-opacity:1;" d="M 10.742188 11.203125 L 14.34375 11.203125 C 14.382812 11.203125 14.410156 11.226562 14.410156 11.25 L 14.410156 11.890625 C 14.410156 11.914062 14.382812 11.9375 14.34375 11.9375 L 10.742188 11.9375 C 10.703125 11.9375 10.671875 11.914062 10.671875 11.890625 L 10.671875 11.25 C 10.671875 11.226562 10.703125 11.203125 10.742188 11.203125 Z M 10.742188 11.203125 "/>
<path style=" stroke:none;fill-rule:evenodd;fill:rgb(100%,100%,100%);fill-opacity:1;" d="M 10.742188 12.308594 L 14.34375 12.308594 C 14.382812 12.308594 14.410156 12.332031 14.410156 12.359375 L 14.410156 12.996094 C 14.410156 13.023438 14.382812 13.042969 14.34375 13.042969 L 10.742188 13.042969 C 10.703125 13.042969 10.671875 13.023438 10.671875 12.996094 L 10.671875 12.359375 C 10.671875 12.332031 10.703125 12.308594 10.742188 12.308594 Z M 10.742188 12.308594 "/>
<path style=" stroke:none;fill-rule:evenodd;fill:rgb(100%,100%,100%);fill-opacity:1;" d="M 10.742188 13.464844 L 14.34375 13.464844 C 14.382812 13.464844 14.410156 13.484375 14.410156 13.511719 L 14.410156 14.148438 C 14.410156 14.175781 14.382812 14.199219 14.34375 14.199219 L 10.742188 14.199219 C 10.703125 14.199219 10.671875 14.175781 10.671875 14.148438 L 10.671875 13.511719 C 10.671875 13.484375 10.703125 13.464844 10.742188 13.464844 Z M 10.742188 13.464844 "/>
<path style=" stroke:none;fill-rule:evenodd;fill:rgb(100%,100%,100%);fill-opacity:1;" d="M 10.742188 10.089844 L 14.34375 10.089844 C 14.382812 10.089844 14.410156 10.113281 14.410156 10.136719 L 14.410156 10.777344 C 14.410156 10.804688 14.382812 10.824219 14.34375 10.824219 L 10.742188 10.824219 C 10.703125 10.824219 10.671875 10.804688 10.671875 10.777344 L 10.671875 10.136719 C 10.671875 10.113281 10.703125 10.089844 10.742188 10.089844 Z M 10.742188 10.089844 "/>
</g>
</svg>
