<?xml version="1.0" encoding="UTF-8"?>
<svg xmlns="http://www.w3.org/2000/svg" xmlns:xlink="http://www.w3.org/1999/xlink" width="17pt" height="17pt" viewBox="0 0 17 17" version="1.1">
<g id="surface1">
<path style=" stroke:none;fill-rule:evenodd;fill:rgb(25.882353%,63.921569%,80.784314%);fill-opacity:1;" d="M 3.96875 1.007812 L 13.03125 1.007812 C 14.664062 1.007812 15.992188 2.335938 15.992188 3.96875 L 15.992188 13.03125 C 15.992188 14.664062 14.664062 15.992188 13.03125 15.992188 L 3.96875 15.992188 C 2.335938 15.992188 1.007812 14.664062 1.007812 13.03125 L 1.007812 3.96875 C 1.007812 2.335938 2.335938 1.007812 3.96875 1.007812 Z M 3.96875 1.007812 "/>
<path style=" stroke:none;fill-rule:nonzero;fill:rgb(100%,100%,100%);fill-opacity:1;" d="M 12.074219 12.386719 C 12.210938 12.316406 12.332031 12.195312 12.40625 12.054688 C 12.484375 11.898438 12.484375 11.582031 12.40625 11.429688 C 12.34375 11.3125 10.875 9.816406 10.820312 9.816406 C 10.804688 9.816406 10.75 9.875 10.699219 9.945312 C 10.554688 10.148438 10.300781 10.414062 10.0625 10.605469 C 9.945312 10.703125 9.847656 10.796875 9.847656 10.8125 C 9.847656 10.851562 11.265625 12.285156 11.378906 12.359375 C 11.5625 12.480469 11.867188 12.492188 12.074219 12.386719 Z M 8.683594 11.019531 C 9.039062 10.929688 9.578125 10.65625 9.886719 10.414062 C 10.476562 9.953125 10.910156 9.257812 11.066406 8.523438 C 11.136719 8.175781 11.136719 7.476562 11.066406 7.136719 C 10.898438 6.339844 10.457031 5.648438 9.8125 5.167969 C 9.492188 4.929688 9.21875 4.789062 8.796875 4.652344 C 8.5 4.550781 8.425781 4.542969 7.863281 4.542969 C 7.332031 4.539062 7.214844 4.550781 6.941406 4.628906 C 5.707031 4.980469 4.785156 6.011719 4.566406 7.28125 C 4.535156 7.445312 4.527344 7.71875 4.539062 8.003906 C 4.578125 8.851562 4.890625 9.554688 5.488281 10.15625 C 6.3125 10.980469 7.542969 11.3125 8.683594 11.019531 Z M 7.234375 10.175781 C 6.085938 9.859375 5.355469 8.855469 5.417969 7.683594 C 5.5 6.195312 6.886719 5.140625 8.355469 5.453125 C 9.238281 5.640625 9.984375 6.363281 10.1875 7.234375 C 10.261719 7.542969 10.261719 8.09375 10.1875 8.40625 C 10.007812 9.171875 9.394531 9.84375 8.632812 10.113281 C 8.285156 10.238281 7.570312 10.269531 7.234375 10.175781 Z M 8.171875 9.65625 C 8.207031 9.605469 8.089844 9.503906 7.785156 9.320312 C 7.484375 9.140625 7.078125 8.734375 6.960938 8.503906 C 6.90625 8.398438 6.828125 8.195312 6.78125 8.054688 C 6.632812 7.601562 6.277344 7.34375 6.113281 7.578125 C 6.035156 7.6875 6.035156 8.027344 6.113281 8.296875 C 6.292969 8.90625 6.863281 9.429688 7.558594 9.632812 C 7.828125 9.707031 8.132812 9.722656 8.171875 9.65625 Z M 8.171875 9.65625 "/>
</g>
</svg>
