<?xml version="1.0" encoding="UTF-8"?>
<svg xmlns="http://www.w3.org/2000/svg" xmlns:xlink="http://www.w3.org/1999/xlink" width="17pt" height="17pt" viewBox="0 0 17 17" version="1.1">
<defs>
<filter id="alpha" filterUnits="objectBoundingBox" x="0%" y="0%" width="100%" height="100%">
  <feColorMatrix type="matrix" in="SourceGraphic" values="0 0 0 0 1 0 0 0 0 1 0 0 0 0 1 0 0 0 1 0"/>
</filter>
<mask id="mask0">
  <g filter="url(#alpha)">
<rect x="0" y="0" width="17" height="17" style="fill:rgb(0%,0%,0%);fill-opacity:0.101961;stroke:none;"/>
  </g>
</mask>
<clipPath id="clip1">
  <rect width="17" height="17"/>
</clipPath>
<g id="surface6" clip-path="url(#clip1)">
<path style=" stroke:none;fill-rule:nonzero;fill:rgb(100%,100%,100%);fill-opacity:1;" d="M 11.351562 5.648438 L 11.351562 6.125 L 12.421875 6.125 C 13.410156 6.125 14.203125 7.238281 14.203125 8.617188 L 14.203125 8.144531 C 14.203125 6.761719 13.410156 5.648438 12.421875 5.648438 Z M 11.351562 7.074219 C 11.351562 7.863281 10.714844 8.5 9.925781 8.5 L 7.074219 8.5 C 7.074219 8.5 5.648438 8.5 5.648438 9.925781 L 5.648438 10.402344 C 5.648438 8.976562 7.074219 8.976562 7.074219 8.976562 L 9.925781 8.976562 C 10.714844 8.976562 11.351562 8.339844 11.351562 7.550781 Z M 11.351562 7.074219 "/>
</g>
<clipPath id="clip2">
  <rect width="17" height="17"/>
</clipPath>
<g id="surface9" clip-path="url(#clip2)">
<path style=" stroke:none;fill-rule:evenodd;fill:rgb(80%,36.862745%,33.333333%);fill-opacity:1;" d="M 14.675781 12.152344 C 14.675781 13.621094 13.484375 14.808594 12.019531 14.808594 C 10.550781 14.808594 9.363281 13.621094 9.363281 12.152344 C 9.363281 10.6875 10.550781 9.496094 12.019531 9.496094 C 13.484375 9.496094 14.675781 10.6875 14.675781 12.152344 Z M 14.675781 12.152344 "/>
</g>
<clipPath id="clip3">
  <rect width="17" height="17"/>
</clipPath>
<g id="surface12" clip-path="url(#clip3)">
<path style=" stroke:none;fill-rule:nonzero;fill:rgb(100%,100%,100%);fill-opacity:1;" d="M 11.6875 10.824219 L 11.65625 11.175781 C 11.546875 11.214844 11.441406 11.277344 11.351562 11.351562 L 11.035156 11.203125 L 10.703125 11.777344 L 10.992188 11.976562 C 10.980469 12.035156 10.976562 12.09375 10.972656 12.152344 C 10.972656 12.210938 10.980469 12.273438 10.988281 12.332031 L 10.703125 12.53125 L 11.035156 13.105469 L 11.351562 12.957031 C 11.441406 13.03125 11.546875 13.089844 11.65625 13.132812 L 11.6875 13.480469 L 12.351562 13.480469 L 12.378906 13.132812 C 12.488281 13.089844 12.59375 13.03125 12.683594 12.957031 L 13.003906 13.105469 L 13.335938 12.53125 L 13.046875 12.328125 C 13.054688 12.269531 13.0625 12.210938 13.0625 12.152344 C 13.0625 12.09375 13.054688 12.035156 13.046875 11.976562 L 13.335938 11.777344 L 13.003906 11.203125 L 12.683594 11.351562 C 12.59375 11.277344 12.492188 11.214844 12.378906 11.175781 L 12.351562 10.824219 Z M 12.019531 11.773438 C 12.226562 11.773438 12.398438 11.945312 12.398438 12.152344 C 12.398438 12.363281 12.226562 12.53125 12.019531 12.53125 C 11.808594 12.53125 11.636719 12.363281 11.636719 12.152344 C 11.636719 11.945312 11.808594 11.773438 12.019531 11.773438 Z M 12.019531 11.773438 "/>
</g>
</defs>
<g id="surface1">
<path style=" stroke:none;fill-rule:evenodd;fill:rgb(100%,78.431373%,32.156863%);fill-opacity:1;" d="M 3.96875 1.007812 L 13.03125 1.007812 C 14.664062 1.007812 15.992188 2.335938 15.992188 3.96875 L 15.992188 13.03125 C 15.992188 14.664062 14.664062 15.992188 13.03125 15.992188 L 3.96875 15.992188 C 2.335938 15.992188 1.007812 14.664062 1.007812 13.03125 L 1.007812 3.96875 C 1.007812 2.335938 2.335938 1.007812 3.96875 1.007812 Z M 3.96875 1.007812 "/>
<path style=" stroke:none;fill-rule:nonzero;fill:rgb(100%,100%,100%);fill-opacity:1;" d="M 11.351562 5.648438 L 11.351562 7.074219 C 11.351562 7.863281 10.714844 8.5 9.925781 8.5 L 7.074219 8.5 C 7.074219 8.5 5.648438 8.5 5.648438 9.925781 L 5.648438 12.421875 C 5.648438 13.410156 6.761719 14.203125 8.144531 14.203125 L 8.855469 14.203125 C 10.238281 14.203125 11.351562 13.410156 11.351562 12.421875 L 11.351562 11.351562 L 12.421875 11.351562 C 13.410156 11.351562 14.203125 10.238281 14.203125 8.855469 L 14.203125 8.144531 C 14.203125 6.761719 13.410156 5.648438 12.421875 5.648438 Z M 9.925781 12.300781 C 10.1875 12.300781 10.402344 12.515625 10.402344 12.777344 C 10.402344 13.039062 10.1875 13.253906 9.925781 13.253906 C 9.664062 13.253906 9.449219 13.039062 9.449219 12.777344 C 9.449219 12.515625 9.664062 12.300781 9.925781 12.300781 Z M 9.925781 12.300781 "/>
<path style=" stroke:none;fill-rule:nonzero;fill:rgb(27.843137%,58.431373%,81.960784%);fill-opacity:1;" d="M 8.144531 2.796875 C 6.761719 2.796875 5.648438 3.589844 5.648438 4.578125 L 5.648438 5.648438 L 4.578125 5.648438 C 3.589844 5.648438 2.796875 6.761719 2.796875 8.144531 L 2.796875 8.855469 C 2.796875 10.238281 3.589844 11.351562 4.578125 11.351562 L 5.648438 11.351562 L 5.648438 9.925781 C 5.648438 9.136719 6.285156 8.5 7.074219 8.5 L 9.925781 8.5 C 9.925781 8.5 11.351562 8.5 11.351562 7.074219 L 11.351562 4.578125 C 11.351562 3.589844 10.238281 2.796875 8.855469 2.796875 Z M 8.144531 2.796875 "/>
<path style=" stroke:none;fill-rule:nonzero;fill:rgb(100%,100%,100%);fill-opacity:1;" d="M 7.074219 3.746094 C 7.335938 3.746094 7.550781 3.960938 7.550781 4.222656 C 7.550781 4.484375 7.335938 4.699219 7.074219 4.699219 C 6.8125 4.699219 6.597656 4.484375 6.597656 4.222656 C 6.597656 3.960938 6.8125 3.746094 7.074219 3.746094 Z M 7.074219 3.746094 "/>
<use xlink:href="#surface6" mask="url(#mask0)"/>
<use xlink:href="#surface9"/>
<use xlink:href="#surface12"/>
</g>
</svg>
