<?xml version="1.0" encoding="UTF-8"?>
<svg xmlns="http://www.w3.org/2000/svg" xmlns:xlink="http://www.w3.org/1999/xlink" width="17pt" height="17pt" viewBox="0 0 17 17" version="1.1">
<g id="surface1">
<path style=" stroke:none;fill-rule:evenodd;fill:rgb(1.568627%,17.254902%,21.960784%);fill-opacity:1;" d="M 3.96875 1.007812 L 13.03125 1.007812 C 14.664062 1.007812 15.992188 2.335938 15.992188 3.96875 L 15.992188 13.03125 C 15.992188 14.664062 14.664062 15.992188 13.03125 15.992188 L 3.96875 15.992188 C 2.335938 15.992188 1.007812 14.664062 1.007812 13.03125 L 1.007812 3.96875 C 1.007812 2.335938 2.335938 1.007812 3.96875 1.007812 Z M 3.96875 1.007812 "/>
<path style=" stroke:none;fill-rule:evenodd;fill:rgb(1.568627%,17.254902%,21.960784%);fill-opacity:1;" d="M 3.96875 1.007812 C 2.328125 1.007812 1.007812 2.328125 1.007812 3.972656 L 1.007812 6.808594 C 1.117188 6.460938 1.234375 6.125 1.371094 5.894531 C 1.578125 5.5 1.863281 5.164062 2.199219 4.890625 C 2.53125 4.617188 2.910156 4.410156 3.296875 4.273438 C 3.683594 4.136719 4.082031 4.074219 4.453125 4.089844 C 4.824219 4.105469 5.164062 4.203125 5.445312 4.386719 C 5.777344 4.003906 6.144531 3.746094 6.535156 3.554688 C 6.921875 3.363281 7.328125 3.238281 7.738281 3.117188 C 7.316406 3.636719 7.019531 4.136719 6.839844 4.621094 C 6.660156 5.101562 6.597656 5.566406 6.648438 6.015625 C 6.699219 6.460938 6.867188 6.890625 7.140625 7.300781 C 7.417969 7.710938 7.800781 8.105469 8.289062 8.476562 C 7.65625 8.359375 6.523438 8.320312 5.542969 8.371094 C 5.410156 8.675781 5.328125 8.988281 5.296875 9.296875 C 5.261719 9.605469 5.277344 9.917969 5.335938 10.21875 C 5.445312 10.824219 5.71875 11.398438 6.101562 11.894531 C 6.484375 12.390625 6.972656 12.808594 7.519531 13.097656 C 8.066406 13.382812 8.667969 13.542969 9.269531 13.523438 C 9.777344 13.5 10.199219 13.40625 10.5625 13.253906 C 10.921875 13.101562 11.21875 12.890625 11.46875 12.632812 C 11.714844 12.375 11.917969 12.070312 12.085938 11.726562 C 12.257812 11.382812 12.394531 11 12.515625 10.589844 C 12.757812 9.777344 12.941406 8.855469 13.1875 7.910156 C 13.433594 6.96875 13.746094 6.003906 14.253906 5.105469 C 14.722656 5.457031 15.101562 5.839844 15.402344 6.25 C 15.65625 6.589844 15.832031 6.957031 15.992188 7.328125 L 15.992188 3.972656 C 15.992188 2.328125 14.671875 1.007812 13.027344 1.007812 Z M 3.96875 1.007812 "/>
<path style=" stroke:none;fill-rule:nonzero;fill:rgb(100%,77.647059%,2.745098%);fill-opacity:1;" d="M 6.964844 11.875 C 11.960938 14.984375 16.601562 6.144531 11.09375 1.890625 C 17.300781 2.699219 14.316406 9.371094 14.980469 13.714844 C 12.65625 13.613281 9.589844 15.816406 7.511719 14.640625 C 7 14.351562 7.195312 12.335938 6.964844 11.875 Z M 6.964844 11.875 "/>
<path style=" stroke:none;fill-rule:nonzero;fill:rgb(81.960784%,29.411765%,0.392157%);fill-opacity:1;" d="M 6.035156 7.988281 C 5.53125 8.976562 5.761719 9.136719 5.921875 9.324219 C 6.460938 9.800781 7.335938 9.535156 8.929688 8.644531 C 9.007812 9.25 8.5 9.949219 7.179688 10.613281 C 6.75 10.828125 6.535156 11.164062 6.964844 11.875 L 8.96875 14.289062 L 6.175781 14.050781 L 3.867188 8.179688 Z M 6.035156 7.988281 "/>
<path style=" stroke:none;fill-rule:nonzero;fill:rgb(96.862745%,56.078431%,1.568627%);fill-opacity:1;" d="M 10.859375 3.773438 C 13.289062 5.34375 12.707031 7.613281 13.429688 9.582031 L 13.941406 5.957031 C 12.96875 4.410156 12.8125 4.027344 10.859375 3.773438 Z M 10.859375 3.773438 "/>
<path style=" stroke:none;fill-rule:nonzero;fill:rgb(96.862745%,56.078431%,1.568627%);fill-opacity:1;" d="M 12.351562 7.546875 C 12.582031 9.648438 12.328125 11.09375 12.726562 11.175781 L 13.449219 9.207031 C 13.265625 9.046875 12.84375 8.070312 12.351562 7.546875 Z M 12.351562 7.546875 "/>
<path style=" stroke:none;fill-rule:nonzero;fill:rgb(86.27451%,29.019608%,1.568627%);fill-opacity:1;" d="M 2.734375 2.730469 C 1.910156 3.8125 1.652344 4.863281 1.871094 5.832031 L 3.449219 4.671875 C 3.085938 4.292969 2.804688 3.738281 2.734375 2.730469 Z M 2.734375 2.730469 "/>
<path style=" stroke:none;fill-rule:nonzero;fill:rgb(100%,100%,100%);fill-opacity:1;" d="M 6.1875 6.351562 C 7.214844 6.347656 8.28125 6.539062 9.179688 5.972656 C 8.710938 6.664062 8.183594 7.148438 7.195312 7.578125 Z M 6.1875 6.351562 "/>
<path style=" stroke:none;fill-rule:nonzero;fill:rgb(94.901961%,34.901961%,0%);fill-opacity:1;" d="M 6.300781 4.855469 C 6.800781 5.167969 6.863281 5.601562 9.136719 5.414062 C 9.304688 5.589844 9.308594 5.777344 9.179688 5.972656 C 8.402344 6.488281 7.203125 6.523438 6.265625 6.320312 Z M 6.300781 4.855469 "/>
<path style=" stroke:none;fill-rule:nonzero;fill:rgb(39.607843%,39.215686%,39.607843%);fill-opacity:1;" d="M 9.136719 5.414062 C 9.308594 5.734375 9.140625 5.890625 9.035156 6.046875 C 9.628906 6.128906 9.726562 5.253906 9.136719 5.414062 Z M 9.136719 5.414062 "/>
<path style=" stroke:none;fill-rule:evenodd;fill:rgb(93.72549%,35.294118%,0%);fill-opacity:1;" d="M 15.992188 7.328125 C 15.832031 6.957031 15.65625 6.589844 15.402344 6.25 C 15.097656 5.839844 14.722656 5.457031 14.253906 5.105469 C 13.746094 6.003906 13.433594 6.96875 13.1875 7.910156 C 12.941406 8.855469 12.757812 9.777344 12.515625 10.589844 C 12.394531 11 12.257812 11.382812 12.085938 11.726562 C 11.917969 12.070312 11.714844 12.375 11.46875 12.632812 C 11.21875 12.890625 10.921875 13.101562 10.5625 13.253906 C 10.199219 13.40625 9.777344 13.5 9.269531 13.523438 C 8.667969 13.542969 8.066406 13.382812 7.519531 13.097656 C 6.972656 12.808594 6.484375 12.390625 6.101562 11.894531 C 5.71875 11.398438 5.445312 10.824219 5.335938 10.21875 C 5.277344 9.917969 5.261719 9.605469 5.296875 9.296875 C 5.328125 8.988281 5.410156 8.675781 5.542969 8.371094 C 6.523438 8.320312 7.65625 8.359375 8.289062 8.476562 C 7.800781 8.105469 7.417969 7.710938 7.140625 7.300781 C 6.867188 6.890625 6.699219 6.460938 6.648438 6.015625 C 6.597656 5.566406 6.660156 5.101562 6.839844 4.621094 C 7.019531 4.136719 7.316406 3.636719 7.734375 3.117188 C 7.328125 3.238281 6.921875 3.363281 6.535156 3.554688 C 6.144531 3.746094 5.777344 4.003906 5.445312 4.386719 C 5.164062 4.203125 4.824219 4.105469 4.453125 4.089844 C 4.082031 4.074219 3.683594 4.136719 3.296875 4.273438 C 2.910156 4.410156 2.53125 4.617188 2.199219 4.890625 C 1.863281 5.164062 1.578125 5.5 1.371094 5.894531 C 1.234375 6.125 1.117188 6.460938 1.007812 6.808594 L 1.007812 13.03125 C 1.007812 14.671875 2.328125 15.992188 3.96875 15.992188 L 13.027344 15.992188 C 14.671875 15.992188 15.992188 14.671875 15.992188 13.03125 Z M 15.992188 7.328125 "/>
</g>
</svg>
