<?xml version="1.0" encoding="UTF-8"?>
<svg xmlns="http://www.w3.org/2000/svg" xmlns:xlink="http://www.w3.org/1999/xlink" width="17pt" height="17pt" viewBox="0 0 17 17" version="1.1">
<g id="surface1">
<path style=" stroke:none;fill-rule:evenodd;fill:rgb(88.627451%,70.196078%,13.333333%);fill-opacity:1;" d="M 1.007812 6.480469 C 1.011719 6.488281 1.011719 6.496094 1.015625 6.503906 C 1.222656 6.992188 1.472656 7.453125 1.765625 7.882812 C 2.054688 8.316406 2.386719 8.71875 2.753906 9.085938 C 3.125 9.453125 3.523438 9.785156 3.957031 10.078125 C 4.390625 10.371094 4.851562 10.621094 5.335938 10.828125 C 5.824219 11.03125 6.332031 11.191406 6.863281 11.300781 C 7.390625 11.40625 7.9375 11.464844 8.5 11.464844 C 9.0625 11.464844 9.609375 11.40625 10.136719 11.300781 C 10.667969 11.191406 11.175781 11.03125 11.664062 10.828125 C 12.148438 10.621094 12.609375 10.371094 13.042969 10.078125 C 13.476562 9.785156 13.875 9.453125 14.242188 9.085938 C 14.613281 8.71875 14.945312 8.316406 15.234375 7.882812 C 15.527344 7.453125 15.777344 6.992188 15.984375 6.503906 C 15.988281 6.496094 15.988281 6.488281 15.992188 6.480469 L 15.992188 3.96875 C 15.992188 2.328125 14.671875 1.007812 13.03125 1.007812 L 3.96875 1.007812 C 2.328125 1.007812 1.007812 2.328125 1.007812 3.96875 Z M 1.007812 6.480469 "/>
<path style=" stroke:none;fill-rule:evenodd;fill:rgb(88.627451%,70.196078%,13.333333%);fill-opacity:1;" d="M 1.007812 7.597656 L 1.007812 13.03125 C 1.007812 14.671875 2.328125 15.992188 3.96875 15.992188 L 13.03125 15.992188 C 14.671875 15.992188 15.992188 14.671875 15.992188 13.03125 L 15.992188 7.597656 C 15.882812 7.789062 15.796875 7.996094 15.675781 8.179688 C 15.363281 8.640625 15.007812 9.066406 14.617188 9.460938 C 14.226562 9.851562 13.796875 10.207031 13.335938 10.515625 C 12.875 10.828125 12.382812 11.097656 11.867188 11.316406 C 11.347656 11.535156 10.804688 11.703125 10.242188 11.820312 C 9.679688 11.933594 9.097656 11.996094 8.5 11.996094 C 7.902344 11.996094 7.320312 11.933594 6.757812 11.820312 C 6.195312 11.703125 5.652344 11.535156 5.132812 11.316406 C 4.617188 11.097656 4.125 10.828125 3.664062 10.515625 C 3.203125 10.207031 2.773438 9.851562 2.382812 9.460938 C 1.992188 9.066406 1.636719 8.640625 1.324219 8.179688 C 1.203125 7.996094 1.117188 7.789062 1.007812 7.597656 Z M 1.007812 7.597656 "/>
<path style=" stroke:none;fill-rule:evenodd;fill:rgb(88.627451%,70.196078%,13.333333%);fill-opacity:1;" d="M 8.5 1.007812 L 3.96875 1.007812 C 2.328125 1.007812 1.007812 2.328125 1.007812 3.96875 L 1.007812 13.027344 C 1.007812 14.671875 2.328125 15.992188 3.96875 15.992188 L 8.5 15.992188 Z M 8.5 1.007812 "/>
<path style=" stroke:none;fill-rule:evenodd;fill:rgb(94.901961%,80.392157%,13.333333%);fill-opacity:1;" d="M 8.5 1.007812 L 8.5 15.992188 L 13.027344 15.992188 C 14.671875 15.992188 15.992188 14.671875 15.992188 13.027344 L 15.992188 3.96875 C 15.992188 2.328125 14.671875 1.007812 13.027344 1.007812 Z M 8.5 1.007812 "/>
<path style=" stroke:none;fill-rule:nonzero;fill:rgb(100%,100%,100%);fill-opacity:1;" d="M 7.160156 14.738281 C 7.160156 15.019531 7.390625 15.25 7.675781 15.25 C 7.960938 15.25 8.191406 15.019531 8.191406 14.738281 C 8.191406 14.644531 8.164062 14.5625 8.121094 14.484375 L 8.5 14.082031 L 8.878906 14.484375 C 8.835938 14.5625 8.808594 14.644531 8.808594 14.738281 C 8.808594 15.019531 9.039062 15.25 9.324219 15.25 C 9.609375 15.25 9.839844 15.019531 9.839844 14.738281 C 9.839844 14.453125 9.609375 14.222656 9.324219 14.222656 C 9.277344 14.222656 9.230469 14.230469 9.1875 14.242188 L 8.765625 13.804688 L 9.632812 12.882812 L 9.632812 12.574219 L 9.425781 12.574219 L 7.8125 14.242188 C 7.769531 14.230469 7.722656 14.222656 7.675781 14.222656 C 7.390625 14.222656 7.160156 14.453125 7.160156 14.738281 Z M 7.472656 14.738281 C 7.472656 14.625 7.5625 14.53125 7.675781 14.53125 C 7.789062 14.53125 7.882812 14.625 7.882812 14.738281 C 7.882812 14.851562 7.789062 14.941406 7.675781 14.941406 C 7.5625 14.941406 7.472656 14.851562 7.472656 14.738281 Z M 7.367188 12.882812 L 8.132812 13.695312 L 8.398438 13.425781 L 7.574219 12.574219 L 7.367188 12.574219 Z M 9.117188 14.738281 C 9.117188 14.625 9.210938 14.53125 9.324219 14.53125 C 9.4375 14.53125 9.53125 14.625 9.53125 14.738281 C 9.53125 14.851562 9.4375 14.941406 9.324219 14.941406 C 9.210938 14.941406 9.117188 14.851562 9.117188 14.738281 Z M 9.117188 14.738281 "/>
<path style=" stroke:none;fill-rule:nonzero;fill:rgb(100%,100%,100%);fill-opacity:1;" d="M 10.59375 4.390625 L 7.511719 5.101562 C 7.078125 5.15625 7.09375 5.601562 7.09375 5.601562 L 7.09375 7.5 C 6.992188 7.46875 6.890625 7.457031 6.785156 7.457031 C 6.160156 7.457031 5.652344 7.960938 5.652344 8.585938 C 5.652344 9.210938 6.160156 9.71875 6.785156 9.71875 C 7.371094 9.71875 7.859375 9.273438 7.914062 8.691406 L 7.917969 8.691406 L 7.917969 5.839844 L 10.183594 5.300781 L 10.183594 6.882812 C 10.082031 6.851562 9.976562 6.839844 9.875 6.835938 C 9.246094 6.835938 8.742188 7.34375 8.742188 7.96875 C 8.742188 8.59375 9.246094 9.101562 9.875 9.101562 C 10.457031 9.101562 10.945312 8.65625 11 8.074219 L 11.003906 8.074219 L 11.003906 4.78125 C 11.003906 4.78125 11.011719 4.304688 10.59375 4.390625 Z M 10.59375 4.390625 "/>
<path style=" stroke:none;fill-rule:evenodd;fill:rgb(100%,100%,100%);fill-opacity:1;" d="M 1.007812 7.597656 C 1.117188 7.789062 1.203125 7.996094 1.324219 8.179688 C 1.636719 8.640625 1.992188 9.066406 2.382812 9.460938 C 2.773438 9.851562 3.203125 10.207031 3.664062 10.515625 C 4.125 10.828125 4.617188 11.097656 5.132812 11.316406 C 5.652344 11.535156 6.195312 11.703125 6.757812 11.820312 C 7.320312 11.933594 7.902344 11.996094 8.5 11.996094 C 9.097656 11.996094 9.679688 11.933594 10.242188 11.820312 C 10.804688 11.703125 11.347656 11.535156 11.867188 11.316406 C 12.382812 11.097656 12.875 10.828125 13.335938 10.515625 C 13.796875 10.207031 14.226562 9.851562 14.617188 9.460938 C 15.007812 9.066406 15.363281 8.640625 15.675781 8.179688 C 15.796875 7.996094 15.882812 7.789062 15.992188 7.597656 L 15.992188 6.480469 C 15.988281 6.488281 15.988281 6.496094 15.984375 6.503906 C 15.777344 6.992188 15.527344 7.453125 15.234375 7.882812 C 14.945312 8.316406 14.613281 8.71875 14.242188 9.085938 C 13.875 9.453125 13.476562 9.785156 13.042969 10.078125 C 12.609375 10.371094 12.148438 10.621094 11.664062 10.828125 C 11.175781 11.03125 10.667969 11.191406 10.136719 11.300781 C 9.609375 11.40625 9.0625 11.464844 8.5 11.464844 C 7.9375 11.464844 7.390625 11.40625 6.863281 11.300781 C 6.332031 11.191406 5.824219 11.03125 5.335938 10.828125 C 4.851562 10.621094 4.390625 10.371094 3.957031 10.078125 C 3.523438 9.785156 3.125 9.453125 2.753906 9.085938 C 2.386719 8.71875 2.054688 8.316406 1.765625 7.882812 C 1.472656 7.453125 1.222656 6.992188 1.015625 6.503906 C 1.011719 6.496094 1.011719 6.488281 1.007812 6.480469 Z M 1.007812 7.597656 "/>
</g>
</svg>
