<?xml version="1.0" encoding="UTF-8"?>
<svg xmlns="http://www.w3.org/2000/svg" xmlns:xlink="http://www.w3.org/1999/xlink" width="17pt" height="17pt" viewBox="0 0 17 17" version="1.1">
<defs>
<clipPath id="clip1">
  <rect width="17" height="17"/>
</clipPath>
<g id="surface6" clip-path="url(#clip1)">
<path style=" stroke:none;fill-rule:nonzero;fill:rgb(25.098039%,25.098039%,25.098039%);fill-opacity:1;" d="M 8.960938 4.78125 C 7.980469 4.78125 7.382812 5.878906 7.007812 6.859375 L 6.535156 8.292969 L 5.933594 10.214844 C 5.746094 10.757812 5.613281 11.617188 5.046875 11.6875 C 4.796875 11.71875 4.808594 11.15625 4.515625 11.15625 C 4.222656 11.15625 3.984375 11.394531 3.984375 11.6875 C 3.984375 11.980469 4.222656 12.21875 4.515625 12.21875 L 4.851562 12.21875 C 5.988281 12.21875 6.636719 10.789062 7.121094 9.214844 L 7.394531 8.328125 L 7.832031 6.925781 C 8.054688 6.347656 8.148438 5.394531 8.765625 5.3125 C 9.015625 5.28125 9.003906 5.84375 9.296875 5.84375 C 9.589844 5.84375 9.828125 5.605469 9.828125 5.3125 C 9.828125 5.019531 9.589844 4.78125 9.296875 4.78125 Z M 8.960938 4.78125 "/>
</g>
<clipPath id="clip2">
  <rect width="17" height="17"/>
</clipPath>
<g id="surface9" clip-path="url(#clip2)">
<path style=" stroke:none;fill-rule:nonzero;fill:rgb(25.098039%,25.098039%,25.098039%);fill-opacity:1;" d="M 12.148438 4.78125 C 11.167969 4.78125 10.570312 5.878906 10.195312 6.859375 L 9.722656 8.292969 L 9.121094 10.214844 C 8.933594 10.757812 8.800781 11.617188 8.234375 11.6875 C 7.984375 11.71875 7.996094 11.15625 7.703125 11.15625 C 7.410156 11.15625 7.171875 11.394531 7.171875 11.6875 C 7.171875 11.980469 7.410156 12.21875 7.703125 12.21875 L 8.039062 12.21875 C 9.175781 12.21875 9.824219 10.789062 10.308594 9.214844 L 10.582031 8.328125 L 11.019531 6.925781 C 11.242188 6.347656 11.335938 5.394531 11.953125 5.3125 C 12.203125 5.28125 12.191406 5.84375 12.484375 5.84375 C 12.777344 5.84375 13.015625 5.605469 13.015625 5.3125 C 13.015625 5.019531 12.777344 4.78125 12.484375 4.78125 Z M 12.148438 4.78125 "/>
</g>
</defs>
<g id="surface1">
<path style=" stroke:none;fill-rule:evenodd;fill:rgb(80%,80%,80%);fill-opacity:1;" d="M 3.96875 1.007812 L 13.03125 1.007812 C 14.664062 1.007812 15.992188 2.335938 15.992188 3.96875 L 15.992188 13.03125 C 15.992188 14.664062 14.664062 15.992188 13.03125 15.992188 L 3.96875 15.992188 C 2.335938 15.992188 1.007812 14.664062 1.007812 13.03125 L 1.007812 3.96875 C 1.007812 2.335938 2.335938 1.007812 3.96875 1.007812 Z M 3.96875 1.007812 "/>
<use xlink:href="#surface6"/>
<path style=" stroke:none;fill-rule:nonzero;fill:rgb(25.098039%,25.098039%,25.098039%);fill-opacity:1;" d="M 5.046875 7.4375 L 9.296875 7.4375 L 9.296875 7.96875 L 5.046875 7.96875 Z M 5.046875 7.4375 "/>
<use xlink:href="#surface9"/>
<path style=" stroke:none;fill-rule:nonzero;fill:rgb(25.098039%,25.098039%,25.098039%);fill-opacity:1;" d="M 8.234375 7.4375 L 12.484375 7.4375 L 12.484375 7.96875 L 8.234375 7.96875 Z M 8.234375 7.4375 "/>
</g>
</svg>
