<?xml version="1.0" encoding="UTF-8"?>
<svg xmlns="http://www.w3.org/2000/svg" xmlns:xlink="http://www.w3.org/1999/xlink" width="17pt" height="17pt" viewBox="0 0 17 17" version="1.1">
<g id="surface1">
<path style=" stroke:none;fill-rule:evenodd;fill:rgb(4.313725%,25.882353%,38.823529%);fill-opacity:1;" d="M 3.96875 1.007812 L 13.03125 1.007812 C 14.664062 1.007812 15.992188 2.335938 15.992188 3.96875 L 15.992188 13.03125 C 15.992188 14.664062 14.664062 15.992188 13.03125 15.992188 L 3.96875 15.992188 C 2.335938 15.992188 1.007812 14.664062 1.007812 13.03125 L 1.007812 3.96875 C 1.007812 2.335938 2.335938 1.007812 3.96875 1.007812 Z M 3.96875 1.007812 "/>
<path style=" stroke:none;fill-rule:nonzero;fill:rgb(100%,100%,100%);fill-opacity:1;" d="M 5.839844 13.578125 C 5.835938 13.34375 5.828125 12.757812 5.828125 12.277344 L 5.828125 11.398438 L 5.773438 11.398438 C 5.742188 11.398438 5.644531 11.382812 5.550781 11.359375 C 4.871094 11.195312 4.328125 10.625 4.199219 9.9375 C 4.171875 9.785156 4.167969 9.578125 4.171875 8.285156 C 4.179688 6.667969 4.171875 6.746094 4.300781 6.4375 C 4.488281 5.988281 4.871094 5.605469 5.3125 5.4375 C 5.636719 5.308594 5.5 5.316406 8.570312 5.320312 L 11.363281 5.328125 L 11.507812 5.371094 C 12.191406 5.582031 12.683594 6.132812 12.804688 6.816406 C 12.828125 6.96875 12.832031 7.203125 12.828125 8.441406 C 12.820312 9.863281 12.820312 9.890625 12.777344 10.050781 C 12.679688 10.398438 12.445312 10.769531 12.183594 10.984375 C 11.953125 11.175781 11.75 11.277344 11.4375 11.363281 C 11.285156 11.40625 11.238281 11.40625 10.007812 11.414062 L 8.738281 11.421875 L 8.308594 11.804688 C 8.070312 12.015625 7.453125 12.570312 6.9375 13.035156 C 6.417969 13.496094 5.964844 13.902344 5.925781 13.9375 L 5.855469 14 Z M 5.839844 13.578125 "/>
</g>
</svg>
