<?xml version="1.0" encoding="UTF-8"?>
<svg xmlns="http://www.w3.org/2000/svg" xmlns:xlink="http://www.w3.org/1999/xlink" width="17pt" height="17pt" viewBox="0 0 17 17" version="1.1">
<g id="surface1">
<path style=" stroke:none;fill-rule:evenodd;fill:rgb(90.196078%,90.196078%,90.196078%);fill-opacity:1;" d="M 3.96875 1.007812 L 13.03125 1.007812 C 14.664062 1.007812 15.992188 2.335938 15.992188 3.96875 L 15.992188 13.03125 C 15.992188 14.664062 14.664062 15.992188 13.03125 15.992188 L 3.96875 15.992188 C 2.335938 15.992188 1.007812 14.664062 1.007812 13.03125 L 1.007812 3.96875 C 1.007812 2.335938 2.335938 1.007812 3.96875 1.007812 Z M 3.96875 1.007812 "/>
<path style=" stroke:none;fill-rule:evenodd;fill:rgb(90.980392%,17.647059%,17.647059%);fill-opacity:1;" d="M 15.992188 9.578125 L 15.359375 8.734375 L 14.410156 9.996094 L 15.359375 11.257812 L 15.992188 10.414062 Z M 15.992188 9.578125 "/>
<path style=" stroke:none;fill-rule:evenodd;fill:rgb(99.607843%,75.294118%,2.352941%);fill-opacity:1;" d="M 15.992188 4.3125 L 8.601562 4.3125 C 8.375 4.3125 8.167969 4.40625 8.019531 4.558594 C 7.871094 4.710938 7.78125 4.921875 7.78125 5.15625 C 7.976562 5.871094 8.023438 6.585938 7.976562 7.214844 C 7.925781 7.84375 7.777344 8.394531 7.578125 8.777344 C 7.378906 9.164062 7.128906 9.390625 6.871094 9.371094 C 6.746094 9.363281 6.613281 9.296875 6.492188 9.15625 C 6.367188 9.019531 6.246094 8.8125 6.140625 8.523438 C 5.992188 8.136719 5.816406 7.820312 5.558594 7.597656 C 5.304688 7.378906 4.96875 7.253906 4.496094 7.261719 L 4.085938 7.261719 C 3.859375 7.261719 3.675781 7.445312 3.675781 7.679688 L 3.675781 8.523438 C 3.675781 8.757812 3.859375 8.945312 4.085938 8.945312 L 4.496094 8.945312 L 4.496094 9.785156 C 4.535156 10.453125 4.59375 10.980469 4.675781 11.398438 C 4.757812 11.816406 4.863281 12.125 4.996094 12.359375 C 5.128906 12.59375 5.285156 12.757812 5.476562 12.878906 C 5.664062 13 5.886719 13.078125 6.140625 13.152344 C 6.488281 13.28125 6.769531 13.40625 6.988281 13.550781 C 7.207031 13.695312 7.367188 13.863281 7.484375 14.074219 C 7.707031 14.480469 7.757812 15.09375 7.765625 15.992188 L 13.03125 15.992188 C 14.671875 15.992188 15.992188 14.671875 15.992188 13.03125 L 15.992188 10.414062 L 15.359375 11.257812 L 14.410156 9.996094 L 15.359375 8.734375 L 15.992188 9.578125 Z M 15.992188 4.3125 "/>
<path style=" stroke:none;fill-rule:evenodd;fill:rgb(79.607843%,64.313725%,17.647059%);fill-opacity:1;" d="M 15.933594 3.679688 L 8.59375 3.679688 C 8.5625 3.679688 8.535156 3.691406 8.503906 3.695312 C 8.449219 3.746094 8.402344 3.796875 8.363281 3.851562 C 8.320312 3.90625 8.289062 3.960938 8.261719 4.015625 C 8.234375 4.070312 8.21875 4.128906 8.207031 4.183594 C 8.195312 4.226562 8.191406 4.269531 8.191406 4.3125 C 8.191406 4.347656 8.199219 4.382812 8.207031 4.421875 C 8.320312 4.351562 8.453125 4.3125 8.59375 4.3125 L 15.992188 4.3125 L 15.992188 3.96875 C 15.992188 3.867188 15.945312 3.78125 15.933594 3.679688 Z M 15.933594 3.679688 "/>
<path style=" stroke:none;fill-rule:evenodd;fill:rgb(90.196078%,90.196078%,90.196078%);fill-opacity:1;" d="M 8.246094 4.058594 C 8.234375 4.089844 8.222656 4.121094 8.210938 4.152344 C 8.210938 4.160156 8.210938 4.164062 8.210938 4.171875 C 8.21875 4.132812 8.230469 4.097656 8.246094 4.058594 Z M 8.246094 4.058594 "/>
<path style=" stroke:none;fill-rule:evenodd;fill:rgb(90.196078%,90.196078%,90.196078%);fill-opacity:1;" d="M 8.339844 3.886719 C 8.316406 3.921875 8.296875 3.953125 8.277344 3.988281 C 8.273438 3.992188 8.269531 4 8.269531 4.007812 C 8.289062 3.96875 8.3125 3.925781 8.339844 3.886719 Z M 8.339844 3.886719 "/>
<path style=" stroke:none;fill-rule:evenodd;fill:rgb(90.196078%,90.196078%,90.196078%);fill-opacity:1;" d="M 8.496094 3.703125 C 8.453125 3.742188 8.417969 3.785156 8.382812 3.824219 C 8.378906 3.832031 8.371094 3.839844 8.367188 3.84375 C 8.40625 3.796875 8.449219 3.75 8.496094 3.703125 Z M 8.496094 3.703125 "/>
<path style=" stroke:none;fill-rule:evenodd;fill:rgb(99.607843%,80.392157%,21.960784%);fill-opacity:1;" d="M 15.777344 3.140625 C 15.75 3.128906 15.71875 3.117188 15.6875 3.105469 C 15.582031 3.066406 15.472656 3.03125 15.355469 2.996094 C 15.242188 2.960938 15.121094 2.925781 14.996094 2.898438 C 14.871094 2.867188 14.746094 2.839844 14.613281 2.8125 C 14.480469 2.789062 14.347656 2.765625 14.210938 2.746094 C 14.078125 2.726562 13.945312 2.707031 13.8125 2.695312 C 13.816406 2.671875 13.816406 2.652344 13.816406 2.628906 C 13.816406 2.601562 13.816406 2.574219 13.8125 2.546875 C 13.808594 2.515625 13.800781 2.488281 13.792969 2.460938 C 13.785156 2.433594 13.777344 2.40625 13.765625 2.378906 C 13.75 2.351562 13.738281 2.328125 13.722656 2.300781 C 13.707031 2.277344 13.6875 2.25 13.667969 2.226562 C 13.648438 2.199219 13.628906 2.175781 13.605469 2.152344 C 13.585938 2.128906 13.558594 2.109375 13.535156 2.085938 C 13.507812 2.066406 13.480469 2.042969 13.453125 2.027344 C 13.421875 2.003906 13.390625 1.988281 13.359375 1.96875 C 13.328125 1.953125 13.296875 1.9375 13.261719 1.921875 C 13.230469 1.90625 13.195312 1.890625 13.160156 1.878906 C 13.121094 1.867188 13.085938 1.855469 13.046875 1.84375 C 13.011719 1.832031 12.972656 1.824219 12.933594 1.816406 C 12.894531 1.808594 12.855469 1.804688 12.816406 1.800781 C 12.777344 1.792969 12.738281 1.789062 12.695312 1.789062 C 12.667969 1.789062 12.640625 1.785156 12.613281 1.785156 C 12.570312 1.785156 12.53125 1.789062 12.492188 1.789062 C 12.453125 1.792969 12.410156 1.796875 12.371094 1.804688 C 12.332031 1.808594 12.292969 1.816406 12.253906 1.824219 C 12.214844 1.832031 12.179688 1.84375 12.140625 1.851562 C 12.105469 1.863281 12.070312 1.875 12.035156 1.890625 C 12 1.902344 11.964844 1.917969 11.929688 1.933594 C 11.898438 1.949219 11.867188 1.96875 11.835938 1.984375 C 11.804688 2.003906 11.773438 2.023438 11.746094 2.042969 C 11.71875 2.0625 11.691406 2.082031 11.667969 2.105469 C 11.644531 2.128906 11.617188 2.148438 11.597656 2.171875 C 11.574219 2.199219 11.554688 2.222656 11.535156 2.246094 C 11.519531 2.273438 11.503906 2.296875 11.488281 2.324219 C 11.472656 2.351562 11.460938 2.378906 11.449219 2.402344 C 11.4375 2.429688 11.429688 2.457031 11.425781 2.484375 C 11.417969 2.511719 11.414062 2.542969 11.410156 2.570312 C 11.40625 2.589844 11.40625 2.609375 11.40625 2.628906 C 11.40625 2.652344 11.40625 2.671875 11.410156 2.691406 C 11.269531 2.707031 11.128906 2.726562 10.992188 2.746094 C 10.855469 2.765625 10.71875 2.789062 10.589844 2.816406 C 10.457031 2.84375 10.332031 2.871094 10.207031 2.902344 C 10.082031 2.933594 9.964844 2.964844 9.847656 3 C 9.734375 3.035156 9.625 3.070312 9.519531 3.109375 C 9.414062 3.148438 9.3125 3.191406 9.21875 3.234375 C 9.125 3.277344 9.035156 3.324219 8.953125 3.367188 C 8.871094 3.414062 8.792969 3.464844 8.722656 3.511719 C 8.652344 3.5625 8.589844 3.613281 8.53125 3.664062 C 8.523438 3.675781 8.515625 3.683594 8.507812 3.695312 C 8.535156 3.691406 8.5625 3.679688 8.59375 3.679688 L 15.933594 3.679688 C 15.914062 3.488281 15.832031 3.320312 15.777344 3.140625 Z M 15.777344 3.140625 "/>
<path style=" stroke:none;fill-rule:evenodd;fill:rgb(90.196078%,90.196078%,90.196078%);fill-opacity:1;" d="M 3.96875 1.007812 C 2.328125 1.007812 1.007812 2.328125 1.007812 3.96875 L 1.007812 13.03125 C 1.007812 14.671875 2.328125 15.992188 3.96875 15.992188 L 7.765625 15.992188 C 7.757812 15.09375 7.707031 14.480469 7.484375 14.074219 C 7.367188 13.863281 7.207031 13.695312 6.988281 13.550781 C 6.769531 13.40625 6.488281 13.28125 6.140625 13.152344 C 5.886719 13.078125 5.664062 13 5.476562 12.878906 C 5.285156 12.757812 5.128906 12.59375 4.996094 12.359375 C 4.863281 12.125 4.757812 11.816406 4.675781 11.398438 C 4.59375 10.980469 4.535156 10.453125 4.496094 9.785156 L 4.496094 8.945312 L 4.085938 8.945312 C 3.859375 8.945312 3.675781 8.757812 3.675781 8.523438 L 3.675781 7.679688 C 3.675781 7.445312 3.859375 7.261719 4.085938 7.261719 L 4.496094 7.261719 C 4.96875 7.253906 5.304688 7.378906 5.558594 7.597656 C 5.816406 7.820312 5.992188 8.136719 6.140625 8.523438 C 6.246094 8.8125 6.367188 9.019531 6.492188 9.15625 C 6.613281 9.296875 6.746094 9.363281 6.871094 9.371094 C 7.128906 9.390625 7.378906 9.164062 7.578125 8.777344 C 7.777344 8.394531 7.925781 7.84375 7.976562 7.214844 C 8.023438 6.585938 7.976562 5.871094 7.78125 5.15625 C 7.78125 4.921875 7.871094 4.710938 8.019531 4.558594 C 8.167969 4.40625 8.375 4.3125 8.601562 4.3125 L 8.59375 4.3125 C 8.453125 4.3125 8.320312 4.351562 8.207031 4.421875 C 8.199219 4.382812 8.191406 4.347656 8.191406 4.3125 C 8.191406 4.269531 8.195312 4.226562 8.207031 4.183594 C 8.207031 4.179688 8.207031 4.175781 8.210938 4.171875 C 8.210938 4.164062 8.210938 4.160156 8.210938 4.152344 C 8.222656 4.121094 8.234375 4.089844 8.246094 4.058594 C 8.253906 4.046875 8.257812 4.03125 8.261719 4.015625 C 8.265625 4.015625 8.265625 4.011719 8.269531 4.007812 C 8.269531 4 8.273438 3.992188 8.277344 3.988281 C 8.296875 3.953125 8.316406 3.921875 8.339844 3.886719 C 8.347656 3.875 8.355469 3.863281 8.363281 3.851562 C 8.363281 3.851562 8.367188 3.847656 8.367188 3.84375 C 8.371094 3.839844 8.378906 3.832031 8.382812 3.824219 C 8.417969 3.785156 8.453125 3.742188 8.496094 3.703125 C 8.5 3.699219 8.503906 3.699219 8.503906 3.695312 C 8.503906 3.695312 8.507812 3.695312 8.507812 3.695312 C 8.515625 3.683594 8.523438 3.675781 8.535156 3.664062 C 8.589844 3.613281 8.652344 3.5625 8.722656 3.511719 C 8.792969 3.464844 8.871094 3.414062 8.953125 3.367188 C 9.035156 3.324219 9.125 3.277344 9.21875 3.234375 C 9.3125 3.191406 9.414062 3.148438 9.519531 3.109375 C 9.625 3.070312 9.734375 3.035156 9.847656 3 C 9.964844 2.964844 10.082031 2.933594 10.207031 2.902344 C 10.332031 2.871094 10.457031 2.84375 10.589844 2.816406 C 10.71875 2.789062 10.855469 2.765625 10.992188 2.746094 C 11.128906 2.726562 11.269531 2.707031 11.410156 2.691406 C 11.40625 2.671875 11.40625 2.652344 11.40625 2.628906 C 11.40625 2.609375 11.40625 2.589844 11.410156 2.570312 C 11.414062 2.542969 11.417969 2.511719 11.425781 2.484375 C 11.429688 2.457031 11.4375 2.429688 11.449219 2.402344 C 11.460938 2.378906 11.472656 2.351562 11.488281 2.324219 C 11.503906 2.296875 11.519531 2.273438 11.535156 2.246094 C 11.554688 2.222656 11.574219 2.199219 11.597656 2.171875 C 11.617188 2.148438 11.644531 2.128906 11.667969 2.105469 C 11.691406 2.082031 11.71875 2.0625 11.746094 2.042969 C 11.773438 2.023438 11.804688 2.003906 11.835938 1.984375 C 11.867188 1.96875 11.898438 1.949219 11.929688 1.933594 C 11.964844 1.917969 12 1.902344 12.035156 1.890625 C 12.070312 1.875 12.105469 1.863281 12.140625 1.851562 C 12.179688 1.84375 12.214844 1.832031 12.253906 1.824219 C 12.292969 1.816406 12.332031 1.808594 12.371094 1.804688 C 12.410156 1.796875 12.453125 1.792969 12.492188 1.789062 C 12.53125 1.789062 12.570312 1.785156 12.613281 1.785156 C 12.640625 1.785156 12.667969 1.789062 12.695312 1.789062 C 12.738281 1.789062 12.777344 1.792969 12.816406 1.800781 C 12.855469 1.804688 12.894531 1.808594 12.933594 1.816406 C 12.972656 1.824219 13.011719 1.832031 13.050781 1.84375 C 13.085938 1.855469 13.121094 1.867188 13.160156 1.878906 C 13.195312 1.890625 13.230469 1.90625 13.261719 1.921875 C 13.296875 1.9375 13.328125 1.953125 13.359375 1.96875 C 13.390625 1.988281 13.421875 2.003906 13.453125 2.027344 C 13.480469 2.042969 13.507812 2.066406 13.535156 2.085938 C 13.558594 2.109375 13.585938 2.128906 13.605469 2.152344 C 13.628906 2.175781 13.648438 2.199219 13.667969 2.226562 C 13.6875 2.25 13.707031 2.277344 13.722656 2.300781 C 13.738281 2.328125 13.75 2.351562 13.765625 2.378906 C 13.777344 2.40625 13.785156 2.433594 13.792969 2.460938 C 13.800781 2.488281 13.808594 2.515625 13.8125 2.546875 C 13.816406 2.574219 13.816406 2.601562 13.816406 2.628906 C 13.816406 2.652344 13.816406 2.671875 13.8125 2.695312 C 13.945312 2.707031 14.078125 2.726562 14.210938 2.746094 C 14.347656 2.765625 14.480469 2.789062 14.613281 2.8125 C 14.746094 2.839844 14.871094 2.867188 14.996094 2.898438 C 15.121094 2.925781 15.242188 2.960938 15.355469 2.996094 C 15.472656 3.03125 15.582031 3.066406 15.6875 3.105469 C 15.71875 3.117188 15.75 3.128906 15.777344 3.140625 C 15.417969 1.921875 14.371094 1.007812 13.03125 1.007812 Z M 3.96875 1.007812 "/>
<path style=" stroke:none;fill-rule:evenodd;fill:rgb(90.980392%,17.647059%,17.647059%);fill-opacity:1;" d="M 9.675781 8.734375 L 8.726562 9.996094 L 9.675781 11.257812 L 10.621094 9.996094 Z M 9.675781 8.734375 "/>
<path style=" stroke:none;fill-rule:evenodd;fill:rgb(90.980392%,17.647059%,17.647059%);fill-opacity:1;" d="M 9.675781 8.734375 L 10.621094 9.996094 L 9.675781 11.257812 L 8.726562 9.996094 Z M 9.675781 8.734375 "/>
<path style=" stroke:none;fill-rule:evenodd;fill:rgb(90.980392%,17.647059%,17.647059%);fill-opacity:1;" d="M 12.519531 8.101562 L 11.257812 9.996094 L 12.519531 11.890625 L 13.785156 9.996094 Z M 12.519531 8.101562 "/>
<path style=" stroke:none;fill-rule:evenodd;fill:rgb(90.980392%,17.647059%,17.647059%);fill-opacity:1;" d="M 12.519531 8.101562 L 13.785156 9.996094 L 12.519531 11.890625 L 11.257812 9.996094 Z M 12.519531 8.101562 "/>
</g>
</svg>
