<?xml version="1.0" encoding="UTF-8"?>
<svg xmlns="http://www.w3.org/2000/svg" xmlns:xlink="http://www.w3.org/1999/xlink" width="17pt" height="17pt" viewBox="0 0 17 17" version="1.1">
<g id="surface1">
<path style=" stroke:none;fill-rule:evenodd;fill:rgb(9.019608%,52.156863%,15.686275%);fill-opacity:1;" d="M 3.96875 1.007812 L 13.03125 1.007812 C 14.664062 1.007812 15.992188 2.335938 15.992188 3.96875 L 15.992188 13.03125 C 15.992188 14.664062 14.664062 15.992188 13.03125 15.992188 L 3.96875 15.992188 C 2.335938 15.992188 1.007812 14.664062 1.007812 13.03125 L 1.007812 3.96875 C 1.007812 2.335938 2.335938 1.007812 3.96875 1.007812 Z M 3.96875 1.007812 "/>
<path style=" stroke:none;fill-rule:nonzero;fill:rgb(100%,100%,100%);fill-opacity:1;" d="M 8.5 3.726562 C 9.691406 3.726562 10.652344 4.738281 10.652344 5.988281 C 10.652344 7.238281 9.691406 8.25 8.5 8.25 C 7.308594 8.25 6.347656 7.238281 6.347656 5.988281 C 6.347656 4.738281 7.308594 3.726562 8.5 3.726562 Z M 8.5 3.726562 "/>
<path style=" stroke:none;fill-rule:nonzero;fill:rgb(100%,100%,100%);fill-opacity:1;" d="M 8.5 9.503906 C 12.808594 9.503906 12.808594 12.519531 12.808594 12.519531 L 12.808594 13.273438 L 4.191406 13.273438 L 4.191406 12.519531 C 4.191406 12.519531 4.191406 9.507812 8.5 9.503906 Z M 8.5 9.503906 "/>
<path style=" stroke:none;fill-rule:nonzero;fill:rgb(0%,32.941176%,0%);fill-opacity:1;" d="M 13.949219 8.714844 C 13.949219 7.707031 13.132812 6.890625 12.125 6.890625 C 11.117188 6.890625 10.300781 7.707031 10.300781 8.714844 C 10.300781 9.457031 10.75 10.125 11.441406 10.402344 L 11.441406 11.449219 L 10.753906 11.449219 L 10.753906 12.589844 L 11.441406 12.589844 L 11.441406 13.273438 L 12.808594 13.273438 L 12.808594 10.402344 C 13.496094 10.125 13.945312 9.457031 13.949219 8.714844 Z M 12.808594 8.714844 C 12.808594 9.089844 12.5 9.398438 12.125 9.398438 C 11.746094 9.398438 11.441406 9.089844 11.441406 8.714844 C 11.441406 8.335938 11.746094 8.027344 12.125 8.027344 C 12.5 8.027344 12.808594 8.335938 12.808594 8.714844 Z M 12.808594 8.714844 "/>
</g>
</svg>
