<?xml version="1.0" encoding="UTF-8"?>
<svg xmlns="http://www.w3.org/2000/svg" xmlns:xlink="http://www.w3.org/1999/xlink" width="17pt" height="17pt" viewBox="0 0 17 17" version="1.1">
<g id="surface1">
<path style=" stroke:none;fill-rule:evenodd;fill:rgb(80%,80%,80%);fill-opacity:1;" d="M 3.96875 1.007812 L 13.03125 1.007812 C 14.664062 1.007812 15.992188 2.335938 15.992188 3.96875 L 15.992188 13.03125 C 15.992188 14.664062 14.664062 15.992188 13.03125 15.992188 L 3.96875 15.992188 C 2.335938 15.992188 1.007812 14.664062 1.007812 13.03125 L 1.007812 3.96875 C 1.007812 2.335938 2.335938 1.007812 3.96875 1.007812 Z M 3.96875 1.007812 "/>
<path style=" stroke:none;fill-rule:nonzero;fill:rgb(30.980392%,54.901961%,96.470588%);fill-opacity:1;" d="M 4.046875 4.6875 C 3.738281 4.6875 3.488281 4.90625 3.425781 5.191406 C 3.417969 5.273438 3.417969 5.339844 3.417969 5.339844 L 3.417969 11.679688 C 3.417969 12.027344 3.695312 12.316406 4.050781 12.3125 L 4.867188 12.3125 L 4.867188 5.339844 C 4.867188 5.296875 4.863281 5.257812 4.855469 5.222656 C 4.8125 5.042969 4.597656 4.835938 4.378906 4.6875 Z M 4.046875 4.6875 "/>
<path style=" stroke:none;fill-rule:nonzero;fill:rgb(30.980392%,54.901961%,96.470588%);fill-opacity:1;" d="M 12.730469 4.6875 C 12.425781 4.773438 12.125 5.035156 12.132812 5.320312 L 12.132812 12.3125 L 12.933594 12.3125 C 13.300781 12.3125 13.582031 12.03125 13.582031 11.6875 L 13.582031 5.316406 C 13.582031 4.964844 13.292969 4.6875 12.949219 4.6875 Z M 12.730469 4.6875 "/>
<path style=" stroke:none;fill-rule:evenodd;fill:rgb(30.980392%,54.901961%,96.470588%);fill-opacity:1;" d="M 12.875 4.6875 C 12.710938 4.683594 12.550781 4.730469 12.421875 4.832031 L 8.5 7.773438 L 4.578125 4.832031 C 3.84375 4.273438 2.980469 5.476562 3.707031 5.992188 L 8.0625 9.261719 C 8.320312 9.457031 8.675781 9.457031 8.933594 9.261719 L 13.074219 6.160156 L 13.292969 5.992188 C 13.832031 5.609375 13.574219 4.695312 12.875 4.6875 Z M 12.875 4.6875 "/>
</g>
</svg>
