<?xml version="1.0" encoding="UTF-8"?>
<svg xmlns="http://www.w3.org/2000/svg" xmlns:xlink="http://www.w3.org/1999/xlink" width="17pt" height="17pt" viewBox="0 0 17 17" version="1.1">
<defs>
<clipPath id="clip1">
  <rect width="17" height="17"/>
</clipPath>
<g id="surface6" clip-path="url(#clip1)">
<path style=" stroke:none;fill-rule:nonzero;fill:rgb(100%,100%,100%);fill-opacity:1;" d="M 7.460938 3.429688 C 7.355469 3.441406 7.261719 3.53125 7.238281 3.636719 L 7.027344 4.722656 C 6.640625 4.871094 6.28125 5.078125 5.964844 5.332031 L 4.910156 4.976562 C 4.800781 4.9375 4.667969 4.988281 4.609375 5.085938 L 3.597656 6.84375 C 3.539062 6.945312 3.566406 7.085938 3.652344 7.160156 L 4.492188 7.898438 C 4.464844 8.097656 4.445312 8.292969 4.445312 8.5 C 4.445312 8.707031 4.464844 8.90625 4.492188 9.101562 L 3.652344 9.839844 C 3.566406 9.914062 3.539062 10.054688 3.597656 10.15625 L 4.609375 11.914062 C 4.667969 12.015625 4.800781 12.0625 4.910156 12.023438 L 5.964844 11.667969 C 6.28125 11.921875 6.640625 12.128906 7.027344 12.277344 L 7.242188 13.363281 C 7.261719 13.476562 7.371094 13.566406 7.484375 13.570312 L 9.511719 13.570312 C 9.628906 13.566406 9.738281 13.476562 9.757812 13.363281 L 9.972656 12.277344 C 10.355469 12.128906 10.71875 11.921875 11.035156 11.667969 L 12.085938 12.023438 C 12.199219 12.0625 12.328125 12.015625 12.390625 11.914062 L 13.402344 10.15625 C 13.460938 10.054688 13.4375 9.914062 13.347656 9.839844 L 12.507812 9.101562 C 12.539062 8.90625 12.554688 8.707031 12.554688 8.5 C 12.554688 8.292969 12.539062 8.097656 12.507812 7.898438 L 13.347656 7.160156 C 13.4375 7.085938 13.460938 6.945312 13.402344 6.84375 L 12.390625 5.085938 C 12.328125 4.988281 12.199219 4.9375 12.085938 4.976562 L 11.035156 5.332031 C 10.71875 5.078125 10.355469 4.871094 9.972656 4.722656 L 9.757812 3.636719 C 9.738281 3.523438 9.628906 3.433594 9.511719 3.429688 L 7.484375 3.429688 C 7.476562 3.429688 7.46875 3.429688 7.460938 3.429688 Z M 8.5 6.328125 C 9.699219 6.328125 10.671875 7.300781 10.671875 8.5 C 10.671875 9.699219 9.699219 10.671875 8.5 10.671875 C 7.300781 10.671875 6.328125 9.699219 6.328125 8.5 C 6.328125 7.300781 7.300781 6.328125 8.5 6.328125 Z M 8.5 6.328125 "/>
</g>
</defs>
<g id="surface1">
<path style=" stroke:none;fill-rule:evenodd;fill:rgb(68.235294%,33.72549%,72.156863%);fill-opacity:1;" d="M 3.96875 1.007812 L 13.03125 1.007812 C 14.664062 1.007812 15.992188 2.335938 15.992188 3.96875 L 15.992188 13.03125 C 15.992188 14.664062 14.664062 15.992188 13.03125 15.992188 L 3.96875 15.992188 C 2.335938 15.992188 1.007812 14.664062 1.007812 13.03125 L 1.007812 3.96875 C 1.007812 2.335938 2.335938 1.007812 3.96875 1.007812 Z M 3.96875 1.007812 "/>
<use xlink:href="#surface6"/>
</g>
</svg>
