<?xml version="1.0" encoding="UTF-8"?>
<svg xmlns="http://www.w3.org/2000/svg" xmlns:xlink="http://www.w3.org/1999/xlink" width="17pt" height="17pt" viewBox="0 0 17 17" version="1.1">
<g id="surface1">
<path style=" stroke:none;fill-rule:evenodd;fill:rgb(28.235294%,29.411765%,38.039216%);fill-opacity:1;" d="M 3.96875 1.007812 L 13.03125 1.007812 C 14.664062 1.007812 15.992188 2.335938 15.992188 3.96875 L 15.992188 13.03125 C 15.992188 14.664062 14.664062 15.992188 13.03125 15.992188 L 3.96875 15.992188 C 2.335938 15.992188 1.007812 14.664062 1.007812 13.03125 L 1.007812 3.96875 C 1.007812 2.335938 2.335938 1.007812 3.96875 1.007812 Z M 3.96875 1.007812 "/>
<path style=" stroke:none;fill-rule:nonzero;fill:rgb(28.235294%,29.411765%,38.039216%);fill-opacity:1;" d="M 8.5 2.339844 C 5.097656 2.339844 2.339844 5.097656 2.339844 8.5 C 2.339844 11.902344 5.097656 14.660156 8.5 14.660156 C 11.902344 14.660156 14.660156 11.902344 14.660156 8.5 C 14.660156 5.097656 11.902344 2.339844 8.5 2.339844 Z M 8.5 2.339844 "/>
<path style=" stroke:none;fill-rule:nonzero;fill:rgb(58.039216%,60%,69.803922%);fill-opacity:1;" d="M 12.019531 8.5 C 12.019531 10.445312 10.445312 12.019531 8.5 12.019531 C 6.554688 12.019531 4.980469 10.445312 4.980469 8.5 C 4.980469 6.554688 6.554688 4.980469 8.5 4.980469 C 10.445312 4.980469 12.019531 6.554688 12.019531 8.5 Z M 12.019531 8.5 "/>
<path style=" stroke:none;fill-rule:nonzero;fill:rgb(100%,100%,100%);fill-opacity:1;" d="M 11.257812 3.894531 C 11.570312 4.078125 11.6875 4.472656 11.511719 4.777344 L 9.285156 8.628906 C 9.109375 8.933594 8.710938 9.03125 8.398438 8.847656 C 8.082031 8.667969 7.96875 8.273438 8.144531 7.96875 L 10.367188 4.117188 C 10.542969 3.8125 10.941406 3.714844 11.257812 3.894531 Z M 11.257812 3.894531 "/>
<path style=" stroke:none;fill-rule:nonzero;fill:rgb(58.039216%,60%,69.803922%);fill-opacity:1;" d="M 14.21875 8.5 C 14.21875 8.742188 14.042969 8.941406 13.824219 8.941406 L 13.292969 8.941406 C 13.074219 8.941406 12.898438 8.742188 12.898438 8.5 C 12.898438 8.257812 13.074219 8.058594 13.292969 8.058594 L 13.824219 8.058594 C 14.042969 8.058594 14.21875 8.257812 14.21875 8.5 Z M 14.21875 8.5 "/>
<path style=" stroke:none;fill-rule:nonzero;fill:rgb(58.039216%,60%,69.803922%);fill-opacity:1;" d="M 4.101562 8.5 C 4.101562 8.742188 3.925781 8.941406 3.707031 8.941406 L 3.175781 8.941406 C 2.957031 8.941406 2.78125 8.742188 2.78125 8.5 C 2.78125 8.257812 2.957031 8.058594 3.175781 8.058594 L 3.707031 8.058594 C 3.925781 8.058594 4.101562 8.257812 4.101562 8.5 Z M 4.101562 8.5 "/>
<path style=" stroke:none;fill-rule:nonzero;fill:rgb(58.039216%,60%,69.803922%);fill-opacity:1;" d="M 8.5 14.21875 C 8.257812 14.21875 8.058594 14.042969 8.058594 13.824219 L 8.058594 13.292969 C 8.058594 13.074219 8.257812 12.898438 8.5 12.898438 C 8.742188 12.898438 8.941406 13.074219 8.941406 13.292969 L 8.941406 13.824219 C 8.941406 14.042969 8.742188 14.21875 8.5 14.21875 Z M 8.5 14.21875 "/>
<path style=" stroke:none;fill-rule:nonzero;fill:rgb(58.039216%,60%,69.803922%);fill-opacity:1;" d="M 8.5 4.101562 C 8.257812 4.101562 8.058594 3.925781 8.058594 3.707031 L 8.058594 3.175781 C 8.058594 2.957031 8.257812 2.78125 8.5 2.78125 C 8.742188 2.78125 8.941406 2.957031 8.941406 3.175781 L 8.941406 3.707031 C 8.941406 3.925781 8.742188 4.101562 8.5 4.101562 Z M 8.5 4.101562 "/>
</g>
</svg>
