<?xml version="1.0" encoding="UTF-8"?>
<svg xmlns="http://www.w3.org/2000/svg" xmlns:xlink="http://www.w3.org/1999/xlink" width="17pt" height="17pt" viewBox="0 0 17 17" version="1.1">
<g id="surface1">
<path style=" stroke:none;fill-rule:evenodd;fill:rgb(59.215686%,30.980392%,64.313725%);fill-opacity:1;" d="M 3.96875 1.007812 L 13.03125 1.007812 C 14.664062 1.007812 15.992188 2.335938 15.992188 3.96875 L 15.992188 13.03125 C 15.992188 14.664062 14.664062 15.992188 13.03125 15.992188 L 3.96875 15.992188 C 2.335938 15.992188 1.007812 14.664062 1.007812 13.03125 L 1.007812 3.96875 C 1.007812 2.335938 2.335938 1.007812 3.96875 1.007812 Z M 3.96875 1.007812 "/>
<path style=" stroke:none;fill-rule:nonzero;fill:rgb(30.196078%,30.196078%,30.196078%);fill-opacity:1;" d="M 8.347656 2.957031 C 8.234375 2.957031 8.117188 2.964844 8 2.976562 C 6.175781 3.179688 4.847656 4.683594 4.972656 6.367188 L 4.542969 6.414062 L 4.789062 8.625 L 6.214844 8.46875 L 5.96875 6.257812 L 5.441406 6.316406 C 5.34375 4.875 6.484375 3.585938 8.050781 3.414062 C 9.617188 3.242188 11.019531 4.246094 11.238281 5.671875 L 10.773438 5.722656 L 11.019531 7.933594 L 12.394531 7.78125 L 12.148438 5.570312 L 11.707031 5.617188 C 11.476562 4.0625 10.027344 2.929688 8.347656 2.957031 Z M 8.347656 2.957031 "/>
<path style=" stroke:none;fill-rule:nonzero;fill:rgb(94.901961%,94.901961%,94.901961%);fill-opacity:1;" d="M 8.140625 4.15625 C 7.945312 4.164062 7.773438 4.265625 7.640625 4.417969 C 7.507812 4.570312 7.402344 4.773438 7.3125 5.011719 C 7.136719 5.488281 7.027344 6.507812 6.964844 7.148438 C 6.90625 7.792969 6.894531 8.0625 6.921875 8.617188 C 6.949219 9.167969 7.003906 9.601562 7.117188 9.84375 C 7.21875 10.054688 7.332031 10.292969 7.382812 10.511719 C 7.433594 10.730469 7.421875 10.902344 7.296875 11.042969 C 7.167969 11.183594 6.882812 11.308594 6.339844 11.335938 C 5.796875 11.367188 5.003906 11.144531 3.878906 10.933594 C 3.699219 10.898438 3.546875 10.898438 3.414062 10.941406 C 3.285156 10.984375 3.179688 11.082031 3.117188 11.203125 C 2.992188 11.449219 2.980469 12.339844 2.960938 12.804688 C 2.957031 12.953125 3.011719 13.097656 3.109375 13.214844 C 3.207031 13.332031 3.339844 13.429688 3.511719 13.511719 C 3.847656 13.679688 4.320312 13.800781 4.902344 13.890625 C 6.074219 14.0625 7.703125 14.089844 9.550781 13.980469 L 9.554688 13.980469 C 10.234375 13.925781 11.308594 13.886719 12.238281 13.648438 C 12.699219 13.53125 13.128906 13.367188 13.457031 13.113281 C 13.785156 12.859375 14.007812 12.507812 14.03125 12.058594 C 14.050781 11.640625 14.03125 11.003906 13.945312 10.800781 C 13.863281 10.601562 13.683594 10.492188 13.496094 10.488281 C 13.128906 10.480469 12.691406 10.683594 12.125 10.816406 C 11.476562 10.96875 11.019531 10.902344 10.707031 10.878906 C 10.398438 10.855469 10.242188 10.882812 10.144531 10.757812 C 10.050781 10.636719 10.003906 10.453125 9.984375 10.21875 C 9.964844 9.988281 9.96875 9.710938 9.9375 9.421875 C 9.878906 8.863281 9.765625 7.957031 9.515625 6.792969 C 9.390625 6.210938 9.230469 5.265625 9.015625 4.855469 C 8.910156 4.648438 8.789062 4.476562 8.644531 4.351562 C 8.5 4.226562 8.328125 4.148438 8.136719 4.15625 Z M 8.140625 4.15625 "/>
<path style=" stroke:none;fill-rule:nonzero;fill:rgb(100%,100%,100%);fill-opacity:1;" d="M 7.703125 7.378906 C 7.667969 8.234375 7.410156 9.015625 7.023438 9.425781 C 6.636719 9.839844 6.179688 9.816406 5.832031 9.367188 C 5.484375 8.917969 5.296875 8.113281 5.339844 7.261719 C 5.375 6.40625 5.632812 5.625 6.023438 5.214844 C 6.410156 4.800781 6.863281 4.824219 7.210938 5.273438 C 7.558594 5.722656 7.746094 6.527344 7.703125 7.378906 Z M 7.703125 7.378906 "/>
<path style=" stroke:none;fill-rule:nonzero;fill:rgb(30.196078%,30.196078%,30.196078%);fill-opacity:1;" d="M 7.308594 7.734375 C 7.277344 8.171875 6.988281 8.519531 6.664062 8.507812 C 6.335938 8.496094 6.097656 8.132812 6.128906 7.695312 C 6.160156 7.261719 6.449219 6.914062 6.777344 6.925781 C 7.101562 6.933594 7.339844 7.296875 7.308594 7.734375 Z M 7.308594 7.734375 "/>
<path style=" stroke:none;fill-rule:nonzero;fill:rgb(100%,100%,100%);fill-opacity:1;" d="M 11.242188 7.195312 C 11.386719 8.503906 10.894531 9.621094 10.144531 9.6875 C 9.394531 9.757812 8.667969 8.753906 8.523438 7.445312 C 8.378906 6.136719 8.871094 5.019531 9.625 4.949219 C 10.375 4.882812 11.101562 5.886719 11.242188 7.195312 Z M 11.242188 7.195312 "/>
<path style=" stroke:none;fill-rule:nonzero;fill:rgb(30.196078%,30.196078%,30.196078%);fill-opacity:1;" d="M 10.457031 7.769531 C 10.371094 8.203125 10.042969 8.53125 9.730469 8.503906 C 9.414062 8.472656 9.226562 8.097656 9.3125 7.664062 C 9.367188 7.378906 9.527344 7.128906 9.734375 7.003906 C 9.9375 6.878906 10.15625 6.898438 10.308594 7.058594 C 10.457031 7.214844 10.511719 7.488281 10.457031 7.769531 Z M 10.457031 7.769531 "/>
</g>
</svg>
