<?xml version="1.0" encoding="UTF-8"?>
<svg xmlns="http://www.w3.org/2000/svg" xmlns:xlink="http://www.w3.org/1999/xlink" width="17pt" height="17pt" viewBox="0 0 17 17" version="1.1">
<g id="surface1">
<path style=" stroke:none;fill-rule:evenodd;fill:rgb(67.45098%,54.117647%,47.058824%);fill-opacity:1;" d="M 3.96875 1.007812 L 13.03125 1.007812 C 14.664062 1.007812 15.992188 2.335938 15.992188 3.96875 L 15.992188 13.03125 C 15.992188 14.664062 14.664062 15.992188 13.03125 15.992188 L 3.96875 15.992188 C 2.335938 15.992188 1.007812 14.664062 1.007812 13.03125 L 1.007812 3.96875 C 1.007812 2.335938 2.335938 1.007812 3.96875 1.007812 Z M 3.96875 1.007812 "/>
<path style="fill:none;stroke-width:1;stroke-linecap:butt;stroke-linejoin:miter;stroke:rgb(28.627451%,28.627451%,28.627451%);stroke-opacity:1;stroke-miterlimit:4;" d="M 10.5 15 L 10.5 9.5 L 22.5 9.5 L 22.5 15 " transform="matrix(0.53125,0,0,0.53125,-0.265625,0.265625)"/>
<path style="fill:none;stroke-width:1;stroke-linecap:butt;stroke-linejoin:miter;stroke:rgb(28.627451%,28.627451%,28.627451%);stroke-opacity:1;stroke-miterlimit:4;" d="M 13.5 22 L 13.5 15.5 L 25.5 15.5 L 25.5 22 " transform="matrix(0.53125,0,0,0.53125,-0.265625,0.265625)"/>
<path style="fill:none;stroke-width:1;stroke-linecap:butt;stroke-linejoin:miter;stroke:rgb(28.627451%,28.627451%,28.627451%);stroke-opacity:1;stroke-miterlimit:4;" d="M 7.5 22 L 7.5 15.5 L 19.5 15.5 L 19.5 22 " transform="matrix(0.53125,0,0,0.53125,-0.265625,0.265625)"/>
<path style=" stroke:none;fill-rule:nonzero;fill:rgb(100%,100%,100%);fill-opacity:1;" d="M 2.921875 10.890625 L 4.515625 10.890625 L 4.515625 13.015625 L 2.921875 13.015625 Z M 2.921875 10.890625 "/>
<path style=" stroke:none;fill-rule:nonzero;fill:rgb(100%,100%,100%);fill-opacity:1;" d="M 6.109375 10.890625 L 7.703125 10.890625 L 7.703125 13.015625 L 6.109375 13.015625 Z M 6.109375 10.890625 "/>
<path style=" stroke:none;fill-rule:nonzero;fill:rgb(100%,100%,100%);fill-opacity:1;" d="M 9.296875 10.890625 L 10.890625 10.890625 L 10.890625 13.015625 L 9.296875 13.015625 Z M 9.296875 10.890625 "/>
<path style=" stroke:none;fill-rule:nonzero;fill:rgb(100%,100%,100%);fill-opacity:1;" d="M 7.703125 3.984375 L 9.296875 3.984375 L 9.296875 6.109375 L 7.703125 6.109375 Z M 7.703125 3.984375 "/>
<path style=" stroke:none;fill-rule:nonzero;fill:rgb(100%,100%,100%);fill-opacity:1;" d="M 4.515625 7.171875 L 6.109375 7.171875 L 6.109375 9.296875 L 4.515625 9.296875 Z M 4.515625 7.171875 "/>
<path style=" stroke:none;fill-rule:nonzero;fill:rgb(100%,100%,100%);fill-opacity:1;" d="M 10.890625 7.171875 L 12.484375 7.171875 L 12.484375 9.296875 L 10.890625 9.296875 Z M 10.890625 7.171875 "/>
<path style=" stroke:none;fill-rule:nonzero;fill:rgb(100%,100%,100%);fill-opacity:1;" d="M 12.484375 10.890625 L 14.078125 10.890625 L 14.078125 13.015625 L 12.484375 13.015625 Z M 12.484375 10.890625 "/>
</g>
</svg>
