<?xml version="1.0" encoding="UTF-8"?>
<svg xmlns="http://www.w3.org/2000/svg" xmlns:xlink="http://www.w3.org/1999/xlink" width="17pt" height="17pt" viewBox="0 0 17 17" version="1.1">
<g id="surface1">
<path style=" stroke:none;fill-rule:evenodd;fill:rgb(55.686275%,55.686275%,55.686275%);fill-opacity:1;" d="M 3.96875 1.007812 L 13.03125 1.007812 C 14.664062 1.007812 15.992188 2.335938 15.992188 3.96875 L 15.992188 13.03125 C 15.992188 14.664062 14.664062 15.992188 13.03125 15.992188 L 3.96875 15.992188 C 2.335938 15.992188 1.007812 14.664062 1.007812 13.03125 L 1.007812 3.96875 C 1.007812 2.335938 2.335938 1.007812 3.96875 1.007812 Z M 3.96875 1.007812 "/>
<path style=" stroke:none;fill-rule:evenodd;fill:rgb(40%,40%,40%);fill-opacity:1;" d="M 4.082031 2.757812 L 12.917969 2.757812 L 12.917969 8.058594 L 4.082031 8.058594 Z M 4.082031 2.757812 "/>
<path style=" stroke:none;fill-rule:nonzero;fill:rgb(40%,40%,40%);fill-opacity:1;" d="M 11.148438 11.589844 C 11.148438 13.054688 9.964844 14.242188 8.5 14.242188 C 7.035156 14.242188 5.851562 13.054688 5.851562 11.589844 C 5.851562 10.128906 7.035156 8.941406 8.5 8.941406 C 9.964844 8.941406 11.148438 10.128906 11.148438 11.589844 Z M 11.148438 11.589844 "/>
<path style=" stroke:none;fill-rule:nonzero;fill:rgb(90.196078%,90.196078%,90.196078%);fill-opacity:1;" d="M 9.824219 11.589844 C 9.824219 12.324219 9.230469 12.917969 8.5 12.917969 C 7.769531 12.917969 7.175781 12.324219 7.175781 11.589844 C 7.175781 10.859375 7.769531 10.265625 8.5 10.265625 C 9.230469 10.265625 9.824219 10.859375 9.824219 11.589844 Z M 9.824219 11.589844 "/>
</g>
</svg>
