<?xml version="1.0" encoding="UTF-8"?>
<svg xmlns="http://www.w3.org/2000/svg" xmlns:xlink="http://www.w3.org/1999/xlink" width="17pt" height="17pt" viewBox="0 0 17 17" version="1.1">
<g id="surface1">
<path style=" stroke:none;fill-rule:evenodd;fill:rgb(33.333333%,51.764706%,73.333333%);fill-opacity:1;" d="M 3.96875 1.007812 L 13.03125 1.007812 C 14.664062 1.007812 15.992188 2.335938 15.992188 3.96875 L 15.992188 13.03125 C 15.992188 14.664062 14.664062 15.992188 13.03125 15.992188 L 3.96875 15.992188 C 2.335938 15.992188 1.007812 14.664062 1.007812 13.03125 L 1.007812 3.96875 C 1.007812 2.335938 2.335938 1.007812 3.96875 1.007812 Z M 3.96875 1.007812 "/>
<path style=" stroke:none;fill-rule:nonzero;fill:rgb(100%,100%,100%);fill-opacity:1;" d="M 7.4375 2.125 L 9.5625 2.125 L 9.5625 3.1875 L 7.4375 3.1875 Z M 7.4375 2.125 "/>
<path style=" stroke:none;fill-rule:nonzero;fill:rgb(100%,100%,100%);fill-opacity:1;" d="M 7.4375 13.8125 L 9.5625 13.8125 L 9.5625 14.875 L 7.4375 14.875 Z M 7.4375 13.8125 "/>
<path style=" stroke:none;fill-rule:nonzero;fill:rgb(100%,100%,100%);fill-opacity:1;" d="M 14.875 7.4375 L 14.875 9.5625 L 13.8125 9.5625 L 13.8125 7.4375 Z M 14.875 7.4375 "/>
<path style=" stroke:none;fill-rule:nonzero;fill:rgb(100%,100%,100%);fill-opacity:1;" d="M 3.1875 7.4375 L 3.1875 9.5625 L 2.125 9.5625 L 2.125 7.4375 Z M 3.1875 7.4375 "/>
<path style=" stroke:none;fill-rule:nonzero;fill:rgb(100%,100%,100%);fill-opacity:1;" d="M 12.257812 3.242188 L 13.761719 4.746094 L 13.007812 5.496094 L 11.507812 3.992188 Z M 12.257812 3.242188 "/>
<path style=" stroke:none;fill-rule:nonzero;fill:rgb(100%,100%,100%);fill-opacity:1;" d="M 3.992188 11.507812 L 5.496094 13.007812 L 4.746094 13.761719 L 3.242188 12.257812 Z M 3.992188 11.507812 "/>
<path style=" stroke:none;fill-rule:nonzero;fill:rgb(100%,100%,100%);fill-opacity:1;" d="M 13.761719 12.257812 L 12.257812 13.761719 L 11.507812 13.007812 L 13.007812 11.507812 Z M 13.761719 12.257812 "/>
<path style=" stroke:none;fill-rule:nonzero;fill:rgb(100%,100%,100%);fill-opacity:1;" d="M 5.496094 3.992188 L 3.992188 5.496094 L 3.242188 4.746094 L 4.746094 3.242188 Z M 5.496094 3.992188 "/>
<path style=" stroke:none;fill-rule:nonzero;fill:rgb(100%,100%,100%);fill-opacity:1;" d="M 6.375 4.820312 C 4.523438 5.890625 3.757812 8.171875 4.585938 10.144531 L 11.882812 5.933594 C 10.589844 4.230469 8.230469 3.75 6.375 4.820312 Z M 5.117188 11.066406 C 6.410156 12.769531 8.769531 13.25 10.625 12.179688 C 12.476562 11.109375 13.242188 8.828125 12.414062 6.855469 Z M 5.117188 11.066406 "/>
</g>
</svg>
