<?xml version="1.0" encoding="UTF-8"?>
<svg xmlns="http://www.w3.org/2000/svg" xmlns:xlink="http://www.w3.org/1999/xlink" width="17pt" height="17pt" viewBox="0 0 17 17" version="1.1">
<defs>
<g>
<symbol overflow="visible" id="glyph0-0">
<path style="stroke:none;" d="M 0.15625 0.53125 L 0.15625 -2.109375 L 1.65625 -2.109375 L 1.65625 0.53125 Z M 0.3125 0.359375 L 1.484375 0.359375 L 1.484375 -1.953125 L 0.3125 -1.953125 Z M 0.3125 0.359375 "/>
</symbol>
<symbol overflow="visible" id="glyph0-1">
<path style="stroke:none;" d="M 0.28125 -2.1875 L 0.84375 -2.1875 L 0.84375 0 L 0.28125 0 Z M 0.28125 -2.1875 "/>
</symbol>
<symbol overflow="visible" id="glyph0-2">
<path style="stroke:none;" d="M 0.15625 -1.078125 L 1.078125 -1.078125 L 1.078125 -0.65625 L 0.15625 -0.65625 Z M 0.15625 -1.078125 "/>
</symbol>
<symbol overflow="visible" id="glyph0-3">
<path style="stroke:none;" d="M 0.28125 -2.1875 L 0.90625 -2.1875 L 1.703125 -0.6875 L 1.703125 -2.1875 L 2.234375 -2.1875 L 2.234375 0 L 1.609375 0 L 0.8125 -1.5 L 0.8125 0 L 0.28125 0 Z M 0.28125 -2.1875 "/>
</symbol>
<symbol overflow="visible" id="glyph0-4">
<path style="stroke:none;" d="M 1.890625 -0.828125 L 1.890625 -0.671875 L 0.65625 -0.671875 C 0.675781 -0.546875 0.722656 -0.453125 0.796875 -0.390625 C 0.867188 -0.335938 0.972656 -0.3125 1.109375 -0.3125 C 1.222656 -0.3125 1.335938 -0.328125 1.453125 -0.359375 C 1.566406 -0.390625 1.6875 -0.4375 1.8125 -0.5 L 1.8125 -0.09375 C 1.6875 -0.0507812 1.5625 -0.0195312 1.4375 0 C 1.3125 0.03125 1.1875 0.046875 1.0625 0.046875 C 0.769531 0.046875 0.539062 -0.0234375 0.375 -0.171875 C 0.207031 -0.328125 0.125 -0.539062 0.125 -0.8125 C 0.125 -1.082031 0.203125 -1.296875 0.359375 -1.453125 C 0.523438 -1.609375 0.75 -1.6875 1.03125 -1.6875 C 1.289062 -1.6875 1.5 -1.609375 1.65625 -1.453125 C 1.8125 -1.296875 1.890625 -1.085938 1.890625 -0.828125 Z M 1.34375 -1 C 1.34375 -1.101562 1.3125 -1.179688 1.25 -1.234375 C 1.195312 -1.296875 1.125 -1.328125 1.03125 -1.328125 C 0.9375 -1.328125 0.851562 -1.296875 0.78125 -1.234375 C 0.71875 -1.179688 0.679688 -1.101562 0.671875 -1 Z M 1.34375 -1 "/>
</symbol>
<symbol overflow="visible" id="glyph0-5">
<path style="stroke:none;" d="M 0.671875 -0.84375 L 0.078125 -1.640625 L 0.625 -1.640625 L 0.96875 -1.15625 L 1.3125 -1.640625 L 1.859375 -1.640625 L 1.265625 -0.84375 L 1.890625 0 L 1.328125 0 L 0.96875 -0.515625 L 0.59375 0 L 0.046875 0 Z M 0.671875 -0.84375 "/>
</symbol>
</g>
</defs>
<g id="surface1">
<path style=" stroke:none;fill-rule:evenodd;fill:rgb(34.901961%,55.294118%,40.784314%);fill-opacity:1;" d="M 3.96875 1.007812 L 13.03125 1.007812 C 14.664062 1.007812 15.992188 2.335938 15.992188 3.96875 L 15.992188 13.03125 C 15.992188 14.664062 14.664062 15.992188 13.03125 15.992188 L 3.96875 15.992188 C 2.335938 15.992188 1.007812 14.664062 1.007812 13.03125 L 1.007812 3.96875 C 1.007812 2.335938 2.335938 1.007812 3.96875 1.007812 Z M 3.96875 1.007812 "/>
<path style="fill-rule:nonzero;fill:rgb(64.705882%,65.490196%,64.313725%);fill-opacity:1;stroke-width:0.6;stroke-linecap:round;stroke-linejoin:miter;stroke:rgb(72.54902%,72.941176%,72.156863%);stroke-opacity:1;stroke-miterlimit:4;" d="M 8.669118 5.625 L 23.330882 5.625 C 25.014706 5.625 26.375 6.985294 26.375 8.669118 L 26.375 23.330882 C 26.375 25.014706 25.014706 26.375 23.330882 26.375 L 8.669118 26.375 C 6.985294 26.375 5.625 25.014706 5.625 23.330882 L 5.625 8.669118 C 5.625 6.985294 6.985294 5.625 8.669118 5.625 Z M 8.669118 5.625 " transform="matrix(0.53125,0,0,0.53125,0,0)"/>
<g style="fill:rgb(20%,20%,20%);fill-opacity:1;">
  <use xlink:href="#glyph0-1" x="4.074219" y="9.545868"/>
  <use xlink:href="#glyph0-2" x="5.16214" y="9.545868"/>
  <use xlink:href="#glyph0-3" x="6.37561" y="9.545868"/>
  <use xlink:href="#glyph0-4" x="8.822784" y="9.545868"/>
  <use xlink:href="#glyph0-5" x="10.805634" y="9.545868"/>
</g>
<path style="fill-rule:nonzero;fill:rgb(64.705882%,65.490196%,64.313725%);fill-opacity:1;stroke-width:0.6;stroke-linecap:round;stroke-linejoin:miter;stroke:rgb(72.54902%,72.941176%,72.156863%);stroke-opacity:1;stroke-miterlimit:4;" d="M 10.757353 26.338235 L 5.625 21.205882 L 5.625 23.301471 C 5.625 24.985294 6.985294 26.338235 8.669118 26.338235 Z M 10.757353 26.338235 " transform="matrix(0.53125,0,0,0.53125,0,0)"/>
</g>
</svg>
