<?xml version="1.0" encoding="UTF-8"?>
<svg xmlns="http://www.w3.org/2000/svg" xmlns:xlink="http://www.w3.org/1999/xlink" width="17pt" height="17pt" viewBox="0 0 17 17" version="1.1">
<g id="surface1">
<path style=" stroke:none;fill-rule:evenodd;fill:rgb(12.54902%,58.431373%,94.901961%);fill-opacity:1;" d="M 3.96875 1.007812 L 13.03125 1.007812 C 14.664062 1.007812 15.992188 2.335938 15.992188 3.96875 L 15.992188 13.03125 C 15.992188 14.664062 14.664062 15.992188 13.03125 15.992188 L 3.96875 15.992188 C 2.335938 15.992188 1.007812 14.664062 1.007812 13.03125 L 1.007812 3.96875 C 1.007812 2.335938 2.335938 1.007812 3.96875 1.007812 Z M 3.96875 1.007812 "/>
<path style=" stroke:none;fill-rule:evenodd;fill:rgb(100%,100%,100%);fill-opacity:1;" d="M 6.234375 3.414062 L 3.96875 6.472656 L 4.609375 7.742188 L 11.402344 7.742188 C 11.339844 9.371094 11.324219 9.765625 10.976562 10.609375 C 10.773438 11.105469 10.515625 11.414062 9.992188 11.660156 C 9.472656 11.902344 8.640625 12.050781 7.375 11.96875 L 7.273438 13.558594 C 8.699219 13.648438 9.796875 13.507812 10.667969 13.101562 C 11.539062 12.695312 12.128906 11.996094 12.449219 11.214844 C 13.09375 9.65625 12.921875 8.878906 13.03125 6.992188 L 12.996094 6.148438 L 6.191406 6.148438 L 7.515625 4.363281 Z M 6.234375 3.414062 "/>
</g>
</svg>
