<?xml version="1.0" encoding="UTF-8"?>
<svg xmlns="http://www.w3.org/2000/svg" xmlns:xlink="http://www.w3.org/1999/xlink" width="17pt" height="17pt" viewBox="0 0 17 17" version="1.1">
<g id="surface1">
<path style=" stroke:none;fill-rule:evenodd;fill:rgb(0.784314%,52.54902%,76.078431%);fill-opacity:1;" d="M 3.96875 1.007812 L 13.03125 1.007812 C 14.664062 1.007812 15.992188 2.335938 15.992188 3.96875 L 15.992188 13.03125 C 15.992188 14.664062 14.664062 15.992188 13.03125 15.992188 L 3.96875 15.992188 C 2.335938 15.992188 1.007812 14.664062 1.007812 13.03125 L 1.007812 3.96875 C 1.007812 2.335938 2.335938 1.007812 3.96875 1.007812 Z M 3.96875 1.007812 "/>
<path style=" stroke:none;fill-rule:nonzero;fill:rgb(100%,100%,100%);fill-opacity:1;" d="M 6.636719 3.121094 C 6.292969 3.121094 6.019531 3.398438 6.019531 3.742188 L 6.019531 9.535156 C 6.019531 9.878906 6.292969 10.15625 6.636719 10.15625 L 12.429688 10.15625 C 12.773438 10.15625 13.050781 9.878906 13.050781 9.535156 L 13.050781 4.363281 L 14.292969 3.121094 Z M 6.636719 3.121094 "/>
<path style=" stroke:none;fill-rule:nonzero;fill:rgb(20.784314%,72.54902%,96.078431%);fill-opacity:1;" d="M 2.707031 6.84375 L 3.949219 8.085938 L 3.949219 13.257812 C 3.949219 13.601562 4.226562 13.878906 4.570312 13.878906 L 10.363281 13.878906 C 10.707031 13.878906 10.980469 13.601562 10.980469 13.257812 L 10.980469 7.464844 C 10.980469 7.121094 10.707031 6.84375 10.363281 6.84375 Z M 2.707031 6.84375 "/>
<path style=" stroke:none;fill-rule:nonzero;fill:rgb(68.235294%,89.019608%,98.431373%);fill-opacity:1;" d="M 5.191406 8.914062 L 5.191406 9.328125 L 9.742188 9.328125 L 9.742188 8.914062 Z M 5.191406 10.15625 L 5.191406 10.570312 L 9.742188 10.570312 L 9.742188 10.15625 Z M 5.191406 11.394531 L 5.191406 11.808594 L 8.664062 11.808594 L 8.664062 11.394531 Z M 5.191406 11.394531 "/>
</g>
</svg>
