<?xml version="1.0" encoding="UTF-8"?>
<svg xmlns="http://www.w3.org/2000/svg" xmlns:xlink="http://www.w3.org/1999/xlink" width="17pt" height="17pt" viewBox="0 0 17 17" version="1.1">
<g id="surface1">
<path style=" stroke:none;fill-rule:evenodd;fill:rgb(10.196078%,10.196078%,10.196078%);fill-opacity:1;" d="M 3.96875 1.007812 L 13.03125 1.007812 C 14.664062 1.007812 15.992188 2.335938 15.992188 3.96875 L 15.992188 13.03125 C 15.992188 14.664062 14.664062 15.992188 13.03125 15.992188 L 3.96875 15.992188 C 2.335938 15.992188 1.007812 14.664062 1.007812 13.03125 L 1.007812 3.96875 C 1.007812 2.335938 2.335938 1.007812 3.96875 1.007812 Z M 3.96875 1.007812 "/>
<path style=" stroke:none;fill-rule:nonzero;fill:rgb(100%,100%,100%);fill-opacity:1;" d="M 8.472656 6.476562 C 7.492188 6.488281 6.707031 7.296875 6.71875 8.28125 L 6.71875 13.015625 C 6.71875 13.996094 7.515625 14.796875 8.5 14.796875 C 9.484375 14.796875 10.28125 13.996094 10.28125 13.015625 L 10.28125 8.28125 C 10.285156 7.800781 10.097656 7.335938 9.757812 6.996094 C 9.417969 6.65625 8.953125 6.46875 8.472656 6.476562 Z M 8.472656 6.476562 "/>
<path style=" stroke:none;fill-rule:nonzero;fill:rgb(53.72549%,77.647059%,14.117647%);fill-opacity:1;" d="M 10.257812 3.960938 C 10.257812 4.933594 9.46875 5.71875 8.5 5.71875 C 7.53125 5.71875 6.742188 4.933594 6.742188 3.960938 C 6.742188 2.992188 7.53125 2.203125 8.5 2.203125 C 9.46875 2.203125 10.257812 2.992188 10.257812 3.960938 Z M 10.257812 3.960938 "/>
</g>
</svg>
