<?xml version="1.0" encoding="UTF-8"?>
<svg xmlns="http://www.w3.org/2000/svg" xmlns:xlink="http://www.w3.org/1999/xlink" width="17pt" height="17pt" viewBox="0 0 17 17" version="1.1">
<g id="surface1">
<path style=" stroke:none;fill-rule:evenodd;fill:rgb(0%,49.411765%,100%);fill-opacity:1;" d="M 3.96875 1.007812 L 13.03125 1.007812 C 14.664062 1.007812 15.992188 2.335938 15.992188 3.96875 L 15.992188 13.03125 C 15.992188 14.664062 14.664062 15.992188 13.03125 15.992188 L 3.96875 15.992188 C 2.335938 15.992188 1.007812 14.664062 1.007812 13.03125 L 1.007812 3.96875 C 1.007812 2.335938 2.335938 1.007812 3.96875 1.007812 Z M 3.96875 1.007812 "/>
<path style=" stroke:none;fill-rule:nonzero;fill:rgb(100%,69.019608%,0%);fill-opacity:1;" d="M 10.09375 8.5 C 10.09375 7.621094 9.378906 6.90625 8.5 6.90625 C 7.621094 6.90625 6.90625 7.621094 6.90625 8.5 C 6.90625 9.378906 7.621094 10.09375 8.5 10.09375 C 9.378906 10.09375 10.09375 9.378906 10.09375 8.5 Z M 10.09375 8.5 "/>
<path style=" stroke:none;fill-rule:nonzero;fill:rgb(100%,69.019608%,0%);fill-opacity:1;" d="M 13.8125 4.78125 C 13.8125 3.902344 13.097656 3.1875 12.21875 3.1875 C 11.339844 3.1875 10.625 3.902344 10.625 4.78125 C 10.625 5.660156 11.339844 6.375 12.21875 6.375 C 13.097656 6.375 13.8125 5.660156 13.8125 4.78125 Z M 13.8125 4.78125 "/>
<path style=" stroke:none;fill-rule:nonzero;fill:rgb(100%,69.019608%,0%);fill-opacity:1;" d="M 6.375 12.21875 C 6.375 11.339844 5.660156 10.625 4.78125 10.625 C 3.902344 10.625 3.1875 11.339844 3.1875 12.21875 C 3.1875 13.097656 3.902344 13.8125 4.78125 13.8125 C 5.660156 13.8125 6.375 13.097656 6.375 12.21875 Z M 6.375 12.21875 "/>
<path style=" stroke:none;fill-rule:nonzero;fill:rgb(100%,100%,100%);fill-opacity:1;" d="M 6.375 8.5 C 6.375 7.621094 5.660156 6.90625 4.78125 6.90625 C 3.902344 6.90625 3.1875 7.621094 3.1875 8.5 C 3.1875 9.378906 3.902344 10.09375 4.78125 10.09375 C 5.660156 10.09375 6.375 9.378906 6.375 8.5 Z M 6.375 8.5 "/>
<path style=" stroke:none;fill-rule:nonzero;fill:rgb(100%,100%,100%);fill-opacity:1;" d="M 13.8125 8.5 C 13.8125 7.621094 13.097656 6.90625 12.21875 6.90625 C 11.339844 6.90625 10.625 7.621094 10.625 8.5 C 10.625 9.378906 11.339844 10.09375 12.21875 10.09375 C 13.097656 10.09375 13.8125 9.378906 13.8125 8.5 Z M 13.8125 8.5 "/>
<path style=" stroke:none;fill-rule:nonzero;fill:rgb(100%,100%,100%);fill-opacity:1;" d="M 10.09375 4.78125 C 10.09375 3.902344 9.378906 3.1875 8.5 3.1875 C 7.621094 3.1875 6.90625 3.902344 6.90625 4.78125 C 6.90625 5.660156 7.621094 6.375 8.5 6.375 C 9.378906 6.375 10.09375 5.660156 10.09375 4.78125 Z M 10.09375 4.78125 "/>
<path style=" stroke:none;fill-rule:nonzero;fill:rgb(100%,100%,100%);fill-opacity:1;" d="M 6.375 4.78125 C 6.375 3.902344 5.660156 3.1875 4.78125 3.1875 C 3.902344 3.1875 3.1875 3.902344 3.1875 4.78125 C 3.1875 5.660156 3.902344 6.375 4.78125 6.375 C 5.660156 6.375 6.375 5.660156 6.375 4.78125 Z M 6.375 4.78125 "/>
<path style=" stroke:none;fill-rule:nonzero;fill:rgb(100%,100%,100%);fill-opacity:1;" d="M 10.09375 12.21875 C 10.09375 11.339844 9.378906 10.625 8.5 10.625 C 7.621094 10.625 6.90625 11.339844 6.90625 12.21875 C 6.90625 13.097656 7.621094 13.8125 8.5 13.8125 C 9.378906 13.8125 10.09375 13.097656 10.09375 12.21875 Z M 10.09375 12.21875 "/>
<path style=" stroke:none;fill-rule:nonzero;fill:rgb(100%,100%,100%);fill-opacity:1;" d="M 13.8125 12.21875 C 13.8125 11.339844 13.097656 10.625 12.21875 10.625 C 11.339844 10.625 10.625 11.339844 10.625 12.21875 C 10.625 13.097656 11.339844 13.8125 12.21875 13.8125 C 13.097656 13.8125 13.8125 13.097656 13.8125 12.21875 Z M 13.8125 12.21875 "/>
</g>
</svg>
