<?xml version="1.0" encoding="UTF-8"?>
<svg xmlns="http://www.w3.org/2000/svg" xmlns:xlink="http://www.w3.org/1999/xlink" width="17pt" height="17pt" viewBox="0 0 17 17" version="1.1">
<g id="surface1">
<path style=" stroke:none;fill-rule:evenodd;fill:rgb(60%,60%,60%);fill-opacity:1;" d="M 15.261719 14.921875 C 15.105469 14.960938 14.90625 15.011719 14.90625 15.011719 L 2.078125 15.011719 C 2.019531 15.011719 1.867188 14.960938 1.75 14.941406 C 2.292969 15.570312 3.070312 15.992188 3.96875 15.992188 L 13.03125 15.992188 C 13.9375 15.992188 14.71875 15.5625 15.261719 14.921875 Z M 15.261719 14.921875 "/>
<path style=" stroke:none;fill-rule:evenodd;fill:rgb(99.607843%,59.215686%,0%);fill-opacity:1;" d="M 15.976562 13.113281 L 15.976562 7.421875 C 15.976562 7.175781 15.859375 6.960938 15.675781 6.824219 L 15.679688 6.820312 L 8.492188 1.542969 C 8.492188 1.542969 1.304688 6.828125 1.347656 6.796875 L 1.347656 6.792969 C 1.335938 6.804688 1.320312 6.816406 1.304688 6.828125 L 1.296875 6.832031 L 1.296875 6.835938 C 1.121094 6.972656 1.007812 7.183594 1.007812 7.421875 L 1.007812 13.03125 C 1.007812 13.769531 1.304688 14.421875 1.75 14.941406 C 1.871094 14.960938 2.019531 15.011719 2.078125 15.011719 L 14.90625 15.011719 C 14.90625 15.011719 15.105469 14.960938 15.261719 14.921875 C 15.683594 14.425781 15.957031 13.808594 15.976562 13.113281 Z M 15.976562 13.113281 "/>
<path style=" stroke:none;fill-rule:evenodd;fill:rgb(60%,60%,60%);fill-opacity:1;" d="M 3.96875 1.007812 C 2.328125 1.007812 1.007812 2.328125 1.007812 3.972656 L 1.007812 7.421875 C 1.007812 7.183594 1.121094 6.972656 1.296875 6.835938 L 1.296875 6.832031 L 1.304688 6.828125 C 1.320312 6.816406 1.335938 6.804688 1.347656 6.792969 L 1.347656 6.796875 C 1.304688 6.828125 8.492188 1.542969 8.492188 1.542969 L 15.679688 6.820312 L 15.675781 6.824219 C 15.859375 6.960938 15.976562 7.175781 15.976562 7.421875 L 15.976562 13.113281 C 15.976562 13.082031 15.992188 13.058594 15.992188 13.03125 L 15.992188 3.972656 C 15.992188 2.328125 14.671875 1.007812 13.03125 1.007812 Z M 3.96875 1.007812 "/>
<path style=" stroke:none;fill-rule:nonzero;fill:rgb(92.156863%,92.156863%,92.156863%);fill-opacity:1;" d="M 3.414062 3.144531 L 13.570312 3.144531 C 14.011719 3.144531 14.371094 3.503906 14.371094 3.945312 L 14.371094 11.964844 C 14.371094 12.40625 14.011719 12.765625 13.570312 12.765625 L 3.414062 12.765625 C 2.972656 12.765625 2.613281 12.40625 2.613281 11.964844 L 2.613281 3.945312 C 2.613281 3.503906 2.972656 3.144531 3.414062 3.144531 Z M 3.414062 3.144531 "/>
<path style=" stroke:none;fill-rule:evenodd;fill:rgb(99.607843%,80.392157%,21.960784%);fill-opacity:1;" d="M 15.976562 13.113281 L 15.976562 7.421875 L 3.679688 15.933594 C 3.78125 15.945312 3.867188 15.992188 3.96875 15.992188 L 13.03125 15.992188 C 14.640625 15.992188 15.929688 14.710938 15.976562 13.113281 Z M 15.976562 13.113281 "/>
<path style=" stroke:none;fill-rule:evenodd;fill:rgb(99.607843%,75.294118%,2.352941%);fill-opacity:1;" d="M 8.492188 12.601562 L 1.007812 7.421875 L 1.007812 13.03125 C 1.007812 14.566406 2.183594 15.78125 3.679688 15.933594 Z M 8.492188 12.601562 "/>
<path style=" stroke:none;fill-rule:nonzero;fill:rgb(51.764706%,51.764706%,51.764706%);fill-opacity:1;" d="M 8.5 4.800781 L 6.375 7.457031 L 7.4375 7.457031 L 7.4375 9.847656 C 7.4375 10.019531 7.535156 10.113281 7.703125 10.113281 L 9.296875 10.113281 C 9.464844 10.113281 9.5625 10.019531 9.5625 9.847656 L 9.5625 7.457031 L 10.625 7.457031 Z M 8.5 4.800781 "/>
</g>
</svg>
