<?xml version="1.0" encoding="UTF-8"?>
<svg xmlns="http://www.w3.org/2000/svg" xmlns:xlink="http://www.w3.org/1999/xlink" width="17pt" height="17pt" viewBox="0 0 17 17" version="1.1">
<g id="surface1">
<path style=" stroke:none;fill-rule:evenodd;fill:rgb(80%,80%,80%);fill-opacity:1;" d="M 3.96875 1.007812 L 13.03125 1.007812 C 14.664062 1.007812 15.992188 2.335938 15.992188 3.96875 L 15.992188 13.03125 C 15.992188 14.664062 14.664062 15.992188 13.03125 15.992188 L 3.96875 15.992188 C 2.335938 15.992188 1.007812 14.664062 1.007812 13.03125 L 1.007812 3.96875 C 1.007812 2.335938 2.335938 1.007812 3.96875 1.007812 Z M 3.96875 1.007812 "/>
<path style=" stroke:none;fill-rule:nonzero;fill:rgb(30.196078%,30.196078%,30.196078%);fill-opacity:1;" d="M 4.25 10.09375 C 4.25 10.535156 3.894531 10.890625 3.453125 10.890625 C 3.011719 10.890625 2.65625 10.535156 2.65625 10.09375 C 2.65625 9.652344 3.011719 9.296875 3.453125 9.296875 C 3.894531 9.296875 4.25 9.652344 4.25 10.09375 Z M 4.25 10.09375 "/>
<path style=" stroke:none;fill-rule:nonzero;fill:rgb(30.196078%,30.196078%,30.196078%);fill-opacity:1;" d="M 9.03125 10.09375 C 9.03125 10.535156 8.675781 10.890625 8.234375 10.890625 C 7.792969 10.890625 7.4375 10.535156 7.4375 10.09375 C 7.4375 9.652344 7.792969 9.296875 8.234375 9.296875 C 8.675781 9.296875 9.03125 9.652344 9.03125 10.09375 Z M 9.03125 10.09375 "/>
<path style=" stroke:none;fill-rule:nonzero;fill:rgb(30.196078%,30.196078%,30.196078%);fill-opacity:1;" d="M 9.03125 6.90625 C 9.03125 7.347656 8.675781 7.703125 8.234375 7.703125 C 7.792969 7.703125 7.4375 7.347656 7.4375 6.90625 C 7.4375 6.464844 7.792969 6.109375 8.234375 6.109375 C 8.675781 6.109375 9.03125 6.464844 9.03125 6.90625 Z M 9.03125 6.90625 "/>
<path style=" stroke:none;fill-rule:nonzero;fill:rgb(30.196078%,30.196078%,30.196078%);fill-opacity:1;" d="M 14.34375 6.90625 C 14.34375 7.347656 13.988281 7.703125 13.546875 7.703125 C 13.105469 7.703125 12.75 7.347656 12.75 6.90625 C 12.75 6.464844 13.105469 6.109375 13.546875 6.109375 C 13.988281 6.109375 14.34375 6.464844 14.34375 6.90625 Z M 14.34375 6.90625 "/>
<path style=" stroke:none;fill-rule:nonzero;fill:rgb(30.196078%,30.196078%,30.196078%);fill-opacity:1;" d="M 7.96875 6.640625 L 7.96875 9.828125 L 3.1875 9.828125 L 3.1875 10.359375 L 8.5 10.359375 L 8.5 7.171875 L 13.8125 7.171875 L 13.8125 6.640625 Z M 7.96875 6.640625 "/>
</g>
</svg>
