<?xml version="1.0" encoding="UTF-8"?>
<svg xmlns="http://www.w3.org/2000/svg" xmlns:xlink="http://www.w3.org/1999/xlink" width="17pt" height="17pt" viewBox="0 0 17 17" version="1.1">
<g id="surface1">
<path style=" stroke:none;fill-rule:evenodd;fill:rgb(41.176471%,16.078431%,84.705882%);fill-opacity:1;" d="M 3.96875 1.007812 L 13.03125 1.007812 C 14.664062 1.007812 15.992188 2.335938 15.992188 3.96875 L 15.992188 13.03125 C 15.992188 14.664062 14.664062 15.992188 13.03125 15.992188 L 3.96875 15.992188 C 2.335938 15.992188 1.007812 14.664062 1.007812 13.03125 L 1.007812 3.96875 C 1.007812 2.335938 2.335938 1.007812 3.96875 1.007812 Z M 3.96875 1.007812 "/>
<path style=" stroke:none;fill-rule:evenodd;fill:rgb(41.176471%,16.078431%,84.705882%);fill-opacity:1;" d="M 3.855469 2.878906 C 3.5 2.878906 3.195312 3.078125 3.019531 3.304688 C 2.847656 3.53125 2.765625 3.800781 2.765625 4.082031 L 2.765625 10.074219 C 2.765625 10.355469 2.847656 10.621094 3.019531 10.851562 C 3.195312 11.078125 3.5 11.273438 3.855469 11.273438 L 11.082031 11.273438 C 11.4375 11.273438 11.738281 11.078125 11.914062 10.851562 C 12.089844 10.621094 12.167969 10.355469 12.167969 10.074219 L 12.167969 4.082031 C 12.167969 3.800781 12.089844 3.53125 11.914062 3.304688 C 11.738281 3.078125 11.4375 2.878906 11.082031 2.878906 Z M 3.855469 2.878906 "/>
<path style=" stroke:none;fill-rule:evenodd;fill:rgb(100%,100%,100%);fill-opacity:1;" d="M 4.191406 3.492188 C 4.003906 3.492188 3.84375 3.59375 3.742188 3.726562 C 3.640625 3.859375 3.589844 4.027344 3.589844 4.207031 L 3.589844 4.679688 C 3.585938 4.683594 3.585938 4.6875 3.589844 4.695312 L 3.589844 10.203125 C 3.589844 10.382812 3.640625 10.550781 3.742188 10.683594 C 3.84375 10.816406 4.003906 10.917969 4.191406 10.917969 L 11.417969 10.917969 C 11.601562 10.917969 11.765625 10.816406 11.867188 10.683594 C 11.96875 10.550781 12.019531 10.382812 12.019531 10.203125 L 12.019531 4.699219 C 12.019531 4.699219 12.023438 4.695312 12.023438 4.695312 C 12.023438 4.6875 12.019531 4.679688 12.019531 4.671875 L 12.019531 4.207031 C 12.019531 4.027344 11.96875 3.859375 11.867188 3.726562 C 11.765625 3.59375 11.601562 3.492188 11.417969 3.492188 Z M 4.191406 3.980469 L 11.417969 3.980469 C 11.433594 3.980469 11.449219 3.984375 11.480469 4.023438 C 11.507812 4.058594 11.535156 4.128906 11.535156 4.207031 L 11.535156 4.695312 C 11.535156 4.761719 11.492188 4.804688 11.425781 4.804688 L 4.183594 4.804688 C 4.117188 4.804688 4.074219 4.761719 4.074219 4.695312 L 4.074219 4.207031 C 4.074219 4.128906 4.101562 4.058594 4.128906 4.023438 C 4.15625 3.984375 4.175781 3.980469 4.191406 3.980469 Z M 10.921875 4.082031 C 10.863281 4.082031 10.808594 4.117188 10.789062 4.171875 C 10.765625 4.226562 10.777344 4.289062 10.820312 4.332031 L 10.890625 4.402344 L 10.828125 4.464844 C 10.773438 4.519531 10.773438 4.613281 10.828125 4.667969 C 10.886719 4.726562 10.976562 4.726562 11.035156 4.667969 L 11.097656 4.605469 L 11.160156 4.667969 C 11.214844 4.726562 11.308594 4.726562 11.363281 4.667969 C 11.421875 4.613281 11.421875 4.519531 11.363281 4.464844 L 11.300781 4.402344 L 11.363281 4.339844 C 11.417969 4.28125 11.414062 4.191406 11.359375 4.136719 C 11.304688 4.082031 11.214844 4.082031 11.160156 4.132812 L 11.097656 4.195312 L 11.027344 4.125 C 11 4.097656 10.960938 4.082031 10.921875 4.082031 Z M 4.074219 5.269531 C 4.109375 5.277344 4.144531 5.289062 4.183594 5.289062 L 11.425781 5.289062 C 11.464844 5.289062 11.5 5.277344 11.535156 5.269531 L 11.535156 10.203125 C 11.535156 10.285156 11.507812 10.351562 11.480469 10.390625 C 11.449219 10.425781 11.433594 10.433594 11.417969 10.433594 L 4.191406 10.433594 C 4.175781 10.433594 4.15625 10.425781 4.128906 10.390625 C 4.101562 10.351562 4.074219 10.285156 4.074219 10.203125 Z M 4.074219 5.269531 "/>
<path style=" stroke:none;fill-rule:evenodd;fill:rgb(41.176471%,16.078431%,84.705882%);fill-opacity:1;" d="M 5.917969 5.726562 C 5.5625 5.726562 5.261719 5.921875 5.085938 6.152344 C 4.910156 6.378906 4.832031 6.644531 4.832031 6.925781 L 4.832031 12.921875 C 4.832031 13.199219 4.910156 13.46875 5.085938 13.695312 C 5.261719 13.921875 5.5625 14.121094 5.917969 14.121094 L 13.144531 14.121094 C 13.5 14.121094 13.804688 13.921875 13.980469 13.695312 C 14.152344 13.46875 14.234375 13.199219 14.234375 12.921875 L 14.234375 6.925781 C 14.234375 6.644531 14.152344 6.378906 13.980469 6.152344 C 13.804688 5.921875 13.5 5.726562 13.144531 5.726562 Z M 5.917969 5.726562 "/>
<path style=" stroke:none;fill-rule:evenodd;fill:rgb(100%,100%,100%);fill-opacity:1;" d="M 5.917969 6.214844 C 5.734375 6.214844 5.574219 6.316406 5.476562 6.449219 C 5.375 6.578125 5.320312 6.746094 5.320312 6.925781 L 5.320312 12.921875 C 5.320312 13.101562 5.375 13.265625 5.476562 13.398438 C 5.574219 13.53125 5.734375 13.628906 5.917969 13.628906 L 13.144531 13.628906 C 13.328125 13.628906 13.488281 13.53125 13.589844 13.398438 C 13.691406 13.265625 13.746094 13.101562 13.746094 12.921875 L 13.746094 6.925781 C 13.746094 6.746094 13.691406 6.578125 13.589844 6.449219 C 13.488281 6.316406 13.328125 6.214844 13.144531 6.214844 Z M 5.917969 6.691406 L 13.144531 6.691406 C 13.164062 6.691406 13.183594 6.699219 13.210938 6.738281 C 13.242188 6.773438 13.269531 6.84375 13.269531 6.925781 L 13.269531 12.921875 C 13.269531 13.003906 13.242188 13.070312 13.210938 13.109375 C 13.183594 13.148438 13.164062 13.152344 13.144531 13.152344 L 5.917969 13.152344 C 5.902344 13.152344 5.882812 13.148438 5.851562 13.109375 C 5.824219 13.070312 5.796875 13.003906 5.796875 12.921875 L 5.796875 6.925781 C 5.796875 6.84375 5.824219 6.773438 5.851562 6.738281 C 5.882812 6.699219 5.902344 6.691406 5.917969 6.691406 Z M 5.917969 6.691406 "/>
<path style=" stroke:none;fill-rule:evenodd;fill:rgb(100%,100%,100%);fill-opacity:1;" d="M 5.914062 6.199219 C 5.589844 6.199219 5.320312 6.46875 5.320312 6.789062 L 5.320312 7.410156 C 5.320312 7.734375 5.589844 8.003906 5.914062 8.003906 L 13.152344 8.003906 C 13.476562 8.003906 13.746094 7.734375 13.746094 7.410156 L 13.746094 6.789062 C 13.746094 6.46875 13.476562 6.199219 13.152344 6.199219 Z M 5.914062 6.675781 L 13.152344 6.675781 C 13.222656 6.675781 13.269531 6.722656 13.269531 6.789062 L 13.269531 7.410156 C 13.269531 7.480469 13.222656 7.527344 13.152344 7.527344 L 5.914062 7.527344 C 5.84375 7.527344 5.796875 7.480469 5.796875 7.410156 L 5.796875 6.789062 C 5.796875 6.722656 5.84375 6.675781 5.914062 6.675781 Z M 5.914062 6.675781 "/>
<path style=" stroke:none;fill-rule:evenodd;fill:rgb(100%,100%,100%);fill-opacity:1;" d="M 5.917969 6.210938 C 5.734375 6.210938 5.574219 6.3125 5.472656 6.445312 C 5.371094 6.578125 5.316406 6.746094 5.316406 6.925781 L 5.316406 7.394531 C 5.316406 7.402344 5.316406 7.40625 5.316406 7.410156 L 5.316406 12.921875 C 5.316406 13.101562 5.371094 13.269531 5.472656 13.402344 C 5.574219 13.535156 5.734375 13.632812 5.917969 13.632812 L 13.144531 13.632812 C 13.332031 13.632812 13.492188 13.535156 13.59375 13.402344 C 13.695312 13.269531 13.75 13.101562 13.75 12.921875 L 13.75 7.417969 C 13.75 7.414062 13.75 7.414062 13.75 7.410156 C 13.75 7.402344 13.75 7.394531 13.75 7.386719 L 13.75 6.925781 C 13.75 6.746094 13.695312 6.578125 13.59375 6.445312 C 13.492188 6.3125 13.332031 6.210938 13.144531 6.210938 Z M 5.917969 6.695312 L 13.144531 6.695312 C 13.160156 6.695312 13.179688 6.703125 13.207031 6.738281 C 13.238281 6.777344 13.265625 6.84375 13.265625 6.925781 L 13.265625 7.410156 C 13.265625 7.476562 13.21875 7.523438 13.152344 7.523438 L 5.914062 7.523438 C 5.847656 7.523438 5.800781 7.476562 5.800781 7.410156 L 5.800781 6.925781 C 5.800781 6.84375 5.828125 6.777344 5.855469 6.738281 C 5.886719 6.703125 5.90625 6.695312 5.917969 6.695312 Z M 12.648438 6.820312 C 12.59375 6.824219 12.550781 6.859375 12.535156 6.910156 C 12.515625 6.960938 12.527344 7.015625 12.566406 7.054688 L 12.632812 7.117188 L 12.574219 7.175781 C 12.535156 7.210938 12.519531 7.261719 12.53125 7.3125 C 12.542969 7.363281 12.582031 7.402344 12.632812 7.414062 C 12.679688 7.425781 12.734375 7.410156 12.765625 7.367188 L 12.824219 7.3125 L 12.882812 7.367188 C 12.917969 7.40625 12.96875 7.421875 13.015625 7.410156 C 13.066406 7.398438 13.101562 7.359375 13.117188 7.3125 C 13.128906 7.261719 13.113281 7.210938 13.074219 7.175781 L 13.019531 7.117188 L 13.074219 7.0625 C 13.128906 7.007812 13.128906 6.921875 13.074219 6.867188 C 13.023438 6.816406 12.9375 6.816406 12.882812 6.867188 L 12.824219 6.925781 L 12.757812 6.859375 C 12.734375 6.835938 12.699219 6.820312 12.660156 6.820312 C 12.65625 6.820312 12.652344 6.820312 12.648438 6.820312 Z M 5.800781 7.984375 C 5.839844 7.992188 5.871094 8.007812 5.914062 8.007812 L 13.152344 8.007812 C 13.191406 8.007812 13.226562 7.992188 13.265625 7.984375 L 13.265625 12.921875 C 13.265625 13 13.238281 13.070312 13.207031 13.105469 C 13.179688 13.144531 13.160156 13.148438 13.144531 13.148438 L 5.917969 13.148438 C 5.90625 13.148438 5.886719 13.144531 5.855469 13.105469 C 5.828125 13.070312 5.800781 13 5.800781 12.921875 Z M 9.648438 8.460938 C 9.566406 8.460938 9.5 8.488281 9.449219 8.542969 C 9.394531 8.59375 9.371094 8.660156 9.371094 8.738281 L 9.371094 10.890625 C 9.371094 10.96875 9.394531 11.035156 9.449219 11.082031 C 9.5 11.132812 9.566406 11.15625 9.648438 11.15625 C 9.726562 11.15625 9.792969 11.132812 9.84375 11.078125 C 9.894531 11.027344 9.921875 10.964844 9.921875 10.890625 L 9.921875 9.941406 L 10.878906 10.984375 C 10.9375 11.046875 10.988281 11.089844 11.027344 11.117188 C 11.066406 11.144531 11.109375 11.15625 11.15625 11.15625 C 11.238281 11.15625 11.308594 11.136719 11.363281 11.09375 C 11.417969 11.046875 11.445312 10.984375 11.445312 10.898438 C 11.445312 10.847656 11.433594 10.800781 11.402344 10.753906 C 11.378906 10.710938 11.339844 10.664062 11.289062 10.617188 L 10.4375 9.722656 L 11.136719 9.027344 C 11.199219 8.964844 11.246094 8.910156 11.273438 8.867188 C 11.304688 8.824219 11.316406 8.777344 11.316406 8.734375 C 11.316406 8.652344 11.289062 8.585938 11.234375 8.539062 C 11.179688 8.488281 11.117188 8.460938 11.042969 8.460938 C 10.964844 8.460938 10.894531 8.496094 10.828125 8.566406 L 9.921875 9.542969 L 9.921875 8.738281 C 9.921875 8.652344 9.894531 8.585938 9.84375 8.535156 C 9.792969 8.488281 9.730469 8.460938 9.648438 8.460938 Z M 8.453125 8.890625 L 8.09375 9.1875 L 8.421875 9.742188 L 8.234375 10.199219 L 7.597656 10.304688 L 7.59375 10.789062 L 8.253906 10.957031 L 8.433594 11.402344 L 8.015625 11.9375 L 8.371094 12.308594 L 8.941406 11.921875 L 9.398438 12.121094 L 9.550781 12.785156 L 10.039062 12.78125 L 10.171875 12.097656 L 10.628906 11.917969 L 11.203125 12.289062 L 11.472656 11.917969 L 10.820312 11.304688 C 9.152344 12.835938 7.714844 10.476562 9.144531 9.492188 L 9.144531 9.136719 L 8.976562 9.222656 Z M 8.453125 8.890625 "/>
</g>
</svg>
