<?xml version="1.0" encoding="UTF-8"?>
<svg xmlns="http://www.w3.org/2000/svg" xmlns:xlink="http://www.w3.org/1999/xlink" width="17pt" height="17pt" viewBox="0 0 17 17" version="1.1">
<defs>
<clipPath id="clip1">
  <rect width="17" height="17"/>
</clipPath>
<g id="surface6" clip-path="url(#clip1)">
<path style=" stroke:none;fill-rule:nonzero;fill:rgb(100%,100%,100%);fill-opacity:1;" d="M 11.707031 6.480469 C 11.507812 6.410156 11.261719 6.375 11.03125 6.503906 C 10.648438 6.71875 10.511719 7.144531 10.511719 7.53125 C 10.507812 7.917969 10.605469 8.320312 10.695312 8.707031 C 10.78125 9.09375 10.863281 9.464844 10.859375 9.730469 C 10.855469 9.992188 10.820312 10.09375 10.660156 10.171875 C 10.53125 10.238281 10.453125 10.242188 10.371094 10.226562 C 10.289062 10.210938 10.195312 10.160156 10.085938 10.066406 C 9.863281 9.875 9.609375 9.511719 9.320312 9.125 C 9.03125 8.734375 8.703125 8.316406 8.261719 8.019531 C 7.820312 7.722656 7.246094 7.5625 6.582031 7.714844 L 6.578125 7.714844 L 6.570312 7.71875 C 6.140625 7.832031 5.820312 8.160156 5.597656 8.558594 C 5.375 8.960938 5.238281 9.445312 5.167969 9.960938 C 5.160156 10.042969 5.179688 10.128906 5.171875 10.214844 C 5.023438 10.203125 4.894531 10.152344 4.742188 10.148438 L 4.007812 10.132812 L 3.6875 10.125 L 3.675781 10.761719 L 3.992188 10.765625 L 4.730469 10.78125 C 4.894531 10.785156 5.019531 10.839844 5.175781 10.851562 C 5.195312 11.617188 5.316406 12.378906 5.679688 12.96875 L 5.6875 12.976562 L 5.695312 12.988281 C 6.261719 13.761719 7.226562 13.988281 7.941406 13.710938 C 8.300781 13.570312 8.609375 13.277344 8.703125 12.871094 C 8.796875 12.464844 8.683594 11.992188 8.351562 11.480469 C 8.035156 10.992188 7.496094 10.675781 6.863281 10.46875 C 6.546875 10.367188 6.160156 10.363281 5.804688 10.308594 C 5.8125 10.222656 5.789062 10.128906 5.800781 10.042969 C 5.859375 9.589844 5.984375 9.171875 6.152344 8.871094 C 6.320312 8.570312 6.519531 8.394531 6.734375 8.335938 C 7.230469 8.226562 7.578125 8.328125 7.90625 8.546875 C 8.238281 8.769531 8.53125 9.128906 8.808594 9.503906 C 9.089844 9.878906 9.34375 10.265625 9.671875 10.546875 C 9.835938 10.6875 10.023438 10.804688 10.246094 10.851562 C 10.46875 10.894531 10.714844 10.859375 10.945312 10.742188 C 11.339844 10.542969 11.492188 10.121094 11.496094 9.738281 C 11.5 9.351562 11.402344 8.953125 11.316406 8.566406 C 11.226562 8.179688 11.144531 7.804688 11.144531 7.53125 C 11.144531 7.257812 11.1875 7.144531 11.34375 7.058594 C 11.34375 7.058594 11.394531 7.042969 11.507812 7.082031 C 11.617188 7.117188 11.765625 7.199219 11.898438 7.292969 C 12.171875 7.476562 12.402344 7.699219 12.402344 7.699219 L 12.628906 7.921875 L 13.074219 7.464844 L 12.84375 7.242188 C 12.84375 7.242188 12.585938 6.992188 12.257812 6.765625 C 12.09375 6.652344 11.910156 6.546875 11.707031 6.480469 Z M 5.816406 10.945312 C 6.097656 10.992188 6.421875 10.996094 6.664062 11.074219 C 7.214844 11.253906 7.621094 11.519531 7.820312 11.824219 C 8.089844 12.242188 8.128906 12.539062 8.082031 12.726562 C 8.039062 12.914062 7.917969 13.039062 7.710938 13.117188 C 7.304688 13.277344 6.609375 13.144531 6.21875 12.621094 C 5.960938 12.199219 5.851562 11.582031 5.816406 10.945312 Z M 5.816406 10.945312 "/>
</g>
</defs>
<g id="surface1">
<path style=" stroke:none;fill-rule:evenodd;fill:rgb(99.607843%,75.294118%,2.352941%);fill-opacity:1;" d="M 15.992188 6.492188 L 15.992188 3.96875 C 15.992188 2.328125 14.671875 1.007812 13.03125 1.007812 L 10.507812 1.007812 Z M 15.992188 6.492188 "/>
<path style=" stroke:none;fill-rule:evenodd;fill:rgb(99.607843%,75.294118%,2.352941%);fill-opacity:1;" d="M 9.621094 1.007812 L 3.972656 1.007812 C 2.328125 1.007812 1.007812 2.328125 1.007812 3.96875 L 1.007812 13.027344 C 1.007812 14.671875 2.328125 15.992188 3.972656 15.992188 L 13.03125 15.992188 C 14.671875 15.992188 15.992188 14.671875 15.992188 13.027344 L 15.992188 7.378906 Z M 9.621094 1.007812 "/>
<path style=" stroke:none;fill-rule:evenodd;fill:rgb(100%,100%,100%);fill-opacity:1;" d="M 9.621094 1.007812 L 15.992188 7.378906 L 15.992188 6.492188 L 10.507812 1.007812 Z M 9.621094 1.007812 "/>
<use xlink:href="#surface6"/>
</g>
</svg>
