<?xml version="1.0" encoding="UTF-8"?>
<svg xmlns="http://www.w3.org/2000/svg" xmlns:xlink="http://www.w3.org/1999/xlink" width="17pt" height="17pt" viewBox="0 0 17 17" version="1.1">
<g id="surface1">
<path style=" stroke:none;fill-rule:evenodd;fill:rgb(76.078431%,24.705882%,17.254902%);fill-opacity:1;" d="M 4.003906 1.0625 L 12.996094 1.0625 C 14.621094 1.0625 15.9375 2.378906 15.9375 4.003906 L 15.9375 12.996094 C 15.9375 14.621094 14.621094 15.9375 12.996094 15.9375 L 4.003906 15.9375 C 2.378906 15.9375 1.0625 14.621094 1.0625 12.996094 L 1.0625 4.003906 C 1.0625 2.378906 2.378906 1.0625 4.003906 1.0625 Z M 4.003906 1.0625 "/>
<path style=" stroke:none;fill-rule:nonzero;fill:rgb(60.784314%,12.54902%,5.098039%);fill-opacity:1;" d="M 8.5 2.730469 C 11.683594 2.730469 14.269531 5.316406 14.269531 8.5 C 14.269531 11.683594 11.683594 14.269531 8.5 14.269531 C 5.316406 14.269531 2.730469 11.683594 2.730469 8.5 C 2.730469 5.316406 5.316406 2.730469 8.5 2.730469 Z M 8.5 2.730469 "/>
<path style=" stroke:none;fill-rule:nonzero;fill:rgb(89.803922%,45.490196%,32.156863%);fill-opacity:1;" d="M 8.5 2.730469 C 7.773438 2.730469 7.082031 2.871094 6.441406 3.113281 C 6.394531 3.15625 6.332031 3.191406 6.285156 3.183594 C 6.277344 3.183594 6.269531 3.179688 6.265625 3.179688 C 5.949219 3.308594 5.648438 3.472656 5.367188 3.65625 C 5.402344 3.714844 5.414062 3.78125 5.339844 3.816406 C 5.324219 3.820312 5.164062 3.835938 5.109375 3.835938 C 4.300781 4.421875 3.65625 5.207031 3.242188 6.128906 C 3.246094 6.128906 3.253906 6.125 3.261719 6.125 C 3.324219 6.125 3.414062 6.144531 3.472656 6.15625 C 3.53125 6.167969 3.574219 6.203125 3.621094 6.207031 C 3.761719 6.21875 3.792969 6.113281 3.902344 6.054688 C 4.019531 6.066406 4.09375 6.03125 4.199219 6.042969 C 4.269531 6.054688 4.324219 6.128906 4.378906 6.132812 C 4.421875 6.136719 4.464844 6.089844 4.507812 6.09375 C 4.554688 6.101562 4.628906 6.199219 4.636719 6.25 C 4.644531 6.316406 4.585938 6.378906 4.605469 6.449219 C 4.675781 6.523438 4.800781 6.535156 4.902344 6.578125 C 4.96875 6.523438 4.910156 6.425781 4.902344 6.347656 C 4.902344 6.3125 4.90625 6.28125 4.902344 6.25 C 4.894531 6.199219 4.871094 6.148438 4.871094 6.105469 C 4.871094 5.894531 5.042969 5.796875 5.183594 5.710938 C 5.242188 5.675781 5.292969 5.613281 5.34375 5.585938 C 5.417969 5.546875 5.476562 5.539062 5.539062 5.503906 C 5.648438 5.441406 5.746094 5.390625 5.832031 5.320312 C 5.875 5.222656 5.835938 5.09375 5.839844 5 C 5.882812 4.976562 5.914062 5.011719 5.960938 5.007812 C 6.027344 4.996094 6.03125 4.898438 6.070312 4.859375 C 6.09375 4.839844 6.152344 4.824219 6.179688 4.800781 C 6.25 4.75 6.269531 4.671875 6.328125 4.648438 C 6.351562 4.640625 6.398438 4.640625 6.433594 4.632812 C 6.476562 4.621094 6.539062 4.566406 6.609375 4.542969 C 6.65625 4.527344 6.765625 4.523438 6.78125 4.507812 C 6.800781 4.484375 6.78125 4.421875 6.789062 4.386719 C 6.824219 4.222656 7.074219 4.1875 7.226562 4.128906 C 7.328125 4.089844 7.4375 4.019531 7.550781 4.039062 C 7.527344 4.121094 7.421875 4.089844 7.441406 4.1875 C 7.464844 4.324219 7.644531 4.148438 7.691406 4.128906 C 7.78125 4.089844 7.9375 4.066406 8.054688 4.027344 C 8.15625 3.988281 8.34375 3.929688 8.246094 3.8125 C 8.164062 3.804688 8.125 3.90625 8.054688 3.9375 C 8.003906 3.945312 8.015625 3.894531 7.972656 3.890625 C 7.933594 3.886719 7.910156 3.929688 7.867188 3.921875 C 7.828125 3.914062 7.769531 3.851562 7.765625 3.804688 C 7.75 3.679688 7.867188 3.628906 7.917969 3.535156 C 7.886719 3.425781 7.734375 3.515625 7.640625 3.472656 C 7.648438 3.40625 7.714844 3.359375 7.792969 3.347656 C 7.855469 3.335938 8 3.339844 8.039062 3.375 C 8.058594 3.394531 8.039062 3.441406 8.074219 3.472656 C 8.113281 3.503906 8.160156 3.503906 8.207031 3.492188 C 8.226562 3.410156 8.097656 3.429688 8.113281 3.375 C 8.210938 3.308594 8.375 3.363281 8.5 3.34375 C 8.566406 3.332031 8.640625 3.285156 8.707031 3.25 C 8.765625 3.214844 8.839844 3.15625 8.902344 3.210938 C 8.921875 3.273438 8.847656 3.292969 8.816406 3.324219 C 8.703125 3.421875 8.585938 3.539062 8.5 3.65625 C 8.550781 3.707031 8.648438 3.679688 8.742188 3.691406 C 8.777344 3.699219 8.820312 3.707031 8.859375 3.714844 C 8.902344 3.722656 8.949219 3.71875 8.984375 3.730469 C 9.046875 3.746094 9.0625 3.8125 9.125 3.8125 C 9.226562 3.8125 9.226562 3.703125 9.171875 3.632812 C 9.1875 3.5625 9.214844 3.527344 9.191406 3.476562 C 9.148438 3.386719 8.980469 3.472656 8.96875 3.359375 C 8.964844 3.285156 9.03125 3.289062 9.058594 3.234375 C 9.046875 3.089844 9.175781 3.082031 9.164062 2.953125 C 9.15625 2.898438 9.113281 2.898438 9.074219 2.851562 C 9.054688 2.824219 9.046875 2.777344 9.023438 2.757812 C 8.851562 2.742188 8.675781 2.730469 8.5 2.730469 Z M 5.523438 3.894531 C 5.558594 3.902344 5.597656 3.9375 5.640625 3.941406 C 5.679688 3.941406 5.714844 3.917969 5.738281 3.925781 C 5.800781 3.941406 5.824219 4.035156 5.765625 4.082031 C 5.71875 4.085938 5.699219 4.0625 5.664062 4.066406 C 5.5625 4.082031 5.527344 4.28125 5.449219 4.273438 C 5.378906 4.265625 5.339844 4.09375 5.414062 4.042969 C 5.417969 4 5.382812 3.992188 5.382812 3.945312 C 5.402344 3.917969 5.464844 3.890625 5.523438 3.894531 Z M 5.191406 3.917969 C 5.210938 3.917969 5.226562 3.925781 5.234375 3.933594 C 5.226562 4.011719 5.164062 4.007812 5.101562 4.042969 C 4.996094 4.105469 4.9375 4.203125 4.902344 4.339844 C 4.894531 4.378906 4.789062 4.484375 4.738281 4.472656 C 4.621094 4.449219 4.769531 4.234375 4.796875 4.199219 C 4.828125 4.164062 4.867188 4.128906 4.902344 4.089844 C 4.9375 4.046875 4.957031 3.992188 4.992188 3.972656 C 5.027344 3.945312 5.128906 3.914062 5.191406 3.917969 Z M 6.066406 4.183594 C 6.101562 4.183594 6.136719 4.191406 6.152344 4.207031 C 6.128906 4.304688 5.917969 4.277344 5.839844 4.242188 C 5.847656 4.207031 5.902344 4.195312 5.953125 4.191406 C 5.984375 4.191406 6.027344 4.183594 6.066406 4.183594 Z M 5.589844 4.363281 C 5.613281 4.363281 5.636719 4.371094 5.664062 4.378906 C 5.59375 4.433594 5.523438 4.464844 5.40625 4.5 C 5.351562 4.519531 5.253906 4.542969 5.242188 4.480469 C 5.230469 4.402344 5.324219 4.421875 5.375 4.414062 C 5.441406 4.40625 5.511719 4.367188 5.589844 4.363281 Z M 12.933594 4.800781 C 12.925781 4.824219 12.917969 4.84375 12.917969 4.863281 C 12.921875 4.902344 12.960938 4.933594 12.96875 4.984375 C 12.976562 5.007812 12.960938 5.0625 12.96875 5.089844 C 13.007812 5.15625 13.101562 5.105469 13.167969 5.109375 C 13.089844 5.003906 13.015625 4.902344 12.933594 4.800781 Z M 13.3125 5.3125 C 13.300781 5.363281 13.265625 5.429688 13.238281 5.472656 C 13.175781 5.570312 13.085938 5.574219 12.992188 5.625 C 12.914062 5.671875 12.882812 5.742188 12.835938 5.820312 C 12.789062 5.902344 12.757812 5.949219 12.777344 6.070312 C 12.710938 6.203125 12.613281 6.28125 12.476562 6.34375 C 12.433594 6.363281 12.378906 6.367188 12.34375 6.394531 C 12.3125 6.417969 12.296875 6.472656 12.253906 6.519531 C 12.203125 6.578125 12.148438 6.601562 12.121094 6.648438 C 12.097656 6.679688 12.089844 6.75 12.066406 6.792969 C 12.035156 6.855469 11.96875 6.886719 11.929688 6.949219 C 11.910156 6.980469 11.898438 7.039062 11.875 7.078125 C 11.828125 7.160156 11.75 7.222656 11.757812 7.296875 C 11.765625 7.371094 11.847656 7.382812 11.851562 7.445312 C 11.855469 7.480469 11.828125 7.503906 11.832031 7.542969 C 11.832031 7.597656 11.871094 7.640625 11.875 7.683594 C 11.886719 7.792969 11.839844 7.835938 11.820312 7.910156 C 11.808594 7.945312 11.8125 7.988281 11.800781 8.015625 C 11.785156 8.070312 11.707031 8.121094 11.707031 8.183594 C 11.707031 8.230469 11.753906 8.269531 11.757812 8.332031 C 11.757812 8.378906 11.734375 8.425781 11.742188 8.46875 C 11.761719 8.546875 11.902344 8.640625 11.964844 8.703125 C 12.050781 8.789062 12.160156 8.851562 12.195312 8.941406 C 12.226562 9.015625 12.226562 9.113281 12.285156 9.167969 C 12.324219 9.210938 12.398438 9.234375 12.453125 9.28125 C 12.503906 9.320312 12.558594 9.355469 12.617188 9.398438 C 12.707031 9.46875 12.84375 9.609375 12.984375 9.597656 C 13.058594 9.589844 13.136719 9.53125 13.222656 9.515625 C 13.308594 9.5 13.421875 9.492188 13.511719 9.5 C 13.578125 9.507812 13.648438 9.550781 13.71875 9.546875 C 13.792969 9.539062 13.878906 9.484375 13.960938 9.449219 C 14.027344 9.417969 14.113281 9.386719 14.203125 9.363281 C 14.246094 9.082031 14.269531 8.792969 14.269531 8.5 C 14.269531 7.320312 13.914062 6.222656 13.3125 5.3125 Z M 3.769531 7.25 C 3.648438 7.257812 3.566406 7.261719 3.496094 7.292969 C 3.335938 7.367188 3.367188 7.582031 3.207031 7.632812 C 3.152344 7.652344 3.078125 7.652344 3.015625 7.664062 C 2.964844 7.675781 2.898438 7.703125 2.84375 7.703125 C 2.828125 7.703125 2.808594 7.691406 2.789062 7.683594 C 2.773438 7.785156 2.765625 7.886719 2.753906 7.992188 C 2.90625 8.019531 2.984375 8.222656 3.121094 8.289062 C 3.15625 8.304688 3.207031 8.308594 3.253906 8.320312 C 3.292969 8.324219 3.320312 8.34375 3.355469 8.355469 C 3.433594 8.382812 3.53125 8.378906 3.59375 8.40625 C 3.6875 8.449219 3.757812 8.625 3.835938 8.671875 C 3.84375 8.722656 3.828125 8.785156 3.84375 8.820312 C 3.882812 8.871094 3.9375 8.859375 4 8.894531 C 4.074219 8.9375 4.097656 9.039062 4.171875 9.074219 C 4.195312 9.085938 4.257812 9.082031 4.296875 9.09375 C 4.394531 9.125 4.425781 9.238281 4.511719 9.210938 C 4.566406 9.195312 4.5625 9.140625 4.570312 9.089844 C 4.605469 9.046875 4.648438 8.984375 4.703125 8.984375 C 4.796875 8.980469 4.800781 9.078125 4.835938 9.167969 C 4.855469 9.21875 4.90625 9.261719 4.917969 9.316406 C 4.941406 9.410156 4.929688 9.683594 4.910156 9.738281 C 4.886719 9.804688 4.796875 9.832031 4.738281 9.910156 C 4.710938 9.941406 4.699219 9.996094 4.679688 10.019531 C 4.644531 10.0625 4.589844 10.074219 4.5625 10.117188 C 4.546875 10.140625 4.53125 10.1875 4.519531 10.21875 C 4.472656 10.3125 4.414062 10.378906 4.449219 10.492188 C 4.46875 10.539062 4.539062 10.570312 4.539062 10.625 C 4.539062 10.6875 4.402344 10.746094 4.390625 10.816406 C 4.382812 10.871094 4.433594 10.964844 4.449219 11.03125 C 4.464844 11.085938 4.5625 11.117188 4.589844 11.148438 C 4.644531 11.207031 4.683594 11.292969 4.734375 11.363281 C 4.824219 11.507812 4.898438 11.683594 4.992188 11.824219 C 5.039062 11.898438 5.105469 11.964844 5.140625 12.039062 C 5.15625 12.078125 5.152344 12.121094 5.167969 12.15625 C 5.222656 12.277344 5.453125 12.402344 5.574219 12.460938 C 5.632812 12.488281 5.695312 12.496094 5.746094 12.527344 C 5.824219 12.570312 5.980469 12.6875 6.019531 12.753906 C 6.054688 12.816406 6.078125 12.96875 6.09375 13.066406 C 6.117188 13.195312 6.09375 13.292969 6.101562 13.4375 C 6.105469 13.511719 6.128906 13.585938 6.128906 13.664062 C 6.128906 13.691406 6.117188 13.710938 6.117188 13.738281 C 6.117188 13.742188 6.117188 13.746094 6.117188 13.753906 C 6.84375 14.082031 7.648438 14.269531 8.5 14.269531 C 8.652344 14.269531 8.804688 14.261719 8.957031 14.25 C 8.964844 14.238281 8.96875 14.226562 8.976562 14.214844 C 9.011719 14.171875 9.042969 14.128906 9.066406 14.089844 C 9.085938 13.953125 9.011719 13.859375 9.042969 13.742188 C 9.078125 13.609375 9.265625 13.527344 9.390625 13.46875 C 9.4375 13.445312 9.480469 13.414062 9.515625 13.402344 C 9.605469 13.371094 9.71875 13.386719 9.796875 13.355469 C 9.9375 13.308594 9.953125 13.15625 10.019531 13.03125 C 10.054688 12.972656 10.09375 12.910156 10.101562 12.871094 C 10.105469 12.832031 10.085938 12.792969 10.09375 12.75 C 10.101562 12.703125 10.140625 12.667969 10.152344 12.617188 C 10.167969 12.554688 10.175781 12.460938 10.175781 12.386719 C 10.175781 12.328125 10.148438 12.277344 10.144531 12.226562 C 10.136719 12.035156 10.214844 12.011719 10.285156 11.910156 C 10.324219 11.855469 10.335938 11.796875 10.359375 11.761719 C 10.480469 11.582031 10.6875 11.496094 10.671875 11.226562 C 10.667969 11.140625 10.609375 10.9375 10.546875 10.910156 C 10.507812 10.894531 10.421875 10.910156 10.367188 10.886719 C 10.191406 10.824219 10.089844 10.605469 9.910156 10.589844 C 9.871094 10.585938 9.835938 10.609375 9.792969 10.605469 C 9.71875 10.601562 9.613281 10.558594 9.53125 10.546875 C 9.480469 10.542969 9.414062 10.5625 9.382812 10.546875 C 9.335938 10.527344 9.332031 10.441406 9.292969 10.414062 C 9.265625 10.394531 9.207031 10.386719 9.164062 10.371094 C 9.089844 10.34375 9.03125 10.308594 8.949219 10.304688 C 8.921875 10.300781 8.890625 10.316406 8.859375 10.3125 C 8.8125 10.304688 8.777344 10.25 8.734375 10.222656 C 8.679688 10.1875 8.628906 10.175781 8.609375 10.125 C 8.65625 9.96875 8.523438 9.921875 8.488281 9.832031 C 8.472656 9.789062 8.480469 9.734375 8.46875 9.699219 C 8.449219 9.644531 8.394531 9.609375 8.332031 9.5625 C 8.226562 9.480469 8.132812 9.40625 7.976562 9.386719 C 7.910156 9.378906 7.84375 9.40625 7.765625 9.402344 C 7.675781 9.394531 7.570312 9.320312 7.503906 9.246094 C 7.441406 9.175781 7.414062 9.109375 7.355469 9.078125 C 7.304688 9.042969 7.238281 9.042969 7.203125 9.011719 C 7.1875 8.996094 7.1875 8.96875 7.171875 8.9375 C 7.148438 8.882812 7.101562 8.851562 7.136719 8.789062 C 7.078125 8.757812 7.074219 8.84375 7.007812 8.832031 C 6.953125 8.75 6.90625 8.710938 6.773438 8.734375 C 6.714844 8.746094 6.679688 8.824219 6.609375 8.824219 C 6.554688 8.828125 6.507812 8.761719 6.433594 8.75 C 6.375 8.742188 6.3125 8.765625 6.269531 8.757812 C 6.207031 8.746094 6.1875 8.695312 6.128906 8.65625 C 6.089844 8.628906 6.003906 8.582031 5.980469 8.582031 C 5.910156 8.585938 5.855469 8.738281 5.753906 8.683594 C 5.703125 8.621094 5.832031 8.589844 5.773438 8.53125 C 5.730469 8.484375 5.691406 8.550781 5.65625 8.574219 C 5.617188 8.601562 5.578125 8.628906 5.53125 8.648438 C 5.429688 8.683594 5.367188 8.664062 5.289062 8.707031 C 5.210938 8.746094 5.210938 8.808594 5.167969 8.882812 C 5.132812 8.945312 5.058594 9.035156 5.003906 9.039062 C 4.941406 9.046875 4.882812 8.953125 4.828125 8.929688 C 4.660156 8.855469 4.578125 8.996094 4.4375 8.996094 C 4.304688 9 4.121094 8.785156 4.125 8.664062 C 4.125 8.589844 4.167969 8.472656 4.179688 8.382812 C 4.183594 8.308594 4.238281 8.265625 4.238281 8.195312 C 4.238281 8.105469 4.117188 8.039062 4.058594 8.027344 C 3.921875 8 3.730469 8.082031 3.570312 8.019531 C 3.539062 7.96875 3.605469 7.933594 3.621094 7.886719 C 3.632812 7.855469 3.628906 7.820312 3.636719 7.792969 C 3.65625 7.742188 3.707031 7.707031 3.726562 7.65625 C 3.742188 7.617188 3.746094 7.5625 3.765625 7.515625 C 3.78125 7.464844 3.820312 7.429688 3.824219 7.390625 C 3.828125 7.339844 3.808594 7.285156 3.769531 7.25 Z M 5.746094 8.816406 C 5.796875 8.820312 5.804688 8.921875 5.753906 8.933594 C 5.699219 8.941406 5.667969 8.847656 5.722656 8.820312 C 5.730469 8.816406 5.738281 8.816406 5.746094 8.816406 Z M 5.746094 8.816406 "/>
</g>
</svg>
