<?xml version="1.0" encoding="UTF-8"?>
<svg xmlns="http://www.w3.org/2000/svg" xmlns:xlink="http://www.w3.org/1999/xlink" width="17pt" height="17pt" viewBox="0 0 17 17" version="1.1">
<g id="surface1">
<path style=" stroke:none;fill-rule:evenodd;fill:rgb(89.019608%,68.627451%,29.019608%);fill-opacity:1;" d="M 3.96875 1.007812 L 13.03125 1.007812 C 14.664062 1.007812 15.992188 2.335938 15.992188 3.96875 L 15.992188 13.03125 C 15.992188 14.664062 14.664062 15.992188 13.03125 15.992188 L 3.96875 15.992188 C 2.335938 15.992188 1.007812 14.664062 1.007812 13.03125 L 1.007812 3.96875 C 1.007812 2.335938 2.335938 1.007812 3.96875 1.007812 Z M 3.96875 1.007812 "/>
<path style=" stroke:none;fill-rule:nonzero;fill:rgb(98.039216%,100%,51.764706%);fill-opacity:1;" d="M 3.90625 4.25 L 13.09375 4.25 C 13.492188 4.25 13.8125 4.597656 13.8125 5.023438 L 13.8125 11.976562 C 13.8125 12.402344 13.492188 12.75 13.09375 12.75 L 3.90625 12.75 C 3.507812 12.75 3.1875 12.402344 3.1875 11.976562 L 3.1875 5.023438 C 3.1875 4.597656 3.507812 4.25 3.90625 4.25 Z M 3.90625 4.25 "/>
<path style=" stroke:none;fill-rule:nonzero;fill:rgb(30.588235%,30.588235%,30.588235%);fill-opacity:1;" d="M 7.078125 7.4375 L 9.921875 7.4375 C 10.3125 7.4375 10.625 7.761719 10.625 8.164062 L 10.625 8.304688 C 10.625 8.707031 10.3125 9.03125 9.921875 9.03125 L 7.078125 9.03125 C 6.6875 9.03125 6.375 8.707031 6.375 8.304688 L 6.375 8.164062 C 6.375 7.761719 6.6875 7.4375 7.078125 7.4375 Z M 7.078125 7.4375 "/>
</g>
</svg>
