<?xml version="1.0" encoding="UTF-8"?>
<svg xmlns="http://www.w3.org/2000/svg" xmlns:xlink="http://www.w3.org/1999/xlink" width="17pt" height="17pt" viewBox="0 0 17 17" version="1.1">
<g id="surface1">
<path style=" stroke:none;fill-rule:evenodd;fill:rgb(89.411765%,37.254902%,3.921569%);fill-opacity:1;" d="M 3.96875 1.007812 L 13.03125 1.007812 C 14.664062 1.007812 15.992188 2.335938 15.992188 3.96875 L 15.992188 13.03125 C 15.992188 14.664062 14.664062 15.992188 13.03125 15.992188 L 3.96875 15.992188 C 2.335938 15.992188 1.007812 14.664062 1.007812 13.03125 L 1.007812 3.96875 C 1.007812 2.335938 2.335938 1.007812 3.96875 1.007812 Z M 3.96875 1.007812 "/>
<path style=" stroke:none;fill-rule:evenodd;fill:rgb(58.039216%,76.470588%,89.411765%);fill-opacity:1;" d="M 15.925781 3.644531 C 15.757812 2.164062 14.554688 1.007812 13.03125 1.007812 L 6.015625 1.007812 C 5.628906 1.324219 5.25 1.652344 4.921875 2.039062 C 4.519531 2.511719 4.167969 3.035156 3.886719 3.585938 C 3.601562 4.136719 3.386719 4.71875 3.257812 5.316406 C 3.125 5.910156 3.078125 6.523438 3.128906 7.132812 C 3.179688 7.703125 3.335938 8.285156 3.582031 8.835938 C 3.828125 9.382812 4.164062 9.894531 4.566406 10.324219 C 4.972656 10.753906 5.4375 11.097656 5.953125 11.316406 C 6.472656 11.539062 7.035156 11.632812 7.636719 11.566406 C 7.988281 11.53125 8.308594 11.433594 8.59375 11.289062 C 8.878906 11.140625 9.125 10.945312 9.320312 10.707031 C 9.519531 10.46875 9.664062 10.1875 9.75 9.871094 C 9.832031 9.558594 9.855469 9.207031 9.804688 8.832031 C 9.804688 8.828125 9.808594 8.820312 9.804688 8.816406 C 9.769531 8.714844 9.695312 8.644531 9.597656 8.582031 C 9.492188 8.515625 9.34375 8.480469 9.183594 8.457031 C 9.121094 8.449219 9.058594 8.445312 8.992188 8.445312 L 8.90625 8.734375 C 8.820312 9.070312 8.542969 9.414062 8.132812 9.632812 C 7.929688 9.746094 7.6875 9.820312 7.425781 9.835938 C 7.160156 9.851562 6.882812 9.804688 6.601562 9.675781 L 6.585938 9.660156 C 6.242188 9.464844 5.925781 9.15625 5.664062 8.773438 C 5.402344 8.394531 5.199219 7.9375 5.078125 7.449219 C 4.957031 6.960938 4.925781 6.433594 5.019531 5.914062 C 5.109375 5.394531 5.324219 4.878906 5.699219 4.410156 C 6.054688 3.96875 6.429688 3.589844 6.824219 3.273438 C 7.21875 2.953125 7.628906 2.695312 8.050781 2.492188 C 8.472656 2.289062 8.90625 2.136719 9.347656 2.039062 C 9.785156 1.9375 10.230469 1.886719 10.675781 1.878906 C 11.566406 1.867188 12.457031 2.023438 13.308594 2.308594 C 14.160156 2.589844 14.976562 3 15.722656 3.496094 C 15.792969 3.542969 15.859375 3.59375 15.925781 3.644531 Z M 15.925781 3.644531 "/>
<path style=" stroke:none;fill-rule:evenodd;fill:rgb(58.039216%,76.470588%,89.411765%);fill-opacity:1;" d="M 1.078125 13.375 C 1.253906 14.84375 2.449219 15.992188 3.96875 15.992188 L 10.992188 15.992188 C 11.378906 15.675781 11.757812 15.347656 12.082031 14.964844 C 12.484375 14.488281 12.832031 13.96875 13.117188 13.417969 C 13.398438 12.867188 13.613281 12.289062 13.742188 11.691406 C 13.875 11.097656 13.921875 10.488281 13.871094 9.882812 C 13.820312 9.3125 13.664062 8.730469 13.417969 8.179688 C 13.171875 7.632812 12.835938 7.117188 12.433594 6.6875 C 12.027344 6.261719 11.5625 5.914062 11.046875 5.691406 C 10.527344 5.464844 9.964844 5.367188 9.363281 5.433594 C 9.011719 5.46875 8.6875 5.570312 8.402344 5.714844 C 8.117188 5.863281 7.871094 6.058594 7.675781 6.289062 C 7.484375 6.519531 7.339844 6.785156 7.257812 7.085938 C 7.171875 7.390625 7.148438 7.726562 7.195312 8.097656 C 7.265625 8.339844 7.5 8.472656 7.816406 8.527344 C 7.875 8.539062 7.945312 8.550781 8.007812 8.554688 L 8.09375 8.277344 C 8.179688 7.941406 8.457031 7.601562 8.867188 7.378906 C 9.070312 7.269531 9.3125 7.195312 9.574219 7.179688 C 9.839844 7.164062 10.121094 7.207031 10.402344 7.339844 L 10.414062 7.339844 C 10.757812 7.535156 11.074219 7.847656 11.335938 8.234375 C 11.597656 8.617188 11.800781 9.074219 11.921875 9.566406 C 12.042969 10.054688 12.074219 10.578125 11.980469 11.101562 C 11.890625 11.621094 11.675781 12.136719 11.300781 12.605469 C 10.945312 13.046875 10.570312 13.425781 10.175781 13.742188 C 9.78125 14.058594 9.371094 14.316406 8.949219 14.523438 C 8.527344 14.726562 8.09375 14.875 7.652344 14.976562 C 7.214844 15.078125 6.769531 15.128906 6.324219 15.136719 C 5.433594 15.148438 4.542969 14.992188 3.691406 14.707031 C 2.839844 14.425781 2.023438 14.011719 1.277344 13.519531 C 1.210938 13.472656 1.144531 13.421875 1.078125 13.375 Z M 1.078125 13.375 "/>
<path style=" stroke:none;fill-rule:evenodd;fill:rgb(89.411765%,37.254902%,3.921569%);fill-opacity:1;" d="M 1.078125 13.375 C 1.144531 13.421875 1.210938 13.472656 1.277344 13.519531 C 2.023438 14.011719 2.839844 14.425781 3.691406 14.707031 C 4.542969 14.992188 5.433594 15.148438 6.324219 15.136719 C 6.769531 15.128906 7.214844 15.078125 7.652344 14.976562 C 8.09375 14.875 8.527344 14.726562 8.949219 14.523438 C 9.371094 14.316406 9.78125 14.058594 10.175781 13.742188 C 10.570312 13.425781 10.945312 13.046875 11.300781 12.605469 C 11.675781 12.136719 11.890625 11.621094 11.980469 11.101562 C 12.074219 10.578125 12.042969 10.054688 11.921875 9.566406 C 11.800781 9.074219 11.597656 8.617188 11.335938 8.234375 C 11.074219 7.847656 10.757812 7.535156 10.414062 7.339844 L 10.402344 7.339844 C 10.121094 7.207031 9.839844 7.164062 9.574219 7.179688 C 9.3125 7.195312 9.070312 7.269531 8.867188 7.378906 C 8.457031 7.601562 8.179688 7.941406 8.09375 8.277344 L 8.007812 8.554688 C 7.945312 8.550781 7.875 8.539062 7.816406 8.527344 C 7.5 8.472656 7.265625 8.339844 7.195312 8.097656 C 7.148438 7.726562 7.171875 7.390625 7.257812 7.085938 C 7.339844 6.785156 7.484375 6.519531 7.675781 6.289062 C 7.871094 6.058594 8.117188 5.863281 8.402344 5.714844 C 8.6875 5.570312 9.011719 5.46875 9.363281 5.433594 C 9.964844 5.367188 10.527344 5.464844 11.046875 5.691406 C 11.5625 5.914062 12.027344 6.261719 12.433594 6.6875 C 12.835938 7.117188 13.171875 7.632812 13.417969 8.179688 C 13.664062 8.730469 13.820312 9.3125 13.871094 9.882812 C 13.921875 10.488281 13.875 11.097656 13.742188 11.691406 C 13.613281 12.289062 13.398438 12.867188 13.117188 13.417969 C 12.832031 13.96875 12.484375 14.488281 12.082031 14.964844 C 11.757812 15.347656 11.378906 15.675781 10.992188 15.992188 L 13.03125 15.992188 C 14.671875 15.992188 15.992188 14.671875 15.992188 13.03125 L 15.992188 3.96875 C 15.992188 3.855469 15.9375 3.753906 15.925781 3.644531 C 15.859375 3.59375 15.792969 3.542969 15.722656 3.496094 C 14.976562 3 14.160156 2.589844 13.308594 2.308594 C 12.457031 2.023438 11.566406 1.867188 10.675781 1.878906 C 10.230469 1.886719 9.785156 1.9375 9.347656 2.039062 C 8.90625 2.136719 8.472656 2.289062 8.050781 2.492188 C 7.628906 2.695312 7.21875 2.953125 6.824219 3.273438 C 6.429688 3.589844 6.054688 3.96875 5.699219 4.410156 C 5.324219 4.878906 5.109375 5.394531 5.019531 5.914062 C 4.925781 6.433594 4.957031 6.960938 5.078125 7.449219 C 5.199219 7.9375 5.402344 8.394531 5.664062 8.773438 C 5.925781 9.15625 6.242188 9.464844 6.585938 9.660156 L 6.601562 9.675781 C 6.882812 9.804688 7.160156 9.851562 7.425781 9.835938 C 7.6875 9.820312 7.929688 9.746094 8.132812 9.632812 C 8.542969 9.414062 8.820312 9.070312 8.90625 8.734375 L 8.992188 8.445312 C 9.058594 8.445312 9.121094 8.449219 9.183594 8.457031 C 9.34375 8.480469 9.492188 8.515625 9.597656 8.582031 C 9.695312 8.644531 9.769531 8.714844 9.804688 8.816406 C 9.808594 8.820312 9.804688 8.828125 9.804688 8.832031 C 9.855469 9.207031 9.832031 9.558594 9.75 9.871094 C 9.664062 10.1875 9.519531 10.46875 9.320312 10.707031 C 9.125 10.945312 8.878906 11.140625 8.59375 11.289062 C 8.308594 11.433594 7.988281 11.53125 7.636719 11.566406 C 7.035156 11.632812 6.472656 11.539062 5.953125 11.316406 C 5.4375 11.097656 4.972656 10.753906 4.566406 10.324219 C 4.164062 9.894531 3.828125 9.382812 3.582031 8.835938 C 3.335938 8.285156 3.179688 7.703125 3.128906 7.132812 C 3.078125 6.523438 3.125 5.910156 3.257812 5.316406 C 3.386719 4.71875 3.601562 4.136719 3.886719 3.585938 C 4.167969 3.035156 4.519531 2.511719 4.921875 2.039062 C 5.25 1.652344 5.628906 1.324219 6.015625 1.007812 L 3.96875 1.007812 C 2.328125 1.007812 1.007812 2.328125 1.007812 3.96875 L 1.007812 13.03125 C 1.007812 13.152344 1.0625 13.253906 1.078125 13.375 Z M 1.078125 13.375 "/>
</g>
</svg>
