<?xml version="1.0" encoding="UTF-8"?>
<svg xmlns="http://www.w3.org/2000/svg" xmlns:xlink="http://www.w3.org/1999/xlink" width="17pt" height="17pt" viewBox="0 0 17 17" version="1.1">
<g id="surface1">
<path style=" stroke:none;fill-rule:evenodd;fill:rgb(55.686275%,55.686275%,55.686275%);fill-opacity:1;" d="M 3.96875 1.007812 L 13.03125 1.007812 C 14.664062 1.007812 15.992188 2.335938 15.992188 3.96875 L 15.992188 13.03125 C 15.992188 14.664062 14.664062 15.992188 13.03125 15.992188 L 3.96875 15.992188 C 2.335938 15.992188 1.007812 14.664062 1.007812 13.03125 L 1.007812 3.96875 C 1.007812 2.335938 2.335938 1.007812 3.96875 1.007812 Z M 3.96875 1.007812 "/>
<path style=" stroke:none;fill-rule:evenodd;fill:rgb(30.980392%,30.980392%,30.980392%);fill-opacity:1;" d="M 13.191406 1.039062 L 13.191406 8.738281 C 13.191406 9.070312 13.351562 9.335938 13.550781 9.335938 L 14.28125 9.335938 C 14.476562 9.335938 14.636719 9.070312 14.636719 8.738281 L 14.636719 1.542969 C 14.210938 1.261719 13.734375 1.070312 13.191406 1.039062 Z M 13.191406 1.039062 "/>
<path style=" stroke:none;fill-rule:evenodd;fill:rgb(30.980392%,30.980392%,30.980392%);fill-opacity:1;" d="M 11.027344 1.007812 L 11.027344 8.738281 C 11.027344 9.070312 11.1875 9.335938 11.382812 9.335938 L 12.113281 9.335938 C 12.3125 9.335938 12.46875 9.070312 12.46875 8.738281 L 12.46875 1.007812 Z M 11.027344 1.007812 "/>
<path style=" stroke:none;fill-rule:evenodd;fill:rgb(30.980392%,30.980392%,30.980392%);fill-opacity:1;" d="M 8.859375 1.007812 L 8.859375 8.738281 C 8.859375 9.070312 9.019531 9.335938 9.21875 9.335938 L 9.949219 9.335938 C 10.144531 9.335938 10.304688 9.070312 10.304688 8.738281 L 10.304688 1.007812 Z M 8.859375 1.007812 "/>
<path style=" stroke:none;fill-rule:evenodd;fill:rgb(30.980392%,30.980392%,30.980392%);fill-opacity:1;" d="M 4.527344 1.007812 L 4.527344 8.738281 C 4.527344 9.070312 4.6875 9.335938 4.886719 9.335938 L 5.617188 9.335938 C 5.8125 9.335938 5.972656 9.070312 5.972656 8.738281 L 5.972656 1.007812 Z M 4.527344 1.007812 "/>
<path style=" stroke:none;fill-rule:evenodd;fill:rgb(65.882353%,37.647059%,63.529412%);fill-opacity:1;" d="M 13.914062 9.335938 L 13.914062 15.8125 C 15.113281 15.433594 15.992188 14.355469 15.992188 13.03125 L 15.992188 3.96875 C 15.992188 2.933594 15.433594 2.074219 14.636719 1.542969 L 14.636719 8.738281 C 14.636719 9.070312 14.476562 9.335938 14.28125 9.335938 Z M 13.914062 9.335938 "/>
<path style=" stroke:none;fill-rule:evenodd;fill:rgb(27.843137%,43.137255%,72.54902%);fill-opacity:1;" d="M 11.75 9.335938 L 11.75 15.992188 L 13.03125 15.992188 C 13.34375 15.992188 13.628906 15.902344 13.914062 15.8125 L 13.914062 9.335938 L 13.550781 9.335938 C 13.351562 9.335938 13.191406 9.070312 13.191406 8.738281 L 13.191406 1.039062 C 13.136719 1.039062 13.085938 1.007812 13.03125 1.007812 L 12.46875 1.007812 L 12.46875 8.738281 C 12.46875 9.070312 12.3125 9.335938 12.113281 9.335938 Z M 11.75 9.335938 "/>
<path style=" stroke:none;fill-rule:evenodd;fill:rgb(29.803922%,69.019608%,58.039216%);fill-opacity:1;" d="M 9.582031 9.335938 L 9.582031 15.992188 L 11.75 15.992188 L 11.75 9.335938 L 11.382812 9.335938 C 11.1875 9.335938 11.027344 9.070312 11.027344 8.738281 L 11.027344 1.007812 L 10.304688 1.007812 L 10.304688 8.738281 C 10.304688 9.070312 10.144531 9.335938 9.949219 9.335938 Z M 9.582031 9.335938 "/>
<path style=" stroke:none;fill-rule:evenodd;fill:rgb(25.098039%,66.27451%,36.470588%);fill-opacity:1;" d="M 7.417969 1.007812 L 7.417969 15.992188 L 9.582031 15.992188 L 9.582031 9.335938 L 9.21875 9.335938 C 9.019531 9.335938 8.859375 9.070312 8.859375 8.738281 L 8.859375 1.007812 Z M 7.417969 1.007812 "/>
<path style=" stroke:none;fill-rule:evenodd;fill:rgb(92.54902%,70.980392%,32.941176%);fill-opacity:1;" d="M 5.25 9.335938 L 5.25 15.992188 L 7.417969 15.992188 L 7.417969 1.007812 L 5.972656 1.007812 L 5.972656 8.738281 C 5.972656 9.070312 5.8125 9.335938 5.617188 9.335938 Z M 5.25 9.335938 "/>
<path style=" stroke:none;fill-rule:evenodd;fill:rgb(92.156863%,52.54902%,26.666667%);fill-opacity:1;" d="M 3.085938 9.335938 L 3.085938 15.8125 C 3.371094 15.902344 3.65625 15.992188 3.96875 15.992188 L 5.25 15.992188 L 5.25 9.335938 L 4.886719 9.335938 C 4.6875 9.335938 4.527344 9.070312 4.527344 8.738281 L 4.527344 1.007812 L 3.96875 1.007812 C 3.914062 1.007812 3.863281 1.039062 3.808594 1.039062 L 3.808594 8.738281 C 3.808594 9.070312 3.648438 9.335938 3.449219 9.335938 Z M 3.085938 9.335938 "/>
<path style=" stroke:none;fill-rule:evenodd;fill:rgb(85.490196%,38.039216%,33.72549%);fill-opacity:1;" d="M 3.085938 15.8125 L 3.085938 9.335938 L 2.722656 9.335938 C 2.523438 9.335938 2.363281 9.070312 2.363281 8.738281 L 2.363281 1.546875 C 1.566406 2.074219 1.007812 2.9375 1.007812 3.96875 L 1.007812 13.03125 C 1.007812 14.355469 1.886719 15.433594 3.085938 15.8125 Z M 3.085938 15.8125 "/>
<path style=" stroke:none;fill-rule:evenodd;fill:rgb(30.980392%,30.980392%,30.980392%);fill-opacity:1;" d="M 2.363281 1.546875 L 2.363281 8.738281 C 2.363281 9.070312 2.523438 9.335938 2.722656 9.335938 L 3.449219 9.335938 C 3.648438 9.335938 3.808594 9.070312 3.808594 8.738281 L 3.808594 1.039062 C 3.265625 1.070312 2.789062 1.261719 2.363281 1.546875 Z M 2.363281 1.546875 "/>
</g>
</svg>
