<?xml version="1.0" encoding="UTF-8"?>
<svg xmlns="http://www.w3.org/2000/svg" xmlns:xlink="http://www.w3.org/1999/xlink" width="17pt" height="17pt" viewBox="0 0 17 17" version="1.1">
<defs>
<clipPath id="clip1">
  <rect width="17" height="17"/>
</clipPath>
<g id="surface6" clip-path="url(#clip1)">
<path style=" stroke:none;fill-rule:nonzero;fill:rgb(100%,100%,100%);fill-opacity:1;" d="M 8.5 4.796875 C 7.105469 4.796875 5.917969 5.648438 5.40625 6.859375 C 4.109375 7.050781 3.113281 8.160156 3.113281 9.511719 C 3.113281 10.996094 4.320312 12.203125 5.804688 12.203125 L 11.53125 12.203125 C 12.832031 12.203125 13.886719 11.148438 13.886719 9.847656 C 13.886719 8.636719 12.976562 7.644531 11.804688 7.511719 C 11.496094 5.964844 10.132812 4.796875 8.5 4.796875 Z M 8.5 4.796875 "/>
</g>
</defs>
<g id="surface1">
<path style=" stroke:none;fill-rule:evenodd;fill:rgb(80%,80%,80%);fill-opacity:1;" d="M 3.96875 1.007812 L 13.03125 1.007812 C 14.664062 1.007812 15.992188 2.335938 15.992188 3.96875 L 15.992188 13.03125 C 15.992188 14.664062 14.664062 15.992188 13.03125 15.992188 L 3.96875 15.992188 C 2.335938 15.992188 1.007812 14.664062 1.007812 13.03125 L 1.007812 3.96875 C 1.007812 2.335938 2.335938 1.007812 3.96875 1.007812 Z M 3.96875 1.007812 "/>
<use xlink:href="#surface6"/>
<path style=" stroke:none;fill-rule:nonzero;fill:rgb(50.196078%,50.196078%,50.196078%);fill-opacity:1;" d="M 8.996094 6.460938 C 8.769531 6.472656 8.582031 6.628906 8.527344 6.847656 C 8.472656 7.066406 8.570312 7.292969 8.765625 7.40625 C 8.765625 7.40625 9.492188 7.773438 9.492188 9.019531 C 9.492188 9.640625 9.292969 10.019531 9.101562 10.261719 C 8.910156 10.507812 8.765625 10.582031 8.765625 10.582031 C 8.601562 10.664062 8.496094 10.832031 8.488281 11.011719 C 8.484375 11.195312 8.578125 11.371094 8.734375 11.464844 C 8.890625 11.558594 9.085938 11.5625 9.246094 11.46875 C 9.246094 11.46875 9.59375 11.277344 9.898438 10.882812 C 10.203125 10.492188 10.5 9.867188 10.5 9.019531 C 10.5 7.328125 9.285156 6.535156 9.285156 6.535156 C 9.195312 6.484375 9.097656 6.457031 8.996094 6.460938 Z M 8.996094 6.460938 "/>
<path style=" stroke:none;fill-rule:nonzero;fill:rgb(50.196078%,50.196078%,50.196078%);fill-opacity:1;" d="M 6.972656 7.152344 C 6.730469 7.152344 6.523438 7.328125 6.480469 7.570312 C 6.4375 7.808594 6.574219 8.042969 6.800781 8.128906 C 6.800781 8.128906 7.488281 8.398438 7.488281 9.03125 C 7.488281 9.664062 6.824219 9.875 6.824219 9.875 C 6.558594 9.960938 6.417969 10.25 6.507812 10.511719 C 6.59375 10.777344 6.882812 10.917969 7.144531 10.832031 C 7.144531 10.832031 8.5 10.359375 8.5 9.03125 C 8.5 7.707031 7.167969 7.1875 7.167969 7.1875 C 7.105469 7.164062 7.039062 7.148438 6.972656 7.152344 Z M 6.972656 7.152344 "/>
</g>
</svg>
