<?xml version="1.0" encoding="UTF-8"?>
<svg xmlns="http://www.w3.org/2000/svg" xmlns:xlink="http://www.w3.org/1999/xlink" width="17pt" height="17pt" viewBox="0 0 17 17" version="1.1">
<g id="surface1">
<path style=" stroke:none;fill-rule:evenodd;fill:rgb(0.784314%,52.54902%,76.078431%);fill-opacity:1;" d="M 3.96875 1.007812 L 13.03125 1.007812 C 14.664062 1.007812 15.992188 2.335938 15.992188 3.96875 L 15.992188 13.03125 C 15.992188 14.664062 14.664062 15.992188 13.03125 15.992188 L 3.96875 15.992188 C 2.335938 15.992188 1.007812 14.664062 1.007812 13.03125 L 1.007812 3.96875 C 1.007812 2.335938 2.335938 1.007812 3.96875 1.007812 Z M 3.96875 1.007812 "/>
<path style=" stroke:none;fill-rule:nonzero;fill:rgb(100%,100%,100%);fill-opacity:1;" d="M 6.742188 2.59375 C 4.792969 2.59375 3.226562 4.21875 3.226562 6.238281 L 3.226562 8.230469 C 3.226562 8.292969 3.234375 8.355469 3.234375 8.417969 C 3.265625 9.824219 3.453125 12.207031 4.351562 13.230469 C 5.253906 14.257812 7.359375 14.40625 8.210938 14.40625 C 9.726562 14.40625 10.398438 13.8125 10.398438 13.8125 L 10.398438 12.839844 C 10.398438 12.839844 9.484375 13.160156 8.410156 13.140625 C 7.667969 13.128906 7.035156 12.933594 6.71875 12.453125 C 6.601562 12.28125 6.609375 12.109375 6.574219 11.867188 C 6.628906 11.867188 6.683594 11.875 6.742188 11.875 L 10.257812 11.875 C 12.207031 11.875 13.773438 10.25 13.773438 8.230469 L 13.773438 6.238281 C 13.773438 4.21875 12.207031 2.59375 10.257812 2.59375 Z M 6.742188 2.59375 "/>
<path style=" stroke:none;fill-rule:nonzero;fill:rgb(0.784314%,52.54902%,76.078431%);fill-opacity:1;" d="M 7.023438 6.179688 C 7.023438 6.527344 6.738281 6.8125 6.390625 6.8125 C 6.042969 6.8125 5.757812 6.527344 5.757812 6.179688 C 5.757812 5.832031 6.042969 5.546875 6.390625 5.546875 C 6.738281 5.546875 7.023438 5.832031 7.023438 6.179688 Z M 7.023438 6.179688 "/>
</g>
</svg>
