<?xml version="1.0" encoding="UTF-8"?>
<svg xmlns="http://www.w3.org/2000/svg" xmlns:xlink="http://www.w3.org/1999/xlink" width="17pt" height="17pt" viewBox="0 0 17 17" version="1.1">
<defs>
<g>
<symbol overflow="visible" id="glyph0-0">
<path style="stroke:none;" d="M 0.09375 0.359375 L 0.09375 -1.40625 L 1.09375 -1.40625 L 1.09375 0.359375 Z M 0.21875 0.25 L 0.984375 0.25 L 0.984375 -1.296875 L 0.21875 -1.296875 Z M 0.21875 0.25 "/>
</symbol>
<symbol overflow="visible" id="glyph0-1">
<path style="stroke:none;" d="M 0.1875 -1.453125 L 0.8125 -1.453125 C 1 -1.453125 1.140625 -1.410156 1.234375 -1.328125 C 1.335938 -1.253906 1.390625 -1.140625 1.390625 -0.984375 C 1.390625 -0.828125 1.335938 -0.707031 1.234375 -0.625 C 1.140625 -0.539062 1 -0.5 0.8125 -0.5 L 0.5625 -0.5 L 0.5625 0 L 0.1875 0 Z M 0.5625 -1.1875 L 0.5625 -0.78125 L 0.765625 -0.78125 C 0.835938 -0.78125 0.894531 -0.796875 0.9375 -0.828125 C 0.976562 -0.867188 1 -0.921875 1 -0.984375 C 1 -1.046875 0.976562 -1.09375 0.9375 -1.125 C 0.894531 -1.164062 0.835938 -1.1875 0.765625 -1.1875 Z M 0.5625 -1.1875 "/>
</symbol>
<symbol overflow="visible" id="glyph0-2">
<path style="stroke:none;" d="M 0.1875 -1.453125 L 0.609375 -1.453125 L 1.140625 -0.453125 L 1.140625 -1.453125 L 1.484375 -1.453125 L 1.484375 0 L 1.078125 0 L 0.546875 -1 L 0.546875 0 L 0.1875 0 Z M 0.1875 -1.453125 "/>
</symbol>
<symbol overflow="visible" id="glyph0-3">
<path style="stroke:none;" d="M 1.5 -0.109375 C 1.40625 -0.0664062 1.304688 -0.03125 1.203125 0 C 1.097656 0.0195312 0.992188 0.03125 0.890625 0.03125 C 0.648438 0.03125 0.457031 -0.0351562 0.3125 -0.171875 C 0.164062 -0.304688 0.09375 -0.492188 0.09375 -0.734375 C 0.09375 -0.960938 0.164062 -1.144531 0.3125 -1.28125 C 0.457031 -1.414062 0.65625 -1.484375 0.90625 -1.484375 C 1.007812 -1.484375 1.101562 -1.472656 1.1875 -1.453125 C 1.28125 -1.441406 1.363281 -1.414062 1.4375 -1.375 L 1.4375 -1.078125 C 1.351562 -1.117188 1.269531 -1.148438 1.1875 -1.171875 C 1.113281 -1.203125 1.035156 -1.21875 0.953125 -1.21875 C 0.804688 -1.21875 0.691406 -1.175781 0.609375 -1.09375 C 0.523438 -1.007812 0.484375 -0.890625 0.484375 -0.734375 C 0.484375 -0.578125 0.519531 -0.457031 0.59375 -0.375 C 0.675781 -0.289062 0.789062 -0.25 0.9375 -0.25 C 0.976562 -0.25 1.015625 -0.25 1.046875 -0.25 C 1.078125 -0.257812 1.109375 -0.269531 1.140625 -0.28125 L 1.140625 -0.5625 L 0.90625 -0.5625 L 0.90625 -0.8125 L 1.5 -0.8125 Z M 1.5 -0.109375 "/>
</symbol>
<symbol overflow="visible" id="glyph1-0">
<path style="stroke:none;" d="M 0.15625 0.53125 L 0.15625 -2.109375 L 1.65625 -2.109375 L 1.65625 0.53125 Z M 0.3125 0.359375 L 1.484375 0.359375 L 1.484375 -1.953125 L 0.3125 -1.953125 Z M 0.3125 0.359375 "/>
</symbol>
<symbol overflow="visible" id="glyph1-1">
<path style="stroke:none;" d="M 0.28125 -2.1875 L 1.21875 -2.1875 C 1.488281 -2.1875 1.695312 -2.125 1.84375 -2 C 2 -1.875 2.078125 -1.695312 2.078125 -1.46875 C 2.078125 -1.238281 2 -1.0625 1.84375 -0.9375 C 1.695312 -0.820312 1.488281 -0.765625 1.21875 -0.765625 L 0.84375 -0.765625 L 0.84375 0 L 0.28125 0 Z M 0.84375 -1.78125 L 0.84375 -1.171875 L 1.15625 -1.171875 C 1.257812 -1.171875 1.34375 -1.195312 1.40625 -1.25 C 1.46875 -1.300781 1.5 -1.375 1.5 -1.46875 C 1.5 -1.570312 1.46875 -1.648438 1.40625 -1.703125 C 1.34375 -1.753906 1.257812 -1.78125 1.15625 -1.78125 Z M 0.84375 -1.78125 "/>
</symbol>
<symbol overflow="visible" id="glyph1-2">
<path style="stroke:none;" d="M 0.84375 -1.765625 L 0.84375 -0.421875 L 1.046875 -0.421875 C 1.273438 -0.421875 1.445312 -0.476562 1.5625 -0.59375 C 1.6875 -0.707031 1.75 -0.875 1.75 -1.09375 C 1.75 -1.3125 1.6875 -1.476562 1.5625 -1.59375 C 1.445312 -1.707031 1.273438 -1.765625 1.046875 -1.765625 Z M 0.28125 -2.1875 L 0.875 -2.1875 C 1.207031 -2.1875 1.453125 -2.160156 1.609375 -2.109375 C 1.773438 -2.066406 1.914062 -1.988281 2.03125 -1.875 C 2.132812 -1.78125 2.207031 -1.664062 2.25 -1.53125 C 2.300781 -1.40625 2.328125 -1.257812 2.328125 -1.09375 C 2.328125 -0.925781 2.300781 -0.773438 2.25 -0.640625 C 2.207031 -0.515625 2.132812 -0.40625 2.03125 -0.3125 C 1.914062 -0.195312 1.773438 -0.113281 1.609375 -0.0625 C 1.441406 -0.0195312 1.195312 0 0.875 0 L 0.28125 0 Z M 0.28125 -2.1875 "/>
</symbol>
<symbol overflow="visible" id="glyph1-3">
<path style="stroke:none;" d="M 0.28125 -2.1875 L 1.796875 -2.1875 L 1.796875 -1.765625 L 0.84375 -1.765625 L 0.84375 -1.359375 L 1.734375 -1.359375 L 1.734375 -0.921875 L 0.84375 -0.921875 L 0.84375 0 L 0.28125 0 Z M 0.28125 -2.1875 "/>
</symbol>
</g>
</defs>
<g id="surface1">
<path style=" stroke:none;fill-rule:evenodd;fill:rgb(40.392157%,52.941176%,76.470588%);fill-opacity:1;" d="M 3.96875 0.9375 L 13.03125 0.9375 C 14.664062 0.9375 15.992188 2.261719 15.992188 3.898438 L 15.992188 12.957031 C 15.992188 14.59375 14.664062 15.917969 13.03125 15.917969 L 3.96875 15.917969 C 2.335938 15.917969 1.007812 14.59375 1.007812 12.957031 L 1.007812 3.898438 C 1.007812 2.261719 2.335938 0.9375 3.96875 0.9375 Z M 3.96875 0.9375 "/>
<path style=" stroke:none;fill-rule:evenodd;fill:rgb(83.529412%,12.156863%,20%);fill-opacity:1;" d="M 15.125 15.125 L 1.875 1.875 C 1.875 1.875 1.832031 1.84375 1.832031 1.84375 C 1.269531 2.378906 1.007812 3.15625 1.007812 3.96875 L 1.007812 13.03125 C 1.007812 14.671875 2.328125 15.992188 3.972656 15.992188 L 13.03125 15.992188 C 13.851562 15.992188 14.589844 15.660156 15.125 15.125 Z M 15.125 15.125 "/>
<path style=" stroke:none;fill-rule:evenodd;fill:rgb(40.392157%,52.941176%,76.470588%);fill-opacity:1;" d="M 15.125 15.125 C 15.660156 14.589844 15.992188 13.851562 15.992188 13.03125 L 15.992188 3.96875 C 15.992188 2.328125 14.671875 1.007812 13.03125 1.007812 L 3.972656 1.007812 C 3.152344 1.007812 2.410156 1.339844 1.875 1.875 Z M 15.125 15.125 "/>
<path style=" stroke:none;fill-rule:nonzero;fill:rgb(100%,100%,100%);fill-opacity:1;" d="M 12.042969 4.4375 C 13.402344 5.800781 14.519531 6.921875 14.519531 6.933594 C 14.519531 6.957031 9.574219 11.902344 9.550781 11.902344 C 9.542969 11.902344 9.535156 11.164062 9.535156 10.261719 L 9.535156 8.621094 L 9.273438 8.621094 C 7.074219 8.625 5.5625 9.28125 4.921875 10.519531 C 4.527344 11.289062 4.453125 12.308594 4.714844 13.386719 C 4.832031 13.863281 5.082031 14.542969 5.300781 14.96875 C 5.402344 15.167969 5.429688 15.222656 5.417969 15.222656 C 5.390625 15.222656 4.941406 14.667969 4.769531 14.425781 C 4.664062 14.277344 4.363281 13.820312 4.363281 13.808594 C 4.363281 13.804688 4.3125 13.71875 4.253906 13.613281 C 3.699219 12.660156 3.355469 11.476562 3.304688 10.378906 C 3.253906 9.167969 3.625 7.988281 4.335938 7.105469 C 4.523438 6.867188 4.613281 6.777344 4.867188 6.554688 C 5.894531 5.652344 7.394531 5.175781 9.191406 5.171875 L 9.535156 5.171875 L 9.535156 3.566406 C 9.535156 2.683594 9.542969 1.957031 9.550781 1.960938 C 9.558594 1.960938 10.679688 3.074219 12.042969 4.4375 Z M 12.042969 4.4375 "/>
<g style="fill:rgb(40.392157%,52.941176%,76.470588%);fill-opacity:1;">
  <use xlink:href="#glyph0-1" x="6.851562" y="7.889221"/>
  <use xlink:href="#glyph0-2" x="8.60199" y="7.889221"/>
  <use xlink:href="#glyph0-3" x="10.600922" y="7.889221"/>
</g>
<g style="fill:rgb(100%,100%,100%);fill-opacity:1;">
  <use xlink:href="#glyph1-1" x="5.328125" y="15.183075"/>
  <use xlink:href="#glyph1-2" x="7.687103" y="15.183075"/>
  <use xlink:href="#glyph1-3" x="10.358917" y="15.183075"/>
</g>
</g>
</svg>
