<?xml version="1.0" encoding="UTF-8"?>
<svg xmlns="http://www.w3.org/2000/svg" xmlns:xlink="http://www.w3.org/1999/xlink" width="17pt" height="17pt" viewBox="0 0 17 17" version="1.1">
<g id="surface1">
<path style=" stroke:none;fill-rule:evenodd;fill:rgb(91.764706%,25.490196%,25.490196%);fill-opacity:1;" d="M 3.96875 1.007812 L 13.03125 1.007812 C 14.664062 1.007812 15.992188 2.335938 15.992188 3.96875 L 15.992188 13.03125 C 15.992188 14.664062 14.664062 15.992188 13.03125 15.992188 L 3.96875 15.992188 C 2.335938 15.992188 1.007812 14.664062 1.007812 13.03125 L 1.007812 3.96875 C 1.007812 2.335938 2.335938 1.007812 3.96875 1.007812 Z M 3.96875 1.007812 "/>
<path style=" stroke:none;fill-rule:nonzero;fill:rgb(100%,100%,100%);fill-opacity:1;" d="M 7.96875 9.828125 C 6.851562 11.316406 6.917969 12.496094 6.640625 14.078125 C 6.269531 12.402344 6.429688 11.316406 5.3125 9.828125 L 6.640625 10.09375 Z M 7.96875 9.828125 "/>
<path style=" stroke:none;fill-rule:nonzero;fill:rgb(100%,100%,100%);fill-opacity:1;" d="M 11.6875 9.828125 C 10.570312 11.316406 10.636719 12.496094 10.359375 14.078125 C 9.988281 12.402344 10.148438 11.316406 9.03125 9.828125 L 10.359375 10.09375 Z M 11.6875 9.828125 "/>
<path style=" stroke:none;fill-rule:nonzero;fill:rgb(100%,100%,100%);fill-opacity:1;" d="M 5.3125 6.640625 C 6.800781 7.757812 10.105469 7.691406 11.6875 7.96875 C 10.011719 8.339844 6.800781 8.179688 5.3125 9.296875 L 5.578125 7.96875 Z M 5.3125 6.640625 "/>
<path style=" stroke:none;fill-rule:nonzero;fill:rgb(100%,100%,100%);fill-opacity:1;" d="M 5.3125 2.921875 C 6.800781 4.039062 10.105469 3.972656 11.6875 4.25 C 10.011719 4.621094 6.800781 4.460938 5.3125 5.578125 L 5.578125 4.25 Z M 5.3125 2.921875 "/>
<path style=" stroke:none;fill-rule:nonzero;fill:rgb(100%,100%,100%);fill-opacity:1;" d="M 6.375 4.78125 C 7.863281 5.898438 9.042969 5.832031 10.625 6.109375 C 8.949219 6.480469 7.863281 6.320312 6.375 7.4375 L 6.640625 6.109375 Z M 6.375 4.78125 "/>
</g>
</svg>
