<?xml version="1.0" encoding="UTF-8"?>
<svg xmlns="http://www.w3.org/2000/svg" xmlns:xlink="http://www.w3.org/1999/xlink" width="17pt" height="17pt" viewBox="0 0 17 17" version="1.1">
<defs>
<clipPath id="clip1">
  <rect width="17" height="17"/>
</clipPath>
<g id="surface6" clip-path="url(#clip1)">
<path style=" stroke:none;fill-rule:nonzero;fill:rgb(32.941176%,69.803922%,24.705882%);fill-opacity:1;" d="M 9.113281 5.648438 C 7.878906 5.648438 6.859375 6.65625 6.859375 7.886719 C 6.859375 8.355469 7.019531 8.789062 7.269531 9.148438 L 5.765625 10.652344 C 5.605469 10.808594 5.601562 11.066406 5.761719 11.230469 C 5.917969 11.390625 6.175781 11.394531 6.339844 11.238281 L 7.839844 9.734375 C 8.203125 9.984375 8.644531 10.128906 9.113281 10.128906 C 10.347656 10.128906 11.355469 9.121094 11.355469 7.886719 C 11.355469 6.65625 10.347656 5.648438 9.113281 5.648438 Z M 9.113281 6.460938 C 9.910156 6.460938 10.539062 7.09375 10.539062 7.886719 C 10.539062 8.679688 9.910156 9.3125 9.113281 9.3125 C 8.320312 9.3125 7.6875 8.679688 7.6875 7.886719 C 7.6875 7.09375 8.320312 6.460938 9.113281 6.460938 Z M 9.113281 6.460938 "/>
</g>
</defs>
<g id="surface1">
<path style=" stroke:none;fill-rule:evenodd;fill:rgb(32.941176%,69.803922%,24.705882%);fill-opacity:1;" d="M 3.96875 1.007812 L 13.03125 1.007812 C 14.664062 1.007812 15.992188 2.335938 15.992188 3.96875 L 15.992188 13.03125 C 15.992188 14.664062 14.664062 15.992188 13.03125 15.992188 L 3.96875 15.992188 C 2.335938 15.992188 1.007812 14.664062 1.007812 13.03125 L 1.007812 3.96875 C 1.007812 2.335938 2.335938 1.007812 3.96875 1.007812 Z M 3.96875 1.007812 "/>
<path style=" stroke:none;fill-rule:nonzero;fill:rgb(30.980392%,30.980392%,30.980392%);fill-opacity:1;" d="M 8.5 4.019531 C 5.339844 4.019531 2.796875 6.820312 2.796875 8.5 C 2.796875 10.179688 5.339844 12.980469 8.5 12.980469 C 11.660156 12.980469 14.203125 10.179688 14.203125 8.5 C 14.203125 6.820312 11.660156 4.019531 8.5 4.019531 Z M 8.5 4.019531 "/>
<use xlink:href="#surface6"/>
</g>
</svg>
