<?xml version="1.0" encoding="UTF-8"?>
<svg xmlns="http://www.w3.org/2000/svg" xmlns:xlink="http://www.w3.org/1999/xlink" width="17pt" height="17pt" viewBox="0 0 17 17" version="1.1">
<g id="surface1">
<path style=" stroke:none;fill-rule:evenodd;fill:rgb(87.45098%,74.509804%,34.117647%);fill-opacity:1;" d="M 14.464844 1.429688 C 14.40625 1.574219 14.34375 1.71875 14.277344 1.863281 C 14.167969 2.085938 14.046875 2.300781 13.917969 2.511719 C 13.789062 2.722656 13.648438 2.925781 13.496094 3.121094 C 13.34375 3.320312 13.183594 3.507812 13.011719 3.6875 C 12.84375 3.871094 12.664062 4.042969 12.476562 4.203125 C 12.289062 4.367188 12.09375 4.519531 11.894531 4.664062 C 11.691406 4.808594 11.480469 4.941406 11.265625 5.0625 C 11.046875 5.183594 10.828125 5.296875 10.597656 5.398438 C 10.371094 5.496094 10.140625 5.585938 9.902344 5.664062 C 9.667969 5.742188 9.425781 5.808594 9.183594 5.859375 C 9.019531 5.898438 8.851562 5.929688 8.683594 5.953125 C 8.722656 6.195312 8.753906 6.441406 8.769531 6.691406 C 8.777344 6.835938 8.78125 6.984375 8.785156 7.132812 C 8.78125 7.378906 8.769531 7.625 8.746094 7.871094 C 8.71875 8.117188 8.683594 8.363281 8.632812 8.605469 C 8.585938 8.847656 8.523438 9.089844 8.449219 9.324219 C 8.375 9.5625 8.289062 9.792969 8.191406 10.023438 C 8.097656 10.25 7.988281 10.472656 7.867188 10.691406 C 7.75 10.90625 7.621094 11.117188 7.480469 11.324219 C 7.339844 11.527344 7.1875 11.722656 7.027344 11.914062 C 6.867188 12.101562 6.699219 12.285156 6.519531 12.457031 C 6.339844 12.628906 6.152344 12.792969 5.957031 12.945312 C 5.765625 13.097656 5.5625 13.242188 5.351562 13.375 C 5.144531 13.511719 4.929688 13.632812 4.707031 13.746094 C 4.484375 13.859375 4.257812 13.957031 4.027344 14.046875 C 3.792969 14.136719 3.558594 14.214844 3.316406 14.28125 C 3.078125 14.347656 2.835938 14.402344 2.589844 14.445312 C 2.347656 14.484375 2.097656 14.515625 1.851562 14.53125 C 1.730469 14.539062 1.609375 14.546875 1.484375 14.546875 C 2.003906 15.398438 2.898438 15.992188 3.972656 15.992188 L 13.03125 15.992188 C 14.671875 15.992188 15.992188 14.671875 15.992188 13.03125 L 15.992188 3.96875 C 15.992188 2.859375 15.359375 1.9375 14.464844 1.429688 Z M 14.464844 1.429688 "/>
<path style=" stroke:none;fill-rule:evenodd;fill:rgb(52.156863%,52.156863%,52.156863%);fill-opacity:1;" d="M 3.972656 1.007812 C 2.328125 1.007812 1.007812 2.328125 1.007812 3.96875 L 1.007812 13.03125 C 1.007812 13.597656 1.210938 14.097656 1.484375 14.546875 C 1.609375 14.546875 1.730469 14.539062 1.851562 14.53125 C 2.097656 14.515625 2.347656 14.484375 2.589844 14.445312 C 2.835938 14.402344 3.078125 14.347656 3.316406 14.28125 C 3.558594 14.214844 3.792969 14.136719 4.027344 14.046875 C 4.257812 13.957031 4.484375 13.859375 4.707031 13.746094 C 4.929688 13.632812 5.144531 13.511719 5.351562 13.375 C 5.5625 13.242188 5.765625 13.097656 5.957031 12.945312 C 6.152344 12.792969 6.339844 12.628906 6.519531 12.457031 C 6.699219 12.285156 6.867188 12.101562 7.027344 11.914062 C 7.1875 11.722656 7.339844 11.527344 7.480469 11.324219 C 7.621094 11.117188 7.75 10.90625 7.867188 10.691406 C 7.988281 10.472656 8.097656 10.25 8.191406 10.023438 C 8.289062 9.792969 8.375 9.5625 8.449219 9.324219 C 8.523438 9.089844 8.585938 8.847656 8.632812 8.605469 C 8.683594 8.363281 8.71875 8.117188 8.746094 7.871094 C 8.769531 7.625 8.78125 7.378906 8.785156 7.132812 C 8.78125 6.984375 8.777344 6.835938 8.769531 6.691406 C 8.753906 6.441406 8.722656 6.195312 8.683594 5.953125 C 8.851562 5.929688 9.019531 5.898438 9.183594 5.859375 C 9.425781 5.808594 9.667969 5.742188 9.902344 5.664062 C 10.140625 5.585938 10.371094 5.496094 10.597656 5.398438 C 10.828125 5.296875 11.046875 5.183594 11.265625 5.0625 C 11.480469 4.941406 11.691406 4.808594 11.894531 4.664062 C 12.09375 4.519531 12.289062 4.367188 12.476562 4.203125 C 12.664062 4.042969 12.84375 3.871094 13.011719 3.6875 C 13.183594 3.507812 13.34375 3.320312 13.496094 3.121094 C 13.648438 2.925781 13.789062 2.722656 13.917969 2.511719 C 14.046875 2.300781 14.167969 2.085938 14.277344 1.863281 C 14.34375 1.71875 14.40625 1.574219 14.464844 1.429688 C 14.03125 1.183594 13.5625 1.007812 13.03125 1.007812 Z M 3.972656 1.007812 "/>
</g>
</svg>
