<?xml version="1.0" encoding="UTF-8"?>
<svg xmlns="http://www.w3.org/2000/svg" xmlns:xlink="http://www.w3.org/1999/xlink" width="17pt" height="17pt" viewBox="0 0 17 17" version="1.1">
<defs>
<linearGradient id="linear0" gradientUnits="userSpaceOnUse" x1="18.033899" y1="-8.271187" x2="17.634579" y2="6.68057" gradientTransform="matrix(0.53125,0,0,0.53125,-0.787633,6.086776)">
<stop offset="0" style="stop-color:rgb(100%,62.745098%,0.392157%);stop-opacity:1;"/>
<stop offset="1" style="stop-color:rgb(100%,49.803922%,0.392157%);stop-opacity:0;"/>
</linearGradient>
<linearGradient id="linear1" gradientUnits="userSpaceOnUse" x1="14.169707" y1="35.254238" x2="14.447506" y2="26.193838" gradientTransform="matrix(0.53125,0,0,0.53125,-0.199227,-2.867999)">
<stop offset="0" style="stop-color:rgb(97.254902%,69.803922%,28.627451%);stop-opacity:1;"/>
<stop offset="1" style="stop-color:rgb(97.254902%,69.803922%,28.627451%);stop-opacity:0;"/>
</linearGradient>
</defs>
<g id="surface1">
<path style=" stroke:none;fill-rule:evenodd;fill:rgb(26.666667%,22.352941%,9.803922%);fill-opacity:1;" d="M 3.976562 1.007812 L 13.035156 1.007812 C 14.671875 1.007812 15.996094 2.335938 15.996094 3.96875 L 15.996094 13.03125 C 15.996094 14.664062 14.671875 15.992188 13.035156 15.992188 L 3.976562 15.992188 C 2.339844 15.992188 1.011719 14.664062 1.011719 13.03125 L 1.011719 3.96875 C 1.011719 2.335938 2.339844 1.007812 3.976562 1.007812 Z M 3.976562 1.007812 "/>
<path style=" stroke:none;fill-rule:evenodd;fill:rgb(100%,85.882353%,37.647059%);fill-opacity:1;" d="M 3.976562 1.007812 L 13.035156 1.007812 C 14.671875 1.007812 15.996094 2.335938 15.996094 3.96875 L 15.996094 13.03125 C 15.996094 14.664062 14.671875 15.992188 13.035156 15.992188 L 3.976562 15.992188 C 2.339844 15.992188 1.011719 14.664062 1.011719 13.03125 L 1.011719 3.96875 C 1.011719 2.335938 2.339844 1.007812 3.976562 1.007812 Z M 3.976562 1.007812 "/>
<path style=" stroke:none;fill-rule:evenodd;fill:url(#linear0);" d="M 3.976562 1.007812 L 13.035156 1.007812 C 14.671875 1.007812 15.996094 2.335938 15.996094 3.96875 L 15.996094 13.03125 C 15.996094 14.664062 14.671875 15.992188 13.035156 15.992188 L 3.976562 15.992188 C 2.339844 15.992188 1.011719 14.664062 1.011719 13.03125 L 1.011719 3.96875 C 1.011719 2.335938 2.339844 1.007812 3.976562 1.007812 Z M 3.976562 1.007812 "/>
<path style=" stroke:none;fill-rule:nonzero;fill:rgb(44.313725%,38.823529%,0%);fill-opacity:1;" d="M 9.222656 4.535156 C 8.179688 4.535156 7.335938 5.363281 7.335938 6.382812 C 7.335938 6.84375 7.515625 7.289062 7.835938 7.628906 C 7.660156 7.898438 7.566406 8.21875 7.566406 8.546875 C 7.566406 9.425781 8.226562 10.140625 9.042969 10.140625 C 9.453125 10.136719 9.839844 9.953125 10.121094 9.632812 C 10.222656 9.699219 10.339844 9.730469 10.457031 9.730469 C 10.8125 9.730469 11.117188 9.425781 11.171875 9.011719 C 11.402344 9.117188 11.652344 9.171875 11.90625 9.171875 C 12.898438 9.171875 13.703125 8.367188 13.703125 7.375 C 13.703125 6.382812 12.898438 5.578125 11.90625 5.578125 C 11.59375 5.582031 11.285156 5.664062 11.015625 5.820312 C 10.765625 5.054688 10.039062 4.535156 9.222656 4.535156 Z M 9.222656 4.535156 "/>
<path style=" stroke:none;fill-rule:nonzero;fill:rgb(30.196078%,22.745098%,0.784314%);fill-opacity:1;" d="M 11.332031 10.535156 C 11.320312 10.476562 11.222656 10.15625 11.222656 10.15625 C 10.972656 9.675781 10.628906 9.332031 10.261719 9.019531 C 8.914062 9.226562 8.792969 9.570312 8.582031 9.636719 L 8.464844 9.589844 C 8.792969 9.21875 9.277344 9.132812 9.703125 8.941406 L 8.886719 8.636719 L 8.910156 8.515625 L 10.082031 8.890625 C 10.039062 8.707031 9.8125 8.527344 9.605469 8.34375 L 9.714844 8.242188 C 9.894531 8.417969 10.085938 8.625 10.25 8.757812 C 10.550781 9.152344 10.851562 9.285156 11.152344 9.546875 L 11.171875 9.011719 C 10.5625 8.421875 10.035156 8.175781 9.5625 8.125 L 9.515625 8.007812 C 9.929688 8.109375 10.28125 8.109375 10.886719 8.515625 C 10.710938 8.289062 10.5625 8.011719 10.460938 7.648438 L 10.578125 7.625 C 10.71875 8.175781 10.9375 8.363281 11.121094 8.648438 C 11.128906 7.746094 11.289062 7.242188 11.464844 6.769531 L 11.605469 6.898438 C 11.007812 8.203125 11.476562 9.550781 11.828125 10.265625 Z M 11.332031 10.535156 "/>
<path style=" stroke:none;fill-rule:evenodd;fill:rgb(100%,98.431373%,62.745098%);fill-opacity:1;" d="M 11.234375 15.980469 L 13.164062 12.019531 L 9.617188 11.390625 L 6.03125 10.832031 L 6.066406 10.707031 L 4.402344 10.695312 L 7.308594 11.371094 L 4.519531 11.660156 L 4.320312 12.238281 L 6.570312 12.796875 L 1.566406 13.984375 L 2.535156 15.234375 C 2.597656 15.238281 3.679688 15.96875 3.742188 15.96875 Z M 11.234375 15.980469 "/>
<path style=" stroke:none;fill-rule:evenodd;fill:url(#linear1);" d="M 11.234375 15.980469 L 13.164062 12.019531 L 9.617188 11.390625 L 6.03125 10.832031 L 6.066406 10.707031 L 4.402344 10.695312 L 7.308594 11.371094 L 4.519531 11.660156 L 4.320312 12.238281 L 6.570312 12.796875 L 1.566406 13.984375 L 2.535156 15.234375 C 2.597656 15.238281 3.667969 15.980469 3.730469 15.980469 C 5.605469 16.003906 8.730469 15.980469 11.234375 15.980469 Z M 11.234375 15.980469 "/>
<path style=" stroke:none;fill-rule:nonzero;fill:rgb(99.607843%,69.803922%,0.784314%);fill-opacity:1;" d="M 4.550781 10.828125 L 11.289062 10.941406 L 11.273438 10.410156 L 9.378906 10.320312 L 9.097656 10.078125 L 8.816406 10.3125 L 8.335938 10.230469 L 7.769531 10.542969 L 6.683594 10.121094 L 6.449219 10.238281 L 6.292969 10.371094 L 5.703125 10.402344 Z M 4.550781 10.828125 "/>
<path style=" stroke:none;fill-rule:evenodd;fill:rgb(86.27451%,72.941176%,26.666667%);fill-opacity:1;" d="M 4.816406 12.125 L 5.371094 12.304688 C 5.371094 12.304688 5.042969 12.042969 5.03125 11.953125 C 5.015625 11.867188 5.035156 11.757812 5.167969 11.664062 C 5.4375 11.480469 7.742188 11.554688 7.722656 11.46875 C 7.703125 11.382812 4.53125 10.738281 3.785156 10.480469 C 3.652344 10.378906 2.828125 10.238281 2.269531 10.175781 C 1.996094 10.078125 1.335938 9.863281 1.007812 9.878906 L 1.007812 11.808594 C 1.65625 11.800781 2.25 11.785156 3.183594 11.828125 C 3.730469 11.894531 4.273438 12.03125 4.816406 12.125 Z M 4.816406 12.125 "/>
<path style=" stroke:none;fill-rule:evenodd;fill:rgb(76.078431%,64.705882%,14.509804%);fill-opacity:1;" d="M 1.566406 13.984375 C 3.492188 13.53125 4.859375 13.296875 6.839844 12.871094 C 6.78125 12.757812 6.660156 12.574219 6.179688 12.472656 C 5.140625 12.144531 4.222656 11.96875 3.183594 11.828125 C 2.296875 11.78125 1.621094 11.800781 1.007812 11.808594 C 1.015625 12.4375 0.96875 13.222656 1.066406 13.574219 Z M 1.566406 13.984375 "/>
<path style=" stroke:none;fill-rule:evenodd;fill:rgb(24.705882%,20%,1.176471%);fill-opacity:1;" d="M 3.792969 15.984375 L 4.03125 15.738281 C 4.164062 15.625 4.210938 15.519531 4.207031 15.417969 C 4.203125 15.316406 4.152344 15.214844 4.082031 15.117188 C 3.136719 14.558594 2.210938 14.089844 1.300781 13.671875 C 1.210938 13.632812 1.152344 13.613281 1.066406 13.574219 C 1.304688 14.898438 2.390625 15.941406 3.792969 15.984375 Z M 3.792969 15.984375 "/>
<path style=" stroke:none;fill-rule:nonzero;fill:rgb(86.27451%,72.941176%,26.666667%);fill-opacity:1;" d="M 8.613281 11.398438 C 9.488281 11.675781 10.398438 11.84375 11.390625 11.75 L 12.269531 10.691406 C 10.378906 10.652344 9.265625 10.929688 8.613281 11.398438 Z M 8.613281 11.398438 "/>
<path style=" stroke:none;fill-rule:evenodd;fill:rgb(26.666667%,22.352941%,9.803922%);fill-opacity:1;" d="M 15.996094 10.019531 L 15.789062 10.105469 C 15.578125 9.976562 15.382812 10.058594 15.109375 10.09375 C 14.898438 9.984375 14.210938 9.816406 13.699219 9.726562 C 13.359375 9.480469 12.894531 9.488281 12.449219 9.464844 C 12.039062 9.660156 11.320312 9.992188 11.210938 10.191406 L 10.703125 10.691406 C 10.566406 10.949219 10.574219 11.019531 10.730469 11.285156 C 10.59375 11.382812 10.382812 11.558594 10.21875 11.75 C 10.050781 11.941406 9.933594 12.148438 9.976562 12.308594 L 10.210938 12.519531 C 9.628906 13 9.347656 13.417969 8.96875 14.082031 C 8.96875 14.082031 8.867188 14.1875 8.917969 14.316406 C 8.949219 14.398438 9.179688 14.601562 9.25 14.691406 C 9.347656 14.824219 9.285156 14.84375 9.34375 14.929688 L 10.085938 15.988281 L 13.035156 15.988281 C 14.675781 15.988281 15.996094 14.667969 15.996094 13.027344 Z M 15.996094 10.019531 "/>
<path style=" stroke:none;fill-rule:evenodd;fill:rgb(17.254902%,10.980392%,5.098039%);fill-opacity:1;" d="M 13.914062 15.835938 C 13.085938 15.433594 11.425781 14.398438 11.546875 14.472656 C 11.683594 14.554688 12.160156 15.9375 12.160156 15.9375 C 12.160156 15.9375 10.738281 14.335938 10.429688 14.046875 C 10.125 13.761719 10.351562 13.832031 9.882812 13.769531 C 9.648438 13.738281 9.574219 13.804688 9.53125 13.90625 C 9.488281 14.011719 9.480469 14.152344 9.378906 14.273438 C 9.273438 14.394531 9.273438 14.394531 9.207031 14.371094 C 9.195312 14.371094 9.136719 14.371094 9.121094 14.367188 C 9.191406 14.460938 9.347656 14.609375 9.402344 14.683594 C 9.5 14.816406 9.441406 14.835938 9.496094 14.921875 L 10.191406 15.914062 L 10.261719 15.980469 L 13.1875 15.980469 C 13.445312 15.980469 13.675781 15.898438 13.914062 15.835938 Z M 13.914062 15.835938 "/>
<path style=" stroke:none;fill-rule:evenodd;fill:rgb(17.254902%,10.980392%,5.098039%);fill-opacity:1;" d="M 10.148438 12.53125 L 10.179688 12.570312 C 10.179688 12.570312 10.507812 12.257812 10.78125 12.148438 C 11.058594 12.039062 11.421875 12.167969 11.421875 12.167969 C 11.421875 12.167969 11.46875 12.085938 12.070312 12.121094 C 12.667969 12.160156 14.175781 12.691406 14.175781 12.691406 C 14.175781 12.691406 13.394531 12.035156 12.71875 11.730469 C 12.378906 11.574219 12.070312 11.53125 11.839844 11.523438 C 11.613281 11.519531 11.472656 11.550781 11.472656 11.550781 L 10.113281 11.933594 C 10.066406 12.035156 9.964844 12.140625 9.988281 12.226562 L 10.222656 12.433594 C 10.1875 12.464844 10.179688 12.5 10.148438 12.53125 Z M 10.148438 12.53125 "/>
<path style=" stroke:none;fill-rule:nonzero;fill:rgb(26.666667%,22.352941%,9.803922%);fill-opacity:1;" d="M 7.03125 15.859375 C 7.242188 15.921875 7.453125 15.988281 7.683594 15.988281 L 12.074219 15.988281 L 9.484375 14.746094 C 8.972656 14.792969 8.460938 14.710938 7.949219 14.914062 C 7.421875 15.152344 7.296875 15.332031 7.027344 15.53125 C 6.9375 15.683594 6.976562 15.773438 7.03125 15.859375 Z M 7.03125 15.859375 "/>
<path style=" stroke:none;fill-rule:evenodd;fill:rgb(31.764706%,29.411765%,0.392157%);fill-opacity:1;" d="M 10.148438 1.007812 C 10.140625 1.015625 10.132812 1.023438 10.121094 1.035156 C 10.066406 1.089844 10.015625 1.148438 9.96875 1.207031 C 9.921875 1.265625 9.875 1.328125 9.835938 1.394531 C 9.804688 1.441406 9.777344 1.484375 9.75 1.535156 C 9.714844 1.601562 9.679688 1.671875 9.652344 1.742188 C 9.621094 1.8125 9.597656 1.886719 9.574219 1.960938 C 9.550781 2.03125 9.53125 2.109375 9.519531 2.183594 C 9.503906 2.257812 9.492188 2.335938 9.484375 2.414062 C 9.480469 2.488281 9.476562 2.566406 9.476562 2.644531 C 9.476562 2.722656 9.480469 2.800781 9.492188 2.875 C 9.5 2.953125 9.511719 3.03125 9.527344 3.105469 C 9.535156 3.140625 9.542969 3.171875 9.550781 3.203125 C 9.496094 3.234375 9.4375 3.269531 9.382812 3.304688 C 9.328125 3.339844 9.277344 3.378906 9.226562 3.421875 C 9.175781 3.460938 9.128906 3.507812 9.082031 3.554688 C 9.03125 3.597656 8.988281 3.648438 8.945312 3.699219 C 8.902344 3.75 8.863281 3.800781 8.824219 3.855469 C 8.789062 3.910156 8.75 3.96875 8.71875 4.023438 C 8.714844 4.03125 8.710938 4.039062 8.707031 4.050781 C 8.675781 4.109375 8.644531 4.167969 8.621094 4.226562 C 8.59375 4.289062 8.570312 4.351562 8.550781 4.414062 C 8.527344 4.476562 8.511719 4.539062 8.496094 4.605469 C 8.484375 4.667969 8.472656 4.734375 8.464844 4.800781 C 8.457031 4.863281 8.449219 4.929688 8.449219 4.996094 C 8.445312 5.058594 8.449219 5.125 8.453125 5.191406 C 8.457031 5.253906 8.464844 5.320312 8.472656 5.382812 C 8.484375 5.445312 8.5 5.507812 8.515625 5.570312 C 8.53125 5.632812 8.550781 5.695312 8.574219 5.753906 C 8.597656 5.8125 8.621094 5.871094 8.652344 5.925781 C 8.679688 5.980469 8.710938 6.039062 8.742188 6.089844 C 8.777344 6.140625 8.816406 6.191406 8.855469 6.242188 C 8.894531 6.289062 8.933594 6.335938 8.976562 6.378906 C 9.019531 6.425781 9.066406 6.464844 9.113281 6.503906 C 9.164062 6.542969 9.214844 6.582031 9.265625 6.613281 C 9.300781 6.636719 9.339844 6.660156 9.375 6.679688 C 9.429688 6.710938 9.484375 6.734375 9.542969 6.757812 C 9.601562 6.78125 9.660156 6.804688 9.71875 6.820312 C 9.777344 6.835938 9.839844 6.851562 9.898438 6.863281 C 9.960938 6.875 10.023438 6.882812 10.082031 6.886719 C 10.144531 6.890625 10.207031 6.890625 10.269531 6.890625 C 10.335938 6.886719 10.398438 6.882812 10.460938 6.871094 C 10.523438 6.863281 10.585938 6.851562 10.644531 6.835938 C 10.707031 6.820312 10.769531 6.804688 10.828125 6.78125 C 10.839844 6.777344 10.851562 6.773438 10.863281 6.769531 C 10.878906 6.796875 10.894531 6.824219 10.914062 6.847656 C 10.929688 6.875 10.949219 6.898438 10.972656 6.921875 C 10.992188 6.941406 11.015625 6.964844 11.039062 6.984375 C 11.058594 7.003906 11.082031 7.023438 11.109375 7.039062 C 11.128906 7.054688 11.148438 7.066406 11.171875 7.078125 C 11.199219 7.09375 11.226562 7.105469 11.253906 7.117188 C 11.28125 7.128906 11.3125 7.136719 11.339844 7.144531 C 11.371094 7.152344 11.402344 7.160156 11.429688 7.164062 C 11.460938 7.167969 11.492188 7.171875 11.523438 7.171875 C 11.554688 7.175781 11.585938 7.175781 11.617188 7.171875 C 11.648438 7.167969 11.679688 7.164062 11.710938 7.160156 C 11.742188 7.152344 11.773438 7.148438 11.804688 7.136719 C 11.835938 7.128906 11.867188 7.117188 11.898438 7.105469 C 11.929688 7.09375 11.960938 7.078125 11.992188 7.0625 C 12.019531 7.046875 12.050781 7.03125 12.078125 7.011719 C 12.105469 6.992188 12.132812 6.972656 12.160156 6.953125 C 12.1875 6.933594 12.214844 6.910156 12.242188 6.882812 C 12.265625 6.859375 12.289062 6.835938 12.3125 6.808594 C 12.339844 6.785156 12.359375 6.757812 12.382812 6.726562 C 12.382812 6.722656 12.386719 6.71875 12.390625 6.714844 C 12.433594 6.777344 12.484375 6.832031 12.535156 6.890625 C 12.585938 6.945312 12.636719 6.996094 12.695312 7.046875 C 12.75 7.09375 12.808594 7.140625 12.871094 7.1875 C 12.929688 7.230469 12.992188 7.269531 13.058594 7.308594 C 13.074219 7.316406 13.085938 7.324219 13.101562 7.332031 C 13.167969 7.367188 13.234375 7.398438 13.304688 7.429688 C 13.375 7.457031 13.445312 7.484375 13.515625 7.507812 C 13.585938 7.527344 13.660156 7.546875 13.734375 7.5625 C 13.804688 7.574219 13.878906 7.585938 13.953125 7.59375 C 14.03125 7.601562 14.105469 7.605469 14.179688 7.605469 C 14.253906 7.605469 14.328125 7.601562 14.402344 7.59375 C 14.476562 7.585938 14.550781 7.574219 14.625 7.558594 C 14.699219 7.546875 14.769531 7.527344 14.84375 7.503906 C 14.914062 7.484375 14.984375 7.457031 15.054688 7.425781 C 15.121094 7.398438 15.191406 7.367188 15.257812 7.328125 C 15.320312 7.292969 15.386719 7.253906 15.445312 7.210938 C 15.507812 7.171875 15.566406 7.125 15.625 7.078125 C 15.683594 7.027344 15.738281 6.976562 15.789062 6.921875 C 15.839844 6.871094 15.890625 6.8125 15.9375 6.753906 C 15.957031 6.726562 15.976562 6.699219 15.996094 6.671875 L 15.996094 3.972656 C 15.996094 2.332031 14.675781 1.007812 13.035156 1.007812 Z M 10.148438 1.007812 "/>
<path style=" stroke:none;fill-rule:nonzero;fill:rgb(30.196078%,22.745098%,0.784314%);fill-opacity:1;" d="M 13.066406 10.132812 C 12.636719 10.800781 12.886719 9.335938 12.886719 9.335938 C 13.066406 8.78125 12.347656 7.144531 12.300781 7.003906 C 11.074219 6.621094 11.722656 6.671875 11.515625 6.640625 L 11.4375 6.554688 C 11.769531 6.59375 12.066406 6.769531 12.390625 6.714844 C 12.429688 6.542969 12.3125 6.296875 12.210938 6.054688 L 12.347656 6.015625 C 12.425781 6.238281 12.5 6.492188 12.585938 6.671875 C 13.070312 7.757812 12.984375 7.46875 13.128906 7.8125 C 13.082031 6.828125 13.242188 6.253906 13.6875 5.507812 L 14.304688 5.457031 C 13.160156 6.277344 13.390625 9.289062 13.597656 10.109375 Z M 13.066406 10.132812 "/>
</g>
</svg>
