<?xml version="1.0" encoding="UTF-8"?>
<svg xmlns="http://www.w3.org/2000/svg" xmlns:xlink="http://www.w3.org/1999/xlink" width="17pt" height="17pt" viewBox="0 0 17 17" version="1.1">
<g id="surface1">
<path style=" stroke:none;fill-rule:evenodd;fill:rgb(100%,54.117647%,0%);fill-opacity:1;" d="M 3.96875 1.007812 L 13.03125 1.007812 C 14.664062 1.007812 15.992188 2.335938 15.992188 3.96875 L 15.992188 13.03125 C 15.992188 14.664062 14.664062 15.992188 13.03125 15.992188 L 3.96875 15.992188 C 2.335938 15.992188 1.007812 14.664062 1.007812 13.03125 L 1.007812 3.96875 C 1.007812 2.335938 2.335938 1.007812 3.96875 1.007812 Z M 3.96875 1.007812 "/>
<path style=" stroke:none;fill-rule:evenodd;fill:rgb(100%,100%,100%);fill-opacity:1;" d="M 12.988281 12.988281 L 10.269531 12.402344 L 8.96875 14.859375 L 7.257812 12.667969 L 4.683594 13.714844 L 4.785156 10.933594 L 2.140625 10.078125 L 4.003906 8.015625 L 2.527344 5.660156 L 5.28125 5.28125 L 5.660156 2.527344 L 8.015625 4.003906 L 10.078125 2.140625 L 10.933594 4.785156 L 13.714844 4.683594 L 12.667969 7.257812 L 14.859375 8.96875 L 12.402344 10.269531 Z M 12.988281 12.988281 "/>
<path style=" stroke:none;fill-rule:evenodd;fill:rgb(100%,54.117647%,0%);fill-opacity:1;" d="M 10.746094 10.230469 L 8.492188 10.234375 L 6.253906 10.230469 L 7.378906 8.335938 L 8.5 6.460938 L 9.628906 8.351562 Z M 10.746094 10.230469 "/>
</g>
</svg>
