<?xml version="1.0" encoding="UTF-8"?>
<svg xmlns="http://www.w3.org/2000/svg" xmlns:xlink="http://www.w3.org/1999/xlink" width="17pt" height="17pt" viewBox="0 0 17 17" version="1.1">
<g id="surface1">
<path style=" stroke:none;fill-rule:evenodd;fill:rgb(17.647059%,25.882353%,48.235294%);fill-opacity:1;" d="M 3.96875 1.007812 C 2.328125 1.007812 1.007812 2.328125 1.007812 3.96875 L 1.007812 13.03125 C 1.007812 14.671875 2.328125 15.992188 3.96875 15.992188 L 12.859375 15.992188 L 7.808594 10.941406 L 9.15625 10.90625 L 9.21875 9.449219 L 10.613281 9.476562 L 10.664062 7.964844 L 15.941406 13.273438 C 15.949219 13.191406 15.992188 13.117188 15.992188 13.03125 L 15.992188 3.96875 C 15.992188 2.328125 14.671875 1.007812 13.03125 1.007812 Z M 3.96875 1.007812 "/>
<path style=" stroke:none;fill-rule:evenodd;fill:rgb(84.313725%,88.627451%,92.54902%);fill-opacity:1;" d="M 13.144531 8.5 C 13.144531 11.066406 11.066406 13.144531 8.5 13.144531 C 5.933594 13.144531 3.855469 11.066406 3.855469 8.5 C 3.855469 5.933594 5.933594 3.855469 8.5 3.855469 C 11.066406 3.855469 13.144531 5.933594 13.144531 8.5 Z M 13.144531 8.5 "/>
<path style=" stroke:none;fill-rule:evenodd;fill:rgb(99.215686%,62.745098%,0.784314%);fill-opacity:1;" d="M 15.941406 13.273438 L 10.664062 7.964844 L 10.613281 9.476562 L 9.21875 9.449219 L 9.15625 10.90625 L 7.808594 10.941406 L 12.859375 15.992188 L 13.03125 15.992188 C 14.582031 15.992188 15.8125 14.792969 15.941406 13.273438 Z M 15.941406 13.273438 "/>
<path style=" stroke:none;fill-rule:evenodd;fill:rgb(100%,100%,100%);fill-opacity:1;" d="M 10.113281 13.246094 L 7.808594 10.941406 Z M 10.113281 13.246094 "/>
<path style=" stroke:none;fill-rule:evenodd;fill:rgb(99.215686%,62.745098%,0.784314%);fill-opacity:1;" d="M 10.664062 7.96875 L 10.613281 9.476562 L 9.21875 9.449219 L 9.15625 10.902344 L 7.808594 10.941406 L 10.113281 13.246094 C 11.480469 12.804688 12.59375 11.804688 13.175781 10.496094 Z M 10.664062 7.96875 "/>
<path style=" stroke:none;fill-rule:evenodd;fill:rgb(100%,100%,100%);fill-opacity:1;" d="M 6.414062 6.660156 L 7.808594 10.941406 L 9.15625 10.902344 L 9.21875 9.449219 L 10.613281 9.476562 L 10.664062 7.96875 L 10.664062 7.964844 Z M 6.414062 6.660156 "/>
<path style=" stroke:none;fill-rule:nonzero;fill:rgb(0%,0%,0%);fill-opacity:1;" d="M 6.414062 6.660156 L 6.941406 8.261719 L 8.003906 7.164062 Z M 6.414062 6.660156 "/>
</g>
</svg>
