<?xml version="1.0" encoding="UTF-8"?>
<svg xmlns="http://www.w3.org/2000/svg" xmlns:xlink="http://www.w3.org/1999/xlink" width="17pt" height="17pt" viewBox="0 0 17 17" version="1.1">
<g id="surface1">
<path style=" stroke:none;fill-rule:evenodd;fill:rgb(18.823529%,23.921569%,45.882353%);fill-opacity:1;" d="M 3.96875 1.007812 L 13.03125 1.007812 C 14.664062 1.007812 15.992188 2.335938 15.992188 3.96875 L 15.992188 13.03125 C 15.992188 14.664062 14.664062 15.992188 13.03125 15.992188 L 3.96875 15.992188 C 2.335938 15.992188 1.007812 14.664062 1.007812 13.03125 L 1.007812 3.96875 C 1.007812 2.335938 2.335938 1.007812 3.96875 1.007812 Z M 3.96875 1.007812 "/>
<path style=" stroke:none;fill-rule:nonzero;fill:rgb(36.470588%,54.901961%,72.54902%);fill-opacity:1;" d="M 8.5 5.3125 C 8.421875 5.3125 8.34375 5.316406 8.265625 5.324219 C 8.25 5.324219 8.234375 5.328125 8.214844 5.332031 C 6.867188 5.476562 5.84375 6.613281 5.84375 7.96875 C 5.84375 7.976562 5.84375 7.980469 5.84375 7.988281 C 4.929688 8.121094 4.25 8.902344 4.25 9.828125 C 4.25 9.84375 4.25 9.859375 4.25 9.875 C 4.25 9.886719 4.25 9.902344 4.25 9.917969 C 4.25 10.894531 5.042969 11.6875 6.019531 11.6875 L 10.625 11.6875 C 11.796875 11.6875 12.75 10.734375 12.75 9.5625 C 12.746094 8.578125 12.070312 7.726562 11.113281 7.5 C 10.910156 6.367188 10 5.496094 8.859375 5.339844 C 8.851562 5.339844 8.839844 5.335938 8.828125 5.335938 C 8.773438 5.328125 8.71875 5.324219 8.664062 5.320312 C 8.609375 5.316406 8.554688 5.3125 8.5 5.3125 Z M 8.496094 6.375 C 8.523438 6.375 8.550781 6.375 8.578125 6.378906 C 8.585938 6.378906 8.59375 6.378906 8.601562 6.382812 C 8.636719 6.382812 8.667969 6.386719 8.699219 6.390625 C 8.703125 6.390625 8.710938 6.390625 8.71875 6.394531 C 9.40625 6.488281 9.945312 7.003906 10.066406 7.6875 C 10.144531 8.105469 10.457031 8.4375 10.871094 8.535156 C 11.351562 8.648438 11.683594 9.066406 11.6875 9.5625 C 11.6875 10.164062 11.222656 10.625 10.625 10.625 L 6.019531 10.625 C 5.617188 10.625 5.3125 10.320312 5.3125 9.917969 C 5.3125 9.914062 5.3125 9.914062 5.3125 9.914062 C 5.3125 9.886719 5.3125 9.863281 5.3125 9.835938 C 5.3125 9.832031 5.3125 9.832031 5.3125 9.828125 C 5.3125 9.425781 5.597656 9.097656 5.996094 9.039062 C 6.527344 8.964844 6.914062 8.503906 6.90625 7.96875 C 6.90625 7.148438 7.511719 6.472656 8.328125 6.386719 C 8.335938 6.386719 8.347656 6.382812 8.355469 6.382812 C 8.359375 6.382812 8.363281 6.382812 8.367188 6.382812 C 8.410156 6.378906 8.453125 6.375 8.496094 6.375 Z M 8.496094 6.375 "/>
</g>
</svg>
