<?xml version="1.0" encoding="UTF-8"?>
<svg xmlns="http://www.w3.org/2000/svg" xmlns:xlink="http://www.w3.org/1999/xlink" width="17pt" height="17pt" viewBox="0 0 17 17" version="1.1">
<g id="surface1">
<path style=" stroke:none;fill-rule:evenodd;fill:rgb(76.078431%,20.784314%,16.470588%);fill-opacity:1;" d="M 3.96875 1.007812 L 13.03125 1.007812 C 14.664062 1.007812 15.992188 2.335938 15.992188 3.96875 L 15.992188 13.03125 C 15.992188 14.664062 14.664062 15.992188 13.03125 15.992188 L 3.96875 15.992188 C 2.335938 15.992188 1.007812 14.664062 1.007812 13.03125 L 1.007812 3.96875 C 1.007812 2.335938 2.335938 1.007812 3.96875 1.007812 Z M 3.96875 1.007812 "/>
<path style=" stroke:none;fill-rule:nonzero;fill:rgb(99.607843%,96.862745%,75.294118%);fill-opacity:1;" d="M 2.957031 2.957031 L 2.957031 6.652344 L 6.652344 6.652344 L 6.652344 2.957031 Z M 7.578125 2.957031 L 7.578125 4.804688 L 8.5 4.804688 L 8.5 3.882812 L 9.421875 3.882812 L 9.421875 2.957031 Z M 8.5 4.804688 L 8.5 6.652344 L 9.421875 6.652344 L 9.421875 4.804688 Z M 8.5 6.652344 L 7.578125 6.652344 L 7.578125 7.578125 L 8.5 7.578125 Z M 8.5 7.578125 L 8.5 8.5 L 9.421875 8.5 L 9.421875 7.578125 Z M 9.421875 8.5 L 9.421875 9.421875 L 11.269531 9.421875 L 11.269531 7.578125 L 10.347656 7.578125 L 10.347656 8.5 Z M 11.269531 9.421875 L 11.269531 10.347656 L 12.195312 10.347656 L 12.195312 11.269531 L 13.117188 11.269531 L 13.117188 9.421875 Z M 13.117188 9.421875 L 14.042969 9.421875 L 14.042969 7.578125 L 12.195312 7.578125 L 12.195312 8.5 L 13.117188 8.5 Z M 11.269531 10.347656 L 10.347656 10.347656 L 10.347656 11.269531 L 11.269531 11.269531 Z M 10.347656 11.269531 L 9.421875 11.269531 L 9.421875 12.195312 L 10.347656 12.195312 Z M 10.347656 12.195312 L 10.347656 13.117188 L 11.269531 13.117188 L 11.269531 12.195312 Z M 11.269531 13.117188 L 11.269531 14.042969 L 12.195312 14.042969 L 12.195312 13.117188 Z M 12.195312 13.117188 L 14.042969 13.117188 L 14.042969 12.195312 L 12.195312 12.195312 Z M 9.421875 12.195312 L 7.578125 12.195312 L 7.578125 13.117188 L 8.5 13.117188 L 8.5 14.042969 L 9.421875 14.042969 Z M 9.421875 11.269531 L 9.421875 9.421875 L 7.578125 9.421875 L 7.578125 10.347656 L 8.5 10.347656 L 8.5 11.269531 Z M 7.578125 9.421875 L 7.578125 7.578125 L 6.652344 7.578125 L 6.652344 8.5 L 5.730469 8.5 L 5.730469 9.421875 Z M 5.730469 8.5 L 5.730469 7.578125 L 2.957031 7.578125 L 2.957031 9.421875 L 4.804688 9.421875 L 4.804688 8.5 Z M 10.347656 2.957031 L 10.347656 6.652344 L 14.042969 6.652344 L 14.042969 2.957031 Z M 3.882812 3.882812 L 5.730469 3.882812 L 5.730469 5.730469 L 3.882812 5.730469 Z M 11.269531 3.882812 L 13.117188 3.882812 L 13.117188 5.730469 L 11.269531 5.730469 Z M 4.34375 4.34375 L 4.34375 5.265625 L 5.265625 5.265625 L 5.265625 4.34375 Z M 11.734375 4.34375 L 11.734375 5.265625 L 12.65625 5.265625 L 12.65625 4.34375 Z M 2.957031 10.347656 L 2.957031 14.042969 L 6.652344 14.042969 L 6.652344 10.347656 Z M 3.882812 11.269531 L 5.730469 11.269531 L 5.730469 13.117188 L 3.882812 13.117188 Z M 4.34375 11.734375 L 4.34375 12.65625 L 5.265625 12.65625 L 5.265625 11.734375 Z M 4.34375 11.734375 "/>
</g>
</svg>
