<?xml version="1.0" encoding="UTF-8"?>
<svg xmlns="http://www.w3.org/2000/svg" xmlns:xlink="http://www.w3.org/1999/xlink" width="17pt" height="17pt" viewBox="0 0 17 17" version="1.1">
<g id="surface1">
<path style=" stroke:none;fill-rule:evenodd;fill:rgb(94.901961%,94.901961%,94.901961%);fill-opacity:1;" d="M 0.988281 13.035156 L 0.988281 3.976562 C 0.988281 2.34375 2.3125 1.015625 3.949219 1.015625 L 13.007812 1.015625 C 14.644531 1.015625 15.96875 2.34375 15.96875 3.976562 L 15.96875 13.035156 C 15.96875 14.671875 14.644531 16 13.007812 16 L 3.949219 16 C 2.3125 16 0.988281 14.671875 0.988281 13.035156 Z M 0.988281 13.035156 "/>
<path style=" stroke:none;fill-rule:evenodd;fill:rgb(99.607843%,80.392157%,21.960784%);fill-opacity:1;" d="M 7.71875 1.015625 L 7.148438 1.230469 L 5.371094 1.898438 L 6.035156 3.675781 L 9.589844 2.339844 L 11.367188 1.675781 L 13.074219 1.035156 C 13.042969 1.035156 13.015625 1.015625 12.980469 1.015625 Z M 7.71875 1.015625 "/>
<path style=" stroke:none;fill-rule:evenodd;fill:rgb(55.686275%,73.72549%,82.745098%);fill-opacity:1;" d="M 7.214844 6.65625 L 10.808594 7.875 L 12.609375 8.480469 L 13.214844 6.683594 L 11.417969 6.074219 L 12.023438 4.277344 L 10.226562 3.667969 L 9.621094 5.46875 L 7.820312 4.859375 Z M 7.214844 6.65625 "/>
<path style=" stroke:none;fill-rule:evenodd;fill:rgb(80.784314%,30.588235%,30.980392%);fill-opacity:1;" d="M 2.097656 3.453125 L 3.261719 4.949219 L 4.429688 6.449219 L 5.925781 5.285156 L 4.761719 3.785156 L 3.59375 2.285156 Z M 2.097656 3.453125 "/>
<path style=" stroke:none;fill-rule:evenodd;fill:rgb(80.784314%,30.588235%,30.980392%);fill-opacity:1;" d="M 6.609375 16.042969 L 6.609375 14.183594 L 2.8125 14.183594 L 2.8125 15.785156 C 3.167969 15.933594 3.542969 16.042969 3.953125 16.042969 Z M 6.609375 16.042969 "/>
<path style=" stroke:none;fill-rule:evenodd;fill:rgb(18.823529%,64.313725%,27.45098%);fill-opacity:1;" d="M 8.503906 16.042969 L 8.503906 12.285156 L 4.710938 12.285156 L 4.710938 14.183594 L 6.609375 14.183594 L 6.609375 16.042969 Z M 8.503906 16.042969 "/>
<path style=" stroke:none;fill-rule:evenodd;fill:rgb(100%,70.588235%,14.901961%);fill-opacity:1;" d="M 10.402344 16.042969 L 10.402344 10.386719 L 8.503906 10.386719 L 8.503906 16.042969 Z M 10.402344 16.042969 "/>
<path style=" stroke:none;fill-rule:evenodd;fill:rgb(80.784314%,13.333333%,30.980392%);fill-opacity:1;" d="M 14.199219 15.792969 L 14.199219 12.285156 L 10.402344 12.285156 L 10.402344 16.042969 L 13.015625 16.042969 C 13.4375 16.042969 13.835938 15.949219 14.199219 15.792969 Z M 14.199219 15.792969 "/>
<path style=" stroke:none;fill-rule:evenodd;fill:rgb(99.607843%,80.392157%,21.960784%);fill-opacity:1;" d="M 15.976562 12.285156 L 14.199219 12.285156 L 14.199219 15.789062 C 15.246094 15.335938 15.976562 14.300781 15.976562 13.082031 Z M 15.976562 12.285156 "/>
<path style=" stroke:none;fill-rule:evenodd;fill:rgb(3.137255%,56.470588%,83.529412%);fill-opacity:1;" d="M 15.976562 8.488281 L 14.199219 8.488281 L 14.199219 10.386719 L 10.402344 10.386719 L 10.402344 12.285156 L 15.976562 12.285156 Z M 15.976562 8.488281 "/>
<path style=" stroke:none;fill-rule:evenodd;fill:rgb(18.823529%,64.313725%,93.333333%);fill-opacity:1;" d="M 2.8125 15.785156 L 2.8125 14.183594 L 1.214844 14.183594 C 1.507812 14.914062 2.09375 15.476562 2.8125 15.785156 Z M 2.8125 15.785156 "/>
<path style=" stroke:none;fill-rule:evenodd;fill:rgb(80.784314%,30.588235%,30.980392%);fill-opacity:1;" d="M 1.214844 14.183594 L 4.710938 14.183594 L 4.710938 12.285156 L 2.8125 12.285156 L 2.8125 10.386719 L 0.992188 10.386719 L 0.992188 13.082031 C 0.992188 13.472656 1.078125 13.84375 1.214844 14.183594 Z M 1.214844 14.183594 "/>
</g>
</svg>
