<?xml version="1.0" encoding="UTF-8"?>
<svg xmlns="http://www.w3.org/2000/svg" xmlns:xlink="http://www.w3.org/1999/xlink" width="17pt" height="17pt" viewBox="0 0 17 17" version="1.1">
<g id="surface1">
<path style=" stroke:none;fill-rule:evenodd;fill:rgb(35.294118%,25.098039%,50.196078%);fill-opacity:1;" d="M 3.96875 1.007812 L 13.03125 1.007812 C 14.664062 1.007812 15.992188 2.335938 15.992188 3.96875 L 15.992188 13.03125 C 15.992188 14.664062 14.664062 15.992188 13.03125 15.992188 L 3.96875 15.992188 C 2.335938 15.992188 1.007812 14.664062 1.007812 13.03125 L 1.007812 3.96875 C 1.007812 2.335938 2.335938 1.007812 3.96875 1.007812 Z M 3.96875 1.007812 "/>
<path style=" stroke:none;fill-rule:evenodd;fill:rgb(47.843137%,73.72549%,79.607843%);fill-opacity:1;" d="M 9.507812 15.992188 C 9.59375 15.609375 9.695312 15.257812 9.730469 14.757812 C 9.78125 14.003906 9.773438 13.261719 9.707031 12.976562 C 9.621094 12.628906 9.390625 12 9.40625 11.976562 C 9.421875 11.953125 9.796875 11.992188 10.113281 11.992188 C 10.488281 11.992188 10.765625 12.003906 10.964844 11.945312 C 11.132812 11.894531 11.332031 11.808594 11.453125 11.816406 C 11.71875 11.828125 12.019531 11.777344 12.273438 11.660156 C 12.53125 11.542969 12.742188 11.367188 12.832031 11.128906 C 12.886719 10.984375 13.117188 10.792969 13.179688 10.710938 C 13.28125 10.570312 13.332031 10.457031 13.269531 10.242188 C 13.175781 9.933594 12.808594 9.753906 12.414062 9.398438 C 12.121094 9.128906 11.972656 9.097656 11.957031 8.808594 C 11.945312 8.597656 12.003906 8.449219 11.886719 8.339844 C 11.757812 8.214844 11.425781 8.292969 11.402344 8.292969 C 11.335938 8.210938 11.269531 8.128906 11.25 8.039062 C 11.230469 7.949219 11.261719 7.851562 11.386719 7.734375 C 11.578125 7.558594 11.691406 7.484375 11.691406 7.292969 C 11.691406 7.101562 11.578125 7.046875 11.414062 6.902344 C 11.304688 6.808594 11.1875 6.730469 11.152344 6.730469 C 11.117188 6.730469 10.941406 6.589844 10.761719 6.417969 C 10.585938 6.25 10.4375 6.179688 10.300781 6.152344 C 10.160156 6.121094 10.03125 6.132812 9.894531 6.132812 C 9.785156 6.132812 9.703125 6.078125 9.648438 5.988281 C 9.59375 5.894531 9.566406 5.761719 9.566406 5.601562 C 9.710938 5.074219 10 4.601562 10.308594 4.234375 C 10.613281 3.867188 10.941406 3.597656 11.160156 3.476562 C 10.605469 3.398438 10.125 3.496094 9.691406 3.699219 C 9.257812 3.898438 8.871094 4.207031 8.503906 4.539062 C 8.46875 4.152344 8.992188 3.199219 9.035156 2.945312 C 8.640625 3.152344 8.332031 3.507812 8.078125 3.898438 C 7.820312 4.292969 7.621094 4.71875 7.441406 5.070312 C 7.214844 4.765625 7.265625 4.121094 7.175781 3.742188 C 6.828125 4.199219 6.578125 4.824219 6.378906 5.445312 C 6.179688 6.070312 6.035156 6.691406 5.894531 7.148438 C 5.695312 7.800781 5.46875 8.328125 5.203125 8.746094 C 4.9375 9.167969 4.628906 9.484375 4.269531 9.71875 C 3.839844 9.992188 3.457031 10.136719 2.625 10.324219 C 2.496094 10.363281 1.671875 10.652344 1.007812 10.882812 L 1.007812 13.03125 C 1.007812 14.671875 2.328125 15.992188 3.972656 15.992188 Z M 9.507812 15.992188 "/>
<path style=" stroke:none;fill-rule:evenodd;fill:rgb(35.294118%,25.098039%,50.196078%);fill-opacity:1;" d="M 3.972656 1.007812 C 2.328125 1.007812 1.007812 2.328125 1.007812 3.972656 L 1.007812 10.882812 C 1.671875 10.652344 2.496094 10.363281 2.625 10.324219 C 3.457031 10.136719 3.839844 9.992188 4.269531 9.71875 C 4.628906 9.484375 4.9375 9.167969 5.203125 8.746094 C 5.46875 8.328125 5.695312 7.800781 5.894531 7.148438 C 6.035156 6.691406 6.179688 6.070312 6.378906 5.445312 C 6.578125 4.824219 6.828125 4.199219 7.175781 3.742188 C 7.265625 4.121094 7.214844 4.765625 7.441406 5.070312 C 7.621094 4.71875 7.820312 4.292969 8.078125 3.898438 C 8.332031 3.507812 8.640625 3.152344 9.035156 2.945312 C 8.992188 3.199219 8.46875 4.152344 8.503906 4.539062 C 8.871094 4.207031 9.257812 3.898438 9.691406 3.699219 C 10.125 3.496094 10.605469 3.398438 11.160156 3.476562 C 10.941406 3.597656 10.613281 3.867188 10.308594 4.234375 C 10 4.601562 9.710938 5.074219 9.566406 5.601562 C 9.566406 5.761719 9.59375 5.894531 9.648438 5.988281 C 9.703125 6.078125 9.785156 6.132812 9.894531 6.132812 C 10.03125 6.132812 10.160156 6.121094 10.300781 6.152344 C 10.4375 6.179688 10.585938 6.25 10.761719 6.417969 C 10.941406 6.589844 11.117188 6.730469 11.152344 6.730469 C 11.1875 6.730469 11.304688 6.808594 11.414062 6.902344 C 11.578125 7.046875 11.691406 7.101562 11.691406 7.292969 C 11.691406 7.484375 11.578125 7.558594 11.386719 7.734375 C 11.261719 7.851562 11.230469 7.949219 11.25 8.039062 C 11.269531 8.128906 11.335938 8.210938 11.402344 8.292969 C 11.425781 8.292969 11.757812 8.214844 11.886719 8.339844 C 12.003906 8.449219 11.945312 8.597656 11.957031 8.808594 C 11.972656 9.097656 12.121094 9.128906 12.414062 9.398438 C 12.808594 9.753906 13.175781 9.933594 13.269531 10.242188 C 13.332031 10.457031 13.28125 10.570312 13.179688 10.710938 C 13.117188 10.792969 12.886719 10.984375 12.832031 11.128906 C 12.742188 11.367188 12.53125 11.542969 12.273438 11.660156 C 12.019531 11.777344 11.71875 11.828125 11.453125 11.816406 C 11.332031 11.808594 11.132812 11.894531 10.964844 11.945312 C 10.765625 12.003906 10.488281 11.992188 10.113281 11.992188 C 9.796875 11.992188 9.421875 11.953125 9.40625 11.976562 C 9.390625 12 9.621094 12.628906 9.707031 12.976562 C 9.773438 13.261719 9.78125 14.003906 9.730469 14.757812 C 9.695312 15.257812 9.59375 15.609375 9.507812 15.992188 L 13.03125 15.992188 C 14.671875 15.992188 15.992188 14.671875 15.992188 13.03125 L 15.992188 3.972656 C 15.992188 2.328125 14.671875 1.007812 13.03125 1.007812 Z M 3.972656 1.007812 "/>
</g>
</svg>
