<?xml version="1.0" encoding="UTF-8"?>
<svg xmlns="http://www.w3.org/2000/svg" xmlns:xlink="http://www.w3.org/1999/xlink" width="17pt" height="17pt" viewBox="0 0 17 17" version="1.1">
<g id="surface1">
<path style=" stroke:none;fill-rule:evenodd;fill:rgb(0%,49.411765%,100%);fill-opacity:1;" d="M 3.96875 1.007812 L 13.03125 1.007812 C 14.664062 1.007812 15.992188 2.335938 15.992188 3.96875 L 15.992188 13.03125 C 15.992188 14.664062 14.664062 15.992188 13.03125 15.992188 L 3.96875 15.992188 C 2.335938 15.992188 1.007812 14.664062 1.007812 13.03125 L 1.007812 3.96875 C 1.007812 2.335938 2.335938 1.007812 3.96875 1.007812 Z M 3.96875 1.007812 "/>
<path style="fill-rule:nonzero;fill:rgb(100%,100%,91.372549%);fill-opacity:1;stroke-width:1.129384;stroke-linecap:butt;stroke-linejoin:miter;stroke:rgb(100%,100%,91.764706%);stroke-opacity:1;stroke-miterlimit:4;" d="M 14.323529 24.080882 C 11.536765 23.485294 9.095588 21.117647 8.367647 18.316176 C 8.088235 17.477941 8.102941 15.595588 8.316176 14.661765 C 8.639706 13.102941 9.845588 11.176471 11.080882 10.242647 C 12.735294 8.985294 13.485294 8.727941 16.330882 8.411765 C 21.397059 7.860294 22.992647 7.698529 23.036765 7.75 C 23.066176 7.779412 23.272059 9.558824 23.507353 11.705882 C 24.080882 17.088235 24.014706 18.110294 22.955882 20.213235 C 22.764706 20.602941 22.205882 21.308824 21.639706 21.882353 C 20.852941 22.683824 20.441176 22.985294 19.610294 23.397059 C 17.897059 24.235294 16.110294 24.463235 14.323529 24.080882 Z M 12.014706 19.102941 C 13.838235 18.669118 15.654412 17.551471 17.404412 15.794118 C 18.911765 14.279412 20.294118 12.242647 21.367647 9.970588 C 21.808824 9.036765 23.073529 7.772059 22.764706 7.875 C 22.676471 7.904412 20.676471 8.044118 18.948529 8.220588 C 17.227941 8.389706 14.242647 8.757353 13.808824 8.860294 C 11.073529 9.477941 8.448529 12.169118 8.227941 15.036765 C 8 16.794118 8.301471 18.205882 8.970588 19.639706 L 10.470588 19.404412 C 10.801471 19.367647 11.492647 19.235294 12.014706 19.102941 Z M 12.014706 19.102941 " transform="matrix(0.53125,0,0,0.53125,0,0)"/>
<path style=" stroke:none;fill-rule:nonzero;fill:rgb(60%,60%,60%);fill-opacity:1;" d="M 10.832031 12.109375 L 13.941406 12.109375 L 13.941406 14.554688 L 10.832031 14.554688 Z M 10.832031 12.109375 "/>
<path style=" stroke:none;fill-rule:nonzero;fill:rgb(30.196078%,30.196078%,30.196078%);fill-opacity:1;" d="M 10.765625 7.488281 L 14.007812 7.488281 C 14.390625 7.488281 14.703125 7.800781 14.703125 8.1875 L 14.703125 11.90625 C 14.703125 12.289062 14.390625 12.601562 14.007812 12.601562 L 10.765625 12.601562 C 10.378906 12.601562 10.070312 12.289062 10.070312 11.90625 L 10.070312 8.1875 C 10.070312 7.800781 10.378906 7.488281 10.765625 7.488281 Z M 10.765625 7.488281 "/>
<path style=" stroke:none;fill-rule:nonzero;fill:rgb(30.196078%,30.196078%,30.196078%);fill-opacity:1;" d="M 11.324219 13.636719 L 12.152344 13.636719 L 12.152344 14.109375 L 11.324219 14.109375 Z M 11.324219 13.636719 "/>
<path style=" stroke:none;fill-rule:nonzero;fill:rgb(30.196078%,30.196078%,30.196078%);fill-opacity:1;" d="M 12.621094 13.636719 L 13.449219 13.636719 L 13.449219 14.109375 L 12.621094 14.109375 Z M 12.621094 13.636719 "/>
</g>
</svg>
