<?xml version="1.0" encoding="UTF-8"?>
<svg xmlns="http://www.w3.org/2000/svg" xmlns:xlink="http://www.w3.org/1999/xlink" width="17pt" height="17pt" viewBox="0 0 17 17" version="1.1">
<g id="surface1">
<path style=" stroke:none;fill-rule:evenodd;fill:rgb(0%,49.411765%,100%);fill-opacity:1;" d="M 3.96875 1.007812 L 13.03125 1.007812 C 14.664062 1.007812 15.992188 2.335938 15.992188 3.96875 L 15.992188 13.03125 C 15.992188 14.664062 14.664062 15.992188 13.03125 15.992188 L 3.96875 15.992188 C 2.335938 15.992188 1.007812 14.664062 1.007812 13.03125 L 1.007812 3.96875 C 1.007812 2.335938 2.335938 1.007812 3.96875 1.007812 Z M 3.96875 1.007812 "/>
<path style=" stroke:none;fill-rule:nonzero;fill:rgb(100%,100%,100%);fill-opacity:1;" d="M 8.347656 14.4375 C 8.265625 14.382812 8.160156 14.308594 8.109375 14.273438 L 8.019531 14.207031 L 8.019531 13.421875 C 8.019531 12.988281 8.011719 12.632812 8.003906 12.625 C 7.984375 12.617188 7.988281 12.613281 7.496094 12.910156 L 7.148438 13.117188 L 6.945312 12.988281 L 6.742188 12.855469 L 6.742188 12.277344 L 6.949219 12.160156 C 7.066406 12.09375 7.246094 11.992188 7.351562 11.929688 C 7.597656 11.785156 7.625 11.769531 7.839844 11.648438 L 8.019531 11.546875 L 8.019531 11.027344 C 8.019531 10.664062 8.011719 10.507812 7.996094 10.507812 C 7.984375 10.507812 7.875 10.570312 7.75 10.648438 C 7.625 10.722656 7.492188 10.804688 7.449219 10.832031 C 7.40625 10.855469 7.292969 10.925781 7.195312 10.984375 L 7.023438 11.085938 L 7.019531 10.5625 C 7.015625 10.273438 7.003906 10.027344 6.996094 10.019531 C 6.984375 10.007812 6.953125 10.015625 6.914062 10.039062 C 6.878906 10.0625 6.65625 10.175781 6.417969 10.296875 L 5.988281 10.515625 L 5.984375 11.277344 L 5.980469 12.042969 L 5.785156 12.183594 C 5.679688 12.257812 5.585938 12.324219 5.578125 12.324219 C 5.570312 12.324219 5.492188 12.265625 5.398438 12.195312 L 5.234375 12.066406 L 5.234375 11.566406 C 5.234375 11.261719 5.230469 11.070312 5.21875 11.070312 C 5.207031 11.070312 5.117188 11.117188 5.019531 11.171875 C 4.921875 11.230469 4.6875 11.359375 4.503906 11.464844 C 4.054688 11.714844 4.023438 11.734375 3.925781 11.789062 L 3.839844 11.835938 L 3.742188 11.800781 C 3.6875 11.785156 3.546875 11.730469 3.429688 11.679688 L 3.21875 11.597656 L 3.210938 11.285156 L 3.207031 10.976562 L 3.261719 10.9375 C 3.289062 10.917969 3.363281 10.875 3.421875 10.84375 C 3.480469 10.808594 3.621094 10.730469 3.738281 10.664062 C 3.855469 10.597656 3.984375 10.523438 4.027344 10.5 C 4.097656 10.460938 4.390625 10.292969 4.550781 10.203125 C 4.582031 10.183594 4.609375 10.160156 4.613281 10.152344 C 4.613281 10.140625 4.449219 10.054688 4.246094 9.957031 C 4.042969 9.863281 3.839844 9.765625 3.796875 9.742188 L 3.71875 9.703125 L 3.71875 9.113281 L 3.976562 8.96875 C 4.128906 8.886719 4.25 8.832031 4.265625 8.835938 C 4.292969 8.847656 4.640625 9.050781 5.1875 9.378906 C 5.316406 9.453125 5.453125 9.535156 5.5 9.5625 L 5.578125 9.605469 L 6.015625 9.347656 C 6.253906 9.207031 6.453125 9.082031 6.453125 9.074219 C 6.453125 9.0625 6.101562 8.851562 5.722656 8.636719 C 5.625 8.582031 5.546875 8.53125 5.546875 8.523438 C 5.546875 8.515625 5.609375 8.472656 5.683594 8.425781 C 5.761719 8.378906 5.898438 8.296875 5.988281 8.238281 C 6.078125 8.183594 6.210938 8.101562 6.277344 8.0625 C 6.347656 8.019531 6.40625 7.976562 6.410156 7.964844 C 6.414062 7.945312 6.347656 7.90625 5.910156 7.660156 C 5.753906 7.574219 5.605469 7.488281 5.582031 7.46875 C 5.535156 7.4375 5.511719 7.445312 5.234375 7.609375 C 5.1875 7.640625 5.066406 7.710938 4.964844 7.769531 C 4.863281 7.828125 4.660156 7.949219 4.515625 8.035156 C 4.367188 8.121094 4.234375 8.191406 4.222656 8.191406 C 4.207031 8.191406 4.085938 8.140625 3.953125 8.074219 L 3.710938 7.957031 L 3.714844 7.675781 L 3.71875 7.390625 L 3.808594 7.339844 C 3.859375 7.3125 3.9375 7.265625 3.984375 7.238281 C 4.460938 6.972656 4.597656 6.890625 4.59375 6.875 C 4.589844 6.863281 4.511719 6.8125 4.414062 6.761719 C 4.320312 6.714844 4.179688 6.640625 4.105469 6.597656 C 4.03125 6.558594 3.902344 6.488281 3.816406 6.441406 C 3.730469 6.394531 3.5625 6.304688 3.441406 6.238281 L 3.21875 6.113281 L 3.21875 5.480469 L 3.511719 5.347656 L 3.808594 5.210938 L 3.910156 5.265625 C 3.964844 5.296875 4.203125 5.429688 4.445312 5.5625 C 5.023438 5.882812 5.1875 5.96875 5.214844 5.96875 C 5.230469 5.96875 5.234375 5.824219 5.234375 5.480469 L 5.234375 4.992188 L 5.289062 4.941406 C 5.316406 4.917969 5.402344 4.847656 5.472656 4.792969 L 5.605469 4.691406 L 5.675781 4.734375 C 5.714844 4.757812 5.824219 4.828125 5.917969 4.886719 L 6.089844 4.992188 L 6.078125 5.765625 L 6.0625 6.539062 L 6.136719 6.582031 C 6.246094 6.640625 6.59375 6.839844 6.800781 6.960938 C 6.902344 7.019531 6.992188 7.0625 7 7.058594 C 7.007812 7.054688 7.011719 6.808594 7.011719 6.515625 C 7.011719 6.019531 7.015625 5.984375 7.046875 6 C 7.066406 6.003906 7.246094 6.101562 7.449219 6.210938 C 7.878906 6.445312 7.96875 6.492188 7.996094 6.492188 C 8.011719 6.492188 8.015625 6.320312 8.015625 5.972656 L 8.015625 5.453125 L 7.839844 5.351562 C 7.738281 5.296875 7.632812 5.234375 7.601562 5.214844 C 7.570312 5.199219 7.453125 5.128906 7.339844 5.066406 C 7.230469 5 7.050781 4.898438 6.941406 4.835938 L 6.742188 4.726562 L 6.742188 4.144531 L 6.945312 4.011719 L 7.148438 3.882812 L 7.496094 4.089844 C 7.988281 4.386719 7.984375 4.386719 8 4.375 C 8.011719 4.367188 8.015625 4.011719 8.019531 3.578125 L 8.019531 2.792969 L 8.109375 2.730469 C 8.160156 2.695312 8.269531 2.617188 8.351562 2.5625 L 8.5 2.457031 L 8.742188 2.625 L 8.980469 2.792969 L 8.984375 3.578125 C 8.984375 4.011719 8.992188 4.371094 9 4.375 C 9.007812 4.382812 9.0625 4.359375 9.121094 4.332031 C 9.175781 4.300781 9.328125 4.222656 9.457031 4.15625 C 9.582031 4.089844 9.75 4 9.828125 3.957031 L 9.96875 3.882812 L 10.234375 4.023438 L 10.5 4.167969 L 10.503906 4.429688 L 10.511719 4.691406 L 9.746094 5.074219 L 8.984375 5.457031 L 8.984375 5.972656 C 8.984375 6.339844 8.988281 6.492188 9.003906 6.492188 C 9.015625 6.492188 9.144531 6.425781 9.289062 6.34375 C 9.433594 6.261719 9.601562 6.171875 9.660156 6.136719 C 9.71875 6.105469 9.8125 6.050781 9.871094 6.015625 L 9.976562 5.953125 L 9.980469 6.488281 C 9.984375 6.78125 9.992188 7.035156 9.996094 7.046875 C 10.003906 7.066406 10.152344 6.996094 10.507812 6.816406 L 11.011719 6.558594 L 11.011719 4.910156 L 11.191406 4.804688 L 11.371094 4.695312 L 11.566406 4.804688 L 11.765625 4.910156 L 11.765625 5.429688 C 11.765625 5.792969 11.769531 5.949219 11.785156 5.949219 C 11.804688 5.949219 12.269531 5.714844 12.316406 5.679688 C 12.324219 5.671875 12.417969 5.625 12.515625 5.570312 C 12.617188 5.515625 12.777344 5.433594 12.875 5.382812 C 12.96875 5.332031 13.089844 5.265625 13.140625 5.238281 L 13.234375 5.1875 L 13.332031 5.242188 C 13.390625 5.273438 13.515625 5.347656 13.613281 5.402344 L 13.792969 5.507812 L 13.789062 5.800781 L 13.78125 6.089844 L 13.648438 6.167969 C 13.574219 6.210938 13.484375 6.261719 13.453125 6.277344 C 13.421875 6.296875 13.300781 6.367188 13.183594 6.433594 C 13.066406 6.5 12.925781 6.578125 12.875 6.609375 C 12.820312 6.640625 12.699219 6.710938 12.597656 6.765625 C 12.5 6.820312 12.421875 6.871094 12.421875 6.875 C 12.421875 6.882812 12.53125 6.949219 12.664062 7.023438 C 12.796875 7.097656 12.964844 7.191406 13.035156 7.230469 C 13.105469 7.269531 13.191406 7.316406 13.226562 7.332031 L 13.289062 7.359375 L 13.289062 7.9375 L 13.09375 8.039062 C 12.984375 8.09375 12.878906 8.148438 12.859375 8.160156 C 12.832031 8.175781 12.8125 8.175781 12.773438 8.148438 C 12.742188 8.132812 12.644531 8.074219 12.554688 8.023438 C 12.464844 7.96875 12.261719 7.851562 12.101562 7.757812 C 11.464844 7.382812 11.484375 7.394531 11.433594 7.421875 C 11.386719 7.445312 11.046875 7.664062 10.726562 7.878906 C 10.539062 8 10.519531 7.964844 10.894531 8.199219 C 11.363281 8.492188 11.4375 8.546875 11.421875 8.558594 C 11.414062 8.566406 11.257812 8.660156 11.078125 8.761719 C 10.597656 9.035156 10.523438 9.082031 10.539062 9.097656 C 10.550781 9.109375 10.761719 9.21875 11.015625 9.347656 L 11.472656 9.585938 L 11.699219 9.460938 C 11.824219 9.390625 12.054688 9.265625 12.207031 9.183594 C 12.363281 9.097656 12.5625 8.988281 12.65625 8.9375 L 12.824219 8.847656 L 13.058594 8.996094 L 13.289062 9.140625 L 13.289062 9.675781 L 13.207031 9.722656 C 13.164062 9.75 12.980469 9.851562 12.800781 9.949219 C 12.625 10.050781 12.480469 10.140625 12.484375 10.152344 C 12.492188 10.171875 12.851562 10.394531 13.339844 10.6875 C 13.464844 10.761719 13.621094 10.859375 13.679688 10.898438 L 13.792969 10.972656 L 13.792969 11.566406 L 13.640625 11.628906 C 13.558594 11.664062 13.421875 11.722656 13.339844 11.757812 C 13.253906 11.796875 13.171875 11.828125 13.15625 11.828125 C 13.132812 11.828125 12.0625 11.253906 11.855469 11.125 C 11.820312 11.105469 11.785156 11.089844 11.777344 11.089844 C 11.769531 11.089844 11.765625 11.3125 11.765625 11.585938 L 11.765625 12.085938 L 11.589844 12.21875 C 11.386719 12.367188 11.414062 12.371094 11.171875 12.199219 L 11.011719 12.089844 L 11.007812 11.324219 L 11 10.558594 L 10.953125 10.535156 C 10.925781 10.519531 10.769531 10.4375 10.605469 10.347656 C 10.070312 10.058594 10.011719 10.027344 10 10.039062 C 9.992188 10.046875 9.988281 10.277344 9.988281 10.554688 L 9.988281 11.054688 L 9.941406 11.023438 C 9.914062 11.007812 9.847656 10.96875 9.792969 10.9375 C 9.734375 10.90625 9.652344 10.859375 9.609375 10.835938 C 9.273438 10.644531 9.023438 10.507812 9.003906 10.507812 C 8.988281 10.507812 8.984375 10.660156 8.984375 11.027344 L 8.984375 11.546875 L 9.160156 11.648438 C 9.371094 11.769531 9.398438 11.785156 9.644531 11.925781 C 9.746094 11.984375 9.917969 12.082031 10.019531 12.144531 C 10.125 12.203125 10.21875 12.257812 10.234375 12.269531 C 10.253906 12.285156 10.257812 12.367188 10.253906 12.601562 L 10.246094 12.90625 L 10.050781 13.011719 L 9.851562 13.117188 L 9.433594 12.867188 C 9.203125 12.730469 9.007812 12.621094 8.996094 12.625 C 8.988281 12.632812 8.984375 12.988281 8.980469 13.421875 L 8.980469 14.207031 L 8.890625 14.269531 C 8.5625 14.5 8.5 14.546875 8.496094 14.542969 C 8.492188 14.542969 8.425781 14.496094 8.34375 14.4375 Z M 9.097656 9.070312 C 9.148438 8.972656 9.234375 8.8125 9.289062 8.710938 L 9.386719 8.527344 L 9.222656 8.21875 C 9.132812 8.050781 9.042969 7.875 9.019531 7.828125 L 8.976562 7.75 L 8.558594 7.742188 C 8.328125 7.738281 8.125 7.742188 8.109375 7.742188 C 8.089844 7.746094 8.054688 7.785156 8.03125 7.832031 C 8.003906 7.875 7.910156 8.042969 7.816406 8.203125 C 7.726562 8.363281 7.652344 8.507812 7.652344 8.519531 C 7.652344 8.539062 7.867188 8.890625 8.054688 9.179688 L 8.101562 9.253906 L 8.554688 9.25 L 9.003906 9.242188 Z M 9.097656 9.070312 "/>
</g>
</svg>
