<?xml version="1.0" encoding="UTF-8"?>
<svg xmlns="http://www.w3.org/2000/svg" xmlns:xlink="http://www.w3.org/1999/xlink" width="17pt" height="17pt" viewBox="0 0 17 17" version="1.1">
<g id="surface1">
<path style=" stroke:none;fill-rule:evenodd;fill:rgb(33.72549%,61.176471%,87.058824%);fill-opacity:1;" d="M 3.96875 1.007812 L 13.03125 1.007812 C 14.664062 1.007812 15.992188 2.335938 15.992188 3.96875 L 15.992188 13.03125 C 15.992188 14.664062 14.664062 15.992188 13.03125 15.992188 L 3.96875 15.992188 C 2.335938 15.992188 1.007812 14.664062 1.007812 13.03125 L 1.007812 3.96875 C 1.007812 2.335938 2.335938 1.007812 3.96875 1.007812 Z M 3.96875 1.007812 "/>
<path style=" stroke:none;fill-rule:nonzero;fill:rgb(100%,100%,100%);fill-opacity:1;" d="M 7.714844 3.90625 C 5.554688 3.902344 3.800781 5.617188 3.800781 7.734375 C 3.800781 8.0625 3.84375 8.390625 3.929688 8.707031 C 3.234375 9.042969 2.753906 9.746094 2.753906 10.570312 L 2.753906 11.027344 C 2.753906 12.171875 3.6875 13.09375 4.84375 13.09375 L 12.15625 13.09375 C 13.3125 13.09375 14.246094 12.171875 14.246094 11.027344 L 14.246094 10.570312 C 14.246094 9.699219 13.710938 8.960938 12.949219 8.652344 C 13.277344 8.246094 13.460938 7.742188 13.460938 7.222656 C 13.460938 5.953125 12.410156 4.925781 11.109375 4.925781 C 10.894531 4.925781 10.679688 4.957031 10.46875 5.015625 C 9.738281 4.304688 8.746094 3.90625 7.714844 3.90625 Z M 7.714844 3.90625 "/>
<path style=" stroke:none;fill-rule:nonzero;fill:rgb(66.666667%,80.784314%,93.333333%);fill-opacity:1;" d="M 8.5 5.820312 C 6.808594 5.820312 5.4375 7.191406 5.4375 8.882812 C 5.4375 10.574219 6.808594 11.945312 8.5 11.945312 C 10.191406 11.945312 11.5625 10.574219 11.5625 8.882812 C 11.5625 7.191406 10.191406 5.820312 8.5 5.820312 Z M 8.5 6.585938 C 9.769531 6.585938 10.796875 7.613281 10.796875 8.882812 C 10.796875 10.152344 9.769531 11.179688 8.5 11.179688 C 7.230469 11.179688 6.203125 10.152344 6.203125 8.882812 C 6.203125 7.613281 7.230469 6.585938 8.5 6.585938 Z M 8.5 6.585938 "/>
<path style=" stroke:none;fill-rule:nonzero;fill:rgb(33.72549%,61.176471%,87.058824%);fill-opacity:1;" d="M 8.5 7.351562 C 7.652344 7.351562 6.96875 8.035156 6.96875 8.882812 C 6.96875 9.730469 7.652344 10.414062 8.5 10.414062 C 9.347656 10.414062 10.03125 9.730469 10.03125 8.882812 C 10.03125 8.035156 9.347656 7.351562 8.5 7.351562 Z M 8.5 7.351562 "/>
<path style=" stroke:none;fill-rule:nonzero;fill:rgb(33.72549%,61.176471%,87.058824%);fill-opacity:1;" d="M 6.585938 5.628906 C 6.585938 5.945312 6.328125 6.203125 6.011719 6.203125 C 5.695312 6.203125 5.4375 5.945312 5.4375 5.628906 C 5.4375 5.308594 5.695312 5.054688 6.011719 5.054688 C 6.328125 5.054688 6.585938 5.308594 6.585938 5.628906 Z M 6.585938 5.628906 "/>
</g>
</svg>
