<?xml version="1.0" encoding="UTF-8"?>
<svg xmlns="http://www.w3.org/2000/svg" xmlns:xlink="http://www.w3.org/1999/xlink" width="17pt" height="17pt" viewBox="0 0 17 17" version="1.1">
<g id="surface1">
<path style=" stroke:none;fill-rule:evenodd;fill:rgb(46.666667%,40.392157%,75.294118%);fill-opacity:1;" d="M 3.96875 1.007812 L 13.03125 1.007812 C 14.664062 1.007812 15.992188 2.335938 15.992188 3.96875 L 15.992188 13.03125 C 15.992188 14.664062 14.664062 15.992188 13.03125 15.992188 L 3.96875 15.992188 C 2.335938 15.992188 1.007812 14.664062 1.007812 13.03125 L 1.007812 3.96875 C 1.007812 2.335938 2.335938 1.007812 3.96875 1.007812 Z M 3.96875 1.007812 "/>
<path style=" stroke:none;fill-rule:nonzero;fill:rgb(100%,100%,100%);fill-opacity:1;" d="M 9.949219 2.453125 L 9.15625 3.648438 C 9.007812 3.628906 8.859375 3.617188 8.707031 3.617188 C 8.253906 3.617188 7.804688 3.707031 7.382812 3.878906 L 6.3125 2.929688 L 6.601562 4.339844 C 6.308594 4.566406 6.054688 4.835938 5.847656 5.144531 C 4.554688 4.664062 3.183594 4.414062 1.800781 4.414062 C 1.535156 4.417969 1.269531 4.429688 1.003906 4.453125 L 1.003906 5.003906 C 1.359375 4.96875 1.710938 4.949219 2.066406 4.945312 C 8.164062 4.949219 13.183594 9.742188 13.46875 15.835938 L 13.476562 15.835938 C 13.421875 13.496094 12.667969 11.230469 11.3125 9.324219 C 11.550781 9.050781 11.746094 8.742188 11.886719 8.40625 L 13.335938 8.320312 L 12.125 7.519531 C 12.148438 7.371094 12.160156 7.21875 12.160156 7.070312 C 12.160156 6.621094 12.074219 6.175781 11.902344 5.761719 L 12.859375 4.683594 L 11.445312 4.972656 C 11.078125 4.492188 10.59375 4.117188 10.035156 3.882812 Z M 8.707031 4.148438 C 10.320312 4.148438 11.628906 5.457031 11.628906 7.070312 C 11.628906 7.734375 11.398438 8.382812 10.980469 8.898438 C 9.761719 7.34375 8.167969 6.125 6.347656 5.355469 C 6.894531 4.597656 7.773438 4.148438 8.707031 4.148438 Z M 8.707031 4.148438 "/>
</g>
</svg>
