<?xml version="1.0" encoding="UTF-8"?>
<svg xmlns="http://www.w3.org/2000/svg" xmlns:xlink="http://www.w3.org/1999/xlink" width="17pt" height="17pt" viewBox="0 0 17 17" version="1.1">
<g id="surface1">
<path style=" stroke:none;fill-rule:evenodd;fill:rgb(15.294118%,43.137255%,83.921569%);fill-opacity:1;" d="M 3.96875 1.007812 L 13.03125 1.007812 C 14.664062 1.007812 15.992188 2.335938 15.992188 3.96875 L 15.992188 13.03125 C 15.992188 14.664062 14.664062 15.992188 13.03125 15.992188 L 3.96875 15.992188 C 2.335938 15.992188 1.007812 14.664062 1.007812 13.03125 L 1.007812 3.96875 C 1.007812 2.335938 2.335938 1.007812 3.96875 1.007812 Z M 3.96875 1.007812 "/>
<path style=" stroke:none;fill-rule:nonzero;fill:rgb(100%,78.823529%,27.843137%);fill-opacity:1;" d="M 8.289062 2.785156 C 7.773438 2.785156 7.277344 2.863281 6.808594 2.992188 C 9.128906 3.636719 10.828125 5.753906 10.828125 8.289062 C 10.828125 10.820312 9.128906 12.941406 6.808594 13.585938 C 7.277344 13.714844 7.773438 13.789062 8.289062 13.789062 C 11.335938 13.789062 13.789062 11.335938 13.789062 8.289062 C 13.789062 5.242188 11.335938 2.789062 8.289062 2.789062 Z M 8.289062 2.785156 "/>
<path style=" stroke:none;fill-rule:nonzero;fill:rgb(27.843137%,54.117647%,100%);fill-opacity:1;" d="M 5.539062 9.136719 L 6.257812 10.527344 L 7.863281 10.75 L 6.703125 11.835938 L 6.976562 13.367188 L 5.539062 12.644531 L 4.097656 13.367188 L 4.375 11.835938 L 3.210938 10.75 L 4.820312 10.527344 Z M 5.539062 9.136719 "/>
<path style=" stroke:none;fill-rule:nonzero;fill:rgb(43.529412%,64.313725%,100%);fill-opacity:1;" d="M 7.652344 6.597656 L 8.242188 7.710938 L 9.558594 7.890625 L 8.605469 8.757812 L 8.832031 9.980469 L 7.652344 9.402344 L 6.476562 9.980469 L 6.703125 8.757812 L 5.75 7.890625 L 7.066406 7.710938 Z M 7.652344 6.597656 "/>
<path style=" stroke:none;fill-rule:nonzero;fill:rgb(56.470588%,72.54902%,100%);fill-opacity:1;" d="M 6.171875 4.902344 L 6.566406 5.597656 L 7.441406 5.710938 L 6.808594 6.253906 L 6.957031 7.019531 L 6.171875 6.65625 L 5.386719 7.019531 L 5.539062 6.253906 L 4.902344 5.710938 L 5.78125 5.597656 Z M 6.171875 4.902344 "/>
<path style=" stroke:none;fill-rule:nonzero;fill:rgb(0%,0%,0%);fill-opacity:0.156863;" d="M 7.550781 3.261719 C 7.296875 3.296875 7.050781 3.347656 6.808594 3.417969 C 9.066406 4.042969 10.726562 6.0625 10.820312 8.5 C 10.820312 8.429688 10.828125 8.359375 10.828125 8.289062 C 10.828125 6.035156 9.484375 4.113281 7.550781 3.261719 Z M 5.335938 6.078125 L 4.902344 6.132812 L 5.464844 6.617188 L 5.539062 6.253906 Z M 7.011719 6.078125 L 6.808594 6.253906 L 6.878906 6.617188 L 7.441406 6.132812 Z M 6.171875 6.65625 L 5.480469 6.976562 L 5.386719 7.441406 L 6.171875 7.082031 L 6.957031 7.441406 L 6.867188 6.976562 Z M 6.152344 8.257812 L 5.75 8.3125 L 6.632812 9.117188 L 6.703125 8.757812 Z M 9.152344 8.257812 L 8.605469 8.757812 L 8.671875 9.117188 L 9.558594 8.3125 Z M 13.777344 8.5 C 13.667969 11.449219 11.265625 13.789062 8.289062 13.789062 C 8.039062 13.789062 7.792969 13.773438 7.550781 13.738281 C 7.3125 13.84375 7.0625 13.9375 6.808594 14.007812 C 7.277344 14.136719 7.773438 14.214844 8.289062 14.214844 C 11.335938 14.214844 13.789062 11.757812 13.789062 8.710938 C 13.789062 8.640625 13.78125 8.570312 13.777344 8.5 Z M 7.652344 9.402344 L 6.5625 9.9375 L 6.476562 10.40625 L 7.652344 9.824219 L 8.832031 10.40625 L 8.746094 9.9375 Z M 3.605469 11.117188 L 3.210938 11.175781 L 4.308594 12.199219 L 4.375 11.835938 Z M 7.46875 11.117188 L 6.703125 11.835938 L 6.765625 12.199219 L 7.863281 11.175781 Z M 5.539062 12.644531 L 4.183594 13.324219 L 4.101562 13.789062 L 5.539062 13.066406 L 6.976562 13.789062 L 6.945312 13.617188 C 6.898438 13.605469 6.851562 13.597656 6.808594 13.585938 C 6.847656 13.570312 6.890625 13.554688 6.933594 13.542969 L 6.890625 13.324219 Z M 5.539062 12.644531 "/>
</g>
</svg>
