<?xml version="1.0" encoding="UTF-8"?>
<svg xmlns="http://www.w3.org/2000/svg" xmlns:xlink="http://www.w3.org/1999/xlink" width="17pt" height="17pt" viewBox="0 0 17 17" version="1.1">
<g id="surface1">
<path style=" stroke:none;fill-rule:evenodd;fill:rgb(32.941176%,67.058824%,92.941176%);fill-opacity:1;" d="M 3.96875 1.007812 L 13.03125 1.007812 C 14.664062 1.007812 15.992188 2.335938 15.992188 3.96875 L 15.992188 13.03125 C 15.992188 14.664062 14.664062 15.992188 13.03125 15.992188 L 3.96875 15.992188 C 2.335938 15.992188 1.007812 14.664062 1.007812 13.03125 L 1.007812 3.96875 C 1.007812 2.335938 2.335938 1.007812 3.96875 1.007812 Z M 3.96875 1.007812 "/>
<path style=" stroke:none;fill-rule:nonzero;fill:rgb(100%,100%,100%);fill-opacity:1;" d="M 3.320312 4.242188 C 2.976562 4.242188 2.699219 4.515625 2.699219 4.855469 L 2.699219 12.125 C 2.699219 12.464844 2.976562 12.71875 3.320312 12.71875 L 7.160156 12.71875 L 8.5 14.054688 L 9.839844 12.71875 L 13.679688 12.71875 C 14.023438 12.71875 14.300781 12.464844 14.300781 12.125 L 14.300781 4.855469 C 14.300781 4.515625 14.023438 4.242188 13.679688 4.242188 Z M 3.320312 4.242188 "/>
<path style=" stroke:none;fill-rule:nonzero;fill:rgb(32.941176%,67.058824%,92.941176%);fill-opacity:1;" d="M 12.070312 6.265625 C 11.804688 6.382812 11.523438 6.460938 11.226562 6.496094 C 11.53125 6.3125 11.761719 6.027344 11.871094 5.683594 C 11.589844 5.851562 11.273438 5.976562 10.941406 6.039062 C 10.675781 5.753906 10.292969 5.578125 9.871094 5.578125 C 9.0625 5.578125 8.410156 6.234375 8.410156 7.042969 C 8.410156 7.15625 8.421875 7.269531 8.445312 7.375 C 7.230469 7.316406 6.148438 6.730469 5.429688 5.847656 C 5.300781 6.0625 5.230469 6.3125 5.230469 6.582031 C 5.230469 7.089844 5.488281 7.539062 5.882812 7.800781 C 5.640625 7.792969 5.414062 7.726562 5.21875 7.617188 C 5.21875 7.625 5.21875 7.628906 5.21875 7.636719 C 5.21875 8.347656 5.722656 8.9375 6.390625 9.074219 C 6.269531 9.105469 6.140625 9.125 6.007812 9.125 C 5.914062 9.125 5.820312 9.113281 5.730469 9.097656 C 5.917969 9.679688 6.457031 10.101562 7.097656 10.113281 C 6.597656 10.507812 5.964844 10.742188 5.28125 10.742188 C 5.160156 10.742188 5.046875 10.734375 4.929688 10.722656 C 5.578125 11.136719 6.347656 11.378906 7.175781 11.378906 C 9.871094 11.378906 11.34375 9.148438 11.34375 7.210938 C 11.34375 7.148438 11.339844 7.085938 11.339844 7.023438 C 11.625 6.816406 11.871094 6.558594 12.070312 6.265625 "/>
</g>
</svg>
