<?xml version="1.0" encoding="UTF-8"?>
<svg xmlns="http://www.w3.org/2000/svg" xmlns:xlink="http://www.w3.org/1999/xlink" width="17pt" height="17pt" viewBox="0 0 17 17" version="1.1">
<g id="surface1">
<path style=" stroke:none;fill-rule:evenodd;fill:rgb(29.803922%,34.901961%,41.176471%);fill-opacity:1;" d="M 3.96875 1.007812 L 13.03125 1.007812 C 14.664062 1.007812 15.992188 2.335938 15.992188 3.96875 L 15.992188 13.03125 C 15.992188 14.664062 14.664062 15.992188 13.03125 15.992188 L 3.96875 15.992188 C 2.335938 15.992188 1.007812 14.664062 1.007812 13.03125 L 1.007812 3.96875 C 1.007812 2.335938 2.335938 1.007812 3.96875 1.007812 Z M 3.96875 1.007812 "/>
<path style=" stroke:none;fill-rule:nonzero;fill:rgb(100%,100%,100%);fill-opacity:1;" d="M 9.320312 8.5 L 11.035156 5.449219 L 11.847656 8.5 L 11.035156 11.550781 Z M 8.484375 9.171875 L 10.199219 12.046875 L 7.210938 11.257812 L 5.050781 9.171875 Z M 10.199219 4.953125 L 8.484375 8.164062 L 5.050781 8.164062 L 7.210938 5.742188 Z M 12.648438 7.4375 L 11.601562 3.453125 L 7.695312 4.527344 L 7.117188 5.574219 L 5.941406 5.566406 L 3.085938 8.5 L 5.941406 11.433594 L 7.117188 11.425781 L 7.695312 12.472656 L 11.601562 13.546875 L 12.648438 9.5625 L 12.117188 8.5 "/>
</g>
</svg>
