<?xml version="1.0" encoding="UTF-8"?>
<svg xmlns="http://www.w3.org/2000/svg" xmlns:xlink="http://www.w3.org/1999/xlink" width="17pt" height="17pt" viewBox="0 0 17 17" version="1.1">
<g id="surface1">
<path style=" stroke:none;fill-rule:nonzero;fill:rgb(100%,54.901961%,16.470588%);fill-opacity:1;" d="M 15.9375 3.703125 C 15.910156 3.394531 15.875 3.085938 15.757812 2.816406 C 15.609375 2.460938 15.394531 2.140625 15.125 1.875 C 14.855469 1.605469 14.539062 1.390625 14.183594 1.238281 C 13.914062 1.125 13.605469 1.089844 13.300781 1.0625 L 8.5 1.0625 L 8.5 8.5 L 15.9375 8.5 Z M 15.9375 3.703125 "/>
<path style=" stroke:none;fill-rule:nonzero;fill:rgb(12.54902%,52.54902%,90.588235%);fill-opacity:1;" d="M 3.699219 1.0625 C 3.394531 1.089844 3.085938 1.125 2.816406 1.238281 C 2.460938 1.390625 2.140625 1.605469 1.875 1.875 C 1.605469 2.140625 1.390625 2.460938 1.238281 2.816406 C 1.125 3.085938 1.089844 3.394531 1.0625 3.699219 L 1.0625 8.5 L 8.5 8.5 L 8.5 1.0625 Z M 3.699219 1.0625 "/>
<path style=" stroke:none;fill-rule:nonzero;fill:rgb(12.54902%,52.54902%,90.588235%);fill-opacity:1;" d="M 13.300781 15.9375 C 13.605469 15.910156 13.914062 15.875 14.183594 15.761719 C 14.539062 15.609375 14.859375 15.394531 15.125 15.125 C 15.394531 14.859375 15.609375 14.539062 15.761719 14.183594 C 15.875 13.914062 15.910156 13.605469 15.9375 13.300781 L 15.9375 8.5 L 8.5 8.5 L 8.5 15.9375 Z M 13.300781 15.9375 "/>
<path style=" stroke:none;fill-rule:nonzero;fill:rgb(40%,33.333333%,89.411765%);fill-opacity:1;" d="M 1.0625 13.296875 C 1.089844 13.605469 1.125 13.914062 1.242188 14.183594 C 1.390625 14.539062 1.605469 14.859375 1.875 15.125 C 2.144531 15.394531 2.460938 15.609375 2.816406 15.761719 C 3.085938 15.875 3.394531 15.910156 3.699219 15.9375 L 8.5 15.9375 L 8.5 8.5 L 1.0625 8.5 Z M 1.0625 13.296875 "/>
<path style=" stroke:none;fill-rule:evenodd;fill:rgb(24.705882%,24.705882%,24.705882%);fill-opacity:1;" d="M 5.058594 2.808594 L 11.941406 2.808594 C 13.183594 2.808594 14.191406 3.816406 14.191406 5.058594 L 14.191406 11.941406 C 14.191406 13.183594 13.183594 14.191406 11.941406 14.191406 L 5.058594 14.191406 C 3.816406 14.191406 2.808594 13.183594 2.808594 11.941406 L 2.808594 5.058594 C 2.808594 3.816406 3.816406 2.808594 5.058594 2.808594 Z M 5.058594 2.808594 "/>
<path style="fill:none;stroke-width:2.139934;stroke-linecap:round;stroke-linejoin:miter;stroke:rgb(100%,100%,100%);stroke-opacity:1;stroke-miterlimit:4;" d="M 5.937824 -11.494523 L 13.936946 -11.494523 " transform="matrix(0.496148,0,0,0.496874,2.581303,17.699605)"/>
<path style="fill:none;stroke-width:2.139934;stroke-linecap:round;stroke-linejoin:bevel;stroke:rgb(100%,100%,100%);stroke-opacity:1;stroke-miterlimit:4;" d="M 9.937385 -25.496138 L 9.937385 -19.497692 C 9.937385 -17.980392 8.890256 -17.469384 7.937604 -17.492969 C 7.040065 -17.492969 5.937824 -17.964668 5.937824 -19.497692 L 5.937824 -25.496138 " transform="matrix(0.496148,0,0,0.496874,2.581303,17.699605)"/>
<path style="fill:none;stroke-width:2.139934;stroke-linecap:round;stroke-linejoin:bevel;stroke:rgb(100%,100%,100%);stroke-opacity:1;stroke-miterlimit:4;" d="M 13.936946 -21.494553 C 13.936946 -21.494553 17.936508 -21.030715 17.936508 -23.499276 C 17.936508 -25.959976 13.936946 -25.496138 13.936946 -25.496138 M 13.936946 -17.492969 L 13.936946 -25.496138 " transform="matrix(0.496148,0,0,0.496874,2.581303,17.699605)"/>
</g>
</svg>
