<?xml version="1.0" encoding="UTF-8"?>
<svg xmlns="http://www.w3.org/2000/svg" xmlns:xlink="http://www.w3.org/1999/xlink" width="17pt" height="17pt" viewBox="0 0 17 17" version="1.1">
<g id="surface1">
<path style=" stroke:none;fill-rule:evenodd;fill:rgb(25.098039%,45.490196%,58.039216%);fill-opacity:1;" d="M 3.96875 1.007812 L 13.03125 1.007812 C 14.664062 1.007812 15.992188 2.335938 15.992188 3.96875 L 15.992188 13.03125 C 15.992188 14.664062 14.664062 15.992188 13.03125 15.992188 L 3.96875 15.992188 C 2.335938 15.992188 1.007812 14.664062 1.007812 13.03125 L 1.007812 3.96875 C 1.007812 2.335938 2.335938 1.007812 3.96875 1.007812 Z M 3.96875 1.007812 "/>
<path style=" stroke:none;fill-rule:nonzero;fill:rgb(56.862745%,76.078431%,81.568627%);fill-opacity:1;" d="M 5.3125 3.71875 L 5.3125 4.78125 L 4.25 4.78125 L 4.25 10.625 L 5.3125 10.625 L 5.3125 11.6875 L 6.90625 11.6875 L 6.90625 12.75 L 5.3125 12.75 L 5.3125 13.28125 L 11.6875 13.28125 L 11.6875 12.75 L 10.09375 12.75 L 10.09375 11.6875 L 11.6875 11.6875 L 11.6875 10.625 L 12.75 10.625 L 12.75 4.78125 L 11.6875 4.78125 L 11.6875 3.71875 Z M 5.3125 3.71875 "/>
<path style=" stroke:none;fill-rule:nonzero;fill:rgb(25.098039%,25.098039%,25.098039%);fill-opacity:1;" d="M 5.3125 5.3125 L 5.3125 7.4375 L 7.4375 7.4375 L 7.4375 5.3125 Z M 9.03125 5.3125 L 9.03125 7.4375 L 11.15625 7.4375 L 11.15625 5.3125 Z M 5.3125 9.03125 L 5.3125 10.09375 L 6.375 10.09375 L 6.375 10.625 L 9.5625 10.625 L 9.5625 10.09375 L 10.625 10.09375 L 10.625 9.03125 Z M 5.3125 9.03125 "/>
</g>
</svg>
