<?xml version="1.0" encoding="UTF-8"?>
<svg xmlns="http://www.w3.org/2000/svg" xmlns:xlink="http://www.w3.org/1999/xlink" width="17pt" height="17pt" viewBox="0 0 17 17" version="1.1">
<g id="surface1">
<path style=" stroke:none;fill-rule:evenodd;fill:rgb(76.470588%,15.686275%,22.745098%);fill-opacity:1;" d="M 1.007812 7.277344 L 15.992188 7.277344 L 15.992188 3.96875 C 15.992188 2.328125 14.671875 1.007812 13.03125 1.007812 L 3.972656 1.007812 C 2.328125 1.007812 1.007812 2.328125 1.007812 3.96875 Z M 1.007812 7.277344 "/>
<path style=" stroke:none;fill-rule:evenodd;fill:rgb(62.745098%,0%,18.431373%);fill-opacity:1;" d="M 1.007812 7.277344 L 1.007812 13.027344 C 1.007812 14.671875 2.328125 15.992188 3.972656 15.992188 L 13.03125 15.992188 C 14.671875 15.992188 15.992188 14.671875 15.992188 13.027344 L 15.992188 7.277344 Z M 1.007812 7.277344 "/>
<path style=" stroke:none;fill-rule:nonzero;fill:rgb(70.196078%,70.196078%,70.196078%);fill-opacity:1;" d="M 6.375 10.585938 L 10.625 10.585938 C 10.917969 10.585938 11.15625 10.824219 11.15625 11.117188 L 11.15625 11.648438 C 11.15625 11.941406 10.917969 12.179688 10.625 12.179688 L 6.375 12.179688 C 6.082031 12.179688 5.84375 11.941406 5.84375 11.648438 L 5.84375 11.117188 C 5.84375 10.824219 6.082031 10.585938 6.375 10.585938 Z M 6.375 10.585938 "/>
</g>
</svg>
