<?xml version="1.0" encoding="UTF-8"?>
<svg xmlns="http://www.w3.org/2000/svg" xmlns:xlink="http://www.w3.org/1999/xlink" width="17pt" height="17pt" viewBox="0 0 17 17" version="1.1">
<g id="surface1">
<path style=" stroke:none;fill-rule:evenodd;fill:rgb(100%,100%,100%);fill-opacity:1;" d="M 7.945312 5.726562 L 5.726562 6.28125 L 3.507812 11.273438 L 8.5 13.492188 L 11.828125 10.71875 L 11.273438 7.390625 Z M 7.945312 5.726562 "/>
<path style=" stroke:none;fill-rule:evenodd;fill:rgb(76.862745%,74.509804%,63.529412%);fill-opacity:1;" d="M 15.992188 12.902344 C 15.277344 12.472656 12.007812 10.730469 11.828125 10.71875 L 8.5 13.492188 L 8.488281 13.488281 L 8.488281 15.992188 L 13.03125 15.992188 C 14.671875 15.992188 15.992188 14.671875 15.992188 13.03125 Z M 15.992188 12.902344 "/>
<path style=" stroke:none;fill-rule:evenodd;fill:rgb(91.372549%,90.196078%,86.666667%);fill-opacity:1;" d="M 15.773438 2.886719 C 15.132812 3.65625 12.480469 6.234375 11.273438 7.390625 L 11.828125 10.71875 L 15.992188 12.902344 L 15.992188 3.96875 C 15.992188 3.585938 15.90625 3.222656 15.773438 2.886719 Z M 15.773438 2.886719 "/>
<path style=" stroke:none;fill-rule:evenodd;fill:rgb(23.921569%,39.607843%,78.431373%);fill-opacity:1;" d="M 7.945312 1.007812 L 7.945312 5.726562 L 11.273438 7.390625 C 12.777344 5.910156 14.183594 4.613281 15.773438 2.886719 C 15.339844 1.785156 14.285156 1.007812 13.03125 1.007812 Z M 7.945312 1.007812 "/>
<path style=" stroke:none;fill-rule:evenodd;fill:rgb(69.019608%,67.058824%,51.764706%);fill-opacity:1;" d="M 1.007812 12.375 L 1.007812 13.03125 C 1.007812 14.671875 2.328125 15.992188 3.96875 15.992188 L 8.488281 15.992188 L 8.488281 13.488281 L 3.527344 11.28125 Z M 1.007812 12.375 "/>
<path style=" stroke:none;fill-rule:evenodd;fill:rgb(83.921569%,82.352941%,75.294118%);fill-opacity:1;" d="M 1.007812 12.375 L 3.527344 11.28125 L 3.507812 11.273438 L 5.722656 6.289062 L 1.09375 3.535156 C 1.074219 3.683594 1.007812 3.816406 1.007812 3.96875 Z M 1.007812 12.375 "/>
<path style=" stroke:none;fill-rule:evenodd;fill:rgb(86.666667%,33.72549%,22.352941%);fill-opacity:1;" d="M 1.09375 3.535156 L 5.722656 6.289062 L 5.726562 6.28125 L 7.945312 5.726562 L 7.945312 1.007812 L 3.96875 1.007812 C 2.484375 1.007812 1.3125 2.113281 1.09375 3.535156 Z M 1.09375 3.535156 "/>
</g>
</svg>
