<?xml version="1.0" encoding="UTF-8"?>
<svg xmlns="http://www.w3.org/2000/svg" xmlns:xlink="http://www.w3.org/1999/xlink" width="17pt" height="17pt" viewBox="0 0 17 17" version="1.1">
<g id="surface1">
<path style=" stroke:none;fill-rule:evenodd;fill:rgb(80%,80%,80%);fill-opacity:1;" d="M 1.007812 4.125 L 1.007812 13.03125 C 1.007812 14.671875 2.328125 15.992188 3.972656 15.992188 L 13.03125 15.992188 C 14.671875 15.992188 15.992188 14.671875 15.992188 13.03125 L 15.992188 4.125 Z M 1.007812 4.125 "/>
<path style=" stroke:none;fill-rule:evenodd;fill:rgb(96.862745%,75.686275%,24.313725%);fill-opacity:1;" d="M 12.023438 1.007812 C 12.007812 1.050781 11.953125 1.050781 11.953125 1.101562 L 11.953125 2.578125 C 11.953125 2.757812 12.0625 2.902344 12.203125 2.902344 L 12.765625 2.902344 C 12.90625 2.902344 13.015625 2.757812 13.015625 2.578125 L 13.015625 1.101562 C 13.015625 1.050781 12.960938 1.050781 12.945312 1.007812 Z M 12.023438 1.007812 "/>
<path style=" stroke:none;fill-rule:evenodd;fill:rgb(96.862745%,75.686275%,24.313725%);fill-opacity:1;" d="M 9.367188 1.007812 C 9.351562 1.050781 9.296875 1.050781 9.296875 1.101562 L 9.296875 2.578125 C 9.296875 2.757812 9.40625 2.902344 9.546875 2.902344 L 10.109375 2.902344 C 10.25 2.902344 10.359375 2.757812 10.359375 2.578125 L 10.359375 1.101562 C 10.359375 1.050781 10.304688 1.050781 10.289062 1.007812 Z M 9.367188 1.007812 "/>
<path style=" stroke:none;fill-rule:evenodd;fill:rgb(96.862745%,75.686275%,24.313725%);fill-opacity:1;" d="M 6.710938 1.007812 C 6.695312 1.050781 6.640625 1.050781 6.640625 1.101562 L 6.640625 2.578125 C 6.640625 2.757812 6.75 2.902344 6.890625 2.902344 L 7.453125 2.902344 C 7.59375 2.902344 7.703125 2.757812 7.703125 2.578125 L 7.703125 1.101562 C 7.703125 1.050781 7.648438 1.050781 7.632812 1.007812 Z M 6.710938 1.007812 "/>
<path style=" stroke:none;fill-rule:evenodd;fill:rgb(30.980392%,30.980392%,30.980392%);fill-opacity:1;" d="M 4.054688 1.007812 L 3.972656 1.007812 C 2.328125 1.007812 1.007812 2.328125 1.007812 3.972656 L 1.007812 4.125 L 15.992188 4.125 L 15.992188 3.972656 C 15.992188 2.328125 14.671875 1.007812 13.03125 1.007812 L 12.945312 1.007812 C 12.960938 1.050781 13.015625 1.050781 13.015625 1.101562 L 13.015625 2.578125 C 13.015625 2.757812 12.90625 2.902344 12.765625 2.902344 L 12.203125 2.902344 C 12.0625 2.902344 11.953125 2.757812 11.953125 2.578125 L 11.953125 1.101562 C 11.953125 1.050781 12.007812 1.050781 12.023438 1.007812 L 10.289062 1.007812 C 10.304688 1.050781 10.359375 1.050781 10.359375 1.101562 L 10.359375 2.578125 C 10.359375 2.757812 10.25 2.902344 10.109375 2.902344 L 9.546875 2.902344 C 9.40625 2.902344 9.296875 2.757812 9.296875 2.578125 L 9.296875 1.101562 C 9.296875 1.050781 9.351562 1.050781 9.367188 1.007812 L 7.632812 1.007812 C 7.648438 1.050781 7.703125 1.050781 7.703125 1.101562 L 7.703125 2.578125 C 7.703125 2.757812 7.59375 2.902344 7.453125 2.902344 L 6.890625 2.902344 C 6.75 2.902344 6.640625 2.757812 6.640625 2.578125 L 6.640625 1.101562 C 6.640625 1.050781 6.695312 1.050781 6.710938 1.007812 L 4.976562 1.007812 C 4.992188 1.050781 5.046875 1.050781 5.046875 1.101562 L 5.046875 2.578125 C 5.046875 2.757812 4.9375 2.902344 4.796875 2.902344 L 4.234375 2.902344 C 4.09375 2.902344 3.984375 2.757812 3.984375 2.578125 L 3.984375 1.101562 C 3.984375 1.050781 4.039062 1.050781 4.054688 1.007812 Z M 4.054688 1.007812 "/>
<path style=" stroke:none;fill-rule:evenodd;fill:rgb(96.862745%,75.686275%,24.313725%);fill-opacity:1;" d="M 4.054688 1.007812 C 4.039062 1.050781 3.984375 1.050781 3.984375 1.101562 L 3.984375 2.578125 C 3.984375 2.757812 4.09375 2.902344 4.234375 2.902344 L 4.796875 2.902344 C 4.9375 2.902344 5.046875 2.757812 5.046875 2.578125 L 5.046875 1.101562 C 5.046875 1.050781 4.992188 1.050781 4.976562 1.007812 Z M 4.054688 1.007812 "/>
<path style=" stroke:none;fill-rule:nonzero;fill:rgb(30.980392%,30.980392%,30.980392%);fill-opacity:1;" d="M 6.105469 6.902344 C 5.886719 6.902344 5.691406 7.035156 5.613281 7.234375 C 5.53125 7.433594 5.578125 7.664062 5.734375 7.8125 L 7.75 9.828125 L 5.734375 11.84375 C 5.59375 11.976562 5.535156 12.175781 5.585938 12.363281 C 5.632812 12.550781 5.777344 12.699219 5.964844 12.746094 C 6.152344 12.792969 6.351562 12.734375 6.484375 12.59375 L 8.5 10.578125 L 10.515625 12.59375 C 10.648438 12.734375 10.847656 12.792969 11.035156 12.746094 C 11.222656 12.699219 11.367188 12.550781 11.414062 12.363281 C 11.464844 12.175781 11.40625 11.976562 11.265625 11.84375 L 9.25 9.828125 L 11.265625 7.8125 C 11.472656 7.605469 11.472656 7.269531 11.265625 7.0625 C 11.058594 6.855469 10.722656 6.855469 10.515625 7.0625 L 8.5 9.078125 L 6.484375 7.0625 C 6.386719 6.960938 6.246094 6.902344 6.105469 6.902344 Z M 6.105469 6.902344 "/>
</g>
</svg>
