<?xml version="1.0" encoding="UTF-8"?>
<svg xmlns="http://www.w3.org/2000/svg" xmlns:xlink="http://www.w3.org/1999/xlink" width="17pt" height="17pt" viewBox="0 0 17 17" version="1.1">
<defs>
<clipPath id="clip1">
  <rect width="17" height="17"/>
</clipPath>
<g id="surface6" clip-path="url(#clip1)">
<path style=" stroke:none;fill-rule:nonzero;fill:rgb(100%,100%,100%);fill-opacity:1;" d="M 8.507812 3.816406 C 9.441406 3.820312 10.386719 4.128906 11.121094 4.734375 C 11.640625 5.367188 10.652344 6.042969 10.207031 5.425781 C 8.867188 4.570312 6.980469 4.871094 5.96875 6.152344 C 5.433594 6.789062 5.132812 7.640625 5.136719 8.492188 L 6.019531 8.492188 C 5.546875 9.242188 5.078125 9.988281 4.605469 10.738281 L 3.1875 8.492188 L 4.074219 8.492188 C 4.042969 6.457031 5.429688 4.519531 7.285156 3.992188 C 7.683594 3.878906 8.09375 3.8125 8.507812 3.816406 Z M 12.394531 6.253906 C 12.867188 7.003906 13.339844 7.753906 13.8125 8.5 L 12.925781 8.5 C 12.953125 10.558594 11.53125 12.519531 9.644531 13.015625 C 8.367188 13.394531 6.925781 13.121094 5.878906 12.257812 C 5.34375 11.613281 6.34375 10.945312 6.792969 11.566406 C 8.089844 12.398438 9.910156 12.136719 10.933594 10.945312 C 11.527344 10.296875 11.867188 9.402344 11.863281 8.5 L 10.980469 8.5 Z M 12.394531 6.253906 "/>
</g>
</defs>
<g id="surface1">
<path style=" stroke:none;fill-rule:evenodd;fill:rgb(36.470588%,70.588235%,24.313725%);fill-opacity:1;" d="M 3.96875 1.007812 L 13.03125 1.007812 C 14.664062 1.007812 15.992188 2.335938 15.992188 3.96875 L 15.992188 13.03125 C 15.992188 14.664062 14.664062 15.992188 13.03125 15.992188 L 3.96875 15.992188 C 2.335938 15.992188 1.007812 14.664062 1.007812 13.03125 L 1.007812 3.96875 C 1.007812 2.335938 2.335938 1.007812 3.96875 1.007812 Z M 3.96875 1.007812 "/>
<use xlink:href="#surface6"/>
</g>
</svg>
