<?xml version="1.0" encoding="UTF-8"?>
<svg xmlns="http://www.w3.org/2000/svg" xmlns:xlink="http://www.w3.org/1999/xlink" width="17pt" height="17pt" viewBox="0 0 17 17" version="1.1">
<g id="surface1">
<path style=" stroke:none;fill-rule:evenodd;fill:rgb(80%,80%,80%);fill-opacity:1;" d="M 3.980469 1.019531 L 13.148438 1.019531 C 14.804688 1.019531 16.148438 2.363281 16.148438 4.015625 L 16.148438 13.1875 C 16.148438 14.839844 14.804688 16.183594 13.148438 16.183594 L 3.980469 16.183594 C 2.324219 16.183594 0.984375 14.839844 0.984375 13.1875 L 0.984375 4.015625 C 0.984375 2.363281 2.324219 1.019531 3.980469 1.019531 Z M 3.980469 1.019531 "/>
<path style=" stroke:none;fill-rule:nonzero;fill:rgb(70.196078%,70.196078%,70.196078%);fill-opacity:1;" d="M 8.859375 16.183594 L 13.222656 16.183594 C 13.636719 16.183594 14.03125 16.097656 14.386719 15.945312 C 14.746094 15.796875 15.070312 15.578125 15.34375 15.304688 C 15.613281 15.035156 15.832031 14.710938 15.984375 14.351562 C 16.136719 13.992188 16.21875 13.601562 16.21875 13.1875 L 16.21875 4.015625 C 16.21875 3.601562 16.136719 3.207031 15.984375 2.851562 C 15.832031 2.492188 15.613281 2.167969 15.34375 1.898438 C 15.070312 1.625 14.746094 1.40625 14.386719 1.253906 C 14.03125 1.101562 13.636719 1.019531 13.222656 1.019531 L 8.859375 1.019531 Z M 8.859375 16.183594 "/>
<path style=" stroke:none;fill-rule:nonzero;fill:rgb(76.078431%,20.784314%,16.470588%);fill-opacity:1;" d="M 5.535156 1.019531 C 5.101562 1.019531 5.101562 1.386719 5.101562 1.386719 L 5.101562 7.46875 L 6.179688 6.933594 L 7.253906 7.46875 L 7.253906 1.386719 C 7.253906 1.019531 6.824219 1.019531 6.824219 1.019531 Z M 5.535156 1.019531 "/>
</g>
</svg>
