<?xml version="1.0" encoding="UTF-8"?>
<svg xmlns="http://www.w3.org/2000/svg" xmlns:xlink="http://www.w3.org/1999/xlink" width="17pt" height="17pt" viewBox="0 0 17 17" version="1.1">
<g id="surface1">
<path style=" stroke:none;fill-rule:evenodd;fill:rgb(0.784314%,65.882353%,95.294118%);fill-opacity:1;" d="M 4.015625 1.019531 L 13.1875 1.019531 C 14.839844 1.019531 16.183594 2.363281 16.183594 4.015625 L 16.183594 13.1875 C 16.183594 14.839844 14.839844 16.183594 13.1875 16.183594 L 4.015625 16.183594 C 2.363281 16.183594 1.019531 14.839844 1.019531 13.1875 L 1.019531 4.015625 C 1.019531 2.363281 2.363281 1.019531 4.015625 1.019531 Z M 4.015625 1.019531 "/>
<path style=" stroke:none;fill-rule:nonzero;fill:rgb(100%,100%,100%);fill-opacity:1;" d="M 8.601562 3.226562 C 5.632812 3.226562 3.226562 5.632812 3.226562 8.601562 C 3.230469 11.359375 5.320312 13.667969 8.0625 13.945312 L 8.0625 13.976562 L 8.601562 13.976562 C 11.570312 13.976562 13.976562 11.570312 13.976562 8.601562 C 13.976562 5.632812 11.570312 3.226562 8.601562 3.226562 Z M 9.140625 4.339844 C 9.273438 4.355469 9.40625 4.378906 9.539062 4.40625 C 9.621094 4.546875 9.964844 5.160156 10.285156 6.085938 C 9.949219 6.125 9.566406 6.15625 9.140625 6.171875 Z M 8.0625 4.339844 L 8.0625 6.171875 C 7.636719 6.15625 7.253906 6.125 6.917969 6.085938 C 7.238281 5.160156 7.582031 4.546875 7.660156 4.410156 C 7.792969 4.378906 7.929688 4.355469 8.0625 4.339844 Z M 11.0625 5.078125 C 11.351562 5.28125 11.613281 5.519531 11.847656 5.78125 C 11.722656 5.820312 11.566406 5.863281 11.371094 5.90625 C 11.273438 5.601562 11.167969 5.328125 11.0625 5.078125 Z M 6.132812 5.082031 C 6.03125 5.332031 5.929688 5.601562 5.832031 5.90625 C 5.636719 5.863281 5.472656 5.820312 5.355469 5.78125 C 5.585938 5.519531 5.847656 5.285156 6.132812 5.082031 Z M 4.742188 6.714844 C 4.84375 6.75 5.101562 6.835938 5.5625 6.9375 C 5.46875 7.378906 5.402344 8.113281 5.382812 8.601562 L 4.3125 8.601562 C 4.347656 8.039062 4.496094 7.222656 4.742188 6.714844 Z M 12.464844 6.714844 C 12.710938 7.222656 12.859375 8.039062 12.894531 8.601562 L 11.820312 8.601562 C 11.800781 8.113281 11.730469 7.378906 11.640625 6.9375 C 12.101562 6.835938 12.363281 6.75 12.464844 6.714844 Z M 6.625 7.125 C 7.042969 7.183594 7.527344 7.222656 8.0625 7.242188 L 8.0625 8.601562 L 6.457031 8.601562 C 6.480469 8.1875 6.542969 7.511719 6.625 7.125 Z M 10.578125 7.125 C 10.660156 7.511719 10.722656 8.1875 10.742188 8.601562 L 9.140625 8.601562 L 9.140625 7.242188 C 9.675781 7.222656 10.160156 7.183594 10.578125 7.125 Z M 4.378906 9.675781 L 5.421875 9.675781 C 5.476562 10.210938 5.589844 10.433594 5.71875 10.898438 C 5.484375 10.972656 5.28125 11.042969 5.113281 11.109375 C 4.746094 10.601562 4.5 10.289062 4.378906 9.675781 Z M 6.507812 9.675781 L 8.0625 9.675781 L 8.0625 10.507812 C 7.589844 10.53125 7.15625 10.578125 6.769531 10.644531 C 6.65625 10.257812 6.5625 10.113281 6.507812 9.675781 Z M 9.140625 9.675781 L 10.695312 9.675781 C 10.640625 10.113281 10.546875 10.257812 10.429688 10.644531 C 10.046875 10.578125 9.613281 10.53125 9.140625 10.507812 Z M 11.777344 9.675781 L 12.824219 9.675781 C 12.703125 10.289062 12.457031 10.601562 12.085938 11.109375 C 11.921875 11.042969 11.71875 10.972656 11.484375 10.898438 C 11.613281 10.433594 11.722656 10.210938 11.777344 9.675781 Z M 8.0625 11.578125 L 8.0625 12.863281 C 7.929688 12.847656 7.792969 12.824219 7.664062 12.796875 C 7.601562 12.6875 7.382812 12.304688 7.121094 11.667969 C 7.402344 11.625 7.722656 11.597656 8.0625 11.578125 Z M 9.140625 11.578125 C 9.480469 11.597656 9.800781 11.625 10.078125 11.667969 C 9.820312 12.304688 9.605469 12.683594 9.542969 12.792969 C 9.40625 12.824219 9.273438 12.847656 9.140625 12.863281 Z M 6.050781 11.90625 C 6.082031 11.984375 6.109375 12.054688 6.136719 12.128906 C 6.058594 12.070312 5.984375 12.011719 5.910156 11.953125 C 5.957031 11.9375 6 11.921875 6.050781 11.90625 Z M 11.152344 11.90625 C 11.203125 11.921875 11.246094 11.9375 11.292969 11.953125 C 11.222656 12.011719 11.144531 12.066406 11.066406 12.117188 C 11.09375 12.050781 11.125 11.980469 11.152344 11.90625 Z M 11.152344 11.90625 "/>
<path style=" stroke:none;fill-rule:evenodd;fill:rgb(80%,36.862745%,33.333333%);fill-opacity:1;" d="M 15.019531 12.132812 C 15.019531 13.617188 13.820312 14.820312 12.332031 14.820312 C 10.851562 14.820312 9.644531 13.617188 9.644531 12.132812 C 9.644531 10.648438 10.851562 9.441406 12.332031 9.441406 C 13.820312 9.441406 15.019531 10.648438 15.019531 12.132812 Z M 15.019531 12.132812 "/>
<path style=" stroke:none;fill-rule:nonzero;fill:rgb(100%,100%,100%);fill-opacity:1;" d="M 11.996094 10.785156 L 11.96875 11.144531 C 11.859375 11.183594 11.75 11.246094 11.660156 11.320312 L 11.335938 11.171875 L 11 11.75 L 11.292969 11.953125 C 11.285156 12.011719 11.277344 12.070312 11.277344 12.132812 C 11.277344 12.191406 11.285156 12.253906 11.292969 12.308594 L 11 12.515625 L 11.335938 13.09375 L 11.660156 12.945312 C 11.75 13.019531 11.855469 13.078125 11.96875 13.121094 L 11.996094 13.476562 L 12.667969 13.476562 L 12.699219 13.125 C 12.8125 13.078125 12.917969 13.019531 13.007812 12.941406 L 13.328125 13.09375 L 13.664062 12.515625 L 13.371094 12.308594 C 13.382812 12.25 13.386719 12.191406 13.390625 12.132812 C 13.390625 12.070312 13.382812 12.011719 13.375 11.953125 L 13.664062 11.75 L 13.328125 11.171875 L 13.007812 11.320312 C 12.917969 11.246094 12.8125 11.183594 12.699219 11.144531 L 12.667969 10.785156 Z M 12.332031 11.746094 C 12.546875 11.746094 12.71875 11.921875 12.71875 12.132812 C 12.71875 12.34375 12.546875 12.515625 12.332031 12.515625 C 12.125 12.515625 11.949219 12.34375 11.949219 12.132812 C 11.949219 11.921875 12.125 11.746094 12.332031 11.746094 Z M 12.332031 11.746094 "/>
</g>
</svg>
