<?xml version="1.0" encoding="UTF-8"?>
<svg xmlns="http://www.w3.org/2000/svg" xmlns:xlink="http://www.w3.org/1999/xlink" width="17pt" height="17pt" viewBox="0 0 17 17" version="1.1">
<g id="surface1">
<path style=" stroke:none;fill-rule:evenodd;fill:rgb(69.411765%,83.921569%,97.647059%);fill-opacity:1;" d="M 4.015625 1.019531 L 13.1875 1.019531 C 14.839844 1.019531 16.183594 2.363281 16.183594 4.015625 L 16.183594 13.1875 C 16.183594 14.839844 14.839844 16.183594 13.1875 16.183594 L 4.015625 16.183594 C 2.363281 16.183594 1.019531 14.839844 1.019531 13.1875 L 1.019531 4.015625 C 1.019531 2.363281 2.363281 1.019531 4.015625 1.019531 Z M 4.015625 1.019531 "/>
<path style=" stroke:none;fill-rule:nonzero;fill:rgb(45.098039%,65.098039%,85.882353%);fill-opacity:1;" d="M 11.03125 7.753906 C 11.402344 6.335938 12.070312 3.675781 13.859375 3.886719 C 12.808594 5.132812 13.25 6.796875 13.097656 7.421875 C 12.273438 9.726562 12.820312 10.675781 14.058594 11.597656 C 12.679688 11.667969 12.097656 11.027344 11.085938 10.1875 Z M 11.03125 7.753906 "/>
<path style=" stroke:none;fill-rule:nonzero;fill:rgb(36.470588%,54.901961%,76.078431%);fill-opacity:1;" d="M 3.535156 8.324219 C 4.074219 6.609375 5.015625 5.128906 6.128906 4.617188 C 5.332031 4.730469 4.398438 4.871094 3.636719 5.90625 C 2.972656 7.175781 3.46875 7.46875 3.535156 8.324219 Z M 3.535156 8.324219 "/>
<path style=" stroke:none;fill-rule:nonzero;fill:rgb(97.647059%,97.647059%,97.647059%);fill-opacity:1;" d="M 3.304688 6.855469 C 3.25 7.621094 3.328125 7.863281 3.535156 8.324219 L 4.175781 6.507812 C 3.910156 6.464844 3.664062 6.480469 3.304688 6.855469 Z M 3.304688 6.855469 "/>
<path style=" stroke:none;fill-rule:evenodd;fill:rgb(16.470588%,24.313725%,34.509804%);fill-opacity:1;" d="M 4.253906 7.550781 C 4.253906 7.300781 4.054688 7.097656 3.808594 7.097656 C 3.570312 7.097656 3.371094 7.300781 3.371094 7.550781 C 3.371094 7.804688 3.570312 8.003906 3.808594 8.003906 C 4.054688 8.003906 4.253906 7.804688 4.253906 7.550781 Z M 4.253906 7.550781 "/>
<path style=" stroke:none;fill-rule:nonzero;fill:rgb(16.862745%,38.039216%,64.313725%);fill-opacity:1;" d="M 3.777344 10.449219 C 2.859375 8.675781 4.191406 4.164062 7.257812 4.554688 C 10 4.902344 10.886719 6.570312 12.148438 8.273438 C 12.347656 8.636719 12.386719 8.90625 12.296875 9.355469 C 11.359375 11.9375 9.570312 13.464844 7.964844 13.476562 C 6.234375 13.484375 4.703125 12.226562 3.777344 10.449219 Z M 3.777344 10.449219 "/>
<path style=" stroke:none;fill-rule:evenodd;fill:rgb(36.470588%,54.901961%,76.078431%);fill-opacity:1;" d="M 9.734375 7.324219 C 9.734375 8.105469 9.929688 8.753906 9.5625 9.21875 C 9.171875 9.71875 8.554688 9.773438 8.175781 9.757812 C 7.253906 9.71875 6.40625 8.6875 6.40625 7.324219 C 6.40625 5.960938 7.152344 4.855469 8.070312 4.855469 C 8.988281 4.855469 9.734375 5.960938 9.734375 7.324219 Z M 9.734375 7.324219 "/>
<path style=" stroke:none;fill-rule:evenodd;fill:rgb(97.647059%,97.647059%,97.647059%);fill-opacity:1;" d="M 9.707031 7.699219 C 9.707031 8.457031 8.84375 9.382812 7.992188 9.382812 C 7.144531 9.382812 6.421875 8.375 6.421875 7.617188 C 6.421875 7.375 6.414062 6.769531 6.539062 6.574219 C 6.796875 6.152344 7.4375 6.179688 8.007812 6.28125 C 8.832031 6.429688 9.707031 6.941406 9.707031 7.699219 Z M 9.707031 7.699219 "/>
<path style=" stroke:none;fill-rule:evenodd;fill:rgb(16.470588%,24.313725%,34.509804%);fill-opacity:1;" d="M 9.078125 7.300781 C 9.078125 7.046875 8.882812 6.847656 8.636719 6.847656 C 8.394531 6.847656 8.199219 7.046875 8.199219 7.300781 C 8.199219 7.550781 8.394531 7.75 8.636719 7.75 C 8.882812 7.75 9.078125 7.550781 9.078125 7.300781 Z M 9.078125 7.300781 "/>
<path style=" stroke:none;fill-rule:nonzero;fill:rgb(36.470588%,54.901961%,76.078431%);fill-opacity:1;" d="M 3.777344 10.449219 C 4.894531 12.054688 7.632812 11.214844 8.304688 10.636719 C 7.90625 13.023438 5.625 13.257812 4.371094 12.363281 C 3.769531 11.9375 3.394531 11.175781 3.777344 10.449219 Z M 3.777344 10.449219 "/>
<path style="fill:none;stroke-width:0.4;stroke-linecap:round;stroke-linejoin:miter;stroke:rgb(27.058824%,42.352941%,60.784314%);stroke-opacity:1;stroke-miterlimit:4;" d="M -64.482372 35.425512 C -59.737459 40.737923 -52.060474 39.555635 -48.576667 36.355578 " transform="matrix(0.247798,0,0,0.247798,19.712996,2.385682)"/>
</g>
</svg>
