<?xml version="1.0" encoding="UTF-8"?>
<svg xmlns="http://www.w3.org/2000/svg" xmlns:xlink="http://www.w3.org/1999/xlink" width="17pt" height="17pt" viewBox="0 0 17 17" version="1.1">
<defs>
<filter id="alpha" filterUnits="objectBoundingBox" x="0%" y="0%" width="100%" height="100%">
  <feColorMatrix type="matrix" in="SourceGraphic" values="0 0 0 0 1 0 0 0 0 1 0 0 0 0 1 0 0 0 1 0"/>
</filter>
<image id="image9" width="17" height="17" xlink:href="data:image/png;base64,iVBORw0KGgoAAAANSUhEUgAAABEAAAARCAYAAAA7bUf6AAAABmJLR0QA/wD/AP+gvaeTAAAAS0lEQVQ4jWNgGAWDFzAic5gFBfmQ+S9ZWf+KvHr1lZAhLMgc0R8/uJH5G3///s3AwEDQEFSXSEtzoshycPz7e/fuT0KGjIJRQAwAAAL3EK67MclxAAAAAElFTkSuQmCC"/>
<mask id="mask0">
  <g filter="url(#alpha)">
<use xlink:href="#image9"/>
  </g>
</mask>
<clipPath id="clip1">
  <rect width="17" height="17"/>
</clipPath>
<g id="surface11" clip-path="url(#clip1)">
<path style=" stroke:none;fill-rule:nonzero;fill:rgb(100%,100%,100%);fill-opacity:1;" d="M 3.019531 6.410156 L 3.019531 6.8125 L 4.214844 6.8125 L 4.214844 6.410156 Z M 4.214844 6.8125 L 4.214844 7.207031 C 6.261719 7.554688 7.453125 7.972656 7.738281 8.402344 C 7.78125 8.328125 7.808594 8.257812 7.804688 8.1875 C 7.773438 7.695312 6.554688 7.203125 4.214844 6.8125 Z M 4.214844 6.8125 "/>
</g>
</defs>
<g id="surface1">
<path style=" stroke:none;fill-rule:evenodd;fill:rgb(26.27451%,76.862745%,76.862745%);fill-opacity:1;" d="M 4.015625 1.019531 L 13.1875 1.019531 C 14.839844 1.019531 16.183594 2.363281 16.183594 4.015625 L 16.183594 13.1875 C 16.183594 14.839844 14.839844 16.183594 13.1875 16.183594 L 4.015625 16.183594 C 2.363281 16.183594 1.019531 14.839844 1.019531 13.1875 L 1.019531 4.015625 C 1.019531 2.363281 2.363281 1.019531 4.015625 1.019531 Z M 4.015625 1.019531 "/>
<path style=" stroke:none;fill-rule:nonzero;fill:rgb(100%,100%,100%);fill-opacity:1;" d="M 4.691406 4.414062 C 4.40625 4.523438 5.382812 6.328125 5.148438 6.460938 C 4.734375 6.625 4.214844 6.8125 4.214844 6.8125 L 4.214844 9.601562 C 4.214844 9.601562 6.035156 9.835938 7.402344 10 C 7.679688 10.03125 3.019531 12.792969 3.019531 12.792969 C 4.398438 12.792969 18.460938 9.082031 12.882812 6.457031 C 11.925781 5.949219 10.519531 5.613281 8.953125 5.613281 C 8.167969 5.613281 7.441406 5.707031 6.796875 5.855469 C 6.492188 5.921875 4.960938 4.316406 4.691406 4.414062 Z M 4.691406 4.414062 "/>
<path style=" stroke:none;fill-rule:nonzero;fill:rgb(66.27451%,86.666667%,89.411765%);fill-opacity:1;" d="M 4.214844 6.8125 L 4.214844 6.410156 L 3.019531 6.410156 L 3.019531 10 L 4.214844 10 L 4.214844 9.601562 C 6.609375 9.199219 7.832031 8.691406 7.804688 8.1875 C 7.773438 7.695312 6.554688 7.203125 4.214844 6.8125 Z M 4.214844 6.8125 "/>
<path style=" stroke:none;fill-rule:nonzero;fill:rgb(66.27451%,86.666667%,89.411765%);fill-opacity:1;" d="M 11.40625 5.914062 C 11.398438 5.976562 11.390625 6.039062 11.390625 6.089844 C 11.394531 7.003906 12.605469 7.523438 14.15625 7.605469 C 14.050781 7.210938 13.65625 6.824219 12.882812 6.457031 C 12.773438 6.398438 12.65625 6.34375 12.539062 6.292969 C 12.457031 6.253906 12.363281 6.222656 12.277344 6.1875 C 12.246094 6.175781 12.214844 6.164062 12.183594 6.152344 C 12.0625 6.105469 11.945312 6.0625 11.820312 6.023438 C 11.683594 5.984375 11.550781 5.945312 11.40625 5.914062 Z M 11.40625 5.914062 "/>
<use xlink:href="#surface11" mask="url(#mask0)"/>
</g>
</svg>
