<?xml version="1.0" encoding="UTF-8"?>
<svg xmlns="http://www.w3.org/2000/svg" xmlns:xlink="http://www.w3.org/1999/xlink" width="17pt" height="17pt" viewBox="0 0 17 17" version="1.1">
<g id="surface1">
<path style=" stroke:none;fill-rule:evenodd;fill:rgb(29.411765%,68.235294%,30.980392%);fill-opacity:1;" d="M 4.015625 1.019531 L 13.1875 1.019531 C 14.839844 1.019531 16.183594 2.363281 16.183594 4.015625 L 16.183594 13.1875 C 16.183594 14.839844 14.839844 16.183594 13.1875 16.183594 L 4.015625 16.183594 C 2.363281 16.183594 1.019531 14.839844 1.019531 13.1875 L 1.019531 4.015625 C 1.019531 2.363281 2.363281 1.019531 4.015625 1.019531 Z M 4.015625 1.019531 "/>
<path style=" stroke:none;fill-rule:nonzero;fill:rgb(49.411765%,92.54902%,39.607843%);fill-opacity:1;" d="M 4.71875 13.945312 C 4.035156 13.761719 3.515625 13.265625 3.292969 12.578125 C 3.238281 12.40625 3.234375 12.355469 3.214844 11.867188 C 3.207031 11.574219 3.199219 9.894531 3.203125 8.132812 L 3.214844 4.933594 L 3.257812 4.75 C 3.351562 4.382812 3.605469 3.96875 3.878906 3.730469 C 4.136719 3.507812 4.363281 3.382812 4.714844 3.277344 L 4.90625 3.21875 L 8.304688 3.210938 C 11.78125 3.203125 12.289062 3.210938 12.527344 3.28125 C 12.980469 3.414062 13.414062 3.730469 13.65625 4.101562 C 13.789062 4.300781 13.859375 4.453125 13.941406 4.71875 L 14 4.910156 L 14 12.289062 L 13.949219 12.472656 C 13.820312 12.945312 13.566406 13.328125 13.199219 13.609375 C 13.023438 13.738281 12.6875 13.898438 12.464844 13.953125 C 12.285156 13.996094 12.269531 13.996094 8.59375 13.996094 L 4.90625 13.992188 Z M 11.214844 13.175781 L 12.28125 13.160156 L 12.476562 13.066406 C 12.738281 12.9375 12.9375 12.738281 13.0625 12.480469 L 13.152344 12.289062 L 13.167969 11.613281 C 13.183594 10.738281 13.183594 6.5 13.167969 5.609375 L 13.152344 4.933594 L 13.058594 4.742188 C 12.929688 4.476562 12.738281 4.285156 12.476562 4.160156 L 12.285156 4.0625 L 11.574219 4.046875 C 11.183594 4.035156 9.554688 4.03125 7.957031 4.035156 C 4.738281 4.046875 4.953125 4.035156 4.671875 4.1875 C 4.507812 4.273438 4.265625 4.515625 4.179688 4.675781 C 4.027344 4.96875 4.035156 4.65625 4.039062 8.621094 L 4.039062 12.183594 L 4.082031 12.320312 C 4.191406 12.652344 4.417969 12.914062 4.738281 13.066406 L 4.925781 13.160156 L 5.871094 13.171875 C 7.246094 13.1875 9.976562 13.1875 11.214844 13.175781 Z M 11.214844 13.175781 "/>
<path style=" stroke:none;fill-rule:nonzero;fill:rgb(69.019608%,100%,53.72549%);fill-opacity:1;" d="M 7.628906 12.140625 C 7.585938 12.117188 7.496094 12.066406 7.429688 12.015625 C 7.300781 11.921875 5.402344 10.042969 5.105469 9.722656 C 4.914062 9.511719 4.882812 9.433594 4.925781 9.265625 C 4.949219 9.179688 4.992188 9.125 5.265625 8.847656 C 5.4375 8.667969 5.621094 8.5 5.664062 8.46875 C 5.777344 8.386719 5.890625 8.375 6 8.433594 C 6.054688 8.460938 6.367188 8.75 6.804688 9.183594 C 7.480469 9.84375 7.648438 10 7.664062 9.980469 C 7.671875 9.972656 8.210938 9.179688 9.824219 6.800781 C 10.96875 5.109375 10.949219 5.148438 11.050781 5.085938 C 11.128906 5.046875 11.171875 5.039062 11.261719 5.046875 C 11.367188 5.054688 11.402344 5.070312 11.683594 5.261719 C 12.175781 5.589844 12.230469 5.636719 12.269531 5.773438 C 12.289062 5.847656 12.296875 5.917969 12.289062 5.957031 C 12.269531 6.054688 10.679688 8.421875 8.78125 11.191406 C 8.265625 11.945312 8.1875 12.046875 8.058594 12.105469 C 7.953125 12.160156 7.726562 12.175781 7.628906 12.140625 Z M 7.628906 12.140625 "/>
</g>
</svg>
