<?xml version="1.0" encoding="UTF-8"?>
<svg xmlns="http://www.w3.org/2000/svg" xmlns:xlink="http://www.w3.org/1999/xlink" width="17pt" height="17pt" viewBox="0 0 17 17" version="1.1">
<g id="surface1">
<path style=" stroke:none;fill-rule:evenodd;fill:rgb(76.078431%,20.784314%,16.470588%);fill-opacity:1;" d="M 4.015625 1.019531 L 13.1875 1.019531 C 14.839844 1.019531 16.183594 2.363281 16.183594 4.015625 L 16.183594 13.1875 C 16.183594 14.839844 14.839844 16.183594 13.1875 16.183594 L 4.015625 16.183594 C 2.363281 16.183594 1.019531 14.839844 1.019531 13.1875 L 1.019531 4.015625 C 1.019531 2.363281 2.363281 1.019531 4.015625 1.019531 Z M 4.015625 1.019531 "/>
<path style=" stroke:none;fill-rule:nonzero;fill:rgb(97.647059%,97.647059%,97.647059%);fill-opacity:1;" d="M 5.007812 4.933594 C 4.402344 4.988281 4.183594 5.019531 3.855469 5.300781 C 3.34375 5.742188 3.226562 6.621094 3.226562 7.960938 L 3.226562 9.238281 C 3.226562 10.765625 3.425781 11.542969 3.765625 11.828125 C 4.15625 12.160156 4.410156 12.1875 4.667969 12.222656 C 4.769531 12.238281 5.476562 12.363281 8.628906 12.363281 C 10.589844 12.363281 12.273438 12.269531 12.445312 12.25 C 12.730469 12.214844 13.128906 12.164062 13.4375 11.828125 C 13.890625 11.316406 13.976562 10.472656 13.976562 9.246094 L 13.976562 7.757812 C 13.976562 6.96875 13.933594 5.847656 13.4375 5.375 C 13.058594 5.058594 12.925781 4.96875 12.148438 4.929688 C 11.929688 4.921875 10.011719 4.839844 8.671875 4.839844 C 7.417969 4.839844 5.566406 4.917969 5.007812 4.933594 Z M 7.527344 6.988281 L 10.214844 8.601562 L 7.527344 10.214844 "/>
<path style=" stroke:none;fill-rule:nonzero;fill:rgb(1.176471%,66.27451%,95.686275%);fill-opacity:1;" d="M 15.152344 12.316406 C 15.152344 13.804688 13.949219 15.003906 12.464844 15.003906 C 10.980469 15.003906 9.773438 13.804688 9.773438 12.316406 C 9.773438 10.835938 10.980469 9.628906 12.464844 9.628906 C 13.949219 9.628906 15.152344 10.835938 15.152344 12.316406 Z M 15.152344 12.316406 "/>
<path style=" stroke:none;fill-rule:nonzero;fill:rgb(100%,100%,100%);fill-opacity:1;" d="M 13 10.703125 L 14.074219 11.777344 L 13.71875 11.777344 L 12.824219 12.675781 C 13.359375 13.214844 12.644531 13.574219 12.644531 13.574219 L 12.105469 13.035156 L 11.210938 13.929688 L 10.851562 13.929688 L 10.851562 13.574219 L 11.746094 12.675781 L 11.210938 12.140625 C 11.210938 12.140625 11.570312 11.421875 12.105469 11.960938 L 13 11.0625 Z M 13 10.703125 "/>
</g>
</svg>
