<?xml version="1.0" encoding="UTF-8"?>
<svg xmlns="http://www.w3.org/2000/svg" xmlns:xlink="http://www.w3.org/1999/xlink" width="17pt" height="17pt" viewBox="0 0 17 17" version="1.1">
<g id="surface1">
<path style=" stroke:none;fill-rule:evenodd;fill:rgb(96.078431%,43.137255%,17.254902%);fill-opacity:1;" d="M 4.015625 1.019531 L 13.1875 1.019531 C 14.839844 1.019531 16.183594 2.363281 16.183594 4.015625 L 16.183594 13.1875 C 16.183594 14.839844 14.839844 16.183594 13.1875 16.183594 L 4.015625 16.183594 C 2.363281 16.183594 1.019531 14.839844 1.019531 13.1875 L 1.019531 4.015625 C 1.019531 2.363281 2.363281 1.019531 4.015625 1.019531 Z M 4.015625 1.019531 "/>
<path style=" stroke:none;fill-rule:nonzero;fill:rgb(100%,100%,100%);fill-opacity:1;" d="M 13.054688 8.0625 C 12.917969 6.964844 12.359375 5.964844 11.5 5.269531 C 11.324219 5.332031 11.140625 5.375 10.945312 5.375 C 10.265625 5.375 9.683594 4.949219 9.445312 4.351562 C 9.230469 4.320312 9.011719 4.300781 8.792969 4.300781 C 8.222656 4.300781 7.652344 4.414062 7.121094 4.636719 L 7.941406 6.054688 C 8.21875 5.960938 8.503906 5.914062 8.789062 5.914062 C 10.066406 5.914062 11.171875 6.816406 11.421875 8.0625 Z M 13.054688 9.140625 L 11.425781 9.140625 C 11.171875 10.390625 10.070312 11.289062 8.792969 11.289062 C 8.503906 11.289062 8.21875 11.242188 7.941406 11.148438 L 7.125 12.5625 C 7.652344 12.78125 8.222656 12.902344 8.789062 12.902344 C 9.011719 12.902344 9.234375 12.882812 9.449219 12.847656 C 9.6875 12.253906 10.269531 11.828125 10.941406 11.828125 C 11.140625 11.828125 11.324219 11.867188 11.503906 11.933594 C 12.359375 11.238281 12.914062 10.234375 13.054688 9.140625 Z M 12.019531 3.761719 C 12.019531 3.171875 11.539062 2.6875 10.945312 2.6875 C 10.347656 2.6875 9.871094 3.171875 9.871094 3.761719 C 9.871094 4.355469 10.347656 4.839844 10.945312 4.839844 C 11.539062 4.839844 12.019531 4.355469 12.019531 3.761719 Z M 12.019531 13.4375 C 12.019531 12.847656 11.539062 12.363281 10.945312 12.363281 C 10.347656 12.363281 9.871094 12.847656 9.871094 13.4375 C 9.871094 14.03125 10.347656 14.515625 10.945312 14.515625 C 11.539062 14.515625 12.019531 14.03125 12.019531 13.4375 Z M 7.011719 6.59375 L 6.199219 5.179688 C 5.417969 5.769531 4.867188 6.605469 4.628906 7.550781 C 4.875 7.835938 5.03125 8.199219 5.03125 8.601562 C 5.03125 9 4.875 9.367188 4.628906 9.648438 C 4.867188 10.597656 5.417969 11.433594 6.195312 12.023438 L 7.011719 10.609375 C 6.433594 10.101562 6.105469 9.371094 6.105469 8.601562 C 6.105469 7.835938 6.433594 7.101562 7.011719 6.59375 Z M 4.496094 8.601562 C 4.496094 8.007812 4.011719 7.527344 3.417969 7.527344 C 2.820312 7.527344 2.34375 8.007812 2.34375 8.601562 C 2.34375 9.195312 2.820312 9.675781 3.417969 9.675781 C 4.011719 9.675781 4.496094 9.195312 4.496094 8.601562 Z M 4.496094 8.601562 "/>
</g>
</svg>
