<?xml version="1.0" encoding="UTF-8"?>
<svg xmlns="http://www.w3.org/2000/svg" xmlns:xlink="http://www.w3.org/1999/xlink" width="17pt" height="17pt" viewBox="0 0 17 17" version="1.1">
<g id="surface1">
<path style=" stroke:none;fill-rule:evenodd;fill:rgb(100%,54.117647%,10.196078%);fill-opacity:1;" d="M 4.015625 1.019531 L 13.1875 1.019531 C 14.839844 1.019531 16.183594 2.363281 16.183594 4.015625 L 16.183594 13.1875 C 16.183594 14.839844 14.839844 16.183594 13.1875 16.183594 L 4.015625 16.183594 C 2.363281 16.183594 1.019531 14.839844 1.019531 13.1875 L 1.019531 4.015625 C 1.019531 2.363281 2.363281 1.019531 4.015625 1.019531 Z M 4.015625 1.019531 "/>
<path style=" stroke:none;fill-rule:nonzero;fill:rgb(96.862745%,74.117647%,36.470588%);fill-opacity:1;" d="M 9.460938 7.785156 C 8.050781 6.386719 7.652344 5.0625 7.058594 4.378906 C 5.503906 2.578125 1.769531 7.410156 5.804688 11.410156 C 9.84375 15.414062 14.710938 11.714844 12.769531 10.101562 C 12.078125 9.527344 10.800781 9.109375 9.460938 7.785156 Z M 9.460938 7.785156 "/>
<path style=" stroke:none;fill-rule:nonzero;fill:rgb(100%,100%,100%);fill-opacity:1;" d="M 6.242188 3.992188 C 5.429688 4.898438 4.980469 6.066406 4.980469 7.285156 C 4.980469 10.011719 7.191406 12.222656 9.917969 12.222656 C 11.136719 12.222656 12.304688 11.769531 13.210938 10.960938 C 13.207031 10.648438 13.066406 10.351562 12.769531 10.101562 C 12.078125 9.527344 10.800781 9.113281 9.460938 7.785156 C 8.050781 6.386719 7.652344 5.0625 7.058594 4.378906 C 6.828125 4.105469 6.542969 3.988281 6.242188 3.992188 Z M 6.242188 3.992188 "/>
</g>
</svg>
