<?xml version="1.0" encoding="UTF-8"?>
<svg xmlns="http://www.w3.org/2000/svg" xmlns:xlink="http://www.w3.org/1999/xlink" width="17pt" height="17pt" viewBox="0 0 17 17" version="1.1">
<g id="surface1">
<path style=" stroke:none;fill-rule:evenodd;fill:rgb(27.45098%,73.72549%,91.764706%);fill-opacity:1;" d="M 4.015625 1.019531 L 13.1875 1.019531 C 14.839844 1.019531 16.183594 2.363281 16.183594 4.015625 L 16.183594 13.1875 C 16.183594 14.839844 14.839844 16.183594 13.1875 16.183594 L 4.015625 16.183594 C 2.363281 16.183594 1.019531 14.839844 1.019531 13.1875 L 1.019531 4.015625 C 1.019531 2.363281 2.363281 1.019531 4.015625 1.019531 Z M 4.015625 1.019531 "/>
<path style=" stroke:none;fill-rule:nonzero;fill:rgb(100%,100%,100%);fill-opacity:1;" d="M 9.421875 4.839844 C 8.507812 4.839844 7.714844 5.355469 7.320312 6.109375 C 7.066406 5.949219 6.761719 5.855469 6.4375 5.855469 C 5.53125 5.855469 4.789062 6.585938 4.789062 7.484375 C 4.789062 7.625 4.8125 7.761719 4.851562 7.894531 C 4.195312 8.332031 3.761719 9.078125 3.761719 9.921875 C 3.761719 11.277344 4.867188 12.363281 6.234375 12.363281 L 10.96875 12.363281 C 12.335938 12.363281 13.4375 11.277344 13.4375 9.921875 C 13.4375 8.84375 12.730469 7.933594 11.753906 7.609375 C 11.777344 7.46875 11.792969 7.324219 11.792969 7.179688 C 11.792969 5.886719 10.730469 4.839844 9.421875 4.839844 Z M 9.421875 4.839844 "/>
</g>
</svg>
