<?xml version="1.0" encoding="UTF-8"?>
<svg xmlns="http://www.w3.org/2000/svg" xmlns:xlink="http://www.w3.org/1999/xlink" width="17pt" height="17pt" viewBox="0 0 17 17" version="1.1">
<g id="surface1">
<path style=" stroke:none;fill-rule:evenodd;fill:rgb(76.078431%,20.784314%,16.470588%);fill-opacity:1;" d="M 3.96875 1.007812 L 13.03125 1.007812 C 14.664062 1.007812 15.992188 2.335938 15.992188 3.96875 L 15.992188 13.03125 C 15.992188 14.664062 14.664062 15.992188 13.03125 15.992188 L 3.96875 15.992188 C 2.335938 15.992188 1.007812 14.664062 1.007812 13.03125 L 1.007812 3.96875 C 1.007812 2.335938 2.335938 1.007812 3.96875 1.007812 Z M 3.96875 1.007812 "/>
<path style=" stroke:none;fill-rule:nonzero;fill:rgb(99.607843%,82.352941%,29.803922%);fill-opacity:1;" d="M 8.003906 8.164062 L 7.390625 8.875 L 6.914062 9.339844 L 6.386719 9.699219 L 5.753906 10.039062 L 5.019531 10.316406 L 4.558594 10.421875 L 4.539062 10.484375 L 4.5625 10.648438 L 4.671875 10.917969 L 4.898438 11.363281 L 5.117188 11.695312 L 5.546875 12.148438 L 5.738281 12.34375 L 5.914062 12.40625 L 6.699219 12.398438 L 6.234375 12.722656 L 6.226562 12.804688 L 6.507812 13.027344 L 6.886719 13.25 C 7.378906 13.53125 7.824219 12.980469 7.824219 12.980469 C 7.824219 12.980469 7.585938 13.398438 7.601562 13.542969 L 8.066406 13.542969 L 8.316406 13.503906 L 8.59375 13.359375 L 8.5 13.507812 L 9.011719 13.515625 C 9.546875 13.503906 9.902344 13.1875 10.21875 12.851562 L 10.550781 12.453125 L 10.8125 12.054688 L 11.007812 11.6875 L 11.316406 10.964844 L 11.546875 10.375 L 11.660156 10.066406 L 11.550781 10.066406 L 10.707031 9.964844 C 10.027344 9.769531 9.664062 9.265625 9.035156 8.875 L 8.511719 8.550781 L 8.097656 8.300781 L 8.039062 8.210938 L 8.027344 8.179688 Z M 8.003906 8.164062 "/>
<path style=" stroke:none;fill-rule:nonzero;fill:rgb(100%,100%,100%);fill-opacity:1;" d="M 11.796875 3.71875 L 11.304688 4.660156 L 10.878906 5.613281 L 10.359375 6.660156 L 10 7.515625 L 9.601562 7.347656 L 9.027344 7.097656 L 8.886719 7.097656 L 8.765625 7.128906 L 8.574219 7.386719 L 8.011719 8.136719 L 8.039062 8.210938 L 8.097656 8.300781 L 8.511719 8.550781 L 9.035156 8.875 C 9.664062 9.265625 10.027344 9.769531 10.707031 9.964844 L 11.550781 10.066406 L 11.691406 10.066406 L 11.703125 10.027344 L 11.824219 9.261719 L 11.925781 8.640625 L 11.9375 8.511719 L 11.863281 8.371094 L 11.367188 8.140625 L 11.082031 8.015625 L 10.90625 7.902344 L 10.882812 7.894531 L 10.910156 7.855469 L 11.203125 7.117188 L 11.464844 6.46875 L 11.796875 5.585938 L 12.050781 4.964844 L 12.269531 4.410156 L 12.445312 3.871094 C 12.554688 3.46875 12.085938 3.253906 11.796875 3.71875 Z M 11.796875 3.71875 "/>
</g>
</svg>
