<?xml version="1.0" encoding="UTF-8"?>
<svg xmlns="http://www.w3.org/2000/svg" xmlns:xlink="http://www.w3.org/1999/xlink" width="17pt" height="17pt" viewBox="0 0 17 17" version="1.1">
<g id="surface1">
<path style=" stroke:none;fill-rule:evenodd;fill:rgb(55.686275%,55.686275%,55.686275%);fill-opacity:1;" d="M 3.96875 1.007812 L 13.03125 1.007812 C 14.664062 1.007812 15.992188 2.335938 15.992188 3.96875 L 15.992188 13.03125 C 15.992188 14.664062 14.664062 15.992188 13.03125 15.992188 L 3.96875 15.992188 C 2.335938 15.992188 1.007812 14.664062 1.007812 13.03125 L 1.007812 3.96875 C 1.007812 2.335938 2.335938 1.007812 3.96875 1.007812 Z M 3.96875 1.007812 "/>
<path style=" stroke:none;fill-rule:nonzero;fill:rgb(27.843137%,27.843137%,27.843137%);fill-opacity:1;" d="M 4.734375 4.34375 L 12.265625 4.34375 C 13.25 4.34375 14.050781 5.144531 14.050781 6.132812 L 14.050781 10.867188 C 14.050781 11.855469 13.25 12.65625 12.265625 12.65625 L 4.734375 12.65625 C 3.75 12.65625 2.949219 11.855469 2.949219 10.867188 L 2.949219 6.132812 C 2.949219 5.144531 3.75 4.34375 4.734375 4.34375 Z M 4.734375 4.34375 "/>
<path style=" stroke:none;fill-rule:nonzero;fill:rgb(13.72549%,13.72549%,13.72549%);fill-opacity:1;" d="M 4.800781 4.871094 L 12.199219 4.871094 C 12.945312 4.871094 13.550781 5.453125 13.550781 6.167969 L 13.550781 10.832031 C 13.550781 11.546875 12.945312 12.128906 12.199219 12.128906 L 4.800781 12.128906 C 4.054688 12.128906 3.449219 11.546875 3.449219 10.832031 L 3.449219 6.167969 C 3.449219 5.453125 4.054688 4.871094 4.800781 4.871094 Z M 4.800781 4.871094 "/>
</g>
</svg>
