<?xml version="1.0" encoding="UTF-8"?>
<svg xmlns="http://www.w3.org/2000/svg" xmlns:xlink="http://www.w3.org/1999/xlink" width="17pt" height="17pt" viewBox="0 0 17 17" version="1.1">
<g id="surface1">
<path style=" stroke:none;fill-rule:evenodd;fill:rgb(99.607843%,80.392157%,21.960784%);fill-opacity:1;" d="M 3.96875 1.007812 L 13.03125 1.007812 C 14.664062 1.007812 15.992188 2.335938 15.992188 3.96875 L 15.992188 13.03125 C 15.992188 14.664062 14.664062 15.992188 13.03125 15.992188 L 3.96875 15.992188 C 2.335938 15.992188 1.007812 14.664062 1.007812 13.03125 L 1.007812 3.96875 C 1.007812 2.335938 2.335938 1.007812 3.96875 1.007812 Z M 3.96875 1.007812 "/>
<path style=" stroke:none;fill-rule:nonzero;fill:rgb(100%,100%,100%);fill-opacity:1;" d="M 8.476562 3.074219 C 6.398438 3.074219 4.042969 4.804688 3.535156 6.71875 C 3.292969 8.160156 3.574219 9.175781 4.300781 9.875 C 4.320312 10.078125 4.359375 10.28125 4.339844 10.484375 C 4.339844 10.492188 4.339844 10.496094 4.339844 10.503906 C 4.335938 10.542969 4.328125 10.578125 4.320312 10.617188 C 4.316406 10.632812 4.3125 10.648438 4.308594 10.664062 C 4.296875 10.695312 4.289062 10.722656 4.277344 10.753906 C 4.265625 10.777344 4.253906 10.800781 4.238281 10.824219 C 4.226562 10.847656 4.21875 10.871094 4.203125 10.894531 C 4.171875 10.9375 4.136719 10.984375 4.09375 11.03125 C 3.921875 11.210938 3.773438 11.324219 3.648438 11.398438 C 3.265625 11.617188 3.074219 11.484375 3.074219 11.753906 C 3.074219 12.046875 3.746094 12.582031 4.363281 12.382812 C 4.457031 12.351562 4.550781 12.304688 4.640625 12.234375 C 4.683594 12.203125 4.726562 12.160156 4.769531 12.117188 C 4.847656 12.035156 4.914062 11.957031 4.976562 11.882812 C 5.035156 11.8125 5.085938 11.746094 5.128906 11.683594 C 5.140625 11.773438 5.136719 11.890625 5.089844 12.066406 C 4.914062 12.765625 3.988281 12.707031 4.433594 13.203125 C 4.777344 13.585938 5.804688 13.601562 6.375 13.101562 C 6.148438 13.617188 5.804688 13.925781 6.464844 13.925781 C 7.484375 13.925781 8.5 13.203125 8.5 12.117188 C 8.5 13.203125 9.515625 13.925781 10.535156 13.925781 C 11.195312 13.925781 10.851562 13.617188 10.625 13.101562 C 11.195312 13.601562 12.222656 13.585938 12.566406 13.203125 C 13.011719 12.707031 12.085938 12.765625 11.910156 12.066406 C 11.863281 11.890625 11.859375 11.773438 11.871094 11.683594 C 11.960938 11.808594 12.074219 11.953125 12.230469 12.117188 C 12.90625 12.839844 13.925781 12.117188 13.925781 11.753906 C 13.925781 11.394531 13.585938 11.753906 12.90625 11.03125 C 12.527344 10.628906 12.671875 10.222656 12.703125 9.820312 C 13.488281 9.109375 13.742188 8.101562 13.417969 6.71875 C 12.699219 4.667969 10.554688 3.074219 8.476562 3.074219 Z M 8.476562 3.074219 "/>
<path style=" stroke:none;fill-rule:nonzero;fill:rgb(99.607843%,80.392157%,21.960784%);fill-opacity:1;" d="M 7.335938 6.367188 C 7.335938 5.835938 6.992188 5.402344 6.5625 5.402344 C 6.132812 5.402344 5.789062 5.835938 5.789062 6.367188 C 5.789062 6.902344 6.132812 7.335938 6.5625 7.335938 C 6.992188 7.335938 7.335938 6.902344 7.335938 6.367188 Z M 7.335938 6.367188 "/>
<path style=" stroke:none;fill-rule:nonzero;fill:rgb(24.705882%,24.705882%,24.705882%);fill-opacity:1;" d="M 7.335938 6.367188 C 7.335938 6.046875 7.164062 5.789062 6.949219 5.789062 C 6.734375 5.789062 6.5625 6.046875 6.5625 6.367188 C 6.5625 6.691406 6.734375 6.949219 6.949219 6.949219 C 7.164062 6.949219 7.335938 6.691406 7.335938 6.367188 Z M 7.335938 6.367188 "/>
<path style=" stroke:none;fill-rule:nonzero;fill:rgb(24.705882%,24.705882%,24.705882%);fill-opacity:1;" d="M 11.210938 6.332031 C 11.210938 6.03125 11.03125 5.789062 10.804688 5.789062 C 10.582031 5.789062 10.398438 6.03125 10.398438 6.332031 C 10.398438 6.628906 10.582031 6.871094 10.804688 6.871094 C 11.03125 6.871094 11.210938 6.628906 11.210938 6.332031 Z M 11.210938 6.332031 "/>
<path style=" stroke:none;fill-rule:nonzero;fill:rgb(99.607843%,80.392157%,21.960784%);fill-opacity:1;" d="M 11.210938 6.367188 C 11.210938 5.835938 10.863281 5.402344 10.4375 5.402344 C 10.007812 5.402344 9.664062 5.835938 9.664062 6.367188 C 9.664062 6.902344 10.007812 7.335938 10.4375 7.335938 C 10.863281 7.335938 11.210938 6.902344 11.210938 6.367188 Z M 11.210938 6.367188 "/>
<path style=" stroke:none;fill-rule:nonzero;fill:rgb(24.705882%,24.705882%,24.705882%);fill-opacity:1;" d="M 11.210938 6.367188 C 11.210938 6.046875 11.039062 5.789062 10.824219 5.789062 C 10.609375 5.789062 10.4375 6.046875 10.4375 6.367188 C 10.4375 6.691406 10.609375 6.949219 10.824219 6.949219 C 11.039062 6.949219 11.210938 6.691406 11.210938 6.367188 Z M 11.210938 6.367188 "/>
</g>
</svg>
