<?xml version="1.0" encoding="UTF-8"?>
<svg xmlns="http://www.w3.org/2000/svg" xmlns:xlink="http://www.w3.org/1999/xlink" width="17pt" height="17pt" viewBox="0 0 17 17" version="1.1">
<g id="surface1">
<path style=" stroke:none;fill-rule:evenodd;fill:rgb(80%,80%,80%);fill-opacity:1;" d="M 3.972656 1.007812 C 2.328125 1.007812 1.007812 2.328125 1.007812 3.972656 L 1.007812 13.03125 C 1.007812 14.429688 1.992188 15.542969 3.292969 15.855469 L 3.292969 9.84375 C 3.292969 9.054688 3.421875 8.304688 3.667969 7.621094 C 3.910156 6.9375 4.269531 6.320312 4.726562 5.804688 C 5.183594 5.285156 5.742188 4.867188 6.378906 4.578125 C 7.019531 4.289062 7.742188 4.128906 8.53125 4.128906 C 9.320312 4.128906 10.039062 4.289062 10.679688 4.578125 C 11.320312 4.867188 11.875 5.285156 12.332031 5.804688 C 12.789062 6.320312 13.148438 6.9375 13.394531 7.621094 C 13.640625 8.304688 13.769531 9.054688 13.769531 9.84375 L 13.769531 15.84375 C 15.039062 15.507812 15.992188 14.410156 15.992188 13.03125 L 15.992188 3.972656 C 15.992188 2.328125 14.671875 1.007812 13.03125 1.007812 Z M 3.972656 1.007812 "/>
<path style=" stroke:none;fill-rule:nonzero;fill:rgb(42.745098%,29.803922%,25.490196%);fill-opacity:1;" d="M 7.578125 6.75 C 7.578125 7.933594 6.617188 8.890625 5.433594 8.890625 C 4.25 8.890625 3.292969 7.933594 3.292969 6.75 C 3.292969 5.566406 4.25 4.605469 5.433594 4.605469 C 6.617188 4.605469 7.578125 5.566406 7.578125 6.75 Z M 7.578125 6.75 "/>
<path style=" stroke:none;fill-rule:nonzero;fill:rgb(42.745098%,29.803922%,25.490196%);fill-opacity:1;" d="M 13.769531 6.75 C 13.769531 7.933594 12.808594 8.890625 11.625 8.890625 C 10.441406 8.890625 9.484375 7.933594 9.484375 6.75 C 9.484375 5.566406 10.441406 4.605469 11.625 4.605469 C 12.808594 4.605469 13.769531 5.566406 13.769531 6.75 Z M 13.769531 6.75 "/>
<path style=" stroke:none;fill-rule:evenodd;fill:rgb(63.137255%,53.333333%,49.803922%);fill-opacity:1;" d="M 13.769531 15.84375 L 13.769531 9.84375 C 13.769531 9.054688 13.640625 8.304688 13.394531 7.621094 C 13.148438 6.9375 12.789062 6.320312 12.332031 5.804688 C 11.875 5.285156 11.320312 4.867188 10.679688 4.578125 C 10.039062 4.289062 9.320312 4.128906 8.53125 4.128906 C 7.742188 4.128906 7.019531 4.289062 6.378906 4.578125 C 5.742188 4.867188 5.183594 5.285156 4.726562 5.804688 C 4.269531 6.320312 3.910156 6.9375 3.667969 7.621094 C 3.421875 8.304688 3.292969 9.054688 3.292969 9.84375 L 3.292969 15.855469 C 3.515625 15.910156 3.730469 15.992188 3.972656 15.992188 L 13.03125 15.992188 C 13.292969 15.992188 13.527344 15.90625 13.769531 15.84375 Z M 13.769531 15.84375 "/>
<path style=" stroke:none;fill-rule:nonzero;fill:rgb(100%,100%,100%);fill-opacity:1;" d="M 7.101562 11.273438 L 8.53125 11.273438 L 8.53125 13.179688 L 7.101562 13.179688 Z M 7.101562 11.273438 "/>
<path style=" stroke:none;fill-rule:nonzero;fill:rgb(94.901961%,94.901961%,94.901961%);fill-opacity:1;" d="M 8.53125 11.035156 L 9.960938 11.035156 L 9.960938 13.179688 L 8.53125 13.179688 Z M 8.53125 11.035156 "/>
<path style=" stroke:none;fill-rule:nonzero;fill:rgb(42.745098%,29.803922%,25.490196%);fill-opacity:1;" d="M 7.152344 9.773438 C 6.492188 9.753906 6.148438 10.851562 6.148438 11.511719 C 6.148438 12.167969 6.683594 12.703125 7.339844 12.703125 C 7.945312 12.703125 8.523438 12.171875 8.523438 12.171875 L 8.539062 12.171875 C 8.539062 12.171875 9.113281 12.699219 9.722656 12.703125 C 10.378906 12.703125 10.910156 12.167969 10.910156 11.511719 C 10.910156 10.855469 10.589844 9.878906 9.929688 9.859375 Z M 7.152344 9.773438 "/>
<path style=" stroke:none;fill-rule:nonzero;fill:rgb(24.313725%,15.294118%,13.72549%);fill-opacity:1;" d="M 9.898438 9.726562 C 10.039062 10.339844 9.121094 11.035156 8.53125 11.035156 C 7.9375 11.035156 6.992188 10.347656 7.132812 9.726562 C 7.238281 9.246094 7.9375 9.277344 8.53125 9.277344 C 9.121094 9.277344 9.792969 9.257812 9.898438 9.726562 Z M 9.898438 9.726562 "/>
<path style=" stroke:none;fill-rule:nonzero;fill:rgb(99.607843%,99.607843%,99.607843%);fill-opacity:1;" d="M 7.101562 8.164062 C 7.101562 8.820312 6.570312 9.351562 5.914062 9.351562 C 5.253906 9.351562 4.722656 8.820312 4.722656 8.164062 C 4.722656 7.503906 5.253906 6.972656 5.914062 6.972656 C 6.570312 6.972656 7.101562 7.503906 7.101562 8.164062 Z M 7.101562 8.164062 "/>
<path style=" stroke:none;fill-rule:nonzero;fill:rgb(20%,20%,20%);fill-opacity:1;" d="M 5.199219 7.921875 C 5.199219 8.1875 5.410156 8.398438 5.675781 8.398438 C 5.9375 8.398438 6.152344 8.1875 6.152344 7.921875 C 6.152344 7.660156 5.9375 7.445312 5.675781 7.445312 C 5.410156 7.445312 5.199219 7.660156 5.199219 7.921875 Z M 5.199219 7.921875 "/>
<path style=" stroke:none;fill-rule:nonzero;fill:rgb(99.607843%,99.607843%,99.607843%);fill-opacity:1;" d="M 12.339844 8.164062 C 12.339844 8.820312 11.808594 9.351562 11.152344 9.351562 C 10.492188 9.351562 9.960938 8.820312 9.960938 8.164062 C 9.960938 7.503906 10.492188 6.972656 11.152344 6.972656 C 11.808594 6.972656 12.339844 7.503906 12.339844 8.164062 Z M 12.339844 8.164062 "/>
<path style=" stroke:none;fill-rule:nonzero;fill:rgb(20%,20%,20%);fill-opacity:1;" d="M 10.4375 7.921875 C 10.4375 8.1875 10.648438 8.398438 10.914062 8.398438 C 11.175781 8.398438 11.390625 8.1875 11.390625 7.921875 C 11.390625 7.660156 11.175781 7.445312 10.914062 7.445312 C 10.648438 7.445312 10.4375 7.660156 10.4375 7.921875 Z M 10.4375 7.921875 "/>
</g>
</svg>
