<?xml version="1.0" encoding="UTF-8"?>
<svg xmlns="http://www.w3.org/2000/svg" xmlns:xlink="http://www.w3.org/1999/xlink" width="17pt" height="17pt" viewBox="0 0 17 17" version="1.1">
<g id="surface1">
<path style=" stroke:none;fill-rule:evenodd;fill:rgb(44.705882%,53.72549%,85.490196%);fill-opacity:1;" d="M 3.96875 1.007812 L 13.03125 1.007812 C 14.664062 1.007812 15.992188 2.335938 15.992188 3.96875 L 15.992188 13.03125 C 15.992188 14.664062 14.664062 15.992188 13.03125 15.992188 L 3.96875 15.992188 C 2.335938 15.992188 1.007812 14.664062 1.007812 13.03125 L 1.007812 3.96875 C 1.007812 2.335938 2.335938 1.007812 3.96875 1.007812 Z M 3.96875 1.007812 "/>
<path style=" stroke:none;fill-rule:nonzero;fill:rgb(100%,100%,100%);fill-opacity:1;" d="M 7.53125 5.046875 C 7.53125 5.046875 6.480469 5.023438 5.363281 5.84375 C 4.25 6.660156 3.71875 8.355469 3.71875 10.796875 C 3.71875 10.796875 4.898438 11.898438 6.609375 11.953125 C 6.609375 11.953125 6.898438 11.617188 7.128906 11.324219 C 6.148438 11.035156 5.773438 10.164062 5.773438 10.164062 C 6.679688 10.671875 7.296875 10.882812 8.234375 10.890625 C 9.171875 10.882812 10.320312 10.671875 11.226562 10.164062 C 11.226562 10.164062 10.851562 11.035156 9.871094 11.324219 C 10.101562 11.617188 10.390625 11.953125 10.390625 11.953125 C 12.101562 11.898438 13.28125 10.796875 13.28125 10.796875 C 13.28125 8.355469 12.75 6.660156 11.636719 5.84375 C 10.519531 5.023438 9.46875 5.046875 9.46875 5.046875 L 9.390625 5.136719 C 10.785156 5.527344 11.417969 6.398438 11.417969 6.398438 C 11.417969 6.398438 11.25 6.308594 10.960938 6.183594 C 10.09375 5.769531 9.03125 5.578125 8.234375 5.578125 C 7.4375 5.578125 6.90625 5.769531 6.039062 6.183594 C 5.75 6.308594 5.582031 6.398438 5.582031 6.398438 C 5.582031 6.398438 6.214844 5.527344 7.609375 5.136719 Z M 7.171875 8.234375 C 7.617188 8.234375 7.976562 8.589844 7.96875 9.03125 C 7.96875 9.472656 7.617188 9.828125 7.171875 9.828125 C 6.734375 9.828125 6.375 9.472656 6.375 9.03125 C 6.375 8.589844 6.726562 8.234375 7.171875 8.234375 Z M 9.828125 8.234375 C 10.273438 8.234375 10.625 8.589844 10.625 9.03125 C 10.625 9.472656 10.265625 9.828125 9.828125 9.828125 C 9.382812 9.828125 9.03125 9.472656 9.03125 9.03125 C 9.023438 8.589844 9.382812 8.234375 9.828125 8.234375 Z M 9.828125 8.234375 "/>
</g>
</svg>
