<?xml version="1.0" encoding="UTF-8"?>
<svg xmlns="http://www.w3.org/2000/svg" xmlns:xlink="http://www.w3.org/1999/xlink" width="17pt" height="17pt" viewBox="0 0 17 17" version="1.1">
<g id="surface1">
<path style=" stroke:none;fill-rule:evenodd;fill:rgb(55.686275%,55.686275%,55.686275%);fill-opacity:1;" d="M 3.96875 1.007812 C 2.328125 1.007812 1.007812 2.328125 1.007812 3.96875 L 1.007812 8.707031 L 15.992188 8.707031 L 15.992188 3.96875 C 15.992188 2.328125 14.671875 1.007812 13.03125 1.007812 Z M 3.96875 1.007812 "/>
<path style=" stroke:none;fill-rule:nonzero;fill:rgb(90.196078%,90.196078%,90.196078%);fill-opacity:1;" d="M 3.777344 3.609375 L 13.226562 3.609375 L 13.226562 9.273438 L 3.777344 9.273438 Z M 3.777344 3.609375 "/>
<path style=" stroke:none;fill-rule:nonzero;fill:rgb(50.196078%,50.196078%,50.196078%);fill-opacity:1;" d="M 4.722656 5.875 L 7.082031 5.875 L 7.082031 7.574219 L 4.722656 7.574219 Z M 4.722656 5.875 "/>
<path style=" stroke:none;fill-rule:nonzero;fill:rgb(50.196078%,50.196078%,50.196078%);fill-opacity:1;" d="M 9.917969 5.875 L 12.28125 5.875 L 12.28125 7.574219 L 9.917969 7.574219 Z M 9.917969 5.875 "/>
<path style=" stroke:none;fill-rule:evenodd;fill:rgb(31.372549%,33.72549%,52.54902%);fill-opacity:1;" d="M 15.992188 8.707031 L 1.007812 8.707031 L 1.007812 13.03125 C 1.007812 14.671875 2.328125 15.992188 3.96875 15.992188 L 13.03125 15.992188 C 14.671875 15.992188 15.992188 14.671875 15.992188 13.03125 Z M 15.992188 8.707031 "/>
<path style=" stroke:none;fill-rule:nonzero;fill:rgb(50.196078%,50.196078%,50.196078%);fill-opacity:1;" d="M 4.539062 10.972656 L 12.464844 10.972656 C 12.777344 10.972656 13.03125 11.222656 13.03125 11.539062 C 13.03125 11.851562 12.777344 12.101562 12.464844 12.101562 L 4.539062 12.101562 C 4.226562 12.101562 3.972656 11.851562 3.972656 11.539062 C 3.972656 11.222656 4.226562 10.972656 4.539062 10.972656 Z M 4.539062 10.972656 "/>
<path style=" stroke:none;fill-rule:nonzero;fill:rgb(50.196078%,50.196078%,50.196078%);fill-opacity:1;" d="M 5.671875 13.234375 L 11.332031 13.234375 C 11.644531 13.234375 11.898438 13.488281 11.898438 13.800781 C 11.898438 14.113281 11.644531 14.367188 11.332031 14.367188 L 5.671875 14.367188 C 5.359375 14.367188 5.105469 14.113281 5.105469 13.800781 C 5.105469 13.488281 5.359375 13.234375 5.671875 13.234375 Z M 5.671875 13.234375 "/>
</g>
</svg>
