<?xml version="1.0" encoding="UTF-8"?>
<svg xmlns="http://www.w3.org/2000/svg" xmlns:xlink="http://www.w3.org/1999/xlink" width="17pt" height="17pt" viewBox="0 0 17 17" version="1.1">
<g id="surface1">
<path style=" stroke:none;fill-rule:evenodd;fill:rgb(1.176471%,80.392157%,21.960784%);fill-opacity:1;" d="M 3.96875 1.007812 L 13.03125 1.007812 C 14.664062 1.007812 15.992188 2.335938 15.992188 3.96875 L 15.992188 13.03125 C 15.992188 14.664062 14.664062 15.992188 13.03125 15.992188 L 3.96875 15.992188 C 2.335938 15.992188 1.007812 14.664062 1.007812 13.03125 L 1.007812 3.96875 C 1.007812 2.335938 2.335938 1.007812 3.96875 1.007812 Z M 3.96875 1.007812 "/>
<path style=" stroke:none;fill-rule:nonzero;fill:rgb(100%,100%,100%);fill-opacity:1;" d="M 10.277344 12.265625 C 9.707031 12.164062 9.222656 11.753906 9.035156 11.214844 C 9 11.109375 8.960938 10.917969 8.960938 10.851562 C 8.957031 10.742188 8.984375 10.761719 8.105469 10.273438 L 7.265625 9.8125 L 7.179688 9.859375 C 6.835938 10.050781 6.34375 10.089844 5.957031 9.957031 C 5.3125 9.734375 4.875 9.125 4.875 8.449219 C 4.875 7.769531 5.3125 7.160156 5.953125 6.941406 C 6.339844 6.808594 6.777344 6.835938 7.148438 7.019531 L 7.300781 7.09375 L 8.117188 6.664062 C 8.566406 6.429688 8.941406 6.226562 8.949219 6.214844 C 8.953125 6.207031 8.957031 6.175781 8.960938 6.144531 C 8.960938 5.953125 9.089844 5.601562 9.234375 5.394531 C 9.738281 4.6875 10.695312 4.503906 11.410156 4.976562 C 11.878906 5.289062 12.144531 5.808594 12.121094 6.367188 C 12.085938 7.191406 11.441406 7.847656 10.625 7.886719 C 10.335938 7.902344 10.082031 7.851562 9.832031 7.722656 L 9.703125 7.65625 L 8.9375 8.058594 C 8.515625 8.277344 8.179688 8.464844 8.183594 8.472656 C 8.191406 8.476562 8.542969 8.671875 8.964844 8.90625 L 9.730469 9.328125 L 9.816406 9.285156 C 10.074219 9.15625 10.257812 9.113281 10.558594 9.117188 C 10.84375 9.117188 11 9.152344 11.246094 9.277344 C 12.117188 9.710938 12.394531 10.808594 11.835938 11.609375 C 11.683594 11.828125 11.40625 12.058594 11.167969 12.15625 C 10.890625 12.269531 10.546875 12.3125 10.277344 12.265625 Z M 10.277344 12.265625 "/>
<path style=" stroke:none;fill-rule:nonzero;fill:rgb(100%,100%,100%);fill-opacity:1;" d="M 10.816406 11.894531 C 11.03125 11.847656 11.277344 11.703125 11.433594 11.539062 C 11.882812 11.050781 11.878906 10.328125 11.425781 9.851562 C 11.121094 9.53125 10.695312 9.402344 10.265625 9.5 C 10.148438 9.527344 10.046875 9.566406 9.902344 9.652344 C 9.804688 9.707031 9.78125 9.714844 9.726562 9.710938 C 9.679688 9.703125 9.429688 9.574219 8.746094 9.195312 C 8.238281 8.917969 7.808594 8.675781 7.78125 8.660156 C 7.71875 8.625 7.695312 8.570312 7.695312 8.472656 C 7.695312 8.367188 7.722656 8.300781 7.78125 8.265625 C 7.808594 8.246094 8.242188 8.019531 8.746094 7.753906 C 9.765625 7.21875 9.722656 7.234375 9.847656 7.316406 C 10.097656 7.488281 10.390625 7.5625 10.671875 7.527344 C 10.96875 7.488281 11.1875 7.382812 11.394531 7.175781 C 11.597656 6.976562 11.695312 6.789062 11.746094 6.515625 C 11.820312 6.140625 11.703125 5.753906 11.433594 5.460938 C 11.277344 5.296875 11.035156 5.15625 10.808594 5.101562 C 10.652344 5.066406 10.394531 5.070312 10.238281 5.109375 C 9.894531 5.199219 9.585938 5.449219 9.433594 5.765625 C 9.359375 5.921875 9.328125 6.042969 9.3125 6.238281 C 9.304688 6.359375 9.292969 6.410156 9.273438 6.4375 C 9.226562 6.5 7.390625 7.464844 7.300781 7.472656 C 7.238281 7.480469 7.222656 7.476562 7.09375 7.398438 C 6.707031 7.164062 6.25 7.15625 5.851562 7.378906 C 5.699219 7.464844 5.480469 7.683594 5.398438 7.832031 C 5.246094 8.105469 5.199219 8.394531 5.257812 8.6875 C 5.386719 9.308594 5.957031 9.738281 6.570312 9.667969 C 6.777344 9.648438 6.917969 9.601562 7.101562 9.492188 C 7.175781 9.449219 7.222656 9.433594 7.261719 9.433594 C 7.308594 9.433594 7.472656 9.515625 8.210938 9.921875 C 8.699219 10.191406 9.136719 10.433594 9.183594 10.460938 C 9.292969 10.527344 9.316406 10.574219 9.316406 10.738281 C 9.316406 11.160156 9.574219 11.570312 9.964844 11.785156 C 10.226562 11.921875 10.511719 11.960938 10.816406 11.894531 Z M 10.816406 11.894531 "/>
</g>
</svg>
