<?xml version="1.0" encoding="UTF-8"?>
<svg xmlns="http://www.w3.org/2000/svg" xmlns:xlink="http://www.w3.org/1999/xlink" width="17pt" height="17pt" viewBox="0 0 17 17" version="1.1">
<g id="surface1">
<path style=" stroke:none;fill-rule:evenodd;fill:rgb(36.470588%,70.588235%,24.313725%);fill-opacity:1;" d="M 3.96875 1.007812 L 13.03125 1.007812 C 14.664062 1.007812 15.992188 2.335938 15.992188 3.96875 L 15.992188 13.03125 C 15.992188 14.664062 14.664062 15.992188 13.03125 15.992188 L 3.96875 15.992188 C 2.335938 15.992188 1.007812 14.664062 1.007812 13.03125 L 1.007812 3.96875 C 1.007812 2.335938 2.335938 1.007812 3.96875 1.007812 Z M 3.96875 1.007812 "/>
<path style=" stroke:none;fill-rule:nonzero;fill:rgb(100%,100%,100%);fill-opacity:1;" d="M 5.578125 4.78125 L 6.640625 6.109375 L 7.171875 5.84375 L 6.375 5.046875 L 7.171875 4.78125 Z M 9.828125 4.78125 L 10.625 5.046875 L 9.828125 5.84375 L 10.359375 6.109375 L 11.421875 4.78125 Z M 8.5 5.3125 C 7.808594 5.316406 6.902344 5.691406 6.90625 7.011719 L 8.5 6.109375 L 10.09375 7.011719 C 10.097656 5.691406 9.191406 5.316406 8.5 5.3125 Z M 4.515625 5.84375 L 5.046875 7.4375 L 5.046875 6.90625 L 6.109375 6.90625 L 6.375 6.375 Z M 12.484375 5.84375 L 10.625 6.375 L 10.890625 6.90625 L 11.953125 6.90625 L 11.953125 7.4375 Z M 8.5 6.640625 L 7.703125 7.117188 L 7.808594 7.863281 L 8.074219 7.171875 L 8.925781 7.171875 L 9.191406 7.863281 L 9.296875 7.121094 Z M 5.84375 7.4375 L 3.71875 8.234375 L 4.78125 8.765625 L 4.78125 8.5 L 5.578125 8.234375 Z M 7.171875 7.4375 L 6.109375 7.863281 C 6.117188 8.730469 6.601562 9.550781 7.09375 9.949219 C 7.433594 10.222656 7.863281 10.535156 8.074219 10.625 C 8.316406 10.714844 8.183594 10.175781 8.234375 10.09375 L 8.765625 10.09375 C 8.816406 10.175781 8.683594 10.714844 8.925781 10.625 C 9.136719 10.535156 9.566406 10.222656 9.90625 9.949219 C 10.398438 9.550781 10.882812 8.730469 10.890625 7.863281 L 9.828125 7.4375 L 9.5625 8.5 L 8.871094 8.5 L 8.5 7.4375 L 8.128906 8.5 L 7.4375 8.5 Z M 11.15625 7.4375 L 11.421875 8.234375 L 12.21875 8.5 L 12.21875 8.765625 L 13.28125 8.234375 Z M 5.84375 9.03125 L 4.515625 9.5625 L 6.640625 12.21875 Z M 11.15625 9.03125 L 10.359375 12.21875 L 12.484375 9.5625 Z M 11.15625 9.03125 "/>
</g>
</svg>
