<?xml version="1.0" encoding="UTF-8"?>
<svg xmlns="http://www.w3.org/2000/svg" xmlns:xlink="http://www.w3.org/1999/xlink" width="17pt" height="17pt" viewBox="0 0 17 17" version="1.1">
<defs>
<clipPath id="clip1">
  <rect width="17" height="17"/>
</clipPath>
<g id="surface6" clip-path="url(#clip1)">
<path style=" stroke:none;fill-rule:nonzero;fill:rgb(83.921569%,20.784314%,18.431373%);fill-opacity:1;" d="M 6.109375 5.84375 C 5.230469 5.84375 4.515625 6.558594 4.515625 7.4375 C 4.515625 8.316406 5.230469 9.03125 6.109375 9.03125 C 6.988281 9.03125 7.703125 8.316406 7.703125 7.4375 L 6.109375 7.4375 Z M 8.765625 5.84375 L 8.765625 6.90625 L 12.484375 6.90625 L 12.484375 5.84375 Z M 8.765625 7.96875 L 8.765625 9.03125 L 12.484375 9.03125 L 12.484375 7.96875 Z M 4.515625 10.09375 L 4.515625 11.15625 L 10.890625 11.15625 L 10.890625 10.09375 Z M 4.515625 10.09375 "/>
</g>
</defs>
<g id="surface1">
<path style=" stroke:none;fill-rule:evenodd;fill:rgb(96.078431%,51.764706%,20.784314%);fill-opacity:1;" d="M 3.96875 1.007812 L 13.03125 1.007812 C 14.664062 1.007812 15.992188 2.335938 15.992188 3.96875 L 15.992188 13.03125 C 15.992188 14.664062 14.664062 15.992188 13.03125 15.992188 L 3.96875 15.992188 C 2.335938 15.992188 1.007812 14.664062 1.007812 13.03125 L 1.007812 3.96875 C 1.007812 2.335938 2.335938 1.007812 3.96875 1.007812 Z M 3.96875 1.007812 "/>
<use xlink:href="#surface6"/>
</g>
</svg>
