<?xml version="1.0" encoding="UTF-8"?>
<svg xmlns="http://www.w3.org/2000/svg" xmlns:xlink="http://www.w3.org/1999/xlink" width="17pt" height="17pt" viewBox="0 0 17 17" version="1.1">
<defs>
<clipPath id="clip1">
  <rect width="17" height="17"/>
</clipPath>
<g id="surface6" clip-path="url(#clip1)">
<path style=" stroke:none;fill-rule:nonzero;fill:rgb(100%,100%,100%);fill-opacity:1;" d="M 11.589844 4.320312 C 11.589844 4.320312 9.464844 4.320312 9.464844 6.445312 L 9.464844 8.570312 L 7.871094 8.570312 L 7.871094 10.695312 L 9.464844 10.695312 L 9.464844 16.007812 L 11.589844 16.007812 L 11.589844 10.695312 L 13.449219 10.695312 L 13.714844 8.570312 L 11.589844 8.570312 L 11.589844 6.976562 C 11.589844 6.445312 12.121094 6.445312 12.121094 6.445312 L 13.714844 6.445312 L 13.714844 4.320312 Z M 11.589844 4.320312 "/>
</g>
</defs>
<g id="surface1">
<path style=" stroke:none;fill-rule:evenodd;fill:rgb(23.137255%,34.901961%,60%);fill-opacity:1;" d="M 3.96875 0.992188 L 13.03125 0.992188 C 14.664062 0.992188 15.992188 2.316406 15.992188 3.953125 L 15.992188 13.011719 C 15.992188 14.648438 14.664062 15.972656 13.03125 15.972656 L 3.96875 15.972656 C 2.335938 15.972656 1.007812 14.648438 1.007812 13.011719 L 1.007812 3.953125 C 1.007812 2.316406 2.335938 0.992188 3.96875 0.992188 Z M 3.96875 0.992188 "/>
<use xlink:href="#surface6"/>
</g>
</svg>
