<?xml version="1.0" encoding="UTF-8"?>
<svg xmlns="http://www.w3.org/2000/svg" xmlns:xlink="http://www.w3.org/1999/xlink" width="17pt" height="17pt" viewBox="0 0 17 17" version="1.1">
<g id="surface1">
<path style=" stroke:none;fill-rule:evenodd;fill:rgb(35.686275%,35.686275%,35.686275%);fill-opacity:1;" d="M 3.96875 1.007812 L 13.03125 1.007812 C 14.664062 1.007812 15.992188 2.335938 15.992188 3.96875 L 15.992188 13.03125 C 15.992188 14.664062 14.664062 15.992188 13.03125 15.992188 L 3.96875 15.992188 C 2.335938 15.992188 1.007812 14.664062 1.007812 13.03125 L 1.007812 3.96875 C 1.007812 2.335938 2.335938 1.007812 3.96875 1.007812 Z M 3.96875 1.007812 "/>
<path style=" stroke:none;fill-rule:nonzero;fill:rgb(35.686275%,35.686275%,35.686275%);fill-opacity:1;" d="M 3.242188 4.324219 L 13.757812 4.324219 C 14.082031 4.324219 14.34375 4.585938 14.34375 4.910156 L 14.34375 12.089844 C 14.34375 12.414062 14.082031 12.675781 13.757812 12.675781 L 3.242188 12.675781 C 2.917969 12.675781 2.65625 12.414062 2.65625 12.089844 L 2.65625 4.910156 C 2.65625 4.585938 2.917969 4.324219 3.242188 4.324219 Z M 3.242188 4.324219 "/>
<path style=" stroke:none;fill-rule:nonzero;fill:rgb(80%,80%,80%);fill-opacity:1;" d="M 4.742188 6.203125 C 4.742188 6.550781 4.464844 6.832031 4.117188 6.832031 C 3.769531 6.832031 3.492188 6.550781 3.492188 6.203125 C 3.492188 5.859375 3.769531 5.578125 4.117188 5.578125 C 4.464844 5.578125 4.742188 5.859375 4.742188 6.203125 Z M 4.742188 6.203125 "/>
<path style=" stroke:none;fill-rule:nonzero;fill:rgb(80%,80%,80%);fill-opacity:1;" d="M 6.832031 6.203125 C 6.832031 6.550781 6.550781 6.832031 6.203125 6.832031 C 5.859375 6.832031 5.578125 6.550781 5.578125 6.203125 C 5.578125 5.859375 5.859375 5.578125 6.203125 5.578125 C 6.550781 5.578125 6.832031 5.859375 6.832031 6.203125 Z M 6.832031 6.203125 "/>
<path style=" stroke:none;fill-rule:nonzero;fill:rgb(80%,80%,80%);fill-opacity:1;" d="M 8.917969 6.203125 C 8.917969 6.550781 8.636719 6.832031 8.292969 6.832031 C 7.945312 6.832031 7.664062 6.550781 7.664062 6.203125 C 7.664062 5.859375 7.945312 5.578125 8.292969 5.578125 C 8.636719 5.578125 8.917969 5.859375 8.917969 6.203125 Z M 8.917969 6.203125 "/>
<path style=" stroke:none;fill-rule:nonzero;fill:rgb(80%,80%,80%);fill-opacity:1;" d="M 11.003906 6.203125 C 11.003906 6.550781 10.722656 6.832031 10.378906 6.832031 C 10.03125 6.832031 9.753906 6.550781 9.753906 6.203125 C 9.753906 5.859375 10.03125 5.578125 10.378906 5.578125 C 10.722656 5.578125 11.003906 5.859375 11.003906 6.203125 Z M 11.003906 6.203125 "/>
<path style=" stroke:none;fill-rule:nonzero;fill:rgb(100%,53.333333%,20.392157%);fill-opacity:1;" d="M 13.089844 6.203125 C 13.089844 6.550781 12.8125 6.832031 12.464844 6.832031 C 12.121094 6.832031 11.839844 6.550781 11.839844 6.203125 C 11.839844 5.859375 12.121094 5.578125 12.464844 5.578125 C 12.8125 5.578125 13.089844 5.859375 13.089844 6.203125 Z M 13.089844 6.203125 "/>
<path style=" stroke:none;fill-rule:nonzero;fill:rgb(80%,80%,80%);fill-opacity:1;" d="M 5.996094 8.707031 C 5.996094 9.054688 5.714844 9.335938 5.371094 9.335938 C 5.023438 9.335938 4.742188 9.054688 4.742188 8.707031 C 4.742188 8.363281 5.023438 8.082031 5.371094 8.082031 C 5.714844 8.082031 5.996094 8.363281 5.996094 8.707031 Z M 5.996094 8.707031 "/>
<path style=" stroke:none;fill-rule:nonzero;fill:rgb(80%,80%,80%);fill-opacity:1;" d="M 8.082031 8.707031 C 8.082031 9.054688 7.800781 9.335938 7.457031 9.335938 C 7.109375 9.335938 6.832031 9.054688 6.832031 8.707031 C 6.832031 8.363281 7.109375 8.082031 7.457031 8.082031 C 7.800781 8.082031 8.082031 8.363281 8.082031 8.707031 Z M 8.082031 8.707031 "/>
<path style=" stroke:none;fill-rule:nonzero;fill:rgb(100%,53.333333%,20.392157%);fill-opacity:1;" d="M 10.167969 8.707031 C 10.167969 9.054688 9.890625 9.335938 9.542969 9.335938 C 9.199219 9.335938 8.917969 9.054688 8.917969 8.707031 C 8.917969 8.363281 9.199219 8.082031 9.542969 8.082031 C 9.890625 8.082031 10.167969 8.363281 10.167969 8.707031 Z M 10.167969 8.707031 "/>
<path style=" stroke:none;fill-rule:nonzero;fill:rgb(80%,80%,80%);fill-opacity:1;" d="M 12.257812 8.707031 C 12.257812 9.054688 11.976562 9.335938 11.628906 9.335938 C 11.285156 9.335938 11.003906 9.054688 11.003906 8.707031 C 11.003906 8.363281 11.285156 8.082031 11.628906 8.082031 C 11.976562 8.082031 12.257812 8.363281 12.257812 8.707031 Z M 12.257812 8.707031 "/>
<path style=" stroke:none;fill-rule:nonzero;fill:rgb(80%,80%,80%);fill-opacity:1;" d="M 4.640625 10.585938 L 12.359375 10.585938 C 12.535156 10.585938 12.675781 10.726562 12.675781 10.898438 L 12.675781 11.527344 C 12.675781 11.699219 12.535156 11.839844 12.359375 11.839844 L 4.640625 11.839844 C 4.464844 11.839844 4.324219 11.699219 4.324219 11.527344 L 4.324219 10.898438 C 4.324219 10.726562 4.464844 10.585938 4.640625 10.585938 Z M 4.640625 10.585938 "/>
<path style=" stroke:none;fill-rule:nonzero;fill:rgb(91.372549%,32.941176%,11.372549%);fill-opacity:1;" d="M 14.71875 11.414062 C 14.71875 13.171875 13.292969 14.601562 11.53125 14.601562 C 9.769531 14.601562 8.34375 13.171875 8.34375 11.414062 C 8.34375 9.652344 9.769531 8.226562 11.53125 8.226562 C 13.292969 8.226562 14.71875 9.652344 14.71875 11.414062 Z M 14.71875 11.414062 "/>
<path style=" stroke:none;fill-rule:nonzero;fill:rgb(100%,100%,100%);fill-opacity:1;" d="M 11.429688 9.820312 C 11.3125 9.820312 11.195312 9.824219 11.117188 9.835938 C 10.773438 9.890625 10.496094 10.011719 10.316406 10.1875 C 10.21875 10.285156 10.160156 10.386719 10.121094 10.523438 C 10.101562 10.601562 10.09375 10.789062 10.113281 10.859375 C 10.1875 11.109375 10.359375 11.300781 10.683594 11.496094 C 10.824219 11.578125 10.929688 11.628906 11.238281 11.769531 C 11.605469 11.933594 11.71875 12 11.769531 12.082031 C 11.789062 12.117188 11.796875 12.132812 11.792969 12.175781 C 11.789062 12.238281 11.757812 12.269531 11.679688 12.296875 C 11.632812 12.316406 11.613281 12.320312 11.519531 12.320312 C 11.34375 12.320312 11.191406 12.289062 10.980469 12.210938 C 10.832031 12.160156 10.683594 12.085938 10.558594 12.007812 C 10.4375 11.925781 10.425781 11.921875 10.390625 11.941406 C 10.363281 11.957031 10.164062 12.136719 10.015625 12.28125 C 9.917969 12.375 9.917969 12.394531 9.984375 12.457031 C 10.050781 12.523438 10.234375 12.660156 10.335938 12.71875 C 10.445312 12.78125 10.519531 12.820312 10.640625 12.863281 C 10.847656 12.941406 11.023438 12.972656 11.347656 13 C 11.425781 13.007812 11.6875 13.007812 11.78125 13 C 12.292969 12.960938 12.710938 12.792969 12.929688 12.550781 C 13.007812 12.460938 13.054688 12.386719 13.089844 12.285156 C 13.128906 12.183594 13.136719 11.984375 13.109375 11.863281 C 13.066406 11.667969 12.949219 11.492188 12.757812 11.34375 C 12.570312 11.195312 12.375 11.097656 11.914062 10.910156 C 11.589844 10.78125 11.46875 10.714844 11.4375 10.640625 C 11.417969 10.601562 11.429688 10.535156 11.457031 10.507812 C 11.507812 10.457031 11.605469 10.4375 11.730469 10.453125 C 11.96875 10.484375 12.273438 10.589844 12.539062 10.742188 C 12.589844 10.769531 12.640625 10.792969 12.652344 10.796875 C 12.695312 10.808594 12.722656 10.789062 12.898438 10.589844 C 13.113281 10.34375 13.109375 10.355469 12.992188 10.269531 C 12.640625 10.019531 12.230469 9.871094 11.761719 9.828125 C 11.667969 9.820312 11.550781 9.816406 11.429688 9.820312 Z M 11.429688 9.820312 "/>
</g>
</svg>
