<?xml version="1.0" encoding="UTF-8"?>
<svg xmlns="http://www.w3.org/2000/svg" xmlns:xlink="http://www.w3.org/1999/xlink" width="17pt" height="17pt" viewBox="0 0 17 17" version="1.1">
<g id="surface1">
<path style=" stroke:none;fill-rule:evenodd;fill:rgb(0.784314%,52.54902%,76.078431%);fill-opacity:1;" d="M 3.96875 1.007812 L 13.03125 1.007812 C 14.664062 1.007812 15.992188 2.335938 15.992188 3.96875 L 15.992188 13.03125 C 15.992188 14.664062 14.664062 15.992188 13.03125 15.992188 L 3.96875 15.992188 C 2.335938 15.992188 1.007812 14.664062 1.007812 13.03125 L 1.007812 3.96875 C 1.007812 2.335938 2.335938 1.007812 3.96875 1.007812 Z M 3.96875 1.007812 "/>
<path style=" stroke:none;fill-rule:nonzero;fill:rgb(100%,100%,100%);fill-opacity:1;" d="M 13.238281 4.589844 C 13.199219 4.582031 13.152344 4.621094 13.089844 4.6875 C 13 4.785156 12.914062 5.070312 12.804688 5.667969 C 12.617188 6.664062 12.492188 7.082031 12.320312 7.320312 C 12.246094 7.414062 12.203125 7.539062 12.222656 7.589844 C 12.273438 7.726562 12.546875 7.90625 12.925781 8.042969 C 13.316406 8.1875 13.453125 8.195312 13.484375 8.082031 C 13.5 8.035156 13.480469 7.261719 13.445312 6.359375 C 13.390625 5.039062 13.355469 4.609375 13.238281 4.589844 Z M 4.019531 4.65625 C 3.976562 4.652344 3.929688 4.683594 3.875 4.742188 C 3.785156 4.835938 3.765625 5.085938 3.738281 6.460938 C 3.71875 7.34375 3.714844 8.089844 3.726562 8.117188 C 3.792969 8.273438 4.550781 7.984375 4.816406 7.695312 L 4.953125 7.554688 L 4.785156 7.253906 C 4.679688 7.0625 4.558594 6.625 4.4375 6.015625 C 4.242188 5.027344 4.148438 4.671875 4.019531 4.65625 Z M 10.09375 6.570312 C 9.894531 6.5625 9.671875 6.640625 9.320312 6.777344 C 8.949219 6.917969 8.570312 7.03125 8.472656 7.03125 C 8.378906 7.03125 8.085938 6.941406 7.820312 6.824219 C 7.164062 6.542969 6.902344 6.503906 6.636719 6.652344 C 6.515625 6.722656 6.074219 7.140625 5.652344 7.589844 C 5.011719 8.265625 4.824219 8.425781 4.507812 8.554688 C 4.011719 8.757812 3.589844 8.804688 3.246094 8.699219 C 2.777344 8.558594 2.523438 8.824219 2.726562 9.25 C 2.917969 9.652344 3.683594 10.019531 4.703125 10.191406 C 6.113281 10.433594 7.046875 10.210938 8.039062 9.398438 C 8.226562 9.242188 8.4375 9.113281 8.507812 9.113281 C 8.574219 9.113281 8.804688 9.257812 9.019531 9.433594 C 9.527344 9.847656 9.773438 9.980469 10.378906 10.164062 C 10.804688 10.289062 10.972656 10.304688 11.574219 10.265625 C 12.84375 10.1875 13.691406 9.914062 14.136719 9.441406 C 14.289062 9.285156 14.34375 9.164062 14.34375 9 C 14.34375 8.667969 14.167969 8.585938 13.722656 8.703125 C 13.453125 8.773438 13.300781 8.777344 13.027344 8.714844 C 12.359375 8.558594 12.058594 8.351562 11.277344 7.5 C 10.671875 6.835938 10.421875 6.582031 10.09375 6.570312 Z M 13.195312 10.816406 C 13.171875 10.820312 13.144531 10.828125 13.105469 10.835938 C 12.632812 10.964844 12.140625 11.035156 11.429688 11.074219 L 10.648438 11.121094 L 10.632812 11.59375 C 10.613281 12.015625 10.628906 12.082031 10.773438 12.238281 C 10.925781 12.402344 10.980469 12.414062 11.539062 12.410156 C 12.167969 12.40625 12.542969 12.308594 12.773438 12.089844 C 12.945312 11.925781 13.28125 11.171875 13.28125 10.953125 C 13.28125 10.847656 13.269531 10.8125 13.195312 10.816406 Z M 3.722656 10.824219 C 3.703125 10.84375 3.742188 11.050781 3.804688 11.277344 C 3.941406 11.773438 4.238281 12.160156 4.589844 12.304688 C 4.941406 12.445312 5.871094 12.445312 6.109375 12.304688 C 6.300781 12.195312 6.375 11.960938 6.375 11.488281 C 6.375 11.019531 6.359375 11.007812 5.636719 11.007812 C 5.273438 11.007812 4.703125 10.957031 4.367188 10.894531 C 4.03125 10.832031 3.742188 10.800781 3.722656 10.824219 Z M 3.722656 10.824219 "/>
</g>
</svg>
