<?xml version="1.0" encoding="UTF-8"?>
<svg xmlns="http://www.w3.org/2000/svg" xmlns:xlink="http://www.w3.org/1999/xlink" width="17pt" height="17pt" viewBox="0 0 17 17" version="1.1">
<g id="surface1">
<path style=" stroke:none;fill-rule:evenodd;fill:rgb(54.117647%,29.411765%,17.254902%);fill-opacity:1;" d="M 3.96875 1.007812 L 13.03125 1.007812 C 14.664062 1.007812 15.992188 2.335938 15.992188 3.96875 L 15.992188 13.03125 C 15.992188 14.664062 14.664062 15.992188 13.03125 15.992188 L 3.96875 15.992188 C 2.335938 15.992188 1.007812 14.664062 1.007812 13.03125 L 1.007812 3.96875 C 1.007812 2.335938 2.335938 1.007812 3.96875 1.007812 Z M 3.96875 1.007812 "/>
<path style=" stroke:none;fill-rule:nonzero;fill:rgb(98.431373%,71.372549%,29.019608%);fill-opacity:1;" d="M 5.164062 14.816406 C 5.171875 14.792969 5.195312 14.648438 5.214844 14.492188 C 5.339844 13.546875 5.332031 12.9375 5.578125 12.535156 C 5.625 12.460938 5.753906 12.296875 5.863281 12.167969 C 5.976562 12.042969 6.070312 11.964844 6.070312 11.949219 C 6.070312 11.929688 6.035156 11.925781 5.964844 11.9375 C 5.617188 11.992188 5.40625 11.929688 5.3125 11.765625 C 5.261719 11.683594 5.320312 11.789062 5.3125 9.710938 C 5.304688 7.320312 5.332031 7.550781 5.550781 7.441406 C 5.707031 7.359375 5.90625 7.238281 6.082031 7.207031 C 6.378906 7.160156 6.578125 7.382812 6.726562 7.667969 C 6.765625 7.746094 6.8125 7.808594 6.828125 7.800781 C 6.875 7.785156 6.886719 5.632812 6.839844 5.632812 C 6.820312 5.632812 6.785156 5.6875 6.761719 5.75 C 6.699219 5.910156 6.554688 6.28125 6.378906 6.359375 C 6.199219 6.4375 5.621094 6.640625 5.5 6.640625 C 5.449219 6.640625 5.328125 6.628906 5.3125 6.613281 C 5.289062 6.589844 5.3125 6.214844 5.3125 5.0625 C 5.3125 4.226562 5.300781 3.367188 5.3125 3.351562 C 5.40625 3.207031 6.863281 3.144531 7.367188 3.257812 C 7.46875 3.28125 7.640625 3.339844 7.75 3.394531 C 8.03125 3.527344 8.210938 3.777344 8.402344 4.144531 C 8.414062 4.164062 8.4375 4.179688 8.457031 4.179688 C 8.484375 4.179688 8.492188 4.117188 8.5 3.320312 C 8.5 2.792969 8.5 2.175781 8.492188 2.144531 C 8.492188 2.144531 8.21875 2.507812 8.179688 2.578125 L 8.105469 2.644531 L 7.628906 2.636719 C 7.371094 2.632812 6.226562 2.636719 5.289062 2.632812 C 4.347656 2.632812 3.242188 2.648438 3.21875 2.65625 C 3.136719 2.691406 3.21875 2.742188 3.433594 2.855469 C 3.796875 3.054688 4.140625 3.214844 4.226562 3.546875 C 4.28125 3.742188 4.277344 6.488281 4.226562 6.710938 C 4.175781 6.921875 4.003906 7.078125 3.84375 7.25 C 3.769531 7.332031 3.707031 7.40625 3.707031 7.417969 C 3.707031 7.429688 3.769531 7.5 3.847656 7.574219 C 3.996094 7.722656 4.195312 7.902344 4.234375 8.050781 C 4.269531 8.195312 4.296875 12.367188 4.265625 12.597656 C 4.230469 12.824219 4.082031 12.925781 3.894531 13.125 C 3.714844 13.3125 3.714844 13.3125 3.988281 13.417969 C 4.210938 13.5 4.625 13.691406 4.710938 13.816406 C 4.800781 13.949219 4.914062 14.195312 5.007812 14.535156 C 5.050781 14.691406 5.089844 14.824219 5.097656 14.835938 C 5.113281 14.867188 5.148438 14.855469 5.164062 14.816406 Z M 5.164062 14.816406 "/>
<path style=" stroke:none;fill-rule:nonzero;fill:rgb(98.431373%,71.372549%,29.019608%);fill-opacity:1;" d="M 9.589844 3.167969 C 9.5625 3.183594 9.558594 3.394531 9.566406 4.082031 C 9.574219 5.082031 9.539062 4.761719 9.742188 4.5 C 10.03125 4.132812 10.410156 4.230469 10.570312 4.210938 C 10.980469 4.203125 11.082031 4.207031 11.121094 4.246094 C 11.160156 4.285156 11.195312 4.746094 11.164062 5.660156 L 11.164062 6.894531 C 11.164062 6.894531 10.878906 7.121094 10.726562 7.269531 C 10.671875 7.328125 10.628906 7.390625 10.628906 7.410156 C 10.628906 7.425781 10.667969 7.484375 10.714844 7.535156 C 10.832031 7.746094 11.148438 7.921875 11.148438 7.921875 L 11.160156 10.050781 C 11.164062 12.375 11.164062 12.234375 11.109375 12.28125 C 11.109375 12.28125 10.730469 12.675781 10.625 12.730469 C 11.171875 12.90625 11.390625 13.054688 11.617188 13.550781 C 11.65625 13.675781 11.667969 13.792969 11.6875 13.792969 C 11.707031 13.792969 11.71875 13.675781 11.757812 13.550781 C 11.984375 13.054688 12.203125 12.90625 12.75 12.730469 C 12.644531 12.675781 12.265625 12.28125 12.265625 12.28125 C 12.210938 12.234375 12.210938 12.375 12.214844 10.050781 L 12.226562 7.921875 C 12.226562 7.921875 12.542969 7.746094 12.660156 7.535156 C 12.707031 7.484375 12.746094 7.425781 12.746094 7.410156 C 12.746094 7.390625 12.703125 7.328125 12.648438 7.269531 C 12.496094 7.121094 12.210938 6.894531 12.210938 6.894531 L 12.210938 5.660156 C 12.179688 4.746094 12.214844 4.285156 12.253906 4.246094 C 12.292969 4.207031 12.394531 4.203125 12.804688 4.210938 C 12.964844 4.230469 13.34375 4.132812 13.632812 4.5 C 13.835938 4.761719 13.800781 5.082031 13.808594 4.082031 C 13.816406 3.394531 13.8125 3.183594 13.785156 3.167969 C 13.691406 3.3125 13.480469 3.6875 13.480469 3.6875 C 13.441406 3.710938 12.703125 3.699219 11.6875 3.699219 C 10.671875 3.699219 9.933594 3.710938 9.894531 3.6875 C 9.894531 3.6875 9.683594 3.3125 9.589844 3.167969 Z M 9.589844 3.167969 "/>
</g>
</svg>
