<?xml version="1.0" encoding="UTF-8"?>
<svg xmlns="http://www.w3.org/2000/svg" xmlns:xlink="http://www.w3.org/1999/xlink" width="17pt" height="17pt" viewBox="0 0 17 17" version="1.1">
<defs>
<clipPath id="clip1">
  <rect width="17" height="17"/>
</clipPath>
<g id="surface6" clip-path="url(#clip1)">
<path style=" stroke:none;fill-rule:evenodd;fill:rgb(75.294118%,21.176471%,18.823529%);fill-opacity:1;" d="M 15.082031 11.605469 C 15.082031 13.363281 13.65625 14.792969 11.894531 14.792969 C 10.136719 14.792969 8.707031 13.363281 8.707031 11.605469 C 8.707031 9.84375 10.136719 8.417969 11.894531 8.417969 C 13.65625 8.417969 15.082031 9.84375 15.082031 11.605469 Z M 15.082031 11.605469 "/>
</g>
</defs>
<g id="surface1">
<path style=" stroke:none;fill-rule:evenodd;fill:rgb(82.352941%,82.352941%,82.352941%);fill-opacity:1;" d="M 3.96875 1.007812 L 13.03125 1.007812 C 14.664062 1.007812 15.992188 2.335938 15.992188 3.96875 L 15.992188 13.03125 C 15.992188 14.664062 14.664062 15.992188 13.03125 15.992188 L 3.96875 15.992188 C 2.335938 15.992188 1.007812 14.664062 1.007812 13.03125 L 1.007812 3.96875 C 1.007812 2.335938 2.335938 1.007812 3.96875 1.007812 Z M 3.96875 1.007812 "/>
<path style=" stroke:none;fill-rule:nonzero;fill:rgb(30.196078%,30.196078%,30.196078%);fill-opacity:1;" d="M 4.769531 3.71875 C 4.675781 3.71875 4.585938 3.765625 4.535156 3.84375 C 4.488281 3.925781 4.488281 4.023438 4.535156 4.101562 C 4.582031 4.183594 4.671875 4.234375 4.765625 4.230469 L 6.441406 4.242188 L 7.292969 5.074219 L 7.292969 8.238281 C 7.292969 8.332031 7.34375 8.417969 7.425781 8.464844 C 7.507812 8.511719 7.609375 8.511719 7.695312 8.464844 C 7.777344 8.417969 7.828125 8.332031 7.824219 8.238281 L 7.824219 7.601562 C 7.824219 7.597656 7.824219 7.589844 7.824219 7.585938 L 7.824219 4.96875 C 7.824219 4.898438 7.796875 4.835938 7.746094 4.785156 L 6.742188 3.804688 C 6.691406 3.757812 6.625 3.730469 6.554688 3.730469 Z M 11.136719 3.726562 C 10.988281 3.726562 10.871094 3.84375 10.875 3.988281 L 10.875 8.238281 C 10.875 8.332031 10.921875 8.417969 11.007812 8.464844 C 11.089844 8.511719 11.191406 8.511719 11.273438 8.464844 C 11.355469 8.417969 11.40625 8.332031 11.40625 8.238281 L 11.40625 7.601562 C 11.40625 7.597656 11.40625 7.589844 11.40625 7.585938 L 11.40625 3.988281 C 11.40625 3.917969 11.378906 3.851562 11.328125 3.800781 C 11.277344 3.75 11.207031 3.722656 11.136719 3.726562 Z M 7.953125 3.726562 C 7.84375 3.726562 7.746094 3.789062 7.707031 3.886719 C 7.664062 3.984375 7.691406 4.09375 7.765625 4.167969 L 8.695312 5.074219 L 8.695312 7.585938 C 8.695312 7.59375 8.695312 7.601562 8.695312 7.609375 L 8.695312 8.238281 C 8.695312 8.332031 8.746094 8.417969 8.828125 8.464844 C 8.910156 8.511719 9.011719 8.511719 9.097656 8.464844 C 9.179688 8.417969 9.230469 8.332031 9.226562 8.238281 L 9.226562 4.96875 C 9.226562 4.898438 9.199219 4.835938 9.152344 4.785156 L 8.144531 3.804688 C 8.09375 3.753906 8.027344 3.726562 7.953125 3.726562 Z M 9.015625 3.726562 C 8.90625 3.726562 8.808594 3.789062 8.769531 3.886719 C 8.726562 3.984375 8.753906 4.09375 8.828125 4.167969 L 9.757812 5.074219 L 9.757812 8.238281 C 9.757812 8.332031 9.808594 8.417969 9.890625 8.464844 C 9.972656 8.511719 10.074219 8.511719 10.15625 8.464844 C 10.238281 8.417969 10.289062 8.332031 10.289062 8.238281 L 10.289062 7.601562 C 10.289062 7.597656 10.289062 7.589844 10.289062 7.585938 L 10.289062 4.96875 C 10.289062 4.898438 10.261719 4.835938 10.210938 4.785156 L 9.207031 3.804688 C 9.15625 3.753906 9.089844 3.726562 9.015625 3.726562 Z M 9.015625 3.726562 "/>
<path style=" stroke:none;fill-rule:nonzero;fill:rgb(30.196078%,30.196078%,30.196078%);fill-opacity:1;" d="M 7.449219 10.09375 C 7.304688 10.097656 7.1875 10.226562 7.1875 10.386719 L 7.1875 11.109375 C 7.1875 11.117188 7.1875 11.125 7.1875 11.132812 L 7.1875 12.125 L 6.671875 12.695312 L 4.769531 12.695312 C 4.671875 12.691406 4.585938 12.75 4.535156 12.839844 C 4.488281 12.929688 4.488281 13.042969 4.535156 13.132812 C 4.585938 13.222656 4.671875 13.277344 4.769531 13.277344 L 6.78125 13.277344 C 6.851562 13.277344 6.921875 13.246094 6.972656 13.191406 L 7.640625 12.449219 C 7.691406 12.394531 7.71875 12.320312 7.71875 12.242188 L 7.71875 10.386719 C 7.71875 10.308594 7.691406 10.234375 7.640625 10.179688 C 7.589844 10.121094 7.523438 10.089844 7.449219 10.09375 Z M 9.011719 10.09375 C 8.863281 10.097656 8.75 10.226562 8.75 10.386719 L 8.75 12.984375 C 8.75 13.089844 8.800781 13.1875 8.882812 13.242188 C 8.964844 13.292969 9.066406 13.292969 9.148438 13.242188 C 9.230469 13.1875 9.28125 13.089844 9.28125 12.984375 L 9.28125 11.152344 C 9.28125 11.144531 9.28125 11.136719 9.28125 11.132812 L 9.28125 10.386719 C 9.28125 10.308594 9.253906 10.234375 9.203125 10.179688 C 9.152344 10.125 9.082031 10.09375 9.011719 10.09375 Z M 10.074219 10.09375 C 9.929688 10.097656 9.8125 10.226562 9.8125 10.386719 L 9.8125 11.132812 C 9.8125 11.140625 9.8125 11.152344 9.8125 11.160156 L 9.8125 12.246094 C 9.8125 12.320312 9.839844 12.394531 9.890625 12.449219 L 10.558594 13.191406 C 10.609375 13.246094 10.679688 13.277344 10.75 13.277344 L 12.761719 13.277344 C 12.859375 13.277344 12.945312 13.222656 12.996094 13.132812 C 13.042969 13.042969 13.042969 12.929688 12.996094 12.839844 C 12.945312 12.75 12.859375 12.691406 12.761719 12.695312 L 10.859375 12.695312 L 10.34375 12.125 L 10.34375 10.390625 C 10.34375 10.3125 10.316406 10.234375 10.265625 10.179688 C 10.214844 10.125 10.148438 10.09375 10.074219 10.09375 Z M 11.140625 10.09375 C 10.992188 10.097656 10.875 10.226562 10.878906 10.386719 L 10.878906 11.085938 C 10.871094 11.136719 10.875 11.1875 10.894531 11.234375 C 10.894531 11.238281 10.898438 11.242188 10.898438 11.25 C 10.917969 11.296875 10.945312 11.335938 10.984375 11.367188 L 11.625 12.078125 C 11.675781 12.132812 11.742188 12.164062 11.816406 12.164062 L 12.484375 12.164062 C 12.582031 12.164062 12.671875 12.109375 12.71875 12.019531 C 12.765625 11.929688 12.765625 11.816406 12.71875 11.726562 C 12.671875 11.636719 12.582031 11.582031 12.484375 11.582031 L 11.925781 11.582031 L 11.410156 11.011719 L 11.410156 10.386719 C 11.410156 10.308594 11.382812 10.234375 11.332031 10.179688 C 11.28125 10.125 11.210938 10.09375 11.140625 10.09375 Z M 11.140625 10.09375 "/>
<path style=" stroke:none;fill-rule:nonzero;fill:rgb(30.196078%,30.196078%,30.196078%);fill-opacity:1;" d="M 4.246094 4.78125 C 4.09375 4.78125 3.96875 4.898438 3.96875 5.039062 L 3.96875 11.960938 C 3.96875 12.101562 4.09375 12.21875 4.246094 12.21875 L 5.996094 12.21875 C 6.070312 12.21875 6.140625 12.191406 6.195312 12.140625 L 6.542969 11.8125 C 6.597656 11.765625 6.625 11.699219 6.625 11.628906 L 6.625 5.699219 C 6.625 5.628906 6.597656 5.566406 6.542969 5.515625 L 5.84375 4.859375 C 5.792969 4.808594 5.722656 4.78125 5.648438 4.78125 Z M 4.246094 4.78125 "/>
<path style="fill:none;stroke-width:1;stroke-linecap:round;stroke-linejoin:round;stroke:rgb(30.196078%,30.196078%,30.196078%);stroke-opacity:1;stroke-miterlimit:4;" d="M 13.794892 13.220808 L 21.309597 13.220808 C 22.030186 13.220808 22.603715 13.80169 22.603715 14.514926 L 22.603715 20.206102 C 22.603715 20.919337 22.030186 21.50022 21.309597 21.50022 L 13.794892 21.50022 C 13.081656 21.50022 12.500774 20.919337 12.500774 20.206102 L 12.500774 14.514926 C 12.500774 13.80169 13.081656 13.220808 13.794892 13.220808 Z M 13.794892 13.220808 " transform="matrix(0.53125,0,0,0.53125,0.249589,-0.000116788)"/>
<use xlink:href="#surface6"/>
<path style=" stroke:none;fill-rule:evenodd;fill:rgb(100%,100%,100%);fill-opacity:1;" d="M 11.894531 10.308594 C 11.507812 10.3125 11.121094 10.402344 10.785156 10.59375 C 10.648438 10.679688 10.488281 10.792969 10.367188 10.90625 C 10.175781 11.09375 10.015625 11.3125 9.902344 11.554688 C 10.207031 12.222656 10.871094 12.710938 11.601562 12.785156 C 12.082031 12.839844 12.585938 12.753906 13.007812 12.519531 C 13.140625 12.429688 13.300781 12.316406 13.421875 12.203125 C 13.613281 12.015625 13.777344 11.800781 13.886719 11.554688 C 13.585938 10.886719 12.921875 10.398438 12.1875 10.328125 C 12.089844 10.316406 11.992188 10.308594 11.894531 10.308594 Z M 11.894531 10.808594 C 12.296875 10.800781 12.648438 11.15625 12.644531 11.554688 C 12.65625 11.996094 12.21875 12.375 11.785156 12.292969 C 11.347656 12.242188 11.039062 11.75 11.183594 11.335938 C 11.273438 11.027344 11.574219 10.804688 11.894531 10.808594 Z M 11.894531 11.304688 C 11.828125 11.304688 11.765625 11.332031 11.71875 11.378906 C 11.671875 11.425781 11.648438 11.488281 11.648438 11.554688 C 11.648438 11.691406 11.757812 11.804688 11.894531 11.804688 C 12.035156 11.804688 12.144531 11.691406 12.144531 11.554688 C 12.144531 11.417969 12.03125 11.308594 11.894531 11.308594 Z M 11.894531 11.304688 "/>
</g>
</svg>
