<?xml version="1.0" encoding="UTF-8"?>
<svg xmlns="http://www.w3.org/2000/svg" xmlns:xlink="http://www.w3.org/1999/xlink" width="17pt" height="17pt" viewBox="0 0 17 17" version="1.1">
<defs>
<clipPath id="clip1">
  <rect width="17" height="17"/>
</clipPath>
<g id="surface6" clip-path="url(#clip1)">
<path style=" stroke:none;fill-rule:nonzero;fill:rgb(61.568627%,75.686275%,70.588235%);fill-opacity:1;" d="M 5.3125 4.230469 L 5.3125 3.699219 L 11.6875 3.699219 L 11.6875 4.230469 Z M 5.3125 4.230469 "/>
</g>
<clipPath id="clip2">
  <rect width="17" height="17"/>
</clipPath>
<g id="surface9" clip-path="url(#clip2)">
<path style=" stroke:none;fill-rule:nonzero;fill:rgb(61.568627%,75.686275%,70.588235%);fill-opacity:1;" d="M 5.3125 5.824219 L 5.3125 5.292969 L 11.6875 5.292969 L 11.6875 5.824219 Z M 5.3125 5.824219 "/>
</g>
<clipPath id="clip3">
  <rect width="17" height="17"/>
</clipPath>
<g id="surface12" clip-path="url(#clip3)">
<path style=" stroke:none;fill-rule:nonzero;fill:rgb(61.568627%,75.686275%,70.588235%);fill-opacity:1;" d="M 5.3125 7.417969 L 5.3125 6.886719 L 11.6875 6.886719 L 11.6875 7.417969 Z M 5.3125 7.417969 "/>
</g>
<clipPath id="clip4">
  <rect width="17" height="17"/>
</clipPath>
<g id="surface15" clip-path="url(#clip4)">
<path style=" stroke:none;fill-rule:nonzero;fill:rgb(61.568627%,75.686275%,70.588235%);fill-opacity:1;" d="M 5.3125 9.011719 L 5.3125 8.480469 L 9.5625 8.480469 L 9.5625 9.011719 Z M 5.3125 9.011719 "/>
</g>
</defs>
<g id="surface1">
<path style=" stroke:none;fill-rule:evenodd;fill:rgb(34.117647%,69.019608%,45.490196%);fill-opacity:1;" d="M 1.007812 11.738281 L 1.007812 13.027344 C 1.007812 14.671875 2.328125 15.992188 3.972656 15.992188 L 13.03125 15.992188 C 14.671875 15.992188 15.992188 14.671875 15.992188 13.027344 L 15.992188 11.738281 L 13.355469 11.738281 L 11.125 14.289062 L 8.890625 11.738281 Z M 1.007812 11.738281 "/>
<path style=" stroke:none;fill-rule:evenodd;fill:rgb(22.745098%,50.980392%,40.784314%);fill-opacity:1;" d="M 1.007812 11.738281 L 8.890625 11.738281 L 11.125 14.289062 L 13.355469 11.738281 L 15.992188 11.738281 L 15.992188 3.96875 C 15.992188 2.328125 14.671875 1.007812 13.03125 1.007812 L 3.972656 1.007812 C 2.328125 1.007812 1.007812 2.328125 1.007812 3.96875 Z M 1.007812 11.738281 "/>
<use xlink:href="#surface6"/>
<use xlink:href="#surface9"/>
<use xlink:href="#surface12"/>
<use xlink:href="#surface15"/>
</g>
</svg>
