<?xml version="1.0" encoding="UTF-8"?>
<svg xmlns="http://www.w3.org/2000/svg" xmlns:xlink="http://www.w3.org/1999/xlink" width="17pt" height="17pt" viewBox="0 0 17 17" version="1.1">
<g id="surface1">
<path style=" stroke:none;fill-rule:evenodd;fill:rgb(29.411765%,68.235294%,30.980392%);fill-opacity:1;" d="M 3.96875 1.007812 L 13.03125 1.007812 C 14.664062 1.007812 15.992188 2.335938 15.992188 3.96875 L 15.992188 13.03125 C 15.992188 14.664062 14.664062 15.992188 13.03125 15.992188 L 3.96875 15.992188 C 2.335938 15.992188 1.007812 14.664062 1.007812 13.03125 L 1.007812 3.96875 C 1.007812 2.335938 2.335938 1.007812 3.96875 1.007812 Z M 3.96875 1.007812 "/>
<path style=" stroke:none;fill-rule:nonzero;fill:rgb(69.803922%,100%,63.921569%);fill-opacity:1;" d="M 4.515625 5.179688 L 4.515625 11.820312 L 12.484375 11.820312 L 12.484375 5.179688 Z M 5.179688 5.84375 L 7.835938 5.84375 L 7.835938 7.171875 L 5.179688 7.171875 Z M 8.496094 5.84375 L 11.804688 5.84375 L 11.804688 7.171875 L 8.496094 7.171875 Z M 5.183594 7.835938 L 7.839844 7.835938 L 7.839844 9.164062 L 5.183594 9.164062 Z M 8.5 7.835938 L 11.804688 7.835938 L 11.804688 9.164062 L 8.5 9.164062 Z M 5.183594 9.828125 L 7.839844 9.828125 L 7.839844 11.15625 L 5.183594 11.15625 Z M 8.5 9.828125 L 11.804688 9.828125 L 11.804688 11.15625 L 8.5 11.15625 Z M 8.5 9.828125 "/>
</g>
</svg>
