<?xml version="1.0" encoding="UTF-8"?>
<svg xmlns="http://www.w3.org/2000/svg" xmlns:xlink="http://www.w3.org/1999/xlink" width="17pt" height="17pt" viewBox="0 0 17 17" version="1.1">
<g id="surface1">
<path style=" stroke:none;fill-rule:evenodd;fill:rgb(37.647059%,63.921569%,0%);fill-opacity:1;" d="M 3.96875 1.007812 L 13.03125 1.007812 C 14.664062 1.007812 15.992188 2.335938 15.992188 3.96875 L 15.992188 13.03125 C 15.992188 14.664062 14.664062 15.992188 13.03125 15.992188 L 3.96875 15.992188 C 2.335938 15.992188 1.007812 14.664062 1.007812 13.03125 L 1.007812 3.96875 C 1.007812 2.335938 2.335938 1.007812 3.96875 1.007812 Z M 3.96875 1.007812 "/>
<path style=" stroke:none;fill-rule:nonzero;fill:rgb(100%,100%,100%);fill-opacity:1;" d="M 8.5 3.34375 C 5.632812 3.34375 3.34375 5.632812 3.34375 8.5 C 3.34375 11.367188 5.632812 13.65625 8.5 13.65625 C 8.957031 13.65625 9.359375 13.257812 9.359375 12.796875 C 9.359375 12.570312 9.300781 12.398438 9.128906 12.226562 C 9.015625 12.054688 8.902344 11.882812 8.902344 11.652344 C 8.902344 11.195312 9.300781 10.792969 9.761719 10.792969 L 10.792969 10.792969 C 12.398438 10.792969 13.65625 9.53125 13.65625 7.925781 C 13.65625 5.40625 11.367188 3.34375 8.5 3.34375 Z M 8.5 3.34375 "/>
<path style=" stroke:none;fill-rule:nonzero;fill:rgb(99.215686%,55.686275%,3.137255%);fill-opacity:1;" d="M 4.929688 8.5 C 4.507812 8.5 4.136719 8.128906 4.136719 7.707031 C 4.136719 7.28125 4.507812 6.914062 4.929688 6.914062 C 5.351562 6.914062 5.722656 7.28125 5.722656 7.707031 C 5.722656 8.128906 5.351562 8.5 4.929688 8.5 Z M 4.929688 8.5 "/>
<path style=" stroke:none;fill-rule:nonzero;fill:rgb(24.705882%,56.470588%,86.27451%);fill-opacity:1;" d="M 6.914062 6.121094 C 6.488281 6.121094 6.121094 5.75 6.121094 5.324219 C 6.121094 4.902344 6.488281 4.53125 6.914062 4.53125 C 7.335938 4.53125 7.707031 4.902344 7.707031 5.324219 C 7.707031 5.75 7.335938 6.121094 6.914062 6.121094 Z M 6.914062 6.121094 "/>
<path style=" stroke:none;fill-rule:nonzero;fill:rgb(33.72549%,66.27451%,7.45098%);fill-opacity:1;" d="M 9.691406 6.121094 C 9.265625 6.121094 8.898438 5.75 8.898438 5.324219 C 8.898438 4.902344 9.265625 4.53125 9.691406 4.53125 C 10.113281 4.53125 10.484375 4.902344 10.484375 5.324219 C 10.484375 5.75 10.113281 6.121094 9.691406 6.121094 Z M 9.691406 6.121094 "/>
<path style=" stroke:none;fill-rule:nonzero;fill:rgb(95.294118%,35.686275%,35.686275%);fill-opacity:1;" d="M 11.675781 8.5 C 11.25 8.5 10.878906 8.128906 10.878906 7.707031 C 10.878906 7.285156 11.25 6.914062 11.675781 6.914062 C 12.097656 6.914062 12.46875 7.285156 12.46875 7.707031 C 12.46875 8.128906 12.097656 8.5 11.675781 8.5 Z M 11.675781 8.5 "/>
</g>
</svg>
