<?xml version="1.0" encoding="UTF-8"?>
<svg xmlns="http://www.w3.org/2000/svg" xmlns:xlink="http://www.w3.org/1999/xlink" width="17pt" height="17pt" viewBox="0 0 17 17" version="1.1">
<defs>
<clipPath id="clip1">
  <rect width="17" height="17"/>
</clipPath>
<g id="surface6" clip-path="url(#clip1)">
<path style=" stroke:none;fill-rule:nonzero;fill:rgb(100%,87.45098%,17.254902%);fill-opacity:1;" d="M 9.003906 12.46875 L 9.003906 13.777344 L 10.316406 13.777344 L 13.621094 10.46875 L 12.3125 9.160156 Z M 14.78125 9.316406 C 14.917969 9.175781 14.917969 8.960938 14.78125 8.820312 L 13.960938 8.003906 C 13.824219 7.863281 13.605469 7.863281 13.464844 8.003906 L 12.78125 8.691406 L 14.089844 10 Z M 14.78125 9.316406 "/>
</g>
</defs>
<g id="surface1">
<path style=" stroke:none;fill-rule:evenodd;fill:rgb(90.196078%,90.196078%,90.196078%);fill-opacity:1;" d="M 3.96875 1.007812 L 13.03125 1.007812 C 14.664062 1.007812 15.992188 2.335938 15.992188 3.96875 L 15.992188 13.03125 C 15.992188 14.664062 14.664062 15.992188 13.03125 15.992188 L 3.96875 15.992188 C 2.335938 15.992188 1.007812 14.664062 1.007812 13.03125 L 1.007812 3.96875 C 1.007812 2.335938 2.335938 1.007812 3.96875 1.007812 Z M 3.96875 1.007812 "/>
<path style=" stroke:none;fill-rule:nonzero;fill:rgb(40%,62.745098%,17.254902%);fill-opacity:1;" d="M 13.601562 11.902344 L 13.601562 2.972656 C 13.601562 2.738281 13.402344 2.546875 13.152344 2.546875 L 5.546875 2.546875 C 5.300781 2.546875 5.097656 2.738281 5.097656 2.972656 L 5.097656 11.902344 C 5.097656 12.136719 5.300781 12.324219 5.546875 12.324219 L 13.152344 12.324219 C 13.402344 12.324219 13.601562 12.136719 13.601562 11.902344 Z M 13.601562 11.902344 "/>
<path style=" stroke:none;fill-rule:nonzero;fill:rgb(49.411765%,73.72549%,18.039216%);fill-opacity:1;" d="M 11.902344 14.027344 L 11.902344 5.097656 C 11.902344 4.863281 11.699219 4.675781 11.453125 4.675781 L 3.847656 4.675781 C 3.597656 4.675781 3.398438 4.863281 3.398438 5.097656 L 3.398438 14.027344 C 3.398438 14.261719 3.597656 14.453125 3.847656 14.453125 L 11.453125 14.453125 C 11.699219 14.453125 11.902344 14.261719 11.902344 14.027344 Z M 11.902344 14.027344 "/>
<path style="fill-rule:nonzero;fill:rgb(100%,100%,100%);fill-opacity:1;stroke-width:0.5;stroke-linecap:butt;stroke-linejoin:miter;stroke:rgb(100%,100%,100%);stroke-opacity:1;stroke-miterlimit:4;" d="M 13.816176 13.308824 C 13.595588 13.308824 13.382353 13.419118 13.338235 13.595588 C 13.147059 14.279412 13.360294 15.338235 13.705882 16.661765 L 13.602941 16.919118 C 13.330882 17.566176 13 18.213235 12.705882 18.786765 C 11.5 21.147059 10.566176 22.419118 9.941176 22.507353 L 9.933824 22.485294 C 9.919118 22.191176 10.463235 21.426471 11.198529 20.823529 C 11.279412 20.764706 11.610294 20.448529 11.610294 20.448529 C 11.610294 20.448529 11.161765 20.683824 11.066176 20.742647 C 10.139706 21.294118 9.683824 21.845588 9.610294 22.213235 C 9.588235 22.316176 9.602941 22.455882 9.698529 22.507353 L 9.933824 22.625 C 10.573529 22.948529 11.367647 22.102941 12.411765 20.264706 C 13.485294 19.911765 14.816176 19.580882 16.029412 19.404412 C 17.117647 20.022059 18.367647 20.316176 18.845588 20.191176 C 18.933824 20.169118 19.029412 20.095588 19.080882 20.029412 C 19.117647 19.970588 19.176471 19.727941 19.176471 19.727941 C 19.176471 19.727941 19.080882 19.845588 19.007353 19.882353 C 18.705882 20.029412 17.75 19.786765 16.764706 19.308824 C 17.617647 19.220588 18.323529 19.213235 18.698529 19.338235 C 19.183824 19.485294 19.183824 19.647059 19.176471 19.676471 C 19.183824 19.654412 19.205882 19.544118 19.198529 19.5 C 19.191176 19.389706 19.154412 19.286765 19.066176 19.198529 C 18.889706 19.022059 18.448529 18.933824 17.852941 18.926471 C 17.404412 18.919118 16.860294 18.963235 16.272059 19.044118 C 16.007353 18.889706 15.720588 18.720588 15.492647 18.507353 C 14.926471 17.977941 14.448529 17.242647 14.154412 16.411765 C 14.169118 16.330882 14.191176 16.25 14.205882 16.176471 C 14.294118 15.801471 14.352941 14.573529 14.352941 14.573529 C 14.352941 14.573529 14.117647 15.5 14.080882 15.639706 C 14.051471 15.727941 14.022059 15.816176 13.992647 15.919118 C 13.808824 15.286765 13.720588 14.669118 13.720588 14.205882 C 13.720588 14.073529 13.727941 13.816176 13.772059 13.617647 C 13.786765 13.470588 13.838235 13.397059 13.889706 13.360294 C 14 13.389706 14.117647 13.551471 14.242647 13.830882 C 14.352941 14.066176 14.345588 14.338235 14.345588 14.514706 C 14.345588 14.514706 14.463235 14.088235 14.433824 13.838235 C 14.419118 13.691176 14.279412 13.301471 13.970588 13.308824 Z M 13.919118 17.139706 C 14.227941 17.772059 14.661765 18.367647 15.227941 18.845588 C 15.360294 18.955882 15.492647 19.058824 15.632353 19.154412 C 14.602941 19.345588 13.514706 19.617647 12.514706 20.036765 C 12.691176 19.713235 12.889706 19.360294 13.088235 18.977941 C 13.485294 18.242647 13.720588 17.676471 13.919118 17.139706 Z M 13.919118 17.139706 " transform="matrix(0.53125,0,0,0.53125,0,0)"/>
<use xlink:href="#surface6"/>
</g>
</svg>
