<?xml version="1.0" encoding="UTF-8"?>
<svg xmlns="http://www.w3.org/2000/svg" xmlns:xlink="http://www.w3.org/1999/xlink" width="17pt" height="17pt" viewBox="0 0 17 17" version="1.1">
<defs>
<clipPath id="clip1">
  <rect width="17" height="17"/>
</clipPath>
<g id="surface6" clip-path="url(#clip1)">
<path style=" stroke:none;fill-rule:nonzero;fill:rgb(100%,100%,100%);fill-opacity:1;" d="M 8.507812 3.71875 C 9.515625 3.722656 10.535156 4.035156 11.332031 4.65625 C 11.894531 5.300781 10.824219 5.992188 10.34375 5.363281 C 8.898438 4.488281 6.855469 4.796875 5.765625 6.105469 C 5.1875 6.753906 4.863281 7.621094 4.867188 8.492188 L 5.820312 8.492188 C 5.3125 9.257812 4.800781 10.023438 4.292969 10.785156 C 3.78125 10.023438 3.273438 9.257812 2.761719 8.492188 L 3.71875 8.492188 C 3.6875 6.414062 5.183594 4.4375 7.1875 3.898438 C 7.621094 3.78125 8.0625 3.714844 8.507812 3.71875 Z M 12.707031 6.207031 C 13.21875 6.96875 13.726562 7.734375 14.238281 8.5 L 13.28125 8.5 C 13.308594 10.605469 11.777344 12.601562 9.734375 13.113281 C 8.355469 13.496094 6.800781 13.214844 5.667969 12.335938 C 5.089844 11.679688 6.171875 10.996094 6.65625 11.632812 C 8.058594 12.480469 10.023438 12.210938 11.128906 10.996094 C 11.769531 10.335938 12.140625 9.421875 12.132812 8.5 L 11.179688 8.5 C 11.6875 7.734375 12.199219 6.96875 12.707031 6.207031 Z M 12.707031 6.207031 "/>
</g>
</defs>
<g id="surface1">
<path style=" stroke:none;fill-rule:evenodd;fill:rgb(100%,54.117647%,0%);fill-opacity:1;" d="M 3.96875 1.007812 L 13.03125 1.007812 C 14.664062 1.007812 15.992188 2.335938 15.992188 3.96875 L 15.992188 13.03125 C 15.992188 14.664062 14.664062 15.992188 13.03125 15.992188 L 3.96875 15.992188 C 2.335938 15.992188 1.007812 14.664062 1.007812 13.03125 L 1.007812 3.96875 C 1.007812 2.335938 2.335938 1.007812 3.96875 1.007812 Z M 3.96875 1.007812 "/>
<use xlink:href="#surface6"/>
</g>
</svg>
