<?xml version="1.0" encoding="UTF-8"?>
<svg xmlns="http://www.w3.org/2000/svg" xmlns:xlink="http://www.w3.org/1999/xlink" width="17pt" height="17pt" viewBox="0 0 17 17" version="1.1">
<defs>
<clipPath id="clip1">
  <rect width="17" height="17"/>
</clipPath>
<g id="surface6" clip-path="url(#clip1)">
<path style=" stroke:none;fill-rule:nonzero;fill:rgb(100%,78.823529%,12.941176%);fill-opacity:1;" d="M 14.898438 11.828125 C 14.898438 13.589844 13.472656 15.015625 11.710938 15.015625 C 9.953125 15.015625 8.523438 13.589844 8.523438 11.828125 C 8.523438 10.070312 9.953125 8.640625 11.710938 8.640625 C 13.472656 8.640625 14.898438 10.070312 14.898438 11.828125 Z M 14.898438 11.828125 "/>
</g>
</defs>
<g id="surface1">
<path style=" stroke:none;fill-rule:evenodd;fill:rgb(21.568627%,62.745098%,94.901961%);fill-opacity:1;" d="M 3.96875 1.007812 L 13.03125 1.007812 C 14.664062 1.007812 15.992188 2.335938 15.992188 3.96875 L 15.992188 13.03125 C 15.992188 14.664062 14.664062 15.992188 13.03125 15.992188 L 3.96875 15.992188 C 2.335938 15.992188 1.007812 14.664062 1.007812 13.03125 L 1.007812 3.96875 C 1.007812 2.335938 2.335938 1.007812 3.96875 1.007812 Z M 3.96875 1.007812 "/>
<path style=" stroke:none;fill-rule:nonzero;fill:rgb(63.529412%,95.686275%,41.568627%);fill-opacity:1;" d="M 5.769531 2.890625 C 5.609375 2.964844 5.457031 3.050781 5.304688 3.140625 L 5.363281 3.140625 L 5.394531 3.238281 L 5.308594 3.320312 L 5.683594 3.332031 L 5.742188 3.464844 L 5.320312 3.449219 L 5.296875 3.347656 L 5.050781 3.292969 C 4.964844 3.351562 4.882812 3.410156 4.800781 3.472656 L 4.949219 3.472656 L 4.949219 3.570312 L 4.882812 3.65625 L 4.574219 3.65625 L 4.574219 3.644531 C 3.722656 4.339844 3.082031 5.257812 2.71875 6.300781 L 2.753906 6.316406 L 2.753906 6.8125 L 3 7.238281 L 3.203125 7.269531 L 3.230469 7.125 L 2.992188 6.753906 L 2.945312 6.394531 L 3.085938 6.394531 L 3.144531 6.765625 L 3.488281 7.269531 L 3.402344 7.433594 L 3.621094 7.769531 L 4.167969 7.90625 L 4.167969 7.816406 L 4.386719 7.847656 L 4.367188 8.003906 L 4.539062 8.035156 L 4.800781 8.109375 L 5.175781 8.539062 L 5.65625 8.574219 L 5.703125 8.964844 L 5.375 9.195312 L 5.359375 9.542969 L 5.3125 9.757812 L 5.789062 10.351562 L 5.824219 10.554688 C 5.824219 10.554688 5.996094 10.601562 6.015625 10.601562 C 6.035156 10.601562 6.402344 10.878906 6.402344 10.878906 L 6.402344 11.953125 L 6.53125 11.992188 L 6.441406 12.488281 L 6.660156 12.777344 L 6.621094 13.269531 L 6.910156 13.777344 L 7.277344 14.101562 C 7.285156 14.101562 7.292969 14.101562 7.296875 14.105469 L 7.65625 14.109375 L 7.691406 13.992188 L 7.417969 13.757812 L 7.433594 13.644531 L 7.480469 13.503906 L 7.492188 13.359375 L 7.304688 13.355469 L 7.214844 13.238281 L 7.367188 13.089844 L 7.386719 12.976562 L 7.214844 12.925781 L 7.226562 12.824219 L 7.472656 12.785156 L 7.84375 12.605469 L 7.96875 12.378906 L 8.359375 11.875 L 8.269531 11.484375 L 8.390625 11.277344 L 8.75 11.289062 L 8.992188 11.09375 L 9.070312 10.339844 L 9.335938 10 L 9.382812 9.777344 L 9.140625 9.699219 L 8.976562 9.4375 L 8.425781 9.429688 L 7.988281 9.261719 L 7.96875 8.949219 L 7.820312 8.695312 L 7.425781 8.6875 L 7.199219 8.328125 L 6.996094 8.230469 L 6.984375 8.339844 L 6.613281 8.359375 L 6.480469 8.171875 L 6.09375 8.09375 L 5.777344 8.460938 L 5.277344 8.378906 L 5.242188 7.8125 L 4.875 7.75 L 5.023438 7.472656 L 4.980469 7.3125 L 4.5 7.636719 L 4.199219 7.597656 L 4.09375 7.363281 L 4.15625 7.121094 L 4.324219 6.8125 L 4.707031 6.617188 L 5.445312 6.617188 L 5.445312 6.84375 L 5.710938 6.96875 L 5.6875 6.582031 L 5.878906 6.386719 L 6.265625 6.132812 L 6.292969 5.957031 L 6.679688 5.554688 L 7.085938 5.328125 L 7.050781 5.296875 L 7.328125 5.035156 L 7.429688 5.0625 L 7.476562 5.121094 L 7.582031 5.003906 L 7.609375 4.992188 L 7.492188 4.976562 L 7.375 4.9375 L 7.375 4.824219 L 7.4375 4.773438 L 7.574219 4.773438 L 7.636719 4.800781 L 7.691406 4.910156 L 7.757812 4.898438 L 7.757812 4.890625 L 7.777344 4.898438 L 7.96875 4.867188 L 7.996094 4.773438 L 8.105469 4.800781 L 8.105469 4.902344 L 8.003906 4.972656 L 8.019531 5.085938 L 8.367188 5.191406 C 8.367188 5.191406 8.367188 5.195312 8.367188 5.195312 L 8.449219 5.1875 L 8.453125 5.039062 L 8.175781 4.914062 L 8.160156 4.839844 L 8.390625 4.761719 L 8.402344 4.542969 L 8.160156 4.394531 L 8.144531 4.027344 L 7.816406 4.1875 L 7.699219 4.1875 L 7.730469 3.90625 L 7.285156 3.800781 L 7.097656 3.941406 L 7.097656 4.367188 L 6.765625 4.472656 L 6.632812 4.75 L 6.488281 4.773438 L 6.488281 4.417969 L 6.175781 4.375 L 6.019531 4.273438 L 5.957031 4.042969 L 6.515625 3.714844 L 6.789062 3.632812 L 6.816406 3.816406 L 6.96875 3.808594 L 6.980469 3.714844 L 7.140625 3.691406 L 7.140625 3.660156 L 7.074219 3.632812 L 7.058594 3.535156 L 7.253906 3.515625 L 7.371094 3.394531 L 7.417969 3.347656 L 7.828125 3.296875 L 8.007812 3.449219 L 7.53125 3.707031 L 8.140625 3.847656 L 8.21875 3.644531 L 8.484375 3.644531 L 8.578125 3.46875 L 8.390625 3.421875 L 8.390625 3.195312 L 7.800781 2.9375 L 7.394531 2.984375 L 7.167969 3.101562 L 7.183594 3.394531 L 6.941406 3.359375 L 6.90625 3.195312 L 7.136719 2.988281 L 6.71875 2.96875 L 6.597656 3.003906 L 6.546875 3.144531 L 6.703125 3.171875 L 6.671875 3.328125 L 6.40625 3.34375 L 6.367188 3.445312 L 5.980469 3.457031 C 5.980469 3.457031 5.96875 3.238281 5.953125 3.238281 C 5.9375 3.238281 6.253906 3.234375 6.253906 3.234375 L 6.484375 3.007812 L 6.359375 2.945312 L 6.195312 3.109375 L 5.917969 3.09375 Z M 12.21875 3.75 L 12.027344 3.828125 L 11.90625 3.957031 L 11.933594 4.113281 L 12.085938 4.132812 L 12.175781 4.359375 L 12.429688 4.253906 L 12.472656 4.554688 L 12.394531 4.554688 L 12.183594 4.523438 L 11.949219 4.566406 L 11.722656 4.886719 L 11.398438 4.9375 L 11.351562 5.214844 L 11.488281 5.246094 L 11.449219 5.425781 L 11.128906 5.359375 L 10.832031 5.425781 L 10.769531 5.589844 L 10.820312 5.933594 L 10.996094 6.015625 L 11.285156 6.015625 L 11.480469 5.996094 L 11.542969 5.839844 L 11.847656 5.441406 L 12.050781 5.484375 L 12.25 5.304688 L 12.285156 5.445312 L 12.777344 5.773438 L 12.714844 5.855469 L 12.496094 5.84375 L 12.578125 5.964844 L 12.714844 5.992188 L 12.875 5.925781 L 12.871094 5.734375 L 12.941406 5.699219 L 12.886719 5.640625 L 12.558594 5.457031 L 12.472656 5.214844 L 12.746094 5.214844 L 12.832031 5.300781 L 13.0625 5.503906 L 13.074219 5.746094 L 13.316406 6.003906 L 13.40625 5.652344 L 13.574219 5.558594 L 13.605469 5.847656 L 13.769531 6.027344 L 13.84375 6.027344 C 13.625 5.484375 13.328125 4.976562 12.960938 4.519531 L 12.566406 4.515625 L 12.539062 4.429688 L 12.773438 4.308594 C 12.601562 4.109375 12.414062 3.925781 12.21875 3.75 Z M 4.941406 3.8125 C 4.953125 3.8125 4.941406 3.949219 4.941406 3.949219 L 4.632812 3.96875 L 4.574219 3.898438 L 4.792969 3.835938 C 4.792969 3.835938 4.929688 3.8125 4.941406 3.8125 Z M 5.316406 4.480469 L 5.464844 4.515625 L 5.414062 4.714844 L 5.253906 4.765625 L 5.152344 4.554688 Z M 5.722656 4.953125 L 5.96875 4.953125 L 5.96875 5.027344 L 6.023438 5.027344 L 6.023438 5.15625 L 5.648438 5.15625 L 5.507812 5.117188 L 5.542969 5.027344 Z M 6.089844 5.007812 L 6.21875 5.125 L 6.089844 5.15625 Z M 6.375 5.1875 L 6.46875 5.246094 L 6.390625 5.308594 L 6.316406 5.246094 Z M 5.652344 5.207031 L 5.859375 5.207031 L 5.59375 5.578125 L 5.484375 5.519531 L 5.507812 5.363281 Z M 5.984375 5.207031 L 6.195312 5.207031 L 6.195312 5.332031 L 6.101562 5.390625 L 5.984375 5.414062 Z M 6.246094 5.34375 L 6.261719 5.34375 L 6.5 5.414062 L 6.5 5.535156 L 6.300781 5.535156 L 6.246094 5.457031 Z M 6.148438 5.457031 L 6.148438 5.578125 L 6.058594 5.667969 L 5.859375 5.667969 L 5.890625 5.53125 L 5.984375 5.523438 L 6.003906 5.476562 Z M 12.339844 5.972656 L 11.636719 6.027344 L 11.421875 6.144531 L 11.140625 6.144531 L 11.003906 6.132812 L 10.664062 6.320312 L 10.664062 6.675781 L 9.972656 7.175781 L 10.03125 7.390625 L 10.171875 7.390625 L 10.132812 7.59375 L 10.035156 7.628906 L 10.03125 8.160156 L 10.628906 8.84375 L 10.890625 8.84375 L 10.90625 8.804688 L 11.375 8.804688 L 11.507812 8.679688 L 11.773438 8.679688 L 11.917969 8.824219 L 12.316406 8.867188 L 12.261719 9.394531 L 12.703125 10.171875 L 12.472656 10.613281 L 12.488281 10.820312 L 12.667969 11.003906 L 12.667969 11.507812 L 12.90625 11.828125 L 12.90625 12.046875 C 13.792969 10.980469 14.28125 9.636719 14.28125 8.25 C 14.277344 7.675781 14.195312 7.105469 14.027344 6.550781 L 13.730469 6.550781 L 13.425781 6.324219 L 13.109375 6.355469 L 13.109375 6.550781 L 13.003906 6.550781 L 12.898438 6.472656 L 12.339844 6.332031 Z M 12.339844 5.972656 "/>
<use xlink:href="#surface6"/>
<path style=" stroke:none;fill-rule:nonzero;fill:rgb(18.039216%,18.039216%,18.039216%);fill-opacity:1;" d="M 11.707031 13.421875 L 10.515625 11.828125 L 11.3125 11.828125 L 11.3125 10.234375 L 12.109375 10.234375 L 12.109375 11.828125 L 12.90625 11.828125 Z M 11.707031 13.421875 "/>
</g>
</svg>
