<?xml version="1.0" encoding="UTF-8"?>
<svg xmlns="http://www.w3.org/2000/svg" xmlns:xlink="http://www.w3.org/1999/xlink" width="17pt" height="17pt" viewBox="0 0 17 17" version="1.1">
<g id="surface1">
<path style=" stroke:none;fill-rule:evenodd;fill:rgb(40%,40%,40%);fill-opacity:1;" d="M 3.96875 1.007812 L 13.03125 1.007812 C 14.664062 1.007812 15.992188 2.335938 15.992188 3.96875 L 15.992188 13.03125 C 15.992188 14.664062 14.664062 15.992188 13.03125 15.992188 L 3.96875 15.992188 C 2.335938 15.992188 1.007812 14.664062 1.007812 13.03125 L 1.007812 3.96875 C 1.007812 2.335938 2.335938 1.007812 3.96875 1.007812 Z M 3.96875 1.007812 "/>
<path style="fill:none;stroke-width:1.129536;stroke-linecap:round;stroke-linejoin:round;stroke:rgb(100%,50.196078%,100%);stroke-opacity:1;stroke-miterlimit:4;" d="M 5.003633 9.003562 C 5.003633 9.003562 12.827332 9.601552 15.00335 12.001816 C 16.664433 13.837313 13.3921 17.109646 15.00335 19.00328 C 17.137842 21.51982 25.003068 22.998184 25.003068 22.998184 " transform="matrix(0.470326,0,0,0.470326,0.974787,0.269299)"/>
<path style=" stroke:none;fill-rule:nonzero;fill:rgb(100%,100%,100%);fill-opacity:1;" d="M 3.796875 4.503906 C 3.796875 4.761719 3.585938 4.972656 3.328125 4.972656 C 3.066406 4.972656 2.855469 4.761719 2.855469 4.503906 C 2.855469 4.242188 3.066406 4.03125 3.328125 4.03125 C 3.585938 4.03125 3.796875 4.242188 3.796875 4.503906 Z M 3.796875 4.503906 "/>
<path style=" stroke:none;fill-rule:nonzero;fill:rgb(100%,100%,100%);fill-opacity:1;" d="M 14.144531 11.085938 C 14.144531 12.125 13.300781 12.96875 12.261719 12.96875 C 11.222656 12.96875 10.382812 12.125 10.382812 11.085938 C 10.382812 10.046875 11.222656 9.207031 12.261719 9.207031 C 13.300781 9.207031 14.144531 10.046875 14.144531 11.085938 Z M 14.144531 11.085938 "/>
<path style=" stroke:none;fill-rule:nonzero;fill:rgb(100%,100%,100%);fill-opacity:1;" d="M 9.441406 9.207031 C 9.441406 9.984375 8.808594 10.617188 8.03125 10.617188 C 7.25 10.617188 6.617188 9.984375 6.617188 9.207031 C 6.617188 8.425781 7.25 7.792969 8.03125 7.792969 C 8.808594 7.792969 9.441406 8.425781 9.441406 9.207031 Z M 9.441406 9.207031 "/>
<path style=" stroke:none;fill-rule:nonzero;fill:rgb(100%,100%,100%);fill-opacity:1;" d="M 8.96875 5.914062 C 8.96875 6.433594 8.550781 6.855469 8.03125 6.855469 C 7.511719 6.855469 7.089844 6.433594 7.089844 5.914062 C 7.089844 5.394531 7.511719 4.972656 8.03125 4.972656 C 8.550781 4.972656 8.96875 5.394531 8.96875 5.914062 Z M 8.96875 5.914062 "/>
</g>
</svg>
