<?xml version="1.0" encoding="UTF-8"?>
<svg xmlns="http://www.w3.org/2000/svg" xmlns:xlink="http://www.w3.org/1999/xlink" width="17pt" height="17pt" viewBox="0 0 17 17" version="1.1">
<g id="surface1">
<path style=" stroke:none;fill-rule:evenodd;fill:rgb(36.470588%,70.588235%,24.313725%);fill-opacity:1;" d="M 3.96875 1.007812 L 13.03125 1.007812 C 14.664062 1.007812 15.992188 2.335938 15.992188 3.96875 L 15.992188 13.03125 C 15.992188 14.664062 14.664062 15.992188 13.03125 15.992188 L 3.96875 15.992188 C 2.335938 15.992188 1.007812 14.664062 1.007812 13.03125 L 1.007812 3.96875 C 1.007812 2.335938 2.335938 1.007812 3.96875 1.007812 Z M 3.96875 1.007812 "/>
<path style=" stroke:none;fill-rule:nonzero;fill:rgb(100%,100%,100%);fill-opacity:1;" d="M 7.96875 3.453125 L 7.96875 3.984375 L 8.5 3.984375 L 8.5 7.703125 L 9.03125 7.703125 L 9.03125 3.453125 Z M 7.96875 3.453125 "/>
<path style=" stroke:none;fill-rule:nonzero;fill:rgb(100%,100%,100%);fill-opacity:1;" d="M 5.3125 8.234375 L 5.3125 8.765625 L 11.6875 8.765625 L 11.6875 8.234375 Z M 5.3125 8.234375 "/>
<path style=" stroke:none;fill-rule:nonzero;fill:rgb(100%,100%,100%);fill-opacity:1;" d="M 7.4375 9.296875 L 7.4375 11.953125 L 9.03125 11.953125 L 9.03125 13.546875 L 9.5625 13.546875 L 9.5625 9.296875 L 9.03125 9.296875 L 9.03125 11.421875 L 7.96875 11.421875 L 7.96875 9.296875 Z M 7.4375 9.296875 "/>
</g>
</svg>
