<?xml version="1.0" encoding="UTF-8"?>
<svg xmlns="http://www.w3.org/2000/svg" xmlns:xlink="http://www.w3.org/1999/xlink" width="17pt" height="17pt" viewBox="0 0 17 17" version="1.1">
<g id="surface1">
<path style=" stroke:none;fill-rule:evenodd;fill:rgb(30.588235%,65.490196%,11.764706%);fill-opacity:1;" d="M 3.96875 1.007812 L 13.03125 1.007812 C 14.664062 1.007812 15.992188 2.335938 15.992188 3.96875 L 15.992188 13.03125 C 15.992188 14.664062 14.664062 15.992188 13.03125 15.992188 L 3.96875 15.992188 C 2.335938 15.992188 1.007812 14.664062 1.007812 13.03125 L 1.007812 3.96875 C 1.007812 2.335938 2.335938 1.007812 3.96875 1.007812 Z M 3.96875 1.007812 "/>
<path style=" stroke:none;fill-rule:nonzero;fill:rgb(100%,100%,100%);fill-opacity:1;" d="M 8.5 4.058594 C 7.160156 4.058594 6.078125 5.140625 6.078125 6.480469 C 6.078125 7.820312 7.160156 8.902344 8.5 8.902344 C 9.839844 8.902344 10.921875 7.820312 10.921875 6.480469 C 10.921875 5.140625 9.839844 4.058594 8.5 4.058594 Z M 8.5 4.460938 C 9.167969 4.460938 9.710938 5.003906 9.710938 5.671875 C 9.710938 6.34375 9.167969 6.882812 8.5 6.882812 C 7.832031 6.882812 7.289062 6.34375 7.289062 5.671875 C 7.289062 5.003906 7.832031 4.460938 8.5 4.460938 Z M 8.5 4.460938 "/>
<path style=" stroke:none;fill-rule:nonzero;fill:rgb(100%,100%,100%);fill-opacity:1;" d="M 7.289062 8.097656 L 7.289062 12.109375 L 8.5 12.941406 L 9.710938 12.109375 L 9.710938 11.757812 L 10.117188 11.355469 L 9.710938 10.949219 L 9.710938 10.519531 L 10.519531 9.914062 L 9.710938 9.308594 L 9.710938 8.097656 Z M 7.691406 9.308594 L 8.097656 9.308594 L 8.097656 11.730469 L 7.691406 11.730469 Z M 7.691406 9.308594 "/>
</g>
</svg>
