<?xml version="1.0" encoding="UTF-8"?>
<svg xmlns="http://www.w3.org/2000/svg" xmlns:xlink="http://www.w3.org/1999/xlink" width="17pt" height="17pt" viewBox="0 0 17 17" version="1.1">
<g id="surface1">
<path style=" stroke:none;fill-rule:evenodd;fill:rgb(87.058824%,65.490196%,11.764706%);fill-opacity:1;" d="M 3.96875 1.007812 L 13.03125 1.007812 C 14.664062 1.007812 15.992188 2.335938 15.992188 3.96875 L 15.992188 13.03125 C 15.992188 14.664062 14.664062 15.992188 13.03125 15.992188 L 3.96875 15.992188 C 2.335938 15.992188 1.007812 14.664062 1.007812 13.03125 L 1.007812 3.96875 C 1.007812 2.335938 2.335938 1.007812 3.96875 1.007812 Z M 3.96875 1.007812 "/>
<path style=" stroke:none;fill-rule:nonzero;fill:rgb(100%,100%,100%);fill-opacity:1;" d="M 9.765625 13.839844 C 9.765625 13.835938 9.828125 13.671875 9.902344 13.472656 L 10.042969 13.109375 L 10.019531 13.0625 C 10.007812 13.035156 9.878906 12.804688 9.738281 12.546875 C 9.453125 12.03125 8.90625 11.035156 8.480469 10.261719 C 8.328125 9.984375 8.199219 9.75 8.195312 9.738281 C 8.1875 9.722656 8.207031 9.707031 8.253906 9.679688 C 8.335938 9.636719 8.371094 9.601562 8.371094 9.554688 C 8.371094 9.535156 8.320312 9.433594 8.261719 9.324219 L 8.148438 9.125 L 8.230469 9.015625 C 8.734375 8.328125 8.816406 7.390625 8.433594 6.621094 C 8.082031 5.90625 7.410156 5.433594 6.609375 5.335938 C 6.207031 5.285156 5.699219 5.371094 5.351562 5.546875 L 5.265625 5.589844 L 5.3125 5.695312 C 5.40625 5.910156 5.488281 6.015625 5.683594 6.164062 C 5.777344 6.238281 5.78125 6.238281 5.828125 6.226562 C 5.855469 6.21875 5.9375 6.210938 6.011719 6.210938 C 6.25 6.210938 6.445312 6.296875 6.613281 6.472656 C 6.867188 6.742188 6.910156 7.140625 6.722656 7.460938 C 6.628906 7.625 6.410156 7.789062 6.210938 7.839844 C 6.089844 7.871094 5.855469 7.863281 5.734375 7.820312 C 5.566406 7.757812 5.386719 7.613281 5.304688 7.46875 C 5.265625 7.398438 5.257812 7.394531 5.160156 7.359375 C 4.84375 7.25 4.566406 7 4.359375 6.648438 L 4.296875 6.542969 L 4.246094 6.648438 C 4.078125 6.996094 3.996094 7.464844 4.027344 7.839844 C 4.125 8.871094 4.835938 9.683594 5.839844 9.917969 C 6.03125 9.960938 6.210938 9.976562 6.429688 9.96875 L 6.632812 9.964844 L 6.746094 10.167969 C 6.808594 10.277344 6.867188 10.371094 6.878906 10.375 C 6.921875 10.394531 6.96875 10.382812 7.035156 10.351562 C 7.074219 10.332031 7.109375 10.316406 7.113281 10.316406 C 7.128906 10.316406 7.15625 10.367188 7.4375 10.878906 C 7.542969 11.070312 7.636719 11.234375 7.644531 11.238281 C 7.652344 11.242188 7.738281 11.25 7.839844 11.257812 C 7.941406 11.261719 8.03125 11.273438 8.042969 11.28125 C 8.050781 11.289062 8.09375 11.355469 8.132812 11.429688 L 8.199219 11.558594 L 8.089844 11.707031 L 7.976562 11.855469 L 8.039062 11.976562 L 8.105469 12.09375 L 8.175781 12.101562 C 8.21875 12.105469 8.308594 12.117188 8.382812 12.121094 L 8.515625 12.128906 L 8.59375 12.265625 C 8.636719 12.34375 8.667969 12.414062 8.664062 12.425781 C 8.660156 12.433594 8.609375 12.503906 8.550781 12.578125 L 8.449219 12.710938 L 8.492188 12.796875 L 8.539062 12.882812 L 8.738281 12.917969 C 8.847656 12.9375 8.945312 12.957031 8.953125 12.964844 C 8.964844 12.96875 8.941406 13.019531 8.875 13.128906 C 8.820312 13.214844 8.777344 13.292969 8.777344 13.300781 C 8.777344 13.304688 8.824219 13.398438 8.882812 13.5 L 8.984375 13.6875 L 9.34375 13.761719 C 9.542969 13.800781 9.71875 13.835938 9.734375 13.839844 C 9.753906 13.84375 9.765625 13.84375 9.765625 13.839844 Z M 12.976562 11.601562 L 12.972656 11.226562 L 12.328125 10.527344 C 11.972656 10.140625 11.425781 9.550781 11.109375 9.210938 C 10.261719 8.292969 10.101562 8.121094 10.097656 8.105469 C 10.09375 8.101562 10.117188 8.070312 10.148438 8.042969 C 10.261719 7.941406 10.269531 7.882812 10.1875 7.789062 C 10.15625 7.753906 10.09375 7.683594 10.050781 7.636719 L 9.972656 7.546875 L 10.15625 7.046875 C 10.257812 6.773438 10.371094 6.464844 10.410156 6.355469 C 10.472656 6.183594 10.480469 6.15625 10.476562 6.082031 C 10.464844 5.945312 10.433594 5.90625 10.179688 5.6875 C 9.335938 4.957031 8.734375 4.449219 8.6875 4.425781 C 8.613281 4.382812 8.449219 4.382812 8.375 4.425781 C 8.328125 4.449219 7.800781 4.925781 7.601562 5.121094 L 7.539062 5.179688 L 7.667969 5.253906 C 8.242188 5.574219 8.664062 6.058594 8.898438 6.664062 C 9.015625 6.964844 9.066406 7.21875 9.074219 7.566406 C 9.089844 8.050781 9 8.460938 8.789062 8.878906 L 8.722656 9.015625 L 8.789062 9.085938 C 8.847656 9.148438 8.859375 9.152344 8.90625 9.144531 C 8.941406 9.140625 8.980469 9.117188 9.035156 9.074219 L 9.113281 9.007812 L 9.167969 9.070312 C 9.230469 9.144531 9.921875 9.886719 10.0625 10.039062 L 10.15625 10.140625 L 10.285156 10.023438 C 10.355469 9.957031 10.425781 9.90625 10.441406 9.90625 C 10.46875 9.90625 10.671875 10.109375 10.691406 10.15625 C 10.699219 10.179688 10.679688 10.203125 10.566406 10.3125 L 10.433594 10.441406 L 10.480469 10.492188 C 10.507812 10.519531 10.566406 10.585938 10.617188 10.640625 C 10.664062 10.691406 10.742188 10.773438 10.785156 10.820312 L 10.867188 10.90625 L 10.988281 10.789062 C 11.074219 10.710938 11.121094 10.671875 11.144531 10.671875 C 11.183594 10.671875 11.398438 10.894531 11.398438 10.933594 C 11.398438 10.957031 11.273438 11.085938 11.171875 11.171875 L 11.132812 11.203125 L 11.351562 11.429688 L 11.472656 11.3125 C 11.589844 11.203125 11.632812 11.179688 11.667969 11.207031 C 11.714844 11.234375 11.878906 11.4375 11.878906 11.460938 C 11.878906 11.480469 11.835938 11.53125 11.753906 11.609375 L 11.625 11.726562 L 11.664062 11.773438 C 11.6875 11.796875 11.730469 11.847656 11.765625 11.882812 L 11.824219 11.949219 L 12.289062 11.960938 C 12.542969 11.96875 12.800781 11.976562 12.863281 11.976562 L 12.980469 11.976562 Z M 6.394531 7.335938 C 6.46875 7.210938 6.5 7.035156 6.476562 6.898438 L 6.464844 6.835938 L 6.34375 6.828125 C 5.9375 6.800781 5.597656 6.644531 5.320312 6.363281 C 5.03125 6.070312 4.878906 5.699219 4.875 5.28125 C 4.875 4.882812 5.003906 4.539062 5.261719 4.25 C 5.484375 4 5.734375 3.84375 6.066406 3.757812 C 6.1875 3.726562 6.230469 3.722656 6.425781 3.722656 C 6.773438 3.726562 7.03125 3.800781 7.3125 3.992188 C 7.425781 4.066406 7.644531 4.289062 7.71875 4.402344 C 7.753906 4.449219 7.785156 4.492188 7.789062 4.492188 C 7.804688 4.492188 8.195312 4.140625 8.199219 4.121094 C 8.203125 4.097656 8.058594 3.914062 7.941406 3.792969 C 7.296875 3.128906 6.28125 2.96875 5.457031 3.394531 C 5.050781 3.605469 4.703125 3.964844 4.515625 4.367188 C 4.117188 5.226562 4.320312 6.230469 5.019531 6.855469 C 5.359375 7.15625 5.800781 7.347656 6.253906 7.386719 L 6.359375 7.394531 Z M 6.394531 7.335938 "/>
</g>
</svg>
