<?xml version="1.0" encoding="UTF-8"?>
<svg xmlns="http://www.w3.org/2000/svg" xmlns:xlink="http://www.w3.org/1999/xlink" width="17pt" height="17pt" viewBox="0 0 17 17" version="1.1">
<g id="surface1">
<path style=" stroke:none;fill-rule:evenodd;fill:rgb(85.098039%,59.215686%,30.588235%);fill-opacity:1;" d="M 3.96875 1.007812 L 13.03125 1.007812 C 14.664062 1.007812 15.992188 2.335938 15.992188 3.96875 L 15.992188 13.03125 C 15.992188 14.664062 14.664062 15.992188 13.03125 15.992188 L 3.96875 15.992188 C 2.335938 15.992188 1.007812 14.664062 1.007812 13.03125 L 1.007812 3.96875 C 1.007812 2.335938 2.335938 1.007812 3.96875 1.007812 Z M 3.96875 1.007812 "/>
<path style=" stroke:none;fill-rule:nonzero;fill:rgb(30.196078%,30.196078%,30.196078%);fill-opacity:1;" d="M 6.90625 3.1875 C 4.851562 3.1875 3.1875 4.851562 3.1875 6.90625 C 3.1875 8.753906 4.546875 10.320312 6.375 10.582031 L 6.375 13.8125 L 13.8125 13.8125 L 13.8125 6.375 L 10.582031 6.375 C 10.320312 4.546875 8.753906 3.191406 6.90625 3.1875 Z M 6.90625 3.71875 C 8.460938 3.71875 9.789062 4.839844 10.046875 6.375 L 6.375 6.375 L 6.375 10.046875 C 4.84375 9.785156 3.71875 8.460938 3.71875 6.90625 C 3.71875 5.144531 5.144531 3.71875 6.90625 3.71875 Z M 6.90625 6.90625 L 10.09375 6.90625 C 10.09375 8.667969 8.667969 10.09375 6.90625 10.09375 Z M 10.625 6.90625 L 13.28125 6.90625 L 13.28125 13.28125 L 6.90625 13.28125 L 6.90625 10.625 C 8.960938 10.625 10.625 8.960938 10.625 6.90625 Z M 10.625 6.90625 "/>
</g>
</svg>
