<?xml version="1.0" encoding="UTF-8"?>
<svg xmlns="http://www.w3.org/2000/svg" xmlns:xlink="http://www.w3.org/1999/xlink" width="17pt" height="17pt" viewBox="0 0 17 17" version="1.1">
<g id="surface1">
<path style=" stroke:none;fill-rule:evenodd;fill:rgb(45.490196%,69.803922%,92.941176%);fill-opacity:1;" d="M 3.96875 1.007812 L 13.03125 1.007812 C 14.664062 1.007812 15.992188 2.335938 15.992188 3.96875 L 15.992188 13.03125 C 15.992188 14.664062 14.664062 15.992188 13.03125 15.992188 L 3.96875 15.992188 C 2.335938 15.992188 1.007812 14.664062 1.007812 13.03125 L 1.007812 3.96875 C 1.007812 2.335938 2.335938 1.007812 3.96875 1.007812 Z M 3.96875 1.007812 "/>
<path style=" stroke:none;fill-rule:nonzero;fill:rgb(21.568627%,52.156863%,94.901961%);fill-opacity:1;" d="M 11.773438 10.941406 L 10.871094 11.3125 L 8.5 9.859375 L 6.140625 11.191406 L 5.226562 11.0625 L 5.226562 12.335938 L 8.5 14.363281 L 11.773438 12.335938 Z M 11.773438 10.941406 "/>
<path style=" stroke:none;fill-rule:nonzero;fill:rgb(9.019608%,44.705882%,92.941176%);fill-opacity:1;" d="M 8.5 9.859375 L 8.5 14.363281 L 11.773438 12.316406 L 11.773438 11.085938 L 10.839844 11.597656 Z M 8.5 9.859375 "/>
<path style=" stroke:none;fill-rule:nonzero;fill:rgb(100%,100%,100%);fill-opacity:1;" d="M 5.019531 7.8125 L 8.5 5.765625 L 6.042969 3.71875 L 2.769531 5.96875 Z M 5.019531 7.8125 "/>
<path style=" stroke:none;fill-rule:nonzero;fill:rgb(100%,100%,100%);fill-opacity:1;" d="M 8.5 9.859375 L 5.019531 7.8125 L 2.769531 9.652344 L 6.042969 11.90625 Z M 8.5 9.859375 "/>
<path style=" stroke:none;fill-rule:nonzero;fill:rgb(100%,100%,100%);fill-opacity:1;" d="M 14.230469 9.652344 L 11.980469 7.8125 L 8.5 9.859375 L 10.957031 11.835938 Z M 14.230469 9.652344 "/>
<path style=" stroke:none;fill-rule:nonzero;fill:rgb(100%,100%,100%);fill-opacity:1;" d="M 8.5 5.765625 L 11.980469 7.8125 L 14.230469 5.96875 L 10.957031 3.71875 Z M 8.5 5.765625 "/>
<path style=" stroke:none;fill-rule:nonzero;fill:rgb(42.745098%,69.803922%,90.980392%);fill-opacity:1;" d="M 11.980469 7.8125 L 8.5 9.859375 L 5.019531 7.8125 L 8.5 5.765625 Z M 11.980469 7.8125 "/>
<path style=" stroke:none;fill-rule:nonzero;fill:rgb(40.784314%,66.666667%,86.666667%);fill-opacity:1;" d="M 5.019531 7.8125 L 8.5 9.859375 L 8.5 5.765625 Z M 5.019531 7.8125 "/>
</g>
</svg>
