<?xml version="1.0" encoding="UTF-8"?>
<svg xmlns="http://www.w3.org/2000/svg" xmlns:xlink="http://www.w3.org/1999/xlink" width="17pt" height="17pt" viewBox="0 0 17 17" version="1.1">
<g id="surface1">
<path style=" stroke:none;fill-rule:evenodd;fill:rgb(90.196078%,90.196078%,90.196078%);fill-opacity:1;" d="M 3.96875 1.007812 L 13.03125 1.007812 C 14.664062 1.007812 15.992188 2.335938 15.992188 3.96875 L 15.992188 13.03125 C 15.992188 14.664062 14.664062 15.992188 13.03125 15.992188 L 3.96875 15.992188 C 2.335938 15.992188 1.007812 14.664062 1.007812 13.03125 L 1.007812 3.96875 C 1.007812 2.335938 2.335938 1.007812 3.96875 1.007812 Z M 3.96875 1.007812 "/>
<path style=" stroke:none;fill-rule:nonzero;fill:rgb(19.607843%,40%,96.862745%);fill-opacity:1;" d="M 5.523438 13.742188 C 4.941406 13.65625 4.488281 13.429688 4.085938 13.023438 C 3.75 12.6875 3.515625 12.273438 3.417969 11.84375 C 3.320312 11.425781 3.320312 11.097656 3.417969 10.675781 C 3.503906 10.300781 3.699219 9.933594 3.976562 9.621094 C 4.109375 9.472656 5.582031 8 5.609375 7.992188 C 5.617188 7.988281 5.625 8.050781 5.625 8.160156 C 5.625 8.460938 5.683594 8.785156 5.800781 9.144531 L 5.863281 9.324219 L 5.308594 9.878906 C 4.757812 10.429688 4.699219 10.496094 4.609375 10.671875 C 4.515625 10.847656 4.472656 11.046875 4.472656 11.28125 C 4.476562 12.066406 5.203125 12.714844 5.980469 12.632812 C 6.21875 12.605469 6.410156 12.535156 6.605469 12.402344 C 6.746094 12.304688 9.089844 9.949219 9.179688 9.816406 C 9.515625 9.3125 9.453125 8.617188 9.035156 8.171875 C 8.953125 8.082031 8.761719 7.921875 8.738281 7.921875 C 8.6875 7.921875 8.757812 7.84375 9.121094 7.484375 L 9.519531 7.085938 L 9.617188 7.171875 C 9.734375 7.273438 9.976562 7.523438 10.015625 7.585938 C 10.03125 7.613281 10.054688 7.640625 10.066406 7.652344 C 10.097656 7.6875 10.25 7.953125 10.296875 8.054688 C 10.445312 8.378906 10.519531 8.726562 10.519531 9.089844 C 10.519531 9.640625 10.359375 10.113281 10.023438 10.578125 C 9.980469 10.632812 9.378906 11.246094 8.679688 11.945312 C 7.769531 12.855469 7.375 13.238281 7.28125 13.304688 C 6.769531 13.664062 6.109375 13.828125 5.523438 13.742188 Z M 5.523438 13.742188 "/>
<path style=" stroke:none;fill-rule:nonzero;fill:rgb(16.078431%,65.490196%,20.392157%);fill-opacity:1;" d="M 11.476562 3.257812 C 12.058594 3.34375 12.511719 3.570312 12.914062 3.976562 C 13.25 4.3125 13.484375 4.726562 13.582031 5.15625 C 13.679688 5.574219 13.679688 5.902344 13.582031 6.324219 C 13.496094 6.699219 13.300781 7.066406 13.023438 7.378906 C 12.890625 7.527344 11.417969 9 11.390625 9.007812 C 11.382812 9.011719 11.375 8.949219 11.375 8.839844 C 11.375 8.539062 11.316406 8.214844 11.199219 7.855469 L 11.136719 7.675781 L 11.691406 7.121094 C 12.242188 6.570312 12.300781 6.503906 12.390625 6.328125 C 12.484375 6.152344 12.527344 5.953125 12.527344 5.71875 C 12.523438 4.933594 11.796875 4.285156 11.019531 4.367188 C 10.78125 4.394531 10.589844 4.464844 10.394531 4.597656 C 10.253906 4.695312 7.910156 7.050781 7.820312 7.183594 C 7.484375 7.6875 7.546875 8.382812 7.964844 8.828125 C 8.046875 8.917969 8.238281 9.078125 8.261719 9.078125 C 8.3125 9.078125 8.242188 9.15625 7.878906 9.515625 L 7.480469 9.914062 L 7.382812 9.828125 C 7.265625 9.726562 7.023438 9.476562 6.984375 9.414062 C 6.96875 9.386719 6.945312 9.359375 6.933594 9.347656 C 6.902344 9.3125 6.75 9.046875 6.703125 8.945312 C 6.554688 8.621094 6.480469 8.273438 6.480469 7.910156 C 6.480469 7.359375 6.640625 6.886719 6.976562 6.421875 C 7.019531 6.367188 7.621094 5.753906 8.320312 5.054688 C 9.230469 4.144531 9.625 3.761719 9.71875 3.695312 C 10.230469 3.335938 10.890625 3.171875 11.476562 3.257812 Z M 11.476562 3.257812 "/>
</g>
</svg>
