<?xml version="1.0" encoding="UTF-8"?>
<svg xmlns="http://www.w3.org/2000/svg" xmlns:xlink="http://www.w3.org/1999/xlink" width="17pt" height="17pt" viewBox="0 0 17 17" version="1.1">
<g id="surface1">
<path style=" stroke:none;fill-rule:evenodd;fill:rgb(55.686275%,55.686275%,55.686275%);fill-opacity:1;" d="M 3.96875 1.007812 L 13.03125 1.007812 C 14.664062 1.007812 15.992188 2.335938 15.992188 3.96875 L 15.992188 13.03125 C 15.992188 14.664062 14.664062 15.992188 13.03125 15.992188 L 3.96875 15.992188 C 2.335938 15.992188 1.007812 14.664062 1.007812 13.03125 L 1.007812 3.96875 C 1.007812 2.335938 2.335938 1.007812 3.96875 1.007812 Z M 3.96875 1.007812 "/>
<path style=" stroke:none;fill-rule:nonzero;fill:rgb(100%,18.431373%,18.431373%);fill-opacity:1;" d="M 1.0625 8.234375 L 3.1875 8.234375 L 3.1875 8.765625 L 1.0625 8.765625 Z M 1.0625 8.234375 "/>
<path style=" stroke:none;fill-rule:nonzero;fill:rgb(100%,18.431373%,18.431373%);fill-opacity:1;" d="M 4.25 8.234375 L 6.375 8.234375 L 6.375 8.765625 L 4.25 8.765625 Z M 4.25 8.234375 "/>
<path style=" stroke:none;fill-rule:nonzero;fill:rgb(100%,18.431373%,18.431373%);fill-opacity:1;" d="M 7.4375 8.234375 L 9.5625 8.234375 L 9.5625 8.765625 L 7.4375 8.765625 Z M 7.4375 8.234375 "/>
<path style=" stroke:none;fill-rule:nonzero;fill:rgb(100%,18.431373%,18.431373%);fill-opacity:1;" d="M 10.625 8.234375 L 12.75 8.234375 L 12.75 8.765625 L 10.625 8.765625 Z M 10.625 8.234375 "/>
<path style=" stroke:none;fill-rule:nonzero;fill:rgb(100%,18.431373%,18.431373%);fill-opacity:1;" d="M 13.8125 8.234375 L 15.9375 8.234375 L 15.9375 8.765625 L 13.8125 8.765625 Z M 13.8125 8.234375 "/>
<path style="fill:none;stroke-width:1;stroke-linecap:round;stroke-linejoin:round;stroke:rgb(18.039216%,18.039216%,18.039216%);stroke-opacity:1;stroke-miterlimit:4;" d="M 6 21.786765 C 6 21.786765 13.205882 25.794118 16 23.786765 C 21.411765 19.911765 10.691176 9.904412 17 7.786765 C 21.169118 6.389706 26 15.786765 26 15.786765 " transform="matrix(0.53125,0,0,0.53125,0,0)"/>
</g>
</svg>
