<?xml version="1.0" encoding="UTF-8"?>
<svg xmlns="http://www.w3.org/2000/svg" xmlns:xlink="http://www.w3.org/1999/xlink" width="17pt" height="17pt" viewBox="0 0 17 17" version="1.1">
<g id="surface1">
<path style=" stroke:none;fill-rule:evenodd;fill:rgb(30.980392%,30.980392%,30.980392%);fill-opacity:1;" d="M 3.96875 1.007812 L 13.03125 1.007812 C 14.664062 1.007812 15.992188 2.335938 15.992188 3.96875 L 15.992188 13.03125 C 15.992188 14.664062 14.664062 15.992188 13.03125 15.992188 L 3.96875 15.992188 C 2.335938 15.992188 1.007812 14.664062 1.007812 13.03125 L 1.007812 3.96875 C 1.007812 2.335938 2.335938 1.007812 3.96875 1.007812 Z M 3.96875 1.007812 "/>
<path style=" stroke:none;fill-rule:nonzero;fill:rgb(100%,100%,100%);fill-opacity:1;" d="M 8.5 3.464844 C 5.703125 3.464844 3.464844 5.703125 3.464844 8.5 C 3.464844 11.296875 5.703125 13.535156 8.5 13.535156 C 8.949219 13.535156 9.339844 13.140625 9.339844 12.695312 C 9.339844 12.472656 9.28125 12.304688 9.113281 12.136719 C 9.003906 11.96875 8.890625 11.800781 8.890625 11.574219 C 8.890625 11.128906 9.28125 10.738281 9.730469 10.738281 L 10.738281 10.738281 C 12.304688 10.738281 13.535156 9.507812 13.535156 7.941406 C 13.535156 5.480469 11.296875 3.464844 8.5 3.464844 Z M 8.5 3.464844 "/>
<path style=" stroke:none;fill-rule:nonzero;fill:rgb(94.509804%,64.313725%,26.27451%);fill-opacity:1;" d="M 5.015625 8.5 C 4.601562 8.5 4.242188 8.140625 4.242188 7.726562 C 4.242188 7.3125 4.601562 6.953125 5.015625 6.953125 C 5.429688 6.953125 5.789062 7.3125 5.789062 7.726562 C 5.789062 8.140625 5.429688 8.5 5.015625 8.5 Z M 5.015625 8.5 "/>
<path style=" stroke:none;fill-rule:nonzero;fill:rgb(24.705882%,56.470588%,86.27451%);fill-opacity:1;" d="M 6.953125 6.175781 C 6.539062 6.175781 6.175781 5.816406 6.175781 5.402344 C 6.175781 4.988281 6.539062 4.628906 6.953125 4.628906 C 7.363281 4.628906 7.726562 4.988281 7.726562 5.402344 C 7.726562 5.816406 7.363281 6.175781 6.953125 6.175781 Z M 6.953125 6.175781 "/>
<path style=" stroke:none;fill-rule:nonzero;fill:rgb(33.72549%,66.27451%,7.45098%);fill-opacity:1;" d="M 9.660156 6.175781 C 9.25 6.175781 8.886719 5.816406 8.886719 5.402344 C 8.886719 4.988281 9.25 4.628906 9.660156 4.628906 C 10.074219 4.628906 10.4375 4.988281 10.4375 5.402344 C 10.4375 5.816406 10.074219 6.175781 9.660156 6.175781 Z M 9.660156 6.175781 "/>
<path style=" stroke:none;fill-rule:nonzero;fill:rgb(95.294118%,35.686275%,35.686275%);fill-opacity:1;" d="M 11.597656 8.5 C 11.183594 8.5 10.824219 8.136719 10.824219 7.726562 C 10.824219 7.3125 11.183594 6.953125 11.597656 6.953125 C 12.011719 6.953125 12.371094 7.3125 12.371094 7.726562 C 12.371094 8.136719 12.011719 8.5 11.597656 8.5 Z M 11.597656 8.5 "/>
</g>
</svg>
