<?xml version="1.0" encoding="UTF-8"?>
<svg xmlns="http://www.w3.org/2000/svg" xmlns:xlink="http://www.w3.org/1999/xlink" width="17pt" height="17pt" viewBox="0 0 17 17" version="1.1">
<g id="surface1">
<path style=" stroke:none;fill-rule:evenodd;fill:rgb(90.588235%,29.803922%,23.529412%);fill-opacity:1;" d="M 1.007812 11.332031 L 6.265625 9.328125 C 6.238281 9.257812 6.214844 9.183594 6.195312 9.109375 C 6.171875 9.03125 6.15625 8.957031 6.144531 8.878906 C 6.128906 8.804688 6.121094 8.726562 6.117188 8.648438 C 6.113281 8.601562 6.113281 8.550781 6.113281 8.5 C 6.113281 8.421875 6.117188 8.34375 6.125 8.265625 C 6.132812 8.191406 6.144531 8.113281 6.160156 8.039062 C 6.175781 7.960938 6.195312 7.886719 6.21875 7.8125 C 6.234375 7.765625 6.25 7.71875 6.269531 7.671875 L 1.007812 5.667969 Z M 1.007812 11.332031 "/>
<path style=" stroke:none;fill-rule:evenodd;fill:rgb(90.588235%,29.803922%,23.529412%);fill-opacity:1;" d="M 11.292969 15.992188 L 9.269531 10.675781 C 9.195312 10.703125 9.121094 10.726562 9.046875 10.746094 C 8.972656 10.769531 8.898438 10.785156 8.820312 10.796875 C 8.742188 10.808594 8.667969 10.820312 8.589844 10.824219 C 8.539062 10.828125 8.492188 10.828125 8.441406 10.828125 C 8.363281 10.828125 8.285156 10.824219 8.207031 10.816406 C 8.132812 10.808594 8.054688 10.796875 7.976562 10.78125 C 7.902344 10.765625 7.828125 10.746094 7.753906 10.722656 C 7.707031 10.707031 7.660156 10.691406 7.613281 10.671875 L 5.585938 15.992188 Z M 11.292969 15.992188 "/>
<path style=" stroke:none;fill-rule:evenodd;fill:rgb(90.588235%,29.803922%,23.529412%);fill-opacity:1;" d="M 15.992188 5.621094 L 10.617188 7.671875 C 10.644531 7.742188 10.667969 7.816406 10.6875 7.890625 C 10.707031 7.96875 10.726562 8.042969 10.738281 8.121094 C 10.75 8.195312 10.757812 8.273438 10.765625 8.351562 C 10.765625 8.398438 10.769531 8.449219 10.769531 8.5 C 10.769531 8.578125 10.765625 8.65625 10.757812 8.730469 C 10.75 8.808594 10.738281 8.886719 10.722656 8.960938 C 10.707031 9.039062 10.6875 9.113281 10.664062 9.1875 C 10.648438 9.234375 10.632812 9.28125 10.613281 9.328125 L 15.992188 11.378906 Z M 15.992188 5.621094 "/>
<path style=" stroke:none;fill-rule:evenodd;fill:rgb(82.352941%,82.352941%,82.352941%);fill-opacity:1;" d="M 5.585938 1.007812 L 3.96875 1.007812 C 2.328125 1.007812 1.007812 2.328125 1.007812 3.972656 L 1.007812 5.667969 L 6.269531 7.671875 C 6.25 7.71875 6.234375 7.765625 6.21875 7.8125 C 6.195312 7.886719 6.175781 7.960938 6.160156 8.039062 C 6.144531 8.113281 6.132812 8.191406 6.125 8.265625 C 6.117188 8.34375 6.113281 8.421875 6.113281 8.5 C 6.113281 8.550781 6.113281 8.601562 6.117188 8.648438 C 6.121094 8.726562 6.128906 8.804688 6.144531 8.878906 C 6.15625 8.957031 6.171875 9.03125 6.195312 9.109375 C 6.214844 9.183594 6.238281 9.257812 6.265625 9.328125 L 1.007812 11.332031 L 1.007812 13.03125 C 1.007812 14.671875 2.328125 15.992188 3.96875 15.992188 L 5.585938 15.992188 L 7.613281 10.671875 C 7.660156 10.691406 7.707031 10.707031 7.753906 10.722656 C 7.828125 10.746094 7.902344 10.765625 7.976562 10.78125 C 8.054688 10.796875 8.132812 10.808594 8.207031 10.816406 C 8.285156 10.824219 8.363281 10.828125 8.441406 10.828125 C 8.492188 10.828125 8.539062 10.828125 8.589844 10.824219 C 8.667969 10.820312 8.742188 10.808594 8.820312 10.796875 C 8.898438 10.785156 8.972656 10.769531 9.046875 10.746094 C 9.125 10.726562 9.195312 10.703125 9.269531 10.675781 L 11.292969 15.992188 L 13.03125 15.992188 C 14.671875 15.992188 15.992188 14.671875 15.992188 13.03125 L 15.992188 11.378906 L 10.613281 9.328125 C 10.632812 9.28125 10.648438 9.234375 10.664062 9.1875 C 10.6875 9.113281 10.707031 9.039062 10.722656 8.960938 C 10.738281 8.886719 10.75 8.808594 10.757812 8.730469 C 10.765625 8.65625 10.769531 8.578125 10.769531 8.5 C 10.769531 8.449219 10.765625 8.398438 10.765625 8.351562 C 10.757812 8.273438 10.75 8.195312 10.738281 8.121094 C 10.726562 8.042969 10.707031 7.96875 10.6875 7.890625 C 10.667969 7.816406 10.644531 7.742188 10.617188 7.671875 L 15.992188 5.621094 L 15.992188 3.972656 C 15.992188 2.328125 14.671875 1.007812 13.03125 1.007812 L 11.292969 1.007812 L 9.269531 6.328125 C 9.222656 6.308594 9.175781 6.292969 9.128906 6.277344 C 9.054688 6.253906 8.980469 6.234375 8.902344 6.21875 C 8.828125 6.203125 8.75 6.191406 8.671875 6.183594 C 8.597656 6.175781 8.519531 6.171875 8.441406 6.171875 C 8.390625 6.171875 8.34375 6.171875 8.292969 6.175781 C 8.214844 6.179688 8.136719 6.191406 8.0625 6.203125 C 7.984375 6.214844 7.910156 6.230469 7.832031 6.253906 C 7.757812 6.273438 7.683594 6.296875 7.613281 6.324219 Z M 5.585938 1.007812 "/>
<path style=" stroke:none;fill-rule:evenodd;fill:rgb(90.588235%,29.803922%,23.529412%);fill-opacity:1;" d="M 5.585938 1.007812 L 7.613281 6.324219 C 7.683594 6.296875 7.757812 6.273438 7.832031 6.253906 C 7.910156 6.230469 7.984375 6.214844 8.0625 6.203125 C 8.136719 6.191406 8.214844 6.179688 8.292969 6.175781 C 8.34375 6.171875 8.390625 6.171875 8.441406 6.171875 C 8.519531 6.171875 8.597656 6.175781 8.671875 6.183594 C 8.75 6.191406 8.828125 6.203125 8.902344 6.21875 C 8.980469 6.234375 9.054688 6.253906 9.128906 6.277344 C 9.175781 6.292969 9.222656 6.308594 9.269531 6.328125 L 11.292969 1.007812 Z M 5.585938 1.007812 "/>
</g>
</svg>
