<?xml version="1.0" encoding="UTF-8"?>
<svg xmlns="http://www.w3.org/2000/svg" xmlns:xlink="http://www.w3.org/1999/xlink" width="17pt" height="17pt" viewBox="0 0 17 17" version="1.1">
<g id="surface1">
<path style=" stroke:none;fill-rule:evenodd;fill:rgb(99.607843%,80.392157%,21.960784%);fill-opacity:1;" d="M 3.96875 1.007812 L 13.03125 1.007812 C 14.664062 1.007812 15.992188 2.335938 15.992188 3.96875 L 15.992188 13.03125 C 15.992188 14.664062 14.664062 15.992188 13.03125 15.992188 L 3.96875 15.992188 C 2.335938 15.992188 1.007812 14.664062 1.007812 13.03125 L 1.007812 3.96875 C 1.007812 2.335938 2.335938 1.007812 3.96875 1.007812 Z M 3.96875 1.007812 "/>
<path style=" stroke:none;fill-rule:nonzero;fill:rgb(49.803922%,40%,10.980392%);fill-opacity:1;" d="M 8.8125 5.832031 L 7.4375 10.960938 L 8.207031 11.167969 L 9.582031 6.039062 Z M 9.828125 5.855469 L 9.828125 6.917969 L 11.15625 8.246094 L 9.828125 9.574219 L 9.828125 10.636719 L 12.484375 8.246094 Z M 7.171875 6.386719 L 4.515625 8.777344 L 7.171875 11.167969 L 7.171875 10.105469 L 5.84375 8.777344 L 7.171875 7.449219 Z M 7.171875 6.386719 "/>
</g>
</svg>
