<?xml version="1.0" encoding="UTF-8"?>
<svg xmlns="http://www.w3.org/2000/svg" xmlns:xlink="http://www.w3.org/1999/xlink" width="17pt" height="17pt" viewBox="0 0 17 17" version="1.1">
<defs>
<clipPath id="clip1">
  <rect width="17" height="17"/>
</clipPath>
<g id="surface6" clip-path="url(#clip1)">
<path style=" stroke:none;fill-rule:nonzero;fill:rgb(93.72549%,22.745098%,22.745098%);fill-opacity:1;" d="M 9.15625 1.007812 L 9.15625 8.445312 L 10.21875 7.382812 L 11.28125 8.445312 L 11.28125 1.007812 Z M 9.15625 1.007812 "/>
</g>
</defs>
<g id="surface1">
<path style=" stroke:none;fill-rule:evenodd;fill:rgb(54.117647%,48.235294%,37.254902%);fill-opacity:1;" d="M 5.761719 15.992188 L 13.03125 15.992188 C 14.671875 15.992188 15.992188 14.671875 15.992188 13.03125 L 15.992188 3.972656 C 15.992188 2.328125 14.671875 1.007812 13.03125 1.007812 L 5.761719 1.007812 Z M 5.761719 15.992188 "/>
<path style=" stroke:none;fill-rule:evenodd;fill:rgb(43.137255%,38.431373%,29.803922%);fill-opacity:1;" d="M 5.761719 15.992188 L 5.761719 1.007812 L 3.96875 1.007812 C 2.328125 1.007812 1.007812 2.328125 1.007812 3.972656 L 1.007812 13.03125 C 1.007812 14.671875 2.328125 15.992188 3.96875 15.992188 Z M 5.761719 15.992188 "/>
<use xlink:href="#surface6"/>
</g>
</svg>
