<?xml version="1.0" encoding="UTF-8"?>
<svg xmlns="http://www.w3.org/2000/svg" xmlns:xlink="http://www.w3.org/1999/xlink" width="17pt" height="17pt" viewBox="0 0 17 17" version="1.1">
<defs>
<clipPath id="clip1">
  <rect width="17" height="17"/>
</clipPath>
<g id="surface6" clip-path="url(#clip1)">
<path style=" stroke:none;fill-rule:nonzero;fill:rgb(95.294118%,25.882353%,20.784314%);fill-opacity:1;" d="M 14.933594 11.964844 C 14.933594 13.726562 13.507812 15.152344 11.746094 15.152344 C 9.984375 15.152344 8.558594 13.726562 8.558594 11.964844 C 8.558594 10.207031 9.984375 8.777344 11.746094 8.777344 C 13.507812 8.777344 14.933594 10.207031 14.933594 11.964844 Z M 14.933594 11.964844 "/>
</g>
</defs>
<g id="surface1">
<path style=" stroke:none;fill-rule:evenodd;fill:rgb(50.588235%,83.529412%,27.843137%);fill-opacity:1;" d="M 3.96875 1.007812 L 13.03125 1.007812 C 14.664062 1.007812 15.992188 2.335938 15.992188 3.96875 L 15.992188 13.03125 C 15.992188 14.664062 14.664062 15.992188 13.03125 15.992188 L 3.96875 15.992188 C 2.335938 15.992188 1.007812 14.664062 1.007812 13.03125 L 1.007812 3.96875 C 1.007812 2.335938 2.335938 1.007812 3.96875 1.007812 Z M 3.96875 1.007812 "/>
<path style=" stroke:none;fill-rule:nonzero;fill:rgb(99.607843%,100%,36.862745%);fill-opacity:1;" d="M 8.5 3.1875 C 5.566406 3.1875 3.1875 5.566406 3.1875 8.5 C 3.191406 11.226562 5.257812 13.507812 7.96875 13.78125 L 7.96875 13.8125 L 8.5 13.8125 C 11.433594 13.8125 13.8125 11.433594 13.8125 8.5 C 13.8125 5.566406 11.433594 3.1875 8.5 3.1875 Z M 9.03125 4.289062 C 9.164062 4.304688 9.296875 4.328125 9.425781 4.355469 C 9.507812 4.492188 9.847656 5.097656 10.164062 6.015625 C 9.832031 6.054688 9.453125 6.082031 9.03125 6.097656 Z M 7.96875 4.289062 L 7.96875 6.097656 C 7.546875 6.082031 7.167969 6.054688 6.835938 6.015625 C 7.152344 5.097656 7.492188 4.492188 7.570312 4.359375 C 7.703125 4.328125 7.835938 4.304688 7.96875 4.289062 Z M 10.933594 5.019531 C 11.21875 5.21875 11.476562 5.453125 11.707031 5.714844 C 11.585938 5.75 11.429688 5.792969 11.238281 5.835938 C 11.140625 5.535156 11.035156 5.265625 10.933594 5.019531 Z M 6.0625 5.023438 C 5.960938 5.269531 5.859375 5.535156 5.761719 5.835938 C 5.570312 5.792969 5.410156 5.75 5.292969 5.714844 C 5.519531 5.453125 5.777344 5.222656 6.0625 5.023438 Z M 4.6875 6.636719 C 4.785156 6.671875 5.042969 6.753906 5.496094 6.855469 C 5.40625 7.292969 5.339844 8.019531 5.320312 8.5 L 4.261719 8.5 C 4.296875 7.945312 4.441406 7.136719 4.6875 6.636719 Z M 12.316406 6.636719 C 12.5625 7.136719 12.707031 7.945312 12.742188 8.5 L 11.679688 8.5 C 11.660156 8.019531 11.59375 7.292969 11.503906 6.855469 C 11.960938 6.753906 12.21875 6.671875 12.316406 6.636719 Z M 6.546875 7.042969 C 6.960938 7.097656 7.4375 7.136719 7.96875 7.15625 L 7.96875 8.5 L 6.382812 8.5 C 6.402344 8.089844 6.464844 7.421875 6.546875 7.042969 Z M 10.453125 7.042969 C 10.535156 7.421875 10.597656 8.089844 10.617188 8.5 L 9.03125 8.5 L 9.03125 7.15625 C 9.5625 7.136719 10.039062 7.097656 10.453125 7.042969 Z M 4.328125 9.5625 L 5.359375 9.5625 C 5.414062 10.089844 5.523438 10.3125 5.652344 10.769531 C 5.417969 10.84375 5.21875 10.914062 5.054688 10.980469 C 4.691406 10.476562 4.445312 10.167969 4.328125 9.5625 Z M 6.429688 9.5625 L 7.96875 9.5625 L 7.96875 10.382812 C 7.5 10.40625 7.070312 10.453125 6.691406 10.519531 C 6.578125 10.136719 6.484375 9.996094 6.429688 9.5625 Z M 9.03125 9.5625 L 10.570312 9.5625 C 10.515625 9.996094 10.421875 10.136719 10.308594 10.519531 C 9.929688 10.453125 9.5 10.40625 9.03125 10.382812 Z M 11.640625 9.5625 L 12.671875 9.5625 C 12.554688 10.167969 12.308594 10.476562 11.945312 10.980469 C 11.78125 10.914062 11.582031 10.84375 11.347656 10.769531 C 11.476562 10.3125 11.585938 10.089844 11.640625 9.5625 Z M 7.96875 11.441406 L 7.96875 12.710938 C 7.835938 12.695312 7.703125 12.671875 7.574219 12.644531 C 7.511719 12.539062 7.296875 12.160156 7.039062 11.53125 C 7.316406 11.488281 7.632812 11.460938 7.96875 11.441406 Z M 9.03125 11.441406 C 9.367188 11.460938 9.683594 11.488281 9.960938 11.53125 C 9.703125 12.160156 9.492188 12.535156 9.429688 12.640625 C 9.296875 12.671875 9.164062 12.695312 9.03125 12.710938 Z M 5.980469 11.765625 C 6.011719 11.84375 6.039062 11.914062 6.066406 11.984375 C 5.988281 11.929688 5.914062 11.871094 5.839844 11.8125 C 5.886719 11.796875 5.929688 11.78125 5.980469 11.765625 Z M 11.019531 11.765625 C 11.070312 11.78125 11.113281 11.796875 11.160156 11.8125 C 11.089844 11.871094 11.011719 11.925781 10.9375 11.976562 C 10.964844 11.910156 10.992188 11.839844 11.019531 11.765625 Z M 11.019531 11.765625 "/>
<use xlink:href="#surface6"/>
<path style=" stroke:none;fill-rule:nonzero;fill:rgb(100%,100%,100%);fill-opacity:1;" d="M 11.347656 10.769531 L 12.144531 10.769531 L 12.144531 13.957031 L 11.347656 13.957031 Z M 11.347656 10.769531 "/>
<path style=" stroke:none;fill-rule:nonzero;fill:rgb(100%,100%,100%);fill-opacity:1;" d="M 11.347656 9.574219 L 12.144531 9.574219 L 12.144531 10.371094 L 11.347656 10.371094 Z M 11.347656 9.574219 "/>
</g>
</svg>
