<?xml version="1.0" encoding="UTF-8"?>
<svg xmlns="http://www.w3.org/2000/svg" xmlns:xlink="http://www.w3.org/1999/xlink" width="17pt" height="17pt" viewBox="0 0 17 17" version="1.1">
<defs>
<filter id="alpha" filterUnits="objectBoundingBox" x="0%" y="0%" width="100%" height="100%">
  <feColorMatrix type="matrix" in="SourceGraphic" values="0 0 0 0 1 0 0 0 0 1 0 0 0 0 1 0 0 0 1 0"/>
</filter>
<mask id="mask0">
  <g filter="url(#alpha)">
<rect x="0" y="0" width="17" height="17" style="fill:rgb(0%,0%,0%);fill-opacity:0.501961;stroke:none;"/>
  </g>
</mask>
<clipPath id="clip1">
  <rect width="17" height="17"/>
</clipPath>
<g id="surface6" clip-path="url(#clip1)">
<path style=" stroke:none;fill-rule:nonzero;fill:rgb(100%,100%,100%);fill-opacity:1;" d="M 3.902344 2.65625 C 3.800781 2.65625 3.71875 2.738281 3.71875 2.839844 L 3.71875 4.664062 C 3.71875 4.765625 3.800781 4.847656 3.902344 4.847656 L 5.007812 4.847656 C 5.109375 4.847656 5.191406 4.765625 5.191406 4.664062 L 5.191406 2.839844 C 5.191406 2.738281 5.109375 2.65625 5.007812 2.65625 Z M 4.085938 3.023438 L 4.820312 3.023438 L 4.820312 4.484375 L 4.085938 4.484375 Z M 4.085938 3.023438 "/>
<path style=" stroke:none;fill-rule:evenodd;fill:rgb(100%,100%,100%);fill-opacity:1;" d="M 6.472656 2.65625 C 6.371094 2.65625 6.292969 2.742188 6.292969 2.839844 L 6.292969 4.664062 C 6.292969 4.730469 6.328125 4.789062 6.382812 4.824219 C 6.441406 4.855469 6.511719 4.855469 6.570312 4.824219 C 6.628906 4.789062 6.660156 4.730469 6.660156 4.664062 L 6.660156 2.839844 C 6.660156 2.792969 6.640625 2.746094 6.605469 2.710938 C 6.570312 2.675781 6.523438 2.65625 6.472656 2.65625 Z M 6.472656 2.65625 "/>
<path style=" stroke:none;fill-rule:evenodd;fill:rgb(100%,100%,100%);fill-opacity:1;" d="M 7.945312 2.65625 C 7.84375 2.65625 7.761719 2.742188 7.765625 2.839844 L 7.765625 4.664062 C 7.761719 4.730469 7.796875 4.789062 7.855469 4.824219 C 7.914062 4.855469 7.984375 4.855469 8.039062 4.824219 C 8.097656 4.789062 8.132812 4.730469 8.132812 4.664062 L 8.132812 2.839844 C 8.132812 2.792969 8.113281 2.746094 8.078125 2.710938 C 8.042969 2.675781 7.996094 2.65625 7.945312 2.65625 Z M 7.945312 2.65625 "/>
<path style=" stroke:none;fill-rule:nonzero;fill:rgb(100%,100%,100%);fill-opacity:1;" d="M 9.417969 2.65625 C 9.316406 2.65625 9.234375 2.738281 9.234375 2.839844 L 9.234375 4.664062 C 9.234375 4.765625 9.316406 4.847656 9.417969 4.847656 L 10.523438 4.847656 C 10.625 4.847656 10.707031 4.765625 10.707031 4.664062 L 10.707031 2.839844 C 10.707031 2.738281 10.625 2.65625 10.523438 2.65625 Z M 9.601562 3.023438 L 10.339844 3.023438 L 10.339844 4.484375 L 9.601562 4.484375 Z M 9.601562 3.023438 "/>
<path style=" stroke:none;fill-rule:nonzero;fill:rgb(100%,100%,100%);fill-opacity:1;" d="M 11.992188 2.65625 C 11.890625 2.65625 11.808594 2.738281 11.808594 2.839844 L 11.808594 4.664062 C 11.808594 4.765625 11.890625 4.847656 11.992188 4.847656 L 13.097656 4.847656 C 13.199219 4.847656 13.28125 4.765625 13.28125 4.664062 L 13.28125 2.839844 C 13.28125 2.738281 13.199219 2.65625 13.097656 2.65625 Z M 12.179688 3.023438 L 12.914062 3.023438 L 12.914062 4.484375 L 12.179688 4.484375 Z M 12.179688 3.023438 "/>
<path style=" stroke:none;fill-rule:nonzero;fill:rgb(100%,100%,100%);fill-opacity:1;" d="M 13.097656 5.945312 C 13.199219 5.945312 13.28125 6.023438 13.28125 6.125 L 13.28125 7.953125 C 13.28125 8.054688 13.199219 8.132812 13.097656 8.132812 L 11.992188 8.132812 C 11.890625 8.132812 11.808594 8.054688 11.808594 7.953125 L 11.808594 6.125 C 11.808594 6.023438 11.890625 5.945312 11.992188 5.945312 Z M 12.914062 6.308594 L 12.179688 6.308594 L 12.179688 7.769531 L 12.914062 7.769531 Z M 12.914062 6.308594 "/>
<path style=" stroke:none;fill-rule:evenodd;fill:rgb(100%,100%,100%);fill-opacity:1;" d="M 10.527344 5.945312 C 10.628906 5.945312 10.707031 6.027344 10.707031 6.128906 L 10.707031 7.949219 C 10.707031 8.015625 10.671875 8.078125 10.617188 8.109375 C 10.558594 8.144531 10.488281 8.144531 10.429688 8.109375 C 10.371094 8.078125 10.339844 8.015625 10.339844 7.949219 L 10.339844 6.128906 C 10.339844 6.078125 10.359375 6.03125 10.394531 5.996094 C 10.429688 5.960938 10.476562 5.941406 10.527344 5.945312 Z M 10.527344 5.945312 "/>
<path style=" stroke:none;fill-rule:evenodd;fill:rgb(100%,100%,100%);fill-opacity:1;" d="M 9.054688 5.945312 C 9.15625 5.945312 9.238281 6.027344 9.234375 6.128906 L 9.234375 7.949219 C 9.238281 8.015625 9.203125 8.078125 9.144531 8.109375 C 9.085938 8.144531 9.015625 8.144531 8.960938 8.109375 C 8.902344 8.078125 8.867188 8.015625 8.867188 7.949219 L 8.867188 6.128906 C 8.867188 6.078125 8.886719 6.03125 8.921875 5.996094 C 8.957031 5.960938 9.003906 5.941406 9.054688 5.945312 Z M 9.054688 5.945312 "/>
<path style=" stroke:none;fill-rule:nonzero;fill:rgb(100%,100%,100%);fill-opacity:1;" d="M 7.582031 5.945312 C 7.683594 5.945312 7.765625 6.023438 7.765625 6.125 L 7.765625 7.953125 C 7.765625 8.054688 7.683594 8.132812 7.582031 8.132812 L 6.476562 8.132812 C 6.375 8.132812 6.292969 8.054688 6.292969 7.953125 L 6.292969 6.125 C 6.292969 6.023438 6.375 5.945312 6.476562 5.945312 Z M 7.398438 6.308594 L 6.660156 6.308594 L 6.660156 7.769531 L 7.398438 7.769531 Z M 7.398438 6.308594 "/>
<path style=" stroke:none;fill-rule:evenodd;fill:rgb(100%,100%,100%);fill-opacity:1;" d="M 4.640625 5.945312 C 4.742188 5.945312 4.824219 6.027344 4.820312 6.128906 L 4.820312 7.949219 C 4.824219 8.015625 4.789062 8.078125 4.730469 8.109375 C 4.671875 8.144531 4.601562 8.144531 4.546875 8.109375 C 4.488281 8.078125 4.453125 8.015625 4.453125 7.949219 L 4.453125 6.128906 C 4.453125 6.078125 4.472656 6.03125 4.507812 5.996094 C 4.542969 5.960938 4.589844 5.941406 4.640625 5.945312 Z M 4.640625 5.945312 "/>
<path style=" stroke:none;fill-rule:nonzero;fill:rgb(100%,100%,100%);fill-opacity:1;" d="M 13.097656 8.867188 C 13.199219 8.867188 13.28125 8.945312 13.28125 9.046875 L 13.28125 10.875 C 13.28125 10.976562 13.199219 11.054688 13.097656 11.054688 L 11.992188 11.054688 C 11.890625 11.054688 11.808594 10.976562 11.808594 10.875 L 11.808594 9.046875 C 11.808594 8.945312 11.890625 8.867188 11.992188 8.867188 Z M 12.914062 9.230469 L 12.179688 9.230469 L 12.179688 10.691406 L 12.914062 10.691406 Z M 12.914062 9.230469 "/>
<path style=" stroke:none;fill-rule:evenodd;fill:rgb(100%,100%,100%);fill-opacity:1;" d="M 10.527344 8.867188 C 10.628906 8.867188 10.707031 8.949219 10.707031 9.050781 L 10.707031 10.871094 C 10.707031 10.9375 10.671875 11 10.617188 11.03125 C 10.558594 11.066406 10.488281 11.066406 10.429688 11.03125 C 10.371094 11 10.339844 10.9375 10.339844 10.871094 L 10.339844 9.050781 C 10.339844 9 10.359375 8.953125 10.394531 8.917969 C 10.429688 8.882812 10.476562 8.863281 10.527344 8.867188 Z M 10.527344 8.867188 "/>
<path style=" stroke:none;fill-rule:evenodd;fill:rgb(100%,100%,100%);fill-opacity:1;" d="M 9.054688 8.867188 C 9.15625 8.867188 9.238281 8.949219 9.234375 9.050781 L 9.234375 10.871094 C 9.238281 10.9375 9.203125 11 9.144531 11.03125 C 9.085938 11.066406 9.015625 11.066406 8.960938 11.03125 C 8.902344 11 8.867188 10.9375 8.867188 10.871094 L 8.867188 9.050781 C 8.867188 9 8.886719 8.953125 8.921875 8.917969 C 8.957031 8.882812 9.003906 8.863281 9.054688 8.867188 Z M 9.054688 8.867188 "/>
<path style=" stroke:none;fill-rule:nonzero;fill:rgb(100%,100%,100%);fill-opacity:1;" d="M 7.582031 8.867188 C 7.683594 8.867188 7.765625 8.945312 7.765625 9.046875 L 7.765625 10.875 C 7.765625 10.976562 7.683594 11.054688 7.582031 11.054688 L 6.476562 11.054688 C 6.375 11.054688 6.292969 10.976562 6.292969 10.875 L 6.292969 9.046875 C 6.292969 8.945312 6.375 8.867188 6.476562 8.867188 Z M 7.398438 9.230469 L 6.660156 9.230469 L 6.660156 10.691406 L 7.398438 10.691406 Z M 7.398438 9.230469 "/>
<path style=" stroke:none;fill-rule:nonzero;fill:rgb(100%,100%,100%);fill-opacity:1;" d="M 5.007812 8.867188 C 5.109375 8.867188 5.191406 8.945312 5.191406 9.046875 L 5.191406 10.875 C 5.191406 10.976562 5.109375 11.054688 5.007812 11.054688 L 3.902344 11.054688 C 3.800781 11.054688 3.71875 10.976562 3.71875 10.875 L 3.71875 9.046875 C 3.71875 8.945312 3.800781 8.867188 3.902344 8.867188 Z M 4.820312 9.230469 L 4.085938 9.230469 L 4.085938 10.691406 L 4.820312 10.691406 Z M 4.820312 9.230469 "/>
<path style=" stroke:none;fill-rule:nonzero;fill:rgb(100%,100%,100%);fill-opacity:1;" d="M 3.902344 12.152344 C 3.800781 12.152344 3.71875 12.234375 3.71875 12.335938 L 3.71875 14.160156 C 3.71875 14.261719 3.800781 14.34375 3.902344 14.34375 L 5.007812 14.34375 C 5.109375 14.34375 5.191406 14.261719 5.191406 14.160156 L 5.191406 12.335938 C 5.191406 12.234375 5.109375 12.152344 5.007812 12.152344 Z M 4.085938 12.515625 L 4.820312 12.515625 L 4.820312 13.976562 L 4.085938 13.976562 Z M 4.085938 12.515625 "/>
<path style=" stroke:none;fill-rule:evenodd;fill:rgb(100%,100%,100%);fill-opacity:1;" d="M 6.472656 12.152344 C 6.371094 12.152344 6.292969 12.238281 6.292969 12.335938 L 6.292969 14.160156 C 6.292969 14.226562 6.328125 14.285156 6.382812 14.320312 C 6.441406 14.351562 6.511719 14.351562 6.570312 14.320312 C 6.628906 14.285156 6.660156 14.226562 6.660156 14.160156 L 6.660156 12.335938 C 6.660156 12.289062 6.640625 12.242188 6.605469 12.207031 C 6.570312 12.171875 6.523438 12.152344 6.472656 12.152344 Z M 6.472656 12.152344 "/>
<path style=" stroke:none;fill-rule:evenodd;fill:rgb(100%,100%,100%);fill-opacity:1;" d="M 7.945312 12.152344 C 7.84375 12.152344 7.761719 12.238281 7.765625 12.335938 L 7.765625 14.160156 C 7.761719 14.226562 7.796875 14.285156 7.855469 14.320312 C 7.914062 14.351562 7.984375 14.351562 8.039062 14.320312 C 8.097656 14.285156 8.132812 14.226562 8.132812 14.160156 L 8.132812 12.335938 C 8.132812 12.289062 8.113281 12.242188 8.078125 12.207031 C 8.042969 12.171875 7.996094 12.152344 7.945312 12.152344 Z M 7.945312 12.152344 "/>
<path style=" stroke:none;fill-rule:nonzero;fill:rgb(100%,100%,100%);fill-opacity:1;" d="M 9.417969 12.152344 C 9.316406 12.152344 9.234375 12.234375 9.234375 12.335938 L 9.234375 14.160156 C 9.234375 14.261719 9.316406 14.34375 9.417969 14.34375 L 10.523438 14.34375 C 10.625 14.34375 10.707031 14.261719 10.707031 14.160156 L 10.707031 12.335938 C 10.707031 12.234375 10.625 12.152344 10.523438 12.152344 Z M 9.601562 12.515625 L 10.339844 12.515625 L 10.339844 13.976562 L 9.601562 13.976562 Z M 9.601562 12.515625 "/>
<path style=" stroke:none;fill-rule:evenodd;fill:rgb(100%,100%,100%);fill-opacity:1;" d="M 12.359375 12.152344 C 12.257812 12.152344 12.175781 12.238281 12.179688 12.335938 L 12.179688 14.160156 C 12.175781 14.226562 12.210938 14.285156 12.269531 14.320312 C 12.328125 14.351562 12.398438 14.351562 12.453125 14.320312 C 12.511719 14.285156 12.546875 14.226562 12.546875 14.160156 L 12.546875 12.335938 C 12.546875 12.289062 12.527344 12.242188 12.492188 12.207031 C 12.457031 12.171875 12.410156 12.152344 12.359375 12.152344 Z M 12.359375 12.152344 "/>
</g>
</defs>
<g id="surface1">
<path style=" stroke:none;fill-rule:evenodd;fill:rgb(30.980392%,30.980392%,30.980392%);fill-opacity:1;" d="M 3.96875 1.007812 L 13.03125 1.007812 C 14.664062 1.007812 15.992188 2.335938 15.992188 3.96875 L 15.992188 13.03125 C 15.992188 14.664062 14.664062 15.992188 13.03125 15.992188 L 3.96875 15.992188 C 2.335938 15.992188 1.007812 14.664062 1.007812 13.03125 L 1.007812 3.96875 C 1.007812 2.335938 2.335938 1.007812 3.96875 1.007812 Z M 3.96875 1.007812 "/>
<use xlink:href="#surface6" mask="url(#mask0)"/>
<path style=" stroke:none;fill-rule:evenodd;fill:rgb(100%,100%,100%);fill-opacity:1;" d="M 12.464844 11.445312 L 11.167969 12.742188 Z M 12.464844 11.445312 "/>
<path style=" stroke:none;fill-rule:evenodd;fill:rgb(99.215686%,62.745098%,0.784314%);fill-opacity:1;" d="M 10.628906 4.039062 L 5.597656 9.042969 L 7.03125 9.085938 L 7 10.410156 L 8.382812 10.46875 L 8.417969 11.746094 L 13.203125 6.960938 L 13.203125 6.796875 C 13.203125 5.328125 12.066406 4.164062 10.628906 4.039062 Z M 10.628906 4.039062 "/>
<path style=" stroke:none;fill-rule:evenodd;fill:rgb(99.215686%,62.745098%,0.784314%);fill-opacity:1;" d="M 5.597656 9.039062 L 7.03125 9.085938 L 7 10.410156 L 8.382812 10.46875 L 8.417969 11.746094 L 10.601562 9.5625 C 10.183594 8.269531 9.234375 7.210938 7.992188 6.660156 Z M 5.597656 9.039062 "/>
<path style=" stroke:none;fill-rule:evenodd;fill:rgb(100%,100%,100%);fill-opacity:1;" d="M 4.359375 13.070312 L 8.417969 11.746094 L 8.382812 10.46875 L 7 10.410156 L 7.027344 9.085938 L 5.597656 9.039062 L 5.597656 9.042969 Z M 4.359375 13.070312 "/>
<path style=" stroke:none;fill-rule:nonzero;fill:rgb(0%,0%,0%);fill-opacity:1;" d="M 4.359375 13.070312 L 5.882812 12.574219 L 4.824219 11.550781 Z M 4.359375 13.070312 "/>
</g>
</svg>
