<?xml version="1.0" encoding="UTF-8"?>
<svg xmlns="http://www.w3.org/2000/svg" xmlns:xlink="http://www.w3.org/1999/xlink" width="17pt" height="17pt" viewBox="0 0 17 17" version="1.1">
<g id="surface1">
<path style=" stroke:none;fill-rule:evenodd;fill:rgb(23.137255%,58.039216%,96.862745%);fill-opacity:1;" d="M 3.96875 1.007812 L 13.03125 1.007812 C 14.664062 1.007812 15.992188 2.335938 15.992188 3.96875 L 15.992188 13.03125 C 15.992188 14.664062 14.664062 15.992188 13.03125 15.992188 L 3.96875 15.992188 C 2.335938 15.992188 1.007812 14.664062 1.007812 13.03125 L 1.007812 3.96875 C 1.007812 2.335938 2.335938 1.007812 3.96875 1.007812 Z M 3.96875 1.007812 "/>
<path style=" stroke:none;fill-rule:nonzero;fill:rgb(23.137255%,58.039216%,96.862745%);fill-opacity:1;" d="M 13.003906 8.5 C 13.003906 10.988281 10.988281 13.003906 8.5 13.003906 C 6.011719 13.003906 3.996094 10.988281 3.996094 8.5 C 3.996094 6.011719 6.011719 3.996094 8.5 3.996094 C 10.988281 3.996094 13.003906 6.011719 13.003906 8.5 Z M 13.003906 8.5 "/>
<path style=" stroke:none;fill-rule:nonzero;fill:rgb(100%,100%,100%);fill-opacity:1;" d="M 8.5 3.242188 C 5.585938 3.242188 3.242188 5.585938 3.242188 8.5 C 3.242188 11.414062 5.585938 13.757812 8.5 13.757812 C 11.414062 13.757812 13.757812 11.414062 13.757812 8.5 C 13.757812 5.585938 11.414062 3.242188 8.5 3.242188 Z M 8.5 5.496094 C 9.746094 5.496094 10.753906 6.839844 10.753906 8.5 C 10.753906 10.160156 9.746094 11.503906 8.5 11.503906 C 7.253906 11.503906 6.246094 10.160156 6.246094 8.5 C 6.246094 6.839844 7.253906 5.496094 8.5 5.496094 Z M 8.5 5.496094 "/>
</g>
</svg>
