<?xml version="1.0" encoding="UTF-8"?>
<svg xmlns="http://www.w3.org/2000/svg" xmlns:xlink="http://www.w3.org/1999/xlink" width="17pt" height="17pt" viewBox="0 0 17 17" version="1.1">
<g id="surface1">
<path style=" stroke:none;fill-rule:evenodd;fill:rgb(47.843137%,82.745098%,32.941176%);fill-opacity:1;" d="M 3.96875 1.007812 L 13.03125 1.007812 C 14.664062 1.007812 15.992188 2.335938 15.992188 3.96875 L 15.992188 13.03125 C 15.992188 14.664062 14.664062 15.992188 13.03125 15.992188 L 3.96875 15.992188 C 2.335938 15.992188 1.007812 14.664062 1.007812 13.03125 L 1.007812 3.96875 C 1.007812 2.335938 2.335938 1.007812 3.96875 1.007812 Z M 3.96875 1.007812 "/>
<path style=" stroke:none;fill-rule:nonzero;fill:rgb(100%,100%,100%);fill-opacity:1;" d="M 8.265625 2.597656 C 7.628906 2.597656 7.117188 3.109375 7.117188 3.746094 L 7.117188 4.890625 L 4.441406 4.890625 C 4.019531 4.890625 3.679688 5.230469 3.679688 5.65625 L 3.679688 7.949219 L 4.824219 7.949219 C 5.460938 7.949219 5.972656 8.460938 5.972656 9.09375 C 5.972656 9.730469 5.460938 10.242188 4.824219 10.242188 L 3.679688 10.242188 L 3.679688 12.917969 C 3.679688 13.339844 4.019531 13.683594 4.441406 13.683594 L 7.117188 13.683594 L 7.117188 12.917969 C 7.117188 12.28125 7.628906 11.769531 8.265625 11.769531 C 8.898438 11.769531 9.410156 12.28125 9.410156 12.917969 L 9.410156 13.683594 L 11.703125 13.683594 C 12.128906 13.683594 12.46875 13.339844 12.46875 12.917969 L 12.46875 10.242188 L 13.617188 10.242188 C 14.25 10.242188 14.761719 9.730469 14.761719 9.09375 C 14.761719 8.460938 14.25 7.949219 13.617188 7.949219 L 12.46875 7.949219 L 12.46875 5.65625 C 12.46875 5.230469 12.128906 4.890625 11.703125 4.890625 L 9.410156 4.890625 L 9.410156 3.746094 C 9.410156 3.109375 8.898438 2.597656 8.265625 2.597656 Z M 8.265625 2.597656 "/>
</g>
</svg>
