<?xml version="1.0" encoding="UTF-8"?>
<svg xmlns="http://www.w3.org/2000/svg" xmlns:xlink="http://www.w3.org/1999/xlink" width="17pt" height="17pt" viewBox="0 0 17 17" version="1.1">
<g id="surface1">
<path style=" stroke:none;fill-rule:evenodd;fill:rgb(30.588235%,68.627451%,26.666667%);fill-opacity:1;" d="M 1.007812 9.359375 C 1.078125 9.308594 1.160156 9.242188 1.175781 9.242188 C 1.210938 9.242188 1.484375 9.074219 1.601562 8.980469 C 1.628906 8.960938 1.863281 8.839844 2.125 8.710938 C 2.386719 8.585938 2.796875 8.386719 3.035156 8.273438 C 3.273438 8.15625 3.480469 8.0625 3.5 8.0625 C 3.515625 8.0625 3.660156 7.980469 3.816406 7.886719 C 3.972656 7.789062 4.148438 7.695312 4.199219 7.679688 C 4.363281 7.628906 5.210938 7.058594 5.585938 6.746094 C 5.996094 6.40625 6.566406 5.789062 6.683594 5.558594 C 6.726562 5.476562 6.78125 5.398438 6.796875 5.386719 C 6.832031 5.363281 6.917969 5.199219 7.152344 4.703125 C 7.445312 4.0625 7.628906 3.261719 7.640625 2.472656 C 7.644531 2.078125 7.609375 1.6875 7.515625 1.320312 C 7.488281 1.207031 7.421875 1.117188 7.382812 1.007812 L 3.96875 1.007812 C 2.328125 1.007812 1.007812 2.328125 1.007812 3.96875 Z M 1.007812 9.359375 "/>
<path style=" stroke:none;fill-rule:evenodd;fill:rgb(30.588235%,68.627451%,26.666667%);fill-opacity:1;" d="M 14.5625 15.503906 C 14.445312 15.46875 14.242188 15.410156 14.066406 15.363281 C 13.5 15.21875 12.234375 14.644531 11.8125 14.34375 C 11.6875 14.257812 11.570312 14.183594 11.550781 14.183594 C 11.527344 14.183594 11.402344 14.101562 11.269531 14.003906 C 10.691406 13.570312 10.050781 13.15625 9.363281 12.808594 C 8.679688 12.460938 7.953125 12.175781 7.207031 12 C 6.730469 11.894531 5.78125 11.886719 5.324219 11.984375 C 4.691406 12.117188 4.097656 12.316406 3.589844 12.570312 C 3.078125 12.820312 2.652344 13.117188 2.355469 13.441406 C 2.066406 13.757812 1.78125 14.320312 1.738281 14.652344 C 1.722656 14.789062 1.84375 14.945312 1.886719 15.132812 C 2.421875 15.664062 3.15625 15.992188 3.96875 15.992188 L 13.03125 15.992188 C 13.605469 15.992188 14.109375 15.785156 14.5625 15.503906 Z M 14.5625 15.503906 "/>
<path style=" stroke:none;fill-rule:evenodd;fill:rgb(100%,100%,100%);fill-opacity:1;" d="M 15.992188 12.828125 L 15.992188 11.765625 C 15.957031 11.765625 15.925781 11.78125 15.890625 11.777344 C 15.480469 11.722656 15.0625 11.585938 14.660156 11.378906 C 14.257812 11.171875 13.867188 10.894531 13.503906 10.554688 C 13.003906 10.089844 12.832031 9.898438 12.59375 9.558594 C 12.144531 8.914062 11.875 8.242188 11.644531 7.222656 C 11.542969 6.785156 11.566406 4.625 11.675781 3.820312 C 11.796875 2.914062 11.78125 1.929688 11.636719 1.007812 L 10.496094 1.007812 C 10.5 1.03125 10.515625 1.066406 10.519531 1.089844 C 10.597656 1.648438 10.613281 2.851562 10.546875 3.40625 C 10.433594 4.347656 10.394531 5.648438 10.449219 6.449219 C 10.507812 7.324219 10.566406 7.652344 10.777344 8.339844 C 10.929688 8.832031 11.304688 9.652344 11.46875 9.855469 C 11.527344 9.921875 11.617188 10.054688 11.675781 10.148438 C 11.730469 10.242188 11.792969 10.316406 11.808594 10.316406 C 11.828125 10.316406 11.875 10.375 11.917969 10.445312 C 12.019531 10.609375 12.328125 10.9375 12.636719 11.207031 C 12.773438 11.328125 12.957031 11.488281 13.039062 11.566406 C 13.125 11.640625 13.257812 11.742188 13.335938 11.792969 C 13.417969 11.84375 13.550781 11.9375 13.636719 12 C 13.886719 12.199219 14.289062 12.398438 14.710938 12.554688 C 15.132812 12.710938 15.578125 12.820312 15.914062 12.839844 C 15.941406 12.84375 15.964844 12.828125 15.992188 12.828125 Z M 15.992188 12.828125 "/>
<path style=" stroke:none;fill-rule:evenodd;fill:rgb(100%,100%,100%);fill-opacity:1;" d="M 1.046875 13.21875 C 1.097656 13.964844 1.386719 14.640625 1.886719 15.132812 C 1.84375 14.945312 1.722656 14.789062 1.738281 14.652344 C 1.78125 14.320312 2.066406 13.757812 2.355469 13.441406 C 2.652344 13.117188 3.078125 12.820312 3.589844 12.570312 C 4.097656 12.316406 4.691406 12.117188 5.324219 11.984375 C 5.78125 11.886719 6.730469 11.894531 7.207031 12 C 7.953125 12.175781 8.679688 12.460938 9.363281 12.808594 C 10.050781 13.15625 10.691406 13.570312 11.269531 14.003906 C 11.402344 14.101562 11.527344 14.183594 11.550781 14.183594 C 11.570312 14.183594 11.6875 14.257812 11.8125 14.34375 C 12.234375 14.644531 13.5 15.21875 14.066406 15.363281 C 14.242188 15.410156 14.445312 15.46875 14.5625 15.503906 C 15.003906 15.230469 15.355469 14.851562 15.609375 14.402344 C 15.046875 14.292969 14.183594 14.089844 13.878906 13.960938 C 13.730469 13.898438 13.527344 13.816406 13.433594 13.78125 C 13.339844 13.746094 13.097656 13.625 12.902344 13.515625 C 12.707031 13.402344 12.53125 13.3125 12.519531 13.3125 C 12.507812 13.3125 12.394531 13.238281 12.273438 13.152344 C 12.152344 13.066406 12.039062 12.992188 12.023438 12.992188 C 12.007812 12.992188 11.875 12.90625 11.734375 12.800781 C 11.589844 12.695312 11.441406 12.589844 11.398438 12.5625 C 11.183594 12.433594 10.597656 12.0625 10.492188 11.992188 C 10.253906 11.828125 9.703125 11.539062 9.117188 11.273438 C 8.707031 11.089844 8.449219 11.003906 7.640625 10.785156 C 7.242188 10.675781 7.140625 10.667969 6.257812 10.667969 C 5.269531 10.664062 5.054688 10.695312 4.421875 10.90625 C 4.285156 10.953125 4.066406 11.023438 3.941406 11.0625 C 3.660156 11.148438 2.816406 11.539062 2.796875 11.59375 C 2.789062 11.617188 2.761719 11.632812 2.742188 11.632812 C 2.691406 11.632812 2.199219 11.941406 2.117188 12.027344 C 2.082031 12.0625 1.980469 12.144531 1.890625 12.210938 C 1.710938 12.347656 1.402344 12.671875 1.292969 12.835938 C 1.253906 12.894531 1.160156 13.03125 1.085938 13.136719 C 1.074219 13.152344 1.058594 13.195312 1.046875 13.21875 Z M 1.046875 13.21875 "/>
<path style=" stroke:none;fill-rule:evenodd;fill:rgb(100%,100%,100%);fill-opacity:1;" d="M 8.679688 1.007812 L 7.382812 1.007812 C 7.421875 1.117188 7.488281 1.207031 7.515625 1.320312 C 7.609375 1.6875 7.644531 2.078125 7.640625 2.472656 C 7.628906 3.261719 7.445312 4.0625 7.152344 4.703125 C 6.917969 5.199219 6.832031 5.363281 6.796875 5.386719 C 6.78125 5.398438 6.726562 5.476562 6.683594 5.558594 C 6.566406 5.789062 5.996094 6.40625 5.585938 6.746094 C 5.210938 7.058594 4.363281 7.628906 4.199219 7.679688 C 4.148438 7.695312 3.972656 7.789062 3.816406 7.886719 C 3.660156 7.980469 3.515625 8.0625 3.5 8.0625 C 3.480469 8.0625 3.273438 8.15625 3.035156 8.273438 C 2.796875 8.386719 2.386719 8.585938 2.125 8.710938 C 1.863281 8.839844 1.628906 8.960938 1.601562 8.980469 C 1.484375 9.074219 1.210938 9.242188 1.175781 9.242188 C 1.160156 9.242188 1.078125 9.308594 1.007812 9.359375 L 1.007812 10.726562 C 1.039062 10.703125 1.066406 10.671875 1.089844 10.652344 C 1.164062 10.605469 1.328125 10.488281 1.457031 10.386719 C 1.75 10.160156 1.953125 10.035156 2.359375 9.816406 C 2.882812 9.539062 2.929688 9.515625 3.402344 9.300781 C 3.898438 9.074219 4.003906 9.019531 4.671875 8.652344 C 5.457031 8.21875 5.808594 7.996094 6.09375 7.746094 C 6.203125 7.652344 6.316406 7.566406 6.34375 7.558594 C 6.460938 7.515625 7.179688 6.789062 7.476562 6.410156 C 7.8125 5.984375 8.242188 5.179688 8.496094 4.488281 C 8.554688 4.328125 8.660156 3.855469 8.777344 3.195312 C 8.875 2.664062 8.890625 1.882812 8.820312 1.429688 C 8.792969 1.269531 8.726562 1.1875 8.679688 1.007812 Z M 8.679688 1.007812 "/>
<path style=" stroke:none;fill-rule:evenodd;fill:rgb(94.117647%,55.294118%,14.509804%);fill-opacity:1;" d="M 8.679688 1.007812 C 8.726562 1.1875 8.792969 1.269531 8.820312 1.429688 C 8.890625 1.882812 8.875 2.664062 8.777344 3.195312 C 8.660156 3.855469 8.554688 4.328125 8.496094 4.488281 C 8.242188 5.179688 7.8125 5.984375 7.476562 6.410156 C 7.179688 6.789062 6.460938 7.515625 6.34375 7.558594 C 6.316406 7.566406 6.203125 7.652344 6.09375 7.746094 C 5.808594 7.996094 5.457031 8.21875 4.671875 8.652344 C 4.003906 9.019531 3.898438 9.074219 3.402344 9.300781 C 2.929688 9.515625 2.882812 9.539062 2.359375 9.816406 C 1.953125 10.035156 1.75 10.160156 1.457031 10.386719 C 1.328125 10.488281 1.164062 10.605469 1.089844 10.652344 C 1.066406 10.671875 1.039062 10.703125 1.007812 10.726562 L 1.007812 13.03125 C 1.007812 13.097656 1.042969 13.152344 1.046875 13.21875 C 1.058594 13.195312 1.074219 13.152344 1.085938 13.136719 C 1.160156 13.03125 1.253906 12.894531 1.292969 12.835938 C 1.402344 12.671875 1.710938 12.347656 1.890625 12.210938 C 1.980469 12.144531 2.082031 12.0625 2.117188 12.027344 C 2.199219 11.941406 2.691406 11.632812 2.742188 11.632812 C 2.761719 11.632812 2.789062 11.617188 2.796875 11.59375 C 2.816406 11.539062 3.660156 11.148438 3.941406 11.0625 C 4.066406 11.023438 4.285156 10.953125 4.421875 10.90625 C 5.054688 10.695312 5.269531 10.664062 6.257812 10.667969 C 7.140625 10.667969 7.242188 10.675781 7.640625 10.785156 C 8.449219 11.003906 8.707031 11.089844 9.117188 11.273438 C 9.703125 11.539062 10.253906 11.828125 10.492188 11.992188 C 10.597656 12.0625 11.183594 12.433594 11.398438 12.5625 C 11.441406 12.589844 11.589844 12.695312 11.734375 12.800781 C 11.875 12.90625 12.007812 12.992188 12.023438 12.992188 C 12.039062 12.992188 12.152344 13.066406 12.273438 13.152344 C 12.394531 13.238281 12.507812 13.3125 12.519531 13.3125 C 12.53125 13.3125 12.707031 13.402344 12.902344 13.515625 C 13.097656 13.625 13.339844 13.746094 13.433594 13.78125 C 13.527344 13.816406 13.730469 13.898438 13.878906 13.960938 C 14.183594 14.089844 15.046875 14.292969 15.609375 14.402344 C 15.839844 13.996094 15.992188 13.539062 15.992188 13.03125 L 15.992188 12.828125 C 15.964844 12.828125 15.941406 12.84375 15.914062 12.839844 C 15.578125 12.820312 15.132812 12.710938 14.710938 12.554688 C 14.289062 12.398438 13.886719 12.199219 13.636719 12 C 13.550781 11.9375 13.417969 11.84375 13.335938 11.792969 C 13.257812 11.742188 13.125 11.640625 13.039062 11.566406 C 12.957031 11.488281 12.773438 11.328125 12.636719 11.207031 C 12.328125 10.9375 12.019531 10.609375 11.917969 10.445312 C 11.875 10.375 11.828125 10.316406 11.808594 10.316406 C 11.792969 10.316406 11.730469 10.242188 11.675781 10.148438 C 11.617188 10.054688 11.527344 9.921875 11.46875 9.855469 C 11.304688 9.652344 10.929688 8.832031 10.777344 8.339844 C 10.566406 7.652344 10.507812 7.324219 10.449219 6.449219 C 10.394531 5.648438 10.433594 4.347656 10.546875 3.40625 C 10.613281 2.851562 10.597656 1.648438 10.519531 1.089844 C 10.515625 1.066406 10.5 1.03125 10.496094 1.007812 Z M 8.679688 1.007812 "/>
<path style=" stroke:none;fill-rule:evenodd;fill:rgb(30.588235%,68.627451%,26.666667%);fill-opacity:1;" d="M 11.636719 1.007812 C 11.78125 1.929688 11.796875 2.914062 11.675781 3.820312 C 11.566406 4.625 11.542969 6.785156 11.644531 7.222656 C 11.875 8.242188 12.144531 8.914062 12.59375 9.558594 C 12.832031 9.898438 13.003906 10.089844 13.503906 10.554688 C 13.867188 10.894531 14.257812 11.171875 14.660156 11.378906 C 15.0625 11.585938 15.480469 11.722656 15.890625 11.777344 C 15.925781 11.78125 15.957031 11.765625 15.992188 11.765625 L 15.992188 3.96875 C 15.992188 2.328125 14.671875 1.007812 13.03125 1.007812 Z M 11.636719 1.007812 "/>
</g>
</svg>
