<?xml version="1.0" encoding="UTF-8"?>
<svg xmlns="http://www.w3.org/2000/svg" xmlns:xlink="http://www.w3.org/1999/xlink" width="17pt" height="17pt" viewBox="0 0 17 17" version="1.1">
<g id="surface1">
<path style=" stroke:none;fill-rule:evenodd;fill:rgb(0.784314%,52.54902%,76.078431%);fill-opacity:1;" d="M 3.96875 1.007812 L 13.03125 1.007812 C 14.664062 1.007812 15.992188 2.335938 15.992188 3.96875 L 15.992188 13.03125 C 15.992188 14.664062 14.664062 15.992188 13.03125 15.992188 L 3.96875 15.992188 C 2.335938 15.992188 1.007812 14.664062 1.007812 13.03125 L 1.007812 3.96875 C 1.007812 2.335938 2.335938 1.007812 3.96875 1.007812 Z M 3.96875 1.007812 "/>
<path style=" stroke:none;fill-rule:nonzero;fill:rgb(92.54902%,92.54902%,92.54902%);fill-opacity:1;" d="M 5.851562 4.515625 C 5.195312 4.507812 4.414062 5.195312 4.273438 7.144531 C 4.121094 9.222656 4.714844 9.425781 5.355469 9.425781 C 5.890625 9.425781 6.316406 9.160156 6.789062 8.609375 C 6.859375 8.527344 6.9375 8.484375 6.96875 8.515625 C 7 8.546875 7.023438 8.570312 7.019531 8.566406 C 7.019531 8.566406 6.984375 8.648438 6.949219 8.753906 C 6.859375 9.039062 6.71875 9.601562 6.859375 9.996094 C 6.898438 10.101562 6.972656 10.085938 7.007812 9.980469 C 7.082031 9.730469 7.226562 9.296875 7.382812 9.082031 C 7.449219 8.992188 7.523438 9.042969 7.519531 9.152344 C 7.496094 9.820312 7.714844 11.039062 8.699219 11.8125 C 9.726562 12.625 11.226562 12.601562 12.042969 12.257812 C 12.140625 12.214844 12.296875 12.21875 12.402344 12.238281 C 12.46875 12.25 12.550781 12.253906 12.652344 12.25 C 12.957031 12.234375 12.453125 11.976562 12.417969 11.839844 C 12.386719 11.703125 12.652344 11.675781 12.707031 11.242188 C 12.761719 10.804688 12.421875 11.222656 12.421875 11.222656 C 12.421875 11.222656 12.167969 11.519531 11.164062 11.453125 C 10.234375 11.398438 9.132812 10.917969 9.167969 9.238281 C 9.171875 9.128906 9.207031 9.03125 9.238281 9.019531 C 9.269531 9.003906 9.363281 9.054688 9.417969 9.148438 C 9.558594 9.378906 9.683594 9.753906 9.753906 9.980469 C 9.785156 10.085938 9.859375 10.101562 9.898438 9.996094 C 10.023438 9.65625 9.929688 9.183594 9.84375 8.878906 C 9.816406 8.773438 9.847656 8.640625 9.917969 8.574219 C 9.984375 8.507812 10.09375 8.519531 10.164062 8.601562 C 10.636719 9.15625 11.066406 9.425781 11.601562 9.425781 C 12.246094 9.425781 12.835938 9.222656 12.683594 7.144531 C 12.535156 5.066406 11.652344 4.421875 10.972656 4.527344 C 10.539062 4.59375 10.234375 4.816406 10.074219 4.96875 C 9.996094 5.046875 9.941406 5.121094 9.941406 5.132812 C 9.941406 5.140625 9.878906 5.082031 9.796875 5.015625 C 9.429688 4.707031 8.972656 4.527344 8.472656 4.527344 C 7.980469 4.527344 7.523438 4.703125 7.160156 5 C 7.078125 5.070312 7.015625 5.128906 7.015625 5.125 C 7.015625 5.121094 6.960938 5.046875 6.882812 4.972656 C 6.722656 4.820312 6.421875 4.59375 5.984375 4.527344 C 5.941406 4.519531 5.898438 4.515625 5.851562 4.515625 Z M 7.703125 6.109375 C 7.851562 6.109375 7.96875 6.226562 7.96875 6.375 C 7.96875 6.523438 7.851562 6.640625 7.703125 6.640625 C 7.554688 6.640625 7.4375 6.523438 7.4375 6.375 C 7.4375 6.226562 7.554688 6.109375 7.703125 6.109375 Z M 9.296875 6.109375 C 9.445312 6.109375 9.5625 6.226562 9.5625 6.375 C 9.5625 6.523438 9.445312 6.640625 9.296875 6.640625 C 9.148438 6.640625 9.03125 6.523438 9.03125 6.375 C 9.03125 6.226562 9.148438 6.109375 9.296875 6.109375 Z M 9.296875 6.109375 "/>
</g>
</svg>
