<?xml version="1.0" encoding="UTF-8"?>
<svg xmlns="http://www.w3.org/2000/svg" xmlns:xlink="http://www.w3.org/1999/xlink" width="17pt" height="17pt" viewBox="0 0 17 17" version="1.1">
<g id="surface1">
<path style=" stroke:none;fill-rule:evenodd;fill:rgb(30.980392%,30.980392%,30.980392%);fill-opacity:1;" d="M 3.96875 1.007812 L 13.03125 1.007812 C 14.664062 1.007812 15.992188 2.335938 15.992188 3.96875 L 15.992188 13.03125 C 15.992188 14.664062 14.664062 15.992188 13.03125 15.992188 L 3.96875 15.992188 C 2.335938 15.992188 1.007812 14.664062 1.007812 13.03125 L 1.007812 3.96875 C 1.007812 2.335938 2.335938 1.007812 3.96875 1.007812 Z M 3.96875 1.007812 "/>
<path style=" stroke:none;fill-rule:nonzero;fill:rgb(100%,100%,100%);fill-opacity:1;" d="M 14.203125 2.796875 L 12.777344 2.796875 L 12.777344 4.222656 L 14.203125 4.222656 Z M 14.203125 12.777344 L 12.777344 12.777344 L 12.777344 14.203125 L 14.203125 14.203125 Z M 10.875 2.796875 L 9.449219 2.796875 L 9.449219 4.222656 L 10.875 4.222656 Z M 10.875 12.777344 L 9.449219 12.777344 L 9.449219 14.203125 L 10.875 14.203125 Z M 7.550781 2.796875 L 6.125 2.796875 L 6.125 4.222656 L 7.550781 4.222656 Z M 7.550781 12.777344 L 6.125 12.777344 L 6.125 14.203125 L 7.550781 14.203125 Z M 4.222656 2.796875 L 2.796875 2.796875 L 2.796875 4.222656 L 4.222656 4.222656 Z M 4.222656 12.777344 L 2.796875 12.777344 L 2.796875 14.203125 L 4.222656 14.203125 Z M 4.222656 12.777344 "/>
<path style=" stroke:none;fill-rule:nonzero;fill:rgb(74.509804%,100%,29.803922%);fill-opacity:1;" d="M 8.023438 8.976562 C 7.460938 9.882812 6.214844 10.195312 5.242188 9.671875 C 4.265625 9.144531 3.933594 7.984375 4.496094 7.074219 Z M 8.023438 8.976562 "/>
<path style=" stroke:none;fill-rule:nonzero;fill:rgb(17.254902%,17.254902%,17.254902%);fill-opacity:1;" d="M 6.074219 7.925781 C 5.992188 8.484375 6.15625 9.152344 6.582031 9.894531 C 6.582031 9.894531 6.585938 9.894531 6.585938 9.894531 C 6.359375 9.363281 6.390625 8.765625 6.597656 8.207031 Z M 6.074219 7.925781 "/>
<path style=" stroke:none;fill-rule:nonzero;fill:rgb(74.509804%,100%,29.803922%);fill-opacity:1;" d="M 8.976562 8.976562 C 9.539062 9.882812 10.785156 10.195312 11.757812 9.671875 C 12.734375 9.144531 13.066406 7.984375 12.503906 7.074219 Z M 8.976562 8.976562 "/>
<path style=" stroke:none;fill-rule:nonzero;fill:rgb(17.254902%,17.254902%,17.254902%);fill-opacity:1;" d="M 10.925781 7.925781 L 10.402344 8.207031 C 10.609375 8.765625 10.640625 9.363281 10.414062 9.894531 C 10.414062 9.894531 10.417969 9.894531 10.417969 9.894531 C 10.84375 9.152344 11.007812 8.484375 10.925781 7.925781 Z M 10.925781 7.925781 "/>
</g>
</svg>
