<?xml version="1.0" encoding="UTF-8"?>
<svg xmlns="http://www.w3.org/2000/svg" xmlns:xlink="http://www.w3.org/1999/xlink" width="17pt" height="17pt" viewBox="0 0 17 17" version="1.1">
<g id="surface1">
<path style=" stroke:none;fill-rule:evenodd;fill:rgb(62.745098%,0.784314%,76.078431%);fill-opacity:1;" d="M 3.96875 1.007812 L 13.03125 1.007812 C 14.664062 1.007812 15.992188 2.335938 15.992188 3.96875 L 15.992188 13.03125 C 15.992188 14.664062 14.664062 15.992188 13.03125 15.992188 L 3.96875 15.992188 C 2.335938 15.992188 1.007812 14.664062 1.007812 13.03125 L 1.007812 3.96875 C 1.007812 2.335938 2.335938 1.007812 3.96875 1.007812 Z M 3.96875 1.007812 "/>
<path style=" stroke:none;fill-rule:nonzero;fill:rgb(97.647059%,97.647059%,97.647059%);fill-opacity:1;" d="M 6.792969 3.570312 C 6.480469 3.570312 6.226562 3.824219 6.226562 4.140625 L 6.226562 9.449219 C 6.226562 9.761719 6.480469 10.015625 6.792969 10.015625 L 12.101562 10.015625 C 12.417969 10.015625 12.671875 9.761719 12.671875 9.449219 L 12.671875 4.707031 L 13.808594 3.570312 Z M 6.792969 3.570312 "/>
<path style=" stroke:none;fill-rule:nonzero;fill:rgb(82.745098%,20.784314%,96.078431%);fill-opacity:1;" d="M 3.191406 6.984375 L 4.328125 8.121094 L 4.328125 12.859375 C 4.328125 13.175781 4.582031 13.429688 4.898438 13.429688 L 10.207031 13.429688 C 10.519531 13.429688 10.773438 13.175781 10.773438 12.859375 L 10.773438 7.550781 C 10.773438 7.238281 10.519531 6.984375 10.207031 6.984375 Z M 3.191406 6.984375 "/>
<path style=" stroke:none;fill-rule:nonzero;fill:rgb(92.941176%,68.235294%,98.431373%);fill-opacity:1;" d="M 5.464844 8.878906 L 5.464844 9.257812 L 9.636719 9.257812 L 9.636719 8.878906 Z M 5.464844 10.015625 L 5.464844 10.394531 L 9.636719 10.394531 L 9.636719 10.015625 Z M 5.464844 11.152344 L 5.464844 11.535156 L 8.652344 11.535156 L 8.652344 11.152344 Z M 5.464844 11.152344 "/>
</g>
</svg>
