<?xml version="1.0" encoding="UTF-8"?>
<svg xmlns="http://www.w3.org/2000/svg" xmlns:xlink="http://www.w3.org/1999/xlink" width="17pt" height="17pt" viewBox="0 0 17 17" version="1.1">
<g id="surface1">
<path style=" stroke:none;fill-rule:evenodd;fill:rgb(92.156863%,63.529412%,16.078431%);fill-opacity:1;" d="M 3.96875 1.007812 L 13.03125 1.007812 C 14.664062 1.007812 15.992188 2.335938 15.992188 3.96875 L 15.992188 13.03125 C 15.992188 14.664062 14.664062 15.992188 13.03125 15.992188 L 3.96875 15.992188 C 2.335938 15.992188 1.007812 14.664062 1.007812 13.03125 L 1.007812 3.96875 C 1.007812 2.335938 2.335938 1.007812 3.96875 1.007812 Z M 3.96875 1.007812 "/>
<path style=" stroke:none;fill-rule:nonzero;fill:rgb(100%,100%,100%);fill-opacity:1;" d="M 9.300781 4.78125 C 7.691406 4.78125 6.363281 6.09375 6.363281 7.703125 C 6.363281 8.3125 6.570312 8.875 6.894531 9.347656 L 4.9375 11.304688 C 4.726562 11.511719 4.722656 11.847656 4.929688 12.058594 C 5.132812 12.269531 5.472656 12.273438 5.683594 12.070312 L 7.640625 10.109375 C 8.113281 10.433594 8.691406 10.625 9.300781 10.625 C 10.910156 10.625 12.222656 9.308594 12.222656 7.703125 C 12.222656 6.09375 10.910156 4.78125 9.300781 4.78125 Z M 9.300781 5.84375 C 10.335938 5.84375 11.160156 6.667969 11.160156 7.703125 C 11.160156 8.734375 10.335938 9.5625 9.300781 9.5625 C 8.265625 9.5625 7.441406 8.734375 7.441406 7.703125 C 7.441406 6.667969 8.265625 5.84375 9.300781 5.84375 Z M 9.300781 5.84375 "/>
</g>
</svg>
