<?xml version="1.0" encoding="UTF-8"?>
<svg xmlns="http://www.w3.org/2000/svg" xmlns:xlink="http://www.w3.org/1999/xlink" width="17pt" height="17pt" viewBox="0 0 17 17" version="1.1">
<g id="surface1">
<path style=" stroke:none;fill-rule:evenodd;fill:rgb(75.686275%,17.647059%,14.509804%);fill-opacity:1;" d="M 3.96875 1.007812 L 13.03125 1.007812 C 14.664062 1.007812 15.992188 2.335938 15.992188 3.96875 L 15.992188 13.03125 C 15.992188 14.664062 14.664062 15.992188 13.03125 15.992188 L 3.96875 15.992188 C 2.335938 15.992188 1.007812 14.664062 1.007812 13.03125 L 1.007812 3.96875 C 1.007812 2.335938 2.335938 1.007812 3.96875 1.007812 Z M 3.96875 1.007812 "/>
<path style=" stroke:none;fill-rule:nonzero;fill:rgb(75.686275%,17.647059%,14.509804%);fill-opacity:1;" d="M 14.929688 8.5 C 14.929688 4.949219 12.050781 2.070312 8.5 2.070312 C 4.949219 2.070312 2.070312 4.949219 2.070312 8.5 C 2.070312 12.050781 4.949219 14.929688 8.5 14.929688 C 12.050781 14.929688 14.929688 12.050781 14.929688 8.5 Z M 14.929688 8.5 "/>
<path style=" stroke:none;fill-rule:nonzero;fill:rgb(100%,100%,100%);fill-opacity:1;" d="M 8.5 2.070312 C 8.027344 2.070312 7.566406 2.125 7.121094 2.21875 L 7.121094 5.171875 L 5.035156 3.082031 C 4.25 3.585938 3.585938 4.25 3.082031 5.035156 L 5.171875 7.121094 L 2.21875 7.121094 C 2.125 7.566406 2.070312 8.027344 2.070312 8.5 C 2.070312 8.972656 2.125 9.433594 2.21875 9.878906 L 5.171875 9.878906 L 3.082031 11.964844 C 3.585938 12.75 4.25 13.414062 5.035156 13.917969 L 7.121094 11.828125 L 7.121094 14.78125 C 7.566406 14.875 8.027344 14.929688 8.5 14.929688 C 8.972656 14.929688 9.433594 14.875 9.878906 14.78125 L 9.878906 11.828125 L 11.964844 13.917969 C 12.75 13.414062 13.414062 12.75 13.917969 11.964844 L 11.828125 9.878906 L 14.78125 9.878906 C 14.875 9.433594 14.929688 8.972656 14.929688 8.5 C 14.929688 8.027344 14.875 7.566406 14.78125 7.121094 L 11.828125 7.121094 L 13.917969 5.035156 C 13.414062 4.25 12.75 3.585938 11.964844 3.082031 L 9.878906 5.171875 L 9.878906 2.21875 C 9.433594 2.125 8.972656 2.070312 8.5 2.070312 Z M 8.5 2.070312 "/>
<path style=" stroke:none;fill-rule:nonzero;fill:rgb(100%,79.607843%,1.960784%);fill-opacity:1;" d="M 14.011719 8.5 C 14.011719 5.457031 11.542969 2.988281 8.5 2.988281 C 5.457031 2.988281 2.988281 5.457031 2.988281 8.5 C 2.988281 11.542969 5.457031 14.011719 8.5 14.011719 C 11.542969 14.011719 14.011719 11.542969 14.011719 8.5 Z M 14.011719 8.5 "/>
<path style=" stroke:none;fill-rule:nonzero;fill:rgb(75.686275%,17.647059%,14.509804%);fill-opacity:1;" d="M 13.09375 8.5 C 13.09375 5.964844 11.035156 3.90625 8.5 3.90625 C 5.964844 3.90625 3.90625 5.964844 3.90625 8.5 C 3.90625 11.035156 5.964844 13.09375 8.5 13.09375 C 11.035156 13.09375 13.09375 11.035156 13.09375 8.5 Z M 13.09375 8.5 "/>
<path style=" stroke:none;fill-rule:nonzero;fill:rgb(100%,98.823529%,96.862745%);fill-opacity:1;" d="M 6.203125 6.203125 L 7.121094 6.203125 L 7.121094 10.796875 L 6.203125 10.796875 Z M 6.203125 6.203125 "/>
<path style=" stroke:none;fill-rule:nonzero;fill:rgb(100%,98.823529%,96.862745%);fill-opacity:1;" d="M 8.039062 6.203125 L 8.039062 7.121094 L 5.285156 7.121094 L 5.285156 6.203125 Z M 8.039062 6.203125 "/>
<path style=" stroke:none;fill-rule:nonzero;fill:rgb(100%,98.823529%,96.862745%);fill-opacity:1;" d="M 8.5 6.203125 L 9.417969 6.203125 L 9.417969 10.796875 L 8.5 10.796875 Z M 8.5 6.203125 "/>
<path style=" stroke:none;fill-rule:nonzero;fill:rgb(100%,98.823529%,96.862745%);fill-opacity:1;" d="M 11.257812 8.039062 L 11.257812 8.960938 L 8.5 8.960938 L 8.5 8.039062 Z M 11.257812 8.039062 "/>
<path style=" stroke:none;fill-rule:nonzero;fill:rgb(100%,98.823529%,96.862745%);fill-opacity:1;" d="M 10.335938 6.203125 L 11.257812 6.203125 L 11.257812 10.796875 L 10.335938 10.796875 Z M 10.335938 6.203125 "/>
</g>
</svg>
