<?xml version="1.0" encoding="UTF-8"?>
<svg xmlns="http://www.w3.org/2000/svg" xmlns:xlink="http://www.w3.org/1999/xlink" width="17pt" height="17pt" viewBox="0 0 17 17" version="1.1">
<defs>
<clipPath id="clip1">
  <rect width="17" height="17"/>
</clipPath>
<g id="surface6" clip-path="url(#clip1)">
<path style=" stroke:none;fill-rule:nonzero;fill:rgb(72.941176%,13.333333%,100%);fill-opacity:1;" d="M 15.019531 12.121094 C 15.019531 13.878906 13.59375 15.308594 11.832031 15.308594 C 10.070312 15.308594 8.644531 13.878906 8.644531 12.121094 C 8.644531 10.359375 10.070312 8.933594 11.832031 8.933594 C 13.59375 8.933594 15.019531 10.359375 15.019531 12.121094 Z M 15.019531 12.121094 "/>
</g>
</defs>
<g id="surface1">
<path style=" stroke:none;fill-rule:evenodd;fill:rgb(94.901961%,94.901961%,94.901961%);fill-opacity:1;" d="M 3.652344 1.007812 L 12.714844 1.007812 C 14.347656 1.007812 15.675781 2.335938 15.675781 3.96875 L 15.675781 13.03125 C 15.675781 14.664062 14.347656 15.992188 12.714844 15.992188 L 3.652344 15.992188 C 2.019531 15.992188 0.691406 14.664062 0.691406 13.03125 L 0.691406 3.96875 C 0.691406 2.335938 2.019531 1.007812 3.652344 1.007812 Z M 3.652344 1.007812 "/>
<path style=" stroke:none;fill-rule:nonzero;fill:rgb(33.72549%,66.666667%,83.137255%);fill-opacity:1;" d="M 15.675781 8.5 C 15.675781 12.636719 12.320312 15.992188 8.183594 15.992188 C 4.046875 15.992188 0.691406 12.636719 0.691406 8.5 C 0.691406 4.363281 4.046875 1.007812 8.183594 1.007812 C 12.320312 1.007812 15.675781 4.363281 15.675781 8.5 Z M 15.675781 8.5 "/>
<path style=" stroke:none;fill-rule:evenodd;fill:rgb(33.72549%,66.666667%,83.137255%);fill-opacity:1;" d="M 12.054688 1.007812 L 7.078125 1.007812 L 11.375 5.308594 C 11.425781 5.355469 11.472656 5.40625 11.519531 5.457031 C 11.621094 5.570312 11.714844 5.6875 11.804688 5.808594 C 11.894531 5.929688 11.976562 6.054688 12.054688 6.183594 Z M 12.054688 1.007812 "/>
<path style=" stroke:none;fill-rule:evenodd;fill:rgb(33.72549%,66.666667%,83.137255%);fill-opacity:1;" d="M 15.675781 6.484375 L 15.675781 3.96875 C 15.675781 2.328125 14.355469 1.007812 12.714844 1.007812 L 12.699219 1.007812 L 12.699219 8.5 C 12.699219 8.570312 12.695312 8.636719 12.691406 8.707031 C 12.683594 8.859375 12.671875 9.007812 12.648438 9.15625 C 12.625 9.304688 12.59375 9.453125 12.558594 9.597656 Z M 14.613281 2.164062 C 14.699219 2.25 14.777344 2.339844 14.859375 2.429688 C 14.777344 2.339844 14.699219 2.25 14.613281 2.164062 Z M 15.171875 2.789062 C 15.257812 2.894531 15.339844 3.003906 15.421875 3.113281 C 15.339844 3.003906 15.257812 2.894531 15.171875 2.789062 Z M 15.679688 3.472656 C 15.753906 3.589844 15.828125 3.707031 15.898438 3.824219 C 15.828125 3.707031 15.753906 3.589844 15.679688 3.472656 Z M 16.121094 4.207031 C 16.1875 4.328125 16.25 4.453125 16.308594 4.578125 C 16.25 4.453125 16.1875 4.328125 16.121094 4.207031 Z M 16.121094 4.207031 "/>
<path style=" stroke:none;fill-rule:evenodd;fill:rgb(33.72549%,66.666667%,83.137255%);fill-opacity:1;" d="M 15.675781 12.371094 L 15.675781 7.394531 L 11.375 11.691406 C 11.324219 11.742188 11.277344 11.789062 11.226562 11.835938 C 11.113281 11.9375 10.996094 12.03125 10.875 12.121094 C 10.753906 12.210938 10.628906 12.292969 10.5 12.371094 Z M 15.675781 12.371094 "/>
<path style=" stroke:none;fill-rule:evenodd;fill:rgb(33.72549%,66.666667%,83.137255%);fill-opacity:1;" d="M 10.203125 15.992188 L 12.714844 15.992188 C 14.355469 15.992188 15.675781 14.671875 15.675781 13.03125 L 15.675781 13.015625 L 8.183594 13.015625 C 8.113281 13.015625 8.046875 13.011719 7.976562 13.007812 C 7.824219 13.003906 7.675781 12.988281 7.527344 12.964844 C 7.378906 12.941406 7.230469 12.910156 7.085938 12.875 Z M 14.519531 14.929688 C 14.4375 15.007812 14.355469 15.085938 14.269531 15.160156 C 14.351562 15.082031 14.4375 15.007812 14.519531 14.929688 Z M 13.886719 15.496094 C 13.789062 15.574219 13.691406 15.648438 13.589844 15.722656 C 13.6875 15.648438 13.789062 15.574219 13.886719 15.496094 Z M 13.886719 15.496094 "/>
<path style=" stroke:none;fill-rule:evenodd;fill:rgb(33.72549%,66.666667%,83.137255%);fill-opacity:1;" d="M 4.3125 15.992188 L 9.289062 15.992188 L 4.992188 11.691406 C 4.941406 11.640625 4.894531 11.59375 4.851562 11.542969 C 4.75 11.429688 4.652344 11.3125 4.5625 11.191406 C 4.472656 11.070312 4.390625 10.945312 4.3125 10.816406 Z M 4.3125 15.992188 "/>
<path style=" stroke:none;fill-rule:evenodd;fill:rgb(33.72549%,66.666667%,83.137255%);fill-opacity:1;" d="M 0.691406 10.515625 L 0.691406 13.03125 C 0.691406 14.671875 2.011719 15.992188 3.652344 15.992188 L 3.667969 15.992188 L 3.667969 8.5 C 3.667969 8.429688 3.671875 8.363281 3.675781 8.292969 C 3.679688 8.140625 3.695312 7.992188 3.71875 7.84375 C 3.742188 7.695312 3.773438 7.546875 3.808594 7.402344 Z M 0.933594 13.871094 C 1.019531 13.984375 1.101562 14.101562 1.195312 14.210938 C 1.105469 14.101562 1.019531 13.984375 0.933594 13.871094 Z M 1.507812 14.570312 C 1.589844 14.660156 1.667969 14.75 1.753906 14.835938 C 1.667969 14.75 1.585938 14.660156 1.507812 14.570312 Z M 1.507812 14.570312 "/>
<path style=" stroke:none;fill-rule:evenodd;fill:rgb(33.72549%,66.666667%,83.137255%);fill-opacity:1;" d="M 0.691406 4.628906 L 0.691406 9.605469 L 4.992188 5.308594 C 5.042969 5.257812 5.089844 5.210938 5.144531 5.164062 C 5.253906 5.0625 5.371094 4.96875 5.492188 4.878906 C 5.613281 4.789062 5.738281 4.707031 5.867188 4.628906 Z M 0.691406 4.628906 "/>
<path style=" stroke:none;fill-rule:evenodd;fill:rgb(33.72549%,66.666667%,83.137255%);fill-opacity:1;" d="M 6.167969 1.007812 L 3.652344 1.007812 C 2.011719 1.007812 0.691406 2.328125 0.691406 3.96875 L 0.691406 3.984375 L 8.183594 3.984375 C 8.253906 3.984375 8.320312 3.988281 8.390625 3.992188 C 8.542969 3.996094 8.691406 4.011719 8.839844 4.035156 C 8.988281 4.058594 9.136719 4.089844 9.28125 4.125 Z M 2.796875 1.261719 C 2.6875 1.34375 2.578125 1.425781 2.472656 1.507812 C 2.578125 1.425781 2.6875 1.34375 2.796875 1.261719 Z M 2.113281 1.824219 C 2.023438 1.90625 1.933594 1.984375 1.847656 2.070312 C 1.933594 1.984375 2.023438 1.90625 2.113281 1.824219 Z M 2.113281 1.824219 "/>
<path style=" stroke:none;fill-rule:evenodd;fill:rgb(94.901961%,94.901961%,94.901961%);fill-opacity:1;" d="M 6.167969 1.007812 L 9.28125 4.125 C 9.136719 4.089844 8.988281 4.058594 8.839844 4.035156 C 8.691406 4.011719 8.542969 3.996094 8.390625 3.992188 C 8.320312 3.988281 8.253906 3.984375 8.183594 3.984375 L 0.691406 3.984375 L 0.691406 4.628906 L 5.867188 4.628906 C 5.738281 4.707031 5.613281 4.789062 5.492188 4.878906 C 5.371094 4.96875 5.253906 5.0625 5.144531 5.164062 C 5.089844 5.210938 5.042969 5.257812 4.992188 5.308594 L 0.691406 9.605469 L 0.691406 10.515625 L 3.808594 7.402344 C 3.773438 7.546875 3.742188 7.695312 3.71875 7.84375 C 3.695312 7.992188 3.679688 8.140625 3.675781 8.292969 C 3.671875 8.363281 3.667969 8.429688 3.667969 8.5 L 3.667969 15.992188 L 4.3125 15.992188 L 4.3125 10.816406 C 4.390625 10.945312 4.472656 11.070312 4.5625 11.191406 C 4.652344 11.3125 4.75 11.429688 4.851562 11.542969 C 4.894531 11.59375 4.941406 11.644531 4.992188 11.691406 L 9.289062 15.992188 L 10.203125 15.992188 L 7.085938 12.875 C 7.230469 12.910156 7.378906 12.941406 7.527344 12.964844 C 7.675781 12.988281 7.824219 13.003906 7.976562 13.007812 C 8.046875 13.011719 8.113281 13.015625 8.183594 13.015625 L 15.675781 13.015625 L 15.675781 12.371094 L 10.5 12.371094 C 10.628906 12.292969 10.753906 12.210938 10.875 12.121094 C 10.996094 12.03125 11.113281 11.9375 11.226562 11.835938 C 11.277344 11.789062 11.324219 11.742188 11.375 11.691406 L 15.675781 7.394531 L 15.675781 6.484375 L 12.558594 9.597656 C 12.59375 9.453125 12.625 9.304688 12.648438 9.15625 C 12.671875 9.007812 12.683594 8.859375 12.691406 8.707031 C 12.695312 8.636719 12.699219 8.570312 12.699219 8.5 L 12.699219 1.007812 L 12.054688 1.007812 L 12.054688 6.183594 C 11.976562 6.054688 11.894531 5.929688 11.804688 5.808594 C 11.714844 5.6875 11.621094 5.570312 11.519531 5.457031 C 11.472656 5.40625 11.425781 5.355469 11.375 5.308594 L 7.078125 1.007812 Z M 6.167969 1.007812 "/>
<use xlink:href="#surface6"/>
<path style=" stroke:none;fill-rule:nonzero;fill:rgb(100%,100%,100%);fill-opacity:1;" d="M 13.027344 13.714844 L 11.042969 13.714844 L 11.042969 13.308594 L 11.738281 12.609375 C 11.828125 12.523438 11.90625 12.441406 11.976562 12.367188 C 12.050781 12.292969 12.109375 12.222656 12.160156 12.152344 C 12.214844 12.082031 12.253906 12.011719 12.28125 11.9375 C 12.308594 11.867188 12.324219 11.785156 12.324219 11.703125 C 12.324219 11.609375 12.292969 11.539062 12.234375 11.488281 C 12.171875 11.433594 12.09375 11.410156 11.992188 11.410156 C 11.886719 11.410156 11.78125 11.433594 11.683594 11.484375 C 11.585938 11.53125 11.484375 11.601562 11.375 11.691406 L 11.035156 11.316406 C 11.097656 11.265625 11.160156 11.21875 11.226562 11.171875 C 11.292969 11.125 11.363281 11.082031 11.445312 11.046875 C 11.523438 11.007812 11.609375 10.980469 11.707031 10.957031 C 11.800781 10.9375 11.910156 10.925781 12.027344 10.925781 C 12.167969 10.925781 12.296875 10.941406 12.410156 10.980469 C 12.523438 11.015625 12.617188 11.066406 12.699219 11.136719 C 12.777344 11.203125 12.835938 11.28125 12.878906 11.378906 C 12.921875 11.472656 12.945312 11.582031 12.945312 11.699219 C 12.945312 11.808594 12.925781 11.910156 12.882812 12.007812 C 12.84375 12.109375 12.789062 12.203125 12.71875 12.300781 C 12.648438 12.394531 12.566406 12.488281 12.472656 12.582031 C 12.382812 12.675781 12.28125 12.769531 12.179688 12.867188 L 11.820312 13.199219 L 11.820312 13.226562 L 13.027344 13.226562 Z M 13.027344 13.714844 "/>
</g>
</svg>
