<?xml version="1.0" encoding="UTF-8"?>
<svg xmlns="http://www.w3.org/2000/svg" xmlns:xlink="http://www.w3.org/1999/xlink" width="17pt" height="17pt" viewBox="0 0 17 17" version="1.1">
<g id="surface1">
<path style=" stroke:none;fill-rule:evenodd;fill:rgb(91.372549%,44.705882%,27.843137%);fill-opacity:1;" d="M 3.96875 1.007812 L 13.03125 1.007812 C 14.664062 1.007812 15.992188 2.335938 15.992188 3.96875 L 15.992188 13.03125 C 15.992188 14.664062 14.664062 15.992188 13.03125 15.992188 L 3.96875 15.992188 C 2.335938 15.992188 1.007812 14.664062 1.007812 13.03125 L 1.007812 3.96875 C 1.007812 2.335938 2.335938 1.007812 3.96875 1.007812 Z M 3.96875 1.007812 "/>
<path style=" stroke:none;fill-rule:nonzero;fill:rgb(70.196078%,70.196078%,70.196078%);fill-opacity:1;" d="M 13.8125 8.5 C 13.8125 11.433594 11.433594 13.8125 8.5 13.8125 C 5.566406 13.8125 3.1875 11.433594 3.1875 8.5 C 3.1875 5.566406 5.566406 3.1875 8.5 3.1875 C 11.433594 3.1875 13.8125 5.566406 13.8125 8.5 Z M 13.8125 8.5 "/>
<path style=" stroke:none;fill-rule:nonzero;fill:rgb(40%,40%,40%);fill-opacity:1;" d="M 12.390625 4.886719 L 11.15625 6.035156 L 8.5 8.5 L 11.15625 10.964844 L 12.386719 12.109375 C 13.300781 11.128906 13.808594 9.839844 13.8125 8.5 C 13.8125 7.160156 13.300781 5.871094 12.390625 4.886719 Z M 12.390625 4.886719 "/>
<path style="fill:none;stroke-width:1;stroke-linecap:round;stroke-linejoin:round;stroke:rgb(95.294118%,95.294118%,95.294118%);stroke-opacity:1;stroke-miterlimit:4;" d="M -24.334753 10.736842 C -24.334753 10.736842 -23.290635 11.376548 -23.334753 12.736842 C -23.378871 14.097136 -24.334753 14.736842 -24.334753 14.736842 " transform="matrix(0.53125,0,0,0.53125,24.884869,1.733553)"/>
</g>
</svg>
