<?xml version="1.0" encoding="UTF-8"?>
<svg xmlns="http://www.w3.org/2000/svg" xmlns:xlink="http://www.w3.org/1999/xlink" width="17pt" height="17pt" viewBox="0 0 17 17" version="1.1">
<g id="surface1">
<path style=" stroke:none;fill-rule:evenodd;fill:rgb(23.529412%,43.137255%,70.588235%);fill-opacity:1;" d="M 3.96875 1.007812 L 13.03125 1.007812 C 14.664062 1.007812 15.992188 2.335938 15.992188 3.96875 L 15.992188 13.03125 C 15.992188 14.664062 14.664062 15.992188 13.03125 15.992188 L 3.96875 15.992188 C 2.335938 15.992188 1.007812 14.664062 1.007812 13.03125 L 1.007812 3.96875 C 1.007812 2.335938 2.335938 1.007812 3.96875 1.007812 Z M 3.96875 1.007812 "/>
<path style=" stroke:none;fill-rule:nonzero;fill:rgb(100%,100%,100%);fill-opacity:1;" d="M 10.628906 3.71875 C 10.574219 3.714844 10.492188 3.75 10.335938 3.816406 C 10.152344 3.898438 9.730469 3.964844 9.402344 3.964844 C 8.242188 3.988281 7.3125 4.386719 6.558594 5.136719 C 5.539062 6.160156 5.214844 7.449219 5.683594 8.644531 C 5.789062 8.921875 5.855469 9.203125 5.828125 9.269531 C 5.800781 9.335938 5.601562 9.523438 5.390625 9.683594 C 4.933594 10.03125 4.613281 10.597656 4.535156 11.199219 C 4.488281 11.5625 4.519531 11.738281 4.722656 12.171875 C 5.15625 13.097656 6.144531 13.496094 7.195312 13.167969 C 7.804688 12.976562 8.414062 12.300781 8.902344 11.273438 C 9.324219 10.386719 9.339844 10.367188 9.792969 10.207031 C 10.554688 9.9375 11.035156 9.640625 11.515625 9.140625 C 12.359375 8.257812 12.675781 7.113281 12.371094 6.019531 C 12.234375 5.527344 12.121094 5.359375 11.503906 4.734375 C 11.113281 4.335938 10.765625 3.933594 10.730469 3.839844 C 10.703125 3.761719 10.683594 3.722656 10.628906 3.71875 Z M 8.574219 4.78125 C 8.9375 4.78125 9.214844 4.890625 9.292969 5.109375 C 9.316406 5.179688 9.210938 5.515625 9.058594 5.855469 C 8.660156 6.726562 8.53125 7.207031 8.289062 8.742188 C 7.992188 10.648438 7.664062 11.472656 7.011719 11.964844 C 6.597656 12.277344 6.09375 12.304688 5.820312 12.027344 C 5.585938 11.792969 5.519531 11.492188 5.628906 11.179688 C 5.714844 10.933594 5.796875 10.894531 6.425781 10.800781 C 6.863281 10.734375 7.171875 10.433594 7.171875 10.035156 C 7.171875 9.789062 7.070312 9.644531 6.730469 9.285156 C 6.207031 8.730469 5.976562 8.195312 5.972656 7.523438 C 5.96875 6.46875 6.484375 5.574219 7.367188 5.101562 C 7.769531 4.886719 8.210938 4.78125 8.574219 4.78125 Z M 9.921875 5.3125 C 10.027344 5.296875 10.167969 5.425781 10.359375 5.6875 C 11.128906 6.734375 11.050781 8.320312 10.183594 9.230469 C 9.816406 9.617188 9.726562 9.640625 9.472656 9.433594 C 9.324219 9.3125 9.296875 9.203125 9.296875 8.757812 C 9.296875 8.082031 9.5 6.425781 9.65625 5.792969 C 9.734375 5.488281 9.8125 5.328125 9.921875 5.3125 Z M 9.921875 5.3125 "/>
</g>
</svg>
