<?xml version="1.0" encoding="UTF-8"?>
<svg xmlns="http://www.w3.org/2000/svg" xmlns:xlink="http://www.w3.org/1999/xlink" width="17pt" height="17pt" viewBox="0 0 17 17" version="1.1">
<g id="surface1">
<path style=" stroke:none;fill-rule:evenodd;fill:rgb(91.372549%,29.019608%,38.823529%);fill-opacity:1;" d="M 3.96875 1.007812 L 13.03125 1.007812 C 14.664062 1.007812 15.992188 2.335938 15.992188 3.96875 L 15.992188 13.03125 C 15.992188 14.664062 14.664062 15.992188 13.03125 15.992188 L 3.96875 15.992188 C 2.335938 15.992188 1.007812 14.664062 1.007812 13.03125 L 1.007812 3.96875 C 1.007812 2.335938 2.335938 1.007812 3.96875 1.007812 Z M 3.96875 1.007812 "/>
<path style=" stroke:none;fill-rule:nonzero;fill:rgb(100%,100%,100%);fill-opacity:1;" d="M 12.21875 13.527344 C 12.808594 13.355469 13.195312 12.847656 13.195312 12.234375 C 13.199219 11.535156 12.691406 10.964844 12.003906 10.886719 L 11.867188 10.875 L 10.808594 9.8125 L 9.746094 8.753906 L 9.703125 8.800781 C 9.679688 8.824219 9.660156 8.851562 9.660156 8.859375 C 9.660156 8.867188 9.691406 8.910156 9.730469 8.960938 C 9.832031 9.09375 9.867188 9.234375 9.851562 9.445312 C 9.835938 9.730469 9.753906 9.855469 9.332031 10.257812 L 9.253906 10.332031 L 9.128906 10.300781 C 8.960938 10.257812 8.792969 10.285156 8.679688 10.375 C 8.660156 10.390625 8.863281 10.609375 9.578125 11.324219 L 10.503906 12.253906 L 10.519531 12.398438 C 10.550781 12.738281 10.742188 13.082031 11.03125 13.296875 C 11.199219 13.421875 11.339844 13.492188 11.523438 13.53125 C 11.601562 13.550781 11.679688 13.570312 11.703125 13.574219 C 11.78125 13.59375 12.082031 13.5625 12.21875 13.527344 Z M 11.691406 12.757812 C 11.28125 12.632812 11.128906 12.152344 11.394531 11.8125 C 11.511719 11.667969 11.65625 11.601562 11.859375 11.601562 C 11.988281 11.601562 12.035156 11.613281 12.109375 11.648438 C 12.230469 11.710938 12.328125 11.8125 12.394531 11.945312 C 12.441406 12.039062 12.445312 12.070312 12.4375 12.203125 C 12.433594 12.3125 12.417969 12.378906 12.382812 12.449219 C 12.320312 12.570312 12.179688 12.699219 12.054688 12.742188 C 11.957031 12.777344 11.78125 12.785156 11.691406 12.757812 Z M 6.949219 8.546875 C 7.011719 8.414062 7.019531 8.273438 6.972656 8.074219 C 6.957031 8.015625 6.96875 8 7.179688 7.796875 C 7.429688 7.554688 7.570312 7.46875 7.785156 7.433594 C 7.980469 7.398438 8.203125 7.453125 8.371094 7.582031 C 8.4375 7.632812 8.441406 7.632812 8.480469 7.597656 C 8.5 7.578125 8.519531 7.554688 8.519531 7.542969 C 8.519531 7.53125 8.355469 7.359375 8.15625 7.164062 C 7.960938 6.964844 7.75 6.757812 7.695312 6.699219 L 7.589844 6.589844 L 7.613281 6.492188 C 7.726562 6.003906 7.714844 5.707031 7.558594 5.195312 C 7.527344 5.101562 7.390625 4.847656 7.292969 4.710938 C 6.988281 4.28125 6.511719 3.964844 6.011719 3.867188 C 5.765625 3.816406 5.558594 3.800781 5.386719 3.824219 C 5.171875 3.851562 4.929688 3.898438 4.929688 3.917969 C 4.929688 3.925781 5.1875 4.1875 5.5 4.503906 C 5.816406 4.816406 6.082031 5.089844 6.09375 5.105469 C 6.101562 5.125 6.101562 5.15625 6.085938 5.183594 C 6.070312 5.210938 6.039062 5.28125 6.015625 5.339844 C 5.992188 5.402344 5.957031 5.476562 5.941406 5.507812 C 5.929688 5.542969 5.867188 5.683594 5.808594 5.820312 L 5.703125 6.074219 L 5.359375 6.222656 C 5.171875 6.300781 4.972656 6.390625 4.917969 6.414062 C 4.863281 6.441406 4.800781 6.464844 4.78125 6.472656 C 4.75 6.484375 4.632812 6.378906 4.148438 5.894531 C 3.824219 5.570312 3.554688 5.300781 3.546875 5.300781 C 3.535156 5.300781 3.496094 5.441406 3.46875 5.597656 C 3.4375 5.761719 3.4375 6.148438 3.46875 6.300781 C 3.597656 6.933594 3.921875 7.410156 4.460938 7.753906 C 4.523438 7.792969 4.578125 7.828125 4.582031 7.828125 C 4.589844 7.828125 4.640625 7.847656 4.695312 7.875 C 4.949219 7.992188 5.28125 8.0625 5.574219 8.0625 C 5.71875 8.0625 6.027344 8.019531 6.179688 7.972656 C 6.210938 7.964844 6.289062 8.03125 6.546875 8.289062 C 6.722656 8.46875 6.878906 8.617188 6.894531 8.617188 C 6.90625 8.617188 6.929688 8.585938 6.949219 8.546875 Z M 6.949219 8.546875 "/>
<path style=" stroke:none;fill-rule:nonzero;fill:rgb(64.313725%,20.392157%,27.058824%);fill-opacity:1;" d="M 5.453125 13.664062 C 5.550781 13.617188 5.636719 13.535156 7.605469 11.585938 L 8.21875 10.976562 L 8.207031 10.824219 C 8.183594 10.5 8.355469 10.214844 8.664062 10.0625 C 8.773438 10.011719 8.804688 10.003906 8.988281 10.003906 L 9.191406 10.003906 L 9.335938 9.859375 C 9.527344 9.667969 9.574219 9.578125 9.574219 9.386719 C 9.570312 9.203125 9.542969 9.144531 9.382812 8.984375 C 9.320312 8.921875 9.265625 8.867188 9.265625 8.855469 C 9.265625 8.847656 9.886719 8.222656 10.644531 7.46875 L 12.019531 6.09375 L 12.234375 5.980469 C 12.863281 5.65625 12.878906 5.648438 12.921875 5.558594 C 12.960938 5.488281 13.070312 5.285156 13.113281 5.214844 C 13.132812 5.179688 13.191406 5.074219 13.242188 4.976562 C 13.292969 4.878906 13.375 4.738281 13.417969 4.660156 C 13.460938 4.585938 13.511719 4.5 13.527344 4.46875 L 13.554688 4.414062 L 12.871094 3.730469 L 12.761719 3.792969 C 12.699219 3.828125 12.589844 3.890625 12.515625 3.929688 C 12.441406 3.96875 12.347656 4.019531 12.308594 4.042969 C 12.269531 4.066406 12.175781 4.117188 12.105469 4.15625 C 12.035156 4.195312 11.914062 4.261719 11.835938 4.308594 C 11.753906 4.355469 11.683594 4.394531 11.675781 4.394531 C 11.660156 4.394531 11.644531 4.421875 11.535156 4.621094 C 11.488281 4.707031 11.4375 4.804688 11.417969 4.839844 C 11.398438 4.871094 11.335938 4.988281 11.28125 5.09375 L 11.175781 5.292969 L 9.8125 6.65625 C 9.0625 7.410156 8.445312 8.023438 8.4375 8.023438 C 8.433594 8.023438 8.371094 7.96875 8.300781 7.902344 C 8.144531 7.753906 8.050781 7.710938 7.90625 7.710938 C 7.734375 7.710938 7.613281 7.773438 7.429688 7.953125 L 7.273438 8.113281 L 7.285156 8.222656 C 7.308594 8.4375 7.238281 8.65625 7.089844 8.824219 C 6.941406 8.996094 6.757812 9.070312 6.496094 9.070312 C 6.320312 9.070312 6.3125 9.074219 6.246094 9.132812 C 6.207031 9.167969 5.605469 9.761719 4.910156 10.449219 C 3.746094 11.597656 3.636719 11.710938 3.585938 11.824219 C 3.519531 11.972656 3.511719 12.101562 3.566406 12.226562 C 3.617188 12.347656 4.945312 13.667969 5.046875 13.699219 C 5.152344 13.734375 5.339844 13.71875 5.453125 13.664062 Z M 5.453125 13.664062 "/>
</g>
</svg>
