<?xml version="1.0" encoding="UTF-8"?>
<svg xmlns="http://www.w3.org/2000/svg" xmlns:xlink="http://www.w3.org/1999/xlink" width="17pt" height="17pt" viewBox="0 0 17 17" version="1.1">
<g id="surface1">
<path style=" stroke:none;fill-rule:evenodd;fill:rgb(98.823529%,78.039216%,20%);fill-opacity:1;" d="M 3.96875 1.007812 L 13.03125 1.007812 C 14.664062 1.007812 15.992188 2.335938 15.992188 3.96875 L 15.992188 13.03125 C 15.992188 14.664062 14.664062 15.992188 13.03125 15.992188 L 3.96875 15.992188 C 2.335938 15.992188 1.007812 14.664062 1.007812 13.03125 L 1.007812 3.96875 C 1.007812 2.335938 2.335938 1.007812 3.96875 1.007812 Z M 3.96875 1.007812 "/>
<path style=" stroke:none;fill-rule:nonzero;fill:rgb(100%,100%,100%);fill-opacity:1;" d="M 9.363281 11.726562 C 11.433594 10.976562 13.132812 10.351562 13.148438 10.335938 C 13.179688 10.308594 12.992188 9.808594 12.878906 9.617188 C 12.695312 9.300781 12.515625 9.15625 12.160156 9.035156 C 11.8125 8.917969 11.546875 8.722656 11.363281 8.453125 C 11.261719 8.304688 11.011719 7.730469 10.71875 6.96875 C 10.347656 6 10.085938 5.574219 9.625 5.195312 C 9.117188 4.78125 8.652344 4.617188 7.886719 4.585938 L 7.429688 4.566406 L 7.320312 4.347656 C 7.191406 4.082031 7.160156 4.042969 7.011719 3.964844 C 6.617188 3.765625 6.109375 4.113281 6.171875 4.542969 C 6.183594 4.617188 6.214844 4.726562 6.238281 4.785156 C 6.304688 4.945312 6.273438 5.015625 6.058594 5.1875 C 5.28125 5.8125 4.921875 6.589844 4.976562 7.546875 C 5 8 5.023438 8.105469 5.390625 9.199219 C 5.753906 10.285156 5.773438 10.367188 5.753906 10.738281 C 5.742188 11.042969 5.714844 11.117188 5.445312 11.605469 C 5.351562 11.777344 5.347656 11.804688 5.347656 12.109375 C 5.347656 12.40625 5.355469 12.460938 5.464844 12.761719 C 5.53125 12.945312 5.589844 13.089844 5.59375 13.089844 C 5.601562 13.089844 7.296875 12.476562 9.363281 11.726562 Z M 9.757812 12.953125 C 10.085938 12.863281 10.425781 12.574219 10.597656 12.234375 C 10.695312 12.039062 10.757812 11.835938 10.71875 11.835938 C 10.675781 11.835938 8.472656 12.636719 8.445312 12.664062 C 8.414062 12.691406 8.679688 12.863281 8.855469 12.925781 C 9.144531 13.027344 9.453125 13.035156 9.757812 12.953125 Z M 9.757812 12.953125 "/>
</g>
</svg>
