<?xml version="1.0" encoding="UTF-8"?>
<svg xmlns="http://www.w3.org/2000/svg" xmlns:xlink="http://www.w3.org/1999/xlink" width="17pt" height="17pt" viewBox="0 0 17 17" version="1.1">
<g id="surface1">
<path style=" stroke:none;fill-rule:evenodd;fill:rgb(55.686275%,55.686275%,55.686275%);fill-opacity:1;" d="M 3.96875 1.007812 L 13.03125 1.007812 C 14.664062 1.007812 15.992188 2.335938 15.992188 3.96875 L 15.992188 13.03125 C 15.992188 14.664062 14.664062 15.992188 13.03125 15.992188 L 3.96875 15.992188 C 2.335938 15.992188 1.007812 14.664062 1.007812 13.03125 L 1.007812 3.96875 C 1.007812 2.335938 2.335938 1.007812 3.96875 1.007812 Z M 3.96875 1.007812 "/>
<path style=" stroke:none;fill-rule:nonzero;fill:rgb(80%,80%,80%);fill-opacity:1;" d="M 5.832031 13.695312 C 5.703125 13.664062 5.617188 13.554688 5.613281 13.417969 C 5.613281 13.328125 5.652344 13.261719 5.765625 13.144531 C 5.984375 12.917969 6.277344 12.570312 6.527344 12.234375 C 6.675781 12.035156 7.015625 11.535156 7.007812 11.527344 C 7.003906 11.523438 6.96875 11.53125 6.925781 11.546875 C 6.683594 11.617188 6.429688 11.648438 6.144531 11.640625 C 5.625 11.625 5.175781 11.480469 4.742188 11.191406 C 4.574219 11.082031 4.507812 11.027344 4.34375 10.863281 C 3.996094 10.519531 3.75 10.089844 3.628906 9.605469 C 3.566406 9.347656 3.542969 9.011719 3.566406 8.738281 C 3.675781 7.574219 4.507812 6.636719 5.664062 6.375 C 5.765625 6.355469 5.78125 6.347656 5.78125 6.328125 C 5.742188 5.882812 5.753906 5.644531 5.84375 5.300781 C 5.894531 5.101562 5.933594 4.996094 6.015625 4.824219 C 6.273438 4.277344 6.703125 3.84375 7.25 3.574219 C 7.984375 3.210938 8.84375 3.203125 9.582031 3.558594 C 10.125 3.820312 10.558594 4.25 10.820312 4.785156 C 11.035156 5.226562 11.121094 5.679688 11.089844 6.183594 L 11.082031 6.277344 L 11.214844 6.296875 C 11.757812 6.390625 12.234375 6.632812 12.632812 7.015625 C 12.945312 7.320312 13.171875 7.683594 13.304688 8.085938 C 13.527344 8.761719 13.480469 9.476562 13.167969 10.109375 C 12.875 10.695312 12.402344 11.140625 11.800781 11.394531 C 11.492188 11.523438 11.207031 11.582031 10.847656 11.589844 C 10.515625 11.601562 10.289062 11.570312 10.007812 11.484375 C 9.945312 11.464844 9.886719 11.449219 9.882812 11.453125 C 9.875 11.460938 10.113281 11.839844 10.265625 12.058594 C 10.527344 12.433594 10.832031 12.816406 11.105469 13.109375 C 11.1875 13.191406 11.257812 13.28125 11.269531 13.304688 C 11.316406 13.410156 11.28125 13.554688 11.195312 13.628906 C 11.101562 13.707031 11.332031 13.699219 8.46875 13.703125 C 7.039062 13.703125 5.851562 13.699219 5.832031 13.695312 Z M 5.832031 13.695312 "/>
<path style=" stroke:none;fill-rule:nonzero;fill:rgb(20%,20%,20%);fill-opacity:1;" d="M 5.832031 13.695312 C 5.703125 13.664062 5.617188 13.554688 5.613281 13.417969 C 5.613281 13.328125 5.652344 13.261719 5.765625 13.144531 C 5.984375 12.917969 6.277344 12.570312 6.527344 12.234375 C 6.675781 12.035156 7.015625 11.535156 7.007812 11.527344 C 7.003906 11.523438 6.96875 11.53125 6.925781 11.546875 C 6.683594 11.617188 6.429688 11.648438 6.144531 11.640625 C 5.625 11.625 5.175781 11.480469 4.742188 11.191406 C 4.574219 11.082031 4.507812 11.027344 4.34375 10.863281 C 3.996094 10.519531 3.75 10.089844 3.628906 9.605469 C 3.566406 9.347656 3.542969 9.011719 3.566406 8.738281 C 3.675781 7.574219 4.507812 6.636719 5.664062 6.375 C 5.765625 6.355469 5.78125 6.347656 5.78125 6.328125 C 5.742188 5.882812 5.753906 5.644531 5.84375 5.300781 C 5.894531 5.101562 5.933594 4.996094 6.015625 4.824219 C 6.273438 4.277344 6.703125 3.84375 7.25 3.574219 C 7.984375 3.210938 8.84375 3.203125 9.582031 3.558594 C 10.125 3.820312 10.558594 4.25 10.820312 4.785156 C 11.035156 5.226562 11.121094 5.679688 11.089844 6.183594 L 11.082031 6.277344 L 11.214844 6.296875 C 11.757812 6.390625 12.234375 6.632812 12.632812 7.015625 C 12.945312 7.320312 13.171875 7.683594 13.304688 8.085938 C 13.527344 8.761719 13.480469 9.476562 13.167969 10.109375 C 12.875 10.695312 12.402344 11.140625 11.800781 11.394531 C 11.492188 11.523438 11.207031 11.582031 10.847656 11.589844 C 10.515625 11.601562 10.289062 11.570312 10.007812 11.484375 C 9.945312 11.464844 9.886719 11.449219 9.882812 11.453125 C 9.875 11.460938 10.113281 11.839844 10.265625 12.058594 C 10.527344 12.433594 10.832031 12.816406 11.105469 13.109375 C 11.1875 13.191406 11.257812 13.28125 11.269531 13.304688 C 11.316406 13.410156 11.28125 13.554688 11.195312 13.628906 C 11.101562 13.707031 11.332031 13.699219 8.46875 13.703125 C 7.039062 13.703125 5.851562 13.699219 5.832031 13.695312 Z M 10.347656 13.117188 C 10.339844 13.109375 10.300781 13.058594 10.253906 13.003906 C 9.988281 12.675781 9.597656 12.113281 9.386719 11.75 C 9.15625 11.355469 8.894531 10.832031 8.867188 10.714844 C 8.828125 10.539062 8.964844 10.375 9.152344 10.375 C 9.234375 10.375 9.300781 10.402344 9.378906 10.476562 C 9.457031 10.550781 9.648438 10.691406 9.753906 10.75 C 9.9375 10.855469 10.179688 10.949219 10.398438 10.992188 C 10.570312 11.027344 11.011719 11.023438 11.183594 10.988281 C 11.476562 10.921875 11.757812 10.800781 11.980469 10.644531 C 12.148438 10.527344 12.394531 10.277344 12.503906 10.113281 C 12.847656 9.59375 12.953125 9 12.804688 8.402344 C 12.617188 7.667969 12.023438 7.082031 11.277344 6.894531 C 11.132812 6.859375 11.015625 6.84375 10.835938 6.839844 C 10.65625 6.832031 10.605469 6.820312 10.539062 6.757812 C 10.453125 6.671875 10.4375 6.585938 10.476562 6.390625 C 10.621094 5.714844 10.417969 5.015625 9.933594 4.515625 C 9.652344 4.222656 9.34375 4.042969 8.960938 3.941406 C 8.773438 3.890625 8.636719 3.875 8.425781 3.875 C 8.210938 3.875 8.066406 3.890625 7.867188 3.945312 C 7.015625 4.179688 6.402344 4.933594 6.339844 5.820312 C 6.324219 6.042969 6.34375 6.253906 6.402344 6.484375 C 6.4375 6.625 6.421875 6.714844 6.339844 6.800781 C 6.285156 6.859375 6.226562 6.882812 6.078125 6.894531 C 5.527344 6.941406 5.078125 7.15625 4.699219 7.550781 C 4.347656 7.921875 4.152344 8.382812 4.132812 8.898438 C 4.117188 9.269531 4.1875 9.578125 4.355469 9.917969 C 4.636719 10.476562 5.148438 10.878906 5.765625 11.019531 C 6.015625 11.078125 6.371094 11.085938 6.605469 11.035156 C 6.933594 10.964844 7.234375 10.820312 7.519531 10.59375 C 7.632812 10.5 7.671875 10.484375 7.761719 10.484375 C 7.980469 10.484375 8.105469 10.6875 8.019531 10.898438 C 8.003906 10.9375 7.933594 11.074219 7.863281 11.203125 C 7.539062 11.804688 7.175781 12.347656 6.738281 12.898438 C 6.640625 13.023438 6.558594 13.125 6.558594 13.128906 C 6.558594 13.132812 7.414062 13.132812 8.457031 13.132812 C 9.976562 13.132812 10.355469 13.128906 10.347656 13.117188 Z M 10.347656 13.117188 "/>
</g>
</svg>
