<?xml version="1.0" encoding="UTF-8"?>
<svg xmlns="http://www.w3.org/2000/svg" xmlns:xlink="http://www.w3.org/1999/xlink" width="17pt" height="17pt" viewBox="0 0 17 17" version="1.1">
<g id="surface1">
<path style=" stroke:none;fill-rule:evenodd;fill:rgb(79.215686%,63.137255%,49.019608%);fill-opacity:1;" d="M 3.96875 1.007812 L 13.03125 1.007812 C 14.664062 1.007812 15.992188 2.335938 15.992188 3.96875 L 15.992188 13.03125 C 15.992188 14.664062 14.664062 15.992188 13.03125 15.992188 L 3.96875 15.992188 C 2.335938 15.992188 1.007812 14.664062 1.007812 13.03125 L 1.007812 3.96875 C 1.007812 2.335938 2.335938 1.007812 3.96875 1.007812 Z M 3.96875 1.007812 "/>
<path style=" stroke:none;fill-rule:nonzero;fill:rgb(52.156863%,33.72549%,16.078431%);fill-opacity:1;" d="M 6.640625 10.09375 L 6.640625 13.636719 C 6.640625 14.027344 6.878906 14.34375 7.171875 14.34375 L 7.703125 14.34375 C 7.996094 14.34375 8.234375 14.027344 8.234375 13.636719 L 8.234375 10.09375 Z M 6.640625 10.09375 "/>
<path style=" stroke:none;fill-rule:nonzero;fill:rgb(80%,80%,80%);fill-opacity:1;" d="M 6.640625 2.65625 C 6.640625 2.65625 10.359375 4.710938 10.359375 10.09375 L 6.640625 10.09375 Z M 6.640625 2.65625 "/>
<path style=" stroke:none;fill-rule:nonzero;fill:rgb(80%,80%,80%);fill-opacity:1;" d="M 7.703125 11.421875 C 7.703125 11.570312 7.585938 11.6875 7.4375 11.6875 C 7.289062 11.6875 7.171875 11.570312 7.171875 11.421875 C 7.171875 11.273438 7.289062 11.15625 7.4375 11.15625 C 7.585938 11.15625 7.703125 11.273438 7.703125 11.421875 Z M 7.703125 11.421875 "/>
<path style=" stroke:none;fill-rule:nonzero;fill:rgb(80%,80%,80%);fill-opacity:1;" d="M 7.703125 13.015625 C 7.703125 13.164062 7.585938 13.28125 7.4375 13.28125 C 7.289062 13.28125 7.171875 13.164062 7.171875 13.015625 C 7.171875 12.867188 7.289062 12.75 7.4375 12.75 C 7.585938 12.75 7.703125 12.867188 7.703125 13.015625 Z M 7.703125 13.015625 "/>
<path style=" stroke:none;fill-rule:nonzero;fill:rgb(90.588235%,29.803922%,23.529412%);fill-opacity:1;" d="M 15.09375 11.828125 C 15.09375 13.589844 13.664062 15.015625 11.90625 15.015625 C 10.144531 15.015625 8.71875 13.589844 8.71875 11.828125 C 8.71875 10.070312 10.144531 8.640625 11.90625 8.640625 C 13.664062 8.640625 15.09375 10.070312 15.09375 11.828125 Z M 15.09375 11.828125 "/>
<path style=" stroke:none;fill-rule:evenodd;fill:rgb(65.098039%,93.72549%,30.196078%);fill-opacity:1;" d="M 11.195312 8.289062 L 11.195312 8.726562 C 10.273438 8.9375 9.496094 9.542969 9.066406 10.386719 C 9.304688 10.34375 9.800781 10.222656 10.546875 9.8125 C 10.84375 9.652344 11.097656 9.507812 11.195312 9.351562 C 10.347656 10.414062 11.269531 10.570312 11.726562 11.121094 C 11.726562 11.121094 12.804688 10.414062 11.90625 9.351562 C 12.96875 9.867188 14.03125 9.703125 14.03125 9.703125 C 14.03125 9.703125 14.035156 9.601562 14.027344 9.457031 C 13.445312 8.933594 12.6875 8.644531 11.90625 8.640625 L 11.90625 8.289062 Z M 11.195312 8.289062 "/>
</g>
</svg>
