<?xml version="1.0" encoding="UTF-8"?>
<svg xmlns="http://www.w3.org/2000/svg" xmlns:xlink="http://www.w3.org/1999/xlink" width="17pt" height="17pt" viewBox="0 0 17 17" version="1.1">
<defs>
<filter id="alpha" filterUnits="objectBoundingBox" x="0%" y="0%" width="100%" height="100%">
  <feColorMatrix type="matrix" in="SourceGraphic" values="0 0 0 0 1 0 0 0 0 1 0 0 0 0 1 0 0 0 1 0"/>
</filter>
<mask id="mask0">
  <g filter="url(#alpha)">
<rect x="0" y="0" width="17" height="17" style="fill:rgb(0%,0%,0%);fill-opacity:0.2;stroke:none;"/>
  </g>
</mask>
<clipPath id="clip1">
  <rect width="17" height="17"/>
</clipPath>
<g id="surface6" clip-path="url(#clip1)">
<path style=" stroke:none;fill-rule:nonzero;fill:rgb(100%,100%,100%);fill-opacity:1;" d="M 7.089844 11.191406 L 7.175781 11.574219 L 9.824219 11.574219 L 9.910156 11.191406 Z M 7.261719 11.960938 L 7.347656 12.34375 L 9.652344 12.34375 L 9.738281 11.960938 Z M 7.433594 12.726562 L 7.496094 12.996094 C 7.503906 13.039062 7.519531 13.074219 7.53125 13.113281 L 9.464844 13.113281 C 9.480469 13.074219 9.496094 13.039062 9.503906 12.996094 L 9.566406 12.726562 Z M 7.433594 12.726562 "/>
</g>
</defs>
<g id="surface1">
<path style=" stroke:none;fill-rule:evenodd;fill:rgb(90.588235%,29.803922%,23.529412%);fill-opacity:1;" d="M 3.96875 1.007812 L 13.03125 1.007812 C 14.664062 1.007812 15.992188 2.335938 15.992188 3.96875 L 15.992188 13.03125 C 15.992188 14.664062 14.664062 15.992188 13.03125 15.992188 L 3.96875 15.992188 C 2.335938 15.992188 1.007812 14.664062 1.007812 13.03125 L 1.007812 3.96875 C 1.007812 2.335938 2.335938 1.007812 3.96875 1.007812 Z M 3.96875 1.007812 "/>
<path style=" stroke:none;fill-rule:nonzero;fill:rgb(100%,100%,100%);fill-opacity:1;" d="M 8.5 3.503906 C 6.695312 3.503906 5.234375 4.96875 5.234375 6.777344 C 5.226562 7.757812 6.09375 8.613281 6.488281 9.546875 C 6.667969 9.964844 6.992188 10.804688 6.992188 10.804688 L 10.007812 10.804688 C 10.007812 10.804688 10.332031 9.964844 10.511719 9.546875 C 10.90625 8.613281 11.75 7.746094 11.765625 6.777344 C 11.765625 4.96875 10.304688 3.503906 8.5 3.503906 Z M 8.5 3.503906 "/>
<path style=" stroke:none;fill-rule:nonzero;fill:rgb(30.980392%,30.980392%,30.980392%);fill-opacity:1;" d="M 10.007812 10.804688 L 9.503906 12.996094 C 9.441406 13.265625 9.28125 13.496094 9.003906 13.496094 L 7.996094 13.496094 C 7.71875 13.496094 7.554688 13.269531 7.496094 12.996094 L 6.992188 10.804688 Z M 10.007812 10.804688 "/>
<use xlink:href="#surface6" mask="url(#mask0)"/>
</g>
</svg>
