<?xml version="1.0" encoding="UTF-8"?>
<svg xmlns="http://www.w3.org/2000/svg" xmlns:xlink="http://www.w3.org/1999/xlink" width="17pt" height="17pt" viewBox="0 0 17 17" version="1.1">
<defs>
<filter id="alpha" filterUnits="objectBoundingBox" x="0%" y="0%" width="100%" height="100%">
  <feColorMatrix type="matrix" in="SourceGraphic" values="0 0 0 0 1 0 0 0 0 1 0 0 0 0 1 0 0 0 1 0"/>
</filter>
<mask id="mask0">
  <g filter="url(#alpha)">
<rect x="0" y="0" width="17" height="17" style="fill:rgb(0%,0%,0%);fill-opacity:0.988235;stroke:none;"/>
  </g>
</mask>
<clipPath id="clip1">
  <rect width="17" height="17"/>
</clipPath>
<g id="surface6" clip-path="url(#clip1)">
<path style="fill:none;stroke-width:0.109435;stroke-linecap:round;stroke-linejoin:bevel;stroke:rgb(100%,100%,100%);stroke-opacity:0.552941;stroke-miterlimit:4;" d="M 16.214961 7.20339 C 20.87241 7.306507 24.713517 10.94138 25.349405 15.444154 " transform="matrix(0.454581,0,0,0.454581,1.21102,1.264539)"/>
</g>
</defs>
<g id="surface1">
<path style=" stroke:none;fill-rule:evenodd;fill:rgb(0%,49.411765%,100%);fill-opacity:1;" d="M 3.96875 1.007812 L 13.03125 1.007812 C 14.664062 1.007812 15.992188 2.335938 15.992188 3.96875 L 15.992188 13.03125 C 15.992188 14.664062 14.664062 15.992188 13.03125 15.992188 L 3.96875 15.992188 C 2.335938 15.992188 1.007812 14.664062 1.007812 13.03125 L 1.007812 3.96875 C 1.007812 2.335938 2.335938 1.007812 3.96875 1.007812 Z M 3.96875 1.007812 "/>
<path style=" stroke:none;fill-rule:nonzero;fill:rgb(32.156863%,65.882353%,91.764706%);fill-opacity:1;" d="M 8.28125 13.109375 C 7.34375 13.066406 6.453125 12.722656 5.71875 12.109375 C 5.597656 12.007812 5.375 11.789062 5.261719 11.660156 C 4.808594 11.148438 4.484375 10.53125 4.320312 9.867188 C 4.207031 9.410156 4.171875 8.953125 4.207031 8.476562 C 4.21875 8.359375 4.238281 8.207031 4.242188 8.199219 C 4.246094 8.199219 4.269531 8.203125 4.296875 8.210938 C 4.324219 8.214844 4.378906 8.222656 4.421875 8.222656 L 4.496094 8.222656 L 4.648438 8.375 L 4.800781 8.375 L 4.804688 8.660156 L 4.804688 8.941406 L 4.808594 8.660156 L 4.808594 8.375 L 4.960938 8.453125 C 5.109375 8.527344 5.117188 8.53125 5.1875 8.605469 L 5.261719 8.675781 L 5.570312 8.675781 L 5.644531 8.753906 L 5.714844 8.832031 L 6.027344 8.832031 L 6.027344 8.980469 L 5.949219 9.0625 L 5.867188 9.144531 L 5.792969 9.371094 L 5.71875 9.59375 L 5.796875 9.753906 L 5.875 9.910156 L 6.171875 10.207031 L 6.484375 10.207031 L 6.484375 10.515625 L 6.636719 10.824219 L 6.792969 11.132812 L 6.792969 11.441406 L 6.867188 11.589844 C 6.929688 11.714844 6.953125 11.777344 7.019531 11.964844 L 7.09375 12.195312 L 7.171875 12.273438 L 7.253906 12.351562 L 7.5625 12.351562 L 7.484375 12.273438 C 7.40625 12.195312 7.402344 12.191406 7.328125 12.042969 L 7.253906 11.894531 L 7.332031 11.664062 L 7.40625 11.4375 L 7.558594 11.359375 L 7.710938 11.285156 L 7.710938 10.824219 L 7.867188 10.746094 L 8.019531 10.667969 L 8.019531 10.359375 L 8.171875 10.285156 L 8.324219 10.207031 L 8.402344 9.976562 L 8.476562 9.746094 L 8.402344 9.59375 L 8.324219 9.441406 L 8.167969 9.359375 C 8.011719 9.28125 8.007812 9.277344 7.9375 9.207031 L 7.863281 9.132812 L 7.710938 9.132812 L 7.636719 8.980469 L 7.558594 8.828125 L 7.40625 8.753906 L 7.257812 8.675781 L 6.945312 8.675781 L 6.792969 8.828125 L 6.644531 8.523438 L 6.332031 8.523438 L 6.257812 8.601562 L 6.179688 8.675781 L 5.875 8.675781 L 5.875 8.519531 L 5.71875 8.363281 L 5.71875 8.214844 L 5.570312 8.214844 L 5.496094 8.289062 C 5.457031 8.328125 5.421875 8.359375 5.417969 8.359375 C 5.417969 8.359375 5.382812 8.292969 5.339844 8.214844 L 5.269531 8.066406 L 5.347656 7.992188 L 5.421875 7.914062 L 5.867188 7.914062 L 6.023438 7.992188 L 6.175781 8.070312 L 6.335938 7.914062 L 6.492188 7.757812 L 6.566406 7.453125 L 6.640625 7.152344 L 6.953125 6.839844 L 7.402344 6.839844 L 7.402344 6.691406 C 7.402344 6.605469 7.402344 6.539062 7.40625 6.539062 C 7.40625 6.539062 7.511719 6.574219 7.636719 6.617188 L 7.863281 6.691406 L 8.019531 6.539062 L 8.171875 6.386719 L 8.019531 6.386719 L 7.941406 6.222656 C 7.863281 6.066406 7.859375 6.0625 7.785156 5.992188 L 7.714844 5.921875 L 7.558594 5.996094 L 7.402344 6.074219 L 6.789062 6.074219 L 6.714844 6.226562 L 6.636719 6.378906 L 6.488281 6.230469 L 6.335938 6.230469 L 6.335938 5.925781 L 6.5625 5.851562 L 6.789062 5.773438 L 6.863281 5.847656 C 6.902344 5.886719 6.941406 5.921875 6.949219 5.921875 C 6.953125 5.921875 7.058594 5.886719 7.179688 5.847656 L 7.398438 5.773438 L 7.554688 5.773438 C 7.640625 5.773438 7.710938 5.773438 7.710938 5.769531 C 7.710938 5.769531 7.679688 5.699219 7.636719 5.617188 C 7.566406 5.472656 7.5625 5.46875 7.484375 5.390625 L 7.40625 5.3125 L 7.097656 5.3125 L 7.023438 5.386719 C 6.949219 5.460938 6.945312 5.464844 6.792969 5.539062 L 6.636719 5.617188 L 6.558594 5.539062 C 6.484375 5.460938 6.476562 5.457031 6.335938 5.386719 L 6.195312 5.316406 L 6.039062 5.308594 L 6.113281 5.257812 C 6.710938 4.863281 7.386719 4.628906 8.117188 4.5625 C 8.265625 4.550781 8.660156 4.550781 8.808594 4.5625 C 9.5625 4.628906 10.246094 4.863281 10.84375 5.265625 L 10.917969 5.316406 L 10.921875 5.542969 L 10.921875 5.769531 L 11 5.847656 C 11.074219 5.921875 11.078125 5.925781 11.226562 6 L 11.382812 6.078125 L 11.304688 6.152344 L 11.230469 6.230469 L 10.917969 6.230469 L 10.84375 6.304688 L 10.769531 6.382812 L 10.769531 6.679688 L 10.695312 6.605469 L 10.617188 6.53125 L 10.308594 6.53125 L 10.230469 6.6875 L 10.15625 6.839844 L 10.230469 6.996094 L 10.308594 7.148438 L 10.617188 7.148438 L 10.691406 7.074219 C 10.761719 7.003906 10.769531 7 10.921875 6.921875 C 11.078125 6.84375 11.082031 6.839844 11.15625 6.769531 L 11.226562 6.695312 L 11.304688 6.84375 L 11.378906 6.992188 L 11.378906 7.144531 L 11.535156 7.300781 L 11.691406 7.226562 L 11.84375 7.148438 L 11.691406 6.996094 L 11.542969 6.84375 L 11.691406 6.695312 L 11.996094 7 L 11.996094 7.148438 L 12.148438 7.148438 L 12.222656 7.226562 L 12.300781 7.304688 L 12.476562 7.304688 L 12.492188 7.351562 C 12.523438 7.433594 12.558594 7.535156 12.585938 7.632812 C 12.601562 7.6875 12.617188 7.738281 12.621094 7.746094 C 12.625 7.757812 12.613281 7.757812 12.464844 7.757812 L 12.304688 7.757812 L 12.152344 7.683594 L 11.996094 7.605469 L 11.839844 7.683594 C 11.6875 7.757812 11.683594 7.761719 11.609375 7.835938 L 11.535156 7.910156 L 11.386719 7.835938 C 11.242188 7.765625 11.238281 7.761719 11.160156 7.683594 L 11.082031 7.605469 L 10.613281 7.605469 L 10.460938 7.679688 L 10.304688 7.757812 L 10 7.757812 L 9.925781 7.835938 L 9.851562 7.910156 L 9.851562 8.375 L 9.773438 8.449219 L 9.695312 8.527344 L 9.695312 8.984375 L 9.851562 9.445312 L 10 9.519531 L 10.152344 9.597656 L 10.46875 9.597656 L 10.621094 9.519531 L 10.777344 9.441406 L 11.070312 9.441406 L 11.222656 9.519531 L 11.378906 9.597656 L 11.378906 9.898438 L 11.457031 10.054688 L 11.535156 10.207031 L 11.382812 10.363281 L 11.226562 10.515625 L 11.382812 10.820312 L 11.535156 11.125 L 11.535156 11.429688 L 11.628906 11.523438 L 11.722656 11.621094 L 11.703125 11.644531 C 11.511719 11.855469 11.382812 11.980469 11.214844 12.121094 C 10.558594 12.664062 9.769531 13 8.921875 13.089844 C 8.816406 13.101562 8.492188 13.117188 8.445312 13.117188 C 8.433594 13.113281 8.359375 13.113281 8.28125 13.109375 Z M 4.816406 9.097656 C 4.8125 9.09375 4.808594 9.09375 4.808594 9.105469 C 4.808594 9.113281 4.8125 9.117188 4.8125 9.113281 C 4.816406 9.113281 4.816406 9.105469 4.816406 9.097656 Z M 7.640625 7.226562 L 7.714844 7.148438 L 7.632812 7.070312 L 7.554688 6.992188 L 7.628906 7.070312 L 7.707031 7.148438 L 7.632812 7.222656 L 7.558594 7.300781 L 7.476562 7.222656 L 7.398438 7.144531 L 7.476562 7.222656 C 7.519531 7.269531 7.554688 7.304688 7.558594 7.304688 C 7.558594 7.304688 7.597656 7.269531 7.640625 7.226562 Z M 7.945312 7.074219 L 8.019531 6.996094 L 8.019531 6.917969 L 8.015625 6.835938 L 8.015625 6.917969 L 8.011719 7 L 7.9375 7.070312 L 7.867188 7.144531 L 7.789062 7.066406 L 7.710938 6.992188 L 7.710938 6.914062 L 7.707031 6.835938 L 7.707031 6.914062 L 7.703125 6.988281 L 7.78125 7.070312 C 7.824219 7.113281 7.863281 7.148438 7.867188 7.148438 C 7.867188 7.148438 7.90625 7.113281 7.945312 7.074219 Z M 10.085938 6.308594 L 10.164062 6.230469 L 10.082031 6.152344 L 10 6.070312 L 10.078125 6.152344 L 10.15625 6.230469 L 10.078125 6.304688 L 10.003906 6.378906 L 9.929688 6.308594 L 9.859375 6.234375 L 9.855469 6.152344 L 9.855469 6.070312 L 9.847656 6.234375 L 9.925781 6.308594 C 9.964844 6.351562 10.003906 6.386719 10.003906 6.386719 C 10.007812 6.386719 10.042969 6.351562 10.085938 6.308594 Z M 10.480469 6.335938 C 10.488281 6.324219 10.492188 6.3125 10.488281 6.3125 C 10.488281 6.3125 10.480469 6.324219 10.472656 6.335938 C 10.464844 6.347656 10.460938 6.359375 10.464844 6.359375 C 10.464844 6.359375 10.472656 6.347656 10.480469 6.335938 Z M 10.527344 6.246094 C 10.535156 6.234375 10.539062 6.222656 10.539062 6.222656 C 10.535156 6.222656 10.527344 6.234375 10.519531 6.246094 C 10.515625 6.261719 10.511719 6.269531 10.511719 6.269531 C 10.515625 6.269531 10.523438 6.261719 10.527344 6.246094 Z M 10.242188 6.152344 L 10.164062 6.074219 L 10.238281 6 L 10.3125 5.929688 L 10.457031 6.003906 C 10.539062 6.042969 10.609375 6.074219 10.613281 6.074219 C 10.617188 6.074219 10.550781 6.039062 10.464844 5.996094 L 10.3125 5.921875 L 10.234375 5.996094 L 10.15625 6.074219 L 10.230469 6.152344 C 10.273438 6.195312 10.3125 6.230469 10.3125 6.230469 C 10.316406 6.230469 10.28125 6.195312 10.242188 6.152344 Z M 10.574219 6.164062 C 10.582031 6.148438 10.589844 6.132812 10.585938 6.132812 C 10.585938 6.132812 10.574219 6.148438 10.566406 6.164062 C 10.554688 6.183594 10.550781 6.199219 10.554688 6.199219 C 10.554688 6.199219 10.566406 6.183594 10.574219 6.164062 Z M 10.613281 6.085938 C 10.609375 6.085938 10.605469 6.089844 10.601562 6.097656 C 10.597656 6.109375 10.597656 6.109375 10.605469 6.101562 C 10.613281 6.097656 10.617188 6.089844 10.613281 6.085938 Z M 10.613281 6.085938 "/>
<path style="fill:none;stroke-width:1.069;stroke-linecap:butt;stroke-linejoin:miter;stroke:rgb(100%,100%,100%);stroke-opacity:1;stroke-miterlimit:4.5;" d="M 25.409557 6.043324 C 25.022868 9.334474 25.16895 12.5311 25.357998 15.693353 C 25.383777 15.976925 25.400964 16.286276 25.400964 16.595626 C 25.400964 21.79444 21.181761 26.013642 15.982948 26.013642 C 10.784134 26.013642 6.573525 21.79444 6.573525 16.595626 C 6.573525 11.396813 10.784134 7.177611 16.068878 7.169018 C 19.334249 7.057307 22.625399 6.919818 25.409557 6.043324 Z M 25.409557 6.043324 " transform="matrix(0.454581,0,0,0.454581,1.21102,1.264539)"/>
<path style="fill:none;stroke-width:0.10965;stroke-linecap:butt;stroke-linejoin:miter;stroke:rgb(100%,100%,100%);stroke-opacity:0.74902;stroke-miterlimit:4;" d="M 6.625083 15.255106 C 9.675627 6.584688 23.708127 8.09707 25.332219 15.701946 " transform="matrix(0.454581,0,0,0.454581,1.21102,1.264539)"/>
<path style="fill:none;stroke-width:1.069;stroke-linecap:butt;stroke-linejoin:miter;stroke:rgb(100%,100%,100%);stroke-opacity:0.988235;stroke-miterlimit:4.5;" d="M 9.34909 23.324008 C 12.674612 24.363771 21.0099 17.420562 23.424555 10.846856 C 25.263474 5.854276 25.108799 6.713584 25.409557 6.043324 " transform="matrix(0.454581,0,0,0.454581,1.21102,1.264539)"/>
<path style="fill:none;stroke-width:0.10965;stroke-linecap:butt;stroke-linejoin:miter;stroke:rgb(100%,100%,100%);stroke-opacity:0.647059;stroke-dasharray:0.657899,0.657899;stroke-miterlimit:4;" d="M 8.945215 22.91154 C 8.773353 19.611798 12.021538 15.710539 15.785307 12.702961 C 22.805853 7.083087 25.942328 6.180813 25.409557 6.043324 " transform="matrix(0.454581,0,0,0.454581,1.21102,1.264539)"/>
<path style="fill:none;stroke-width:0.10965;stroke-linecap:butt;stroke-linejoin:miter;stroke:rgb(100%,100%,100%);stroke-opacity:0.647059;stroke-dasharray:0.657899,0.657899;stroke-miterlimit:4;" d="M 15.355653 26.022235 C 26.732891 24.896542 26.217306 10.855449 18.930374 7.736161 " transform="matrix(0.454581,0,0,0.454581,1.21102,1.264539)"/>
<path style="fill:none;stroke-width:0.10965;stroke-linecap:butt;stroke-linejoin:miter;stroke:rgb(100%,100%,100%);stroke-opacity:0.647059;stroke-dasharray:0.657899,0.657899;stroke-miterlimit:4;" d="M 10.105281 9.222764 C 13.929202 9.01653 25.117392 18.039264 22.46213 23.375567 " transform="matrix(0.454581,0,0,0.454581,1.21102,1.264539)"/>
<path style="fill:none;stroke-width:0.10965;stroke-linecap:butt;stroke-linejoin:miter;stroke:rgb(100%,100%,100%);stroke-opacity:0.619608;stroke-miterlimit:4;" d="M 9.005367 10.236747 C 7.733591 15.607422 19.445959 25.75585 22.46213 23.375567 " transform="matrix(0.454581,0,0,0.454581,1.21102,1.264539)"/>
<path style="fill:none;stroke-width:0.10965;stroke-linecap:butt;stroke-linejoin:miter;stroke:rgb(100%,100%,100%);stroke-opacity:0.647059;stroke-dasharray:0.657899,0.657899;stroke-miterlimit:4;" d="M 6.693828 18.05645 C 9.254566 25.076997 23.458927 26.477669 25.357998 16.947943 " transform="matrix(0.454581,0,0,0.454581,1.21102,1.264539)"/>
<use xlink:href="#surface6" mask="url(#mask0)"/>
<path style=" stroke:none;fill-rule:nonzero;fill:rgb(100%,100%,100%);fill-opacity:1;" d="M 5.460938 11.867188 C 10.484375 10.777344 11.246094 7.171875 12.761719 4.011719 C 12.726562 7.035156 13.101562 10.703125 11.722656 11.621094 C 8.921875 13.984375 7.121094 13.152344 5.460938 11.867188 Z M 5.460938 11.867188 "/>
<path style=" stroke:none;fill-rule:nonzero;fill:rgb(100%,100%,100%);fill-opacity:1;" d="M 5.460938 11.867188 C 10.839844 11.230469 11.347656 7.074219 12.761719 4.011719 C 10.300781 4.8125 7.550781 4.105469 6.195312 5.316406 C 3.246094 7.554688 4.21875 10.777344 5.460938 11.867188 Z M 5.460938 11.867188 "/>
<path style=" stroke:none;fill-rule:nonzero;fill:rgb(60%,60%,60%);fill-opacity:1;" d="M 7.238281 9.800781 L 9.964844 9.800781 L 9.964844 11.949219 L 7.238281 11.949219 Z M 7.238281 9.800781 "/>
<path style=" stroke:none;fill-rule:nonzero;fill:rgb(30.196078%,30.196078%,30.196078%);fill-opacity:1;" d="M 7.179688 5.75 L 10.023438 5.75 C 10.363281 5.75 10.636719 6.023438 10.636719 6.359375 L 10.636719 9.625 C 10.636719 9.960938 10.363281 10.238281 10.023438 10.238281 L 7.179688 10.238281 C 6.84375 10.238281 6.566406 9.960938 6.566406 9.625 L 6.566406 6.359375 C 6.566406 6.023438 6.84375 5.75 7.179688 5.75 Z M 7.179688 5.75 "/>
<path style=" stroke:none;fill-rule:nonzero;fill:rgb(30.196078%,30.196078%,30.196078%);fill-opacity:1;" d="M 7.671875 11.144531 L 8.394531 11.144531 L 8.394531 11.558594 L 7.671875 11.558594 Z M 7.671875 11.144531 "/>
<path style=" stroke:none;fill-rule:nonzero;fill:rgb(30.196078%,30.196078%,30.196078%);fill-opacity:1;" d="M 8.808594 11.144531 L 9.535156 11.144531 L 9.535156 11.558594 L 8.808594 11.558594 Z M 8.808594 11.144531 "/>
</g>
</svg>
