<?xml version="1.0" encoding="UTF-8"?>
<svg xmlns="http://www.w3.org/2000/svg" xmlns:xlink="http://www.w3.org/1999/xlink" width="17pt" height="17pt" viewBox="0 0 17 17" version="1.1">
<g id="surface1">
<path style=" stroke:none;fill-rule:evenodd;fill:rgb(60%,47.45098%,32.941176%);fill-opacity:1;" d="M 3.96875 1.007812 L 13.03125 1.007812 C 14.664062 1.007812 15.992188 2.335938 15.992188 3.96875 L 15.992188 13.03125 C 15.992188 14.664062 14.664062 15.992188 13.03125 15.992188 L 3.96875 15.992188 C 2.335938 15.992188 1.007812 14.664062 1.007812 13.03125 L 1.007812 3.96875 C 1.007812 2.335938 2.335938 1.007812 3.96875 1.007812 Z M 3.96875 1.007812 "/>
<path style=" stroke:none;fill-rule:evenodd;fill:rgb(0%,49.411765%,100%);fill-opacity:1;" d="M 10.429688 1.050781 C 10.425781 1.035156 10.421875 1.023438 10.417969 1.007812 L 10.277344 1.007812 C 10.3125 1.015625 10.347656 1.023438 10.382812 1.03125 C 10.398438 1.035156 10.410156 1.042969 10.429688 1.050781 Z M 10.429688 1.050781 "/>
<path style=" stroke:none;fill-rule:evenodd;fill:rgb(60%,47.45098%,32.941176%);fill-opacity:1;" d="M 3.90625 9.953125 C 3.871094 9.964844 3.839844 9.992188 3.804688 10.003906 C 3.605469 9.546875 3.316406 9.078125 3.035156 8.546875 C 2.75 8.015625 2.472656 7.421875 2.300781 6.714844 C 2.300781 6.699219 2.292969 6.6875 2.292969 6.671875 C 2.269531 6.582031 2.257812 6.492188 2.242188 6.402344 C 2.066406 6.582031 1.609375 7.160156 1.574219 7.136719 C 1.515625 7.097656 1.222656 5.949219 1.007812 5.28125 L 1.007812 13.03125 C 1.007812 14.671875 2.328125 15.992188 3.972656 15.992188 L 13.03125 15.992188 C 14.671875 15.992188 15.992188 14.671875 15.992188 13.03125 L 15.992188 5.433594 C 15.800781 6.015625 15.527344 7.101562 15.46875 7.136719 C 15.4375 7.160156 14.980469 6.582031 14.804688 6.402344 C 14.789062 6.492188 14.777344 6.582031 14.753906 6.671875 C 14.753906 6.6875 14.746094 6.699219 14.746094 6.714844 C 14.570312 7.421875 14.292969 8.015625 14.011719 8.546875 C 13.730469 9.078125 13.4375 9.546875 13.242188 10.003906 C 13.21875 9.996094 13.199219 9.976562 13.171875 9.96875 C 13.171875 10.070312 13.167969 10.175781 13.144531 10.234375 C 13.140625 10.246094 13.136719 10.257812 13.128906 10.273438 C 12.671875 11.605469 12.464844 12.617188 12.152344 13.367188 C 11.996094 13.742188 11.816406 14.050781 11.5625 14.304688 C 11.308594 14.558594 10.984375 14.753906 10.542969 14.902344 C 9.832031 15.140625 9.257812 15.253906 8.523438 15.242188 C 7.789062 15.253906 7.214844 15.140625 6.503906 14.902344 C 6.0625 14.753906 5.738281 14.558594 5.484375 14.304688 C 5.230469 14.050781 5.050781 13.742188 4.894531 13.367188 C 4.582031 12.617188 4.375 11.605469 3.914062 10.273438 C 3.910156 10.257812 3.90625 10.246094 3.898438 10.234375 C 3.871094 10.152344 3.886719 10.050781 3.90625 9.953125 Z M 3.90625 9.953125 "/>
<path style=" stroke:none;fill-rule:evenodd;fill:rgb(84.313725%,80.784314%,78.039216%);fill-opacity:1;" d="M 3.90625 9.953125 C 3.886719 10.050781 3.871094 10.152344 3.898438 10.234375 C 3.90625 10.246094 3.910156 10.257812 3.914062 10.273438 C 4.375 11.605469 4.582031 12.617188 4.894531 13.367188 C 5.050781 13.742188 5.230469 14.050781 5.484375 14.304688 C 5.738281 14.558594 6.0625 14.753906 6.503906 14.902344 C 7.214844 15.140625 7.789062 15.253906 8.523438 15.242188 C 9.257812 15.253906 9.832031 15.140625 10.542969 14.902344 C 10.984375 14.753906 11.308594 14.558594 11.5625 14.304688 C 11.816406 14.050781 11.996094 13.742188 12.152344 13.367188 C 12.464844 12.617188 12.671875 11.605469 13.128906 10.273438 C 13.136719 10.257812 13.140625 10.246094 13.144531 10.234375 C 13.167969 10.175781 13.171875 10.070312 13.171875 9.96875 C 12.644531 9.78125 12.132812 9.527344 11.660156 9.199219 C 11.167969 8.851562 10.71875 8.429688 10.339844 7.945312 C 9.960938 7.457031 9.652344 6.90625 9.4375 6.296875 C 9.222656 5.6875 9.101562 5.015625 9.101562 4.296875 C 9.097656 3.757812 9.125 3.15625 9.207031 2.5625 C 9.285156 2.011719 9.425781 1.484375 9.621094 1.007812 L 7.425781 1.007812 C 7.621094 1.484375 7.761719 2.011719 7.839844 2.5625 C 7.921875 3.15625 7.945312 3.757812 7.945312 4.296875 C 7.945312 5.015625 7.824219 5.6875 7.609375 6.296875 C 7.394531 6.90625 7.085938 7.457031 6.707031 7.945312 C 6.328125 8.429688 5.878906 8.851562 5.386719 9.199219 C 4.925781 9.523438 4.421875 9.765625 3.90625 9.953125 Z M 3.90625 9.953125 "/>
<path style=" stroke:none;fill-rule:evenodd;fill:rgb(87.058824%,54.901961%,29.019608%);fill-opacity:1;" d="M 9.621094 1.007812 C 9.425781 1.484375 9.285156 2.011719 9.207031 2.5625 C 9.125 3.15625 9.101562 3.757812 9.101562 4.296875 C 9.101562 5.015625 9.222656 5.683594 9.4375 6.296875 C 9.652344 6.90625 9.960938 7.457031 10.339844 7.945312 C 10.71875 8.429688 11.167969 8.851562 11.660156 9.199219 C 12.152344 9.542969 12.6875 9.816406 13.242188 10.003906 C 13.4375 9.546875 13.730469 9.078125 14.011719 8.546875 C 14.292969 8.015625 14.570312 7.421875 14.746094 6.714844 C 14.746094 6.699219 14.753906 6.6875 14.753906 6.671875 C 14.777344 6.582031 14.789062 6.492188 14.804688 6.402344 C 14.378906 5.976562 13.953125 5.550781 13.195312 4.636719 C 12.125 3.339844 11.082031 2.023438 11.082031 2.023438 C 11.082031 2.023438 10.691406 1.605469 10.449219 1.125 C 10.433594 1.101562 10.433594 1.074219 10.429688 1.050781 C 10.410156 1.042969 10.398438 1.035156 10.382812 1.03125 C 10.347656 1.023438 10.3125 1.015625 10.277344 1.007812 Z M 9.621094 1.007812 "/>
<path style=" stroke:none;fill-rule:evenodd;fill:rgb(0%,49.411765%,100%);fill-opacity:1;" d="M 6.769531 1.007812 L 6.628906 1.007812 C 6.621094 1.023438 6.621094 1.035156 6.617188 1.050781 C 6.636719 1.042969 6.648438 1.035156 6.664062 1.03125 C 6.699219 1.023438 6.734375 1.015625 6.769531 1.007812 Z M 6.769531 1.007812 "/>
<path style=" stroke:none;fill-rule:evenodd;fill:rgb(87.058824%,54.901961%,29.019608%);fill-opacity:1;" d="M 6.769531 1.007812 C 6.734375 1.015625 6.699219 1.023438 6.664062 1.03125 C 6.648438 1.035156 6.636719 1.042969 6.617188 1.050781 C 6.613281 1.074219 6.609375 1.101562 6.597656 1.125 C 6.355469 1.605469 5.964844 2.023438 5.964844 2.023438 C 5.964844 2.023438 4.921875 3.339844 3.851562 4.636719 C 3.09375 5.550781 2.667969 5.976562 2.242188 6.402344 C 2.257812 6.492188 2.269531 6.582031 2.289062 6.671875 C 2.292969 6.6875 2.300781 6.699219 2.300781 6.714844 C 2.472656 7.421875 2.75 8.015625 3.035156 8.546875 C 3.316406 9.078125 3.605469 9.546875 3.804688 10.003906 C 4.359375 9.816406 4.894531 9.542969 5.386719 9.199219 C 5.878906 8.851562 6.328125 8.429688 6.707031 7.945312 C 7.085938 7.457031 7.394531 6.90625 7.609375 6.296875 C 7.824219 5.683594 7.945312 5.015625 7.945312 4.296875 C 7.945312 3.757812 7.921875 3.15625 7.839844 2.5625 C 7.761719 2.011719 7.621094 1.484375 7.425781 1.007812 Z M 6.769531 1.007812 "/>
<path style=" stroke:none;fill-rule:evenodd;fill:rgb(52.54902%,32.156863%,16.862745%);fill-opacity:1;" d="M 1.007812 5.28125 C 1.222656 5.949219 1.515625 7.097656 1.574219 7.136719 C 1.683594 7.210938 2.78125 5.933594 3.851562 4.636719 C 4.921875 3.339844 5.964844 2.023438 5.964844 2.023438 C 5.964844 2.023438 6.355469 1.605469 6.597656 1.125 C 6.617188 1.085938 6.609375 1.046875 6.628906 1.007812 L 3.972656 1.007812 C 2.328125 1.007812 1.007812 2.328125 1.007812 3.972656 Z M 1.007812 5.28125 "/>
<path style=" stroke:none;fill-rule:evenodd;fill:rgb(52.54902%,32.156863%,16.862745%);fill-opacity:1;" d="M 10.417969 1.007812 C 10.433594 1.046875 10.425781 1.085938 10.449219 1.125 C 10.691406 1.605469 11.082031 2.023438 11.082031 2.023438 C 11.082031 2.023438 12.125 3.339844 13.195312 4.636719 C 14.265625 5.933594 15.363281 7.210938 15.46875 7.136719 C 15.527344 7.101562 15.800781 6.015625 15.992188 5.433594 L 15.992188 3.972656 C 15.992188 2.328125 14.671875 1.007812 13.03125 1.007812 Z M 10.417969 1.007812 "/>
<path style=" stroke:none;fill-rule:nonzero;fill:rgb(24.705882%,24.705882%,24.705882%);fill-opacity:1;" d="M 8.097656 11.191406 C 7.695312 11.191406 7.367188 11.484375 7.367188 11.847656 C 7.367188 12.214844 8.121094 12.929688 8.523438 12.929688 C 8.925781 12.929688 9.679688 12.214844 9.679688 11.847656 C 9.679688 11.484375 9.351562 11.191406 8.949219 11.191406 Z M 8.097656 11.191406 "/>
<path style=" stroke:none;fill-rule:nonzero;fill:rgb(24.705882%,24.705882%,24.705882%);fill-opacity:1;" d="M 6.207031 7.140625 C 6.207031 7.78125 5.691406 8.296875 5.050781 8.296875 C 4.410156 8.296875 3.894531 7.78125 3.894531 7.140625 C 3.894531 6.5 4.410156 5.984375 5.050781 5.984375 C 5.691406 5.984375 6.207031 6.5 6.207031 7.140625 Z M 6.207031 7.140625 "/>
<path style=" stroke:none;fill-rule:nonzero;fill:rgb(100%,100%,100%);fill-opacity:1;" d="M 5.050781 6.851562 C 5.050781 7.011719 4.921875 7.140625 4.761719 7.140625 C 4.601562 7.140625 4.472656 7.011719 4.472656 6.851562 C 4.472656 6.691406 4.601562 6.5625 4.761719 6.5625 C 4.921875 6.5625 5.050781 6.691406 5.050781 6.851562 Z M 5.050781 6.851562 "/>
<path style=" stroke:none;fill-rule:nonzero;fill:rgb(84.705882%,43.529412%,43.529412%);fill-opacity:1;" d="M 9.679688 14.414062 C 9.679688 14.871094 9.164062 15.242188 8.523438 15.242188 C 7.882812 15.242188 7.367188 14.871094 7.367188 14.414062 C 7.367188 14.316406 7.390625 14.222656 7.433594 14.136719 C 7.59375 13.816406 8 13.996094 8.5 13.996094 C 9 13.996094 9.449219 13.816406 9.613281 14.132812 C 9.65625 14.222656 9.679688 14.316406 9.679688 14.414062 Z M 9.679688 14.414062 "/>
<path style="fill:none;stroke-width:1;stroke-linecap:round;stroke-linejoin:round;stroke:rgb(47.45098%,26.27451%,10.588235%);stroke-opacity:1;stroke-miterlimit:4;" d="M -75.717371 26.160042 C -75.717371 26.160042 -74.754136 26.696806 -73.849724 26.9321 C -73.283547 27.086512 -71.901194 26.160042 -71.901194 26.160042 C -71.901194 26.160042 -70.518841 27.086512 -69.960018 26.9321 C -69.055606 26.696806 -68.092371 26.160042 -68.092371 26.160042 " transform="matrix(0.53125,0,0,0.53125,46.720947,-0.100647)"/>
<path style=" stroke:none;fill-rule:nonzero;fill:rgb(24.705882%,24.705882%,24.705882%);fill-opacity:1;" d="M 10.839844 7.140625 C 10.839844 7.78125 11.355469 8.296875 11.996094 8.296875 C 12.632812 8.296875 13.152344 7.78125 13.152344 7.140625 C 13.152344 6.5 12.632812 5.984375 11.996094 5.984375 C 11.355469 5.984375 10.839844 6.5 10.839844 7.140625 Z M 10.839844 7.140625 "/>
<path style=" stroke:none;fill-rule:nonzero;fill:rgb(100%,100%,100%);fill-opacity:1;" d="M 11.417969 6.851562 C 11.417969 7.011719 11.546875 7.140625 11.707031 7.140625 C 11.867188 7.140625 11.996094 7.011719 11.996094 6.851562 C 11.996094 6.691406 11.867188 6.5625 11.707031 6.5625 C 11.546875 6.5625 11.417969 6.691406 11.417969 6.851562 Z M 11.417969 6.851562 "/>
</g>
</svg>
