<?xml version="1.0" encoding="UTF-8"?>
<svg xmlns="http://www.w3.org/2000/svg" xmlns:xlink="http://www.w3.org/1999/xlink" width="17pt" height="17pt" viewBox="0 0 17 17" version="1.1">
<g id="surface1">
<path style=" stroke:none;fill-rule:evenodd;fill:rgb(0%,52.54902%,100%);fill-opacity:1;" d="M 3.96875 1.007812 L 13.03125 1.007812 C 14.664062 1.007812 15.992188 2.335938 15.992188 3.96875 L 15.992188 13.03125 C 15.992188 14.664062 14.664062 15.992188 13.03125 15.992188 L 3.96875 15.992188 C 2.335938 15.992188 1.007812 14.664062 1.007812 13.03125 L 1.007812 3.96875 C 1.007812 2.335938 2.335938 1.007812 3.96875 1.007812 Z M 3.96875 1.007812 "/>
<path style=" stroke:none;fill-rule:nonzero;fill:rgb(100%,100%,100%);fill-opacity:1;" d="M 6.964844 13.273438 C 7.289062 13.042969 7.140625 12.6875 6.429688 12 C 5.863281 11.449219 5.667969 11.085938 5.667969 10.570312 C 5.664062 10.25 5.695312 10.175781 5.902344 9.976562 C 6.222656 9.675781 6.535156 9.527344 7.113281 9.402344 C 7.824219 9.253906 7.78125 9.226562 7.78125 9.859375 C 7.78125 10.335938 7.804688 10.445312 7.941406 10.589844 C 8.25 10.917969 8.484375 10.835938 9.589844 10.015625 C 12.960938 7.511719 12.820312 7.636719 12.820312 7.183594 C 12.820312 6.835938 12.746094 6.761719 11.371094 5.742188 C 8.28125 3.445312 8.472656 3.570312 8.195312 3.671875 C 7.847656 3.804688 7.78125 3.941406 7.78125 4.558594 L 7.78125 5.136719 L 7.5 5.136719 C 7.339844 5.136719 6.988281 5.207031 6.714844 5.292969 C 5.101562 5.789062 4.1875 7.199219 4.179688 9.1875 C 4.175781 10.082031 4.3125 10.636719 4.75 11.527344 C 5.136719 12.316406 5.628906 12.84375 6.269531 13.164062 C 6.785156 13.421875 6.753906 13.417969 6.964844 13.273438 Z M 6.964844 13.273438 "/>
</g>
</svg>
