<?xml version="1.0" encoding="UTF-8"?>
<svg xmlns="http://www.w3.org/2000/svg" xmlns:xlink="http://www.w3.org/1999/xlink" width="17pt" height="17pt" viewBox="0 0 17 17" version="1.1">
<g id="surface1">
<path style=" stroke:none;fill-rule:evenodd;fill:rgb(21.568627%,62.745098%,94.901961%);fill-opacity:1;" d="M 3.96875 1.007812 L 13.03125 1.007812 C 14.664062 1.007812 15.992188 2.335938 15.992188 3.96875 L 15.992188 13.03125 C 15.992188 14.664062 14.664062 15.992188 13.03125 15.992188 L 3.96875 15.992188 C 2.335938 15.992188 1.007812 14.664062 1.007812 13.03125 L 1.007812 3.96875 C 1.007812 2.335938 2.335938 1.007812 3.96875 1.007812 Z M 3.96875 1.007812 "/>
<path style=" stroke:none;fill-rule:nonzero;fill:rgb(100%,100%,100%);fill-opacity:1;" d="M 12.238281 2.683594 C 10.613281 2.703125 8.105469 3.160156 7.324219 4.101562 L 7.320312 4.101562 C 6.695312 5.015625 6.617188 8.605469 6.777344 8.382812 C 8.109375 6.5625 11.300781 4.3125 13.203125 3.410156 C 14.234375 2.917969 13.503906 2.671875 12.238281 2.683594 Z M 10.667969 5.65625 C 9.570312 5.734375 7.632812 7.621094 7.90625 7.613281 C 10.15625 7.535156 11.5625 7.664062 13.316406 8.214844 C 13.578125 8.296875 13.035156 5.839844 10.667969 5.65625 Z M 9.480469 7.621094 C 9.421875 7.625 9.398438 7.640625 9.417969 7.667969 C 10.703125 9.527344 11.355469 10.789062 11.851562 12.574219 C 11.925781 12.839844 13.675781 11.046875 12.546875 8.945312 C 11.964844 8.167969 9.886719 7.597656 9.480469 7.621094 Z M 10.148438 9.113281 C 10.136719 9.109375 10.128906 9.117188 10.125 9.132812 C 9.554688 11.328125 9.027344 12.648438 8.003906 14.1875 C 7.851562 14.414062 10.339844 14.59375 11.191406 12.359375 L 11.191406 12.363281 C 11.414062 11.34375 10.339844 9.164062 10.148438 9.113281 Z M 9.523438 10.515625 C 9.519531 10.515625 9.511719 10.515625 9.503906 10.519531 C 7.472656 11.5 6.132812 11.945312 4.304688 12.148438 C 4.035156 12.179688 5.503906 14.214844 7.746094 13.429688 L 7.75 13.425781 C 8.695312 12.925781 9.6875 10.554688 9.523438 10.515625 Z M 9.523438 10.515625 "/>
<path style=" stroke:none;fill-rule:nonzero;fill:rgb(30.980392%,30.980392%,30.980392%);fill-opacity:1;" d="M 6.167969 4.734375 C 5.757812 4.804688 4.109375 5.949219 4.488281 8.007812 C 4.847656 9.058594 7.15625 10.457031 7.078125 10.195312 C 6.421875 8.023438 6.183594 6.621094 6.257812 4.769531 C 6.261719 4.734375 6.226562 4.722656 6.167969 4.734375 Z M 3.519531 7.976562 C 3.308594 7.945312 2.8125 10.277344 4.789062 11.460938 C 5.8125 11.882812 8.375 11.054688 8.128906 10.9375 C 6.074219 10.007812 4.871094 9.261719 3.539062 7.984375 C 3.535156 7.980469 3.527344 7.976562 3.519531 7.976562 Z M 3.519531 7.976562 "/>
</g>
</svg>
