<?xml version="1.0" encoding="UTF-8"?>
<svg xmlns="http://www.w3.org/2000/svg" xmlns:xlink="http://www.w3.org/1999/xlink" width="17pt" height="17pt" viewBox="0 0 17 17" version="1.1">
<g id="surface1">
<path style=" stroke:none;fill-rule:evenodd;fill:rgb(94.901961%,94.901961%,94.901961%);fill-opacity:1;" d="M 3.96875 1.007812 L 13.03125 1.007812 C 14.664062 1.007812 15.992188 2.335938 15.992188 3.96875 L 15.992188 13.03125 C 15.992188 14.664062 14.664062 15.992188 13.03125 15.992188 L 3.96875 15.992188 C 2.335938 15.992188 1.007812 14.664062 1.007812 13.03125 L 1.007812 3.96875 C 1.007812 2.335938 2.335938 1.007812 3.96875 1.007812 Z M 3.96875 1.007812 "/>
<path style=" stroke:none;fill-rule:nonzero;fill:rgb(50.196078%,37.254902%,83.921569%);fill-opacity:1;" d="M 9.328125 3.335938 C 8.5 3.335938 7.671875 3.335938 7.671875 4.160156 L 7.671875 9.207031 C 7.472656 9.148438 7.265625 9.121094 7.054688 9.121094 C 5.796875 9.121094 4.78125 10.136719 4.78125 11.390625 C 4.78125 12.648438 5.796875 13.664062 7.054688 13.664062 C 8.277344 13.664062 9.28125 12.695312 9.328125 11.472656 C 9.335938 9.917969 9.328125 8.339844 9.328125 6.777344 C 9.328125 4.574219 11.804688 7.46875 12.21875 7.878906 C 12.21875 6.777344 12.21875 3.335938 9.328125 3.335938 Z M 9.328125 3.335938 "/>
</g>
</svg>
