<?xml version="1.0" encoding="UTF-8"?>
<svg xmlns="http://www.w3.org/2000/svg" xmlns:xlink="http://www.w3.org/1999/xlink" width="17pt" height="17pt" viewBox="0 0 17 17" version="1.1">
<g id="surface1">
<path style=" stroke:none;fill-rule:evenodd;fill:rgb(23.529412%,54.901961%,97.254902%);fill-opacity:1;" d="M 3.96875 1.007812 L 13.03125 1.007812 C 14.664062 1.007812 15.992188 2.335938 15.992188 3.96875 L 15.992188 13.03125 C 15.992188 14.664062 14.664062 15.992188 13.03125 15.992188 L 3.96875 15.992188 C 2.335938 15.992188 1.007812 14.664062 1.007812 13.03125 L 1.007812 3.96875 C 1.007812 2.335938 2.335938 1.007812 3.96875 1.007812 Z M 3.96875 1.007812 "/>
<path style=" stroke:none;fill-rule:nonzero;fill:rgb(100%,100%,100%);fill-opacity:1;" d="M 12.734375 3.53125 L 6.972656 4.859375 C 6.160156 4.960938 6.191406 5.792969 6.191406 5.792969 L 6.191406 9.339844 C 6.003906 9.285156 5.808594 9.257812 5.613281 9.257812 C 4.445312 9.257812 3.496094 10.203125 3.496094 11.375 C 3.496094 12.542969 4.445312 13.492188 5.613281 13.492188 C 6.707031 13.488281 7.621094 12.65625 7.71875 11.566406 L 7.730469 11.566406 L 7.730469 6.238281 L 11.964844 5.230469 L 11.964844 8.183594 C 11.777344 8.128906 11.582031 8.101562 11.386719 8.101562 C 10.21875 8.101562 9.269531 9.050781 9.269531 10.21875 C 9.269531 11.386719 10.21875 12.335938 11.386719 12.335938 C 12.480469 12.335938 13.394531 11.5 13.492188 10.410156 L 13.503906 10.410156 L 13.503906 4.253906 C 13.503906 4.253906 13.511719 3.367188 12.734375 3.53125 Z M 12.734375 3.53125 "/>
<path style=" stroke:none;fill-rule:nonzero;fill:rgb(96.078431%,78.431373%,22.352941%);fill-opacity:1;" d="M 14.925781 11.6875 C 14.925781 13.445312 13.5 14.875 11.738281 14.875 C 9.980469 14.875 8.550781 13.445312 8.550781 11.6875 C 8.550781 9.925781 9.980469 8.5 11.738281 8.5 C 13.5 8.5 14.925781 9.925781 14.925781 11.6875 Z M 14.925781 11.6875 "/>
<path style=" stroke:none;fill-rule:nonzero;fill:rgb(100%,100%,100%);fill-opacity:1;" d="M 10.542969 9.695312 L 10.542969 10.492188 L 9.746094 10.492188 L 9.746094 11.289062 L 10.542969 11.289062 L 10.542969 12.085938 L 9.746094 12.085938 L 9.746094 12.882812 L 10.542969 12.882812 L 10.542969 13.679688 L 11.339844 13.679688 L 11.339844 12.882812 L 12.136719 12.882812 L 12.136719 13.679688 L 12.933594 13.679688 L 12.933594 12.882812 L 13.730469 12.882812 L 13.730469 12.085938 L 12.933594 12.085938 L 12.933594 11.289062 L 13.730469 11.289062 L 13.730469 10.492188 L 12.933594 10.492188 L 12.933594 9.695312 L 12.136719 9.695312 L 12.136719 10.492188 L 11.339844 10.492188 L 11.339844 9.695312 Z M 11.339844 11.289062 L 12.136719 11.289062 L 12.136719 12.085938 L 11.339844 12.085938 Z M 11.339844 11.289062 "/>
</g>
</svg>
