<?xml version="1.0" encoding="UTF-8"?>
<svg xmlns="http://www.w3.org/2000/svg" xmlns:xlink="http://www.w3.org/1999/xlink" width="17pt" height="17pt" viewBox="0 0 17 17" version="1.1">
<g id="surface1">
<path style=" stroke:none;fill-rule:evenodd;fill:rgb(1.960784%,1.960784%,1.960784%);fill-opacity:0.2;" d="M 3.96875 1.007812 L 13.03125 1.007812 C 14.664062 1.007812 15.992188 2.335938 15.992188 3.96875 L 15.992188 13.03125 C 15.992188 14.664062 14.664062 15.992188 13.03125 15.992188 L 3.96875 15.992188 C 2.335938 15.992188 1.007812 14.664062 1.007812 13.03125 L 1.007812 3.96875 C 1.007812 2.335938 2.335938 1.007812 3.96875 1.007812 Z M 3.96875 1.007812 "/>
<path style=" stroke:none;fill-rule:nonzero;fill:rgb(40.392157%,25.882353%,55.294118%);fill-opacity:1;" d="M 8.5 2.75 C 8.199219 2.75 7.898438 2.863281 7.671875 3.089844 L 3.089844 7.671875 C 2.636719 8.121094 2.640625 8.875 3.089844 9.328125 L 7.671875 13.910156 C 8.125 14.359375 8.878906 14.363281 9.328125 13.910156 L 13.910156 9.328125 C 14.359375 8.878906 14.359375 8.121094 13.910156 7.671875 L 9.328125 3.089844 C 9.101562 2.863281 8.800781 2.75 8.5 2.75 Z M 8.5 2.75 "/>
<path style=" stroke:none;fill-rule:nonzero;fill:rgb(54.509804%,57.647059%,100%);fill-opacity:1;" d="M 8.878906 8.34375 L 8.878906 8.367188 C 9.878906 8.496094 10.417969 8.96875 10.417969 9.789062 C 10.417969 10.339844 10.226562 10.773438 9.84375 11.09375 C 9.460938 11.410156 8.910156 11.566406 8.1875 11.566406 C 7.519531 11.566406 6.984375 11.457031 6.582031 11.242188 L 6.582031 10.550781 C 7.09375 10.8125 7.621094 10.941406 8.171875 10.941406 C 9.152344 10.941406 9.640625 10.546875 9.640625 9.761719 C 9.640625 9.0625 9.113281 8.710938 8.058594 8.710938 L 7.734375 8.710938 L 7.734375 8.117188 L 8.058594 8.117188 C 8.503906 8.117188 8.730469 7.992188 8.972656 7.785156 C 9.21875 7.578125 9.339844 7.304688 9.339844 6.964844 C 9.339844 6.6875 9.246094 6.46875 9.058594 6.308594 C 8.867188 6.144531 8.617188 6.0625 8.300781 6.0625 C 7.808594 6.0625 7.449219 6.226562 6.992188 6.554688 L 6.609375 6.046875 C 7.125 5.636719 7.613281 5.433594 8.300781 5.433594 C 8.871094 5.433594 9.234375 5.570312 9.550781 5.839844 C 9.871094 6.105469 10.03125 6.464844 10.03125 6.914062 C 10.03125 7.289062 9.996094 7.605469 9.769531 7.855469 C 9.542969 8.109375 9.300781 8.273438 8.878906 8.34375 Z M 8.878906 8.34375 "/>
</g>
</svg>
