<?xml version="1.0" encoding="UTF-8"?>
<svg xmlns="http://www.w3.org/2000/svg" xmlns:xlink="http://www.w3.org/1999/xlink" width="17pt" height="17pt" viewBox="0 0 17 17" version="1.1">
<g id="surface1">
<path style=" stroke:none;fill-rule:evenodd;fill:rgb(28.235294%,68.235294%,100%);fill-opacity:1;" d="M 3.96875 1.007812 L 13.03125 1.007812 C 14.664062 1.007812 15.992188 2.335938 15.992188 3.96875 L 15.992188 13.03125 C 15.992188 14.664062 14.664062 15.992188 13.03125 15.992188 L 3.96875 15.992188 C 2.335938 15.992188 1.007812 14.664062 1.007812 13.03125 L 1.007812 3.96875 C 1.007812 2.335938 2.335938 1.007812 3.96875 1.007812 Z M 3.96875 1.007812 "/>
<path style=" stroke:none;fill-rule:nonzero;fill:rgb(100%,100%,100%);fill-opacity:1;" d="M 6.078125 5.3125 L 6.140625 5.3125 C 6.5625 5.3125 6.90625 5.65625 6.90625 6.078125 L 6.90625 11.453125 C 6.90625 11.875 6.5625 12.21875 6.140625 12.21875 L 6.078125 12.21875 C 5.65625 12.21875 5.3125 11.875 5.3125 11.453125 L 5.3125 6.078125 C 5.3125 5.65625 5.65625 5.3125 6.078125 5.3125 Z M 6.078125 5.3125 "/>
<path style=" stroke:none;fill-rule:nonzero;fill:rgb(100%,100%,100%);fill-opacity:1;" d="M 6.082031 4.78125 C 5.902344 4.789062 5.738281 4.863281 5.648438 4.980469 L 3.789062 7.375 C 3.695312 7.5 3.695312 7.648438 3.789062 7.769531 C 3.882812 7.894531 4.058594 7.96875 4.25 7.96875 L 7.96875 7.96875 C 8.160156 7.96875 8.335938 7.894531 8.429688 7.769531 C 8.523438 7.648438 8.523438 7.5 8.429688 7.375 L 6.570312 4.980469 C 6.46875 4.851562 6.28125 4.773438 6.082031 4.78125 Z M 6.082031 4.78125 "/>
<path style=" stroke:none;fill-rule:nonzero;fill:rgb(100%,100%,100%);fill-opacity:1;" d="M 10.859375 11.6875 L 10.921875 11.6875 C 11.34375 11.6875 11.6875 11.34375 11.6875 10.921875 L 11.6875 5.546875 C 11.6875 5.125 11.34375 4.78125 10.921875 4.78125 L 10.859375 4.78125 C 10.4375 4.78125 10.09375 5.125 10.09375 5.546875 L 10.09375 10.921875 C 10.09375 11.34375 10.4375 11.6875 10.859375 11.6875 Z M 10.859375 11.6875 "/>
<path style=" stroke:none;fill-rule:nonzero;fill:rgb(100%,100%,100%);fill-opacity:1;" d="M 10.863281 12.21875 C 10.683594 12.210938 10.519531 12.136719 10.429688 12.019531 L 8.570312 9.625 C 8.476562 9.5 8.476562 9.351562 8.570312 9.230469 C 8.664062 9.105469 8.839844 9.03125 9.03125 9.03125 L 12.75 9.03125 C 12.941406 9.03125 13.117188 9.105469 13.210938 9.230469 C 13.304688 9.351562 13.304688 9.5 13.210938 9.625 L 11.351562 12.019531 C 11.25 12.148438 11.0625 12.226562 10.863281 12.21875 Z M 10.863281 12.21875 "/>
</g>
</svg>
