<?xml version="1.0" encoding="UTF-8"?>
<svg xmlns="http://www.w3.org/2000/svg" xmlns:xlink="http://www.w3.org/1999/xlink" width="17pt" height="17pt" viewBox="0 0 17 17" version="1.1">
<g id="surface1">
<path style=" stroke:none;fill-rule:evenodd;fill:rgb(40%,40%,40%);fill-opacity:1;" d="M 3.96875 1.007812 L 13.03125 1.007812 C 14.664062 1.007812 15.992188 2.335938 15.992188 3.96875 L 15.992188 13.03125 C 15.992188 14.664062 14.664062 15.992188 13.03125 15.992188 L 3.96875 15.992188 C 2.335938 15.992188 1.007812 14.664062 1.007812 13.03125 L 1.007812 3.96875 C 1.007812 2.335938 2.335938 1.007812 3.96875 1.007812 Z M 3.96875 1.007812 "/>
<path style=" stroke:none;fill-rule:nonzero;fill:rgb(92.941176%,31.372549%,31.372549%);fill-opacity:1;" d="M 7.722656 2.519531 L 2.519531 13.820312 L 2.519531 13.839844 C 2.519531 14.191406 2.804688 14.476562 3.160156 14.480469 L 8.5 2.878906 L 13.839844 14.480469 C 14.195312 14.476562 14.480469 14.191406 14.480469 13.839844 L 14.480469 13.820312 L 9.277344 2.519531 Z M 7.722656 2.519531 "/>
<path style=" stroke:none;fill-rule:nonzero;fill:rgb(43.921569%,92.941176%,31.372549%);fill-opacity:1;" d="M 3.128906 2.523438 C 2.800781 2.542969 2.542969 2.800781 2.523438 3.128906 L 7.894531 8.5 L 2.523438 13.871094 C 2.542969 14.199219 2.800781 14.457031 3.128906 14.476562 L 8.5 9.105469 L 13.871094 14.476562 C 14.199219 14.457031 14.457031 14.199219 14.476562 13.871094 L 9.105469 8.5 L 14.476562 3.128906 C 14.457031 2.800781 14.199219 2.542969 13.871094 2.523438 L 8.5 7.894531 Z M 3.128906 2.523438 "/>
<path style=" stroke:none;fill-rule:nonzero;fill:rgb(31.372549%,57.647059%,92.941176%);fill-opacity:1;" d="M 3.160156 2.519531 C 2.808594 2.519531 2.519531 2.808594 2.519531 3.160156 L 2.519531 3.375 L 8.074219 3.375 L 8.074219 14.480469 L 8.925781 14.480469 L 8.925781 3.375 L 14.480469 3.375 L 14.480469 3.160156 C 14.480469 2.808594 14.191406 2.519531 13.839844 2.519531 Z M 3.160156 2.519531 "/>
</g>
</svg>
