<?xml version="1.0" encoding="UTF-8"?>
<svg xmlns="http://www.w3.org/2000/svg" xmlns:xlink="http://www.w3.org/1999/xlink" width="17pt" height="17pt" viewBox="0 0 17 17" version="1.1">
<g id="surface1">
<path style=" stroke:none;fill-rule:evenodd;fill:rgb(31.764706%,50.588235%,25.098039%);fill-opacity:1;" d="M 3.96875 1.007812 L 13.03125 1.007812 C 14.664062 1.007812 15.992188 2.335938 15.992188 3.96875 L 15.992188 13.03125 C 15.992188 14.664062 14.664062 15.992188 13.03125 15.992188 L 3.96875 15.992188 C 2.335938 15.992188 1.007812 14.664062 1.007812 13.03125 L 1.007812 3.96875 C 1.007812 2.335938 2.335938 1.007812 3.96875 1.007812 Z M 3.96875 1.007812 "/>
<path style=" stroke:none;fill-rule:nonzero;fill:rgb(38.431373%,61.176471%,30.196078%);fill-opacity:1;" d="M 6.9375 3.027344 L 10.0625 3.027344 L 10.0625 4.203125 L 6.9375 4.203125 Z M 6.9375 3.027344 "/>
<path style=" stroke:none;fill-rule:nonzero;fill:rgb(63.529412%,83.137255%,44.313725%);fill-opacity:1;" d="M 4.773438 3.808594 L 12.226562 3.808594 C 12.542969 3.808594 12.796875 4.078125 12.796875 4.40625 L 12.796875 13.375 C 12.796875 13.703125 12.542969 13.972656 12.226562 13.972656 L 4.773438 13.972656 C 4.457031 13.972656 4.203125 13.703125 4.203125 13.375 L 4.203125 4.40625 C 4.203125 4.078125 4.457031 3.808594 4.773438 3.808594 Z M 4.773438 3.808594 "/>
<path style=" stroke:none;fill-rule:nonzero;fill:rgb(54.117647%,72.941176%,32.156863%);fill-opacity:1;" d="M 3.984375 3.417969 L 13.015625 3.417969 C 13.328125 3.417969 13.582031 3.683594 13.582031 4.007812 L 13.582031 5.179688 C 13.582031 5.503906 13.328125 5.765625 13.015625 5.765625 L 3.984375 5.765625 C 3.671875 5.765625 3.417969 5.503906 3.417969 5.179688 L 3.417969 4.007812 C 3.417969 3.683594 3.671875 3.417969 3.984375 3.417969 Z M 3.984375 3.417969 "/>
<path style=" stroke:none;fill-rule:nonzero;fill:rgb(54.117647%,72.941176%,32.156863%);fill-opacity:1;" d="M 8.109375 7.328125 L 8.890625 7.328125 C 9.105469 7.328125 9.28125 7.449219 9.28125 7.601562 L 9.28125 12.523438 C 9.28125 12.675781 9.105469 12.796875 8.890625 12.796875 L 8.109375 12.796875 C 7.894531 12.796875 7.71875 12.675781 7.71875 12.523438 L 7.71875 7.601562 C 7.71875 7.449219 7.894531 7.328125 8.109375 7.328125 Z M 8.109375 7.328125 "/>
<path style=" stroke:none;fill-rule:nonzero;fill:rgb(54.117647%,72.941176%,32.156863%);fill-opacity:1;" d="M 5.765625 7.328125 L 6.546875 7.328125 C 6.761719 7.328125 6.9375 7.449219 6.9375 7.601562 L 6.9375 12.523438 C 6.9375 12.675781 6.761719 12.796875 6.546875 12.796875 L 5.765625 12.796875 C 5.546875 12.796875 5.375 12.675781 5.375 12.523438 L 5.375 7.601562 C 5.375 7.449219 5.546875 7.328125 5.765625 7.328125 Z M 5.765625 7.328125 "/>
<path style=" stroke:none;fill-rule:nonzero;fill:rgb(54.117647%,72.941176%,32.156863%);fill-opacity:1;" d="M 10.453125 7.328125 L 11.234375 7.328125 C 11.453125 7.328125 11.625 7.449219 11.625 7.601562 L 11.625 12.523438 C 11.625 12.675781 11.453125 12.796875 11.234375 12.796875 L 10.453125 12.796875 C 10.238281 12.796875 10.0625 12.675781 10.0625 12.523438 L 10.0625 7.601562 C 10.0625 7.449219 10.238281 7.328125 10.453125 7.328125 Z M 10.453125 7.328125 "/>
<path style=" stroke:none;fill-rule:nonzero;fill:rgb(54.117647%,72.941176%,32.156863%);fill-opacity:1;" d="M 6.9375 3.027344 L 10.0625 3.027344 L 10.0625 3.417969 L 6.9375 3.417969 Z M 6.9375 3.027344 "/>
</g>
</svg>
