<?xml version="1.0" encoding="UTF-8"?>
<svg xmlns="http://www.w3.org/2000/svg" xmlns:xlink="http://www.w3.org/1999/xlink" width="17pt" height="17pt" viewBox="0 0 17 17" version="1.1">
<g id="surface1">
<path style=" stroke:none;fill-rule:evenodd;fill:rgb(38.823529%,65.882353%,82.745098%);fill-opacity:1;" d="M 2.308594 15.417969 L 12.03125 6.015625 C 11.753906 5.324219 11.476562 4.734375 11.21875 4.304688 C 10.960938 3.871094 10.71875 3.601562 10.507812 3.546875 C 10.457031 3.535156 10.402344 3.527344 10.335938 3.535156 C 10.082031 3.554688 9.722656 3.714844 9.285156 3.980469 C 8.851562 4.246094 8.335938 4.617188 7.78125 5.0625 C 6.667969 5.953125 5.375 7.140625 4.160156 8.375 C 2.949219 9.601562 1.816406 10.871094 1.007812 11.933594 L 1.007812 13.03125 C 1.007812 14.039062 1.542969 14.882812 2.308594 15.417969 Z M 2.308594 15.417969 "/>
<path style=" stroke:none;fill-rule:evenodd;fill:rgb(80.392157%,89.411765%,99.215686%);fill-opacity:1;" d="M 14.542969 15.519531 C 14.53125 15.441406 14.539062 15.394531 14.527344 15.316406 C 14.324219 13.867188 13.921875 12.050781 13.4375 10.28125 L 7.539062 15.992188 L 13.03125 15.992188 C 13.597656 15.992188 14.09375 15.792969 14.542969 15.519531 Z M 14.542969 15.519531 "/>
<path style=" stroke:none;fill-rule:evenodd;fill:rgb(61.176471%,78.039216%,95.686275%);fill-opacity:1;" d="M 13.417969 10.300781 C 13.425781 10.285156 13.433594 10.277344 13.441406 10.261719 C 13.011719 8.699219 12.519531 7.183594 12.03125 5.976562 C 12.027344 5.980469 12.023438 5.984375 12.019531 5.984375 C 12.023438 5.996094 12.027344 6.003906 12.03125 6.015625 L 2.308594 15.417969 C 2.789062 15.753906 3.339844 15.992188 3.96875 15.992188 L 7.539062 15.992188 Z M 13.417969 10.300781 "/>
<path style=" stroke:none;fill-rule:evenodd;fill:rgb(0%,49.411765%,100%);fill-opacity:1;" d="M 3.96875 1.007812 C 2.328125 1.007812 1.007812 2.328125 1.007812 3.96875 L 1.007812 11.933594 C 1.816406 10.871094 2.949219 9.601562 4.160156 8.375 C 5.375 7.140625 6.667969 5.953125 7.78125 5.0625 C 8.335938 4.617188 8.851562 4.246094 9.285156 3.980469 C 9.722656 3.714844 10.082031 3.554688 10.335938 3.535156 C 10.402344 3.527344 10.457031 3.535156 10.507812 3.546875 C 10.71875 3.601562 10.960938 3.871094 11.21875 4.304688 C 11.472656 4.726562 11.746094 5.308594 12.019531 5.984375 C 12.023438 5.984375 12.027344 5.980469 12.03125 5.976562 C 12.519531 7.183594 13.011719 8.699219 13.441406 10.261719 C 13.433594 10.277344 13.425781 10.285156 13.417969 10.300781 L 13.4375 10.28125 L 13.441406 10.28125 L 13.4375 10.28125 C 13.921875 12.050781 14.324219 13.867188 14.527344 15.316406 C 14.539062 15.394531 14.53125 15.441406 14.542969 15.519531 C 15.394531 15 15.992188 14.105469 15.992188 13.03125 L 15.992188 3.96875 C 15.992188 2.328125 14.671875 1.007812 13.03125 1.007812 Z M 3.96875 1.007812 "/>
</g>
</svg>
