<?xml version="1.0" encoding="UTF-8"?>
<svg xmlns="http://www.w3.org/2000/svg" xmlns:xlink="http://www.w3.org/1999/xlink" width="17pt" height="17pt" viewBox="0 0 17 17" version="1.1">
<defs>
<clipPath id="clip1">
  <rect width="17" height="17"/>
</clipPath>
<g id="surface6" clip-path="url(#clip1)">
<path style=" stroke:none;fill-rule:nonzero;fill:rgb(100%,100%,100%);fill-opacity:1;" d="M 5.046875 3.71875 C 4.515625 3.71875 4.25 3.976562 4.25 4.515625 C 4.25 5.078125 4.488281 5.3125 5.046875 5.3125 C 9.007812 5.3125 11.6875 7.992188 11.6875 11.953125 C 11.6875 12.449219 11.957031 12.75 12.484375 12.75 C 13.027344 12.75 13.28125 12.433594 13.28125 11.953125 C 13.28125 7.113281 9.886719 3.71875 5.046875 3.71875 Z M 11.15625 3.71875 L 13.28125 5.84375 L 13.28125 4.78125 C 13.28125 4.191406 12.808594 3.71875 12.21875 3.71875 Z M 5.046875 6.90625 C 4.53125 6.90625 4.25 7.132812 4.25 7.703125 C 4.25 8.25 4.472656 8.5 5.046875 8.5 C 7.246094 8.5 8.5 9.753906 8.5 11.953125 C 8.5 12.421875 8.769531 12.75 9.296875 12.75 C 9.8125 12.75 10.09375 12.464844 10.09375 11.953125 C 10.09375 8.871094 8.128906 6.90625 5.046875 6.90625 Z M 5.3125 10.09375 C 4.433594 10.09375 3.71875 10.808594 3.71875 11.6875 C 3.71875 12.566406 4.433594 13.28125 5.3125 13.28125 C 6.191406 13.28125 6.90625 12.566406 6.90625 11.6875 C 6.90625 10.808594 6.191406 10.09375 5.3125 10.09375 Z M 5.3125 10.09375 "/>
</g>
</defs>
<g id="surface1">
<path style=" stroke:none;fill-rule:evenodd;fill:rgb(36.470588%,70.588235%,24.313725%);fill-opacity:1;" d="M 3.96875 1.007812 L 13.03125 1.007812 C 14.664062 1.007812 15.992188 2.335938 15.992188 3.96875 L 15.992188 13.03125 C 15.992188 14.664062 14.664062 15.992188 13.03125 15.992188 L 3.96875 15.992188 C 2.335938 15.992188 1.007812 14.664062 1.007812 13.03125 L 1.007812 3.96875 C 1.007812 2.335938 2.335938 1.007812 3.96875 1.007812 Z M 3.96875 1.007812 "/>
<use xlink:href="#surface6"/>
</g>
</svg>
