<?xml version="1.0" encoding="UTF-8"?>
<svg xmlns="http://www.w3.org/2000/svg" xmlns:xlink="http://www.w3.org/1999/xlink" width="17pt" height="17pt" viewBox="0 0 17 17" version="1.1">
<g id="surface1">
<path style=" stroke:none;fill-rule:evenodd;fill:rgb(60%,60%,60%);fill-opacity:1;" d="M 3.96875 1.007812 L 13.03125 1.007812 C 14.664062 1.007812 15.992188 2.335938 15.992188 3.96875 L 15.992188 13.03125 C 15.992188 14.664062 14.664062 15.992188 13.03125 15.992188 L 3.96875 15.992188 C 2.335938 15.992188 1.007812 14.664062 1.007812 13.03125 L 1.007812 3.96875 C 1.007812 2.335938 2.335938 1.007812 3.96875 1.007812 Z M 3.96875 1.007812 "/>
<path style=" stroke:none;fill-rule:nonzero;fill:rgb(100%,100%,100%);fill-opacity:1;" d="M 4.785156 3.535156 L 4.785156 4.066406 L 4.519531 4.066406 C 4.078125 4.066406 3.722656 4.421875 3.722656 4.863281 C 3.722656 5.304688 4.078125 5.660156 4.519531 5.660156 L 4.785156 5.660156 L 4.785156 6.191406 L 3.769531 6.191406 C 3.878906 6.5 4.171875 6.722656 4.519531 6.722656 L 4.785156 6.722656 L 4.785156 7.253906 L 5.316406 7.253906 L 5.316406 6.722656 L 5.582031 6.722656 C 6.023438 6.722656 6.378906 6.367188 6.378906 5.925781 C 6.378906 5.484375 6.023438 5.128906 5.582031 5.128906 L 5.316406 5.128906 L 5.316406 4.597656 L 6.328125 4.597656 C 6.21875 4.285156 5.929688 4.066406 5.582031 4.066406 L 5.316406 4.066406 L 5.316406 3.535156 Z M 4.519531 4.597656 L 4.785156 4.597656 L 4.785156 5.128906 L 4.519531 5.128906 C 4.371094 5.128906 4.253906 5.007812 4.253906 4.863281 C 4.253906 4.714844 4.371094 4.597656 4.519531 4.597656 Z M 5.316406 5.660156 L 5.582031 5.660156 C 5.730469 5.660156 5.847656 5.777344 5.847656 5.925781 C 5.847656 6.070312 5.730469 6.195312 5.582031 6.191406 L 5.316406 6.191406 Z M 7.441406 6.722656 L 7.441406 7.253906 L 10.628906 7.253906 L 10.628906 6.722656 Z M 7.441406 6.722656 "/>
</g>
</svg>
