<?xml version="1.0" encoding="UTF-8"?>
<svg xmlns="http://www.w3.org/2000/svg" xmlns:xlink="http://www.w3.org/1999/xlink" width="17pt" height="17pt" viewBox="0 0 17 17" version="1.1">
<g id="surface1">
<path style=" stroke:none;fill-rule:evenodd;fill:rgb(25.490196%,65.098039%,80%);fill-opacity:1;" d="M 3.96875 1.007812 L 13.03125 1.007812 C 14.664062 1.007812 15.992188 2.335938 15.992188 3.96875 L 15.992188 13.03125 C 15.992188 14.664062 14.664062 15.992188 13.03125 15.992188 L 3.96875 15.992188 C 2.335938 15.992188 1.007812 14.664062 1.007812 13.03125 L 1.007812 3.96875 C 1.007812 2.335938 2.335938 1.007812 3.96875 1.007812 Z M 3.96875 1.007812 "/>
<path style=" stroke:none;fill-rule:nonzero;fill:rgb(20.784314%,26.27451%,34.509804%);fill-opacity:1;" d="M 8.65625 3.820312 C 6.085938 3.820312 3.996094 5.90625 3.996094 8.480469 C 3.996094 11.054688 6.085938 13.140625 8.65625 13.140625 C 11.230469 13.140625 13.316406 11.054688 13.316406 8.480469 C 13.316406 5.90625 11.230469 3.820312 8.65625 3.820312 Z M 8.65625 3.820312 "/>
<path style=" stroke:none;fill-rule:nonzero;fill:rgb(100%,100%,100%);fill-opacity:1;" d="M 9.109375 1.949219 C 8.972656 1.949219 8.714844 1.972656 8.582031 2.007812 C 8.140625 2.128906 7.730469 2.707031 7.574219 3.125 C 7.554688 3.1875 7.523438 3.242188 7.511719 3.25 C 7.496094 3.257812 7.445312 3.269531 7.394531 3.28125 C 6.871094 3.390625 6.234375 3.628906 5.796875 3.878906 C 4.8125 4.441406 4.058594 5.242188 3.566406 6.238281 C 3.289062 6.804688 3.132812 7.320312 3.042969 7.96875 C 3.003906 8.242188 3.003906 9.074219 3.042969 9.351562 C 3.214844 10.589844 3.734375 11.652344 4.589844 12.519531 C 5.5625 13.503906 6.8125 14.0625 8.222656 14.152344 C 8.398438 14.164062 8.929688 14.144531 9.136719 14.121094 C 9.714844 14.058594 10.328125 13.878906 10.855469 13.628906 C 12.574219 12.8125 13.746094 11.171875 13.964844 9.28125 C 13.976562 9.1875 13.984375 8.933594 13.984375 8.714844 C 14.015625 8.085938 13.757812 7.460938 13.5 7 C 13.230469 6.445312 13.179688 5.964844 13.140625 5.375 C 13.148438 5.339844 13.144531 5.300781 13.140625 5.292969 C 12.429688 5.511719 11.824219 6.082031 11.449219 6.613281 C 11.199219 7.015625 11.035156 7.425781 11.03125 7.789062 C 11.066406 8.714844 11.859375 9.378906 11.875 10.214844 C 11.875 11.101562 11.34375 11.957031 10.707031 12.570312 C 10.582031 12.695312 10.550781 12.71875 10.535156 12.703125 C 10.53125 12.699219 10.550781 12.644531 10.582031 12.582031 C 11.023438 11.613281 10.929688 10.453125 10.25 9.640625 C 10.15625 9.523438 9.78125 9.15625 9.730469 9.125 C 9.753906 9.25 9.765625 9.382812 9.765625 9.511719 C 9.765625 10.675781 8.820312 11.621094 7.65625 11.621094 C 6.492188 11.621094 5.546875 10.675781 5.546875 9.511719 C 5.546875 8.347656 6.492188 7.402344 7.65625 7.402344 C 7.789062 7.402344 7.921875 7.414062 8.050781 7.441406 C 8.058594 7.441406 8.066406 7.441406 8.074219 7.441406 C 8.09375 7.425781 8.105469 7.410156 8.105469 7.402344 C 8.105469 7.371094 7.585938 6.851562 7.441406 6.738281 C 7.148438 6.511719 6.816406 6.238281 6.429688 6.140625 C 6.328125 6.113281 6.273438 6.089844 6.273438 6.078125 C 6.273438 6.039062 6.640625 5.929688 7.046875 5.847656 C 7.539062 5.75 7.859375 5.722656 8.816406 5.714844 C 9.21875 5.710938 9.613281 5.699219 9.695312 5.691406 C 10.726562 5.523438 11.554688 4.847656 11.925781 4.09375 C 11.9375 4.058594 11.933594 4.058594 11.773438 4.058594 C 11.4375 4.058594 11.09375 3.988281 10.769531 3.847656 C 10.351562 3.609375 9.980469 3.332031 9.53125 3.234375 C 9.414062 3.210938 9.097656 3.207031 8.921875 3.179688 C 8.882812 2.828125 9.039062 2.3125 9.1875 2.085938 C 9.226562 2.03125 9.253906 1.980469 9.253906 1.972656 C 9.246094 1.953125 9.1875 1.949219 9.109375 1.949219 Z M 9.109375 1.949219 "/>
</g>
</svg>
