<?xml version="1.0" encoding="UTF-8"?>
<svg xmlns="http://www.w3.org/2000/svg" xmlns:xlink="http://www.w3.org/1999/xlink" width="17pt" height="17pt" viewBox="0 0 17 17" version="1.1">
<g id="surface1">
<path style=" stroke:none;fill-rule:evenodd;fill:rgb(60%,60%,60%);fill-opacity:1;" d="M 3.96875 1.007812 L 13.03125 1.007812 C 14.664062 1.007812 15.992188 2.335938 15.992188 3.96875 L 15.992188 13.03125 C 15.992188 14.664062 14.664062 15.992188 13.03125 15.992188 L 3.96875 15.992188 C 2.335938 15.992188 1.007812 14.664062 1.007812 13.03125 L 1.007812 3.96875 C 1.007812 2.335938 2.335938 1.007812 3.96875 1.007812 Z M 3.96875 1.007812 "/>
<path style=" stroke:none;fill-rule:nonzero;fill:rgb(30.980392%,30.980392%,30.980392%);fill-opacity:1;" d="M 8.523438 4.089844 C 6.199219 4.089844 4.101562 4.917969 2.367188 6.199219 L 8.523438 12.910156 L 14.632812 6.175781 C 12.902344 4.910156 10.832031 4.089844 8.523438 4.089844 Z M 8.523438 4.089844 "/>
<path style=" stroke:none;fill-rule:nonzero;fill:rgb(47.45098%,47.45098%,47.45098%);fill-opacity:1;" d="M 8.5 5.851562 C 6.648438 5.851562 4.925781 6.460938 3.546875 7.488281 L 8.527344 12.910156 L 13.453125 7.488281 C 12.074219 6.460938 10.351562 5.851562 8.5 5.851562 Z M 8.5 5.851562 "/>
<path style=" stroke:none;fill-rule:nonzero;fill:rgb(80%,80%,80%);fill-opacity:1;" d="M 8.5 7.617188 C 7.109375 7.617188 5.820312 8.074219 4.785156 8.84375 L 8.519531 12.910156 L 12.214844 8.84375 C 11.179688 8.074219 9.890625 7.617188 8.5 7.617188 Z M 8.5 7.617188 "/>
</g>
</svg>
