<?xml version="1.0" encoding="UTF-8"?>
<svg xmlns="http://www.w3.org/2000/svg" xmlns:xlink="http://www.w3.org/1999/xlink" width="17pt" height="17pt" viewBox="0 0 17 17" version="1.1">
<g id="surface1">
<path style=" stroke:none;fill-rule:evenodd;fill:rgb(60.392157%,79.215686%,23.529412%);fill-opacity:1;" d="M 3.96875 1.007812 L 13.03125 1.007812 C 14.664062 1.007812 15.992188 2.335938 15.992188 3.96875 L 15.992188 13.03125 C 15.992188 14.664062 14.664062 15.992188 13.03125 15.992188 L 3.96875 15.992188 C 2.335938 15.992188 1.007812 14.664062 1.007812 13.03125 L 1.007812 3.96875 C 1.007812 2.335938 2.335938 1.007812 3.96875 1.007812 Z M 3.96875 1.007812 "/>
<path style="fill:none;stroke-width:3;stroke-linecap:round;stroke-linejoin:round;stroke:rgb(100%,100%,100%);stroke-opacity:1;stroke-miterlimit:4;" d="M 12.499841 22.5 L 22.499841 9.5 " transform="matrix(0.53125,0,0,0.53125,-0.531166,0)"/>
<path style="fill:none;stroke-width:3;stroke-linecap:round;stroke-linejoin:round;stroke:rgb(100%,100%,100%);stroke-opacity:1;stroke-miterlimit:4;" d="M 11.499841 9.5 L 16.69837 16 " transform="matrix(0.53125,0,0,0.53125,-0.531166,0)"/>
<path style=" stroke:none;fill-rule:nonzero;fill:rgb(85.098039%,22.352941%,63.137255%);fill-opacity:1;" d="M 14.929688 11.6875 C 14.929688 13.449219 13.503906 14.875 11.742188 14.875 C 9.984375 14.875 8.554688 13.449219 8.554688 11.6875 C 8.554688 9.925781 9.984375 8.5 11.742188 8.5 C 13.503906 8.5 14.929688 9.925781 14.929688 11.6875 Z M 14.929688 11.6875 "/>
<path style=" stroke:none;fill-rule:nonzero;fill:rgb(100%,100%,100%);fill-opacity:1;" d="M 11.332031 10.09375 L 11.296875 10.511719 C 11.164062 10.5625 11.039062 10.632812 10.929688 10.726562 L 10.546875 10.546875 L 10.148438 11.234375 L 10.496094 11.476562 C 10.484375 11.546875 10.476562 11.617188 10.476562 11.6875 C 10.476562 11.757812 10.484375 11.828125 10.496094 11.898438 L 10.148438 12.140625 L 10.546875 12.828125 L 10.929688 12.648438 C 11.039062 12.742188 11.164062 12.8125 11.296875 12.859375 L 11.332031 13.28125 L 12.128906 13.28125 L 12.164062 12.863281 C 12.296875 12.8125 12.417969 12.742188 12.527344 12.648438 L 12.910156 12.828125 L 13.308594 12.140625 L 12.960938 11.898438 C 12.976562 11.828125 12.980469 11.757812 12.980469 11.6875 C 12.980469 11.617188 12.976562 11.546875 12.964844 11.476562 L 13.308594 11.234375 L 12.910156 10.546875 L 12.53125 10.726562 C 12.421875 10.632812 12.296875 10.5625 12.164062 10.515625 L 12.128906 10.09375 Z M 11.730469 11.230469 C 11.980469 11.230469 12.183594 11.4375 12.183594 11.6875 C 12.183594 11.9375 11.980469 12.144531 11.730469 12.144531 C 11.476562 12.144531 11.273438 11.9375 11.273438 11.6875 C 11.273438 11.4375 11.476562 11.230469 11.730469 11.230469 Z M 11.730469 11.230469 "/>
</g>
</svg>
