<?xml version="1.0" encoding="UTF-8"?>
<svg xmlns="http://www.w3.org/2000/svg" xmlns:xlink="http://www.w3.org/1999/xlink" width="24pt" height="24pt" viewBox="0 0 24 24" version="1.1">
<g id="surface1">
<path style=" stroke:none;fill-rule:evenodd;fill:rgb(63.137255%,14.509804%,16.862745%);fill-opacity:1;" d="M 5.605469 1.421875 L 18.394531 1.421875 C 20.703125 1.421875 22.578125 3.296875 22.578125 5.605469 L 22.578125 18.394531 C 22.578125 20.703125 20.703125 22.578125 18.394531 22.578125 L 5.605469 22.578125 C 3.296875 22.578125 1.421875 20.703125 1.421875 18.394531 L 1.421875 5.605469 C 1.421875 3.296875 3.296875 1.421875 5.605469 1.421875 Z M 5.605469 1.421875 "/>
<path style=" stroke:none;fill-rule:nonzero;fill:rgb(100%,100%,100%);fill-opacity:1;" d="M 9.355469 5.917969 C 7.34375 5.917969 5.65625 7.605469 5.65625 9.617188 C 5.65625 10.410156 5.925781 11.148438 6.367188 11.757812 L 4.976562 14.070312 C 3.917969 15.832031 5.1875 18.074219 7.242188 18.078125 L 16.757812 18.082031 C 18.722656 18.082031 20 16.015625 19.125 14.257812 L 17.007812 10.023438 C 16.257812 8.527344 14.320312 8.09375 13.007812 9.132812 C 12.761719 7.34375 11.203125 5.917969 9.355469 5.917969 Z M 9.355469 5.917969 "/>
<path style=" stroke:none;fill-rule:nonzero;fill:rgb(63.137255%,14.509804%,16.862745%);fill-opacity:1;" d="M 9.355469 8.5625 C 8.769531 8.5625 8.296875 9.035156 8.296875 9.621094 C 8.296875 10.203125 8.769531 10.675781 9.355469 10.675781 C 9.941406 10.675781 10.414062 10.203125 10.414062 9.621094 C 10.414062 9.035156 9.941406 8.5625 9.355469 8.5625 Z M 14.644531 11.207031 L 13.058594 13.585938 L 11.472656 12.265625 L 9.882812 14.378906 L 8.828125 12.792969 L 7.238281 15.433594 L 16.761719 15.441406 Z M 14.644531 11.207031 "/>
</g>
</svg>
