<?xml version="1.0" encoding="UTF-8"?>
<svg xmlns="http://www.w3.org/2000/svg" xmlns:xlink="http://www.w3.org/1999/xlink" width="24pt" height="24pt" viewBox="0 0 24 24" version="1.1">
<g id="surface1">
<path style=" stroke:none;fill-rule:evenodd;fill:rgb(72.941176%,17.647059%,17.647059%);fill-opacity:1;" d="M 5.605469 1.421875 L 18.394531 1.421875 C 20.703125 1.421875 22.578125 3.296875 22.578125 5.605469 L 22.578125 18.394531 C 22.578125 20.703125 20.703125 22.578125 18.394531 22.578125 L 5.605469 22.578125 C 3.296875 22.578125 1.421875 20.703125 1.421875 18.394531 L 1.421875 5.605469 C 1.421875 3.296875 3.296875 1.421875 5.605469 1.421875 Z M 5.605469 1.421875 "/>
<path style=" stroke:none;fill-rule:nonzero;fill:rgb(51.764706%,51.764706%,51.764706%);fill-opacity:1;" d="M 8.902344 4.894531 L 9.632812 4.894531 C 10.035156 4.894531 10.359375 5.230469 10.359375 5.644531 L 10.359375 10.15625 C 10.359375 10.570312 10.035156 10.90625 9.632812 10.90625 L 8.902344 10.90625 C 8.5 10.90625 8.171875 10.570312 8.171875 10.15625 L 8.171875 5.644531 C 8.171875 5.230469 8.5 4.894531 8.902344 4.894531 Z M 8.902344 4.894531 "/>
<path style=" stroke:none;fill-rule:nonzero;fill:rgb(51.764706%,51.764706%,51.764706%);fill-opacity:1;" d="M 14.367188 4.894531 L 15.097656 4.894531 C 15.5 4.894531 15.828125 5.230469 15.828125 5.644531 L 15.828125 10.15625 C 15.828125 10.570312 15.5 10.90625 15.097656 10.90625 L 14.367188 10.90625 C 13.964844 10.90625 13.640625 10.570312 13.640625 10.15625 L 13.640625 5.644531 C 13.640625 5.230469 13.964844 4.894531 14.367188 4.894531 Z M 14.367188 4.894531 "/>
<path style=" stroke:none;fill-rule:nonzero;fill:rgb(100%,100%,100%);fill-opacity:1;" d="M 7.261719 10.359375 L 16.738281 10.359375 C 17.140625 10.359375 17.464844 10.6875 17.464844 11.089844 L 17.464844 18.378906 C 17.464844 18.78125 17.140625 19.105469 16.738281 19.105469 L 7.261719 19.105469 C 6.859375 19.105469 6.535156 18.78125 6.535156 18.378906 L 6.535156 11.089844 C 6.535156 10.6875 6.859375 10.359375 7.261719 10.359375 Z M 7.261719 10.359375 "/>
</g>
</svg>
