<?xml version="1.0" encoding="UTF-8"?>
<svg xmlns="http://www.w3.org/2000/svg" xmlns:xlink="http://www.w3.org/1999/xlink" width="24pt" height="24pt" viewBox="0 0 24 24" version="1.1">
<g id="surface1">
<path style=" stroke:none;fill-rule:evenodd;fill:rgb(23.921569%,39.607843%,76.078431%);fill-opacity:1;" d="M 6.40625 22.578125 L 18.394531 22.578125 C 20.710938 22.578125 22.578125 20.710938 22.578125 18.394531 L 22.578125 5.605469 C 22.578125 3.289062 20.710938 1.425781 18.394531 1.425781 L 6.40625 1.425781 Z M 6.40625 22.578125 "/>
<path style=" stroke:none;fill-rule:evenodd;fill:rgb(19.215686%,31.764706%,60.784314%);fill-opacity:1;" d="M 6.40625 22.578125 L 6.40625 1.425781 L 5.605469 1.425781 C 3.289062 1.425781 1.425781 3.289062 1.425781 5.605469 L 1.425781 18.394531 C 1.425781 20.710938 3.289062 22.578125 5.605469 22.578125 Z M 6.40625 22.578125 "/>
<path style=" stroke:none;fill-rule:nonzero;fill:rgb(100%,85.098039%,44.705882%);fill-opacity:1;" d="M 12.59375 4.222656 L 12.59375 5.070312 L 11.585938 5.070312 L 11.585938 7.054688 L 12.59375 7.054688 L 12.59375 7.738281 L 8.621094 7.738281 L 8.621094 9.824219 L 12.59375 9.824219 L 12.59375 13.390625 L 11.8125 13.046875 L 11.8125 15.359375 L 12.59375 15.703125 L 12.59375 20.796875 L 14.710938 20.796875 L 14.710938 16.632812 L 15.359375 16.921875 L 15.359375 14.609375 L 14.710938 14.324219 L 14.710938 9.824219 L 18.617188 9.824219 L 18.617188 7.738281 L 14.710938 7.738281 L 14.710938 7.054688 L 15.6875 7.054688 L 15.6875 5.070312 L 14.710938 5.070312 L 14.710938 4.222656 Z M 12.59375 4.222656 "/>
</g>
</svg>
