<?xml version="1.0" encoding="UTF-8"?>
<svg xmlns="http://www.w3.org/2000/svg" xmlns:xlink="http://www.w3.org/1999/xlink" width="24pt" height="24pt" viewBox="0 0 24 24" version="1.1">
<g id="surface1">
<path style=" stroke:none;fill-rule:evenodd;fill:rgb(27.058824%,70.588235%,27.058824%);fill-opacity:1;" d="M 1.421875 6.914062 L 1.421875 18.394531 C 1.421875 20.710938 3.289062 22.574219 5.605469 22.574219 L 18.394531 22.574219 C 20.710938 22.574219 22.578125 20.710938 22.578125 18.394531 L 22.578125 6.914062 Z M 1.421875 6.914062 "/>
<path style=" stroke:none;fill-rule:evenodd;fill:rgb(41.568627%,76.470588%,41.568627%);fill-opacity:1;" d="M 1.421875 6.914062 L 22.578125 6.914062 L 22.578125 5.605469 C 22.578125 3.289062 20.710938 1.421875 18.394531 1.421875 L 5.605469 1.421875 C 3.289062 1.421875 1.421875 3.289062 1.421875 5.605469 Z M 1.421875 6.914062 "/>
<path style=" stroke:none;fill-rule:evenodd;fill:rgb(100%,100%,100%);fill-opacity:1;" d="M 13.046875 14.851562 C 13.046875 15.570312 13.070312 16.164062 12.695312 16.800781 C 12.398438 17.320312 11.921875 17.636719 11.394531 17.636719 C 10.671875 17.636719 10.25 17.097656 10.25 16.304688 C 10.25 14.738281 11.6875 14.453125 13.050781 14.453125 L 13.050781 14.851562 M 14.949219 19.332031 C 14.824219 19.441406 14.644531 19.449219 14.503906 19.375 C 13.878906 18.871094 13.765625 18.632812 13.421875 18.148438 C 12.390625 19.179688 11.660156 19.488281 10.320312 19.488281 C 8.734375 19.488281 7.5 18.535156 7.5 16.625 C 7.5 15.132812 8.328125 14.117188 9.507812 13.617188 C 10.527344 13.179688 11.953125 13.101562 13.046875 12.980469 L 13.046875 12.742188 C 13.046875 12.304688 13.082031 11.789062 12.820312 11.410156 C 12.589844 11.074219 12.152344 10.933594 11.765625 10.933594 C 11.046875 10.933594 10.40625 11.292969 10.25 12.039062 C 10.214844 12.203125 10.09375 12.367188 9.921875 12.375 L 8.09375 12.183594 C 7.941406 12.148438 7.773438 12.027344 7.8125 11.796875 C 8.234375 9.640625 10.238281 8.988281 12.023438 8.988281 C 12.941406 8.988281 14.140625 9.226562 14.859375 9.902344 C 15.777344 10.738281 15.691406 11.851562 15.691406 13.0625 L 15.691406 15.925781 C 15.691406 16.789062 16.054688 17.164062 16.398438 17.632812 C 16.519531 17.796875 16.546875 17.996094 16.394531 18.121094 C 16.011719 18.4375 15.328125 19.015625 14.953125 19.339844 L 14.945312 19.332031 "/>
</g>
</svg>
