<?xml version="1.0" encoding="UTF-8"?>
<svg xmlns="http://www.w3.org/2000/svg" xmlns:xlink="http://www.w3.org/1999/xlink" width="24pt" height="24pt" viewBox="0 0 24 24" version="1.1">
<g id="surface1">
<path style=" stroke:none;fill-rule:evenodd;fill:rgb(78.039216%,29.019608%,70.588235%);fill-opacity:1;" d="M 5.605469 1.421875 L 18.394531 1.421875 C 20.703125 1.421875 22.578125 3.296875 22.578125 5.605469 L 22.578125 18.394531 C 22.578125 20.703125 20.703125 22.578125 18.394531 22.578125 L 5.605469 22.578125 C 3.296875 22.578125 1.421875 20.703125 1.421875 18.394531 L 1.421875 5.605469 C 1.421875 3.296875 3.296875 1.421875 5.605469 1.421875 Z M 5.605469 1.421875 "/>
<path style=" stroke:none;fill-rule:evenodd;fill:rgb(78.039216%,29.019608%,70.588235%);fill-opacity:1;" d="M 6.8125 22.578125 L 18.394531 22.578125 C 20.710938 22.578125 22.574219 20.710938 22.574219 18.394531 L 22.574219 5.605469 C 22.574219 3.289062 20.710938 1.421875 18.394531 1.421875 L 6.8125 1.421875 Z M 6.8125 22.578125 "/>
<path style=" stroke:none;fill-rule:evenodd;fill:rgb(62.352941%,23.137255%,56.470588%);fill-opacity:1;" d="M 6.8125 22.578125 L 6.8125 1.421875 L 5.605469 1.421875 C 3.289062 1.421875 1.421875 3.289062 1.421875 5.605469 L 1.421875 18.394531 C 1.421875 20.710938 3.289062 22.578125 5.605469 22.578125 Z M 6.8125 22.578125 "/>
<path style=" stroke:none;fill-rule:nonzero;fill:rgb(59.215686%,91.372549%,39.215686%);fill-opacity:1;" d="M 14.902344 1.421875 L 14.902344 11.921875 L 16.402344 10.421875 L 17.902344 11.921875 L 17.902344 1.421875 Z M 14.902344 1.421875 "/>
</g>
</svg>
