<?xml version="1.0" encoding="UTF-8"?>
<svg xmlns="http://www.w3.org/2000/svg" xmlns:xlink="http://www.w3.org/1999/xlink" width="24pt" height="24pt" viewBox="0 0 24 24" version="1.1">
<g id="surface1">
<path style=" stroke:none;fill-rule:evenodd;fill:rgb(12.54902%,58.431373%,94.901961%);fill-opacity:1;" d="M 5.605469 1.421875 L 18.394531 1.421875 C 20.703125 1.421875 22.578125 3.296875 22.578125 5.605469 L 22.578125 18.394531 C 22.578125 20.703125 20.703125 22.578125 18.394531 22.578125 L 5.605469 22.578125 C 3.296875 22.578125 1.421875 20.703125 1.421875 18.394531 L 1.421875 5.605469 C 1.421875 3.296875 3.296875 1.421875 5.605469 1.421875 Z M 5.605469 1.421875 "/>
<path style=" stroke:none;fill-rule:evenodd;fill:rgb(12.54902%,58.431373%,94.901961%);fill-opacity:1;" d="M 8.9375 1.425781 L 5.605469 1.425781 C 3.289062 1.425781 1.421875 3.289062 1.421875 5.605469 L 1.421875 18.394531 C 1.421875 20.710938 3.289062 22.574219 5.605469 22.574219 L 18.394531 22.574219 C 20.710938 22.574219 22.578125 20.710938 22.578125 18.394531 L 22.578125 13.070312 C 22.382812 13.191406 22.1875 13.304688 21.984375 13.410156 C 21.703125 13.554688 21.417969 13.683594 21.121094 13.796875 C 20.828125 13.910156 20.527344 14.011719 20.222656 14.097656 C 19.921875 14.179688 19.613281 14.25 19.304688 14.300781 C 18.992188 14.355469 18.679688 14.394531 18.363281 14.417969 C 18.140625 14.433594 17.917969 14.441406 17.695312 14.441406 C 17.378906 14.441406 17.066406 14.425781 16.75 14.394531 C 16.4375 14.363281 16.125 14.3125 15.816406 14.25 C 15.507812 14.1875 15.203125 14.109375 14.898438 14.015625 C 14.597656 13.925781 14.300781 13.816406 14.011719 13.691406 C 13.722656 13.570312 13.4375 13.433594 13.160156 13.28125 C 12.882812 13.128906 12.617188 12.964844 12.355469 12.789062 C 12.09375 12.609375 11.84375 12.417969 11.601562 12.21875 C 11.359375 12.011719 11.128906 11.796875 10.910156 11.574219 C 10.691406 11.347656 10.484375 11.109375 10.285156 10.863281 C 10.089844 10.613281 9.90625 10.359375 9.734375 10.09375 C 9.566406 9.828125 9.410156 9.554688 9.265625 9.273438 C 9.125 8.992188 8.996094 8.703125 8.878906 8.410156 C 8.765625 8.117188 8.667969 7.816406 8.582031 7.511719 C 8.496094 7.210938 8.429688 6.902344 8.375 6.589844 C 8.320312 6.28125 8.285156 5.964844 8.261719 5.652344 C 8.246094 5.429688 8.238281 5.207031 8.238281 4.980469 C 8.238281 4.667969 8.253906 4.351562 8.285156 4.039062 C 8.316406 3.726562 8.363281 3.414062 8.425781 3.105469 C 8.488281 2.792969 8.566406 2.488281 8.660156 2.1875 C 8.742188 1.929688 8.835938 1.675781 8.9375 1.425781 Z M 8.9375 1.425781 "/>
<path style=" stroke:none;fill-rule:evenodd;fill:rgb(30.196078%,66.666667%,96.078431%);fill-opacity:1;" d="M 8.9375 1.425781 C 8.835938 1.675781 8.742188 1.929688 8.660156 2.1875 C 8.566406 2.488281 8.488281 2.792969 8.425781 3.105469 C 8.363281 3.414062 8.316406 3.726562 8.285156 4.039062 C 8.253906 4.351562 8.238281 4.667969 8.238281 4.980469 C 8.238281 5.207031 8.246094 5.429688 8.261719 5.652344 C 8.285156 5.964844 8.320312 6.28125 8.375 6.589844 C 8.429688 6.902344 8.496094 7.210938 8.582031 7.511719 C 8.667969 7.816406 8.765625 8.117188 8.878906 8.410156 C 8.996094 8.703125 9.125 8.992188 9.265625 9.273438 C 9.410156 9.554688 9.566406 9.828125 9.734375 10.09375 C 9.90625 10.359375 10.089844 10.613281 10.285156 10.863281 C 10.484375 11.109375 10.691406 11.347656 10.910156 11.574219 C 11.128906 11.796875 11.359375 12.011719 11.601562 12.21875 C 11.84375 12.417969 12.09375 12.609375 12.355469 12.789062 C 12.617188 12.964844 12.882812 13.128906 13.160156 13.28125 C 13.4375 13.433594 13.722656 13.570312 14.011719 13.691406 C 14.300781 13.816406 14.597656 13.925781 14.898438 14.015625 C 15.203125 14.109375 15.507812 14.1875 15.816406 14.25 C 16.125 14.3125 16.4375 14.363281 16.75 14.394531 C 17.066406 14.425781 17.378906 14.441406 17.695312 14.441406 C 17.917969 14.441406 18.140625 14.433594 18.363281 14.417969 C 18.679688 14.394531 18.992188 14.355469 19.304688 14.300781 C 19.613281 14.25 19.921875 14.179688 20.222656 14.097656 C 20.527344 14.011719 20.828125 13.910156 21.121094 13.796875 C 21.417969 13.683594 21.703125 13.554688 21.984375 13.410156 C 22.1875 13.304688 22.382812 13.191406 22.578125 13.070312 L 22.578125 5.605469 C 22.578125 3.289062 20.710938 1.425781 18.394531 1.425781 Z M 8.9375 1.425781 "/>
<path style=" stroke:none;fill-rule:nonzero;fill:rgb(100%,100%,100%);fill-opacity:1;" d="M 10.925781 4.5 C 10.632812 4.5 10.394531 4.757812 10.394531 5.078125 L 10.394531 14.308594 L 8.25 14.308594 L 12 19.5 L 15.75 14.308594 L 13.605469 14.308594 L 13.605469 5.078125 C 13.605469 4.757812 13.367188 4.5 13.070312 4.5 Z M 10.925781 4.5 "/>
</g>
</svg>
