<?xml version="1.0" encoding="UTF-8"?>
<svg xmlns="http://www.w3.org/2000/svg" xmlns:xlink="http://www.w3.org/1999/xlink" width="24pt" height="24pt" viewBox="0 0 24 24" version="1.1">
<g id="surface1">
<path style=" stroke:none;fill-rule:evenodd;fill:rgb(94.509804%,79.215686%,25.882353%);fill-opacity:1;" d="M 5.605469 1.421875 L 18.394531 1.421875 C 20.703125 1.421875 22.578125 3.296875 22.578125 5.605469 L 22.578125 18.394531 C 22.578125 20.703125 20.703125 22.578125 18.394531 22.578125 L 5.605469 22.578125 C 3.296875 22.578125 1.421875 20.703125 1.421875 18.394531 L 1.421875 5.605469 C 1.421875 3.296875 3.296875 1.421875 5.605469 1.421875 Z M 5.605469 1.421875 "/>
<path style=" stroke:none;fill-rule:nonzero;fill:rgb(41.176471%,40.784314%,32.54902%);fill-opacity:1;" d="M 12 3.046875 C 11.53125 3.046875 11.0625 3.222656 10.710938 3.574219 L 3.574219 10.710938 C 2.871094 11.414062 2.875 12.585938 3.574219 13.289062 L 10.710938 20.425781 C 11.414062 21.125 12.585938 21.128906 13.289062 20.425781 L 20.425781 13.289062 C 21.128906 12.585938 21.128906 11.414062 20.425781 10.710938 L 13.289062 3.574219 C 12.9375 3.222656 12.46875 3.046875 12 3.046875 Z M 12 3.046875 "/>
<path style=" stroke:none;fill-rule:nonzero;fill:rgb(24.705882%,65.490196%,88.627451%);fill-opacity:1;" d="M 12 4.839844 C 11.84375 4.839844 11.6875 4.898438 11.570312 5.011719 L 9.191406 7.394531 C 8.957031 7.625 8.957031 8.019531 9.191406 8.25 L 11.570312 10.632812 C 11.804688 10.863281 12.195312 10.863281 12.429688 10.632812 L 14.808594 8.25 C 15.042969 8.019531 15.042969 7.625 14.808594 7.394531 L 12.429688 5.011719 C 12.3125 4.898438 12.15625 4.839844 12 4.839844 Z M 12 4.839844 "/>
<path style=" stroke:none;fill-rule:nonzero;fill:rgb(24.705882%,24.705882%,24.705882%);fill-opacity:1;" d="M 12 13.195312 C 11.84375 13.195312 11.6875 13.25 11.570312 13.367188 L 9.191406 15.75 C 8.957031 15.980469 8.957031 16.371094 9.191406 16.605469 L 11.570312 18.984375 C 11.804688 19.21875 12.195312 19.21875 12.429688 18.988281 L 14.808594 16.605469 C 15.042969 16.375 15.042969 15.980469 14.808594 15.75 L 12.429688 13.367188 C 12.3125 13.25 12.15625 13.195312 12 13.195312 Z M 12 13.195312 "/>
<path style=" stroke:none;fill-rule:nonzero;fill:rgb(94.509804%,79.215686%,25.882353%);fill-opacity:1;" d="M 19.160156 12 C 19.160156 11.84375 19.101562 11.6875 18.988281 11.570312 L 16.605469 9.191406 C 16.375 8.957031 15.980469 8.957031 15.75 9.191406 L 13.367188 11.570312 C 13.136719 11.804688 13.136719 12.195312 13.367188 12.429688 L 15.75 14.808594 C 15.980469 15.042969 16.375 15.042969 16.605469 14.808594 L 18.988281 12.429688 C 19.101562 12.3125 19.160156 12.15625 19.160156 12 Z M 19.160156 12 "/>
<path style=" stroke:none;fill-rule:nonzero;fill:rgb(91.764706%,44.705882%,73.333333%);fill-opacity:1;" d="M 10.804688 12 C 10.804688 11.84375 10.75 11.6875 10.632812 11.570312 L 8.25 9.191406 C 8.019531 8.957031 7.628906 8.957031 7.394531 9.191406 L 5.015625 11.570312 C 4.78125 11.804688 4.78125 12.195312 5.011719 12.429688 L 7.394531 14.808594 C 7.625 15.042969 8.019531 15.042969 8.25 14.808594 L 10.632812 12.429688 C 10.75 12.3125 10.804688 12.15625 10.804688 12 Z M 10.804688 12 "/>
</g>
</svg>
