<?xml version="1.0" encoding="UTF-8"?>
<svg xmlns="http://www.w3.org/2000/svg" xmlns:xlink="http://www.w3.org/1999/xlink" width="24pt" height="24pt" viewBox="0 0 24 24" version="1.1">
<g id="surface1">
<path style=" stroke:none;fill-rule:evenodd;fill:rgb(51.372549%,26.27451%,40%);fill-opacity:1;" d="M 5.605469 1.421875 L 18.394531 1.421875 C 20.703125 1.421875 22.578125 3.296875 22.578125 5.605469 L 22.578125 18.394531 C 22.578125 20.703125 20.703125 22.578125 18.394531 22.578125 L 5.605469 22.578125 C 3.296875 22.578125 1.421875 20.703125 1.421875 18.394531 L 1.421875 5.605469 C 1.421875 3.296875 3.296875 1.421875 5.605469 1.421875 Z M 5.605469 1.421875 "/>
<path style=" stroke:none;fill-rule:evenodd;fill:rgb(51.372549%,26.27451%,40%);fill-opacity:1;" d="M 5.605469 1.425781 C 3.289062 1.425781 1.421875 3.289062 1.421875 5.605469 L 1.421875 9.605469 C 1.585938 9.761719 1.757812 9.890625 1.90625 10.109375 C 2.140625 10.457031 2.375 10.859375 2.671875 11.246094 C 3.050781 11.726562 3.539062 11.972656 3.949219 12.289062 C 4.152344 12.445312 4.335938 12.621094 4.476562 12.847656 C 4.613281 13.074219 4.710938 13.355469 4.738281 13.726562 C 4.789062 14.429688 4.898438 15.070312 5.144531 15.578125 C 5.214844 15.722656 5.324219 15.824219 5.414062 15.941406 L 22.574219 15.941406 L 22.574219 5.605469 C 22.574219 3.289062 20.710938 1.425781 18.394531 1.425781 Z M 5.605469 1.425781 "/>
<path style=" stroke:none;fill-rule:nonzero;fill:rgb(100%,52.941176%,63.921569%);fill-opacity:1;" d="M 16.074219 14.640625 C 16.074219 18.160156 13.222656 21.015625 9.699219 21.015625 C 6.179688 21.015625 3.324219 18.160156 3.324219 14.640625 C 3.324219 11.121094 6.179688 8.265625 9.699219 8.265625 C 13.222656 8.265625 16.074219 11.121094 16.074219 14.640625 Z M 16.074219 14.640625 "/>
<path style=" stroke:none;fill-rule:evenodd;fill:rgb(85.882353%,29.411765%,45.098039%);fill-opacity:1;" d="M 22.574219 15.941406 L 5.414062 15.941406 C 5.488281 16.035156 5.539062 16.152344 5.628906 16.226562 C 5.832031 16.402344 6.078125 16.535156 6.378906 16.613281 C 7.09375 16.796875 7.882812 17.261719 8.613281 17.910156 C 9.347656 18.558594 10.019531 19.394531 10.5 20.320312 C 10.804688 20.90625 11.242188 21.292969 11.742188 21.542969 C 12.246094 21.796875 12.8125 21.910156 13.378906 21.949219 C 14.511719 22.035156 15.648438 21.824219 16.273438 21.824219 C 18.496094 21.824219 19.527344 21.867188 20.636719 21.917969 C 21.613281 21.355469 22.574219 20.070312 22.574219 18.394531 Z M 22.574219 15.941406 "/>
<path style=" stroke:none;fill-rule:evenodd;fill:rgb(22.745098%,18.039216%,19.215686%);fill-opacity:1;" d="M 20.636719 21.917969 C 19.527344 21.867188 18.496094 21.824219 16.273438 21.824219 C 15.648438 21.824219 14.511719 22.035156 13.378906 21.949219 C 12.8125 21.910156 12.246094 21.796875 11.742188 21.542969 C 11.242188 21.292969 10.804688 20.90625 10.5 20.320312 C 10.019531 19.394531 9.347656 18.558594 8.613281 17.910156 C 7.882812 17.261719 7.09375 16.796875 6.378906 16.613281 C 6.078125 16.535156 5.832031 16.402344 5.628906 16.226562 C 5.425781 16.050781 5.269531 15.832031 5.144531 15.578125 C 4.898438 15.070312 4.789062 14.429688 4.738281 13.726562 C 4.710938 13.355469 4.613281 13.074219 4.476562 12.847656 C 4.335938 12.621094 4.152344 12.445312 3.949219 12.289062 C 3.539062 11.972656 3.050781 11.726562 2.671875 11.246094 C 2.375 10.859375 2.140625 10.457031 1.90625 10.109375 C 1.757812 9.890625 1.585938 9.761719 1.421875 9.605469 L 1.421875 18.394531 C 1.421875 20.710938 3.289062 22.574219 5.605469 22.574219 L 18.394531 22.574219 C 19.195312 22.574219 20.132812 22.285156 20.636719 21.917969 Z M 20.636719 21.917969 "/>
</g>
</svg>
