<?xml version="1.0" encoding="UTF-8"?>
<svg xmlns="http://www.w3.org/2000/svg" xmlns:xlink="http://www.w3.org/1999/xlink" width="24pt" height="24pt" viewBox="0 0 24 24" version="1.1">
<defs>
<clipPath id="clip1">
  <rect width="24" height="24"/>
</clipPath>
<g id="surface6" clip-path="url(#clip1)">
<path style=" stroke:none;fill-rule:nonzero;fill:rgb(100%,100%,100%);fill-opacity:1;" d="M 10.535156 5.070312 C 10.382812 5.089844 10.25 5.210938 10.222656 5.363281 L 9.921875 6.894531 C 9.378906 7.105469 8.867188 7.398438 8.421875 7.753906 L 6.933594 7.25 C 6.78125 7.199219 6.59375 7.265625 6.511719 7.410156 L 5.078125 9.890625 C 4.996094 10.035156 5.03125 10.230469 5.15625 10.339844 L 6.34375 11.378906 C 6.300781 11.65625 6.273438 11.9375 6.273438 12.226562 C 6.273438 12.519531 6.300781 12.796875 6.34375 13.078125 L 5.15625 14.117188 C 5.03125 14.222656 4.996094 14.421875 5.078125 14.566406 L 6.511719 17.046875 C 6.59375 17.1875 6.78125 17.257812 6.933594 17.203125 L 8.421875 16.699219 C 8.867188 17.058594 9.378906 17.347656 9.921875 17.5625 L 10.222656 19.09375 C 10.253906 19.253906 10.40625 19.382812 10.570312 19.382812 L 13.429688 19.382812 C 13.59375 19.382812 13.746094 19.253906 13.777344 19.09375 L 14.078125 17.5625 C 14.621094 17.347656 15.132812 17.058594 15.578125 16.699219 L 17.066406 17.203125 C 17.21875 17.257812 17.40625 17.1875 17.488281 17.046875 L 18.921875 14.566406 C 19.003906 14.421875 18.96875 14.222656 18.84375 14.117188 L 17.65625 13.078125 C 17.699219 12.796875 17.726562 12.519531 17.726562 12.226562 C 17.726562 11.9375 17.699219 11.65625 17.65625 11.378906 L 18.84375 10.339844 C 18.96875 10.230469 19.003906 10.035156 18.921875 9.890625 L 17.488281 7.410156 C 17.40625 7.269531 17.21875 7.199219 17.066406 7.25 L 15.578125 7.753906 C 15.128906 7.398438 14.621094 7.105469 14.078125 6.894531 L 13.777344 5.363281 C 13.746094 5.203125 13.59375 5.074219 13.429688 5.070312 L 10.570312 5.070312 C 10.558594 5.070312 10.546875 5.070312 10.535156 5.070312 Z M 10.535156 5.070312 "/>
</g>
<clipPath id="clip2">
  <rect width="24" height="24"/>
</clipPath>
<g id="surface9" clip-path="url(#clip2)">
<path style=" stroke:none;fill-rule:nonzero;fill:rgb(37.254902%,48.627451%,54.117647%);fill-opacity:1;" d="M 12 9.160156 C 13.695312 9.160156 15.066406 10.535156 15.066406 12.226562 C 15.066406 13.921875 13.695312 15.292969 12 15.292969 C 10.304688 15.292969 8.933594 13.921875 8.933594 12.226562 C 8.933594 10.535156 10.304688 9.160156 12 9.160156 Z M 12 9.160156 "/>
</g>
</defs>
<g id="surface1">
<path style=" stroke:none;fill-rule:evenodd;fill:rgb(37.254902%,48.627451%,54.117647%);fill-opacity:1;" d="M 5.605469 1.421875 L 18.394531 1.421875 C 20.703125 1.421875 22.578125 3.296875 22.578125 5.605469 L 22.578125 18.394531 C 22.578125 20.703125 20.703125 22.578125 18.394531 22.578125 L 5.605469 22.578125 C 3.296875 22.578125 1.421875 20.703125 1.421875 18.394531 L 1.421875 5.605469 C 1.421875 3.296875 3.296875 1.421875 5.605469 1.421875 Z M 5.605469 1.421875 "/>
<use xlink:href="#surface6"/>
<use xlink:href="#surface9"/>
<path style=" stroke:none;fill-rule:nonzero;fill:rgb(94.901961%,94.901961%,94.901961%);fill-opacity:1;" d="M 15.578125 16.699219 L 17.941406 12.695312 C 18.683594 12.253906 20.058594 12.519531 20.050781 13.910156 L 17.699219 18 L 15.679688 19.035156 Z M 15.578125 16.699219 "/>
<path style=" stroke:none;fill-rule:nonzero;fill:rgb(18.823529%,1.960784%,1.176471%);fill-opacity:1;" d="M 15.644531 18.253906 L 15.679688 19.035156 L 16.378906 18.675781 Z M 15.644531 18.253906 "/>
<path style=" stroke:none;fill-rule:nonzero;fill:rgb(80%,80%,80%);fill-opacity:1;" d="M 17.058594 17.5625 L 16.210938 18.578125 L 16.375 18.675781 L 17.699219 18 L 17.726562 17.953125 Z M 17.058594 17.5625 "/>
<path style=" stroke:none;fill-rule:nonzero;fill:rgb(3.921569%,72.156863%,51.764706%);fill-opacity:1;" d="M 19.769531 14.398438 L 17.65625 13.179688 L 15.578125 16.699219 L 17.726562 17.953125 Z M 19.769531 14.398438 "/>
<path style=" stroke:none;fill-rule:nonzero;fill:rgb(89.019608%,88.627451%,85.882353%);fill-opacity:1;" d="M 20.046875 13.90625 L 17.945312 12.695312 C 17.945312 12.695312 17.941406 12.695312 17.941406 12.695312 L 17.65625 13.179688 L 19.769531 14.398438 L 20.050781 13.910156 C 20.050781 13.910156 20.046875 13.910156 20.046875 13.90625 Z M 20.046875 13.90625 "/>
<path style=" stroke:none;fill-rule:nonzero;fill:rgb(94.901961%,94.901961%,94.901961%);fill-opacity:1;" d="M 18.585938 12.503906 C 18.351562 12.519531 18.128906 12.585938 17.945312 12.695312 L 20.046875 13.90625 C 20.054688 12.867188 19.285156 12.457031 18.585938 12.503906 Z M 18.585938 12.503906 "/>
<path style=" stroke:none;fill-rule:nonzero;fill:rgb(0%,49.019608%,40.784314%);fill-opacity:1;" d="M 19.078125 14 L 17.058594 17.5625 L 17.726562 17.953125 L 19.769531 14.398438 Z M 19.078125 14 "/>
<path style=" stroke:none;fill-rule:nonzero;fill:rgb(3.921569%,72.156863%,51.764706%);fill-opacity:1;" d="M 18.3125 13.558594 L 16.265625 17.101562 L 17.058594 17.5625 L 19.078125 14 Z M 18.3125 13.558594 "/>
<path style=" stroke:none;fill-rule:nonzero;fill:rgb(80%,80%,80%);fill-opacity:1;" d="M 18.21875 13.503906 L 16.171875 17.046875 L 16.265625 17.101562 L 18.3125 13.558594 Z M 18.21875 13.503906 "/>
</g>
</svg>
