<?xml version="1.0" encoding="UTF-8"?>
<svg xmlns="http://www.w3.org/2000/svg" xmlns:xlink="http://www.w3.org/1999/xlink" width="24pt" height="24pt" viewBox="0 0 24 24" version="1.1">
<defs>
<filter id="alpha" filterUnits="objectBoundingBox" x="0%" y="0%" width="100%" height="100%">
  <feColorMatrix type="matrix" in="SourceGraphic" values="0 0 0 0 1 0 0 0 0 1 0 0 0 0 1 0 0 0 1 0"/>
</filter>
<mask id="mask0">
  <g filter="url(#alpha)">
<rect x="0" y="0" width="24" height="24" style="fill:rgb(0%,0%,0%);fill-opacity:0.501961;stroke:none;"/>
  </g>
</mask>
<clipPath id="clip1">
  <rect width="24" height="24"/>
</clipPath>
<g id="surface6" clip-path="url(#clip1)">
<path style=" stroke:none;fill-rule:nonzero;fill:rgb(50.196078%,50.196078%,50.196078%);fill-opacity:1;" d="M 12 11.792969 C 10.964844 11.792969 10.125 12.632812 10.125 13.667969 C 10.125 14.707031 10.964844 15.542969 12 15.542969 C 13.035156 15.542969 13.875 14.707031 13.875 13.667969 C 13.875 12.632812 13.035156 11.792969 12 11.792969 Z M 12 16.292969 C 8.625 16.296875 8.625 18.695312 8.625 18.695312 L 8.625 19.292969 L 15.375 19.292969 L 15.375 18.695312 C 15.375 18.695312 15.375 16.292969 12 16.292969 Z M 12 16.292969 "/>
</g>
</defs>
<g id="surface1">
<path style=" stroke:none;fill-rule:evenodd;fill:rgb(97.647059%,97.647059%,97.647059%);fill-opacity:1;" d="M 22.574219 16.585938 C 22.359375 16.066406 22.058594 15.585938 21.679688 15.175781 C 21.289062 14.757812 20.820312 14.402344 20.296875 14.136719 C 19.773438 13.875 19.195312 13.695312 18.582031 13.628906 C 18.421875 12.847656 18.125 12.113281 17.714844 11.449219 C 17.304688 10.789062 16.78125 10.199219 16.171875 9.707031 C 15.5625 9.214844 14.871094 8.820312 14.113281 8.550781 C 13.355469 8.277344 12.535156 8.132812 11.683594 8.132812 C 10.957031 8.132812 10.253906 8.238281 9.597656 8.441406 C 8.9375 8.640625 8.320312 8.933594 7.761719 9.300781 C 7.203125 9.671875 6.703125 10.117188 6.273438 10.621094 C 5.847656 11.128906 5.492188 11.695312 5.222656 12.308594 C 4.546875 12.40625 3.910156 12.621094 3.332031 12.925781 C 2.757812 13.234375 2.242188 13.636719 1.8125 14.113281 C 1.648438 14.292969 1.5625 14.535156 1.425781 14.734375 L 1.425781 18.394531 C 1.425781 20.710938 3.289062 22.574219 5.605469 22.574219 L 18.394531 22.574219 C 20.710938 22.574219 22.574219 20.710938 22.574219 18.394531 Z M 22.574219 16.585938 "/>
<path style=" stroke:none;fill-rule:evenodd;fill:rgb(13.72549%,80.392157%,100%);fill-opacity:1;" d="M 5.605469 1.425781 C 3.289062 1.425781 1.425781 3.289062 1.425781 5.605469 L 1.425781 14.734375 C 1.5625 14.535156 1.648438 14.292969 1.8125 14.113281 C 2.242188 13.636719 2.757812 13.234375 3.332031 12.925781 C 3.910156 12.621094 4.546875 12.40625 5.222656 12.308594 C 5.492188 11.695312 5.847656 11.128906 6.273438 10.621094 C 6.703125 10.117188 7.203125 9.671875 7.761719 9.300781 C 8.320312 8.933594 8.9375 8.640625 9.597656 8.441406 C 10.253906 8.238281 10.957031 8.132812 11.683594 8.132812 C 12.535156 8.132812 13.355469 8.277344 14.113281 8.550781 C 14.871094 8.820312 15.5625 9.214844 16.171875 9.707031 C 16.78125 10.199219 17.304688 10.789062 17.714844 11.449219 C 18.125 12.113281 18.421875 12.847656 18.582031 13.628906 C 19.195312 13.695312 19.773438 13.875 20.296875 14.136719 C 20.820312 14.402344 21.289062 14.757812 21.679688 15.175781 C 22.058594 15.585938 22.359375 16.066406 22.574219 16.585938 L 22.574219 5.605469 C 22.574219 3.289062 20.710938 1.425781 18.394531 1.425781 Z M 5.605469 1.425781 "/>
<use xlink:href="#surface6" mask="url(#mask0)"/>
</g>
</svg>
