<?xml version="1.0" encoding="UTF-8"?>
<svg xmlns="http://www.w3.org/2000/svg" xmlns:xlink="http://www.w3.org/1999/xlink" width="24pt" height="24pt" viewBox="0 0 24 24" version="1.1">
<g id="surface1">
<path style=" stroke:none;fill-rule:evenodd;fill:rgb(30.980392%,30.980392%,30.980392%);fill-opacity:1;" d="M 5.605469 1.421875 L 18.394531 1.421875 C 20.703125 1.421875 22.578125 3.296875 22.578125 5.605469 L 22.578125 18.394531 C 22.578125 20.703125 20.703125 22.578125 18.394531 22.578125 L 5.605469 22.578125 C 3.296875 22.578125 1.421875 20.703125 1.421875 18.394531 L 1.421875 5.605469 C 1.421875 3.296875 3.296875 1.421875 5.605469 1.421875 Z M 5.605469 1.421875 "/>
<path style=" stroke:none;fill-rule:nonzero;fill:rgb(47.45098%,80.784314%,14.117647%);fill-opacity:1;" d="M 6.871094 4.25 C 6.527344 4.242188 6.199219 4.367188 5.953125 4.59375 C 5.707031 4.824219 5.570312 5.136719 5.570312 5.464844 L 5.570312 18.535156 C 5.570312 18.96875 5.8125 19.371094 6.207031 19.589844 C 6.601562 19.804688 7.085938 19.804688 7.480469 19.589844 L 13.402344 16.320312 L 19.324219 13.054688 C 19.71875 12.835938 19.960938 12.433594 19.960938 12 C 19.960938 11.566406 19.71875 11.164062 19.324219 10.945312 L 13.402344 7.679688 L 7.480469 4.410156 C 7.292969 4.308594 7.085938 4.253906 6.871094 4.25 Z M 8.339844 7.570312 L 14.980469 12 L 8.339844 16.429688 L 8.339844 15.320312 L 13.320312 12 L 10.828125 10.339844 L 8.339844 12 Z M 8.339844 7.570312 "/>
</g>
</svg>
