<?xml version="1.0" encoding="UTF-8"?>
<svg xmlns="http://www.w3.org/2000/svg" xmlns:xlink="http://www.w3.org/1999/xlink" width="24pt" height="24pt" viewBox="0 0 24 24" version="1.1">
<g id="surface1">
<path style=" stroke:none;fill-rule:evenodd;fill:rgb(100%,100%,100%);fill-opacity:1;" d="M 5.605469 1.421875 L 18.394531 1.421875 C 20.703125 1.421875 22.578125 3.296875 22.578125 5.605469 L 22.578125 18.394531 C 22.578125 20.703125 20.703125 22.578125 18.394531 22.578125 L 5.605469 22.578125 C 3.296875 22.578125 1.421875 20.703125 1.421875 18.394531 L 1.421875 5.605469 C 1.421875 3.296875 3.296875 1.421875 5.605469 1.421875 Z M 5.605469 1.421875 "/>
<path style=" stroke:none;fill-rule:evenodd;fill:rgb(24.313725%,31.372549%,70.588235%);fill-opacity:1;" d="M 2.109375 3.4375 L 21.960938 20.453125 C 22.316406 19.835938 22.574219 19.160156 22.574219 18.394531 L 22.574219 5.605469 C 22.574219 3.289062 20.710938 1.421875 18.394531 1.421875 L 5.605469 1.421875 C 4.101562 1.421875 2.847656 2.253906 2.109375 3.4375 Z M 11.566406 5.601562 L 20.117188 5.601562 L 20.117188 12.933594 Z M 11.566406 5.601562 "/>
<path style=" stroke:none;fill-rule:evenodd;fill:rgb(0.784314%,65.882353%,95.294118%);fill-opacity:1;" d="M 21.960938 20.453125 L 2.109375 3.4375 C 1.714844 4.078125 1.421875 4.792969 1.421875 5.605469 L 1.421875 18.394531 C 1.421875 20.710938 3.289062 22.578125 5.605469 22.578125 L 18.394531 22.578125 C 19.945312 22.578125 21.238281 21.703125 21.960938 20.453125 Z M 3.882812 10.898438 L 12.433594 18.226562 L 3.882812 18.226562 Z M 3.882812 10.898438 "/>
</g>
</svg>
