<?xml version="1.0" encoding="UTF-8"?>
<svg xmlns="http://www.w3.org/2000/svg" xmlns:xlink="http://www.w3.org/1999/xlink" width="24pt" height="24pt" viewBox="0 0 24 24" version="1.1">
<g id="surface1">
<path style=" stroke:none;fill-rule:evenodd;fill:rgb(55.686275%,55.686275%,55.686275%);fill-opacity:1;" d="M 5.605469 1.425781 C 3.289062 1.425781 1.425781 3.289062 1.425781 5.605469 L 1.425781 12.292969 L 22.578125 12.292969 L 22.578125 5.605469 C 22.578125 3.289062 20.710938 1.425781 18.394531 1.425781 Z M 5.605469 1.425781 "/>
<path style=" stroke:none;fill-rule:nonzero;fill:rgb(90.196078%,90.196078%,90.196078%);fill-opacity:1;" d="M 5.332031 5.097656 L 18.671875 5.097656 L 18.671875 13.089844 L 5.332031 13.089844 Z M 5.332031 5.097656 "/>
<path style=" stroke:none;fill-rule:nonzero;fill:rgb(50.196078%,50.196078%,50.196078%);fill-opacity:1;" d="M 6.664062 8.292969 L 10 8.292969 L 10 10.691406 L 6.664062 10.691406 Z M 6.664062 8.292969 "/>
<path style=" stroke:none;fill-rule:nonzero;fill:rgb(50.196078%,50.196078%,50.196078%);fill-opacity:1;" d="M 14.003906 8.292969 L 17.339844 8.292969 L 17.339844 10.691406 L 14.003906 10.691406 Z M 14.003906 8.292969 "/>
<path style=" stroke:none;fill-rule:evenodd;fill:rgb(31.372549%,33.72549%,52.54902%);fill-opacity:1;" d="M 22.578125 12.292969 L 1.425781 12.292969 L 1.425781 18.394531 C 1.425781 20.710938 3.289062 22.574219 5.605469 22.574219 L 18.394531 22.574219 C 20.710938 22.578125 22.578125 20.710938 22.578125 18.394531 Z M 22.578125 12.292969 "/>
<path style=" stroke:none;fill-rule:nonzero;fill:rgb(50.196078%,50.196078%,50.196078%);fill-opacity:1;" d="M 6.40625 15.488281 L 17.597656 15.488281 C 18.039062 15.488281 18.394531 15.847656 18.394531 16.289062 C 18.394531 16.730469 18.039062 17.085938 17.597656 17.085938 L 6.40625 17.085938 C 5.964844 17.085938 5.609375 16.730469 5.609375 16.289062 C 5.609375 15.847656 5.964844 15.488281 6.40625 15.488281 Z M 6.40625 15.488281 "/>
<path style=" stroke:none;fill-rule:nonzero;fill:rgb(50.196078%,50.196078%,50.196078%);fill-opacity:1;" d="M 8.003906 18.6875 L 16 18.6875 C 16.441406 18.6875 16.796875 19.042969 16.796875 19.484375 C 16.796875 19.925781 16.441406 20.285156 16 20.285156 L 8.003906 20.285156 C 7.5625 20.285156 7.207031 19.925781 7.207031 19.484375 C 7.207031 19.042969 7.5625 18.6875 8.003906 18.6875 Z M 8.003906 18.6875 "/>
</g>
</svg>
