<?xml version="1.0" encoding="UTF-8"?>
<svg xmlns="http://www.w3.org/2000/svg" xmlns:xlink="http://www.w3.org/1999/xlink" width="24pt" height="24pt" viewBox="0 0 24 24" version="1.1">
<g id="surface1">
<path style=" stroke:none;fill-rule:evenodd;fill:rgb(45.490196%,69.803922%,92.941176%);fill-opacity:1;" d="M 5.605469 1.421875 L 18.394531 1.421875 C 20.703125 1.421875 22.578125 3.296875 22.578125 5.605469 L 22.578125 18.394531 C 22.578125 20.703125 20.703125 22.578125 18.394531 22.578125 L 5.605469 22.578125 C 3.296875 22.578125 1.421875 20.703125 1.421875 18.394531 L 1.421875 5.605469 C 1.421875 3.296875 3.296875 1.421875 5.605469 1.421875 Z M 5.605469 1.421875 "/>
<path style=" stroke:none;fill-rule:nonzero;fill:rgb(21.568627%,52.156863%,94.901961%);fill-opacity:1;" d="M 16.625 15.445312 L 15.351562 15.972656 L 12 13.917969 L 8.667969 15.800781 L 7.375 15.617188 L 7.375 17.414062 L 12 20.273438 L 16.625 17.414062 Z M 16.625 15.445312 "/>
<path style=" stroke:none;fill-rule:nonzero;fill:rgb(9.019608%,44.705882%,92.941176%);fill-opacity:1;" d="M 12 13.917969 L 12 20.277344 L 16.625 17.386719 L 16.625 15.652344 L 15.300781 16.375 Z M 12 13.917969 "/>
<path style=" stroke:none;fill-rule:nonzero;fill:rgb(100%,100%,100%);fill-opacity:1;" d="M 7.085938 11.027344 L 12 8.140625 L 8.53125 5.25 L 3.910156 8.429688 Z M 7.085938 11.027344 "/>
<path style=" stroke:none;fill-rule:nonzero;fill:rgb(100%,100%,100%);fill-opacity:1;" d="M 12 13.917969 L 7.085938 11.027344 L 3.910156 13.628906 L 8.53125 16.808594 Z M 12 13.917969 "/>
<path style=" stroke:none;fill-rule:nonzero;fill:rgb(100%,100%,100%);fill-opacity:1;" d="M 20.089844 13.628906 L 16.914062 11.027344 L 12 13.917969 L 15.46875 16.710938 Z M 20.089844 13.628906 "/>
<path style=" stroke:none;fill-rule:nonzero;fill:rgb(100%,100%,100%);fill-opacity:1;" d="M 12 8.140625 L 16.914062 11.027344 L 20.089844 8.429688 L 15.46875 5.25 Z M 12 8.140625 "/>
<path style=" stroke:none;fill-rule:nonzero;fill:rgb(42.745098%,69.803922%,90.980392%);fill-opacity:1;" d="M 16.914062 11.027344 L 12 13.917969 L 7.085938 11.027344 L 12 8.140625 Z M 16.914062 11.027344 "/>
<path style=" stroke:none;fill-rule:nonzero;fill:rgb(40.784314%,66.666667%,86.666667%);fill-opacity:1;" d="M 7.085938 11.027344 L 12 13.917969 L 12 8.140625 Z M 7.085938 11.027344 "/>
</g>
</svg>
