<?xml version="1.0" encoding="UTF-8"?>
<svg xmlns="http://www.w3.org/2000/svg" xmlns:xlink="http://www.w3.org/1999/xlink" width="24pt" height="24pt" viewBox="0 0 24 24" version="1.1">
<g id="surface1">
<path style=" stroke:none;fill-rule:evenodd;fill:rgb(69.019608%,90.980392%,98.431373%);fill-opacity:1;" d="M 5.605469 1.421875 L 18.394531 1.421875 C 20.703125 1.421875 22.578125 3.296875 22.578125 5.605469 L 22.578125 18.394531 C 22.578125 20.703125 20.703125 22.578125 18.394531 22.578125 L 5.605469 22.578125 C 3.296875 22.578125 1.421875 20.703125 1.421875 18.394531 L 1.421875 5.605469 C 1.421875 3.296875 3.296875 1.421875 5.605469 1.421875 Z M 5.605469 1.421875 "/>
<path style=" stroke:none;fill-rule:nonzero;fill:rgb(34.901961%,66.666667%,80%);fill-opacity:1;" d="M 7.5 10.875 C 7.5 12.117188 6.492188 13.125 5.25 13.125 C 4.007812 13.125 3 12.117188 3 10.875 C 3 9.632812 4.007812 8.625 5.25 8.625 C 6.492188 8.625 7.5 9.632812 7.5 10.875 Z M 7.5 10.875 "/>
<path style=" stroke:none;fill-rule:nonzero;fill:rgb(34.901961%,66.666667%,80%);fill-opacity:1;" d="M 21 10.875 C 21 12.117188 19.992188 13.125 18.75 13.125 C 17.507812 13.125 16.5 12.117188 16.5 10.875 C 16.5 9.632812 17.507812 8.625 18.75 8.625 C 19.992188 8.625 21 9.632812 21 10.875 Z M 21 10.875 "/>
<path style=" stroke:none;fill-rule:nonzero;fill:rgb(34.901961%,66.666667%,80%);fill-opacity:1;" d="M 15.9375 13.566406 C 15.9375 14.566406 14.175781 15.375 12 15.375 C 9.824219 15.375 8.0625 14.566406 8.0625 13.570312 C 8.0625 12.570312 9.824219 13.570312 12 13.570312 C 14.175781 13.570312 15.9375 12.570312 15.9375 13.570312 Z M 15.9375 13.566406 "/>
<path style=" stroke:none;fill-rule:nonzero;fill:rgb(100%,100%,100%);fill-opacity:1;" d="M 6.9375 10.3125 C 6.9375 10.625 6.6875 10.875 6.375 10.875 C 6.0625 10.875 5.8125 10.625 5.8125 10.3125 C 5.8125 10 6.0625 9.75 6.375 9.75 C 6.6875 9.75 6.9375 10 6.9375 10.3125 Z M 6.9375 10.3125 "/>
<path style=" stroke:none;fill-rule:nonzero;fill:rgb(100%,100%,100%);fill-opacity:1;" d="M 20.4375 10.3125 C 20.4375 10.625 20.1875 10.875 19.875 10.875 C 19.5625 10.875 19.3125 10.625 19.3125 10.3125 C 19.3125 10 19.5625 9.75 19.875 9.75 C 20.1875 9.75 20.4375 10 20.4375 10.3125 Z M 20.4375 10.3125 "/>
</g>
</svg>
