<?xml version="1.0" encoding="UTF-8"?>
<svg xmlns="http://www.w3.org/2000/svg" xmlns:xlink="http://www.w3.org/1999/xlink" width="24pt" height="24pt" viewBox="0 0 24 24" version="1.1">
<g id="surface1">
<path style=" stroke:none;fill-rule:evenodd;fill:rgb(90.196078%,90.196078%,90.196078%);fill-opacity:1;" d="M 5.605469 1.421875 L 18.394531 1.421875 C 20.703125 1.421875 22.578125 3.296875 22.578125 5.605469 L 22.578125 18.394531 C 22.578125 20.703125 20.703125 22.578125 18.394531 22.578125 L 5.605469 22.578125 C 3.296875 22.578125 1.421875 20.703125 1.421875 18.394531 L 1.421875 5.605469 C 1.421875 3.296875 3.296875 1.421875 5.605469 1.421875 Z M 5.605469 1.421875 "/>
<path style=" stroke:none;fill-rule:nonzero;fill:rgb(17.254902%,50.196078%,63.529412%);fill-opacity:1;" d="M 20.457031 14.417969 C 20.457031 17.753906 17.753906 20.457031 14.417969 20.457031 C 11.078125 20.457031 8.375 17.753906 8.375 14.417969 C 8.375 11.078125 11.078125 8.375 14.417969 8.375 C 17.753906 8.375 20.457031 11.078125 20.457031 14.417969 Z M 20.457031 14.417969 "/>
<path style=" stroke:none;fill-rule:nonzero;fill:rgb(100%,100%,100%);fill-opacity:1;" d="M 18.042969 14.417969 C 18.042969 16.417969 16.417969 18.042969 14.417969 18.042969 C 12.414062 18.042969 10.792969 16.417969 10.792969 14.417969 C 10.792969 12.414062 12.414062 10.792969 14.417969 10.792969 C 16.417969 10.792969 18.042969 12.414062 18.042969 14.417969 Z M 18.042969 14.417969 "/>
<path style=" stroke:none;fill-rule:nonzero;fill:rgb(21.568627%,67.058824%,78.431373%);fill-opacity:1;" d="M 15.625 9.582031 C 15.625 12.921875 12.921875 15.625 9.582031 15.625 C 6.246094 15.625 3.542969 12.921875 3.542969 9.582031 C 3.542969 6.246094 6.246094 3.542969 9.582031 3.542969 C 12.921875 3.542969 15.625 6.246094 15.625 9.582031 Z M 15.625 9.582031 "/>
<path style=" stroke:none;fill-rule:nonzero;fill:rgb(100%,100%,100%);fill-opacity:1;" d="M 13.207031 9.582031 C 13.207031 11.585938 11.585938 13.207031 9.582031 13.207031 C 7.582031 13.207031 5.957031 11.585938 5.957031 9.582031 C 5.957031 7.582031 7.582031 5.957031 9.582031 5.957031 C 11.585938 5.957031 13.207031 7.582031 13.207031 9.582031 Z M 13.207031 9.582031 "/>
<path style="fill:none;stroke-width:1.241509;stroke-linecap:round;stroke-linejoin:miter;stroke:rgb(100%,43.137255%,29.803922%);stroke-opacity:1;stroke-miterlimit:4;" d="M 19.504678 22.49206 C 19.504678 22.49206 18.851592 17.791136 16.504363 15.495637 C 14.163601 13.193671 10.510201 12.495322 10.510201 12.495322 " transform="matrix(0.604103,0,0,0.604103,2.334346,2.334346)"/>
<path style="fill:none;stroke-width:1.241509;stroke-linecap:round;stroke-linejoin:miter;stroke:rgb(100%,43.137255%,29.803922%);stroke-opacity:1;stroke-miterlimit:4;" d="M 12.501789 10.497268 C 12.501789 10.497268 13.154874 15.198192 15.502103 17.500157 C 17.849332 19.795656 21.502732 20.500472 21.502732 20.500472 " transform="matrix(0.604103,0,0,0.604103,2.334346,2.334346)"/>
</g>
</svg>
