<?xml version="1.0" encoding="UTF-8"?>
<svg xmlns="http://www.w3.org/2000/svg" xmlns:xlink="http://www.w3.org/1999/xlink" width="24pt" height="24pt" viewBox="0 0 24 24" version="1.1">
<g id="surface1">
<path style=" stroke:none;fill-rule:evenodd;fill:rgb(1.568627%,17.254902%,21.960784%);fill-opacity:1;" d="M 5.605469 1.421875 L 18.394531 1.421875 C 20.703125 1.421875 22.578125 3.296875 22.578125 5.605469 L 22.578125 18.394531 C 22.578125 20.703125 20.703125 22.578125 18.394531 22.578125 L 5.605469 22.578125 C 3.296875 22.578125 1.421875 20.703125 1.421875 18.394531 L 1.421875 5.605469 C 1.421875 3.296875 3.296875 1.421875 5.605469 1.421875 Z M 5.605469 1.421875 "/>
<path style=" stroke:none;fill-rule:evenodd;fill:rgb(1.568627%,17.254902%,21.960784%);fill-opacity:1;" d="M 5.605469 1.421875 C 3.289062 1.421875 1.421875 3.289062 1.421875 5.605469 L 1.421875 9.613281 C 1.578125 9.125 1.742188 8.648438 1.933594 8.320312 C 2.226562 7.761719 2.632812 7.289062 3.101562 6.902344 C 3.574219 6.519531 4.109375 6.226562 4.65625 6.035156 C 5.203125 5.84375 5.761719 5.753906 6.285156 5.777344 C 6.808594 5.796875 7.292969 5.933594 7.6875 6.191406 C 8.15625 5.652344 8.675781 5.285156 9.222656 5.015625 C 9.769531 4.746094 10.347656 4.570312 10.921875 4.402344 C 10.328125 5.132812 9.910156 5.839844 9.65625 6.519531 C 9.402344 7.203125 9.3125 7.859375 9.386719 8.492188 C 9.460938 9.121094 9.695312 9.730469 10.082031 10.308594 C 10.46875 10.886719 11.011719 11.441406 11.703125 11.964844 C 10.808594 11.804688 9.210938 11.742188 7.824219 11.816406 C 7.636719 12.246094 7.523438 12.6875 7.476562 13.125 C 7.429688 13.5625 7.453125 14 7.53125 14.425781 C 7.6875 15.277344 8.074219 16.09375 8.613281 16.792969 C 9.152344 17.492188 9.847656 18.082031 10.617188 18.488281 C 11.386719 18.894531 12.238281 19.121094 13.089844 19.089844 C 13.800781 19.058594 14.398438 18.925781 14.910156 18.710938 C 15.417969 18.496094 15.839844 18.199219 16.191406 17.835938 C 16.539062 17.472656 16.824219 17.039062 17.0625 16.550781 C 17.304688 16.066406 17.496094 15.527344 17.667969 14.953125 C 18.011719 13.800781 18.269531 12.5 18.617188 11.167969 C 18.964844 9.839844 19.40625 8.476562 20.125 7.207031 C 20.785156 7.703125 21.316406 8.246094 21.746094 8.824219 C 22.101562 9.304688 22.347656 9.820312 22.578125 10.347656 L 22.578125 5.605469 C 22.578125 3.289062 20.710938 1.421875 18.394531 1.421875 Z M 5.605469 1.421875 "/>
<path style=" stroke:none;fill-rule:nonzero;fill:rgb(100%,77.647059%,2.745098%);fill-opacity:1;" d="M 9.832031 16.765625 C 16.886719 21.15625 23.4375 8.675781 15.664062 2.667969 C 24.421875 3.808594 20.214844 13.230469 21.148438 19.363281 C 17.871094 19.21875 13.539062 22.328125 10.601562 20.671875 C 9.882812 20.261719 10.160156 17.414062 9.832031 16.765625 Z M 9.832031 16.765625 "/>
<path style=" stroke:none;fill-rule:nonzero;fill:rgb(81.960784%,29.411765%,0.392157%);fill-opacity:1;" d="M 8.523438 11.277344 C 7.808594 12.671875 8.136719 12.898438 8.359375 13.164062 C 9.121094 13.835938 10.359375 13.460938 12.609375 12.203125 C 12.714844 13.0625 12 14.046875 10.136719 14.984375 C 9.527344 15.289062 9.226562 15.761719 9.832031 16.765625 L 12.664062 20.171875 L 8.71875 19.835938 L 5.460938 11.550781 Z M 8.523438 11.277344 "/>
<path style=" stroke:none;fill-rule:nonzero;fill:rgb(96.862745%,56.078431%,1.568627%);fill-opacity:1;" d="M 15.332031 5.324219 C 18.757812 7.542969 17.941406 10.75 18.960938 13.53125 L 19.683594 8.410156 C 18.308594 6.226562 18.089844 5.683594 15.332031 5.324219 Z M 15.332031 5.324219 "/>
<path style=" stroke:none;fill-rule:nonzero;fill:rgb(96.862745%,56.078431%,1.568627%);fill-opacity:1;" d="M 17.4375 10.65625 C 17.761719 13.621094 17.402344 15.660156 17.96875 15.777344 L 18.988281 13 C 18.730469 12.769531 18.132812 11.394531 17.4375 10.65625 Z M 17.4375 10.65625 "/>
<path style=" stroke:none;fill-rule:nonzero;fill:rgb(86.27451%,29.019608%,1.568627%);fill-opacity:1;" d="M 3.863281 3.851562 C 2.699219 5.378906 2.332031 6.863281 2.640625 8.234375 L 4.871094 6.597656 C 4.355469 6.058594 3.957031 5.28125 3.863281 3.851562 Z M 3.863281 3.851562 "/>
<path style=" stroke:none;fill-rule:nonzero;fill:rgb(100%,100%,100%);fill-opacity:1;" d="M 8.738281 8.964844 C 10.183594 8.960938 11.6875 9.234375 12.960938 8.429688 C 12.300781 9.40625 11.554688 10.09375 10.15625 10.699219 Z M 8.738281 8.964844 "/>
<path style=" stroke:none;fill-rule:nonzero;fill:rgb(94.901961%,34.901961%,0%);fill-opacity:1;" d="M 8.894531 6.851562 C 9.601562 7.292969 9.691406 7.90625 12.902344 7.640625 C 13.136719 7.890625 13.140625 8.15625 12.960938 8.429688 C 11.859375 9.164062 10.171875 9.210938 8.84375 8.921875 Z M 8.894531 6.851562 "/>
<path style=" stroke:none;fill-rule:nonzero;fill:rgb(39.607843%,39.215686%,39.607843%);fill-opacity:1;" d="M 12.902344 7.640625 C 13.140625 8.097656 12.902344 8.316406 12.753906 8.539062 C 13.589844 8.648438 13.730469 7.414062 12.902344 7.640625 Z M 12.902344 7.640625 "/>
<path style=" stroke:none;fill-rule:evenodd;fill:rgb(93.72549%,35.294118%,0%);fill-opacity:1;" d="M 22.574219 10.347656 C 22.347656 9.820312 22.101562 9.304688 21.746094 8.824219 C 21.316406 8.246094 20.785156 7.703125 20.125 7.207031 C 19.40625 8.476562 18.964844 9.839844 18.617188 11.167969 C 18.269531 12.5 18.011719 13.800781 17.667969 14.953125 C 17.496094 15.527344 17.304688 16.066406 17.0625 16.550781 C 16.824219 17.039062 16.539062 17.472656 16.1875 17.835938 C 15.839844 18.199219 15.417969 18.496094 14.910156 18.710938 C 14.398438 18.925781 13.800781 19.058594 13.089844 19.089844 C 12.238281 19.121094 11.386719 18.894531 10.617188 18.488281 C 9.847656 18.082031 9.152344 17.492188 8.613281 16.792969 C 8.074219 16.09375 7.6875 15.277344 7.53125 14.425781 C 7.453125 14 7.429688 13.5625 7.476562 13.125 C 7.523438 12.6875 7.636719 12.246094 7.824219 11.816406 C 9.210938 11.742188 10.808594 11.804688 11.703125 11.964844 C 11.011719 11.441406 10.46875 10.886719 10.082031 10.308594 C 9.695312 9.730469 9.460938 9.121094 9.386719 8.492188 C 9.3125 7.859375 9.402344 7.203125 9.65625 6.523438 C 9.910156 5.839844 10.328125 5.132812 10.921875 4.402344 C 10.347656 4.570312 9.769531 4.746094 9.222656 5.015625 C 8.675781 5.285156 8.15625 5.652344 7.6875 6.191406 C 7.292969 5.933594 6.808594 5.796875 6.285156 5.777344 C 5.761719 5.753906 5.203125 5.84375 4.65625 6.035156 C 4.109375 6.226562 3.574219 6.519531 3.101562 6.902344 C 2.632812 7.289062 2.226562 7.761719 1.933594 8.320312 C 1.742188 8.648438 1.578125 9.125 1.421875 9.613281 L 1.421875 18.394531 C 1.421875 20.710938 3.289062 22.578125 5.605469 22.578125 L 18.394531 22.578125 C 20.710938 22.578125 22.574219 20.710938 22.574219 18.394531 Z M 22.574219 10.347656 "/>
</g>
</svg>
