<?xml version="1.0" encoding="UTF-8"?>
<svg xmlns="http://www.w3.org/2000/svg" xmlns:xlink="http://www.w3.org/1999/xlink" width="24pt" height="24pt" viewBox="0 0 24 24" version="1.1">
<defs>
<clipPath id="clip1">
  <rect width="24" height="24"/>
</clipPath>
<g id="surface6" clip-path="url(#clip1)">
<path style=" stroke:none;fill-rule:nonzero;fill:rgb(100%,100%,100%);fill-opacity:1;" d="M 15.617188 8.929688 L 15.046875 10.140625 C 14.59375 10.136719 14.148438 10.210938 13.722656 10.359375 L 12.785156 9.402344 L 10.832031 11.011719 L 11.59375 12.113281 C 11.480469 12.304688 11.382812 12.507812 11.300781 12.71875 C 11.222656 12.929688 11.160156 13.148438 11.121094 13.371094 L 9.824219 13.699219 L 10.242188 16.195312 L 11.574219 16.085938 C 11.796875 16.476562 12.085938 16.824219 12.429688 17.121094 L 12.066406 18.410156 L 14.4375 19.296875 L 15.007812 18.089844 C 15.457031 18.089844 15.90625 18.015625 16.332031 17.867188 L 17.265625 18.824219 L 19.21875 17.21875 L 18.457031 16.117188 C 18.574219 15.921875 18.671875 15.71875 18.75 15.511719 C 18.828125 15.296875 18.890625 15.078125 18.933594 14.859375 L 20.226562 14.53125 L 19.808594 12.035156 L 18.480469 12.144531 C 18.253906 11.753906 17.964844 11.402344 17.621094 11.109375 L 17.988281 9.816406 Z M 15.011719 12.023438 C 16.175781 12.023438 17.117188 12.964844 17.117188 14.128906 C 17.117188 15.292969 16.175781 16.234375 15.011719 16.234375 C 13.847656 16.234375 12.90625 15.292969 12.90625 14.128906 C 12.90625 12.96875 13.847656 12.023438 15.011719 12.023438 Z M 15.011719 12.023438 "/>
</g>
</defs>
<g id="surface1">
<path style=" stroke:none;fill-rule:evenodd;fill:rgb(30.980392%,30.980392%,30.980392%);fill-opacity:1;" d="M 5.605469 1.421875 L 18.394531 1.421875 C 20.703125 1.421875 22.578125 3.296875 22.578125 5.605469 L 22.578125 18.394531 C 22.578125 20.703125 20.703125 22.578125 18.394531 22.578125 L 5.605469 22.578125 C 3.296875 22.578125 1.421875 20.703125 1.421875 18.394531 L 1.421875 5.605469 C 1.421875 3.296875 3.296875 1.421875 5.605469 1.421875 Z M 5.605469 1.421875 "/>
<path style=" stroke:none;fill-rule:nonzero;fill:rgb(100%,12.941176%,2.352941%);fill-opacity:1;" d="M 5.628906 5.789062 L 13.363281 5.789062 L 13.363281 8.78125 L 7.5625 8.78125 L 7.5625 11.359375 L 10.785156 11.359375 L 10.785156 13.292969 L 7.5625 13.292969 L 7.5625 17.804688 L 5.628906 17.804688 Z M 5.628906 5.789062 "/>
<use xlink:href="#surface6"/>
</g>
</svg>
