<?xml version="1.0" encoding="UTF-8"?>
<svg xmlns="http://www.w3.org/2000/svg" xmlns:xlink="http://www.w3.org/1999/xlink" width="24pt" height="24pt" viewBox="0 0 24 24" version="1.1">
<g id="surface1">
<path style=" stroke:none;fill-rule:evenodd;fill:rgb(14.117647%,94.117647%,100%);fill-opacity:1;" d="M 22.574219 17.121094 L 17.121094 22.578125 L 18.394531 22.578125 C 20.710938 22.578125 22.574219 20.710938 22.574219 18.394531 Z M 22.574219 17.121094 "/>
<path style=" stroke:none;fill-rule:evenodd;fill:rgb(40%,86.666667%,13.72549%);fill-opacity:1;" d="M 22.574219 13.371094 L 13.371094 22.578125 L 17.121094 22.578125 L 22.574219 17.121094 Z M 22.574219 13.371094 "/>
<path style=" stroke:none;fill-rule:evenodd;fill:rgb(90.196078%,87.45098%,8.235294%);fill-opacity:1;" d="M 22.574219 9.621094 L 9.621094 22.578125 L 13.371094 22.578125 L 22.574219 13.371094 Z M 22.574219 9.621094 "/>
<path style=" stroke:none;fill-rule:evenodd;fill:rgb(94.901961%,29.803922%,23.921569%);fill-opacity:1;" d="M 22.574219 5.871094 L 5.871094 22.578125 L 9.621094 22.578125 L 22.574219 9.621094 Z M 22.574219 5.871094 "/>
<path style=" stroke:none;fill-rule:evenodd;fill:rgb(30.980392%,30.980392%,30.980392%);fill-opacity:1;" d="M 5.605469 1.421875 C 3.289062 1.421875 1.421875 3.289062 1.421875 5.605469 L 1.421875 18.394531 C 1.421875 20.710938 3.289062 22.578125 5.605469 22.578125 L 5.871094 22.578125 L 22.574219 5.871094 L 22.574219 5.605469 C 22.574219 3.289062 20.710938 1.421875 18.394531 1.421875 Z M 5.605469 1.421875 "/>
<path style=" stroke:none;fill-rule:nonzero;fill:rgb(100%,100%,100%);fill-opacity:1;" d="M 10.34375 3.679688 L 12.488281 7.429688 L 10.34375 11.179688 L 12.058594 11.179688 L 13.34375 8.929688 L 14.628906 11.179688 L 16.34375 11.179688 L 14.203125 7.429688 L 16.34375 3.679688 L 14.628906 3.679688 L 13.34375 5.929688 L 12.058594 3.679688 Z M 3.59375 3.679688 L 9.59375 3.679688 L 9.59375 4.617188 L 5.738281 9.773438 L 9.59375 9.773438 L 9.59375 11.179688 L 3.59375 11.179688 L 3.59375 10.242188 L 7.453125 5.085938 L 3.59375 5.085938 Z M 3.59375 3.679688 "/>
</g>
</svg>
