<?xml version="1.0" encoding="UTF-8"?>
<svg xmlns="http://www.w3.org/2000/svg" xmlns:xlink="http://www.w3.org/1999/xlink" width="24pt" height="24pt" viewBox="0 0 24 24" version="1.1">
<g id="surface1">
<path style=" stroke:none;fill-rule:evenodd;fill:rgb(30.196078%,30.196078%,30.196078%);fill-opacity:1;" d="M 5.605469 1.421875 L 18.394531 1.421875 C 20.703125 1.421875 22.578125 3.296875 22.578125 5.605469 L 22.578125 18.394531 C 22.578125 20.703125 20.703125 22.578125 18.394531 22.578125 L 5.605469 22.578125 C 3.296875 22.578125 1.421875 20.703125 1.421875 18.394531 L 1.421875 5.605469 C 1.421875 3.296875 3.296875 1.421875 5.605469 1.421875 Z M 5.605469 1.421875 "/>
<path style=" stroke:none;fill-rule:nonzero;fill:rgb(32.54902%,32.54902%,32.54902%);fill-opacity:1;" d="M 12.535156 5.292969 C 12.535156 5.585938 12.296875 5.828125 12 5.828125 C 11.703125 5.828125 11.464844 5.585938 11.464844 5.292969 C 11.464844 4.996094 11.703125 4.753906 12 4.753906 C 12.296875 4.753906 12.535156 4.996094 12.535156 5.292969 Z M 12.535156 5.292969 "/>
<path style=" stroke:none;fill-rule:nonzero;fill:rgb(99.607843%,67.843137%,0%);fill-opacity:1;" d="M 11.992188 5.292969 C 11.949219 5.292969 11.910156 5.300781 11.871094 5.304688 C 11.824219 5.308594 11.773438 5.308594 11.726562 5.316406 C 11.710938 5.320312 11.699219 5.324219 11.6875 5.328125 C 10.421875 5.601562 9.777344 7.460938 9.855469 9.234375 C 9.855469 9.289062 9.847656 9.34375 9.847656 9.394531 L 4.640625 12.734375 C 4.542969 12.78125 4.492188 12.867188 4.488281 12.984375 L 4.488281 14.671875 C 4.488281 14.769531 4.527344 14.847656 4.609375 14.910156 C 4.699219 14.96875 4.792969 14.984375 4.894531 14.957031 L 9.742188 13.445312 L 10.492188 16.980469 L 8.566406 17.839844 C 8.5 17.902344 8.46875 17.972656 8.46875 18.050781 L 8.613281 19.246094 L 12 18.707031 L 15.386719 19.246094 L 15.53125 18.054688 C 15.53125 17.972656 15.5 17.902344 15.433594 17.839844 L 13.492188 16.984375 L 14.257812 13.445312 L 19.105469 14.957031 C 19.207031 14.984375 19.300781 14.96875 19.390625 14.910156 C 19.472656 14.851562 19.511719 14.769531 19.511719 14.675781 L 19.511719 12.984375 C 19.507812 12.867188 19.457031 12.78125 19.363281 12.734375 L 14.152344 9.394531 C 14.152344 9.34375 14.148438 9.289062 14.148438 9.234375 C 14.222656 7.460938 13.578125 5.601562 12.3125 5.328125 C 12.300781 5.328125 12.289062 5.320312 12.273438 5.316406 C 12.226562 5.308594 12.179688 5.308594 12.128906 5.304688 C 12.089844 5.300781 12.050781 5.292969 12.007812 5.292969 C 12.003906 5.292969 12.003906 5.292969 12 5.292969 C 11.996094 5.292969 11.996094 5.292969 11.992188 5.292969 Z M 11.992188 5.292969 "/>
<path style=" stroke:none;fill-rule:nonzero;fill:rgb(99.607843%,33.72549%,0%);fill-opacity:1;" d="M 8.242188 10.421875 L 7.167969 11.109375 L 7.167969 14.25 L 8.242188 13.914062 Z M 15.757812 10.421875 L 15.757812 13.914062 L 16.828125 14.25 L 16.828125 11.109375 Z M 6.632812 11.453125 L 5.558594 12.140625 L 5.558594 14.75 L 6.632812 14.414062 Z M 17.367188 11.453125 L 17.367188 14.414062 L 18.441406 14.75 L 18.441406 12.144531 Z M 17.367188 11.453125 "/>
<path style=" stroke:none;fill-rule:nonzero;fill:rgb(16.078431%,16.078431%,16.078431%);fill-opacity:1;" d="M 9.652344 5.292969 L 14.347656 5.292969 C 14.53125 5.292969 14.683594 5.410156 14.683594 5.558594 C 14.683594 5.707031 14.53125 5.828125 14.347656 5.828125 L 9.652344 5.828125 C 9.464844 5.828125 9.316406 5.707031 9.316406 5.558594 C 9.316406 5.410156 9.464844 5.292969 9.652344 5.292969 Z M 9.652344 5.292969 "/>
<path style=" stroke:none;fill-rule:nonzero;fill:rgb(16.078431%,16.078431%,16.078431%);fill-opacity:1;" d="M 14.148438 11.375 C 14.148438 12.757812 13.183594 13.878906 12 13.878906 C 10.8125 13.878906 9.851562 12.757812 9.851562 11.375 C 9.851562 9.992188 10.8125 9.585938 12 9.585938 C 13.183594 9.585938 14.148438 9.992188 14.148438 11.375 Z M 14.148438 11.375 "/>
</g>
</svg>
