<?xml version="1.0" encoding="UTF-8"?>
<svg xmlns="http://www.w3.org/2000/svg" xmlns:xlink="http://www.w3.org/1999/xlink" width="24pt" height="24pt" viewBox="0 0 24 24" version="1.1">
<defs>
<clipPath id="clip1">
  <rect width="24" height="24"/>
</clipPath>
<g id="surface6" clip-path="url(#clip1)">
<path style=" stroke:none;fill-rule:evenodd;fill:rgb(100%,100%,100%);fill-opacity:1;" d="M 16.953125 4.484375 C 18.601562 4.484375 19.933594 5.820312 19.933594 7.464844 C 19.933594 9.113281 18.601562 10.449219 16.953125 10.449219 C 15.304688 10.449219 13.972656 9.113281 13.972656 7.464844 C 13.972656 5.820312 15.304688 4.484375 16.953125 4.484375 Z M 16.953125 4.484375 "/>
</g>
</defs>
<g id="surface1">
<path style=" stroke:none;fill-rule:evenodd;fill:rgb(85.490196%,97.254902%,100%);fill-opacity:1;" d="M 5.605469 1.421875 L 18.394531 1.421875 C 20.703125 1.421875 22.578125 3.296875 22.578125 5.605469 L 22.578125 18.394531 C 22.578125 20.703125 20.703125 22.574219 18.394531 22.574219 L 5.605469 22.574219 C 3.296875 22.574219 1.425781 20.703125 1.425781 18.394531 L 1.425781 5.605469 C 1.425781 3.296875 3.296875 1.421875 5.605469 1.421875 Z M 5.605469 1.421875 "/>
<use xlink:href="#surface6"/>
<path style=" stroke:none;fill-rule:nonzero;fill:rgb(59.607843%,37.647059%,1.960784%);fill-opacity:1;" d="M 11.109375 15.191406 L 11.800781 15.191406 L 11.800781 16.222656 L 11.109375 16.222656 Z M 11.109375 15.191406 "/>
<path style=" stroke:none;fill-rule:nonzero;fill:rgb(45.490196%,63.137255%,5.098039%);fill-opacity:1;" d="M 12.949219 15.589844 L 10.03125 15.589844 L 11.488281 13.0625 Z M 12.949219 15.589844 "/>
<path style=" stroke:none;fill-rule:nonzero;fill:rgb(59.607843%,76.470588%,1.960784%);fill-opacity:1;" d="M 12.714844 14.703125 L 10.210938 14.703125 L 11.464844 12.53125 Z M 12.714844 14.703125 "/>
<path style=" stroke:none;fill-rule:nonzero;fill:rgb(67.843137%,85.882353%,11.764706%);fill-opacity:1;" d="M 12.492188 13.707031 L 10.5 13.707031 L 11.496094 11.980469 Z M 12.492188 13.707031 "/>
<path style=" stroke:none;fill-rule:evenodd;fill:rgb(59.215686%,77.647059%,2.745098%);fill-opacity:1;" d="M 14.488281 15.417969 C 10.800781 15.757812 9.671875 16.980469 5.351562 16.757812 C 4.464844 16.679688 2.046875 16.011719 1.421875 15.777344 L 1.421875 18.394531 C 1.421875 18.867188 1.496094 19.320312 1.640625 19.746094 C 2.34375 19.371094 3.09375 19.054688 3.785156 18.882812 C 4.570312 18.691406 5.347656 18.609375 6.132812 18.597656 C 7.699219 18.582031 9.289062 18.851562 10.960938 19.085938 C 11.800781 19.199219 12.65625 19.308594 13.546875 19.367188 C 14.433594 19.425781 15.351562 19.433594 16.308594 19.355469 C 17.265625 19.273438 18.261719 19.105469 19.304688 18.804688 C 20.347656 18.507812 21.433594 18.429688 22.578125 17.832031 C 19.226562 15.972656 16.699219 15.21875 14.488281 15.417969 Z M 14.488281 15.417969 "/>
<path style=" stroke:none;fill-rule:nonzero;fill:rgb(59.607843%,37.647059%,1.960784%);fill-opacity:1;" d="M 5.546875 15.851562 L 7.292969 15.851562 L 7.292969 18.472656 L 5.546875 18.472656 Z M 5.546875 15.851562 "/>
<path style=" stroke:none;fill-rule:nonzero;fill:rgb(45.490196%,63.137255%,5.098039%);fill-opacity:1;" d="M 10.199219 16.859375 L 2.8125 16.859375 L 6.507812 10.464844 Z M 10.199219 16.859375 "/>
<path style=" stroke:none;fill-rule:nonzero;fill:rgb(59.607843%,76.470588%,1.960784%);fill-opacity:1;" d="M 9.617188 14.617188 L 3.269531 14.617188 L 6.441406 9.121094 Z M 9.617188 14.617188 "/>
<path style=" stroke:none;fill-rule:nonzero;fill:rgb(67.843137%,85.882353%,11.764706%);fill-opacity:1;" d="M 9.046875 12.097656 L 4 12.097656 L 6.523438 7.726562 Z M 9.046875 12.097656 "/>
<path style=" stroke:none;fill-rule:evenodd;fill:rgb(45.490196%,63.137255%,5.098039%);fill-opacity:1;" d="M 22.578125 17.832031 L 1.425781 17.832031 L 1.425781 18.4375 C 1.425781 20.753906 3.289062 22.617188 5.605469 22.617188 L 18.394531 22.617188 C 20.710938 22.617188 22.578125 20.753906 22.578125 18.4375 Z M 22.578125 17.832031 "/>
<path style=" stroke:none;fill-rule:nonzero;fill:rgb(67.843137%,85.882353%,11.764706%);fill-opacity:1;" d="M 5.019531 18.828125 L 6.265625 18.828125 C 6.652344 18.828125 6.96875 19.144531 6.96875 19.53125 L 6.96875 20.777344 C 6.96875 21.164062 6.652344 21.480469 6.265625 21.480469 L 5.019531 21.480469 C 4.632812 21.480469 4.316406 21.164062 4.316406 20.777344 L 4.316406 19.53125 C 4.316406 19.144531 4.632812 18.828125 5.019531 18.828125 Z M 5.019531 18.828125 "/>
<path style=" stroke:none;fill-rule:nonzero;fill:rgb(67.843137%,85.882353%,11.764706%);fill-opacity:1;" d="M 8.199219 18.828125 L 9.445312 18.828125 C 9.832031 18.828125 10.148438 19.144531 10.148438 19.53125 L 10.148438 20.777344 C 10.148438 21.164062 9.832031 21.480469 9.445312 21.480469 L 8.199219 21.480469 C 7.808594 21.480469 7.496094 21.164062 7.496094 20.777344 L 7.496094 19.53125 C 7.496094 19.144531 7.808594 18.828125 8.199219 18.828125 Z M 8.199219 18.828125 "/>
<path style=" stroke:none;fill-rule:nonzero;fill:rgb(67.843137%,85.882353%,11.764706%);fill-opacity:1;" d="M 11.378906 18.828125 L 12.621094 18.828125 C 13.011719 18.828125 13.324219 19.144531 13.324219 19.53125 L 13.324219 20.777344 C 13.324219 21.164062 13.011719 21.480469 12.621094 21.480469 L 11.378906 21.480469 C 10.988281 21.480469 10.675781 21.164062 10.675781 20.777344 L 10.675781 19.53125 C 10.675781 19.144531 10.988281 18.828125 11.378906 18.828125 Z M 11.378906 18.828125 "/>
<path style=" stroke:none;fill-rule:nonzero;fill:rgb(67.843137%,85.882353%,11.764706%);fill-opacity:1;" d="M 14.554688 18.828125 L 15.800781 18.828125 C 16.191406 18.828125 16.503906 19.144531 16.503906 19.53125 L 16.503906 20.777344 C 16.503906 21.164062 16.191406 21.480469 15.800781 21.480469 L 14.554688 21.480469 C 14.167969 21.480469 13.851562 21.164062 13.851562 20.777344 L 13.851562 19.53125 C 13.851562 19.144531 14.167969 18.828125 14.554688 18.828125 Z M 14.554688 18.828125 "/>
<path style=" stroke:none;fill-rule:nonzero;fill:rgb(67.843137%,85.882353%,11.764706%);fill-opacity:1;" d="M 17.734375 18.828125 L 18.980469 18.828125 C 19.367188 18.828125 19.683594 19.144531 19.683594 19.53125 L 19.683594 20.777344 C 19.683594 21.164062 19.367188 21.480469 18.980469 21.480469 L 17.734375 21.480469 C 17.347656 21.480469 17.03125 21.164062 17.03125 20.777344 L 17.03125 19.53125 C 17.03125 19.144531 17.347656 18.828125 17.734375 18.828125 Z M 17.734375 18.828125 "/>
</g>
</svg>
