<?xml version="1.0" encoding="UTF-8"?>
<svg xmlns="http://www.w3.org/2000/svg" xmlns:xlink="http://www.w3.org/1999/xlink" width="24pt" height="24pt" viewBox="0 0 24 24" version="1.1">
<g id="surface1">
<path style=" stroke:none;fill-rule:evenodd;fill:rgb(100%,42.352941%,53.72549%);fill-opacity:1;" d="M 5.605469 1.421875 L 18.394531 1.421875 C 20.703125 1.421875 22.578125 3.296875 22.578125 5.605469 L 22.578125 18.394531 C 22.578125 20.703125 20.703125 22.578125 18.394531 22.578125 L 5.605469 22.578125 C 3.296875 22.578125 1.421875 20.703125 1.421875 18.394531 L 1.421875 5.605469 C 1.421875 3.296875 3.296875 1.421875 5.605469 1.421875 Z M 5.605469 1.421875 "/>
<path style=" stroke:none;fill-rule:nonzero;fill:rgb(100%,100%,100%);fill-opacity:1;" d="M 6.753906 18.105469 C 6.796875 17.714844 7.027344 16.867188 7.609375 15.011719 C 8.59375 11.871094 9.207031 8.300781 8.945312 7.261719 C 8.882812 7.003906 8.875 6.875 8.921875 6.8125 C 9.070312 6.628906 9.667969 6.425781 10.160156 6.394531 C 11.171875 6.375 11.121094 6.75 11.089844 7.566406 C 11.058594 8.300781 10.863281 9.675781 10.683594 10.597656 C 10.628906 10.882812 10.601562 11.160156 10.621094 11.214844 C 10.648438 11.292969 10.921875 11.308594 12.21875 11.308594 C 13.074219 11.308594 13.8125 11.285156 13.855469 11.257812 C 13.988281 11.171875 14.0625 10.878906 14.621094 8.351562 C 14.917969 7.003906 15.210938 5.808594 15.273438 5.699219 C 15.417969 5.449219 15.765625 5.25 16.066406 5.25 C 16.375 5.25 16.914062 5.421875 17.101562 5.578125 L 17.25 5.703125 L 17.105469 6.125 C 16.78125 7.09375 15.875 11.421875 15.519531 13.707031 C 15.421875 14.308594 15.289062 15.09375 15.222656 15.449219 C 15.074219 16.21875 15.070312 16.511719 15.203125 16.867188 C 15.414062 17.433594 15.402344 17.488281 15.0625 17.644531 C 14.890625 17.722656 14.503906 17.828125 14.195312 17.882812 C 13.164062 18.0625 12.847656 17.832031 12.847656 16.898438 C 12.847656 16.269531 12.90625 15.933594 13.300781 14.28125 C 13.476562 13.554688 13.617188 12.902344 13.617188 12.828125 C 13.617188 12.707031 13.585938 12.703125 13.171875 12.746094 C 12.925781 12.769531 12.175781 12.792969 11.503906 12.796875 C 10.832031 12.804688 10.261719 12.828125 10.238281 12.851562 C 10.214844 12.878906 10.082031 13.402344 9.945312 14.015625 C 9.804688 14.632812 9.558594 15.648438 9.390625 16.269531 C 9.226562 16.890625 9.078125 17.585938 9.0625 17.8125 C 9.046875 18.082031 9 18.261719 8.929688 18.324219 C 8.773438 18.46875 8 18.695312 7.515625 18.742188 C 6.921875 18.804688 6.710938 18.542969 6.753906 18.105469 Z M 6.753906 18.105469 "/>
</g>
</svg>
