<?xml version="1.0" encoding="UTF-8"?>
<svg xmlns="http://www.w3.org/2000/svg" xmlns:xlink="http://www.w3.org/1999/xlink" width="24pt" height="24pt" viewBox="0 0 24 24" version="1.1">
<g id="surface1">
<path style=" stroke:none;fill-rule:evenodd;fill:rgb(40.392157%,12.941176%,40.784314%);fill-opacity:1;" d="M 5.605469 1.421875 L 18.394531 1.421875 C 20.703125 1.421875 22.578125 3.296875 22.578125 5.605469 L 22.578125 18.394531 C 22.578125 20.703125 20.703125 22.578125 18.394531 22.578125 L 5.605469 22.578125 C 3.296875 22.578125 1.421875 20.703125 1.421875 18.394531 L 1.421875 5.605469 C 1.421875 3.296875 3.296875 1.421875 5.605469 1.421875 Z M 5.605469 1.421875 "/>
<path style=" stroke:none;fill-rule:nonzero;fill:rgb(100%,100%,100%);fill-opacity:1;" d="M 12 4.5 C 7.859375 4.5 4.5 7.859375 4.5 12 C 4.5 16.140625 7.859375 19.5 12 19.5 C 16.140625 19.5 19.5 16.140625 19.5 12 C 19.5 7.859375 16.140625 4.5 12 4.5 Z M 9.476562 7.5 C 9.554688 7.5 9.632812 7.523438 9.699219 7.566406 L 16.261719 11.566406 C 16.410156 11.652344 16.5 11.820312 16.5 12 C 16.5 12.179688 16.410156 12.347656 16.261719 12.433594 L 9.699219 16.433594 C 9.554688 16.523438 9.378906 16.519531 9.234375 16.429688 C 9.089844 16.34375 9 16.175781 9 16 L 9 8 C 9 7.867188 9.050781 7.738281 9.140625 7.644531 C 9.230469 7.550781 9.351562 7.496094 9.476562 7.5 Z M 9.476562 7.5 "/>
</g>
</svg>
