<?xml version="1.0" encoding="UTF-8"?>
<svg xmlns="http://www.w3.org/2000/svg" xmlns:xlink="http://www.w3.org/1999/xlink" width="24pt" height="24pt" viewBox="0 0 24 24" version="1.1">
<g id="surface1">
<path style=" stroke:none;fill-rule:evenodd;fill:rgb(40%,53.333333%,74.509804%);fill-opacity:1;" d="M 5.605469 1.421875 L 18.394531 1.421875 C 20.703125 1.421875 22.578125 3.296875 22.578125 5.605469 L 22.578125 18.394531 C 22.578125 20.703125 20.703125 22.578125 18.394531 22.578125 L 5.605469 22.578125 C 3.296875 22.578125 1.421875 20.703125 1.421875 18.394531 L 1.421875 5.605469 C 1.421875 3.296875 3.296875 1.421875 5.605469 1.421875 Z M 5.605469 1.421875 "/>
<path style="fill:none;stroke-width:2;stroke-linecap:butt;stroke-linejoin:round;stroke:rgb(35.686275%,35.686275%,35.686275%);stroke-opacity:1;stroke-miterlimit:4;" d="M 7 16 L 21 16 " transform="matrix(0.75,0,0,0.75,0.375,0)"/>
<path style="fill:none;stroke-width:2;stroke-linecap:butt;stroke-linejoin:round;stroke:rgb(35.686275%,35.686275%,35.686275%);stroke-opacity:1;stroke-miterlimit:4;" d="M 13.901042 16 L 17 9 " transform="matrix(0.75,0,0,0.75,0.375,0)"/>
<path style="fill:none;stroke-width:2;stroke-linecap:butt;stroke-linejoin:round;stroke:rgb(35.686275%,35.686275%,35.686275%);stroke-opacity:1;stroke-miterlimit:4;" d="M 14 16 L 17 23 L 24 23 " transform="matrix(0.75,0,0,0.75,0.375,0)"/>
<path style=" stroke:none;fill-rule:nonzero;fill:rgb(100%,100%,100%);fill-opacity:1;" d="M 7.125 12 C 7.125 12.828125 6.453125 13.5 5.625 13.5 C 4.796875 13.5 4.125 12.828125 4.125 12 C 4.125 11.171875 4.796875 10.5 5.625 10.5 C 6.453125 10.5 7.125 11.171875 7.125 12 Z M 7.125 12 "/>
<path style=" stroke:none;fill-rule:nonzero;fill:rgb(100%,100%,100%);fill-opacity:1;" d="M 12.375 12 C 12.375 12.828125 11.703125 13.5 10.875 13.5 C 10.046875 13.5 9.375 12.828125 9.375 12 C 9.375 11.171875 10.046875 10.5 10.875 10.5 C 11.703125 10.5 12.375 11.171875 12.375 12 Z M 12.375 12 "/>
<path style=" stroke:none;fill-rule:nonzero;fill:rgb(100%,100%,100%);fill-opacity:1;" d="M 17.625 12 C 17.625 12.828125 16.953125 13.5 16.125 13.5 C 15.296875 13.5 14.625 12.828125 14.625 12 C 14.625 11.171875 15.296875 10.5 16.125 10.5 C 16.953125 10.5 17.625 11.171875 17.625 12 Z M 17.625 12 "/>
<path style=" stroke:none;fill-rule:nonzero;fill:rgb(100%,100%,100%);fill-opacity:1;" d="M 14.625 17.25 C 14.625 18.078125 13.953125 18.75 13.125 18.75 C 12.296875 18.75 11.625 18.078125 11.625 17.25 C 11.625 16.421875 12.296875 15.75 13.125 15.75 C 13.953125 15.75 14.625 16.421875 14.625 17.25 Z M 14.625 17.25 "/>
<path style=" stroke:none;fill-rule:nonzero;fill:rgb(100%,100%,100%);fill-opacity:1;" d="M 19.875 17.25 C 19.875 18.078125 19.203125 18.75 18.375 18.75 C 17.546875 18.75 16.875 18.078125 16.875 17.25 C 16.875 16.421875 17.546875 15.75 18.375 15.75 C 19.203125 15.75 19.875 16.421875 19.875 17.25 Z M 19.875 17.25 "/>
<path style=" stroke:none;fill-rule:nonzero;fill:rgb(100%,100%,100%);fill-opacity:1;" d="M 14.625 6.75 C 14.625 7.578125 13.953125 8.25 13.125 8.25 C 12.296875 8.25 11.625 7.578125 11.625 6.75 C 11.625 5.921875 12.296875 5.25 13.125 5.25 C 13.953125 5.25 14.625 5.921875 14.625 6.75 Z M 14.625 6.75 "/>
</g>
</svg>
