<?xml version="1.0" encoding="UTF-8"?>
<svg xmlns="http://www.w3.org/2000/svg" xmlns:xlink="http://www.w3.org/1999/xlink" width="24pt" height="24pt" viewBox="0 0 24 24" version="1.1">
<g id="surface1">
<path style=" stroke:none;fill-rule:evenodd;fill:rgb(99.607843%,80.392157%,21.960784%);fill-opacity:1;" d="M 5.605469 1.421875 L 18.394531 1.421875 C 20.703125 1.421875 22.578125 3.296875 22.578125 5.605469 L 22.578125 18.394531 C 22.578125 20.703125 20.703125 22.578125 18.394531 22.578125 L 5.605469 22.578125 C 3.296875 22.578125 1.421875 20.703125 1.421875 18.394531 L 1.421875 5.605469 C 1.421875 3.296875 3.296875 1.421875 5.605469 1.421875 Z M 5.605469 1.421875 "/>
<path style=" stroke:none;fill-rule:nonzero;fill:rgb(100%,100%,100%);fill-opacity:1;" d="M 12.019531 3.457031 C 11.875 3.453125 11.734375 3.492188 11.609375 3.566406 L 5.066406 7.4375 C 4.828125 7.578125 4.679688 7.84375 4.675781 8.128906 L 4.675781 15.871094 C 4.679688 16.15625 4.828125 16.421875 5.066406 16.566406 L 11.609375 20.4375 C 11.851562 20.578125 12.148438 20.578125 12.390625 20.4375 L 18.929688 16.5625 C 19.171875 16.421875 19.320312 16.15625 19.324219 15.871094 L 19.324219 8.128906 C 19.320312 7.84375 19.171875 7.578125 18.929688 7.4375 L 12.390625 3.566406 C 12.277344 3.496094 12.148438 3.460938 12.019531 3.457031 Z M 12.019531 3.457031 "/>
<path style=" stroke:none;fill-rule:nonzero;fill:rgb(24.705882%,24.705882%,24.705882%);fill-opacity:1;" d="M 9.222656 17.355469 C 9.199219 17.328125 9.175781 17.226562 9.175781 17.132812 C 9.175781 16.921875 9.0625 16.910156 8.953125 17.109375 C 8.828125 17.34375 8.726562 17.28125 8.75 16.980469 C 8.765625 16.765625 8.746094 16.710938 8.660156 16.734375 C 8.167969 16.859375 8.164062 16.855469 8.492188 16.496094 C 8.847656 16.113281 8.910156 15.882812 8.640625 15.96875 C 8.550781 15.996094 8.285156 16.039062 8.050781 16.058594 C 7.335938 16.125 6.59375 15.660156 6.59375 15.140625 C 6.59375 14.921875 6.976562 14.617188 7.523438 14.394531 C 7.804688 14.28125 8.042969 14.144531 8.050781 14.085938 C 8.0625 14.03125 7.953125 13.910156 7.808594 13.816406 C 7.480469 13.605469 7.296875 13.308594 7.101562 12.675781 C 6.878906 11.949219 6.929688 10.691406 7.214844 9.867188 C 8.203125 6.996094 11.078125 5.804688 13.792969 7.140625 C 15.53125 7.996094 16.789062 9.351562 17.0625 10.667969 C 17.136719 11.023438 17.128906 11.101562 16.996094 11.359375 C 16.820312 11.699219 16.433594 12.109375 16.28125 12.109375 C 16.226562 12.109375 16.089844 12 15.976562 11.871094 C 15.6875 11.523438 14.375 10.230469 13.828125 9.746094 L 13.363281 9.335938 L 13.414062 8.921875 C 13.464844 8.527344 13.457031 8.503906 13.277344 8.421875 C 13 8.296875 12.609375 8.417969 12.578125 8.644531 C 12.558594 8.773438 12.65625 8.921875 12.945312 9.214844 L 13.335938 9.609375 L 12.894531 9.609375 C 12.097656 9.609375 11.941406 9.738281 12.335938 10.066406 C 12.625 10.3125 12.726562 10.527344 12.703125 10.84375 L 12.679688 11.117188 L 13.027344 11.097656 C 13.296875 11.085938 13.375 11.105469 13.375 11.191406 C 13.375 11.25 13.34375 11.300781 13.304688 11.300781 C 13.179688 11.300781 13.21875 11.507812 13.359375 11.589844 C 13.457031 11.648438 13.464844 11.679688 13.394531 11.726562 C 13.339844 11.761719 13.320312 11.84375 13.34375 11.910156 C 13.417969 12.097656 13.269531 12.0625 12.699219 11.765625 C 12.226562 11.519531 12.167969 11.460938 12.003906 11.085938 C 11.710938 10.425781 11.460938 10.25 11.460938 10.703125 C 11.460938 10.816406 11.390625 11.167969 11.304688 11.488281 C 11.035156 12.507812 11 12.402344 11.582031 12.402344 C 12.160156 12.402344 12.582031 12.5 12.71875 12.667969 C 12.820312 12.789062 12.832031 13.125 12.753906 13.558594 C 12.707031 13.808594 12.710938 13.816406 12.890625 13.769531 C 13.066406 13.726562 13.074219 13.738281 13.035156 13.945312 C 12.992188 14.160156 13 14.167969 13.257812 14.167969 C 13.402344 14.167969 13.523438 14.199219 13.523438 14.242188 C 13.523438 14.28125 13.496094 14.316406 13.464844 14.316406 C 13.433594 14.316406 13.339844 14.363281 13.261719 14.417969 C 13.125 14.519531 13.125 14.523438 13.261719 14.675781 C 13.417969 14.851562 13.402344 14.859375 12.824219 14.832031 C 12.386719 14.8125 12.296875 14.75 12.230469 14.4375 C 12.15625 14.074219 11.988281 13.847656 11.867188 13.945312 C 11.640625 14.132812 12.082031 14.914062 12.628906 15.289062 C 13.402344 15.820312 14.289062 15.945312 15.101562 15.636719 C 15.65625 15.429688 16.457031 14.652344 16.902344 13.894531 C 17.394531 13.054688 17.503906 13.070312 17.324219 13.953125 C 17.023438 15.425781 16.011719 16.53125 14.523438 17.007812 C 14.046875 17.164062 13.78125 17.199219 13.191406 17.203125 C 11.960938 17.203125 11.257812 16.859375 10.117188 15.695312 C 9.402344 14.964844 9.1875 14.90625 9.554688 15.546875 L 9.789062 15.957031 L 9.550781 16.679688 C 9.421875 17.078125 9.304688 17.40625 9.292969 17.40625 C 9.285156 17.40625 9.253906 17.382812 9.226562 17.355469 Z M 9.550781 13.386719 C 8.910156 12.113281 8.769531 11.597656 8.769531 10.5625 C 8.769531 9.789062 8.785156 9.6875 8.96875 9.34375 C 9.515625 8.304688 10.691406 7.699219 12.152344 7.695312 C 12.839844 7.695312 13.617188 7.816406 13.929688 7.972656 C 14.3125 8.164062 14.859375 8.664062 15.417969 9.335938 C 16.070312 10.117188 16.121094 10.265625 15.644531 9.976562 C 15.511719 9.894531 15.332031 9.828125 15.242188 9.828125 C 14.960938 9.828125 14.855469 9.746094 14.808594 9.488281 C 14.773438 9.300781 14.667969 9.164062 14.421875 8.976562 C 13.863281 8.550781 13.652344 8.742188 14.035156 9.324219 C 14.363281 9.8125 16.152344 11.535156 16.308594 11.507812 C 16.535156 11.464844 16.707031 11.015625 16.667969 10.5625 C 16.609375 9.800781 16.070312 9.003906 15.226562 8.4375 C 14.457031 7.917969 13 7.253906 12.34375 7.125 C 10.25 6.714844 8.207031 8.015625 7.90625 9.953125 C 7.726562 11.113281 8.367188 12.648438 9.570312 13.929688 C 9.773438 14.140625 9.949219 14.304688 9.960938 14.289062 C 9.976562 14.273438 9.792969 13.867188 9.550781 13.386719 Z M 9.550781 13.386719 "/>
</g>
</svg>
