<?xml version="1.0" encoding="UTF-8"?>
<svg xmlns="http://www.w3.org/2000/svg" xmlns:xlink="http://www.w3.org/1999/xlink" width="24pt" height="24pt" viewBox="0 0 24 24" version="1.1">
<g id="surface1">
<path style=" stroke:none;fill-rule:evenodd;fill:rgb(32.156863%,59.607843%,87.45098%);fill-opacity:1;" d="M 5.605469 1.421875 L 18.394531 1.421875 C 20.703125 1.421875 22.578125 3.296875 22.578125 5.605469 L 22.578125 18.394531 C 22.578125 20.703125 20.703125 22.578125 18.394531 22.578125 L 5.605469 22.578125 C 3.296875 22.578125 1.421875 20.703125 1.421875 18.394531 L 1.421875 5.605469 C 1.421875 3.296875 3.296875 1.421875 5.605469 1.421875 Z M 5.605469 1.421875 "/>
<path style=" stroke:none;fill-rule:nonzero;fill:rgb(100%,100%,100%);fill-opacity:1;" d="M 9.972656 5.769531 C 9.707031 5.769531 9.363281 6.054688 9.332031 6.398438 L 9.332031 11.109375 L 6.660156 11.109375 L 12 16.449219 L 17.339844 11.109375 L 14.667969 11.109375 L 14.667969 6.398438 C 14.667969 6.050781 14.292969 5.769531 14.027344 5.769531 Z M 6.394531 16.894531 C 6.050781 16.894531 5.769531 17.191406 5.769531 17.5625 C 5.769531 17.929688 6.050781 18.230469 6.394531 18.230469 L 17.605469 18.230469 C 17.949219 18.230469 18.230469 17.929688 18.230469 17.5625 C 18.230469 17.191406 17.949219 16.894531 17.605469 16.894531 Z M 6.394531 16.894531 "/>
</g>
</svg>
