<?xml version="1.0" encoding="UTF-8"?>
<svg xmlns="http://www.w3.org/2000/svg" xmlns:xlink="http://www.w3.org/1999/xlink" width="24pt" height="24pt" viewBox="0 0 24 24" version="1.1">
<g id="surface1">
<path style=" stroke:none;fill-rule:evenodd;fill:rgb(76.078431%,20.784314%,16.470588%);fill-opacity:1;" d="M 5.605469 1.421875 L 18.394531 1.421875 C 20.703125 1.421875 22.578125 3.296875 22.578125 5.605469 L 22.578125 18.394531 C 22.578125 20.703125 20.703125 22.578125 18.394531 22.578125 L 5.605469 22.578125 C 3.296875 22.578125 1.421875 20.703125 1.421875 18.394531 L 1.421875 5.605469 C 1.421875 3.296875 3.296875 1.421875 5.605469 1.421875 Z M 5.605469 1.421875 "/>
<path style=" stroke:none;fill-rule:nonzero;fill:rgb(100%,100%,100%);fill-opacity:1;" d="M 9.039062 15.714844 C 8.800781 15.679688 8.375 15.539062 8.089844 15.402344 C 6.230469 14.496094 5.472656 12.222656 6.386719 10.304688 C 7.433594 8.117188 10.28125 7.558594 11.996094 9.207031 C 12.492188 9.683594 12.710938 10.089844 13.457031 11.894531 C 14.238281 13.777344 14.382812 14.074219 14.636719 14.328125 C 14.90625 14.59375 15.15625 14.683594 15.636719 14.683594 C 16.425781 14.683594 16.988281 14.1875 16.988281 13.5 C 16.988281 12.914062 16.785156 12.726562 15.753906 12.355469 C 14.183594 11.78125 13.671875 11.257812 13.671875 10.214844 C 13.671875 9.65625 13.8125 9.285156 14.164062 8.902344 C 14.671875 8.351562 15.546875 8.171875 16.320312 8.441406 C 16.648438 8.5625 17.339844 9.183594 17.339844 9.359375 C 17.339844 9.449219 16.941406 9.710938 16.71875 9.773438 C 16.601562 9.804688 16.5 9.765625 16.363281 9.632812 C 16.089844 9.363281 15.902344 9.28125 15.574219 9.28125 C 15.007812 9.28125 14.65625 9.628906 14.65625 10.1875 C 14.65625 10.746094 14.882812 10.933594 15.996094 11.316406 C 17.535156 11.84375 17.992188 12.320312 18 13.421875 C 18.007812 14.375 17.585938 15.0625 16.746094 15.46875 C 16.363281 15.652344 16.234375 15.675781 15.609375 15.675781 C 14.71875 15.675781 14.320312 15.507812 13.820312 14.933594 C 13.484375 14.550781 13.144531 13.828125 12.050781 11.195312 C 11.597656 10.101562 11.019531 9.566406 10.050781 9.355469 C 9.558594 9.25 8.875 9.347656 8.429688 9.585938 C 7.996094 9.820312 7.511719 10.339844 7.28125 10.816406 C 7.09375 11.203125 7.074219 11.308594 7.074219 11.980469 C 7.074219 12.621094 7.097656 12.773438 7.257812 13.125 C 7.496094 13.664062 7.96875 14.160156 8.488281 14.425781 C 8.863281 14.621094 8.980469 14.644531 9.582031 14.644531 C 10.15625 14.644531 10.304688 14.617188 10.648438 14.449219 C 11.039062 14.253906 11.566406 13.777344 11.777344 13.421875 L 11.890625 13.238281 L 12.109375 13.746094 C 12.234375 14.03125 12.332031 14.296875 12.332031 14.34375 C 12.332031 14.484375 11.835938 14.945312 11.378906 15.234375 C 10.6875 15.667969 9.890625 15.832031 9.042969 15.714844 M 9.039062 15.714844 "/>
</g>
</svg>
