<?xml version="1.0" encoding="UTF-8"?>
<svg xmlns="http://www.w3.org/2000/svg" xmlns:xlink="http://www.w3.org/1999/xlink" width="24pt" height="24pt" viewBox="0 0 24 24" version="1.1">
<defs>
<clipPath id="clip1">
  <rect width="24" height="24"/>
</clipPath>
<g id="surface6" clip-path="url(#clip1)">
<path style=" stroke:none;fill-rule:nonzero;fill:rgb(100%,100%,100%);fill-opacity:1;" d="M 6.464844 18.890625 L 6.464844 17.960938 L 13.84375 17.960938 L 13.84375 18.890625 Z M 6.464844 16.101562 L 6.464844 15.175781 L 17.535156 15.175781 L 17.535156 16.101562 Z M 6.464844 13.316406 L 6.464844 12.386719 L 17.535156 12.386719 L 17.535156 13.316406 Z M 6.464844 10.527344 L 6.464844 9.597656 L 17.535156 9.597656 L 17.535156 10.527344 Z M 6.464844 10.527344 "/>
</g>
</defs>
<g id="surface1">
<path style=" stroke:none;fill-rule:evenodd;fill:rgb(18.823529%,45.490196%,100%);fill-opacity:1;" d="M 22.574219 9.167969 L 22.574219 5.605469 C 22.574219 3.289062 20.710938 1.421875 18.394531 1.421875 L 14.832031 1.421875 Z M 22.574219 9.167969 "/>
<path style=" stroke:none;fill-rule:evenodd;fill:rgb(18.823529%,45.490196%,100%);fill-opacity:1;" d="M 13.582031 1.425781 L 5.605469 1.425781 C 3.289062 1.425781 1.421875 3.289062 1.421875 5.605469 L 1.421875 18.394531 C 1.421875 20.710938 3.289062 22.578125 5.605469 22.578125 L 18.394531 22.578125 C 20.710938 22.578125 22.574219 20.710938 22.574219 18.394531 L 22.574219 10.417969 Z M 13.582031 1.425781 "/>
<path style=" stroke:none;fill-rule:evenodd;fill:rgb(100%,100%,100%);fill-opacity:1;" d="M 13.582031 1.425781 L 22.574219 10.417969 L 22.574219 9.167969 L 14.832031 1.425781 Z M 13.582031 1.425781 "/>
<use xlink:href="#surface6"/>
</g>
</svg>
