<?xml version="1.0" encoding="UTF-8"?>
<svg xmlns="http://www.w3.org/2000/svg" xmlns:xlink="http://www.w3.org/1999/xlink" width="24pt" height="24pt" viewBox="0 0 24 24" version="1.1">
<g id="surface1">
<path style=" stroke:none;fill-rule:evenodd;fill:rgb(60%,60%,60%);fill-opacity:1;" d="M 21.546875 21.066406 C 21.324219 21.125 21.042969 21.195312 21.042969 21.195312 L 2.933594 21.195312 C 2.847656 21.195312 2.640625 21.121094 2.46875 21.09375 C 3.234375 21.984375 4.332031 22.578125 5.605469 22.578125 L 18.394531 22.578125 C 19.679688 22.578125 20.78125 21.972656 21.546875 21.066406 Z M 21.546875 21.066406 "/>
<path style=" stroke:none;fill-rule:evenodd;fill:rgb(0%,30.196078%,73.333333%);fill-opacity:1;" d="M 22.554688 18.511719 L 22.554688 10.476562 C 22.554688 10.132812 22.386719 9.828125 22.132812 9.636719 L 22.136719 9.628906 L 11.988281 2.175781 C 11.988281 2.175781 1.84375 9.640625 1.90625 9.59375 L 1.90625 9.589844 C 1.882812 9.605469 1.863281 9.621094 1.84375 9.636719 L 1.832031 9.648438 C 1.585938 9.84375 1.421875 10.140625 1.421875 10.476562 L 1.421875 18.394531 C 1.421875 19.441406 1.839844 20.363281 2.46875 21.09375 C 2.640625 21.121094 2.847656 21.195312 2.933594 21.195312 L 21.042969 21.195312 C 21.042969 21.195312 21.324219 21.125 21.546875 21.066406 C 22.140625 20.367188 22.527344 19.496094 22.554688 18.511719 Z M 22.554688 18.511719 "/>
<path style=" stroke:none;fill-rule:evenodd;fill:rgb(60%,60%,60%);fill-opacity:1;" d="M 5.605469 1.425781 C 3.289062 1.425781 1.421875 3.289062 1.421875 5.605469 L 1.421875 10.476562 C 1.421875 10.140625 1.585938 9.84375 1.832031 9.648438 L 1.84375 9.636719 C 1.863281 9.621094 1.882812 9.605469 1.90625 9.589844 L 1.90625 9.59375 C 1.84375 9.640625 11.988281 2.175781 11.988281 2.175781 L 22.136719 9.628906 L 22.132812 9.636719 C 22.386719 9.828125 22.554688 10.132812 22.554688 10.476562 L 22.554688 18.511719 C 22.554688 18.46875 22.578125 18.4375 22.578125 18.394531 L 22.578125 5.605469 C 22.578125 3.289062 20.710938 1.425781 18.394531 1.425781 Z M 5.605469 1.425781 "/>
<path style=" stroke:none;fill-rule:nonzero;fill:rgb(92.156863%,92.156863%,92.156863%);fill-opacity:1;" d="M 4.820312 4.441406 L 19.15625 4.441406 C 19.785156 4.441406 20.289062 4.945312 20.289062 5.570312 L 20.289062 16.890625 C 20.289062 17.515625 19.785156 18.023438 19.15625 18.023438 L 4.820312 18.023438 C 4.195312 18.023438 3.6875 17.515625 3.6875 16.890625 L 3.6875 5.570312 C 3.6875 4.945312 4.195312 4.441406 4.820312 4.441406 Z M 4.820312 4.441406 "/>
<path style=" stroke:none;fill-rule:nonzero;fill:rgb(51.764706%,51.764706%,51.764706%);fill-opacity:1;" d="M 11.988281 6.703125 C 9.90625 6.703125 8.214844 8.394531 8.214844 10.476562 C 8.214844 12.5625 9.90625 14.25 11.988281 14.25 L 14.628906 14.25 C 14.839844 14.25 15.007812 14.082031 15.007812 13.875 C 15.007812 13.664062 14.839844 13.496094 14.628906 13.496094 L 11.988281 13.496094 C 10.320312 13.496094 8.96875 12.144531 8.96875 10.476562 C 8.96875 8.808594 10.320312 7.457031 11.988281 7.457031 C 13.65625 7.457031 15.007812 8.808594 15.007812 10.476562 L 15.007812 11.609375 C 15.007812 11.816406 14.839844 11.988281 14.628906 11.988281 C 14.421875 11.988281 14.253906 11.816406 14.253906 11.609375 L 14.253906 10.476562 C 14.253906 9.226562 13.238281 8.214844 11.988281 8.214844 C 10.738281 8.214844 9.726562 9.226562 9.726562 10.476562 C 9.726562 11.726562 10.738281 12.742188 11.988281 12.742188 C 12.59375 12.742188 13.171875 12.5 13.597656 12.070312 C 13.773438 12.464844 14.167969 12.742188 14.628906 12.742188 C 15.257812 12.742188 15.761719 12.238281 15.761719 11.609375 L 15.761719 10.476562 C 15.761719 8.394531 14.074219 6.703125 11.988281 6.703125 Z M 11.988281 8.96875 C 12.824219 8.96875 13.5 9.644531 13.5 10.476562 C 13.5 11.3125 12.824219 11.988281 11.988281 11.988281 C 11.15625 11.988281 10.480469 11.3125 10.480469 10.476562 C 10.480469 9.644531 11.15625 8.96875 11.988281 8.96875 Z M 11.988281 8.96875 "/>
<path style=" stroke:none;fill-rule:evenodd;fill:rgb(0%,49.411765%,100%);fill-opacity:1;" d="M 22.554688 18.511719 L 22.554688 10.476562 L 5.195312 22.496094 C 5.335938 22.507812 5.460938 22.578125 5.605469 22.578125 L 18.394531 22.578125 C 20.671875 22.578125 22.488281 20.769531 22.554688 18.511719 Z M 22.554688 18.511719 "/>
<path style=" stroke:none;fill-rule:evenodd;fill:rgb(0%,63.529412%,100%);fill-opacity:1;" d="M 11.988281 17.792969 L 1.425781 10.476562 L 1.425781 18.394531 C 1.425781 20.566406 3.082031 22.28125 5.195312 22.496094 Z M 11.988281 17.792969 "/>
</g>
</svg>
