<?xml version="1.0" encoding="UTF-8"?>
<svg xmlns="http://www.w3.org/2000/svg" xmlns:xlink="http://www.w3.org/1999/xlink" width="24pt" height="24pt" viewBox="0 0 24 24" version="1.1">
<defs>
<filter id="alpha" filterUnits="objectBoundingBox" x="0%" y="0%" width="100%" height="100%">
  <feColorMatrix type="matrix" in="SourceGraphic" values="0 0 0 0 1 0 0 0 0 1 0 0 0 0 1 0 0 0 1 0"/>
</filter>
<mask id="mask0">
  <g filter="url(#alpha)">
<rect x="0" y="0" width="24" height="24" style="fill:rgb(0%,0%,0%);fill-opacity:0.439216;stroke:none;"/>
  </g>
</mask>
<clipPath id="clip1">
  <rect width="24" height="24"/>
</clipPath>
<g id="surface6" clip-path="url(#clip1)">
<path style=" stroke:none;fill-rule:evenodd;fill:rgb(0%,49.019608%,100%);fill-opacity:0.552941;" d="M 11.636719 3.128906 C 11.3125 3.140625 11 3.1875 10.683594 3.230469 L 10.984375 3.488281 L 10.164062 3.925781 L 11.210938 4.175781 L 11.34375 3.824219 L 11.800781 3.824219 L 11.960938 3.519531 L 11.636719 3.4375 Z M 10.683594 3.230469 L 10.675781 3.222656 L 10.300781 3.269531 C 10.425781 3.246094 10.558594 3.246094 10.683594 3.230469 Z M 9.9375 3.34375 C 9.101562 3.53125 8.3125 3.832031 7.582031 4.234375 C 6.855469 4.636719 6.1875 5.136719 5.601562 5.714844 C 5.015625 6.296875 4.511719 6.957031 4.105469 7.683594 C 3.695312 8.40625 3.386719 9.195312 3.191406 10.027344 L 3.222656 10.070312 L 3.144531 10.214844 C 3.132812 10.277344 3.121094 10.347656 3.109375 10.414062 L 3.449219 10.933594 L 4.386719 11.167969 L 4.386719 11.015625 L 4.761719 11.070312 L 4.726562 11.339844 L 5.019531 11.390625 L 5.476562 11.519531 L 6.121094 12.257812 L 6.945312 12.316406 L 7.023438 12.992188 L 6.460938 13.386719 L 6.433594 13.992188 L 6.355469 14.359375 L 7.167969 15.386719 L 7.230469 15.734375 C 7.230469 15.734375 7.523438 15.816406 7.5625 15.816406 C 7.582031 15.816406 7.75 15.949219 7.921875 16.078125 L 10.921875 13.078125 L 10.914062 12.96875 L 10.664062 12.527344 L 9.984375 12.515625 L 9.589844 11.894531 L 9.242188 11.726562 L 9.222656 11.914062 L 8.589844 11.953125 L 8.355469 11.625 L 7.695312 11.492188 L 7.148438 12.125 L 6.292969 11.980469 L 6.226562 11.007812 L 5.601562 10.898438 L 5.851562 10.421875 L 5.78125 10.144531 L 4.957031 10.699219 L 4.441406 10.636719 L 4.253906 10.230469 L 4.367188 9.808594 L 4.652344 9.28125 L 5.3125 8.949219 L 6.582031 8.949219 L 6.578125 9.335938 L 7.035156 9.550781 L 6.996094 8.882812 L 7.328125 8.550781 L 7.992188 8.113281 L 8.035156 7.804688 L 8.699219 7.113281 L 9.402344 6.722656 L 9.339844 6.667969 L 9.816406 6.21875 L 9.988281 6.265625 L 10.070312 6.367188 L 10.253906 6.164062 L 10.296875 6.144531 L 10.097656 6.117188 L 9.894531 6.046875 L 9.894531 5.855469 L 10.003906 5.765625 L 10.238281 5.765625 L 10.347656 5.8125 L 10.4375 6.003906 L 10.554688 5.984375 L 10.554688 5.96875 L 10.585938 5.980469 L 10.917969 5.929688 L 10.960938 5.765625 L 11.148438 5.816406 L 11.148438 5.988281 L 10.976562 6.109375 L 11.003906 6.304688 L 11.597656 6.488281 C 11.597656 6.488281 11.601562 6.492188 11.601562 6.496094 L 11.738281 6.484375 L 11.746094 6.222656 L 11.273438 6.007812 L 11.246094 5.882812 L 11.640625 5.75 L 11.660156 5.371094 L 11.246094 5.117188 L 11.21875 4.480469 L 10.65625 4.757812 L 10.453125 4.757812 L 10.503906 4.273438 L 9.738281 4.089844 L 9.421875 4.332031 L 9.421875 5.066406 L 8.851562 5.25 L 8.621094 5.726562 L 8.371094 5.769531 L 8.371094 5.15625 L 7.835938 5.082031 L 7.570312 4.90625 L 7.460938 4.507812 L 8.417969 3.941406 L 8.886719 3.800781 L 8.9375 4.117188 L 9.199219 4.105469 L 9.21875 3.945312 L 9.492188 3.902344 L 9.496094 3.847656 L 9.378906 3.800781 L 9.351562 3.632812 L 9.6875 3.605469 L 9.890625 3.390625 L 9.902344 3.375 L 9.90625 3.375 Z M 17.882812 5.386719 L 17.757812 5.410156 L 17.371094 5.960938 L 16.8125 6.050781 L 16.730469 6.53125 L 16.964844 6.585938 L 16.898438 6.894531 L 16.34375 6.78125 L 15.839844 6.894531 L 15.730469 7.175781 L 15.820312 7.773438 L 16.097656 7.902344 L 18.238281 5.761719 C 18.117188 5.640625 18.011719 5.503906 17.882812 5.386719 Z M 15.582031 8.417969 L 15.550781 8.4375 L 15.550781 8.449219 Z M 15.582031 8.417969 "/>
</g>
</defs>
<g id="surface1">
<path style=" stroke:none;fill-rule:evenodd;fill:rgb(100%,100%,100%);fill-opacity:1;" d="M 5.605469 1.421875 L 18.394531 1.421875 C 20.703125 1.421875 22.578125 3.296875 22.578125 5.605469 L 22.578125 18.394531 C 22.578125 20.703125 20.703125 22.578125 18.394531 22.578125 L 5.605469 22.578125 C 3.296875 22.578125 1.421875 20.703125 1.421875 18.394531 L 1.421875 5.605469 C 1.421875 3.296875 3.296875 1.421875 5.605469 1.421875 Z M 5.605469 1.421875 "/>
<path style=" stroke:none;fill-rule:evenodd;fill:rgb(19.607843%,56.078431%,89.019608%);fill-opacity:1;" d="M 21.355469 2.648438 L 2.644531 21.355469 C 3.402344 22.109375 4.445312 22.574219 5.605469 22.574219 L 18.394531 22.574219 C 20.710938 22.574219 22.578125 20.710938 22.578125 18.394531 L 22.578125 5.605469 C 22.578125 4.445312 22.109375 3.402344 21.355469 2.648438 Z M 21.355469 2.648438 "/>
<use xlink:href="#surface6" mask="url(#mask0)"/>
<path style=" stroke:none;fill-rule:evenodd;fill:rgb(25.882353%,69.803922%,96.470588%);fill-opacity:1;" d="M 5.605469 1.425781 C 3.289062 1.425781 1.421875 3.289062 1.421875 5.605469 L 1.421875 18.394531 C 1.421875 19.554688 1.890625 20.597656 2.644531 21.355469 L 7.921875 16.078125 C 7.75 15.949219 7.582031 15.816406 7.5625 15.816406 C 7.523438 15.816406 7.230469 15.734375 7.230469 15.734375 L 7.167969 15.386719 L 6.355469 14.359375 L 6.433594 13.992188 L 6.460938 13.386719 L 7.023438 12.992188 L 6.945312 12.316406 L 6.121094 12.257812 L 5.476562 11.519531 L 5.019531 11.390625 L 4.726562 11.339844 L 4.761719 11.070312 L 4.386719 11.015625 L 4.386719 11.167969 L 3.449219 10.933594 L 3.109375 10.414062 C 3.121094 10.347656 3.132812 10.277344 3.144531 10.214844 L 3.222656 10.070312 L 3.191406 10.027344 C 3.386719 9.195312 3.695312 8.40625 4.105469 7.683594 C 4.511719 6.957031 5.015625 6.296875 5.601562 5.714844 C 6.1875 5.136719 6.855469 4.636719 7.582031 4.234375 C 8.3125 3.832031 9.101562 3.53125 9.9375 3.34375 C 9.9375 3.34375 9.9375 3.34375 9.9375 3.339844 C 9.9375 3.34375 9.9375 3.34375 9.9375 3.34375 L 9.90625 3.375 L 9.902344 3.375 L 9.890625 3.390625 L 9.6875 3.605469 L 9.351562 3.632812 L 9.378906 3.800781 L 9.496094 3.847656 L 9.492188 3.902344 L 9.21875 3.945312 L 9.199219 4.105469 L 8.9375 4.117188 L 8.886719 3.800781 L 8.417969 3.941406 L 7.460938 4.507812 L 7.570312 4.90625 L 7.835938 5.082031 L 8.371094 5.15625 L 8.371094 5.769531 L 8.621094 5.726562 L 8.851562 5.25 L 9.421875 5.066406 L 9.421875 4.332031 L 9.738281 4.089844 L 10.503906 4.273438 L 10.453125 4.757812 L 10.65625 4.757812 L 11.21875 4.480469 L 11.246094 5.117188 L 11.660156 5.371094 L 11.640625 5.75 L 11.246094 5.882812 L 11.273438 6.007812 L 11.746094 6.222656 L 11.738281 6.484375 L 11.601562 6.496094 C 11.601562 6.492188 11.597656 6.488281 11.597656 6.488281 L 11.003906 6.304688 L 10.976562 6.109375 L 11.148438 5.988281 L 11.148438 5.816406 L 10.960938 5.765625 L 10.917969 5.929688 L 10.585938 5.980469 L 10.554688 5.96875 L 10.554688 5.984375 L 10.4375 6.003906 L 10.347656 5.8125 L 10.238281 5.765625 L 10.003906 5.765625 L 9.894531 5.855469 L 9.894531 6.046875 L 10.097656 6.117188 L 10.296875 6.144531 L 10.253906 6.164062 L 10.070312 6.367188 L 9.988281 6.265625 L 9.816406 6.21875 L 9.339844 6.667969 L 9.402344 6.722656 L 8.699219 7.113281 L 8.035156 7.804688 L 7.992188 8.113281 L 7.328125 8.550781 L 6.996094 8.882812 L 7.035156 9.550781 L 6.578125 9.335938 L 6.582031 8.949219 L 5.3125 8.949219 L 4.652344 9.28125 L 4.367188 9.808594 L 4.253906 10.230469 L 4.441406 10.636719 L 4.957031 10.699219 L 5.78125 10.144531 L 5.851562 10.421875 L 5.601562 10.898438 L 6.226562 11.007812 L 6.292969 11.980469 L 7.148438 12.125 L 7.695312 11.492188 L 8.355469 11.625 L 8.589844 11.953125 L 9.222656 11.914062 L 9.242188 11.726562 L 9.589844 11.894531 L 9.984375 12.515625 L 10.664062 12.527344 L 10.914062 12.96875 L 10.921875 13.078125 L 15.550781 8.449219 L 15.550781 8.4375 L 15.582031 8.417969 L 16.097656 7.902344 L 15.820312 7.773438 L 15.730469 7.175781 L 15.839844 6.894531 L 16.34375 6.78125 L 16.898438 6.894531 L 16.964844 6.585938 L 16.730469 6.53125 L 16.8125 6.050781 L 17.371094 5.960938 L 17.757812 5.410156 L 17.882812 5.386719 C 18.011719 5.503906 18.117188 5.640625 18.238281 5.761719 L 21.355469 2.648438 C 21.355469 2.648438 21.355469 2.644531 21.355469 2.644531 C 20.597656 1.890625 19.554688 1.425781 18.394531 1.425781 Z M 11.636719 3.128906 L 11.636719 3.4375 L 11.960938 3.519531 L 11.800781 3.824219 L 11.34375 3.824219 L 11.210938 4.175781 L 10.164062 3.925781 L 10.984375 3.488281 L 10.683594 3.230469 C 10.558594 3.246094 10.425781 3.246094 10.300781 3.269531 L 10.675781 3.222656 L 10.683594 3.230469 C 11 3.1875 11.3125 3.140625 11.636719 3.128906 Z M 11.636719 3.128906 "/>
<path style=" stroke:none;fill-rule:evenodd;fill:rgb(75.686275%,87.45098%,100%);fill-opacity:1;" d="M 18.230469 5.652344 L 16.089844 7.792969 L 16.109375 7.800781 L 16.609375 7.800781 L 16.945312 7.769531 L 17.046875 7.5 L 17.574219 6.808594 L 17.921875 6.878906 L 18.261719 6.570312 L 18.328125 6.8125 L 19.167969 7.382812 L 19.066406 7.523438 L 18.6875 7.5 L 18.832031 7.707031 L 19.066406 7.757812 L 19.339844 7.648438 L 19.332031 7.316406 L 19.453125 7.253906 L 19.355469 7.148438 L 18.792969 6.835938 L 18.648438 6.417969 L 18.957031 6.417969 C 18.738281 6.140625 18.480469 5.898438 18.230469 5.652344 Z M 18.421875 7.726562 L 17.214844 7.820312 L 16.839844 8.023438 L 16.359375 8.023438 L 16.125 8 L 15.574219 8.308594 L 15.542969 8.339844 L 15.542969 8.9375 L 14.355469 9.796875 L 14.453125 10.167969 L 14.691406 10.167969 L 14.628906 10.519531 L 14.460938 10.578125 L 14.449219 11.496094 L 15.480469 12.675781 L 15.925781 12.675781 L 15.953125 12.605469 L 16.757812 12.605469 L 16.992188 12.386719 L 17.449219 12.386719 L 17.695312 12.640625 L 18.378906 12.710938 L 18.289062 13.621094 L 19.042969 14.960938 L 18.644531 15.722656 L 18.671875 16.085938 L 18.984375 16.398438 L 18.984375 17.261719 L 19.070312 17.378906 C 19.640625 16.628906 20.09375 15.789062 20.402344 14.878906 C 20.714844 13.96875 20.882812 12.996094 20.882812 11.976562 C 20.882812 11.332031 20.816406 10.703125 20.683594 10.09375 C 20.554688 9.488281 20.363281 8.90625 20.121094 8.351562 L 19.738281 8.386719 L 19.738281 8.722656 L 19.5625 8.722656 L 19.375 8.589844 L 18.421875 8.347656 Z M 10.914062 12.96875 L 7.914062 15.964844 C 8.0625 16.074219 8.21875 16.183594 8.21875 16.183594 L 8.21875 18.035156 L 8.441406 18.097656 L 8.289062 18.949219 L 8.664062 19.453125 L 8.59375 20.300781 L 8.601562 20.316406 C 9.070312 20.5 9.550781 20.652344 10.054688 20.757812 L 10.070312 20.703125 L 10.089844 20.457031 L 9.773438 20.445312 L 9.609375 20.246094 L 9.875 19.988281 L 9.914062 19.796875 L 9.617188 19.710938 L 9.632812 19.53125 L 10.054688 19.46875 L 10.695312 19.160156 L 10.910156 18.761719 L 11.578125 17.902344 L 11.425781 17.226562 L 11.632812 16.867188 L 12.25 16.886719 L 12.664062 16.554688 L 12.800781 15.25 L 13.257812 14.664062 L 13.339844 14.285156 L 12.917969 14.152344 L 12.644531 13.695312 L 11.695312 13.683594 L 10.945312 13.394531 Z M 10.914062 12.96875 "/>
<path style=" stroke:none;fill-rule:nonzero;fill:rgb(94.901961%,94.901961%,94.901961%);fill-opacity:1;" d="M 6.171875 17.828125 L 11.273438 11.269531 L 11.960938 11.960938 L 12.726562 12.726562 Z M 6.171875 17.828125 "/>
<path style=" stroke:none;fill-rule:nonzero;fill:rgb(95.294118%,25.882353%,20.784314%);fill-opacity:1;" d="M 17.828125 6.171875 L 11.269531 11.273438 L 12.726562 12.730469 Z M 17.828125 6.171875 "/>
</g>
</svg>
