<?xml version="1.0" encoding="UTF-8"?>
<svg xmlns="http://www.w3.org/2000/svg" xmlns:xlink="http://www.w3.org/1999/xlink" width="24pt" height="24pt" viewBox="0 0 24 24" version="1.1">
<g id="surface1">
<path style=" stroke:none;fill-rule:nonzero;fill:rgb(12.941176%,84.313725%,53.72549%);fill-opacity:1;" d="M 22.5 5.226562 C 22.460938 4.792969 22.410156 4.359375 22.25 3.972656 C 22.035156 3.472656 21.730469 3.023438 21.351562 2.644531 C 20.976562 2.269531 20.523438 1.960938 20.023438 1.75 C 19.640625 1.589844 19.207031 1.539062 18.773438 1.5 L 12 1.5 L 12 12 L 22.5 12 Z M 22.5 5.226562 "/>
<path style=" stroke:none;fill-rule:nonzero;fill:rgb(96.862745%,78.039216%,23.529412%);fill-opacity:1;" d="M 5.222656 1.5 C 4.789062 1.539062 4.359375 1.589844 3.972656 1.75 C 3.472656 1.960938 3.023438 2.269531 2.644531 2.644531 C 2.269531 3.023438 1.960938 3.472656 1.75 3.972656 C 1.589844 4.359375 1.539062 4.789062 1.5 5.222656 L 1.5 12 L 12 12 L 12 1.5 Z M 5.222656 1.5 "/>
<path style=" stroke:none;fill-rule:nonzero;fill:rgb(12.54902%,52.54902%,90.588235%);fill-opacity:1;" d="M 18.777344 22.5 C 19.210938 22.460938 19.640625 22.410156 20.027344 22.25 C 20.527344 22.039062 20.976562 21.730469 21.355469 21.355469 C 21.730469 20.976562 22.039062 20.527344 22.25 20.027344 C 22.410156 19.640625 22.460938 19.210938 22.5 18.777344 L 22.5 12 L 12 12 L 12 22.5 Z M 18.777344 22.5 "/>
<path style=" stroke:none;fill-rule:nonzero;fill:rgb(12.941176%,84.313725%,53.72549%);fill-opacity:1;" d="M 1.5 18.773438 C 1.539062 19.207031 1.589844 19.640625 1.75 20.027344 C 1.964844 20.527344 2.269531 20.976562 2.648438 21.355469 C 3.023438 21.730469 3.476562 22.039062 3.976562 22.25 C 4.359375 22.410156 4.792969 22.460938 5.226562 22.5 L 12 22.5 L 12 12 L 1.5 12 Z M 1.5 18.773438 "/>
<path style=" stroke:none;fill-rule:evenodd;fill:rgb(24.705882%,24.705882%,24.705882%);fill-opacity:1;" d="M 7.140625 3.964844 L 16.859375 3.964844 C 18.613281 3.964844 20.035156 5.386719 20.035156 7.140625 L 20.035156 16.859375 C 20.035156 18.613281 18.613281 20.035156 16.859375 20.035156 L 7.140625 20.035156 C 5.386719 20.035156 3.964844 18.613281 3.964844 16.859375 L 3.964844 7.140625 C 3.964844 5.386719 5.386719 3.964844 7.140625 3.964844 Z M 7.140625 3.964844 "/>
<path style="fill:none;stroke-width:1;stroke-linecap:round;stroke-linejoin:miter;stroke:rgb(100%,100%,100%);stroke-opacity:1;stroke-miterlimit:4;" d="M 12.931739 -15.602135 L 20.932875 -15.602135 " transform="matrix(0.600989,0,0,0.600989,-0.877301,25.587648)"/>
<path style="fill:none;stroke-width:1;stroke-linecap:round;stroke-linejoin:round;stroke:rgb(100%,100%,100%);stroke-opacity:1;stroke-miterlimit:4;" d="M 17.930011 -21.607861 L 17.930011 -29.608997 M 12.925239 -29.608997 L 15.421126 -25.611679 L 17.930011 -29.608997 M 12.925239 -21.607861 L 12.925239 -29.608997 " transform="matrix(0.600989,0,0,0.600989,-0.877301,25.587648)"/>
<path style="fill:none;stroke-width:1;stroke-linecap:round;stroke-linejoin:bevel;stroke:rgb(100%,100%,100%);stroke-opacity:1;stroke-miterlimit:4;" d="M 19.93192 -25.572681 C 19.93192 -25.572681 23.929238 -25.111202 23.929238 -27.57459 C 23.929238 -30.037977 19.93192 -29.576498 19.93192 -29.576498 M 19.93192 -21.575363 L 19.93192 -29.576498 " transform="matrix(0.600989,0,0,0.600989,-0.877301,25.587648)"/>
<path style="fill:none;stroke-width:1;stroke-linecap:round;stroke-linejoin:round;stroke:rgb(100%,100%,100%);stroke-opacity:1;stroke-miterlimit:4;" d="M 25.924647 -22.602316 C 25.924647 -22.602316 26.431624 -21.601362 27.926556 -21.601362 C 29.421488 -21.601362 29.928465 -22.602316 29.928465 -23.603271 C 29.928465 -27.815079 25.924647 -23.38878 25.937646 -27.594089 C 25.924647 -28.601543 26.412125 -29.602497 27.926556 -29.602497 C 29.440987 -29.602497 29.928465 -28.601543 29.928465 -28.601543 " transform="matrix(0.600989,0,0,0.600989,-0.877301,25.587648)"/>
</g>
</svg>
