<?xml version="1.0" encoding="UTF-8"?>
<svg xmlns="http://www.w3.org/2000/svg" xmlns:xlink="http://www.w3.org/1999/xlink" width="24pt" height="24pt" viewBox="0 0 24 24" version="1.1">
<g id="surface1">
<path style=" stroke:none;fill-rule:evenodd;fill:rgb(0.784314%,52.54902%,76.078431%);fill-opacity:1;" d="M 5.605469 1.421875 L 18.394531 1.421875 C 20.703125 1.421875 22.578125 3.296875 22.578125 5.605469 L 22.578125 18.394531 C 22.578125 20.703125 20.703125 22.578125 18.394531 22.578125 L 5.605469 22.578125 C 3.296875 22.578125 1.421875 20.703125 1.421875 18.394531 L 1.421875 5.605469 C 1.421875 3.296875 3.296875 1.421875 5.605469 1.421875 Z M 5.605469 1.421875 "/>
<path style=" stroke:none;fill-rule:nonzero;fill:rgb(100%,100%,100%);fill-opacity:1;" d="M 12 9 C 10.34375 9 9 10.34375 9 12 C 9 13.65625 10.34375 15 12 15 C 13.65625 15 15 13.65625 15 12 C 15 10.34375 13.65625 9 12 9 Z M 15 12 C 15 13.242188 16.007812 14.25 17.25 14.25 C 18.492188 14.25 19.5 13.242188 19.5 12 C 19.5 10.757812 18.492188 9.75 17.25 9.75 C 16.007812 9.75 15 10.757812 15 12 Z M 9 12 C 9 10.757812 7.992188 9.75 6.75 9.75 C 5.507812 9.75 4.5 10.757812 4.5 12 C 4.5 13.242188 5.507812 14.25 6.75 14.25 C 7.992188 14.25 9 13.242188 9 12 Z M 12 10.5 C 12.828125 10.5 13.5 11.171875 13.5 12 C 13.5 12.828125 12.828125 13.5 12 13.5 C 11.171875 13.5 10.5 12.828125 10.5 12 C 10.5 11.171875 11.171875 10.5 12 10.5 Z M 6.75 11.25 C 7.164062 11.25 7.5 11.585938 7.5 12 C 7.5 12.414062 7.164062 12.75 6.75 12.75 C 6.335938 12.75 6 12.414062 6 12 C 6 11.585938 6.335938 11.25 6.75 11.25 Z M 17.25 11.25 C 17.664062 11.25 18 11.585938 18 12 C 18 12.414062 17.664062 12.75 17.25 12.75 C 16.835938 12.75 16.5 12.414062 16.5 12 C 16.5 11.585938 16.835938 11.25 17.25 11.25 Z M 17.25 11.25 "/>
</g>
</svg>
