<?xml version="1.0" encoding="UTF-8"?>
<svg xmlns="http://www.w3.org/2000/svg" xmlns:xlink="http://www.w3.org/1999/xlink" width="24pt" height="24pt" viewBox="0 0 24 24" version="1.1">
<g id="surface1">
<path style=" stroke:none;fill-rule:evenodd;fill:rgb(29.803922%,63.921569%,25.490196%);fill-opacity:1;" d="M 5.605469 1.421875 L 18.394531 1.421875 C 20.703125 1.421875 22.578125 3.296875 22.578125 5.605469 L 22.578125 18.394531 C 22.578125 20.703125 20.703125 22.578125 18.394531 22.578125 L 5.605469 22.578125 C 3.296875 22.578125 1.421875 20.703125 1.421875 18.394531 L 1.421875 5.605469 C 1.421875 3.296875 3.296875 1.421875 5.605469 1.421875 Z M 5.605469 1.421875 "/>
<path style=" stroke:none;fill-rule:nonzero;fill:rgb(14.901961%,14.901961%,14.901961%);fill-opacity:1;" d="M 6.03125 11.269531 C 6.03125 11.269531 7.792969 9.152344 10.5 8.933594 L 10.5 8.167969 C 7.5 8.421875 4.5 11.109375 4.5 11.109375 C 4.5 11.109375 6.375 15.605469 10.5 16.019531 L 10.5 15.203125 C 7.472656 14.800781 6.03125 11.269531 6.03125 11.269531 Z M 10.5 13.578125 L 10.5 14.328125 C 8.214844 13.894531 7.171875 11.378906 7.171875 11.378906 C 7.171875 11.378906 8.675781 10.089844 10.5 9.882812 L 10.5 10.703125 C 9.539062 10.582031 8.386719 11.527344 8.386719 11.527344 C 8.386719 11.527344 9.210938 13.121094 10.5 13.578125 M 10.5 6.75 L 10.5 8.167969 C 10.589844 8.160156 10.273438 8.152344 10.363281 8.148438 C 13.773438 8.027344 15.992188 11.109375 15.992188 11.109375 C 15.992188 11.109375 13.441406 14.390625 10.78125 14.390625 C 10.539062 14.390625 10.714844 14.367188 10.5 14.328125 L 10.5 15.203125 C 10.683594 15.226562 10.46875 15.242188 10.667969 15.242188 C 13.140625 15.242188 14.929688 13.90625 16.664062 12.324219 C 16.949219 12.566406 18.125 13.160156 18.367188 13.417969 C 16.722656 14.875 12.882812 16.054688 10.707031 16.054688 C 10.496094 16.054688 10.699219 16.039062 10.5 16.019531 L 10.5 17.25 L 19.5 17.25 L 19.5 6.75 Z M 10.5 9.882812 L 10.5 8.933594 C 10.589844 8.929688 10.273438 8.921875 10.363281 8.921875 C 12.8125 8.839844 14.421875 11.148438 14.421875 11.148438 C 14.421875 11.148438 12.683594 13.703125 10.820312 13.703125 C 10.554688 13.703125 10.71875 13.65625 10.5 13.578125 L 10.5 10.703125 C 11.457031 10.824219 11.425781 11.269531 12 12.285156 L 13.09375 11.144531 C 13.09375 11.144531 12.164062 9.851562 10.589844 9.851562 C 10.421875 9.851562 10.664062 9.863281 10.5 9.882812 "/>
</g>
</svg>
