<?xml version="1.0" encoding="UTF-8"?>
<svg xmlns="http://www.w3.org/2000/svg" xmlns:xlink="http://www.w3.org/1999/xlink" width="24pt" height="24pt" viewBox="0 0 24 24" version="1.1">
<g id="surface1">
<path style=" stroke:none;fill-rule:evenodd;fill:rgb(23.137255%,58.039216%,96.862745%);fill-opacity:1;" d="M 5.605469 1.421875 L 18.394531 1.421875 C 20.703125 1.421875 22.578125 3.296875 22.578125 5.605469 L 22.578125 18.394531 C 22.578125 20.703125 20.703125 22.578125 18.394531 22.578125 L 5.605469 22.578125 C 3.296875 22.578125 1.421875 20.703125 1.421875 18.394531 L 1.421875 5.605469 C 1.421875 3.296875 3.296875 1.421875 5.605469 1.421875 Z M 5.605469 1.421875 "/>
<path style=" stroke:none;fill-rule:nonzero;fill:rgb(23.137255%,58.039216%,96.862745%);fill-opacity:1;" d="M 18.359375 12 C 18.359375 15.511719 15.511719 18.359375 12 18.359375 C 8.488281 18.359375 5.640625 15.511719 5.640625 12 C 5.640625 8.488281 8.488281 5.640625 12 5.640625 C 15.511719 5.640625 18.359375 8.488281 18.359375 12 Z M 18.359375 12 "/>
<path style=" stroke:none;fill-rule:nonzero;fill:rgb(100%,100%,100%);fill-opacity:1;" d="M 12 4.578125 C 7.890625 4.578125 4.578125 7.890625 4.578125 12 C 4.578125 16.109375 7.890625 19.421875 12 19.421875 C 16.109375 19.421875 19.421875 16.109375 19.421875 12 C 19.421875 7.890625 16.109375 4.578125 12 4.578125 Z M 12 7.757812 C 13.757812 7.757812 15.179688 9.65625 15.179688 12 C 15.179688 14.34375 13.757812 16.242188 12 16.242188 C 10.242188 16.242188 8.820312 14.34375 8.820312 12 C 8.820312 9.65625 10.242188 7.757812 12 7.757812 Z M 12 7.757812 "/>
</g>
</svg>
