<?xml version="1.0" encoding="UTF-8"?>
<svg xmlns="http://www.w3.org/2000/svg" xmlns:xlink="http://www.w3.org/1999/xlink" width="24pt" height="24pt" viewBox="0 0 24 24" version="1.1">
<g id="surface1">
<path style=" stroke:none;fill-rule:evenodd;fill:rgb(47.843137%,82.745098%,32.941176%);fill-opacity:1;" d="M 5.605469 1.421875 L 18.394531 1.421875 C 20.703125 1.421875 22.578125 3.296875 22.578125 5.605469 L 22.578125 18.394531 C 22.578125 20.703125 20.703125 22.578125 18.394531 22.578125 L 5.605469 22.578125 C 3.296875 22.578125 1.421875 20.703125 1.421875 18.394531 L 1.421875 5.605469 C 1.421875 3.296875 3.296875 1.421875 5.605469 1.421875 Z M 5.605469 1.421875 "/>
<path style=" stroke:none;fill-rule:nonzero;fill:rgb(100%,100%,100%);fill-opacity:1;" d="M 11.667969 3.667969 C 10.769531 3.667969 10.050781 4.390625 10.050781 5.285156 L 10.050781 6.90625 L 6.273438 6.90625 C 5.675781 6.90625 5.191406 7.386719 5.191406 7.984375 L 5.191406 11.222656 L 6.8125 11.222656 C 7.707031 11.222656 8.429688 11.945312 8.429688 12.839844 C 8.429688 13.738281 7.707031 14.460938 6.8125 14.460938 L 5.191406 14.460938 L 5.191406 18.238281 C 5.191406 18.835938 5.675781 19.316406 6.273438 19.316406 L 10.050781 19.316406 L 10.050781 18.238281 C 10.050781 17.339844 10.769531 16.617188 11.667969 16.617188 C 12.566406 16.617188 13.285156 17.339844 13.285156 18.238281 L 13.285156 19.316406 L 16.523438 19.316406 C 17.121094 19.316406 17.605469 18.835938 17.605469 18.238281 L 17.605469 14.460938 L 19.222656 14.460938 C 20.117188 14.460938 20.839844 13.738281 20.839844 12.839844 C 20.839844 11.945312 20.117188 11.222656 19.222656 11.222656 L 17.605469 11.222656 L 17.605469 7.984375 C 17.605469 7.386719 17.121094 6.90625 16.523438 6.90625 L 13.285156 6.90625 L 13.285156 5.285156 C 13.285156 4.390625 12.566406 3.667969 11.667969 3.667969 Z M 11.667969 3.667969 "/>
</g>
</svg>
