<?xml version="1.0" encoding="UTF-8"?>
<svg xmlns="http://www.w3.org/2000/svg" xmlns:xlink="http://www.w3.org/1999/xlink" width="24pt" height="24pt" viewBox="0 0 24 24" version="1.1">
<g id="surface1">
<path style=" stroke:none;fill-rule:evenodd;fill:rgb(94.901961%,94.901961%,94.901961%);fill-opacity:1;" d="M 5.605469 1.421875 L 18.394531 1.421875 C 20.703125 1.421875 22.578125 3.296875 22.578125 5.605469 L 22.578125 18.394531 C 22.578125 20.703125 20.703125 22.578125 18.394531 22.578125 L 5.605469 22.578125 C 3.296875 22.578125 1.421875 20.703125 1.421875 18.394531 L 1.421875 5.605469 C 1.421875 3.296875 3.296875 1.421875 5.605469 1.421875 Z M 5.605469 1.421875 "/>
<path style=" stroke:none;fill-rule:nonzero;fill:rgb(33.72549%,66.666667%,83.137255%);fill-opacity:1;" d="M 22.578125 12 C 22.578125 17.84375 17.84375 22.578125 12 22.578125 C 6.15625 22.578125 1.421875 17.84375 1.421875 12 C 1.421875 6.15625 6.15625 1.421875 12 1.421875 C 17.84375 1.421875 22.578125 6.15625 22.578125 12 Z M 22.578125 12 "/>
<path style=" stroke:none;fill-rule:evenodd;fill:rgb(33.72549%,66.666667%,83.137255%);fill-opacity:1;" d="M 17.464844 1.425781 L 10.4375 1.425781 L 16.507812 7.492188 L 16.503906 7.496094 C 16.574219 7.5625 16.640625 7.632812 16.707031 7.707031 C 16.851562 7.863281 16.984375 8.027344 17.109375 8.199219 C 17.238281 8.371094 17.355469 8.546875 17.464844 8.730469 Z M 17.464844 1.425781 "/>
<path style=" stroke:none;fill-rule:evenodd;fill:rgb(33.72549%,66.666667%,83.137255%);fill-opacity:1;" d="M 22.574219 9.152344 L 22.574219 5.605469 C 22.578125 3.289062 20.710938 1.425781 18.394531 1.425781 L 18.375 1.425781 L 18.375 12 C 18.375 12.097656 18.371094 12.195312 18.367188 12.292969 C 18.355469 12.503906 18.335938 12.71875 18.304688 12.925781 C 18.269531 13.136719 18.230469 13.34375 18.175781 13.550781 Z M 21.078125 3.054688 C 21.195312 3.179688 21.3125 3.304688 21.421875 3.433594 C 21.308594 3.304688 21.199219 3.175781 21.078125 3.054688 Z M 21.867188 3.9375 C 21.988281 4.089844 22.105469 4.242188 22.21875 4.394531 C 22.101562 4.242188 21.988281 4.085938 21.867188 3.9375 Z M 22.582031 4.90625 C 22.691406 5.066406 22.792969 5.230469 22.894531 5.398438 C 22.792969 5.230469 22.6875 5.066406 22.582031 4.90625 Z M 23.203125 5.941406 C 23.296875 6.113281 23.386719 6.285156 23.472656 6.460938 C 23.386719 6.285156 23.296875 6.113281 23.203125 5.941406 Z M 23.203125 5.941406 "/>
<path style=" stroke:none;fill-rule:evenodd;fill:rgb(33.72549%,66.666667%,83.137255%);fill-opacity:1;" d="M 22.574219 17.464844 L 22.574219 10.4375 L 16.507812 16.507812 L 16.503906 16.503906 C 16.4375 16.574219 16.367188 16.640625 16.292969 16.707031 C 16.136719 16.851562 15.972656 16.984375 15.800781 17.109375 C 15.628906 17.238281 15.453125 17.355469 15.269531 17.464844 Z M 22.574219 17.464844 "/>
<path style=" stroke:none;fill-rule:evenodd;fill:rgb(33.72549%,66.666667%,83.137255%);fill-opacity:1;" d="M 14.847656 22.574219 L 18.394531 22.574219 C 20.710938 22.578125 22.574219 20.710938 22.574219 18.394531 L 22.574219 18.375 L 12 18.375 C 11.902344 18.375 11.804688 18.371094 11.707031 18.367188 C 11.496094 18.355469 11.285156 18.335938 11.074219 18.304688 C 10.863281 18.269531 10.65625 18.230469 10.449219 18.175781 Z M 20.945312 21.078125 C 20.828125 21.1875 20.710938 21.296875 20.59375 21.398438 C 20.710938 21.292969 20.832031 21.191406 20.945312 21.078125 Z M 20.050781 21.878906 C 19.914062 21.988281 19.773438 22.09375 19.632812 22.195312 C 19.773438 22.09375 19.914062 21.988281 20.050781 21.878906 Z M 20.050781 21.878906 "/>
<path style=" stroke:none;fill-rule:evenodd;fill:rgb(33.72549%,66.666667%,83.137255%);fill-opacity:1;" d="M 6.535156 22.574219 L 13.5625 22.574219 L 7.492188 16.507812 L 7.496094 16.503906 C 7.425781 16.4375 7.359375 16.367188 7.292969 16.292969 C 7.152344 16.136719 7.015625 15.972656 6.890625 15.800781 C 6.761719 15.628906 6.644531 15.453125 6.535156 15.269531 Z M 6.535156 22.574219 "/>
<path style=" stroke:none;fill-rule:evenodd;fill:rgb(33.72549%,66.666667%,83.137255%);fill-opacity:1;" d="M 1.425781 14.847656 L 1.425781 18.394531 C 1.425781 20.710938 3.289062 22.574219 5.605469 22.574219 L 5.625 22.574219 L 5.625 12 C 5.625 11.902344 5.628906 11.804688 5.632812 11.707031 C 5.644531 11.496094 5.664062 11.285156 5.695312 11.074219 C 5.730469 10.863281 5.769531 10.65625 5.824219 10.449219 Z M 1.765625 19.582031 C 1.886719 19.742188 2.003906 19.90625 2.132812 20.0625 C 2.007812 19.90625 1.882812 19.746094 1.765625 19.582031 Z M 2.574219 20.566406 C 2.691406 20.695312 2.800781 20.824219 2.921875 20.945312 C 2.804688 20.820312 2.6875 20.695312 2.574219 20.566406 Z M 2.574219 20.566406 "/>
<path style=" stroke:none;fill-rule:evenodd;fill:rgb(33.72549%,66.666667%,83.137255%);fill-opacity:1;" d="M 1.425781 6.535156 L 1.425781 13.5625 L 7.492188 7.492188 L 7.496094 7.496094 C 7.5625 7.425781 7.636719 7.359375 7.707031 7.292969 C 7.867188 7.148438 8.03125 7.015625 8.199219 6.890625 C 8.371094 6.761719 8.546875 6.644531 8.730469 6.535156 Z M 1.425781 6.535156 "/>
<path style=" stroke:none;fill-rule:evenodd;fill:rgb(33.72549%,66.666667%,83.137255%);fill-opacity:1;" d="M 9.152344 1.425781 L 5.605469 1.425781 C 3.289062 1.425781 1.425781 3.289062 1.425781 5.605469 L 1.425781 5.625 L 12 5.625 C 12.097656 5.625 12.195312 5.628906 12.292969 5.632812 C 12.503906 5.644531 12.71875 5.664062 12.925781 5.695312 C 13.136719 5.730469 13.34375 5.769531 13.550781 5.824219 Z M 4.394531 1.78125 C 4.242188 1.898438 4.085938 2.011719 3.9375 2.132812 C 4.089844 2.011719 4.242188 1.894531 4.394531 1.78125 Z M 3.433594 2.578125 C 3.304688 2.691406 3.175781 2.800781 3.054688 2.921875 C 3.179688 2.804688 3.304688 2.6875 3.433594 2.578125 Z M 3.433594 2.578125 "/>
<path style=" stroke:none;fill-rule:evenodd;fill:rgb(94.901961%,94.901961%,94.901961%);fill-opacity:1;" d="M 9.152344 1.425781 L 13.550781 5.824219 C 13.34375 5.769531 13.136719 5.730469 12.925781 5.695312 C 12.71875 5.664062 12.503906 5.644531 12.292969 5.632812 C 12.195312 5.628906 12.097656 5.625 12 5.625 L 1.425781 5.625 L 1.425781 6.535156 L 8.730469 6.535156 C 8.546875 6.644531 8.371094 6.761719 8.199219 6.890625 C 8.03125 7.015625 7.867188 7.148438 7.707031 7.292969 C 7.636719 7.359375 7.5625 7.425781 7.496094 7.492188 L 7.492188 7.492188 L 1.425781 13.5625 L 1.425781 14.847656 L 5.824219 10.449219 C 5.769531 10.65625 5.730469 10.863281 5.695312 11.074219 C 5.664062 11.285156 5.644531 11.496094 5.632812 11.707031 C 5.628906 11.804688 5.625 11.902344 5.625 12 L 5.625 22.574219 L 6.535156 22.574219 L 6.535156 15.269531 C 6.644531 15.453125 6.761719 15.628906 6.890625 15.800781 C 7.015625 15.972656 7.152344 16.136719 7.292969 16.292969 C 7.359375 16.367188 7.425781 16.4375 7.492188 16.503906 L 7.492188 16.507812 L 13.5625 22.574219 L 14.847656 22.574219 L 10.449219 18.175781 C 10.65625 18.230469 10.863281 18.269531 11.074219 18.304688 C 11.285156 18.335938 11.496094 18.355469 11.707031 18.367188 C 11.804688 18.371094 11.902344 18.375 12 18.375 L 22.574219 18.375 L 22.574219 17.464844 L 15.269531 17.464844 C 15.453125 17.355469 15.628906 17.238281 15.800781 17.109375 C 15.972656 16.984375 16.136719 16.851562 16.292969 16.707031 C 16.367188 16.640625 16.4375 16.574219 16.503906 16.503906 L 16.507812 16.507812 L 22.574219 10.4375 L 22.574219 9.152344 L 18.175781 13.550781 C 18.230469 13.34375 18.269531 13.136719 18.304688 12.925781 C 18.335938 12.71875 18.355469 12.503906 18.367188 12.292969 C 18.371094 12.195312 18.375 12.097656 18.375 12 L 18.375 1.425781 L 17.464844 1.425781 L 17.464844 8.730469 C 17.355469 8.546875 17.238281 8.371094 17.109375 8.199219 C 16.984375 8.027344 16.851562 7.863281 16.707031 7.707031 C 16.640625 7.632812 16.574219 7.5625 16.503906 7.496094 L 16.507812 7.492188 L 10.4375 1.425781 Z M 9.152344 1.425781 "/>
</g>
</svg>
