<?xml version="1.0" encoding="UTF-8"?>
<svg xmlns="http://www.w3.org/2000/svg" xmlns:xlink="http://www.w3.org/1999/xlink" width="24pt" height="24pt" viewBox="0 0 24 24" version="1.1">
<g id="surface1">
<path style=" stroke:none;fill-rule:evenodd;fill:rgb(71.764706%,71.764706%,71.764706%);fill-opacity:1;" d="M 5.605469 1.421875 L 18.394531 1.421875 C 20.703125 1.421875 22.578125 3.296875 22.578125 5.605469 L 22.578125 18.394531 C 22.578125 20.703125 20.703125 22.578125 18.394531 22.578125 L 5.605469 22.578125 C 3.296875 22.578125 1.421875 20.703125 1.421875 18.394531 L 1.421875 5.605469 C 1.421875 3.296875 3.296875 1.421875 5.605469 1.421875 Z M 5.605469 1.421875 "/>
<path style=" stroke:none;fill-rule:nonzero;fill:rgb(40%,40%,40%);fill-opacity:1;" d="M 9 18.40625 L 7.5 16.90625 L 4.5 16.90625 L 4.5 6.40625 L 19.5 6.40625 L 19.5 16.90625 L 16.5 16.90625 L 15 18.40625 Z M 9 18.40625 "/>
<path style=" stroke:none;fill-rule:nonzero;fill:rgb(97.254902%,76.862745%,30.588235%);fill-opacity:1;" d="M 6.75 7.90625 L 8.25 7.90625 L 8.25 6.40625 L 6.75 6.40625 Z M 6.75 7.90625 "/>
<path style=" stroke:none;fill-rule:nonzero;fill:rgb(97.254902%,76.862745%,30.588235%);fill-opacity:1;" d="M 9 7.90625 L 10.5 7.90625 L 10.5 6.40625 L 9 6.40625 Z M 9 7.90625 "/>
<path style=" stroke:none;fill-rule:nonzero;fill:rgb(97.254902%,76.862745%,30.588235%);fill-opacity:1;" d="M 11.25 7.90625 L 12.75 7.90625 L 12.75 6.40625 L 11.25 6.40625 Z M 11.25 7.90625 "/>
<path style=" stroke:none;fill-rule:nonzero;fill:rgb(97.254902%,76.862745%,30.588235%);fill-opacity:1;" d="M 13.5 7.90625 L 15 7.90625 L 15 6.40625 L 13.5 6.40625 Z M 13.5 7.90625 "/>
<path style=" stroke:none;fill-rule:nonzero;fill:rgb(97.254902%,76.862745%,30.588235%);fill-opacity:1;" d="M 15.75 7.90625 L 17.25 7.90625 L 17.25 6.40625 L 15.75 6.40625 Z M 15.75 7.90625 "/>
</g>
</svg>
