<?xml version="1.0" encoding="UTF-8"?>
<svg xmlns="http://www.w3.org/2000/svg" xmlns:xlink="http://www.w3.org/1999/xlink" width="24pt" height="24pt" viewBox="0 0 24 24" version="1.1">
<g id="surface1">
<path style=" stroke:none;fill-rule:evenodd;fill:rgb(67.843137%,24.705882%,21.176471%);fill-opacity:1;" d="M 5.605469 1.421875 L 18.394531 1.421875 C 20.703125 1.421875 22.578125 3.296875 22.578125 5.605469 L 22.578125 18.394531 C 22.578125 20.703125 20.703125 22.578125 18.394531 22.578125 L 5.605469 22.578125 C 3.296875 22.578125 1.421875 20.703125 1.421875 18.394531 L 1.421875 5.605469 C 1.421875 3.296875 3.296875 1.421875 5.605469 1.421875 Z M 5.605469 1.421875 "/>
<path style=" stroke:none;fill-rule:nonzero;fill:rgb(97.647059%,97.647059%,97.647059%);fill-opacity:1;" d="M 18.851562 12.277344 C 18.851562 16.132812 15.726562 19.257812 11.875 19.257812 C 8.019531 19.257812 4.894531 16.132812 4.894531 12.277344 C 4.894531 8.425781 8.019531 5.300781 11.875 5.300781 C 15.726562 5.300781 18.851562 8.425781 18.851562 12.277344 Z M 18.851562 12.277344 "/>
<path style=" stroke:none;fill-rule:nonzero;fill:rgb(23.137255%,54.117647%,87.843137%);fill-opacity:1;" d="M 18.074219 17.917969 L 12.152344 11.996094 L 18.074219 6.074219 C 21.34375 9.34375 21.34375 14.648438 18.074219 17.917969 Z M 18.074219 17.917969 "/>
<path style=" stroke:none;fill-rule:nonzero;fill:rgb(49.019608%,77.254902%,39.215686%);fill-opacity:1;" d="M 12.152344 4.742188 L 12.152344 12 L 17.285156 6.867188 C 15.972656 5.554688 14.15625 4.742188 12.152344 4.742188 Z M 12.152344 4.742188 "/>
</g>
</svg>
