<?xml version="1.0" encoding="UTF-8"?>
<svg xmlns="http://www.w3.org/2000/svg" xmlns:xlink="http://www.w3.org/1999/xlink" width="24pt" height="24pt" viewBox="0 0 24 24" version="1.1">
<g id="surface1">
<path style=" stroke:none;fill-rule:evenodd;fill:rgb(55.686275%,55.686275%,55.686275%);fill-opacity:1;" d="M 5.605469 1.421875 L 18.394531 1.421875 C 20.703125 1.421875 22.578125 3.296875 22.578125 5.605469 L 22.578125 18.394531 C 22.578125 20.703125 20.703125 22.578125 18.394531 22.578125 L 5.605469 22.578125 C 3.296875 22.578125 1.421875 20.703125 1.421875 18.394531 L 1.421875 5.605469 C 1.421875 3.296875 3.296875 1.421875 5.605469 1.421875 Z M 5.605469 1.421875 "/>
<path style=" stroke:none;fill-rule:nonzero;fill:rgb(27.843137%,27.843137%,27.843137%);fill-opacity:1;" d="M 9.660156 3.957031 C 8.488281 3.957031 7.542969 4.902344 7.542969 6.074219 L 7.542969 11.6875 C 7.542969 12.859375 8.488281 13.804688 9.660156 13.804688 L 10.800781 13.804688 C 10.898438 14.523438 11.503906 15.074219 12.25 15.074219 L 15.992188 15.074219 C 16.738281 15.074219 17.34375 14.523438 17.441406 13.804688 L 18.582031 13.804688 C 19.757812 13.804688 20.699219 12.859375 20.699219 11.6875 L 20.699219 6.074219 C 20.699219 4.902344 19.757812 3.957031 18.582031 3.957031 Z M 9.660156 3.957031 "/>
<path style=" stroke:none;fill-rule:nonzero;fill:rgb(14.901961%,41.568627%,84.313725%);fill-opacity:1;" d="M 9.738281 4.578125 L 18.503906 4.578125 C 19.390625 4.578125 20.109375 5.269531 20.109375 6.117188 L 20.109375 11.644531 C 20.109375 12.492188 19.390625 13.183594 18.503906 13.183594 L 9.738281 13.183594 C 8.851562 13.183594 8.132812 12.492188 8.132812 11.644531 L 8.132812 6.117188 C 8.132812 5.269531 8.851562 4.578125 9.738281 4.578125 Z M 9.738281 4.578125 "/>
<path style=" stroke:none;fill-rule:nonzero;fill:rgb(27.843137%,27.843137%,27.843137%);fill-opacity:1;" d="M 5.417969 8.925781 C 4.242188 8.925781 3.300781 9.871094 3.300781 11.042969 L 3.300781 16.65625 C 3.300781 17.828125 4.242188 18.773438 5.417969 18.773438 L 6.558594 18.773438 C 6.65625 19.492188 7.261719 20.042969 8.007812 20.042969 L 11.75 20.042969 C 12.496094 20.042969 13.101562 19.492188 13.199219 18.773438 L 14.339844 18.773438 C 15.511719 18.773438 16.457031 17.828125 16.457031 16.65625 L 16.457031 11.042969 C 16.457031 9.871094 15.511719 8.925781 14.339844 8.925781 Z M 5.417969 8.925781 "/>
<path style=" stroke:none;fill-rule:nonzero;fill:rgb(100%,74.509804%,27.843137%);fill-opacity:1;" d="M 5.496094 9.546875 L 14.261719 9.546875 C 15.148438 9.546875 15.867188 10.238281 15.867188 11.085938 L 15.867188 16.609375 C 15.867188 17.460938 15.148438 18.148438 14.261719 18.148438 L 5.496094 18.148438 C 4.609375 18.148438 3.890625 17.460938 3.890625 16.609375 L 3.890625 11.085938 C 3.890625 10.238281 4.609375 9.546875 5.496094 9.546875 Z M 5.496094 9.546875 "/>
</g>
</svg>
