<?xml version="1.0" encoding="UTF-8"?>
<svg xmlns="http://www.w3.org/2000/svg" xmlns:xlink="http://www.w3.org/1999/xlink" width="24pt" height="24pt" viewBox="0 0 24 24" version="1.1">
<g id="surface1">
<path style=" stroke:none;fill-rule:evenodd;fill:rgb(15.686275%,15.686275%,48.235294%);fill-opacity:1;" d="M 5.605469 1.421875 L 18.394531 1.421875 C 20.703125 1.421875 22.578125 3.296875 22.578125 5.605469 L 22.578125 18.394531 C 22.578125 20.703125 20.703125 22.578125 18.394531 22.578125 L 5.605469 22.578125 C 3.296875 22.578125 1.421875 20.703125 1.421875 18.394531 L 1.421875 5.605469 C 1.421875 3.296875 3.296875 1.421875 5.605469 1.421875 Z M 5.605469 1.421875 "/>
<path style=" stroke:none;fill-rule:nonzero;fill:rgb(59.607843%,40.784314%,100%);fill-opacity:1;" d="M 12.457031 4.875 C 12.1875 4.875 11.914062 4.886719 11.628906 4.910156 C 9.109375 5.121094 7.300781 6.394531 5.839844 7.90625 C 4.8125 8.96875 4.046875 10.464844 3.832031 11.960938 C 3.519531 14.132812 4.105469 16.074219 5.589844 17.46875 C 6.84375 18.65625 8.832031 19.074219 10.917969 19.121094 C 12.382812 19.152344 13.757812 19.03125 14.988281 18.75 C 15.601562 18.605469 16.203125 18.425781 16.59375 18.195312 C 16.980469 17.960938 17.242188 17.660156 17.25 17.292969 C 17.25 16.695312 16.90625 16.203125 16.40625 15.804688 C 14.953125 14.78125 13.765625 14.191406 12.15625 13.378906 C 11.710938 13.167969 11.308594 12.890625 11.25 12.453125 C 11.175781 11.890625 12.03125 11.71875 12.449219 11.675781 C 13.03125 11.621094 13.519531 11.644531 14.113281 11.703125 C 14.707031 11.765625 15.367188 12.292969 15.570312 12.371094 L 15.585938 12.378906 L 15.605469 12.382812 C 15.644531 12.386719 15.703125 12.363281 15.730469 12.335938 C 15.757812 12.304688 15.761719 12.28125 15.765625 12.265625 C 15.773438 12.234375 15.769531 12.222656 15.769531 12.203125 C 15.765625 12.171875 15.761719 12.140625 15.75 12.105469 C 15.734375 12.027344 15.707031 11.925781 15.667969 11.800781 C 15.535156 11.03125 15.078125 9.925781 14.757812 9.265625 C 14.683594 9.128906 14.609375 9.011719 14.53125 8.917969 C 14.453125 8.824219 14.378906 8.75 14.265625 8.71875 C 14.117188 8.679688 13.902344 8.667969 13.617188 8.671875 C 13.332031 8.675781 12.925781 8.699219 12.53125 8.738281 C 11.746094 8.8125 10.894531 8.960938 9.992188 9.175781 C 9.085938 9.394531 8.234375 9.679688 7.640625 10.042969 C 7.339844 10.226562 7.03125 10.429688 6.890625 10.667969 C 6.75 10.90625 6.714844 11.488281 6.824219 11.765625 C 7.054688 12.371094 7.710938 12.828125 8.433594 13.214844 C 9.9375 14.035156 11.265625 14.558594 12.6875 15.433594 C 13.210938 15.71875 13.5625 16.140625 13.484375 16.570312 C 13.402344 17.019531 12.859375 17.246094 12.390625 17.402344 C 11.550781 17.679688 10.703125 17.648438 9.957031 17.625 C 8.230469 17.550781 6.613281 17.1875 5.425781 15.84375 C 4.6875 15.007812 4.585938 14.152344 4.507812 12.921875 C 4.429688 11.71875 4.898438 10.375 5.574219 9.375 C 7.074219 7.152344 9.023438 5.867188 11.613281 5.523438 C 14.667969 5.132812 16.753906 6.226562 18.089844 7.410156 C 18.753906 8 19.234375 8.710938 19.542969 9.167969 C 19.695312 9.398438 19.808594 9.585938 19.882812 9.714844 C 19.917969 9.78125 19.945312 9.828125 19.960938 9.863281 C 19.972656 9.878906 19.976562 9.890625 19.984375 9.902344 C 19.988281 9.90625 19.980469 9.90625 20.007812 9.933594 C 20.015625 9.941406 20.054688 9.964844 20.054688 9.964844 C 20.054688 9.964844 20.230469 9.90625 20.230469 9.90625 C 20.230469 9.90625 20.25 9.84375 20.25 9.832031 C 20.25 9.816406 20.25 9.8125 20.246094 9.808594 C 20.238281 9.769531 20.238281 9.769531 20.230469 9.753906 C 20.222656 9.738281 20.214844 9.71875 20.203125 9.695312 C 20.179688 9.652344 20.148438 9.589844 20.109375 9.511719 C 20.023438 9.359375 19.902344 9.152344 19.734375 8.90625 C 19.402344 8.414062 18.898438 7.671875 18.207031 7.054688 C 16.992188 5.972656 15.191406 4.949219 12.726562 4.878906 C 12.636719 4.875 12.546875 4.875 12.457031 4.875 Z M 12.457031 4.875 "/>
</g>
</svg>
