<?xml version="1.0" encoding="UTF-8"?>
<svg xmlns="http://www.w3.org/2000/svg" xmlns:xlink="http://www.w3.org/1999/xlink" width="24pt" height="24pt" viewBox="0 0 24 24" version="1.1">
<g id="surface1">
<path style=" stroke:none;fill-rule:evenodd;fill:rgb(25.882353%,43.137255%,65.490196%);fill-opacity:1;" d="M 5.605469 1.421875 L 18.394531 1.421875 C 20.703125 1.421875 22.578125 3.296875 22.578125 5.605469 L 22.578125 18.394531 C 22.578125 20.703125 20.703125 22.578125 18.394531 22.578125 L 5.605469 22.578125 C 3.296875 22.578125 1.421875 20.703125 1.421875 18.394531 L 1.421875 5.605469 C 1.421875 3.296875 3.296875 1.421875 5.605469 1.421875 Z M 5.605469 1.421875 "/>
<path style=" stroke:none;fill-rule:nonzero;fill:rgb(100%,100%,100%);fill-opacity:1;" d="M 16.875 10.695312 C 15.570312 14.015625 7 14.527344 6.558594 13.1875 C 5.796875 10.621094 7.484375 7.976562 10.335938 7.289062 C 13.183594 6.601562 16.113281 8.125 16.875 10.695312 Z M 16.875 10.695312 "/>
<path style=" stroke:none;fill-rule:nonzero;fill:rgb(100%,100%,100%);fill-opacity:1;" d="M 16.875 11.625 C 16.875 11.625 9.804688 16.742188 5.265625 15.101562 C 4.476562 14.484375 5.972656 13.449219 5.972656 13.210938 C 4.234375 13.902344 3.375 14.796875 3.375 15.878906 C 4.113281 18.285156 10.816406 15.640625 11.933594 15.136719 C 14.140625 14.074219 16.875 11.625 16.875 11.625 Z M 16.875 11.625 "/>
<path style=" stroke:none;fill-rule:nonzero;fill:rgb(100%,100%,100%);fill-opacity:1;" d="M 7.875 16.875 C 7.875 16.875 16.546875 14.871094 18.492188 10.59375 C 18.585938 9.632812 17.074219 9.992188 16.902344 9.839844 C 19.332031 8.726562 20.742188 9.871094 20.617188 10.59375 C 20.390625 11.902344 17.695312 14.039062 14.175781 15.433594 C 11.859375 16.316406 7.875 16.875 7.875 16.875 Z M 7.875 16.875 "/>
</g>
</svg>
