<?xml version="1.0" encoding="UTF-8"?>
<svg xmlns="http://www.w3.org/2000/svg" xmlns:xlink="http://www.w3.org/1999/xlink" width="24pt" height="24pt" viewBox="0 0 24 24" version="1.1">
<g id="surface1">
<path style=" stroke:none;fill-rule:evenodd;fill:rgb(95.686275%,71.372549%,40.784314%);fill-opacity:1;" d="M 5.605469 1.421875 L 18.394531 1.421875 C 20.703125 1.421875 22.578125 3.296875 22.578125 5.605469 L 22.578125 18.394531 C 22.578125 20.703125 20.703125 22.578125 18.394531 22.578125 L 5.605469 22.578125 C 3.296875 22.578125 1.421875 20.703125 1.421875 18.394531 L 1.421875 5.605469 C 1.421875 3.296875 3.296875 1.421875 5.605469 1.421875 Z M 5.605469 1.421875 "/>
<path style=" stroke:none;fill-rule:nonzero;fill:rgb(100%,100%,100%);fill-opacity:1;" d="M 11.921875 3.449219 L 4.910156 5.957031 C 4.816406 5.992188 4.753906 6.082031 4.753906 6.1875 C 4.753906 8.726562 5.414062 11.664062 6.566406 14.242188 C 7.503906 16.332031 9.1875 19.125 11.890625 20.539062 C 11.925781 20.554688 11.960938 20.566406 12 20.566406 C 12.039062 20.566406 12.074219 20.554688 12.109375 20.539062 C 14.8125 19.125 16.496094 16.332031 17.433594 14.242188 C 18.585938 11.664062 19.246094 8.726562 19.246094 6.1875 C 19.246094 6.082031 19.183594 5.992188 19.089844 5.957031 L 12.078125 3.449219 C 12.027344 3.429688 11.972656 3.429688 11.921875 3.449219 Z M 11.957031 7.394531 C 11.984375 7.386719 12.015625 7.386719 12.042969 7.394531 L 15.867188 8.746094 C 15.917969 8.765625 15.953125 8.816406 15.953125 8.871094 C 15.953125 10.238281 15.59375 11.816406 14.964844 13.207031 C 14.453125 14.332031 13.535156 15.835938 12.0625 16.597656 C 12.042969 16.605469 12.019531 16.613281 12 16.613281 C 11.980469 16.613281 11.960938 16.605469 11.941406 16.597656 C 10.464844 15.835938 9.546875 14.332031 9.039062 13.207031 C 8.40625 11.816406 8.046875 10.238281 8.046875 8.871094 C 8.046875 8.816406 8.082031 8.765625 8.132812 8.746094 Z M 11.957031 7.394531 "/>
</g>
</svg>
