<?xml version="1.0" encoding="UTF-8"?>
<svg xmlns="http://www.w3.org/2000/svg" xmlns:xlink="http://www.w3.org/1999/xlink" width="24pt" height="24pt" viewBox="0 0 24 24" version="1.1">
<g id="surface1">
<path style=" stroke:none;fill-rule:evenodd;fill:rgb(100%,78.823529%,27.843137%);fill-opacity:1;" d="M 5.605469 1.421875 L 18.394531 1.421875 C 20.703125 1.421875 22.578125 3.296875 22.578125 5.605469 L 22.578125 18.394531 C 22.578125 20.703125 20.703125 22.578125 18.394531 22.578125 L 5.605469 22.578125 C 3.296875 22.578125 1.421875 20.703125 1.421875 18.394531 L 1.421875 5.605469 C 1.421875 3.296875 3.296875 1.421875 5.605469 1.421875 Z M 5.605469 1.421875 "/>
<path style=" stroke:none;fill-rule:nonzero;fill:rgb(70.196078%,55.294118%,19.607843%);fill-opacity:1;" d="M 12 7.214844 C 10.050781 7.214844 8.296875 8.398438 7.566406 10.207031 L 6.617188 10.207031 L 6.019531 11.402344 L 7.257812 11.402344 C 7.230469 11.601562 7.214844 11.800781 7.214844 12 L 6.617188 13.195312 L 7.375 13.195312 C 7.917969 15.308594 9.820312 16.78125 12 16.785156 C 13.453125 16.785156 14.828125 16.125 15.734375 14.992188 L 13.980469 14.992188 C 13.394531 15.378906 12.703125 15.589844 12 15.589844 C 10.480469 15.585938 9.125 14.628906 8.621094 13.195312 L 12.597656 13.195312 L 13.195312 12 L 8.410156 12 C 8.414062 11.800781 8.429688 11.597656 8.464844 11.402344 L 13.195312 11.402344 L 13.792969 10.207031 L 8.894531 10.207031 C 9.535156 9.097656 10.71875 8.414062 12 8.410156 C 12.703125 8.410156 13.390625 8.621094 13.980469 9.007812 L 15.730469 9.007812 C 14.824219 7.875 13.453125 7.214844 12 7.214844 Z M 12 7.214844 "/>
<path style=" stroke:none;fill-rule:nonzero;fill:rgb(70.196078%,55.294118%,19.607843%);fill-opacity:1;" d="M 12 4.222656 C 7.691406 4.222656 4.222656 7.691406 4.222656 12 C 4.222656 16.308594 7.691406 19.777344 12 19.777344 C 16.308594 19.777344 19.777344 16.308594 19.777344 12 C 19.777344 7.691406 16.308594 4.222656 12 4.222656 Z M 12 5.421875 C 15.667969 5.421875 18.578125 8.335938 18.578125 12 C 18.578125 15.667969 15.667969 18.578125 12 18.578125 C 8.335938 18.578125 5.421875 15.667969 5.421875 12 C 5.421875 8.335938 8.335938 5.421875 12 5.421875 Z M 12 5.421875 "/>
</g>
</svg>
