<?xml version="1.0" encoding="UTF-8"?>
<svg xmlns="http://www.w3.org/2000/svg" xmlns:xlink="http://www.w3.org/1999/xlink" width="24pt" height="24pt" viewBox="0 0 24 24" version="1.1">
<g id="surface1">
<path style=" stroke:none;fill-rule:evenodd;fill:rgb(20%,30.196078%,36.078431%);fill-opacity:1;" d="M 22.574219 11.578125 L 1.425781 11.578125 L 1.425781 18.347656 C 1.425781 20.664062 3.289062 22.527344 5.605469 22.527344 L 18.394531 22.527344 C 20.710938 22.527344 22.574219 20.664062 22.574219 18.347656 Z M 22.574219 11.578125 "/>
<path style=" stroke:none;fill-rule:evenodd;fill:rgb(81.568627%,49.411765%,20.392157%);fill-opacity:1;" d="M 22.574219 7.640625 L 1.425781 7.640625 L 1.425781 11.578125 L 22.574219 11.578125 Z M 22.574219 7.640625 "/>
<path style=" stroke:none;fill-rule:evenodd;fill:rgb(50.196078%,50.196078%,50.196078%);fill-opacity:1;" d="M 5.605469 1.375 C 3.289062 1.375 1.425781 3.242188 1.425781 5.558594 L 1.425781 7.640625 L 22.574219 7.640625 L 22.574219 5.558594 C 22.578125 3.242188 20.710938 1.375 18.394531 1.375 Z M 5.605469 1.375 "/>
<path style=" stroke:none;fill-rule:evenodd;fill:rgb(91.764706%,67.843137%,26.27451%);fill-opacity:1;" d="M 22.578125 10.996094 L 1.421875 10.996094 L 1.421875 18.441406 C 1.421875 20.757812 3.289062 22.625 5.605469 22.625 L 18.394531 22.625 C 20.710938 22.625 22.578125 20.757812 22.578125 18.441406 Z M 22.578125 10.996094 "/>
<path style=" stroke:none;fill-rule:evenodd;fill:rgb(79.607843%,49.803922%,17.254902%);fill-opacity:1;" d="M 6.796875 13.503906 C 6.796875 13.929688 6.449219 14.273438 6.027344 14.273438 C 5.601562 14.273438 5.257812 13.929688 5.257812 13.503906 C 5.257812 13.078125 5.601562 12.734375 6.027344 12.734375 C 6.449219 12.734375 6.796875 13.078125 6.796875 13.503906 Z M 6.796875 13.503906 "/>
<path style=" stroke:none;fill-rule:evenodd;fill:rgb(79.607843%,49.803922%,17.254902%);fill-opacity:1;" d="M 19.109375 13.515625 C 19.109375 13.941406 18.765625 14.285156 18.339844 14.285156 C 17.917969 14.285156 17.570312 13.941406 17.570312 13.515625 C 17.570312 13.089844 17.917969 12.746094 18.339844 12.746094 C 18.765625 12.746094 19.109375 13.089844 19.109375 13.515625 Z M 19.109375 13.515625 "/>
<path style="fill:none;stroke-width:1.290687;stroke-linecap:round;stroke-linejoin:miter;stroke:rgb(100%,100%,100%);stroke-opacity:1;stroke-miterlimit:4;" d="M -37.340396 20.28893 C -36.574771 32.075389 -21.606021 30.960805 -21.038313 20.28893 " transform="matrix(0.75,0,0,0.75,34.067797,-1.423729)"/>
</g>
</svg>
