<?xml version="1.0" encoding="UTF-8"?>
<svg xmlns="http://www.w3.org/2000/svg" xmlns:xlink="http://www.w3.org/1999/xlink" width="24pt" height="24pt" viewBox="0 0 24 24" version="1.1">
<g id="surface1">
<path style=" stroke:none;fill-rule:evenodd;fill:rgb(99.607843%,80.392157%,21.960784%);fill-opacity:1;" d="M 5.605469 1.421875 L 18.394531 1.421875 C 20.703125 1.421875 22.578125 3.296875 22.578125 5.605469 L 22.578125 18.394531 C 22.578125 20.703125 20.703125 22.578125 18.394531 22.578125 L 5.605469 22.578125 C 3.296875 22.578125 1.421875 20.703125 1.421875 18.394531 L 1.421875 5.605469 C 1.421875 3.296875 3.296875 1.421875 5.605469 1.421875 Z M 5.605469 1.421875 "/>
<path style=" stroke:none;fill-rule:nonzero;fill:rgb(0%,0%,0%);fill-opacity:0.537255;" d="M 4.5 9 L 4.5 12 L 7.5 12 L 7.5 9 Z M 7.5 12 L 7.5 15 L 10.5 15 L 10.5 12 Z M 10.5 12 L 13.5 12 L 13.5 9 L 10.5 9 Z M 13.5 12 L 13.5 15 L 16.5 15 L 16.5 12 Z M 16.5 12 L 19.5 12 L 19.5 9 L 16.5 9 Z M 16.5 12 "/>
</g>
</svg>
