<?xml version="1.0" encoding="UTF-8"?>
<svg xmlns="http://www.w3.org/2000/svg" xmlns:xlink="http://www.w3.org/1999/xlink" width="24pt" height="24pt" viewBox="0 0 24 24" version="1.1">
<g id="surface1">
<path style=" stroke:none;fill-rule:evenodd;fill:rgb(49.019608%,7.058824%,16.862745%);fill-opacity:1;" d="M 5.605469 1.421875 L 18.394531 1.421875 C 20.703125 1.421875 22.578125 3.296875 22.578125 5.605469 L 22.578125 18.394531 C 22.578125 20.703125 20.703125 22.578125 18.394531 22.578125 L 5.605469 22.578125 C 3.296875 22.578125 1.421875 20.703125 1.421875 18.394531 L 1.421875 5.605469 C 1.421875 3.296875 3.296875 1.421875 5.605469 1.421875 Z M 5.605469 1.421875 "/>
<path style=" stroke:none;fill-rule:nonzero;fill:rgb(72.941176%,7.058824%,16.862745%);fill-opacity:1;" d="M 12.539062 7.945312 C 9.257812 7.945312 6.597656 10.609375 6.597656 13.890625 C 6.597656 17.175781 9.257812 19.835938 12.539062 19.835938 C 15.824219 19.835938 18.484375 17.175781 18.484375 13.890625 C 18.484375 10.609375 15.824219 7.945312 12.539062 7.945312 Z M 12.539062 7.945312 "/>
<path style=" stroke:none;fill-rule:nonzero;fill:rgb(91.372549%,19.215686%,30.588235%);fill-opacity:1;" d="M 12.539062 4.164062 C 9.855469 4.164062 7.675781 6.34375 7.675781 9.027344 C 7.675781 11.714844 9.855469 13.890625 12.539062 13.890625 C 15.226562 13.890625 17.402344 11.714844 17.402344 9.027344 C 17.402344 6.34375 15.226562 4.164062 12.539062 4.164062 Z M 12.539062 4.164062 "/>
<path style=" stroke:none;fill-rule:nonzero;fill:rgb(93.72549%,43.137255%,50.980392%);fill-opacity:1;" d="M 9.296875 6.867188 C 7.210938 6.867188 5.515625 8.558594 5.515625 10.648438 C 5.515625 12.738281 7.210938 14.433594 9.296875 14.433594 C 11.386719 14.433594 13.082031 12.738281 13.082031 10.648438 C 13.082031 8.558594 11.386719 6.867188 9.296875 6.867188 Z M 9.296875 6.867188 "/>
<path style=" stroke:none;fill-rule:nonzero;fill:rgb(100%,100%,100%);fill-opacity:1;" d="M 12.539062 9.027344 C 9.855469 9.027344 7.675781 11.207031 7.675781 13.890625 C 7.675781 16.578125 9.855469 18.753906 12.539062 18.753906 C 15.226562 18.753906 17.402344 16.578125 17.402344 13.890625 C 17.402344 11.207031 15.226562 9.027344 12.539062 9.027344 Z M 12.539062 10.109375 C 14.628906 10.109375 16.324219 11.800781 16.324219 13.890625 C 16.324219 15.980469 14.628906 17.675781 12.539062 17.675781 C 10.453125 17.675781 8.757812 15.980469 8.757812 13.890625 C 8.757812 11.800781 10.453125 10.109375 12.539062 10.109375 Z M 12.539062 10.109375 "/>
<path style=" stroke:none;fill-rule:nonzero;fill:rgb(100%,100%,100%);fill-opacity:1;" d="M 9.296875 7.945312 C 7.804688 7.945312 6.597656 9.15625 6.597656 10.648438 C 6.597656 12.140625 7.804688 13.351562 9.296875 13.351562 C 10.789062 13.351562 12 12.140625 12 10.648438 C 12 9.15625 10.789062 7.945312 9.296875 7.945312 Z M 9.296875 9.027344 C 10.195312 9.027344 10.917969 9.753906 10.917969 10.648438 C 10.917969 11.542969 10.195312 12.269531 9.296875 12.269531 C 8.402344 12.269531 7.675781 11.542969 7.675781 10.648438 C 7.675781 9.753906 8.402344 9.027344 9.296875 9.027344 Z M 9.296875 9.027344 "/>
<path style=" stroke:none;fill-rule:nonzero;fill:rgb(100%,100%,100%);fill-opacity:1;" d="M 12.539062 5.246094 C 10.453125 5.246094 8.757812 6.9375 8.757812 9.027344 C 8.757812 11.117188 10.453125 12.8125 12.539062 12.8125 C 14.628906 12.8125 16.324219 11.117188 16.324219 9.027344 C 16.324219 6.9375 14.628906 5.246094 12.539062 5.246094 Z M 12.539062 6.324219 C 14.03125 6.324219 15.242188 7.535156 15.242188 9.027344 C 15.242188 10.519531 14.03125 11.730469 12.539062 11.730469 C 11.046875 11.730469 9.839844 10.519531 9.839844 9.027344 C 9.839844 7.535156 11.046875 6.324219 12.539062 6.324219 Z M 12.539062 6.324219 "/>
</g>
</svg>
