<?xml version="1.0" encoding="UTF-8"?>
<svg xmlns="http://www.w3.org/2000/svg" xmlns:xlink="http://www.w3.org/1999/xlink" width="24pt" height="24pt" viewBox="0 0 24 24" version="1.1">
<g id="surface1">
<path style=" stroke:none;fill-rule:evenodd;fill:rgb(60%,60%,60%);fill-opacity:1;" d="M 5.605469 1.421875 L 18.394531 1.421875 C 20.703125 1.421875 22.578125 3.296875 22.578125 5.605469 L 22.578125 18.394531 C 22.578125 20.703125 20.703125 22.578125 18.394531 22.578125 L 5.605469 22.578125 C 3.296875 22.578125 1.421875 20.703125 1.421875 18.394531 L 1.421875 5.605469 C 1.421875 3.296875 3.296875 1.421875 5.605469 1.421875 Z M 5.605469 1.421875 "/>
<path style=" stroke:none;fill-rule:nonzero;fill:rgb(100%,100%,100%);fill-opacity:1;" d="M 11.519531 17.675781 C 10.832031 17.582031 10.367188 17.476562 10.328125 17.410156 C 10.265625 17.292969 10.011719 15.9375 9.898438 15.105469 C 9.835938 14.648438 9.742188 13.722656 9.761719 13.707031 C 9.765625 13.703125 9.917969 13.789062 10.097656 13.902344 C 11.640625 14.859375 13.410156 15.683594 15.132812 16.246094 C 15.34375 16.316406 15.539062 16.378906 15.5625 16.386719 C 15.613281 16.40625 15.578125 16.4375 15.164062 16.71875 C 14.429688 17.214844 13.578125 17.53125 12.648438 17.652344 C 12.339844 17.691406 11.734375 17.703125 11.519531 17.675781 Z M 9.746094 17.222656 C 8.484375 16.671875 7.472656 15.703125 6.875 14.46875 C 6.714844 14.128906 6.535156 13.648438 6.476562 13.386719 L 6.449219 13.265625 L 6.804688 12.949219 C 7.566406 12.269531 8.574219 11.46875 9.1875 11.054688 L 9.394531 10.914062 L 9.394531 11.953125 C 9.398438 13.785156 9.5625 15.386719 9.914062 16.972656 C 9.953125 17.152344 9.980469 17.300781 9.976562 17.308594 C 9.96875 17.3125 9.867188 17.277344 9.746094 17.222656 Z M 15.1875 15.941406 C 14.488281 15.710938 13.648438 15.386719 13.101562 15.140625 C 12.441406 14.84375 12.371094 14.808594 12.371094 14.789062 C 12.371094 14.777344 12.507812 14.691406 12.679688 14.601562 C 12.9375 14.464844 13.484375 14.152344 13.921875 13.890625 C 14.910156 13.296875 16.355469 12.210938 17.304688 11.347656 C 17.453125 11.214844 17.582031 11.109375 17.597656 11.109375 C 17.632812 11.109375 17.691406 11.660156 17.691406 12.011719 C 17.691406 12.617188 17.523438 13.488281 17.296875 14.054688 C 17.003906 14.796875 16.558594 15.484375 16.0625 15.976562 L 15.863281 16.167969 Z M 14.59375 12.035156 C 14.59375 10.683594 14.53125 9.820312 14.351562 8.5625 C 14.277344 8.058594 14.09375 7.035156 14.019531 6.753906 L 14.003906 6.675781 L 14.148438 6.734375 C 14.429688 6.84375 14.871094 7.082031 15.152344 7.269531 C 16.296875 8.046875 17.132812 9.199219 17.472656 10.472656 L 17.542969 10.730469 L 17.183594 11.054688 C 16.984375 11.230469 16.648438 11.527344 16.429688 11.707031 C 15.894531 12.152344 14.675781 13.0625 14.613281 13.0625 C 14.605469 13.0625 14.597656 12.601562 14.59375 12.035156 Z M 6.375 12.871094 C 6.371094 12.855469 6.347656 12.667969 6.328125 12.445312 C 6.242188 11.453125 6.453125 10.375 6.910156 9.457031 C 7.167969 8.941406 7.585938 8.355469 7.957031 7.996094 L 8.128906 7.832031 L 8.847656 8.070312 C 9.242188 8.203125 9.804688 8.410156 10.097656 8.527344 C 10.746094 8.785156 11.621094 9.179688 11.621094 9.214844 C 11.621094 9.226562 11.53125 9.28125 11.421875 9.339844 C 11.097656 9.503906 10.308594 9.960938 9.847656 10.253906 C 8.679688 10.996094 7.648438 11.777344 6.6875 12.652344 C 6.417969 12.894531 6.402344 12.90625 6.375 12.871094 Z M 14.152344 10.261719 C 14.085938 10.199219 13.289062 9.730469 12.757812 9.4375 C 11.613281 8.8125 10.234375 8.210938 8.960938 7.789062 C 8.691406 7.699219 8.453125 7.617188 8.429688 7.609375 C 8.375 7.589844 8.417969 7.558594 8.816406 7.289062 C 9.652344 6.722656 10.539062 6.417969 11.601562 6.328125 C 12.210938 6.277344 12.726562 6.328125 13.574219 6.527344 C 13.609375 6.535156 13.652344 6.570312 13.664062 6.601562 C 13.738281 6.777344 13.949219 7.886719 14.066406 8.71875 C 14.132812 9.1875 14.238281 10.148438 14.238281 10.277344 C 14.238281 10.316406 14.199219 10.308594 14.152344 10.261719 Z M 14.152344 10.261719 "/>
<path style=" stroke:none;fill-rule:evenodd;fill:rgb(28.235294%,47.843137%,68.235294%);fill-opacity:1;" d="M 12 4.886719 C 8.078125 4.886719 4.886719 8.078125 4.886719 12 C 4.886719 15.921875 8.078125 19.113281 12 19.113281 C 15.921875 19.113281 19.113281 15.921875 19.113281 12 C 19.113281 8.078125 15.921875 4.886719 12 4.886719 Z M 12 5.757812 C 15.453125 5.757812 18.242188 8.546875 18.242188 12 C 18.242188 15.453125 15.453125 18.242188 12 18.242188 C 8.546875 18.242188 5.757812 15.453125 5.757812 12 C 5.757812 8.546875 8.546875 5.757812 12 5.757812 Z M 12 5.757812 "/>
</g>
</svg>
