<?xml version="1.0" encoding="UTF-8"?>
<svg xmlns="http://www.w3.org/2000/svg" xmlns:xlink="http://www.w3.org/1999/xlink" width="24pt" height="24pt" viewBox="0 0 24 24" version="1.1">
<g id="surface1">
<path style=" stroke:none;fill-rule:evenodd;fill:rgb(55.686275%,55.686275%,55.686275%);fill-opacity:1;" d="M 5.605469 1.421875 L 18.394531 1.421875 C 20.703125 1.421875 22.578125 3.296875 22.578125 5.605469 L 22.578125 18.394531 C 22.578125 20.703125 20.703125 22.578125 18.394531 22.578125 L 5.605469 22.578125 C 3.296875 22.578125 1.421875 20.703125 1.421875 18.394531 L 1.421875 5.605469 C 1.421875 3.296875 3.296875 1.421875 5.605469 1.421875 Z M 5.605469 1.421875 "/>
<path style=" stroke:none;fill-rule:evenodd;fill:rgb(97.647059%,97.647059%,97.647059%);fill-opacity:1;" d="M 20.347656 12.367188 L 3.652344 12.367188 L 12 3.265625 Z M 20.347656 12.367188 "/>
<path style=" stroke:none;fill-rule:evenodd;fill:rgb(97.647059%,97.647059%,97.647059%);fill-opacity:1;" d="M 8.90625 20.234375 L 8.90625 11.128906 C 8.90625 10.855469 9.261719 10.632812 9.699219 10.632812 L 14.445312 10.632812 C 14.886719 10.632812 15.238281 10.855469 15.238281 11.128906 L 15.238281 20.234375 C 15.238281 20.511719 14.886719 20.734375 14.445312 20.734375 L 9.699219 20.734375 C 9.261719 20.734375 8.90625 20.511719 8.90625 20.234375 Z M 8.90625 20.234375 "/>
</g>
</svg>
