<?xml version="1.0" encoding="UTF-8"?>
<svg xmlns="http://www.w3.org/2000/svg" xmlns:xlink="http://www.w3.org/1999/xlink" width="24pt" height="24pt" viewBox="0 0 24 24" version="1.1">
<g id="surface1">
<path style=" stroke:none;fill-rule:evenodd;fill:rgb(55.686275%,55.686275%,55.686275%);fill-opacity:1;" d="M 22.578125 9.355469 L 1.421875 9.355469 L 1.421875 18.394531 C 1.421875 20.710938 3.289062 22.578125 5.605469 22.578125 L 18.394531 22.578125 C 20.710938 22.578125 22.578125 20.710938 22.578125 18.394531 Z M 22.578125 9.355469 "/>
<path style=" stroke:none;fill-rule:evenodd;fill:rgb(100%,80.392157%,32.941176%);fill-opacity:1;" d="M 22.578125 6.753906 L 1.421875 6.753906 L 1.421875 9.355469 L 22.578125 9.355469 Z M 22.578125 6.753906 "/>
<path style=" stroke:none;fill-rule:evenodd;fill:rgb(53.72549%,87.843137%,34.509804%);fill-opacity:1;" d="M 22.292969 4.183594 L 1.707031 4.183594 C 1.546875 4.628906 1.421875 5.101562 1.421875 5.605469 L 1.421875 6.753906 L 22.578125 6.753906 L 22.578125 5.605469 C 22.578125 5.101562 22.453125 4.628906 22.292969 4.183594 Z M 22.292969 4.183594 "/>
<path style=" stroke:none;fill-rule:evenodd;fill:rgb(34.509804%,58.431373%,86.27451%);fill-opacity:1;" d="M 5.605469 1.425781 C 3.792969 1.425781 2.292969 2.578125 1.707031 4.183594 L 22.292969 4.183594 C 21.707031 2.578125 20.207031 1.425781 18.394531 1.425781 Z M 5.605469 1.425781 "/>
<path style=" stroke:none;fill-rule:nonzero;fill:rgb(92.54902%,92.54902%,92.54902%);fill-opacity:1;" d="M 9 14.039062 L 15 14.039062 C 15.414062 14.039062 15.75 14.375 15.75 14.789062 L 15.75 15.539062 C 15.75 15.953125 15.414062 16.289062 15 16.289062 L 9 16.289062 C 8.585938 16.289062 8.25 15.953125 8.25 15.539062 L 8.25 14.789062 C 8.25 14.375 8.585938 14.039062 9 14.039062 Z M 9 14.039062 "/>
</g>
</svg>
