<?xml version="1.0" encoding="UTF-8"?>
<svg xmlns="http://www.w3.org/2000/svg" xmlns:xlink="http://www.w3.org/1999/xlink" width="24pt" height="24pt" viewBox="0 0 24 24" version="1.1">
<g id="surface1">
<path style=" stroke:none;fill-rule:evenodd;fill:rgb(30.980392%,30.980392%,30.980392%);fill-opacity:1;" d="M 5.605469 1.421875 L 18.394531 1.421875 C 20.703125 1.421875 22.578125 3.296875 22.578125 5.605469 L 22.578125 18.394531 C 22.578125 20.703125 20.703125 22.578125 18.394531 22.578125 L 5.605469 22.578125 C 3.296875 22.578125 1.421875 20.703125 1.421875 18.394531 L 1.421875 5.605469 C 1.421875 3.296875 3.296875 1.421875 5.605469 1.421875 Z M 5.605469 1.421875 "/>
<path style=" stroke:none;fill-rule:nonzero;fill:rgb(41.568627%,14.509804%,21.568627%);fill-opacity:1;" d="M 3.375 9 L 5.792969 15 L 7.519531 15 L 9.898438 9 L 8.269531 9 L 6.636719 12.957031 L 5.023438 9 Z M 3.375 9 "/>
<path style=" stroke:none;fill-rule:nonzero;fill:rgb(65.098039%,66.666667%,67.843137%);fill-opacity:0.941176;" d="M 11.492188 9 C 10.679688 11.011719 9.855469 13.007812 9 15 L 10.726562 15 L 12.335938 11.0625 L 13.929688 15 L 15.65625 15 L 17.25 10.949219 L 18.898438 15 L 20.625 15 C 19.769531 13.007812 18.925781 11.011719 18.113281 9 L 16.386719 9 L 14.792969 12.957031 L 13.164062 9 Z M 11.492188 9 "/>
</g>
</svg>
