<?xml version="1.0" encoding="UTF-8"?>
<svg xmlns="http://www.w3.org/2000/svg" xmlns:xlink="http://www.w3.org/1999/xlink" width="24pt" height="24pt" viewBox="0 0 24 24" version="1.1">
<g id="surface1">
<path style=" stroke:none;fill-rule:evenodd;fill:rgb(30.588235%,56.862745%,85.098039%);fill-opacity:1;" d="M 5.605469 1.421875 L 18.394531 1.421875 C 20.703125 1.421875 22.578125 3.296875 22.578125 5.605469 L 22.578125 18.394531 C 22.578125 20.703125 20.703125 22.578125 18.394531 22.578125 L 5.605469 22.578125 C 3.296875 22.578125 1.421875 20.703125 1.421875 18.394531 L 1.421875 5.605469 C 1.421875 3.296875 3.296875 1.421875 5.605469 1.421875 Z M 5.605469 1.421875 "/>
<path style=" stroke:none;fill-rule:nonzero;fill:rgb(100%,67.843137%,32.54902%);fill-opacity:1;" d="M 15.375 19.5 C 16 19.5 16.5 19 16.5 18.375 L 16.5 8.625 C 16.5 8 16 7.5 15.375 7.5 L 5.625 7.5 C 5 7.5 4.5 8 4.5 8.625 L 4.5 18.375 C 4.5 19 5 19.5 5.625 19.5 Z M 13.5 16.5 L 7.5 16.5 L 7.5 10.5 L 13.5 10.5 Z M 13.5 16.5 "/>
<path style=" stroke:none;fill-rule:nonzero;fill:rgb(63.921569%,79.215686%,96.470588%);fill-opacity:1;" d="M 18.375 16.5 C 19 16.5 19.5 16 19.5 15.375 L 19.5 5.625 C 19.5 5 19 4.5 18.375 4.5 L 8.625 4.5 C 8 4.5 7.5 5 7.5 5.625 L 7.5 7.5 L 16.5 7.5 L 16.5 13.5 L 10.5 13.5 L 10.5 10.5 L 7.5 10.5 L 7.5 15.375 C 7.5 16 8 16.5 8.625 16.5 Z M 18.375 16.5 "/>
</g>
</svg>
