<?xml version="1.0" encoding="UTF-8"?>
<svg xmlns="http://www.w3.org/2000/svg" xmlns:xlink="http://www.w3.org/1999/xlink" width="24pt" height="24pt" viewBox="0 0 24 24" version="1.1">
<g id="surface1">
<path style=" stroke:none;fill-rule:evenodd;fill:rgb(94.901961%,35.686275%,43.529412%);fill-opacity:1;" d="M 5.605469 1.421875 L 18.394531 1.421875 C 20.703125 1.421875 22.578125 3.296875 22.578125 5.605469 L 22.578125 18.394531 C 22.578125 20.703125 20.703125 22.578125 18.394531 22.578125 L 5.605469 22.578125 C 3.296875 22.578125 1.421875 20.703125 1.421875 18.394531 L 1.421875 5.605469 C 1.421875 3.296875 3.296875 1.421875 5.605469 1.421875 Z M 5.605469 1.421875 "/>
<path style=" stroke:none;fill-rule:nonzero;fill:rgb(30.980392%,30.980392%,30.980392%);fill-opacity:1;" d="M 12.046875 3.332031 C 11.671875 3.324219 11.304688 3.414062 10.980469 3.597656 L 4.972656 6.945312 C 4.339844 7.296875 3.953125 7.945312 3.953125 8.652344 L 3.953125 15.347656 C 3.953125 16.050781 4.339844 16.703125 4.972656 17.054688 L 10.980469 20.402344 C 11.609375 20.753906 12.390625 20.753906 13.019531 20.402344 L 19.027344 17.054688 C 19.660156 16.703125 20.046875 16.050781 20.046875 15.347656 L 20.046875 8.652344 C 20.046875 7.945312 19.660156 7.296875 19.027344 6.945312 L 13.019531 3.59375 C 12.726562 3.429688 12.390625 3.339844 12.046875 3.332031 Z M 12.046875 3.332031 "/>
<path style=" stroke:none;fill-rule:nonzero;fill:rgb(94.901961%,35.686275%,43.529412%);fill-opacity:1;" d="M 14.355469 7.046875 C 13.425781 7.046875 12.585938 7.519531 12 8.242188 C 11.414062 7.519531 10.574219 7.046875 9.644531 7.046875 C 7.867188 7.046875 6.429688 8.683594 6.429688 10.707031 C 6.429688 11.25 6.511719 11.769531 6.660156 12.269531 C 6.660156 12.269531 6.792969 12.71875 6.914062 12.96875 C 8.265625 16.136719 12 18.191406 12 18.191406 C 12 18.191406 15.734375 16.136719 17.085938 12.96875 C 18.441406 9.800781 17.261719 12.546875 17.339844 12.269531 C 17.480469 11.769531 17.570312 11.25 17.570312 10.707031 C 17.570312 8.683594 16.132812 7.046875 14.355469 7.046875 Z M 14.355469 7.046875 "/>
</g>
</svg>
