<?xml version="1.0" encoding="UTF-8"?>
<svg xmlns="http://www.w3.org/2000/svg" xmlns:xlink="http://www.w3.org/1999/xlink" width="24pt" height="24pt" viewBox="0 0 24 24" version="1.1">
<g id="surface1">
<path style=" stroke:none;fill-rule:evenodd;fill:rgb(2.352941%,48.235294%,100%);fill-opacity:1;" d="M 5.605469 1.421875 L 18.394531 1.421875 C 20.703125 1.421875 22.578125 3.296875 22.578125 5.605469 L 22.578125 18.394531 C 22.578125 20.703125 20.703125 22.578125 18.394531 22.578125 L 5.605469 22.578125 C 3.296875 22.578125 1.421875 20.703125 1.421875 18.394531 L 1.421875 5.605469 C 1.421875 3.296875 3.296875 1.421875 5.605469 1.421875 Z M 5.605469 1.421875 "/>
<path style=" stroke:none;fill-rule:nonzero;fill:rgb(30.980392%,30.980392%,30.980392%);fill-opacity:1;" d="M 17.738281 7.109375 L 12.0625 5.078125 C 12.023438 5.0625 11.976562 5.0625 11.933594 5.078125 L 6.261719 7.109375 C 6.183594 7.136719 6.132812 7.210938 6.132812 7.292969 C 6.132812 9.351562 6.667969 11.726562 7.601562 13.8125 C 8.359375 15.507812 9.722656 17.765625 11.910156 18.910156 C 11.9375 18.925781 11.96875 18.933594 12 18.933594 C 12.03125 18.933594 12.0625 18.925781 12.089844 18.910156 C 14.277344 17.765625 15.640625 15.507812 16.398438 13.8125 C 17.332031 11.726562 17.867188 9.351562 17.867188 7.292969 C 17.867188 7.210938 17.816406 7.136719 17.738281 7.109375 Z M 17.738281 7.109375 "/>
<path style=" stroke:none;fill-rule:nonzero;fill:rgb(2.352941%,48.235294%,100%);fill-opacity:1;" d="M 15.128906 9.367188 L 12.035156 8.273438 C 12.011719 8.265625 11.988281 8.265625 11.964844 8.273438 L 8.871094 9.367188 C 8.828125 9.382812 8.800781 9.421875 8.800781 9.464844 C 8.800781 10.574219 9.089844 11.851562 9.601562 12.976562 C 10.015625 13.890625 10.757812 15.105469 11.953125 15.722656 C 11.964844 15.730469 11.984375 15.734375 12 15.734375 C 12.015625 15.734375 12.03125 15.730469 12.046875 15.722656 C 13.242188 15.105469 13.984375 13.890625 14.398438 12.976562 C 14.90625 11.851562 15.199219 10.574219 15.199219 9.464844 C 15.199219 9.421875 15.171875 9.382812 15.128906 9.367188 Z M 15.128906 9.367188 "/>
<path style=" stroke:none;fill-rule:nonzero;fill:rgb(100%,100%,100%);fill-opacity:1;" d="M 9.019531 8.484375 L 10.246094 7.777344 L 15.90625 17.582031 L 16.175781 19.46875 L 14.679688 18.289062 Z M 9.019531 8.484375 "/>
<path style=" stroke:none;fill-rule:nonzero;fill:rgb(24.705882%,24.705882%,24.705882%);fill-opacity:1;" d="M 8.132812 4.535156 C 8.085938 4.542969 8.042969 4.554688 8.003906 4.578125 L 7.371094 4.941406 C 7.207031 5.039062 7.148438 5.246094 7.246094 5.414062 L 8.3125 7.257812 L 7.382812 7.796875 C 7.21875 7.890625 7.164062 8.101562 7.257812 8.265625 L 7.621094 8.894531 C 7.71875 9.058594 7.925781 9.117188 8.089844 9.019531 L 11.171875 7.242188 C 11.335938 7.148438 11.394531 6.9375 11.296875 6.773438 L 10.933594 6.140625 C 10.839844 5.976562 10.628906 5.921875 10.464844 6.015625 L 9.539062 6.550781 L 8.472656 4.703125 C 8.398438 4.582031 8.265625 4.519531 8.132812 4.535156 Z M 8.132812 4.535156 "/>
<path style=" stroke:none;fill-rule:nonzero;fill:rgb(100%,100%,100%);fill-opacity:1;" d="M 14.996094 8.484375 L 13.769531 7.777344 L 8.109375 17.582031 L 7.839844 19.46875 L 9.335938 18.289062 Z M 14.996094 8.484375 "/>
<path style=" stroke:none;fill-rule:nonzero;fill:rgb(24.705882%,24.705882%,24.705882%);fill-opacity:1;" d="M 15.886719 4.535156 C 15.929688 4.542969 15.972656 4.554688 16.015625 4.578125 L 16.644531 4.941406 C 16.808594 5.039062 16.867188 5.246094 16.769531 5.414062 L 15.703125 7.257812 L 16.632812 7.796875 C 16.796875 7.890625 16.851562 8.101562 16.757812 8.265625 L 16.394531 8.894531 C 16.300781 9.058594 16.089844 9.117188 15.925781 9.019531 L 12.84375 7.242188 C 12.679688 7.148438 12.621094 6.9375 12.71875 6.773438 L 13.082031 6.140625 C 13.175781 5.976562 13.386719 5.921875 13.550781 6.015625 L 14.480469 6.550781 L 15.546875 4.703125 C 15.617188 4.582031 15.753906 4.519531 15.886719 4.535156 Z M 15.886719 4.535156 "/>
</g>
</svg>
