<?xml version="1.0" encoding="UTF-8"?>
<svg xmlns="http://www.w3.org/2000/svg" xmlns:xlink="http://www.w3.org/1999/xlink" width="24pt" height="24pt" viewBox="0 0 24 24" version="1.1">
<g id="surface1">
<path style=" stroke:none;fill-rule:evenodd;fill:rgb(60%,60%,60%);fill-opacity:1;" d="M 5.605469 1.421875 L 18.394531 1.421875 C 20.703125 1.421875 22.578125 3.296875 22.578125 5.605469 L 22.578125 18.394531 C 22.578125 20.703125 20.703125 22.578125 18.394531 22.578125 L 5.605469 22.578125 C 3.296875 22.578125 1.421875 20.703125 1.421875 18.394531 L 1.421875 5.605469 C 1.421875 3.296875 3.296875 1.421875 5.605469 1.421875 Z M 5.605469 1.421875 "/>
<path style=" stroke:none;fill-rule:nonzero;fill:rgb(30.980392%,30.980392%,30.980392%);fill-opacity:1;" d="M 12.035156 5.777344 C 8.75 5.777344 5.792969 6.941406 3.339844 8.753906 L 12.035156 18.222656 L 20.660156 8.71875 C 18.21875 6.929688 15.292969 5.777344 12.035156 5.777344 Z M 12.035156 5.777344 "/>
<path style=" stroke:none;fill-rule:nonzero;fill:rgb(47.45098%,47.45098%,47.45098%);fill-opacity:1;" d="M 12 8.261719 C 9.382812 8.261719 6.957031 9.121094 5.003906 10.570312 L 12.035156 18.222656 L 18.996094 10.570312 C 17.046875 9.121094 14.617188 8.261719 12 8.261719 Z M 12 8.261719 "/>
<path style=" stroke:none;fill-rule:nonzero;fill:rgb(80%,80%,80%);fill-opacity:1;" d="M 12 10.753906 C 10.039062 10.753906 8.214844 11.394531 6.753906 12.484375 L 12.027344 18.222656 L 17.246094 12.484375 C 15.785156 11.398438 13.960938 10.753906 12 10.753906 Z M 12 10.753906 "/>
</g>
</svg>
