<?xml version="1.0" encoding="UTF-8"?>
<svg xmlns="http://www.w3.org/2000/svg" xmlns:xlink="http://www.w3.org/1999/xlink" width="24pt" height="24pt" viewBox="0 0 24 24" version="1.1">
<g id="surface1">
<path style=" stroke:none;fill-rule:evenodd;fill:rgb(92.54902%,92.54902%,92.54902%);fill-opacity:1;" d="M 12.710938 22.574219 L 12.710938 14.710938 C 12.710938 14.503906 12.878906 14.335938 13.085938 14.335938 L 22.578125 14.335938 L 22.578125 18.394531 C 22.578125 20.710938 20.710938 22.574219 18.394531 22.574219 Z M 12.710938 22.574219 "/>
<path style=" stroke:none;fill-rule:evenodd;fill:rgb(29.019608%,70.196078%,89.411765%);fill-opacity:1;" d="M 18.394531 1.425781 C 20.710938 1.425781 22.578125 3.289062 22.578125 5.605469 L 22.578125 14.335938 L 13.085938 14.335938 C 12.878906 14.335938 12.710938 14.503906 12.710938 14.710938 L 12.710938 22.574219 L 5.605469 22.574219 C 3.289062 22.574219 1.425781 20.710938 1.425781 18.394531 L 1.425781 5.605469 C 1.425781 3.289062 3.289062 1.425781 5.605469 1.425781 Z M 18.394531 1.425781 "/>
</g>
</svg>
