<?xml version="1.0" encoding="UTF-8"?>
<svg xmlns="http://www.w3.org/2000/svg" xmlns:xlink="http://www.w3.org/1999/xlink" width="24pt" height="24pt" viewBox="0 0 24 24" version="1.1">
<g id="surface1">
<path style=" stroke:none;fill-rule:evenodd;fill:rgb(45.490196%,69.803922%,92.941176%);fill-opacity:1;" d="M 5.605469 1.421875 L 18.394531 1.421875 C 20.703125 1.421875 22.578125 3.296875 22.578125 5.605469 L 22.578125 18.394531 C 22.578125 20.703125 20.703125 22.578125 18.394531 22.578125 L 5.605469 22.578125 C 3.296875 22.578125 1.421875 20.703125 1.421875 18.394531 L 1.421875 5.605469 C 1.421875 3.296875 3.296875 1.421875 5.605469 1.421875 Z M 5.605469 1.421875 "/>
<path style=" stroke:none;fill-rule:nonzero;fill:rgb(100%,100%,100%);fill-opacity:1;" d="M 8.625 9.375 L 8.625 10.125 L 8.25 10.125 C 7.625 10.125 7.125 10.625 7.125 11.25 C 7.125 11.875 7.625 12.375 8.25 12.375 L 8.625 12.375 L 8.625 13.125 L 7.195312 13.125 C 7.347656 13.5625 7.757812 13.875 8.25 13.875 L 8.625 13.875 L 8.625 14.625 L 9.375 14.625 L 9.375 13.875 L 9.75 13.875 C 10.375 13.875 10.875 13.375 10.875 12.75 C 10.875 12.125 10.375 11.625 9.75 11.625 L 9.375 11.625 L 9.375 10.875 L 10.804688 10.875 C 10.652344 10.4375 10.242188 10.125 9.75 10.125 L 9.375 10.125 L 9.375 9.375 Z M 8.25 10.875 L 8.625 10.875 L 8.625 11.625 L 8.25 11.625 C 8.042969 11.625 7.875 11.457031 7.875 11.25 C 7.875 11.042969 8.042969 10.875 8.25 10.875 Z M 9.375 12.375 L 9.75 12.375 C 9.957031 12.375 10.125 12.542969 10.125 12.75 C 10.125 12.957031 9.957031 13.132812 9.75 13.125 L 9.375 13.125 Z M 12.375 13.875 L 12.375 14.625 L 16.875 14.625 L 16.875 13.875 Z M 12.375 13.875 "/>
</g>
</svg>
