<?xml version="1.0" encoding="UTF-8"?>
<svg xmlns="http://www.w3.org/2000/svg" xmlns:xlink="http://www.w3.org/1999/xlink" width="36pt" height="36pt" viewBox="0 0 36 36" version="1.1">
<g id="surface1">
<path style=" stroke:none;fill-rule:evenodd;fill:rgb(23.529412%,53.333333%,90.588235%);fill-opacity:1;" d="M 18 33.863281 L 18 18 L 2.136719 18 L 2.136719 27.59375 C 2.136719 31.066406 4.933594 33.863281 8.40625 33.863281 Z M 18 33.863281 "/>
<path style=" stroke:none;fill-rule:evenodd;fill:rgb(36.470588%,75.686275%,36.078431%);fill-opacity:1;" d="M 33.863281 18 L 18 18 L 18 33.863281 L 27.59375 33.863281 C 31.066406 33.863281 33.863281 31.066406 33.863281 27.59375 Z M 33.863281 18 "/>
<path style=" stroke:none;fill-rule:evenodd;fill:rgb(76.078431%,20.784314%,16.470588%);fill-opacity:1;" d="M 18 2.136719 L 18 18 L 33.863281 18 L 33.863281 8.40625 C 33.863281 4.933594 31.066406 2.136719 27.59375 2.136719 Z M 18 2.136719 "/>
<path style=" stroke:none;fill-rule:evenodd;fill:rgb(90.588235%,65.490196%,23.529412%);fill-opacity:1;" d="M 2.136719 18 L 18 18 L 18 2.136719 L 8.40625 2.136719 C 4.933594 2.136719 2.136719 4.933594 2.136719 8.40625 Z M 2.136719 18 "/>
<path style=" stroke:none;fill-rule:nonzero;fill:rgb(18.039216%,18.039216%,18.039216%);fill-opacity:1;" d="M 25.875 18 C 25.875 22.347656 22.347656 25.875 18 25.875 C 13.652344 25.875 10.125 22.347656 10.125 18 C 10.125 13.652344 13.652344 10.125 18 10.125 C 22.347656 10.125 25.875 13.652344 25.875 18 Z M 25.875 18 "/>
</g>
</svg>
