<?xml version="1.0" encoding="UTF-8"?>
<svg xmlns="http://www.w3.org/2000/svg" xmlns:xlink="http://www.w3.org/1999/xlink" width="36pt" height="36pt" viewBox="0 0 36 36" version="1.1">
<g id="surface1">
<path style=" stroke:none;fill-rule:evenodd;fill:rgb(78.039216%,29.019608%,70.588235%);fill-opacity:1;" d="M 8.40625 2.136719 L 27.59375 2.136719 C 31.054688 2.136719 33.863281 4.945312 33.863281 8.40625 L 33.863281 27.59375 C 33.863281 31.054688 31.054688 33.863281 27.59375 33.863281 L 8.40625 33.863281 C 4.945312 33.863281 2.136719 31.054688 2.136719 27.59375 L 2.136719 8.40625 C 2.136719 4.945312 4.945312 2.136719 8.40625 2.136719 Z M 8.40625 2.136719 "/>
<path style=" stroke:none;fill-rule:evenodd;fill:rgb(78.039216%,29.019608%,70.588235%);fill-opacity:1;" d="M 10.21875 33.863281 L 27.589844 33.863281 C 31.066406 33.863281 33.863281 31.066406 33.863281 27.589844 L 33.863281 8.40625 C 33.863281 4.933594 31.066406 2.136719 27.589844 2.136719 L 10.21875 2.136719 Z M 10.21875 33.863281 "/>
<path style=" stroke:none;fill-rule:evenodd;fill:rgb(62.352941%,23.137255%,56.470588%);fill-opacity:1;" d="M 10.21875 33.863281 L 10.21875 2.136719 L 8.40625 2.136719 C 4.933594 2.136719 2.136719 4.933594 2.136719 8.40625 L 2.136719 27.589844 C 2.136719 31.066406 4.933594 33.863281 8.40625 33.863281 Z M 10.21875 33.863281 "/>
<path style=" stroke:none;fill-rule:nonzero;fill:rgb(59.215686%,91.372549%,39.215686%);fill-opacity:1;" d="M 22.351562 2.128906 L 22.351562 17.878906 L 24.601562 15.628906 L 26.851562 17.878906 L 26.851562 2.128906 Z M 22.351562 2.128906 "/>
</g>
</svg>
