<?xml version="1.0" encoding="UTF-8"?>
<svg xmlns="http://www.w3.org/2000/svg" xmlns:xlink="http://www.w3.org/1999/xlink" width="36pt" height="36pt" viewBox="0 0 36 36" version="1.1">
<g id="surface1">
<path style=" stroke:none;fill-rule:evenodd;fill:rgb(90.196078%,90.196078%,90.196078%);fill-opacity:1;" d="M 8.40625 2.136719 L 27.59375 2.136719 C 31.054688 2.136719 33.863281 4.945312 33.863281 8.40625 L 33.863281 27.59375 C 33.863281 31.054688 31.054688 33.863281 27.59375 33.863281 L 8.40625 33.863281 C 4.945312 33.863281 2.136719 31.054688 2.136719 27.59375 L 2.136719 8.40625 C 2.136719 4.945312 4.945312 2.136719 8.40625 2.136719 Z M 8.40625 2.136719 "/>
<path style=" stroke:none;fill-rule:nonzero;fill:rgb(87.843137%,23.529412%,23.137255%);fill-opacity:1;" d="M 26.347656 6.140625 C 26.03125 8.101562 25.0625 9.890625 23.613281 11.210938 C 22.003906 10.148438 20.078125 9.527344 18 9.527344 C 15.921875 9.527344 13.992188 10.148438 12.382812 11.214844 C 10.945312 9.90625 9.980469 8.136719 9.652344 6.195312 C 9.574219 6.664062 9.53125 7.140625 9.527344 7.613281 C 9.53125 9.3125 10.015625 10.972656 10.925781 12.390625 C 9.019531 14.234375 7.832031 16.816406 7.832031 19.695312 C 7.832031 25.328125 12.367188 29.859375 18 29.859375 C 23.632812 29.859375 28.167969 25.328125 28.167969 19.695312 C 28.167969 16.820312 26.980469 14.238281 25.074219 12.390625 C 25.984375 10.972656 26.472656 9.3125 26.472656 7.613281 C 26.472656 7.121094 26.429688 6.625 26.347656 6.140625 Z M 26.347656 6.140625 "/>
<path style=" stroke:none;fill-rule:nonzero;fill:rgb(100%,100%,100%);fill-opacity:1;" d="M 17.152344 22.234375 C 16.148438 23.855469 13.929688 24.410156 12.191406 23.476562 C 10.453125 22.539062 9.859375 20.46875 10.863281 18.847656 Z M 17.152344 22.234375 "/>
<path style=" stroke:none;fill-rule:nonzero;fill:rgb(17.254902%,17.254902%,17.254902%);fill-opacity:1;" d="M 13.675781 20.363281 C 13.53125 21.359375 13.824219 22.554688 14.582031 23.871094 C 14.582031 23.871094 14.585938 23.871094 14.589844 23.871094 C 14.179688 22.929688 14.242188 21.859375 14.609375 20.867188 Z M 13.675781 20.363281 "/>
<path style=" stroke:none;fill-rule:nonzero;fill:rgb(100%,100%,100%);fill-opacity:1;" d="M 18.847656 22.234375 C 19.851562 23.855469 22.070312 24.414062 23.808594 23.476562 C 25.546875 22.539062 26.140625 20.46875 25.136719 18.847656 Z M 18.847656 22.234375 "/>
<path style=" stroke:none;fill-rule:nonzero;fill:rgb(17.254902%,17.254902%,17.254902%);fill-opacity:1;" d="M 22.324219 20.363281 L 21.390625 20.867188 C 21.757812 21.859375 21.820312 22.929688 21.410156 23.871094 C 21.414062 23.871094 21.417969 23.871094 21.417969 23.871094 C 22.175781 22.554688 22.46875 21.359375 22.324219 20.363281 Z M 22.324219 20.363281 "/>
</g>
</svg>
