<?xml version="1.0" encoding="UTF-8"?>
<svg xmlns="http://www.w3.org/2000/svg" xmlns:xlink="http://www.w3.org/1999/xlink" width="36pt" height="36pt" viewBox="0 0 36 36" version="1.1">
<g id="surface1">
<path style=" stroke:none;fill-rule:evenodd;fill:rgb(12.54902%,58.431373%,94.901961%);fill-opacity:1;" d="M 8.40625 2.136719 L 27.59375 2.136719 C 31.054688 2.136719 33.863281 4.945312 33.863281 8.40625 L 33.863281 27.59375 C 33.863281 31.054688 31.054688 33.863281 27.59375 33.863281 L 8.40625 33.863281 C 4.945312 33.863281 2.136719 31.054688 2.136719 27.59375 L 2.136719 8.40625 C 2.136719 4.945312 4.945312 2.136719 8.40625 2.136719 Z M 8.40625 2.136719 "/>
<path style=" stroke:none;fill-rule:evenodd;fill:rgb(12.54902%,58.431373%,94.901961%);fill-opacity:1;" d="M 13.410156 2.136719 L 8.40625 2.136719 C 4.933594 2.136719 2.132812 4.933594 2.132812 8.40625 L 2.132812 27.589844 C 2.132812 31.066406 4.933594 33.863281 8.40625 33.863281 L 27.59375 33.863281 C 31.066406 33.863281 33.867188 31.066406 33.867188 27.589844 L 33.867188 19.605469 C 33.574219 19.785156 33.28125 19.957031 32.976562 20.117188 C 32.554688 20.332031 32.125 20.523438 31.683594 20.695312 C 31.242188 20.867188 30.792969 21.015625 30.335938 21.144531 C 29.882812 21.269531 29.421875 21.375 28.953125 21.453125 C 28.488281 21.535156 28.019531 21.59375 27.546875 21.625 C 27.210938 21.648438 26.875 21.660156 26.542969 21.660156 C 26.070312 21.660156 25.597656 21.636719 25.125 21.589844 C 24.65625 21.542969 24.1875 21.472656 23.726562 21.378906 C 23.261719 21.28125 22.800781 21.164062 22.347656 21.027344 C 21.898438 20.886719 21.453125 20.722656 21.019531 20.539062 C 20.582031 20.355469 20.15625 20.148438 19.742188 19.921875 C 19.328125 19.695312 18.921875 19.449219 18.53125 19.183594 C 18.140625 18.914062 17.765625 18.628906 17.402344 18.324219 C 17.042969 18.019531 16.695312 17.699219 16.367188 17.359375 C 16.035156 17.019531 15.722656 16.664062 15.429688 16.292969 C 15.136719 15.921875 14.859375 15.539062 14.605469 15.140625 C 14.347656 14.742188 14.113281 14.332031 13.898438 13.910156 C 13.683594 13.488281 13.492188 13.054688 13.320312 12.613281 C 13.148438 12.175781 13 11.726562 12.871094 11.269531 C 12.746094 10.8125 12.644531 10.351562 12.5625 9.886719 C 12.480469 9.417969 12.425781 8.949219 12.390625 8.476562 C 12.367188 8.144531 12.355469 7.808594 12.355469 7.472656 C 12.355469 7 12.378906 6.527344 12.425781 6.058594 C 12.472656 5.585938 12.546875 5.121094 12.640625 4.65625 C 12.734375 4.191406 12.851562 3.734375 12.988281 3.28125 C 13.113281 2.894531 13.253906 2.511719 13.410156 2.136719 Z M 13.410156 2.136719 "/>
<path style=" stroke:none;fill-rule:evenodd;fill:rgb(30.196078%,66.666667%,96.078431%);fill-opacity:1;" d="M 13.410156 2.136719 C 13.253906 2.511719 13.113281 2.894531 12.988281 3.28125 C 12.851562 3.734375 12.734375 4.191406 12.640625 4.65625 C 12.546875 5.121094 12.472656 5.585938 12.425781 6.058594 C 12.378906 6.527344 12.355469 7 12.355469 7.472656 C 12.355469 7.808594 12.367188 8.144531 12.390625 8.476562 C 12.425781 8.949219 12.480469 9.417969 12.5625 9.886719 C 12.644531 10.351562 12.746094 10.8125 12.871094 11.269531 C 13 11.726562 13.148438 12.175781 13.320312 12.613281 C 13.492188 13.054688 13.683594 13.488281 13.898438 13.910156 C 14.113281 14.332031 14.347656 14.742188 14.605469 15.140625 C 14.859375 15.539062 15.136719 15.921875 15.429688 16.292969 C 15.722656 16.664062 16.035156 17.019531 16.367188 17.359375 C 16.695312 17.699219 17.042969 18.019531 17.402344 18.324219 C 17.765625 18.628906 18.140625 18.914062 18.53125 19.183594 C 18.921875 19.449219 19.328125 19.695312 19.742188 19.921875 C 20.15625 20.148438 20.582031 20.355469 21.019531 20.539062 C 21.453125 20.722656 21.898438 20.886719 22.347656 21.027344 C 22.800781 21.164062 23.261719 21.28125 23.726562 21.378906 C 24.1875 21.472656 24.65625 21.542969 25.125 21.589844 C 25.597656 21.636719 26.070312 21.660156 26.542969 21.660156 C 26.875 21.660156 27.210938 21.648438 27.546875 21.625 C 28.019531 21.59375 28.488281 21.535156 28.953125 21.453125 C 29.421875 21.375 29.882812 21.269531 30.335938 21.144531 C 30.792969 21.015625 31.242188 20.867188 31.683594 20.695312 C 32.125 20.523438 32.554688 20.332031 32.976562 20.117188 C 33.28125 19.957031 33.574219 19.785156 33.867188 19.605469 L 33.867188 8.40625 C 33.867188 4.933594 31.066406 2.136719 27.59375 2.136719 Z M 13.410156 2.136719 "/>
<path style=" stroke:none;fill-rule:nonzero;fill:rgb(100%,100%,100%);fill-opacity:1;" d="M 16.390625 6.75 C 15.945312 6.75 15.589844 7.136719 15.589844 7.617188 L 15.589844 21.460938 L 12.375 21.460938 L 18 29.25 L 23.625 21.460938 L 20.410156 21.460938 L 20.410156 7.617188 C 20.410156 7.136719 20.050781 6.75 19.605469 6.75 Z M 16.390625 6.75 "/>
</g>
</svg>
