<?xml version="1.0" encoding="UTF-8"?>
<svg xmlns="http://www.w3.org/2000/svg" xmlns:xlink="http://www.w3.org/1999/xlink" width="36pt" height="36pt" viewBox="0 0 36 36" version="1.1">
<g id="surface1">
<path style=" stroke:none;fill-rule:evenodd;fill:rgb(30.980392%,30.980392%,30.980392%);fill-opacity:1;" d="M 8.40625 2.136719 L 27.59375 2.136719 C 31.054688 2.136719 33.863281 4.945312 33.863281 8.40625 L 33.863281 27.59375 C 33.863281 31.054688 31.054688 33.863281 27.59375 33.863281 L 8.40625 33.863281 C 4.945312 33.863281 2.136719 31.054688 2.136719 27.59375 L 2.136719 8.40625 C 2.136719 4.945312 4.945312 2.136719 8.40625 2.136719 Z M 8.40625 2.136719 "/>
<path style=" stroke:none;fill-rule:nonzero;fill:rgb(100%,100%,100%);fill-opacity:1;" d="M 8.25 10.6875 L 27.75 10.6875 C 28.578125 10.6875 29.25 11.316406 29.25 12.09375 L 29.25 14.90625 C 29.25 15.683594 28.578125 16.3125 27.75 16.3125 L 8.25 16.3125 C 7.421875 16.3125 6.75 15.683594 6.75 14.90625 L 6.75 12.09375 C 6.75 11.316406 7.421875 10.6875 8.25 10.6875 Z M 8.25 10.6875 "/>
<path style=" stroke:none;fill-rule:nonzero;fill:rgb(100%,100%,100%);fill-opacity:1;" d="M 8.25 19.6875 L 27.75 19.6875 C 28.578125 19.6875 29.25 20.316406 29.25 21.09375 L 29.25 23.90625 C 29.25 24.683594 28.578125 25.3125 27.75 25.3125 L 8.25 25.3125 C 7.421875 25.3125 6.75 24.683594 6.75 23.90625 L 6.75 21.09375 C 6.75 20.316406 7.421875 19.6875 8.25 19.6875 Z M 8.25 19.6875 "/>
<path style=" stroke:none;fill-rule:nonzero;fill:rgb(30.980392%,62.745098%,100%);fill-opacity:1;" d="M 11.25 13.5 C 11.25 14.433594 10.496094 15.1875 9.5625 15.1875 C 8.628906 15.1875 7.875 14.433594 7.875 13.5 C 7.875 12.566406 8.628906 11.8125 9.5625 11.8125 C 10.496094 11.8125 11.25 12.566406 11.25 13.5 Z M 11.25 13.5 "/>
<path style=" stroke:none;fill-rule:nonzero;fill:rgb(100%,30.980392%,30.980392%);fill-opacity:1;" d="M 11.25 22.5 C 11.25 23.433594 10.496094 24.1875 9.5625 24.1875 C 8.628906 24.1875 7.875 23.433594 7.875 22.5 C 7.875 21.566406 8.628906 20.8125 9.5625 20.8125 C 10.496094 20.8125 11.25 21.566406 11.25 22.5 Z M 11.25 22.5 "/>
<path style=" stroke:none;fill-rule:nonzero;fill:rgb(30.980392%,62.745098%,100%);fill-opacity:1;" d="M 16.875 13.5 C 16.875 14.433594 16.121094 15.1875 15.1875 15.1875 C 14.253906 15.1875 13.5 14.433594 13.5 13.5 C 13.5 12.566406 14.253906 11.8125 15.1875 11.8125 C 16.121094 11.8125 16.875 12.566406 16.875 13.5 Z M 16.875 13.5 "/>
<path style=" stroke:none;fill-rule:nonzero;fill:rgb(100%,30.980392%,30.980392%);fill-opacity:1;" d="M 16.875 22.5 C 16.875 23.433594 16.121094 24.1875 15.1875 24.1875 C 14.253906 24.1875 13.5 23.433594 13.5 22.5 C 13.5 21.566406 14.253906 20.8125 15.1875 20.8125 C 16.121094 20.8125 16.875 21.566406 16.875 22.5 Z M 16.875 22.5 "/>
<path style=" stroke:none;fill-rule:nonzero;fill:rgb(30.980392%,62.745098%,100%);fill-opacity:1;" d="M 22.5 13.5 C 22.5 14.433594 21.746094 15.1875 20.8125 15.1875 C 19.878906 15.1875 19.125 14.433594 19.125 13.5 C 19.125 12.566406 19.878906 11.8125 20.8125 11.8125 C 21.746094 11.8125 22.5 12.566406 22.5 13.5 Z M 22.5 13.5 "/>
<path style=" stroke:none;fill-rule:nonzero;fill:rgb(100%,30.980392%,30.980392%);fill-opacity:1;" d="M 22.5 22.5 C 22.5 23.433594 21.746094 24.1875 20.8125 24.1875 C 19.878906 24.1875 19.125 23.433594 19.125 22.5 C 19.125 21.566406 19.878906 20.8125 20.8125 20.8125 C 21.746094 20.8125 22.5 21.566406 22.5 22.5 Z M 22.5 22.5 "/>
<path style=" stroke:none;fill-rule:evenodd;fill:rgb(30.980392%,30.980392%,30.980392%);fill-opacity:1;" d="M 8.40625 2.136719 L 27.59375 2.136719 C 31.054688 2.136719 33.863281 4.945312 33.863281 8.40625 L 33.863281 27.59375 C 33.863281 31.054688 31.054688 33.863281 27.59375 33.863281 L 8.40625 33.863281 C 4.945312 33.863281 2.136719 31.054688 2.136719 27.59375 L 2.136719 8.40625 C 2.136719 4.945312 4.945312 2.136719 8.40625 2.136719 Z M 8.40625 2.136719 "/>
<path style=" stroke:none;fill-rule:nonzero;fill:rgb(100%,100%,100%);fill-opacity:1;" d="M 8.25 10.6875 L 27.75 10.6875 C 28.578125 10.6875 29.25 11.316406 29.25 12.09375 L 29.25 14.90625 C 29.25 15.683594 28.578125 16.3125 27.75 16.3125 L 8.25 16.3125 C 7.421875 16.3125 6.75 15.683594 6.75 14.90625 L 6.75 12.09375 C 6.75 11.316406 7.421875 10.6875 8.25 10.6875 Z M 8.25 10.6875 "/>
<path style=" stroke:none;fill-rule:nonzero;fill:rgb(100%,100%,100%);fill-opacity:1;" d="M 8.25 19.6875 L 27.75 19.6875 C 28.578125 19.6875 29.25 20.316406 29.25 21.09375 L 29.25 23.90625 C 29.25 24.683594 28.578125 25.3125 27.75 25.3125 L 8.25 25.3125 C 7.421875 25.3125 6.75 24.683594 6.75 23.90625 L 6.75 21.09375 C 6.75 20.316406 7.421875 19.6875 8.25 19.6875 Z M 8.25 19.6875 "/>
<path style=" stroke:none;fill-rule:nonzero;fill:rgb(30.980392%,62.745098%,100%);fill-opacity:1;" d="M 11.25 13.5 C 11.25 14.433594 10.496094 15.1875 9.5625 15.1875 C 8.628906 15.1875 7.875 14.433594 7.875 13.5 C 7.875 12.566406 8.628906 11.8125 9.5625 11.8125 C 10.496094 11.8125 11.25 12.566406 11.25 13.5 Z M 11.25 13.5 "/>
<path style=" stroke:none;fill-rule:nonzero;fill:rgb(100%,30.980392%,30.980392%);fill-opacity:1;" d="M 11.25 22.5 C 11.25 23.433594 10.496094 24.1875 9.5625 24.1875 C 8.628906 24.1875 7.875 23.433594 7.875 22.5 C 7.875 21.566406 8.628906 20.8125 9.5625 20.8125 C 10.496094 20.8125 11.25 21.566406 11.25 22.5 Z M 11.25 22.5 "/>
<path style=" stroke:none;fill-rule:nonzero;fill:rgb(30.980392%,62.745098%,100%);fill-opacity:1;" d="M 16.875 13.5 C 16.875 14.433594 16.121094 15.1875 15.1875 15.1875 C 14.253906 15.1875 13.5 14.433594 13.5 13.5 C 13.5 12.566406 14.253906 11.8125 15.1875 11.8125 C 16.121094 11.8125 16.875 12.566406 16.875 13.5 Z M 16.875 13.5 "/>
<path style=" stroke:none;fill-rule:nonzero;fill:rgb(100%,30.980392%,30.980392%);fill-opacity:1;" d="M 16.875 22.5 C 16.875 23.433594 16.121094 24.1875 15.1875 24.1875 C 14.253906 24.1875 13.5 23.433594 13.5 22.5 C 13.5 21.566406 14.253906 20.8125 15.1875 20.8125 C 16.121094 20.8125 16.875 21.566406 16.875 22.5 Z M 16.875 22.5 "/>
<path style=" stroke:none;fill-rule:nonzero;fill:rgb(30.980392%,62.745098%,100%);fill-opacity:1;" d="M 22.5 13.5 C 22.5 14.433594 21.746094 15.1875 20.8125 15.1875 C 19.878906 15.1875 19.125 14.433594 19.125 13.5 C 19.125 12.566406 19.878906 11.8125 20.8125 11.8125 C 21.746094 11.8125 22.5 12.566406 22.5 13.5 Z M 22.5 13.5 "/>
<path style=" stroke:none;fill-rule:nonzero;fill:rgb(100%,30.980392%,30.980392%);fill-opacity:1;" d="M 22.5 22.5 C 22.5 23.433594 21.746094 24.1875 20.8125 24.1875 C 19.878906 24.1875 19.125 23.433594 19.125 22.5 C 19.125 21.566406 19.878906 20.8125 20.8125 20.8125 C 21.746094 20.8125 22.5 21.566406 22.5 22.5 Z M 22.5 22.5 "/>
</g>
</svg>
