<?xml version="1.0" encoding="UTF-8"?>
<svg xmlns="http://www.w3.org/2000/svg" xmlns:xlink="http://www.w3.org/1999/xlink" width="36pt" height="36pt" viewBox="0 0 36 36" version="1.1">
<g id="surface1">
<path style=" stroke:none;fill-rule:evenodd;fill:rgb(100%,83.137255%,29.019608%);fill-opacity:1;" d="M 8.40625 2.136719 L 27.59375 2.136719 C 31.054688 2.136719 33.863281 4.945312 33.863281 8.40625 L 33.863281 27.59375 C 33.863281 31.054688 31.054688 33.863281 27.59375 33.863281 L 8.40625 33.863281 C 4.945312 33.863281 2.136719 31.054688 2.136719 27.59375 L 2.136719 8.40625 C 2.136719 4.945312 4.945312 2.136719 8.40625 2.136719 Z M 8.40625 2.136719 "/>
<path style=" stroke:none;fill-rule:nonzero;fill:rgb(95.686275%,70.588235%,0%);fill-opacity:1;" d="M 18 6.632812 C 11.722656 6.632812 6.632812 11.722656 6.632812 18 C 6.632812 24.277344 11.722656 29.367188 18 29.367188 C 24.277344 29.367188 29.367188 24.277344 29.367188 18 C 29.367188 11.722656 24.277344 6.632812 18 6.632812 Z M 18 6.632812 "/>
<path style=" stroke:none;fill-rule:nonzero;fill:rgb(100%,83.137255%,29.019608%);fill-opacity:1;" d="M 16.550781 6.734375 C 15.082031 6.921875 13.703125 7.390625 12.464844 8.082031 L 13.269531 8.28125 L 13.789062 8.644531 L 13.789062 8.957031 L 14.671875 9.53125 L 14.464844 10.363281 L 13.996094 10 L 13.683594 10.363281 L 13.320312 10.570312 L 13.113281 9.945312 L 13.214844 9.582031 L 13.113281 9.324219 L 12.59375 8.855469 L 12.386719 8.855469 L 12.59375 9.375 L 12.59375 9.839844 C 12.386719 9.785156 12.179688 9.765625 11.96875 9.738281 L 12.539062 10.152344 L 12.59375 10.414062 L 13.269531 10.984375 L 13.945312 10.832031 L 13.945312 10.414062 L 14.257812 10.621094 L 14.101562 10.984375 L 14.621094 10.984375 L 14.878906 11.453125 L 15.191406 11.816406 L 15.816406 11.921875 L 15.453125 12.285156 L 15.347656 12.648438 L 15.816406 12.648438 L 16.386719 12.960938 L 16.386719 13.898438 L 16.128906 13.898438 L 15.867188 14.15625 L 15.296875 13.898438 L 15.089844 13.324219 L 14.671875 13.066406 L 14.621094 12.859375 L 13.945312 12.703125 L 13.582031 13.117188 L 13.164062 13.324219 L 13.425781 13.792969 L 13.0625 13.691406 L 12.851562 13.222656 L 13.320312 12.703125 L 13.113281 12.703125 L 12.695312 13.066406 L 12.59375 13.585938 L 12.230469 14.054688 L 12.125 13.378906 L 11.917969 13.273438 C 11.695312 13.507812 11.53125 13.789062 11.34375 14.054688 L 10.617188 14.105469 L 10.253906 14.367188 L 10.410156 14.625 L 10.824219 14.988281 L 11.398438 14.988281 L 12.175781 14.730469 L 12.539062 14.78125 L 12.851562 15.09375 L 13.683594 14.261719 L 14.257812 14.105469 L 15.089844 14.207031 L 15.867188 14.417969 C 16.292969 14.910156 16.714844 15.414062 17.117188 15.925781 L 17.585938 17.121094 L 17.375 17.328125 L 17.792969 17.953125 L 17.324219 19.042969 C 16.945312 19.480469 16.558594 19.90625 16.179688 20.34375 L 15.609375 19.875 L 15.398438 20.136719 L 14.777344 19.773438 L 14.566406 19.980469 L 13.996094 19.980469 L 13.632812 20.394531 L 13.839844 21.125 L 13.425781 21.59375 L 13.476562 22.425781 L 13.113281 23.046875 L 13.371094 23.566406 C 13.394531 23.945312 13.425781 24.332031 13.425781 24.710938 C 13.242188 25.222656 13.023438 25.703125 12.851562 26.21875 L 12.75 27.050781 L 12.75 27.464844 L 12.4375 27.464844 L 11.917969 27.15625 L 11.421875 27.15625 C 13.273438 28.480469 15.539062 29.265625 18 29.265625 C 19.847656 29.265625 21.585938 28.816406 23.121094 28.039062 L 23.148438 27.988281 L 22.78125 27.625 L 22.679688 27.257812 L 22.105469 27.101562 L 21.691406 25.960938 L 21.792969 25.699219 L 21.535156 25.230469 L 20.859375 25.074219 L 20.546875 24.296875 L 20.597656 23.257812 L 20.078125 22.527344 L 20.027344 21.800781 C 20.738281 21.441406 21.402344 21.078125 22.105469 20.707031 L 22.472656 19.980469 L 23.09375 19.824219 L 23.457031 18.890625 L 24.289062 18.992188 L 25.070312 18.421875 L 25.851562 19.148438 L 25.851562 19.253906 C 26.085938 19.183594 26.367188 19.175781 26.578125 19.042969 L 26.734375 18.523438 L 26.734375 18.003906 L 27.253906 18.058594 C 27.210938 17.707031 27.140625 17.316406 27.097656 16.964844 L 27.410156 16.964844 L 27.722656 17.378906 L 28.035156 17.535156 L 28.449219 17.277344 L 28.503906 16.757812 L 28.449219 16.132812 L 27.773438 15.664062 L 27.253906 15.664062 L 27.148438 15.351562 L 26.527344 15.507812 L 26.058594 16.082031 L 25.953125 15.09375 L 25.121094 14.417969 L 24.863281 13.636719 L 24.238281 13.378906 L 23.875 12.910156 L 23.09375 12.753906 L 22.730469 12.128906 L 23.875 12.128906 L 23.148438 11.816406 L 22.625 11.816406 L 21.953125 11.558594 L 21.847656 12.234375 L 21.535156 11.765625 L 21.898438 11.507812 L 21.792969 11.246094 L 22.054688 10.984375 L 22.367188 10.933594 L 22.261719 10.621094 L 22.523438 10.152344 L 23.042969 10.363281 L 22.9375 9.945312 L 23.5625 9.582031 L 24.03125 10.464844 L 23.980469 10.726562 L 24.445312 10.933594 L 24.757812 11.609375 L 24.863281 10.984375 L 25.695312 10.675781 L 25.851562 10.207031 L 24.757812 9.582031 L 24.289062 9.113281 L 24.238281 8.542969 L 24.265625 8.527344 C 24.148438 8.445312 24.019531 8.375 23.894531 8.300781 L 24.082031 8.753906 L 23.5625 8.753906 L 23.40625 8.335938 L 22.941406 8.699219 L 22.523438 8.699219 L 22.523438 8.285156 L 22.992188 8.074219 L 23.40625 8.335938 L 23.355469 8.230469 C 23.148438 8.082031 22.945312 7.910156 22.734375 7.761719 L 22.214844 7.921875 C 21.890625 8.144531 21.601562 8.371094 21.277344 8.59375 L 20.757812 8.128906 L 21.328125 7.921875 L 21.535156 7.398438 L 21.941406 7.355469 C 21.722656 7.273438 21.503906 7.191406 21.28125 7.125 L 20.238281 7.867188 L 20.238281 8.335938 L 20.652344 8.804688 L 20.082031 9.949219 L 19.664062 9.738281 L 19.199219 8.960938 C 18.5 8.738281 17.828125 8.484375 17.167969 8.179688 L 17.222656 8.492188 L 16.910156 8.699219 L 16.335938 8.285156 L 16.597656 7.972656 L 17.011719 8.179688 L 17.066406 8.128906 L 16.554688 6.734375 Z M 11.351562 8.800781 C 11.175781 8.929688 10.996094 9.054688 10.828125 9.191406 L 11.03125 9.425781 L 11.605469 8.800781 Z M 15.660156 9.375 L 15.972656 9.375 L 15.972656 9.6875 L 15.765625 9.945312 L 15.765625 10.414062 L 15.867188 11.089844 L 15.347656 10.984375 L 14.933594 10.621094 L 15.296875 10.257812 C 15.410156 9.949219 15.515625 9.671875 15.660156 9.375 Z M 16.441406 10.050781 L 16.753906 10.15625 L 16.699219 10.777344 L 16.230469 10.519531 Z M 8.328125 15.351562 L 7.859375 15.871094 L 7.34375 15.820312 C 7.160156 15.992188 6.976562 16.136719 6.808594 16.304688 C 6.730469 16.84375 6.6875 17.394531 6.6875 17.953125 C 6.6875 21.667969 8.46875 24.941406 11.214844 27.003906 L 10.511719 26.167969 L 10.617188 25.804688 L 9.992188 25.28125 L 10.460938 24.816406 L 9.941406 24.398438 L 9.421875 24.085938 L 9.214844 23.828125 L 9.371094 23.253906 L 9.371094 21.800781 L 8.953125 20.914062 L 8.484375 20.394531 L 7.914062 19.042969 L 7.914062 18.679688 C 8.179688 18.714844 8.429688 18.765625 8.691406 18.785156 L 8.175781 18.210938 L 7.445312 17.691406 L 7.027344 17.222656 L 7.027344 16.757812 C 7.117188 16.582031 7.199219 16.355469 7.289062 16.183594 L 7.652344 16.652344 L 7.914062 16.289062 L 8.328125 15.976562 Z M 10.355469 15.613281 L 9.890625 16.183594 L 9.265625 17.484375 L 8.902344 17.898438 L 9.109375 18.367188 L 8.746094 18.785156 C 8.898438 18.792969 9.058594 18.785156 9.214844 18.785156 C 9.496094 18.175781 9.726562 17.546875 9.941406 16.910156 L 10.304688 16.496094 L 10.515625 15.714844 Z M 29.304688 17.65625 C 29.285156 17.691406 29.230469 17.796875 29.230469 17.796875 L 28.347656 18.316406 L 27.410156 18.578125 L 27.046875 19.097656 L 26.421875 19.566406 L 26.109375 19.460938 L 25.851562 19.617188 L 25.851562 19.667969 L 26.164062 20.65625 L 26.421875 21.019531 L 26.371094 21.226562 L 26.578125 22.007812 L 25.796875 23.414062 L 25.019531 24.140625 L 24.65625 24.609375 L 24.707031 25.699219 L 24.445312 26.273438 L 24.636719 27.113281 C 27.46875 25.058594 29.3125 21.734375 29.3125 17.953125 C 29.3125 17.855469 29.308594 17.753906 29.304688 17.65625 Z M 29.304688 17.65625 "/>
<path style=" stroke:none;fill-rule:nonzero;fill:rgb(100%,100%,100%);fill-opacity:1;" d="M 18.855469 9.664062 L 19.25 11.957031 L 17.582031 13.582031 L 19.886719 13.917969 L 20.914062 16.003906 L 21.945312 13.917969 L 24.25 13.582031 L 22.582031 11.957031 L 22.976562 9.664062 L 20.914062 10.746094 Z M 10.941406 11.664062 L 11.335938 13.960938 L 9.671875 15.582031 L 11.972656 15.917969 L 13 18.003906 L 14.03125 15.917969 L 16.335938 15.582031 L 14.667969 13.960938 L 15.058594 11.664062 L 13 12.75 Z M 20.941406 17.496094 L 21.332031 19.789062 L 19.664062 21.414062 L 21.96875 21.75 L 23 23.835938 L 24.027344 21.75 L 26.328125 21.414062 L 24.664062 19.789062 L 25.058594 17.496094 L 23 18.578125 Z M 11.773438 19.996094 L 12.167969 22.289062 L 10.503906 23.914062 L 12.804688 24.25 L 13.832031 26.335938 L 14.863281 24.25 L 17.167969 23.914062 L 15.5 22.289062 L 15.894531 19.996094 L 13.832031 21.078125 Z M 11.773438 19.996094 "/>
<path style=" stroke:none;fill-rule:nonzero;fill:rgb(76.078431%,20.784314%,16.470588%);fill-opacity:1;" d="M 17.277344 19.921875 C 16.921875 19.933594 16.605469 20.128906 16.4375 20.441406 C 16.269531 20.75 16.277344 21.125 16.457031 21.425781 L 18.558594 25.074219 L 16.457031 28.726562 C 16.273438 29.035156 16.269531 29.417969 16.445312 29.730469 C 16.625 30.042969 16.957031 30.234375 17.316406 30.234375 C 17.675781 30.230469 18.007812 30.035156 18.183594 29.71875 L 19.707031 27.070312 L 21.238281 29.71875 C 21.410156 30.035156 21.742188 30.230469 22.101562 30.234375 C 22.460938 30.234375 22.792969 30.042969 22.972656 29.730469 C 23.152344 29.417969 23.148438 29.035156 22.960938 28.726562 L 20.859375 25.074219 L 22.960938 21.425781 C 23.144531 21.121094 23.148438 20.738281 22.976562 20.425781 C 22.800781 20.117188 22.472656 19.921875 22.113281 19.921875 C 21.75 19.917969 21.414062 20.113281 21.238281 20.433594 L 19.707031 23.082031 L 18.183594 20.433594 C 18 20.105469 17.648438 19.90625 17.277344 19.921875 Z M 24.492188 19.925781 C 24.175781 19.925781 23.875 20.074219 23.6875 20.328125 C 23.5 20.582031 23.441406 20.910156 23.535156 21.210938 L 25.925781 29.503906 C 26.046875 29.933594 26.4375 30.226562 26.882812 30.226562 C 27.324219 30.226562 27.714844 29.933594 27.835938 29.503906 L 30.230469 21.210938 C 30.382812 20.683594 30.078125 20.132812 29.546875 19.980469 C 29.019531 19.824219 28.46875 20.128906 28.316406 20.660156 L 26.882812 25.632812 L 25.445312 20.660156 C 25.328125 20.226562 24.9375 19.929688 24.492188 19.925781 Z M 24.492188 19.925781 "/>
</g>
</svg>
