<?xml version="1.0" encoding="UTF-8"?>
<svg xmlns="http://www.w3.org/2000/svg" xmlns:xlink="http://www.w3.org/1999/xlink" width="36pt" height="36pt" viewBox="0 0 36 36" version="1.1">
<g id="surface1">
<path style=" stroke:none;fill-rule:evenodd;fill:rgb(88.627451%,70.196078%,13.333333%);fill-opacity:1;" d="M 2.136719 13.722656 C 2.140625 13.738281 2.144531 13.757812 2.152344 13.773438 C 2.585938 14.804688 3.117188 15.78125 3.734375 16.695312 C 4.351562 17.613281 5.058594 18.464844 5.835938 19.242188 C 6.613281 20.019531 7.464844 20.722656 8.378906 21.34375 C 9.296875 21.960938 10.273438 22.492188 11.300781 22.925781 C 12.332031 23.359375 13.414062 23.699219 14.53125 23.929688 C 15.652344 24.15625 16.8125 24.277344 18 24.277344 C 19.1875 24.277344 20.347656 24.15625 21.46875 23.929688 C 22.585938 23.699219 23.667969 23.359375 24.695312 22.925781 C 25.726562 22.492188 26.703125 21.960938 27.621094 21.34375 C 28.535156 20.722656 29.386719 20.019531 30.164062 19.242188 C 30.941406 18.464844 31.648438 17.613281 32.265625 16.695312 C 32.882812 15.78125 33.414062 14.804688 33.847656 13.773438 C 33.855469 13.757812 33.859375 13.738281 33.863281 13.722656 L 33.863281 8.40625 C 33.863281 4.933594 31.066406 2.136719 27.59375 2.136719 L 8.40625 2.136719 C 4.933594 2.136719 2.136719 4.933594 2.136719 8.40625 Z M 2.136719 13.722656 "/>
<path style=" stroke:none;fill-rule:evenodd;fill:rgb(88.627451%,70.196078%,13.333333%);fill-opacity:1;" d="M 2.136719 16.085938 L 2.136719 27.59375 C 2.136719 31.066406 4.933594 33.863281 8.40625 33.863281 L 27.59375 33.863281 C 31.066406 33.863281 33.863281 31.066406 33.863281 27.59375 L 33.863281 16.085938 C 33.632812 16.492188 33.457031 16.933594 33.195312 17.320312 C 32.535156 18.296875 31.785156 19.203125 30.953125 20.03125 C 30.125 20.863281 29.21875 21.613281 28.242188 22.273438 C 27.269531 22.929688 26.226562 23.496094 25.128906 23.960938 C 24.035156 24.425781 22.882812 24.785156 21.691406 25.027344 C 20.5 25.273438 19.265625 25.402344 18 25.402344 C 16.734375 25.402344 15.5 25.273438 14.308594 25.027344 C 13.117188 24.785156 11.964844 24.425781 10.871094 23.960938 C 9.773438 23.496094 8.730469 22.929688 7.757812 22.273438 C 6.78125 21.613281 5.875 20.863281 5.046875 20.03125 C 4.214844 19.203125 3.464844 18.296875 2.804688 17.320312 C 2.542969 16.933594 2.367188 16.492188 2.136719 16.085938 Z M 2.136719 16.085938 "/>
<path style=" stroke:none;fill-rule:evenodd;fill:rgb(88.627451%,70.196078%,13.333333%);fill-opacity:1;" d="M 18 2.136719 L 8.40625 2.136719 C 4.933594 2.136719 2.136719 4.933594 2.136719 8.40625 L 2.136719 27.589844 C 2.136719 31.066406 4.933594 33.863281 8.40625 33.863281 L 18 33.863281 Z M 18 2.136719 "/>
<path style=" stroke:none;fill-rule:evenodd;fill:rgb(94.901961%,80.392157%,13.333333%);fill-opacity:1;" d="M 18 2.136719 L 18 33.863281 L 27.589844 33.863281 C 31.066406 33.863281 33.863281 31.066406 33.863281 27.589844 L 33.863281 8.40625 C 33.863281 4.933594 31.066406 2.136719 27.589844 2.136719 Z M 18 2.136719 "/>
<path style=" stroke:none;fill-rule:nonzero;fill:rgb(100%,100%,100%);fill-opacity:1;" d="M 15.167969 31.207031 C 15.167969 31.808594 15.65625 32.296875 16.257812 32.296875 C 16.859375 32.296875 17.347656 31.808594 17.347656 31.207031 C 17.347656 31.011719 17.285156 30.835938 17.195312 30.675781 L 18 29.816406 L 18.804688 30.675781 C 18.714844 30.835938 18.652344 31.011719 18.652344 31.207031 C 18.652344 31.808594 19.140625 32.296875 19.746094 32.296875 C 20.34375 32.296875 20.832031 31.808594 20.832031 31.207031 C 20.832031 30.605469 20.34375 30.117188 19.742188 30.117188 C 19.644531 30.117188 19.550781 30.132812 19.457031 30.160156 L 18.558594 29.230469 L 20.398438 27.285156 L 20.398438 26.628906 L 19.960938 26.628906 L 16.542969 30.160156 C 16.449219 30.132812 16.355469 30.117188 16.257812 30.117188 C 15.65625 30.117188 15.167969 30.605469 15.167969 31.207031 Z M 15.820312 31.207031 C 15.820312 30.96875 16.015625 30.773438 16.257812 30.773438 C 16.496094 30.773438 16.691406 30.96875 16.691406 31.207031 C 16.691406 31.449219 16.496094 31.644531 16.257812 31.644531 C 16.015625 31.644531 15.820312 31.449219 15.820312 31.207031 Z M 15.601562 27.285156 L 17.222656 29 L 17.78125 28.429688 L 16.039062 26.632812 L 15.601562 26.632812 Z M 19.308594 31.207031 C 19.308594 30.96875 19.503906 30.773438 19.742188 30.773438 C 19.984375 30.773438 20.179688 30.96875 20.179688 31.207031 C 20.179688 31.449219 19.984375 31.644531 19.742188 31.644531 C 19.503906 31.644531 19.308594 31.449219 19.308594 31.207031 Z M 19.308594 31.207031 "/>
<path style=" stroke:none;fill-rule:nonzero;fill:rgb(100%,100%,100%);fill-opacity:1;" d="M 22.4375 9.300781 L 15.910156 10.808594 C 14.988281 10.921875 15.023438 11.863281 15.023438 11.863281 L 15.023438 15.882812 C 14.8125 15.820312 14.589844 15.789062 14.371094 15.789062 C 13.046875 15.789062 11.972656 16.859375 11.972656 18.183594 C 11.972656 19.507812 13.046875 20.582031 14.371094 20.582031 C 15.609375 20.582031 16.644531 19.636719 16.757812 18.402344 L 16.765625 18.402344 L 16.765625 12.371094 L 21.5625 11.230469 L 21.5625 14.574219 C 21.347656 14.511719 21.128906 14.480469 20.90625 14.480469 C 19.585938 14.480469 18.511719 15.554688 18.511719 16.878906 C 18.511719 18.203125 19.585938 19.273438 20.90625 19.273438 C 22.148438 19.273438 23.183594 18.328125 23.292969 17.09375 L 23.304688 17.09375 L 23.304688 10.121094 C 23.304688 10.121094 23.316406 9.117188 22.4375 9.300781 Z M 22.4375 9.300781 "/>
<path style=" stroke:none;fill-rule:evenodd;fill:rgb(100%,100%,100%);fill-opacity:1;" d="M 2.136719 16.085938 C 2.367188 16.492188 2.542969 16.933594 2.804688 17.320312 C 3.464844 18.296875 4.214844 19.203125 5.046875 20.03125 C 5.875 20.863281 6.78125 21.613281 7.757812 22.273438 C 8.730469 22.929688 9.773438 23.496094 10.871094 23.960938 C 11.964844 24.425781 13.117188 24.785156 14.308594 25.027344 C 15.5 25.273438 16.734375 25.402344 18 25.402344 C 19.265625 25.402344 20.5 25.273438 21.691406 25.027344 C 22.882812 24.785156 24.035156 24.425781 25.128906 23.960938 C 26.226562 23.496094 27.269531 22.929688 28.242188 22.273438 C 29.21875 21.613281 30.125 20.863281 30.953125 20.03125 C 31.785156 19.203125 32.535156 18.296875 33.195312 17.320312 C 33.457031 16.933594 33.632812 16.492188 33.863281 16.085938 L 33.863281 13.722656 C 33.859375 13.738281 33.855469 13.757812 33.847656 13.773438 C 33.414062 14.804688 32.882812 15.78125 32.265625 16.695312 C 31.648438 17.613281 30.941406 18.464844 30.164062 19.242188 C 29.386719 20.019531 28.535156 20.722656 27.621094 21.34375 C 26.703125 21.960938 25.726562 22.492188 24.695312 22.925781 C 23.667969 23.359375 22.585938 23.699219 21.46875 23.929688 C 20.347656 24.15625 19.1875 24.277344 18 24.277344 C 16.8125 24.277344 15.652344 24.15625 14.53125 23.929688 C 13.414062 23.699219 12.332031 23.359375 11.300781 22.925781 C 10.273438 22.492188 9.296875 21.960938 8.378906 21.34375 C 7.464844 20.722656 6.613281 20.019531 5.835938 19.242188 C 5.058594 18.464844 4.351562 17.613281 3.734375 16.695312 C 3.117188 15.78125 2.585938 14.804688 2.152344 13.773438 C 2.144531 13.757812 2.140625 13.738281 2.136719 13.722656 Z M 2.136719 16.085938 "/>
</g>
</svg>
