<?xml version="1.0" encoding="UTF-8"?>
<svg xmlns="http://www.w3.org/2000/svg" xmlns:xlink="http://www.w3.org/1999/xlink" width="36pt" height="36pt" viewBox="0 0 36 36" version="1.1">
<g id="surface1">
<path style=" stroke:none;fill-rule:evenodd;fill:rgb(30.980392%,30.980392%,30.980392%);fill-opacity:1;" d="M 8.40625 2.136719 L 27.59375 2.136719 C 31.054688 2.136719 33.863281 4.945312 33.863281 8.40625 L 33.863281 27.59375 C 33.863281 31.054688 31.054688 33.863281 27.59375 33.863281 L 8.40625 33.863281 C 4.945312 33.863281 2.136719 31.054688 2.136719 27.59375 L 2.136719 8.40625 C 2.136719 4.945312 4.945312 2.136719 8.40625 2.136719 Z M 8.40625 2.136719 "/>
<path style=" stroke:none;fill-rule:evenodd;fill:rgb(100%,38.823529%,38.823529%);fill-opacity:1;" d="M 28.355469 33.839844 C 34.742188 22.589844 26.855469 16.109375 19.054688 14.429688 C 27.308594 19.785156 19.996094 30.320312 9.464844 33.855469 C 14.011719 33.835938 23.808594 33.894531 28.355469 33.839844 Z M 28.355469 33.839844 "/>
<path style=" stroke:none;fill-rule:evenodd;fill:rgb(100%,38.823529%,38.823529%);fill-opacity:1;" d="M 9.226562 2.160156 C -0.109375 12.941406 9.15625 19.890625 16.957031 21.570312 C 8.699219 16.21875 15.417969 6.21875 22.347656 2.144531 C 17.800781 2.164062 13.777344 2.105469 9.226562 2.160156 Z M 9.226562 2.160156 "/>
<path style=" stroke:none;fill-rule:nonzero;fill:rgb(100%,38.823529%,38.823529%);fill-opacity:1;" d="M 20.699219 20.714844 C 19.792969 21.617188 17.84375 21.136719 16.347656 19.636719 C 14.847656 18.140625 14.367188 16.191406 15.269531 15.285156 C 16.175781 14.382812 18.121094 14.863281 19.621094 16.363281 C 21.121094 17.859375 21.601562 19.808594 20.699219 20.714844 Z M 20.699219 20.714844 "/>
</g>
</svg>
