<?xml version="1.0" encoding="UTF-8"?>
<svg xmlns="http://www.w3.org/2000/svg" xmlns:xlink="http://www.w3.org/1999/xlink" width="36pt" height="36pt" viewBox="0 0 36 36" version="1.1">
<g id="surface1">
<path style=" stroke:none;fill-rule:evenodd;fill:rgb(44.313725%,39.607843%,60%);fill-opacity:1;" d="M 8.40625 2.136719 L 27.59375 2.136719 C 31.054688 2.136719 33.863281 4.945312 33.863281 8.40625 L 33.863281 27.59375 C 33.863281 31.054688 31.054688 33.863281 27.59375 33.863281 L 8.40625 33.863281 C 4.945312 33.863281 2.136719 31.054688 2.136719 27.59375 L 2.136719 8.40625 C 2.136719 4.945312 4.945312 2.136719 8.40625 2.136719 Z M 8.40625 2.136719 "/>
<path style=" stroke:none;fill-rule:nonzero;fill:rgb(27.843137%,69.019608%,81.568627%);fill-opacity:1;" d="M 16.089844 29.710938 C 14.742188 29.457031 13.308594 28.832031 12.105469 27.984375 C 10.753906 27.03125 9.359375 25.351562 8.691406 23.875 C 8.015625 22.390625 7.742188 20.597656 7.921875 18.828125 C 8.058594 17.488281 8.210938 16.867188 8.671875 15.800781 C 9.953125 12.84375 12.453125 10.804688 15.769531 10.019531 C 16.308594 9.890625 16.6875 9.738281 16.917969 9.554688 C 17.261719 9.285156 17.265625 9.28125 17.472656 7.9375 C 17.730469 6.261719 17.726562 6.273438 17.992188 6.207031 C 18.347656 6.117188 20.015625 6.355469 20.832031 6.613281 C 22.144531 7.023438 23.082031 7.5625 24.199219 8.542969 C 24.542969 8.84375 25.4375 9.089844 25.492188 9.089844 C 25.828125 9.089844 26.765625 9.53125 27.144531 9.898438 C 28.277344 10.996094 28.429688 12.378906 27.566406 13.71875 C 27.335938 14.078125 27.027344 13.917969 27.027344 14.378906 C 27.027344 14.691406 26.976562 15.011719 26.910156 15.097656 C 26.816406 15.222656 25.96875 15.289062 24.140625 15.449219 C 22.476562 15.589844 21.46875 16.019531 21.367188 16.121094 C 21.0625 16.425781 21.765625 16.488281 25 16.742188 C 28.027344 16.980469 28.300781 17.066406 28.070312 17.292969 C 28.019531 17.34375 26.695312 17.574219 24.847656 17.945312 L 21.492188 18.625 L 19.386719 17.8125 C 18.226562 17.363281 17.242188 17.109375 17.195312 17.109375 C 17.058594 17.109375 16.042969 18.796875 16.078125 18.96875 C 16.117188 19.183594 16.542969 19.066406 17.09375 19.144531 C 17.476562 19.195312 17.582031 19.167969 17.976562 18.90625 C 18.855469 18.324219 19.640625 18.324219 20.128906 18.902344 C 20.429688 19.257812 20.4375 19.5 20.164062 19.691406 C 19.886719 19.882812 19.6875 19.875 19.28125 19.660156 C 18.710938 19.355469 18.351562 19.753906 18.554688 20.300781 C 18.691406 20.652344 18.613281 20.84375 18.34375 20.84375 C 18.191406 20.84375 18.082031 20.75 17.976562 20.527344 C 17.828125 20.214844 17.824219 20.054688 16.996094 20 C 16.101562 19.9375 15.679688 20.25 15.117188 19.894531 C 14.675781 19.617188 14.261719 19.132812 14.261719 18.890625 C 14.261719 18.664062 14.703125 17.789062 15.152344 17.125 C 15.570312 16.503906 15.582031 16.355469 15.21875 16.355469 C 15.023438 16.355469 14.863281 16.445312 14.679688 16.660156 C 14.359375 17.042969 13.601562 18.613281 13.601562 18.902344 C 13.601562 19.300781 13.90625 19.742188 14.71875 20.277344 C 15.363281 20.703125 15.5625 20.730469 15.699219 21.042969 C 15.90625 21.511719 16.269531 22.316406 16.347656 23.050781 C 16.414062 23.65625 16.546875 23.5 16.789062 23.074219 C 17.035156 22.644531 17.71875 22.558594 17.71875 22.960938 C 17.71875 23.054688 17.613281 23.191406 17.480469 23.261719 C 17.054688 23.488281 17.085938 23.875 17.550781 24.121094 C 17.6875 24.195312 17.820312 24.160156 18.140625 23.976562 C 18.367188 23.84375 18.617188 23.734375 18.695312 23.734375 C 18.882812 23.734375 19.132812 24.09375 19.132812 24.363281 C 19.132812 24.960938 18.664062 25.335938 17.914062 25.335938 C 17.019531 25.335938 16.332031 24.855469 15.960938 23.96875 C 15.765625 23.496094 14.988281 22.640625 14.671875 22.296875 C 14.355469 21.957031 14.1875 21.898438 13.921875 21.9375 C 13.625 21.980469 13.480469 22.257812 13.480469 22.980469 C 13.476562 24.367188 13.914062 25.789062 15.496094 26.570312 C 18.089844 27.847656 20.578125 27.863281 23.257812 26.613281 C 25.238281 25.695312 26.761719 24.171875 26.875 22.574219 C 26.914062 21.988281 26.890625 21.832031 26.699219 21.46875 C 26.308594 20.707031 25.085938 20.269531 24.253906 20.644531 C 23.984375 20.769531 23.777344 21.121094 23.644531 21.503906 C 23.257812 22.699219 23.824219 23.191406 24.480469 23.476562 C 24.75 23.59375 25.222656 23.507812 25.308594 23.175781 C 25.402344 22.800781 25.21875 22.652344 24.710938 22.683594 C 24.324219 22.707031 24.273438 22.6875 24.246094 22.503906 C 24.207031 22.230469 24.617188 21.964844 25.0625 21.976562 C 25.328125 21.984375 25.476562 21.976562 25.71875 22.238281 C 26.089844 22.640625 26.023438 23.113281 25.832031 23.484375 C 25.597656 23.929688 25.160156 24.230469 24.511719 24.226562 C 23.589844 24.226562 22.84375 23.710938 22.625 22.929688 C 22.496094 22.460938 22.5 21.710938 22.667969 21.160156 C 23.144531 19.550781 25.84375 19.222656 27.128906 20.46875 C 27.75 21.070312 28.0625 21.753906 28.003906 22.835938 C 27.878906 25.179688 25.515625 27.441406 22.816406 28.765625 C 21.21875 29.546875 20.320312 29.757812 18.375 29.804688 C 17.265625 29.828125 16.558594 29.800781 16.089844 29.710938 Z M 16.089844 29.710938 "/>
<path style=" stroke:none;fill-rule:nonzero;fill:rgb(100%,100%,100%);fill-opacity:1;" d="M 22.492188 12.375 C 22.492188 13.929688 21.234375 15.1875 19.679688 15.1875 C 18.128906 15.1875 16.867188 13.929688 16.867188 12.375 C 16.867188 10.820312 18.128906 9.5625 19.679688 9.5625 C 21.234375 9.5625 22.492188 10.820312 22.492188 12.375 Z M 22.492188 12.375 "/>
<path style=" stroke:none;fill-rule:nonzero;fill:rgb(36.862745%,36.862745%,36.862745%);fill-opacity:1;" d="M 20.242188 11.8125 C 20.242188 12.433594 19.738281 12.9375 19.117188 12.9375 C 18.496094 12.9375 17.992188 12.433594 17.992188 11.8125 C 17.992188 11.191406 18.496094 10.6875 19.117188 10.6875 C 19.738281 10.6875 20.242188 11.191406 20.242188 11.8125 Z M 20.242188 11.8125 "/>
<path style=" stroke:none;fill-rule:nonzero;fill:rgb(100%,100%,100%);fill-opacity:1;" d="M 26.960938 11.496094 C 27.089844 12.105469 26.808594 12.734375 26.332031 12.898438 L 25.867188 10.6875 C 26.34375 10.523438 26.835938 10.886719 26.960938 11.496094 Z M 26.960938 11.496094 "/>
</g>
</svg>
