<?xml version="1.0" encoding="UTF-8"?>
<svg xmlns="http://www.w3.org/2000/svg" xmlns:xlink="http://www.w3.org/1999/xlink" width="36pt" height="36pt" viewBox="0 0 36 36" version="1.1">
<defs>
<clipPath id="clip1">
  <rect width="36" height="36"/>
</clipPath>
<g id="surface6" clip-path="url(#clip1)">
<path style=" stroke:none;fill-rule:nonzero;fill:rgb(18.039216%,67.45098%,26.27451%);fill-opacity:1;" d="M 31.546875 24.921875 C 31.546875 28.652344 28.523438 31.671875 24.796875 31.671875 C 21.070312 31.671875 18.046875 28.652344 18.046875 24.921875 C 18.046875 21.195312 21.070312 18.171875 24.796875 18.171875 C 28.523438 18.171875 31.546875 21.195312 31.546875 24.921875 Z M 31.546875 24.921875 "/>
</g>
</defs>
<g id="surface1">
<path style=" stroke:none;fill-rule:evenodd;fill:rgb(9.019608%,52.156863%,15.686275%);fill-opacity:1;" d="M 8.40625 2.136719 L 27.59375 2.136719 C 31.054688 2.136719 33.863281 4.945312 33.863281 8.40625 L 33.863281 27.59375 C 33.863281 31.054688 31.054688 33.863281 27.59375 33.863281 L 8.40625 33.863281 C 4.945312 33.863281 2.136719 31.054688 2.136719 27.59375 L 2.136719 8.40625 C 2.136719 4.945312 4.945312 2.136719 8.40625 2.136719 Z M 8.40625 2.136719 "/>
<path style=" stroke:none;fill-rule:nonzero;fill:rgb(100%,100%,100%);fill-opacity:1;" d="M 22.152344 19.070312 C 22.152344 21.191406 20.433594 22.910156 18.316406 22.910156 C 16.195312 22.910156 14.476562 21.191406 14.476562 19.070312 C 14.476562 16.949219 16.195312 15.230469 18.316406 15.230469 C 20.433594 15.230469 22.152344 16.949219 22.152344 19.070312 Z M 22.152344 19.070312 "/>
<path style=" stroke:none;fill-rule:nonzero;fill:rgb(51.764706%,51.764706%,51.764706%);fill-opacity:1;" d="M 18 11.953125 C 14.660156 11.953125 11.953125 14.660156 11.953125 18 C 11.953125 21.339844 14.660156 24.046875 18 24.046875 C 21.339844 24.046875 24.046875 21.339844 24.046875 18 C 24.046875 14.660156 21.339844 11.953125 18 11.953125 Z M 18 15.582031 C 19.335938 15.582031 20.417969 16.664062 20.417969 18 C 20.417969 19.335938 19.335938 20.417969 18 20.417969 C 16.664062 20.417969 15.582031 19.335938 15.582031 18 C 15.582031 16.664062 16.664062 15.582031 18 15.582031 Z M 18 15.582031 "/>
<path style=" stroke:none;fill-rule:nonzero;fill:rgb(80%,80%,80%);fill-opacity:1;" d="M 18 5.910156 C 11.300781 5.910156 5.910156 11.300781 5.910156 18 C 5.910156 24.699219 11.300781 30.089844 18 30.089844 C 24.699219 30.089844 30.089844 24.699219 30.089844 18 C 30.089844 11.300781 24.699219 5.910156 18 5.910156 Z M 18 13.164062 C 20.671875 13.164062 22.835938 15.328125 22.835938 18 C 22.835938 20.671875 20.671875 22.835938 18 22.835938 C 15.328125 22.835938 13.164062 20.671875 13.164062 18 C 13.164062 15.328125 15.328125 13.164062 18 13.164062 Z M 18 13.164062 "/>
<use xlink:href="#surface6"/>
<path style=" stroke:none;fill-rule:nonzero;fill:rgb(100%,100%,100%);fill-opacity:1;" d="M 26.484375 27.875 C 26.484375 29.042969 25.539062 29.984375 24.375 29.984375 C 23.210938 29.984375 22.265625 29.042969 22.265625 27.875 C 22.265625 26.710938 23.210938 25.765625 24.375 25.765625 C 25.539062 25.765625 26.484375 26.710938 26.484375 27.875 Z M 26.484375 27.875 "/>
<path style=" stroke:none;fill-rule:nonzero;fill:rgb(100%,100%,100%);fill-opacity:1;" d="M 25.640625 21.546875 C 26.105469 21.546875 26.484375 21.925781 26.484375 22.390625 L 26.484375 27.453125 C 26.484375 27.921875 26.105469 28.296875 25.640625 28.296875 C 25.175781 28.296875 24.796875 27.921875 24.796875 27.453125 L 24.796875 22.390625 C 24.796875 21.925781 25.175781 21.546875 25.640625 21.546875 Z M 25.640625 21.546875 "/>
</g>
</svg>
