<?xml version="1.0" encoding="UTF-8"?>
<svg xmlns="http://www.w3.org/2000/svg" xmlns:xlink="http://www.w3.org/1999/xlink" width="36pt" height="36pt" viewBox="0 0 36 36" version="1.1">
<g id="surface1">
<path style=" stroke:none;fill-rule:evenodd;fill:rgb(15.686275%,35.686275%,12.156863%);fill-opacity:1;" d="M 8.40625 2.136719 L 27.59375 2.136719 C 31.054688 2.136719 33.863281 4.945312 33.863281 8.40625 L 33.863281 27.59375 C 33.863281 31.054688 31.054688 33.863281 27.59375 33.863281 L 8.40625 33.863281 C 4.945312 33.863281 2.136719 31.054688 2.136719 27.59375 L 2.136719 8.40625 C 2.136719 4.945312 4.945312 2.136719 8.40625 2.136719 Z M 8.40625 2.136719 "/>
<path style=" stroke:none;fill-rule:nonzero;fill:rgb(100%,100%,100%);fill-opacity:1;" d="M 24.699219 24.230469 C 20.289062 29.246094 16.445312 29.101562 13.804688 26.804688 C 9.84375 23.351562 6.179688 10.808594 8.269531 8.4375 C 10.359375 6.0625 23.507812 9.675781 26.328125 12.300781 C 29.148438 14.929688 29.339844 18.953125 24.699219 24.230469 Z M 24.699219 24.230469 "/>
<path style=" stroke:none;fill-rule:nonzero;fill:rgb(71.764706%,81.960784%,38.039216%);fill-opacity:1;" d="M 15.429688 15.046875 C 14.382812 15.046875 13.566406 15.339844 12.976562 15.925781 C 12.386719 16.507812 12.09375 17.324219 12.09375 18.371094 C 12.09375 19.417969 12.386719 20.230469 12.976562 20.816406 C 13.566406 21.398438 14.382812 21.691406 15.429688 21.691406 C 15.90625 21.691406 16.355469 21.632812 16.777344 21.511719 C 17.199219 21.390625 17.652344 21.207031 18 20.972656 L 18 18 L 15.785156 18 L 15.785156 18.738281 L 17.257812 18.738281 L 17.257812 20.652344 C 17.058594 20.765625 16.832031 20.847656 16.582031 20.902344 C 16.332031 20.953125 15.824219 20.980469 15.503906 20.980469 C 14.6875 20.980469 13.886719 20.761719 13.476562 20.324219 C 13.066406 19.886719 12.832031 19.234375 12.832031 18.371094 C 12.832031 17.503906 13.066406 16.851562 13.476562 16.414062 C 13.886719 15.976562 14.6875 15.757812 15.503906 15.757812 C 15.921875 15.757812 16.203125 15.828125 16.582031 15.964844 C 16.957031 16.101562 17.296875 16.304688 17.628906 16.578125 L 17.628906 15.65625 C 17.300781 15.453125 16.953125 15.304688 16.558594 15.199219 C 16.167969 15.097656 15.863281 15.046875 15.429688 15.046875 Z M 19.476562 15.046875 L 19.476562 21.691406 L 20.214844 21.691406 L 20.214844 19.476562 L 21.519531 19.476562 C 22.269531 19.46875 22.945312 19.324219 23.328125 19.003906 C 23.710938 18.679688 23.902344 17.980469 23.902344 17.347656 C 23.902344 16.722656 23.710938 15.878906 23.328125 15.554688 C 22.945312 15.226562 22.269531 15.046875 21.519531 15.046875 Z M 20.214844 15.785156 L 21.582031 15.785156 C 22.085938 15.773438 22.480469 15.886719 22.753906 16.09375 C 23.03125 16.296875 23.167969 16.957031 23.167969 17.332031 C 23.167969 17.710938 23.03125 18.226562 22.753906 18.429688 C 22.480469 18.636719 22.089844 18.738281 21.582031 18.738281 L 20.214844 18.738281 Z M 20.214844 15.785156 "/>
</g>
</svg>
