<?xml version="1.0" encoding="UTF-8"?>
<svg xmlns="http://www.w3.org/2000/svg" xmlns:xlink="http://www.w3.org/1999/xlink" width="36pt" height="36pt" viewBox="0 0 36 36" version="1.1">
<g id="surface1">
<path style=" stroke:none;fill-rule:evenodd;fill:rgb(98.039216%,74.117647%,49.803922%);fill-opacity:1;" d="M 8.40625 2.136719 L 27.59375 2.136719 C 31.054688 2.136719 33.863281 4.945312 33.863281 8.40625 L 33.863281 27.59375 C 33.863281 31.054688 31.054688 33.863281 27.59375 33.863281 L 8.40625 33.863281 C 4.945312 33.863281 2.136719 31.054688 2.136719 27.59375 L 2.136719 8.40625 C 2.136719 4.945312 4.945312 2.136719 8.40625 2.136719 Z M 8.40625 2.136719 "/>
<path style=" stroke:none;fill-rule:nonzero;fill:rgb(24.705882%,24.705882%,24.705882%);fill-opacity:1;" d="M 16.394531 6.75 C 15.949219 6.75 15.589844 7.136719 15.589844 7.617188 L 15.589844 21.460938 L 12.375 21.460938 L 18 29.25 L 23.625 21.460938 L 20.410156 21.460938 L 20.410156 7.617188 C 20.410156 7.136719 20.050781 6.75 19.605469 6.75 Z M 16.394531 6.75 "/>
<path style=" stroke:none;fill-rule:nonzero;fill:rgb(97.647059%,97.647059%,97.647059%);fill-opacity:1;" d="M 31.960938 25.03125 C 31.960938 28.757812 28.9375 31.78125 25.210938 31.78125 C 21.480469 31.78125 18.460938 28.757812 18.460938 25.03125 C 18.460938 21.304688 21.480469 18.28125 25.210938 18.28125 C 28.9375 18.28125 31.960938 21.304688 31.960938 25.03125 Z M 31.960938 25.03125 "/>
<path style=" stroke:none;fill-rule:nonzero;fill:rgb(24.705882%,24.705882%,24.705882%);fill-opacity:1;" d="M 21.609375 21.429688 L 21.609375 23.394531 L 28.8125 23.394531 L 28.8125 21.429688 Z M 21.609375 24.050781 L 21.609375 26.015625 L 28.8125 26.015625 L 28.8125 24.050781 Z M 21.609375 26.667969 L 21.609375 28.632812 L 28.8125 28.632812 L 28.8125 26.667969 Z M 21.609375 26.667969 "/>
</g>
</svg>
