<?xml version="1.0" encoding="UTF-8"?>
<svg xmlns="http://www.w3.org/2000/svg" xmlns:xlink="http://www.w3.org/1999/xlink" width="36pt" height="36pt" viewBox="0 0 36 36" version="1.1">
<g id="surface1">
<path style=" stroke:none;fill-rule:evenodd;fill:rgb(59.215686%,30.980392%,64.313725%);fill-opacity:1;" d="M 8.40625 2.136719 L 27.59375 2.136719 C 31.054688 2.136719 33.863281 4.945312 33.863281 8.40625 L 33.863281 27.59375 C 33.863281 31.054688 31.054688 33.863281 27.59375 33.863281 L 8.40625 33.863281 C 4.945312 33.863281 2.136719 31.054688 2.136719 27.59375 L 2.136719 8.40625 C 2.136719 4.945312 4.945312 2.136719 8.40625 2.136719 Z M 8.40625 2.136719 "/>
<path style=" stroke:none;fill-rule:nonzero;fill:rgb(30.196078%,30.196078%,30.196078%);fill-opacity:1;" d="M 17.679688 6.257812 C 17.4375 6.261719 17.191406 6.277344 16.945312 6.304688 C 13.078125 6.734375 10.261719 9.921875 10.527344 13.484375 L 9.625 13.585938 L 10.140625 18.265625 L 13.160156 17.933594 L 12.640625 13.25 L 11.523438 13.375 C 11.316406 10.320312 13.734375 7.597656 17.050781 7.230469 C 20.363281 6.863281 23.332031 8.988281 23.800781 12.007812 L 22.816406 12.117188 L 23.332031 16.800781 L 26.246094 16.480469 L 25.730469 11.796875 L 24.792969 11.898438 C 24.300781 8.597656 21.238281 6.199219 17.679688 6.257812 Z M 17.679688 6.257812 "/>
<path style=" stroke:none;fill-rule:nonzero;fill:rgb(94.901961%,94.901961%,94.901961%);fill-opacity:1;" d="M 17.234375 8.800781 C 16.824219 8.816406 16.464844 9.035156 16.179688 9.359375 C 15.898438 9.679688 15.675781 10.113281 15.488281 10.617188 C 15.109375 11.625 14.878906 13.78125 14.75 15.140625 C 14.621094 16.503906 14.601562 17.070312 14.660156 18.246094 C 14.71875 19.417969 14.832031 20.332031 15.074219 20.84375 C 15.285156 21.289062 15.53125 21.796875 15.636719 22.257812 C 15.742188 22.71875 15.71875 23.085938 15.449219 23.382812 C 15.175781 23.679688 14.578125 23.945312 13.429688 24.007812 C 12.277344 24.070312 10.597656 23.597656 8.214844 23.152344 C 7.832031 23.082031 7.511719 23.074219 7.230469 23.167969 C 6.953125 23.257812 6.734375 23.464844 6.601562 23.722656 C 6.335938 24.242188 6.3125 26.128906 6.273438 27.113281 C 6.261719 27.433594 6.378906 27.734375 6.582031 27.984375 C 6.789062 28.234375 7.078125 28.4375 7.433594 28.617188 C 8.144531 28.972656 9.144531 29.230469 10.386719 29.410156 C 12.867188 29.777344 16.3125 29.835938 20.222656 29.609375 L 20.230469 29.609375 C 21.671875 29.488281 23.949219 29.40625 25.914062 28.90625 C 26.894531 28.65625 27.804688 28.304688 28.496094 27.765625 C 29.191406 27.230469 29.664062 26.484375 29.710938 25.53125 C 29.753906 24.648438 29.710938 23.300781 29.53125 22.875 C 29.355469 22.449219 28.972656 22.222656 28.582031 22.214844 C 27.800781 22.195312 26.875 22.625 25.679688 22.90625 C 24.304688 23.230469 23.335938 23.089844 22.675781 23.042969 C 22.015625 22.992188 21.6875 23.046875 21.484375 22.785156 C 21.28125 22.523438 21.1875 22.132812 21.144531 21.640625 C 21.101562 21.148438 21.109375 20.5625 21.042969 19.949219 C 20.917969 18.769531 20.683594 16.847656 20.152344 14.382812 C 19.886719 13.148438 19.546875 11.152344 19.09375 10.28125 C 18.867188 9.84375 18.613281 9.476562 18.308594 9.210938 C 18 8.949219 17.632812 8.789062 17.234375 8.800781 Z M 17.234375 8.800781 "/>
<path style=" stroke:none;fill-rule:nonzero;fill:rgb(100%,100%,100%);fill-opacity:1;" d="M 16.3125 15.628906 C 16.242188 17.4375 15.691406 19.09375 14.871094 19.964844 C 14.050781 20.832031 13.089844 20.785156 12.351562 19.835938 C 11.613281 18.886719 11.214844 17.183594 11.308594 15.375 C 11.382812 13.566406 11.933594 11.910156 12.753906 11.039062 C 13.570312 10.171875 14.535156 10.21875 15.273438 11.167969 C 16.007812 12.117188 16.40625 13.820312 16.3125 15.628906 Z M 16.3125 15.628906 "/>
<path style=" stroke:none;fill-rule:nonzero;fill:rgb(30.196078%,30.196078%,30.196078%);fill-opacity:1;" d="M 15.480469 16.378906 C 15.414062 17.304688 14.800781 18.039062 14.109375 18.015625 C 13.417969 17.992188 12.914062 17.226562 12.980469 16.300781 C 13.046875 15.375 13.660156 14.640625 14.351562 14.664062 C 15.039062 14.6875 15.546875 15.453125 15.480469 16.378906 Z M 15.480469 16.378906 "/>
<path style=" stroke:none;fill-rule:nonzero;fill:rgb(100%,100%,100%);fill-opacity:1;" d="M 23.8125 15.238281 C 24.113281 18.007812 23.074219 20.371094 21.484375 20.515625 C 19.894531 20.664062 18.359375 18.539062 18.050781 15.765625 C 17.746094 12.996094 18.789062 10.628906 20.378906 10.484375 C 21.96875 10.335938 23.503906 12.464844 23.8125 15.238281 Z M 23.8125 15.238281 "/>
<path style=" stroke:none;fill-rule:nonzero;fill:rgb(30.196078%,30.196078%,30.196078%);fill-opacity:1;" d="M 22.144531 16.453125 C 21.957031 17.375 21.269531 18.066406 20.601562 18.003906 C 19.9375 17.941406 19.539062 17.148438 19.71875 16.226562 C 19.835938 15.628906 20.175781 15.09375 20.609375 14.828125 C 21.046875 14.566406 21.507812 14.609375 21.824219 14.945312 C 22.144531 15.28125 22.265625 15.855469 22.144531 16.453125 Z M 22.144531 16.453125 "/>
</g>
</svg>
