<?xml version="1.0" encoding="UTF-8"?>
<svg xmlns="http://www.w3.org/2000/svg" xmlns:xlink="http://www.w3.org/1999/xlink" width="36pt" height="36pt" viewBox="0 0 36 36" version="1.1">
<g id="surface1">
<path style=" stroke:none;fill-rule:evenodd;fill:rgb(20.392157%,39.607843%,64.313725%);fill-opacity:1;" d="M 8.40625 2.136719 L 27.59375 2.136719 C 31.054688 2.136719 33.863281 4.945312 33.863281 8.40625 L 33.863281 27.59375 C 33.863281 31.054688 31.054688 33.863281 27.59375 33.863281 L 8.40625 33.863281 C 4.945312 33.863281 2.136719 31.054688 2.136719 27.59375 L 2.136719 8.40625 C 2.136719 4.945312 4.945312 2.136719 8.40625 2.136719 Z M 8.40625 2.136719 "/>
<path style=" stroke:none;fill-rule:evenodd;fill:rgb(20.392157%,39.607843%,64.313725%);fill-opacity:1;" d="M 4.59375 32.453125 C 4.578125 32.214844 4.496094 32.054688 4.492188 31.800781 C 4.476562 30.035156 4.785156 27.941406 4.785156 27.941406 L 8.433594 8.59375 L 9.113281 8.601562 L 5.808594 2.730469 C 3.648438 3.71875 2.136719 5.867188 2.136719 8.40625 L 2.136719 27.59375 C 2.136719 29.601562 3.132812 31.304688 4.59375 32.453125 Z M 4.59375 32.453125 "/>
<path style=" stroke:none;fill-rule:evenodd;fill:rgb(33.333333%,34.117647%,32.54902%);fill-opacity:1;" d="M 31.296875 32.527344 C 31.328125 32.230469 31.445312 32.023438 31.445312 31.699219 C 31.441406 29.933594 30.855469 27.863281 30.855469 27.863281 L 26.792969 8.832031 L 26.371094 8.828125 L 25.832031 9.71875 L 9.6875 9.625 L 9.113281 8.601562 L 8.433594 8.59375 L 4.785156 27.941406 C 4.785156 27.941406 4.476562 30.035156 4.492188 31.800781 C 4.496094 32.054688 4.578125 32.214844 4.59375 32.453125 C 5.65625 33.289062 6.941406 33.863281 8.40625 33.863281 L 27.589844 33.863281 C 29.007812 33.863281 30.25 33.3125 31.296875 32.527344 Z M 31.296875 32.527344 "/>
<path style=" stroke:none;fill-rule:evenodd;fill:rgb(20.392157%,39.607843%,64.313725%);fill-opacity:1;" d="M 30.082031 2.660156 L 26.371094 8.828125 L 26.792969 8.832031 L 30.855469 27.863281 C 30.855469 27.863281 31.441406 29.933594 31.445312 31.699219 C 31.445312 32.023438 31.328125 32.230469 31.296875 32.527344 C 32.820312 31.382812 33.863281 29.652344 33.863281 27.59375 L 33.863281 8.40625 C 33.863281 5.820312 32.308594 3.621094 30.082031 2.660156 Z M 30.082031 2.660156 "/>
<path style=" stroke:none;fill-rule:evenodd;fill:rgb(60.392157%,61.176471%,59.215686%);fill-opacity:1;" d="M 5.808594 2.730469 L 9.6875 9.625 L 25.832031 9.71875 L 30.082031 2.660156 C 29.316406 2.328125 28.480469 2.136719 27.589844 2.136719 L 8.40625 2.136719 C 7.472656 2.136719 6.601562 2.367188 5.808594 2.730469 Z M 5.808594 2.730469 "/>
<path style=" stroke:none;fill-rule:evenodd;fill:rgb(20.392157%,39.607843%,64.313725%);fill-opacity:1;" d="M 9.777344 12.34375 L 8.09375 25.039062 C 8.035156 25.417969 8.066406 25.917969 8.453125 25.917969 L 27.28125 25.917969 C 27.597656 25.917969 27.777344 25.617188 27.703125 25.039062 L 25.304688 12.414062 Z M 9.777344 12.34375 "/>
<path style="fill-rule:evenodd;fill:rgb(53.333333%,54.117647%,52.156863%);fill-opacity:1;stroke-width:0.693904;stroke-linecap:butt;stroke-linejoin:miter;stroke:rgb(33.333333%,34.117647%,32.54902%);stroke-opacity:1;stroke-miterlimit:4;" d="M 11.270833 8.559028 C 11.270833 7.972222 10.923611 7.496528 10.5 7.496528 C 10.072917 7.496528 9.729167 7.972222 9.729167 8.559028 C 9.729167 9.145833 10.072917 9.621528 10.5 9.621528 C 10.923611 9.621528 11.270833 9.145833 11.270833 8.559028 Z M 11.270833 8.559028 " transform="matrix(1.125,0,0,1.125,0,0)"/>
<path style="fill-rule:evenodd;fill:rgb(53.333333%,54.117647%,52.156863%);fill-opacity:1;stroke-width:0.693904;stroke-linecap:butt;stroke-linejoin:miter;stroke:rgb(33.333333%,34.117647%,32.54902%);stroke-opacity:1;stroke-miterlimit:4;" d="M 22.09375 8.559028 C 22.09375 7.972222 21.75 7.496528 21.322917 7.496528 C 20.899306 7.496528 20.552083 7.972222 20.552083 8.559028 C 20.552083 9.145833 20.899306 9.621528 21.322917 9.621528 C 21.75 9.621528 22.09375 9.145833 22.09375 8.559028 Z M 22.09375 8.559028 " transform="matrix(1.125,0,0,1.125,0,0)"/>
<path style="fill:none;stroke-width:0.693903;stroke-linecap:round;stroke-linejoin:round;stroke:rgb(100%,100%,100%);stroke-opacity:1;stroke-miterlimit:4;" d="M 8.604167 16.03125 L 22.649306 16.03125 " transform="matrix(1.125,0,0,1.125,0,0)"/>
<path style="fill:none;stroke-width:1.670226;stroke-linecap:round;stroke-linejoin:round;stroke:rgb(98.823529%,91.372549%,30.980392%);stroke-opacity:0.682353;stroke-miterlimit:4;" d="M 11.847222 27.586806 L 14.260417 27.586806 " transform="matrix(1.125,0,0,1.125,0,0)"/>
<path style="fill:none;stroke-width:1.670226;stroke-linecap:round;stroke-linejoin:round;stroke:rgb(72.941176%,74.117647%,71.372549%);stroke-opacity:0.682353;stroke-miterlimit:4;" d="M 16.65625 27.586806 L 16.666667 27.586806 " transform="matrix(1.125,0,0,1.125,0,0)"/>
<path style="fill:none;stroke-width:1.670226;stroke-linecap:round;stroke-linejoin:round;stroke:rgb(72.941176%,74.117647%,71.372549%);stroke-opacity:0.682353;stroke-miterlimit:4;" d="M 19.0625 27.586806 L 19.072917 27.586806 " transform="matrix(1.125,0,0,1.125,0,0)"/>
<path style="fill:none;stroke-width:1.670226;stroke-linecap:round;stroke-linejoin:round;stroke:rgb(72.941176%,74.117647%,71.372549%);stroke-opacity:0.682353;stroke-miterlimit:4;" d="M 21.46875 27.586806 L 21.479167 27.586806 " transform="matrix(1.125,0,0,1.125,0,0)"/>
</g>
</svg>
