<?xml version="1.0" encoding="UTF-8"?>
<svg xmlns="http://www.w3.org/2000/svg" xmlns:xlink="http://www.w3.org/1999/xlink" width="36pt" height="36pt" viewBox="0 0 36 36" version="1.1">
<g id="surface1">
<path style=" stroke:none;fill-rule:evenodd;fill:rgb(0.784314%,52.54902%,76.078431%);fill-opacity:1;" d="M 25.6875 12.316406 C 25.628906 12.3125 25.574219 12.308594 25.519531 12.324219 L 25.519531 12.320312 C 25.484375 12.328125 25.433594 12.363281 25.40625 12.394531 C 24.199219 15.777344 23.003906 19.152344 21.792969 22.527344 C 22.457031 22.53125 23.144531 22.574219 23.808594 22.527344 C 24.980469 19.121094 26.191406 15.722656 27.378906 12.324219 C 26.871094 12.3125 26.367188 12.332031 25.851562 12.324219 C 25.796875 12.332031 25.742188 12.324219 25.6875 12.316406 Z M 25.6875 12.316406 "/>
<path style=" stroke:none;fill-rule:evenodd;fill:rgb(100%,100%,100%);fill-opacity:1;" d="M 16.988281 33.863281 C 18.175781 30.796875 19.609375 27.433594 20.636719 24.574219 C 22.019531 24.546875 23.390625 24.5625 24.777344 24.535156 C 25.214844 24.519531 25.765625 24.378906 26.242188 24.136719 C 26.71875 23.894531 27.125 23.550781 27.269531 23.121094 C 28.4375 19.839844 29.601562 16.589844 30.730469 13.292969 C 30.914062 12.792969 31.03125 12.246094 30.878906 11.730469 C 30.683594 11.066406 30.078125 10.5625 29.429688 10.386719 C 28.863281 10.210938 28.296875 10.285156 27.714844 10.273438 C 25.945312 10.269531 24.125 10.253906 22.351562 10.238281 C 22.324219 10.296875 22.308594 10.441406 22.28125 10.5 C 19.652344 17.871094 16.550781 26.304688 13.828125 33.863281 Z M 25.6875 12.316406 C 25.742188 12.324219 25.796875 12.332031 25.851562 12.324219 C 26.367188 12.332031 26.871094 12.3125 27.378906 12.324219 C 26.191406 15.722656 24.980469 19.121094 23.808594 22.527344 C 23.144531 22.574219 22.457031 22.53125 21.792969 22.527344 C 23.003906 19.152344 24.199219 15.777344 25.40625 12.394531 C 25.433594 12.363281 25.484375 12.328125 25.519531 12.320312 L 25.519531 12.324219 C 25.574219 12.308594 25.628906 12.3125 25.6875 12.316406 Z M 25.6875 12.316406 "/>
<path style=" stroke:none;fill-rule:evenodd;fill:rgb(0.784314%,52.54902%,76.078431%);fill-opacity:1;" d="M 13.019531 2.136719 L 8.410156 2.136719 C 4.933594 2.136719 2.136719 4.933594 2.136719 8.40625 L 2.136719 27.589844 C 2.136719 31.066406 4.933594 33.863281 8.410156 33.863281 L 13.828125 33.863281 C 16.550781 26.304688 19.652344 17.871094 22.28125 10.5 C 22.308594 10.441406 22.324219 10.296875 22.351562 10.238281 C 24.125 10.253906 25.945312 10.269531 27.714844 10.273438 C 28.296875 10.285156 28.863281 10.210938 29.429688 10.386719 C 30.078125 10.5625 30.683594 11.066406 30.878906 11.730469 C 31.03125 12.246094 30.914062 12.792969 30.730469 13.292969 C 29.601562 16.589844 28.4375 19.839844 27.269531 23.121094 C 27.125 23.550781 26.71875 23.894531 26.242188 24.136719 C 25.765625 24.378906 25.214844 24.519531 24.777344 24.535156 C 23.390625 24.5625 22.019531 24.546875 20.636719 24.574219 C 19.609375 27.433594 18.175781 30.796875 16.988281 33.863281 L 27.59375 33.863281 C 31.066406 33.863281 33.863281 31.066406 33.863281 27.589844 L 33.863281 8.40625 C 33.863281 4.933594 31.066406 2.136719 27.59375 2.136719 L 16.898438 2.136719 C 16.007812 4.675781 15.109375 7.253906 14.234375 9.726562 C 14.929688 9.753906 15.8125 9.816406 16.644531 10.03125 C 17.476562 10.25 18.257812 10.613281 18.742188 11.242188 C 18.96875 11.535156 19.070312 11.914062 19.085938 12.308594 C 19.097656 12.703125 19.023438 13.117188 18.890625 13.476562 C 17.632812 17.003906 16.339844 20.523438 15.089844 24.050781 C 13.984375 24.066406 12.882812 24.042969 11.777344 24.050781 C 11.621094 24.046875 11.476562 24.074219 11.328125 24.015625 C 12.734375 20.144531 14.113281 16.242188 15.5 12.355469 C 14.839844 12.347656 14.1875 12.371094 13.527344 12.355469 C 13.425781 12.570312 13.339844 12.808594 13.265625 13.03125 C 11.988281 16.609375 10.699219 20.171875 9.429688 23.753906 C 9.371094 23.84375 9.386719 24.050781 9.242188 24.050781 C 8.1875 24.054688 7.128906 24.046875 6.078125 24.050781 C 5.886719 24.046875 5.703125 24.070312 5.519531 24.015625 C 8.011719 17.109375 10.523438 9.304688 13.019531 2.136719 Z M 13.019531 2.136719 "/>
<path style=" stroke:none;fill-rule:evenodd;fill:rgb(100%,100%,100%);fill-opacity:1;" d="M 13.019531 2.136719 C 10.523438 9.304688 8.011719 17.109375 5.519531 24.015625 C 5.703125 24.070312 5.886719 24.046875 6.078125 24.050781 C 7.128906 24.046875 8.1875 24.054688 9.242188 24.050781 C 9.386719 24.050781 9.371094 23.84375 9.429688 23.753906 C 10.699219 20.171875 11.988281 16.609375 13.265625 13.03125 C 13.339844 12.808594 13.425781 12.570312 13.527344 12.355469 C 14.1875 12.371094 14.839844 12.347656 15.5 12.355469 C 14.113281 16.242188 12.734375 20.144531 11.328125 24.015625 C 11.476562 24.074219 11.621094 24.046875 11.777344 24.050781 C 12.882812 24.042969 13.984375 24.066406 15.089844 24.050781 C 16.339844 20.523438 17.632812 17.003906 18.890625 13.476562 C 19.023438 13.117188 19.097656 12.703125 19.085938 12.308594 C 19.070312 11.914062 18.96875 11.535156 18.742188 11.242188 C 18.257812 10.613281 17.476562 10.25 16.644531 10.03125 C 15.8125 9.816406 14.929688 9.753906 14.234375 9.726562 C 15.109375 7.253906 16.007812 4.675781 16.898438 2.136719 Z M 13.019531 2.136719 "/>
</g>
</svg>
