<?xml version="1.0" encoding="UTF-8"?>
<svg xmlns="http://www.w3.org/2000/svg" xmlns:xlink="http://www.w3.org/1999/xlink" width="36pt" height="36pt" viewBox="0 0 36 36" version="1.1">
<g id="surface1">
<path style=" stroke:none;fill-rule:evenodd;fill:rgb(46.666667%,40.392157%,75.294118%);fill-opacity:1;" d="M 8.40625 2.136719 L 27.59375 2.136719 C 31.054688 2.136719 33.863281 4.945312 33.863281 8.40625 L 33.863281 27.59375 C 33.863281 31.054688 31.054688 33.863281 27.59375 33.863281 L 8.40625 33.863281 C 4.945312 33.863281 2.136719 31.054688 2.136719 27.59375 L 2.136719 8.40625 C 2.136719 4.945312 4.945312 2.136719 8.40625 2.136719 Z M 8.40625 2.136719 "/>
<path style=" stroke:none;fill-rule:evenodd;fill:rgb(56.862745%,50.980392%,84.313725%);fill-opacity:1;" d="M 24.671875 33.863281 L 24.671875 16.972656 C 24.671875 16.101562 24.496094 15.277344 24.179688 14.527344 C 23.863281 13.773438 23.40625 13.097656 22.839844 12.53125 C 22.273438 11.964844 21.597656 11.507812 20.84375 11.191406 C 20.09375 10.875 19.265625 10.699219 18.398438 10.699219 L 3.753906 10.699219 C 3.179688 10.699219 2.664062 10.878906 2.136719 11.023438 L 2.136719 27.589844 C 2.136719 31.066406 4.933594 33.863281 8.40625 33.863281 Z M 24.671875 33.863281 "/>
<path style=" stroke:none;fill-rule:evenodd;fill:rgb(65.490196%,60.784314%,87.45098%);fill-opacity:1;" d="M 24.671875 26.8125 L 24.671875 33.863281 L 27.589844 33.863281 C 31.066406 33.863281 33.863281 31.066406 33.863281 27.589844 L 33.863281 26.8125 Z M 24.671875 26.8125 "/>
<path style=" stroke:none;fill-rule:evenodd;fill:rgb(65.490196%,60.784314%,87.45098%);fill-opacity:1;" d="M 9.941406 2.136719 L 8.40625 2.136719 C 4.933594 2.136719 2.136719 4.933594 2.136719 8.40625 L 2.136719 11.023438 C 2.664062 10.878906 3.179688 10.699219 3.753906 10.699219 L 9.941406 10.699219 Z M 9.941406 2.136719 "/>
<path style=" stroke:none;fill-rule:evenodd;fill:rgb(46.666667%,40.392157%,75.294118%);fill-opacity:1;" d="M 9.941406 2.136719 L 9.941406 10.699219 L 18.398438 10.699219 C 19.265625 10.699219 20.09375 10.875 20.84375 11.191406 C 21.597656 11.507812 22.273438 11.964844 22.839844 12.53125 C 23.40625 13.097656 23.863281 13.773438 24.179688 14.527344 C 24.496094 15.277344 24.671875 16.101562 24.671875 16.972656 L 24.671875 26.8125 L 33.863281 26.8125 L 33.863281 8.40625 C 33.863281 4.933594 31.066406 2.136719 27.589844 2.136719 Z M 9.941406 2.136719 "/>
<path style=" stroke:none;fill-rule:nonzero;fill:rgb(100%,100%,100%);fill-opacity:1;" d="M 12.863281 14.640625 C 8.511719 14.640625 4.988281 18.167969 4.988281 22.515625 C 4.988281 26.863281 8.511719 30.390625 12.863281 30.390625 C 17.210938 30.390625 20.738281 26.863281 20.738281 22.515625 C 20.738281 18.167969 17.210938 14.640625 12.863281 14.640625 Z M 12.074219 16.144531 C 12.164062 16.136719 12.28125 16.148438 12.375 16.144531 C 12.386719 16.1875 12.308594 16.34375 12.203125 16.574219 C 11.535156 18.03125 11.5 19.738281 12.117188 20.648438 C 12.230469 20.816406 12.332031 20.972656 12.332031 20.992188 C 12.332031 21.015625 12.210938 21.035156 12.074219 21.035156 C 11.753906 21.035156 11.449219 20.839844 10.828125 20.351562 C 10.554688 20.132812 10.195312 19.949219 10.058594 19.921875 C 9.839844 19.878906 9.78125 19.894531 9.5 20.179688 C 9.238281 20.441406 9.15625 20.582031 9.15625 20.820312 C 9.15625 21.730469 10.238281 22.453125 12.246094 22.878906 C 14.972656 23.457031 15.644531 23.976562 15.71875 25.410156 C 15.8125 27.207031 14.855469 28.5625 12.757812 29.613281 C 12.507812 29.738281 12.347656 29.785156 12.246094 29.828125 C 12.199219 29.824219 12.164062 29.832031 12.117188 29.828125 C 12.101562 29.769531 12.074219 29.640625 12.074219 29.398438 C 12.074219 28.441406 11.699219 27.460938 11.128906 26.910156 C 10.976562 26.761719 10.550781 26.453125 10.1875 26.226562 C 9.820312 26 9.453125 25.738281 9.371094 25.625 C 9.234375 25.441406 9.222656 25.324219 9.328125 24.980469 C 9.519531 24.355469 9.746094 24.003906 10.183594 23.609375 C 10.414062 23.402344 10.648438 23.226562 10.699219 23.222656 C 10.75 23.21875 10.40625 23.113281 9.886719 23.007812 C 9.367188 22.902344 8.605469 22.679688 8.210938 22.535156 C 7.492188 22.277344 6.523438 21.730469 6.15625 21.335938 L 6.109375 21.292969 C 6.640625 19.183594 8.128906 17.453125 10.097656 16.621094 C 10.511719 16.445312 10.9375 16.324219 11.386719 16.234375 C 11.609375 16.1875 11.839844 16.171875 12.074219 16.148438 Z M 18.507812 19.363281 C 18.667969 19.460938 19.277344 20.777344 19.449219 21.421875 C 19.675781 22.25 19.65625 23.683594 19.449219 24.507812 C 19.371094 24.820312 19.269531 25.117188 19.238281 25.152344 C 19.203125 25.191406 19.078125 24.980469 18.9375 24.722656 C 18.792969 24.46875 18.332031 23.925781 17.949219 23.523438 C 16.84375 22.355469 16.671875 21.75 17.132812 20.820312 C 17.367188 20.351562 18.382812 19.285156 18.507812 19.363281 Z M 18.507812 19.363281 "/>
<path style=" stroke:none;fill-rule:evenodd;fill:rgb(30.980392%,30.980392%,30.980392%);fill-opacity:1;" d="M 32.53125 24.726562 C 32.53125 28.453125 29.507812 31.476562 25.78125 31.476562 C 22.050781 31.476562 19.03125 28.453125 19.03125 24.726562 C 19.03125 21 22.050781 17.976562 25.78125 17.976562 C 29.507812 17.976562 32.53125 21 32.53125 24.726562 Z M 32.53125 24.726562 "/>
<path style=" stroke:none;fill-rule:nonzero;fill:rgb(100%,100%,100%);fill-opacity:1;" d="M 26.625 21.351562 L 26.625 24.726562 L 27.890625 24.726562 L 25.78125 27.257812 L 23.671875 24.726562 L 24.9375 24.726562 L 24.9375 21.351562 Z M 26.625 21.351562 "/>
</g>
</svg>
