<?xml version="1.0" encoding="UTF-8"?>
<svg xmlns="http://www.w3.org/2000/svg" xmlns:xlink="http://www.w3.org/1999/xlink" width="36pt" height="36pt" viewBox="0 0 36 36" version="1.1">
<g id="surface1">
<path style=" stroke:none;fill-rule:evenodd;fill:rgb(39.607843%,45.098039%,76.470588%);fill-opacity:1;" d="M 8.40625 2.136719 L 27.59375 2.136719 C 31.054688 2.136719 33.863281 4.945312 33.863281 8.40625 L 33.863281 27.59375 C 33.863281 31.054688 31.054688 33.863281 27.59375 33.863281 L 8.40625 33.863281 C 4.945312 33.863281 2.136719 31.054688 2.136719 27.59375 L 2.136719 8.40625 C 2.136719 4.945312 4.945312 2.136719 8.40625 2.136719 Z M 8.40625 2.136719 "/>
<path style=" stroke:none;fill-rule:nonzero;fill:rgb(94.901961%,94.901961%,94.901961%);fill-opacity:1;" d="M 27.136719 19.371094 C 27.136719 13.820312 22.636719 9.320312 17.089844 9.320312 C 11.539062 9.320312 7.039062 13.820312 7.039062 19.371094 C 7.039062 24.921875 11.539062 29.417969 17.089844 29.417969 C 22.636719 29.417969 27.136719 24.921875 27.136719 19.371094 Z M 27.136719 19.371094 "/>
<path style=" stroke:none;fill-rule:evenodd;fill:rgb(61.568627%,72.54902%,100%);fill-opacity:1;" d="M 24.058594 6.582031 C 24.054688 6.582031 24.046875 6.585938 24.039062 6.585938 C 23.992188 6.589844 23.945312 6.601562 23.894531 6.621094 C 23.855469 6.636719 23.8125 6.65625 23.773438 6.691406 C 23.734375 6.722656 23.695312 6.773438 23.660156 6.832031 C 23.648438 6.84375 23.640625 6.859375 23.632812 6.875 C 23.601562 6.9375 23.570312 7.007812 23.546875 7.09375 C 23.542969 7.097656 23.542969 7.101562 23.542969 7.105469 C 23.472656 6.785156 22.777344 6.863281 22.777344 6.863281 C 22.777344 6.863281 22.773438 6.863281 22.773438 6.863281 C 22.773438 6.863281 22.832031 6.902344 22.890625 6.960938 C 22.917969 6.988281 22.945312 7.019531 22.96875 7.050781 C 22.988281 7.085938 23 7.117188 23 7.148438 C 22.878906 7.164062 22.761719 7.183594 22.644531 7.207031 C 22.621094 7.152344 22.625 7.066406 22.628906 6.976562 C 22.636719 6.882812 22.644531 6.789062 22.628906 6.707031 C 22.628906 6.710938 22.628906 6.710938 22.628906 6.710938 C 22.625 6.710938 22.628906 6.707031 22.628906 6.707031 C 22.578125 6.785156 22.542969 6.875 22.515625 6.972656 C 22.492188 7.066406 22.476562 7.164062 22.464844 7.25 C 22.441406 7.257812 22.417969 7.265625 22.398438 7.273438 C 22.304688 7.300781 22.214844 7.328125 22.128906 7.359375 C 22.066406 7.253906 21.996094 7.164062 21.925781 7.078125 C 21.851562 6.988281 21.769531 6.914062 21.683594 6.847656 C 21.667969 6.835938 21.652344 6.824219 21.636719 6.8125 C 21.546875 6.75 21.457031 6.699219 21.359375 6.667969 C 21.359375 6.664062 21.355469 6.664062 21.351562 6.664062 C 21.351562 6.660156 21.351562 6.664062 21.351562 6.664062 C 21.253906 6.628906 21.148438 6.613281 21.042969 6.613281 C 21.03125 6.613281 21.023438 6.605469 21.011719 6.605469 C 20.996094 6.609375 20.976562 6.617188 20.957031 6.617188 C 20.875 6.621094 20.789062 6.636719 20.703125 6.660156 C 20.671875 6.667969 20.644531 6.675781 20.613281 6.6875 C 20.496094 6.726562 20.378906 6.777344 20.257812 6.855469 C 19.820312 7.128906 19.617188 7.570312 19.554688 8.054688 C 18.292969 8.324219 16.867188 8.550781 15.613281 8.554688 C 15.597656 8.554688 15.582031 8.554688 15.570312 8.554688 C 14.214844 8.554688 13.117188 8.953125 12.3125 9.6875 C 12.082031 9.894531 11.875 10.132812 11.691406 10.394531 C 11.597656 10.527344 11.515625 10.664062 11.433594 10.804688 C 11.394531 10.878906 11.359375 10.957031 11.324219 11.035156 C 11.289062 11.109375 11.246094 11.179688 11.214844 11.257812 C 11.148438 11.414062 11.089844 11.574219 11.035156 11.742188 C 10.980469 11.910156 10.933594 12.085938 10.890625 12.265625 C 10.859375 12.402344 10.832031 12.546875 10.808594 12.691406 C 10.800781 12.734375 10.792969 12.777344 10.785156 12.820312 C 10.785156 12.824219 10.785156 12.824219 10.785156 12.824219 C 10.757812 13.015625 10.734375 13.210938 10.71875 13.410156 C 10.71875 13.410156 10.71875 13.414062 10.71875 13.414062 C 10.707031 13.613281 10.695312 13.820312 10.695312 14.03125 C 10.691406 14.457031 10.695312 14.84375 10.707031 15.191406 C 10.71875 15.539062 10.734375 15.851562 10.757812 16.128906 C 10.78125 16.40625 10.8125 16.652344 10.84375 16.867188 C 10.878906 17.082031 10.914062 17.269531 10.953125 17.429688 C 10.953125 17.429688 10.953125 17.433594 10.953125 17.433594 C 10.992188 17.59375 11.035156 17.726562 11.078125 17.839844 C 11.078125 17.839844 11.078125 17.84375 11.078125 17.84375 C 11.125 17.957031 11.167969 18.046875 11.214844 18.121094 C 11.257812 18.191406 11.304688 18.246094 11.347656 18.289062 C 11.390625 18.328125 11.433594 18.355469 11.472656 18.371094 C 11.730469 18.464844 11.652344 18.347656 11.613281 18.292969 C 11.601562 18.277344 11.585938 18.253906 11.585938 18.253906 L 11.699219 18.324219 L 11.816406 18.398438 L 11.816406 18.253906 L 11.921875 18.269531 L 12.019531 18.28125 L 12.105469 18.101562 L 12.132812 18.046875 L 12.394531 18.046875 C 12.394531 18.046875 12.496094 17.984375 12.554688 17.8125 C 12.5625 17.792969 12.570312 17.785156 12.574219 17.761719 C 12.59375 17.691406 12.601562 17.601562 12.597656 17.492188 C 12.574219 17.160156 12.714844 17.03125 12.6875 16.808594 C 12.679688 16.738281 12.652344 16.65625 12.597656 16.554688 C 12.480469 16.351562 12.359375 15.378906 12.324219 14.402344 C 12.324219 14.386719 12.320312 14.375 12.320312 14.359375 C 12.304688 13.863281 12.304688 13.367188 12.34375 12.972656 C 12.378906 12.578125 12.453125 12.285156 12.566406 12.1875 C 12.683594 12.09375 12.855469 11.96875 13.070312 11.828125 C 13.285156 11.6875 13.539062 11.535156 13.8125 11.390625 C 14.226562 11.171875 14.679688 10.960938 15.113281 10.828125 C 15.257812 10.785156 15.398438 10.75 15.539062 10.722656 C 15.949219 10.644531 16.316406 10.558594 16.746094 10.5 C 17.035156 10.460938 17.351562 10.441406 17.726562 10.445312 C 17.730469 10.445312 17.730469 10.445312 17.730469 10.445312 C 17.738281 10.445312 17.75 10.445312 17.757812 10.445312 C 18.320312 10.453125 19.015625 10.523438 19.953125 10.695312 C 19.953125 10.863281 19.96875 11.066406 19.996094 11.308594 C 19.996094 11.3125 19.996094 11.3125 19.996094 11.3125 C 19.996094 11.3125 19.996094 11.3125 19.996094 11.316406 C 20.066406 11.984375 20.214844 12.375 20.421875 12.730469 C 20.628906 13.085938 20.890625 13.402344 21.1875 13.933594 C 21.1875 13.9375 21.1875 13.9375 21.191406 13.9375 C 21.28125 14.101562 21.375 14.246094 21.476562 14.378906 C 21.578125 14.507812 21.679688 14.625 21.789062 14.71875 C 21.898438 14.816406 22.015625 14.898438 22.132812 14.960938 C 22.132812 14.960938 22.132812 14.964844 22.132812 14.964844 C 22.253906 15.027344 22.375 15.078125 22.5 15.109375 C 23.007812 15.242188 23.585938 15.117188 24.214844 14.761719 C 24.734375 14.453125 25.121094 14.308594 25.472656 14.105469 C 25.5625 14.054688 25.648438 14 25.734375 13.9375 C 25.820312 13.875 25.902344 13.804688 25.992188 13.726562 C 26.078125 13.648438 26.164062 13.558594 26.257812 13.453125 C 26.347656 13.347656 26.441406 13.230469 26.539062 13.09375 C 26.566406 13.058594 26.570312 13.042969 26.597656 13.007812 C 26.71875 12.835938 26.828125 12.675781 26.902344 12.546875 C 27.09375 12.402344 27.285156 12.257812 27.464844 12.136719 C 27.902344 11.839844 28.378906 11.378906 28.675781 10.851562 C 28.675781 10.851562 28.675781 10.851562 28.675781 10.847656 C 28.824219 10.585938 28.925781 10.308594 28.953125 10.023438 C 28.960938 9.953125 28.960938 9.882812 28.960938 9.8125 C 28.953125 9.597656 28.898438 9.386719 28.789062 9.179688 C 28.722656 9.054688 28.652344 8.949219 28.574219 8.859375 C 28.550781 8.828125 28.523438 8.808594 28.496094 8.78125 C 28.445312 8.730469 28.390625 8.675781 28.332031 8.636719 C 28.300781 8.613281 28.265625 8.59375 28.230469 8.574219 C 28.175781 8.542969 28.117188 8.515625 28.058594 8.496094 C 28.023438 8.484375 27.988281 8.476562 27.953125 8.46875 C 27.886719 8.453125 27.816406 8.441406 27.746094 8.441406 C 27.722656 8.441406 27.695312 8.4375 27.671875 8.4375 C 27.574219 8.441406 27.476562 8.453125 27.378906 8.480469 C 27.375 8.480469 27.375 8.480469 27.371094 8.480469 C 27.175781 8.53125 26.976562 8.621094 26.785156 8.75 C 26.78125 8.75 26.78125 8.746094 26.78125 8.746094 C 26.726562 8.667969 26.667969 8.59375 26.609375 8.523438 C 26.59375 8.503906 26.582031 8.488281 26.566406 8.46875 C 26.59375 8.410156 26.628906 8.332031 26.652344 8.246094 C 26.679688 8.160156 26.695312 8.070312 26.691406 7.988281 C 26.582031 8.125 26.546875 8.441406 26.363281 8.253906 C 26.34375 8.230469 26.328125 8.210938 26.320312 8.191406 C 26.3125 8.171875 26.3125 8.15625 26.316406 8.140625 C 26.324219 8.128906 26.339844 8.121094 26.351562 8.109375 C 26.414062 8.050781 26.554688 8.03125 26.554688 8.03125 C 26.554688 8.03125 26.335938 7.863281 26.164062 7.855469 C 26.136719 7.855469 26.109375 7.859375 26.082031 7.867188 C 26.058594 7.875 26.035156 7.890625 26.015625 7.914062 C 26.085938 7.644531 26.015625 7.5 25.925781 7.425781 C 25.835938 7.351562 25.730469 7.339844 25.730469 7.339844 C 25.730469 7.339844 25.808594 7.425781 25.84375 7.527344 C 25.847656 7.539062 25.855469 7.546875 25.855469 7.558594 C 25.859375 7.558594 25.855469 7.558594 25.855469 7.558594 C 25.863281 7.597656 25.863281 7.636719 25.847656 7.675781 C 25.835938 7.699219 25.816406 7.71875 25.792969 7.734375 C 25.785156 7.738281 25.777344 7.742188 25.765625 7.746094 C 25.75 7.75 25.730469 7.757812 25.710938 7.761719 C 25.664062 7.734375 25.617188 7.703125 25.566406 7.675781 C 25.550781 7.667969 25.53125 7.65625 25.515625 7.644531 C 25.5 7.601562 25.496094 7.546875 25.515625 7.476562 C 25.515625 7.472656 25.515625 7.472656 25.515625 7.472656 C 25.402344 7.429688 25.316406 7.464844 25.25 7.515625 C 25.203125 7.496094 25.152344 7.472656 25.101562 7.453125 L 25.140625 7.246094 L 25.191406 6.984375 L 25.191406 6.988281 L 25.191406 6.984375 L 24.9375 7.390625 C 24.898438 7.375 24.863281 7.363281 24.824219 7.347656 C 24.816406 7.226562 24.769531 7.085938 24.644531 7.003906 C 24.601562 6.976562 24.546875 6.957031 24.484375 6.945312 C 24.441406 7.109375 24.355469 7.183594 24.261719 7.203125 C 24.230469 7.195312 24.195312 7.191406 24.164062 7.1875 C 24.128906 7.179688 24.097656 7.175781 24.066406 7.167969 C 24.019531 7.144531 23.980469 7.109375 23.957031 7.070312 C 23.929688 7.03125 23.914062 6.988281 23.921875 6.945312 C 23.925781 6.890625 23.953125 6.839844 23.988281 6.800781 C 24.101562 6.679688 24.304688 6.628906 24.304688 6.628906 C 24.304688 6.628906 24.269531 6.613281 24.210938 6.597656 C 24.171875 6.585938 24.117188 6.578125 24.058594 6.582031 Z M 13.003906 20.273438 L 13.003906 20.59375 L 12.773438 20.449219 L 12.773438 20.625 L 12.511719 20.476562 L 12.570312 20.625 L 12.339844 20.507812 L 12.367188 20.800781 L 12.136719 20.566406 L 12.222656 20.976562 L 11.992188 20.859375 L 12.195312 21.386719 L 11.90625 21.003906 L 12.109375 21.53125 L 11.933594 21.414062 L 12.164062 21.882812 L 11.964844 21.707031 L 12.195312 22.027344 L 11.992188 21.914062 C 11.992188 21.914062 13.03125 23.90625 14.761719 25.046875 C 15.195312 25.332031 15.675781 25.660156 16.214844 25.984375 C 16.753906 26.308594 17.351562 26.625 18.015625 26.890625 C 18.84375 27.226562 19.777344 27.480469 20.832031 27.5625 C 21.042969 27.578125 21.261719 27.589844 21.480469 27.589844 C 21.921875 27.59375 22.386719 27.570312 22.871094 27.507812 C 23.351562 27.445312 23.773438 27.324219 24.136719 27.15625 C 24.503906 26.988281 24.8125 26.773438 25.078125 26.535156 C 25.472656 26.171875 25.761719 25.746094 25.976562 25.3125 C 26.617188 24.003906 26.5625 22.617188 26.5625 22.617188 C 25.484375 25.089844 24.515625 25.878906 22.878906 25.429688 C 22.726562 25.390625 22.566406 25.332031 22.40625 25.269531 C 22.160156 25.175781 21.90625 25.070312 21.628906 24.929688 C 18.546875 23.390625 14.097656 20.710938 14.097656 20.710938 L 14.070312 20.917969 L 13.636719 20.535156 L 13.636719 20.652344 L 13.433594 20.449219 L 13.40625 20.625 L 13.203125 20.332031 L 13.203125 20.566406 Z M 13.003906 20.273438 "/>
</g>
</svg>
