<?xml version="1.0" encoding="UTF-8"?>
<svg xmlns="http://www.w3.org/2000/svg" xmlns:xlink="http://www.w3.org/1999/xlink" width="36pt" height="36pt" viewBox="0 0 36 36" version="1.1">
<g id="surface1">
<path style=" stroke:none;fill-rule:evenodd;fill:rgb(34.509804%,49.019608%,90.196078%);fill-opacity:1;" d="M 8.40625 2.136719 L 27.59375 2.136719 C 31.054688 2.136719 33.863281 4.945312 33.863281 8.40625 L 33.863281 27.59375 C 33.863281 31.054688 31.054688 33.863281 27.59375 33.863281 L 8.40625 33.863281 C 4.945312 33.863281 2.136719 31.054688 2.136719 27.59375 L 2.136719 8.40625 C 2.136719 4.945312 4.945312 2.136719 8.40625 2.136719 Z M 8.40625 2.136719 "/>
<path style=" stroke:none;fill-rule:nonzero;fill:rgb(76.470588%,82.352941%,100%);fill-opacity:1;" d="M 11.488281 27.625 C 11.273438 27.527344 11.074219 27.316406 10.984375 27.09375 L 10.914062 26.914062 L 10.914062 17.113281 L 10.988281 16.902344 C 11.046875 16.742188 11.101562 16.660156 11.214844 16.554688 C 11.472656 16.3125 11.574219 16.285156 12.222656 16.269531 L 12.785156 16.253906 L 12.796875 14.605469 C 12.808594 13.253906 12.820312 12.90625 12.863281 12.652344 C 13.246094 10.410156 14.988281 8.691406 17.238281 8.335938 C 17.597656 8.28125 18.402344 8.28125 18.761719 8.335938 C 19.652344 8.476562 20.476562 8.828125 21.164062 9.359375 C 22.214844 10.175781 22.917969 11.351562 23.136719 12.664062 C 23.179688 12.9375 23.191406 13.265625 23.203125 14.621094 L 23.214844 16.253906 L 23.78125 16.265625 C 24.320312 16.28125 24.355469 16.285156 24.519531 16.363281 C 24.738281 16.472656 24.917969 16.667969 25.011719 16.902344 L 25.085938 17.085938 L 25.085938 26.914062 L 25.015625 27.09375 C 24.925781 27.316406 24.726562 27.527344 24.511719 27.625 L 24.34375 27.707031 L 11.65625 27.707031 Z M 21.253906 14.734375 C 21.253906 13.890625 21.242188 13.109375 21.222656 12.992188 C 21.136719 12.367188 20.78125 11.671875 20.316406 11.199219 C 19.800781 10.679688 19.261719 10.410156 18.417969 10.25 C 17.734375 10.121094 16.789062 10.359375 16.117188 10.828125 C 15.429688 11.308594 14.890625 12.175781 14.777344 12.992188 C 14.757812 13.109375 14.746094 13.890625 14.746094 14.734375 L 14.742188 16.261719 L 21.257812 16.261719 L 21.257812 14.734375 Z M 21.253906 14.734375 "/>
</g>
</svg>
