<?xml version="1.0" encoding="UTF-8"?>
<svg xmlns="http://www.w3.org/2000/svg" xmlns:xlink="http://www.w3.org/1999/xlink" width="36pt" height="36pt" viewBox="0 0 36 36" version="1.1">
<g id="surface1">
<path style=" stroke:none;fill-rule:evenodd;fill:rgb(94.901961%,94.901961%,94.901961%);fill-opacity:1;" d="M 8.40625 2.136719 L 27.59375 2.136719 C 31.054688 2.136719 33.863281 4.945312 33.863281 8.40625 L 33.863281 27.59375 C 33.863281 31.054688 31.054688 33.863281 27.59375 33.863281 L 8.40625 33.863281 C 4.945312 33.863281 2.136719 31.054688 2.136719 27.59375 L 2.136719 8.40625 C 2.136719 4.945312 4.945312 2.136719 8.40625 2.136719 Z M 8.40625 2.136719 "/>
<path style=" stroke:none;fill-rule:nonzero;fill:rgb(10.196078%,10.196078%,10.196078%);fill-opacity:0.929412;" d="M 18 5.164062 C 10.917969 5.164062 5.167969 10.917969 5.171875 18 C 5.167969 25.082031 10.917969 30.835938 18 30.835938 C 25.082031 30.835938 30.832031 25.082031 30.828125 18 C 30.832031 10.917969 25.082031 5.164062 18 5.164062 Z M 18 5.96875 C 24.644531 5.96875 30.027344 11.351562 30.023438 18 C 30.027344 24.648438 24.644531 30.03125 18 30.03125 C 11.351562 30.03125 5.972656 24.648438 5.976562 18 C 5.972656 11.351562 11.351562 5.96875 18 5.96875 Z M 18 5.96875 "/>
<path style=" stroke:none;fill-rule:evenodd;fill:rgb(56.470588%,36.078431%,68.235294%);fill-opacity:1;" d="M 7.1875 20.992188 L 17.089844 11.855469 L 12.90625 7.960938 C 8.734375 10.53125 5.53125 14.765625 7.1875 20.992188 Z M 7.1875 20.992188 "/>
<path style=" stroke:none;fill-rule:evenodd;fill:rgb(100%,15.294118%,17.254902%);fill-opacity:1;" d="M 14.109375 7.429688 L 22.667969 15.21875 L 22.621094 7.621094 C 19.65625 6.492188 16.816406 6.382812 14.109375 7.429688 Z M 14.109375 7.429688 "/>
<path style=" stroke:none;fill-rule:evenodd;fill:rgb(100%,56.078431%,0%);fill-opacity:1;" d="M 23.867188 8.390625 L 23.964844 21.710938 L 28.582031 21.710938 C 30.824219 14.46875 27.035156 10.496094 23.867188 8.390625 Z M 23.867188 8.390625 "/>
<path style=" stroke:none;fill-rule:evenodd;fill:rgb(0.392157%,41.960784%,84.705882%);fill-opacity:1;" d="M 12.140625 18.058594 L 12.140625 27.722656 C 10.398438 26.394531 8.664062 25.054688 7.523438 22.289062 Z M 12.140625 18.058594 "/>
<path style=" stroke:none;fill-rule:evenodd;fill:rgb(0%,74.901961%,0%);fill-opacity:1;" d="M 28.101562 22.914062 L 13.390625 23.011719 L 13.4375 28.347656 C 21.546875 31.320312 26.363281 26.671875 28.101562 22.914062 Z M 28.101562 22.914062 "/>
</g>
</svg>
