<?xml version="1.0" encoding="UTF-8"?>
<svg xmlns="http://www.w3.org/2000/svg" xmlns:xlink="http://www.w3.org/1999/xlink" width="36pt" height="36pt" viewBox="0 0 36 36" version="1.1">
<g id="surface1">
<path style=" stroke:none;fill-rule:evenodd;fill:rgb(90.196078%,90.196078%,90.196078%);fill-opacity:1;" d="M 8.40625 2.136719 L 27.59375 2.136719 C 31.054688 2.136719 33.863281 4.945312 33.863281 8.40625 L 33.863281 27.59375 C 33.863281 31.054688 31.054688 33.863281 27.59375 33.863281 L 8.40625 33.863281 C 4.945312 33.863281 2.136719 31.054688 2.136719 27.59375 L 2.136719 8.40625 C 2.136719 4.945312 4.945312 2.136719 8.40625 2.136719 Z M 8.40625 2.136719 "/>
<path style=" stroke:none;fill-rule:nonzero;fill:rgb(19.607843%,40%,96.862745%);fill-opacity:1;" d="M 11.699219 29.101562 C 10.46875 28.914062 9.507812 28.4375 8.652344 27.582031 C 7.9375 26.863281 7.445312 25.992188 7.234375 25.082031 C 7.03125 24.195312 7.035156 23.503906 7.238281 22.609375 C 7.421875 21.816406 7.835938 21.035156 8.425781 20.375 C 8.699219 20.0625 11.824219 16.941406 11.875 16.925781 C 11.898438 16.917969 11.910156 17.050781 11.910156 17.277344 C 11.914062 17.917969 12.035156 18.605469 12.289062 19.363281 L 12.414062 19.746094 L 11.242188 20.917969 C 10.078125 22.082031 9.949219 22.226562 9.761719 22.59375 C 9.566406 22.976562 9.472656 23.394531 9.472656 23.886719 C 9.476562 25.550781 11.019531 26.929688 12.667969 26.75 C 13.167969 26.695312 13.578125 26.542969 13.992188 26.261719 C 14.285156 26.058594 19.253906 21.070312 19.441406 20.789062 C 20.148438 19.71875 20.019531 18.25 19.132812 17.300781 C 18.957031 17.113281 18.550781 16.777344 18.5 16.777344 C 18.402344 16.777344 18.546875 16.613281 19.3125 15.847656 L 20.15625 15.003906 L 20.367188 15.1875 C 20.613281 15.402344 21.125 15.9375 21.210938 16.070312 C 21.242188 16.117188 21.289062 16.179688 21.316406 16.207031 C 21.386719 16.28125 21.710938 16.839844 21.808594 17.058594 C 22.117188 17.746094 22.273438 18.480469 22.273438 19.246094 C 22.273438 20.414062 21.9375 21.417969 21.222656 22.402344 C 21.136719 22.519531 19.859375 23.820312 18.382812 25.292969 C 16.453125 27.222656 15.621094 28.03125 15.417969 28.175781 C 14.332031 28.9375 12.933594 29.285156 11.699219 29.101562 Z M 11.699219 29.101562 "/>
<path style=" stroke:none;fill-rule:nonzero;fill:rgb(16.078431%,65.490196%,20.392157%);fill-opacity:1;" d="M 24.300781 6.898438 C 25.53125 7.085938 26.492188 7.5625 27.347656 8.417969 C 28.0625 9.136719 28.554688 10.007812 28.765625 10.917969 C 28.96875 11.804688 28.964844 12.496094 28.761719 13.390625 C 28.578125 14.183594 28.164062 14.964844 27.574219 15.625 C 27.300781 15.9375 24.175781 19.058594 24.125 19.074219 C 24.101562 19.082031 24.089844 18.949219 24.089844 18.722656 C 24.085938 18.082031 23.964844 17.394531 23.710938 16.636719 L 23.585938 16.253906 L 24.757812 15.082031 C 25.921875 13.917969 26.050781 13.773438 26.238281 13.40625 C 26.433594 13.023438 26.527344 12.605469 26.527344 12.113281 C 26.523438 10.449219 24.980469 9.070312 23.332031 9.25 C 22.832031 9.304688 22.421875 9.457031 22.007812 9.738281 C 21.714844 9.941406 16.746094 14.929688 16.558594 15.210938 C 15.851562 16.28125 15.980469 17.75 16.867188 18.699219 C 17.042969 18.886719 17.449219 19.222656 17.5 19.222656 C 17.597656 19.222656 17.453125 19.386719 16.6875 20.152344 L 15.84375 20.996094 L 15.632812 20.8125 C 15.386719 20.597656 14.875 20.0625 14.789062 19.929688 C 14.757812 19.882812 14.710938 19.820312 14.683594 19.792969 C 14.613281 19.71875 14.289062 19.160156 14.191406 18.941406 C 13.882812 18.253906 13.726562 17.519531 13.726562 16.753906 C 13.726562 15.585938 14.0625 14.582031 14.777344 13.597656 C 14.863281 13.480469 16.140625 12.179688 17.617188 10.707031 C 19.546875 8.777344 20.378906 7.96875 20.582031 7.824219 C 21.667969 7.0625 23.066406 6.714844 24.300781 6.898438 Z M 24.300781 6.898438 "/>
</g>
</svg>
