<?xml version="1.0" encoding="UTF-8"?>
<svg xmlns="http://www.w3.org/2000/svg" xmlns:xlink="http://www.w3.org/1999/xlink" width="36pt" height="36pt" viewBox="0 0 36 36" version="1.1">
<defs>
<clipPath id="clip1">
  <rect width="36" height="36"/>
</clipPath>
<g id="surface6" clip-path="url(#clip1)">
<path style=" stroke:none;fill-rule:nonzero;fill:rgb(70.196078%,70.196078%,70.196078%);fill-opacity:1;" d="M 15.769531 6.675781 C 15.539062 6.699219 15.335938 6.898438 15.292969 7.132812 L 14.835938 9.558594 C 14.011719 9.894531 13.234375 10.355469 12.554688 10.921875 L 10.292969 10.125 C 10.054688 10.039062 9.769531 10.148438 9.644531 10.371094 L 7.464844 14.300781 C 7.34375 14.527344 7.394531 14.839844 7.585938 15.007812 L 9.390625 16.65625 C 9.324219 17.097656 9.289062 17.539062 9.289062 18 C 9.289062 18.460938 9.324219 18.902344 9.390625 19.34375 L 7.585938 20.992188 C 7.394531 21.160156 7.34375 21.472656 7.464844 21.699219 L 9.644531 25.628906 C 9.769531 25.851562 10.054688 25.960938 10.292969 25.875 L 12.554688 25.078125 C 13.234375 25.644531 14.011719 26.105469 14.835938 26.441406 L 15.292969 28.867188 C 15.339844 29.121094 15.574219 29.324219 15.820312 29.328125 L 20.179688 29.328125 C 20.425781 29.324219 20.660156 29.121094 20.707031 28.867188 L 21.164062 26.441406 C 21.988281 26.105469 22.765625 25.644531 23.445312 25.078125 L 25.707031 25.875 C 25.945312 25.960938 26.230469 25.851562 26.355469 25.628906 L 28.535156 21.699219 C 28.65625 21.472656 28.605469 21.160156 28.414062 20.992188 L 26.609375 19.34375 C 26.675781 18.902344 26.710938 18.460938 26.710938 18 C 26.710938 17.539062 26.675781 17.097656 26.609375 16.65625 L 28.414062 15.007812 C 28.605469 14.839844 28.65625 14.527344 28.535156 14.300781 L 26.355469 10.371094 C 26.230469 10.148438 25.945312 10.039062 25.707031 10.125 L 23.445312 10.921875 C 22.765625 10.355469 21.988281 9.894531 21.164062 9.558594 L 20.707031 7.132812 C 20.660156 6.878906 20.425781 6.675781 20.179688 6.671875 L 15.820312 6.671875 C 15.804688 6.671875 15.789062 6.671875 15.769531 6.671875 Z M 15.769531 6.675781 "/>
</g>
</defs>
<g id="surface1">
<path style=" stroke:none;fill-rule:evenodd;fill:rgb(30.980392%,30.980392%,30.980392%);fill-opacity:1;" d="M 8.40625 2.136719 L 27.59375 2.136719 C 31.054688 2.136719 33.863281 4.945312 33.863281 8.40625 L 33.863281 27.59375 C 33.863281 31.054688 31.054688 33.863281 27.59375 33.863281 L 8.40625 33.863281 C 4.945312 33.863281 2.136719 31.054688 2.136719 27.59375 L 2.136719 8.40625 C 2.136719 4.945312 4.945312 2.136719 8.40625 2.136719 Z M 8.40625 2.136719 "/>
<use xlink:href="#surface6"/>
</g>
</svg>
