<?xml version="1.0" encoding="UTF-8"?>
<svg xmlns="http://www.w3.org/2000/svg" xmlns:xlink="http://www.w3.org/1999/xlink" width="36pt" height="36pt" viewBox="0 0 36 36" version="1.1">
<defs>
<clipPath id="clip1">
  <rect width="36" height="36"/>
</clipPath>
<g id="surface6" clip-path="url(#clip1)">
<path style=" stroke:none;fill-rule:nonzero;fill:rgb(95.294118%,25.882353%,20.784314%);fill-opacity:1;" d="M 10.851562 5.347656 C 7.984375 5.347656 5.664062 7.628906 5.664062 10.441406 C 5.664062 10.617188 5.679688 10.777344 5.695312 10.949219 C 5.710938 11.121094 5.734375 11.292969 5.761719 11.460938 C 6.355469 15.039062 8.773438 17.574219 10.851562 19.613281 C 12.925781 17.574219 15.34375 15.039062 15.9375 11.460938 C 15.964844 11.292969 15.988281 11.121094 16.003906 10.949219 C 16.019531 10.777344 16.035156 10.617188 16.035156 10.441406 C 16.035156 7.628906 13.714844 5.347656 10.847656 5.347656 Z M 10.851562 5.347656 "/>
</g>
<clipPath id="clip2">
  <rect width="36" height="36"/>
</clipPath>
<g id="surface9" clip-path="url(#clip2)">
<path style=" stroke:none;fill-rule:nonzero;fill:rgb(100%,100%,100%);fill-opacity:1;" d="M 10.851562 7.941406 C 11.921875 7.941406 12.792969 8.8125 12.792969 9.886719 C 12.792969 10.960938 11.921875 11.832031 10.851562 11.832031 C 9.777344 11.832031 8.90625 10.960938 8.90625 9.886719 C 8.90625 8.8125 9.777344 7.941406 10.851562 7.941406 Z M 10.851562 7.941406 "/>
</g>
</defs>
<g id="surface1">
<path style=" stroke:none;fill-rule:evenodd;fill:rgb(12.54902%,58.431373%,94.901961%);fill-opacity:1;" d="M 30.929688 32.773438 L 18.46875 20.316406 L 5.65625 33.167969 C 6.492188 33.582031 7.40625 33.863281 8.40625 33.863281 L 27.59375 33.863281 C 28.851562 33.863281 29.949219 33.402344 30.929688 32.773438 Z M 30.929688 32.773438 "/>
<path style=" stroke:none;fill-rule:evenodd;fill:rgb(100%,89.803922%,0%);fill-opacity:1;" d="M 33.4375 29.714844 L 21.25 17.527344 L 18.46875 20.316406 L 30.929688 32.773438 C 32.070312 32.035156 32.96875 31.011719 33.4375 29.714844 Z M 33.4375 29.714844 "/>
<path style=" stroke:none;fill-rule:evenodd;fill:rgb(0%,63.921569%,10.980392%);fill-opacity:1;" d="M 33.132812 5.609375 L 21.25 17.527344 L 33.4375 29.714844 C 33.679688 29.046875 33.863281 28.347656 33.863281 27.59375 L 33.863281 8.40625 C 33.863281 7.382812 33.566406 6.460938 33.132812 5.609375 Z M 33.132812 5.609375 "/>
<path style=" stroke:none;fill-rule:evenodd;fill:rgb(100%,100%,100%);fill-opacity:1;" d="M 30.40625 2.875 L 2.863281 30.390625 C 3.476562 31.601562 4.441406 32.566406 5.65625 33.167969 L 33.132812 5.609375 C 32.535156 4.425781 31.589844 3.480469 30.40625 2.875 Z M 30.40625 2.875 "/>
<path style=" stroke:none;fill-rule:evenodd;fill:rgb(91.372549%,89.803922%,86.27451%);fill-opacity:1;" d="M 8.40625 2.136719 C 4.933594 2.136719 2.136719 4.933594 2.136719 8.40625 L 2.136719 27.59375 C 2.136719 28.617188 2.433594 29.542969 2.863281 30.390625 L 30.40625 2.875 C 29.550781 2.441406 28.621094 2.136719 27.59375 2.136719 Z M 8.40625 2.136719 "/>
<use xlink:href="#surface6"/>
<use xlink:href="#surface9"/>
</g>
</svg>
