<?xml version="1.0" encoding="UTF-8"?>
<svg xmlns="http://www.w3.org/2000/svg" xmlns:xlink="http://www.w3.org/1999/xlink" width="36pt" height="36pt" viewBox="0 0 36 36" version="1.1">
<g id="surface1">
<path style=" stroke:none;fill-rule:evenodd;fill:rgb(29.411765%,66.27451%,75.294118%);fill-opacity:1;" d="M 8.40625 2.136719 L 27.59375 2.136719 C 31.054688 2.136719 33.863281 4.945312 33.863281 8.40625 L 33.863281 27.59375 C 33.863281 31.054688 31.054688 33.863281 27.59375 33.863281 L 8.40625 33.863281 C 4.945312 33.863281 2.136719 31.054688 2.136719 27.59375 L 2.136719 8.40625 C 2.136719 4.945312 4.945312 2.136719 8.40625 2.136719 Z M 8.40625 2.136719 "/>
<path style=" stroke:none;fill-rule:nonzero;fill:rgb(100%,100%,100%);fill-opacity:1;" d="M 16.976562 25.835938 C 16.289062 25.773438 14.921875 25.523438 14.328125 25.355469 C 13.066406 24.992188 11.945312 24.625 11.027344 23.839844 C 10.84375 23.683594 10.625 23.558594 10.53125 23.558594 C 10.4375 23.558594 9.558594 23.828125 8.574219 24.160156 C 7.589844 24.492188 6.738281 24.765625 6.679688 24.765625 C 6.492188 24.765625 6.355469 24.308594 6.128906 23.597656 C 5.878906 22.820312 5.863281 22.675781 6.007812 22.558594 C 6.0625 22.511719 6.761719 22.257812 7.5625 21.992188 C 8.359375 21.730469 9.027344 21.480469 9.039062 21.441406 C 9.066406 21.355469 7.941406 21.273438 6.75 21.273438 C 6.007812 21.273438 5.960938 21.265625 5.785156 21.089844 C 5.613281 20.921875 5.605469 20.875 5.644531 20.476562 C 5.671875 20.238281 5.691406 19.878906 5.691406 19.671875 C 5.691406 19.0625 5.695312 19.058594 7.292969 19.085938 L 8.320312 19.109375 L 8.40625 18.503906 C 8.511719 17.800781 8.746094 17.148438 9.101562 16.566406 C 9.292969 16.253906 9.347656 16.097656 9.324219 15.925781 C 8.984375 13.515625 8.9375 12.589844 9.113281 10.808594 C 9.253906 9.367188 9.476562 9 10.207031 9 C 10.96875 9 12.652344 9.882812 14.730469 11.902344 L 15.777344 12.585938 L 16.464844 12.511719 C 17.328125 12.414062 18.453125 12.414062 19.546875 12.511719 L 20.394531 12.582031 L 21.589844 11.796875 C 23.40625 10.59375 24.050781 9.832031 24.761719 9.410156 C 25.265625 9.109375 25.417969 9.050781 25.796875 9.027344 C 26.214844 9.003906 26.257812 9.015625 26.457031 9.214844 C 26.875 9.625 27.050781 10.5 27.054688 12.3125 C 27.054688 13.402344 27.027344 13.5 26.832031 15.214844 L 26.742188 16.003906 L 27.054688 16.476562 C 27.441406 17.070312 27.554688 17.765625 27.800781 18.503906 L 27.890625 19.109375 L 28.84375 19.085938 C 29.789062 19.066406 30.046875 19.078125 30.160156 19.164062 C 30.273438 19.25 30.304688 19.402344 30.351562 20.101562 C 30.386719 20.59375 30.382812 20.988281 30.34375 21.0625 C 30.265625 21.203125 29.921875 21.269531 29.269531 21.273438 C 29.011719 21.273438 28.664062 21.292969 28.21875 21.320312 C 26.378906 21.375 26.425781 21.375 28.585938 22.03125 C 29.335938 22.261719 29.992188 22.527344 30.050781 22.589844 C 30.148438 22.683594 30.148438 22.746094 30.039062 23.15625 C 29.863281 23.816406 29.609375 24.632812 29.464844 24.722656 C 29.363281 24.785156 28.984375 24.679688 27.601562 24.214844 C 26.644531 23.890625 25.804688 23.628906 25.726562 23.628906 C 25.652344 23.628906 25.296875 23.625 24.9375 23.894531 C 23.558594 24.933594 21.820312 25.589844 19.84375 25.816406 C 19.238281 25.882812 17.609375 25.898438 16.976562 25.839844 Z M 16.976562 25.835938 "/>
<path style=" stroke:none;fill-rule:nonzero;fill:rgb(18.823529%,18.823529%,18.823529%);fill-opacity:1;" d="M 14.625 18.5625 C 14.625 19.496094 13.871094 20.25 12.9375 20.25 C 12.003906 20.25 11.25 19.496094 11.25 18.5625 C 11.25 17.628906 12.003906 16.875 12.9375 16.875 C 13.871094 16.875 14.625 17.628906 14.625 18.5625 Z M 14.625 18.5625 "/>
<path style=" stroke:none;fill-rule:nonzero;fill:rgb(18.823529%,18.823529%,18.823529%);fill-opacity:1;" d="M 24.75 18.5625 C 24.75 19.496094 23.996094 20.25 23.0625 20.25 C 22.128906 20.25 21.375 19.496094 21.375 18.5625 C 21.375 17.628906 22.128906 16.875 23.0625 16.875 C 23.996094 16.875 24.75 17.628906 24.75 18.5625 Z M 24.75 18.5625 "/>
</g>
</svg>
