<?xml version="1.0" encoding="UTF-8"?>
<svg xmlns="http://www.w3.org/2000/svg" xmlns:xlink="http://www.w3.org/1999/xlink" width="36pt" height="36pt" viewBox="0 0 36 36" version="1.1">
<g id="surface1">
<path style=" stroke:none;fill-rule:evenodd;fill:rgb(19.607843%,61.176471%,19.607843%);fill-opacity:1;" d="M 8.40625 2.136719 L 27.59375 2.136719 C 31.054688 2.136719 33.863281 4.945312 33.863281 8.40625 L 33.863281 27.59375 C 33.863281 31.054688 31.054688 33.863281 27.59375 33.863281 L 8.40625 33.863281 C 4.945312 33.863281 2.136719 31.054688 2.136719 27.59375 L 2.136719 8.40625 C 2.136719 4.945312 4.945312 2.136719 8.40625 2.136719 Z M 8.40625 2.136719 "/>
<path style=" stroke:none;fill-rule:nonzero;fill:rgb(14.901961%,14.901961%,14.901961%);fill-opacity:1;" d="M 24.511719 13.042969 L 20.304688 13.710938 C 20.09375 13.175781 19.902344 12.804688 19.730469 12.601562 C 19.5625 12.390625 19.285156 12.179688 18.894531 11.96875 L 18.894531 15.234375 C 21.183594 15.847656 22.714844 16.492188 23.484375 17.167969 C 24.5 18.082031 25.011719 19.238281 25.011719 20.640625 C 25.011719 21.460938 24.824219 22.214844 24.457031 22.902344 C 24.09375 23.585938 23.625 24.160156 23.054688 24.621094 C 22.488281 25.078125 21.886719 25.414062 21.246094 25.625 C 20.605469 25.828125 19.820312 25.949219 18.894531 25.988281 L 18.894531 28.125 L 17.242188 28.125 L 17.242188 25.988281 C 16.132812 25.890625 15.234375 25.714844 14.539062 25.457031 C 13.855469 25.191406 13.257812 24.832031 12.753906 24.371094 C 12.257812 23.910156 11.871094 23.417969 11.601562 22.890625 C 11.328125 22.355469 11.125 22.128906 10.988281 21.375 L 15.558594 20.25 C 15.695312 20.996094 15.875 21.710938 16.101562 22.042969 C 16.335938 22.375 16.714844 22.667969 17.242188 22.925781 L 17.242188 18.933594 C 15.71875 18.511719 14.636719 18.144531 13.996094 17.835938 C 13.363281 17.527344 12.8125 17.035156 12.347656 16.355469 C 11.878906 15.667969 11.644531 14.835938 11.644531 13.855469 C 11.644531 12.515625 12.113281 11.394531 13.046875 10.5 C 13.988281 9.59375 15.386719 9.09375 17.242188 8.996094 L 17.242188 7.875 L 18.894531 7.875 L 18.894531 8.996094 C 20.582031 9.101562 21.871094 9.5 22.761719 10.191406 C 23.65625 10.886719 24.242188 11.835938 24.511719 13.042969 Z M 17.242188 11.910156 C 16.761719 12.070312 16.425781 12.265625 16.234375 12.5 C 16.046875 12.734375 15.953125 13.007812 15.953125 13.324219 C 15.953125 13.65625 16.046875 13.945312 16.234375 14.195312 C 16.433594 14.4375 16.765625 14.640625 17.242188 14.804688 Z M 18.894531 23.035156 C 19.535156 22.894531 20 22.660156 20.296875 22.335938 C 20.597656 22.003906 20.746094 21.636719 20.746094 21.226562 C 20.746094 20.875 20.621094 20.550781 20.363281 20.253906 C 20.113281 19.953125 19.625 19.675781 18.894531 19.417969 Z M 18.894531 23.035156 "/>
</g>
</svg>
