<?xml version="1.0" encoding="UTF-8"?>
<svg xmlns="http://www.w3.org/2000/svg" xmlns:xlink="http://www.w3.org/1999/xlink" width="36pt" height="36pt" viewBox="0 0 36 36" version="1.1">
<g id="surface1">
<path style=" stroke:none;fill-rule:evenodd;fill:rgb(87.058824%,33.333333%,29.803922%);fill-opacity:1;" d="M 8.40625 2.136719 L 27.59375 2.136719 C 31.054688 2.136719 33.863281 4.945312 33.863281 8.40625 L 33.863281 27.59375 C 33.863281 31.054688 31.054688 33.863281 27.59375 33.863281 L 8.40625 33.863281 C 4.945312 33.863281 2.136719 31.054688 2.136719 27.59375 L 2.136719 8.40625 C 2.136719 4.945312 4.945312 2.136719 8.40625 2.136719 Z M 8.40625 2.136719 "/>
<path style=" stroke:none;fill-rule:nonzero;fill:rgb(100%,100%,100%);fill-opacity:1;" d="M 10.65625 8.433594 C 9.746094 8.464844 9.023438 9.210938 9.023438 10.121094 L 9.023438 17.726562 C 8.992188 17.910156 8.992188 18.097656 9.023438 18.28125 L 9.023438 25.871094 C 9.015625 26.480469 9.335938 27.046875 9.859375 27.351562 C 10.386719 27.660156 11.035156 27.660156 11.5625 27.351562 C 12.085938 27.046875 12.40625 26.480469 12.398438 25.871094 L 12.398438 19.613281 C 13.578125 19.632812 15.28125 19.722656 18.21875 19.378906 C 20.128906 19.160156 22.0625 18.808594 23.699219 18.121094 C 24.515625 17.777344 25.277344 17.347656 25.90625 16.699219 C 26.535156 16.046875 27.007812 15.089844 27 14.070312 C 26.992188 13.054688 26.515625 12.105469 25.882812 11.460938 C 25.25 10.8125 24.492188 10.382812 23.671875 10.035156 C 22.035156 9.34375 20.105469 8.988281 18.199219 8.761719 C 14.386719 8.304688 10.65625 8.433594 10.65625 8.433594 Z M 12.398438 11.875 C 13.515625 11.863281 15.128906 11.792969 17.800781 12.113281 C 19.539062 12.320312 21.253906 12.675781 22.359375 13.144531 C 22.910156 13.378906 23.292969 13.636719 23.464844 13.816406 C 23.636719 13.992188 23.625 14.003906 23.625 14.097656 C 23.625 14.1875 23.644531 14.179688 23.480469 14.351562 C 23.316406 14.519531 22.941406 14.777344 22.390625 15.011719 C 21.292969 15.472656 19.574219 15.824219 17.828125 16.027344 C 15.148438 16.339844 13.515625 16.257812 12.398438 16.242188 Z M 12.398438 11.875 "/>
</g>
</svg>
