<?xml version="1.0" encoding="UTF-8"?>
<svg xmlns="http://www.w3.org/2000/svg" xmlns:xlink="http://www.w3.org/1999/xlink" width="36pt" height="36pt" viewBox="0 0 36 36" version="1.1">
<g id="surface1">
<path style=" stroke:none;fill-rule:evenodd;fill:rgb(0.784314%,52.54902%,76.078431%);fill-opacity:1;" d="M 8.40625 2.136719 L 27.59375 2.136719 C 31.054688 2.136719 33.863281 4.945312 33.863281 8.40625 L 33.863281 27.59375 C 33.863281 31.054688 31.054688 33.863281 27.59375 33.863281 L 8.40625 33.863281 C 4.945312 33.863281 2.136719 31.054688 2.136719 27.59375 L 2.136719 8.40625 C 2.136719 4.945312 4.945312 2.136719 8.40625 2.136719 Z M 8.40625 2.136719 "/>
<path style=" stroke:none;fill-rule:nonzero;fill:rgb(100%,100%,100%);fill-opacity:1;" d="M 18 13.5 C 15.515625 13.5 13.5 15.515625 13.5 18 C 13.5 20.484375 15.515625 22.5 18 22.5 C 20.484375 22.5 22.5 20.484375 22.5 18 C 22.5 15.515625 20.484375 13.5 18 13.5 Z M 22.5 18 C 22.5 19.863281 24.011719 21.375 25.875 21.375 C 27.738281 21.375 29.25 19.863281 29.25 18 C 29.25 16.136719 27.738281 14.625 25.875 14.625 C 24.011719 14.625 22.5 16.136719 22.5 18 Z M 13.5 18 C 13.5 16.136719 11.988281 14.625 10.125 14.625 C 8.261719 14.625 6.75 16.136719 6.75 18 C 6.75 19.863281 8.261719 21.375 10.125 21.375 C 11.988281 21.375 13.5 19.863281 13.5 18 Z M 18 15.75 C 19.242188 15.75 20.25 16.757812 20.25 18 C 20.25 19.242188 19.242188 20.25 18 20.25 C 16.757812 20.25 15.75 19.242188 15.75 18 C 15.75 16.757812 16.757812 15.75 18 15.75 Z M 10.125 16.875 C 10.746094 16.875 11.25 17.378906 11.25 18 C 11.25 18.621094 10.746094 19.125 10.125 19.125 C 9.503906 19.125 9 18.621094 9 18 C 9 17.378906 9.503906 16.875 10.125 16.875 Z M 25.875 16.875 C 26.496094 16.875 27 17.378906 27 18 C 27 18.621094 26.496094 19.125 25.875 19.125 C 25.253906 19.125 24.75 18.621094 24.75 18 C 24.75 17.378906 25.253906 16.875 25.875 16.875 Z M 25.875 16.875 "/>
</g>
</svg>
