<?xml version="1.0" encoding="UTF-8"?>
<svg xmlns="http://www.w3.org/2000/svg" xmlns:xlink="http://www.w3.org/1999/xlink" width="36pt" height="36pt" viewBox="0 0 36 36" version="1.1">
<g id="surface1">
<path style=" stroke:none;fill-rule:evenodd;fill:rgb(49.019608%,90.196078%,24.313725%);fill-opacity:1;" d="M 33.769531 7.9375 C 33.765625 8.46875 33.75 9 33.714844 9.527344 C 33.640625 10.410156 33.519531 11.289062 33.355469 12.160156 C 33.195312 13.03125 32.988281 13.890625 32.738281 14.742188 C 32.492188 15.59375 32.199219 16.429688 31.867188 17.25 C 31.535156 18.070312 31.164062 18.875 30.75 19.660156 C 30.339844 20.441406 29.886719 21.207031 29.398438 21.945312 C 28.910156 22.683594 28.382812 23.394531 27.824219 24.082031 C 27.265625 24.769531 26.667969 25.425781 26.042969 26.054688 C 25.65625 26.441406 25.257812 26.816406 24.847656 27.179688 C 24.183594 27.761719 23.488281 28.316406 22.769531 28.832031 C 22.050781 29.347656 21.304688 29.828125 20.539062 30.269531 C 19.769531 30.710938 18.984375 31.113281 18.175781 31.476562 C 17.367188 31.839844 16.542969 32.164062 15.703125 32.441406 C 14.863281 32.722656 14.011719 32.960938 13.148438 33.15625 C 12.285156 33.351562 11.414062 33.503906 10.535156 33.613281 C 9.707031 33.710938 8.875 33.769531 8.042969 33.792969 C 8.171875 33.800781 8.28125 33.863281 8.410156 33.863281 L 27.59375 33.863281 C 31.066406 33.863281 33.863281 31.066406 33.863281 27.59375 L 33.863281 8.410156 C 33.863281 8.242188 33.78125 8.101562 33.769531 7.9375 Z M 33.769531 7.9375 "/>
<path style=" stroke:none;fill-rule:evenodd;fill:rgb(35.294118%,73.333333%,24.313725%);fill-opacity:1;" d="M 27.957031 2.207031 C 27.125 2.230469 26.292969 2.289062 25.464844 2.386719 C 24.589844 2.496094 23.714844 2.648438 22.855469 2.84375 C 21.988281 3.039062 21.136719 3.277344 20.296875 3.558594 C 19.457031 3.839844 18.632812 4.160156 17.828125 4.523438 C 17.019531 4.886719 16.230469 5.289062 15.460938 5.734375 C 14.695312 6.175781 13.949219 6.652344 13.230469 7.167969 C 12.511719 7.6875 11.820312 8.238281 11.15625 8.824219 C 10.742188 9.1875 10.34375 9.5625 9.957031 9.949219 C 9.332031 10.574219 8.738281 11.234375 8.179688 11.921875 C 7.617188 12.605469 7.09375 13.320312 6.601562 14.058594 C 6.113281 14.796875 5.664062 15.558594 5.25 16.34375 C 4.839844 17.125 4.464844 17.929688 4.132812 18.75 C 3.800781 19.570312 3.507812 20.410156 3.261719 21.257812 C 3.011719 22.109375 2.804688 22.972656 2.644531 23.84375 C 2.480469 24.714844 2.363281 25.59375 2.289062 26.476562 C 2.253906 27.007812 2.234375 27.539062 2.230469 28.070312 C 2.476562 31.179688 4.917969 33.605469 8.042969 33.792969 C 8.875 33.769531 9.707031 33.710938 10.535156 33.613281 C 11.414062 33.503906 12.285156 33.351562 13.148438 33.15625 C 14.011719 32.960938 14.863281 32.722656 15.703125 32.441406 C 16.542969 32.164062 17.367188 31.839844 18.175781 31.476562 C 18.984375 31.113281 19.769531 30.710938 20.539062 30.269531 C 21.304688 29.828125 22.050781 29.347656 22.769531 28.832031 C 23.488281 28.316406 24.183594 27.761719 24.847656 27.179688 C 25.257812 26.816406 25.65625 26.441406 26.042969 26.054688 C 26.667969 25.425781 27.265625 24.769531 27.824219 24.082031 C 28.382812 23.394531 28.910156 22.683594 29.398438 21.945312 C 29.886719 21.207031 30.339844 20.441406 30.75 19.660156 C 31.164062 18.875 31.535156 18.070312 31.867188 17.25 C 32.199219 16.429688 32.492188 15.59375 32.738281 14.742188 C 32.988281 13.890625 33.195312 13.03125 33.355469 12.160156 C 33.519531 11.289062 33.640625 10.410156 33.714844 9.527344 C 33.75 9 33.765625 8.46875 33.769531 7.9375 C 33.527344 4.824219 31.085938 2.394531 27.957031 2.207031 Z M 27.957031 2.207031 "/>
<path style=" stroke:none;fill-rule:evenodd;fill:rgb(49.019608%,90.196078%,24.313725%);fill-opacity:1;" d="M 8.410156 2.136719 C 4.933594 2.136719 2.136719 4.933594 2.136719 8.410156 L 2.136719 27.59375 C 2.136719 27.761719 2.21875 27.902344 2.234375 28.070312 C 2.234375 27.539062 2.253906 27.007812 2.289062 26.476562 C 2.363281 25.59375 2.480469 24.714844 2.644531 23.84375 C 2.804688 22.972656 3.011719 22.109375 3.261719 21.257812 C 3.507812 20.410156 3.800781 19.570312 4.132812 18.75 C 4.464844 17.929688 4.839844 17.125 5.25 16.34375 C 5.664062 15.558594 6.113281 14.796875 6.601562 14.058594 C 7.09375 13.320312 7.617188 12.605469 8.179688 11.921875 C 8.738281 11.234375 9.332031 10.574219 9.957031 9.949219 C 10.34375 9.5625 10.742188 9.1875 11.15625 8.824219 C 11.820312 8.238281 12.511719 7.6875 13.230469 7.167969 C 13.949219 6.652344 14.695312 6.175781 15.460938 5.734375 C 16.230469 5.289062 17.019531 4.886719 17.828125 4.523438 C 18.632812 4.160156 19.457031 3.839844 20.296875 3.558594 C 21.136719 3.277344 21.988281 3.039062 22.855469 2.84375 C 23.714844 2.648438 24.589844 2.496094 25.464844 2.386719 C 26.292969 2.289062 27.125 2.230469 27.957031 2.207031 C 27.828125 2.199219 27.722656 2.136719 27.59375 2.136719 Z M 8.410156 2.136719 "/>
<path style=" stroke:none;fill-rule:nonzero;fill:rgb(24.705882%,51.372549%,17.254902%);fill-opacity:1;" d="M 24.777344 18 C 24.777344 21.742188 21.742188 24.777344 18 24.777344 C 14.257812 24.777344 11.226562 21.742188 11.226562 18 C 11.226562 14.257812 14.257812 11.226562 18 11.226562 C 21.742188 11.226562 24.777344 14.257812 24.777344 18 Z M 24.777344 18 "/>
<path style=" stroke:none;fill-rule:nonzero;fill:rgb(100%,76.078431%,4.705882%);fill-opacity:1;" d="M 22.515625 18 C 22.515625 20.496094 20.496094 22.519531 18 22.519531 C 15.503906 22.519531 13.484375 20.496094 13.484375 18 C 13.484375 15.507812 15.503906 13.484375 18 13.484375 C 20.496094 13.484375 22.515625 15.507812 22.515625 18 Z M 22.515625 18 "/>
<path style=" stroke:none;fill-rule:nonzero;fill:rgb(24.705882%,51.372549%,17.254902%);fill-opacity:1;" d="M 30.421875 8.96875 C 30.421875 10.835938 28.90625 12.355469 27.035156 12.355469 C 25.164062 12.355469 23.648438 10.835938 23.648438 8.96875 C 23.648438 7.097656 25.164062 5.578125 27.035156 5.578125 C 28.90625 5.578125 30.421875 7.097656 30.421875 8.96875 Z M 30.421875 8.96875 "/>
<path style=" stroke:none;fill-rule:nonzero;fill:rgb(100%,76.078431%,4.705882%);fill-opacity:1;" d="M 29.292969 8.96875 C 29.292969 10.214844 28.28125 11.226562 27.035156 11.226562 C 25.785156 11.226562 24.777344 10.214844 24.777344 8.96875 C 24.777344 7.71875 25.785156 6.707031 27.035156 6.707031 C 28.28125 6.707031 29.292969 7.71875 29.292969 8.96875 Z M 29.292969 8.96875 "/>
<path style=" stroke:none;fill-rule:nonzero;fill:rgb(24.705882%,51.372549%,17.254902%);fill-opacity:1;" d="M 12.355469 27.035156 C 12.355469 28.90625 10.835938 30.421875 8.964844 30.421875 C 7.09375 30.421875 5.578125 28.90625 5.578125 27.035156 C 5.578125 25.164062 7.09375 23.648438 8.964844 23.648438 C 10.835938 23.648438 12.355469 25.164062 12.355469 27.035156 Z M 12.355469 27.035156 "/>
<path style=" stroke:none;fill-rule:nonzero;fill:rgb(100%,76.078431%,4.705882%);fill-opacity:1;" d="M 11.226562 27.035156 C 11.226562 28.28125 10.214844 29.292969 8.964844 29.292969 C 7.71875 29.292969 6.707031 28.28125 6.707031 27.035156 C 6.707031 25.789062 7.71875 24.777344 8.964844 24.777344 C 10.214844 24.777344 11.226562 25.789062 11.226562 27.035156 Z M 11.226562 27.035156 "/>
</g>
</svg>
