<?xml version="1.0" encoding="UTF-8"?>
<svg xmlns="http://www.w3.org/2000/svg" xmlns:xlink="http://www.w3.org/1999/xlink" width="36pt" height="36pt" viewBox="0 0 36 36" version="1.1">
<g id="surface1">
<path style=" stroke:none;fill-rule:evenodd;fill:rgb(16.078431%,50.196078%,61.176471%);fill-opacity:1;" d="M 33.675781 28.527344 L 2.324219 28.527344 C 2.789062 31.535156 5.265625 33.863281 8.410156 33.863281 L 27.59375 33.863281 C 30.734375 33.863281 33.210938 31.535156 33.675781 28.527344 Z M 33.675781 28.527344 "/>
<path style=" stroke:none;fill-rule:evenodd;fill:rgb(29.019608%,70.196078%,89.411765%);fill-opacity:1;" d="M 8.410156 2.136719 C 4.933594 2.136719 2.136719 4.933594 2.136719 8.410156 L 2.136719 27.59375 C 2.136719 27.925781 2.277344 28.210938 2.324219 28.527344 L 33.675781 28.527344 C 33.726562 28.210938 33.863281 27.925781 33.863281 27.59375 L 33.863281 8.410156 C 33.863281 4.933594 31.066406 2.136719 27.59375 2.136719 Z M 8.410156 2.136719 "/>
<path style=" stroke:none;fill-rule:nonzero;fill:rgb(100%,100%,100%);fill-opacity:1;" d="M 15.1875 18.007812 L 15.1875 24.011719 C 15.1875 24.425781 15.5625 24.757812 16.03125 24.757812 L 27.84375 24.757812 C 28.3125 24.757812 28.6875 24.425781 28.6875 24.011719 L 28.6875 18.007812 Z M 15.1875 18.007812 "/>
<path style=" stroke:none;fill-rule:nonzero;fill:rgb(30.980392%,30.980392%,30.980392%);fill-opacity:1;" d="M 16.03125 15.757812 L 27.84375 15.757812 C 28.3125 15.757812 28.6875 16.09375 28.6875 16.511719 L 28.6875 18.007812 L 15.1875 18.007812 L 15.1875 16.507812 C 15.1875 16.09375 15.5625 15.757812 16.03125 15.757812 Z M 16.03125 15.757812 "/>
<path style=" stroke:none;fill-rule:nonzero;fill:rgb(100%,100%,100%);fill-opacity:1;" d="M 7.734375 7.882812 L 10.265625 7.882812 C 10.5 7.882812 10.6875 8.074219 10.6875 8.304688 L 10.6875 10.835938 C 10.6875 11.070312 10.5 11.257812 10.265625 11.257812 L 7.734375 11.257812 C 7.5 11.257812 7.3125 11.070312 7.3125 10.835938 L 7.3125 8.304688 C 7.3125 8.074219 7.5 7.882812 7.734375 7.882812 Z M 7.734375 7.882812 "/>
<path style=" stroke:none;fill-rule:nonzero;fill:rgb(100%,100%,100%);fill-opacity:1;" d="M 7.734375 12.382812 L 10.265625 12.382812 C 10.5 12.382812 10.6875 12.574219 10.6875 12.804688 L 10.6875 15.335938 C 10.6875 15.570312 10.5 15.757812 10.265625 15.757812 L 7.734375 15.757812 C 7.5 15.757812 7.3125 15.570312 7.3125 15.335938 L 7.3125 12.804688 C 7.3125 12.574219 7.5 12.382812 7.734375 12.382812 Z M 7.734375 12.382812 "/>
<path style=" stroke:none;fill-rule:nonzero;fill:rgb(100%,100%,100%);fill-opacity:1;" d="M 7.734375 16.882812 L 10.265625 16.882812 C 10.5 16.882812 10.6875 17.074219 10.6875 17.304688 L 10.6875 19.835938 C 10.6875 20.070312 10.5 20.257812 10.265625 20.257812 L 7.734375 20.257812 C 7.5 20.257812 7.3125 20.070312 7.3125 19.835938 L 7.3125 17.304688 C 7.3125 17.074219 7.5 16.882812 7.734375 16.882812 Z M 7.734375 16.882812 "/>
<path style=" stroke:none;fill-rule:nonzero;fill:rgb(100%,100%,100%);fill-opacity:1;" d="M 7.734375 21.382812 L 10.265625 21.382812 C 10.5 21.382812 10.6875 21.574219 10.6875 21.804688 L 10.6875 24.335938 C 10.6875 24.570312 10.5 24.757812 10.265625 24.757812 L 7.734375 24.757812 C 7.5 24.757812 7.3125 24.570312 7.3125 24.335938 L 7.3125 21.804688 C 7.3125 21.574219 7.5 21.382812 7.734375 21.382812 Z M 7.734375 21.382812 "/>
</g>
</svg>
