<?xml version="1.0" encoding="UTF-8"?>
<svg xmlns="http://www.w3.org/2000/svg" xmlns:xlink="http://www.w3.org/1999/xlink" width="36pt" height="36pt" viewBox="0 0 36 36" version="1.1">
<g id="surface1">
<path style=" stroke:none;fill-rule:evenodd;fill:rgb(97.647059%,97.647059%,97.647059%);fill-opacity:1;" d="M 2.136719 19.761719 L 14.582031 19.761719 C 15.015625 19.761719 15.367188 19.429688 15.367188 19.011719 L 15.367188 9.261719 C 15.367188 8.847656 15.015625 8.511719 14.582031 8.511719 L 2.136719 8.511719 Z M 2.136719 19.761719 "/>
<path style=" stroke:none;fill-rule:evenodd;fill:rgb(97.647059%,97.647059%,97.647059%);fill-opacity:1;" d="M 25.492188 33.863281 L 25.492188 25.011719 C 25.492188 24.597656 25.140625 24.261719 24.707031 24.261719 L 10.53125 24.261719 C 10.09375 24.261719 9.742188 24.597656 9.742188 25.011719 L 9.742188 33.863281 Z M 25.492188 33.863281 "/>
<path style=" stroke:none;fill-rule:evenodd;fill:rgb(97.647059%,97.647059%,97.647059%);fill-opacity:1;" d="M 33.863281 8.511719 L 20.65625 8.511719 C 20.21875 8.511719 19.867188 8.847656 19.867188 9.261719 L 19.867188 19.011719 C 19.867188 19.429688 20.21875 19.761719 20.65625 19.761719 L 33.863281 19.761719 Z M 33.863281 8.511719 "/>
<path style=" stroke:none;fill-rule:evenodd;fill:rgb(29.019608%,70.196078%,89.411765%);fill-opacity:1;" d="M 8.40625 2.136719 C 4.933594 2.136719 2.136719 4.933594 2.136719 8.40625 L 2.136719 8.511719 L 14.582031 8.511719 C 15.015625 8.511719 15.367188 8.847656 15.367188 9.261719 L 15.367188 19.011719 C 15.367188 19.429688 15.015625 19.761719 14.582031 19.761719 L 2.136719 19.761719 L 2.136719 27.589844 C 2.136719 31.066406 4.933594 33.863281 8.40625 33.863281 L 9.742188 33.863281 L 9.742188 25.011719 C 9.742188 24.597656 10.09375 24.261719 10.53125 24.261719 L 24.707031 24.261719 C 25.140625 24.261719 25.492188 24.597656 25.492188 25.011719 L 25.492188 33.863281 L 27.589844 33.863281 C 31.066406 33.863281 33.863281 31.066406 33.863281 27.589844 L 33.863281 19.761719 L 20.65625 19.761719 C 20.21875 19.761719 19.867188 19.429688 19.867188 19.011719 L 19.867188 9.261719 C 19.867188 8.847656 20.21875 8.511719 20.65625 8.511719 L 33.863281 8.511719 L 33.863281 8.40625 C 33.863281 4.933594 31.066406 2.136719 27.589844 2.136719 Z M 8.40625 2.136719 "/>
</g>
</svg>
