<?xml version="1.0" encoding="UTF-8"?>
<svg xmlns="http://www.w3.org/2000/svg" xmlns:xlink="http://www.w3.org/1999/xlink" width="36pt" height="36pt" viewBox="0 0 36 36" version="1.1">
<g id="surface1">
<path style=" stroke:none;fill-rule:evenodd;fill:rgb(18.823529%,23.921569%,45.882353%);fill-opacity:1;" d="M 8.40625 2.136719 L 27.59375 2.136719 C 31.054688 2.136719 33.863281 4.945312 33.863281 8.40625 L 33.863281 27.59375 C 33.863281 31.054688 31.054688 33.863281 27.59375 33.863281 L 8.40625 33.863281 C 4.945312 33.863281 2.136719 31.054688 2.136719 27.59375 L 2.136719 8.40625 C 2.136719 4.945312 4.945312 2.136719 8.40625 2.136719 Z M 8.40625 2.136719 "/>
<path style=" stroke:none;fill-rule:nonzero;fill:rgb(36.470588%,54.901961%,72.54902%);fill-opacity:1;" d="M 18 11.25 C 17.835938 11.25 17.671875 11.257812 17.507812 11.273438 C 17.472656 11.277344 17.433594 11.28125 17.398438 11.289062 C 14.542969 11.59375 12.378906 14.003906 12.375 16.875 C 12.375 16.890625 12.375 16.902344 12.378906 16.917969 C 10.441406 17.195312 9 18.855469 9 20.8125 C 9 20.84375 9 20.878906 9.003906 20.910156 C 9 20.9375 9 20.96875 9 21 C 9 23.070312 10.679688 24.75 12.75 24.75 L 22.5 24.75 C 24.984375 24.75 27 22.734375 27 20.25 C 26.996094 18.167969 25.5625 16.359375 23.535156 15.882812 C 23.101562 13.484375 21.175781 11.640625 18.765625 11.308594 C 18.742188 11.304688 18.714844 11.300781 18.691406 11.296875 C 18.578125 11.285156 18.464844 11.273438 18.347656 11.265625 C 18.234375 11.257812 18.117188 11.253906 18 11.25 Z M 17.988281 13.503906 C 18.046875 13.503906 18.105469 13.503906 18.164062 13.507812 C 18.179688 13.511719 18.199219 13.511719 18.21875 13.511719 C 18.285156 13.515625 18.351562 13.523438 18.421875 13.53125 C 18.433594 13.535156 18.445312 13.535156 18.460938 13.539062 C 19.914062 13.738281 21.058594 14.835938 21.320312 16.28125 C 21.480469 17.164062 22.144531 17.867188 23.019531 18.074219 C 24.042969 18.3125 24.742188 19.203125 24.746094 20.253906 C 24.746094 21.519531 23.769531 22.5 22.5 22.5 L 12.75 22.5 C 11.894531 22.5 11.25 21.855469 11.25 21 C 11.25 20.996094 11.25 20.992188 11.25 20.992188 C 11.25 20.9375 11.25 20.882812 11.25 20.832031 C 11.25 20.824219 11.25 20.820312 11.25 20.8125 C 11.25 19.957031 11.851562 19.265625 12.699219 19.144531 C 13.820312 18.980469 14.644531 18.011719 14.625 16.878906 C 14.625 15.136719 15.90625 13.710938 17.640625 13.523438 C 17.65625 13.523438 17.671875 13.519531 17.691406 13.519531 C 17.699219 13.515625 17.707031 13.515625 17.714844 13.515625 C 17.808594 13.507812 17.898438 13.503906 17.988281 13.503906 Z M 17.988281 13.503906 "/>
</g>
</svg>
