<?xml version="1.0" encoding="UTF-8"?>
<svg xmlns="http://www.w3.org/2000/svg" xmlns:xlink="http://www.w3.org/1999/xlink" width="36pt" height="36pt" viewBox="0 0 36 36" version="1.1">
<g id="surface1">
<path style=" stroke:none;fill-rule:evenodd;fill:rgb(35.294118%,25.098039%,50.196078%);fill-opacity:1;" d="M 8.40625 2.136719 L 27.59375 2.136719 C 31.054688 2.136719 33.863281 4.945312 33.863281 8.40625 L 33.863281 27.59375 C 33.863281 31.054688 31.054688 33.863281 27.59375 33.863281 L 8.40625 33.863281 C 4.945312 33.863281 2.136719 31.054688 2.136719 27.59375 L 2.136719 8.40625 C 2.136719 4.945312 4.945312 2.136719 8.40625 2.136719 Z M 8.40625 2.136719 "/>
<path style=" stroke:none;fill-rule:evenodd;fill:rgb(47.843137%,73.72549%,79.607843%);fill-opacity:1;" d="M 20.132812 33.863281 C 20.320312 33.054688 20.53125 32.3125 20.605469 31.25 C 20.714844 29.652344 20.699219 28.082031 20.558594 27.480469 C 20.371094 26.742188 19.886719 25.414062 19.917969 25.363281 C 19.949219 25.3125 20.742188 25.390625 21.417969 25.390625 C 22.210938 25.390625 22.796875 25.421875 23.214844 25.292969 C 23.574219 25.183594 24 25.007812 24.25 25.023438 C 24.8125 25.050781 25.449219 24.9375 25.992188 24.691406 C 26.535156 24.445312 26.984375 24.066406 27.171875 23.566406 C 27.289062 23.257812 27.78125 22.855469 27.910156 22.679688 C 28.121094 22.386719 28.230469 22.144531 28.097656 21.6875 C 27.90625 21.039062 27.121094 20.660156 26.292969 19.902344 C 25.664062 19.328125 25.351562 19.269531 25.320312 18.65625 C 25.296875 18.203125 25.417969 17.890625 25.171875 17.660156 C 24.894531 17.398438 24.195312 17.566406 24.148438 17.5625 C 24.003906 17.390625 23.863281 17.21875 23.824219 17.027344 C 23.785156 16.835938 23.847656 16.625 24.113281 16.378906 C 24.519531 16.011719 24.757812 15.84375 24.757812 15.441406 C 24.757812 15.042969 24.519531 14.925781 24.167969 14.617188 C 23.9375 14.414062 23.691406 14.25 23.617188 14.25 C 23.542969 14.25 23.167969 13.953125 22.789062 13.589844 C 22.417969 13.238281 22.105469 13.089844 21.808594 13.027344 C 21.515625 12.960938 21.242188 12.988281 20.957031 12.988281 C 20.722656 12.988281 20.550781 12.875 20.433594 12.679688 C 20.316406 12.480469 20.257812 12.199219 20.257812 11.863281 C 20.566406 10.742188 21.175781 9.746094 21.828125 8.96875 C 22.476562 8.1875 23.167969 7.621094 23.632812 7.363281 C 22.457031 7.195312 21.441406 7.402344 20.523438 7.832031 C 19.605469 8.257812 18.785156 8.90625 18.007812 9.613281 C 17.933594 8.789062 19.042969 6.773438 19.132812 6.242188 C 18.300781 6.675781 17.644531 7.429688 17.101562 8.257812 C 16.5625 9.089844 16.136719 9.996094 15.757812 10.738281 C 15.28125 10.089844 15.382812 8.730469 15.195312 7.925781 C 14.460938 8.894531 13.929688 10.214844 13.507812 11.535156 C 13.089844 12.851562 12.777344 14.171875 12.480469 15.140625 C 12.058594 16.519531 11.582031 17.632812 11.019531 18.523438 C 10.457031 19.417969 9.804688 20.085938 9.042969 20.578125 C 8.132812 21.164062 7.320312 21.464844 5.5625 21.863281 C 5.289062 21.945312 3.539062 22.554688 2.136719 23.046875 L 2.136719 27.59375 C 2.136719 31.066406 4.933594 33.863281 8.410156 33.863281 Z M 20.132812 33.863281 "/>
<path style=" stroke:none;fill-rule:evenodd;fill:rgb(35.294118%,25.098039%,50.196078%);fill-opacity:1;" d="M 8.410156 2.136719 C 4.933594 2.136719 2.136719 4.933594 2.136719 8.410156 L 2.136719 23.046875 C 3.539062 22.554688 5.289062 21.945312 5.5625 21.863281 C 7.320312 21.464844 8.132812 21.164062 9.042969 20.578125 C 9.804688 20.085938 10.457031 19.417969 11.019531 18.523438 C 11.582031 17.632812 12.058594 16.519531 12.480469 15.140625 C 12.777344 14.171875 13.089844 12.851562 13.507812 11.535156 C 13.929688 10.214844 14.460938 8.894531 15.195312 7.925781 C 15.382812 8.730469 15.28125 10.089844 15.757812 10.738281 C 16.136719 9.996094 16.5625 9.089844 17.101562 8.257812 C 17.644531 7.429688 18.300781 6.675781 19.132812 6.242188 C 19.132812 6.242188 19.132812 6.238281 19.132812 6.238281 C 19.132812 6.238281 19.132812 6.242188 19.132812 6.242188 C 19.042969 6.773438 17.933594 8.789062 18.007812 9.613281 C 18.785156 8.90625 19.605469 8.257812 20.523438 7.832031 C 21.441406 7.402344 22.457031 7.195312 23.632812 7.363281 C 23.167969 7.621094 22.476562 8.1875 21.828125 8.96875 C 21.175781 9.746094 20.566406 10.742188 20.257812 11.863281 C 20.257812 12.199219 20.316406 12.480469 20.433594 12.679688 C 20.550781 12.875 20.722656 12.988281 20.957031 12.988281 C 21.242188 12.988281 21.515625 12.960938 21.808594 13.023438 C 22.105469 13.089844 22.417969 13.238281 22.789062 13.589844 C 23.167969 13.953125 23.542969 14.25 23.617188 14.25 C 23.691406 14.25 23.9375 14.414062 24.167969 14.617188 C 24.519531 14.925781 24.757812 15.042969 24.757812 15.441406 C 24.757812 15.84375 24.519531 16.011719 24.113281 16.378906 C 23.847656 16.625 23.785156 16.835938 23.824219 17.027344 C 23.863281 17.21875 24.003906 17.390625 24.148438 17.558594 C 24.195312 17.566406 24.894531 17.398438 25.171875 17.660156 C 25.417969 17.890625 25.296875 18.203125 25.320312 18.65625 C 25.351562 19.269531 25.664062 19.328125 26.292969 19.902344 C 27.121094 20.660156 27.90625 21.039062 28.097656 21.6875 C 28.230469 22.144531 28.121094 22.386719 27.910156 22.679688 C 27.78125 22.855469 27.289062 23.257812 27.171875 23.566406 C 26.984375 24.066406 26.535156 24.445312 25.992188 24.691406 C 25.449219 24.9375 24.8125 25.050781 24.25 25.023438 C 24 25.007812 23.574219 25.183594 23.214844 25.292969 C 22.796875 25.421875 22.210938 25.390625 21.417969 25.390625 C 20.742188 25.390625 19.949219 25.3125 19.917969 25.363281 C 19.886719 25.414062 20.371094 26.742188 20.558594 27.480469 C 20.699219 28.082031 20.714844 29.652344 20.605469 31.25 C 20.53125 32.3125 20.320312 33.054688 20.132812 33.863281 L 27.59375 33.863281 C 31.066406 33.863281 33.863281 31.066406 33.863281 27.59375 L 33.863281 8.410156 C 33.863281 4.933594 31.066406 2.136719 27.59375 2.136719 Z M 8.410156 2.136719 "/>
</g>
</svg>
