<?xml version="1.0" encoding="UTF-8"?>
<svg xmlns="http://www.w3.org/2000/svg" xmlns:xlink="http://www.w3.org/1999/xlink" width="36pt" height="36pt" viewBox="0 0 36 36" version="1.1">
<defs>
<clipPath id="clip1">
  <rect width="36" height="36"/>
</clipPath>
<g id="surface6" clip-path="url(#clip1)">
<path style=" stroke:none;fill-rule:evenodd;fill:rgb(11.764706%,38.431373%,69.803922%);fill-opacity:1;" d="M 25.988281 21.921875 C 25.988281 21.921875 26.421875 21.796875 26.855469 22.019531 C 27.007812 22.097656 27.269531 22.25 27.457031 22.453125 C 27.640625 22.652344 27.730469 22.851562 27.730469 22.851562 L 30.375 28.140625 L 24.75 28.140625 C 24.75 28.140625 23.492188 24.464844 22.316406 22.890625 C 22.082031 22.699219 21.886719 22.496094 21.65625 22.515625 L 20.25 22.515625 L 20.25 28.136719 L 15.75 28.136719 L 15.75 12.390625 L 24.277344 12.390625 C 25.199219 12.390625 29.113281 12.953125 29.25 16.890625 C 29.113281 20.828125 25.988281 21.953125 25.988281 21.953125 Z M 20.25 15.734375 L 20.25 19.109375 L 23.625 19.109375 C 23.625 19.109375 24.75 19.152344 24.75 17.421875 C 24.75 15.609375 23.625 15.738281 23.625 15.738281 Z M 20.25 15.734375 "/>
</g>
</defs>
<g id="surface1">
<path style=" stroke:none;fill-rule:evenodd;fill:rgb(80%,80%,80%);fill-opacity:1;" d="M 8.40625 2.136719 L 27.59375 2.136719 C 31.054688 2.136719 33.863281 4.945312 33.863281 8.40625 L 33.863281 27.59375 C 33.863281 31.054688 31.054688 33.863281 27.59375 33.863281 L 8.40625 33.863281 C 4.945312 33.863281 2.136719 31.054688 2.136719 27.59375 L 2.136719 8.40625 C 2.136719 4.945312 4.945312 2.136719 8.40625 2.136719 Z M 8.40625 2.136719 "/>
<path style=" stroke:none;fill-rule:nonzero;fill:rgb(50.196078%,50.196078%,50.196078%);fill-opacity:1;" d="M 18 7.859375 C 10.542969 7.859375 4.5 12.140625 4.5 17.421875 C 4.5 22.703125 10.542969 26.984375 18 26.984375 C 25.457031 26.984375 31.5 22.703125 31.5 17.421875 C 31.5 12.140625 25.457031 7.859375 18 7.859375 Z M 20.25 11.234375 C 25.84375 11.234375 30.375 14.007812 30.375 17.421875 C 30.375 20.839844 25.84375 23.609375 20.25 23.609375 C 14.65625 23.609375 10.125 20.839844 10.125 17.421875 C 10.125 14.007812 14.65625 11.234375 20.25 11.234375 Z M 20.25 11.234375 "/>
<use xlink:href="#surface6"/>
</g>
</svg>
