<?xml version="1.0" encoding="UTF-8"?>
<svg xmlns="http://www.w3.org/2000/svg" xmlns:xlink="http://www.w3.org/1999/xlink" width="36pt" height="36pt" viewBox="0 0 36 36" version="1.1">
<g id="surface1">
<path style=" stroke:none;fill-rule:evenodd;fill:rgb(30.980392%,30.980392%,30.980392%);fill-opacity:1;" d="M 8.40625 2.136719 L 27.59375 2.136719 C 31.054688 2.136719 33.863281 4.945312 33.863281 8.40625 L 33.863281 27.59375 C 33.863281 31.054688 31.054688 33.863281 27.59375 33.863281 L 8.40625 33.863281 C 4.945312 33.863281 2.136719 31.054688 2.136719 27.59375 L 2.136719 8.40625 C 2.136719 4.945312 4.945312 2.136719 8.40625 2.136719 Z M 8.40625 2.136719 "/>
<path style=" stroke:none;fill-rule:nonzero;fill:rgb(100%,72.941176%,25.098039%);fill-opacity:1;" d="M 10.6875 29.25 L 18.5625 29.25 L 18.5625 30.375 L 10.6875 30.375 Z M 10.6875 29.25 "/>
<path style=" stroke:none;fill-rule:nonzero;fill:rgb(100%,72.941176%,25.098039%);fill-opacity:1;" d="M 25.3125 6.1875 L 25.3125 12.488281 L 24.1875 12.488281 L 24.1875 6.1875 Z M 25.3125 6.1875 "/>
<path style="fill:none;stroke-width:1;stroke-linecap:butt;stroke-linejoin:miter;stroke:rgb(100%,72.941176%,25.098039%);stroke-opacity:1;stroke-miterlimit:4;" d="M 10.5 26.5 L 10.5 18.100694 C 10.5 12.5 14.972222 5.5 23 5.5 " transform="matrix(1.125,0,0,1.125,-0.5625,0)"/>
<path style="fill:none;stroke-width:1;stroke-linecap:butt;stroke-linejoin:miter;stroke:rgb(100%,72.941176%,25.098039%);stroke-opacity:1;stroke-miterlimit:4;" d="M 13.5 26.5 L 13.5 18.100694 C 13.5 12.194444 18.100694 8.298611 23 8.298611 " transform="matrix(1.125,0,0,1.125,-0.5625,0)"/>
<path style="fill:none;stroke-width:1;stroke-linecap:butt;stroke-linejoin:miter;stroke:rgb(100%,72.941176%,25.098039%);stroke-opacity:1;stroke-miterlimit:4;" d="M 16.5 26.5 L 16.5 18.100694 C 16.5 15.298611 18.100694 11.100694 23 11.100694 " transform="matrix(1.125,0,0,1.125,-0.5625,0)"/>
</g>
</svg>
