<?xml version="1.0" encoding="UTF-8"?>
<svg xmlns="http://www.w3.org/2000/svg" xmlns:xlink="http://www.w3.org/1999/xlink" width="36pt" height="36pt" viewBox="0 0 36 36" version="1.1">
<g id="surface1">
<path style=" stroke:none;fill-rule:evenodd;fill:rgb(99.607843%,63.529412%,21.960784%);fill-opacity:1;" d="M 8.40625 2.136719 L 27.59375 2.136719 C 31.054688 2.136719 33.863281 4.945312 33.863281 8.40625 L 33.863281 27.59375 C 33.863281 31.054688 31.054688 33.863281 27.59375 33.863281 L 8.40625 33.863281 C 4.945312 33.863281 2.136719 31.054688 2.136719 27.59375 L 2.136719 8.40625 C 2.136719 4.945312 4.945312 2.136719 8.40625 2.136719 Z M 8.40625 2.136719 "/>
<path style=" stroke:none;fill-rule:nonzero;fill:rgb(100%,100%,100%);fill-opacity:1;" d="M 11.734375 24.636719 C 10.714844 24.257812 10.132812 23.230469 10.394531 22.265625 C 10.539062 21.726562 10.917969 21.285156 11.507812 20.976562 C 11.898438 20.773438 12 20.679688 11.957031 20.566406 C 11.550781 19.46875 11.8125 18.195312 12.605469 17.367188 C 13.671875 16.257812 15.375 16.191406 16.496094 17.214844 C 16.65625 17.359375 16.820312 17.476562 16.863281 17.476562 C 16.90625 17.476562 17.007812 17.265625 17.085938 17.003906 C 17.382812 16.027344 17.933594 15.25 18.714844 14.710938 C 20.886719 13.210938 23.707031 13.996094 24.839844 16.417969 C 25.167969 17.121094 25.191406 17.230469 25.222656 18.058594 C 25.246094 18.710938 25.21875 19.078125 25.117188 19.449219 C 25.039062 19.726562 24.996094 19.976562 25.027344 20.007812 C 25.054688 20.035156 25.207031 19.910156 25.367188 19.730469 C 25.675781 19.382812 25.699219 19.378906 26.417969 19.605469 C 27.113281 19.820312 27.78125 20.523438 28.023438 21.292969 C 28.1875 21.816406 28.148438 22.65625 27.9375 23.152344 C 27.726562 23.652344 27.183594 24.257812 26.714844 24.523438 C 26.390625 24.707031 26.253906 24.714844 23.804688 24.742188 C 22.175781 24.761719 21.121094 24.738281 20.933594 24.679688 C 20.160156 24.441406 19.566406 23.550781 19.566406 22.621094 C 19.566406 21.507812 20.421875 20.546875 21.414062 20.546875 L 21.730469 20.546875 L 21.417969 20.84375 C 20.929688 21.308594 20.808594 21.863281 21.066406 22.429688 C 21.21875 22.765625 21.738281 23.09375 22.109375 23.09375 C 22.488281 23.09375 23.023438 22.78125 23.21875 22.453125 C 23.4375 22.074219 23.433594 21.316406 23.210938 20.691406 C 22.96875 20.019531 22.472656 19.472656 21.796875 19.125 C 21.300781 18.871094 21.15625 18.839844 20.558594 18.839844 C 19.378906 18.84375 19.269531 18.925781 16.390625 21.898438 C 14.203125 24.152344 13.84375 24.488281 13.480469 24.613281 C 12.988281 24.785156 12.160156 24.796875 11.734375 24.636719 Z M 8.074219 17.527344 C 7.820312 17.261719 7.8125 17.046875 8.039062 16.746094 C 8.175781 16.566406 8.289062 16.511719 8.542969 16.511719 C 8.855469 16.511719 8.871094 16.496094 8.925781 16.183594 C 9.019531 15.628906 9.390625 15.015625 9.789062 14.75 C 10.292969 14.417969 10.878906 14.28125 11.289062 14.398438 C 11.46875 14.449219 11.640625 14.460938 11.675781 14.425781 C 11.714844 14.386719 11.78125 14.140625 11.828125 13.878906 C 12.011719 12.875 12.652344 11.976562 13.523438 11.503906 C 14.042969 11.226562 15.289062 11.160156 15.859375 11.386719 C 16.792969 11.75 17.433594 12.453125 17.730469 13.429688 C 17.824219 13.738281 17.902344 14.039062 17.902344 14.101562 C 17.902344 14.167969 17.726562 14.429688 17.511719 14.6875 C 17.300781 14.941406 17.011719 15.363281 16.867188 15.621094 C 16.683594 15.957031 16.574219 16.074219 16.476562 16.042969 C 16.402344 16.015625 16.113281 15.910156 15.835938 15.808594 C 15.078125 15.527344 14.015625 15.585938 13.257812 15.957031 C 12.609375 16.269531 12.171875 16.648438 11.808594 17.207031 C 11.664062 17.429688 11.503906 17.640625 11.453125 17.675781 C 11.40625 17.710938 10.671875 17.738281 9.820312 17.738281 C 8.296875 17.742188 8.277344 17.738281 8.070312 17.527344 Z M 8.074219 17.527344 "/>
</g>
</svg>
