<?xml version="1.0" encoding="UTF-8"?>
<svg xmlns="http://www.w3.org/2000/svg" xmlns:xlink="http://www.w3.org/1999/xlink" width="36pt" height="36pt" viewBox="0 0 36 36" version="1.1">
<g id="surface1">
<path style=" stroke:none;fill-rule:evenodd;fill:rgb(25.490196%,64.705882%,78.039216%);fill-opacity:1;" d="M 8.40625 2.136719 L 27.59375 2.136719 C 31.054688 2.136719 33.863281 4.945312 33.863281 8.40625 L 33.863281 27.59375 C 33.863281 31.054688 31.054688 33.863281 27.59375 33.863281 L 8.40625 33.863281 C 4.945312 33.863281 2.136719 31.054688 2.136719 27.59375 L 2.136719 8.40625 C 2.136719 4.945312 4.945312 2.136719 8.40625 2.136719 Z M 8.40625 2.136719 "/>
<path style=" stroke:none;fill-rule:nonzero;fill:rgb(100%,100%,100%);fill-opacity:1;" d="M 9 22.5 L 18 22.5 L 18 31.5 Z M 9 22.5 "/>
<path style=" stroke:none;fill-rule:nonzero;fill:rgb(69.019608%,100%,100%);fill-opacity:1;" d="M 9 13.5 L 18 13.5 L 18 22.5 Z M 9 13.5 "/>
<path style=" stroke:none;fill-rule:nonzero;fill:rgb(100%,100%,100%);fill-opacity:1;" d="M 18 4.5 L 18 13.5 L 9 13.5 Z M 18 4.5 "/>
<path style=" stroke:none;fill-rule:nonzero;fill:rgb(69.019608%,100%,100%);fill-opacity:1;" d="M 18 4.5 L 18 13.5 L 27 13.5 Z M 18 4.5 "/>
</g>
</svg>
