<?xml version="1.0" encoding="UTF-8"?>
<svg xmlns="http://www.w3.org/2000/svg" xmlns:xlink="http://www.w3.org/1999/xlink" width="36pt" height="36pt" viewBox="0 0 36 36" version="1.1">
<g id="surface1">
<path style=" stroke:none;fill-rule:evenodd;fill:rgb(0.784314%,58.039216%,60%);fill-opacity:1;" d="M 8.40625 2.136719 L 27.59375 2.136719 C 31.054688 2.136719 33.863281 4.945312 33.863281 8.40625 L 33.863281 27.59375 C 33.863281 31.054688 31.054688 33.863281 27.59375 33.863281 L 8.40625 33.863281 C 4.945312 33.863281 2.136719 31.054688 2.136719 27.59375 L 2.136719 8.40625 C 2.136719 4.945312 4.945312 2.136719 8.40625 2.136719 Z M 8.40625 2.136719 "/>
<path style=" stroke:none;fill-rule:nonzero;fill:rgb(100%,100%,100%);fill-opacity:1;" d="M 13.835938 7.414062 L 10.914062 9.101562 L 13.070312 12.839844 C 12.171875 13.804688 11.574219 15.011719 11.351562 16.3125 L 6.75 16.3125 L 6.75 19.6875 L 11.644531 19.6875 C 12.019531 20.746094 12.652344 21.691406 13.484375 22.445312 L 10.914062 26.898438 L 13.835938 28.585938 L 16.480469 24.007812 C 16.976562 24.125 17.488281 24.183594 18 24.1875 C 18.511719 24.183594 19.019531 24.125 19.519531 24.003906 L 22.164062 28.585938 L 25.085938 26.898438 L 22.515625 22.445312 C 23.347656 21.691406 23.980469 20.746094 24.355469 19.6875 L 29.25 19.6875 L 29.25 16.3125 L 24.652344 16.3125 C 24.433594 15.007812 23.832031 13.800781 22.929688 12.835938 L 25.085938 9.101562 L 22.164062 7.414062 L 20.082031 11.019531 C 19.410156 10.800781 18.707031 10.6875 18 10.6875 C 17.292969 10.691406 16.59375 10.804688 15.921875 11.023438 Z M 18 12.9375 C 20.484375 12.9375 22.5 14.953125 22.5 17.4375 C 22.5 19.921875 20.484375 21.9375 18 21.9375 C 15.515625 21.9375 13.5 19.921875 13.5 17.4375 C 13.5 14.953125 15.515625 12.9375 18 12.9375 Z M 18 12.9375 "/>
</g>
</svg>
