<?xml version="1.0" encoding="UTF-8"?>
<svg xmlns="http://www.w3.org/2000/svg" xmlns:xlink="http://www.w3.org/1999/xlink" width="36pt" height="36pt" viewBox="0 0 36 36" version="1.1">
<g id="surface1">
<path style=" stroke:none;fill-rule:evenodd;fill:rgb(46.666667%,40.392157%,75.294118%);fill-opacity:1;" d="M 8.40625 2.136719 L 27.59375 2.136719 C 31.054688 2.136719 33.863281 4.945312 33.863281 8.40625 L 33.863281 27.59375 C 33.863281 31.054688 31.054688 33.863281 27.59375 33.863281 L 8.40625 33.863281 C 4.945312 33.863281 2.136719 31.054688 2.136719 27.59375 L 2.136719 8.40625 C 2.136719 4.945312 4.945312 2.136719 8.40625 2.136719 Z M 8.40625 2.136719 "/>
<path style=" stroke:none;fill-rule:nonzero;fill:rgb(100%,100%,100%);fill-opacity:1;" d="M 21.066406 5.191406 L 19.390625 7.730469 C 19.074219 7.683594 18.757812 7.660156 18.441406 7.65625 C 17.480469 7.65625 16.527344 7.847656 15.636719 8.21875 L 13.367188 6.203125 L 13.976562 9.1875 C 13.359375 9.667969 12.824219 10.242188 12.386719 10.894531 C 9.644531 9.875 6.742188 9.351562 3.816406 9.34375 C 3.253906 9.355469 2.691406 9.382812 2.128906 9.429688 L 2.128906 10.597656 C 2.875 10.519531 3.625 10.476562 4.378906 10.46875 C 17.292969 10.480469 27.921875 20.632812 28.519531 33.53125 L 28.535156 33.53125 C 28.421875 28.582031 26.824219 23.78125 23.953125 19.746094 C 24.460938 19.167969 24.871094 18.511719 25.175781 17.800781 L 28.242188 17.617188 L 25.679688 15.925781 C 25.726562 15.609375 25.75 15.289062 25.753906 14.96875 C 25.75 14.019531 25.566406 13.078125 25.203125 12.199219 L 27.226562 9.917969 L 24.238281 10.53125 C 23.460938 9.511719 22.429688 8.71875 21.25 8.222656 Z M 18.441406 8.78125 C 21.859375 8.78125 24.628906 11.554688 24.628906 14.96875 C 24.625 16.382812 24.136719 17.75 23.25 18.847656 C 20.667969 15.554688 17.292969 12.972656 13.441406 11.335938 C 14.605469 9.734375 16.460938 8.785156 18.441406 8.78125 Z M 18.441406 8.78125 "/>
</g>
</svg>
