<?xml version="1.0" encoding="UTF-8"?>
<svg xmlns="http://www.w3.org/2000/svg" xmlns:xlink="http://www.w3.org/1999/xlink" width="36pt" height="36pt" viewBox="0 0 36 36" version="1.1">
<g id="surface1">
<path style=" stroke:none;fill-rule:evenodd;fill:rgb(9.803922%,38.431373%,37.647059%);fill-opacity:1;" d="M 8.40625 2.136719 L 27.59375 2.136719 C 31.054688 2.136719 33.863281 4.945312 33.863281 8.40625 L 33.863281 27.59375 C 33.863281 31.054688 31.054688 33.863281 27.59375 33.863281 L 8.40625 33.863281 C 4.945312 33.863281 2.136719 31.054688 2.136719 27.59375 L 2.136719 8.40625 C 2.136719 4.945312 4.945312 2.136719 8.40625 2.136719 Z M 8.40625 2.136719 "/>
<path style=" stroke:none;fill-rule:evenodd;fill:rgb(9.803922%,38.431373%,37.647059%);fill-opacity:1;" d="M 17.925781 2.136719 L 15.722656 4.894531 L 18 7.742188 L 18 18 L 28.257812 18 L 31.105469 15.722656 L 33.863281 17.925781 L 33.863281 8.40625 C 33.863281 4.933594 31.066406 2.136719 27.589844 2.136719 Z M 17.925781 2.136719 "/>
<path style=" stroke:none;fill-rule:evenodd;fill:rgb(36.470588%,49.019608%,74.117647%);fill-opacity:1;" d="M 2.136719 18.074219 L 4.894531 20.277344 L 7.742188 18 L 18 18 L 18 7.742188 L 15.722656 4.894531 L 17.925781 2.136719 L 8.40625 2.136719 C 4.933594 2.136719 2.136719 4.933594 2.136719 8.410156 Z M 2.136719 18.074219 "/>
<path style=" stroke:none;fill-rule:evenodd;fill:rgb(24.705882%,58.823529%,72.54902%);fill-opacity:1;" d="M 33.863281 17.925781 L 31.105469 15.722656 L 28.257812 18 L 18 18 L 18 28.257812 L 20.277344 31.105469 L 18.074219 33.863281 L 27.59375 33.863281 C 31.066406 33.863281 33.863281 31.066406 33.863281 27.589844 Z M 33.863281 17.925781 "/>
<path style=" stroke:none;fill-rule:evenodd;fill:rgb(59.215686%,76.470588%,23.921569%);fill-opacity:1;" d="M 18.074219 33.863281 L 20.277344 31.105469 L 18 28.257812 L 18 18 L 7.742188 18 L 4.894531 20.277344 L 2.136719 18.074219 L 2.136719 27.59375 C 2.136719 31.066406 4.933594 33.863281 8.410156 33.863281 Z M 18.074219 33.863281 "/>
<path style=" stroke:none;fill-rule:nonzero;fill:rgb(97.647059%,97.647059%,97.647059%);fill-opacity:1;" d="M 28.125 18 C 28.125 23.59375 23.59375 28.125 18 28.125 C 12.40625 28.125 7.875 23.59375 7.875 18 C 7.875 12.40625 12.40625 7.875 18 7.875 C 23.59375 7.875 28.125 12.40625 28.125 18 Z M 28.125 18 "/>
</g>
</svg>
