<?xml version="1.0" encoding="UTF-8"?>
<svg xmlns="http://www.w3.org/2000/svg" xmlns:xlink="http://www.w3.org/1999/xlink" width="36pt" height="36pt" viewBox="0 0 36 36" version="1.1">
<g id="surface1">
<path style=" stroke:none;fill-rule:evenodd;fill:rgb(55.686275%,55.686275%,55.686275%);fill-opacity:1;" d="M 8.40625 2.136719 L 27.59375 2.136719 C 31.054688 2.136719 33.863281 4.945312 33.863281 8.40625 L 33.863281 27.59375 C 33.863281 31.054688 31.054688 33.863281 27.59375 33.863281 L 8.40625 33.863281 C 4.945312 33.863281 2.136719 31.054688 2.136719 27.59375 L 2.136719 8.40625 C 2.136719 4.945312 4.945312 2.136719 8.40625 2.136719 Z M 8.40625 2.136719 "/>
<path style=" stroke:none;fill-rule:nonzero;fill:rgb(25.882353%,81.176471%,34.117647%);fill-opacity:1;" d="M 23.5 27.902344 L 23.5 24.601562 C 23.5 23.992188 23.007812 23.5 22.398438 23.5 L 8.097656 23.5 C 7.492188 23.5 7 23.992188 7 24.601562 L 7 27.902344 C 7 28.507812 7.492188 29 8.097656 29 L 22.398438 29 C 23.007812 29 23.5 28.507812 23.5 27.902344 Z M 23.5 27.902344 "/>
<path style=" stroke:none;fill-rule:nonzero;fill:rgb(18.039216%,62.745098%,89.019608%);fill-opacity:1;" d="M 29 22.398438 L 29 19.101562 C 29 18.492188 28.507812 18 27.902344 18 L 13.601562 18 C 12.992188 18 12.5 18.492188 12.5 19.101562 L 12.5 22.398438 C 12.5 23.007812 12.992188 23.5 13.601562 23.5 L 27.902344 23.5 C 28.507812 23.5 29 23.007812 29 22.398438 Z M 29 22.398438 "/>
<path style=" stroke:none;fill-rule:nonzero;fill:rgb(90.196078%,34.901961%,34.117647%);fill-opacity:1;" d="M 23.5 16.898438 L 23.5 13.601562 C 23.5 12.992188 23.007812 12.5 22.398438 12.5 L 8.097656 12.5 C 7.492188 12.5 7 12.992188 7 13.601562 L 7 16.898438 C 7 17.507812 7.492188 18 8.097656 18 L 22.398438 18 C 23.007812 18 23.5 17.507812 23.5 16.898438 Z M 23.5 16.898438 "/>
<path style=" stroke:none;fill-rule:nonzero;fill:rgb(100%,90.588235%,40%);fill-opacity:1;" d="M 29 11.398438 L 29 8.097656 C 29 7.492188 28.507812 7 27.902344 7 L 13.601562 7 C 12.992188 7 12.5 7.492188 12.5 8.097656 L 12.5 11.398438 C 12.5 12.007812 12.992188 12.5 13.601562 12.5 L 27.902344 12.5 C 28.507812 12.5 29 12.007812 29 11.398438 Z M 29 11.398438 "/>
</g>
</svg>
