<?xml version="1.0" encoding="UTF-8"?>
<svg xmlns="http://www.w3.org/2000/svg" xmlns:xlink="http://www.w3.org/1999/xlink" width="36pt" height="36pt" viewBox="0 0 36 36" version="1.1">
<g id="surface1">
<path style=" stroke:none;fill-rule:evenodd;fill:rgb(100%,49.803922%,16.470588%);fill-opacity:1;" d="M 15.886719 2.132812 L 8.078125 2.132812 C 6.410156 2.132812 4.921875 2.808594 3.796875 3.863281 C 3.84375 3.941406 3.9375 4.132812 4.074219 4.464844 C 4.238281 4.859375 4.542969 5.585938 4.746094 6.082031 C 5.261719 7.316406 5.324219 7.625 5.320312 8.976562 C 5.316406 10.105469 5.296875 10.257812 4.867188 12.992188 C 4.78125 13.542969 4.710938 14.21875 4.707031 14.589844 C 4.699219 15.175781 4.714844 15.265625 4.84375 15.519531 C 4.929688 15.691406 5.058594 15.839844 5.179688 15.90625 C 5.371094 16.011719 5.371094 16.011719 5.835938 15.867188 C 6.097656 15.785156 6.605469 15.644531 6.96875 15.554688 C 7.332031 15.460938 7.828125 15.320312 8.066406 15.242188 C 8.515625 15.097656 9.726562 14.597656 9.726562 14.554688 C 9.726562 14.542969 9.664062 14.414062 9.589844 14.269531 C 9.367188 13.839844 9.242188 13.320312 9.21875 12.765625 C 9.195312 12.210938 9.273438 11.621094 9.453125 11.050781 C 9.566406 10.695312 9.628906 10.605469 9.769531 10.601562 C 9.914062 10.601562 9.953125 10.800781 9.871094 11.113281 C 9.761719 11.503906 9.761719 11.910156 9.871094 12.425781 C 10.066406 13.347656 10.308594 13.804688 10.71875 14.035156 C 10.929688 14.152344 11.039062 14.167969 11.480469 14.167969 C 12.191406 14.167969 12.160156 14.1875 13.789062 12.863281 C 14.355469 12.402344 14.988281 12.035156 15.765625 11.722656 C 16.546875 11.414062 17.46875 11.164062 18.609375 10.945312 C 20.542969 10.570312 21.890625 10.488281 23.726562 10.628906 C 24.738281 10.707031 25.429688 10.722656 26.035156 10.640625 C 26.640625 10.558594 27.152344 10.382812 27.800781 10.085938 C 28.660156 9.6875 29.011719 9.632812 29.3125 9.847656 C 29.695312 10.128906 29.804688 10.640625 29.570312 11.089844 C 29.238281 11.726562 28.457031 12.394531 26.828125 13.441406 C 25.617188 14.21875 25.292969 14.457031 24.5 15.152344 C 24.234375 15.386719 23.789062 15.761719 23.515625 15.980469 C 22.960938 16.433594 22.511719 16.953125 21.859375 17.90625 C 21.296875 18.726562 20.945312 19.101562 20.285156 19.585938 C 19.382812 20.246094 18.636719 20.5625 17.722656 20.667969 C 17.035156 20.746094 15.539062 20.695312 14.957031 20.574219 C 13.894531 20.351562 12.734375 19.875 10.90625 18.914062 C 9.90625 18.390625 9.007812 18.183594 6.867188 17.984375 C 5.890625 17.894531 5.800781 17.890625 5.617188 17.980469 C 5.34375 18.105469 5.359375 18.242188 5.6875 18.585938 C 6.027344 18.941406 6.902344 19.375 7.601562 19.535156 C 8.394531 19.71875 8.949219 19.894531 9.546875 20.210938 C 10.144531 20.527344 10.78125 20.980469 11.738281 21.726562 C 12.804688 22.554688 13.308594 22.898438 13.757812 23.101562 C 14.164062 23.28125 14.691406 23.410156 15.015625 23.410156 C 15.160156 23.410156 15.605469 23.449219 16.011719 23.496094 C 17.144531 23.625 18.125 23.847656 18.777344 24.097656 C 19.429688 24.34375 19.75 24.617188 19.554688 24.84375 C 19.460938 24.957031 19.347656 24.953125 18.375 24.789062 C 17.914062 24.710938 17.398438 24.648438 17.230469 24.648438 C 17.058594 24.648438 16.445312 24.738281 15.867188 24.847656 C 14.628906 25.085938 13.414062 25.152344 12.800781 25.015625 C 12.292969 24.902344 11.8125 24.648438 11.238281 24.183594 C 9.929688 23.117188 8.945312 22.464844 6.917969 21.320312 C 5.332031 20.421875 4.824219 20.105469 4.265625 19.664062 C 3.464844 19.027344 2.953125 18.28125 2.71875 17.367188 C 2.484375 16.449219 2.527344 15.367188 2.828125 14.058594 C 2.921875 13.65625 3.140625 12.796875 3.316406 12.148438 C 3.6875 10.757812 3.808594 10.050781 3.804688 9.21875 C 3.800781 8.078125 3.570312 7.242188 2.878906 5.894531 L 2.648438 5.445312 C 2.160156 6.339844 1.808594 7.3125 1.808594 8.40625 L 1.808594 27.59375 C 1.808594 31.066406 4.605469 33.867188 8.078125 33.867188 L 15.949219 33.867188 C 14.832031 33.695312 13.722656 33.558594 12.480469 33.117188 C 10.714844 32.488281 8.90625 31.613281 7.285156 30.574219 C 6.316406 29.957031 5.242188 29.015625 5.023438 28.59375 C 4.898438 28.359375 4.878906 28.121094 4.9375 27.921875 C 5 27.722656 5.148438 27.566406 5.363281 27.503906 C 5.835938 27.367188 6.449219 27.621094 7.917969 28.5625 C 8.882812 29.183594 10.300781 29.902344 11.363281 30.316406 C 13.203125 31.03125 14.917969 31.46875 16.554688 31.628906 C 18.1875 31.792969 19.738281 31.683594 21.25 31.304688 C 22.949219 30.878906 26.027344 29.796875 27.269531 29.191406 C 28.296875 28.691406 29.226562 28.101562 30.082031 27.398438 C 30.9375 26.695312 31.71875 25.878906 32.453125 24.929688 C 32.820312 24.457031 33.1875 24.144531 33.535156 23.847656 L 33.535156 8.40625 C 33.535156 4.933594 30.742188 2.132812 27.265625 2.132812 L 17.742188 2.132812 C 17.570312 2.597656 17.472656 2.964844 17.144531 3.632812 C 16.835938 4.269531 16.472656 5.042969 16.339844 5.351562 C 15.910156 6.347656 15.835938 6.488281 15.441406 7.074219 C 15.089844 7.59375 14.734375 7.992188 14.421875 8.238281 C 14.109375 8.480469 13.835938 8.566406 13.648438 8.460938 C 13.566406 8.417969 13.433594 8.292969 13.359375 8.1875 C 13.242188 8.019531 13.226562 7.941406 13.25 7.652344 C 13.28125 7.242188 13.480469 6.800781 14 5.984375 C 14.414062 5.332031 15.230469 3.769531 15.695312 2.738281 C 15.796875 2.515625 15.816406 2.34375 15.886719 2.132812 Z M 9.78125 2.515625 L 10.234375 2.515625 L 10.441406 3.371094 C 10.761719 4.707031 10.820312 5.109375 10.726562 5.347656 C 10.660156 5.515625 10.429688 5.449219 10.25 5.207031 C 10.15625 5.082031 10 4.761719 9.902344 4.492188 C 9.734375 4.046875 9.324219 2.671875 9.324219 2.558594 C 9.324219 2.53125 9.53125 2.515625 9.78125 2.515625 Z M 26.191406 4.386719 C 26.542969 4.375 26.898438 4.375 27.261719 4.386719 C 28.292969 4.425781 29.566406 4.585938 30.25 4.765625 C 31.234375 5.023438 32.246094 5.546875 32.816406 6.085938 C 33.335938 6.578125 33.484375 7.003906 33.242188 7.296875 C 33.148438 7.410156 33.085938 7.429688 32.796875 7.421875 C 32.613281 7.421875 32.0625 7.324219 31.570312 7.214844 C 29.921875 6.839844 27.757812 6.582031 26.683594 6.632812 C 25.40625 6.695312 23.410156 7.097656 22.175781 7.542969 C 20.058594 8.300781 19.117188 8.492188 18.640625 8.257812 C 18.210938 8.046875 18.046875 7.511719 18.300781 7.148438 C 18.449219 6.933594 18.902344 6.597656 19.328125 6.386719 C 19.769531 6.167969 22.578125 5.089844 23.246094 4.882812 C 24.167969 4.59375 25.148438 4.429688 26.191406 4.386719 Z M 26.191406 4.386719 "/>
<path style=" stroke:none;fill-rule:nonzero;fill:rgb(100%,100%,100%);fill-opacity:1;" d="M 3.933594 10.992188 C 7.351562 7.746094 13.203125 9.429688 14.71875 9.394531 C 16.230469 9.359375 24.546875 4.207031 34.191406 7.140625 L 34.070312 12.265625 C 26.300781 12.261719 28.347656 25.933594 18.652344 24.523438 L 12.585938 23.988281 L 3.933594 18.414062 Z M 3.933594 10.992188 "/>
<path style=" stroke:none;fill-rule:evenodd;fill:rgb(0%,0%,0%);fill-opacity:1;" d="M 16.828125 15.042969 C 16.214844 15.042969 15.8125 15.433594 15.695312 15.894531 C 15.640625 16.125 15.65625 16.375 15.753906 16.597656 C 15.851562 16.820312 16.03125 17.019531 16.304688 17.152344 C 16.804688 17.394531 17.332031 17.289062 17.703125 16.878906 C 17.980469 16.570312 18.066406 16.1875 17.941406 15.820312 C 17.769531 15.324219 17.363281 15.042969 16.828125 15.042969 Z M 16.828125 15.042969 "/>
<path style=" stroke:none;fill-rule:evenodd;fill:rgb(55.294118%,87.058824%,50.588235%);fill-opacity:1;" d="M 18.492188 12.078125 C 18.40625 12.066406 18.316406 12.082031 18.148438 12.113281 C 17.605469 12.222656 16.488281 12.609375 15.972656 12.859375 C 15.414062 13.132812 14.8125 13.523438 14.324219 13.929688 C 14.125 14.09375 13.753906 14.398438 13.5 14.609375 C 13.242188 14.820312 12.886719 15.066406 12.707031 15.15625 L 12.382812 15.316406 L 12.339844 15.753906 C 12.289062 16.273438 12.347656 16.820312 12.5 17.339844 C 12.652344 17.859375 12.898438 18.359375 13.21875 18.773438 C 13.421875 19.03125 13.464844 19.058594 13.8125 19.128906 C 14.726562 19.3125 16.101562 19.339844 17.175781 19.195312 C 17.8125 19.109375 18.414062 18.816406 19.125 18.257812 C 19.886719 17.660156 20.742188 16.839844 21.078125 16.390625 C 21.34375 16.035156 21.347656 16.019531 21.3125 15.714844 C 21.222656 14.953125 20.945312 14.246094 20.519531 13.644531 C 20.089844 13.046875 19.507812 12.550781 18.808594 12.203125 C 18.660156 12.128906 18.578125 12.089844 18.492188 12.078125 Z M 16.828125 15.042969 C 17.363281 15.042969 17.769531 15.324219 17.941406 15.820312 C 18.066406 16.1875 17.980469 16.570312 17.703125 16.878906 C 17.332031 17.289062 16.804688 17.394531 16.304688 17.152344 C 16.03125 17.019531 15.851562 16.820312 15.753906 16.597656 C 15.65625 16.375 15.640625 16.125 15.695312 15.894531 C 15.8125 15.433594 16.214844 15.042969 16.828125 15.042969 Z M 16.828125 15.042969 "/>
<path style=" stroke:none;fill-rule:evenodd;fill:rgb(30.980392%,30.980392%,30.980392%);fill-opacity:1;" d="M 26.191406 4.386719 C 25.148438 4.429688 24.167969 4.59375 23.246094 4.882812 C 22.578125 5.089844 19.769531 6.167969 19.328125 6.386719 C 18.902344 6.597656 18.449219 6.933594 18.300781 7.148438 C 18.046875 7.511719 18.210938 8.046875 18.640625 8.257812 C 19.117188 8.492188 20.058594 8.300781 22.175781 7.542969 C 23.410156 7.097656 25.40625 6.695312 26.683594 6.632812 C 27.757812 6.582031 29.921875 6.839844 31.570312 7.214844 C 32.0625 7.324219 32.613281 7.421875 32.796875 7.421875 C 33.085938 7.429688 33.148438 7.410156 33.242188 7.296875 C 33.484375 7.003906 33.335938 6.578125 32.816406 6.085938 C 32.246094 5.546875 31.234375 5.023438 30.25 4.765625 C 29.566406 4.585938 28.292969 4.425781 27.261719 4.386719 C 26.898438 4.375 26.542969 4.375 26.191406 4.386719 Z M 26.191406 4.386719 "/>
<path style=" stroke:none;fill-rule:evenodd;fill:rgb(30.980392%,30.980392%,30.980392%);fill-opacity:1;" d="M 9.78125 2.515625 C 9.53125 2.515625 9.324219 2.53125 9.324219 2.558594 C 9.324219 2.671875 9.734375 4.046875 9.902344 4.492188 C 10 4.761719 10.15625 5.082031 10.25 5.207031 C 10.429688 5.449219 10.660156 5.515625 10.726562 5.347656 C 10.820312 5.109375 10.761719 4.707031 10.441406 3.371094 L 10.234375 2.515625 Z M 9.78125 2.515625 "/>
<path style=" stroke:none;fill-rule:evenodd;fill:rgb(30.980392%,30.980392%,30.980392%);fill-opacity:1;" d="M 2.648438 5.445312 L 2.878906 5.894531 C 3.570312 7.242188 3.800781 8.078125 3.804688 9.21875 C 3.808594 10.050781 3.6875 10.757812 3.316406 12.148438 C 3.140625 12.796875 2.921875 13.65625 2.828125 14.058594 C 2.527344 15.367188 2.484375 16.449219 2.71875 17.367188 C 2.953125 18.28125 3.464844 19.027344 4.265625 19.664062 C 4.824219 20.105469 5.332031 20.421875 6.917969 21.320312 C 8.945312 22.464844 9.929688 23.117188 11.238281 24.183594 C 11.8125 24.648438 12.292969 24.902344 12.796875 25.015625 C 13.410156 25.152344 14.628906 25.085938 15.867188 24.847656 C 16.445312 24.738281 17.058594 24.648438 17.226562 24.648438 C 17.398438 24.648438 17.914062 24.710938 18.375 24.789062 C 19.347656 24.953125 19.460938 24.957031 19.554688 24.84375 C 19.75 24.617188 19.429688 24.34375 18.777344 24.097656 C 18.125 23.847656 17.144531 23.625 16.011719 23.496094 C 15.605469 23.449219 15.160156 23.410156 15.015625 23.410156 C 14.691406 23.410156 14.164062 23.28125 13.757812 23.101562 C 13.308594 22.898438 12.804688 22.554688 11.738281 21.726562 C 10.78125 20.980469 10.144531 20.527344 9.546875 20.210938 C 8.949219 19.894531 8.394531 19.71875 7.601562 19.535156 C 6.902344 19.375 6.027344 18.941406 5.6875 18.585938 C 5.359375 18.242188 5.34375 18.105469 5.617188 17.980469 C 5.800781 17.890625 5.890625 17.894531 6.867188 17.984375 C 9.007812 18.183594 9.90625 18.390625 10.90625 18.914062 C 12.734375 19.875 13.894531 20.351562 14.957031 20.574219 C 15.539062 20.695312 17.035156 20.746094 17.722656 20.667969 C 18.636719 20.5625 19.382812 20.246094 20.285156 19.585938 C 20.945312 19.101562 21.296875 18.726562 21.859375 17.90625 C 22.511719 16.953125 22.960938 16.433594 23.515625 15.980469 C 23.789062 15.761719 24.234375 15.386719 24.5 15.152344 C 25.292969 14.457031 25.617188 14.21875 26.828125 13.441406 C 28.457031 12.394531 29.238281 11.726562 29.570312 11.089844 C 29.804688 10.640625 29.695312 10.128906 29.3125 9.847656 C 29.011719 9.632812 28.660156 9.6875 27.800781 10.085938 C 27.152344 10.382812 26.640625 10.558594 26.035156 10.640625 C 25.429688 10.722656 24.738281 10.707031 23.726562 10.628906 C 21.890625 10.488281 20.542969 10.570312 18.609375 10.945312 C 17.46875 11.164062 16.546875 11.414062 15.765625 11.722656 C 14.988281 12.035156 14.355469 12.402344 13.789062 12.863281 C 12.160156 14.1875 12.191406 14.167969 11.480469 14.167969 C 11.039062 14.167969 10.929688 14.152344 10.71875 14.035156 C 10.308594 13.804688 10.066406 13.347656 9.871094 12.425781 C 9.761719 11.910156 9.761719 11.503906 9.871094 11.113281 C 9.953125 10.800781 9.914062 10.601562 9.769531 10.601562 C 9.628906 10.605469 9.566406 10.691406 9.453125 11.050781 C 9.273438 11.621094 9.195312 12.210938 9.21875 12.765625 C 9.242188 13.320312 9.367188 13.839844 9.589844 14.269531 C 9.664062 14.414062 9.726562 14.542969 9.726562 14.554688 C 9.726562 14.597656 8.515625 15.097656 8.066406 15.242188 C 7.824219 15.320312 7.332031 15.460938 6.96875 15.554688 C 6.605469 15.644531 6.09375 15.785156 5.835938 15.867188 C 5.371094 16.011719 5.371094 16.011719 5.179688 15.90625 C 5.058594 15.839844 4.929688 15.691406 4.84375 15.519531 C 4.714844 15.265625 4.699219 15.175781 4.707031 14.589844 C 4.710938 14.21875 4.78125 13.542969 4.867188 12.992188 C 5.296875 10.257812 5.316406 10.105469 5.320312 8.976562 C 5.324219 7.625 5.261719 7.316406 4.746094 6.082031 C 4.542969 5.585938 4.238281 4.859375 4.074219 4.464844 C 3.9375 4.132812 3.84375 3.941406 3.796875 3.863281 C 3.320312 4.3125 2.964844 4.863281 2.648438 5.445312 Z M 18.492188 12.078125 C 18.578125 12.089844 18.660156 12.128906 18.808594 12.203125 C 19.507812 12.550781 20.089844 13.046875 20.519531 13.644531 C 20.945312 14.246094 21.222656 14.953125 21.3125 15.714844 C 21.347656 16.019531 21.34375 16.035156 21.078125 16.390625 C 20.742188 16.839844 19.886719 17.660156 19.125 18.257812 C 18.414062 18.816406 17.8125 19.109375 17.175781 19.195312 C 16.101562 19.339844 14.726562 19.3125 13.8125 19.128906 C 13.464844 19.058594 13.421875 19.03125 13.21875 18.773438 C 12.898438 18.359375 12.652344 17.859375 12.5 17.339844 C 12.347656 16.820312 12.289062 16.273438 12.339844 15.753906 L 12.382812 15.316406 L 12.707031 15.15625 C 12.886719 15.066406 13.242188 14.820312 13.5 14.609375 C 13.753906 14.398438 14.125 14.09375 14.324219 13.929688 C 14.8125 13.523438 15.414062 13.132812 15.972656 12.859375 C 16.488281 12.609375 17.605469 12.222656 18.148438 12.113281 C 18.316406 12.082031 18.40625 12.066406 18.492188 12.078125 Z M 18.492188 12.078125 "/>
<path style=" stroke:none;fill-rule:evenodd;fill:rgb(100%,49.803922%,16.470588%);fill-opacity:1;" d="M 33.332031 28.605469 L 27.5625 32.15625 C 25.847656 32.785156 23.984375 33.316406 22.210938 33.675781 C 21.546875 33.8125 21.03125 33.78125 20.40625 33.867188 L 27.265625 33.867188 C 30.378906 33.867188 32.832031 31.574219 33.332031 28.605469 Z M 33.332031 28.605469 "/>
<path style=" stroke:none;fill-rule:evenodd;fill:rgb(30.980392%,30.980392%,30.980392%);fill-opacity:1;" d="M 33.535156 23.847656 C 33.1875 24.144531 32.820312 24.457031 32.453125 24.929688 C 31.71875 25.878906 30.9375 26.695312 30.082031 27.398438 C 29.226562 28.101562 28.296875 28.691406 27.269531 29.191406 C 26.027344 29.796875 22.949219 30.878906 21.25 31.304688 C 19.738281 31.683594 18.1875 31.792969 16.554688 31.628906 C 14.917969 31.46875 13.203125 31.03125 11.363281 30.316406 C 10.300781 29.902344 8.882812 29.183594 7.917969 28.5625 C 6.449219 27.621094 5.835938 27.367188 5.363281 27.503906 C 5.148438 27.566406 5 27.722656 4.9375 27.921875 C 4.878906 28.121094 4.898438 28.359375 5.023438 28.59375 C 5.242188 29.015625 6.316406 29.957031 7.285156 30.574219 C 8.90625 31.613281 10.714844 32.488281 12.480469 33.117188 C 13.722656 33.558594 14.832031 33.695312 15.949219 33.867188 L 20.40625 33.867188 C 21.03125 33.78125 21.546875 33.8125 22.210938 33.675781 C 23.984375 33.316406 25.847656 32.785156 27.5625 32.15625 L 33.332031 28.605469 C 33.390625 28.261719 33.535156 27.953125 33.535156 27.59375 Z M 33.535156 23.847656 "/>
<path style=" stroke:none;fill-rule:evenodd;fill:rgb(30.980392%,30.980392%,30.980392%);fill-opacity:1;" d="M 15.886719 2.132812 C 15.816406 2.34375 15.796875 2.515625 15.695312 2.738281 C 15.230469 3.769531 14.414062 5.332031 14 5.984375 C 13.480469 6.800781 13.28125 7.242188 13.25 7.652344 C 13.226562 7.941406 13.242188 8.019531 13.359375 8.1875 C 13.433594 8.292969 13.566406 8.417969 13.648438 8.460938 C 13.835938 8.566406 14.109375 8.480469 14.421875 8.238281 C 14.734375 7.992188 15.089844 7.59375 15.441406 7.074219 C 15.835938 6.488281 15.910156 6.347656 16.339844 5.351562 C 16.472656 5.042969 16.835938 4.269531 17.144531 3.632812 C 17.472656 2.964844 17.570312 2.597656 17.742188 2.132812 Z M 15.886719 2.132812 "/>
</g>
</svg>
