<?xml version="1.0" encoding="UTF-8"?>
<svg xmlns="http://www.w3.org/2000/svg" xmlns:xlink="http://www.w3.org/1999/xlink" width="36pt" height="36pt" viewBox="0 0 36 36" version="1.1">
<g id="surface1">
<path style=" stroke:none;fill-rule:evenodd;fill:rgb(55.686275%,55.686275%,55.686275%);fill-opacity:1;" d="M 8.40625 2.136719 L 27.59375 2.136719 C 31.054688 2.136719 33.863281 4.945312 33.863281 8.40625 L 33.863281 27.59375 C 33.863281 31.054688 31.054688 33.863281 27.59375 33.863281 L 8.40625 33.863281 C 4.945312 33.863281 2.136719 31.054688 2.136719 27.59375 L 2.136719 8.40625 C 2.136719 4.945312 4.945312 2.136719 8.40625 2.136719 Z M 8.40625 2.136719 "/>
<path style=" stroke:none;fill-rule:nonzero;fill:rgb(30.980392%,30.980392%,30.980392%);fill-opacity:1;" d="M 8.054688 19.578125 C 8.019531 16.960938 8.46875 14.46875 9.382812 12.183594 C 10.53125 9.285156 12.207031 6.328125 15.171875 5.527344 C 15.855469 5.351562 17.914062 5.273438 18.042969 5.402344 C 18.074219 5.4375 17.824219 5.765625 17.488281 6.136719 C 16.761719 6.929688 15.726562 8 15.46875 9.011719 C 15.230469 9.941406 15.234375 10.203125 15.496094 10.375 C 16.0625 10.746094 20.769531 11.011719 21.359375 10.6875 C 21.476562 10.625 21.867188 10.402344 22.226562 10.042969 C 23.054688 9.21875 24.535156 8.3125 25.625 8.144531 C 26.410156 8.023438 27.886719 8.121094 27.945312 8.308594 C 27.964844 8.367188 27.707031 8.613281 27.371094 8.851562 C 26.695312 9.335938 25.914062 9.988281 25.691406 10.460938 C 25.554688 10.746094 25.5625 10.828125 25.78125 11.667969 C 26.125 12.992188 26.257812 14.824219 26.121094 16.441406 C 25.96875 18.199219 25.476562 21.484375 25.09375 23.296875 C 24.125 27.867188 22.355469 30.058594 19.789062 30.597656 C 19.167969 30.730469 17.453125 30.613281 17.453125 30.613281 C 11.304688 30.269531 8.171875 25.007812 8.054688 19.578125 Z M 8.054688 19.578125 "/>
<path style=" stroke:none;fill-rule:nonzero;fill:rgb(100%,100%,100%);fill-opacity:1;" d="M 17.097656 23.878906 C 17.097656 24.628906 16.488281 25.234375 15.738281 25.234375 C 14.992188 25.234375 14.382812 24.628906 14.382812 23.878906 C 14.382812 23.128906 14.992188 22.523438 15.738281 22.523438 C 16.488281 22.523438 17.097656 23.128906 17.097656 23.878906 Z M 17.097656 23.878906 "/>
<path style=" stroke:none;fill-rule:nonzero;fill:rgb(100%,100%,100%);fill-opacity:1;" d="M 24.332031 24.78125 C 24.332031 25.53125 23.722656 26.140625 22.972656 26.140625 C 22.226562 26.140625 21.617188 25.53125 21.617188 24.78125 C 21.617188 24.035156 22.226562 23.425781 22.972656 23.425781 C 23.722656 23.425781 24.332031 24.035156 24.332031 24.78125 Z M 24.332031 24.78125 "/>
</g>
</svg>
