<?xml version="1.0" encoding="UTF-8"?>
<svg xmlns="http://www.w3.org/2000/svg" xmlns:xlink="http://www.w3.org/1999/xlink" width="36pt" height="36pt" viewBox="0 0 36 36" version="1.1">
<g id="surface1">
<path style=" stroke:none;fill-rule:evenodd;fill:rgb(50.588235%,61.960784%,72.54902%);fill-opacity:1;" d="M 8.40625 2.136719 L 27.59375 2.136719 C 31.054688 2.136719 33.863281 4.945312 33.863281 8.40625 L 33.863281 27.59375 C 33.863281 31.054688 31.054688 33.863281 27.59375 33.863281 L 8.40625 33.863281 C 4.945312 33.863281 2.136719 31.054688 2.136719 27.59375 L 2.136719 8.40625 C 2.136719 4.945312 4.945312 2.136719 8.40625 2.136719 Z M 8.40625 2.136719 "/>
<path style=" stroke:none;fill-rule:nonzero;fill:rgb(100%,100%,100%);fill-opacity:1;" d="M 16.550781 10.875 C 18.835938 10.875 20.6875 12.726562 20.6875 15.011719 C 20.6875 17.296875 18.835938 19.152344 16.550781 19.152344 C 14.265625 19.152344 12.414062 17.296875 12.414062 15.011719 C 12.414062 12.726562 14.265625 10.875 16.550781 10.875 Z M 16.550781 10.875 "/>
<path style=" stroke:none;fill-rule:nonzero;fill:rgb(100%,100%,100%);fill-opacity:1;" d="M 16.550781 21.449219 C 24.828125 21.445312 24.828125 26.964844 24.828125 26.964844 L 24.828125 28.34375 L 8.277344 28.34375 L 8.277344 26.964844 C 8.277344 26.964844 8.277344 21.453125 16.550781 21.449219 Z M 16.550781 21.449219 "/>
<path style=" stroke:none;fill-rule:nonzero;fill:rgb(100%,100%,100%);fill-opacity:1;" d="M 24.75 14.6875 C 25.992188 14.6875 27 15.695312 27 16.9375 C 27 18.183594 25.992188 19.1875 24.75 19.1875 C 23.507812 19.1875 22.5 18.183594 22.5 16.9375 C 22.5 15.695312 23.507812 14.6875 24.75 14.6875 Z M 24.75 14.6875 "/>
<path style=" stroke:none;fill-rule:nonzero;fill:rgb(100%,100%,100%);fill-opacity:1;" d="M 24.75 20.3125 C 29.25 20.3125 29.25 23.914062 29.25 23.914062 L 29.25 24.8125 L 20.25 24.8125 L 20.25 23.914062 C 20.25 23.914062 20.25 20.316406 24.75 20.3125 Z M 24.75 20.3125 "/>
</g>
</svg>
