<?xml version="1.0" encoding="UTF-8"?>
<svg xmlns="http://www.w3.org/2000/svg" xmlns:xlink="http://www.w3.org/1999/xlink" width="36pt" height="36pt" viewBox="0 0 36 36" version="1.1">
<defs>
<filter id="alpha" filterUnits="objectBoundingBox" x="0%" y="0%" width="100%" height="100%">
  <feColorMatrix type="matrix" in="SourceGraphic" values="0 0 0 0 1 0 0 0 0 1 0 0 0 0 1 0 0 0 1 0"/>
</filter>
<mask id="mask0">
  <g filter="url(#alpha)">
<rect x="0" y="0" width="36" height="36" style="fill:rgb(0%,0%,0%);fill-opacity:0.701961;stroke:none;"/>
  </g>
</mask>
<radialGradient id="radial0" gradientUnits="userSpaceOnUse" cx="15.5" cy="11.491" fx="15.5" fy="11.491" r="6.5" gradientTransform="matrix(0.793085,0,0,0.914031,5.310638,3.920915)">
<stop offset="0" style="stop-color:rgb(0%,0%,0%);stop-opacity:1;"/>
<stop offset="1" style="stop-color:rgb(0%,0%,0%);stop-opacity:0;"/>
</radialGradient>
<clipPath id="clip1">
  <rect width="36" height="36"/>
</clipPath>
<g id="surface6" clip-path="url(#clip1)">
<path style=" stroke:none;fill-rule:nonzero;fill:url(#radial0);" d="M 16.015625 8.484375 C 15.796875 8.484375 15.621094 8.660156 15.621094 8.878906 C 15.621094 9.097656 15.796875 9.277344 16.015625 9.277344 C 16.234375 9.277344 16.414062 9.097656 16.414062 8.878906 C 16.414062 8.660156 16.234375 8.484375 16.015625 8.484375 Z M 17.601562 8.484375 C 17.382812 8.484375 17.207031 8.660156 17.207031 8.878906 C 17.207031 9.097656 17.382812 9.277344 17.601562 9.277344 C 17.824219 9.277344 18 9.097656 18 8.878906 C 18 8.660156 17.824219 8.484375 17.601562 8.484375 Z M 19.191406 8.484375 C 18.96875 8.484375 18.792969 8.660156 18.792969 8.878906 C 18.792969 9.097656 18.96875 9.277344 19.191406 9.277344 C 19.410156 9.277344 19.585938 9.097656 19.585938 8.878906 C 19.585938 8.660156 19.410156 8.484375 19.191406 8.484375 Z M 20.777344 8.484375 C 20.558594 8.484375 20.378906 8.660156 20.378906 8.878906 C 20.378906 9.097656 20.558594 9.277344 20.777344 9.277344 C 20.996094 9.277344 21.171875 9.097656 21.171875 8.878906 C 21.171875 8.660156 20.996094 8.484375 20.777344 8.484375 Z M 14.773438 8.675781 C 14.554688 8.824219 14.347656 8.988281 14.152344 9.164062 C 14.226562 9.234375 14.328125 9.277344 14.429688 9.277344 C 14.648438 9.277344 14.828125 9.097656 14.828125 8.878906 C 14.828125 8.808594 14.808594 8.738281 14.773438 8.675781 Z M 14.429688 10.070312 C 14.210938 10.070312 14.035156 10.246094 14.035156 10.464844 C 14.035156 10.683594 14.210938 10.863281 14.429688 10.863281 C 14.648438 10.863281 14.828125 10.683594 14.828125 10.464844 C 14.828125 10.246094 14.648438 10.070312 14.429688 10.070312 Z M 16.015625 10.070312 C 15.796875 10.070312 15.621094 10.246094 15.621094 10.464844 C 15.621094 10.683594 15.796875 10.863281 16.015625 10.863281 C 16.234375 10.863281 16.414062 10.683594 16.414062 10.464844 C 16.414062 10.246094 16.234375 10.070312 16.015625 10.070312 Z M 17.601562 10.070312 C 17.382812 10.070312 17.207031 10.246094 17.207031 10.464844 C 17.207031 10.683594 17.382812 10.863281 17.601562 10.863281 C 17.824219 10.863281 18 10.683594 18 10.464844 C 18 10.246094 17.824219 10.070312 17.601562 10.070312 Z M 19.191406 10.070312 C 18.96875 10.070312 18.792969 10.246094 18.792969 10.464844 C 18.792969 10.683594 18.96875 10.863281 19.191406 10.863281 C 19.410156 10.863281 19.585938 10.683594 19.585938 10.464844 C 19.585938 10.246094 19.410156 10.070312 19.191406 10.070312 Z M 20.777344 10.070312 C 20.558594 10.070312 20.378906 10.246094 20.378906 10.464844 C 20.378906 10.683594 20.558594 10.863281 20.777344 10.863281 C 20.996094 10.863281 21.171875 10.683594 21.171875 10.464844 C 21.171875 10.246094 20.996094 10.070312 20.777344 10.070312 Z M 22.363281 10.070312 C 22.144531 10.070312 21.964844 10.246094 21.964844 10.464844 C 21.964844 10.683594 22.144531 10.863281 22.363281 10.863281 C 22.582031 10.863281 22.757812 10.683594 22.757812 10.464844 C 22.757812 10.246094 22.582031 10.070312 22.363281 10.070312 Z M 13.207031 10.308594 C 13.101562 10.484375 13 10.667969 12.914062 10.855469 C 13.101562 10.824219 13.242188 10.660156 13.242188 10.464844 C 13.242188 10.410156 13.230469 10.359375 13.207031 10.308594 Z M 12.84375 11.65625 C 12.757812 11.65625 12.675781 11.683594 12.609375 11.734375 C 12.566406 11.90625 12.53125 12.078125 12.503906 12.257812 C 12.578125 12.375 12.707031 12.449219 12.84375 12.449219 C 13.0625 12.449219 13.242188 12.269531 13.242188 12.050781 C 13.242188 11.832031 13.0625 11.65625 12.84375 11.65625 Z M 14.429688 11.65625 C 14.210938 11.65625 14.035156 11.832031 14.035156 12.050781 C 14.035156 12.269531 14.210938 12.449219 14.429688 12.449219 C 14.648438 12.449219 14.828125 12.269531 14.828125 12.050781 C 14.828125 11.832031 14.648438 11.65625 14.429688 11.65625 Z M 16.015625 11.65625 C 15.796875 11.65625 15.621094 11.832031 15.621094 12.050781 C 15.621094 12.269531 15.796875 12.449219 16.015625 12.449219 C 16.234375 12.449219 16.414062 12.269531 16.414062 12.050781 C 16.414062 11.832031 16.234375 11.65625 16.015625 11.65625 Z M 17.601562 11.65625 C 17.382812 11.65625 17.207031 11.832031 17.207031 12.050781 C 17.207031 12.269531 17.382812 12.449219 17.601562 12.449219 C 17.824219 12.449219 18 12.269531 18 12.050781 C 18 11.832031 17.824219 11.65625 17.601562 11.65625 Z M 19.191406 11.65625 C 18.96875 11.65625 18.792969 11.832031 18.792969 12.050781 C 18.792969 12.269531 18.96875 12.449219 19.191406 12.449219 C 19.410156 12.449219 19.585938 12.269531 19.585938 12.050781 C 19.585938 11.832031 19.410156 11.65625 19.191406 11.65625 Z M 20.777344 11.65625 C 20.558594 11.65625 20.378906 11.832031 20.378906 12.050781 C 20.378906 12.269531 20.558594 12.449219 20.777344 12.449219 C 20.996094 12.449219 21.171875 12.269531 21.171875 12.050781 C 21.171875 11.832031 20.996094 11.65625 20.777344 11.65625 Z M 22.363281 11.65625 C 22.144531 11.65625 21.964844 11.832031 21.964844 12.050781 C 21.964844 12.269531 22.144531 12.449219 22.363281 12.449219 C 22.582031 12.449219 22.757812 12.269531 22.757812 12.050781 C 22.757812 11.832031 22.582031 11.65625 22.363281 11.65625 Z M 12.84375 13.242188 C 12.625 13.242188 12.449219 13.417969 12.449219 13.636719 C 12.449219 13.855469 12.625 14.035156 12.84375 14.035156 C 13.0625 14.035156 13.242188 13.855469 13.242188 13.636719 C 13.242188 13.417969 13.0625 13.242188 12.84375 13.242188 Z M 14.429688 13.242188 C 14.210938 13.242188 14.035156 13.417969 14.035156 13.636719 C 14.035156 13.855469 14.210938 14.035156 14.429688 14.035156 C 14.648438 14.035156 14.828125 13.855469 14.828125 13.636719 C 14.828125 13.417969 14.648438 13.242188 14.429688 13.242188 Z M 16.015625 13.242188 C 15.796875 13.242188 15.621094 13.417969 15.621094 13.636719 C 15.621094 13.855469 15.796875 14.035156 16.015625 14.035156 C 16.234375 14.035156 16.414062 13.855469 16.414062 13.636719 C 16.414062 13.417969 16.234375 13.242188 16.015625 13.242188 Z M 17.601562 13.242188 C 17.382812 13.242188 17.207031 13.417969 17.207031 13.636719 C 17.207031 13.855469 17.382812 14.035156 17.601562 14.035156 C 17.824219 14.035156 18 13.855469 18 13.636719 C 18 13.417969 17.824219 13.242188 17.601562 13.242188 Z M 19.191406 13.242188 C 18.96875 13.242188 18.792969 13.417969 18.792969 13.636719 C 18.792969 13.855469 18.96875 14.035156 19.191406 14.035156 C 19.410156 14.035156 19.585938 13.855469 19.585938 13.636719 C 19.585938 13.417969 19.410156 13.242188 19.191406 13.242188 Z M 20.777344 13.242188 C 20.558594 13.242188 20.378906 13.417969 20.378906 13.636719 C 20.378906 13.855469 20.558594 14.035156 20.777344 14.035156 C 20.996094 14.035156 21.171875 13.855469 21.171875 13.636719 C 21.171875 13.417969 20.996094 13.242188 20.777344 13.242188 Z M 22.363281 13.242188 C 22.144531 13.242188 21.964844 13.417969 21.964844 13.636719 C 21.964844 13.855469 22.144531 14.035156 22.363281 14.035156 C 22.582031 14.035156 22.757812 13.855469 22.757812 13.636719 C 22.757812 13.417969 22.582031 13.242188 22.363281 13.242188 Z M 12.84375 14.828125 C 12.644531 14.828125 12.480469 14.976562 12.453125 15.171875 C 12.453125 15.222656 12.457031 15.269531 12.460938 15.320312 C 12.503906 15.496094 12.664062 15.621094 12.84375 15.621094 C 13.0625 15.621094 13.242188 15.441406 13.242188 15.222656 C 13.242188 15.003906 13.0625 14.828125 12.84375 14.828125 Z M 14.429688 14.828125 C 14.210938 14.828125 14.035156 15.003906 14.035156 15.222656 C 14.035156 15.441406 14.210938 15.621094 14.429688 15.621094 C 14.648438 15.621094 14.828125 15.441406 14.828125 15.222656 C 14.828125 15.003906 14.648438 14.828125 14.429688 14.828125 Z M 16.015625 14.828125 C 15.796875 14.828125 15.621094 15.003906 15.621094 15.222656 C 15.621094 15.441406 15.796875 15.621094 16.015625 15.621094 C 16.234375 15.621094 16.414062 15.441406 16.414062 15.222656 C 16.414062 15.003906 16.234375 14.828125 16.015625 14.828125 Z M 17.601562 14.828125 C 17.382812 14.828125 17.207031 15.003906 17.207031 15.222656 C 17.207031 15.441406 17.382812 15.621094 17.601562 15.621094 C 17.824219 15.621094 18 15.441406 18 15.222656 C 18 15.003906 17.824219 14.828125 17.601562 14.828125 Z M 19.191406 14.828125 C 18.96875 14.828125 18.792969 15.003906 18.792969 15.222656 C 18.792969 15.441406 18.96875 15.621094 19.191406 15.621094 C 19.410156 15.621094 19.585938 15.441406 19.585938 15.222656 C 19.585938 15.003906 19.410156 14.828125 19.191406 14.828125 Z M 20.777344 14.828125 C 20.558594 14.828125 20.378906 15.003906 20.378906 15.222656 C 20.378906 15.441406 20.558594 15.621094 20.777344 15.621094 C 20.996094 15.621094 21.171875 15.441406 21.171875 15.222656 C 21.171875 15.003906 20.996094 14.828125 20.777344 14.828125 Z M 22.363281 14.828125 C 22.144531 14.828125 21.964844 15.003906 21.964844 15.222656 C 21.964844 15.441406 22.144531 15.621094 22.363281 15.621094 C 22.582031 15.621094 22.757812 15.441406 22.757812 15.222656 C 22.757812 15.003906 22.582031 14.828125 22.363281 14.828125 Z M 12.84375 16.414062 C 12.773438 16.414062 12.703125 16.433594 12.644531 16.46875 C 12.714844 16.71875 12.800781 16.964844 12.90625 17.203125 C 13.101562 17.171875 13.242188 17.003906 13.242188 16.808594 C 13.242188 16.589844 13.0625 16.414062 12.84375 16.414062 Z M 14.429688 16.414062 C 14.210938 16.414062 14.035156 16.589844 14.035156 16.808594 C 14.035156 17.03125 14.210938 17.207031 14.429688 17.207031 C 14.648438 17.207031 14.828125 17.03125 14.828125 16.808594 C 14.828125 16.589844 14.648438 16.414062 14.429688 16.414062 Z M 16.015625 16.414062 C 15.796875 16.414062 15.621094 16.589844 15.621094 16.808594 C 15.621094 17.03125 15.796875 17.207031 16.015625 17.207031 C 16.234375 17.207031 16.414062 17.03125 16.414062 16.808594 C 16.414062 16.589844 16.234375 16.414062 16.015625 16.414062 Z M 17.601562 16.414062 C 17.382812 16.414062 17.207031 16.589844 17.207031 16.808594 C 17.207031 17.03125 17.382812 17.207031 17.601562 17.207031 C 17.824219 17.207031 18 17.03125 18 16.808594 C 18 16.589844 17.824219 16.414062 17.601562 16.414062 Z M 19.191406 16.414062 C 18.96875 16.414062 18.792969 16.589844 18.792969 16.808594 C 18.792969 17.03125 18.96875 17.207031 19.191406 17.207031 C 19.410156 17.207031 19.585938 17.03125 19.585938 16.808594 C 19.585938 16.589844 19.410156 16.414062 19.191406 16.414062 Z M 20.777344 16.414062 C 20.558594 16.414062 20.378906 16.589844 20.378906 16.808594 C 20.378906 17.03125 20.558594 17.207031 20.777344 17.207031 C 20.996094 17.207031 21.171875 17.03125 21.171875 16.808594 C 21.171875 16.589844 20.996094 16.414062 20.777344 16.414062 Z M 22.363281 16.414062 C 22.144531 16.414062 21.964844 16.589844 21.964844 16.808594 C 21.964844 17.03125 22.144531 17.207031 22.363281 17.207031 C 22.582031 17.207031 22.757812 17.03125 22.757812 16.808594 C 22.757812 16.589844 22.582031 16.414062 22.363281 16.414062 Z M 14.429688 18 C 14.210938 18 14.035156 18.175781 14.035156 18.398438 C 14.035156 18.617188 14.210938 18.792969 14.429688 18.792969 C 14.648438 18.792969 14.828125 18.617188 14.828125 18.398438 C 14.828125 18.175781 14.648438 18 14.429688 18 Z M 16.015625 18 C 15.796875 18 15.621094 18.175781 15.621094 18.398438 C 15.621094 18.617188 15.796875 18.792969 16.015625 18.792969 C 16.234375 18.792969 16.414062 18.617188 16.414062 18.398438 C 16.414062 18.175781 16.234375 18 16.015625 18 Z M 17.601562 18 C 17.382812 18 17.207031 18.175781 17.207031 18.398438 C 17.207031 18.617188 17.382812 18.792969 17.601562 18.792969 C 17.824219 18.792969 18 18.617188 18 18.398438 C 18 18.175781 17.824219 18 17.601562 18 Z M 19.191406 18 C 18.96875 18 18.792969 18.175781 18.792969 18.398438 C 18.792969 18.617188 18.96875 18.792969 19.191406 18.792969 C 19.410156 18.792969 19.585938 18.617188 19.585938 18.398438 C 19.585938 18.175781 19.410156 18 19.191406 18 Z M 20.777344 18 C 20.558594 18 20.378906 18.175781 20.378906 18.398438 C 20.378906 18.617188 20.558594 18.792969 20.777344 18.792969 C 20.996094 18.792969 21.171875 18.617188 21.171875 18.398438 C 21.171875 18.175781 20.996094 18 20.777344 18 Z M 22.363281 18 C 22.144531 18 21.964844 18.175781 21.964844 18.398438 C 21.964844 18.5 22.007812 18.601562 22.082031 18.675781 C 22.265625 18.484375 22.4375 18.285156 22.589844 18.074219 C 22.523438 18.027344 22.445312 18 22.363281 18 Z M 16.015625 19.585938 C 15.839844 19.585938 15.683594 19.703125 15.636719 19.875 C 15.875 19.980469 16.121094 20.078125 16.375 20.148438 C 16.402344 20.097656 16.414062 20.039062 16.414062 19.984375 C 16.414062 19.765625 16.234375 19.585938 16.015625 19.585938 Z M 17.601562 19.585938 C 17.382812 19.585938 17.207031 19.765625 17.207031 19.984375 C 17.207031 20.144531 17.308594 20.292969 17.460938 20.351562 C 17.542969 20.359375 17.625 20.359375 17.707031 20.363281 C 17.882812 20.316406 18 20.160156 18 19.984375 C 18 19.765625 17.824219 19.585938 17.601562 19.585938 Z M 19.191406 19.585938 C 18.96875 19.585938 18.792969 19.765625 18.792969 19.984375 C 18.792969 20.105469 18.851562 20.222656 18.949219 20.296875 C 19.148438 20.265625 19.347656 20.222656 19.539062 20.167969 C 19.570312 20.113281 19.585938 20.046875 19.585938 19.984375 C 19.585938 19.765625 19.410156 19.585938 19.191406 19.585938 Z M 20.777344 19.585938 C 20.605469 19.585938 20.453125 19.695312 20.398438 19.859375 C 20.570312 19.78125 20.734375 19.695312 20.890625 19.601562 C 20.855469 19.589844 20.816406 19.585938 20.777344 19.585938 Z M 20.777344 19.585938 "/>
</g>
</defs>
<g id="surface1">
<path style=" stroke:none;fill-rule:evenodd;fill:rgb(30.196078%,30.196078%,30.196078%);fill-opacity:1;" d="M 8.40625 2.136719 L 27.59375 2.136719 C 31.054688 2.136719 33.863281 4.945312 33.863281 8.40625 L 33.863281 27.59375 C 33.863281 31.054688 31.054688 33.863281 27.59375 33.863281 L 8.40625 33.863281 C 4.945312 33.863281 2.136719 31.054688 2.136719 27.59375 L 2.136719 8.40625 C 2.136719 4.945312 4.945312 2.136719 8.40625 2.136719 Z M 8.40625 2.136719 "/>
<path style=" stroke:none;fill-rule:nonzero;fill:rgb(84.705882%,27.45098%,84.705882%);fill-opacity:1;" d="M 10.070312 15.621094 L 10.070312 16.941406 C 10.070312 20.378906 13.1875 23.1875 17.207031 23.519531 L 17.207031 26.722656 L 11.65625 26.722656 L 11.65625 28.308594 L 24.34375 28.308594 L 24.34375 26.722656 L 18.792969 26.722656 L 18.792969 23.519531 C 22.8125 23.1875 25.929688 20.378906 25.929688 16.941406 L 25.929688 15.621094 L 24.34375 15.621094 L 24.34375 16.679688 C 24.34375 19.609375 21.515625 21.964844 18 21.964844 C 14.484375 21.964844 11.65625 19.609375 11.65625 16.679688 L 11.65625 15.621094 Z M 10.070312 15.621094 "/>
<path style=" stroke:none;fill-rule:nonzero;fill:rgb(56.470588%,56.470588%,56.470588%);fill-opacity:1;" d="M 23.550781 15.089844 L 23.550781 12.976562 C 23.550781 10.058594 21.066406 7.691406 18 7.691406 C 14.933594 7.691406 12.449219 10.058594 12.449219 12.976562 L 12.449219 15.089844 C 12.449219 18.011719 14.933594 20.378906 18 20.378906 C 21.066406 20.378906 23.550781 18.011719 23.550781 15.089844 Z M 23.550781 15.089844 "/>
<use xlink:href="#surface6" mask="url(#mask0)"/>
</g>
</svg>
