<?xml version="1.0" encoding="UTF-8"?>
<svg xmlns="http://www.w3.org/2000/svg" xmlns:xlink="http://www.w3.org/1999/xlink" width="36pt" height="36pt" viewBox="0 0 36 36" version="1.1">
<g id="surface1">
<path style=" stroke:none;fill-rule:evenodd;fill:rgb(95.686275%,72.54902%,19.607843%);fill-opacity:1;" d="M 8.40625 2.136719 L 27.59375 2.136719 C 31.054688 2.136719 33.863281 4.945312 33.863281 8.40625 L 33.863281 27.59375 C 33.863281 31.054688 31.054688 33.863281 27.59375 33.863281 L 8.40625 33.863281 C 4.945312 33.863281 2.136719 31.054688 2.136719 27.59375 L 2.136719 8.40625 C 2.136719 4.945312 4.945312 2.136719 8.40625 2.136719 Z M 8.40625 2.136719 "/>
<path style=" stroke:none;fill-rule:nonzero;fill:rgb(100%,100%,100%);fill-opacity:1;" d="M 18.949219 6.75 C 12.042969 6.75 8.347656 11.6875 7.679688 17.078125 C 7.222656 20.789062 8.066406 24.265625 9.167969 26.582031 C 10.78125 29.542969 11.207031 29.714844 13.738281 28.660156 C 18.882812 26.511719 24.003906 24.035156 27.914062 21.964844 C 29.414062 21.171875 29.324219 17.980469 29.167969 16.125 C 28.789062 11.5 25.859375 6.75 18.949219 6.75 Z M 18.949219 6.75 "/>
<path style=" stroke:none;fill-rule:nonzero;fill:rgb(26.666667%,26.666667%,26.666667%);fill-opacity:1;" d="M 16.875 13.660156 C 16.730469 13.664062 16.589844 13.699219 16.457031 13.761719 C 14.761719 14.429688 13.851562 15.265625 11.902344 15.511719 C 10.761719 15.65625 9.125 15.683594 7.984375 15.546875 C 7.332031 15.457031 6.75 15.980469 6.75 16.660156 L 6.75 21.375 C 6.75 22.011719 7.257812 22.519531 7.875 22.5 C 9.640625 22.367188 11.464844 22.148438 13.117188 21.574219 C 13.117188 21.574219 18 19.960938 18 14.785156 C 18 14.152344 17.492188 13.644531 16.875 13.660156 Z M 16.875 13.660156 "/>
<path style=" stroke:none;fill-rule:nonzero;fill:rgb(100%,100%,100%);fill-opacity:1;" d="M 17.195312 15.589844 C 17.195312 16.03125 16.835938 16.394531 16.394531 16.394531 C 15.949219 16.394531 15.589844 16.03125 15.589844 15.589844 C 15.589844 15.144531 15.949219 14.785156 16.394531 14.785156 C 16.835938 14.785156 17.195312 15.144531 17.195312 15.589844 Z M 17.195312 15.589844 "/>
</g>
</svg>
