<?xml version="1.0" encoding="UTF-8"?>
<svg xmlns="http://www.w3.org/2000/svg" xmlns:xlink="http://www.w3.org/1999/xlink" width="36pt" height="36pt" viewBox="0 0 36 36" version="1.1">
<g id="surface1">
<path style=" stroke:none;fill-rule:evenodd;fill:rgb(76.078431%,20.784314%,16.470588%);fill-opacity:1;" d="M 8.40625 2.136719 L 27.59375 2.136719 C 31.054688 2.136719 33.863281 4.945312 33.863281 8.40625 L 33.863281 27.59375 C 33.863281 31.054688 31.054688 33.863281 27.59375 33.863281 L 8.40625 33.863281 C 4.945312 33.863281 2.136719 31.054688 2.136719 27.59375 L 2.136719 8.40625 C 2.136719 4.945312 4.945312 2.136719 8.40625 2.136719 Z M 8.40625 2.136719 "/>
<path style=" stroke:none;fill-rule:nonzero;fill:rgb(100%,100%,100%);fill-opacity:1;" d="M 17.40625 21.5 C 23.539062 18.011719 23.40625 18.085938 23.40625 18.019531 C 23.40625 17.953125 12.675781 11.785156 12.625 11.820312 C 12.589844 11.847656 12.582031 24.128906 12.617188 24.167969 C 12.628906 24.179688 12.667969 24.183594 12.699219 24.167969 C 12.730469 24.152344 14.851562 22.953125 17.40625 21.5 Z M 17.40625 21.5 "/>
<path style=" stroke:none;fill-rule:nonzero;fill:rgb(54.901961%,10.588235%,4.313725%);fill-opacity:1;" d="M 32.261719 25.742188 C 32.261719 29.46875 29.242188 32.492188 25.511719 32.492188 C 21.785156 32.492188 18.761719 29.46875 18.761719 25.742188 C 18.761719 22.011719 21.785156 18.992188 25.511719 18.992188 C 29.242188 18.992188 32.261719 22.011719 32.261719 25.742188 Z M 32.261719 25.742188 "/>
<path style=" stroke:none;fill-rule:nonzero;fill:rgb(100%,100%,100%);fill-opacity:1;" d="M 26.863281 21.691406 L 26.863281 25.292969 L 28.210938 25.292969 L 25.511719 28.890625 L 22.8125 25.292969 L 24.164062 25.292969 L 24.164062 21.691406 Z M 22.363281 28.890625 L 28.664062 28.890625 L 28.664062 29.792969 L 22.363281 29.792969 Z M 22.363281 28.890625 "/>
</g>
</svg>
