<?xml version="1.0" encoding="UTF-8"?>
<svg xmlns="http://www.w3.org/2000/svg" xmlns:xlink="http://www.w3.org/1999/xlink" width="12pt" height="12pt" viewBox="0 0 12 12" version="1.1">
<g id="surface1">
<path style=" stroke:none;fill-rule:evenodd;fill:rgb(100%,71.764706%,23.529412%);fill-opacity:1;" d="M 2.835938 0.71875 L 9.308594 0.71875 C 10.472656 0.71875 11.421875 1.667969 11.421875 2.835938 L 11.421875 9.308594 C 11.421875 10.472656 10.472656 11.421875 9.308594 11.421875 L 2.835938 11.421875 C 1.667969 11.421875 0.71875 10.472656 0.71875 9.308594 L 0.71875 2.835938 C 0.71875 1.667969 1.667969 0.71875 2.835938 0.71875 Z M 2.835938 0.71875 "/>
<path style=" stroke:none;fill-rule:nonzero;fill:rgb(30.980392%,30.980392%,30.980392%);fill-opacity:1;" d="M 3.167969 6.976562 L 8.972656 6.976562 C 9.371094 6.976562 9.699219 7.296875 9.699219 7.691406 L 9.699219 9.117188 C 9.699219 9.507812 9.371094 9.828125 8.972656 9.828125 L 3.167969 9.828125 C 2.769531 9.828125 2.445312 9.507812 2.445312 9.117188 L 2.445312 7.691406 C 2.445312 7.296875 2.769531 6.976562 3.167969 6.976562 Z M 3.167969 6.976562 "/>
<path style=" stroke:none;fill-rule:nonzero;fill:rgb(30.980392%,30.980392%,30.980392%);fill-opacity:1;" d="M 5.121094 2.574219 L 4.90625 3.199219 L 4.40625 2.765625 L 4.234375 3.277344 L 3.851562 2.945312 L 3.667969 3.492188 L 3.296875 3.3125 L 3.257812 3.929688 L 2.742188 3.675781 L 2.699219 4.332031 L 2.183594 4.230469 L 2.316406 4.878906 L 3.222656 6.976562 L 8.921875 6.976562 L 9.828125 4.878906 L 9.957031 4.230469 L 9.445312 4.332031 L 9.398438 3.675781 L 8.886719 3.929688 L 8.847656 3.3125 L 8.476562 3.492188 L 8.289062 2.945312 L 7.910156 3.277344 L 7.738281 2.765625 L 7.234375 3.199219 L 7.019531 2.574219 L 6.519531 3.011719 L 6.441406 3.289062 L 6.441406 3.128906 L 6.074219 2.582031 L 6.070312 2.582031 L 5.699219 3.128906 L 5.699219 3.289062 L 5.625 3.011719 Z M 5.121094 2.574219 "/>
<path style="fill:none;stroke-width:3;stroke-linecap:round;stroke-linejoin:round;stroke:rgb(100%,71.764706%,23.529412%);stroke-opacity:1;stroke-miterlimit:4;" d="M 7.505338 13.489991 L 13.507413 13.489991 C 10.234925 16.913285 9.511057 19.069809 9.511057 23.503503 " transform="matrix(0.259025,0,0,0.259025,1.927024,2.056536)"/>
<path style="fill:none;stroke-width:3;stroke-linecap:round;stroke-linejoin:round;stroke:rgb(100%,71.764706%,23.529412%);stroke-opacity:1;stroke-miterlimit:4;" d="M 19.494408 13.489991 L 19.494408 23.503503 " transform="matrix(0.259025,0,0,0.259025,1.927024,2.056536)"/>
<path style="fill:none;stroke-width:3;stroke-linecap:round;stroke-linejoin:round;stroke:rgb(100%,71.764706%,23.529412%);stroke-opacity:1;stroke-miterlimit:4;" d="M 24.501164 13.489991 L 19.494408 19.280937 " transform="matrix(0.259025,0,0,0.259025,1.927024,2.056536)"/>
<path style="fill:none;stroke-width:3;stroke-linecap:round;stroke-linejoin:round;stroke:rgb(100%,71.764706%,23.529412%);stroke-opacity:1;stroke-miterlimit:4;" d="M 24.501164 23.503503 L 19.494408 17.863362 " transform="matrix(0.259025,0,0,0.259025,1.927024,2.056536)"/>
<path style=" stroke:none;fill-rule:nonzero;fill:rgb(95.686275%,31.764706%,31.764706%);fill-opacity:1;" d="M 6.070312 4.90625 L 4.515625 2.316406 L 7.625 2.316406 Z M 6.070312 4.90625 "/>
</g>
</svg>
