<?xml version="1.0" encoding="UTF-8"?>
<svg xmlns="http://www.w3.org/2000/svg" xmlns:xlink="http://www.w3.org/1999/xlink" width="12pt" height="12pt" viewBox="0 0 12 12" version="1.1">
<g id="surface1">
<path style=" stroke:none;fill-rule:evenodd;fill:rgb(24.313725%,31.372549%,70.588235%);fill-opacity:1;" d="M 2.800781 0.710938 L 9.199219 0.710938 C 10.351562 0.710938 11.289062 1.648438 11.289062 2.800781 L 11.289062 9.199219 C 11.289062 10.351562 10.351562 11.289062 9.199219 11.289062 L 2.800781 11.289062 C 1.648438 11.289062 0.710938 10.351562 0.710938 9.199219 L 0.710938 2.800781 C 0.710938 1.648438 1.648438 0.710938 2.800781 0.710938 Z M 2.800781 0.710938 "/>
<path style=" stroke:none;fill-rule:nonzero;fill:rgb(100%,100%,100%);fill-opacity:1;" d="M 6 2.625 C 5.585938 2.625 5.25 2.960938 5.25 3.375 C 5.25 3.789062 5.585938 4.125 6 4.125 C 6.414062 4.125 6.75 3.789062 6.75 3.375 C 6.75 2.960938 6.414062 2.625 6 2.625 Z M 3.375 4.5 L 3.375 4.875 L 5.25 4.875 L 5.25 9.375 L 5.625 9.375 L 5.625 7.125 L 6.375 7.125 L 6.375 9.375 L 6.75 9.375 L 6.75 4.875 L 8.625 4.875 L 8.625 4.5 Z M 3.375 4.5 "/>
</g>
</svg>
