<?xml version="1.0" encoding="UTF-8"?>
<svg xmlns="http://www.w3.org/2000/svg" xmlns:xlink="http://www.w3.org/1999/xlink" width="12pt" height="12pt" viewBox="0 0 12 12" version="1.1">
<g id="surface1">
<path style=" stroke:none;fill-rule:evenodd;fill:rgb(50.196078%,50.196078%,50.196078%);fill-opacity:1;" d="M 2.835938 0.71875 L 9.308594 0.71875 C 10.472656 0.71875 11.421875 1.667969 11.421875 2.835938 L 11.421875 9.308594 C 11.421875 10.472656 10.472656 11.421875 9.308594 11.421875 L 2.835938 11.421875 C 1.667969 11.421875 0.71875 10.472656 0.71875 9.308594 L 0.71875 2.835938 C 0.71875 1.667969 1.667969 0.71875 2.835938 0.71875 Z M 2.835938 0.71875 "/>
<path style=" stroke:none;fill-rule:nonzero;fill:rgb(91.764706%,43.137255%,25.490196%);fill-opacity:1;" d="M 6.070312 6.070312 C 5.851562 6.070312 5.632812 6.117188 5.46875 6.203125 L 3.003906 7.53125 C 2.679688 7.707031 2.679688 8.003906 3.003906 8.179688 L 5.46875 9.507812 C 5.796875 9.683594 6.347656 9.683594 6.675781 9.507812 L 9.136719 8.179688 C 9.464844 8.003906 9.464844 7.707031 9.136719 7.53125 L 6.675781 6.203125 C 6.511719 6.117188 6.292969 6.070312 6.070312 6.070312 Z M 6.070312 6.070312 "/>
<path style=" stroke:none;fill-rule:nonzero;fill:rgb(68.235294%,82.745098%,31.764706%);fill-opacity:1;" d="M 6.070312 4.289062 C 5.851562 4.289062 5.632812 4.332031 5.46875 4.417969 L 3.003906 5.746094 C 2.679688 5.921875 2.679688 6.21875 3.003906 6.394531 L 5.46875 7.722656 C 5.796875 7.898438 6.347656 7.898438 6.675781 7.722656 L 9.136719 6.394531 C 9.464844 6.21875 9.464844 5.921875 9.136719 5.746094 L 6.675781 4.417969 C 6.507812 4.332031 6.292969 4.289062 6.070312 4.289062 Z M 6.070312 4.289062 "/>
<path style=" stroke:none;fill-rule:nonzero;fill:rgb(23.137255%,61.568627%,85.490196%);fill-opacity:1;" d="M 6.070312 2.503906 C 5.851562 2.503906 5.632812 2.550781 5.46875 2.636719 L 3.003906 3.964844 C 2.679688 4.140625 2.679688 4.4375 3.003906 4.613281 L 5.46875 5.941406 C 5.796875 6.117188 6.347656 6.117188 6.675781 5.941406 L 9.136719 4.613281 C 9.464844 4.4375 9.464844 4.140625 9.136719 3.964844 L 6.675781 2.636719 C 6.507812 2.550781 6.292969 2.503906 6.070312 2.503906 Z M 6.070312 2.503906 "/>
</g>
</svg>
