<?xml version="1.0" encoding="UTF-8"?>
<svg xmlns="http://www.w3.org/2000/svg" xmlns:xlink="http://www.w3.org/1999/xlink" width="12pt" height="12pt" viewBox="0 0 12 12" version="1.1">
<g id="surface1">
<path style=" stroke:none;fill-rule:evenodd;fill:rgb(76.078431%,20.784314%,16.470588%);fill-opacity:1;" d="M 2.800781 0.710938 L 9.199219 0.710938 C 10.351562 0.710938 11.289062 1.648438 11.289062 2.800781 L 11.289062 9.199219 C 11.289062 10.351562 10.351562 11.289062 9.199219 11.289062 L 2.800781 11.289062 C 1.648438 11.289062 0.710938 10.351562 0.710938 9.199219 L 0.710938 2.800781 C 0.710938 1.648438 1.648438 0.710938 2.800781 0.710938 Z M 2.800781 0.710938 "/>
<path style=" stroke:none;fill-rule:nonzero;fill:rgb(100%,100%,100%);fill-opacity:1;" d="M 6 2.625 C 4.136719 2.625 2.625 4.136719 2.625 6 C 2.625 7.863281 4.136719 9.375 6 9.375 C 7.863281 9.375 9.375 7.863281 9.375 6 C 9.375 4.136719 7.863281 2.625 6 2.625 Z M 6 3.375 C 7.449219 3.375 8.625 4.550781 8.625 6 C 8.625 7.449219 7.449219 8.625 6 8.625 C 4.550781 8.625 3.375 7.449219 3.375 6 C 3.375 4.550781 4.550781 3.375 6 3.375 Z M 6 4.5 C 5.792969 4.5 5.625 4.667969 5.625 4.875 L 5.625 7.125 C 5.625 7.332031 5.792969 7.5 6 7.5 C 6.207031 7.5 6.375 7.332031 6.375 7.125 L 6.375 4.875 C 6.375 4.667969 6.207031 4.5 6 4.5 Z M 6 4.5 "/>
</g>
</svg>
