<?xml version="1.0" encoding="UTF-8"?>
<svg xmlns="http://www.w3.org/2000/svg" xmlns:xlink="http://www.w3.org/1999/xlink" width="12pt" height="12pt" viewBox="0 0 12 12" version="1.1">
<g id="surface1">
<path style=" stroke:none;fill-rule:evenodd;fill:rgb(27.843137%,67.843137%,36.470588%);fill-opacity:1;" d="M 2.800781 0.710938 L 9.199219 0.710938 C 10.351562 0.710938 11.289062 1.648438 11.289062 2.800781 L 11.289062 9.199219 C 11.289062 10.351562 10.351562 11.289062 9.199219 11.289062 L 2.800781 11.289062 C 1.648438 11.289062 0.710938 10.351562 0.710938 9.199219 L 0.710938 2.800781 C 0.710938 1.648438 1.648438 0.710938 2.800781 0.710938 Z M 2.800781 0.710938 "/>
<path style=" stroke:none;fill-rule:nonzero;fill:rgb(100%,100%,100%);fill-opacity:1;" d="M 6.101562 2.53125 C 6.019531 2.53125 5.9375 2.535156 5.855469 2.539062 C 5.84375 2.539062 5.832031 2.539062 5.824219 2.542969 C 4.582031 2.640625 3.535156 3.382812 3.003906 4.4375 C 3.003906 4.4375 3.003906 4.441406 3.003906 4.441406 C 2.96875 4.507812 2.933594 4.574219 2.902344 4.648438 C 2.742188 5.011719 2.652344 5.402344 2.636719 5.8125 C 2.636719 5.824219 2.636719 5.835938 2.632812 5.851562 C 2.632812 5.890625 2.632812 5.929688 2.632812 5.96875 C 2.632812 5.976562 2.632812 5.988281 2.632812 6 C 2.632812 6.402344 2.703125 6.789062 2.828125 7.148438 C 2.878906 7.308594 2.9375 7.472656 3.007812 7.636719 C 3.183594 8.046875 3.203125 8.160156 3.175781 8.503906 C 3.15625 8.742188 3.09375 8.988281 3.011719 9.125 C 2.9375 9.25 2.878906 9.378906 2.878906 9.410156 C 2.878906 9.511719 3.464844 9.476562 3.980469 9.34375 C 4.589844 9.1875 4.640625 9.1875 5.140625 9.34375 C 5.367188 9.417969 5.625 9.453125 5.917969 9.464844 C 5.929688 9.464844 5.945312 9.464844 5.957031 9.464844 C 5.996094 9.46875 6.035156 9.46875 6.074219 9.46875 C 6.078125 9.46875 6.082031 9.46875 6.085938 9.46875 C 6.089844 9.46875 6.097656 9.46875 6.101562 9.46875 C 6.199219 9.46875 6.292969 9.464844 6.390625 9.457031 C 7.246094 9.398438 7.9375 9.078125 8.554688 8.460938 C 9.066406 7.949219 9.382812 7.320312 9.507812 6.660156 C 9.519531 6.601562 9.53125 6.539062 9.539062 6.480469 C 9.542969 6.441406 9.546875 6.402344 9.550781 6.367188 C 9.5625 6.285156 9.566406 6.203125 9.570312 6.121094 C 9.570312 6.097656 9.570312 6.078125 9.570312 6.058594 C 9.570312 6.039062 9.570312 6.019531 9.570312 6 C 9.570312 4.109375 8.074219 2.582031 6.199219 2.53125 C 6.183594 2.53125 6.167969 2.53125 6.152344 2.53125 C 6.136719 2.53125 6.117188 2.53125 6.101562 2.53125 Z M 4.988281 4.265625 C 5.203125 4.273438 5.269531 4.273438 5.46875 4.757812 C 5.640625 5.179688 5.640625 5.183594 5.441406 5.414062 C 5.375 5.492188 5.320312 5.574219 5.320312 5.597656 C 5.488281 6.125 6.007812 6.523438 6.523438 6.664062 C 6.566406 6.664062 6.625 6.609375 6.757812 6.441406 C 6.976562 6.171875 6.945312 6.171875 7.449219 6.414062 C 7.84375 6.605469 7.859375 6.65625 7.828125 6.859375 C 7.785156 7.125 7.664062 7.28125 7.402344 7.40625 C 7.152344 7.523438 6.882812 7.515625 6.453125 7.367188 C 5.75 7.128906 5.261719 6.746094 4.761719 6.042969 C 4.46875 5.632812 4.367188 5.386719 4.367188 5.078125 C 4.367188 4.835938 4.417969 4.679688 4.5625 4.480469 C 4.699219 4.292969 4.769531 4.257812 4.988281 4.265625 Z M 4.988281 4.265625 "/>
</g>
</svg>
