<?xml version="1.0" encoding="UTF-8"?>
<svg xmlns="http://www.w3.org/2000/svg" xmlns:xlink="http://www.w3.org/1999/xlink" width="12pt" height="12pt" viewBox="0 0 12 12" version="1.1">
<g id="surface1">
<path style=" stroke:none;fill-rule:evenodd;fill:rgb(83.137255%,29.019608%,29.019608%);fill-opacity:1;" d="M 2.835938 0.71875 L 9.308594 0.71875 C 10.472656 0.71875 11.421875 1.667969 11.421875 2.835938 L 11.421875 9.308594 C 11.421875 10.472656 10.472656 11.421875 9.308594 11.421875 L 2.835938 11.421875 C 1.667969 11.421875 0.71875 10.472656 0.71875 9.308594 L 0.71875 2.835938 C 0.71875 1.667969 1.667969 0.71875 2.835938 0.71875 Z M 2.835938 0.71875 "/>
<path style=" stroke:none;fill-rule:nonzero;fill:rgb(100%,100%,100%);fill-opacity:1;" d="M 6.070312 2.277344 C 4.867188 2.28125 3.734375 2.851562 3.019531 3.824219 L 4.191406 5.847656 C 4.191406 5.828125 4.195312 5.8125 4.195312 5.796875 C 4.203125 5.730469 4.21875 5.667969 4.234375 5.609375 C 4.25 5.546875 4.265625 5.484375 4.289062 5.425781 C 4.308594 5.375 4.328125 5.328125 4.351562 5.277344 C 4.355469 5.265625 4.359375 5.253906 4.367188 5.242188 C 4.390625 5.199219 4.410156 5.15625 4.4375 5.117188 C 4.441406 5.101562 4.449219 5.089844 4.457031 5.078125 C 4.488281 5.035156 4.515625 4.988281 4.546875 4.949219 C 4.550781 4.9375 4.554688 4.929688 4.5625 4.921875 C 4.59375 4.882812 4.625 4.847656 4.65625 4.808594 C 4.667969 4.800781 4.679688 4.785156 4.6875 4.773438 C 4.714844 4.746094 4.746094 4.714844 4.777344 4.6875 C 4.792969 4.671875 4.8125 4.652344 4.828125 4.636719 C 4.855469 4.613281 4.882812 4.59375 4.90625 4.574219 C 4.933594 4.554688 4.957031 4.535156 4.984375 4.519531 C 5.007812 4.5 5.035156 4.484375 5.0625 4.46875 C 5.082031 4.453125 5.101562 4.441406 5.121094 4.429688 C 5.132812 4.425781 5.136719 4.417969 5.144531 4.417969 C 5.160156 4.410156 5.175781 4.398438 5.191406 4.390625 C 5.21875 4.378906 5.253906 4.359375 5.285156 4.347656 C 5.316406 4.332031 5.347656 4.320312 5.378906 4.308594 C 5.40625 4.296875 5.429688 4.285156 5.457031 4.277344 C 5.492188 4.265625 5.523438 4.253906 5.558594 4.246094 C 5.585938 4.238281 5.617188 4.230469 5.648438 4.222656 C 5.679688 4.214844 5.707031 4.210938 5.738281 4.203125 C 5.769531 4.199219 5.800781 4.195312 5.832031 4.191406 C 5.863281 4.1875 5.894531 4.183594 5.929688 4.183594 C 5.960938 4.179688 5.988281 4.175781 6.015625 4.175781 C 6.035156 4.175781 6.050781 4.175781 6.070312 4.175781 L 9.351562 4.175781 C 8.675781 3.003906 7.425781 2.28125 6.070312 2.277344 Z M 2.789062 4.175781 C 2.457031 4.75 2.277344 5.40625 2.277344 6.070312 C 2.277344 8.167969 3.976562 9.867188 6.070312 9.867188 C 6.59375 9.863281 7.113281 9.753906 7.589844 9.546875 L 7.589844 7.210938 C 7.582031 7.21875 7.574219 7.226562 7.566406 7.238281 C 7.554688 7.257812 7.535156 7.277344 7.519531 7.296875 C 7.496094 7.324219 7.472656 7.351562 7.445312 7.378906 C 7.425781 7.398438 7.40625 7.417969 7.386719 7.4375 C 7.359375 7.460938 7.335938 7.484375 7.308594 7.511719 C 7.285156 7.527344 7.265625 7.542969 7.242188 7.5625 C 7.214844 7.582031 7.1875 7.601562 7.160156 7.621094 C 7.132812 7.640625 7.105469 7.660156 7.082031 7.675781 C 7.058594 7.691406 7.039062 7.699219 7.019531 7.714844 C 7.011719 7.71875 7.007812 7.722656 6.996094 7.726562 C 6.980469 7.734375 6.96875 7.742188 6.953125 7.75 C 6.921875 7.765625 6.890625 7.78125 6.859375 7.796875 C 6.828125 7.808594 6.796875 7.824219 6.761719 7.835938 C 6.738281 7.847656 6.714844 7.855469 6.683594 7.867188 C 6.652344 7.875 6.617188 7.886719 6.585938 7.894531 C 6.558594 7.90625 6.527344 7.914062 6.496094 7.917969 C 6.464844 7.925781 6.433594 7.933594 6.402344 7.9375 C 6.371094 7.945312 6.34375 7.945312 6.3125 7.953125 C 6.28125 7.953125 6.246094 7.957031 6.214844 7.960938 C 6.183594 7.964844 6.15625 7.964844 6.128906 7.964844 C 6.109375 7.964844 6.089844 7.96875 6.070312 7.96875 C 6.050781 7.96875 6.023438 7.96875 6 7.964844 C 5.992188 7.964844 5.980469 7.964844 5.972656 7.964844 C 5.929688 7.964844 5.886719 7.957031 5.84375 7.953125 C 5.824219 7.953125 5.800781 7.949219 5.777344 7.945312 C 5.738281 7.9375 5.699219 7.929688 5.660156 7.921875 C 5.640625 7.914062 5.613281 7.910156 5.589844 7.90625 C 5.554688 7.894531 5.515625 7.886719 5.480469 7.871094 C 5.457031 7.867188 5.433594 7.855469 5.410156 7.847656 C 5.375 7.835938 5.347656 7.824219 5.316406 7.808594 C 5.289062 7.796875 5.257812 7.785156 5.230469 7.769531 C 5.203125 7.757812 5.179688 7.742188 5.15625 7.730469 C 5.125 7.710938 5.09375 7.695312 5.0625 7.679688 C 5.042969 7.660156 5.015625 7.644531 4.996094 7.632812 C 4.964844 7.609375 4.9375 7.589844 4.90625 7.566406 C 4.886719 7.554688 4.867188 7.535156 4.847656 7.519531 C 4.820312 7.496094 4.789062 7.46875 4.765625 7.445312 C 4.746094 7.425781 4.726562 7.40625 4.707031 7.386719 C 4.683594 7.359375 4.65625 7.335938 4.632812 7.308594 C 4.613281 7.285156 4.597656 7.265625 4.582031 7.242188 C 4.558594 7.214844 4.539062 7.1875 4.519531 7.160156 C 4.5 7.132812 4.484375 7.105469 4.46875 7.078125 C 4.453125 7.058594 4.441406 7.039062 4.429688 7.019531 L 4.40625 6.980469 Z M 7.210938 4.554688 C 7.21875 4.5625 7.226562 4.566406 7.238281 4.574219 C 7.257812 4.589844 7.277344 4.605469 7.296875 4.625 C 7.324219 4.648438 7.351562 4.671875 7.378906 4.699219 C 7.398438 4.714844 7.417969 4.734375 7.4375 4.757812 C 7.460938 4.78125 7.484375 4.808594 7.511719 4.835938 C 7.527344 4.859375 7.542969 4.878906 7.5625 4.898438 C 7.582031 4.925781 7.601562 4.957031 7.621094 4.984375 C 7.640625 5.007812 7.660156 5.035156 7.675781 5.0625 C 7.691406 5.082031 7.699219 5.101562 7.714844 5.121094 C 7.71875 5.132812 7.722656 5.136719 7.726562 5.144531 C 7.734375 5.160156 7.742188 5.175781 7.75 5.191406 C 7.765625 5.21875 7.78125 5.253906 7.796875 5.285156 C 7.808594 5.316406 7.824219 5.347656 7.835938 5.378906 C 7.847656 5.40625 7.855469 5.429688 7.867188 5.457031 C 7.875 5.492188 7.886719 5.523438 7.894531 5.558594 C 7.90625 5.585938 7.910156 5.617188 7.917969 5.648438 C 7.925781 5.679688 7.933594 5.707031 7.9375 5.738281 C 7.945312 5.769531 7.945312 5.800781 7.953125 5.832031 C 7.953125 5.847656 7.957031 5.863281 7.960938 5.882812 C 7.960938 5.898438 7.960938 5.914062 7.960938 5.929688 C 7.964844 5.960938 7.964844 5.988281 7.964844 6.015625 C 7.964844 6.035156 7.96875 6.050781 7.96875 6.070312 L 7.96875 9.351562 C 9.140625 8.675781 9.863281 7.425781 9.867188 6.070312 C 9.863281 5.550781 9.753906 5.03125 9.546875 4.554688 Z M 7.210938 4.554688 "/>
</g>
</svg>
