<?xml version="1.0" encoding="UTF-8"?>
<svg xmlns="http://www.w3.org/2000/svg" xmlns:xlink="http://www.w3.org/1999/xlink" width="12pt" height="12pt" viewBox="0 0 12 12" version="1.1">
<g id="surface1">
<path style=" stroke:none;fill-rule:evenodd;fill:rgb(80%,80%,80%);fill-opacity:1;" d="M 2.835938 0.71875 L 9.308594 0.71875 C 10.472656 0.71875 11.421875 1.667969 11.421875 2.835938 L 11.421875 9.308594 C 11.421875 10.472656 10.472656 11.421875 9.308594 11.421875 L 2.835938 11.421875 C 1.667969 11.421875 0.71875 10.472656 0.71875 9.308594 L 0.71875 2.835938 C 0.71875 1.667969 1.667969 0.71875 2.835938 0.71875 Z M 2.835938 0.71875 "/>
<path style=" stroke:none;fill-rule:evenodd;fill:rgb(80%,80%,80%);fill-opacity:1;" d="M 2.632812 11.382812 C 2.511719 11.355469 2.390625 11.324219 2.269531 11.289062 C 2.152344 11.253906 2.03125 11.207031 1.914062 11.15625 C 1.855469 11.132812 1.800781 11.105469 1.742188 11.078125 C 2.007812 11.242188 2.304688 11.351562 2.632812 11.382812 Z M 2.632812 11.382812 "/>
<path style=" stroke:none;fill-rule:evenodd;fill:rgb(80%,80%,80%);fill-opacity:1;" d="M 2.894531 11.421875 C 2.816406 11.410156 2.730469 11.402344 2.652344 11.386719 C 2.714844 11.390625 2.769531 11.421875 2.835938 11.421875 Z M 2.894531 11.421875 "/>
<path style=" stroke:none;fill-rule:evenodd;fill:rgb(80%,80%,80%);fill-opacity:1;" d="M 4.9375 4.140625 C 4.925781 4.261719 4.917969 4.382812 4.917969 4.507812 C 4.917969 4.59375 4.921875 4.6875 4.929688 4.777344 C 4.9375 4.90625 4.953125 5.03125 4.976562 5.15625 C 4.996094 5.28125 5.023438 5.40625 5.058594 5.53125 C 5.09375 5.652344 5.132812 5.773438 5.179688 5.890625 C 5.226562 6.011719 5.277344 6.128906 5.335938 6.242188 C 5.394531 6.351562 5.457031 6.464844 5.523438 6.570312 C 5.59375 6.679688 5.667969 6.78125 5.746094 6.882812 C 5.824219 6.980469 5.910156 7.078125 6 7.167969 C 6.089844 7.261719 6.183594 7.347656 6.28125 7.429688 C 6.378906 7.511719 6.480469 7.589844 6.585938 7.660156 C 6.6875 7.734375 6.796875 7.796875 6.910156 7.859375 C 7.007812 7.914062 7.105469 7.960938 7.203125 8.003906 C 7.21875 7.882812 7.222656 7.757812 7.222656 7.636719 C 7.222656 7.546875 7.222656 7.457031 7.214844 7.367188 C 7.203125 7.242188 7.191406 7.113281 7.167969 6.988281 C 7.144531 6.859375 7.117188 6.738281 7.085938 6.617188 C 7.050781 6.492188 7.007812 6.371094 6.964844 6.253906 C 6.917969 6.132812 6.867188 6.019531 6.808594 5.902344 C 6.75 5.789062 6.683594 5.679688 6.617188 5.570312 C 6.546875 5.464844 6.472656 5.359375 6.394531 5.261719 C 6.316406 5.160156 6.234375 5.066406 6.144531 4.976562 C 6.054688 4.882812 5.960938 4.796875 5.863281 4.710938 C 5.765625 4.632812 5.664062 4.554688 5.558594 4.484375 C 5.453125 4.410156 5.347656 4.34375 5.234375 4.28125 C 5.136719 4.230469 5.039062 4.183594 4.9375 4.140625 Z M 4.9375 4.140625 "/>
<path style=" stroke:none;fill-rule:evenodd;fill:rgb(80%,80%,80%);fill-opacity:1;" d="M 3.441406 3.816406 C 3.429688 3.816406 3.414062 3.816406 3.402344 3.8125 C 3.3125 3.8125 3.21875 3.816406 3.128906 3.824219 C 3.003906 3.832031 2.875 3.851562 2.75 3.871094 C 2.625 3.890625 2.503906 3.921875 2.378906 3.953125 C 2.257812 3.988281 2.132812 4.027344 2.015625 4.074219 C 1.898438 4.121094 1.78125 4.175781 1.667969 4.230469 C 1.554688 4.289062 1.441406 4.351562 1.335938 4.417969 C 1.226562 4.488281 1.125 4.566406 1.023438 4.644531 C 0.925781 4.722656 0.828125 4.808594 0.738281 4.894531 C 0.730469 4.902344 0.726562 4.90625 0.71875 4.914062 L 0.71875 9.308594 C 0.71875 10.070312 1.140625 10.703125 1.742188 11.078125 C 1.800781 11.105469 1.855469 11.132812 1.914062 11.15625 C 2.03125 11.207031 2.152344 11.253906 2.269531 11.289062 C 2.390625 11.324219 2.511719 11.355469 2.632812 11.382812 C 2.640625 11.382812 2.644531 11.382812 2.652344 11.386719 C 2.730469 11.402344 2.816406 11.410156 2.894531 11.421875 L 3.902344 11.421875 C 3.949219 11.417969 4 11.410156 4.050781 11.402344 C 4.175781 11.382812 4.300781 11.355469 4.425781 11.320312 C 4.546875 11.285156 4.667969 11.246094 4.785156 11.199219 C 4.90625 11.152344 5.023438 11.101562 5.136719 11.042969 C 5.25 10.984375 5.359375 10.921875 5.464844 10.855469 C 5.574219 10.785156 5.679688 10.710938 5.777344 10.628906 C 5.875 10.550781 5.972656 10.46875 6.066406 10.378906 C 6.15625 10.289062 6.242188 10.199219 6.324219 10.101562 C 6.40625 10.003906 6.484375 9.898438 6.558594 9.796875 C 6.625 9.691406 6.695312 9.585938 6.753906 9.472656 C 6.605469 9.414062 6.460938 9.347656 6.3125 9.273438 C 6.15625 9.195312 6 9.105469 5.851562 9.007812 C 5.699219 8.910156 5.554688 8.808594 5.414062 8.695312 C 5.277344 8.589844 5.140625 8.46875 5.015625 8.34375 C 4.886719 8.21875 4.761719 8.089844 4.648438 7.953125 C 4.535156 7.816406 4.425781 7.675781 4.324219 7.527344 C 4.222656 7.378906 4.128906 7.230469 4.046875 7.070312 C 3.960938 6.914062 3.882812 6.753906 3.8125 6.589844 C 3.742188 6.425781 3.679688 6.257812 3.628906 6.089844 C 3.578125 5.917969 3.53125 5.746094 3.496094 5.570312 C 3.460938 5.394531 3.433594 5.21875 3.417969 5.039062 C 3.398438 4.863281 3.390625 4.683594 3.390625 4.507812 C 3.390625 4.378906 3.394531 4.253906 3.402344 4.125 C 3.414062 4.023438 3.425781 3.921875 3.441406 3.816406 Z M 3.441406 3.816406 "/>
<path style=" stroke:none;fill-rule:evenodd;fill:rgb(48.235294%,76.862745%,31.372549%);fill-opacity:1;" d="M 3.441406 3.816406 C 3.425781 3.921875 3.414062 4.023438 3.402344 4.125 C 3.394531 4.253906 3.390625 4.378906 3.390625 4.507812 C 3.390625 4.683594 3.398438 4.863281 3.417969 5.039062 C 3.433594 5.21875 3.460938 5.394531 3.496094 5.570312 C 3.53125 5.746094 3.578125 5.917969 3.628906 6.089844 C 3.679688 6.257812 3.742188 6.425781 3.8125 6.589844 C 3.882812 6.753906 3.960938 6.914062 4.046875 7.070312 C 4.128906 7.230469 4.222656 7.378906 4.324219 7.527344 C 4.425781 7.675781 4.535156 7.816406 4.648438 7.953125 C 4.761719 8.089844 4.886719 8.21875 5.015625 8.34375 C 5.140625 8.46875 5.277344 8.589844 5.414062 8.695312 C 5.554688 8.808594 5.699219 8.910156 5.851562 9.007812 C 6 9.105469 6.15625 9.195312 6.3125 9.273438 C 6.460938 9.347656 6.605469 9.414062 6.753906 9.472656 C 6.753906 9.472656 6.753906 9.46875 6.753906 9.46875 C 6.816406 9.359375 6.871094 9.242188 6.921875 9.125 C 6.972656 9.007812 7.015625 8.890625 7.054688 8.765625 C 7.089844 8.644531 7.125 8.519531 7.148438 8.398438 C 7.148438 8.394531 7.148438 8.394531 7.148438 8.394531 C 7.171875 8.273438 7.191406 8.144531 7.203125 8.019531 C 7.203125 8.011719 7.203125 8.007812 7.203125 8.003906 C 7.105469 7.960938 7.007812 7.914062 6.910156 7.859375 C 6.796875 7.796875 6.6875 7.734375 6.585938 7.660156 C 6.480469 7.589844 6.378906 7.511719 6.28125 7.429688 C 6.183594 7.347656 6.089844 7.261719 6 7.167969 C 5.910156 7.078125 5.824219 6.980469 5.746094 6.882812 C 5.667969 6.78125 5.59375 6.679688 5.523438 6.570312 C 5.457031 6.464844 5.394531 6.351562 5.335938 6.242188 C 5.277344 6.128906 5.226562 6.011719 5.179688 5.890625 C 5.132812 5.773438 5.09375 5.652344 5.058594 5.53125 C 5.023438 5.40625 4.996094 5.28125 4.976562 5.15625 C 4.953125 5.03125 4.9375 4.90625 4.929688 4.777344 C 4.921875 4.6875 4.917969 4.59375 4.917969 4.507812 C 4.917969 4.382812 4.925781 4.261719 4.9375 4.140625 C 4.921875 4.132812 4.90625 4.125 4.890625 4.117188 C 4.890625 4.117188 4.886719 4.117188 4.886719 4.117188 C 4.769531 4.066406 4.652344 4.023438 4.53125 3.988281 C 4.410156 3.949219 4.285156 3.917969 4.160156 3.890625 C 4.035156 3.863281 3.910156 3.847656 3.785156 3.832031 C 3.667969 3.824219 3.554688 3.816406 3.441406 3.816406 Z M 3.441406 3.816406 "/>
<path style=" stroke:none;fill-rule:evenodd;fill:rgb(19.215686%,54.509804%,81.176471%);fill-opacity:1;" d="M 7.179688 11.421875 C 7.199219 11.402344 7.222656 11.382812 7.242188 11.363281 C 7.363281 11.238281 7.484375 11.101562 7.59375 10.960938 C 7.703125 10.824219 7.808594 10.679688 7.90625 10.527344 C 8.003906 10.378906 8.089844 10.222656 8.171875 10.0625 C 8.25 9.90625 8.324219 9.742188 8.390625 9.574219 C 8.453125 9.410156 8.511719 9.242188 8.558594 9.066406 C 8.605469 8.898438 8.644531 8.722656 8.675781 8.546875 C 8.707031 8.371094 8.726562 8.195312 8.738281 8.015625 C 8.746094 7.890625 8.753906 7.761719 8.753906 7.636719 C 8.753906 7.457031 8.746094 7.28125 8.726562 7.105469 C 8.707031 6.925781 8.683594 6.75 8.648438 6.574219 C 8.609375 6.398438 8.566406 6.226562 8.515625 6.054688 C 8.460938 5.882812 8.402344 5.71875 8.332031 5.550781 C 8.261719 5.386719 8.183594 5.230469 8.097656 5.074219 C 8.011719 4.914062 7.917969 4.761719 7.816406 4.613281 C 7.71875 4.46875 7.609375 4.324219 7.496094 4.191406 C 7.378906 4.054688 7.257812 3.921875 7.128906 3.796875 C 7 3.675781 6.867188 3.554688 6.726562 3.445312 C 6.585938 3.335938 6.441406 3.230469 6.292969 3.132812 C 6.144531 3.039062 5.988281 2.949219 5.828125 2.867188 C 5.667969 2.789062 5.507812 2.714844 5.339844 2.648438 C 5.171875 2.582031 5.003906 2.527344 4.832031 2.480469 C 4.660156 2.433594 4.488281 2.394531 4.3125 2.363281 C 4.136719 2.332031 3.957031 2.308594 3.78125 2.300781 C 3.65625 2.289062 3.527344 2.285156 3.402344 2.285156 C 3.222656 2.285156 3.042969 2.292969 2.867188 2.3125 C 2.691406 2.328125 2.515625 2.359375 2.339844 2.390625 C 2.164062 2.425781 1.988281 2.472656 1.820312 2.523438 C 1.648438 2.578125 1.480469 2.640625 1.316406 2.710938 C 1.152344 2.777344 0.992188 2.855469 0.835938 2.941406 C 0.796875 2.964844 0.757812 2.988281 0.71875 3.011719 L 0.71875 4.914062 C 0.726562 4.90625 0.730469 4.902344 0.738281 4.894531 C 0.828125 4.808594 0.925781 4.722656 1.023438 4.644531 C 1.125 4.566406 1.226562 4.488281 1.335938 4.417969 C 1.441406 4.351562 1.554688 4.289062 1.667969 4.230469 C 1.78125 4.175781 1.898438 4.121094 2.015625 4.074219 C 2.132812 4.027344 2.257812 3.988281 2.378906 3.953125 C 2.503906 3.921875 2.625 3.890625 2.75 3.871094 C 2.875 3.851562 3.003906 3.832031 3.128906 3.824219 C 3.21875 3.816406 3.3125 3.8125 3.402344 3.8125 C 3.53125 3.8125 3.65625 3.820312 3.785156 3.832031 C 3.910156 3.847656 4.035156 3.863281 4.160156 3.890625 C 4.285156 3.917969 4.410156 3.949219 4.53125 3.988281 C 4.652344 4.023438 4.769531 4.066406 4.886719 4.117188 C 4.886719 4.117188 4.890625 4.117188 4.890625 4.117188 C 5.007812 4.164062 5.121094 4.222656 5.234375 4.28125 C 5.347656 4.34375 5.453125 4.410156 5.558594 4.480469 C 5.664062 4.554688 5.765625 4.632812 5.863281 4.710938 C 5.960938 4.796875 6.054688 4.882812 6.144531 4.976562 C 6.234375 5.066406 6.316406 5.160156 6.394531 5.261719 C 6.472656 5.359375 6.546875 5.464844 6.617188 5.570312 C 6.683594 5.679688 6.75 5.789062 6.808594 5.902344 C 6.867188 6.019531 6.917969 6.132812 6.964844 6.253906 C 7.007812 6.371094 7.050781 6.492188 7.085938 6.617188 C 7.117188 6.738281 7.144531 6.859375 7.167969 6.988281 C 7.191406 7.113281 7.203125 7.242188 7.214844 7.367188 C 7.222656 7.457031 7.222656 7.546875 7.222656 7.636719 C 7.222656 7.765625 7.21875 7.890625 7.203125 8.019531 C 7.191406 8.144531 7.171875 8.273438 7.148438 8.394531 C 7.148438 8.394531 7.148438 8.394531 7.148438 8.398438 C 7.125 8.519531 7.089844 8.644531 7.054688 8.765625 C 7.015625 8.890625 6.972656 9.007812 6.921875 9.125 C 6.871094 9.242188 6.816406 9.359375 6.753906 9.46875 C 6.695312 9.582031 6.625 9.691406 6.558594 9.796875 C 6.484375 9.898438 6.40625 10.003906 6.324219 10.101562 C 6.242188 10.199219 6.15625 10.289062 6.066406 10.378906 C 5.972656 10.46875 5.875 10.550781 5.777344 10.628906 C 5.679688 10.710938 5.574219 10.785156 5.464844 10.855469 C 5.359375 10.921875 5.25 10.984375 5.136719 11.042969 C 5.023438 11.101562 4.90625 11.152344 4.785156 11.199219 C 4.667969 11.246094 4.546875 11.285156 4.425781 11.320312 C 4.300781 11.355469 4.175781 11.382812 4.050781 11.402344 C 4 11.410156 3.949219 11.417969 3.902344 11.421875 Z M 7.179688 11.421875 "/>
<path style=" stroke:none;fill-rule:evenodd;fill:rgb(80%,80%,80%);fill-opacity:1;" d="M 9.789062 0.816406 C 9.828125 0.824219 9.863281 0.835938 9.898438 0.84375 C 10.023438 0.882812 10.140625 0.925781 10.257812 0.976562 C 10.269531 0.980469 10.277344 0.984375 10.289062 0.992188 C 10.132812 0.90625 9.964844 0.859375 9.789062 0.816406 Z M 9.789062 0.816406 "/>
<path style=" stroke:none;fill-rule:evenodd;fill:rgb(80%,80%,80%);fill-opacity:1;" d="M 8.703125 8.316406 C 8.726562 8.316406 8.746094 8.320312 8.769531 8.320312 C 8.859375 8.320312 8.949219 8.316406 9.039062 8.308594 C 9.167969 8.300781 9.292969 8.285156 9.417969 8.265625 C 9.546875 8.242188 9.671875 8.214844 9.792969 8.179688 C 9.917969 8.148438 10.035156 8.105469 10.15625 8.0625 C 10.273438 8.011719 10.390625 7.964844 10.503906 7.90625 C 10.617188 7.847656 10.726562 7.78125 10.835938 7.714844 C 10.941406 7.644531 11.046875 7.570312 11.148438 7.492188 C 11.242188 7.417969 11.332031 7.335938 11.421875 7.25 L 11.421875 2.835938 C 11.421875 2.023438 10.953125 1.34375 10.289062 0.992188 C 10.277344 0.984375 10.269531 0.980469 10.257812 0.976562 C 10.140625 0.925781 10.023438 0.882812 9.898438 0.84375 C 9.863281 0.835938 9.828125 0.824219 9.789062 0.816406 C 9.632812 0.777344 9.476562 0.71875 9.308594 0.71875 L 8.207031 0.71875 C 8.179688 0.722656 8.148438 0.726562 8.121094 0.730469 C 7.992188 0.753906 7.871094 0.78125 7.75 0.816406 C 7.625 0.847656 7.503906 0.886719 7.386719 0.933594 C 7.265625 0.980469 7.148438 1.03125 7.035156 1.089844 C 6.921875 1.148438 6.8125 1.210938 6.703125 1.28125 C 6.597656 1.351562 6.492188 1.421875 6.394531 1.503906 C 6.292969 1.582031 6.195312 1.664062 6.109375 1.753906 C 6.109375 1.753906 6.109375 1.753906 6.105469 1.753906 C 6.015625 1.84375 5.929688 1.9375 5.84375 2.035156 C 5.765625 2.132812 5.6875 2.234375 5.613281 2.339844 C 5.542969 2.445312 5.476562 2.554688 5.414062 2.664062 C 5.414062 2.671875 5.410156 2.675781 5.410156 2.679688 C 5.550781 2.738281 5.691406 2.796875 5.828125 2.867188 C 5.988281 2.949219 6.144531 3.039062 6.292969 3.132812 C 6.441406 3.230469 6.585938 3.335938 6.726562 3.445312 C 6.867188 3.554688 7 3.675781 7.128906 3.796875 C 7.257812 3.921875 7.378906 4.054688 7.496094 4.191406 C 7.609375 4.324219 7.71875 4.46875 7.816406 4.613281 C 7.917969 4.761719 8.011719 4.914062 8.097656 5.074219 C 8.183594 5.230469 8.261719 5.386719 8.332031 5.550781 C 8.402344 5.71875 8.460938 5.882812 8.515625 6.054688 C 8.566406 6.226562 8.609375 6.398438 8.648438 6.574219 C 8.683594 6.75 8.707031 6.925781 8.726562 7.105469 C 8.746094 7.28125 8.753906 7.457031 8.753906 7.636719 C 8.753906 7.761719 8.746094 7.890625 8.738281 8.015625 C 8.730469 8.117188 8.71875 8.21875 8.703125 8.316406 Z M 8.703125 8.316406 "/>
<path style=" stroke:none;fill-rule:evenodd;fill:rgb(80%,80%,80%);fill-opacity:1;" d="M 8.277344 9.820312 C 8.246094 9.90625 8.207031 9.984375 8.171875 10.0625 C 8.089844 10.222656 8.003906 10.378906 7.90625 10.527344 C 7.808594 10.679688 7.703125 10.824219 7.59375 10.960938 C 7.484375 11.101562 7.363281 11.238281 7.242188 11.363281 C 7.222656 11.382812 7.199219 11.402344 7.179688 11.421875 L 9.308594 11.421875 C 10.480469 11.421875 11.421875 10.480469 11.421875 9.308594 L 11.421875 9.140625 C 11.394531 9.15625 11.363281 9.175781 11.335938 9.195312 C 11.179688 9.28125 11.019531 9.359375 10.855469 9.425781 C 10.6875 9.496094 10.523438 9.554688 10.351562 9.609375 C 10.179688 9.664062 10.007812 9.707031 9.832031 9.742188 C 9.65625 9.777344 9.480469 9.804688 9.304688 9.820312 C 9.125 9.839844 8.949219 9.847656 8.769531 9.847656 C 8.644531 9.847656 8.519531 9.84375 8.390625 9.835938 C 8.355469 9.832031 8.316406 9.828125 8.277344 9.820312 Z M 8.277344 9.820312 "/>
<path style=" stroke:none;fill-rule:evenodd;fill:rgb(48.235294%,76.862745%,31.372549%);fill-opacity:1;" d="M 8.277344 9.820312 C 8.316406 9.828125 8.355469 9.832031 8.390625 9.835938 C 8.519531 9.84375 8.644531 9.847656 8.769531 9.847656 C 8.949219 9.847656 9.125 9.839844 9.304688 9.820312 C 9.480469 9.804688 9.65625 9.777344 9.832031 9.742188 C 10.007812 9.707031 10.179688 9.664062 10.351562 9.609375 C 10.523438 9.554688 10.6875 9.496094 10.855469 9.425781 C 11.019531 9.359375 11.179688 9.28125 11.335938 9.195312 C 11.363281 9.175781 11.394531 9.15625 11.421875 9.140625 L 11.421875 7.25 C 11.332031 7.335938 11.242188 7.417969 11.148438 7.492188 C 11.046875 7.570312 10.941406 7.644531 10.835938 7.714844 C 10.726562 7.78125 10.617188 7.847656 10.503906 7.90625 C 10.390625 7.964844 10.273438 8.011719 10.15625 8.0625 C 10.035156 8.105469 9.917969 8.148438 9.792969 8.179688 C 9.671875 8.214844 9.546875 8.242188 9.417969 8.265625 C 9.292969 8.285156 9.167969 8.300781 9.039062 8.308594 C 8.949219 8.316406 8.859375 8.320312 8.769531 8.320312 C 8.746094 8.320312 8.726562 8.316406 8.703125 8.316406 C 8.695312 8.394531 8.6875 8.472656 8.675781 8.546875 C 8.644531 8.722656 8.605469 8.898438 8.558594 9.066406 C 8.511719 9.242188 8.453125 9.410156 8.390625 9.574219 C 8.355469 9.660156 8.316406 9.742188 8.277344 9.820312 Z M 8.277344 9.820312 "/>
<path style=" stroke:none;fill-rule:evenodd;fill:rgb(80%,80%,80%);fill-opacity:1;" d="M 4.984375 0.71875 L 2.835938 0.71875 C 1.664062 0.71875 0.71875 1.664062 0.71875 2.835938 L 0.71875 3.011719 C 0.757812 2.988281 0.796875 2.964844 0.835938 2.941406 C 0.992188 2.855469 1.152344 2.777344 1.316406 2.710938 C 1.480469 2.640625 1.648438 2.578125 1.820312 2.523438 C 1.988281 2.472656 2.164062 2.425781 2.339844 2.390625 C 2.515625 2.359375 2.691406 2.328125 2.867188 2.3125 C 3.042969 2.292969 3.222656 2.285156 3.402344 2.285156 C 3.527344 2.285156 3.65625 2.289062 3.78125 2.300781 C 3.816406 2.300781 3.851562 2.308594 3.890625 2.3125 C 3.925781 2.230469 3.960938 2.152344 4 2.070312 C 4.082031 1.910156 4.171875 1.753906 4.265625 1.605469 C 4.363281 1.457031 4.46875 1.3125 4.578125 1.171875 C 4.6875 1.03125 4.808594 0.894531 4.929688 0.765625 C 4.945312 0.753906 4.964844 0.738281 4.984375 0.71875 Z M 4.984375 0.71875 "/>
<path style=" stroke:none;fill-rule:evenodd;fill:rgb(48.235294%,76.862745%,31.372549%);fill-opacity:1;" d="M 4.984375 0.71875 C 4.964844 0.738281 4.945312 0.753906 4.929688 0.765625 C 4.808594 0.894531 4.6875 1.03125 4.578125 1.171875 C 4.46875 1.3125 4.363281 1.457031 4.265625 1.605469 C 4.171875 1.753906 4.082031 1.910156 4 2.070312 C 3.960938 2.152344 3.925781 2.230469 3.890625 2.3125 C 4.03125 2.324219 4.171875 2.339844 4.3125 2.363281 C 4.488281 2.394531 4.660156 2.433594 4.832031 2.480469 C 5.003906 2.527344 5.171875 2.582031 5.339844 2.648438 C 5.363281 2.660156 5.386719 2.671875 5.410156 2.679688 C 5.410156 2.675781 5.414062 2.671875 5.414062 2.664062 C 5.476562 2.554688 5.542969 2.445312 5.613281 2.339844 C 5.6875 2.234375 5.765625 2.132812 5.84375 2.035156 C 5.929688 1.9375 6.015625 1.84375 6.105469 1.753906 C 6.109375 1.753906 6.109375 1.753906 6.109375 1.753906 C 6.195312 1.664062 6.292969 1.582031 6.394531 1.503906 C 6.492188 1.421875 6.597656 1.351562 6.703125 1.28125 C 6.8125 1.210938 6.921875 1.148438 7.035156 1.089844 C 7.148438 1.03125 7.265625 0.980469 7.386719 0.933594 C 7.503906 0.886719 7.625 0.847656 7.75 0.816406 C 7.871094 0.78125 7.992188 0.753906 8.121094 0.730469 C 8.148438 0.726562 8.179688 0.722656 8.207031 0.71875 Z M 4.984375 0.71875 "/>
</g>
</svg>
