<?xml version="1.0" encoding="UTF-8"?>
<svg xmlns="http://www.w3.org/2000/svg" xmlns:xlink="http://www.w3.org/1999/xlink" width="12pt" height="12pt" viewBox="0 0 12 12" version="1.1">
<g id="surface1">
<path style=" stroke:none;fill-rule:evenodd;fill:rgb(96.078431%,43.137255%,17.254902%);fill-opacity:1;" d="M 2.835938 0.71875 L 9.308594 0.71875 C 10.472656 0.71875 11.421875 1.667969 11.421875 2.835938 L 11.421875 9.308594 C 11.421875 10.472656 10.472656 11.421875 9.308594 11.421875 L 2.835938 11.421875 C 1.667969 11.421875 0.71875 10.472656 0.71875 9.308594 L 0.71875 2.835938 C 0.71875 1.667969 1.667969 0.71875 2.835938 0.71875 Z M 2.835938 0.71875 "/>
<path style=" stroke:none;fill-rule:nonzero;fill:rgb(100%,100%,100%);fill-opacity:1;" d="M 9.214844 5.691406 C 9.117188 4.917969 8.726562 4.210938 8.117188 3.71875 C 7.992188 3.765625 7.863281 3.792969 7.726562 3.792969 C 7.246094 3.792969 6.835938 3.492188 6.667969 3.070312 C 6.515625 3.050781 6.363281 3.035156 6.207031 3.035156 C 5.804688 3.035156 5.402344 3.117188 5.027344 3.273438 L 5.605469 4.273438 C 5.800781 4.207031 6 4.175781 6.207031 4.175781 C 7.105469 4.175781 7.886719 4.808594 8.0625 5.691406 Z M 9.214844 6.449219 L 8.066406 6.449219 C 7.886719 7.335938 7.109375 7.96875 6.207031 7.96875 C 6 7.96875 5.800781 7.933594 5.605469 7.867188 L 5.03125 8.867188 C 5.402344 9.023438 5.804688 9.105469 6.207031 9.105469 C 6.363281 9.105469 6.519531 9.09375 6.671875 9.066406 C 6.839844 8.648438 7.25 8.347656 7.722656 8.347656 C 7.863281 8.347656 7.992188 8.375 8.121094 8.421875 C 8.726562 7.933594 9.117188 7.222656 9.214844 6.449219 Z M 8.484375 2.65625 C 8.484375 2.238281 8.144531 1.898438 7.726562 1.898438 C 7.304688 1.898438 6.96875 2.238281 6.96875 2.65625 C 6.96875 3.074219 7.304688 3.414062 7.726562 3.414062 C 8.144531 3.414062 8.484375 3.074219 8.484375 2.65625 Z M 8.484375 9.488281 C 8.484375 9.066406 8.144531 8.726562 7.726562 8.726562 C 7.304688 8.726562 6.96875 9.066406 6.96875 9.488281 C 6.96875 9.90625 7.304688 10.246094 7.726562 10.246094 C 8.144531 10.246094 8.484375 9.90625 8.484375 9.488281 Z M 4.949219 4.652344 L 4.375 3.65625 C 3.824219 4.074219 3.433594 4.664062 3.265625 5.328125 C 3.441406 5.53125 3.550781 5.785156 3.550781 6.070312 C 3.550781 6.351562 3.441406 6.613281 3.265625 6.8125 C 3.433594 7.480469 3.824219 8.070312 4.371094 8.488281 L 4.949219 7.488281 C 4.542969 7.132812 4.3125 6.617188 4.3125 6.070312 C 4.3125 5.53125 4.542969 5.015625 4.949219 4.652344 Z M 3.171875 6.070312 C 3.171875 5.652344 2.832031 5.3125 2.414062 5.3125 C 1.992188 5.3125 1.65625 5.652344 1.65625 6.070312 C 1.65625 6.488281 1.992188 6.832031 2.414062 6.832031 C 2.832031 6.832031 3.171875 6.488281 3.171875 6.070312 Z M 3.171875 6.070312 "/>
</g>
</svg>
