<?xml version="1.0" encoding="UTF-8"?>
<svg xmlns="http://www.w3.org/2000/svg" xmlns:xlink="http://www.w3.org/1999/xlink" width="12pt" height="12pt" viewBox="0 0 12 12" version="1.1">
<g id="surface1">
<path style=" stroke:none;fill-rule:evenodd;fill:rgb(38.431373%,58.823529%,100%);fill-opacity:1;" d="M 2.835938 0.71875 L 9.308594 0.71875 C 10.472656 0.71875 11.421875 1.667969 11.421875 2.835938 L 11.421875 9.308594 C 11.421875 10.472656 10.472656 11.421875 9.308594 11.421875 L 2.835938 11.421875 C 1.667969 11.421875 0.71875 10.472656 0.71875 9.308594 L 0.71875 2.835938 C 0.71875 1.667969 1.667969 0.71875 2.835938 0.71875 Z M 2.835938 0.71875 "/>
<path style=" stroke:none;fill-rule:nonzero;fill:rgb(90.196078%,90.196078%,90.196078%);fill-opacity:1;" d="M 7.386719 4.117188 C 7.035156 3.769531 6.5 3.742188 6.1875 4.058594 L 3.625 6.617188 C 3.414062 6.828125 3.25 6.992188 3.339844 7.28125 L 2.390625 8.226562 C 2.074219 8.542969 2.230469 9.203125 2.582031 9.554688 C 2.933594 9.90625 3.59375 10.058594 3.910156 9.742188 L 4.859375 8.796875 C 5.144531 8.886719 5.308594 8.722656 5.523438 8.511719 L 8.082031 5.953125 C 8.394531 5.636719 8.367188 5.101562 8.019531 4.75 Z M 7.386719 4.117188 "/>
<path style=" stroke:none;fill-rule:nonzero;fill:rgb(100%,73.72549%,28.235294%);fill-opacity:1;" d="M 9.28125 2.613281 L 9.535156 2.867188 C 10.09375 3.421875 10.035156 4.386719 9.410156 5.015625 L 8.269531 6.152344 C 7.640625 6.78125 6.679688 6.839844 6.121094 6.28125 L 5.867188 6.027344 C 5.308594 5.46875 5.367188 4.507812 5.996094 3.878906 L 7.132812 2.738281 C 7.761719 2.113281 8.726562 2.054688 9.28125 2.613281 Z M 9.28125 2.613281 "/>
<path style=" stroke:none;fill-rule:nonzero;fill:rgb(100%,73.72549%,28.235294%);fill-opacity:1;" d="M 5.378906 3.640625 L 8.507812 6.769531 C 8.589844 6.847656 8.578125 6.984375 8.492188 7.070312 L 7.859375 7.699219 C 7.773438 7.789062 7.640625 7.796875 7.5625 7.71875 L 4.429688 4.589844 C 4.351562 4.507812 4.359375 4.375 4.449219 4.289062 L 5.078125 3.65625 C 5.167969 3.570312 5.300781 3.5625 5.378906 3.640625 Z M 5.378906 3.640625 "/>
<path style=" stroke:none;fill-rule:nonzero;fill:rgb(38.431373%,58.823529%,100%);fill-opacity:1;" d="M 5.238281 6.910156 C 5.445312 7.121094 5.488281 7.417969 5.332031 7.574219 L 3.625 9.28125 C 3.46875 9.4375 3.167969 9.398438 2.960938 9.1875 C 2.75 8.980469 2.710938 8.679688 2.867188 8.523438 L 4.574219 6.816406 C 4.730469 6.660156 5.027344 6.703125 5.238281 6.910156 Z M 5.238281 6.910156 "/>
</g>
</svg>
