<?xml version="1.0" encoding="UTF-8"?>
<svg xmlns="http://www.w3.org/2000/svg" xmlns:xlink="http://www.w3.org/1999/xlink" width="12pt" height="12pt" viewBox="0 0 12 12" version="1.1">
<defs>
<clipPath id="clip1">
  <rect width="12" height="12"/>
</clipPath>
<g id="surface6" clip-path="url(#clip1)">
<path style=" stroke:none;fill-rule:nonzero;fill:rgb(100%,100%,100%);fill-opacity:1;" d="M 6.824219 8.027344 L 6.824219 8.695312 L 7.492188 8.695312 L 9.179688 7.007812 L 8.511719 6.339844 Z M 9.773438 6.417969 C 9.84375 6.347656 9.84375 6.234375 9.773438 6.164062 L 9.355469 5.746094 C 9.285156 5.675781 9.171875 5.675781 9.101562 5.746094 L 8.753906 6.097656 L 9.421875 6.765625 Z M 9.773438 6.417969 "/>
</g>
</defs>
<g id="surface1">
<path style=" stroke:none;fill-rule:evenodd;fill:rgb(64.705882%,34.901961%,83.921569%);fill-opacity:1;" d="M 2.800781 0.710938 L 9.199219 0.710938 C 10.351562 0.710938 11.289062 1.648438 11.289062 2.800781 L 11.289062 9.199219 C 11.289062 10.351562 10.351562 11.289062 9.199219 11.289062 L 2.800781 11.289062 C 1.648438 11.289062 0.710938 10.351562 0.710938 9.199219 L 0.710938 2.800781 C 0.710938 1.648438 1.648438 0.710938 2.800781 0.710938 Z M 2.800781 0.710938 "/>
<path style=" stroke:none;fill-rule:nonzero;fill:rgb(97.647059%,97.647059%,97.647059%);fill-opacity:1;" d="M 4.277344 3.296875 C 3.449219 3.296875 2.777344 3.96875 2.777344 4.796875 C 2.777344 5.628906 3.449219 6.300781 4.277344 6.300781 C 5.109375 6.300781 5.78125 5.628906 5.78125 4.796875 C 5.78125 3.96875 5.109375 3.296875 4.277344 3.296875 Z M 2.175781 8.703125 L 6.382812 8.703125 C 6.382812 7.203125 5.480469 6.902344 4.28125 6.902344 C 3.078125 6.902344 2.175781 7.203125 2.175781 8.703125 Z M 2.175781 8.703125 "/>
<use xlink:href="#surface6"/>
</g>
</svg>
