<?xml version="1.0" encoding="UTF-8"?>
<svg xmlns="http://www.w3.org/2000/svg" xmlns:xlink="http://www.w3.org/1999/xlink" width="12pt" height="12pt" viewBox="0 0 12 12" version="1.1">
<g id="surface1">
<path style=" stroke:none;fill-rule:evenodd;fill:rgb(92.54902%,92.54902%,92.54902%);fill-opacity:1;" d="M 2.800781 0.710938 L 9.199219 0.710938 C 10.351562 0.710938 11.289062 1.648438 11.289062 2.800781 L 11.289062 9.199219 C 11.289062 10.351562 10.351562 11.289062 9.199219 11.289062 L 2.800781 11.289062 C 1.648438 11.289062 0.710938 10.351562 0.710938 9.199219 L 0.710938 2.800781 C 0.710938 1.648438 1.648438 0.710938 2.800781 0.710938 Z M 2.800781 0.710938 "/>
<path style=" stroke:none;fill-rule:nonzero;fill:rgb(10.588235%,66.27451%,79.607843%);fill-opacity:1;" d="M 5 9.136719 L 3.859375 5.429688 L 2.007812 5.714844 L 3.433594 4.574219 L 4.289062 4.859375 L 5.429688 7.710938 L 7.855469 6.285156 L 8.566406 6.429688 L 9.992188 9.136719 L 5.714844 8.710938 Z M 7.285156 5.714844 L 9.136719 2.863281 L 8.28125 6.144531 Z M 7.285156 5.714844 "/>
<path style=" stroke:none;fill-rule:nonzero;fill:rgb(90.196078%,34.901961%,0.784314%);fill-opacity:1;" d="M 5.570312 7.425781 L 5.144531 6.429688 L 6.285156 5.714844 L 6.855469 5.714844 L 7.570312 6.285156 Z M 5.570312 7.425781 "/>
</g>
</svg>
