<?xml version="1.0" encoding="UTF-8"?>
<svg xmlns="http://www.w3.org/2000/svg" xmlns:xlink="http://www.w3.org/1999/xlink" width="12pt" height="12pt" viewBox="0 0 12 12" version="1.1">
<g id="surface1">
<path style=" stroke:none;fill-rule:evenodd;fill:rgb(98.431373%,40%,31.764706%);fill-opacity:1;" d="M 2.800781 0.710938 L 9.199219 0.710938 C 10.351562 0.710938 11.289062 1.648438 11.289062 2.800781 L 11.289062 9.199219 C 11.289062 10.351562 10.351562 11.289062 9.199219 11.289062 L 2.800781 11.289062 C 1.648438 11.289062 0.710938 10.351562 0.710938 9.199219 L 0.710938 2.800781 C 0.710938 1.648438 1.648438 0.710938 2.800781 0.710938 Z M 2.800781 0.710938 "/>
<path style=" stroke:none;fill-rule:evenodd;fill:rgb(100%,100%,100%);fill-opacity:1;" d="M 5.398438 3.757812 C 5.398438 3.757812 5.300781 3.753906 5.261719 3.761719 C 4.316406 3.753906 3.789062 4.785156 3.324219 5.363281 C 3.121094 5.617188 2.957031 5.820312 2.957031 5.820312 C 2.601562 6.1875 2.113281 6.570312 1.710938 6.800781 C 1.730469 6.933594 1.753906 7.066406 1.78125 7.199219 C 1.933594 7.132812 2.109375 7.066406 2.183594 7.011719 C 2.578125 6.691406 3.269531 6.175781 3.339844 6.175781 C 3.410156 6.175781 3.53125 6.148438 3.582031 6.320312 C 3.632812 6.496094 3.515625 6.707031 3.515625 6.707031 C 3.515625 6.707031 3.363281 6.96875 3.367188 7.113281 C 3.441406 7.628906 3.859375 8.148438 4.285156 8.222656 C 4.589844 8.261719 5.042969 8.234375 5.042969 8.234375 L 5.050781 8.160156 C 5.039062 8.042969 4.800781 7.992188 4.800781 7.992188 C 4.800781 7.992188 4.496094 8.050781 4.367188 7.988281 C 4.144531 7.886719 3.882812 7.484375 3.882812 7.433594 C 3.882812 7.382812 3.957031 7.15625 3.957031 7.15625 C 3.957031 7.15625 4.203125 7.1875 4.285156 7.1875 C 4.367188 7.1875 4.578125 7.199219 4.578125 7.199219 L 4.734375 7.441406 C 4.785156 7.539062 4.847656 7.492188 4.929688 7.511719 L 5.28125 7.515625 L 5.523438 7.511719 L 5.523438 7.386719 C 5.523438 7.511719 5.523438 7.269531 5.367188 7.265625 C 5.230469 7.261719 5.050781 7.242188 5.035156 7.195312 C 5.011719 7.113281 5.046875 6.902344 5.046875 6.902344 C 5.046875 6.902344 5.222656 6.816406 5.59375 6.890625 C 5.964844 6.964844 6.386719 7.269531 6.386719 7.269531 C 6.277344 7.464844 6.183594 7.507812 6.164062 7.707031 C 6.144531 7.890625 6.144531 7.890625 6.261719 7.890625 L 6.832031 7.890625 C 6.832031 7.890625 6.832031 7.648438 6.667969 7.660156 C 6.554688 7.65625 6.492188 7.652344 6.492188 7.640625 C 6.492188 7.597656 6.710938 7.402344 6.710938 7.402344 L 6.863281 7.292969 C 6.863281 7.292969 7.082031 7.4375 7.359375 7.507812 C 7.636719 7.578125 7.984375 7.542969 7.984375 7.542969 C 8.09375 7.609375 8.113281 7.664062 8.167969 7.757812 C 8.210938 7.925781 8.210938 7.890625 8.304688 7.894531 C 8.507812 7.898438 8.683594 7.890625 8.882812 7.875 C 8.882812 7.875 8.898438 7.648438 8.566406 7.648438 C 8.566406 7.648438 8.445312 7.574219 8.421875 7.457031 C 8.398438 7.34375 8.414062 7.042969 8.414062 7.042969 L 8.578125 7.027344 L 8.796875 7.214844 L 8.929688 7.226562 L 9.117188 7.527344 C 9.117188 7.527344 9.492188 7.558594 9.617188 7.507812 C 9.742188 7.460938 9.96875 7.335938 10.101562 7.191406 C 10.234375 7.050781 10.320312 6.714844 10.277344 6.523438 C 10.230469 6.335938 9.988281 6.109375 9.988281 6.109375 C 9.46875 5.617188 8.660156 4.792969 8.15625 4.789062 C 8.078125 4.789062 7.878906 4.976562 7.761719 4.894531 C 7.042969 4.398438 6.257812 3.792969 5.398438 3.757812 Z M 8.898438 5.824219 C 9.089844 5.824219 9.246094 5.976562 9.246094 6.167969 C 9.246094 6.355469 9.089844 6.511719 8.898438 6.511719 C 8.710938 6.511719 8.554688 6.359375 8.554688 6.167969 C 8.554688 5.976562 8.710938 5.824219 8.898438 5.824219 Z M 8.898438 5.824219 "/>
</g>
</svg>
