<?xml version="1.0" encoding="UTF-8"?>
<svg xmlns="http://www.w3.org/2000/svg" xmlns:xlink="http://www.w3.org/1999/xlink" width="12pt" height="12pt" viewBox="0 0 12 12" version="1.1">
<g id="surface1">
<path style=" stroke:none;fill-rule:evenodd;fill:rgb(68.235294%,33.72549%,34.117647%);fill-opacity:1;" d="M 2.800781 0.710938 L 9.199219 0.710938 C 10.351562 0.710938 11.289062 1.648438 11.289062 2.800781 L 11.289062 9.199219 C 11.289062 10.351562 10.351562 11.289062 9.199219 11.289062 L 2.800781 11.289062 C 1.648438 11.289062 0.710938 10.351562 0.710938 9.199219 L 0.710938 2.800781 C 0.710938 1.648438 1.648438 0.710938 2.800781 0.710938 Z M 2.800781 0.710938 "/>
<path style=" stroke:none;fill-rule:nonzero;fill:rgb(91.372549%,85.098039%,74.509804%);fill-opacity:1;" d="M 6.875 6.730469 C 7.46875 6.335938 9.125 6.625 10.117188 5.636719 C 9.683594 5.464844 9.4375 5.183594 9.109375 4.949219 C 7.730469 5.003906 6.335938 5.046875 6.148438 5.707031 Z M 6.875 6.730469 "/>
<path style=" stroke:none;fill-rule:nonzero;fill:rgb(47.45098%,19.215686%,16.862745%);fill-opacity:1;" d="M 7.113281 8.355469 L 10.359375 7.164062 C 10.445312 7.125 10.394531 7.085938 10.402344 7.082031 L 9.757812 6.335938 L 6.699219 7.171875 L 6.65625 7.976562 C 6.78125 8.109375 6.773438 8.269531 7.113281 8.355469 Z M 7.113281 8.355469 "/>
<path style=" stroke:none;fill-rule:nonzero;fill:rgb(83.137255%,73.333333%,60.784314%);fill-opacity:1;" d="M 6.875 6.730469 C 6.574219 7.703125 6.664062 8.042969 6.960938 8.285156 L 7.113281 8.253906 L 10.097656 7.082031 C 9.652344 6.785156 9.71875 6.28125 10.117188 5.636719 C 9.820312 5.84375 9.707031 5.96875 9.28125 6.054688 C 9.132812 6.082031 8.691406 6.042969 8.402344 6.203125 C 8.273438 6.273438 8.140625 6.371094 7.976562 6.386719 C 7.640625 6.421875 7.039062 6.539062 6.875 6.730469 Z M 6.875 6.730469 "/>
<path style=" stroke:none;fill-rule:nonzero;fill:rgb(14.509804%,0%,0%);fill-opacity:1;" d="M 6.898438 6.671875 C 6.691406 7.4375 6.582031 8.132812 7.113281 8.355469 C 7.011719 8.347656 6.984375 8.429688 6.75 8.273438 C 6.453125 7.941406 6.113281 7.472656 5.882812 7.355469 Z M 6.898438 6.671875 "/>
<path style=" stroke:none;fill-rule:nonzero;fill:rgb(47.843137%,19.215686%,16.862745%);fill-opacity:0.996078;" d="M 1.796875 6.125 C 1.734375 6.171875 1.730469 6.234375 1.769531 6.285156 L 3.859375 9.324219 C 3.917969 9.359375 4.027344 9.519531 4.121094 9.421875 C 4.347656 9.496094 6.164062 7.265625 6.898438 6.671875 L 3.679688 4.492188 Z M 1.796875 6.125 "/>
<path style=" stroke:none;fill-rule:nonzero;fill:rgb(83.137255%,73.333333%,60.784314%);fill-opacity:1;" d="M 1.992188 6.113281 C 1.929688 6.160156 1.925781 6.222656 1.964844 6.273438 L 3.90625 9.121094 C 3.964844 9.152344 4.074219 9.3125 4.167969 9.214844 C 4.386719 9.253906 5.917969 7.039062 6.898438 6.671875 L 3.875 4.480469 Z M 1.992188 6.113281 "/>
<path style=" stroke:none;fill-rule:nonzero;fill:rgb(43.137255%,5.490196%,1.176471%);fill-opacity:1;" d="M 7.601562 7.269531 C 8.332031 7.796875 7.914062 8.871094 8.445312 9.273438 L 8.492188 9.246094 L 8.5 8.855469 C 8.613281 8.917969 8.859375 9.035156 9.089844 9.054688 C 9.078125 9.046875 9.148438 9.035156 9.136719 9.027344 C 8.394531 8.488281 8.664062 7.574219 8.1875 7.019531 L 7.597656 7.203125 Z M 7.601562 7.269531 "/>
<path style=" stroke:none;fill-rule:nonzero;fill:rgb(90.588235%,21.568627%,8.627451%);fill-opacity:1;" d="M 7.597656 7.203125 C 8.402344 7.875 7.976562 8.871094 8.492188 9.246094 L 8.546875 8.828125 C 8.664062 8.890625 8.90625 9.003906 9.136719 9.027344 C 8.378906 8.460938 8.722656 7.558594 8.234375 6.988281 Z M 7.597656 7.203125 "/>
<path style=" stroke:none;fill-rule:nonzero;fill:rgb(94.901961%,91.764706%,81.960784%);fill-opacity:1;" d="M 1.914062 5.703125 C 3.242188 7.226562 3.558594 8.457031 4.066406 8.703125 C 4.183594 8.617188 4.253906 8.335938 4.621094 7.863281 C 4.90625 7.496094 5.210938 6.625 5.917969 6.695312 C 6.105469 6.714844 6.59375 6.667969 6.800781 6.660156 L 4.921875 4.855469 C 4.621094 4.265625 3.957031 3.441406 3.164062 4.351562 C 2.769531 4.835938 2.347656 5.390625 1.914062 5.703125 Z M 1.914062 5.703125 "/>
<path style=" stroke:none;fill-rule:nonzero;fill:rgb(100%,100%,100%);fill-opacity:1;" d="M 2.117188 5.050781 C 3.445312 6.574219 3.597656 7.238281 4.074219 8.140625 C 4.195312 8.054688 4.269531 7.996094 4.546875 7.46875 C 4.804688 6.988281 5.136719 6.371094 5.847656 6.445312 C 6.03125 6.464844 6.691406 6.683594 6.898438 6.671875 L 5.105469 4.304688 C 4.804688 3.714844 4.144531 2.890625 3.347656 3.800781 C 2.953125 4.285156 2.550781 4.738281 2.117188 5.050781 Z M 2.117188 5.050781 "/>
<path style=" stroke:none;fill-rule:nonzero;fill:rgb(100%,96.862745%,90.980392%);fill-opacity:1;" d="M 5.105469 4.304688 L 6.761719 6.667969 C 6.554688 6.273438 7.292969 5.714844 7.730469 5.613281 C 7.816406 5.59375 7.140625 5.273438 7.199219 5.21875 C 8.359375 5.78125 9.460938 5.546875 9.71875 5.203125 C 9.914062 4.9375 10.085938 5.066406 10.191406 4.972656 C 9.898438 4.863281 9.199219 4.40625 8.707031 4.140625 C 8.21875 3.871094 8.113281 3.066406 7.851562 2.890625 C 6.945312 4.097656 5.835938 2.972656 5.105469 4.304688 Z M 5.105469 4.304688 "/>
</g>
</svg>
