<?xml version="1.0" encoding="UTF-8"?>
<svg xmlns="http://www.w3.org/2000/svg" xmlns:xlink="http://www.w3.org/1999/xlink" width="12pt" height="12pt" viewBox="0 0 12 12" version="1.1">
<g id="surface1">
<path style=" stroke:none;fill-rule:evenodd;fill:rgb(55.686275%,55.686275%,55.686275%);fill-opacity:1;" d="M 2.800781 0.710938 L 9.199219 0.710938 C 10.351562 0.710938 11.289062 1.648438 11.289062 2.800781 L 11.289062 9.199219 C 11.289062 10.351562 10.351562 11.289062 9.199219 11.289062 L 2.800781 11.289062 C 1.648438 11.289062 0.710938 10.351562 0.710938 9.199219 L 0.710938 2.800781 C 0.710938 1.648438 1.648438 0.710938 2.800781 0.710938 Z M 2.800781 0.710938 "/>
<path style=" stroke:none;fill-rule:nonzero;fill:rgb(27.843137%,27.843137%,27.843137%);fill-opacity:1;" d="M 3.410156 3.027344 C 2.730469 3.027344 2.183594 3.574219 2.183594 4.253906 L 2.183594 7.511719 C 2.183594 8.191406 2.730469 8.742188 3.410156 8.742188 L 4.074219 8.742188 C 4.128906 9.15625 4.480469 9.476562 4.914062 9.476562 L 7.085938 9.476562 C 7.519531 9.476562 7.871094 9.15625 7.925781 8.742188 L 8.589844 8.742188 C 9.269531 8.742188 9.816406 8.191406 9.816406 7.511719 L 9.816406 4.253906 C 9.816406 3.574219 9.269531 3.027344 8.589844 3.027344 Z M 3.410156 3.027344 "/>
<path style=" stroke:none;fill-rule:nonzero;fill:rgb(13.72549%,13.72549%,13.72549%);fill-opacity:1;" d="M 3.457031 3.386719 L 8.542969 3.386719 C 9.058594 3.386719 9.472656 3.785156 9.472656 4.28125 L 9.472656 7.484375 C 9.472656 7.980469 9.058594 8.378906 8.542969 8.378906 L 3.457031 8.378906 C 2.941406 8.378906 2.527344 7.980469 2.527344 7.484375 L 2.527344 4.28125 C 2.527344 3.785156 2.941406 3.386719 3.457031 3.386719 Z M 3.457031 3.386719 "/>
</g>
</svg>
