<?xml version="1.0" encoding="UTF-8"?>
<svg xmlns="http://www.w3.org/2000/svg" xmlns:xlink="http://www.w3.org/1999/xlink" width="12pt" height="12pt" viewBox="0 0 12 12" version="1.1">
<defs>
<clipPath id="clip1">
  <rect width="12" height="12"/>
</clipPath>
<g id="surface6" clip-path="url(#clip1)">
<path style=" stroke:none;fill-rule:nonzero;fill:rgb(100%,100%,100%);fill-opacity:1;" d="M 7.808594 5.175781 L 7.480469 5.175781 L 7.480469 4.519531 L 7.808594 4.519531 L 7.808594 3.53125 L 8.796875 3.53125 L 8.796875 4.519531 L 9.453125 4.519531 L 9.453125 5.175781 L 8.796875 5.175781 L 8.796875 6.785156 C 8.796875 6.953125 8.828125 7.152344 9.289062 7.152344 L 9.453125 7.152344 L 9.453125 8.136719 C 9.453125 8.136719 8.402344 8.140625 8.402344 8.136719 C 7.984375 8.136719 7.808594 7.742188 7.808594 7.539062 C 7.808594 7.0625 7.808594 5.175781 7.808594 5.175781 Z M 7.808594 5.175781 "/>
</g>
<clipPath id="clip2">
  <rect width="12" height="12"/>
</clipPath>
<g id="surface9" clip-path="url(#clip2)">
<path style=" stroke:none;fill-rule:nonzero;fill:rgb(100%,100%,100%);fill-opacity:1;" d="M 3.496094 2.546875 C 3.019531 2.546875 2.546875 3.007812 2.546875 3.46875 L 2.546875 7.21875 C 2.546875 7.679688 3.019531 8.136719 3.496094 8.136719 L 4.46875 8.136719 C 4.484375 8.140625 4.503906 8.128906 4.519531 8.15625 L 4.519531 8.988281 C 4.519531 9.21875 4.808594 9.453125 4.996094 9.453125 C 4.996094 9.457031 6.164062 9.453125 6.164062 9.453125 L 6.164062 8.46875 L 5.945312 8.46875 C 5.46875 8.46875 5.507812 8.316406 5.507812 8.148438 C 5.507812 8.140625 5.503906 8.148438 5.503906 8.140625 C 5.503906 8.140625 5.507812 8.136719 5.507812 8.136719 L 5.871094 8.136719 C 6.347656 8.136719 6.820312 7.679688 6.820312 7.21875 L 6.820312 3.46875 C 6.820312 3.007812 6.347656 2.546875 5.871094 2.546875 Z M 4.222656 3.53125 L 5.144531 3.53125 C 5.527344 3.53125 5.835938 3.835938 5.835938 4.210938 L 5.835938 6.472656 C 5.835938 6.847656 5.527344 7.152344 5.144531 7.152344 L 4.222656 7.152344 C 3.839844 7.152344 3.53125 6.847656 3.53125 6.472656 L 3.53125 4.210938 C 3.53125 3.835938 3.839844 3.53125 4.222656 3.53125 Z M 4.222656 3.53125 "/>
</g>
</defs>
<g id="surface1">
<path style=" stroke:none;fill-rule:evenodd;fill:rgb(49.411765%,76.078431%,25.882353%);fill-opacity:1;" d="M 2.800781 0.710938 L 9.199219 0.710938 C 10.351562 0.710938 11.289062 1.648438 11.289062 2.800781 L 11.289062 9.199219 C 11.289062 10.351562 10.351562 11.289062 9.199219 11.289062 L 2.800781 11.289062 C 1.648438 11.289062 0.710938 10.351562 0.710938 9.199219 L 0.710938 2.800781 C 0.710938 1.648438 1.648438 0.710938 2.800781 0.710938 Z M 2.800781 0.710938 "/>
<use xlink:href="#surface6"/>
<use xlink:href="#surface9"/>
</g>
</svg>
