<?xml version="1.0" encoding="UTF-8"?>
<svg xmlns="http://www.w3.org/2000/svg" xmlns:xlink="http://www.w3.org/1999/xlink" width="12pt" height="12pt" viewBox="0 0 12 12" version="1.1">
<g id="surface1">
<path style=" stroke:none;fill-rule:evenodd;fill:rgb(0%,32.941176%,100%);fill-opacity:1;" d="M 2.800781 0.710938 C 1.644531 0.710938 0.710938 1.644531 0.710938 2.800781 L 0.710938 6.144531 L 11.289062 6.144531 L 11.289062 2.800781 C 11.289062 1.644531 10.355469 0.710938 9.199219 0.710938 Z M 2.800781 0.710938 "/>
<path style=" stroke:none;fill-rule:nonzero;fill:rgb(90.196078%,90.196078%,90.196078%);fill-opacity:1;" d="M 2.664062 2.546875 L 9.335938 2.546875 L 9.335938 6.546875 L 2.664062 6.546875 Z M 2.664062 2.546875 "/>
<path style=" stroke:none;fill-rule:nonzero;fill:rgb(50.196078%,50.196078%,50.196078%);fill-opacity:1;" d="M 3.332031 4.148438 L 5 4.148438 L 5 5.347656 L 3.332031 5.347656 Z M 3.332031 4.148438 "/>
<path style=" stroke:none;fill-rule:nonzero;fill:rgb(50.196078%,50.196078%,50.196078%);fill-opacity:1;" d="M 7 4.148438 L 8.667969 4.148438 L 8.667969 5.347656 L 7 5.347656 Z M 7 4.148438 "/>
<path style=" stroke:none;fill-rule:evenodd;fill:rgb(30.196078%,30.196078%,30.196078%);fill-opacity:1;" d="M 11.289062 6.144531 L 0.710938 6.144531 L 0.710938 9.199219 C 0.710938 10.355469 1.644531 11.289062 2.800781 11.289062 L 9.199219 11.289062 C 10.355469 11.289062 11.289062 10.355469 11.289062 9.199219 Z M 11.289062 6.144531 "/>
<path style=" stroke:none;fill-rule:nonzero;fill:rgb(50.196078%,50.196078%,50.196078%);fill-opacity:1;" d="M 3.203125 7.746094 L 8.796875 7.746094 C 9.019531 7.746094 9.199219 7.921875 9.199219 8.144531 C 9.199219 8.363281 9.019531 8.542969 8.796875 8.542969 L 3.203125 8.542969 C 2.984375 8.542969 2.804688 8.363281 2.804688 8.144531 C 2.804688 7.921875 2.984375 7.746094 3.203125 7.746094 Z M 3.203125 7.746094 "/>
<path style=" stroke:none;fill-rule:nonzero;fill:rgb(50.196078%,50.196078%,50.196078%);fill-opacity:1;" d="M 4.003906 9.34375 L 8 9.34375 C 8.21875 9.34375 8.398438 9.523438 8.398438 9.742188 C 8.398438 9.964844 8.21875 10.140625 8 10.140625 L 4.003906 10.140625 C 3.78125 10.140625 3.601562 9.964844 3.601562 9.742188 C 3.601562 9.523438 3.78125 9.34375 4.003906 9.34375 Z M 4.003906 9.34375 "/>
</g>
</svg>
