<?xml version="1.0" encoding="UTF-8"?>
<svg xmlns="http://www.w3.org/2000/svg" xmlns:xlink="http://www.w3.org/1999/xlink" width="12pt" height="12pt" viewBox="0 0 12 12" version="1.1">
<g id="surface1">
<path style=" stroke:none;fill-rule:evenodd;fill:rgb(55.686275%,55.686275%,55.686275%);fill-opacity:1;" d="M 2.800781 0.710938 L 9.199219 0.710938 C 10.351562 0.710938 11.289062 1.648438 11.289062 2.800781 L 11.289062 9.199219 C 11.289062 10.351562 10.351562 11.289062 9.199219 11.289062 L 2.800781 11.289062 C 1.648438 11.289062 0.710938 10.351562 0.710938 9.199219 L 0.710938 2.800781 C 0.710938 1.648438 1.648438 0.710938 2.800781 0.710938 Z M 2.800781 0.710938 "/>
<path style=" stroke:none;fill-rule:nonzero;fill:rgb(30.196078%,30.196078%,30.196078%);fill-opacity:1;" d="M 10.179688 2.351562 C 10.179688 2.648438 9.9375 2.890625 9.640625 2.890625 C 9.34375 2.890625 9.101562 2.648438 9.101562 2.351562 C 9.101562 2.054688 9.34375 1.8125 9.640625 1.8125 C 9.9375 1.8125 10.179688 2.054688 10.179688 2.351562 Z M 10.179688 2.351562 "/>
<path style=" stroke:none;fill-rule:nonzero;fill:rgb(30.196078%,30.196078%,30.196078%);fill-opacity:1;" d="M 2.882812 2.351562 C 2.882812 2.648438 2.640625 2.890625 2.339844 2.890625 C 2.042969 2.890625 1.800781 2.648438 1.800781 2.351562 C 1.800781 2.054688 2.042969 1.8125 2.339844 1.8125 C 2.640625 1.8125 2.882812 2.054688 2.882812 2.351562 Z M 2.882812 2.351562 "/>
<path style=" stroke:none;fill-rule:nonzero;fill:rgb(30.196078%,30.196078%,30.196078%);fill-opacity:1;" d="M 10.199219 9.648438 C 10.199219 9.945312 9.957031 10.1875 9.660156 10.1875 C 9.359375 10.1875 9.117188 9.945312 9.117188 9.648438 C 9.117188 9.351562 9.359375 9.109375 9.660156 9.109375 C 9.957031 9.109375 10.199219 9.351562 10.199219 9.648438 Z M 10.199219 9.648438 "/>
<path style=" stroke:none;fill-rule:nonzero;fill:rgb(30.196078%,30.196078%,30.196078%);fill-opacity:1;" d="M 2.898438 9.648438 C 2.898438 9.945312 2.65625 10.1875 2.359375 10.1875 C 2.0625 10.1875 1.820312 9.945312 1.820312 9.648438 C 1.820312 9.351562 2.0625 9.109375 2.359375 9.109375 C 2.65625 9.109375 2.898438 9.351562 2.898438 9.648438 Z M 2.898438 9.648438 "/>
<path style=" stroke:none;fill-rule:nonzero;fill:rgb(30.196078%,30.196078%,30.196078%);fill-opacity:1;" d="M 6 3.375 C 4.550781 3.375 3.375 4.550781 3.375 6 L 3.375 8.625 L 6 8.625 C 7.449219 8.625 8.625 7.449219 8.625 6 C 8.625 4.550781 7.449219 3.375 6 3.375 Z M 6 4.5 C 6.828125 4.5 7.5 5.171875 7.5 6 C 7.5 6.828125 6.828125 7.5 6 7.5 C 5.171875 7.5 4.5 6.828125 4.5 6 C 4.5 5.171875 5.171875 4.5 6 4.5 Z M 6 4.5 "/>
</g>
</svg>
