<?xml version="1.0" encoding="UTF-8"?>
<svg xmlns="http://www.w3.org/2000/svg" xmlns:xlink="http://www.w3.org/1999/xlink" width="12pt" height="12pt" viewBox="0 0 12 12" version="1.1">
<g id="surface1">
<path style=" stroke:none;fill-rule:evenodd;fill:rgb(71.764706%,40.392157%,15.686275%);fill-opacity:1;" d="M 2.800781 0.710938 L 9.199219 0.710938 C 10.351562 0.710938 11.289062 1.648438 11.289062 2.800781 L 11.289062 9.199219 C 11.289062 10.351562 10.351562 11.289062 9.199219 11.289062 L 2.800781 11.289062 C 1.648438 11.289062 0.710938 10.351562 0.710938 9.199219 L 0.710938 2.800781 C 0.710938 1.648438 1.648438 0.710938 2.800781 0.710938 Z M 2.800781 0.710938 "/>
<path style=" stroke:none;fill-rule:nonzero;fill:rgb(30.196078%,30.196078%,30.196078%);fill-opacity:1;" d="M 2.847656 1.894531 L 9.152344 1.894531 C 9.679688 1.894531 10.105469 2.320312 10.105469 2.847656 L 10.105469 9.152344 C 10.105469 9.679688 9.679688 10.105469 9.152344 10.105469 L 2.847656 10.105469 C 2.320312 10.105469 1.894531 9.679688 1.894531 9.152344 L 1.894531 2.847656 C 1.894531 2.320312 2.320312 1.894531 2.847656 1.894531 Z M 2.847656 1.894531 "/>
<path style=" stroke:none;fill-rule:nonzero;fill:rgb(80%,80%,80%);fill-opacity:1;" d="M 2.578125 2.921875 L 2.578125 3.261719 L 2.921875 3.261719 L 2.921875 5.316406 L 2.578125 5.316406 L 2.578125 5.65625 L 4.289062 5.65625 L 4.289062 5.316406 L 4.632812 5.316406 L 4.632812 3.261719 L 4.289062 3.261719 L 4.289062 2.921875 Z M 5.316406 2.921875 L 5.316406 3.261719 L 4.972656 3.261719 L 4.972656 5.316406 L 5.316406 5.316406 L 5.316406 5.65625 L 6.683594 5.65625 L 6.683594 5.316406 L 7.027344 5.316406 L 7.027344 3.261719 L 6.683594 3.261719 L 6.683594 2.921875 Z M 7.710938 2.921875 L 7.710938 3.261719 L 7.367188 3.261719 L 7.367188 3.949219 L 7.710938 3.949219 L 7.710938 4.289062 L 8.394531 4.289062 L 8.394531 4.632812 L 8.738281 4.632812 L 8.738281 5.316406 L 8.050781 5.316406 L 8.050781 4.632812 L 7.367188 4.632812 L 7.367188 5.316406 L 7.710938 5.316406 L 7.710938 5.65625 L 9.078125 5.65625 L 9.078125 5.316406 L 9.421875 5.316406 L 9.421875 4.632812 L 9.078125 4.632812 L 9.078125 4.289062 L 8.738281 4.289062 L 8.738281 3.949219 L 8.050781 3.949219 L 8.050781 3.261719 L 8.738281 3.261719 L 8.738281 3.949219 L 9.421875 3.949219 L 9.421875 3.261719 L 9.078125 3.261719 L 9.078125 2.921875 Z M 3.605469 3.261719 L 3.949219 3.261719 L 3.949219 5.316406 L 3.605469 5.316406 Z M 5.65625 3.261719 L 6.34375 3.261719 L 6.34375 5.316406 L 5.65625 5.316406 Z M 2.578125 6.34375 L 2.578125 6.683594 L 2.921875 6.683594 L 2.921875 8.738281 L 2.578125 8.738281 L 2.578125 9.078125 L 4.289062 9.078125 L 4.289062 8.738281 L 4.632812 8.738281 L 4.632812 7.710938 L 4.289062 7.710938 L 4.289062 7.367188 L 4.632812 7.367188 L 4.632812 6.683594 L 4.289062 6.683594 L 4.289062 6.34375 Z M 5.316406 6.34375 L 5.316406 6.683594 L 4.972656 6.683594 L 4.972656 8.738281 L 5.316406 8.738281 L 5.316406 9.078125 L 6.683594 9.078125 L 6.683594 8.738281 L 7.027344 8.738281 L 7.027344 6.683594 L 6.683594 6.683594 L 6.683594 6.34375 Z M 7.027344 6.34375 L 7.027344 6.683594 L 7.367188 6.683594 L 7.367188 7.367188 L 7.710938 7.367188 L 7.710938 8.050781 L 7.367188 8.050781 L 7.367188 8.738281 L 7.027344 8.738281 L 7.027344 9.078125 L 7.710938 9.078125 L 7.710938 8.738281 L 8.050781 8.738281 L 8.050781 8.394531 L 8.394531 8.394531 L 8.394531 8.738281 L 8.738281 8.738281 L 8.738281 9.078125 L 9.421875 9.078125 L 9.421875 8.738281 L 9.078125 8.738281 L 9.078125 8.050781 L 8.738281 8.050781 L 8.738281 7.367188 L 9.078125 7.367188 L 9.078125 6.683594 L 9.421875 6.683594 L 9.421875 6.34375 L 8.738281 6.34375 L 8.738281 6.683594 L 8.394531 6.683594 L 8.394531 7.027344 L 8.050781 7.027344 L 8.050781 6.683594 L 7.710938 6.683594 L 7.710938 6.34375 Z M 3.605469 6.683594 L 3.949219 6.683594 L 3.949219 7.367188 L 3.605469 7.367188 Z M 5.65625 6.683594 L 6.34375 6.683594 L 6.34375 8.738281 L 5.65625 8.738281 Z M 3.605469 7.710938 L 3.949219 7.710938 L 3.949219 8.738281 L 3.605469 8.738281 Z M 3.605469 7.710938 "/>
</g>
</svg>
