<?xml version="1.0" encoding="UTF-8"?>
<svg xmlns="http://www.w3.org/2000/svg" xmlns:xlink="http://www.w3.org/1999/xlink" width="12pt" height="12pt" viewBox="0 0 12 12" version="1.1">
<g id="surface1">
<path style=" stroke:none;fill-rule:evenodd;fill:rgb(40%,40%,40%);fill-opacity:1;" d="M 2.835938 0.71875 L 9.308594 0.71875 C 10.472656 0.71875 11.421875 1.667969 11.421875 2.835938 L 11.421875 9.308594 C 11.421875 10.472656 10.472656 11.421875 9.308594 11.421875 L 2.835938 11.421875 C 1.667969 11.421875 0.71875 10.472656 0.71875 9.308594 L 0.71875 2.835938 C 0.71875 1.667969 1.667969 0.71875 2.835938 0.71875 Z M 2.835938 0.71875 "/>
<path style=" stroke:none;fill-rule:nonzero;fill:rgb(97.647059%,97.647059%,97.647059%);fill-opacity:1;" d="M 6.382812 1.859375 C 6.335938 1.882812 6.285156 1.902344 6.242188 1.933594 C 6.15625 1.996094 6.078125 2.066406 6.003906 2.136719 C 5.921875 2.214844 5.839844 2.261719 5.722656 2.285156 C 5.441406 2.34375 5.273438 2.40625 5.007812 2.515625 C 4.417969 2.765625 4.03125 3.230469 3.753906 3.792969 C 3.507812 4.292969 3.5 4.832031 3.519531 5.375 C 3.5625 6.496094 4.234375 7.316406 4.589844 8.179688 L 4.683594 8.179688 C 4.542969 8.179688 4.417969 8.269531 4.417969 8.386719 L 4.417969 8.808594 C 4.417969 8.925781 4.542969 9.078125 4.683594 9.078125 L 4.484375 9.078125 C 4.300781 9.078125 4.117188 9.21875 4.117188 9.394531 L 4.117188 9.964844 C 4.117188 10.140625 4.300781 10.28125 4.484375 10.28125 L 7.386719 10.28125 C 7.570312 10.28125 7.726562 10.140625 7.726562 9.964844 L 7.726562 9.394531 C 7.726562 9.21875 7.570312 9.078125 7.386719 9.078125 L 7.1875 9.078125 C 7.328125 9.078125 7.425781 8.925781 7.425781 8.808594 L 7.425781 8.386719 C 7.425781 8.269531 7.328125 8.179688 7.1875 8.179688 L 7.226562 8.179688 C 7.320312 8.09375 7.3125 7.945312 7.394531 7.855469 C 7.757812 7.472656 7.824219 6.921875 7.566406 6.453125 C 7.441406 6.226562 7.265625 6.039062 7.066406 5.878906 C 6.832031 5.699219 6.597656 5.53125 6.367188 5.355469 C 6.300781 5.304688 6.308594 5.25 6.222656 5.171875 C 6.441406 5.214844 6.546875 5.269531 6.722656 5.28125 C 7.023438 5.296875 7.285156 5.425781 7.523438 5.601562 C 7.621094 5.667969 7.730469 5.726562 7.835938 5.761719 C 7.980469 5.8125 8.050781 5.777344 8.136719 5.648438 C 8.160156 5.613281 8.171875 5.574219 8.191406 5.53125 C 8.363281 5.53125 8.453125 5.40625 8.5 5.25 C 8.515625 5.195312 8.542969 5.148438 8.5625 5.09375 C 8.695312 4.75 8.628906 4.441406 8.375 4.175781 C 8.320312 4.113281 8.253906 4.058594 8.195312 4 C 8 3.804688 7.800781 3.613281 7.613281 3.414062 C 7.472656 3.265625 7.347656 3.109375 7.207031 2.964844 C 7.140625 2.894531 7.082031 2.820312 7.046875 2.726562 C 7 2.582031 6.910156 2.472656 6.777344 2.398438 C 6.730469 2.371094 6.5625 2.339844 6.527344 2.320312 C 6.476562 2.160156 6.605469 1.960938 6.382812 1.859375 Z M 6.382812 1.859375 "/>
</g>
</svg>
