<?xml version="1.0" encoding="UTF-8"?>
<svg xmlns="http://www.w3.org/2000/svg" xmlns:xlink="http://www.w3.org/1999/xlink" width="12pt" height="12pt" viewBox="0 0 12 12" version="1.1">
<defs>
<filter id="alpha" filterUnits="objectBoundingBox" x="0%" y="0%" width="100%" height="100%">
  <feColorMatrix type="matrix" in="SourceGraphic" values="0 0 0 0 1 0 0 0 0 1 0 0 0 0 1 0 0 0 1 0"/>
</filter>
<mask id="mask0">
  <g filter="url(#alpha)">
<rect x="0" y="0" width="12" height="12" style="fill:rgb(0%,0%,0%);fill-opacity:0.8;stroke:none;"/>
  </g>
</mask>
<clipPath id="clip1">
  <rect width="12" height="12"/>
</clipPath>
<g id="surface6" clip-path="url(#clip1)">
<path style=" stroke:none;fill-rule:nonzero;fill:rgb(100%,100%,100%);fill-opacity:1;" d="M 2.945312 4.621094 C 2.878906 4.796875 2.820312 4.980469 2.777344 5.171875 L 10.324219 5.171875 C 10.285156 4.980469 10.226562 4.796875 10.160156 4.621094 Z M 2.703125 5.722656 C 2.695312 5.816406 2.6875 5.90625 2.6875 6 C 2.6875 6.09375 2.695312 6.183594 2.703125 6.277344 L 10.402344 6.277344 C 10.40625 6.183594 10.414062 6.09375 10.414062 6 C 10.414062 5.90625 10.40625 5.816406 10.402344 5.722656 Z M 2.777344 6.828125 C 2.820312 7.019531 2.878906 7.203125 2.945312 7.378906 L 10.160156 7.378906 C 10.226562 7.203125 10.285156 7.019531 10.324219 6.828125 Z M 2.777344 6.828125 "/>
</g>
</defs>
<g id="surface1">
<path style=" stroke:none;fill-rule:evenodd;fill:rgb(20.392157%,7.45098%,46.27451%);fill-opacity:1;" d="M 2.824219 0.75 L 9.175781 0.75 C 10.320312 0.75 11.25 1.679688 11.25 2.824219 L 11.25 9.175781 C 11.25 10.320312 10.320312 11.25 9.175781 11.25 L 2.824219 11.25 C 1.679688 11.25 0.75 10.320312 0.75 9.175781 L 0.75 2.824219 C 0.75 1.679688 1.679688 0.75 2.824219 0.75 Z M 2.824219 0.75 "/>
<path style=" stroke:none;fill-rule:nonzero;fill:rgb(100%,67.058824%,18.823529%);fill-opacity:1;" d="M 9.3125 6 C 9.3125 3.867188 7.582031 2.136719 5.449219 2.136719 C 3.3125 2.136719 1.585938 3.867188 1.585938 6 C 1.585938 8.132812 3.3125 9.863281 5.449219 9.863281 C 7.582031 9.863281 9.3125 8.132812 9.3125 6 Z M 9.3125 6 "/>
<path style=" stroke:none;fill-rule:nonzero;fill:rgb(36.862745%,25.098039%,58.431373%);fill-opacity:1;" d="M 10.414062 6 C 10.414062 3.867188 8.6875 2.136719 6.550781 2.136719 C 4.417969 2.136719 2.6875 3.867188 2.6875 6 C 2.6875 8.132812 4.417969 9.863281 6.550781 9.863281 C 8.6875 9.863281 10.414062 8.132812 10.414062 6 Z M 10.414062 6 "/>
<use xlink:href="#surface6" mask="url(#mask0)"/>
</g>
</svg>
