<?xml version="1.0" encoding="UTF-8"?>
<svg xmlns="http://www.w3.org/2000/svg" xmlns:xlink="http://www.w3.org/1999/xlink" width="12pt" height="12pt" viewBox="0 0 12 12" version="1.1">
<g id="surface1">
<path style=" stroke:none;fill-rule:evenodd;fill:rgb(25.882353%,63.921569%,80.784314%);fill-opacity:1;" d="M 2.800781 0.710938 L 9.199219 0.710938 C 10.351562 0.710938 11.289062 1.648438 11.289062 2.800781 L 11.289062 9.199219 C 11.289062 10.351562 10.351562 11.289062 9.199219 11.289062 L 2.800781 11.289062 C 1.648438 11.289062 0.710938 10.351562 0.710938 9.199219 L 0.710938 2.800781 C 0.710938 1.648438 1.648438 0.710938 2.800781 0.710938 Z M 2.800781 0.710938 "/>
<path style=" stroke:none;fill-rule:nonzero;fill:rgb(100%,100%,100%);fill-opacity:1;" d="M 8.523438 8.742188 C 8.621094 8.695312 8.703125 8.609375 8.757812 8.511719 C 8.8125 8.398438 8.8125 8.175781 8.757812 8.066406 C 8.714844 7.984375 7.675781 6.929688 7.636719 6.929688 C 7.625 6.929688 7.589844 6.96875 7.554688 7.019531 C 7.449219 7.164062 7.269531 7.351562 7.105469 7.484375 C 7.019531 7.554688 6.949219 7.621094 6.949219 7.632812 C 6.949219 7.660156 7.953125 8.671875 8.03125 8.722656 C 8.164062 8.808594 8.378906 8.816406 8.523438 8.742188 Z M 6.128906 7.777344 C 6.378906 7.714844 6.761719 7.523438 6.980469 7.351562 C 7.394531 7.027344 7.703125 6.535156 7.8125 6.015625 C 7.863281 5.773438 7.863281 5.277344 7.8125 5.035156 C 7.691406 4.476562 7.382812 3.988281 6.925781 3.648438 C 6.699219 3.480469 6.507812 3.378906 6.210938 3.28125 C 6 3.214844 5.945312 3.207031 5.550781 3.207031 C 5.175781 3.203125 5.09375 3.210938 4.898438 3.265625 C 4.03125 3.515625 3.378906 4.242188 3.222656 5.140625 C 3.203125 5.253906 3.195312 5.449219 3.203125 5.648438 C 3.230469 6.25 3.449219 6.746094 3.875 7.167969 C 4.457031 7.75 5.324219 7.984375 6.128906 7.777344 Z M 5.109375 7.183594 C 4.296875 6.957031 3.78125 6.25 3.824219 5.421875 C 3.882812 4.375 4.863281 3.628906 5.898438 3.847656 C 6.523438 3.980469 7.046875 4.492188 7.191406 5.105469 C 7.242188 5.324219 7.242188 5.710938 7.191406 5.933594 C 7.0625 6.472656 6.632812 6.949219 6.09375 7.140625 C 5.847656 7.226562 5.34375 7.25 5.109375 7.183594 Z M 5.769531 6.816406 C 5.792969 6.78125 5.710938 6.710938 5.496094 6.578125 C 5.285156 6.453125 4.996094 6.164062 4.914062 6 C 4.875 5.925781 4.820312 5.785156 4.785156 5.6875 C 4.679688 5.367188 4.429688 5.183594 4.316406 5.347656 C 4.261719 5.425781 4.261719 5.667969 4.316406 5.855469 C 4.441406 6.285156 4.84375 6.65625 5.335938 6.796875 C 5.523438 6.851562 5.742188 6.863281 5.769531 6.816406 Z M 5.769531 6.816406 "/>
</g>
</svg>
