<?xml version="1.0" encoding="UTF-8"?>
<svg xmlns="http://www.w3.org/2000/svg" xmlns:xlink="http://www.w3.org/1999/xlink" width="12pt" height="12pt" viewBox="0 0 12 12" version="1.1">
<defs>
<clipPath id="clip1">
  <rect width="12" height="12"/>
</clipPath>
<g id="surface6" clip-path="url(#clip1)">
<path style=" stroke:none;fill-rule:nonzero;fill:rgb(100%,100%,100%);fill-opacity:1;" d="M 3.953125 9.070312 C 3.953125 9.070312 4.355469 9.1875 4.890625 9.253906 C 5.105469 9.28125 5.929688 9.378906 6.5625 9.375 C 6.5625 9.375 7.335938 9.375 7.761719 9.316406 C 8.207031 9.253906 8.457031 9.171875 8.597656 9.011719 C 8.601562 8.972656 8.664062 8.847656 8.492188 8.726562 C 8.050781 8.417969 7.480469 8.332031 6.367188 8.070312 C 5.140625 7.761719 4.773438 7.464844 4.589844 7.25 C 4.414062 7.035156 4.621094 6.589844 5.613281 6.371094 C 6.113281 6.25 7.980469 6.226562 7.980469 6.226562 C 7.445312 5.804688 6.4375 5.042969 6.234375 4.878906 C 6.050781 4.738281 5.761719 4.519531 5.730469 4.324219 C 5.6875 4.136719 5.988281 4.042969 6.144531 4.035156 C 6.652344 4 7.347656 4.058594 7.964844 4.179688 C 8.277344 4.242188 8.332031 4.234375 8.332031 4.234375 C 8.773438 4.253906 9.117188 4.023438 9.101562 3.535156 C 9.097656 3.042969 8.601562 2.644531 8.054688 2.628906 C 7.539062 2.609375 6.269531 2.699219 6.269531 2.699219 C 7.75 3.007812 7.992188 3.082031 8.066406 3.261719 C 8.113281 3.367188 7.992188 3.472656 7.585938 3.453125 C 7.140625 3.429688 6.230469 3.320312 6.230469 3.320312 C 5.363281 3.1875 4.757812 3.0625 4.496094 3.40625 C 4.324219 3.628906 4.519531 3.90625 4.597656 4.066406 C 4.941406 4.664062 5.535156 5.078125 5.914062 5.367188 C 6.054688 5.476562 6.488281 5.71875 6.488281 5.71875 C 5.140625 5.351562 4.066406 5.558594 3.386719 5.914062 C 2.605469 6.378906 2.738281 7.160156 3.980469 7.890625 C 4.714844 8.324219 5.078125 8.53125 6.277344 8.675781 C 6.980469 8.789062 7.085938 8.835938 7.082031 8.894531 C 7.074219 8.976562 6.25 9.007812 6.023438 9.023438 C 5.449219 9.0625 3.957031 9.070312 3.953125 9.070312 Z M 3.953125 9.070312 "/>
</g>
</defs>
<g id="surface1">
<path style=" stroke:none;fill-rule:evenodd;fill:rgb(45.882353%,44.705882%,72.156863%);fill-opacity:0.992157;" d="M 2.800781 0.710938 L 9.199219 0.710938 C 10.351562 0.710938 11.289062 1.648438 11.289062 2.800781 L 11.289062 9.199219 C 11.289062 10.351562 10.351562 11.289062 9.199219 11.289062 L 2.800781 11.289062 C 1.648438 11.289062 0.710938 10.351562 0.710938 9.199219 L 0.710938 2.800781 C 0.710938 1.648438 1.648438 0.710938 2.800781 0.710938 Z M 2.800781 0.710938 "/>
<use xlink:href="#surface6"/>
</g>
</svg>
