<?xml version="1.0" encoding="UTF-8"?>
<svg xmlns="http://www.w3.org/2000/svg" xmlns:xlink="http://www.w3.org/1999/xlink" width="12pt" height="12pt" viewBox="0 0 12 12" version="1.1">
<g id="surface1">
<path style=" stroke:none;fill-rule:evenodd;fill:rgb(96.078431%,57.647059%,20.784314%);fill-opacity:1;" d="M 2.835938 0.71875 L 9.308594 0.71875 C 10.472656 0.71875 11.421875 1.667969 11.421875 2.835938 L 11.421875 9.308594 C 11.421875 10.472656 10.472656 11.421875 9.308594 11.421875 L 2.835938 11.421875 C 1.667969 11.421875 0.71875 10.472656 0.71875 9.308594 L 0.71875 2.835938 C 0.71875 1.667969 1.667969 0.71875 2.835938 0.71875 Z M 2.835938 0.71875 "/>
<path style=" stroke:none;fill-rule:nonzero;fill:rgb(100%,100%,100%);fill-opacity:1;" d="M 2.65625 3.226562 C 2.65625 3.628906 2.828125 3.792969 3.226562 3.792969 C 6.054688 3.792969 8.347656 6.089844 8.347656 8.917969 C 8.347656 9.273438 8.539062 9.488281 8.917969 9.488281 C 9.304688 9.488281 9.488281 9.261719 9.488281 8.917969 C 9.488281 5.460938 6.683594 2.65625 3.226562 2.65625 C 2.847656 2.65625 2.65625 2.839844 2.65625 3.226562 Z M 2.65625 5.503906 C 2.65625 5.894531 2.816406 6.070312 3.226562 6.070312 C 4.796875 6.070312 6.070312 7.347656 6.070312 8.917969 C 6.070312 9.253906 6.265625 9.488281 6.640625 9.488281 C 7.007812 9.488281 7.210938 9.28125 7.210938 8.917969 C 7.210938 6.714844 5.425781 4.933594 3.226562 4.933594 C 2.855469 4.933594 2.65625 5.09375 2.65625 5.503906 Z M 3.792969 7.210938 C 3.167969 7.210938 2.65625 7.71875 2.65625 8.347656 C 2.65625 8.976562 3.167969 9.488281 3.792969 9.488281 C 4.421875 9.488281 4.933594 8.976562 4.933594 8.347656 C 4.933594 7.71875 4.421875 7.210938 3.792969 7.210938 Z M 3.792969 7.210938 "/>
</g>
</svg>
