<?xml version="1.0" encoding="UTF-8"?>
<svg xmlns="http://www.w3.org/2000/svg" xmlns:xlink="http://www.w3.org/1999/xlink" width="12pt" height="12pt" viewBox="0 0 12 12" version="1.1">
<defs>
<g>
<symbol overflow="visible" id="glyph0-0">
<path style="stroke:none;" d="M 0.015625 0.0625 L -0.015625 -0.265625 L 0.171875 -0.28125 L 0.203125 0.046875 Z M 0.046875 0.046875 L 0.1875 0.03125 L 0.15625 -0.265625 L 0.015625 -0.25 Z M 0.046875 0.046875 "/>
</symbol>
<symbol overflow="visible" id="glyph0-1">
<path style="stroke:none;" d="M 0.09375 -0.265625 C 0.0703125 -0.265625 0.0546875 -0.253906 0.046875 -0.234375 C 0.046875 -0.210938 0.046875 -0.179688 0.046875 -0.140625 C 0.046875 -0.0976562 0.0507812 -0.0703125 0.0625 -0.0625 C 0.0820312 -0.0507812 0.101562 -0.046875 0.125 -0.046875 C 0.144531 -0.046875 0.15625 -0.0507812 0.15625 -0.0625 C 0.15625 -0.0820312 0.15625 -0.113281 0.15625 -0.15625 C 0.15625 -0.195312 0.148438 -0.222656 0.140625 -0.234375 C 0.128906 -0.253906 0.113281 -0.265625 0.09375 -0.265625 Z M 0.09375 -0.296875 C 0.125 -0.296875 0.148438 -0.285156 0.171875 -0.265625 C 0.191406 -0.242188 0.203125 -0.210938 0.203125 -0.171875 C 0.203125 -0.128906 0.195312 -0.09375 0.1875 -0.0625 C 0.175781 -0.03125 0.15625 -0.015625 0.125 -0.015625 C 0.09375 -0.015625 0.0664062 -0.0234375 0.046875 -0.046875 C 0.0234375 -0.0664062 0.015625 -0.0976562 0.015625 -0.140625 C 0.015625 -0.179688 0.0195312 -0.21875 0.03125 -0.25 C 0.0390625 -0.28125 0.0625 -0.296875 0.09375 -0.296875 Z M 0.09375 -0.296875 "/>
</symbol>
<symbol overflow="visible" id="glyph0-2">
<path style="stroke:none;" d="M 0.046875 -0.046875 L 0.078125 -0.0625 L 0.078125 -0.015625 L 0.046875 0 Z M 0.03125 -0.203125 L 0.0625 -0.21875 L 0.0625 -0.171875 L 0.03125 -0.15625 Z M 0.03125 -0.203125 "/>
</symbol>
<symbol overflow="visible" id="glyph0-3">
<path style="stroke:none;" d="M 0.046875 -0.03125 L 0.109375 -0.046875 L 0.078125 -0.265625 L 0.015625 -0.234375 L 0.015625 -0.265625 L 0.078125 -0.296875 L 0.125 -0.296875 L 0.15625 -0.046875 L 0.203125 -0.046875 L 0.203125 -0.015625 L 0.046875 0 Z M 0.046875 -0.03125 "/>
</symbol>
</g>
<linearGradient id="linear0" gradientUnits="userSpaceOnUse" x1="13.69913" y1="10.763234" x2="13.57665" y2="23.940351" gradientTransform="matrix(0.37984,-0.0420444,0.0420444,0.37984,2.242686,2.730795)">
<stop offset="0" style="stop-color:rgb(100%,100%,100%);stop-opacity:1;"/>
<stop offset="1" style="stop-color:rgb(100%,100%,100%);stop-opacity:0;"/>
</linearGradient>
</defs>
<g id="surface1">
<path style=" stroke:none;fill-rule:evenodd;fill:rgb(75.294118%,95.294118%,44.313725%);fill-opacity:1;" d="M 2.800781 0.710938 L 9.199219 0.710938 C 10.351562 0.710938 11.289062 1.648438 11.289062 2.800781 L 11.289062 9.199219 C 11.289062 10.351562 10.351562 11.289062 9.199219 11.289062 L 2.800781 11.289062 C 1.648438 11.289062 0.710938 10.351562 0.710938 9.199219 L 0.710938 2.800781 C 0.710938 1.648438 1.648438 0.710938 2.800781 0.710938 Z M 2.800781 0.710938 "/>
<path style=" stroke:none;fill-rule:evenodd;fill:rgb(30.196078%,62.352941%,76.470588%);fill-opacity:1;" d="M 2.804688 0.710938 C 1.644531 0.710938 0.710938 1.644531 0.710938 2.800781 L 0.710938 6.820312 C 1.089844 6.742188 1.519531 6.632812 1.828125 6.59375 C 2.398438 6.527344 2.867188 6.523438 3.277344 6.5625 C 3.6875 6.601562 4.039062 6.6875 4.367188 6.796875 C 4.695312 6.90625 5.003906 7.042969 5.332031 7.1875 C 5.660156 7.328125 6.007812 7.480469 6.414062 7.617188 C 6.816406 7.757812 7.28125 7.882812 7.84375 7.980469 C 8.410156 8.078125 9.070312 8.144531 9.871094 8.160156 C 10.265625 8.171875 10.816406 8.125 11.289062 8.105469 L 11.289062 2.800781 C 11.289062 1.644531 10.355469 0.710938 9.199219 0.710938 Z M 2.804688 0.710938 "/>
<path style=" stroke:none;fill-rule:evenodd;fill:rgb(59.215686%,77.647059%,2.745098%);fill-opacity:1;" d="M 7.242188 7.710938 C 5.398438 7.878906 3.992188 8.886719 1.828125 8.777344 C 1.386719 8.738281 1.023438 8.652344 0.710938 8.535156 L 0.710938 9.199219 C 0.710938 9.433594 0.75 9.660156 0.820312 9.871094 C 1.171875 9.683594 1.546875 9.527344 1.894531 9.441406 C 2.285156 9.34375 2.675781 9.304688 3.066406 9.300781 C 3.851562 9.289062 4.644531 9.425781 5.480469 9.542969 C 5.898438 9.601562 6.328125 9.652344 6.773438 9.683594 C 7.21875 9.710938 7.675781 9.71875 8.15625 9.675781 C 8.632812 9.636719 9.132812 9.550781 9.652344 9.402344 C 10.171875 9.253906 10.71875 9.039062 11.289062 8.738281 C 9.613281 7.8125 8.351562 7.609375 7.242188 7.710938 Z M 7.242188 7.710938 "/>
<path style=" stroke:none;fill-rule:nonzero;fill:rgb(59.607843%,37.647059%,1.960784%);fill-opacity:1;" d="M 2.773438 8.324219 L 3.648438 8.324219 L 3.648438 9.632812 L 2.773438 9.632812 Z M 2.773438 8.324219 "/>
<path style=" stroke:none;fill-rule:nonzero;fill:rgb(45.490196%,63.137255%,5.098039%);fill-opacity:1;" d="M 5.101562 8.828125 L 1.40625 8.828125 L 3.253906 5.628906 Z M 5.101562 8.828125 "/>
<path style=" stroke:none;fill-rule:nonzero;fill:rgb(59.607843%,76.470588%,1.960784%);fill-opacity:1;" d="M 4.808594 7.707031 L 1.632812 7.707031 L 3.222656 4.960938 Z M 4.808594 7.707031 "/>
<path style=" stroke:none;fill-rule:nonzero;fill:rgb(67.843137%,85.882353%,11.764706%);fill-opacity:1;" d="M 4.523438 6.445312 L 2 6.445312 L 3.261719 4.261719 Z M 4.523438 6.445312 "/>
<path style=" stroke:none;fill-rule:evenodd;fill:rgb(45.490196%,63.137255%,5.098039%);fill-opacity:1;" d="M 11.289062 8.738281 C 10.71875 9.039062 10.171875 9.253906 9.652344 9.402344 C 9.132812 9.550781 8.632812 9.636719 8.15625 9.675781 C 7.675781 9.71875 7.21875 9.710938 6.773438 9.683594 C 6.328125 9.652344 5.898438 9.601562 5.480469 9.542969 C 4.644531 9.425781 3.851562 9.289062 3.066406 9.300781 C 2.675781 9.304688 2.285156 9.34375 1.894531 9.441406 C 1.546875 9.527344 1.171875 9.683594 0.820312 9.871094 C 1.101562 10.699219 1.878906 11.289062 2.800781 11.289062 L 9.195312 11.289062 C 10.355469 11.289062 11.289062 10.355469 11.289062 9.199219 Z M 11.289062 8.738281 "/>
<path style=" stroke:none;fill-rule:nonzero;fill:rgb(80.392157%,80.784314%,81.568627%);fill-opacity:1;" d="M 5.789062 2.308594 L 8.996094 1.953125 C 9.242188 1.925781 9.460938 2.101562 9.488281 2.347656 L 10.175781 8.53125 C 9.9375 11.121094 6.464844 10.6875 6.078125 8.984375 L 5.394531 2.800781 C 5.367188 2.554688 5.542969 2.335938 5.789062 2.308594 Z M 5.789062 2.308594 "/>
<path style=" stroke:none;fill-rule:nonzero;fill:rgb(0%,0%,0%);fill-opacity:1;" d="M 5.753906 2.558594 L 6.074219 5.695312 C 6.152344 6.21875 6.183594 6.746094 6.710938 7.21875 C 7.125 6.644531 8.175781 6.308594 9.097656 6.953125 C 9.386719 6.65625 9.546875 6.164062 9.4375 5.277344 L 9.09375 2.199219 Z M 5.753906 2.558594 "/>
<path style=" stroke:none;fill-rule:nonzero;fill:rgb(50.196078%,50.196078%,50.196078%);fill-opacity:1;" d="M 9.886719 7.957031 C 9.996094 8.945312 9.28125 9.835938 8.292969 9.945312 C 7.304688 10.054688 6.414062 9.34375 6.304688 8.355469 C 6.195312 7.367188 6.910156 6.476562 7.898438 6.367188 C 8.886719 6.257812 9.777344 6.96875 9.886719 7.957031 Z M 9.886719 7.957031 "/>
<path style=" stroke:none;fill-rule:nonzero;fill:url(#linear0);" d="M 7.898438 6.367188 C 7.480469 6.414062 7.089844 6.605469 6.800781 6.910156 L 8.09375 8.09375 L 9.058594 6.636719 C 8.714844 6.417969 8.304688 6.324219 7.898438 6.367188 Z M 9.121094 6.679688 L 8.171875 8.109375 L 9.878906 7.921875 C 9.8125 7.417969 9.539062 6.96875 9.121094 6.679688 Z M 6.746094 6.964844 C 6.421875 7.335938 6.261719 7.824219 6.304688 8.316406 L 8.015625 8.128906 Z M 6.3125 8.390625 C 6.378906 8.894531 6.652344 9.34375 7.070312 9.636719 L 8.019531 8.203125 Z M 8.191406 8.183594 L 9.453125 9.339844 C 9.773438 8.96875 9.929688 8.484375 9.886719 7.996094 Z M 8.105469 8.210938 L 7.132812 9.675781 C 7.476562 9.894531 7.886719 9.992188 8.292969 9.945312 C 8.714844 9.898438 9.109375 9.703125 9.398438 9.394531 Z M 8.105469 8.210938 "/>
<path style="fill-rule:nonzero;fill:rgb(80.392157%,80.784314%,81.568627%);fill-opacity:1;stroke-width:0.196253;stroke-linecap:round;stroke-linejoin:miter;stroke:rgb(50.196078%,50.196078%,50.196078%);stroke-opacity:1;stroke-miterlimit:4;" d="M 15.393979 15.792085 C 15.390991 16.74816 14.615845 17.52621 13.65977 17.523221 C 12.702571 17.530392 11.934681 16.756371 11.92751 15.799172 C 11.930498 14.843097 12.705644 14.065048 13.661718 14.068036 C 14.617793 14.071024 15.385683 14.845045 15.393979 15.792085 Z M 15.393979 15.792085 " transform="matrix(0.37984,-0.0420444,0.0420444,0.37984,2.242686,2.730795)"/>
<path style=" stroke:none;fill-rule:nonzero;fill:rgb(67.058824%,8.627451%,3.529412%);fill-opacity:1;" d="M 8.140625 6.675781 C 8.152344 6.78125 8.074219 6.875 7.96875 6.886719 C 7.863281 6.898438 7.769531 6.824219 7.757812 6.71875 C 7.746094 6.613281 7.820312 6.515625 7.925781 6.503906 C 8.03125 6.492188 8.128906 6.570312 8.140625 6.675781 Z M 8.140625 6.675781 "/>
<path style="fill-rule:nonzero;fill:rgb(67.058824%,8.627451%,3.529412%);fill-opacity:1;stroke-width:0.196253;stroke-linecap:round;stroke-linejoin:miter;stroke:rgb(90.588235%,20.392157%,14.117647%);stroke-opacity:1;stroke-miterlimit:4;" d="M -45.12812 45.746569 C -45.131532 45.684488 -45.199275 45.646138 -45.281675 45.647301 C -45.374235 45.647339 -45.440814 45.691389 -45.436277 45.743311 C -45.443025 45.804268 -45.365123 45.843743 -45.282722 45.842579 C -45.201447 45.851576 -45.123583 45.798491 -45.12812 45.746569 Z M -45.12812 45.746569 " transform="matrix(0.37984,-0.0420444,0.0420444,0.37984,23.17902,-12.656581)"/>
<path style=" stroke:none;fill-rule:nonzero;fill:rgb(0%,38.431373%,80.392157%);fill-opacity:1;" d="M 6.191406 5.742188 L 6.195312 5.761719 L 6.21875 5.972656 L 6.992188 5.886719 L 7.03125 5.882812 L 9.351562 5.625 L 9.328125 5.394531 L 8.554688 5.480469 L 7.777344 5.566406 L 7.003906 5.652344 L 6.964844 5.65625 Z M 6.234375 5.777344 L 6.972656 5.695312 L 6.988281 5.847656 L 6.25 5.929688 Z M 7.007812 5.691406 L 7.746094 5.609375 L 7.761719 5.761719 L 7.027344 5.84375 Z M 7.785156 5.605469 L 8.519531 5.523438 L 8.535156 5.675781 L 7.800781 5.757812 Z M 8.558594 5.519531 L 9.292969 5.4375 L 9.308594 5.589844 L 8.574219 5.671875 Z M 8.558594 5.519531 "/>
<g style="fill:rgb(0%,38.431373%,80.392157%);fill-opacity:1;">
  <use xlink:href="#glyph0-1" x="6.914211" y="5.46362"/>
  <use xlink:href="#glyph0-1" x="7.157176" y="5.436727"/>
  <use xlink:href="#glyph0-2" x="7.40014" y="5.409833"/>
  <use xlink:href="#glyph0-1" x="7.528855" y="5.395586"/>
  <use xlink:href="#glyph0-1" x="7.771819" y="5.368692"/>
  <use xlink:href="#glyph0-2" x="8.014783" y="5.341798"/>
  <use xlink:href="#glyph0-1" x="8.143499" y="5.327551"/>
  <use xlink:href="#glyph0-3" x="8.386463" y="5.300657"/>
</g>
<path style=" stroke:none;fill-rule:nonzero;fill:rgb(50.196078%,50.196078%,50.196078%);fill-opacity:1;" d="M 6.832031 7.890625 L 6.632812 7.605469 L 6.976562 7.574219 Z M 6.832031 7.890625 "/>
<path style=" stroke:none;fill-rule:nonzero;fill:rgb(50.196078%,50.196078%,50.196078%);fill-opacity:1;" d="M 7.097656 8.027344 L 6.898438 7.742188 L 7.242188 7.710938 Z M 7.097656 8.027344 "/>
<path style=" stroke:none;fill-rule:nonzero;fill:rgb(50.196078%,50.196078%,50.196078%);fill-opacity:1;" d="M 9.070312 7.375 L 9.417969 7.339844 L 9.269531 7.65625 Z M 9.070312 7.375 "/>
<path style=" stroke:none;fill-rule:nonzero;fill:rgb(50.196078%,50.196078%,50.196078%);fill-opacity:1;" d="M 8.816406 7.535156 L 9.164062 7.503906 L 9.019531 7.820312 Z M 8.816406 7.535156 "/>
<path style=" stroke:none;fill-rule:nonzero;fill:rgb(50.196078%,50.196078%,50.196078%);fill-opacity:1;" d="M 9.503906 8.445312 L 9.464844 8.554688 L 8.96875 8.386719 L 8.949219 8.449219 L 9.445312 8.617188 L 9.410156 8.71875 L 9.625 8.644531 Z M 9.503906 8.445312 "/>
<path style=" stroke:none;fill-rule:nonzero;fill:rgb(50.196078%,50.196078%,50.196078%);fill-opacity:1;" d="M 6.941406 9.039062 L 6.878906 8.941406 L 7.320312 8.65625 L 7.285156 8.601562 L 6.847656 8.882812 L 6.789062 8.792969 L 6.710938 9.007812 Z M 6.941406 9.039062 "/>
<path style=" stroke:none;fill-rule:nonzero;fill:rgb(50.196078%,50.196078%,50.196078%);fill-opacity:1;" d="M 7.621094 9.398438 L 7.527344 9.605469 C 8.246094 9.847656 8.734375 9.648438 9.097656 9.207031 C 8.570312 9.503906 8.058594 9.667969 7.621094 9.398438 Z M 7.621094 9.398438 "/>
</g>
</svg>
