<?xml version="1.0" encoding="UTF-8"?>
<svg xmlns="http://www.w3.org/2000/svg" xmlns:xlink="http://www.w3.org/1999/xlink" width="12pt" height="12pt" viewBox="0 0 12 12" version="1.1">
<g id="surface1">
<path style=" stroke:none;fill-rule:evenodd;fill:rgb(55.686275%,55.686275%,55.686275%);fill-opacity:1;" d="M 2.800781 0.710938 L 9.199219 0.710938 C 10.351562 0.710938 11.289062 1.648438 11.289062 2.800781 L 11.289062 9.199219 C 11.289062 10.351562 10.351562 11.289062 9.199219 11.289062 L 2.800781 11.289062 C 1.648438 11.289062 0.710938 10.351562 0.710938 9.199219 L 0.710938 2.800781 C 0.710938 1.648438 1.648438 0.710938 2.800781 0.710938 Z M 2.800781 0.710938 "/>
<path style=" stroke:none;fill-rule:evenodd;fill:rgb(55.686275%,55.686275%,55.686275%);fill-opacity:1;" d="M 2.800781 0.710938 C 1.644531 0.710938 0.710938 1.644531 0.710938 2.800781 L 0.710938 9.195312 C 0.710938 10.355469 1.644531 11.289062 2.800781 11.289062 L 6 11.289062 L 6 8.394531 C 6 8.105469 6.058594 7.832031 6.164062 7.582031 C 6.269531 7.332031 6.421875 7.105469 6.609375 6.917969 C 6.800781 6.726562 7.023438 6.574219 7.273438 6.46875 C 7.527344 6.363281 7.800781 6.304688 8.089844 6.304688 L 11.289062 6.304688 L 11.289062 2.800781 C 11.289062 1.644531 10.355469 0.710938 9.195312 0.710938 Z M 2.800781 0.710938 "/>
<path style=" stroke:none;fill-rule:nonzero;fill:rgb(30.196078%,30.196078%,30.196078%);fill-opacity:1;" d="M 10.179688 2.351562 C 10.179688 2.648438 9.9375 2.890625 9.640625 2.890625 C 9.34375 2.890625 9.101562 2.648438 9.101562 2.351562 C 9.101562 2.050781 9.34375 1.8125 9.640625 1.8125 C 9.9375 1.8125 10.179688 2.050781 10.179688 2.351562 Z M 10.179688 2.351562 "/>
<path style=" stroke:none;fill-rule:nonzero;fill:rgb(30.196078%,30.196078%,30.196078%);fill-opacity:1;" d="M 2.878906 2.351562 C 2.878906 2.648438 2.640625 2.890625 2.339844 2.890625 C 2.042969 2.890625 1.800781 2.648438 1.800781 2.351562 C 1.800781 2.050781 2.042969 1.8125 2.339844 1.8125 C 2.640625 1.8125 2.878906 2.050781 2.878906 2.351562 Z M 2.878906 2.351562 "/>
<path style=" stroke:none;fill-rule:nonzero;fill:rgb(30.196078%,30.196078%,30.196078%);fill-opacity:1;" d="M 10.199219 9.648438 C 10.199219 9.945312 9.957031 10.1875 9.660156 10.1875 C 9.359375 10.1875 9.117188 9.945312 9.117188 9.648438 C 9.117188 9.351562 9.359375 9.109375 9.660156 9.109375 C 9.957031 9.109375 10.199219 9.351562 10.199219 9.648438 Z M 10.199219 9.648438 "/>
<path style=" stroke:none;fill-rule:nonzero;fill:rgb(30.196078%,30.196078%,30.196078%);fill-opacity:1;" d="M 2.898438 9.648438 C 2.898438 9.945312 2.65625 10.1875 2.359375 10.1875 C 2.0625 10.1875 1.820312 9.945312 1.820312 9.648438 C 1.820312 9.351562 2.0625 9.109375 2.359375 9.109375 C 2.65625 9.109375 2.898438 9.351562 2.898438 9.648438 Z M 2.898438 9.648438 "/>
<path style=" stroke:none;fill-rule:nonzero;fill:rgb(30.196078%,30.196078%,30.196078%);fill-opacity:1;" d="M 6 3.375 C 4.550781 3.375 3.375 4.550781 3.375 6 L 3.375 8.625 L 6 8.625 C 7.449219 8.625 8.625 7.449219 8.625 6 C 8.625 4.550781 7.449219 3.375 6 3.375 Z M 6 4.5 C 6.828125 4.5 7.5 5.171875 7.5 6 C 7.5 6.828125 6.828125 7.5 6 7.5 C 5.171875 7.5 4.5 6.828125 4.5 6 C 4.5 5.171875 5.171875 4.5 6 4.5 Z M 6 4.5 "/>
<path style=" stroke:none;fill-rule:evenodd;fill:rgb(30.196078%,66.666667%,96.078431%);fill-opacity:1;" d="M 11.289062 6.304688 L 8.089844 6.304688 C 7.800781 6.304688 7.527344 6.363281 7.273438 6.46875 C 7.023438 6.574219 6.800781 6.726562 6.609375 6.917969 C 6.421875 7.105469 6.269531 7.332031 6.164062 7.582031 C 6.058594 7.832031 6 8.105469 6 8.394531 L 6 11.289062 L 9.195312 11.289062 C 10.355469 11.289062 11.289062 10.355469 11.289062 9.195312 Z M 11.289062 6.304688 "/>
<path style=" stroke:none;fill-rule:nonzero;fill:rgb(100%,100%,100%);fill-opacity:1;" d="M 8.839844 7.277344 C 8.730469 7.277344 8.617188 7.328125 8.546875 7.410156 C 8.472656 7.488281 8.429688 7.597656 8.429688 7.703125 C 8.429688 7.808594 8.476562 7.917969 8.546875 7.996094 C 8.621094 8.074219 8.730469 8.125 8.839844 8.125 C 8.953125 8.125 9.070312 8.074219 9.144531 7.988281 C 9.214844 7.90625 9.253906 7.796875 9.253906 7.6875 C 9.253906 7.585938 9.210938 7.480469 9.140625 7.40625 C 9.066406 7.324219 8.949219 7.277344 8.839844 7.277344 Z M 8.546875 8.167969 C 8.472656 8.167969 8.40625 8.179688 8.324219 8.203125 C 8.238281 8.226562 8.148438 8.261719 8.050781 8.304688 L 7.964844 8.34375 L 7.847656 8.851562 L 8.148438 8.769531 C 8.160156 8.765625 8.191406 8.761719 8.230469 8.753906 C 8.253906 8.746094 8.261719 8.746094 8.273438 8.746094 C 8.273438 8.761719 8.273438 8.777344 8.269531 8.804688 L 8.265625 8.804688 L 8.265625 8.808594 C 8.257812 8.851562 8.25 8.894531 8.242188 8.929688 L 8.054688 9.675781 L 8.054688 9.679688 C 8.042969 9.726562 8.035156 9.765625 8.03125 9.804688 C 8.023438 9.839844 8.019531 9.878906 8.019531 9.917969 C 8.019531 10.03125 8.066406 10.144531 8.144531 10.226562 L 8.144531 10.230469 C 8.234375 10.320312 8.363281 10.359375 8.492188 10.359375 C 8.558594 10.359375 8.628906 10.347656 8.703125 10.324219 L 8.707031 10.324219 C 8.785156 10.304688 8.875 10.273438 8.984375 10.226562 L 9.074219 10.191406 L 9.203125 9.644531 L 8.875 9.765625 C 8.878906 9.765625 8.855469 9.773438 8.820312 9.777344 L 8.816406 9.777344 C 8.78125 9.78125 8.753906 9.785156 8.75 9.785156 C 8.746094 9.785156 8.75 9.785156 8.746094 9.785156 C 8.75 9.773438 8.75 9.753906 8.753906 9.726562 L 8.757812 9.726562 C 8.757812 9.726562 8.757812 9.726562 8.757812 9.722656 C 8.765625 9.683594 8.773438 9.644531 8.785156 9.601562 L 8.972656 8.851562 C 8.984375 8.808594 8.992188 8.761719 9 8.71875 C 9.003906 8.679688 9.007812 8.644531 9.007812 8.609375 C 9.007812 8.496094 8.96875 8.378906 8.890625 8.292969 C 8.800781 8.199219 8.671875 8.167969 8.546875 8.167969 Z M 8.296875 8.71875 L 8.304688 8.726562 C 8.289062 8.714844 8.300781 8.730469 8.296875 8.722656 C 8.292969 8.71875 8.304688 8.730469 8.296875 8.71875 Z M 8.296875 8.71875 "/>
</g>
</svg>
