<?xml version="1.0" encoding="UTF-8"?>
<svg xmlns="http://www.w3.org/2000/svg" xmlns:xlink="http://www.w3.org/1999/xlink" width="12pt" height="12pt" viewBox="0 0 12 12" version="1.1">
<g id="surface1">
<path style=" stroke:none;fill-rule:evenodd;fill:rgb(43.137255%,69.411765%,22.352941%);fill-opacity:1;" d="M 2.800781 0.710938 L 9.199219 0.710938 C 10.351562 0.710938 11.289062 1.648438 11.289062 2.800781 L 11.289062 9.199219 C 11.289062 10.351562 10.351562 11.289062 9.199219 11.289062 L 2.800781 11.289062 C 1.648438 11.289062 0.710938 10.351562 0.710938 9.199219 L 0.710938 2.800781 C 0.710938 1.648438 1.648438 0.710938 2.800781 0.710938 Z M 2.800781 0.710938 "/>
<path style=" stroke:none;fill-rule:nonzero;fill:rgb(100%,100%,100%);fill-opacity:1;" d="M 6.007812 3.003906 C 5.714844 3 5.425781 3.042969 5.144531 3.117188 C 3.832031 3.453125 2.980469 4.695312 3 5.996094 L 2.25 5.996094 L 3.375 7.503906 L 4.5 5.996094 L 3.75 5.996094 C 3.746094 5.453125 3.835938 4.90625 4.214844 4.5 C 4.875 3.753906 6.183594 3.445312 7.128906 3.996094 C 7.445312 4.390625 8.140625 3.957031 7.777344 3.550781 C 7.253906 3.164062 6.664062 3.003906 6.007812 3.003906 Z M 8.625 4.496094 L 7.5 6.003906 L 8.25 6.003906 C 8.253906 6.546875 8.164062 7.09375 7.785156 7.5 C 7.074219 8.320312 5.816406 8.554688 4.867188 8.003906 C 4.554688 7.609375 3.859375 8.042969 4.222656 8.445312 C 4.746094 8.835938 5.335938 8.996094 5.992188 8.996094 L 5.996094 8.996094 C 6.285156 9 6.574219 8.957031 6.855469 8.882812 C 8.167969 8.546875 9.019531 7.304688 9 6.003906 L 9.75 6.003906 Z M 8.625 4.496094 "/>
</g>
</svg>
