<?xml version="1.0" encoding="UTF-8"?>
<svg xmlns="http://www.w3.org/2000/svg" xmlns:xlink="http://www.w3.org/1999/xlink" width="12pt" height="12pt" viewBox="0 0 12 12" version="1.1">
<g id="surface1">
<path style=" stroke:none;fill-rule:evenodd;fill:rgb(54.117647%,29.411765%,17.254902%);fill-opacity:1;" d="M 2.800781 0.710938 L 9.199219 0.710938 C 10.351562 0.710938 11.289062 1.648438 11.289062 2.800781 L 11.289062 9.199219 C 11.289062 10.351562 10.351562 11.289062 9.199219 11.289062 L 2.800781 11.289062 C 1.648438 11.289062 0.710938 10.351562 0.710938 9.199219 L 0.710938 2.800781 C 0.710938 1.648438 1.648438 0.710938 2.800781 0.710938 Z M 2.800781 0.710938 "/>
<path style=" stroke:none;fill-rule:nonzero;fill:rgb(98.431373%,71.372549%,29.019608%);fill-opacity:1;" d="M 3.644531 10.457031 C 3.652344 10.445312 3.667969 10.339844 3.683594 10.230469 C 3.769531 9.5625 3.765625 9.132812 3.9375 8.847656 C 3.96875 8.796875 4.0625 8.679688 4.140625 8.589844 C 4.21875 8.5 4.285156 8.445312 4.285156 8.433594 C 4.285156 8.421875 4.261719 8.417969 4.210938 8.425781 C 3.964844 8.464844 3.816406 8.421875 3.75 8.304688 C 3.714844 8.246094 3.753906 8.324219 3.75 6.855469 C 3.746094 5.167969 3.761719 5.328125 3.917969 5.25 C 4.027344 5.195312 4.167969 5.109375 4.292969 5.089844 C 4.5 5.054688 4.644531 5.210938 4.75 5.414062 C 4.777344 5.46875 4.808594 5.511719 4.820312 5.507812 C 4.855469 5.496094 4.859375 3.976562 4.828125 3.976562 C 4.8125 3.976562 4.789062 4.015625 4.773438 4.058594 C 4.726562 4.171875 4.625 4.433594 4.503906 4.488281 C 4.375 4.542969 3.96875 4.6875 3.882812 4.6875 C 3.847656 4.6875 3.761719 4.679688 3.75 4.667969 C 3.734375 4.652344 3.75 4.386719 3.75 3.574219 C 3.75 2.980469 3.742188 2.375 3.75 2.367188 C 3.816406 2.261719 4.84375 2.21875 5.199219 2.300781 C 5.273438 2.316406 5.394531 2.359375 5.46875 2.394531 C 5.667969 2.492188 5.792969 2.667969 5.929688 2.925781 C 5.9375 2.9375 5.957031 2.949219 5.96875 2.949219 C 5.988281 2.949219 5.996094 2.90625 6 2.34375 C 6 1.972656 6 1.535156 5.992188 1.515625 C 5.992188 1.515625 5.800781 1.769531 5.773438 1.820312 L 5.71875 1.867188 L 5.386719 1.859375 C 5.203125 1.855469 4.394531 1.859375 3.734375 1.859375 C 3.070312 1.859375 2.289062 1.871094 2.273438 1.875 C 2.214844 1.898438 2.273438 1.9375 2.421875 2.015625 C 2.679688 2.15625 2.921875 2.269531 2.984375 2.503906 C 3.019531 2.640625 3.019531 4.582031 2.984375 4.738281 C 2.945312 4.886719 2.828125 4.996094 2.714844 5.117188 C 2.660156 5.175781 2.617188 5.226562 2.617188 5.238281 C 2.617188 5.246094 2.660156 5.296875 2.714844 5.347656 C 2.820312 5.453125 2.960938 5.578125 2.988281 5.683594 C 3.015625 5.785156 3.035156 8.730469 3.011719 8.890625 C 2.988281 9.054688 2.882812 9.121094 2.75 9.265625 C 2.621094 9.398438 2.621094 9.398438 2.816406 9.46875 C 2.972656 9.53125 3.265625 9.664062 3.324219 9.753906 C 3.386719 9.847656 3.46875 10.019531 3.535156 10.261719 C 3.566406 10.371094 3.59375 10.464844 3.597656 10.472656 C 3.609375 10.492188 3.632812 10.488281 3.644531 10.457031 Z M 3.644531 10.457031 "/>
<path style=" stroke:none;fill-rule:nonzero;fill:rgb(98.431373%,71.372549%,29.019608%);fill-opacity:1;" d="M 6.769531 2.234375 C 6.75 2.246094 6.746094 2.398438 6.75 2.882812 C 6.757812 3.589844 6.734375 3.359375 6.878906 3.175781 C 7.078125 2.917969 7.347656 2.984375 7.460938 2.972656 C 7.75 2.964844 7.820312 2.96875 7.847656 2.996094 C 7.878906 3.023438 7.902344 3.347656 7.878906 3.996094 L 7.878906 4.867188 C 7.878906 4.867188 7.679688 5.023438 7.570312 5.132812 C 7.535156 5.171875 7.503906 5.21875 7.503906 5.230469 C 7.503906 5.242188 7.53125 5.285156 7.5625 5.320312 C 7.644531 5.46875 7.871094 5.59375 7.871094 5.59375 L 7.875 7.09375 C 7.882812 8.734375 7.878906 8.636719 7.84375 8.667969 C 7.84375 8.667969 7.574219 8.949219 7.5 8.984375 C 7.886719 9.113281 8.039062 9.214844 8.203125 9.566406 C 8.226562 9.652344 8.234375 9.734375 8.25 9.734375 C 8.265625 9.734375 8.273438 9.652344 8.296875 9.566406 C 8.460938 9.214844 8.613281 9.113281 9 8.984375 C 8.925781 8.949219 8.65625 8.667969 8.65625 8.667969 C 8.621094 8.636719 8.617188 8.734375 8.625 7.09375 L 8.628906 5.59375 C 8.628906 5.59375 8.855469 5.46875 8.9375 5.320312 C 8.96875 5.285156 8.996094 5.242188 8.996094 5.230469 C 8.996094 5.21875 8.964844 5.171875 8.929688 5.132812 C 8.820312 5.023438 8.621094 4.867188 8.621094 4.867188 L 8.621094 3.996094 C 8.597656 3.347656 8.621094 3.023438 8.652344 2.996094 C 8.679688 2.96875 8.75 2.964844 9.039062 2.972656 C 9.152344 2.984375 9.421875 2.917969 9.621094 3.175781 C 9.765625 3.359375 9.742188 3.589844 9.75 2.882812 C 9.753906 2.398438 9.75 2.246094 9.730469 2.234375 C 9.664062 2.339844 9.515625 2.605469 9.515625 2.605469 C 9.488281 2.617188 8.96875 2.609375 8.25 2.609375 C 7.53125 2.609375 7.011719 2.617188 6.984375 2.605469 C 6.984375 2.605469 6.835938 2.339844 6.769531 2.234375 Z M 6.769531 2.234375 "/>
</g>
</svg>
