<?xml version="1.0" encoding="UTF-8"?>
<svg xmlns="http://www.w3.org/2000/svg" xmlns:xlink="http://www.w3.org/1999/xlink" width="12pt" height="12pt" viewBox="0 0 12 12" version="1.1">
<g id="surface1">
<path style=" stroke:none;fill-rule:evenodd;fill:rgb(90.196078%,90.196078%,90.196078%);fill-opacity:1;" d="M 2.800781 0.710938 L 9.199219 0.710938 C 10.351562 0.710938 11.289062 1.648438 11.289062 2.800781 L 11.289062 9.199219 C 11.289062 10.351562 10.351562 11.289062 9.199219 11.289062 L 2.800781 11.289062 C 1.648438 11.289062 0.710938 10.351562 0.710938 9.199219 L 0.710938 2.800781 C 0.710938 1.648438 1.648438 0.710938 2.800781 0.710938 Z M 2.800781 0.710938 "/>
<path style=" stroke:none;fill-rule:evenodd;fill:rgb(90.980392%,17.647059%,17.647059%);fill-opacity:1;" d="M 11.289062 6.761719 L 10.839844 6.164062 L 10.171875 7.054688 L 10.839844 7.949219 L 11.289062 7.351562 Z M 11.289062 6.761719 "/>
<path style=" stroke:none;fill-rule:evenodd;fill:rgb(99.607843%,75.294118%,2.352941%);fill-opacity:1;" d="M 11.289062 3.042969 L 6.070312 3.042969 C 5.910156 3.042969 5.765625 3.109375 5.660156 3.21875 C 5.558594 3.324219 5.492188 3.472656 5.492188 3.640625 C 5.628906 4.144531 5.664062 4.648438 5.628906 5.09375 C 5.59375 5.539062 5.488281 5.925781 5.347656 6.195312 C 5.207031 6.46875 5.03125 6.628906 4.851562 6.617188 C 4.761719 6.609375 4.667969 6.5625 4.582031 6.464844 C 4.496094 6.367188 4.410156 6.21875 4.332031 6.015625 C 4.230469 5.746094 4.105469 5.519531 3.925781 5.363281 C 3.742188 5.207031 3.507812 5.121094 3.175781 5.125 L 2.886719 5.125 C 2.722656 5.125 2.59375 5.257812 2.59375 5.421875 L 2.59375 6.015625 C 2.59375 6.179688 2.722656 6.3125 2.886719 6.3125 L 3.175781 6.3125 L 3.175781 6.90625 C 3.203125 7.378906 3.242188 7.75 3.300781 8.046875 C 3.359375 8.339844 3.433594 8.558594 3.527344 8.726562 C 3.617188 8.890625 3.730469 9.003906 3.863281 9.089844 C 4 9.175781 4.15625 9.230469 4.332031 9.285156 C 4.582031 9.375 4.777344 9.460938 4.933594 9.566406 C 5.085938 9.667969 5.199219 9.785156 5.285156 9.9375 C 5.441406 10.21875 5.476562 10.65625 5.480469 11.289062 L 9.199219 11.289062 C 10.355469 11.289062 11.289062 10.355469 11.289062 9.199219 L 11.289062 7.351562 L 10.839844 7.949219 L 10.171875 7.054688 L 10.839844 6.164062 L 11.289062 6.761719 Z M 11.289062 3.042969 "/>
<path style=" stroke:none;fill-rule:evenodd;fill:rgb(79.607843%,64.313725%,17.647059%);fill-opacity:1;" d="M 11.246094 2.597656 L 6.066406 2.597656 C 6.042969 2.597656 6.023438 2.605469 6.003906 2.605469 C 5.964844 2.644531 5.929688 2.679688 5.902344 2.71875 C 5.875 2.757812 5.851562 2.796875 5.832031 2.835938 C 5.8125 2.875 5.800781 2.914062 5.792969 2.953125 C 5.785156 2.984375 5.78125 3.015625 5.78125 3.042969 C 5.785156 3.070312 5.785156 3.09375 5.792969 3.121094 C 5.875 3.074219 5.964844 3.042969 6.066406 3.042969 L 11.289062 3.042969 L 11.289062 2.800781 C 11.289062 2.730469 11.253906 2.667969 11.246094 2.597656 Z M 11.246094 2.597656 "/>
<path style=" stroke:none;fill-rule:evenodd;fill:rgb(90.196078%,90.196078%,90.196078%);fill-opacity:1;" d="M 5.820312 2.867188 C 5.8125 2.886719 5.804688 2.910156 5.796875 2.933594 C 5.796875 2.9375 5.796875 2.941406 5.796875 2.945312 C 5.800781 2.917969 5.8125 2.890625 5.820312 2.867188 Z M 5.820312 2.867188 "/>
<path style=" stroke:none;fill-rule:evenodd;fill:rgb(90.196078%,90.196078%,90.196078%);fill-opacity:1;" d="M 5.886719 2.746094 C 5.871094 2.765625 5.855469 2.789062 5.839844 2.8125 C 5.839844 2.820312 5.835938 2.824219 5.835938 2.828125 C 5.851562 2.800781 5.867188 2.773438 5.886719 2.746094 Z M 5.886719 2.746094 "/>
<path style=" stroke:none;fill-rule:evenodd;fill:rgb(90.196078%,90.196078%,90.196078%);fill-opacity:1;" d="M 5.996094 2.613281 C 5.96875 2.640625 5.941406 2.671875 5.917969 2.699219 C 5.914062 2.703125 5.910156 2.710938 5.90625 2.714844 C 5.933594 2.679688 5.964844 2.648438 5.996094 2.613281 Z M 5.996094 2.613281 "/>
<path style=" stroke:none;fill-rule:evenodd;fill:rgb(99.607843%,80.392157%,21.960784%);fill-opacity:1;" d="M 11.136719 2.21875 C 11.117188 2.210938 11.097656 2.199219 11.074219 2.191406 C 11 2.164062 10.921875 2.136719 10.839844 2.113281 C 10.757812 2.089844 10.671875 2.066406 10.585938 2.042969 C 10.5 2.023438 10.40625 2.003906 10.316406 1.984375 C 10.222656 1.96875 10.128906 1.953125 10.03125 1.9375 C 9.9375 1.921875 9.84375 1.910156 9.75 1.902344 C 9.753906 1.886719 9.753906 1.871094 9.753906 1.855469 C 9.753906 1.835938 9.753906 1.816406 9.75 1.796875 C 9.746094 1.777344 9.742188 1.757812 9.738281 1.738281 C 9.730469 1.71875 9.722656 1.699219 9.714844 1.679688 C 9.707031 1.660156 9.699219 1.644531 9.6875 1.625 C 9.675781 1.605469 9.664062 1.589844 9.648438 1.570312 C 9.636719 1.554688 9.621094 1.535156 9.605469 1.519531 C 9.589844 1.503906 9.570312 1.488281 9.554688 1.472656 C 9.535156 1.457031 9.515625 1.445312 9.496094 1.429688 C 9.476562 1.414062 9.453125 1.402344 9.429688 1.390625 C 9.410156 1.378906 9.386719 1.367188 9.363281 1.355469 C 9.339844 1.34375 9.3125 1.335938 9.289062 1.328125 C 9.261719 1.316406 9.238281 1.308594 9.210938 1.300781 C 9.183594 1.292969 9.15625 1.289062 9.128906 1.285156 C 9.101562 1.277344 9.074219 1.273438 9.046875 1.269531 C 9.019531 1.265625 8.992188 1.265625 8.960938 1.261719 C 8.941406 1.261719 8.921875 1.261719 8.902344 1.261719 C 8.875 1.261719 8.847656 1.261719 8.816406 1.265625 C 8.789062 1.265625 8.761719 1.269531 8.734375 1.273438 C 8.707031 1.277344 8.679688 1.28125 8.652344 1.289062 C 8.625 1.292969 8.597656 1.300781 8.570312 1.308594 C 8.542969 1.316406 8.519531 1.324219 8.496094 1.335938 C 8.46875 1.34375 8.445312 1.355469 8.421875 1.363281 C 8.398438 1.375 8.375 1.386719 8.355469 1.402344 C 8.332031 1.414062 8.3125 1.425781 8.292969 1.441406 C 8.273438 1.457031 8.253906 1.46875 8.234375 1.484375 C 8.21875 1.5 8.203125 1.519531 8.1875 1.535156 C 8.171875 1.550781 8.15625 1.570312 8.144531 1.585938 C 8.132812 1.605469 8.121094 1.621094 8.109375 1.640625 C 8.097656 1.660156 8.089844 1.679688 8.082031 1.695312 C 8.074219 1.714844 8.070312 1.734375 8.0625 1.753906 C 8.058594 1.773438 8.054688 1.792969 8.054688 1.8125 C 8.050781 1.828125 8.050781 1.839844 8.050781 1.855469 C 8.050781 1.871094 8.050781 1.886719 8.054688 1.902344 C 7.953125 1.910156 7.855469 1.925781 7.757812 1.9375 C 7.660156 1.953125 7.566406 1.96875 7.472656 1.988281 C 7.382812 2.007812 7.292969 2.027344 7.203125 2.046875 C 7.117188 2.070312 7.035156 2.09375 6.953125 2.117188 C 6.871094 2.140625 6.792969 2.167969 6.71875 2.195312 C 6.644531 2.222656 6.574219 2.253906 6.507812 2.28125 C 6.441406 2.3125 6.378906 2.34375 6.320312 2.378906 C 6.261719 2.410156 6.207031 2.445312 6.15625 2.480469 C 6.109375 2.515625 6.0625 2.550781 6.023438 2.585938 C 6.015625 2.59375 6.011719 2.601562 6.003906 2.605469 C 6.023438 2.605469 6.042969 2.597656 6.066406 2.597656 L 11.246094 2.597656 C 11.234375 2.460938 11.175781 2.34375 11.136719 2.21875 Z M 11.136719 2.21875 "/>
<path style=" stroke:none;fill-rule:evenodd;fill:rgb(90.196078%,90.196078%,90.196078%);fill-opacity:1;" d="M 2.800781 0.710938 C 1.644531 0.710938 0.710938 1.644531 0.710938 2.800781 L 0.710938 9.199219 C 0.710938 10.355469 1.644531 11.289062 2.800781 11.289062 L 5.480469 11.289062 C 5.476562 10.65625 5.441406 10.21875 5.285156 9.9375 C 5.199219 9.785156 5.085938 9.667969 4.933594 9.566406 C 4.777344 9.460938 4.582031 9.375 4.332031 9.285156 C 4.15625 9.230469 4 9.175781 3.863281 9.089844 C 3.730469 9.003906 3.617188 8.890625 3.527344 8.722656 C 3.433594 8.558594 3.359375 8.339844 3.300781 8.046875 C 3.242188 7.75 3.203125 7.378906 3.175781 6.90625 L 3.175781 6.3125 L 2.886719 6.3125 C 2.722656 6.3125 2.59375 6.179688 2.59375 6.015625 L 2.59375 5.421875 C 2.59375 5.257812 2.722656 5.125 2.886719 5.125 L 3.175781 5.125 C 3.507812 5.121094 3.742188 5.207031 3.925781 5.363281 C 4.105469 5.519531 4.230469 5.746094 4.332031 6.015625 C 4.410156 6.21875 4.496094 6.367188 4.582031 6.464844 C 4.667969 6.5625 4.761719 6.609375 4.851562 6.617188 C 5.03125 6.628906 5.207031 6.46875 5.347656 6.195312 C 5.488281 5.925781 5.59375 5.539062 5.628906 5.09375 C 5.664062 4.648438 5.628906 4.144531 5.492188 3.640625 C 5.492188 3.472656 5.558594 3.324219 5.660156 3.21875 C 5.765625 3.109375 5.910156 3.042969 6.070312 3.042969 L 6.066406 3.042969 C 5.964844 3.042969 5.875 3.074219 5.792969 3.121094 C 5.785156 3.09375 5.785156 3.070312 5.78125 3.042969 C 5.78125 3.015625 5.785156 2.984375 5.792969 2.953125 C 5.792969 2.949219 5.792969 2.949219 5.792969 2.945312 C 5.796875 2.941406 5.796875 2.9375 5.796875 2.933594 C 5.804688 2.910156 5.8125 2.886719 5.820312 2.867188 C 5.824219 2.855469 5.828125 2.84375 5.832031 2.835938 C 5.832031 2.832031 5.835938 2.832031 5.835938 2.828125 C 5.835938 2.824219 5.839844 2.820312 5.84375 2.8125 C 5.855469 2.789062 5.871094 2.765625 5.886719 2.746094 C 5.894531 2.734375 5.898438 2.726562 5.902344 2.71875 C 5.902344 2.71875 5.90625 2.714844 5.90625 2.714844 C 5.910156 2.710938 5.914062 2.703125 5.917969 2.699219 C 5.941406 2.671875 5.96875 2.640625 5.996094 2.613281 C 6 2.613281 6 2.609375 6.003906 2.609375 C 6.003906 2.605469 6.003906 2.609375 6.003906 2.609375 C 6.011719 2.601562 6.015625 2.59375 6.023438 2.585938 C 6.0625 2.550781 6.109375 2.515625 6.15625 2.480469 C 6.207031 2.445312 6.261719 2.410156 6.320312 2.378906 C 6.378906 2.34375 6.441406 2.3125 6.507812 2.28125 C 6.574219 2.253906 6.644531 2.222656 6.71875 2.195312 C 6.792969 2.167969 6.871094 2.140625 6.953125 2.117188 C 7.035156 2.09375 7.117188 2.070312 7.203125 2.046875 C 7.292969 2.027344 7.382812 2.007812 7.472656 1.988281 C 7.566406 1.96875 7.660156 1.953125 7.757812 1.9375 C 7.855469 1.925781 7.953125 1.910156 8.054688 1.902344 C 8.050781 1.886719 8.050781 1.871094 8.050781 1.855469 C 8.050781 1.839844 8.050781 1.828125 8.054688 1.8125 C 8.054688 1.792969 8.058594 1.773438 8.0625 1.753906 C 8.070312 1.734375 8.074219 1.714844 8.082031 1.695312 C 8.089844 1.679688 8.097656 1.660156 8.109375 1.640625 C 8.121094 1.621094 8.132812 1.605469 8.144531 1.585938 C 8.15625 1.570312 8.171875 1.550781 8.1875 1.535156 C 8.203125 1.519531 8.21875 1.5 8.234375 1.484375 C 8.253906 1.46875 8.273438 1.457031 8.292969 1.441406 C 8.3125 1.425781 8.332031 1.414062 8.355469 1.402344 C 8.375 1.386719 8.398438 1.375 8.421875 1.367188 C 8.445312 1.355469 8.46875 1.34375 8.496094 1.335938 C 8.519531 1.324219 8.542969 1.316406 8.570312 1.308594 C 8.597656 1.300781 8.625 1.292969 8.652344 1.289062 C 8.679688 1.28125 8.707031 1.277344 8.734375 1.273438 C 8.761719 1.269531 8.789062 1.265625 8.816406 1.265625 C 8.847656 1.261719 8.875 1.261719 8.902344 1.261719 C 8.921875 1.261719 8.941406 1.261719 8.960938 1.261719 C 8.992188 1.265625 9.019531 1.265625 9.046875 1.269531 C 9.074219 1.273438 9.101562 1.277344 9.128906 1.285156 C 9.15625 1.289062 9.183594 1.292969 9.210938 1.300781 C 9.238281 1.308594 9.261719 1.316406 9.289062 1.328125 C 9.3125 1.335938 9.339844 1.34375 9.363281 1.355469 C 9.386719 1.367188 9.410156 1.378906 9.429688 1.390625 C 9.453125 1.402344 9.476562 1.414062 9.496094 1.429688 C 9.515625 1.445312 9.535156 1.457031 9.554688 1.472656 C 9.570312 1.488281 9.589844 1.503906 9.605469 1.519531 C 9.621094 1.535156 9.636719 1.554688 9.648438 1.570312 C 9.664062 1.589844 9.675781 1.605469 9.6875 1.625 C 9.699219 1.644531 9.707031 1.660156 9.714844 1.679688 C 9.722656 1.699219 9.730469 1.71875 9.738281 1.738281 C 9.742188 1.757812 9.746094 1.777344 9.75 1.796875 C 9.753906 1.816406 9.753906 1.835938 9.753906 1.855469 C 9.753906 1.871094 9.753906 1.886719 9.75 1.902344 C 9.84375 1.910156 9.9375 1.921875 10.03125 1.9375 C 10.128906 1.953125 10.222656 1.96875 10.316406 1.984375 C 10.40625 2.003906 10.5 2.023438 10.585938 2.042969 C 10.671875 2.066406 10.757812 2.089844 10.839844 2.113281 C 10.921875 2.136719 11 2.164062 11.074219 2.191406 C 11.097656 2.199219 11.117188 2.210938 11.136719 2.21875 C 10.882812 1.355469 10.144531 0.710938 9.199219 0.710938 Z M 2.800781 0.710938 "/>
<path style=" stroke:none;fill-rule:evenodd;fill:rgb(90.980392%,17.647059%,17.647059%);fill-opacity:1;" d="M 6.828125 6.164062 L 6.160156 7.054688 L 6.828125 7.949219 L 7.496094 7.054688 Z M 6.828125 6.164062 "/>
<path style=" stroke:none;fill-rule:evenodd;fill:rgb(90.980392%,17.647059%,17.647059%);fill-opacity:1;" d="M 6.828125 6.164062 L 7.496094 7.054688 L 6.828125 7.949219 L 6.160156 7.054688 Z M 6.828125 6.164062 "/>
<path style=" stroke:none;fill-rule:evenodd;fill:rgb(90.980392%,17.647059%,17.647059%);fill-opacity:1;" d="M 8.835938 5.71875 L 7.945312 7.054688 L 8.835938 8.394531 L 9.730469 7.054688 Z M 8.835938 5.71875 "/>
<path style=" stroke:none;fill-rule:evenodd;fill:rgb(90.980392%,17.647059%,17.647059%);fill-opacity:1;" d="M 8.835938 5.71875 L 9.730469 7.054688 L 8.835938 8.394531 L 7.945312 7.054688 Z M 8.835938 5.71875 "/>
</g>
</svg>
