<?xml version="1.0" encoding="UTF-8"?>
<svg xmlns="http://www.w3.org/2000/svg" xmlns:xlink="http://www.w3.org/1999/xlink" width="12pt" height="12pt" viewBox="0 0 12 12" version="1.1">
<defs>
<clipPath id="clip1">
  <rect width="12" height="12"/>
</clipPath>
<g id="surface6" clip-path="url(#clip1)">
<path style=" stroke:none;fill-rule:nonzero;fill:rgb(61.568627%,75.686275%,70.588235%);fill-opacity:1;" d="M 3.75 2.988281 L 3.75 2.613281 L 8.25 2.613281 L 8.25 2.988281 Z M 3.75 2.988281 "/>
</g>
<clipPath id="clip2">
  <rect width="12" height="12"/>
</clipPath>
<g id="surface9" clip-path="url(#clip2)">
<path style=" stroke:none;fill-rule:nonzero;fill:rgb(61.568627%,75.686275%,70.588235%);fill-opacity:1;" d="M 3.75 4.113281 L 3.75 3.738281 L 8.25 3.738281 L 8.25 4.113281 Z M 3.75 4.113281 "/>
</g>
<clipPath id="clip3">
  <rect width="12" height="12"/>
</clipPath>
<g id="surface12" clip-path="url(#clip3)">
<path style=" stroke:none;fill-rule:nonzero;fill:rgb(61.568627%,75.686275%,70.588235%);fill-opacity:1;" d="M 3.75 5.238281 L 3.75 4.863281 L 8.25 4.863281 L 8.25 5.238281 Z M 3.75 5.238281 "/>
</g>
<clipPath id="clip4">
  <rect width="12" height="12"/>
</clipPath>
<g id="surface15" clip-path="url(#clip4)">
<path style=" stroke:none;fill-rule:nonzero;fill:rgb(61.568627%,75.686275%,70.588235%);fill-opacity:1;" d="M 3.75 6.363281 L 3.75 5.988281 L 6.75 5.988281 L 6.75 6.363281 Z M 3.75 6.363281 "/>
</g>
</defs>
<g id="surface1">
<path style=" stroke:none;fill-rule:evenodd;fill:rgb(34.117647%,69.019608%,45.490196%);fill-opacity:1;" d="M 0.710938 8.285156 L 0.710938 9.195312 C 0.710938 10.355469 1.644531 11.289062 2.804688 11.289062 L 9.199219 11.289062 C 10.355469 11.289062 11.289062 10.355469 11.289062 9.195312 L 11.289062 8.285156 L 9.429688 8.285156 L 7.851562 10.085938 L 6.277344 8.285156 Z M 0.710938 8.285156 "/>
<path style=" stroke:none;fill-rule:evenodd;fill:rgb(22.745098%,50.980392%,40.784314%);fill-opacity:1;" d="M 0.710938 8.285156 L 6.277344 8.285156 L 7.851562 10.085938 L 9.429688 8.285156 L 11.289062 8.285156 L 11.289062 2.800781 C 11.289062 1.644531 10.355469 0.710938 9.199219 0.710938 L 2.804688 0.710938 C 1.644531 0.710938 0.710938 1.644531 0.710938 2.800781 Z M 0.710938 8.285156 "/>
<use xlink:href="#surface6"/>
<use xlink:href="#surface9"/>
<use xlink:href="#surface12"/>
<use xlink:href="#surface15"/>
</g>
</svg>
