<?xml version="1.0" encoding="UTF-8"?>
<svg xmlns="http://www.w3.org/2000/svg" xmlns:xlink="http://www.w3.org/1999/xlink" width="12pt" height="12pt" viewBox="0 0 12 12" version="1.1">
<g id="surface1">
<path style=" stroke:none;fill-rule:evenodd;fill:rgb(100%,49.019608%,0%);fill-opacity:1;" d="M 2.800781 0.710938 L 9.199219 0.710938 C 10.351562 0.710938 11.289062 1.648438 11.289062 2.800781 L 11.289062 9.199219 C 11.289062 10.351562 10.351562 11.289062 9.199219 11.289062 L 2.800781 11.289062 C 1.648438 11.289062 0.710938 10.351562 0.710938 9.199219 L 0.710938 2.800781 C 0.710938 1.648438 1.648438 0.710938 2.800781 0.710938 Z M 2.800781 0.710938 "/>
<path style=" stroke:none;fill-rule:evenodd;fill:rgb(100%,49.019608%,0%);fill-opacity:1;" d="M 10.675781 1.324219 C 10.300781 0.945312 9.777344 0.710938 9.199219 0.710938 L 2.804688 0.710938 C 1.644531 0.710938 0.710938 1.644531 0.710938 2.800781 L 0.710938 9.195312 C 0.710938 10.355469 1.644531 11.289062 2.804688 11.289062 L 6 11.289062 L 6 6 Z M 10.675781 1.324219 "/>
<path style=" stroke:none;fill-rule:evenodd;fill:rgb(100%,56.470588%,14.509804%);fill-opacity:1;" d="M 10.675781 1.324219 L 6 6 L 6 11.289062 L 9.199219 11.289062 C 10.355469 11.289062 11.289062 10.355469 11.289062 9.195312 L 11.289062 2.800781 C 11.289062 2.222656 11.054688 1.699219 10.675781 1.324219 Z M 10.675781 1.324219 "/>
<path style=" stroke:none;fill-rule:nonzero;fill:rgb(36.862745%,36.862745%,36.862745%);fill-opacity:1;" d="M 8.835938 2.980469 L 5.816406 5.816406 L 6.183594 6.1875 L 9.019531 3.164062 Z M 8.835938 2.980469 "/>
<path style=" stroke:none;fill-rule:nonzero;fill:rgb(100%,100%,100%);fill-opacity:1;" d="M 5.871094 6 L 5.871094 10.125 L 6.128906 10.125 L 6.128906 6 Z M 5.871094 6 "/>
<path style=" stroke:none;fill-rule:nonzero;fill:rgb(24.705882%,24.705882%,24.705882%);fill-opacity:1;" d="M 4.03125 3.84375 L 3.847656 4.027344 L 5.816406 6.1875 L 6.1875 5.816406 Z M 4.03125 3.84375 "/>
<path style=" stroke:none;fill-rule:nonzero;fill:rgb(24.705882%,24.705882%,24.705882%);fill-opacity:1;" d="M 6.257812 6 C 6.257812 6.144531 6.144531 6.257812 6 6.257812 C 5.859375 6.257812 5.742188 6.144531 5.742188 6 C 5.742188 5.859375 5.859375 5.742188 6 5.742188 C 6.144531 5.742188 6.257812 5.859375 6.257812 6 Z M 6.257812 6 "/>
</g>
</svg>
