<?xml version="1.0" encoding="UTF-8"?>
<svg xmlns="http://www.w3.org/2000/svg" xmlns:xlink="http://www.w3.org/1999/xlink" width="12pt" height="12pt" viewBox="0 0 12 12" version="1.1">
<g id="surface1">
<path style=" stroke:none;fill-rule:nonzero;fill:rgb(90.196078%,27.45098%,27.45098%);fill-opacity:1;" d="M 11.3125 2.5625 C 11.289062 2.363281 11.269531 2.164062 11.195312 1.988281 C 11.089844 1.738281 10.933594 1.511719 10.742188 1.324219 C 10.550781 1.132812 10.320312 0.980469 10.066406 0.875 C 9.816406 0.769531 9.535156 0.710938 9.242188 0.710938 L 2.757812 0.710938 C 2.464844 0.710938 2.183594 0.769531 1.933594 0.875 C 1.679688 0.980469 1.449219 1.132812 1.257812 1.324219 C 1.066406 1.511719 0.910156 1.738281 0.804688 1.988281 C 0.699219 2.238281 0.640625 2.511719 0.640625 2.804688 L 0.640625 3.804688 L 2.746094 7.40625 L 2.804688 7.523438 L 2.820312 7.535156 L 2.953125 7.761719 L 4.175781 8.730469 L 4.515625 8.585938 L 4.90625 8.832031 C 4.859375 8.746094 4.8125 8.621094 4.769531 8.480469 L 7.054688 7.519531 L 4.6875 3.472656 C 4.90625 2.980469 5.285156 2.636719 5.949219 2.5625 Z M 11.3125 2.5625 "/>
<path style=" stroke:none;fill-rule:nonzero;fill:rgb(89.803922%,53.72549%,53.72549%);fill-opacity:1;" d="M 6.9375 11.289062 L 9.269531 11.289062 C 9.558594 11.289062 9.835938 11.230469 10.085938 11.125 C 10.335938 11.019531 10.5625 10.867188 10.75 10.675781 C 10.9375 10.488281 11.09375 10.261719 11.199219 10.011719 C 11.304688 9.761719 11.359375 9.488281 11.359375 9.199219 L 11.359375 2.804688 C 11.359375 2.71875 11.324219 2.644531 11.3125 2.5625 L 6.03125 2.5625 C 6.023438 2.5625 7.121094 3.050781 7.585938 3.320312 C 8.769531 4.003906 8.894531 6.445312 8.898438 7.4375 L 9.097656 7.550781 L 8.894531 7.902344 C 8.894531 7.902344 8.894531 7.917969 8.894531 7.917969 L 8.816406 8.035156 Z M 6.9375 11.289062 "/>
<path style=" stroke:none;fill-rule:nonzero;fill:rgb(96.470588%,43.529412%,43.529412%);fill-opacity:1;" d="M 0.640625 3.042969 L 0.640625 9.199219 C 0.640625 9.488281 0.699219 9.761719 0.804688 10.011719 C 0.910156 10.261719 1.0625 10.488281 1.253906 10.675781 C 1.441406 10.867188 1.667969 11.019531 1.917969 11.125 C 2.167969 11.230469 2.441406 11.289062 2.734375 11.289062 L 6.9375 11.289062 L 9.242188 7.457031 C 8.980469 7.882812 7.894531 8.425781 7.429688 8.695312 C 5.945312 9.550781 4.0625 8.996094 3.203125 7.515625 Z M 0.640625 3.042969 "/>
<path style=" stroke:none;fill-rule:nonzero;fill:rgb(100%,100%,100%);fill-opacity:1;" d="M 9.460938 6 C 9.460938 4.101562 7.921875 2.5625 6.023438 2.5625 C 4.125 2.5625 2.585938 4.101562 2.585938 6 C 2.585938 7.898438 4.125 9.4375 6.023438 9.4375 C 7.921875 9.4375 9.460938 7.898438 9.460938 6 Z M 9.460938 6 "/>
<path style=" stroke:none;fill-rule:nonzero;fill:rgb(90.196078%,27.45098%,27.45098%);fill-opacity:1;" d="M 8.480469 6 C 8.480469 4.644531 7.378906 3.542969 6.023438 3.542969 C 4.667969 3.542969 3.566406 4.644531 3.566406 6 C 3.566406 7.355469 4.667969 8.457031 6.023438 8.457031 C 7.378906 8.457031 8.480469 7.355469 8.480469 6 Z M 8.480469 6 "/>
</g>
</svg>
