<?xml version="1.0" encoding="UTF-8"?>
<svg xmlns="http://www.w3.org/2000/svg" xmlns:xlink="http://www.w3.org/1999/xlink" width="12pt" height="12pt" viewBox="0 0 12 12" version="1.1">
<g id="surface1">
<path style=" stroke:none;fill-rule:evenodd;fill:rgb(39.607843%,58.431373%,76.470588%);fill-opacity:1;" d="M 2.800781 0.710938 L 9.199219 0.710938 C 10.351562 0.710938 11.289062 1.648438 11.289062 2.800781 L 11.289062 9.199219 C 11.289062 10.351562 10.351562 11.289062 9.199219 11.289062 L 2.800781 11.289062 C 1.648438 11.289062 0.710938 10.351562 0.710938 9.199219 L 0.710938 2.800781 C 0.710938 1.648438 1.648438 0.710938 2.800781 0.710938 Z M 2.800781 0.710938 "/>
<path style=" stroke:none;fill-rule:nonzero;fill:rgb(100%,100%,100%);fill-opacity:1;" d="M 5.949219 2.378906 C 5.480469 2.378906 5.035156 2.46875 4.621094 2.628906 C 4.78125 2.605469 4.96875 2.59375 5.195312 2.59375 C 6.492188 2.59375 7.226562 3.167969 7.761719 3.777344 C 8.117188 4.1875 8.738281 5.402344 9.199219 5.402344 C 9.332031 5.390625 9.4375 5.285156 9.519531 5.121094 C 9.070312 3.539062 7.644531 2.378906 5.949219 2.378906 Z M 5.949219 2.378906 "/>
<path style=" stroke:none;fill-rule:nonzero;fill:rgb(100%,100%,100%);fill-opacity:1;" d="M 3.675781 4.34375 C 4.929688 4.34375 7.140625 7.0625 9.484375 7.335938 C 9.546875 7.148438 9.589844 6.953125 9.621094 6.75 C 8.554688 6.511719 7.214844 5.242188 6.730469 4.761719 C 5.976562 4.011719 5.273438 3.261719 4.308594 3.261719 C 3.980469 3.261719 3.675781 3.316406 3.414062 3.398438 C 2.929688 3.859375 2.566406 4.453125 2.378906 5.121094 C 2.765625 4.726562 3.207031 4.34375 3.675781 4.34375 Z M 3.675781 4.34375 "/>
<path style=" stroke:none;fill-rule:nonzero;fill:rgb(100%,100%,100%);fill-opacity:1;" d="M 7.398438 8.609375 C 5.246094 8.609375 3.617188 7.421875 3.039062 7.421875 C 2.800781 7.421875 2.664062 7.589844 2.585938 7.792969 C 2.957031 8.597656 3.601562 9.246094 4.390625 9.621094 C 4.28125 9.328125 4.214844 8.941406 4.640625 8.941406 C 5.015625 8.941406 5.390625 9.273438 6.78125 9.273438 C 7.414062 9.273438 8 9.136719 8.429688 9 C 8.65625 8.789062 8.859375 8.554688 9.03125 8.292969 C 8.621094 8.445312 8.023438 8.609375 7.398438 8.609375 Z M 7.398438 8.609375 "/>
</g>
</svg>
