<?xml version="1.0" encoding="UTF-8"?>
<svg xmlns="http://www.w3.org/2000/svg" xmlns:xlink="http://www.w3.org/1999/xlink" width="12pt" height="12pt" viewBox="0 0 12 12" version="1.1">
<g id="surface1">
<path style=" stroke:none;fill-rule:evenodd;fill:rgb(70.588235%,30.196078%,44.705882%);fill-opacity:1;" d="M 2.800781 0.710938 L 9.199219 0.710938 C 10.351562 0.710938 11.289062 1.648438 11.289062 2.800781 L 11.289062 9.199219 C 11.289062 10.351562 10.351562 11.289062 9.199219 11.289062 L 2.800781 11.289062 C 1.648438 11.289062 0.710938 10.351562 0.710938 9.199219 L 0.710938 2.800781 C 0.710938 1.648438 1.648438 0.710938 2.800781 0.710938 Z M 2.800781 0.710938 "/>
<path style=" stroke:none;fill-rule:nonzero;fill:rgb(100%,74.509804%,13.72549%);fill-opacity:1;" d="M 3.378906 2.496094 L 3.378906 2.871094 L 3.191406 2.871094 C 2.878906 2.871094 2.628906 3.121094 2.628906 3.433594 C 2.628906 3.742188 2.878906 3.996094 3.191406 3.996094 L 3.378906 3.996094 L 3.378906 4.371094 L 2.660156 4.371094 C 2.738281 4.585938 2.945312 4.746094 3.191406 4.746094 L 3.378906 4.746094 L 3.378906 5.121094 L 3.753906 5.121094 L 3.753906 4.746094 L 3.941406 4.746094 C 4.25 4.746094 4.503906 4.492188 4.503906 4.183594 C 4.503906 3.871094 4.25 3.621094 3.941406 3.621094 L 3.753906 3.621094 L 3.753906 3.246094 L 4.46875 3.246094 C 4.390625 3.027344 4.183594 2.871094 3.941406 2.871094 L 3.753906 2.871094 L 3.753906 2.496094 Z M 3.191406 3.246094 L 3.378906 3.246094 L 3.378906 3.621094 L 3.191406 3.621094 C 3.085938 3.621094 3.003906 3.535156 3.003906 3.433594 C 3.003906 3.328125 3.085938 3.246094 3.191406 3.246094 Z M 3.753906 3.996094 L 3.941406 3.996094 C 4.042969 3.996094 4.128906 4.078125 4.128906 4.183594 C 4.128906 4.285156 4.042969 4.375 3.941406 4.371094 L 3.753906 4.371094 Z M 5.253906 4.746094 L 5.253906 5.121094 L 7.503906 5.121094 L 7.503906 4.746094 Z M 5.253906 4.746094 "/>
</g>
</svg>
