<?xml version="1.0" encoding="UTF-8"?>
<svg xmlns="http://www.w3.org/2000/svg" xmlns:xlink="http://www.w3.org/1999/xlink" width="12pt" height="12pt" viewBox="0 0 12 12" version="1.1">
<g id="surface1">
<path style=" stroke:none;fill-rule:evenodd;fill:rgb(98.039216%,74.117647%,49.803922%);fill-opacity:1;" d="M 2.800781 0.710938 L 9.199219 0.710938 C 10.351562 0.710938 11.289062 1.648438 11.289062 2.800781 L 11.289062 9.199219 C 11.289062 10.351562 10.351562 11.289062 9.199219 11.289062 L 2.800781 11.289062 C 1.648438 11.289062 0.710938 10.351562 0.710938 9.199219 L 0.710938 2.800781 C 0.710938 1.648438 1.648438 0.710938 2.800781 0.710938 Z M 2.800781 0.710938 "/>
<path style=" stroke:none;fill-rule:nonzero;fill:rgb(24.705882%,24.705882%,24.705882%);fill-opacity:1;" d="M 5.464844 2.25 C 5.316406 2.25 5.195312 2.378906 5.195312 2.539062 L 5.195312 7.152344 L 4.125 7.152344 L 6 9.75 L 7.875 7.152344 L 6.804688 7.152344 L 6.804688 2.539062 C 6.804688 2.378906 6.683594 2.25 6.535156 2.25 Z M 5.464844 2.25 "/>
<path style=" stroke:none;fill-rule:nonzero;fill:rgb(97.647059%,97.647059%,97.647059%);fill-opacity:1;" d="M 10.652344 8.34375 C 10.652344 9.585938 9.644531 10.59375 8.402344 10.59375 C 7.160156 10.59375 6.152344 9.585938 6.152344 8.34375 C 6.152344 7.101562 7.160156 6.09375 8.402344 6.09375 C 9.644531 6.09375 10.652344 7.101562 10.652344 8.34375 Z M 10.652344 8.34375 "/>
<path style=" stroke:none;fill-rule:nonzero;fill:rgb(24.705882%,24.705882%,24.705882%);fill-opacity:1;" d="M 7.203125 7.144531 L 7.203125 7.796875 L 9.605469 7.796875 L 9.605469 7.144531 Z M 7.203125 8.015625 L 7.203125 8.671875 L 9.605469 8.671875 L 9.605469 8.015625 Z M 7.203125 8.890625 L 7.203125 9.542969 L 9.605469 9.542969 L 9.605469 8.890625 Z M 7.203125 8.890625 "/>
</g>
</svg>
