<?xml version="1.0" encoding="UTF-8"?>
<svg xmlns="http://www.w3.org/2000/svg" xmlns:xlink="http://www.w3.org/1999/xlink" width="12pt" height="12pt" viewBox="0 0 12 12" version="1.1">
<g id="surface1">
<path style=" stroke:none;fill-rule:evenodd;fill:rgb(100%,74.117647%,0%);fill-opacity:1;" d="M 2.800781 0.710938 L 9.199219 0.710938 C 10.351562 0.710938 11.289062 1.648438 11.289062 2.800781 L 11.289062 9.199219 C 11.289062 10.351562 10.351562 11.289062 9.199219 11.289062 L 2.800781 11.289062 C 1.648438 11.289062 0.710938 10.351562 0.710938 9.199219 L 0.710938 2.800781 C 0.710938 1.648438 1.648438 0.710938 2.800781 0.710938 Z M 2.800781 0.710938 "/>
<path style=" stroke:none;fill-rule:nonzero;fill:rgb(20%,20%,20%);fill-opacity:1;" d="M 9.785156 6 C 9.785156 8.089844 8.089844 9.785156 6 9.785156 C 3.910156 9.785156 2.214844 8.089844 2.214844 6 C 2.214844 3.910156 3.910156 2.214844 6 2.214844 C 8.089844 2.214844 9.785156 3.910156 9.785156 6 Z M 9.785156 6 "/>
<path style=" stroke:none;fill-rule:nonzero;fill:rgb(100%,100%,100%);fill-opacity:1;" d="M 9.40625 6 C 9.40625 7.882812 7.882812 9.40625 6 9.40625 C 4.117188 9.40625 2.59375 7.882812 2.59375 6 C 2.59375 4.117188 4.117188 2.59375 6 2.59375 C 7.882812 2.59375 9.40625 4.117188 9.40625 6 Z M 9.40625 6 "/>
<path style=" stroke:none;fill-rule:nonzero;fill:rgb(100%,42.745098%,0%);fill-opacity:1;" d="M 4.523438 3.46875 L 4.699219 4.199219 L 5.3125 4.1875 L 5.636719 4.660156 L 4.234375 8.53125 L 5.476562 8.152344 L 6.273438 5.679688 L 7.5625 7.6875 L 8.546875 6.863281 L 8.117188 6.238281 L 7.769531 6.515625 L 5.777344 3.480469 Z M 4.523438 3.46875 "/>
</g>
</svg>
