<?xml version="1.0" encoding="UTF-8"?>
<svg xmlns="http://www.w3.org/2000/svg" xmlns:xlink="http://www.w3.org/1999/xlink" width="12pt" height="12pt" viewBox="0 0 12 12" version="1.1">
<g id="surface1">
<path style=" stroke:none;fill-rule:evenodd;fill:rgb(33.333333%,51.764706%,73.333333%);fill-opacity:1;" d="M 2.800781 0.710938 L 9.199219 0.710938 C 10.351562 0.710938 11.289062 1.648438 11.289062 2.800781 L 11.289062 9.199219 C 11.289062 10.351562 10.351562 11.289062 9.199219 11.289062 L 2.800781 11.289062 C 1.648438 11.289062 0.710938 10.351562 0.710938 9.199219 L 0.710938 2.800781 C 0.710938 1.648438 1.648438 0.710938 2.800781 0.710938 Z M 2.800781 0.710938 "/>
<path style=" stroke:none;fill-rule:nonzero;fill:rgb(100%,100%,100%);fill-opacity:1;" d="M 5.25 1.5 L 6.75 1.5 L 6.75 2.25 L 5.25 2.25 Z M 5.25 1.5 "/>
<path style=" stroke:none;fill-rule:nonzero;fill:rgb(100%,100%,100%);fill-opacity:1;" d="M 5.25 9.75 L 6.75 9.75 L 6.75 10.5 L 5.25 10.5 Z M 5.25 9.75 "/>
<path style=" stroke:none;fill-rule:nonzero;fill:rgb(100%,100%,100%);fill-opacity:1;" d="M 10.5 5.25 L 10.5 6.75 L 9.75 6.75 L 9.75 5.25 Z M 10.5 5.25 "/>
<path style=" stroke:none;fill-rule:nonzero;fill:rgb(100%,100%,100%);fill-opacity:1;" d="M 2.25 5.25 L 2.25 6.75 L 1.5 6.75 L 1.5 5.25 Z M 2.25 5.25 "/>
<path style=" stroke:none;fill-rule:nonzero;fill:rgb(100%,100%,100%);fill-opacity:1;" d="M 8.652344 2.289062 L 9.714844 3.347656 L 9.183594 3.878906 L 8.121094 2.820312 Z M 8.652344 2.289062 "/>
<path style=" stroke:none;fill-rule:nonzero;fill:rgb(100%,100%,100%);fill-opacity:1;" d="M 2.820312 8.121094 L 3.878906 9.183594 L 3.347656 9.714844 L 2.289062 8.652344 Z M 2.820312 8.121094 "/>
<path style=" stroke:none;fill-rule:nonzero;fill:rgb(100%,100%,100%);fill-opacity:1;" d="M 9.714844 8.652344 L 8.652344 9.714844 L 8.121094 9.183594 L 9.183594 8.121094 Z M 9.714844 8.652344 "/>
<path style=" stroke:none;fill-rule:nonzero;fill:rgb(100%,100%,100%);fill-opacity:1;" d="M 3.878906 2.820312 L 2.820312 3.878906 L 2.289062 3.347656 L 3.347656 2.289062 Z M 3.878906 2.820312 "/>
<path style=" stroke:none;fill-rule:nonzero;fill:rgb(100%,100%,100%);fill-opacity:1;" d="M 4.5 3.402344 C 3.191406 4.160156 2.652344 5.769531 3.238281 7.164062 L 8.386719 4.1875 C 7.472656 2.984375 5.808594 2.648438 4.5 3.402344 Z M 3.613281 7.8125 C 4.527344 9.015625 6.191406 9.351562 7.5 8.597656 C 8.808594 7.839844 9.347656 6.230469 8.761719 4.839844 Z M 3.613281 7.8125 "/>
</g>
</svg>
