<?xml version="1.0" encoding="UTF-8"?>
<svg xmlns="http://www.w3.org/2000/svg" xmlns:xlink="http://www.w3.org/1999/xlink" width="12pt" height="12pt" viewBox="0 0 12 12" version="1.1">
<g id="surface1">
<path style=" stroke:none;fill-rule:evenodd;fill:rgb(33.333333%,39.215686%,56.078431%);fill-opacity:1;" d="M 2.800781 0.710938 L 9.199219 0.710938 C 10.351562 0.710938 11.289062 1.648438 11.289062 2.800781 L 11.289062 9.199219 C 11.289062 10.351562 10.351562 11.289062 9.199219 11.289062 L 2.800781 11.289062 C 1.648438 11.289062 0.710938 10.351562 0.710938 9.199219 L 0.710938 2.800781 C 0.710938 1.648438 1.648438 0.710938 2.800781 0.710938 Z M 2.800781 0.710938 "/>
<path style=" stroke:none;fill-rule:evenodd;fill:rgb(100%,100%,100%);fill-opacity:1;" d="M 2.710938 2.625 C 4.167969 4.285156 4.359375 6 4.285156 7.125 C 4.214844 8.109375 3.609375 8.480469 3.492188 8.527344 C 3.253906 8.625 2.683594 8.769531 1.875 8.25 C 1.875 8.855469 2.394531 9.375 3.300781 9.375 C 4.207031 9.375 4.949219 8.648438 5.097656 7.828125 C 5.621094 3.601562 4.625 3.007812 4.625 3.007812 C 4.625 3.007812 3.714844 2.625 2.710938 2.625 Z M 5.625 2.625 C 5.890625 3.746094 7.875 4.1875 7.875 4.722656 C 7.875 5.253906 6.351562 5.347656 6.375 6.210938 C 6.398438 7.40625 8.316406 8.988281 10.125 9.375 C 9.332031 8.457031 7.324219 6.449219 7.984375 5.933594 C 10.367188 4.316406 8.183594 2.992188 5.625 2.625 Z M 5.625 2.625 "/>
</g>
</svg>
