<?xml version="1.0" encoding="UTF-8"?>
<svg xmlns="http://www.w3.org/2000/svg" xmlns:xlink="http://www.w3.org/1999/xlink" width="12pt" height="12pt" viewBox="0 0 12 12" version="1.1">
<g id="surface1">
<path style=" stroke:none;fill-rule:evenodd;fill:rgb(21.568627%,62.745098%,94.901961%);fill-opacity:1;" d="M 2.800781 0.710938 L 9.199219 0.710938 C 10.351562 0.710938 11.289062 1.648438 11.289062 2.800781 L 11.289062 9.199219 C 11.289062 10.351562 10.351562 11.289062 9.199219 11.289062 L 2.800781 11.289062 C 1.648438 11.289062 0.710938 10.351562 0.710938 9.199219 L 0.710938 2.800781 C 0.710938 1.648438 1.648438 0.710938 2.800781 0.710938 Z M 2.800781 0.710938 "/>
<path style=" stroke:none;fill-rule:nonzero;fill:rgb(100%,100%,100%);fill-opacity:1;" d="M 5.5 3 C 5.359375 3 5.25 3.085938 5.25 3.191406 L 5.25 6.128906 L 4.25 6.128906 L 6 8.476562 L 7.75 6.128906 L 6.75 6.128906 L 6.75 3.191406 C 6.75 3.085938 6.636719 3 6.5 3 Z M 6 8.476562 L 3.976562 8.476562 C 3.851562 8.476562 3.75 8.59375 3.75 8.738281 C 3.75 8.882812 3.851562 9 3.976562 9 L 8.023438 9 C 8.148438 9 8.25 8.882812 8.25 8.738281 C 8.25 8.59375 8.148438 8.476562 8.023438 8.476562 Z M 6 8.476562 "/>
</g>
</svg>
