<?xml version="1.0" encoding="UTF-8"?>
<svg xmlns="http://www.w3.org/2000/svg" xmlns:xlink="http://www.w3.org/1999/xlink" width="12pt" height="12pt" viewBox="0 0 12 12" version="1.1">
<g id="surface1">
<path style=" stroke:none;fill-rule:evenodd;fill:rgb(35.686275%,35.686275%,35.686275%);fill-opacity:1;" d="M 2.800781 0.710938 L 9.199219 0.710938 C 10.351562 0.710938 11.289062 1.648438 11.289062 2.800781 L 11.289062 9.199219 C 11.289062 10.351562 10.351562 11.289062 9.199219 11.289062 L 2.800781 11.289062 C 1.648438 11.289062 0.710938 10.351562 0.710938 9.199219 L 0.710938 2.800781 C 0.710938 1.648438 1.648438 0.710938 2.800781 0.710938 Z M 2.800781 0.710938 "/>
<path style=" stroke:none;fill-rule:evenodd;fill:rgb(100%,66.666667%,15.686275%);fill-opacity:1;" d="M 2.726562 0.726562 C 1.605469 0.769531 0.710938 1.671875 0.710938 2.800781 L 0.710938 9.199219 C 0.710938 10.355469 1.644531 11.289062 2.800781 11.289062 L 9.195312 11.289062 C 10.355469 11.289062 11.289062 10.355469 11.289062 9.199219 L 11.289062 2.800781 C 11.289062 1.644531 10.355469 0.710938 9.195312 0.710938 L 4.226562 0.710938 L 4.226562 1.296875 C 4.226562 1.402344 4.183594 1.496094 4.117188 1.5625 C 4.046875 1.628906 3.953125 1.671875 3.851562 1.671875 L 3.101562 1.671875 C 2.996094 1.671875 2.902344 1.628906 2.835938 1.5625 C 2.765625 1.496094 2.726562 1.402344 2.726562 1.296875 Z M 2.726562 0.726562 "/>
<path style=" stroke:none;fill-rule:evenodd;fill:rgb(21.568627%,21.568627%,21.568627%);fill-opacity:1;" d="M 2.726562 0.726562 L 2.726562 1.296875 C 2.726562 1.402344 2.765625 1.496094 2.835938 1.5625 C 2.902344 1.628906 2.996094 1.671875 3.101562 1.671875 L 3.851562 1.671875 C 3.953125 1.671875 4.046875 1.628906 4.117188 1.5625 C 4.183594 1.496094 4.226562 1.402344 4.226562 1.296875 L 4.226562 0.710938 L 2.800781 0.710938 C 2.773438 0.710938 2.753906 0.726562 2.726562 0.726562 Z M 2.726562 0.726562 "/>
<path style=" stroke:none;fill-rule:nonzero;fill:rgb(21.568627%,21.568627%,21.568627%);fill-opacity:1;" d="M 10.074219 2.738281 C 10.074219 2.945312 9.90625 3.113281 9.699219 3.113281 C 9.492188 3.113281 9.324219 2.945312 9.324219 2.738281 C 9.324219 2.53125 9.492188 2.363281 9.699219 2.363281 C 9.90625 2.363281 10.074219 2.53125 10.074219 2.738281 Z M 10.074219 2.738281 "/>
<path style=" stroke:none;fill-rule:nonzero;fill:rgb(21.568627%,21.568627%,21.568627%);fill-opacity:1;" d="M 9 6 C 9 7.65625 7.65625 9 6 9 C 4.34375 9 3 7.65625 3 6 C 3 4.34375 4.34375 3 6 3 C 7.65625 3 9 4.34375 9 6 Z M 9 6 "/>
<path style=" stroke:none;fill-rule:nonzero;fill:rgb(81.568627%,54.117647%,0%);fill-opacity:1;" d="M 8.25 6 C 8.25 4.757812 7.242188 3.75 6 3.75 C 4.757812 3.75 3.75 4.757812 3.75 6 C 3.75 7.242188 4.757812 8.25 6 8.25 C 7.242188 8.25 8.25 7.242188 8.25 6 Z M 8.25 6 "/>
<path style=" stroke:none;fill-rule:nonzero;fill:rgb(100%,78.823529%,24.313725%);fill-opacity:1;" d="M 7.5 6 C 7.5 6.828125 6.828125 7.5 6 7.5 C 5.171875 7.5 4.5 6.828125 4.5 6 C 4.5 5.171875 5.171875 4.5 6 4.5 C 6.828125 4.5 7.5 5.171875 7.5 6 Z M 7.5 6 "/>
</g>
</svg>
