<?xml version="1.0" encoding="UTF-8"?>
<svg xmlns="http://www.w3.org/2000/svg" xmlns:xlink="http://www.w3.org/1999/xlink" width="12pt" height="12pt" viewBox="0 0 12 12" version="1.1">
<g id="surface1">
<path style=" stroke:none;fill-rule:evenodd;fill:rgb(32.156863%,58.039216%,88.627451%);fill-opacity:1;" d="M 2.800781 0.710938 L 9.199219 0.710938 C 10.351562 0.710938 11.289062 1.648438 11.289062 2.800781 L 11.289062 9.199219 C 11.289062 10.351562 10.351562 11.289062 9.199219 11.289062 L 2.800781 11.289062 C 1.648438 11.289062 0.710938 10.351562 0.710938 9.199219 L 0.710938 2.800781 C 0.710938 1.648438 1.648438 0.710938 2.800781 0.710938 Z M 2.800781 0.710938 "/>
<path style=" stroke:none;fill-rule:nonzero;fill:rgb(100%,100%,100%);fill-opacity:1;" d="M 6 2.25 C 3.929688 2.25 2.25 3.929688 2.25 6 C 2.25 8.070312 3.929688 9.75 6 9.75 C 8.070312 9.75 9.75 8.070312 9.75 6 C 9.75 3.929688 8.070312 2.25 6 2.25 Z M 5.648438 2.996094 C 5.691406 2.992188 5.742188 3 5.78125 2.996094 C 5.789062 3.015625 5.753906 3.085938 5.707031 3.1875 C 5.410156 3.835938 5.394531 4.59375 5.667969 5 C 5.71875 5.074219 5.761719 5.144531 5.761719 5.152344 C 5.761719 5.160156 5.710938 5.171875 5.648438 5.171875 C 5.507812 5.171875 5.371094 5.085938 5.097656 4.867188 C 4.972656 4.769531 4.816406 4.6875 4.753906 4.675781 C 4.65625 4.65625 4.632812 4.664062 4.503906 4.789062 C 4.390625 4.90625 4.351562 4.96875 4.351562 5.078125 C 4.351562 5.480469 4.832031 5.800781 5.726562 5.992188 C 6.9375 6.246094 7.234375 6.476562 7.269531 7.113281 C 7.3125 7.914062 6.886719 8.515625 5.953125 8.980469 C 5.84375 9.039062 5.773438 9.058594 5.726562 9.078125 C 5.707031 9.078125 5.6875 9.082031 5.667969 9.078125 C 5.660156 9.054688 5.648438 8.996094 5.648438 8.886719 C 5.648438 8.464844 5.480469 8.027344 5.230469 7.78125 C 5.164062 7.714844 4.972656 7.578125 4.8125 7.476562 C 4.648438 7.375 4.484375 7.261719 4.449219 7.210938 C 4.386719 7.128906 4.382812 7.078125 4.429688 6.925781 C 4.515625 6.644531 4.617188 6.492188 4.8125 6.3125 C 4.914062 6.222656 5.015625 6.144531 5.039062 6.144531 C 5.0625 6.140625 4.910156 6.09375 4.679688 6.046875 C 4.445312 6 4.109375 5.902344 3.933594 5.839844 C 3.613281 5.722656 3.183594 5.480469 3.019531 5.304688 C 3.011719 5.296875 3.007812 5.292969 3 5.285156 C 3.234375 4.347656 3.894531 3.578125 4.773438 3.207031 C 4.957031 3.128906 5.144531 3.078125 5.34375 3.035156 C 5.445312 3.015625 5.546875 3.007812 5.648438 2.996094 Z M 8.507812 4.425781 C 8.582031 4.472656 8.851562 5.058594 8.929688 5.34375 C 9.027344 5.710938 9.019531 6.347656 8.929688 6.714844 C 8.894531 6.855469 8.847656 6.984375 8.832031 7 C 8.816406 7.015625 8.761719 6.925781 8.699219 6.8125 C 8.632812 6.699219 8.429688 6.457031 8.261719 6.277344 C 7.769531 5.757812 7.691406 5.488281 7.898438 5.078125 C 8.003906 4.867188 8.453125 4.394531 8.507812 4.425781 Z M 8.507812 4.425781 "/>
</g>
</svg>
