<?xml version="1.0" encoding="UTF-8"?>
<svg xmlns="http://www.w3.org/2000/svg" xmlns:xlink="http://www.w3.org/1999/xlink" width="12pt" height="12pt" viewBox="0 0 12 12" version="1.1">
<g id="surface1">
<path style=" stroke:none;fill-rule:evenodd;fill:rgb(80%,80%,80%);fill-opacity:1;" d="M 2.800781 0.710938 L 9.199219 0.710938 C 10.351562 0.710938 11.289062 1.648438 11.289062 2.800781 L 11.289062 9.199219 C 11.289062 10.351562 10.351562 11.289062 9.199219 11.289062 L 2.800781 11.289062 C 1.648438 11.289062 0.710938 10.351562 0.710938 9.199219 L 0.710938 2.800781 C 0.710938 1.648438 1.648438 0.710938 2.800781 0.710938 Z M 2.800781 0.710938 "/>
<path style=" stroke:none;fill-rule:nonzero;fill:rgb(30.196078%,30.196078%,30.196078%);fill-opacity:1;" d="M 3 7.125 C 3 7.4375 2.75 7.6875 2.4375 7.6875 C 2.125 7.6875 1.875 7.4375 1.875 7.125 C 1.875 6.8125 2.125 6.5625 2.4375 6.5625 C 2.75 6.5625 3 6.8125 3 7.125 Z M 3 7.125 "/>
<path style=" stroke:none;fill-rule:nonzero;fill:rgb(30.196078%,30.196078%,30.196078%);fill-opacity:1;" d="M 6.375 7.125 C 6.375 7.4375 6.125 7.6875 5.8125 7.6875 C 5.5 7.6875 5.25 7.4375 5.25 7.125 C 5.25 6.8125 5.5 6.5625 5.8125 6.5625 C 6.125 6.5625 6.375 6.8125 6.375 7.125 Z M 6.375 7.125 "/>
<path style=" stroke:none;fill-rule:nonzero;fill:rgb(30.196078%,30.196078%,30.196078%);fill-opacity:1;" d="M 6.375 4.875 C 6.375 5.1875 6.125 5.4375 5.8125 5.4375 C 5.5 5.4375 5.25 5.1875 5.25 4.875 C 5.25 4.5625 5.5 4.3125 5.8125 4.3125 C 6.125 4.3125 6.375 4.5625 6.375 4.875 Z M 6.375 4.875 "/>
<path style=" stroke:none;fill-rule:nonzero;fill:rgb(30.196078%,30.196078%,30.196078%);fill-opacity:1;" d="M 10.125 4.875 C 10.125 5.1875 9.875 5.4375 9.5625 5.4375 C 9.25 5.4375 9 5.1875 9 4.875 C 9 4.5625 9.25 4.3125 9.5625 4.3125 C 9.875 4.3125 10.125 4.5625 10.125 4.875 Z M 10.125 4.875 "/>
<path style=" stroke:none;fill-rule:nonzero;fill:rgb(30.196078%,30.196078%,30.196078%);fill-opacity:1;" d="M 5.625 4.6875 L 5.625 6.9375 L 2.25 6.9375 L 2.25 7.3125 L 6 7.3125 L 6 5.0625 L 9.75 5.0625 L 9.75 4.6875 Z M 5.625 4.6875 "/>
</g>
</svg>
