<?xml version="1.0" encoding="UTF-8"?>
<svg xmlns="http://www.w3.org/2000/svg" xmlns:xlink="http://www.w3.org/1999/xlink" width="12pt" height="12pt" viewBox="0 0 12 12" version="1.1">
<g id="surface1">
<path style=" stroke:none;fill-rule:evenodd;fill:rgb(55.686275%,55.686275%,55.686275%);fill-opacity:1;" d="M 2.800781 0.710938 L 9.199219 0.710938 C 10.351562 0.710938 11.289062 1.648438 11.289062 2.800781 L 11.289062 9.199219 C 11.289062 10.351562 10.351562 11.289062 9.199219 11.289062 L 2.800781 11.289062 C 1.648438 11.289062 0.710938 10.351562 0.710938 9.199219 L 0.710938 2.800781 C 0.710938 1.648438 1.648438 0.710938 2.800781 0.710938 Z M 2.800781 0.710938 "/>
<path style=" stroke:none;fill-rule:evenodd;fill:rgb(58.039216%,83.529412%,31.764706%);fill-opacity:1;" d="M 0.710938 7.367188 C 0.734375 7.421875 0.738281 7.484375 0.777344 7.523438 C 0.851562 7.597656 0.953125 7.644531 1.066406 7.644531 L 3.535156 7.644531 C 3.648438 7.644531 3.75 7.597656 3.824219 7.523438 C 3.898438 7.449219 3.945312 7.347656 3.945312 7.234375 L 3.945312 4.765625 C 3.945312 4.652344 3.898438 4.550781 3.824219 4.476562 C 3.75 4.402344 3.648438 4.355469 3.535156 4.355469 L 1.066406 4.355469 C 0.953125 4.355469 0.851562 4.402344 0.777344 4.476562 C 0.738281 4.515625 0.734375 4.578125 0.710938 4.632812 Z M 0.710938 7.367188 "/>
<path style=" stroke:none;fill-rule:evenodd;fill:rgb(29.411765%,58.431373%,83.529412%);fill-opacity:1;" d="M 3.667969 11.289062 C 3.722656 11.265625 3.785156 11.261719 3.824219 11.222656 C 3.898438 11.148438 3.945312 11.046875 3.945312 10.933594 L 3.945312 8.464844 C 3.945312 8.351562 3.898438 8.25 3.824219 8.175781 C 3.75 8.101562 3.648438 8.054688 3.535156 8.054688 L 1.066406 8.054688 C 0.953125 8.054688 0.851562 8.101562 0.777344 8.175781 C 0.738281 8.214844 0.734375 8.277344 0.710938 8.332031 L 0.710938 9.195312 C 0.710938 10.355469 1.644531 11.289062 2.800781 11.289062 Z M 3.667969 11.289062 "/>
<path style=" stroke:none;fill-rule:evenodd;fill:rgb(100%,77.254902%,22.352941%);fill-opacity:1;" d="M 7.367188 11.289062 C 7.421875 11.265625 7.484375 11.261719 7.523438 11.222656 C 7.597656 11.148438 7.644531 11.046875 7.644531 10.933594 L 7.644531 8.464844 C 7.644531 8.351562 7.597656 8.25 7.523438 8.175781 C 7.449219 8.101562 7.347656 8.054688 7.234375 8.054688 L 4.765625 8.054688 C 4.652344 8.054688 4.550781 8.101562 4.476562 8.175781 C 4.402344 8.25 4.355469 8.351562 4.355469 8.464844 L 4.355469 10.933594 C 4.355469 11.046875 4.402344 11.148438 4.476562 11.222656 C 4.515625 11.261719 4.578125 11.265625 4.632812 11.289062 Z M 7.367188 11.289062 "/>
<path style=" stroke:none;fill-rule:evenodd;fill:rgb(83.529412%,31.372549%,27.058824%);fill-opacity:1;" d="M 11.289062 8.332031 C 11.265625 8.277344 11.261719 8.214844 11.222656 8.175781 C 11.148438 8.101562 11.046875 8.054688 10.933594 8.054688 L 8.464844 8.054688 C 8.351562 8.054688 8.25 8.101562 8.175781 8.175781 C 8.101562 8.25 8.054688 8.351562 8.054688 8.464844 L 8.054688 10.933594 C 8.054688 11.046875 8.101562 11.148438 8.175781 11.222656 C 8.214844 11.261719 8.277344 11.265625 8.332031 11.289062 L 9.199219 11.289062 C 10.355469 11.289062 11.289062 10.355469 11.289062 9.195312 Z M 11.289062 8.332031 "/>
<path style=" stroke:none;fill-rule:evenodd;fill:rgb(58.039216%,83.529412%,31.764706%);fill-opacity:1;" d="M 8.332031 0.710938 C 8.277344 0.734375 8.214844 0.738281 8.175781 0.777344 C 8.101562 0.851562 8.054688 0.953125 8.054688 1.066406 L 8.054688 3.535156 C 8.054688 3.648438 8.101562 3.75 8.175781 3.824219 C 8.25 3.898438 8.351562 3.945312 8.464844 3.945312 L 10.933594 3.945312 C 11.046875 3.945312 11.148438 3.898438 11.222656 3.824219 C 11.261719 3.785156 11.265625 3.722656 11.289062 3.667969 L 11.289062 2.800781 C 11.289062 1.644531 10.355469 0.710938 9.199219 0.710938 Z M 8.332031 0.710938 "/>
<path style=" stroke:none;fill-rule:evenodd;fill:rgb(100%,77.254902%,22.352941%);fill-opacity:1;" d="M 4.632812 0.710938 C 4.578125 0.734375 4.515625 0.738281 4.476562 0.777344 C 4.402344 0.851562 4.355469 0.953125 4.355469 1.066406 L 4.355469 3.535156 C 4.355469 3.648438 4.402344 3.75 4.476562 3.824219 C 4.550781 3.898438 4.652344 3.945312 4.765625 3.945312 L 7.234375 3.945312 C 7.347656 3.945312 7.449219 3.898438 7.523438 3.824219 C 7.597656 3.75 7.644531 3.648438 7.644531 3.535156 L 7.644531 1.066406 C 7.644531 0.953125 7.597656 0.851562 7.523438 0.777344 C 7.484375 0.738281 7.421875 0.734375 7.367188 0.710938 Z M 4.632812 0.710938 "/>
<path style=" stroke:none;fill-rule:evenodd;fill:rgb(97.647059%,97.647059%,97.647059%);fill-opacity:1;" d="M 0.710938 3.667969 L 0.710938 4.632812 C 0.734375 4.578125 0.738281 4.515625 0.777344 4.476562 C 0.851562 4.402344 0.953125 4.355469 1.066406 4.355469 L 3.535156 4.355469 C 3.648438 4.355469 3.75 4.402344 3.824219 4.476562 C 3.898438 4.550781 3.945312 4.652344 3.945312 4.765625 L 3.945312 7.234375 C 3.945312 7.347656 3.898438 7.449219 3.824219 7.523438 C 3.75 7.597656 3.648438 7.644531 3.535156 7.644531 L 1.066406 7.644531 C 0.953125 7.644531 0.851562 7.597656 0.777344 7.523438 C 0.738281 7.484375 0.734375 7.421875 0.710938 7.367188 L 0.710938 8.332031 C 0.734375 8.277344 0.738281 8.214844 0.777344 8.175781 C 0.851562 8.101562 0.953125 8.054688 1.066406 8.054688 L 3.535156 8.054688 C 3.648438 8.054688 3.75 8.101562 3.824219 8.175781 C 3.898438 8.25 3.945312 8.351562 3.945312 8.464844 L 3.945312 10.933594 C 3.945312 11.046875 3.898438 11.148438 3.824219 11.222656 C 3.785156 11.261719 3.722656 11.265625 3.667969 11.289062 L 4.632812 11.289062 C 4.578125 11.265625 4.515625 11.261719 4.476562 11.222656 C 4.402344 11.148438 4.355469 11.046875 4.355469 10.933594 L 4.355469 8.464844 C 4.355469 8.351562 4.402344 8.25 4.476562 8.175781 C 4.550781 8.101562 4.652344 8.054688 4.765625 8.054688 L 7.234375 8.054688 C 7.347656 8.054688 7.449219 8.101562 7.523438 8.175781 C 7.597656 8.25 7.644531 8.351562 7.644531 8.464844 L 7.644531 10.933594 C 7.644531 11.046875 7.597656 11.148438 7.523438 11.222656 C 7.484375 11.261719 7.421875 11.265625 7.367188 11.289062 L 8.332031 11.289062 C 8.277344 11.265625 8.214844 11.261719 8.175781 11.222656 C 8.101562 11.148438 8.054688 11.046875 8.054688 10.933594 L 8.054688 8.464844 C 8.054688 8.351562 8.101562 8.25 8.175781 8.175781 C 8.25 8.101562 8.351562 8.054688 8.464844 8.054688 L 10.933594 8.054688 C 11.046875 8.054688 11.148438 8.101562 11.222656 8.175781 C 11.261719 8.214844 11.265625 8.277344 11.289062 8.332031 L 11.289062 7.367188 C 11.265625 7.421875 11.261719 7.484375 11.222656 7.523438 C 11.148438 7.597656 11.046875 7.644531 10.933594 7.644531 L 8.464844 7.644531 C 8.351562 7.644531 8.25 7.597656 8.175781 7.523438 C 8.101562 7.449219 8.054688 7.347656 8.054688 7.234375 L 8.054688 4.765625 C 8.054688 4.652344 8.101562 4.550781 8.175781 4.476562 C 8.25 4.402344 8.351562 4.355469 8.464844 4.355469 L 10.933594 4.355469 C 11.046875 4.355469 11.148438 4.402344 11.222656 4.476562 C 11.261719 4.515625 11.265625 4.578125 11.289062 4.632812 L 11.289062 3.667969 C 11.265625 3.722656 11.261719 3.785156 11.222656 3.824219 C 11.148438 3.898438 11.046875 3.945312 10.933594 3.945312 L 8.464844 3.945312 C 8.351562 3.945312 8.25 3.898438 8.175781 3.824219 C 8.101562 3.75 8.054688 3.648438 8.054688 3.535156 L 8.054688 1.066406 C 8.054688 0.953125 8.101562 0.851562 8.175781 0.777344 C 8.214844 0.738281 8.277344 0.734375 8.332031 0.710938 L 7.367188 0.710938 C 7.421875 0.734375 7.484375 0.738281 7.523438 0.777344 C 7.597656 0.851562 7.644531 0.953125 7.644531 1.066406 L 7.644531 3.535156 C 7.644531 3.648438 7.597656 3.75 7.523438 3.824219 C 7.449219 3.898438 7.347656 3.945312 7.234375 3.945312 L 4.765625 3.945312 C 4.652344 3.945312 4.550781 3.898438 4.476562 3.824219 C 4.402344 3.75 4.355469 3.648438 4.355469 3.535156 L 4.355469 1.066406 C 4.355469 0.953125 4.402344 0.851562 4.476562 0.777344 C 4.515625 0.738281 4.578125 0.734375 4.632812 0.710938 L 3.667969 0.710938 C 3.722656 0.734375 3.785156 0.738281 3.824219 0.777344 C 3.898438 0.851562 3.945312 0.953125 3.945312 1.066406 L 3.945312 3.535156 C 3.945312 3.648438 3.898438 3.75 3.824219 3.824219 C 3.75 3.898438 3.648438 3.945312 3.535156 3.945312 L 1.066406 3.945312 C 0.953125 3.945312 0.851562 3.898438 0.777344 3.824219 C 0.738281 3.785156 0.734375 3.722656 0.710938 3.667969 Z M 0.710938 3.667969 "/>
<path style=" stroke:none;fill-rule:evenodd;fill:rgb(83.529412%,31.372549%,27.058824%);fill-opacity:1;" d="M 0.710938 3.667969 C 0.734375 3.722656 0.738281 3.785156 0.777344 3.824219 C 0.851562 3.898438 0.953125 3.945312 1.066406 3.945312 L 3.535156 3.945312 C 3.648438 3.945312 3.75 3.898438 3.824219 3.824219 C 3.898438 3.75 3.945312 3.648438 3.945312 3.535156 L 3.945312 1.066406 C 3.945312 0.953125 3.898438 0.851562 3.824219 0.777344 C 3.785156 0.738281 3.722656 0.734375 3.667969 0.710938 L 2.800781 0.710938 C 1.644531 0.710938 0.710938 1.644531 0.710938 2.800781 Z M 0.710938 3.667969 "/>
<path style=" stroke:none;fill-rule:evenodd;fill:rgb(55.686275%,55.686275%,55.686275%);fill-opacity:1;" d="M 4.765625 4.355469 C 4.652344 4.355469 4.550781 4.402344 4.476562 4.476562 C 4.402344 4.550781 4.355469 4.652344 4.355469 4.765625 L 4.355469 7.234375 C 4.355469 7.347656 4.402344 7.449219 4.476562 7.523438 C 4.550781 7.597656 4.652344 7.644531 4.765625 7.644531 L 7.234375 7.644531 C 7.347656 7.644531 7.449219 7.597656 7.523438 7.523438 C 7.597656 7.449219 7.644531 7.347656 7.644531 7.234375 L 7.644531 4.765625 C 7.644531 4.652344 7.597656 4.550781 7.523438 4.476562 C 7.449219 4.402344 7.347656 4.355469 7.234375 4.355469 Z M 4.765625 4.355469 "/>
<path style=" stroke:none;fill-rule:evenodd;fill:rgb(29.411765%,58.431373%,83.529412%);fill-opacity:1;" d="M 4.765625 4.355469 L 7.234375 4.355469 C 7.347656 4.355469 7.449219 4.402344 7.523438 4.476562 C 7.597656 4.550781 7.644531 4.652344 7.644531 4.765625 L 7.644531 7.234375 C 7.644531 7.347656 7.597656 7.449219 7.523438 7.523438 C 7.449219 7.597656 7.347656 7.644531 7.234375 7.644531 L 4.765625 7.644531 C 4.652344 7.644531 4.550781 7.597656 4.476562 7.523438 C 4.402344 7.449219 4.355469 7.347656 4.355469 7.234375 L 4.355469 4.765625 C 4.355469 4.652344 4.402344 4.550781 4.476562 4.476562 C 4.550781 4.402344 4.652344 4.355469 4.765625 4.355469 Z M 4.765625 4.355469 "/>
<path style=" stroke:none;fill-rule:evenodd;fill:rgb(58.039216%,83.529412%,31.764706%);fill-opacity:1;" d="M 11.289062 4.632812 C 11.265625 4.578125 11.261719 4.515625 11.222656 4.476562 C 11.148438 4.402344 11.046875 4.355469 10.933594 4.355469 L 8.464844 4.355469 C 8.351562 4.355469 8.25 4.402344 8.175781 4.476562 C 8.101562 4.550781 8.054688 4.652344 8.054688 4.765625 L 8.054688 7.234375 C 8.054688 7.347656 8.101562 7.449219 8.175781 7.523438 C 8.25 7.597656 8.351562 7.644531 8.464844 7.644531 L 10.933594 7.644531 C 11.046875 7.644531 11.148438 7.597656 11.222656 7.523438 C 11.261719 7.484375 11.265625 7.421875 11.289062 7.367188 Z M 11.289062 4.632812 "/>
</g>
</svg>
