<?xml version="1.0" encoding="UTF-8"?>
<svg xmlns="http://www.w3.org/2000/svg" xmlns:xlink="http://www.w3.org/1999/xlink" width="12pt" height="12pt" viewBox="0 0 12 12" version="1.1">
<g id="surface1">
<path style=" stroke:none;fill-rule:evenodd;fill:rgb(55.686275%,55.686275%,55.686275%);fill-opacity:1;" d="M 2.800781 0.710938 L 9.199219 0.710938 C 10.351562 0.710938 11.289062 1.648438 11.289062 2.800781 L 11.289062 9.199219 C 11.289062 10.351562 10.351562 11.289062 9.199219 11.289062 L 2.800781 11.289062 C 1.648438 11.289062 0.710938 10.351562 0.710938 9.199219 L 0.710938 2.800781 C 0.710938 1.648438 1.648438 0.710938 2.800781 0.710938 Z M 2.800781 0.710938 "/>
<path style=" stroke:none;fill-rule:nonzero;fill:rgb(27.843137%,27.843137%,27.843137%);fill-opacity:1;" d="M 3.34375 3.066406 L 8.65625 3.066406 C 9.351562 3.066406 9.917969 3.632812 9.917969 4.328125 L 9.917969 7.671875 C 9.917969 8.367188 9.351562 8.933594 8.65625 8.933594 L 3.34375 8.933594 C 2.648438 8.933594 2.082031 8.367188 2.082031 7.671875 L 2.082031 4.328125 C 2.082031 3.632812 2.648438 3.066406 3.34375 3.066406 Z M 3.34375 3.066406 "/>
<path style=" stroke:none;fill-rule:nonzero;fill:rgb(11.372549%,51.372549%,68.627451%);fill-opacity:1;" d="M 3.390625 3.4375 L 8.609375 3.4375 C 9.136719 3.4375 9.566406 3.847656 9.566406 4.355469 L 9.566406 7.644531 C 9.566406 8.152344 9.136719 8.5625 8.609375 8.5625 L 3.390625 8.5625 C 2.863281 8.5625 2.433594 8.152344 2.433594 7.644531 L 2.433594 4.355469 C 2.433594 3.847656 2.863281 3.4375 3.390625 3.4375 Z M 3.390625 3.4375 "/>
<path style=" stroke:none;fill-rule:nonzero;fill:rgb(94.117647%,97.647059%,99.215686%);fill-opacity:1;" d="M 8.566406 5.003906 C 8.566406 5.554688 8.117188 6 7.566406 6 C 7.015625 6 6.570312 5.554688 6.570312 5.003906 C 6.570312 4.449219 7.015625 4.003906 7.566406 4.003906 C 8.117188 4.003906 8.566406 4.449219 8.566406 5.003906 Z M 8.566406 5.003906 "/>
<path style=" stroke:none;fill-rule:nonzero;fill:rgb(76.862745%,90.588235%,96.078431%);fill-opacity:1;" d="M 4.859375 6.140625 C 4.859375 6.535156 4.539062 6.855469 4.148438 6.855469 C 3.753906 6.855469 3.433594 6.535156 3.433594 6.140625 C 3.433594 5.75 3.753906 5.429688 4.148438 5.429688 C 4.539062 5.429688 4.859375 5.75 4.859375 6.140625 Z M 4.859375 6.140625 "/>
<path style=" stroke:none;fill-rule:nonzero;fill:rgb(65.098039%,85.490196%,94.117647%);fill-opacity:1;" d="M 7.140625 7.425781 C 7.140625 7.742188 6.886719 7.996094 6.570312 7.996094 C 6.253906 7.996094 6 7.742188 6 7.425781 C 6 7.109375 6.253906 6.855469 6.570312 6.855469 C 6.886719 6.855469 7.140625 7.109375 7.140625 7.425781 Z M 7.140625 7.425781 "/>
<path style=" stroke:none;fill-rule:nonzero;fill:rgb(76.862745%,90.588235%,96.078431%);fill-opacity:1;" d="M 6 5.003906 C 6 5.238281 5.808594 5.429688 5.574219 5.429688 C 5.335938 5.429688 5.144531 5.238281 5.144531 5.003906 C 5.144531 4.765625 5.335938 4.574219 5.574219 4.574219 C 5.808594 4.574219 6 4.765625 6 5.003906 Z M 6 5.003906 "/>
<path style=" stroke:none;fill-rule:nonzero;fill:rgb(82.745098%,92.941176%,97.254902%);fill-opacity:1;" d="M 8.464844 7.050781 C 8.464844 7.257812 8.296875 7.425781 8.089844 7.425781 C 7.882812 7.425781 7.714844 7.257812 7.714844 7.050781 C 7.714844 6.84375 7.882812 6.675781 8.089844 6.675781 C 8.296875 6.675781 8.464844 6.84375 8.464844 7.050781 Z M 8.464844 7.050781 "/>
<path style=" stroke:none;fill-rule:evenodd;fill:rgb(75.686275%,28.627451%,75.294118%);fill-opacity:1;" d="M 10.699219 8.242188 C 10.699219 9.484375 9.695312 10.492188 8.449219 10.492188 C 7.207031 10.492188 6.199219 9.484375 6.199219 8.242188 C 6.199219 7 7.207031 5.992188 8.449219 5.992188 C 9.695312 5.992188 10.699219 7 10.699219 8.242188 Z M 10.699219 8.242188 "/>
<path style=" stroke:none;fill-rule:nonzero;fill:rgb(100%,100%,100%);fill-opacity:1;" d="M 8.167969 7.117188 L 8.144531 7.414062 C 8.050781 7.449219 7.964844 7.5 7.886719 7.5625 L 7.617188 7.4375 L 7.335938 7.925781 L 7.582031 8.09375 C 7.570312 8.144531 7.566406 8.191406 7.566406 8.242188 C 7.566406 8.292969 7.570312 8.34375 7.578125 8.390625 L 7.335938 8.5625 L 7.617188 9.050781 L 7.886719 8.921875 C 7.964844 8.984375 8.050781 9.035156 8.144531 9.070312 L 8.167969 9.367188 L 8.730469 9.367188 L 8.757812 9.070312 C 8.851562 9.035156 8.9375 8.984375 9.015625 8.921875 L 9.285156 9.046875 L 9.566406 8.5625 L 9.320312 8.390625 C 9.328125 8.34375 9.335938 8.292969 9.335938 8.242188 C 9.335938 8.191406 9.332031 8.140625 9.320312 8.09375 L 9.566406 7.925781 L 9.285156 7.4375 L 9.015625 7.5625 C 8.9375 7.5 8.851562 7.449219 8.757812 7.414062 L 8.730469 7.117188 Z M 8.449219 7.921875 C 8.628906 7.921875 8.773438 8.066406 8.773438 8.242188 C 8.773438 8.421875 8.628906 8.5625 8.449219 8.5625 C 8.273438 8.5625 8.128906 8.421875 8.128906 8.242188 C 8.128906 8.066406 8.273438 7.921875 8.449219 7.921875 Z M 8.449219 7.921875 "/>
</g>
</svg>
