<?xml version="1.0" encoding="UTF-8"?>
<svg xmlns="http://www.w3.org/2000/svg" xmlns:xlink="http://www.w3.org/1999/xlink" width="12pt" height="12pt" viewBox="0 0 12 12" version="1.1">
<g id="surface1">
<path style=" stroke:none;fill-rule:evenodd;fill:rgb(41.960784%,41.960784%,41.960784%);fill-opacity:1;" d="M 2.800781 0.710938 L 9.199219 0.710938 C 10.351562 0.710938 11.289062 1.648438 11.289062 2.800781 L 11.289062 9.199219 C 11.289062 10.351562 10.351562 11.289062 9.199219 11.289062 L 2.800781 11.289062 C 1.648438 11.289062 0.710938 10.351562 0.710938 9.199219 L 0.710938 2.800781 C 0.710938 1.648438 1.648438 0.710938 2.800781 0.710938 Z M 2.800781 0.710938 "/>
<path style=" stroke:none;fill-rule:evenodd;fill:rgb(47.058824%,32.941176%,22.352941%);fill-opacity:1;" d="M 3.320312 11.289062 L 3.320312 8.679688 L 0.710938 8.679688 L 0.710938 9.199219 C 0.710938 10.355469 1.644531 11.289062 2.800781 11.289062 Z M 3.320312 11.289062 "/>
<path style=" stroke:none;fill-rule:evenodd;fill:rgb(34.509804%,23.529412%,15.686275%);fill-opacity:1;" d="M 6 11.289062 L 6 8.679688 L 3.320312 8.679688 L 3.320312 11.289062 Z M 6 11.289062 "/>
<path style=" stroke:none;fill-rule:evenodd;fill:rgb(72.156863%,51.764706%,35.686275%);fill-opacity:1;" d="M 8.679688 11.289062 L 8.679688 8.679688 L 6 8.679688 L 6 11.289062 Z M 8.679688 11.289062 "/>
<path style=" stroke:none;fill-rule:evenodd;fill:rgb(58.431373%,41.960784%,28.627451%);fill-opacity:1;" d="M 11.289062 8.679688 L 8.679688 8.679688 L 8.679688 11.289062 L 9.199219 11.289062 C 10.355469 11.289062 11.289062 10.355469 11.289062 9.199219 Z M 11.289062 8.679688 "/>
<path style=" stroke:none;fill-rule:evenodd;fill:rgb(47.058824%,32.941176%,22.352941%);fill-opacity:1;" d="M 3.320312 8.679688 L 3.320312 6 L 0.710938 6 L 0.710938 8.679688 Z M 3.320312 8.679688 "/>
<path style=" stroke:none;fill-rule:evenodd;fill:rgb(41.960784%,41.960784%,41.960784%);fill-opacity:1;" d="M 8.679688 8.679688 L 8.679688 6 L 6 6 L 6 8.679688 Z M 8.679688 8.679688 "/>
<path style=" stroke:none;fill-rule:evenodd;fill:rgb(60.784314%,79.215686%,41.960784%);fill-opacity:1;" d="M 11.289062 6 L 8.679688 6 L 8.679688 8.679688 L 11.289062 8.679688 Z M 11.289062 6 "/>
<path style=" stroke:none;fill-rule:evenodd;fill:rgb(44.705882%,69.803922%,28.235294%);fill-opacity:1;" d="M 11.289062 3.320312 L 8.679688 3.320312 L 8.679688 6 L 11.289062 6 Z M 11.289062 3.320312 "/>
<path style=" stroke:none;fill-rule:evenodd;fill:rgb(58.431373%,41.960784%,28.627451%);fill-opacity:1;" d="M 8.679688 3.320312 L 6 3.320312 L 6 6 L 8.679688 6 Z M 8.679688 3.320312 "/>
<path style=" stroke:none;fill-rule:evenodd;fill:rgb(58.431373%,41.960784%,28.627451%);fill-opacity:1;" d="M 6 6 L 3.320312 6 L 3.320312 8.679688 L 6 8.679688 Z M 6 6 "/>
<path style=" stroke:none;fill-rule:evenodd;fill:rgb(60.784314%,79.215686%,41.960784%);fill-opacity:1;" d="M 6 3.320312 L 3.320312 3.320312 L 3.320312 6 L 6 6 Z M 6 3.320312 "/>
<path style=" stroke:none;fill-rule:evenodd;fill:rgb(37.647059%,62.745098%,21.176471%);fill-opacity:1;" d="M 8.679688 0.710938 L 8.679688 3.320312 L 11.289062 3.320312 L 11.289062 2.800781 C 11.289062 1.644531 10.355469 0.710938 9.199219 0.710938 Z M 8.679688 0.710938 "/>
<path style=" stroke:none;fill-rule:evenodd;fill:rgb(44.705882%,69.803922%,28.235294%);fill-opacity:1;" d="M 6 0.710938 L 3.320312 0.710938 L 3.320312 3.320312 L 6 3.320312 Z M 6 0.710938 "/>
<path style=" stroke:none;fill-rule:evenodd;fill:rgb(33.72549%,58.823529%,17.254902%);fill-opacity:1;" d="M 6 0.710938 L 6 3.320312 L 8.679688 3.320312 L 8.679688 0.710938 Z M 6 0.710938 "/>
<path style=" stroke:none;fill-rule:evenodd;fill:rgb(34.509804%,23.529412%,15.686275%);fill-opacity:1;" d="M 0.710938 3.320312 L 0.710938 6 L 3.320312 6 L 3.320312 3.320312 Z M 0.710938 3.320312 "/>
<path style=" stroke:none;fill-rule:evenodd;fill:rgb(33.72549%,58.823529%,17.254902%);fill-opacity:1;" d="M 0.710938 3.320312 L 3.320312 3.320312 L 3.320312 0.710938 L 2.800781 0.710938 C 1.644531 0.710938 0.710938 1.644531 0.710938 2.800781 Z M 0.710938 3.320312 "/>
</g>
</svg>
