<?xml version="1.0" encoding="UTF-8"?>
<svg xmlns="http://www.w3.org/2000/svg" xmlns:xlink="http://www.w3.org/1999/xlink" width="12pt" height="12pt" viewBox="0 0 12 12" version="1.1">
<g id="surface1">
<path style=" stroke:none;fill-rule:evenodd;fill:rgb(55.686275%,55.686275%,55.686275%);fill-opacity:1;" d="M 2.800781 0.710938 L 9.199219 0.710938 C 10.351562 0.710938 11.289062 1.648438 11.289062 2.800781 L 11.289062 9.199219 C 11.289062 10.351562 10.351562 11.289062 9.199219 11.289062 L 2.800781 11.289062 C 1.648438 11.289062 0.710938 10.351562 0.710938 9.199219 L 0.710938 2.800781 C 0.710938 1.648438 1.648438 0.710938 2.800781 0.710938 Z M 2.800781 0.710938 "/>
<path style=" stroke:none;fill-rule:evenodd;fill:rgb(30.980392%,30.980392%,30.980392%);fill-opacity:1;" d="M 9.3125 0.734375 L 9.3125 6.167969 C 9.3125 6.402344 9.425781 6.589844 9.5625 6.589844 L 10.078125 6.589844 C 10.21875 6.589844 10.332031 6.402344 10.332031 6.167969 L 10.332031 1.089844 C 10.03125 0.890625 9.695312 0.757812 9.3125 0.734375 Z M 9.3125 0.734375 "/>
<path style=" stroke:none;fill-rule:evenodd;fill:rgb(30.980392%,30.980392%,30.980392%);fill-opacity:1;" d="M 7.785156 0.710938 L 7.785156 6.167969 C 7.785156 6.402344 7.894531 6.589844 8.035156 6.589844 L 8.550781 6.589844 C 8.691406 6.589844 8.800781 6.402344 8.800781 6.167969 L 8.800781 0.710938 Z M 7.785156 0.710938 "/>
<path style=" stroke:none;fill-rule:evenodd;fill:rgb(30.980392%,30.980392%,30.980392%);fill-opacity:1;" d="M 6.253906 0.710938 L 6.253906 6.167969 C 6.253906 6.402344 6.367188 6.589844 6.507812 6.589844 L 7.023438 6.589844 C 7.160156 6.589844 7.273438 6.402344 7.273438 6.167969 L 7.273438 0.710938 Z M 6.253906 0.710938 "/>
<path style=" stroke:none;fill-rule:evenodd;fill:rgb(30.980392%,30.980392%,30.980392%);fill-opacity:1;" d="M 3.195312 0.710938 L 3.195312 6.167969 C 3.195312 6.402344 3.308594 6.589844 3.449219 6.589844 L 3.964844 6.589844 C 4.105469 6.589844 4.214844 6.402344 4.214844 6.167969 L 4.214844 0.710938 Z M 3.195312 0.710938 "/>
<path style=" stroke:none;fill-rule:evenodd;fill:rgb(65.882353%,37.647059%,63.529412%);fill-opacity:1;" d="M 9.820312 6.589844 L 9.820312 11.164062 C 10.667969 10.894531 11.289062 10.132812 11.289062 9.199219 L 11.289062 2.800781 C 11.289062 2.070312 10.894531 1.464844 10.332031 1.089844 L 10.332031 6.167969 C 10.332031 6.402344 10.21875 6.589844 10.078125 6.589844 Z M 9.820312 6.589844 "/>
<path style=" stroke:none;fill-rule:evenodd;fill:rgb(27.843137%,43.137255%,72.54902%);fill-opacity:1;" d="M 8.292969 6.589844 L 8.292969 11.289062 L 9.199219 11.289062 C 9.417969 11.289062 9.621094 11.226562 9.820312 11.164062 L 9.820312 6.589844 L 9.5625 6.589844 C 9.425781 6.589844 9.3125 6.402344 9.3125 6.167969 L 9.3125 0.734375 C 9.273438 0.730469 9.238281 0.710938 9.199219 0.710938 L 8.800781 0.710938 L 8.800781 6.167969 C 8.800781 6.402344 8.691406 6.589844 8.550781 6.589844 Z M 8.292969 6.589844 "/>
<path style=" stroke:none;fill-rule:evenodd;fill:rgb(29.803922%,69.019608%,58.039216%);fill-opacity:1;" d="M 6.765625 6.589844 L 6.765625 11.289062 L 8.292969 11.289062 L 8.292969 6.589844 L 8.035156 6.589844 C 7.894531 6.589844 7.785156 6.402344 7.785156 6.167969 L 7.785156 0.710938 L 7.273438 0.710938 L 7.273438 6.167969 C 7.273438 6.402344 7.160156 6.589844 7.023438 6.589844 Z M 6.765625 6.589844 "/>
<path style=" stroke:none;fill-rule:evenodd;fill:rgb(25.098039%,66.27451%,36.470588%);fill-opacity:1;" d="M 5.234375 0.710938 L 5.234375 11.289062 L 6.765625 11.289062 L 6.765625 6.589844 L 6.507812 6.589844 C 6.367188 6.589844 6.253906 6.402344 6.253906 6.167969 L 6.253906 0.710938 Z M 5.234375 0.710938 "/>
<path style=" stroke:none;fill-rule:evenodd;fill:rgb(92.54902%,70.980392%,32.941176%);fill-opacity:1;" d="M 3.707031 6.589844 L 3.707031 11.289062 L 5.234375 11.289062 L 5.234375 0.710938 L 4.214844 0.710938 L 4.214844 6.167969 C 4.214844 6.402344 4.105469 6.589844 3.964844 6.589844 Z M 3.707031 6.589844 "/>
<path style=" stroke:none;fill-rule:evenodd;fill:rgb(92.156863%,52.54902%,26.666667%);fill-opacity:1;" d="M 2.179688 6.589844 L 2.179688 11.164062 C 2.378906 11.226562 2.582031 11.289062 2.800781 11.289062 L 3.707031 11.289062 L 3.707031 6.589844 L 3.449219 6.589844 C 3.308594 6.589844 3.195312 6.402344 3.195312 6.167969 L 3.195312 0.710938 L 2.800781 0.710938 C 2.761719 0.710938 2.726562 0.730469 2.6875 0.734375 L 2.6875 6.167969 C 2.6875 6.402344 2.574219 6.589844 2.4375 6.589844 Z M 2.179688 6.589844 "/>
<path style=" stroke:none;fill-rule:evenodd;fill:rgb(85.490196%,38.039216%,33.72549%);fill-opacity:1;" d="M 2.179688 11.164062 L 2.179688 6.589844 L 1.921875 6.589844 C 1.78125 6.589844 1.667969 6.402344 1.667969 6.167969 L 1.667969 1.089844 C 1.105469 1.464844 0.710938 2.074219 0.710938 2.800781 L 0.710938 9.199219 C 0.710938 10.132812 1.332031 10.894531 2.179688 11.164062 Z M 2.179688 11.164062 "/>
<path style=" stroke:none;fill-rule:evenodd;fill:rgb(30.980392%,30.980392%,30.980392%);fill-opacity:1;" d="M 1.667969 1.089844 L 1.667969 6.167969 C 1.667969 6.402344 1.78125 6.589844 1.921875 6.589844 L 2.4375 6.589844 C 2.574219 6.589844 2.6875 6.402344 2.6875 6.167969 L 2.6875 0.734375 C 2.304688 0.757812 1.96875 0.890625 1.667969 1.089844 Z M 1.667969 1.089844 "/>
</g>
</svg>
