<?xml version="1.0" encoding="UTF-8"?>
<svg xmlns="http://www.w3.org/2000/svg" xmlns:xlink="http://www.w3.org/1999/xlink" width="12pt" height="12pt" viewBox="0 0 12 12" version="1.1">
<g id="surface1">
<path style=" stroke:none;fill-rule:evenodd;fill:rgb(0.784314%,52.54902%,76.078431%);fill-opacity:1;" d="M 2.800781 0.710938 L 9.199219 0.710938 C 10.351562 0.710938 11.289062 1.648438 11.289062 2.800781 L 11.289062 9.199219 C 11.289062 10.351562 10.351562 11.289062 9.199219 11.289062 L 2.800781 11.289062 C 1.648438 11.289062 0.710938 10.351562 0.710938 9.199219 L 0.710938 2.800781 C 0.710938 1.648438 1.648438 0.710938 2.800781 0.710938 Z M 2.800781 0.710938 "/>
<path style=" stroke:none;fill-rule:nonzero;fill:rgb(100%,100%,100%);fill-opacity:1;" d="M 6 4.5 C 5.171875 4.5 4.5 5.171875 4.5 6 C 4.5 6.828125 5.171875 7.5 6 7.5 C 6.828125 7.5 7.5 6.828125 7.5 6 C 7.5 5.171875 6.828125 4.5 6 4.5 Z M 7.5 6 C 7.5 6.621094 8.003906 7.125 8.625 7.125 C 9.246094 7.125 9.75 6.621094 9.75 6 C 9.75 5.378906 9.246094 4.875 8.625 4.875 C 8.003906 4.875 7.5 5.378906 7.5 6 Z M 4.5 6 C 4.5 5.378906 3.996094 4.875 3.375 4.875 C 2.753906 4.875 2.25 5.378906 2.25 6 C 2.25 6.621094 2.753906 7.125 3.375 7.125 C 3.996094 7.125 4.5 6.621094 4.5 6 Z M 6 5.25 C 6.414062 5.25 6.75 5.585938 6.75 6 C 6.75 6.414062 6.414062 6.75 6 6.75 C 5.585938 6.75 5.25 6.414062 5.25 6 C 5.25 5.585938 5.585938 5.25 6 5.25 Z M 3.375 5.625 C 3.582031 5.625 3.75 5.792969 3.75 6 C 3.75 6.207031 3.582031 6.375 3.375 6.375 C 3.167969 6.375 3 6.207031 3 6 C 3 5.792969 3.167969 5.625 3.375 5.625 Z M 8.625 5.625 C 8.832031 5.625 9 5.792969 9 6 C 9 6.207031 8.832031 6.375 8.625 6.375 C 8.417969 6.375 8.25 6.207031 8.25 6 C 8.25 5.792969 8.417969 5.625 8.625 5.625 Z M 8.625 5.625 "/>
</g>
</svg>
