<?xml version="1.0" encoding="UTF-8"?>
<svg xmlns="http://www.w3.org/2000/svg" xmlns:xlink="http://www.w3.org/1999/xlink" width="12pt" height="12pt" viewBox="0 0 12 12" version="1.1">
<defs>
<clipPath id="clip1">
  <rect width="12" height="12"/>
</clipPath>
<g id="surface6" clip-path="url(#clip1)">
<path style=" stroke:none;fill-rule:nonzero;fill:rgb(100%,100%,100%);fill-opacity:1;" d="M 5.199219 8.453125 C 5.554688 8.34375 5.980469 8.042969 6.183594 7.761719 L 6.25 7.667969 L 6.164062 7.417969 C 5.863281 6.5 6.414062 5.578125 7.355469 5.417969 C 8.039062 5.304688 8.757812 5.722656 9.007812 6.382812 C 9.066406 6.539062 9.066406 6.539062 9.046875 6.417969 C 8.992188 6.0625 8.816406 5.734375 8.527344 5.453125 C 8.230469 5.15625 7.882812 4.988281 7.445312 4.929688 C 7.3125 4.910156 7.300781 4.917969 7.25 5 C 7.171875 5.132812 6.945312 5.351562 6.78125 5.457031 C 6.332031 5.742188 5.644531 5.742188 5.195312 5.457031 C 4.6875 5.136719 4.402344 4.515625 4.496094 3.945312 C 4.546875 3.636719 4.683594 3.359375 4.898438 3.128906 C 5.058594 2.960938 5.070312 2.941406 4.976562 2.996094 C 4.824219 3.082031 4.464844 3.476562 4.359375 3.664062 C 4.242188 3.882812 4.148438 4.273438 4.148438 4.527344 C 4.148438 4.75 4.207031 5.042969 4.292969 5.253906 C 4.339844 5.375 4.347656 5.378906 4.53125 5.402344 C 4.632812 5.414062 4.796875 5.449219 4.894531 5.484375 C 5.742188 5.777344 6.144531 6.757812 5.746094 7.570312 C 5.476562 8.125 4.847656 8.484375 4.257812 8.417969 C 4.019531 8.390625 4.046875 8.421875 4.308594 8.480469 C 4.546875 8.535156 4.972656 8.519531 5.199219 8.453125 Z M 5.199219 8.453125 "/>
<path style=" stroke:none;fill-rule:nonzero;fill:rgb(100%,100%,100%);fill-opacity:1;" d="M 6 2.25 C 3.929688 2.25 2.25 3.929688 2.25 6 C 2.25 8.070312 3.929688 9.75 6 9.75 C 8.070312 9.75 9.75 8.070312 9.75 6 C 9.75 3.929688 8.070312 2.25 6 2.25 Z M 6 2.652344 C 7.851562 2.652344 9.347656 4.148438 9.347656 6 C 9.347656 7.851562 7.851562 9.347656 6 9.347656 C 4.148438 9.347656 2.652344 7.851562 2.652344 6 C 2.652344 4.148438 4.148438 2.652344 6 2.652344 Z M 6 2.652344 "/>
</g>
</defs>
<g id="surface1">
<path style=" stroke:none;fill-rule:evenodd;fill:rgb(30.980392%,30.980392%,30.980392%);fill-opacity:1;" d="M 2.800781 0.710938 L 9.199219 0.710938 C 10.351562 0.710938 11.289062 1.648438 11.289062 2.800781 L 11.289062 9.199219 C 11.289062 10.351562 10.351562 11.289062 9.199219 11.289062 L 2.800781 11.289062 C 1.648438 11.289062 0.710938 10.351562 0.710938 9.199219 L 0.710938 2.800781 C 0.710938 1.648438 1.648438 0.710938 2.800781 0.710938 Z M 2.800781 0.710938 "/>
<use xlink:href="#surface6"/>
</g>
</svg>
