<?xml version="1.0" encoding="UTF-8"?>
<svg xmlns="http://www.w3.org/2000/svg" xmlns:xlink="http://www.w3.org/1999/xlink" width="12pt" height="12pt" viewBox="0 0 12 12" version="1.1">
<g id="surface1">
<path style=" stroke:none;fill-rule:evenodd;fill:rgb(22.352941%,30.588235%,43.529412%);fill-opacity:1;" d="M 2.800781 0.710938 L 9.199219 0.710938 C 10.351562 0.710938 11.289062 1.648438 11.289062 2.800781 L 11.289062 9.199219 C 11.289062 10.351562 10.351562 11.289062 9.199219 11.289062 L 2.800781 11.289062 C 1.648438 11.289062 0.710938 10.351562 0.710938 9.199219 L 0.710938 2.800781 C 0.710938 1.648438 1.648438 0.710938 2.800781 0.710938 Z M 2.800781 0.710938 "/>
<path style="fill-rule:nonzero;fill:rgb(100%,100%,100%);fill-opacity:1;stroke-width:0.5;stroke-linecap:round;stroke-linejoin:round;stroke:rgb(22.352941%,30.588235%,43.529412%);stroke-opacity:1;stroke-miterlimit:4;" d="M -22.671052 10.605263 C -22.671052 12.396929 -24.129385 13.855263 -25.921052 13.855263 C -27.712719 13.855263 -29.171052 12.396929 -29.171052 10.605263 C -29.171052 8.813596 -27.712719 7.355263 -25.921052 7.355263 C -24.129385 7.355263 -22.671052 8.813596 -22.671052 10.605263 Z M -22.671052 10.605263 " transform="matrix(0.375,0,0,0.375,16.657895,1.460526)"/>
<path style="fill-rule:nonzero;fill:rgb(100%,100%,100%);fill-opacity:1;stroke-width:0.5;stroke-linecap:round;stroke-linejoin:round;stroke:rgb(22.352941%,30.588235%,43.529412%);stroke-opacity:1;stroke-miterlimit:4;" d="M -16.671052 17.105263 C -16.671052 18.074013 -17.452302 18.855263 -18.421052 18.855263 C -19.389802 18.855263 -20.171052 18.074013 -20.171052 17.105263 C -20.171052 16.136513 -19.389802 15.355263 -18.421052 15.355263 C -17.452302 15.355263 -16.671052 16.136513 -16.671052 17.105263 Z M -16.671052 17.105263 " transform="matrix(0.375,0,0,0.375,16.657895,1.460526)"/>
<path style="fill-rule:nonzero;fill:rgb(100%,100%,100%);fill-opacity:1;stroke-width:0.5;stroke-linecap:round;stroke-linejoin:round;stroke:rgb(22.352941%,30.588235%,43.529412%);stroke-opacity:1;stroke-miterlimit:4;" d="M -18.671052 15.105263 C -18.671052 17.178179 -20.348135 18.855263 -22.421052 18.855263 C -24.493969 18.855263 -26.171052 17.178179 -26.171052 15.105263 C -26.171052 13.032346 -24.493969 11.355263 -22.421052 11.355263 C -20.348135 11.355263 -18.671052 13.032346 -18.671052 15.105263 Z M -18.671052 15.105263 " transform="matrix(0.375,0,0,0.375,16.657895,1.460526)"/>
<path style="fill-rule:nonzero;fill:rgb(100%,100%,100%);fill-opacity:1;stroke-width:0.5;stroke-linecap:round;stroke-linejoin:round;stroke:rgb(22.352941%,30.588235%,43.529412%);stroke-opacity:1;stroke-miterlimit:4;" d="M -33.671052 15.605263 C -33.671052 17.396929 -35.129385 18.855263 -36.921052 18.855263 C -38.712719 18.855263 -40.171052 17.396929 -40.171052 15.605263 C -40.171052 13.813596 -38.712719 12.355263 -36.921052 12.355263 C -35.129385 12.355263 -33.671052 13.813596 -33.671052 15.605263 Z M -33.671052 15.605263 " transform="matrix(0.375,0,0,0.375,16.657895,1.460526)"/>
<path style="fill-rule:nonzero;fill:rgb(100%,100%,100%);fill-opacity:1;stroke-width:0.5;stroke-linecap:round;stroke-linejoin:round;stroke:rgb(22.352941%,30.588235%,43.529412%);stroke-opacity:1;stroke-miterlimit:4;" d="M -32.171052 9.105263 C -32.171052 10.074013 -32.952302 10.855263 -33.921052 10.855263 C -34.889802 10.855263 -35.671052 10.074013 -35.671052 9.105263 C -35.671052 8.136513 -34.889802 7.355263 -33.921052 7.355263 C -32.952302 7.355263 -32.171052 8.136513 -32.171052 9.105263 Z M -32.171052 9.105263 " transform="matrix(0.375,0,0,0.375,16.657895,1.460526)"/>
<path style="fill-rule:nonzero;fill:rgb(100%,100%,100%);fill-opacity:1;stroke-width:0.5;stroke-linecap:round;stroke-linejoin:round;stroke:rgb(22.352941%,30.588235%,43.529412%);stroke-opacity:1;stroke-miterlimit:4;" d="M -29.671052 13.105263 C -29.671052 15.178179 -31.348135 16.855263 -33.421052 16.855263 C -35.493969 16.855263 -37.171052 15.178179 -37.171052 13.105263 C -37.171052 11.032346 -35.493969 9.355263 -33.421052 9.355263 C -31.348135 9.355263 -29.671052 11.032346 -29.671052 13.105263 Z M -29.671052 13.105263 " transform="matrix(0.375,0,0,0.375,16.657895,1.460526)"/>
<path style="fill-rule:nonzero;fill:rgb(100%,100%,100%);fill-opacity:1;stroke-width:0.5;stroke-linecap:round;stroke-linejoin:round;stroke:rgb(22.352941%,30.588235%,43.529412%);stroke-opacity:1;stroke-miterlimit:4;" d="M -31.671052 17.105263 C -31.671052 18.074013 -32.452302 18.855263 -33.421052 18.855263 C -34.389802 18.855263 -35.171052 18.074013 -35.171052 17.105263 C -35.171052 16.136513 -34.389802 15.355263 -33.421052 15.355263 C -32.452302 15.355263 -31.671052 16.136513 -31.671052 17.105263 Z M -31.671052 17.105263 " transform="matrix(0.375,0,0,0.375,16.657895,1.460526)"/>
<path style="fill-rule:nonzero;fill:rgb(100%,100%,100%);fill-opacity:1;stroke-width:0.5;stroke-linecap:round;stroke-linejoin:round;stroke:rgb(22.352941%,30.588235%,43.529412%);stroke-opacity:1;stroke-miterlimit:4;" d="M -26.671052 8.605263 C -26.671052 10.396929 -28.129385 11.855263 -29.921052 11.855263 C -31.712719 11.855263 -33.171052 10.396929 -33.171052 8.605263 C -33.171052 6.813596 -31.712719 5.355263 -29.921052 5.355263 C -28.129385 5.355263 -26.671052 6.813596 -26.671052 8.605263 Z M -26.671052 8.605263 " transform="matrix(0.375,0,0,0.375,16.657895,1.460526)"/>
<path style="fill-rule:nonzero;fill:rgb(100%,100%,100%);fill-opacity:1;stroke-width:0.5;stroke-linecap:round;stroke-linejoin:round;stroke:rgb(22.352941%,30.588235%,43.529412%);stroke-opacity:1;stroke-miterlimit:4;" d="M -23.671052 14.105263 C -23.671052 16.730263 -25.796052 18.855263 -28.421052 18.855263 C -31.046052 18.855263 -33.171052 16.730263 -33.171052 14.105263 C -33.171052 11.480263 -31.046052 9.355263 -28.421052 9.355263 C -25.796052 9.355263 -23.671052 11.480263 -23.671052 14.105263 Z M -23.671052 14.105263 " transform="matrix(0.375,0,0,0.375,16.657895,1.460526)"/>
</g>
</svg>
