<?xml version="1.0" encoding="UTF-8"?>
<svg xmlns="http://www.w3.org/2000/svg" xmlns:xlink="http://www.w3.org/1999/xlink" width="12pt" height="12pt" viewBox="0 0 12 12" version="1.1">
<g id="surface1">
<path style=" stroke:none;fill-rule:evenodd;fill:rgb(47.843137%,82.745098%,32.941176%);fill-opacity:1;" d="M 2.800781 0.710938 L 9.199219 0.710938 C 10.351562 0.710938 11.289062 1.648438 11.289062 2.800781 L 11.289062 9.199219 C 11.289062 10.351562 10.351562 11.289062 9.199219 11.289062 L 2.800781 11.289062 C 1.648438 11.289062 0.710938 10.351562 0.710938 9.199219 L 0.710938 2.800781 C 0.710938 1.648438 1.648438 0.710938 2.800781 0.710938 Z M 2.800781 0.710938 "/>
<path style=" stroke:none;fill-rule:nonzero;fill:rgb(100%,100%,100%);fill-opacity:1;" d="M 5.832031 1.832031 C 5.386719 1.832031 5.023438 2.195312 5.023438 2.644531 L 5.023438 3.453125 L 3.136719 3.453125 C 2.835938 3.453125 2.597656 3.691406 2.597656 3.992188 L 2.597656 5.609375 L 3.40625 5.609375 C 3.855469 5.609375 4.214844 5.972656 4.214844 6.421875 C 4.214844 6.867188 3.855469 7.230469 3.40625 7.230469 L 2.597656 7.230469 L 2.597656 9.117188 C 2.597656 9.417969 2.835938 9.65625 3.136719 9.65625 L 5.023438 9.65625 L 5.023438 9.117188 C 5.023438 8.667969 5.386719 8.308594 5.832031 8.308594 C 6.28125 8.308594 6.644531 8.667969 6.644531 9.117188 L 6.644531 9.65625 L 8.261719 9.65625 C 8.5625 9.65625 8.800781 9.417969 8.800781 9.117188 L 8.800781 7.230469 L 9.609375 7.230469 C 10.058594 7.230469 10.421875 6.867188 10.421875 6.421875 C 10.421875 5.972656 10.058594 5.609375 9.609375 5.609375 L 8.800781 5.609375 L 8.800781 3.992188 C 8.800781 3.691406 8.5625 3.453125 8.261719 3.453125 L 6.644531 3.453125 L 6.644531 2.644531 C 6.644531 2.195312 6.28125 1.832031 5.832031 1.832031 Z M 5.832031 1.832031 "/>
</g>
</svg>
