<?xml version="1.0" encoding="UTF-8"?>
<svg xmlns="http://www.w3.org/2000/svg" xmlns:xlink="http://www.w3.org/1999/xlink" width="12pt" height="12pt" viewBox="0 0 12 12" version="1.1">
<defs>
<g>
<symbol overflow="visible" id="glyph0-0">
<path style="stroke:none;" d="M 0.09375 0.359375 L 0.09375 -1.40625 L 1.09375 -1.40625 L 1.09375 0.359375 Z M 0.21875 0.25 L 0.984375 0.25 L 0.984375 -1.296875 L 0.21875 -1.296875 Z M 0.21875 0.25 "/>
</symbol>
<symbol overflow="visible" id="glyph0-1">
<path style="stroke:none;" d="M 0.1875 -1.453125 L 0.8125 -1.453125 C 1 -1.453125 1.140625 -1.410156 1.234375 -1.328125 C 1.335938 -1.253906 1.390625 -1.140625 1.390625 -0.984375 C 1.390625 -0.828125 1.335938 -0.707031 1.234375 -0.625 C 1.140625 -0.539062 1 -0.5 0.8125 -0.5 L 0.5625 -0.5 L 0.5625 0 L 0.1875 0 Z M 0.5625 -1.1875 L 0.5625 -0.78125 L 0.765625 -0.78125 C 0.835938 -0.78125 0.894531 -0.796875 0.9375 -0.828125 C 0.976562 -0.867188 1 -0.921875 1 -0.984375 C 1 -1.046875 0.976562 -1.09375 0.9375 -1.125 C 0.894531 -1.164062 0.835938 -1.1875 0.765625 -1.1875 Z M 0.5625 -1.1875 "/>
</symbol>
<symbol overflow="visible" id="glyph0-2">
<path style="stroke:none;" d="M 0.1875 -1.453125 L 0.609375 -1.453125 L 1.140625 -0.453125 L 1.140625 -1.453125 L 1.484375 -1.453125 L 1.484375 0 L 1.078125 0 L 0.546875 -1 L 0.546875 0 L 0.1875 0 Z M 0.1875 -1.453125 "/>
</symbol>
<symbol overflow="visible" id="glyph0-3">
<path style="stroke:none;" d="M 1.5 -0.109375 C 1.40625 -0.0664062 1.304688 -0.03125 1.203125 0 C 1.097656 0.0195312 0.992188 0.03125 0.890625 0.03125 C 0.648438 0.03125 0.457031 -0.0351562 0.3125 -0.171875 C 0.164062 -0.304688 0.09375 -0.492188 0.09375 -0.734375 C 0.09375 -0.960938 0.164062 -1.144531 0.3125 -1.28125 C 0.457031 -1.414062 0.65625 -1.484375 0.90625 -1.484375 C 1.007812 -1.484375 1.101562 -1.472656 1.1875 -1.453125 C 1.28125 -1.441406 1.363281 -1.414062 1.4375 -1.375 L 1.4375 -1.078125 C 1.351562 -1.117188 1.269531 -1.148438 1.1875 -1.171875 C 1.113281 -1.203125 1.035156 -1.21875 0.953125 -1.21875 C 0.804688 -1.21875 0.691406 -1.175781 0.609375 -1.09375 C 0.523438 -1.007812 0.484375 -0.890625 0.484375 -0.734375 C 0.484375 -0.578125 0.519531 -0.457031 0.59375 -0.375 C 0.675781 -0.289062 0.789062 -0.25 0.9375 -0.25 C 0.976562 -0.25 1.015625 -0.25 1.046875 -0.25 C 1.078125 -0.257812 1.109375 -0.269531 1.140625 -0.28125 L 1.140625 -0.5625 L 0.90625 -0.5625 L 0.90625 -0.8125 L 1.5 -0.8125 Z M 1.5 -0.109375 "/>
</symbol>
<symbol overflow="visible" id="glyph1-0">
<path style="stroke:none;" d="M 0.09375 0.359375 L 0.09375 -1.40625 L 1.09375 -1.40625 L 1.09375 0.359375 Z M 0.21875 0.25 L 0.984375 0.25 L 0.984375 -1.296875 L 0.21875 -1.296875 Z M 0.21875 0.25 "/>
</symbol>
<symbol overflow="visible" id="glyph1-1">
<path style="stroke:none;" d="M 0.1875 -1.453125 L 0.8125 -1.453125 C 1 -1.453125 1.140625 -1.410156 1.234375 -1.328125 C 1.335938 -1.253906 1.390625 -1.140625 1.390625 -0.984375 C 1.390625 -0.828125 1.335938 -0.707031 1.234375 -0.625 C 1.140625 -0.539062 1 -0.5 0.8125 -0.5 L 0.5625 -0.5 L 0.5625 0 L 0.1875 0 Z M 0.5625 -1.1875 L 0.5625 -0.78125 L 0.765625 -0.78125 C 0.835938 -0.78125 0.894531 -0.796875 0.9375 -0.828125 C 0.976562 -0.867188 1 -0.921875 1 -0.984375 C 1 -1.046875 0.976562 -1.09375 0.9375 -1.125 C 0.894531 -1.164062 0.835938 -1.1875 0.765625 -1.1875 Z M 0.5625 -1.1875 "/>
</symbol>
<symbol overflow="visible" id="glyph1-2">
<path style="stroke:none;" d="M 0.5625 -1.171875 L 0.5625 -0.28125 L 0.6875 -0.28125 C 0.84375 -0.28125 0.960938 -0.316406 1.046875 -0.390625 C 1.128906 -0.472656 1.171875 -0.585938 1.171875 -0.734375 C 1.171875 -0.878906 1.128906 -0.988281 1.046875 -1.0625 C 0.960938 -1.132812 0.84375 -1.171875 0.6875 -1.171875 Z M 0.1875 -1.453125 L 0.578125 -1.453125 C 0.796875 -1.453125 0.957031 -1.4375 1.0625 -1.40625 C 1.175781 -1.375 1.273438 -1.320312 1.359375 -1.25 C 1.421875 -1.1875 1.46875 -1.109375 1.5 -1.015625 C 1.539062 -0.929688 1.5625 -0.835938 1.5625 -0.734375 C 1.5625 -0.617188 1.539062 -0.519531 1.5 -0.4375 C 1.46875 -0.351562 1.421875 -0.273438 1.359375 -0.203125 C 1.273438 -0.128906 1.175781 -0.078125 1.0625 -0.046875 C 0.957031 -0.015625 0.796875 0 0.578125 0 L 0.1875 0 Z M 0.1875 -1.453125 "/>
</symbol>
<symbol overflow="visible" id="glyph1-3">
<path style="stroke:none;" d="M 0.1875 -1.453125 L 1.203125 -1.453125 L 1.203125 -1.171875 L 0.5625 -1.171875 L 0.5625 -0.90625 L 1.15625 -0.90625 L 1.15625 -0.625 L 0.5625 -0.625 L 0.5625 0 L 0.1875 0 Z M 0.1875 -1.453125 "/>
</symbol>
</g>
</defs>
<g id="surface1">
<path style=" stroke:none;fill-rule:evenodd;fill:rgb(40.392157%,52.941176%,76.470588%);fill-opacity:1;" d="M 2.800781 0.660156 L 9.199219 0.660156 C 10.351562 0.660156 11.289062 1.597656 11.289062 2.75 L 11.289062 9.148438 C 11.289062 10.300781 10.351562 11.238281 9.199219 11.238281 L 2.800781 11.238281 C 1.648438 11.238281 0.710938 10.300781 0.710938 9.148438 L 0.710938 2.75 C 0.710938 1.597656 1.648438 0.660156 2.800781 0.660156 Z M 2.800781 0.660156 "/>
<path style=" stroke:none;fill-rule:evenodd;fill:rgb(83.529412%,12.156863%,20%);fill-opacity:1;" d="M 10.675781 10.675781 L 1.324219 1.324219 C 1.324219 1.324219 1.292969 1.300781 1.292969 1.300781 C 0.894531 1.679688 0.710938 2.226562 0.710938 2.800781 L 0.710938 9.199219 C 0.710938 10.355469 1.644531 11.289062 2.804688 11.289062 L 9.199219 11.289062 C 9.777344 11.289062 10.296875 11.054688 10.675781 10.675781 Z M 10.675781 10.675781 "/>
<path style=" stroke:none;fill-rule:evenodd;fill:rgb(40.392157%,52.941176%,76.470588%);fill-opacity:1;" d="M 10.675781 10.675781 C 11.054688 10.300781 11.289062 9.777344 11.289062 9.199219 L 11.289062 2.800781 C 11.289062 1.644531 10.355469 0.710938 9.199219 0.710938 L 2.804688 0.710938 C 2.222656 0.710938 1.703125 0.945312 1.324219 1.324219 Z M 10.675781 10.675781 "/>
<path style=" stroke:none;fill-rule:nonzero;fill:rgb(100%,100%,100%);fill-opacity:1;" d="M 8.5 3.132812 C 9.460938 4.09375 10.246094 4.886719 10.246094 4.894531 C 10.246094 4.910156 6.757812 8.402344 6.742188 8.402344 C 6.734375 8.402344 6.730469 7.878906 6.730469 7.242188 L 6.730469 6.085938 L 6.546875 6.085938 C 4.992188 6.085938 3.925781 6.550781 3.476562 7.425781 C 3.195312 7.96875 3.144531 8.6875 3.328125 9.449219 C 3.410156 9.785156 3.589844 10.265625 3.742188 10.566406 C 3.816406 10.707031 3.832031 10.746094 3.824219 10.746094 C 3.804688 10.746094 3.488281 10.355469 3.367188 10.183594 C 3.292969 10.078125 3.078125 9.757812 3.078125 9.75 C 3.078125 9.746094 3.042969 9.683594 3 9.609375 C 2.609375 8.9375 2.367188 8.101562 2.332031 7.328125 C 2.296875 6.472656 2.558594 5.640625 3.058594 5.015625 C 3.191406 4.847656 3.253906 4.785156 3.433594 4.628906 C 4.160156 3.992188 5.21875 3.652344 6.488281 3.652344 L 6.730469 3.652344 L 6.730469 2.515625 C 6.730469 1.894531 6.734375 1.382812 6.742188 1.382812 C 6.75 1.382812 7.539062 2.171875 8.5 3.132812 Z M 8.5 3.132812 "/>
<g style="fill:rgb(40.392157%,52.941176%,76.470588%);fill-opacity:1;">
  <use xlink:href="#glyph0-1" x="4.835938" y="5.568359"/>
  <use xlink:href="#glyph0-2" x="6.071167" y="5.568359"/>
  <use xlink:href="#glyph0-3" x="7.481812" y="5.568359"/>
</g>
<g style="fill:rgb(100%,100%,100%);fill-opacity:1;">
  <use xlink:href="#glyph1-1" x="3.761719" y="10.71875"/>
  <use xlink:href="#glyph1-2" x="5.427246" y="10.71875"/>
  <use xlink:href="#glyph1-3" x="7.313599" y="10.71875"/>
</g>
</g>
</svg>
