<?xml version="1.0" encoding="UTF-8"?>
<svg xmlns="http://www.w3.org/2000/svg" xmlns:xlink="http://www.w3.org/1999/xlink" width="12pt" height="12pt" viewBox="0 0 12 12" version="1.1">
<defs>
<clipPath id="clip1">
  <rect width="12" height="12"/>
</clipPath>
<g id="surface6" clip-path="url(#clip1)">
<path style=" stroke:none;fill-rule:nonzero;fill:rgb(32.941176%,69.803922%,24.705882%);fill-opacity:1;" d="M 6.433594 3.984375 C 5.5625 3.984375 4.84375 4.699219 4.84375 5.566406 C 4.84375 5.898438 4.957031 6.203125 5.128906 6.457031 L 4.070312 7.519531 C 3.957031 7.628906 3.953125 7.8125 4.066406 7.925781 C 4.179688 8.039062 4.359375 8.042969 4.476562 7.933594 L 5.535156 6.871094 C 5.789062 7.046875 6.101562 7.148438 6.433594 7.148438 C 7.304688 7.148438 8.015625 6.4375 8.015625 5.566406 C 8.015625 4.699219 7.304688 3.988281 6.433594 3.988281 Z M 6.433594 4.5625 C 6.992188 4.5625 7.441406 5.007812 7.441406 5.566406 C 7.441406 6.128906 6.992188 6.574219 6.433594 6.574219 C 5.875 6.574219 5.425781 6.128906 5.425781 5.566406 C 5.425781 5.007812 5.875 4.5625 6.433594 4.5625 Z M 6.433594 4.5625 "/>
</g>
</defs>
<g id="surface1">
<path style=" stroke:none;fill-rule:evenodd;fill:rgb(32.941176%,69.803922%,24.705882%);fill-opacity:1;" d="M 2.800781 0.710938 L 9.199219 0.710938 C 10.351562 0.710938 11.289062 1.648438 11.289062 2.800781 L 11.289062 9.199219 C 11.289062 10.351562 10.351562 11.289062 9.199219 11.289062 L 2.800781 11.289062 C 1.648438 11.289062 0.710938 10.351562 0.710938 9.199219 L 0.710938 2.800781 C 0.710938 1.648438 1.648438 0.710938 2.800781 0.710938 Z M 2.800781 0.710938 "/>
<path style=" stroke:none;fill-rule:nonzero;fill:rgb(30.980392%,30.980392%,30.980392%);fill-opacity:1;" d="M 6 2.835938 C 3.769531 2.835938 1.972656 4.8125 1.972656 6 C 1.972656 7.1875 3.769531 9.164062 6 9.164062 C 8.230469 9.164062 10.027344 7.1875 10.027344 6 C 10.027344 4.8125 8.230469 2.835938 6 2.835938 Z M 6 2.835938 "/>
<use xlink:href="#surface6"/>
</g>
</svg>
