<?xml version="1.0" encoding="UTF-8"?>
<svg xmlns="http://www.w3.org/2000/svg" xmlns:xlink="http://www.w3.org/1999/xlink" width="12pt" height="12pt" viewBox="0 0 12 12" version="1.1">
<g id="surface1">
<path style=" stroke:none;fill-rule:evenodd;fill:rgb(70.196078%,70.196078%,70.196078%);fill-opacity:1;" d="M 2.800781 0.710938 L 9.199219 0.710938 C 10.351562 0.710938 11.289062 1.648438 11.289062 2.800781 L 11.289062 9.199219 C 11.289062 10.351562 10.351562 11.289062 9.199219 11.289062 L 2.800781 11.289062 C 1.648438 11.289062 0.710938 10.351562 0.710938 9.199219 L 0.710938 2.800781 C 0.710938 1.648438 1.648438 0.710938 2.800781 0.710938 Z M 2.800781 0.710938 "/>
<path style=" stroke:none;fill-rule:nonzero;fill:rgb(35.686275%,35.686275%,35.686275%);fill-opacity:1;" d="M 6 1.988281 C 5.996094 1.988281 5.992188 1.988281 5.988281 1.988281 C 4.507812 1.996094 3.03125 3.328125 3.03125 4.328125 L 3.03125 7.636719 C 3.03125 8.992188 4.144531 10.011719 6 10.011719 C 7.855469 10.015625 8.96875 8.996094 8.96875 7.636719 L 8.96875 4.417969 C 8.96875 3.378906 7.484375 1.996094 6 1.988281 Z M 6 1.988281 "/>
<path style=" stroke:none;fill-rule:nonzero;fill:rgb(40%,40%,40%);fill-opacity:1;" d="M 6 1.988281 C 5.996094 1.988281 5.992188 1.988281 5.988281 1.988281 C 4.507812 1.996094 3.03125 3.328125 3.03125 4.328125 L 3.03125 6 L 8.96875 6 L 8.96875 4.417969 C 8.96875 3.378906 7.484375 1.996094 6 1.988281 Z M 6 1.988281 "/>
<path style=" stroke:none;fill-rule:nonzero;fill:rgb(20%,20%,20%);fill-opacity:1;" d="M 6 1.988281 C 5.996094 1.988281 5.992188 1.988281 5.988281 1.988281 C 4.507812 1.996094 3.03125 3.328125 3.03125 4.328125 L 3.03125 6 L 6 6 C 6 6 6 1.988281 6 1.988281 Z M 6 1.988281 "/>
<path style=" stroke:none;fill-rule:nonzero;fill:rgb(80%,80%,80%);fill-opacity:1;" d="M 6 3.132812 C 6.183594 3.132812 6.328125 3.296875 6.328125 3.5 L 6.328125 4.484375 C 6.328125 4.6875 6.183594 4.851562 6 4.851562 C 5.816406 4.851562 5.671875 4.6875 5.671875 4.484375 L 5.671875 3.5 C 5.671875 3.296875 5.816406 3.132812 6 3.132812 "/>
</g>
</svg>
