<?xml version="1.0" encoding="UTF-8"?>
<svg xmlns="http://www.w3.org/2000/svg" xmlns:xlink="http://www.w3.org/1999/xlink" width="12pt" height="12pt" viewBox="0 0 12 12" version="1.1">
<g id="surface1">
<path style=" stroke:none;fill-rule:evenodd;fill:rgb(30.980392%,30.980392%,30.980392%);fill-opacity:1;" d="M 8.25 8.25 L 8.25 11.0625 C 8.25 11.152344 8.191406 11.214844 8.15625 11.289062 L 9.199219 11.289062 C 10.355469 11.289062 11.289062 10.355469 11.289062 9.199219 L 11.289062 8.15625 C 11.214844 8.191406 11.152344 8.25 11.0625 8.25 Z M 8.25 8.25 "/>
<path style=" stroke:none;fill-rule:evenodd;fill:rgb(13.333333%,59.215686%,99.215686%);fill-opacity:1;" d="M 3.75 3.75 L 0.9375 3.75 C 0.847656 3.75 0.785156 3.808594 0.710938 3.84375 L 0.710938 9.199219 C 0.710938 10.355469 1.644531 11.289062 2.800781 11.289062 L 8.15625 11.289062 C 8.191406 11.214844 8.25 11.152344 8.25 11.0625 L 8.25 8.25 L 4.3125 8.25 C 4.15625 8.25 4.015625 8.1875 3.914062 8.085938 C 3.8125 7.984375 3.75 7.84375 3.75 7.6875 Z M 3.75 3.75 "/>
<path style=" stroke:none;fill-rule:evenodd;fill:rgb(30.980392%,30.980392%,30.980392%);fill-opacity:1;" d="M 2.800781 0.710938 C 1.644531 0.710938 0.710938 1.644531 0.710938 2.800781 L 0.710938 3.84375 C 0.785156 3.808594 0.847656 3.75 0.9375 3.75 L 3.75 3.75 L 3.75 0.9375 C 3.75 0.847656 3.808594 0.785156 3.84375 0.710938 Z M 2.800781 0.710938 "/>
<path style=" stroke:none;fill-rule:nonzero;fill:rgb(100%,100%,100%);fill-opacity:1;" d="M 4.992188 9.304688 L 3.261719 9.304688 L 2.988281 10.125 L 1.875 10.125 L 3.464844 5.625 L 4.785156 5.625 L 6.375 10.125 L 5.261719 10.125 Z M 3.535156 8.46875 L 4.714844 8.46875 L 4.125 6.679688 Z M 3.535156 8.46875 "/>
<path style=" stroke:none;fill-rule:evenodd;fill:rgb(95.294118%,68.627451%,24.705882%);fill-opacity:1;" d="M 3.84375 0.710938 C 3.808594 0.785156 3.75 0.847656 3.75 0.9375 L 3.75 7.6875 C 3.75 7.84375 3.8125 7.984375 3.914062 8.085938 C 4.015625 8.1875 4.15625 8.25 4.3125 8.25 L 11.0625 8.25 C 11.152344 8.25 11.214844 8.191406 11.289062 8.15625 L 11.289062 2.800781 C 11.289062 1.644531 10.355469 0.710938 9.199219 0.710938 Z M 3.84375 0.710938 "/>
<path style=" stroke:none;fill-rule:nonzero;fill:rgb(100%,100%,100%);fill-opacity:1;" d="M 7.824219 3.992188 C 8.011719 3.992188 8.148438 3.953125 8.246094 3.871094 C 8.339844 3.792969 8.390625 3.671875 8.390625 3.515625 C 8.390625 3.359375 8.339844 3.242188 8.246094 3.164062 C 8.148438 3.082031 8.011719 3.039062 7.824219 3.039062 L 7.175781 3.039062 L 7.175781 3.992188 Z M 7.863281 5.960938 C 8.101562 5.960938 8.277344 5.910156 8.394531 5.8125 C 8.515625 5.714844 8.574219 5.566406 8.574219 5.367188 C 8.574219 5.171875 8.515625 5.027344 8.398438 4.929688 C 8.28125 4.832031 8.101562 4.78125 7.863281 4.78125 L 7.175781 4.78125 L 7.175781 5.960938 Z M 8.957031 4.34375 C 9.210938 4.414062 9.402344 4.546875 9.542969 4.742188 C 9.679688 4.9375 9.75 5.175781 9.75 5.460938 C 9.75 5.894531 9.601562 6.21875 9.304688 6.429688 C 9.007812 6.644531 8.554688 6.75 7.949219 6.75 L 6 6.75 L 6 2.25 L 7.765625 2.25 C 8.394531 2.25 8.855469 2.34375 9.136719 2.535156 C 9.421875 2.722656 9.5625 3.023438 9.5625 3.441406 C 9.5625 3.660156 9.511719 3.847656 9.410156 4 C 9.304688 4.152344 9.152344 4.269531 8.957031 4.34375 Z M 8.957031 4.34375 "/>
</g>
</svg>
