<?xml version="1.0" encoding="UTF-8"?>
<svg xmlns="http://www.w3.org/2000/svg" xmlns:xlink="http://www.w3.org/1999/xlink" width="12pt" height="12pt" viewBox="0 0 12 12" version="1.1">
<g id="surface1">
<path style=" stroke:none;fill-rule:nonzero;fill:rgb(81.176471%,30.980392%,54.901961%);fill-opacity:1;" d="M 11.25 2.613281 C 11.230469 2.394531 11.207031 2.179688 11.125 1.988281 C 11.019531 1.738281 10.867188 1.511719 10.675781 1.324219 C 10.488281 1.132812 10.261719 0.980469 10.011719 0.875 C 9.820312 0.792969 9.605469 0.769531 9.386719 0.75 L 6 0.75 L 6 6 L 11.25 6 Z M 11.25 2.613281 "/>
<path style=" stroke:none;fill-rule:nonzero;fill:rgb(100%,54.901961%,16.470588%);fill-opacity:1;" d="M 2.613281 0.75 C 2.394531 0.769531 2.179688 0.792969 1.988281 0.875 C 1.738281 0.980469 1.511719 1.132812 1.324219 1.324219 C 1.132812 1.511719 0.980469 1.738281 0.875 1.988281 C 0.792969 2.179688 0.769531 2.394531 0.75 2.613281 L 0.75 6 L 6 6 L 6 0.75 Z M 2.613281 0.75 "/>
<path style=" stroke:none;fill-rule:nonzero;fill:rgb(100%,54.901961%,16.470588%);fill-opacity:1;" d="M 9.386719 11.25 C 9.605469 11.230469 9.820312 11.207031 10.011719 11.125 C 10.261719 11.019531 10.488281 10.867188 10.675781 10.675781 C 10.867188 10.488281 11.019531 10.261719 11.125 10.011719 C 11.207031 9.820312 11.230469 9.605469 11.25 9.386719 L 11.25 6 L 6 6 L 6 11.25 Z M 9.386719 11.25 "/>
<path style=" stroke:none;fill-rule:nonzero;fill:rgb(78.039216%,14.509804%,40%);fill-opacity:1;" d="M 0.75 9.386719 C 0.769531 9.605469 0.796875 9.820312 0.875 10.011719 C 0.980469 10.261719 1.132812 10.488281 1.324219 10.675781 C 1.511719 10.867188 1.738281 11.019531 1.988281 11.125 C 2.179688 11.207031 2.394531 11.230469 2.613281 11.25 L 6 11.25 L 6 6 L 0.75 6 Z M 0.75 9.386719 "/>
<path style=" stroke:none;fill-rule:evenodd;fill:rgb(24.705882%,24.705882%,24.705882%);fill-opacity:1;" d="M 3.570312 1.984375 L 8.429688 1.984375 C 9.304688 1.984375 10.015625 2.695312 10.015625 3.570312 L 10.015625 8.429688 C 10.015625 9.304688 9.304688 10.015625 8.429688 10.015625 L 3.570312 10.015625 C 2.695312 10.015625 1.984375 9.304688 1.984375 8.429688 L 1.984375 3.570312 C 1.984375 2.695312 2.695312 1.984375 3.570312 1.984375 Z M 3.570312 1.984375 "/>
<path style="fill:none;stroke-width:2;stroke-linecap:round;stroke-linejoin:miter;stroke:rgb(100%,100%,100%);stroke-opacity:1;stroke-miterlimit:4;" d="M 49.407085 -5.341434 L 57.40541 -5.341434 " transform="matrix(0.348217,0,0,0.348217,-13.641908,10.473262)"/>
<path style="fill:none;stroke-width:2;stroke-linecap:round;stroke-linejoin:miter;stroke:rgb(100%,100%,100%);stroke-opacity:1;stroke-miterlimit:4;" d="M 53.411856 -11.342983 L 51.403862 -14.338148 M 49.407085 -15.336537 C 49.407085 -15.336537 53.411856 -14.876605 53.411856 -17.344531 C 53.411856 -19.80124 49.407085 -19.341308 49.407085 -19.341308 M 49.407085 -11.342983 L 49.407085 -19.341308 " transform="matrix(0.348217,0,0,0.348217,-13.641908,10.473262)"/>
<path style="fill:none;stroke-width:2;stroke-linecap:round;stroke-linejoin:miter;stroke:rgb(100%,100%,100%);stroke-opacity:1;stroke-miterlimit:4;" d="M 56.407022 -13.33976 L 60.411793 -13.33976 M 58.403799 -11.342983 L 58.403799 -15.336537 " transform="matrix(0.348217,0,0,0.348217,-13.641908,10.473262)"/>
<path style="fill:none;stroke-width:2;stroke-linecap:round;stroke-linejoin:miter;stroke:rgb(100%,100%,100%);stroke-opacity:1;stroke-miterlimit:4;" d="M 59.402187 -18.34292 L 63.406959 -18.34292 M 61.410182 -16.334925 L 61.410182 -20.339697 " transform="matrix(0.348217,0,0,0.348217,-13.641908,10.473262)"/>
</g>
</svg>
