<?xml version="1.0" encoding="UTF-8"?>
<svg xmlns="http://www.w3.org/2000/svg" xmlns:xlink="http://www.w3.org/1999/xlink" width="12pt" height="12pt" viewBox="0 0 12 12" version="1.1">
<g id="surface1">
<path style=" stroke:none;fill-rule:evenodd;fill:rgb(30.196078%,30.196078%,30.196078%);fill-opacity:1;" d="M 2.800781 0.710938 L 9.199219 0.710938 C 10.351562 0.710938 11.289062 1.648438 11.289062 2.800781 L 11.289062 9.199219 C 11.289062 10.351562 10.351562 11.289062 9.199219 11.289062 L 2.800781 11.289062 C 1.648438 11.289062 0.710938 10.351562 0.710938 9.199219 L 0.710938 2.800781 C 0.710938 1.648438 1.648438 0.710938 2.800781 0.710938 Z M 2.800781 0.710938 "/>
<path style=" stroke:none;fill-rule:nonzero;fill:rgb(34.117647%,74.509804%,100%);fill-opacity:1;" d="M 8.597656 3.402344 C 8.257812 3.0625 7.867188 2.804688 7.453125 2.625 L 5.855469 6.144531 L 9.375 4.546875 C 9.195312 4.132812 8.9375 3.742188 8.597656 3.402344 Z M 8.597656 3.402344 "/>
<path style=" stroke:none;fill-rule:nonzero;fill:rgb(58.039216%,100%,34.117647%);fill-opacity:1;" d="M 6.613281 2.734375 C 6.613281 3.074219 6.339844 3.347656 6 3.347656 C 5.660156 3.347656 5.386719 3.074219 5.386719 2.734375 C 5.386719 2.394531 5.660156 2.121094 6 2.121094 C 6.339844 2.121094 6.613281 2.394531 6.613281 2.734375 Z M 6.613281 2.734375 "/>
<path style=" stroke:none;fill-rule:nonzero;fill:rgb(58.039216%,100%,34.117647%);fill-opacity:1;" d="M 6.613281 9.265625 C 6.613281 9.605469 6.339844 9.878906 6 9.878906 C 5.660156 9.878906 5.386719 9.605469 5.386719 9.265625 C 5.386719 8.925781 5.660156 8.652344 6 8.652344 C 6.339844 8.652344 6.613281 8.925781 6.613281 9.265625 Z M 6.613281 9.265625 "/>
<path style=" stroke:none;fill-rule:nonzero;fill:rgb(58.039216%,100%,34.117647%);fill-opacity:1;" d="M 9.265625 6.613281 C 8.925781 6.613281 8.652344 6.339844 8.652344 6 C 8.652344 5.660156 8.925781 5.386719 9.265625 5.386719 C 9.605469 5.386719 9.878906 5.660156 9.878906 6 C 9.878906 6.339844 9.605469 6.613281 9.265625 6.613281 Z M 9.265625 6.613281 "/>
<path style=" stroke:none;fill-rule:nonzero;fill:rgb(58.039216%,100%,34.117647%);fill-opacity:1;" d="M 2.734375 6.613281 C 2.394531 6.613281 2.121094 6.339844 2.121094 6 C 2.121094 5.660156 2.394531 5.386719 2.734375 5.386719 C 3.074219 5.386719 3.347656 5.660156 3.347656 6 C 3.347656 6.339844 3.074219 6.613281 2.734375 6.613281 Z M 2.734375 6.613281 "/>
</g>
</svg>
