<?xml version="1.0" encoding="UTF-8"?>
<svg xmlns="http://www.w3.org/2000/svg" xmlns:xlink="http://www.w3.org/1999/xlink" width="12pt" height="12pt" viewBox="0 0 12 12" version="1.1">
<g id="surface1">
<path style=" stroke:none;fill-rule:evenodd;fill:rgb(40%,11.764706%,10.196078%);fill-opacity:1;" d="M 2.800781 0.710938 L 9.199219 0.710938 C 10.351562 0.710938 11.289062 1.648438 11.289062 2.800781 L 11.289062 9.199219 C 11.289062 10.351562 10.351562 11.289062 9.199219 11.289062 L 2.800781 11.289062 C 1.648438 11.289062 0.710938 10.351562 0.710938 9.199219 L 0.710938 2.800781 C 0.710938 1.648438 1.648438 0.710938 2.800781 0.710938 Z M 2.800781 0.710938 "/>
<path style=" stroke:none;fill-rule:nonzero;fill:rgb(100%,100%,100%);fill-opacity:1;" d="M 5.886719 2.4375 C 5.09375 2.4375 4.496094 2.800781 4.207031 3.453125 C 4.113281 3.671875 4.09375 3.75 4.082031 4.003906 C 4.054688 4.515625 4.214844 4.933594 4.558594 5.253906 C 4.808594 5.484375 4.902344 5.539062 5.753906 5.9375 C 6.804688 6.425781 6.980469 6.53125 7.226562 6.792969 C 7.554688 7.152344 7.726562 7.640625 7.644531 8 C 7.539062 8.460938 7.246094 8.925781 6.890625 9.109375 C 6.363281 9.386719 5.65625 9.378906 5.167969 9.089844 C 4.96875 8.972656 4.621094 8.742188 4.503906 8.523438 C 4.449219 8.425781 4.375 8.222656 4.339844 8.070312 C 4.195312 7.433594 4.515625 7.050781 5.019531 6.933594 C 5.355469 6.855469 5.820312 6.984375 6.019531 7.273438 C 6.128906 7.433594 6.128906 7.652344 6 7.847656 C 5.984375 7.546875 5.738281 7.3125 5.4375 7.3125 C 5.125 7.3125 4.875 7.5625 4.875 7.875 C 4.875 8.1875 5.125 8.4375 5.4375 8.4375 C 6.171875 8.421875 6.355469 7.726562 6.363281 7.261719 C 6.363281 6.578125 4.835938 6.257812 4.148438 7.039062 C 3.757812 7.488281 3.613281 8 3.898438 8.738281 C 3.949219 8.871094 3.984375 8.859375 3.996094 9.007812 C 4.003906 9.152344 4.023438 9.238281 4.035156 9.261719 C 4.054688 9.292969 4.125 9.292969 4.359375 9.265625 C 4.640625 9.234375 4.679688 9.289062 4.949219 9.363281 C 5.410156 9.582031 5.933594 9.59375 6.433594 9.523438 C 7.148438 9.417969 7.792969 8.992188 8.050781 8.457031 C 8.207031 8.128906 8.253906 7.910156 8.25 7.484375 C 8.246094 6.824219 8.085938 6.359375 7.730469 5.972656 C 7.484375 5.707031 7.246094 5.566406 6.472656 5.230469 C 5.539062 4.824219 5.238281 4.652344 4.949219 4.347656 C 4.726562 4.109375 4.675781 3.648438 4.828125 3.292969 C 4.910156 3.105469 5.152344 2.875 5.359375 2.789062 C 5.59375 2.691406 5.980469 2.667969 6.222656 2.738281 C 6.636719 2.851562 7.027344 3.164062 7.183594 3.5 C 7.28125 3.703125 7.308594 4.1875 7.25 4.492188 C 7.230469 4.601562 7.222656 4.699219 7.230469 4.707031 C 7.265625 4.746094 7.457031 4.683594 7.578125 4.59375 C 7.71875 4.492188 7.824219 4.335938 7.878906 4.15625 C 7.929688 3.984375 7.847656 3.613281 7.792969 3.34375 C 7.765625 3.21875 7.746094 3.03125 7.75 2.925781 C 7.757812 2.726562 7.722656 2.660156 7.625 2.6875 C 7.601562 2.695312 7.480469 2.71875 7.355469 2.742188 C 7.132812 2.78125 7.207031 2.753906 6.9375 2.636719 C 6.601562 2.492188 6.3125 2.4375 5.886719 2.4375 Z M 5.886719 2.4375 "/>
</g>
</svg>
