<?xml version="1.0" encoding="UTF-8"?>
<svg xmlns="http://www.w3.org/2000/svg" xmlns:xlink="http://www.w3.org/1999/xlink" width="12pt" height="12pt" viewBox="0 0 12 12" version="1.1">
<g id="surface1">
<path style=" stroke:none;fill-rule:evenodd;fill:rgb(80%,80%,80%);fill-opacity:1;" d="M 2.800781 0.710938 L 9.199219 0.710938 C 10.351562 0.710938 11.289062 1.648438 11.289062 2.800781 L 11.289062 9.199219 C 11.289062 10.351562 10.351562 11.289062 9.199219 11.289062 L 2.800781 11.289062 C 1.648438 11.289062 0.710938 10.351562 0.710938 9.199219 L 0.710938 2.800781 C 0.710938 1.648438 1.648438 0.710938 2.800781 0.710938 Z M 2.800781 0.710938 "/>
<path style=" stroke:none;fill-rule:nonzero;fill:rgb(28.235294%,23.529412%,56.078431%);fill-opacity:1;" d="M 5.96875 3.429688 L 2.25 6.03125 L 5.085938 8.015625 L 5.308594 6.859375 L 4.125 6.03125 L 5.675781 4.945312 Z M 5.96875 3.429688 "/>
<path style=" stroke:none;fill-rule:nonzero;fill:rgb(29.411765%,54.117647%,87.45098%);fill-opacity:1;" d="M 6.984375 4.097656 L 6.761719 5.253906 L 7.875 6.03125 L 6.414062 7.054688 L 6.125 8.570312 L 9.75 6.03125 Z M 6.984375 4.097656 "/>
</g>
</svg>
