<?xml version="1.0" encoding="UTF-8"?>
<svg xmlns="http://www.w3.org/2000/svg" xmlns:xlink="http://www.w3.org/1999/xlink" width="12pt" height="12pt" viewBox="0 0 12 12" version="1.1">
<g id="surface1">
<path style=" stroke:none;fill-rule:evenodd;fill:rgb(35.686275%,22.745098%,16.862745%);fill-opacity:1;" d="M 2.800781 0.710938 L 9.199219 0.710938 C 10.351562 0.710938 11.289062 1.648438 11.289062 2.800781 L 11.289062 9.199219 C 11.289062 10.351562 10.351562 11.289062 9.199219 11.289062 L 2.800781 11.289062 C 1.648438 11.289062 0.710938 10.351562 0.710938 9.199219 L 0.710938 2.800781 C 0.710938 1.648438 1.648438 0.710938 2.800781 0.710938 Z M 2.800781 0.710938 "/>
<path style=" stroke:none;fill-rule:evenodd;fill:rgb(35.686275%,22.745098%,16.862745%);fill-opacity:1;" d="M 3.480469 11.289062 L 9.199219 11.289062 C 10.355469 11.289062 11.289062 10.355469 11.289062 9.195312 L 11.289062 2.800781 C 11.289062 2.328125 11.105469 1.917969 10.84375 1.566406 C 10.917969 1.734375 11.011719 1.890625 11.011719 2.09375 C 11.011719 2.328125 10.898438 2.550781 10.765625 2.695312 C 10.632812 2.839844 10.480469 2.933594 10.320312 3.011719 C 10 3.167969 9.621094 3.265625 9.179688 3.347656 C 8.515625 3.46875 7.894531 3.511719 7.0625 3.5625 C 7.886719 3.65625 8.5 3.75 9.148438 3.855469 C 9.574219 3.925781 9.9375 3.996094 10.230469 4.085938 C 10.375 4.132812 10.503906 4.175781 10.636719 4.257812 C 10.707031 4.296875 10.792969 4.355469 10.867188 4.445312 C 10.941406 4.535156 11.003906 4.65625 11.011719 4.824219 C 11.019531 5 10.949219 5.160156 10.871094 5.257812 C 10.796875 5.355469 10.722656 5.40625 10.652344 5.449219 C 10.515625 5.535156 10.390625 5.578125 10.242188 5.621094 C 9.949219 5.710938 9.585938 5.78125 9.152344 5.851562 C 8.289062 5.992188 7.792969 6.121094 6.679688 6.265625 C 5.5625 6.410156 4.339844 6.570312 3.5625 6.757812 C 3.324219 6.816406 3.199219 6.871094 3.039062 6.929688 C 3.226562 7.015625 3.40625 7.101562 3.6875 7.203125 C 4.382812 7.453125 5.457031 7.707031 6.40625 7.929688 C 6.457031 7.917969 6.496094 7.894531 6.546875 7.882812 C 7.113281 7.742188 7.519531 7.652344 7.898438 7.601562 C 8.28125 7.546875 8.632812 7.53125 9.089844 7.542969 C 9.550781 7.550781 9.960938 7.601562 10.328125 7.785156 C 10.507812 7.875 10.679688 7.996094 10.804688 8.152344 C 10.933594 8.304688 11.011719 8.496094 11.011719 8.722656 C 11.011719 8.734375 11.011719 8.742188 11.011719 8.753906 C 11 9 10.835938 9.160156 10.667969 9.277344 C 10.503906 9.394531 10.339844 9.441406 10.171875 9.476562 C 9.835938 9.546875 9.460938 9.546875 9.015625 9.519531 C 8.132812 9.46875 7.644531 9.359375 6.523438 9.109375 C 6.488281 9.101562 6.464844 9.089844 6.429688 9.082031 C 5.5 9.335938 4.433594 9.636719 3.746094 9.9375 C 3.347656 10.109375 3.023438 10.28125 2.828125 10.410156 C 2.765625 10.453125 2.742188 10.476562 2.710938 10.503906 C 2.742188 10.699219 2.847656 10.859375 3.019531 11 C 3.222656 11.164062 3.433594 11.246094 3.433594 11.246094 C 3.453125 11.253906 3.460938 11.277344 3.480469 11.289062 Z M 3.480469 11.289062 "/>
<path style=" stroke:none;fill-rule:evenodd;fill:rgb(35.686275%,22.745098%,16.862745%);fill-opacity:1;" d="M 7.394531 0.710938 L 2.804688 0.710938 C 1.644531 0.710938 0.710938 1.644531 0.710938 2.800781 L 0.710938 9.195312 C 0.710938 9.925781 1.105469 10.535156 1.667969 10.910156 C 1.613281 10.742188 1.570312 10.5625 1.578125 10.363281 C 1.585938 10.09375 1.714844 9.933594 1.828125 9.808594 C 1.941406 9.6875 2.066406 9.589844 2.210938 9.492188 C 2.5 9.296875 2.871094 9.113281 3.304688 8.921875 C 3.613281 8.789062 4.054688 8.683594 4.417969 8.550781 C 4.058594 8.445312 3.617188 8.351562 3.3125 8.242188 C 2.882812 8.089844 2.523438 7.941406 2.238281 7.78125 C 2.09375 7.703125 1.96875 7.625 1.851562 7.515625 C 1.742188 7.414062 1.605469 7.253906 1.589844 6.988281 C 1.570312 6.757812 1.652344 6.523438 1.773438 6.382812 C 1.898438 6.226562 2.042969 6.136719 2.195312 6.058594 C 2.503906 5.898438 2.871094 5.785156 3.300781 5.683594 C 4.167969 5.472656 5.410156 5.316406 6.535156 5.167969 C 7.398438 5.058594 7.53125 4.957031 8.253906 4.855469 C 7.542969 4.757812 7.429688 4.660156 6.585938 4.5625 C 5.480469 4.433594 4.253906 4.304688 3.398438 4.144531 C 2.972656 4.066406 2.609375 3.988281 2.3125 3.878906 C 2.167969 3.824219 2.035156 3.769531 1.898438 3.667969 C 1.828125 3.617188 1.746094 3.542969 1.683594 3.441406 C 1.621094 3.339844 1.574219 3.210938 1.578125 3.0625 C 1.582031 2.910156 1.648438 2.839844 1.75 2.808594 C 1.855469 2.777344 1.996094 2.785156 2.152344 2.792969 C 2.152344 2.792969 4.464844 2.875 6.648438 2.796875 C 7.101562 2.777344 7.664062 2.765625 8.234375 2.667969 C 8.515625 2.617188 8.800781 2.546875 9.074219 2.441406 C 9.347656 2.335938 9.605469 2.199219 9.839844 2.015625 C 9.839844 2.015625 9.839844 2.015625 9.839844 2.011719 C 9.816406 1.933594 9.773438 1.816406 9.527344 1.632812 C 9.226562 1.414062 8.777344 1.1875 8.320312 1.003906 C 7.871094 0.824219 7.730469 0.808594 7.394531 0.710938 Z M 7.394531 0.710938 "/>
<path style=" stroke:none;fill-rule:evenodd;fill:rgb(94.509804%,56.470588%,21.568627%);fill-opacity:1;" d="M 7.394531 0.710938 C 7.730469 0.808594 7.871094 0.824219 8.320312 1.003906 C 8.777344 1.1875 9.226562 1.414062 9.527344 1.632812 C 9.773438 1.816406 9.816406 1.933594 9.839844 2.011719 C 9.839844 2.015625 9.839844 2.015625 9.839844 2.015625 C 9.605469 2.199219 9.347656 2.335938 9.074219 2.441406 C 8.800781 2.546875 8.515625 2.617188 8.234375 2.667969 C 7.664062 2.765625 7.101562 2.777344 6.648438 2.796875 C 4.464844 2.875 2.152344 2.792969 2.152344 2.792969 C 1.996094 2.785156 1.855469 2.777344 1.75 2.808594 C 1.648438 2.839844 1.582031 2.910156 1.578125 3.0625 C 1.574219 3.210938 1.621094 3.339844 1.683594 3.441406 C 1.746094 3.542969 1.828125 3.617188 1.898438 3.667969 C 2.035156 3.769531 2.167969 3.824219 2.3125 3.878906 C 2.609375 3.988281 2.972656 4.066406 3.398438 4.144531 C 4.253906 4.304688 5.480469 4.433594 6.585938 4.5625 C 7.429688 4.660156 7.542969 4.757812 8.253906 4.855469 C 7.53125 4.957031 7.398438 5.058594 6.535156 5.167969 C 5.410156 5.316406 4.167969 5.472656 3.300781 5.683594 C 2.871094 5.785156 2.503906 5.898438 2.195312 6.058594 C 2.042969 6.136719 1.898438 6.226562 1.773438 6.382812 C 1.652344 6.523438 1.570312 6.757812 1.589844 6.988281 C 1.605469 7.253906 1.742188 7.414062 1.851562 7.515625 C 1.96875 7.625 2.09375 7.703125 2.238281 7.78125 C 2.523438 7.941406 2.882812 8.089844 3.3125 8.242188 C 3.617188 8.351562 4.058594 8.445312 4.417969 8.550781 C 4.054688 8.683594 3.613281 8.789062 3.304688 8.921875 C 2.871094 9.113281 2.5 9.296875 2.210938 9.492188 C 2.066406 9.589844 1.941406 9.6875 1.828125 9.808594 C 1.714844 9.933594 1.585938 10.09375 1.578125 10.363281 C 1.570312 10.5625 1.613281 10.742188 1.667969 10.910156 C 2 11.128906 2.375 11.289062 2.804688 11.289062 L 3.480469 11.289062 C 3.460938 11.277344 3.453125 11.253906 3.433594 11.246094 C 3.433594 11.246094 3.222656 11.164062 3.019531 11 C 2.847656 10.859375 2.742188 10.699219 2.710938 10.503906 C 2.742188 10.476562 2.765625 10.453125 2.828125 10.410156 C 3.023438 10.28125 3.347656 10.109375 3.746094 9.9375 C 4.433594 9.636719 5.5 9.335938 6.429688 9.082031 C 6.464844 9.089844 6.488281 9.101562 6.523438 9.109375 C 7.644531 9.359375 8.132812 9.46875 9.015625 9.519531 C 9.460938 9.546875 9.835938 9.546875 10.171875 9.476562 C 10.339844 9.441406 10.503906 9.394531 10.667969 9.277344 C 10.835938 9.160156 11 9 11.011719 8.753906 C 11.011719 8.742188 11.011719 8.734375 11.011719 8.722656 C 11.011719 8.496094 10.933594 8.304688 10.804688 8.152344 C 10.679688 7.996094 10.507812 7.875 10.328125 7.785156 C 9.960938 7.601562 9.550781 7.550781 9.089844 7.539062 C 8.632812 7.53125 8.28125 7.546875 7.898438 7.597656 C 7.519531 7.652344 7.113281 7.742188 6.546875 7.882812 C 6.496094 7.894531 6.457031 7.917969 6.40625 7.929688 C 5.457031 7.707031 4.382812 7.453125 3.6875 7.203125 C 3.40625 7.101562 3.226562 7.015625 3.039062 6.929688 C 3.199219 6.871094 3.324219 6.816406 3.5625 6.757812 C 4.339844 6.570312 5.5625 6.410156 6.679688 6.265625 C 7.792969 6.121094 8.289062 5.992188 9.152344 5.851562 C 9.585938 5.78125 9.949219 5.710938 10.242188 5.621094 C 10.390625 5.578125 10.515625 5.535156 10.652344 5.449219 C 10.722656 5.40625 10.796875 5.355469 10.871094 5.257812 C 10.949219 5.160156 11.019531 5 11.011719 4.824219 C 11.003906 4.65625 10.941406 4.535156 10.867188 4.445312 C 10.792969 4.355469 10.707031 4.296875 10.636719 4.257812 C 10.503906 4.175781 10.375 4.132812 10.230469 4.085938 C 9.9375 3.996094 9.574219 3.925781 9.148438 3.855469 C 8.5 3.75 7.886719 3.65625 7.0625 3.5625 C 7.894531 3.511719 8.515625 3.46875 9.179688 3.34375 C 9.621094 3.265625 10 3.167969 10.320312 3.011719 C 10.480469 2.933594 10.632812 2.839844 10.765625 2.695312 C 10.898438 2.550781 11.011719 2.328125 11.011719 2.089844 C 11.011719 1.890625 10.917969 1.734375 10.84375 1.566406 C 10.460938 1.058594 9.882812 0.710938 9.199219 0.710938 Z M 7.394531 0.710938 "/>
</g>
</svg>
