<?xml version="1.0" encoding="UTF-8"?>
<svg xmlns="http://www.w3.org/2000/svg" xmlns:xlink="http://www.w3.org/1999/xlink" width="12pt" height="12pt" viewBox="0 0 12 12" version="1.1">
<g id="surface1">
<path style=" stroke:none;fill-rule:evenodd;fill:rgb(77.647059%,9.019608%,12.156863%);fill-opacity:1;" d="M 2.800781 0.710938 L 9.199219 0.710938 C 10.351562 0.710938 11.289062 1.648438 11.289062 2.800781 L 11.289062 9.199219 C 11.289062 10.351562 10.351562 11.289062 9.199219 11.289062 L 2.800781 11.289062 C 1.648438 11.289062 0.710938 10.351562 0.710938 9.199219 L 0.710938 2.800781 C 0.710938 1.648438 1.648438 0.710938 2.800781 0.710938 Z M 2.800781 0.710938 "/>
<path style=" stroke:none;fill-rule:nonzero;fill:rgb(94.901961%,94.901961%,94.901961%);fill-opacity:1;" d="M 5.585938 2.699219 L 6.425781 2.699219 L 6.425781 9 L 5.585938 9 Z M 5.585938 2.699219 "/>
<path style=" stroke:none;fill-rule:nonzero;fill:rgb(94.901961%,94.901961%,94.901961%);fill-opacity:1;" d="M 4.925781 2.699219 C 4.960938 6.855469 3.464844 7.648438 2.128906 8.070312 L 2.128906 9.011719 C 5.585938 8.351562 5.375 5.535156 5.363281 2.710938 Z M 4.925781 2.699219 "/>
<path style=" stroke:none;fill-rule:nonzero;fill:rgb(94.901961%,94.901961%,94.901961%);fill-opacity:1;" d="M 7.074219 2.699219 C 7.039062 6.855469 8.535156 7.648438 9.871094 8.070312 L 9.871094 9.011719 C 6.414062 8.351562 6.625 5.535156 6.636719 2.710938 Z M 7.074219 2.699219 "/>
</g>
</svg>
