<?xml version="1.0" encoding="UTF-8"?>
<svg xmlns="http://www.w3.org/2000/svg" xmlns:xlink="http://www.w3.org/1999/xlink" width="12pt" height="12pt" viewBox="0 0 12 12" version="1.1">
<g id="surface1">
<path style=" stroke:none;fill-rule:evenodd;fill:rgb(21.176471%,73.333333%,58.039216%);fill-opacity:1;" d="M 2.800781 0.710938 L 9.199219 0.710938 C 10.351562 0.710938 11.289062 1.648438 11.289062 2.800781 L 11.289062 9.199219 C 11.289062 10.351562 10.351562 11.289062 9.199219 11.289062 L 2.800781 11.289062 C 1.648438 11.289062 0.710938 10.351562 0.710938 9.199219 L 0.710938 2.800781 C 0.710938 1.648438 1.648438 0.710938 2.800781 0.710938 Z M 2.800781 0.710938 "/>
<path style=" stroke:none;fill-rule:evenodd;fill:rgb(100%,100%,100%);fill-opacity:1;" d="M 4.875 3 C 4.625 3 4.5 3.15625 4.5 3.347656 L 4.5 7.5 L 3.375 7.5 L 4.875 9 L 6.375 7.5 L 5.25 7.5 L 5.25 3.347656 C 5.25 3.15625 5.125 3 4.875 3 Z M 7.125 3 L 5.625 4.5 L 6.75 4.5 L 6.75 8.652344 C 6.75 8.84375 6.875 9 7.125 9 C 7.375 9 7.5 8.84375 7.5 8.652344 L 7.5 4.5 L 8.625 4.5 Z M 7.125 3 "/>
</g>
</svg>
