<?xml version="1.0" encoding="UTF-8"?>
<svg xmlns="http://www.w3.org/2000/svg" xmlns:xlink="http://www.w3.org/1999/xlink" width="12pt" height="12pt" viewBox="0 0 12 12" version="1.1">
<g id="surface1">
<path style=" stroke:none;fill-rule:evenodd;fill:rgb(38.039216%,41.960784%,86.666667%);fill-opacity:1;" d="M 2.800781 0.710938 L 9.199219 0.710938 C 10.351562 0.710938 11.289062 1.648438 11.289062 2.800781 L 11.289062 9.199219 C 11.289062 10.351562 10.351562 11.289062 9.199219 11.289062 L 2.800781 11.289062 C 1.648438 11.289062 0.710938 10.351562 0.710938 9.199219 L 0.710938 2.800781 C 0.710938 1.648438 1.648438 0.710938 2.800781 0.710938 Z M 2.800781 0.710938 "/>
<path style=" stroke:none;fill-rule:nonzero;fill:rgb(0%,0%,0%);fill-opacity:0.501961;" d="M 4.875 7.5 L 7.125 7.5 L 7.125 9.75 L 4.875 9.75 Z M 4.875 4.875 L 7.125 4.875 L 7.125 7.125 L 4.875 7.125 Z M 4.875 2.25 L 7.125 2.25 L 7.125 4.5 L 4.875 4.5 Z M 2.25 2.25 L 4.5 2.25 L 4.5 4.5 L 2.25 4.5 Z M 7.5 2.25 L 9.75 2.25 L 9.75 4.5 L 7.5 4.5 Z M 7.5 2.25 "/>
</g>
</svg>
