<?xml version="1.0" encoding="UTF-8"?>
<svg xmlns="http://www.w3.org/2000/svg" xmlns:xlink="http://www.w3.org/1999/xlink" width="12pt" height="12pt" viewBox="0 0 12 12" version="1.1">
<g id="surface1">
<path style=" stroke:none;fill-rule:evenodd;fill:rgb(29.803922%,34.901961%,41.176471%);fill-opacity:1;" d="M 2.800781 0.710938 L 9.199219 0.710938 C 10.351562 0.710938 11.289062 1.648438 11.289062 2.800781 L 11.289062 9.199219 C 11.289062 10.351562 10.351562 11.289062 9.199219 11.289062 L 2.800781 11.289062 C 1.648438 11.289062 0.710938 10.351562 0.710938 9.199219 L 0.710938 2.800781 C 0.710938 1.648438 1.648438 0.710938 2.800781 0.710938 Z M 2.800781 0.710938 "/>
<path style=" stroke:none;fill-rule:nonzero;fill:rgb(100%,100%,100%);fill-opacity:1;" d="M 6.578125 6 L 7.789062 3.847656 L 8.363281 6 L 7.789062 8.152344 Z M 5.988281 6.476562 L 7.199219 8.503906 L 5.089844 7.945312 L 3.566406 6.476562 Z M 7.199219 3.496094 L 5.988281 5.761719 L 3.566406 5.761719 L 5.089844 4.054688 Z M 8.925781 5.25 L 8.1875 2.4375 L 5.429688 3.195312 L 5.023438 3.933594 L 4.195312 3.929688 L 2.175781 6 L 4.195312 8.070312 L 5.023438 8.066406 L 5.433594 8.804688 L 8.1875 9.5625 L 8.925781 6.75 L 8.550781 6 "/>
</g>
</svg>
