<?xml version="1.0" encoding="UTF-8"?>
<svg xmlns="http://www.w3.org/2000/svg" xmlns:xlink="http://www.w3.org/1999/xlink" width="12pt" height="12pt" viewBox="0 0 12 12" version="1.1">
<g id="surface1">
<path style=" stroke:none;fill-rule:evenodd;fill:rgb(38.039216%,51.764706%,65.098039%);fill-opacity:1;" d="M 2.800781 0.710938 L 9.199219 0.710938 C 10.351562 0.710938 11.289062 1.648438 11.289062 2.800781 L 11.289062 9.199219 C 11.289062 10.351562 10.351562 11.289062 9.199219 11.289062 L 2.800781 11.289062 C 1.648438 11.289062 0.710938 10.351562 0.710938 9.199219 L 0.710938 2.800781 C 0.710938 1.648438 1.648438 0.710938 2.800781 0.710938 Z M 2.800781 0.710938 "/>
<path style=" stroke:none;fill-rule:evenodd;fill:rgb(100%,100%,100%);fill-opacity:1;" d="M 5.972656 6.601562 L 6.382812 6.601562 C 6.382812 6.601562 6.503906 6.589844 6.566406 6.519531 C 6.625 6.453125 6.625 6.332031 6.625 6.332031 C 6.625 6.332031 6.617188 5.765625 6.871094 5.683594 C 7.121094 5.601562 7.441406 6.230469 7.785156 6.472656 C 8.042969 6.65625 8.238281 6.617188 8.238281 6.617188 L 9.148438 6.601562 C 9.148438 6.601562 9.625 6.574219 9.398438 6.183594 C 9.378906 6.152344 9.265625 5.898438 8.722656 5.371094 C 8.148438 4.824219 8.226562 4.910156 8.914062 3.960938 C 9.335938 3.382812 9.5 3.027344 9.449219 2.878906 C 9.398438 2.734375 9.089844 2.773438 9.089844 2.773438 L 8.066406 2.777344 C 8.066406 2.777344 7.988281 2.765625 7.933594 2.800781 C 7.875 2.835938 7.839844 2.917969 7.839844 2.917969 C 7.839844 2.917969 7.679688 3.363281 7.460938 3.746094 C 7.003906 4.550781 6.824219 4.589844 6.746094 4.542969 C 6.574219 4.425781 6.617188 4.074219 6.617188 3.824219 C 6.617188 3.046875 6.730469 2.722656 6.394531 2.636719 C 6.285156 2.609375 6.203125 2.589844 5.917969 2.585938 C 5.550781 2.582031 5.238281 2.589844 5.066406 2.679688 C 4.949219 2.738281 4.859375 2.867188 4.914062 2.875 C 4.980469 2.886719 5.132812 2.917969 5.214844 3.035156 C 5.320312 3.183594 5.316406 3.515625 5.316406 3.515625 C 5.316406 3.515625 5.378906 4.433594 5.175781 4.546875 C 5.039062 4.625 4.847656 4.464844 4.441406 3.734375 C 4.230469 3.363281 4.074219 2.949219 4.074219 2.949219 C 4.074219 2.949219 4.042969 2.871094 3.988281 2.832031 C 3.921875 2.78125 3.832031 2.765625 3.832031 2.765625 L 2.855469 2.769531 C 2.855469 2.769531 2.710938 2.777344 2.65625 2.839844 C 2.609375 2.898438 2.652344 3.023438 2.652344 3.023438 C 2.652344 3.023438 3.414062 4.871094 4.28125 5.804688 C 5.074219 6.660156 5.972656 6.605469 5.972656 6.605469 "/>
<path style=" stroke:none;fill-rule:nonzero;fill:rgb(100%,100%,100%);fill-opacity:1;" d="M 3.425781 8.886719 C 3.425781 8.964844 3.414062 9.039062 3.386719 9.105469 C 3.359375 9.167969 3.316406 9.222656 3.265625 9.269531 C 3.210938 9.316406 3.144531 9.351562 3.066406 9.375 C 2.992188 9.402344 2.902344 9.414062 2.804688 9.414062 C 2.714844 9.414062 2.628906 9.402344 2.550781 9.386719 C 2.46875 9.367188 2.394531 9.339844 2.324219 9.304688 L 2.324219 8.949219 C 2.363281 8.964844 2.402344 8.984375 2.445312 9.003906 C 2.484375 9.019531 2.523438 9.035156 2.566406 9.050781 C 2.609375 9.0625 2.648438 9.074219 2.691406 9.082031 C 2.734375 9.09375 2.773438 9.097656 2.816406 9.097656 C 2.859375 9.097656 2.894531 9.089844 2.925781 9.082031 C 2.953125 9.074219 2.980469 9.058594 2.996094 9.042969 C 3.015625 9.027344 3.03125 9.003906 3.039062 8.980469 C 3.046875 8.957031 3.050781 8.933594 3.050781 8.902344 C 3.050781 8.871094 3.042969 8.839844 3.03125 8.816406 C 3.015625 8.789062 2.996094 8.765625 2.96875 8.742188 C 2.941406 8.71875 2.910156 8.695312 2.875 8.675781 C 2.839844 8.652344 2.796875 8.628906 2.753906 8.605469 C 2.714844 8.585938 2.671875 8.5625 2.625 8.535156 C 2.578125 8.507812 2.53125 8.472656 2.492188 8.429688 C 2.449219 8.390625 2.414062 8.339844 2.386719 8.28125 C 2.359375 8.21875 2.34375 8.148438 2.34375 8.066406 C 2.34375 7.984375 2.359375 7.914062 2.382812 7.851562 C 2.410156 7.785156 2.449219 7.730469 2.5 7.6875 C 2.550781 7.644531 2.609375 7.609375 2.679688 7.585938 C 2.75 7.5625 2.828125 7.550781 2.917969 7.550781 C 2.960938 7.550781 3.003906 7.554688 3.042969 7.558594 C 3.085938 7.566406 3.128906 7.574219 3.167969 7.585938 C 3.210938 7.59375 3.25 7.609375 3.292969 7.625 C 3.332031 7.640625 3.375 7.660156 3.417969 7.679688 L 3.296875 7.976562 C 3.257812 7.960938 3.222656 7.945312 3.191406 7.933594 C 3.160156 7.917969 3.128906 7.90625 3.097656 7.898438 C 3.066406 7.890625 3.039062 7.882812 3.007812 7.878906 C 2.976562 7.875 2.949219 7.871094 2.917969 7.871094 C 2.855469 7.871094 2.804688 7.886719 2.769531 7.921875 C 2.738281 7.957031 2.71875 8.003906 2.71875 8.058594 C 2.71875 8.089844 2.726562 8.117188 2.734375 8.140625 C 2.746094 8.164062 2.761719 8.1875 2.785156 8.207031 C 2.808594 8.226562 2.835938 8.25 2.871094 8.269531 C 2.910156 8.292969 2.953125 8.316406 3.003906 8.34375 C 3.066406 8.375 3.121094 8.410156 3.175781 8.445312 C 3.226562 8.476562 3.269531 8.515625 3.308594 8.558594 C 3.347656 8.601562 3.375 8.648438 3.394531 8.699219 C 3.417969 8.753906 3.425781 8.816406 3.425781 8.886719 Z M 3.425781 8.886719 "/>
<path style=" stroke:none;fill-rule:nonzero;fill:rgb(100%,100%,100%);fill-opacity:1;" d="M 4.796875 9.386719 L 4.671875 8.957031 L 4.046875 8.957031 L 3.921875 9.386719 L 3.535156 9.386719 L 4.125 7.570312 L 4.59375 7.570312 L 5.183594 9.386719 Z M 4.582031 8.636719 L 4.464844 8.238281 C 4.460938 8.222656 4.453125 8.199219 4.445312 8.164062 C 4.433594 8.132812 4.421875 8.09375 4.410156 8.054688 C 4.402344 8.011719 4.390625 7.972656 4.382812 7.929688 C 4.371094 7.890625 4.363281 7.855469 4.359375 7.824219 C 4.355469 7.84375 4.351562 7.863281 4.347656 7.890625 C 4.339844 7.914062 4.335938 7.941406 4.328125 7.96875 C 4.320312 7.996094 4.3125 8.023438 4.304688 8.050781 C 4.300781 8.078125 4.292969 8.105469 4.285156 8.132812 C 4.277344 8.15625 4.273438 8.179688 4.265625 8.195312 C 4.261719 8.214844 4.257812 8.230469 4.253906 8.238281 L 4.140625 8.636719 Z M 4.582031 8.636719 "/>
<path style=" stroke:none;fill-rule:nonzero;fill:rgb(100%,100%,100%);fill-opacity:1;" d="M 6.269531 7.578125 L 6.65625 7.578125 L 6.09375 9.386719 L 5.675781 9.386719 L 5.109375 7.578125 L 5.5 7.578125 L 5.804688 8.667969 C 5.808594 8.679688 5.816406 8.703125 5.820312 8.738281 C 5.828125 8.769531 5.835938 8.808594 5.84375 8.847656 C 5.851562 8.886719 5.859375 8.925781 5.867188 8.964844 C 5.875 9.003906 5.878906 9.039062 5.882812 9.066406 C 5.890625 9.039062 5.894531 9.003906 5.902344 8.964844 C 5.910156 8.925781 5.917969 8.886719 5.925781 8.847656 C 5.933594 8.808594 5.941406 8.773438 5.949219 8.738281 C 5.957031 8.707031 5.964844 8.683594 5.96875 8.667969 Z M 6.269531 7.578125 "/>
<path style=" stroke:none;fill-rule:nonzero;fill:rgb(100%,100%,100%);fill-opacity:1;" d="M 7.925781 9.386719 L 6.882812 9.386719 L 6.882812 7.578125 L 7.925781 7.578125 L 7.925781 7.890625 L 7.269531 7.890625 L 7.269531 8.289062 L 7.882812 8.289062 L 7.882812 8.605469 L 7.269531 8.605469 L 7.269531 9.070312 L 7.925781 9.070312 Z M 7.925781 9.386719 "/>
<path style=" stroke:none;fill-rule:nonzero;fill:rgb(100%,100%,100%);fill-opacity:1;" d="M 8.691406 8.382812 L 8.792969 8.382812 C 8.902344 8.382812 8.976562 8.359375 9.023438 8.316406 C 9.070312 8.273438 9.09375 8.210938 9.09375 8.128906 C 9.09375 8.042969 9.066406 7.984375 9.019531 7.945312 C 8.96875 7.910156 8.890625 7.890625 8.789062 7.890625 L 8.691406 7.890625 Z M 8.691406 8.691406 L 8.691406 9.386719 L 8.304688 9.386719 L 8.304688 7.578125 L 8.800781 7.578125 C 9.035156 7.578125 9.207031 7.621094 9.316406 7.710938 C 9.425781 7.800781 9.480469 7.9375 9.480469 8.121094 C 9.480469 8.183594 9.472656 8.238281 9.457031 8.289062 C 9.441406 8.339844 9.417969 8.382812 9.390625 8.421875 C 9.363281 8.460938 9.332031 8.496094 9.292969 8.527344 C 9.257812 8.554688 9.222656 8.578125 9.183594 8.597656 C 9.273438 8.746094 9.355469 8.878906 9.429688 8.992188 C 9.460938 9.042969 9.488281 9.089844 9.519531 9.136719 C 9.546875 9.183594 9.574219 9.226562 9.597656 9.265625 C 9.621094 9.300781 9.640625 9.332031 9.65625 9.355469 L 9.675781 9.386719 L 9.25 9.386719 L 8.859375 8.691406 Z M 8.691406 8.691406 "/>
</g>
</svg>
