<?xml version="1.0" encoding="UTF-8"?>
<svg xmlns="http://www.w3.org/2000/svg" xmlns:xlink="http://www.w3.org/1999/xlink" width="12pt" height="12pt" viewBox="0 0 12 12" version="1.1">
<g id="surface1">
<path style=" stroke:none;fill-rule:evenodd;fill:rgb(60%,60%,60%);fill-opacity:1;" d="M 2.800781 0.710938 L 9.199219 0.710938 C 10.351562 0.710938 11.289062 1.648438 11.289062 2.800781 L 11.289062 9.199219 C 11.289062 10.351562 10.351562 11.289062 9.199219 11.289062 L 2.800781 11.289062 C 1.648438 11.289062 0.710938 10.351562 0.710938 9.199219 L 0.710938 2.800781 C 0.710938 1.648438 1.648438 0.710938 2.800781 0.710938 Z M 2.800781 0.710938 "/>
<path style=" stroke:none;fill-rule:nonzero;fill:rgb(30.980392%,30.980392%,30.980392%);fill-opacity:1;" d="M 6.015625 2.886719 C 4.375 2.886719 2.898438 3.472656 1.671875 4.375 L 6.015625 9.113281 L 10.328125 4.359375 C 9.109375 3.464844 7.648438 2.886719 6.015625 2.886719 Z M 6.015625 2.886719 "/>
<path style=" stroke:none;fill-rule:nonzero;fill:rgb(47.45098%,47.45098%,47.45098%);fill-opacity:1;" d="M 6 4.132812 C 4.691406 4.132812 3.476562 4.558594 2.503906 5.285156 L 6.019531 9.113281 L 9.496094 5.285156 C 8.523438 4.5625 7.308594 4.132812 6 4.132812 Z M 6 4.132812 "/>
<path style=" stroke:none;fill-rule:nonzero;fill:rgb(80%,80%,80%);fill-opacity:1;" d="M 6 5.375 C 5.019531 5.375 4.109375 5.699219 3.378906 6.242188 L 6.015625 9.113281 L 8.621094 6.242188 C 7.890625 5.699219 6.980469 5.375 6 5.375 Z M 6 5.375 "/>
</g>
</svg>
