<?xml version="1.0" encoding="UTF-8"?>
<svg xmlns="http://www.w3.org/2000/svg" xmlns:xlink="http://www.w3.org/1999/xlink" width="12pt" height="12pt" viewBox="0 0 12 12" version="1.1">
<defs>
<clipPath id="clip1">
  <rect width="12" height="12"/>
</clipPath>
<g id="surface6" clip-path="url(#clip1)">
<path style=" stroke:none;fill-rule:nonzero;fill:rgb(30.196078%,30.196078%,30.196078%);fill-opacity:1;" d="M 7.167969 3.5625 C 6.902344 3.5625 6.585938 3.5625 6.390625 3.566406 L 6.371094 3.578125 L 6.371094 3.71875 C 6.371094 3.734375 6.378906 3.746094 6.394531 3.757812 C 6.40625 3.769531 6.421875 3.773438 6.4375 3.773438 L 6.5 3.78125 C 6.660156 3.789062 6.734375 3.832031 6.753906 3.855469 C 6.792969 3.90625 6.8125 3.957031 6.71875 4.164062 L 6.171875 5.285156 L 5.675781 4.242188 C 5.511719 3.910156 5.472656 3.808594 5.71875 3.789062 L 5.816406 3.773438 C 5.863281 3.773438 5.886719 3.757812 5.886719 3.722656 L 5.886719 3.578125 L 5.847656 3.566406 C 5.847656 3.566406 4.925781 3.566406 4.511719 3.566406 L 4.492188 3.578125 L 4.492188 3.726562 C 4.492188 3.757812 4.527344 3.769531 4.589844 3.777344 C 4.820312 3.808594 4.8125 3.832031 5.039062 4.292969 C 5.074219 4.363281 5.175781 4.570312 5.175781 4.570312 L 5.691406 5.617188 C 5.691406 5.617188 5.804688 5.867188 5.84375 5.957031 L 5.089844 7.496094 L 5.050781 7.484375 C 5.050781 7.484375 3.882812 4.960938 3.546875 4.113281 C 3.511719 4.027344 3.496094 3.960938 3.496094 3.921875 C 3.496094 3.835938 3.570312 3.792969 3.71875 3.785156 L 3.894531 3.777344 C 3.941406 3.777344 3.964844 3.757812 3.964844 3.71875 L 3.964844 3.582031 L 3.949219 3.566406 C 3.949219 3.566406 2.554688 3.566406 2.265625 3.566406 L 2.25 3.582031 L 2.25 3.726562 C 2.25 3.753906 2.28125 3.769531 2.347656 3.777344 C 2.523438 3.785156 2.640625 3.816406 2.695312 3.863281 C 2.753906 3.914062 2.8125 4.035156 2.890625 4.230469 C 3.3125 5.273438 4.214844 7.140625 4.652344 8.203125 C 4.78125 8.492188 4.9375 8.539062 5.128906 8.195312 C 5.335938 7.800781 5.703125 7.035156 5.996094 6.410156 C 6 6.351562 6 6.46875 6.054688 6.429688 C 6.328125 7.050781 6.660156 7.800781 6.84375 8.191406 C 6.988281 8.492188 7.148438 8.523438 7.316406 8.199219 C 7.746094 7.214844 9.011719 4.25 9.011719 4.25 C 9.066406 4.101562 9.140625 3.992188 9.238281 3.910156 C 9.335938 3.828125 9.484375 3.785156 9.6875 3.773438 C 9.730469 3.773438 9.75 3.753906 9.75 3.71875 L 9.75 3.578125 L 9.734375 3.5625 L 8.183594 3.5625 L 8.164062 3.578125 L 8.164062 3.71875 C 8.164062 3.734375 8.171875 3.746094 8.1875 3.757812 C 8.199219 3.769531 8.214844 3.773438 8.230469 3.773438 L 8.359375 3.78125 C 8.519531 3.789062 8.5625 3.820312 8.625 3.875 C 8.6875 3.929688 8.695312 4.027344 8.644531 4.160156 L 7.273438 7.503906 L 7.222656 7.488281 L 6.347656 5.660156 C 6.347656 5.660156 6.371094 5.617188 6.371094 5.617188 L 7.082031 4.25 C 7.164062 4.105469 7.246094 3.972656 7.285156 3.914062 C 7.359375 3.804688 7.402344 3.785156 7.605469 3.773438 C 7.648438 3.773438 7.667969 3.757812 7.667969 3.71875 L 7.667969 3.582031 L 7.652344 3.566406 C 7.652344 3.566406 7.433594 3.5625 7.167969 3.5625 Z M 7.167969 3.5625 "/>
</g>
</defs>
<g id="surface1">
<path style=" stroke:none;fill-rule:evenodd;fill:rgb(80%,80%,80%);fill-opacity:1;" d="M 2.800781 0.710938 L 9.199219 0.710938 C 10.351562 0.710938 11.289062 1.648438 11.289062 2.800781 L 11.289062 9.199219 C 11.289062 10.351562 10.351562 11.289062 9.199219 11.289062 L 2.800781 11.289062 C 1.648438 11.289062 0.710938 10.351562 0.710938 9.199219 L 0.710938 2.800781 C 0.710938 1.648438 1.648438 0.710938 2.800781 0.710938 Z M 2.800781 0.710938 "/>
<use xlink:href="#surface6"/>
</g>
</svg>
