<?xml version="1.0" encoding="UTF-8"?>
<svg xmlns="http://www.w3.org/2000/svg" xmlns:xlink="http://www.w3.org/1999/xlink" width="12pt" height="12pt" viewBox="0 0 12 12" version="1.1">
<g id="surface1">
<path style=" stroke:none;fill-rule:evenodd;fill:rgb(62.745098%,0%,18.431373%);fill-opacity:1;" d="M 2.800781 0.710938 L 9.199219 0.710938 C 10.351562 0.710938 11.289062 1.648438 11.289062 2.800781 L 11.289062 9.199219 C 11.289062 10.351562 10.351562 11.289062 9.199219 11.289062 L 2.800781 11.289062 C 1.648438 11.289062 0.710938 10.351562 0.710938 9.199219 L 0.710938 2.800781 C 0.710938 1.648438 1.648438 0.710938 2.800781 0.710938 Z M 2.800781 0.710938 "/>
<path style=" stroke:none;fill-rule:evenodd;fill:rgb(62.745098%,0%,18.431373%);fill-opacity:1;" d="M 3.640625 11.289062 L 6 6 L 0.710938 3.640625 L 0.710938 9.199219 C 0.710938 10.355469 1.644531 11.289062 2.800781 11.289062 Z M 3.640625 11.289062 "/>
<path style=" stroke:none;fill-rule:evenodd;fill:rgb(76.470588%,15.686275%,22.745098%);fill-opacity:1;" d="M 11.289062 8.359375 L 6 6 L 3.640625 11.289062 L 9.199219 11.289062 C 10.355469 11.289062 11.289062 10.355469 11.289062 9.199219 Z M 11.289062 8.359375 "/>
<path style=" stroke:none;fill-rule:evenodd;fill:rgb(62.745098%,0%,18.431373%);fill-opacity:1;" d="M 8.359375 0.710938 L 6 6 L 11.289062 8.359375 L 11.289062 2.800781 C 11.289062 1.644531 10.355469 0.710938 9.199219 0.710938 Z M 8.359375 0.710938 "/>
<path style=" stroke:none;fill-rule:evenodd;fill:rgb(76.470588%,15.686275%,22.745098%);fill-opacity:1;" d="M 0.710938 3.640625 L 6 6 L 8.359375 0.710938 L 2.800781 0.710938 C 1.644531 0.710938 0.710938 1.644531 0.710938 2.800781 Z M 0.710938 3.640625 "/>
<path style=" stroke:none;fill-rule:nonzero;fill:rgb(100%,100%,100%);fill-opacity:1;" d="M 4.625 9.84375 C 4.640625 9.824219 4.695312 9.789062 4.742188 9.761719 C 4.828125 9.71875 4.84375 9.714844 5.042969 9.699219 C 5.296875 9.675781 5.5 9.636719 5.589844 9.59375 C 5.726562 9.53125 5.804688 9.414062 5.847656 9.21875 C 5.867188 9.132812 5.875 9.035156 5.878906 8.617188 C 5.882812 8.109375 5.863281 7.390625 5.84375 7.28125 C 5.820312 7.160156 5.800781 7.140625 5.59375 6.984375 C 5.367188 6.816406 5.097656 6.558594 4.976562 6.394531 C 4.761719 6.097656 4.640625 5.792969 4.578125 5.394531 C 4.5625 5.285156 4.554688 5.164062 4.554688 4.945312 C 4.554688 4.453125 4.601562 4.136719 4.8125 3.148438 C 4.886719 2.789062 4.910156 2.710938 4.953125 2.664062 L 4.980469 2.636719 L 7.015625 2.636719 L 7.042969 2.664062 C 7.082031 2.707031 7.101562 2.777344 7.191406 3.183594 C 7.433594 4.304688 7.488281 4.859375 7.414062 5.390625 C 7.320312 6.0625 7.007812 6.542969 6.351562 7.023438 C 6.269531 7.082031 6.195312 7.144531 6.1875 7.164062 C 6.152344 7.230469 6.140625 7.34375 6.125 7.644531 C 6.109375 8.070312 6.109375 8.964844 6.125 9.097656 C 6.164062 9.398438 6.25 9.535156 6.445312 9.613281 C 6.53125 9.644531 6.710938 9.675781 6.953125 9.699219 C 7.136719 9.714844 7.160156 9.71875 7.246094 9.761719 C 7.296875 9.785156 7.351562 9.820312 7.371094 9.839844 L 7.402344 9.875 L 4.59375 9.875 Z M 4.625 9.84375 "/>
<path style=" stroke:none;fill-rule:nonzero;fill:rgb(73.333333%,0%,18.431373%);fill-opacity:1;" d="M 4.746094 5.128906 C 4.679688 7.082031 7.105469 7.578125 7.289062 5.128906 C 6.726562 5.941406 5.359375 4.378906 4.746094 5.128906 Z M 4.746094 5.128906 "/>
<path style=" stroke:none;fill-rule:nonzero;fill:rgb(98.039216%,38.431373%,34.117647%);fill-opacity:1;" d="M 10.085938 8.253906 C 10.085938 9.289062 9.25 10.128906 8.210938 10.128906 C 7.175781 10.128906 6.335938 9.289062 6.335938 8.253906 C 6.335938 7.21875 7.175781 6.378906 8.210938 6.378906 C 9.25 6.378906 10.085938 7.21875 10.085938 8.253906 Z M 10.085938 8.253906 "/>
<path style=" stroke:none;fill-rule:nonzero;fill:rgb(100%,100%,100%);fill-opacity:1;" d="M 9.089844 7.378906 C 9.007812 7.296875 8.878906 7.296875 8.796875 7.378906 L 8.210938 7.964844 L 7.628906 7.378906 C 7.546875 7.296875 7.417969 7.296875 7.335938 7.378906 C 7.253906 7.460938 7.253906 7.589844 7.335938 7.671875 L 7.921875 8.253906 L 7.335938 8.839844 C 7.253906 8.921875 7.253906 9.050781 7.335938 9.132812 C 7.417969 9.214844 7.546875 9.214844 7.628906 9.132812 L 8.210938 8.546875 L 8.796875 9.132812 C 8.878906 9.214844 9.007812 9.214844 9.089844 9.132812 C 9.171875 9.050781 9.171875 8.921875 9.089844 8.839844 L 8.503906 8.253906 L 9.089844 7.671875 C 9.171875 7.589844 9.171875 7.460938 9.089844 7.378906 Z M 9.089844 7.378906 "/>
</g>
</svg>
