<?xml version="1.0" encoding="UTF-8"?>
<svg xmlns="http://www.w3.org/2000/svg" xmlns:xlink="http://www.w3.org/1999/xlink" width="12pt" height="12pt" viewBox="0 0 12 12" version="1.1">
<g id="surface1">
<path style=" stroke:none;fill-rule:evenodd;fill:rgb(80%,80%,80%);fill-opacity:1;" d="M 2.800781 0.710938 L 9.199219 0.710938 C 10.351562 0.710938 11.289062 1.648438 11.289062 2.800781 L 11.289062 9.199219 C 11.289062 10.351562 10.351562 11.289062 9.199219 11.289062 L 2.800781 11.289062 C 1.648438 11.289062 0.710938 10.351562 0.710938 9.199219 L 0.710938 2.800781 C 0.710938 1.648438 1.648438 0.710938 2.800781 0.710938 Z M 2.800781 0.710938 "/>
<path style=" stroke:none;fill-rule:nonzero;fill:rgb(93.72549%,22.352941%,22.352941%);fill-opacity:1;" d="M 3.375 3.375 C 2.960938 3.375 2.625 3.710938 2.625 4.125 L 6 6 L 9.375 4.125 C 9.375 3.710938 9.039062 3.375 8.625 3.375 Z M 3.375 3.75 L 8.625 3.75 C 8.765625 3.75 8.863281 3.835938 8.925781 3.945312 L 6 5.570312 L 3.074219 3.945312 C 3.136719 3.835938 3.234375 3.75 3.375 3.75 Z M 2.625 4.5 L 2.625 7.875 C 2.625 8.289062 2.960938 8.625 3.375 8.625 L 8.625 8.625 C 9.039062 8.625 9.375 8.289062 9.375 7.875 L 9.375 4.5 L 6 6.375 Z M 3 5.136719 L 5.816406 6.703125 C 5.929688 6.765625 6.070312 6.765625 6.183594 6.703125 L 9 5.136719 L 9 7.875 C 9 8.089844 8.839844 8.25 8.625 8.25 L 3.375 8.25 C 3.160156 8.25 3 8.089844 3 7.875 Z M 3 5.136719 "/>
</g>
</svg>
