<?xml version="1.0" encoding="UTF-8"?>
<svg xmlns="http://www.w3.org/2000/svg" xmlns:xlink="http://www.w3.org/1999/xlink" width="12pt" height="12pt" viewBox="0 0 12 12" version="1.1">
<defs>
<clipPath id="clip1">
  <rect width="12" height="12"/>
</clipPath>
<g id="surface6" clip-path="url(#clip1)">
<path style=" stroke:none;fill-rule:nonzero;fill:rgb(100%,100%,100%);fill-opacity:1;" d="M 4.375 3.75 C 4.355469 3.75 4.335938 3.75 4.3125 3.753906 C 4.226562 3.757812 2.589844 4.042969 2.484375 4.074219 C 2.375 4.101562 2.28125 4.164062 2.257812 4.226562 C 2.21875 4.328125 2.332031 4.65625 2.480469 4.878906 C 2.738281 5.261719 3.113281 5.503906 3.902344 5.800781 C 4.335938 5.964844 4.425781 6.003906 4.484375 6.066406 C 4.558594 6.148438 4.496094 6.1875 3.925781 6.421875 C 3.03125 6.792969 2.851562 7.109375 2.683594 7.574219 C 2.632812 7.710938 2.609375 8.074219 2.644531 8.164062 C 2.691406 8.285156 2.71875 8.28125 3.582031 8.128906 C 4.449219 7.976562 4.265625 7.96875 4.339844 7.902344 C 4.425781 7.710938 4.453125 7.574219 4.496094 7.386719 C 4.546875 7.21875 4.675781 7.042969 4.820312 6.949219 C 5.363281 6.59375 6.382812 6.769531 6.933594 7.316406 C 7.140625 7.519531 7.269531 7.625 7.375 7.945312 C 7.433594 8.128906 7.496094 8.210938 7.589844 8.226562 C 7.679688 8.242188 7.679688 8.28125 8.785156 8.085938 C 9.398438 7.976562 9.65625 7.847656 9.691406 7.820312 C 9.769531 7.765625 9.769531 7.628906 9.691406 7.398438 C 9.558594 7.007812 9.328125 6.683594 8.902344 6.382812 C 8.691406 6.230469 8.425781 6.089844 7.972656 5.890625 C 7.542969 5.699219 7.5 5.644531 7.5 5.585938 C 7.5 5.535156 7.507812 5.515625 7.847656 5.417969 C 8.59375 5.210938 8.996094 4.863281 8.996094 4.320312 C 8.996094 4.085938 8.949219 3.894531 8.875 3.832031 C 8.777344 3.746094 8.667969 3.746094 8.253906 3.816406 C 6.914062 4.042969 6.839844 4.085938 6.78125 4.183594 C 6.746094 4.230469 6.746094 4.242188 6.808594 4.46875 C 6.84375 4.597656 6.871094 4.734375 6.871094 4.773438 C 6.871094 4.851562 6.8125 4.988281 6.757812 5.035156 C 6.625 5.148438 6.324219 5.25 6.015625 5.25 C 5.640625 5.25 5.359375 5.109375 5.078125 4.832031 C 4.875 4.628906 4.773438 4.460938 4.636719 4.101562 C 4.515625 3.789062 4.5 3.75 4.375 3.75 Z M 4.375 3.75 "/>
</g>
</defs>
<g id="surface1">
<path style=" stroke:none;fill-rule:evenodd;fill:rgb(76.078431%,20.784314%,16.470588%);fill-opacity:1;" d="M 2.800781 0.710938 L 9.199219 0.710938 C 10.351562 0.710938 11.289062 1.648438 11.289062 2.800781 L 11.289062 9.199219 C 11.289062 10.351562 10.351562 11.289062 9.199219 11.289062 L 2.800781 11.289062 C 1.648438 11.289062 0.710938 10.351562 0.710938 9.199219 L 0.710938 2.800781 C 0.710938 1.648438 1.648438 0.710938 2.800781 0.710938 Z M 2.800781 0.710938 "/>
<use xlink:href="#surface6"/>
</g>
</svg>
