<?xml version="1.0" encoding="UTF-8"?>
<svg xmlns="http://www.w3.org/2000/svg" xmlns:xlink="http://www.w3.org/1999/xlink" width="12pt" height="12pt" viewBox="0 0 12 12" version="1.1">
<g id="surface1">
<path style=" stroke:none;fill-rule:evenodd;fill:rgb(60.392157%,79.215686%,23.529412%);fill-opacity:1;" d="M 2.800781 0.710938 L 9.199219 0.710938 C 10.351562 0.710938 11.289062 1.648438 11.289062 2.800781 L 11.289062 9.199219 C 11.289062 10.351562 10.351562 11.289062 9.199219 11.289062 L 2.800781 11.289062 C 1.648438 11.289062 0.710938 10.351562 0.710938 9.199219 L 0.710938 2.800781 C 0.710938 1.648438 1.648438 0.710938 2.800781 0.710938 Z M 2.800781 0.710938 "/>
<path style="fill:none;stroke-width:3;stroke-linecap:round;stroke-linejoin:round;stroke:rgb(100%,100%,100%);stroke-opacity:1;stroke-miterlimit:4;" d="M 12.499841 22.5 L 22.499841 9.5 " transform="matrix(0.375,0,0,0.375,-0.37494,0)"/>
<path style="fill:none;stroke-width:3;stroke-linecap:round;stroke-linejoin:round;stroke:rgb(100%,100%,100%);stroke-opacity:1;stroke-miterlimit:4;" d="M 11.499841 9.5 L 16.697758 16 " transform="matrix(0.375,0,0,0.375,-0.37494,0)"/>
<path style=" stroke:none;fill-rule:nonzero;fill:rgb(30.980392%,30.980392%,30.980392%);fill-opacity:1;" d="M 10.578125 8.25 C 10.578125 9.492188 9.570312 10.5 8.328125 10.5 C 7.085938 10.5 6.078125 9.492188 6.078125 8.25 C 6.078125 7.007812 7.085938 6 8.328125 6 C 9.570312 6 10.578125 7.007812 10.578125 8.25 Z M 10.578125 8.25 "/>
<path style=" stroke:none;fill-rule:nonzero;fill:rgb(100%,100%,100%);fill-opacity:1;" d="M 7.765625 7.125 C 7.144531 7.125 6.640625 7.628906 6.640625 8.25 C 6.640625 8.871094 7.144531 9.375 7.765625 9.375 C 8.277344 9.375 8.726562 9.027344 8.855469 8.53125 L 9.453125 8.53125 L 9.453125 9.09375 L 9.734375 9.09375 L 9.734375 8.53125 L 10.015625 8.53125 L 10.015625 7.96875 L 8.855469 7.96875 C 8.726562 7.472656 8.277344 7.125 7.765625 7.125 Z M 7.765625 7.6875 C 8.078125 7.6875 8.328125 7.9375 8.328125 8.25 C 8.328125 8.5625 8.078125 8.8125 7.765625 8.8125 C 7.457031 8.8125 7.203125 8.5625 7.203125 8.25 C 7.203125 7.9375 7.457031 7.6875 7.765625 7.6875 Z M 7.765625 7.6875 "/>
</g>
</svg>
