<?xml version="1.0" encoding="UTF-8"?>
<svg xmlns="http://www.w3.org/2000/svg" xmlns:xlink="http://www.w3.org/1999/xlink" width="48pt" height="48pt" viewBox="0 0 48 48" version="1.1">
<g id="surface1">
<path style=" stroke:none;fill-rule:evenodd;fill:rgb(96.078431%,51.764706%,6.666667%);fill-opacity:1;" d="M 11.210938 2.847656 L 36.789062 2.847656 C 41.410156 2.847656 45.152344 6.589844 45.152344 11.210938 L 45.152344 36.789062 C 45.152344 41.410156 41.410156 45.152344 36.789062 45.152344 L 11.210938 45.152344 C 6.589844 45.152344 2.847656 41.410156 2.847656 36.789062 L 2.847656 11.210938 C 2.847656 6.589844 6.589844 2.847656 11.210938 2.847656 Z M 11.210938 2.847656 "/>
<path style=" stroke:none;fill-rule:nonzero;fill:rgb(100%,80.392157%,43.137255%);fill-opacity:1;" d="M 28.085938 10.5 L 32.585938 7.5 L 32.585938 37.5 L 28.085938 40.5 Z M 28.085938 10.5 "/>
<path style=" stroke:none;fill-rule:nonzero;fill:rgb(100%,80.392157%,43.137255%);fill-opacity:1;" d="M 13.433594 30 L 8.585938 27.601562 L 34.566406 12.601562 L 39.414062 15 Z M 13.433594 30 "/>
<path style=" stroke:none;fill-rule:nonzero;fill:rgb(100%,80.392157%,43.137255%);fill-opacity:1;" d="M 39.066406 32.101562 L 39.414062 37.5 L 13.433594 22.5 L 13.085938 17.101562 Z M 39.066406 32.101562 "/>
</g>
</svg>
