<?xml version="1.0" encoding="UTF-8"?>
<svg xmlns="http://www.w3.org/2000/svg" xmlns:xlink="http://www.w3.org/1999/xlink" width="48pt" height="48pt" viewBox="0 0 48 48" version="1.1">
<g id="surface1">
<path style=" stroke:none;fill-rule:evenodd;fill:rgb(57.647059%,69.411765%,20%);fill-opacity:1;" d="M 11.210938 2.847656 L 36.789062 2.847656 C 41.410156 2.847656 45.152344 6.589844 45.152344 11.210938 L 45.152344 36.789062 C 45.152344 41.410156 41.410156 45.152344 36.789062 45.152344 L 11.210938 45.152344 C 6.589844 45.152344 2.847656 41.410156 2.847656 36.789062 L 2.847656 11.210938 C 2.847656 6.589844 6.589844 2.847656 11.210938 2.847656 Z M 11.210938 2.847656 "/>
<path style=" stroke:none;fill-rule:nonzero;fill:rgb(100%,100%,100%);fill-opacity:1;" d="M 13.871094 22.148438 C 12.984375 22.148438 12.269531 22.761719 12.269531 23.523438 L 12.269531 30.375 C 12.269531 31.136719 12.984375 31.746094 13.871094 31.746094 C 14.757812 31.746094 15.46875 31.136719 15.46875 30.375 L 15.46875 23.519531 C 15.46875 22.761719 14.757812 22.148438 13.871094 22.148438 Z M 13.871094 22.148438 "/>
<path style=" stroke:none;fill-rule:nonzero;fill:rgb(100%,100%,100%);fill-opacity:1;" d="M 19.832031 9.859375 C 19.742188 9.847656 19.644531 9.851562 19.550781 9.878906 C 19.171875 9.980469 18.945312 10.367188 19.046875 10.75 L 19.945312 14.101562 C 15.472656 16.25 15.46875 21.796875 15.46875 21.796875 L 15.46875 30.847656 C 15.46875 32.527344 16.738281 33.878906 18.3125 33.878906 L 19.734375 33.878906 L 19.734375 36.722656 C 19.734375 37.511719 20.371094 38.144531 21.15625 38.144531 C 21.945312 38.144531 22.578125 37.511719 22.578125 36.722656 L 22.578125 33.878906 L 25.421875 33.878906 L 25.421875 36.722656 C 25.421875 37.511719 26.054688 38.144531 26.84375 38.144531 C 27.632812 38.144531 28.265625 37.511719 28.265625 36.722656 L 28.265625 33.878906 L 29.6875 33.878906 C 31.261719 33.878906 32.53125 32.527344 32.53125 30.847656 L 32.53125 21.796875 C 32.53125 21.796875 32.527344 16.25 28.054688 14.101562 L 28.953125 10.75 C 29.054688 10.367188 28.828125 9.980469 28.449219 9.878906 C 28.070312 9.777344 27.679688 10 27.578125 10.382812 L 26.714844 13.605469 C 25.921875 13.390625 25.023438 13.265625 24 13.265625 C 22.976562 13.265625 22.078125 13.390625 21.285156 13.605469 L 20.421875 10.382812 C 20.347656 10.097656 20.109375 9.898438 19.832031 9.859375 Z M 19.832031 9.859375 "/>
<path style=" stroke:none;fill-rule:nonzero;fill:rgb(100%,100%,100%);fill-opacity:1;" d="M 34.128906 22.148438 C 33.242188 22.148438 32.53125 22.761719 32.53125 23.523438 L 32.53125 30.375 C 32.53125 31.136719 33.242188 31.746094 34.128906 31.746094 C 35.015625 31.746094 35.730469 31.136719 35.730469 30.375 L 35.730469 23.519531 C 35.730469 22.761719 35.015625 22.148438 34.128906 22.148438 Z M 34.128906 22.148438 "/>
<path style=" stroke:none;fill-rule:nonzero;fill:rgb(57.647059%,69.411765%,20%);fill-opacity:1;" d="M 17.921875 21.082031 L 30.078125 21.082031 C 30.253906 21.082031 30.398438 21.320312 30.398438 21.617188 C 30.398438 21.914062 30.253906 22.148438 30.078125 22.148438 L 17.921875 22.148438 C 17.746094 22.148438 17.601562 21.914062 17.601562 21.617188 C 17.601562 21.320312 17.746094 21.082031 17.921875 21.082031 Z M 17.921875 21.082031 "/>
<path style=" stroke:none;fill-rule:nonzero;fill:rgb(57.647059%,69.411765%,20%);fill-opacity:1;" d="M 20.800781 17.886719 C 20.800781 18.472656 20.324219 18.949219 19.734375 18.949219 C 19.144531 18.949219 18.667969 18.472656 18.667969 17.886719 C 18.667969 17.296875 19.144531 16.820312 19.734375 16.820312 C 20.324219 16.820312 20.800781 17.296875 20.800781 17.886719 Z M 20.800781 17.886719 "/>
<path style=" stroke:none;fill-rule:nonzero;fill:rgb(57.647059%,69.411765%,20%);fill-opacity:1;" d="M 29.332031 17.886719 C 29.332031 18.472656 28.855469 18.949219 28.265625 18.949219 C 27.675781 18.949219 27.199219 18.472656 27.199219 17.886719 C 27.199219 17.296875 27.675781 16.820312 28.265625 16.820312 C 28.855469 16.820312 29.332031 17.296875 29.332031 17.886719 Z M 29.332031 17.886719 "/>
</g>
</svg>
