<?xml version="1.0" encoding="UTF-8"?>
<svg xmlns="http://www.w3.org/2000/svg" xmlns:xlink="http://www.w3.org/1999/xlink" width="48pt" height="48pt" viewBox="0 0 48 48" version="1.1">
<g id="surface1">
<path style=" stroke:none;fill-rule:evenodd;fill:rgb(80%,80%,80%);fill-opacity:1;" d="M 11.210938 2.847656 L 36.789062 2.847656 C 41.410156 2.847656 45.152344 6.589844 45.152344 11.210938 L 45.152344 36.789062 C 45.152344 41.410156 41.410156 45.152344 36.789062 45.152344 L 11.210938 45.152344 C 6.589844 45.152344 2.847656 41.410156 2.847656 36.789062 L 2.847656 11.210938 C 2.847656 6.589844 6.589844 2.847656 11.210938 2.847656 Z M 11.210938 2.847656 "/>
<path style="fill:none;stroke-width:3;stroke-linecap:butt;stroke-linejoin:miter;stroke:rgb(27.058824%,27.058824%,27.058824%);stroke-opacity:1;stroke-miterlimit:4;" d="M 23.200296 20.200521 L 15.999775 24.299479 L 8.499775 20.200521 L 8.499775 11.799479 L 15.999775 7.700521 L 23.200296 11.799479 " transform="matrix(1.5,0,0,1.5,0.793307,0)"/>
<path style="fill:none;stroke-width:2;stroke-linecap:butt;stroke-linejoin:miter;stroke:rgb(52.54902%,26.666667%,86.27451%);stroke-opacity:1;stroke-miterlimit:4;" d="M 19.999775 18.098958 L 15.999775 20.200521 L 11.999775 18.098958 L 11.999775 13.901042 L 15.999775 11.799479 L 19.999775 13.901042 " transform="matrix(1.5,0,0,1.5,0.793307,0)"/>
</g>
</svg>
