<?xml version="1.0" encoding="UTF-8"?>
<svg xmlns="http://www.w3.org/2000/svg" xmlns:xlink="http://www.w3.org/1999/xlink" width="48pt" height="48pt" viewBox="0 0 48 48" version="1.1">
<g id="surface1">
<path style=" stroke:none;fill-rule:evenodd;fill:rgb(76.078431%,20.784314%,16.470588%);fill-opacity:1;" d="M 11.210938 2.847656 L 36.789062 2.847656 C 41.410156 2.847656 45.152344 6.589844 45.152344 11.210938 L 45.152344 36.789062 C 45.152344 41.410156 41.410156 45.152344 36.789062 45.152344 L 11.210938 45.152344 C 6.589844 45.152344 2.847656 41.410156 2.847656 36.789062 L 2.847656 11.210938 C 2.847656 6.589844 6.589844 2.847656 11.210938 2.847656 Z M 11.210938 2.847656 "/>
<path style=" stroke:none;fill-rule:nonzero;fill:rgb(100%,100%,100%);fill-opacity:1;" d="M 36.128906 12 L 39.320312 12 C 39.761719 12 40.121094 12.382812 40.121094 12.855469 L 40.121094 35.101562 C 40.121094 35.574219 39.761719 35.957031 39.320312 35.957031 L 36.128906 35.957031 C 35.6875 35.957031 35.328125 35.574219 35.328125 35.101562 L 35.328125 12.855469 C 35.328125 12.382812 35.6875 12 36.128906 12 Z M 36.128906 12 "/>
<path style=" stroke:none;fill-rule:nonzero;fill:rgb(100%,100%,100%);fill-opacity:1;" d="M 22.949219 12 L 26.144531 12 C 26.585938 12 26.941406 12.382812 26.941406 12.855469 L 26.941406 35.101562 C 26.941406 35.574219 26.585938 35.957031 26.144531 35.957031 L 22.949219 35.957031 C 22.507812 35.957031 22.152344 35.574219 22.152344 35.101562 L 22.152344 12.855469 C 22.152344 12.382812 22.507812 12 22.949219 12 Z M 22.949219 12 "/>
<path style=" stroke:none;fill-rule:nonzero;fill:rgb(100%,100%,100%);fill-opacity:1;" d="M 8.574219 12 L 11.769531 12 C 12.210938 12 12.566406 12.382812 12.566406 12.855469 L 12.566406 35.101562 C 12.566406 35.574219 12.210938 35.957031 11.769531 35.957031 L 8.574219 35.957031 C 8.132812 35.957031 7.777344 35.574219 7.777344 35.101562 L 7.777344 12.855469 C 7.777344 12.382812 8.132812 12 8.574219 12 Z M 8.574219 12 "/>
<path style=" stroke:none;fill-rule:nonzero;fill:rgb(84.705882%,33.72549%,30.196078%);fill-opacity:1;" d="M 19.742188 12.679688 L 19.742188 15.871094 C 19.742188 16.3125 19.359375 16.671875 18.886719 16.671875 L 8.617188 16.671875 C 8.144531 16.671875 7.761719 16.3125 7.761719 15.871094 L 7.761719 12.679688 C 7.761719 12.238281 8.144531 11.878906 8.617188 11.878906 L 18.886719 11.878906 C 19.359375 11.878906 19.742188 12.238281 19.742188 12.679688 Z M 19.742188 12.679688 "/>
<path style=" stroke:none;fill-rule:nonzero;fill:rgb(84.705882%,33.72549%,30.196078%);fill-opacity:1;" d="M 19.742188 32.128906 L 19.742188 35.320312 C 19.742188 35.761719 19.359375 36.121094 18.886719 36.121094 L 8.617188 36.121094 C 8.144531 36.121094 7.761719 35.761719 7.761719 35.320312 L 7.761719 32.128906 C 7.761719 31.6875 8.144531 31.328125 8.617188 31.328125 L 18.886719 31.328125 C 19.359375 31.328125 19.742188 31.6875 19.742188 32.128906 Z M 19.742188 32.128906 "/>
<path style=" stroke:none;fill-rule:nonzero;fill:rgb(84.705882%,33.72549%,30.196078%);fill-opacity:1;" d="M 23.21875 11.910156 C 22.792969 11.910156 22.402344 12.097656 22.191406 12.402344 C 21.980469 12.707031 21.980469 13.082031 22.191406 13.386719 L 26.152344 19.078125 L 30.109375 24.769531 C 30.3125 25.058594 30.675781 25.246094 31.082031 25.261719 C 31.523438 25.277344 31.941406 25.089844 32.164062 24.769531 L 40.078125 13.386719 C 40.292969 13.082031 40.292969 12.707031 40.078125 12.402344 C 39.867188 12.097656 39.476562 11.910156 39.054688 11.910156 Z M 23.21875 11.910156 "/>
</g>
</svg>
