<?xml version="1.0" encoding="UTF-8"?>
<svg xmlns="http://www.w3.org/2000/svg" xmlns:xlink="http://www.w3.org/1999/xlink" width="48pt" height="48pt" viewBox="0 0 48 48" version="1.1">
<g id="surface1">
<path style=" stroke:none;fill-rule:evenodd;fill:rgb(60.784314%,80%,43.137255%);fill-opacity:1;" d="M 11.210938 2.847656 L 36.789062 2.847656 C 41.410156 2.847656 45.152344 6.589844 45.152344 11.210938 L 45.152344 36.789062 C 45.152344 41.410156 41.410156 45.152344 36.789062 45.152344 L 11.210938 45.152344 C 6.589844 45.152344 2.847656 41.410156 2.847656 36.789062 L 2.847656 11.210938 C 2.847656 6.589844 6.589844 2.847656 11.210938 2.847656 Z M 11.210938 2.847656 "/>
<path style=" stroke:none;fill-rule:nonzero;fill:rgb(100%,100%,100%);fill-opacity:1;" d="M 31.648438 10.914062 C 33.730469 10.917969 35.71875 11.769531 37.160156 13.269531 C 37.195312 13.304688 37.230469 13.335938 37.265625 13.371094 C 38.0625 14.167969 38.527344 14.933594 38.726562 15.683594 C 39.09375 16.585938 39.289062 17.546875 39.292969 18.523438 C 39.292969 22.746094 35.871094 26.167969 31.648438 26.167969 C 30.597656 26.167969 29.5625 25.945312 28.601562 25.527344 C 28.523438 25.492188 28.441406 25.457031 28.359375 25.417969 C 28.261719 25.371094 28.164062 25.324219 28.066406 25.273438 C 28.023438 25.25 27.988281 25.238281 27.945312 25.214844 C 20.191406 35.699219 8.707031 37.121094 8.707031 37.121094 L 24.429688 21.074219 C 24.253906 20.671875 24.164062 20.300781 24.132812 19.945312 C 24.046875 19.476562 24 19.003906 24 18.527344 C 24 14.304688 27.421875 10.878906 31.648438 10.878906 Z M 31.648438 10.914062 "/>
<path style=" stroke:none;fill-rule:nonzero;fill:rgb(28.235294%,53.72549%,29.019608%);fill-opacity:1;" d="M 16.351562 10.914062 C 14.273438 10.917969 12.28125 11.769531 10.839844 13.269531 C 10.804688 13.304688 10.769531 13.335938 10.734375 13.371094 C 9.9375 14.167969 9.472656 14.933594 9.273438 15.683594 C 8.90625 16.585938 8.710938 17.546875 8.707031 18.523438 C 8.707031 22.746094 12.128906 26.167969 16.351562 26.167969 C 17.402344 26.167969 18.4375 25.945312 19.398438 25.527344 C 19.476562 25.492188 19.558594 25.457031 19.640625 25.417969 C 19.738281 25.371094 19.835938 25.324219 19.933594 25.273438 C 19.976562 25.25 20.011719 25.238281 20.054688 25.214844 C 27.808594 35.699219 39.292969 37.121094 39.292969 37.121094 L 23.570312 21.074219 C 23.746094 20.671875 23.835938 20.300781 23.863281 19.945312 C 23.953125 19.476562 24 19.003906 24 18.527344 C 24 14.300781 20.574219 10.878906 16.351562 10.878906 Z M 16.351562 10.914062 "/>
<path style=" stroke:none;fill-rule:nonzero;fill:rgb(60.784314%,80%,43.137255%);fill-opacity:1;" d="M 19.628906 18.558594 C 19.628906 20.371094 18.164062 21.835938 16.351562 21.835938 C 14.542969 21.835938 13.074219 20.371094 13.074219 18.558594 C 13.074219 16.75 14.542969 15.28125 16.351562 15.28125 C 18.164062 15.28125 19.628906 16.75 19.628906 18.558594 Z M 19.628906 18.558594 "/>
<path style=" stroke:none;fill-rule:nonzero;fill:rgb(97.647059%,97.647059%,97.647059%);fill-opacity:1;" d="M 25.09375 25.113281 C 25.09375 25.71875 24.605469 26.207031 24 26.207031 C 23.398438 26.207031 22.90625 25.71875 22.90625 25.113281 C 22.90625 24.511719 23.398438 24.023438 24 24.023438 C 24.605469 24.023438 25.09375 24.511719 25.09375 25.113281 Z M 25.09375 25.113281 "/>
<path style=" stroke:none;fill-rule:nonzero;fill:rgb(60.784314%,80%,43.137255%);fill-opacity:1;" d="M 34.925781 18.558594 C 34.925781 20.371094 33.457031 21.835938 31.648438 21.835938 C 29.835938 21.835938 28.371094 20.371094 28.371094 18.558594 C 28.371094 16.75 29.835938 15.28125 31.648438 15.28125 C 33.457031 15.28125 34.925781 16.75 34.925781 18.558594 Z M 34.925781 18.558594 "/>
</g>
</svg>
