<?xml version="1.0" encoding="UTF-8"?>
<svg xmlns="http://www.w3.org/2000/svg" xmlns:xlink="http://www.w3.org/1999/xlink" width="48pt" height="48pt" viewBox="0 0 48 48" version="1.1">
<defs>
<radialGradient id="radial0" gradientUnits="userSpaceOnUse" cx="24.391607" cy="16.559441" fx="24.391607" fy="16.559441" r="14.101694" gradientTransform="matrix(2.333109,0,0,2.333109,-33.076115,-14.802816)">
<stop offset="0" style="stop-color:rgb(33.72549%,34.117647%,16.862745%);stop-opacity:1;"/>
<stop offset="1" style="stop-color:rgb(10.196078%,10.980392%,5.490196%);stop-opacity:1;"/>
</radialGradient>
</defs>
<g id="surface1">
<path style=" stroke:none;fill-rule:evenodd;fill:rgb(33.72549%,34.117647%,16.862745%);fill-opacity:1;" d="M 11.042969 2.679688 L 36.621094 2.679688 C 41.242188 2.679688 44.984375 6.421875 44.984375 11.042969 L 44.984375 36.621094 C 44.984375 41.242188 41.242188 44.984375 36.621094 44.984375 L 11.042969 44.984375 C 6.421875 44.984375 2.679688 41.242188 2.679688 36.621094 L 2.679688 11.042969 C 2.679688 6.421875 6.421875 2.679688 11.042969 2.679688 Z M 11.042969 2.679688 "/>
<path style=" stroke:none;fill-rule:evenodd;fill:rgb(13.333333%,14.509804%,7.843137%);fill-opacity:1;" d="M 26.730469 44.984375 C 25.542969 44.472656 24.03125 44.027344 23.054688 43.472656 C 20.820312 42.195312 19.105469 40.816406 17.753906 39.378906 C 16.402344 37.9375 15.417969 36.441406 14.648438 34.925781 C 13.878906 33.410156 13.320312 31.878906 12.828125 30.378906 C 12.335938 28.878906 11.910156 27.40625 11.394531 26.011719 C 10.878906 24.613281 10.277344 23.292969 9.441406 22.089844 C 8.601562 20.886719 7.523438 19.804688 6.0625 18.886719 C 5.195312 18.339844 3.851562 17.992188 2.679688 17.574219 L 2.679688 36.621094 C 2.679688 41.253906 6.410156 44.984375 11.042969 44.984375 Z M 26.730469 44.984375 "/>
<path style=" stroke:none;fill-rule:evenodd;fill:url(#radial0);" d="M 19.144531 2.679688 L 11.042969 2.679688 C 6.410156 2.679688 2.679688 6.410156 2.679688 11.042969 L 2.679688 17.574219 C 3.851562 17.992188 5.195312 18.339844 6.0625 18.886719 C 7.523438 19.804688 8.601562 20.886719 9.441406 22.089844 C 10.277344 23.292969 10.878906 24.613281 11.394531 26.011719 C 11.910156 27.40625 12.335938 28.878906 12.828125 30.378906 C 13.320312 31.878906 13.878906 33.410156 14.648438 34.925781 C 15.417969 36.441406 16.402344 37.9375 17.753906 39.378906 C 19.105469 40.816406 20.820312 42.195312 23.054688 43.472656 C 24.03125 44.027344 25.542969 44.472656 26.730469 44.984375 L 36.621094 44.984375 C 41.253906 44.984375 44.984375 41.253906 44.984375 36.621094 L 44.984375 30.84375 C 44 30.464844 42.792969 30.171875 42.035156 29.695312 C 40.570312 28.777344 39.496094 27.695312 38.65625 26.492188 C 37.820312 25.289062 37.21875 23.96875 36.703125 22.574219 C 36.1875 21.175781 35.761719 19.707031 35.269531 18.207031 C 34.773438 16.703125 34.21875 15.171875 33.449219 13.660156 C 32.675781 12.144531 31.691406 10.644531 30.339844 9.207031 C 28.988281 7.765625 27.273438 6.386719 25.039062 5.113281 C 23.472656 4.21875 21.273438 3.457031 19.144531 2.679688 Z M 19.144531 2.679688 "/>
<path style=" stroke:none;fill-rule:evenodd;fill:rgb(33.72549%,34.117647%,16.862745%);fill-opacity:1;" d="M 19.144531 2.679688 C 21.273438 3.457031 23.472656 4.21875 25.039062 5.113281 C 27.273438 6.386719 28.988281 7.765625 30.339844 9.207031 C 31.691406 10.644531 32.675781 12.144531 33.449219 13.660156 C 34.21875 15.171875 34.773438 16.703125 35.269531 18.207031 C 35.761719 19.707031 36.1875 21.175781 36.703125 22.574219 C 37.21875 23.96875 37.820312 25.289062 38.65625 26.492188 C 39.496094 27.695312 40.570312 28.777344 42.035156 29.695312 C 42.792969 30.171875 44 30.464844 44.984375 30.84375 L 44.984375 11.042969 C 44.984375 6.410156 41.253906 2.679688 36.621094 2.679688 Z M 19.144531 2.679688 "/>
<path style=" stroke:none;fill-rule:nonzero;fill:rgb(100%,100%,100%);fill-opacity:1;" d="M 27.703125 29.507812 C 27.878906 29.347656 27.839844 29.039062 27.589844 28.6875 C 27.375 28.382812 27.371094 28.375 27.21875 27.1875 C 27.070312 26.046875 27.050781 25.980469 26.835938 25.566406 C 26.691406 25.289062 26.535156 25.082031 26.394531 24.976562 C 26.125 24.78125 25.992188 24.433594 26.105469 24.222656 C 26.167969 24.105469 26.144531 24.058594 25.867188 23.707031 C 25.699219 23.496094 25.53125 23.285156 25.492188 23.246094 C 25.457031 23.207031 25.34375 23.058594 25.242188 22.917969 C 25.113281 22.738281 25.03125 22.675781 24.960938 22.695312 C 24.882812 22.71875 24.859375 22.683594 24.839844 22.511719 C 24.824219 22.394531 24.792969 22.25 24.769531 22.195312 C 24.734375 22.117188 24.753906 22.097656 24.871094 22.097656 C 25.070312 22.097656 25.136719 21.949219 25.136719 21.503906 L 25.136719 21.132812 L 25.578125 21.132812 C 25.820312 21.132812 26.105469 21.105469 26.210938 21.074219 C 26.46875 21.003906 26.714844 20.761719 26.84375 20.464844 C 26.957031 20.210938 27.0625 20.160156 27.183594 20.308594 C 27.230469 20.363281 27.328125 20.390625 27.433594 20.378906 C 27.589844 20.363281 27.609375 20.34375 27.625 20.148438 C 27.636719 20.03125 27.664062 19.9375 27.683594 19.9375 C 27.707031 19.9375 27.839844 20.210938 27.980469 20.546875 C 28.226562 21.132812 28.246094 21.160156 28.398438 21.148438 C 28.488281 21.140625 28.574219 21.121094 28.589844 21.105469 C 28.609375 21.089844 28.523438 20.8125 28.40625 20.492188 C 28.285156 20.171875 28.175781 19.882812 28.164062 19.847656 C 28.152344 19.8125 28.253906 19.738281 28.394531 19.683594 C 28.582031 19.605469 28.652344 19.539062 28.695312 19.402344 L 28.746094 19.226562 L 29.398438 19.191406 C 29.757812 19.171875 30.058594 19.152344 30.066406 19.148438 C 30.074219 19.144531 30.082031 19.105469 30.082031 19.058594 C 30.082031 19.007812 30.011719 18.972656 29.898438 18.960938 C 29.714844 18.941406 29.710938 18.9375 29.695312 18.621094 C 29.695312 18.507812 29.5 18.515625 29.398438 18.460938 C 29.398438 18.621094 29.386719 18.628906 29.171875 18.628906 C 29.007812 18.628906 28.945312 18.605469 28.945312 18.542969 C 28.945312 18.449219 28.851562 18.425781 28.820312 18.515625 C 28.8125 18.546875 28.679688 18.585938 28.53125 18.609375 L 28.261719 18.644531 L 28.261719 18.472656 C 28.261719 18.378906 28.226562 18.285156 28.183594 18.269531 C 28.09375 18.234375 27.976562 18.332031 27.976562 18.441406 C 27.976562 18.496094 27.839844 18.515625 27.410156 18.515625 L 26.839844 18.515625 L 26.839844 18.34375 C 26.839844 18.1875 26.824219 18.175781 26.640625 18.175781 C 26.511719 18.175781 26.441406 18.199219 26.441406 18.253906 C 26.441406 18.347656 26.320312 18.402344 26.097656 18.402344 C 25.992188 18.402344 25.914062 18.441406 25.875 18.515625 C 25.792969 18.664062 25.445312 18.683594 25.5 18.535156 C 25.847656 17.632812 25.351562 16.78125 24.492188 16.800781 C 23.945312 16.8125 23.601562 17.289062 23.601562 18.039062 C 23.601562 18.441406 23.597656 18.445312 23.417969 18.519531 C 22.816406 18.769531 22.386719 19.722656 22.410156 20.757812 C 22.414062 21.085938 22.382812 21.429688 22.320312 21.699219 C 22.253906 21.984375 22.214844 22.40625 22.207031 22.980469 C 22.195312 23.757812 22.179688 23.890625 21.996094 24.542969 C 21.832031 25.136719 21.71875 25.648438 21.578125 26.449219 C 21.566406 26.515625 21.414062 26.664062 21.242188 26.785156 C 20.898438 27.019531 20.667969 27.28125 20.488281 27.640625 L 20.371094 27.871094 L 20.578125 28.410156 C 20.835938 29.082031 20.832031 29.074219 21.078125 29.144531 C 21.234375 29.183594 21.332031 29.179688 21.476562 29.121094 L 21.667969 29.039062 L 21.667969 28.179688 L 21.894531 28.179688 C 22.390625 28.179688 22.769531 27.613281 23.261719 26.125 C 23.699219 24.789062 23.835938 24.429688 23.890625 24.429688 C 23.917969 24.429688 23.941406 24.453125 23.941406 24.488281 C 23.941406 24.519531 24.042969 24.707031 24.167969 24.90625 C 24.429688 25.320312 24.871094 25.753906 25.320312 26.042969 C 25.597656 26.21875 25.636719 26.265625 25.671875 26.488281 C 25.691406 26.621094 25.8125 27.039062 25.9375 27.414062 C 26.0625 27.789062 26.203125 28.296875 26.246094 28.539062 C 26.347656 29.105469 26.464844 29.269531 26.910156 29.453125 C 27.328125 29.621094 27.558594 29.636719 27.703125 29.507812 Z M 25.441406 19.808594 C 25.464844 19.675781 25.523438 19.535156 25.574219 19.496094 C 25.769531 19.351562 26.558594 19.453125 26.558594 19.625 C 26.558594 19.703125 26.382812 19.765625 26.148438 19.765625 C 26.054688 19.765625 25.953125 19.820312 25.882812 19.910156 C 25.808594 20.007812 25.71875 20.050781 25.589844 20.050781 L 25.40625 20.050781 Z M 10.648438 26.96875 C 11.164062 26.71875 11.230469 26.582031 11.253906 25.75 L 11.273438 25.054688 L 9.550781 25.054688 L 9.566406 25.566406 L 9.585938 26.078125 L 6.089844 26.078125 L 6.089844 23.121094 L 9.585938 23.121094 L 9.546875 24.105469 L 9.9375 24.070312 C 10.429688 24.023438 11 23.75 11.195312 23.460938 C 11.304688 23.300781 11.324219 23.21875 11.296875 23.015625 C 11.246094 22.636719 11.074219 22.410156 10.707031 22.226562 L 10.382812 22.070312 L 5.433594 22.070312 L 5.136719 22.203125 C 4.742188 22.382812 4.460938 22.699219 4.414062 23.015625 C 4.390625 23.152344 4.382812 23.953125 4.394531 24.796875 C 4.414062 26.523438 4.421875 26.554688 4.855469 26.855469 C 5.265625 27.140625 5.417969 27.152344 7.964844 27.140625 L 10.324219 27.128906 Z M 17.933594 27.097656 C 18.261719 27.011719 18.605469 26.765625 18.726562 26.53125 C 18.804688 26.375 18.824219 26.1875 18.824219 25.636719 C 18.824219 24.808594 18.761719 24.617188 18.429688 24.398438 C 18.015625 24.121094 17.722656 24.089844 15.597656 24.089844 L 13.652344 24.085938 L 13.652344 23.121094 L 16.238281 23.121094 C 18.800781 23.121094 18.824219 23.121094 18.824219 23.003906 C 18.824219 22.828125 18.683594 22.539062 18.535156 22.402344 C 18.460938 22.335938 18.269531 22.234375 18.113281 22.175781 C 17.851562 22.078125 17.640625 22.070312 15.355469 22.070312 L 12.882812 22.070312 L 12.570312 22.222656 C 12.207031 22.402344 11.96875 22.71875 11.914062 23.101562 C 11.851562 23.515625 11.914062 24.320312 12.023438 24.53125 C 12.148438 24.769531 12.554688 25.027344 12.921875 25.105469 C 13.085938 25.144531 13.992188 25.167969 15.160156 25.167969 L 17.117188 25.167969 L 17.117188 26.078125 L 14.496094 26.078125 C 12.128906 26.078125 11.878906 26.085938 11.910156 26.167969 C 11.929688 26.214844 11.945312 26.292969 11.945312 26.335938 C 11.945312 26.570312 12.503906 26.988281 12.953125 27.097656 C 13.269531 27.171875 17.640625 27.171875 17.933594 27.097656 Z M 35.054688 26.957031 C 35.632812 26.671875 35.652344 26.613281 35.652344 25.246094 L 35.652344 24.085938 L 31.21875 24.085938 L 31.21875 24.265625 C 31.21875 24.523438 31.449219 24.792969 31.828125 24.980469 C 32.140625 25.128906 32.207031 25.140625 33.050781 25.160156 L 33.949219 25.179688 L 33.949219 26.078125 L 30.480469 26.078125 L 30.480469 23.121094 L 35.667969 23.121094 L 35.636719 22.886719 C 35.597656 22.59375 35.335938 22.308594 34.976562 22.167969 C 34.742188 22.078125 34.46875 22.070312 32.269531 22.070312 L 29.824219 22.070312 L 29.457031 22.25 C 29.207031 22.375 29.039062 22.503906 28.945312 22.644531 C 28.800781 22.855469 28.800781 22.855469 28.785156 24.464844 C 28.773438 25.457031 28.789062 26.152344 28.828125 26.289062 C 28.933594 26.683594 29.277344 26.964844 29.824219 27.105469 C 29.917969 27.128906 31.058594 27.144531 32.355469 27.140625 L 34.714844 27.128906 Z M 42.476562 27.011719 C 42.617188 26.945312 42.816406 26.796875 42.917969 26.683594 L 43.101562 26.472656 L 43.101562 24.648438 C 43.101562 23.414062 43.082031 22.789062 43.039062 22.703125 C 42.898438 22.4375 42.671875 22.261719 42.316406 22.152344 C 41.980469 22.050781 41.78125 22.039062 39.695312 22.039062 C 37.273438 22.039062 37.089844 22.058594 36.675781 22.339844 C 36.570312 22.410156 36.429688 22.558594 36.367188 22.667969 C 36.257812 22.855469 36.25 22.953125 36.25 24.628906 C 36.25 26.367188 36.253906 26.390625 36.378906 26.570312 C 36.449219 26.671875 36.597656 26.808594 36.710938 26.875 C 37.144531 27.144531 37.238281 27.152344 39.804688 27.140625 C 42.121094 27.128906 42.230469 27.125 42.476562 27.011719 Z M 37.929688 24.597656 L 37.929688 23.121094 L 41.425781 23.121094 L 41.410156 24.597656 L 41.390625 26.078125 L 37.929688 26.078125 Z M 37.929688 24.597656 "/>
<path style=" stroke:none;fill-rule:nonzero;fill:rgb(100%,100%,100%);fill-opacity:1;" d="M 24.328125 14.839844 C 20.277344 14.839844 16.878906 17.683594 16.011719 21.476562 L 17.238281 21.476562 C 18.074219 18.328125 20.914062 16.007812 24.328125 16.007812 C 27.746094 16.007812 30.582031 18.328125 31.417969 21.476562 L 32.644531 21.476562 C 31.777344 17.683594 28.382812 14.839844 24.328125 14.839844 Z M 16.949219 27.644531 C 18.429688 30.191406 21.179688 31.910156 24.328125 31.910156 C 27.480469 31.910156 30.226562 30.191406 31.707031 27.644531 L 30.316406 27.644531 C 28.980469 29.515625 26.808594 30.742188 24.328125 30.742188 C 21.851562 30.742188 19.675781 29.515625 18.339844 27.644531 Z M 16.949219 27.644531 "/>
</g>
</svg>
