<?xml version="1.0" encoding="UTF-8"?>
<svg xmlns="http://www.w3.org/2000/svg" xmlns:xlink="http://www.w3.org/1999/xlink" width="48pt" height="48pt" viewBox="0 0 48 48" version="1.1">
<g id="surface1">
<path style=" stroke:none;fill-rule:evenodd;fill:rgb(100%,100%,100%);fill-opacity:1;" d="M 11.210938 2.847656 L 36.789062 2.847656 C 41.410156 2.847656 45.152344 6.589844 45.152344 11.210938 L 45.152344 36.789062 C 45.152344 41.410156 41.410156 45.152344 36.789062 45.152344 L 11.210938 45.152344 C 6.589844 45.152344 2.847656 41.410156 2.847656 36.789062 L 2.847656 11.210938 C 2.847656 6.589844 6.589844 2.847656 11.210938 2.847656 Z M 11.210938 2.847656 "/>
<path style=" stroke:none;fill-rule:evenodd;fill:rgb(24.313725%,31.372549%,70.588235%);fill-opacity:1;" d="M 4.222656 6.878906 L 43.921875 40.90625 C 44.632812 39.675781 45.152344 38.320312 45.152344 36.789062 L 45.152344 11.210938 C 45.152344 6.578125 41.421875 2.847656 36.789062 2.847656 L 11.207031 2.847656 C 8.199219 2.847656 5.695312 4.507812 4.222656 6.878906 Z M 23.128906 11.203125 L 40.234375 11.203125 L 40.234375 25.867188 Z M 23.128906 11.203125 "/>
<path style=" stroke:none;fill-rule:evenodd;fill:rgb(0.784314%,65.882353%,95.294118%);fill-opacity:1;" d="M 43.921875 40.90625 L 4.222656 6.878906 C 3.425781 8.160156 2.847656 9.585938 2.847656 11.210938 L 2.847656 36.789062 C 2.847656 41.425781 6.574219 45.152344 11.207031 45.152344 L 36.789062 45.152344 C 39.890625 45.152344 42.476562 43.402344 43.921875 40.90625 Z M 7.761719 21.792969 L 24.871094 36.457031 L 7.761719 36.457031 Z M 7.761719 21.792969 "/>
</g>
</svg>
