<?xml version="1.0" encoding="UTF-8"?>
<svg xmlns="http://www.w3.org/2000/svg" xmlns:xlink="http://www.w3.org/1999/xlink" width="48pt" height="48pt" viewBox="0 0 48 48" version="1.1">
<g id="surface1">
<path style=" stroke:none;fill-rule:evenodd;fill:rgb(45.490196%,74.901961%,80%);fill-opacity:1;" d="M 11.210938 2.847656 L 36.789062 2.847656 C 41.410156 2.847656 45.152344 6.589844 45.152344 11.210938 L 45.152344 36.789062 C 45.152344 41.410156 41.410156 45.152344 36.789062 45.152344 L 11.210938 45.152344 C 6.589844 45.152344 2.847656 41.410156 2.847656 36.789062 L 2.847656 11.210938 C 2.847656 6.589844 6.589844 2.847656 11.210938 2.847656 Z M 11.210938 2.847656 "/>
<path style="fill:none;stroke-width:1;stroke-linecap:round;stroke-linejoin:miter;stroke:rgb(24.705882%,24.705882%,24.705882%);stroke-opacity:1;stroke-miterlimit:4;" d="M 23.510292 15.581174 C 23.510292 15.581174 25.395709 13.057737 24.231647 10.628049 C 23.067584 8.200966 17.419147 9.935341 13.078001 12.969195 C 9.950397 15.154091 8.445188 19.003049 8.499876 21.500445 " transform="matrix(1.5,0,0,1.5,-0.749814,0.721989)"/>
<path style="fill:none;stroke-width:1;stroke-linecap:round;stroke-linejoin:miter;stroke:rgb(24.705882%,24.705882%,24.705882%);stroke-opacity:1;stroke-miterlimit:4;" d="M 12.499876 22.500445 C 12.499876 22.500445 13.213417 25.409299 16.385292 25.534299 C 19.557167 25.661903 20.900917 20.292112 20.445188 15.01607 C 20.117063 11.216591 18.68998 7.700966 16.499876 6.500445 " transform="matrix(1.5,0,0,1.5,-0.749814,0.721989)"/>
<path style="fill:none;stroke-width:1;stroke-linecap:round;stroke-linejoin:miter;stroke:rgb(24.705882%,24.705882%,24.705882%);stroke-opacity:1;stroke-miterlimit:4;" d="M 13.499876 9.599403 C 13.499876 9.599403 9.091022 6.937945 7.801959 10.01607 C 6.515501 13.091591 10.786334 18.721799 15.898313 20.107216 C 19.466022 21.075966 23.468626 19.919716 24.499876 19.500445 " transform="matrix(1.5,0,0,1.5,-0.749814,0.721989)"/>
<path style="fill-rule:nonzero;fill:rgb(24.705882%,24.705882%,24.705882%);fill-opacity:1;stroke-width:0.874498;stroke-linecap:butt;stroke-linejoin:miter;stroke:rgb(24.705882%,24.705882%,24.705882%);stroke-opacity:1;stroke-miterlimit:4;" d="M 17.562376 15.500445 C 17.562376 16.086382 17.085813 16.562945 16.499876 16.562945 C 15.913938 16.562945 15.437376 16.086382 15.437376 15.500445 C 15.437376 14.911903 15.913938 14.437945 16.499876 14.437945 C 17.085813 14.437945 17.562376 14.911903 17.562376 15.500445 Z M 17.562376 15.500445 " transform="matrix(1.5,0,0,1.5,-0.749814,0.721989)"/>
<path style=" stroke:none;fill-rule:nonzero;fill:rgb(24.705882%,24.705882%,24.705882%);fill-opacity:1;" d="M 23.894531 8.226562 C 23.128906 8.261719 22.433594 8.683594 22.050781 9.347656 C 21.429688 10.421875 21.800781 11.796875 22.875 12.421875 C 23.953125 13.042969 25.328125 12.671875 25.949219 11.597656 C 26.570312 10.519531 26.199219 9.144531 25.125 8.523438 C 24.753906 8.308594 24.324219 8.203125 23.894531 8.226562 Z M 35.949219 27.722656 C 35.570312 27.730469 35.203125 27.835938 34.875 28.023438 C 33.800781 28.644531 33.429688 30.019531 34.050781 31.097656 C 34.671875 32.171875 36.050781 32.542969 37.125 31.921875 C 38.199219 31.296875 38.570312 29.921875 37.949219 28.847656 C 37.539062 28.132812 36.769531 27.703125 35.949219 27.722656 Z M 12 30.722656 C 10.757812 30.722656 9.75 31.730469 9.75 32.972656 C 9.75 34.214844 10.757812 35.222656 12 35.222656 C 13.242188 35.222656 14.25 34.214844 14.25 32.972656 C 14.25 31.730469 13.242188 30.722656 12 30.722656 Z M 12 30.722656 "/>
<path style=" stroke:none;fill-rule:nonzero;fill:rgb(45.490196%,74.901961%,80%);fill-opacity:1;" d="M 24 9.722656 C 23.585938 9.722656 23.25 10.058594 23.25 10.472656 C 23.25 10.886719 23.585938 11.222656 24 11.222656 C 24.414062 11.222656 24.75 10.886719 24.75 10.472656 C 24.75 10.058594 24.414062 9.722656 24 9.722656 Z M 36 29.222656 C 35.585938 29.222656 35.25 29.558594 35.25 29.972656 C 35.25 30.386719 35.585938 30.722656 36 30.722656 C 36.414062 30.722656 36.75 30.386719 36.75 29.972656 C 36.75 29.558594 36.414062 29.222656 36 29.222656 Z M 12 32.222656 C 11.585938 32.222656 11.25 32.558594 11.25 32.972656 C 11.25 33.386719 11.585938 33.722656 12 33.722656 C 12.414062 33.722656 12.75 33.386719 12.75 32.972656 C 12.75 32.558594 12.414062 32.222656 12 32.222656 Z M 12 32.222656 "/>
</g>
</svg>
