<?xml version="1.0" encoding="UTF-8"?>
<svg xmlns="http://www.w3.org/2000/svg" xmlns:xlink="http://www.w3.org/1999/xlink" width="48pt" height="48pt" viewBox="0 0 48 48" version="1.1">
<g id="surface1">
<path style=" stroke:none;fill-rule:evenodd;fill:rgb(80%,80%,80%);fill-opacity:1;" d="M 11.210938 2.847656 L 36.789062 2.847656 C 41.410156 2.847656 45.152344 6.589844 45.152344 11.210938 L 45.152344 36.789062 C 45.152344 41.410156 41.410156 45.152344 36.789062 45.152344 L 11.210938 45.152344 C 6.589844 45.152344 2.847656 41.410156 2.847656 36.789062 L 2.847656 11.210938 C 2.847656 6.589844 6.589844 2.847656 11.210938 2.847656 Z M 11.210938 2.847656 "/>
<path style="fill:none;stroke-width:1.224702;stroke-linecap:butt;stroke-linejoin:miter;stroke:rgb(14.509804%,61.176471%,85.490196%);stroke-opacity:1;stroke-miterlimit:4;" d="M 28.499635 15.999649 C 28.499635 11.859167 22.902322 8.498506 16 8.498506 C 9.097678 8.498506 3.500365 11.859167 3.500365 15.999649 C 3.500365 20.143225 9.097678 23.500791 16 23.500791 C 22.902322 23.500791 28.499635 20.143225 28.499635 15.999649 Z M 28.499635 15.999649 " transform="matrix(1.263162,0,0,1.262308,3.78941,3.80352)"/>
<path style="fill:none;stroke-width:1.224702;stroke-linecap:butt;stroke-linejoin:miter;stroke:rgb(14.509804%,61.176471%,85.490196%);stroke-opacity:1;stroke-miterlimit:4;" d="M 34.355449 -5.856749 C 34.356181 -9.9985 28.758301 -13.355417 21.855072 -13.355941 C 14.951843 -13.356464 9.357488 -9.998167 9.356756 -5.856416 C 9.356023 -1.714664 14.952357 1.644931 21.855586 1.645455 C 28.760361 1.6433 34.357396 -1.71345 34.355449 -5.856749 Z M 34.355449 -5.856749 " transform="matrix(0.631581,1.093191,-1.09393,0.631154,3.78941,3.80352)"/>
<path style="fill:none;stroke-width:1.224702;stroke-linecap:butt;stroke-linejoin:miter;stroke:rgb(14.509804%,61.176471%,85.490196%);stroke-opacity:1;stroke-miterlimit:4;" d="M 18.355449 21.856064 C 18.356181 17.714313 12.759847 14.354718 5.855072 14.356872 C -1.048157 14.356349 -6.645192 17.713099 -6.643244 21.856397 C -6.643977 25.998148 -1.046097 29.355066 5.857132 29.355589 C 12.760361 29.356113 18.354716 25.997816 18.355449 21.856064 Z M 18.355449 21.856064 " transform="matrix(-0.631581,1.093191,1.09393,0.631154,3.78941,3.80352)"/>
<path style=" stroke:none;fill-rule:nonzero;fill:rgb(14.509804%,61.176471%,85.490196%);fill-opacity:1;" d="M 21.472656 16.425781 L 21.472656 18.953125 C 21.164062 18.964844 20.59375 18.953125 20.292969 18.953125 L 18.949219 18.953125 L 18.949219 20.214844 C 18.949219 20.214844 19.402344 20.195312 19.382812 20.214844 C 19.964844 20.203125 20.148438 20.625 20.210938 20.90625 L 20.210938 27.15625 C 20.1875 27.332031 20.207031 27.773438 19.800781 27.789062 C 19.820312 27.804688 18.949219 27.789062 18.949219 27.789062 L 18.949219 29.050781 L 20.371094 29.050781 C 20.71875 29.035156 21.136719 29.050781 21.472656 29.050781 L 21.472656 31.574219 L 22.738281 31.550781 L 22.738281 29.050781 L 23.980469 29.050781 L 24.019531 31.574219 L 25.28125 31.574219 L 25.242188 29.050781 C 27.652344 28.875 29.050781 28.585938 29.050781 25.894531 C 29.050781 24 27.789062 23.371094 26.292969 23.371094 C 27.242188 23.296875 27.789062 22.738281 27.789062 21.160156 C 27.789062 20.214844 27.242188 18.953125 26.527344 18.953125 L 25.261719 18.953125 L 25.261719 16.425781 L 24 16.425781 L 24 18.953125 C 23.621094 18.953125 23.121094 18.9375 22.738281 18.953125 L 22.738281 16.425781 Z M 22.738281 20.214844 C 24.519531 20.214844 25.261719 20.214844 25.261719 21.476562 C 25.261719 22.738281 24.339844 22.738281 22.738281 22.738281 Z M 22.738281 24 C 25.261719 24 26.527344 24 26.527344 25.894531 C 26.527344 27.789062 25.261719 27.789062 22.738281 27.789062 Z M 22.738281 24 "/>
</g>
</svg>
