<?xml version="1.0" encoding="UTF-8"?>
<svg xmlns="http://www.w3.org/2000/svg" xmlns:xlink="http://www.w3.org/1999/xlink" width="48pt" height="48pt" viewBox="0 0 48 48" version="1.1">
<defs>
<clipPath id="clip1">
  <rect width="48" height="48"/>
</clipPath>
<g id="surface6" clip-path="url(#clip1)">
<path style=" stroke:none;fill-rule:nonzero;fill:rgb(25.098039%,25.098039%,25.098039%);fill-opacity:1;" d="M 25.304688 13.5 C 22.527344 13.5 20.84375 16.605469 19.78125 19.363281 L 18.449219 23.414062 L 16.753906 28.847656 C 16.226562 30.375 15.855469 32.804688 14.25 33 C 13.546875 33.085938 13.578125 31.5 12.75 31.5 C 11.921875 31.5 11.25 32.171875 11.25 33 C 11.25 33.828125 11.921875 34.5 12.75 34.5 L 13.695312 34.5 C 16.90625 34.5 18.734375 30.464844 20.109375 26.019531 L 20.878906 23.511719 L 22.109375 19.554688 C 22.746094 17.917969 23.011719 15.226562 24.75 15 C 25.449219 14.910156 25.421875 16.5 26.25 16.5 C 27.078125 16.5 27.75 15.828125 27.75 15 C 27.75 14.171875 27.078125 13.5 26.25 13.5 Z M 25.304688 13.5 "/>
</g>
<clipPath id="clip2">
  <rect width="48" height="48"/>
</clipPath>
<g id="surface9" clip-path="url(#clip2)">
<path style=" stroke:none;fill-rule:nonzero;fill:rgb(25.098039%,25.098039%,25.098039%);fill-opacity:1;" d="M 34.304688 13.5 C 31.527344 13.5 29.84375 16.605469 28.78125 19.363281 L 27.449219 23.414062 L 25.753906 28.847656 C 25.226562 30.375 24.855469 32.804688 23.25 33 C 22.546875 33.085938 22.578125 31.5 21.75 31.5 C 20.921875 31.5 20.25 32.171875 20.25 33 C 20.25 33.828125 20.921875 34.5 21.75 34.5 L 22.695312 34.5 C 25.90625 34.5 27.734375 30.464844 29.109375 26.019531 L 29.878906 23.511719 L 31.109375 19.554688 C 31.746094 17.917969 32.011719 15.226562 33.75 15 C 34.449219 14.910156 34.421875 16.5 35.25 16.5 C 36.078125 16.5 36.75 15.828125 36.75 15 C 36.75 14.171875 36.078125 13.5 35.25 13.5 Z M 34.304688 13.5 "/>
</g>
</defs>
<g id="surface1">
<path style=" stroke:none;fill-rule:evenodd;fill:rgb(80%,80%,80%);fill-opacity:1;" d="M 11.210938 2.847656 L 36.789062 2.847656 C 41.410156 2.847656 45.152344 6.589844 45.152344 11.210938 L 45.152344 36.789062 C 45.152344 41.410156 41.410156 45.152344 36.789062 45.152344 L 11.210938 45.152344 C 6.589844 45.152344 2.847656 41.410156 2.847656 36.789062 L 2.847656 11.210938 C 2.847656 6.589844 6.589844 2.847656 11.210938 2.847656 Z M 11.210938 2.847656 "/>
<use xlink:href="#surface6"/>
<path style=" stroke:none;fill-rule:nonzero;fill:rgb(25.098039%,25.098039%,25.098039%);fill-opacity:1;" d="M 14.25 21 L 26.25 21 L 26.25 22.5 L 14.25 22.5 Z M 14.25 21 "/>
<use xlink:href="#surface9"/>
<path style=" stroke:none;fill-rule:nonzero;fill:rgb(25.098039%,25.098039%,25.098039%);fill-opacity:1;" d="M 23.25 21 L 35.25 21 L 35.25 22.5 L 23.25 22.5 Z M 23.25 21 "/>
</g>
</svg>
