<?xml version="1.0" encoding="UTF-8"?>
<svg xmlns="http://www.w3.org/2000/svg" xmlns:xlink="http://www.w3.org/1999/xlink" width="48pt" height="48pt" viewBox="0 0 48 48" version="1.1">
<g id="surface1">
<path style=" stroke:none;fill-rule:evenodd;fill:rgb(24.705882%,24.705882%,24.705882%);fill-opacity:1;" d="M 9.675781 17.144531 C 9.601562 17.144531 9.523438 17.148438 9.449219 17.15625 C 9.375 17.160156 9.300781 17.171875 9.230469 17.1875 C 9.15625 17.203125 9.082031 17.21875 9.011719 17.242188 C 8.9375 17.265625 8.867188 17.292969 8.800781 17.320312 C 8.730469 17.351562 8.664062 17.382812 8.597656 17.417969 C 8.53125 17.453125 8.464844 17.492188 8.402344 17.535156 C 8.34375 17.578125 8.28125 17.625 8.226562 17.671875 C 8.167969 17.722656 8.113281 17.773438 8.0625 17.824219 C 8.007812 17.878906 7.960938 17.9375 7.914062 17.996094 C 7.867188 18.054688 7.824219 18.113281 7.78125 18.175781 C 7.742188 18.242188 7.707031 18.304688 7.671875 18.375 C 7.636719 18.441406 7.605469 18.507812 7.578125 18.578125 C 7.550781 18.648438 7.527344 18.71875 7.507812 18.792969 C 7.488281 18.863281 7.46875 18.9375 7.457031 19.011719 C 7.445312 19.085938 7.4375 19.160156 7.429688 19.234375 C 7.425781 19.289062 7.425781 19.339844 7.425781 19.394531 C 7.425781 19.46875 7.429688 19.542969 7.4375 19.617188 C 7.445312 19.691406 7.453125 19.769531 7.46875 19.839844 C 7.484375 19.914062 7.503906 19.988281 7.523438 20.058594 C 7.546875 20.128906 7.574219 20.199219 7.605469 20.269531 C 7.632812 20.339844 7.664062 20.40625 7.699219 20.472656 C 7.738281 20.539062 7.777344 20.601562 7.816406 20.664062 C 7.859375 20.726562 7.90625 20.785156 7.957031 20.84375 C 8.003906 20.902344 8.054688 20.957031 8.109375 21.007812 C 8.160156 21.058594 8.21875 21.109375 8.277344 21.15625 C 8.335938 21.203125 8.398438 21.246094 8.460938 21.285156 C 8.523438 21.328125 8.589844 21.363281 8.65625 21.398438 C 8.722656 21.433594 8.789062 21.464844 8.859375 21.492188 C 8.929688 21.519531 9.003906 21.542969 9.074219 21.5625 C 9.148438 21.582031 9.21875 21.597656 9.292969 21.609375 C 9.367188 21.625 9.441406 21.632812 9.515625 21.636719 C 9.570312 21.640625 9.621094 21.644531 9.675781 21.644531 C 9.75 21.644531 9.824219 21.640625 9.902344 21.632812 C 9.976562 21.625 10.050781 21.613281 10.125 21.597656 C 10.195312 21.585938 10.269531 21.566406 10.339844 21.542969 C 10.410156 21.523438 10.480469 21.496094 10.550781 21.46875 C 10.621094 21.4375 10.6875 21.402344 10.753906 21.367188 C 10.820312 21.332031 10.882812 21.292969 10.945312 21.25 C 11.007812 21.207031 11.066406 21.164062 11.125 21.117188 C 11.183594 21.066406 11.238281 21.015625 11.289062 20.960938 C 11.34375 20.90625 11.390625 20.851562 11.4375 20.792969 C 11.484375 20.734375 11.527344 20.671875 11.566406 20.609375 C 11.609375 20.546875 11.648438 20.480469 11.683594 20.414062 C 11.714844 20.347656 11.746094 20.277344 11.773438 20.207031 C 11.800781 20.136719 11.824219 20.066406 11.84375 19.996094 C 11.863281 19.925781 11.878906 19.851562 11.894531 19.777344 C 11.90625 19.703125 11.914062 19.625 11.917969 19.550781 C 11.921875 19.5 11.925781 19.445312 11.925781 19.394531 C 11.925781 19.316406 11.921875 19.242188 11.914062 19.167969 C 11.90625 19.09375 11.894531 19.019531 11.882812 18.949219 C 11.867188 18.875 11.847656 18.800781 11.824219 18.726562 C 11.804688 18.65625 11.777344 18.585938 11.746094 18.515625 C 11.71875 18.449219 11.683594 18.378906 11.648438 18.316406 C 11.613281 18.25 11.574219 18.183594 11.53125 18.121094 C 11.492188 18.058594 11.445312 18 11.398438 17.941406 C 11.347656 17.886719 11.296875 17.832031 11.242188 17.777344 C 11.191406 17.726562 11.132812 17.679688 11.074219 17.632812 C 11.015625 17.585938 10.953125 17.542969 10.890625 17.5 C 10.828125 17.460938 10.761719 17.421875 10.695312 17.390625 C 10.628906 17.355469 10.558594 17.324219 10.488281 17.296875 C 10.421875 17.269531 10.351562 17.246094 10.277344 17.226562 C 10.207031 17.203125 10.132812 17.1875 10.058594 17.175781 C 9.984375 17.164062 9.910156 17.152344 9.832031 17.148438 C 9.78125 17.144531 9.726562 17.144531 9.675781 17.144531 Z M 9.675781 17.144531 "/>
<path style=" stroke:none;fill-rule:evenodd;fill:rgb(24.705882%,24.705882%,24.705882%);fill-opacity:1;" d="M 17.925781 15.644531 C 17.824219 15.644531 17.726562 15.648438 17.625 15.65625 C 17.527344 15.667969 17.429688 15.683594 17.332031 15.703125 C 17.234375 15.722656 17.136719 15.75 17.039062 15.777344 C 16.945312 15.808594 16.847656 15.839844 16.757812 15.878906 C 16.664062 15.917969 16.574219 15.960938 16.488281 16.007812 C 16.398438 16.058594 16.3125 16.109375 16.230469 16.167969 C 16.148438 16.222656 16.070312 16.285156 15.992188 16.347656 C 15.917969 16.414062 15.84375 16.480469 15.773438 16.554688 C 15.703125 16.625 15.636719 16.703125 15.574219 16.78125 C 15.511719 16.859375 15.453125 16.9375 15.398438 17.023438 C 15.347656 17.109375 15.296875 17.195312 15.253906 17.285156 C 15.207031 17.371094 15.167969 17.464844 15.128906 17.554688 C 15.09375 17.648438 15.0625 17.742188 15.035156 17.839844 C 15.007812 17.9375 14.984375 18.035156 14.96875 18.132812 C 14.953125 18.230469 14.941406 18.332031 14.933594 18.433594 C 14.929688 18.503906 14.925781 18.574219 14.925781 18.644531 C 14.925781 18.742188 14.929688 18.84375 14.941406 18.941406 C 14.949219 19.042969 14.964844 19.140625 14.988281 19.242188 C 15.007812 19.339844 15.03125 19.433594 15.058594 19.53125 C 15.089844 19.625 15.125 19.71875 15.164062 19.8125 C 15.199219 19.902344 15.242188 19.992188 15.292969 20.082031 C 15.339844 20.167969 15.394531 20.253906 15.449219 20.335938 C 15.507812 20.417969 15.566406 20.5 15.632812 20.578125 C 15.695312 20.652344 15.765625 20.726562 15.835938 20.796875 C 15.910156 20.867188 15.984375 20.929688 16.0625 20.992188 C 16.140625 21.054688 16.222656 21.113281 16.304688 21.167969 C 16.390625 21.222656 16.476562 21.273438 16.566406 21.316406 C 16.65625 21.363281 16.746094 21.40625 16.839844 21.441406 C 16.929688 21.476562 17.027344 21.507812 17.121094 21.535156 C 17.21875 21.5625 17.316406 21.582031 17.414062 21.597656 C 17.515625 21.617188 17.613281 21.628906 17.714844 21.636719 C 17.785156 21.640625 17.855469 21.644531 17.925781 21.644531 C 18.023438 21.644531 18.125 21.636719 18.222656 21.628906 C 18.324219 21.617188 18.425781 21.605469 18.523438 21.585938 C 18.621094 21.5625 18.71875 21.539062 18.8125 21.507812 C 18.910156 21.480469 19.003906 21.445312 19.09375 21.40625 C 19.1875 21.367188 19.277344 21.324219 19.363281 21.277344 C 19.453125 21.226562 19.535156 21.175781 19.617188 21.117188 C 19.703125 21.0625 19.78125 21 19.859375 20.9375 C 19.933594 20.875 20.007812 20.804688 20.078125 20.734375 C 20.148438 20.664062 20.214844 20.585938 20.273438 20.507812 C 20.335938 20.429688 20.394531 20.347656 20.449219 20.261719 C 20.503906 20.179688 20.554688 20.09375 20.601562 20.003906 C 20.644531 19.914062 20.6875 19.824219 20.722656 19.730469 C 20.757812 19.636719 20.789062 19.542969 20.816406 19.445312 C 20.84375 19.347656 20.863281 19.25 20.882812 19.152344 C 20.898438 19.054688 20.910156 18.957031 20.917969 18.855469 C 20.925781 18.785156 20.925781 18.714844 20.925781 18.644531 C 20.925781 18.542969 20.921875 18.445312 20.910156 18.34375 C 20.902344 18.246094 20.886719 18.144531 20.867188 18.046875 C 20.847656 17.949219 20.820312 17.855469 20.789062 17.757812 C 20.761719 17.660156 20.726562 17.566406 20.6875 17.472656 C 20.648438 17.382812 20.605469 17.292969 20.558594 17.203125 C 20.511719 17.117188 20.457031 17.03125 20.402344 16.949219 C 20.34375 16.867188 20.285156 16.785156 20.21875 16.710938 C 20.15625 16.632812 20.089844 16.5625 20.015625 16.492188 C 19.945312 16.421875 19.871094 16.355469 19.792969 16.292969 C 19.710938 16.230469 19.628906 16.171875 19.546875 16.117188 C 19.460938 16.066406 19.375 16.015625 19.289062 15.972656 C 19.199219 15.925781 19.105469 15.882812 19.011719 15.847656 C 18.917969 15.8125 18.824219 15.777344 18.726562 15.75 C 18.632812 15.726562 18.535156 15.703125 18.433594 15.6875 C 18.335938 15.671875 18.238281 15.660156 18.140625 15.652344 C 18.066406 15.644531 17.996094 15.644531 17.925781 15.644531 Z M 17.925781 15.644531 "/>
<path style=" stroke:none;fill-rule:evenodd;fill:rgb(100%,100%,100%);fill-opacity:1;" d="M 20.175781 11.144531 C 19.949219 11.144531 19.726562 11.15625 19.5 11.179688 C 19.277344 11.199219 19.054688 11.234375 18.832031 11.277344 C 18.613281 11.324219 18.394531 11.378906 18.179688 11.445312 C 17.964844 11.511719 17.753906 11.589844 17.546875 11.675781 C 17.339844 11.765625 17.136719 11.863281 16.941406 11.96875 C 16.742188 12.078125 16.550781 12.195312 16.363281 12.324219 C 16.179688 12.449219 16 12.585938 15.828125 12.730469 C 15.65625 12.875 15.488281 13.03125 15.332031 13.191406 C 15.175781 13.351562 15.027344 13.523438 14.886719 13.699219 C 14.746094 13.875 14.617188 14.054688 14.496094 14.246094 C 14.375 14.433594 14.261719 14.628906 14.160156 14.832031 C 14.058594 15.03125 13.964844 15.238281 13.886719 15.445312 C 13.804688 15.65625 13.730469 15.871094 13.671875 16.089844 C 13.613281 16.304688 13.5625 16.527344 13.523438 16.746094 C 13.488281 16.96875 13.460938 17.191406 13.441406 17.414062 C 13.429688 17.574219 13.425781 17.734375 13.425781 17.894531 C 13.425781 18.117188 13.4375 18.34375 13.460938 18.566406 C 13.484375 18.792969 13.515625 19.015625 13.558594 19.234375 C 13.605469 19.457031 13.660156 19.671875 13.726562 19.886719 C 13.792969 20.101562 13.871094 20.3125 13.957031 20.519531 C 14.046875 20.730469 14.144531 20.933594 14.25 21.128906 C 14.359375 21.328125 14.476562 21.519531 14.605469 21.703125 C 14.734375 21.890625 14.867188 22.070312 15.011719 22.242188 C 15.15625 22.414062 15.3125 22.578125 15.472656 22.734375 C 15.632812 22.894531 15.804688 23.042969 15.980469 23.179688 C 16.15625 23.320312 16.339844 23.453125 16.527344 23.574219 C 16.71875 23.695312 16.914062 23.804688 17.113281 23.90625 C 17.3125 24.011719 17.519531 24.105469 17.730469 24.1875 C 17.9375 24.265625 18.152344 24.335938 18.371094 24.398438 C 18.585938 24.457031 18.808594 24.507812 19.03125 24.546875 C 19.25 24.582031 19.472656 24.609375 19.699219 24.625 C 19.855469 24.636719 20.015625 24.644531 20.175781 24.644531 C 20.398438 24.644531 20.625 24.632812 20.847656 24.609375 C 21.074219 24.585938 21.296875 24.554688 21.515625 24.507812 C 21.738281 24.464844 21.957031 24.40625 22.171875 24.339844 C 22.386719 24.273438 22.597656 24.199219 22.804688 24.109375 C 23.011719 24.023438 23.214844 23.925781 23.414062 23.816406 C 23.609375 23.710938 23.800781 23.59375 23.988281 23.464844 C 24.171875 23.335938 24.351562 23.199219 24.523438 23.054688 C 24.695312 22.910156 24.859375 22.757812 25.019531 22.59375 C 25.175781 22.433594 25.324219 22.265625 25.464844 22.089844 C 25.601562 21.914062 25.734375 21.730469 25.855469 21.539062 C 25.976562 21.351562 26.089844 21.15625 26.191406 20.953125 C 26.292969 20.753906 26.386719 20.550781 26.46875 20.339844 C 26.550781 20.128906 26.621094 19.914062 26.679688 19.699219 C 26.738281 19.480469 26.789062 19.261719 26.828125 19.042969 C 26.867188 18.820312 26.890625 18.59375 26.90625 18.371094 C 26.917969 18.210938 26.925781 18.050781 26.925781 17.894531 C 26.925781 17.667969 26.914062 17.441406 26.894531 17.21875 C 26.871094 16.996094 26.835938 16.773438 26.789062 16.550781 C 26.746094 16.332031 26.691406 16.113281 26.625 15.898438 C 26.558594 15.683594 26.480469 15.472656 26.390625 15.265625 C 26.304688 15.058594 26.207031 14.855469 26.097656 14.660156 C 25.992188 14.460938 25.875 14.269531 25.746094 14.082031 C 25.621094 13.894531 25.484375 13.71875 25.335938 13.546875 C 25.191406 13.371094 25.039062 13.207031 24.878906 13.050781 C 24.714844 12.894531 24.546875 12.746094 24.371094 12.605469 C 24.195312 12.464844 24.011719 12.335938 23.824219 12.210938 C 23.632812 12.089844 23.4375 11.980469 23.238281 11.878906 C 23.035156 11.777344 22.832031 11.683594 22.621094 11.601562 C 22.410156 11.519531 22.199219 11.449219 21.980469 11.390625 C 21.765625 11.328125 21.542969 11.28125 21.324219 11.242188 C 21.101562 11.203125 20.878906 11.175781 20.652344 11.160156 C 20.492188 11.148438 20.335938 11.144531 20.175781 11.144531 Z M 17.925781 15.644531 C 17.996094 15.644531 18.066406 15.644531 18.140625 15.652344 C 18.238281 15.660156 18.335938 15.671875 18.433594 15.6875 C 18.535156 15.703125 18.632812 15.726562 18.726562 15.75 C 18.824219 15.777344 18.917969 15.8125 19.011719 15.847656 C 19.105469 15.882812 19.199219 15.925781 19.289062 15.972656 C 19.375 16.015625 19.460938 16.066406 19.546875 16.117188 C 19.628906 16.171875 19.710938 16.230469 19.792969 16.292969 C 19.871094 16.355469 19.945312 16.421875 20.015625 16.492188 C 20.089844 16.5625 20.15625 16.632812 20.21875 16.710938 C 20.285156 16.785156 20.34375 16.867188 20.402344 16.949219 C 20.457031 17.03125 20.511719 17.117188 20.558594 17.203125 C 20.605469 17.292969 20.648438 17.382812 20.6875 17.472656 C 20.726562 17.566406 20.761719 17.660156 20.789062 17.757812 C 20.820312 17.855469 20.847656 17.949219 20.867188 18.046875 C 20.886719 18.144531 20.902344 18.246094 20.910156 18.34375 C 20.921875 18.445312 20.925781 18.542969 20.925781 18.644531 C 20.925781 18.714844 20.925781 18.785156 20.917969 18.855469 C 20.910156 18.957031 20.898438 19.054688 20.882812 19.152344 C 20.863281 19.25 20.84375 19.347656 20.816406 19.445312 C 20.789062 19.542969 20.757812 19.636719 20.722656 19.730469 C 20.6875 19.824219 20.644531 19.914062 20.601562 20.003906 C 20.554688 20.09375 20.503906 20.179688 20.449219 20.261719 C 20.394531 20.347656 20.335938 20.429688 20.273438 20.507812 C 20.214844 20.585938 20.148438 20.664062 20.078125 20.734375 C 20.007812 20.804688 19.933594 20.875 19.859375 20.9375 C 19.78125 21 19.703125 21.0625 19.617188 21.117188 C 19.535156 21.175781 19.453125 21.226562 19.363281 21.277344 C 19.277344 21.324219 19.1875 21.367188 19.09375 21.40625 C 19.003906 21.445312 18.910156 21.480469 18.8125 21.507812 C 18.71875 21.539062 18.621094 21.5625 18.523438 21.585938 C 18.425781 21.605469 18.324219 21.617188 18.222656 21.628906 C 18.125 21.636719 18.023438 21.644531 17.925781 21.644531 C 17.855469 21.644531 17.785156 21.640625 17.714844 21.636719 C 17.613281 21.628906 17.515625 21.617188 17.414062 21.597656 C 17.316406 21.582031 17.21875 21.5625 17.121094 21.535156 C 17.027344 21.507812 16.929688 21.476562 16.839844 21.441406 C 16.746094 21.40625 16.65625 21.363281 16.566406 21.316406 C 16.476562 21.273438 16.390625 21.222656 16.304688 21.167969 C 16.222656 21.113281 16.140625 21.054688 16.0625 20.992188 C 15.984375 20.929688 15.910156 20.867188 15.835938 20.796875 C 15.765625 20.726562 15.695312 20.652344 15.632812 20.578125 C 15.566406 20.5 15.507812 20.417969 15.449219 20.335938 C 15.394531 20.253906 15.339844 20.167969 15.292969 20.082031 C 15.246094 19.992188 15.199219 19.902344 15.164062 19.8125 C 15.125 19.71875 15.089844 19.625 15.058594 19.53125 C 15.03125 19.433594 15.007812 19.339844 14.988281 19.242188 C 14.964844 19.140625 14.949219 19.042969 14.941406 18.941406 C 14.929688 18.84375 14.925781 18.742188 14.925781 18.644531 C 14.925781 18.574219 14.929688 18.503906 14.933594 18.433594 C 14.941406 18.332031 14.953125 18.230469 14.96875 18.132812 C 14.984375 18.035156 15.007812 17.9375 15.035156 17.839844 C 15.0625 17.746094 15.09375 17.648438 15.128906 17.554688 C 15.167969 17.464844 15.207031 17.371094 15.253906 17.285156 C 15.296875 17.195312 15.347656 17.109375 15.398438 17.023438 C 15.453125 16.9375 15.511719 16.859375 15.574219 16.78125 C 15.636719 16.703125 15.703125 16.625 15.773438 16.554688 C 15.84375 16.480469 15.917969 16.414062 15.992188 16.347656 C 16.070312 16.285156 16.148438 16.222656 16.230469 16.167969 C 16.3125 16.109375 16.398438 16.058594 16.488281 16.007812 C 16.574219 15.960938 16.664062 15.917969 16.757812 15.878906 C 16.847656 15.839844 16.945312 15.808594 17.039062 15.777344 C 17.136719 15.75 17.234375 15.722656 17.332031 15.703125 C 17.429688 15.683594 17.527344 15.667969 17.625 15.65625 C 17.726562 15.648438 17.824219 15.644531 17.925781 15.644531 Z M 17.925781 15.644531 "/>
<path style=" stroke:none;fill-rule:evenodd;fill:rgb(100%,100%,100%);fill-opacity:1;" d="M 13.808594 15.679688 C 13.730469 15.589844 13.648438 15.5 13.558594 15.414062 C 13.453125 15.308594 13.339844 15.210938 13.222656 15.117188 C 13.105469 15.027344 12.984375 14.9375 12.855469 14.859375 C 12.730469 14.777344 12.601562 14.699219 12.46875 14.632812 C 12.332031 14.566406 12.195312 14.503906 12.058594 14.449219 C 11.917969 14.394531 11.773438 14.347656 11.628906 14.308594 C 11.484375 14.265625 11.339844 14.234375 11.191406 14.207031 C 11.042969 14.183594 10.894531 14.164062 10.746094 14.15625 C 10.636719 14.148438 10.53125 14.144531 10.425781 14.144531 C 10.277344 14.144531 10.125 14.152344 9.976562 14.167969 C 9.828125 14.179688 9.679688 14.203125 9.53125 14.234375 C 9.382812 14.265625 9.238281 14.300781 9.09375 14.34375 C 8.953125 14.390625 8.8125 14.441406 8.671875 14.496094 C 8.535156 14.554688 8.402344 14.621094 8.269531 14.695312 C 8.136719 14.765625 8.007812 14.84375 7.886719 14.929688 C 7.761719 15.011719 7.640625 15.105469 7.527344 15.199219 C 7.414062 15.296875 7.300781 15.398438 7.195312 15.507812 C 7.09375 15.617188 6.992188 15.726562 6.902344 15.84375 C 6.808594 15.960938 6.722656 16.085938 6.640625 16.210938 C 6.558594 16.335938 6.484375 16.46875 6.414062 16.601562 C 6.347656 16.734375 6.285156 16.875 6.234375 17.015625 C 6.179688 17.152344 6.128906 17.296875 6.089844 17.4375 C 6.050781 17.582031 6.015625 17.730469 5.988281 17.878906 C 5.964844 18.027344 5.945312 18.175781 5.9375 18.324219 C 5.929688 18.429688 5.925781 18.535156 5.925781 18.644531 C 5.925781 18.792969 5.933594 18.941406 5.949219 19.089844 C 5.964844 19.242188 5.984375 19.390625 6.015625 19.535156 C 6.046875 19.683594 6.082031 19.828125 6.128906 19.972656 C 6.171875 20.117188 6.222656 20.257812 6.28125 20.394531 C 6.339844 20.535156 6.402344 20.667969 6.476562 20.800781 C 6.546875 20.933594 6.625 21.058594 6.710938 21.183594 C 6.796875 21.308594 6.886719 21.429688 6.984375 21.542969 C 7.078125 21.65625 7.183594 21.765625 7.289062 21.871094 C 7.398438 21.976562 7.511719 22.074219 7.628906 22.167969 C 7.746094 22.261719 7.867188 22.347656 7.992188 22.429688 C 8.121094 22.511719 8.25 22.585938 8.382812 22.652344 C 8.519531 22.722656 8.65625 22.785156 8.796875 22.839844 C 8.9375 22.890625 9.078125 22.9375 9.222656 22.980469 C 9.367188 23.019531 9.511719 23.054688 9.660156 23.078125 C 9.808594 23.105469 9.957031 23.121094 10.105469 23.132812 C 10.210938 23.140625 10.320312 23.144531 10.425781 23.144531 C 10.574219 23.144531 10.726562 23.136719 10.875 23.121094 C 11.023438 23.105469 11.171875 23.085938 11.320312 23.054688 C 11.464844 23.023438 11.613281 22.988281 11.753906 22.945312 C 11.898438 22.898438 12.039062 22.847656 12.175781 22.789062 C 12.316406 22.730469 12.453125 22.664062 12.585938 22.59375 C 12.714844 22.519531 12.84375 22.441406 12.964844 22.359375 C 13.089844 22.273438 13.210938 22.183594 13.324219 22.085938 C 13.441406 21.988281 13.550781 21.886719 13.652344 21.777344 C 13.757812 21.671875 13.855469 21.558594 13.949219 21.441406 C 14.042969 21.324219 14.132812 21.199219 14.214844 21.074219 C 14.214844 21.070312 14.21875 21.066406 14.21875 21.0625 C 14.125 20.886719 14.039062 20.707031 13.957031 20.519531 C 13.871094 20.3125 13.792969 20.101562 13.726562 19.886719 C 13.660156 19.671875 13.605469 19.457031 13.558594 19.234375 C 13.515625 19.015625 13.484375 18.792969 13.460938 18.566406 C 13.4375 18.34375 13.425781 18.117188 13.425781 17.894531 C 13.425781 17.734375 13.429688 17.574219 13.441406 17.414062 C 13.460938 17.191406 13.488281 16.96875 13.523438 16.746094 C 13.5625 16.527344 13.613281 16.304688 13.671875 16.089844 C 13.714844 15.953125 13.757812 15.816406 13.808594 15.679688 Z M 9.675781 17.144531 C 9.726562 17.144531 9.78125 17.144531 9.832031 17.148438 C 9.910156 17.152344 9.984375 17.164062 10.058594 17.175781 C 10.132812 17.1875 10.207031 17.203125 10.277344 17.226562 C 10.351562 17.246094 10.421875 17.269531 10.488281 17.296875 C 10.558594 17.324219 10.628906 17.355469 10.695312 17.390625 C 10.761719 17.421875 10.828125 17.460938 10.890625 17.5 C 10.953125 17.542969 11.015625 17.585938 11.074219 17.632812 C 11.132812 17.679688 11.191406 17.726562 11.242188 17.777344 C 11.296875 17.832031 11.347656 17.886719 11.398438 17.941406 C 11.445312 18 11.492188 18.058594 11.53125 18.121094 C 11.574219 18.183594 11.613281 18.25 11.648438 18.316406 C 11.683594 18.378906 11.71875 18.449219 11.746094 18.515625 C 11.777344 18.585938 11.804688 18.65625 11.824219 18.726562 C 11.847656 18.800781 11.867188 18.875 11.882812 18.949219 C 11.894531 19.019531 11.90625 19.09375 11.914062 19.167969 C 11.921875 19.242188 11.925781 19.316406 11.925781 19.394531 C 11.925781 19.445312 11.921875 19.5 11.917969 19.550781 C 11.914062 19.625 11.90625 19.703125 11.894531 19.777344 C 11.878906 19.851562 11.863281 19.925781 11.84375 19.996094 C 11.824219 20.066406 11.800781 20.136719 11.773438 20.207031 C 11.746094 20.277344 11.714844 20.347656 11.683594 20.414062 C 11.648438 20.480469 11.609375 20.546875 11.566406 20.609375 C 11.527344 20.671875 11.484375 20.734375 11.4375 20.792969 C 11.390625 20.851562 11.34375 20.90625 11.289062 20.960938 C 11.238281 21.015625 11.183594 21.066406 11.125 21.117188 C 11.066406 21.164062 11.007812 21.207031 10.945312 21.25 C 10.882812 21.292969 10.820312 21.332031 10.753906 21.367188 C 10.6875 21.402344 10.621094 21.4375 10.550781 21.46875 C 10.480469 21.496094 10.410156 21.523438 10.339844 21.542969 C 10.269531 21.566406 10.195312 21.585938 10.125 21.597656 C 10.050781 21.613281 9.976562 21.625 9.902344 21.632812 C 9.824219 21.640625 9.75 21.644531 9.675781 21.644531 C 9.621094 21.644531 9.570312 21.640625 9.515625 21.636719 C 9.441406 21.632812 9.367188 21.625 9.292969 21.609375 C 9.21875 21.597656 9.148438 21.582031 9.074219 21.5625 C 9.003906 21.542969 8.929688 21.519531 8.859375 21.492188 C 8.789062 21.464844 8.722656 21.433594 8.65625 21.398438 C 8.589844 21.363281 8.523438 21.328125 8.460938 21.285156 C 8.398438 21.246094 8.335938 21.203125 8.277344 21.15625 C 8.21875 21.109375 8.160156 21.058594 8.109375 21.007812 C 8.054688 20.957031 8.003906 20.902344 7.957031 20.84375 C 7.90625 20.785156 7.859375 20.726562 7.816406 20.664062 C 7.777344 20.601562 7.738281 20.539062 7.699219 20.472656 C 7.664062 20.40625 7.632812 20.339844 7.605469 20.269531 C 7.574219 20.199219 7.546875 20.128906 7.523438 20.058594 C 7.503906 19.988281 7.484375 19.914062 7.46875 19.839844 C 7.453125 19.769531 7.445312 19.691406 7.4375 19.617188 C 7.429688 19.542969 7.425781 19.46875 7.425781 19.394531 C 7.425781 19.339844 7.425781 19.289062 7.429688 19.234375 C 7.4375 19.160156 7.445312 19.085938 7.457031 19.011719 C 7.46875 18.9375 7.488281 18.863281 7.507812 18.792969 C 7.527344 18.71875 7.550781 18.648438 7.578125 18.578125 C 7.605469 18.507812 7.636719 18.441406 7.671875 18.375 C 7.707031 18.304688 7.742188 18.242188 7.78125 18.175781 C 7.824219 18.113281 7.867188 18.054688 7.914062 17.996094 C 7.960938 17.9375 8.007812 17.878906 8.0625 17.824219 C 8.113281 17.773438 8.167969 17.722656 8.226562 17.671875 C 8.28125 17.625 8.34375 17.578125 8.402344 17.535156 C 8.464844 17.492188 8.53125 17.453125 8.597656 17.417969 C 8.664062 17.382812 8.730469 17.351562 8.800781 17.320312 C 8.867188 17.292969 8.9375 17.265625 9.011719 17.242188 C 9.082031 17.21875 9.15625 17.203125 9.230469 17.1875 C 9.300781 17.171875 9.375 17.160156 9.449219 17.15625 C 9.523438 17.148438 9.601562 17.144531 9.675781 17.144531 Z M 9.675781 17.144531 "/>
<path style=" stroke:none;fill-rule:evenodd;fill:rgb(55.686275%,55.686275%,55.686275%);fill-opacity:1;" d="M 13.484375 21.9375 C 13.953125 21.960938 14.363281 21.964844 14.835938 22.007812 C 14.757812 21.910156 14.679688 21.808594 14.605469 21.703125 C 14.476562 21.519531 14.359375 21.328125 14.25 21.128906 C 14.242188 21.109375 14.230469 21.085938 14.21875 21.0625 C 14.21875 21.066406 14.214844 21.070312 14.214844 21.074219 C 14.132812 21.199219 14.042969 21.324219 13.949219 21.441406 C 13.855469 21.558594 13.757812 21.671875 13.652344 21.777344 C 13.597656 21.832031 13.542969 21.882812 13.484375 21.9375 Z M 13.484375 21.9375 "/>
<path style=" stroke:none;fill-rule:evenodd;fill:rgb(100%,75.686275%,0.784314%);fill-opacity:1;" d="M 7.992188 22.429688 C 7.9375 22.492188 7.730469 22.484375 7.691406 22.558594 C 7.449219 23.050781 7.484375 23.800781 7.4375 24.949219 C 7.390625 26.25 7.460938 27.730469 7.816406 28.992188 C 7.992188 29.625 8.238281 30.203125 8.578125 30.679688 C 8.914062 31.152344 9.34375 31.523438 9.886719 31.742188 C 11.011719 32.195312 12.421875 32.242188 13.882812 31.992188 C 15.34375 31.738281 16.859375 31.183594 18.199219 30.429688 C 19.539062 29.675781 20.703125 28.726562 21.46875 27.679688 C 21.851562 27.160156 22.136719 26.613281 22.289062 26.054688 C 22.445312 25.496094 22.472656 24.925781 22.34375 24.363281 C 22.339844 24.339844 22.28125 24.324219 22.273438 24.304688 C 22.238281 24.316406 22.203125 24.328125 22.171875 24.339844 C 21.957031 24.40625 21.738281 24.464844 21.515625 24.507812 C 21.296875 24.554688 21.074219 24.585938 20.847656 24.609375 C 20.625 24.632812 20.398438 24.644531 20.175781 24.644531 C 20.015625 24.644531 19.855469 24.636719 19.699219 24.625 C 19.472656 24.609375 19.25 24.582031 19.03125 24.546875 C 18.808594 24.507812 18.585938 24.457031 18.371094 24.398438 C 18.152344 24.335938 17.9375 24.265625 17.730469 24.1875 C 17.519531 24.105469 17.3125 24.011719 17.113281 23.90625 C 16.914062 23.804688 16.71875 23.695312 16.527344 23.574219 C 16.339844 23.453125 16.15625 23.320312 15.980469 23.179688 C 15.804688 23.042969 15.632812 22.894531 15.472656 22.734375 C 15.3125 22.578125 15.15625 22.414062 15.011719 22.242188 C 14.953125 22.164062 14.894531 22.085938 14.835938 22.007812 C 14.363281 21.964844 13.953125 21.960938 13.484375 21.9375 C 13.433594 21.988281 13.378906 22.035156 13.324219 22.085938 C 13.210938 22.183594 13.089844 22.273438 12.964844 22.359375 C 12.84375 22.441406 12.714844 22.519531 12.585938 22.59375 C 12.453125 22.664062 12.316406 22.730469 12.175781 22.789062 C 12.039062 22.847656 11.898438 22.898438 11.753906 22.945312 C 11.613281 22.988281 11.464844 23.027344 11.320312 23.054688 C 11.171875 23.085938 11.023438 23.105469 10.875 23.121094 C 10.726562 23.136719 10.574219 23.144531 10.425781 23.144531 C 10.320312 23.144531 10.210938 23.140625 10.105469 23.132812 C 9.957031 23.121094 9.808594 23.105469 9.660156 23.078125 C 9.511719 23.054688 9.367188 23.019531 9.222656 22.980469 C 9.078125 22.9375 8.9375 22.890625 8.796875 22.839844 C 8.65625 22.785156 8.519531 22.722656 8.382812 22.652344 C 8.25 22.585938 8.121094 22.511719 7.992188 22.429688 Z M 7.992188 22.429688 "/>
<path style=" stroke:none;fill-rule:evenodd;fill:rgb(98.823529%,97.254902%,99.215686%);fill-opacity:1;" d="M 10.460938 31.777344 C 10.453125 31.824219 10.449219 31.871094 10.441406 31.917969 C 10.425781 32.179688 10.421875 32.449219 10.429688 32.71875 C 10.441406 32.988281 10.464844 33.257812 10.503906 33.53125 C 10.542969 33.804688 10.59375 34.078125 10.660156 34.355469 C 10.722656 34.628906 10.804688 34.90625 10.894531 35.179688 C 10.984375 35.453125 11.089844 35.722656 11.207031 35.992188 C 11.324219 36.261719 11.453125 36.53125 11.59375 36.796875 C 11.734375 37.058594 11.886719 37.316406 12.050781 37.570312 C 12.214844 37.824219 12.390625 38.070312 12.574219 38.3125 C 12.761719 38.554688 12.953125 38.789062 13.160156 39.019531 C 13.363281 39.246094 13.578125 39.46875 13.800781 39.679688 C 13.957031 39.828125 14.117188 39.972656 14.285156 40.113281 C 14.515625 40.308594 14.753906 40.5 15 40.675781 C 15.246094 40.855469 15.5 41.023438 15.757812 41.179688 C 16.015625 41.335938 16.277344 41.480469 16.542969 41.613281 C 16.808594 41.75 17.078125 41.871094 17.347656 41.976562 C 17.621094 42.085938 17.894531 42.179688 18.167969 42.261719 C 18.441406 42.34375 18.71875 42.414062 18.992188 42.46875 C 19.265625 42.527344 19.542969 42.570312 19.816406 42.597656 C 20.085938 42.628906 20.355469 42.640625 20.625 42.644531 C 20.890625 42.644531 21.15625 42.632812 21.414062 42.605469 C 21.675781 42.578125 21.929688 42.539062 22.179688 42.488281 C 22.425781 42.433594 22.671875 42.367188 22.90625 42.285156 C 23.140625 42.207031 23.371094 42.113281 23.589844 42.007812 C 23.8125 41.902344 24.027344 41.785156 24.230469 41.652344 C 24.433594 41.523438 24.625 41.378906 24.808594 41.226562 C 24.996094 41.070312 25.167969 40.902344 25.332031 40.726562 C 25.445312 40.601562 25.554688 40.472656 25.660156 40.335938 C 25.804688 40.148438 25.9375 39.945312 26.0625 39.738281 C 26.183594 39.527344 26.292969 39.308594 26.390625 39.082031 C 26.488281 38.859375 26.574219 38.625 26.644531 38.382812 C 26.714844 38.140625 26.773438 37.894531 26.820312 37.640625 C 26.863281 37.390625 26.894531 37.132812 26.910156 36.867188 C 26.925781 36.605469 26.929688 36.339844 26.917969 36.070312 C 26.910156 35.800781 26.882812 35.53125 26.847656 35.257812 C 26.808594 34.984375 26.757812 34.707031 26.695312 34.429688 C 26.628906 34.15625 26.550781 33.882812 26.460938 33.609375 C 26.367188 33.335938 26.261719 33.0625 26.144531 32.792969 C 26.03125 32.523438 25.898438 32.257812 25.757812 31.992188 C 25.617188 31.730469 25.464844 31.472656 25.300781 31.21875 C 25.136719 30.964844 24.964844 30.714844 24.777344 30.472656 C 24.59375 30.230469 24.398438 29.996094 24.191406 29.765625 C 23.988281 29.539062 23.773438 29.320312 23.554688 29.109375 C 23.394531 28.957031 23.234375 28.8125 23.070312 28.675781 C 22.835938 28.476562 22.597656 28.289062 22.351562 28.109375 C 22.105469 27.929688 21.855469 27.765625 21.597656 27.609375 C 21.574219 27.59375 21.550781 27.582031 21.527344 27.570312 C 21.5 27.605469 21.496094 27.644531 21.46875 27.679688 C 20.703125 28.726562 19.539062 29.675781 18.199219 30.429688 C 16.859375 31.183594 15.34375 31.738281 13.882812 31.992188 C 12.632812 32.207031 11.492188 32.066406 10.460938 31.777344 Z M 10.460938 31.777344 "/>
<path style=" stroke:none;fill-rule:evenodd;fill:rgb(55.686275%,55.686275%,55.686275%);fill-opacity:1;" d="M 12.984375 38.8125 C 12.84375 38.648438 12.707031 38.484375 12.574219 38.3125 C 12.390625 38.070312 12.214844 37.824219 12.050781 37.570312 C 11.886719 37.316406 11.734375 37.058594 11.59375 36.796875 C 11.453125 36.53125 11.324219 36.261719 11.207031 35.992188 C 11.089844 35.722656 10.984375 35.453125 10.894531 35.179688 C 10.804688 34.90625 10.722656 34.628906 10.660156 34.355469 C 10.59375 34.078125 10.542969 33.804688 10.503906 33.53125 C 10.464844 33.257812 10.441406 32.988281 10.429688 32.71875 C 10.421875 32.449219 10.425781 32.179688 10.441406 31.917969 C 10.449219 31.871094 10.453125 31.824219 10.460938 31.777344 C 10.300781 31.730469 10.089844 31.785156 9.929688 31.746094 C 9.964844 31.851562 9.96875 31.964844 10.003906 32.074219 C 10.066406 33.183594 10.308594 34.246094 10.691406 35.253906 C 11.074219 36.261719 11.601562 37.21875 12.242188 38.113281 C 12.433594 38.382812 12.773438 38.554688 12.984375 38.8125 Z M 12.984375 38.8125 "/>
<path style=" stroke:none;fill-rule:evenodd;fill:rgb(55.686275%,55.686275%,55.686275%);fill-opacity:1;" d="M 42.964844 42.328125 C 42.507812 42.648438 42.191406 42.957031 41.691406 43.269531 C 40.75 43.855469 39.609375 44.289062 38.546875 44.800781 C 40.285156 44.417969 41.820312 43.605469 42.964844 42.328125 Z M 42.964844 42.328125 "/>
<path style=" stroke:none;fill-rule:evenodd;fill:rgb(39.215686%,15.686275%,48.235294%);fill-opacity:1;" d="M 44.671875 20.367188 C 44.085938 19.988281 43.59375 19.511719 42.96875 19.1875 C 41.359375 18.355469 39.652344 17.6875 37.988281 17.144531 L 32.925781 23.203125 C 33.75 23.796875 34.171875 25.234375 35.121094 25.929688 C 37.367188 27.582031 39.894531 28.992188 42.550781 30.058594 C 43.390625 30.398438 44.292969 30.453125 45.152344 30.71875 L 45.152344 21.183594 C 44.992188 20.902344 44.832031 20.652344 44.671875 20.367188 Z M 44.671875 20.367188 "/>
<path style=" stroke:none;fill-rule:evenodd;fill:rgb(49.019608%,19.607843%,60.392157%);fill-opacity:1;" d="M 25.453125 5.144531 C 24.195312 5.160156 22.617188 5.691406 20.941406 6.628906 C 19.265625 7.566406 17.492188 8.910156 15.835938 10.5625 C 14.636719 11.757812 13.648438 13.265625 12.65625 14.742188 C 12.726562 14.78125 12.792969 14.816406 12.855469 14.859375 C 12.984375 14.9375 13.105469 15.027344 13.222656 15.117188 C 13.339844 15.210938 13.453125 15.308594 13.558594 15.414062 C 13.648438 15.5 13.730469 15.589844 13.808594 15.679688 C 13.832031 15.601562 13.859375 15.523438 13.886719 15.445312 C 13.964844 15.238281 14.058594 15.03125 14.160156 14.832031 C 14.261719 14.628906 14.375 14.433594 14.496094 14.246094 C 14.617188 14.054688 14.746094 13.875 14.886719 13.699219 C 15.027344 13.523438 15.175781 13.351562 15.332031 13.191406 C 15.488281 13.03125 15.65625 12.875 15.828125 12.730469 C 16 12.585938 16.179688 12.449219 16.363281 12.324219 C 16.550781 12.195312 16.742188 12.078125 16.941406 11.96875 C 17.136719 11.863281 17.339844 11.765625 17.546875 11.675781 C 17.753906 11.589844 17.964844 11.511719 18.179688 11.445312 C 18.394531 11.378906 18.613281 11.324219 18.832031 11.277344 C 19.054688 11.234375 19.277344 11.199219 19.5 11.179688 C 19.726562 11.15625 19.949219 11.144531 20.175781 11.144531 C 20.335938 11.144531 20.492188 11.148438 20.652344 11.160156 C 20.878906 11.175781 21.101562 11.203125 21.324219 11.242188 C 21.542969 11.28125 21.765625 11.328125 21.980469 11.390625 C 22.199219 11.449219 22.410156 11.519531 22.621094 11.601562 C 22.832031 11.683594 23.035156 11.777344 23.238281 11.878906 C 23.4375 11.980469 23.632812 12.089844 23.824219 12.210938 C 24.011719 12.335938 24.195312 12.464844 24.371094 12.605469 C 24.546875 12.746094 24.714844 12.894531 24.878906 13.050781 C 25.039062 13.207031 25.191406 13.371094 25.335938 13.546875 C 25.484375 13.71875 25.621094 13.894531 25.746094 14.082031 C 25.875 14.269531 25.992188 14.460938 26.097656 14.660156 C 26.207031 14.855469 26.304688 15.058594 26.390625 15.265625 C 26.480469 15.472656 26.558594 15.683594 26.625 15.898438 C 26.691406 16.113281 26.746094 16.332031 26.789062 16.550781 C 26.835938 16.773438 26.871094 16.996094 26.894531 17.21875 C 26.914062 17.441406 26.925781 17.667969 26.925781 17.894531 C 26.925781 18.050781 26.917969 18.210938 26.90625 18.371094 C 26.890625 18.59375 26.867188 18.820312 26.828125 19.042969 C 26.789062 19.261719 26.738281 19.480469 26.679688 19.699219 C 26.621094 19.914062 26.550781 20.128906 26.46875 20.339844 C 26.386719 20.550781 26.292969 20.753906 26.191406 20.953125 C 26.089844 21.15625 25.976562 21.351562 25.855469 21.539062 C 25.734375 21.730469 25.601562 21.914062 25.464844 22.089844 C 25.324219 22.265625 25.175781 22.433594 25.019531 22.59375 C 24.859375 22.757812 24.695312 22.910156 24.523438 23.054688 C 24.351562 23.199219 24.171875 23.335938 23.988281 23.464844 C 23.800781 23.59375 23.609375 23.710938 23.414062 23.816406 C 23.214844 23.925781 23.011719 24.023438 22.804688 24.109375 C 22.628906 24.183594 22.453125 24.246094 22.273438 24.304688 C 22.28125 24.324219 22.339844 24.339844 22.34375 24.363281 C 22.472656 24.925781 22.445312 25.496094 22.289062 26.054688 C 22.144531 26.574219 21.871094 27.078125 21.527344 27.570312 C 21.550781 27.582031 21.574219 27.59375 21.597656 27.609375 C 21.851562 27.765625 22.105469 27.929688 22.351562 28.109375 C 22.597656 28.289062 22.835938 28.476562 23.070312 28.675781 C 23.234375 28.8125 23.394531 28.957031 23.554688 29.109375 C 23.773438 29.320312 23.988281 29.539062 24.191406 29.765625 C 24.398438 29.996094 24.59375 30.230469 24.777344 30.472656 C 24.964844 30.714844 25.136719 30.964844 25.300781 31.21875 C 25.464844 31.472656 25.617188 31.730469 25.757812 31.992188 C 25.898438 32.257812 26.027344 32.523438 26.144531 32.792969 C 26.261719 33.0625 26.367188 33.335938 26.460938 33.609375 C 26.550781 33.882812 26.628906 34.15625 26.695312 34.429688 C 26.757812 34.707031 26.808594 34.984375 26.847656 35.257812 C 26.882812 35.53125 26.910156 35.800781 26.917969 36.070312 C 26.929688 36.339844 26.925781 36.605469 26.910156 36.867188 C 26.894531 37.132812 26.863281 37.390625 26.820312 37.640625 C 26.773438 37.894531 26.714844 38.140625 26.644531 38.382812 C 26.574219 38.625 26.488281 38.859375 26.390625 39.082031 C 26.292969 39.308594 26.183594 39.527344 26.0625 39.738281 C 25.9375 39.945312 25.804688 40.148438 25.660156 40.335938 C 25.554688 40.472656 25.445312 40.601562 25.332031 40.726562 C 25.167969 40.902344 24.996094 41.070312 24.808594 41.226562 C 24.625 41.378906 24.433594 41.523438 24.230469 41.652344 C 24.027344 41.785156 23.8125 41.902344 23.589844 42.007812 C 23.371094 42.113281 23.140625 42.207031 22.90625 42.285156 C 22.671875 42.367188 22.425781 42.433594 22.179688 42.488281 C 21.929688 42.539062 21.675781 42.578125 21.414062 42.605469 C 21.15625 42.632812 20.890625 42.644531 20.625 42.644531 C 20.355469 42.640625 20.085938 42.628906 19.816406 42.597656 C 19.542969 42.570312 19.265625 42.527344 18.992188 42.46875 C 18.71875 42.414062 18.441406 42.34375 18.167969 42.261719 C 17.894531 42.179688 17.621094 42.085938 17.347656 41.976562 C 17.078125 41.871094 16.808594 41.75 16.542969 41.613281 C 16.277344 41.480469 16.015625 41.335938 15.757812 41.179688 C 15.5 41.023438 15.246094 40.855469 15 40.675781 C 14.957031 40.644531 14.914062 40.609375 14.871094 40.578125 C 15.671875 41.300781 16.292969 42.152344 17.210938 42.761719 C 18.726562 43.773438 20.410156 44.476562 22.066406 45.152344 L 36.789062 45.152344 C 37.414062 45.152344 37.960938 44.929688 38.546875 44.800781 C 39.609375 44.289062 40.75 43.855469 41.691406 43.269531 C 42.191406 42.957031 42.507812 42.648438 42.964844 42.328125 C 44.289062 40.851562 45.152344 38.941406 45.152344 36.789062 L 45.152344 30.71875 C 44.292969 30.453125 43.390625 30.398438 42.550781 30.058594 C 39.894531 28.992188 37.367188 27.582031 35.121094 25.929688 C 34.171875 25.234375 33.75 23.796875 32.925781 23.203125 L 37.988281 17.144531 C 39.652344 17.6875 41.359375 18.355469 42.96875 19.1875 C 43.59375 19.511719 44.085938 19.988281 44.671875 20.367188 C 44.242188 19.597656 43.816406 18.804688 43.382812 18.164062 C 42.34375 16.636719 41.082031 15.210938 39.679688 13.898438 C 38.273438 12.582031 36.726562 11.378906 35.121094 10.289062 C 31.914062 8.105469 28.472656 6.375 25.453125 5.144531 Z M 25.453125 5.144531 "/>
<path style=" stroke:none;fill-rule:evenodd;fill:rgb(49.019608%,19.607843%,60.392157%);fill-opacity:1;" d="M 9.140625 31.136719 C 8.351562 33.386719 7.660156 35.6875 7.425781 38.007812 C 8.484375 38.160156 9.480469 38.179688 10.40625 38.085938 C 10.984375 38.023438 11.492188 37.847656 12.019531 37.703125 C 11.5 36.921875 11.019531 36.117188 10.691406 35.253906 C 10.308594 34.246094 10.066406 33.183594 10.003906 32.074219 C 9.96875 31.964844 9.964844 31.851562 9.929688 31.746094 C 9.917969 31.742188 9.898438 31.746094 9.886719 31.742188 C 9.578125 31.617188 9.382812 31.351562 9.140625 31.136719 Z M 9.140625 31.136719 "/>
<path style=" stroke:none;fill-rule:evenodd;fill:rgb(40%,40%,40%);fill-opacity:1;" d="M 11.210938 2.847656 C 6.578125 2.847656 2.847656 6.578125 2.847656 11.210938 L 2.847656 36.789062 C 2.847656 41.421875 6.578125 45.152344 11.210938 45.152344 L 22.066406 45.152344 C 20.410156 44.476562 18.726562 43.773438 17.210938 42.761719 C 16.292969 42.152344 15.671875 41.300781 14.871094 40.578125 C 14.671875 40.429688 14.476562 40.273438 14.285156 40.113281 C 14.117188 39.972656 13.957031 39.828125 13.800781 39.679688 C 13.578125 39.46875 13.363281 39.246094 13.160156 39.019531 C 13.101562 38.949219 13.042969 38.882812 12.984375 38.8125 C 12.773438 38.554688 12.433594 38.382812 12.242188 38.113281 C 12.148438 37.984375 12.105469 37.835938 12.019531 37.703125 C 11.492188 37.847656 10.984375 38.023438 10.40625 38.085938 C 9.480469 38.179688 8.484375 38.160156 7.425781 38.007812 C 7.660156 35.6875 8.351562 33.386719 9.140625 31.136719 C 8.960938 30.976562 8.722656 30.882812 8.578125 30.679688 C 8.238281 30.203125 7.992188 29.625 7.816406 28.992188 C 7.460938 27.730469 7.390625 26.25 7.4375 24.949219 C 7.484375 23.800781 7.449219 23.050781 7.691406 22.558594 C 7.730469 22.484375 7.9375 22.492188 7.992188 22.429688 C 7.867188 22.347656 7.742188 22.261719 7.628906 22.167969 C 7.511719 22.074219 7.398438 21.976562 7.289062 21.871094 C 7.183594 21.765625 7.078125 21.65625 6.984375 21.542969 C 6.886719 21.429688 6.796875 21.308594 6.710938 21.183594 C 6.625 21.058594 6.546875 20.933594 6.476562 20.800781 C 6.402344 20.667969 6.339844 20.535156 6.28125 20.394531 C 6.222656 20.257812 6.171875 20.117188 6.128906 19.972656 C 6.082031 19.828125 6.046875 19.683594 6.015625 19.535156 C 5.984375 19.390625 5.964844 19.242188 5.949219 19.089844 C 5.933594 18.941406 5.925781 18.792969 5.925781 18.644531 C 5.925781 18.535156 5.929688 18.429688 5.9375 18.324219 C 5.945312 18.175781 5.964844 18.027344 5.988281 17.878906 C 6.015625 17.730469 6.046875 17.582031 6.089844 17.4375 C 6.128906 17.296875 6.179688 17.152344 6.234375 17.015625 C 6.285156 16.875 6.347656 16.734375 6.414062 16.601562 C 6.484375 16.46875 6.558594 16.335938 6.640625 16.210938 C 6.722656 16.085938 6.808594 15.960938 6.902344 15.84375 C 6.992188 15.726562 7.09375 15.617188 7.195312 15.507812 C 7.300781 15.398438 7.414062 15.296875 7.527344 15.199219 C 7.640625 15.105469 7.761719 15.011719 7.886719 14.929688 C 8.007812 14.84375 8.136719 14.765625 8.269531 14.695312 C 8.402344 14.621094 8.535156 14.554688 8.671875 14.496094 C 8.8125 14.441406 8.953125 14.390625 9.09375 14.34375 C 9.238281 14.300781 9.382812 14.265625 9.53125 14.234375 C 9.679688 14.203125 9.828125 14.179688 9.976562 14.167969 C 10.125 14.152344 10.277344 14.144531 10.425781 14.144531 C 10.53125 14.144531 10.636719 14.148438 10.746094 14.15625 C 10.894531 14.164062 11.042969 14.183594 11.191406 14.207031 C 11.339844 14.234375 11.484375 14.265625 11.628906 14.308594 C 11.773438 14.347656 11.917969 14.394531 12.058594 14.449219 C 12.195312 14.503906 12.332031 14.566406 12.46875 14.632812 C 12.53125 14.667969 12.59375 14.703125 12.65625 14.742188 C 13.648438 13.265625 14.636719 11.757812 15.835938 10.5625 C 17.492188 8.910156 19.265625 7.566406 20.941406 6.628906 C 22.617188 5.691406 24.195312 5.160156 25.453125 5.144531 C 28.472656 6.375 31.914062 8.105469 35.121094 10.289062 C 36.726562 11.378906 38.273438 12.582031 39.679688 13.898438 C 41.082031 15.210938 42.34375 16.636719 43.382812 18.164062 C 43.980469 19.042969 44.5625 20.140625 45.152344 21.183594 L 45.152344 11.210938 C 45.152344 6.578125 41.421875 2.847656 36.789062 2.847656 Z M 11.210938 2.847656 "/>
</g>
</svg>
