<?xml version="1.0" encoding="UTF-8"?>
<svg xmlns="http://www.w3.org/2000/svg" xmlns:xlink="http://www.w3.org/1999/xlink" width="48pt" height="48pt" viewBox="0 0 48 48" version="1.1">
<g id="surface1">
<path style=" stroke:none;fill-rule:evenodd;fill:rgb(11.372549%,50.588235%,90.980392%);fill-opacity:1;" d="M 11.210938 2.847656 L 36.789062 2.847656 C 41.410156 2.847656 45.152344 6.589844 45.152344 11.210938 L 45.152344 36.789062 C 45.152344 41.410156 41.410156 45.152344 36.789062 45.152344 L 11.210938 45.152344 C 6.589844 45.152344 2.847656 41.410156 2.847656 36.789062 L 2.847656 11.210938 C 2.847656 6.589844 6.589844 2.847656 11.210938 2.847656 Z M 11.210938 2.847656 "/>
<path style=" stroke:none;fill-rule:nonzero;fill:rgb(100%,75.294118%,35.686275%);fill-opacity:1;" d="M 24 9 C 15.714844 9 9 15.714844 9 24 C 9 32.285156 15.714844 39 24 39 C 32.285156 39 39 32.285156 39 24 C 39 15.714844 32.285156 9 24 9 Z M 16.835938 19.5 C 18.609375 19.457031 20.277344 20.929688 20.820312 23.019531 C 21.457031 25.445312 20.371094 27.851562 18.398438 28.390625 C 16.425781 28.9375 14.3125 27.40625 13.679688 24.980469 C 13.042969 22.554688 14.128906 20.148438 16.101562 19.609375 C 16.339844 19.542969 16.585938 19.507812 16.835938 19.5 Z M 31.164062 19.5 C 31.414062 19.507812 31.660156 19.542969 31.898438 19.609375 C 33.871094 20.148438 34.957031 22.554688 34.320312 24.980469 C 34.015625 26.148438 33.347656 27.160156 32.464844 27.800781 C 31.578125 28.441406 30.546875 28.652344 29.601562 28.390625 C 27.628906 27.851562 26.542969 25.445312 27.179688 23.019531 C 27.722656 20.929688 29.390625 19.457031 31.164062 19.5 Z M 31.164062 19.5 "/>
</g>
</svg>
