<?xml version="1.0" encoding="UTF-8"?>
<svg xmlns="http://www.w3.org/2000/svg" xmlns:xlink="http://www.w3.org/1999/xlink" width="48pt" height="48pt" viewBox="0 0 48 48" version="1.1">
<g id="surface1">
<path style=" stroke:none;fill-rule:evenodd;fill:rgb(49.411765%,6.27451%,5.490196%);fill-opacity:1;" d="M 11.210938 2.847656 L 36.789062 2.847656 C 41.410156 2.847656 45.152344 6.589844 45.152344 11.210938 L 45.152344 36.789062 C 45.152344 41.410156 41.410156 45.152344 36.789062 45.152344 L 11.210938 45.152344 C 6.589844 45.152344 2.847656 41.410156 2.847656 36.789062 L 2.847656 11.210938 C 2.847656 6.589844 6.589844 2.847656 11.210938 2.847656 Z M 11.210938 2.847656 "/>
<path style=" stroke:none;fill-rule:nonzero;fill:rgb(76.078431%,20.784314%,16.470588%);fill-opacity:1;" d="M 16.222656 10.667969 L 31.777344 10.667969 L 32.890625 12.886719 L 32.890625 36.222656 L 31.777344 37.332031 L 16.222656 37.332031 L 15.109375 36.222656 L 15.109375 12.886719 Z M 16.222656 10.667969 "/>
<path style=" stroke:none;fill-rule:nonzero;fill:rgb(100%,100%,100%);fill-opacity:1;" d="M 16.222656 9.554688 L 31.777344 9.554688 L 31.777344 10.667969 L 16.222656 10.667969 Z M 16.222656 9.554688 "/>
<path style=" stroke:none;fill-rule:nonzero;fill:rgb(100%,100%,100%);fill-opacity:1;" d="M 15.109375 12.886719 L 32.890625 12.886719 L 32.890625 14 L 15.109375 14 Z M 15.109375 12.886719 "/>
<path style=" stroke:none;fill-rule:nonzero;fill:rgb(100%,100%,100%);fill-opacity:1;" d="M 15.109375 35.113281 L 32.890625 35.113281 L 32.890625 36.222656 L 15.109375 36.222656 Z M 15.109375 35.113281 "/>
<path style=" stroke:none;fill-rule:nonzero;fill:rgb(100%,100%,100%);fill-opacity:1;" d="M 16.222656 37.332031 L 31.777344 37.332031 L 31.777344 38.445312 L 16.222656 38.445312 Z M 16.222656 37.332031 "/>
<path style="fill:none;stroke-width:1.191641;stroke-linecap:butt;stroke-linejoin:miter;stroke:rgb(100%,100%,100%);stroke-opacity:1;stroke-miterlimit:4;" d="M -34.097236 4.34078 L -26.447767 12.399875 " transform="matrix(1.258768,0,0,1.258768,59.108008,8.000809)"/>
<path style="fill:none;stroke-width:1.191641;stroke-linecap:butt;stroke-linejoin:miter;stroke:rgb(100%,100%,100%);stroke-opacity:1;stroke-miterlimit:4;" d="M -30.097169 8.316021 L -30.097169 15.357256 " transform="matrix(1.258768,0,0,1.258768,59.108008,8.000809)"/>
<path style=" stroke:none;fill-rule:nonzero;fill:rgb(100%,100%,100%);fill-opacity:1;" d="M 29.554688 24.554688 C 29.554688 26.089844 28.3125 27.332031 26.777344 27.332031 C 25.242188 27.332031 24 26.089844 24 24.554688 C 24 23.019531 25.242188 21.777344 26.777344 21.777344 C 28.3125 21.777344 29.554688 23.019531 29.554688 24.554688 Z M 29.554688 24.554688 "/>
<path style=" stroke:none;fill-rule:nonzero;fill:rgb(100%,100%,100%);fill-opacity:1;" d="M 24 29 C 24 30.535156 22.757812 31.777344 21.222656 31.777344 C 19.6875 31.777344 18.445312 30.535156 18.445312 29 C 18.445312 27.464844 19.6875 26.222656 21.222656 26.222656 C 22.757812 26.222656 24 27.464844 24 29 Z M 24 29 "/>
<path style=" stroke:none;fill-rule:nonzero;fill:rgb(100%,100%,100%);fill-opacity:1;" d="M 24 19 C 24 20.535156 22.757812 21.777344 21.222656 21.777344 C 19.6875 21.777344 18.445312 20.535156 18.445312 19 C 18.445312 17.464844 19.6875 16.222656 21.222656 16.222656 C 22.757812 16.222656 24 17.464844 24 19 Z M 24 19 "/>
</g>
</svg>
