<?xml version="1.0" encoding="UTF-8"?>
<svg xmlns="http://www.w3.org/2000/svg" xmlns:xlink="http://www.w3.org/1999/xlink" width="48pt" height="48pt" viewBox="0 0 48 48" version="1.1">
<g id="surface1">
<path style=" stroke:none;fill-rule:evenodd;fill:rgb(67.45098%,8.235294%,0%);fill-opacity:1;" d="M 11.210938 2.847656 L 36.789062 2.847656 C 41.410156 2.847656 45.152344 6.589844 45.152344 11.210938 L 45.152344 36.789062 C 45.152344 41.410156 41.410156 45.152344 36.789062 45.152344 L 11.210938 45.152344 C 6.589844 45.152344 2.847656 41.410156 2.847656 36.789062 L 2.847656 11.210938 C 2.847656 6.589844 6.589844 2.847656 11.210938 2.847656 Z M 11.210938 2.847656 "/>
<path style=" stroke:none;fill-rule:nonzero;fill:rgb(100%,100%,100%);fill-opacity:1;" d="M 29.289062 39.011719 C 27.902344 38.378906 25.867188 37.292969 24.113281 36.246094 C 23.011719 35.589844 22.878906 35.535156 22.210938 35.480469 C 21.140625 35.390625 20.480469 35.222656 19.738281 34.855469 C 19.113281 34.542969 18.628906 34.191406 18.097656 33.667969 C 16.535156 32.121094 15.53125 29.710938 15.121094 26.515625 C 14.980469 25.441406 14.914062 23.488281 14.980469 22.363281 C 15.1875 18.679688 16.355469 15.480469 18.179688 13.578125 C 19.222656 12.488281 20.199219 11.917969 21.539062 11.609375 C 22.582031 11.371094 24.070312 11.449219 25.058594 11.789062 C 27.714844 12.699219 29.367188 15.183594 30.066406 19.308594 C 30.273438 20.535156 30.335938 21.429688 30.335938 23.128906 C 30.335938 26.847656 29.84375 29.515625 28.800781 31.457031 C 28.40625 32.1875 27.769531 32.949219 27.308594 33.234375 C 27.070312 33.382812 27.011719 33.476562 27.011719 33.722656 C 27.011719 33.84375 27.042969 33.984375 27.082031 34.035156 C 27.160156 34.136719 28.664062 34.75 30.316406 35.347656 C 30.957031 35.578125 31.5 35.785156 31.523438 35.804688 C 31.171875 37.171875 30.582031 38.1875 29.289062 39.011719 Z M 23.214844 31.222656 C 24.222656 30.894531 24.820312 29.375 25.128906 26.324219 C 25.238281 25.226562 25.222656 20.820312 25.101562 19.785156 C 24.921875 18.226562 24.6875 17.320312 24.277344 16.601562 C 24.015625 16.144531 23.820312 15.9375 23.464844 15.742188 C 23.285156 15.644531 23.160156 15.625 22.757812 15.625 C 20.542969 16.304688 20.269531 19.371094 20.125 21.097656 C 20.039062 22.242188 20.089844 25.972656 20.207031 26.921875 C 20.445312 28.8125 20.84375 30.03125 21.441406 30.6875 C 21.953125 31.246094 22.5625 31.429688 23.214844 31.222656 Z M 32.648438 20.285156 C 32.648438 20.269531 32.832031 19.703125 33.054688 19.027344 C 33.882812 16.519531 34.511719 14.167969 34.816406 12.429688 C 34.878906 12.070312 34.949219 11.761719 34.96875 11.746094 C 34.988281 11.730469 35.675781 11.660156 36.496094 11.59375 C 37.3125 11.53125 38.136719 11.460938 38.324219 11.445312 C 38.539062 11.425781 38.660156 11.433594 38.660156 11.46875 C 38.660156 11.609375 37.902344 13.644531 37.566406 14.40625 C 37.058594 15.546875 36.371094 16.953125 35.800781 18.007812 C 35.199219 19.113281 34.742188 19.910156 34.65625 20.003906 C 34.585938 20.074219 34.363281 20.125 33.753906 20.203125 C 32.933594 20.3125 32.648438 20.332031 32.648438 20.285156 Z M 32.648438 20.285156 "/>
</g>
</svg>
