<?xml version="1.0" encoding="UTF-8"?>
<svg xmlns="http://www.w3.org/2000/svg" xmlns:xlink="http://www.w3.org/1999/xlink" width="48pt" height="48pt" viewBox="0 0 48 48" version="1.1">
<defs>
<clipPath id="clip1">
  <rect width="48" height="48"/>
</clipPath>
<g id="surface6" clip-path="url(#clip1)">
<path style=" stroke:none;fill-rule:nonzero;fill:rgb(61.568627%,75.686275%,70.588235%);fill-opacity:1;" d="M 15 11.949219 L 15 10.449219 L 33 10.449219 L 33 11.949219 Z M 15 11.949219 "/>
</g>
<clipPath id="clip2">
  <rect width="48" height="48"/>
</clipPath>
<g id="surface9" clip-path="url(#clip2)">
<path style=" stroke:none;fill-rule:nonzero;fill:rgb(61.568627%,75.686275%,70.588235%);fill-opacity:1;" d="M 15 16.449219 L 15 14.949219 L 33 14.949219 L 33 16.449219 Z M 15 16.449219 "/>
</g>
<clipPath id="clip3">
  <rect width="48" height="48"/>
</clipPath>
<g id="surface12" clip-path="url(#clip3)">
<path style=" stroke:none;fill-rule:nonzero;fill:rgb(61.568627%,75.686275%,70.588235%);fill-opacity:1;" d="M 15 20.949219 L 15 19.449219 L 33 19.449219 L 33 20.949219 Z M 15 20.949219 "/>
</g>
<clipPath id="clip4">
  <rect width="48" height="48"/>
</clipPath>
<g id="surface15" clip-path="url(#clip4)">
<path style=" stroke:none;fill-rule:nonzero;fill:rgb(61.568627%,75.686275%,70.588235%);fill-opacity:1;" d="M 15 25.449219 L 15 23.949219 L 27 23.949219 L 27 25.449219 Z M 15 25.449219 "/>
</g>
</defs>
<g id="surface1">
<path style=" stroke:none;fill-rule:evenodd;fill:rgb(34.117647%,69.019608%,45.490196%);fill-opacity:1;" d="M 2.847656 33.144531 L 2.847656 36.789062 C 2.847656 41.421875 6.578125 45.152344 11.210938 45.152344 L 36.789062 45.152344 C 41.425781 45.152344 45.152344 41.421875 45.152344 36.789062 L 45.152344 33.144531 L 37.710938 33.144531 L 31.40625 40.347656 L 25.105469 33.144531 Z M 2.847656 33.144531 "/>
<path style=" stroke:none;fill-rule:evenodd;fill:rgb(22.745098%,50.980392%,40.784314%);fill-opacity:1;" d="M 2.847656 33.144531 L 25.105469 33.144531 L 31.40625 40.347656 L 37.710938 33.144531 L 45.152344 33.144531 L 45.152344 11.210938 C 45.152344 6.574219 41.425781 2.847656 36.789062 2.847656 L 11.210938 2.847656 C 6.578125 2.847656 2.847656 6.574219 2.847656 11.210938 Z M 2.847656 33.144531 "/>
<use xlink:href="#surface6"/>
<use xlink:href="#surface9"/>
<use xlink:href="#surface12"/>
<use xlink:href="#surface15"/>
</g>
</svg>
