<?xml version="1.0" encoding="UTF-8"?>
<svg xmlns="http://www.w3.org/2000/svg" xmlns:xlink="http://www.w3.org/1999/xlink" width="48pt" height="48pt" viewBox="0 0 48 48" version="1.1">
<defs>
<filter id="alpha" filterUnits="objectBoundingBox" x="0%" y="0%" width="100%" height="100%">
  <feColorMatrix type="matrix" in="SourceGraphic" values="0 0 0 0 1 0 0 0 0 1 0 0 0 0 1 0 0 0 1 0"/>
</filter>
<mask id="mask0">
  <g filter="url(#alpha)">
<rect x="0" y="0" width="48" height="48" style="fill:rgb(0%,0%,0%);fill-opacity:0.988235;stroke:none;"/>
  </g>
</mask>
<clipPath id="clip1">
  <rect width="48" height="48"/>
</clipPath>
<g id="surface6" clip-path="url(#clip1)">
<path style=" stroke:none;fill-rule:evenodd;fill:rgb(30.980392%,30.980392%,30.980392%);fill-opacity:1;" d="M 11.210938 2.847656 L 36.789062 2.847656 C 41.410156 2.847656 45.152344 6.589844 45.152344 11.210938 L 45.152344 36.789062 C 45.152344 41.410156 41.410156 45.152344 36.789062 45.152344 L 11.210938 45.152344 C 6.589844 45.152344 2.847656 41.410156 2.847656 36.789062 L 2.847656 11.210938 C 2.847656 6.589844 6.589844 2.847656 11.210938 2.847656 Z M 11.210938 2.847656 "/>
</g>
</defs>
<g id="surface1">
<use xlink:href="#surface6" mask="url(#mask0)"/>
<path style=" stroke:none;fill-rule:nonzero;fill:rgb(50.588235%,100%,52.156863%);fill-opacity:1;" d="M 9.539062 7.5 L 16.289062 7.5 C 16.910156 7.5 17.414062 8.003906 17.414062 8.625 L 17.414062 15.375 C 17.414062 15.996094 16.910156 16.5 16.289062 16.5 L 9.539062 16.5 C 8.917969 16.5 8.414062 15.996094 8.414062 15.375 L 8.414062 8.625 C 8.414062 8.003906 8.917969 7.5 9.539062 7.5 Z M 9.539062 7.5 "/>
<path style=" stroke:none;fill-rule:nonzero;fill:rgb(50.588235%,100%,52.156863%);fill-opacity:1;" d="M 21.539062 7.5 L 28.289062 7.5 C 28.910156 7.5 29.414062 8.003906 29.414062 8.625 L 29.414062 15.375 C 29.414062 15.996094 28.910156 16.5 28.289062 16.5 L 21.539062 16.5 C 20.917969 16.5 20.414062 15.996094 20.414062 15.375 L 20.414062 8.625 C 20.414062 8.003906 20.917969 7.5 21.539062 7.5 Z M 21.539062 7.5 "/>
<path style=" stroke:none;fill-rule:nonzero;fill:rgb(50.588235%,100%,52.156863%);fill-opacity:1;" d="M 9.539062 19.5 L 16.289062 19.5 C 16.910156 19.5 17.414062 20.003906 17.414062 20.625 L 17.414062 27.375 C 17.414062 27.996094 16.910156 28.5 16.289062 28.5 L 9.539062 28.5 C 8.917969 28.5 8.414062 27.996094 8.414062 27.375 L 8.414062 20.625 C 8.414062 20.003906 8.917969 19.5 9.539062 19.5 Z M 9.539062 19.5 "/>
<path style=" stroke:none;fill-rule:nonzero;fill:rgb(50.588235%,100%,52.156863%);fill-opacity:1;" d="M 21.539062 19.5 L 28.289062 19.5 C 28.910156 19.5 29.414062 20.003906 29.414062 20.625 L 29.414062 27.375 C 29.414062 27.996094 28.910156 28.5 28.289062 28.5 L 21.539062 28.5 C 20.917969 28.5 20.414062 27.996094 20.414062 27.375 L 20.414062 20.625 C 20.414062 20.003906 20.917969 19.5 21.539062 19.5 Z M 21.539062 19.5 "/>
<path style=" stroke:none;fill-rule:nonzero;fill:rgb(50.588235%,100%,52.156863%);fill-opacity:1;" d="M 9.539062 31.5 L 16.289062 31.5 C 16.910156 31.5 17.414062 32.003906 17.414062 32.625 L 17.414062 39.375 C 17.414062 39.996094 16.910156 40.5 16.289062 40.5 L 9.539062 40.5 C 8.917969 40.5 8.414062 39.996094 8.414062 39.375 L 8.414062 32.625 C 8.414062 32.003906 8.917969 31.5 9.539062 31.5 Z M 9.539062 31.5 "/>
</g>
</svg>
