<?xml version="1.0" encoding="UTF-8"?>
<svg xmlns="http://www.w3.org/2000/svg" xmlns:xlink="http://www.w3.org/1999/xlink" width="48pt" height="48pt" viewBox="0 0 48 48" version="1.1">
<g id="surface1">
<path style=" stroke:none;fill-rule:evenodd;fill:rgb(48.235294%,35.294118%,71.764706%);fill-opacity:1;" d="M 11.210938 2.847656 L 36.789062 2.847656 C 41.410156 2.847656 45.152344 6.589844 45.152344 11.210938 L 45.152344 36.789062 C 45.152344 41.410156 41.410156 45.152344 36.789062 45.152344 L 11.210938 45.152344 C 6.589844 45.152344 2.847656 41.410156 2.847656 36.789062 L 2.847656 11.210938 C 2.847656 6.589844 6.589844 2.847656 11.210938 2.847656 Z M 11.210938 2.847656 "/>
<path style=" stroke:none;fill-rule:evenodd;fill:rgb(100%,100%,100%);fill-opacity:1;" d="M 12 8.25 L 10.5 14.25 L 10.5 36.75 L 16.5 36.75 L 16.5 39.75 L 19.5 39.75 L 22.5 36.75 L 27 36.75 L 37.5 26.25 L 37.5 8.25 Z M 15 9.75 L 36 9.75 L 36 25.5 L 32.25 29.25 L 24 29.25 L 19.5 33.75 L 19.5 29.25 L 15 29.25 Z M 21 14.25 L 21 23.25 L 24 23.25 L 24 14.25 Z M 28.5 14.25 L 28.5 23.25 L 31.5 23.25 L 31.5 14.25 Z M 28.5 14.25 "/>
</g>
</svg>
