<?xml version="1.0" encoding="UTF-8"?>
<svg xmlns="http://www.w3.org/2000/svg" xmlns:xlink="http://www.w3.org/1999/xlink" width="48pt" height="48pt" viewBox="0 0 48 48" version="1.1">
<defs>
<g>
<symbol overflow="visible" id="glyph0-0">
<path style="stroke:none;" d="M 0.34375 1.234375 L 0.34375 -4.9375 L 3.84375 -4.9375 L 3.84375 1.234375 Z M 0.734375 0.84375 L 3.453125 0.84375 L 3.453125 -4.546875 L 0.734375 -4.546875 Z M 0.734375 0.84375 "/>
</symbol>
<symbol overflow="visible" id="glyph0-1">
<path style="stroke:none;" d="M 2.015625 -0.96875 L 4.265625 -0.96875 L 4.265625 0 L 0.546875 0 L 0.546875 -0.96875 L 2.421875 -2.609375 C 2.585938 -2.765625 2.707031 -2.910156 2.78125 -3.046875 C 2.863281 -3.191406 2.90625 -3.34375 2.90625 -3.5 C 2.90625 -3.738281 2.820312 -3.929688 2.65625 -4.078125 C 2.5 -4.222656 2.289062 -4.296875 2.03125 -4.296875 C 1.820312 -4.296875 1.59375 -4.25 1.34375 -4.15625 C 1.101562 -4.070312 0.84375 -3.945312 0.5625 -3.78125 L 0.5625 -4.890625 C 0.863281 -4.992188 1.15625 -5.070312 1.4375 -5.125 C 1.726562 -5.175781 2.015625 -5.203125 2.296875 -5.203125 C 2.910156 -5.203125 3.382812 -5.066406 3.71875 -4.796875 C 4.0625 -4.523438 4.234375 -4.148438 4.234375 -3.671875 C 4.234375 -3.390625 4.160156 -3.128906 4.015625 -2.890625 C 3.867188 -2.648438 3.566406 -2.328125 3.109375 -1.921875 Z M 2.015625 -0.96875 "/>
</symbol>
</g>
</defs>
<g id="surface1">
<path style=" stroke:none;fill-rule:evenodd;fill:rgb(100%,74.117647%,0%);fill-opacity:1;" d="M 11.210938 2.847656 L 36.789062 2.847656 C 41.410156 2.847656 45.152344 6.589844 45.152344 11.210938 L 45.152344 36.789062 C 45.152344 41.410156 41.410156 45.152344 36.789062 45.152344 L 11.210938 45.152344 C 6.589844 45.152344 2.847656 41.410156 2.847656 36.789062 L 2.847656 11.210938 C 2.847656 6.589844 6.589844 2.847656 11.210938 2.847656 Z M 11.210938 2.847656 "/>
<path style=" stroke:none;fill-rule:nonzero;fill:rgb(20%,20%,20%);fill-opacity:1;" d="M 39.136719 24 C 39.136719 32.359375 32.359375 39.136719 24 39.136719 C 15.640625 39.136719 8.863281 32.359375 8.863281 24 C 8.863281 15.640625 15.640625 8.863281 24 8.863281 C 32.359375 8.863281 39.136719 15.640625 39.136719 24 Z M 39.136719 24 "/>
<path style=" stroke:none;fill-rule:nonzero;fill:rgb(100%,100%,100%);fill-opacity:1;" d="M 37.628906 24 C 37.628906 31.527344 31.527344 37.628906 24 37.628906 C 16.472656 37.628906 10.371094 31.527344 10.371094 24 C 10.371094 16.472656 16.472656 10.371094 24 10.371094 C 31.527344 10.371094 37.628906 16.472656 37.628906 24 Z M 37.628906 24 "/>
<path style=" stroke:none;fill-rule:nonzero;fill:rgb(100%,42.745098%,0%);fill-opacity:1;" d="M 18.097656 13.867188 L 18.792969 16.789062 L 21.25 16.742188 L 22.550781 18.644531 L 16.9375 34.132812 L 21.898438 32.601562 L 25.097656 22.726562 L 30.246094 30.746094 L 34.1875 27.453125 L 32.472656 24.949219 L 31.082031 26.0625 L 23.105469 13.914062 Z M 18.097656 13.867188 "/>
<g style="fill:rgb(20%,20%,20%);fill-opacity:1;">
  <use xlink:href="#glyph0-1" x="35.878906" y="12.509766"/>
</g>
</g>
</svg>
