<?xml version="1.0" encoding="UTF-8"?>
<svg xmlns="http://www.w3.org/2000/svg" xmlns:xlink="http://www.w3.org/1999/xlink" width="48pt" height="48pt" viewBox="0 0 48 48" version="1.1">
<defs>
<filter id="alpha" filterUnits="objectBoundingBox" x="0%" y="0%" width="100%" height="100%">
  <feColorMatrix type="matrix" in="SourceGraphic" values="0 0 0 0 1 0 0 0 0 1 0 0 0 0 1 0 0 0 1 0"/>
</filter>
<mask id="mask0">
  <g filter="url(#alpha)">
<rect x="0" y="0" width="48" height="48" style="fill:rgb(0%,0%,0%);fill-opacity:0.6;stroke:none;"/>
  </g>
</mask>
<clipPath id="clip1">
  <rect width="48" height="48"/>
</clipPath>
<g id="surface6" clip-path="url(#clip1)">
<path style=" stroke:none;fill-rule:evenodd;fill:rgb(0%,0%,0%);fill-opacity:1;" d="M 34.566406 26.273438 C 33.324219 26.570312 32.5625 27.570312 31.335938 27.84375 C 30.457031 28.015625 29.296875 27.285156 28.46875 27.691406 C 28.007812 27.921875 26.808594 28.519531 27.777344 28.910156 C 27.777344 28.910156 28.347656 29.136719 29.066406 29.34375 C 29.78125 29.550781 30.617188 29.785156 31.496094 29.636719 C 32.492188 29.464844 33.292969 28.890625 33.96875 28.382812 C 34.648438 27.875 35.152344 27.402344 35.152344 27.402344 C 35.621094 26.96875 35.261719 26.277344 34.566406 26.273438 Z M 34.566406 26.273438 "/>
</g>
</defs>
<g id="surface1">
<path style=" stroke:none;fill-rule:evenodd;fill:rgb(11.372549%,26.666667%,59.607843%);fill-opacity:1;" d="M 11.210938 2.847656 L 36.789062 2.847656 C 41.410156 2.847656 45.152344 6.589844 45.152344 11.210938 L 45.152344 36.789062 C 45.152344 41.410156 41.410156 45.152344 36.789062 45.152344 L 11.210938 45.152344 C 6.589844 45.152344 2.847656 41.410156 2.847656 36.789062 L 2.847656 11.210938 C 2.847656 6.589844 6.589844 2.847656 11.210938 2.847656 Z M 11.210938 2.847656 "/>
<path style=" stroke:none;fill-rule:nonzero;fill:rgb(87.45098%,50.980392%,85.098039%);fill-opacity:1;" d="M 36.5 32.523438 C 36.5 30.324219 34.71875 28.546875 32.523438 28.546875 C 30.324219 28.546875 28.546875 30.324219 28.546875 32.523438 C 28.546875 34.71875 30.324219 36.5 32.523438 36.5 C 34.71875 36.5 36.5 34.71875 36.5 32.523438 Z M 36.5 32.523438 "/>
<path style=" stroke:none;fill-rule:nonzero;fill:rgb(44.705882%,67.45098%,93.72549%);fill-opacity:1;" d="M 10.363281 27.410156 L 15.152344 20.15625 L 19.039062 26.886719 Z M 10.363281 27.410156 "/>
<path style=" stroke:none;fill-rule:nonzero;fill:rgb(29.803922%,58.431373%,92.156863%);fill-opacity:1;" d="M 9.226562 21.160156 L 17.183594 17.183594 L 17.183594 25.136719 Z M 9.226562 21.160156 "/>
<path style=" stroke:none;fill-rule:nonzero;fill:rgb(22.745098%,54.117647%,91.372549%);fill-opacity:1;" d="M 10.363281 15.960938 L 18.878906 14.21875 L 16.867188 21.726562 Z M 10.363281 15.960938 "/>
<path style=" stroke:none;fill-rule:nonzero;fill:rgb(18.823529%,45.490196%,76.470588%);fill-opacity:1;" d="M 13.773438 11.0625 L 22.449219 11.585938 L 18.5625 18.316406 Z M 13.773438 11.0625 "/>
<path style=" stroke:none;fill-rule:nonzero;fill:rgb(84.313725%,38.039216%,81.176471%);fill-opacity:1;" d="M 38.773438 21.726562 C 38.773438 15.453125 33.683594 10.363281 27.410156 10.363281 C 21.132812 10.363281 16.046875 15.453125 16.046875 21.726562 C 16.046875 28.003906 21.132812 33.089844 27.410156 33.089844 C 33.683594 33.089844 38.773438 28.003906 38.773438 21.726562 Z M 38.773438 21.726562 "/>
<path style=" stroke:none;fill-rule:nonzero;fill:rgb(87.45098%,50.980392%,85.098039%);fill-opacity:1;" d="M 26.273438 33.660156 C 26.273438 31.460938 24.492188 29.683594 22.296875 29.683594 C 20.097656 29.683594 18.316406 31.460938 18.316406 33.660156 C 18.316406 35.855469 20.097656 37.636719 22.296875 37.636719 C 24.492188 37.636719 26.273438 35.855469 26.273438 33.660156 Z M 26.273438 33.660156 "/>
<path style=" stroke:none;fill-rule:nonzero;fill:rgb(100%,100%,100%);fill-opacity:1;" d="M 33.46875 20.382812 C 33.46875 18.386719 32.113281 16.769531 30.441406 16.769531 C 28.765625 16.769531 27.410156 18.386719 27.410156 20.382812 C 27.410156 22.382812 28.765625 24 30.441406 24 C 32.113281 24 33.46875 22.382812 33.46875 20.382812 Z M 33.46875 20.382812 "/>
<path style=" stroke:none;fill-rule:nonzero;fill:rgb(100%,100%,100%);fill-opacity:1;" d="M 36.5 19.660156 C 36.5 17.664062 35.144531 16.046875 33.46875 16.046875 C 31.796875 16.046875 30.441406 17.664062 30.441406 19.660156 C 30.441406 21.65625 31.796875 23.277344 33.46875 23.277344 C 35.144531 23.277344 36.5 21.65625 36.5 19.660156 Z M 36.5 19.660156 "/>
<path style=" stroke:none;fill-rule:nonzero;fill:rgb(10.588235%,10.588235%,10.588235%);fill-opacity:1;" d="M 32.523438 20.589844 C 32.523438 19.964844 32.140625 19.453125 31.671875 19.453125 C 31.199219 19.453125 30.816406 19.964844 30.816406 20.589844 C 30.816406 21.21875 31.199219 21.726562 31.671875 21.726562 C 32.140625 21.726562 32.523438 21.21875 32.523438 20.589844 Z M 32.523438 20.589844 "/>
<use xlink:href="#surface6" mask="url(#mask0)"/>
<path style=" stroke:none;fill-rule:nonzero;fill:rgb(10.588235%,10.588235%,10.588235%);fill-opacity:1;" d="M 35.933594 19.453125 C 35.933594 18.828125 35.550781 18.316406 35.078125 18.316406 C 34.609375 18.316406 34.226562 18.828125 34.226562 19.453125 C 34.226562 20.082031 34.609375 20.589844 35.078125 20.589844 C 35.550781 20.589844 35.933594 20.082031 35.933594 19.453125 Z M 35.933594 19.453125 "/>
</g>
</svg>
