<?xml version="1.0" encoding="UTF-8"?>
<svg xmlns="http://www.w3.org/2000/svg" xmlns:xlink="http://www.w3.org/1999/xlink" width="48pt" height="48pt" viewBox="0 0 48 48" version="1.1">
<g id="surface1">
<path style=" stroke:none;fill-rule:evenodd;fill:rgb(99.607843%,80.392157%,21.960784%);fill-opacity:1;" d="M 11.210938 2.847656 L 36.789062 2.847656 C 41.410156 2.847656 45.152344 6.589844 45.152344 11.210938 L 45.152344 36.789062 C 45.152344 41.410156 41.410156 45.152344 36.789062 45.152344 L 11.210938 45.152344 C 6.589844 45.152344 2.847656 41.410156 2.847656 36.789062 L 2.847656 11.210938 C 2.847656 6.589844 6.589844 2.847656 11.210938 2.847656 Z M 11.210938 2.847656 "/>
<path style=" stroke:none;fill-rule:nonzero;fill:rgb(19.215686%,69.019608%,23.137255%);fill-opacity:1;" d="M 42 24 C 42 33.941406 33.941406 42 24 42 C 14.058594 42 6 33.941406 6 24 C 6 14.058594 14.058594 6 24 6 C 33.941406 6 42 14.058594 42 24 Z M 42 24 "/>
<path style=" stroke:none;fill-rule:nonzero;fill:rgb(100%,100%,100%);fill-opacity:1;" d="M 9 15.75 L 12 15.75 L 12 30.75 L 9 30.75 Z M 9 15.75 "/>
<path style=" stroke:none;fill-rule:nonzero;fill:rgb(100%,100%,100%);fill-opacity:1;" d="M 13.5 15.75 L 16.5 15.75 L 16.5 27.75 L 13.5 27.75 Z M 13.5 15.75 "/>
<path style=" stroke:none;fill-rule:nonzero;fill:rgb(100%,100%,100%);fill-opacity:1;" d="M 39 15.75 L 36 15.75 L 36 30.75 L 39 30.75 Z M 39 15.75 "/>
<path style=" stroke:none;fill-rule:nonzero;fill:rgb(100%,100%,100%);fill-opacity:1;" d="M 34.5 15.75 L 31.5 15.75 L 31.5 27.75 L 34.5 27.75 Z M 34.5 15.75 "/>
<path style=" stroke:none;fill-rule:nonzero;fill:rgb(100%,100%,100%);fill-opacity:1;" d="M 24 15.75 C 20.6875 15.75 18 18.4375 18 21.75 C 18 25.0625 20.6875 27.75 24 27.75 C 27.3125 27.75 30 25.0625 30 21.75 C 30 18.4375 27.3125 15.75 24 15.75 Z M 24 18.75 C 25.65625 18.75 27 20.09375 27 21.75 C 27 23.40625 25.65625 24.75 24 24.75 C 22.34375 24.75 21 23.40625 21 21.75 C 21 20.09375 22.34375 18.75 24 18.75 Z M 24 18.75 "/>
<path style=" stroke:none;fill-rule:nonzero;fill:rgb(100%,100%,100%);fill-opacity:1;" d="M 9 19.199219 L 15 19.199219 L 15 22.199219 L 9 22.199219 Z M 9 19.199219 "/>
<path style=" stroke:none;fill-rule:nonzero;fill:rgb(100%,100%,100%);fill-opacity:1;" d="M 34.5 15.75 L 38.574219 22.632812 L 38.726562 24.257812 L 38.191406 25.074219 L 38.695312 28.800781 L 38.441406 28.132812 L 36.792969 25.277344 L 32.097656 17.144531 Z M 34.5 15.75 "/>
<path style=" stroke:none;fill-rule:nonzero;fill:rgb(100%,100%,100%);fill-opacity:1;" d="M 18 29.25 L 30 29.25 L 30 32.25 L 18 32.25 Z M 18 29.25 "/>
</g>
</svg>
