<?xml version="1.0" encoding="UTF-8"?>
<svg xmlns="http://www.w3.org/2000/svg" xmlns:xlink="http://www.w3.org/1999/xlink" width="48pt" height="48pt" viewBox="0 0 48 48" version="1.1">
<g id="surface1">
<path style=" stroke:none;fill-rule:evenodd;fill:rgb(41.960784%,40%,29.803922%);fill-opacity:1;" d="M 11.210938 2.847656 L 36.789062 2.847656 C 41.410156 2.847656 45.152344 6.589844 45.152344 11.210938 L 45.152344 36.789062 C 45.152344 41.410156 41.410156 45.152344 36.789062 45.152344 L 11.210938 45.152344 C 6.589844 45.152344 2.847656 41.410156 2.847656 36.789062 L 2.847656 11.210938 C 2.847656 6.589844 6.589844 2.847656 11.210938 2.847656 Z M 11.210938 2.847656 "/>
<path style=" stroke:none;fill-rule:nonzero;fill:rgb(100%,100%,100%);fill-opacity:0.792157;" d="M 9.75 16.5 L 13.703125 16.5 L 13.703125 21.976562 L 19.402344 16.5 L 23.988281 16.5 L 16.609375 23.601562 L 24.75 31.5 L 19.800781 31.5 L 13.703125 25.59375 L 13.703125 31.5 L 9.75 31.5 Z M 9.75 16.5 "/>
<path style=" stroke:none;fill-rule:nonzero;fill:rgb(100%,100%,100%);fill-opacity:0.792157;" d="M 38.25 30.144531 C 37.242188 30.59375 36.195312 30.933594 35.109375 31.160156 C 34.023438 31.386719 32.902344 31.5 31.746094 31.5 C 29.136719 31.5 27.066406 30.828125 25.539062 29.484375 C 24.011719 28.136719 23.25 26.308594 23.25 24.003906 C 23.25 21.675781 24.027344 19.839844 25.582031 18.503906 C 27.136719 17.167969 29.265625 16.5 31.96875 16.5 C 33.011719 16.5 34.007812 16.589844 34.960938 16.769531 C 35.921875 16.953125 36.824219 17.21875 37.671875 17.574219 L 37.671875 20.566406 C 36.796875 20.109375 35.925781 19.765625 35.054688 19.539062 C 34.195312 19.3125 33.328125 19.203125 32.460938 19.203125 C 30.851562 19.203125 29.609375 19.617188 28.734375 20.449219 C 27.863281 21.277344 27.429688 22.460938 27.429688 24.003906 C 27.429688 25.535156 27.851562 26.714844 28.691406 27.546875 C 29.53125 28.382812 30.726562 28.796875 32.273438 28.796875 C 32.691406 28.796875 33.082031 28.773438 33.4375 28.730469 C 33.804688 28.679688 34.128906 28.601562 34.414062 28.496094 L 34.414062 25.6875 L 31.945312 25.6875 L 31.945312 23.191406 L 38.25 23.191406 Z M 38.25 30.144531 "/>
</g>
</svg>
