<?xml version="1.0" encoding="UTF-8"?>
<svg xmlns="http://www.w3.org/2000/svg" xmlns:xlink="http://www.w3.org/1999/xlink" width="48pt" height="48pt" viewBox="0 0 48 48" version="1.1">
<g id="surface1">
<path style=" stroke:none;fill-rule:evenodd;fill:rgb(30.588235%,56.862745%,85.098039%);fill-opacity:1;" d="M 11.210938 2.847656 L 36.789062 2.847656 C 41.410156 2.847656 45.152344 6.589844 45.152344 11.210938 L 45.152344 36.789062 C 45.152344 41.410156 41.410156 45.152344 36.789062 45.152344 L 11.210938 45.152344 C 6.589844 45.152344 2.847656 41.410156 2.847656 36.789062 L 2.847656 11.210938 C 2.847656 6.589844 6.589844 2.847656 11.210938 2.847656 Z M 11.210938 2.847656 "/>
<path style=" stroke:none;fill-rule:nonzero;fill:rgb(100%,100%,100%);fill-opacity:1;" d="M 9 28.5 L 15 28.5 L 15 30 L 9 30 Z M 9 28.5 "/>
<path style=" stroke:none;fill-rule:nonzero;fill:rgb(100%,92.156863%,36.470588%);fill-opacity:1;" d="M 32.25 10.5 L 32.75 11.800781 L 34.054688 11.390625 L 33.375 12.605469 L 34.5 13.394531 L 33.152344 13.605469 L 33.25 15 L 32.25 14.050781 L 31.25 15 L 31.347656 13.605469 L 30 13.394531 L 31.125 12.605469 L 30.445312 11.390625 L 31.75 11.800781 Z M 32.25 10.5 "/>
<path style=" stroke:none;fill-rule:nonzero;fill:rgb(45.490196%,14.117647%,14.117647%);fill-opacity:1;" d="M 34.5 36 L 28.5 36 L 28.5 34.5 L 34.5 34.5 Z M 34.5 36 "/>
<path style=" stroke:none;fill-rule:nonzero;fill:rgb(67.843137%,19.215686%,19.215686%);fill-opacity:1;" d="M 28.5 36 L 22.5 36 L 22.5 34.5 L 28.5 34.5 Z M 28.5 36 "/>
<path style=" stroke:none;fill-rule:nonzero;fill:rgb(45.490196%,14.117647%,14.117647%);fill-opacity:1;" d="M 22.5 36 L 16.5 36 L 16.5 34.5 L 22.5 34.5 Z M 22.5 36 "/>
<path style=" stroke:none;fill-rule:nonzero;fill:rgb(67.843137%,19.215686%,19.215686%);fill-opacity:1;" d="M 16.5 36 L 10.5 36 L 10.5 34.5 L 16.5 34.5 Z M 16.5 36 "/>
<path style=" stroke:none;fill-rule:nonzero;fill:rgb(45.490196%,14.117647%,14.117647%);fill-opacity:1;" d="M 10.5 36 L 4.5 36 L 4.5 34.5 L 10.5 34.5 Z M 10.5 36 "/>
<path style=" stroke:none;fill-rule:nonzero;fill:rgb(45.490196%,14.117647%,14.117647%);fill-opacity:1;" d="M 43.5 36 L 40.5 36 L 40.5 34.5 L 43.5 34.5 Z M 43.5 36 "/>
<path style=" stroke:none;fill-rule:nonzero;fill:rgb(67.843137%,19.215686%,19.215686%);fill-opacity:1;" d="M 31.5 37.5 L 25.5 37.5 L 25.5 36 L 31.5 36 Z M 31.5 37.5 "/>
<path style=" stroke:none;fill-rule:nonzero;fill:rgb(45.490196%,14.117647%,14.117647%);fill-opacity:1;" d="M 25.5 37.5 L 19.5 37.5 L 19.5 36 L 25.5 36 Z M 25.5 37.5 "/>
<path style=" stroke:none;fill-rule:nonzero;fill:rgb(67.843137%,19.215686%,19.215686%);fill-opacity:1;" d="M 19.5 37.5 L 13.5 37.5 L 13.5 36 L 19.5 36 Z M 19.5 37.5 "/>
<path style=" stroke:none;fill-rule:nonzero;fill:rgb(45.490196%,14.117647%,14.117647%);fill-opacity:1;" d="M 13.5 37.5 L 7.5 37.5 L 7.5 36 L 13.5 36 Z M 13.5 37.5 "/>
<path style=" stroke:none;fill-rule:nonzero;fill:rgb(67.843137%,19.215686%,19.215686%);fill-opacity:1;" d="M 7.5 37.5 L 4.5 37.5 L 4.5 36 L 7.5 36 Z M 7.5 37.5 "/>
<path style=" stroke:none;fill-rule:nonzero;fill:rgb(67.843137%,19.215686%,19.215686%);fill-opacity:1;" d="M 40.5 36 L 34.5 36 L 34.5 34.5 L 40.5 34.5 Z M 40.5 36 "/>
<path style=" stroke:none;fill-rule:nonzero;fill:rgb(67.843137%,19.215686%,19.215686%);fill-opacity:1;" d="M 43.5 37.5 L 37.5 37.5 L 37.5 36 L 43.5 36 Z M 43.5 37.5 "/>
<path style=" stroke:none;fill-rule:nonzero;fill:rgb(45.490196%,14.117647%,14.117647%);fill-opacity:1;" d="M 37.5 37.5 L 31.5 37.5 L 31.5 36 L 37.5 36 Z M 37.5 37.5 "/>
<path style=" stroke:none;fill-rule:nonzero;fill:rgb(45.490196%,14.117647%,14.117647%);fill-opacity:1;" d="M 16.5 18 L 19.5 18 L 19.5 19.5 L 16.5 19.5 Z M 16.5 18 "/>
<path style=" stroke:none;fill-rule:nonzero;fill:rgb(67.843137%,19.215686%,19.215686%);fill-opacity:1;" d="M 19.5 18 L 25.5 18 L 25.5 19.5 L 19.5 19.5 Z M 19.5 18 "/>
<path style=" stroke:none;fill-rule:nonzero;fill:rgb(45.490196%,14.117647%,14.117647%);fill-opacity:1;" d="M 25.5 18 L 31.5 18 L 31.5 19.5 L 25.5 19.5 Z M 25.5 18 "/>
<path style=" stroke:none;fill-rule:nonzero;fill:rgb(67.843137%,19.215686%,19.215686%);fill-opacity:1;" d="M 31.5 18 L 37.5 18 L 37.5 19.5 L 31.5 19.5 Z M 31.5 18 "/>
<path style=" stroke:none;fill-rule:nonzero;fill:rgb(45.490196%,14.117647%,14.117647%);fill-opacity:1;" d="M 37.5 18 L 43.5 18 L 43.5 19.5 L 37.5 19.5 Z M 37.5 18 "/>
<path style=" stroke:none;fill-rule:nonzero;fill:rgb(45.490196%,14.117647%,14.117647%);fill-opacity:1;" d="M 4.5 18 L 7.5 18 L 7.5 19.5 L 4.5 19.5 Z M 4.5 18 "/>
<path style=" stroke:none;fill-rule:nonzero;fill:rgb(67.843137%,19.215686%,19.215686%);fill-opacity:1;" d="M 16.5 16.5 L 22.5 16.5 L 22.5 18 L 16.5 18 Z M 16.5 16.5 "/>
<path style=" stroke:none;fill-rule:nonzero;fill:rgb(45.490196%,14.117647%,14.117647%);fill-opacity:1;" d="M 22.5 16.5 L 28.5 16.5 L 28.5 18 L 22.5 18 Z M 22.5 16.5 "/>
<path style=" stroke:none;fill-rule:nonzero;fill:rgb(67.843137%,19.215686%,19.215686%);fill-opacity:1;" d="M 28.5 16.5 L 34.5 16.5 L 34.5 18 L 28.5 18 Z M 28.5 16.5 "/>
<path style=" stroke:none;fill-rule:nonzero;fill:rgb(45.490196%,14.117647%,14.117647%);fill-opacity:1;" d="M 34.5 16.5 L 40.5 16.5 L 40.5 18 L 34.5 18 Z M 34.5 16.5 "/>
<path style=" stroke:none;fill-rule:nonzero;fill:rgb(67.843137%,19.215686%,19.215686%);fill-opacity:1;" d="M 40.5 16.5 L 43.5 16.5 L 43.5 18 L 40.5 18 Z M 40.5 16.5 "/>
<path style=" stroke:none;fill-rule:nonzero;fill:rgb(67.843137%,19.215686%,19.215686%);fill-opacity:1;" d="M 4.5 16.5 L 7.5 16.5 L 7.5 18 L 4.5 18 Z M 4.5 16.5 "/>
<path style=" stroke:none;fill-rule:nonzero;fill:rgb(100%,100%,100%);fill-opacity:1;" d="M 9 15 L 10.5 15 L 10.5 33 L 9 33 Z M 9 15 "/>
<path style=" stroke:none;fill-rule:nonzero;fill:rgb(100%,100%,100%);fill-opacity:1;" d="M 13.5 15 L 15 15 L 15 33 L 13.5 33 Z M 13.5 15 "/>
<path style=" stroke:none;fill-rule:nonzero;fill:rgb(100%,100%,100%);fill-opacity:1;" d="M 9 22.5 L 15 22.5 L 15 24 L 9 24 Z M 9 22.5 "/>
<path style=" stroke:none;fill-rule:nonzero;fill:rgb(100%,100%,100%);fill-opacity:1;" d="M 9 16.5 L 15 16.5 L 15 18 L 9 18 Z M 9 16.5 "/>
</g>
</svg>
