<?xml version="1.0" encoding="UTF-8"?>
<svg xmlns="http://www.w3.org/2000/svg" xmlns:xlink="http://www.w3.org/1999/xlink" width="48pt" height="48pt" viewBox="0 0 48 48" version="1.1">
<g id="surface1">
<path style=" stroke:none;fill-rule:evenodd;fill:rgb(32.156863%,58.039216%,88.627451%);fill-opacity:1;" d="M 11.210938 2.847656 L 36.789062 2.847656 C 41.410156 2.847656 45.152344 6.589844 45.152344 11.210938 L 45.152344 36.789062 C 45.152344 41.410156 41.410156 45.152344 36.789062 45.152344 L 11.210938 45.152344 C 6.589844 45.152344 2.847656 41.410156 2.847656 36.789062 L 2.847656 11.210938 C 2.847656 6.589844 6.589844 2.847656 11.210938 2.847656 Z M 11.210938 2.847656 "/>
<path style=" stroke:none;fill-rule:nonzero;fill:rgb(100%,100%,100%);fill-opacity:1;" d="M 24 9 C 15.714844 9 9 15.714844 9 24 C 9 32.285156 15.714844 39 24 39 C 32.285156 39 39 32.285156 39 24 C 39 15.714844 32.285156 9 24 9 Z M 22.597656 11.992188 C 22.761719 11.972656 22.964844 12 23.128906 11.992188 C 23.148438 12.070312 23.015625 12.347656 22.828125 12.753906 C 21.644531 15.34375 21.574219 18.378906 22.671875 19.996094 C 22.871094 20.292969 23.054688 20.570312 23.054688 20.605469 C 23.054688 20.644531 22.839844 20.683594 22.597656 20.683594 C 22.027344 20.683594 21.488281 20.335938 20.386719 19.464844 C 19.894531 19.078125 19.261719 18.753906 19.011719 18.703125 C 18.625 18.625 18.523438 18.660156 18.023438 19.160156 C 17.558594 19.625 17.414062 19.878906 17.414062 20.304688 C 17.414062 21.921875 19.335938 23.207031 22.902344 23.960938 C 27.75 24.988281 28.945312 25.910156 29.078125 28.457031 C 29.246094 31.65625 27.546875 34.0625 23.816406 35.929688 C 23.375 36.152344 23.089844 36.242188 22.902344 36.3125 C 22.820312 36.304688 22.753906 36.320312 22.671875 36.3125 C 22.640625 36.214844 22.597656 35.984375 22.597656 35.550781 C 22.597656 33.855469 21.929688 32.105469 20.921875 31.128906 C 20.648438 30.867188 19.894531 30.3125 19.246094 29.910156 C 18.597656 29.507812 17.941406 29.042969 17.796875 28.84375 C 17.554688 28.511719 17.535156 28.308594 17.722656 27.699219 C 18.058594 26.585938 18.460938 25.960938 19.246094 25.257812 C 19.65625 24.886719 20.066406 24.582031 20.160156 24.574219 C 20.25 24.566406 19.636719 24.378906 18.710938 24.191406 C 17.789062 24 16.433594 23.605469 15.734375 23.351562 C 14.457031 22.890625 12.734375 21.917969 12.074219 21.214844 C 12.046875 21.1875 12.023438 21.167969 12 21.140625 C 12.941406 17.386719 15.585938 14.3125 19.089844 12.832031 C 19.824219 12.523438 20.578125 12.308594 21.378906 12.148438 C 21.777344 12.066406 22.1875 12.03125 22.597656 11.992188 Z M 34.035156 17.710938 C 34.320312 17.886719 35.402344 20.230469 35.714844 21.371094 C 36.113281 22.847656 36.082031 25.394531 35.714844 26.859375 C 35.570312 27.417969 35.390625 27.9375 35.328125 28.003906 C 35.269531 28.066406 35.050781 27.695312 34.792969 27.242188 C 34.535156 26.789062 33.722656 25.824219 33.042969 25.105469 C 31.082031 23.039062 30.773438 21.957031 31.59375 20.304688 C 32.007812 19.472656 33.8125 17.574219 34.035156 17.710938 Z M 34.035156 17.710938 "/>
</g>
</svg>
