<?xml version="1.0" encoding="UTF-8"?>
<svg xmlns="http://www.w3.org/2000/svg" xmlns:xlink="http://www.w3.org/1999/xlink" width="48pt" height="48pt" viewBox="0 0 48 48" version="1.1">
<g id="surface1">
<path style=" stroke:none;fill-rule:evenodd;fill:rgb(90.588235%,29.803922%,23.529412%);fill-opacity:1;" d="M 2.847656 31.996094 L 17.691406 26.339844 C 17.613281 26.136719 17.546875 25.929688 17.488281 25.71875 C 17.429688 25.503906 17.382812 25.292969 17.347656 25.074219 C 17.308594 24.859375 17.285156 24.640625 17.269531 24.421875 C 17.261719 24.28125 17.257812 24.140625 17.253906 24 C 17.257812 23.78125 17.269531 23.5625 17.292969 23.34375 C 17.316406 23.125 17.347656 22.910156 17.394531 22.691406 C 17.4375 22.480469 17.492188 22.265625 17.558594 22.058594 C 17.601562 21.921875 17.648438 21.789062 17.699219 21.660156 L 2.847656 16 Z M 2.847656 31.996094 "/>
<path style=" stroke:none;fill-rule:evenodd;fill:rgb(90.588235%,29.803922%,23.529412%);fill-opacity:1;" d="M 31.886719 45.152344 L 26.171875 30.140625 C 25.96875 30.21875 25.757812 30.289062 25.546875 30.34375 C 25.335938 30.402344 25.121094 30.449219 24.90625 30.484375 C 24.6875 30.523438 24.472656 30.546875 24.25 30.5625 C 24.113281 30.570312 23.972656 30.578125 23.832031 30.578125 C 23.613281 30.578125 23.394531 30.566406 23.175781 30.542969 C 22.957031 30.519531 22.742188 30.484375 22.527344 30.441406 C 22.3125 30.394531 22.101562 30.339844 21.890625 30.277344 C 21.757812 30.234375 21.625 30.1875 21.496094 30.136719 L 15.777344 45.152344 Z M 31.886719 45.152344 "/>
<path style=" stroke:none;fill-rule:evenodd;fill:rgb(90.588235%,29.803922%,23.529412%);fill-opacity:1;" d="M 45.152344 15.875 L 29.972656 21.660156 C 30.050781 21.863281 30.121094 22.070312 30.179688 22.28125 C 30.234375 22.496094 30.28125 22.710938 30.316406 22.925781 C 30.351562 23.144531 30.378906 23.359375 30.394531 23.578125 C 30.402344 23.71875 30.40625 23.859375 30.40625 24 C 30.40625 24.21875 30.394531 24.4375 30.371094 24.65625 C 30.351562 24.875 30.316406 25.089844 30.273438 25.304688 C 30.226562 25.519531 30.171875 25.734375 30.105469 25.941406 C 30.066406 26.074219 30.019531 26.207031 29.972656 26.335938 L 45.152344 32.125 Z M 45.152344 15.875 "/>
<path style=" stroke:none;fill-rule:evenodd;fill:rgb(82.352941%,82.352941%,82.352941%);fill-opacity:1;" d="M 15.777344 2.847656 L 11.207031 2.847656 C 6.574219 2.847656 2.847656 6.578125 2.847656 11.210938 L 2.847656 16 L 17.699219 21.660156 C 17.648438 21.789062 17.601562 21.921875 17.558594 22.058594 C 17.492188 22.265625 17.4375 22.480469 17.394531 22.691406 C 17.347656 22.910156 17.316406 23.125 17.292969 23.34375 C 17.269531 23.5625 17.257812 23.78125 17.253906 24 C 17.257812 24.140625 17.261719 24.28125 17.269531 24.421875 C 17.285156 24.640625 17.308594 24.859375 17.347656 25.074219 C 17.382812 25.292969 17.429688 25.503906 17.488281 25.71875 C 17.546875 25.929688 17.613281 26.136719 17.691406 26.339844 L 2.847656 31.996094 L 2.847656 36.789062 C 2.847656 41.425781 6.574219 45.152344 11.210938 45.152344 L 15.777344 45.152344 L 21.496094 30.136719 C 21.625 30.1875 21.757812 30.234375 21.890625 30.277344 C 22.101562 30.339844 22.3125 30.394531 22.527344 30.441406 C 22.742188 30.484375 22.957031 30.519531 23.175781 30.542969 C 23.394531 30.566406 23.613281 30.578125 23.832031 30.578125 C 23.972656 30.578125 24.113281 30.570312 24.253906 30.5625 C 24.472656 30.546875 24.6875 30.523438 24.90625 30.484375 C 25.121094 30.449219 25.335938 30.402344 25.546875 30.34375 C 25.757812 30.289062 25.96875 30.21875 26.175781 30.140625 L 31.886719 45.152344 L 36.792969 45.152344 C 41.425781 45.152344 45.152344 41.425781 45.152344 36.789062 L 45.152344 32.125 L 29.972656 26.335938 C 30.019531 26.207031 30.066406 26.074219 30.105469 25.941406 C 30.171875 25.734375 30.226562 25.519531 30.273438 25.304688 C 30.316406 25.089844 30.351562 24.875 30.371094 24.65625 C 30.394531 24.4375 30.40625 24.21875 30.40625 24 C 30.40625 23.859375 30.402344 23.71875 30.390625 23.578125 C 30.378906 23.359375 30.351562 23.144531 30.316406 22.925781 C 30.28125 22.710938 30.234375 22.496094 30.179688 22.28125 C 30.121094 22.070312 30.050781 21.863281 29.972656 21.660156 L 45.152344 15.875 L 45.152344 11.210938 C 45.152344 6.578125 41.425781 2.847656 36.789062 2.847656 L 31.886719 2.847656 L 26.171875 17.863281 C 26.039062 17.8125 25.910156 17.765625 25.773438 17.726562 C 25.566406 17.660156 25.351562 17.605469 25.136719 17.5625 C 24.921875 17.515625 24.707031 17.484375 24.488281 17.460938 C 24.269531 17.4375 24.050781 17.425781 23.832031 17.425781 C 23.691406 17.425781 23.554688 17.429688 23.414062 17.441406 C 23.195312 17.453125 22.976562 17.476562 22.761719 17.515625 C 22.542969 17.550781 22.332031 17.597656 22.117188 17.65625 C 21.90625 17.710938 21.699219 17.78125 21.496094 17.859375 Z M 15.777344 2.847656 "/>
<path style=" stroke:none;fill-rule:evenodd;fill:rgb(90.588235%,29.803922%,23.529412%);fill-opacity:1;" d="M 15.777344 2.847656 L 21.496094 17.859375 C 21.699219 17.78125 21.90625 17.710938 22.117188 17.652344 C 22.332031 17.597656 22.542969 17.550781 22.761719 17.511719 C 22.976562 17.476562 23.195312 17.453125 23.414062 17.441406 C 23.554688 17.429688 23.691406 17.425781 23.832031 17.425781 C 24.050781 17.425781 24.269531 17.4375 24.488281 17.460938 C 24.707031 17.484375 24.921875 17.515625 25.136719 17.558594 C 25.351562 17.605469 25.566406 17.660156 25.773438 17.722656 C 25.910156 17.765625 26.039062 17.8125 26.171875 17.863281 L 31.886719 2.847656 Z M 15.777344 2.847656 "/>
</g>
</svg>
