<?xml version="1.0" encoding="UTF-8"?>
<svg xmlns="http://www.w3.org/2000/svg" xmlns:xlink="http://www.w3.org/1999/xlink" width="48pt" height="48pt" viewBox="0 0 48 48" version="1.1">
<g id="surface1">
<path style=" stroke:none;fill-rule:evenodd;fill:rgb(18.039216%,54.117647%,25.882353%);fill-opacity:1;" d="M 11.210938 2.847656 L 36.789062 2.847656 C 41.410156 2.847656 45.152344 6.589844 45.152344 11.210938 L 45.152344 36.789062 C 45.152344 41.410156 41.410156 45.152344 36.789062 45.152344 L 11.210938 45.152344 C 6.589844 45.152344 2.847656 41.410156 2.847656 36.789062 L 2.847656 11.210938 C 2.847656 6.589844 6.589844 2.847656 11.210938 2.847656 Z M 11.210938 2.847656 "/>
<path style=" stroke:none;fill-rule:nonzero;fill:rgb(100%,100%,100%);fill-opacity:1;" d="M 9.152344 13.316406 L 13.324219 9.140625 C 13.902344 8.566406 14.835938 8.566406 15.410156 9.140625 L 19.585938 13.316406 C 20.160156 13.890625 20.160156 14.824219 19.585938 15.402344 L 15.410156 19.574219 C 14.835938 20.152344 13.902344 20.152344 13.324219 19.574219 L 9.152344 15.402344 C 8.574219 14.824219 8.574219 13.890625 9.152344 13.316406 Z M 9.152344 13.316406 "/>
<path style=" stroke:none;fill-rule:nonzero;fill:rgb(100%,100%,100%);fill-opacity:1;" d="M 39.28125 24.007812 C 39.28125 15.570312 32.441406 8.726562 24 8.726562 C 15.558594 8.726562 8.71875 15.570312 8.71875 24.007812 C 8.71875 32.449219 15.558594 39.292969 24 39.292969 C 32.441406 39.292969 39.28125 32.449219 39.28125 24.007812 Z M 39.28125 24.007812 "/>
<path style=" stroke:none;fill-rule:nonzero;fill:rgb(80%,80%,80%);fill-opacity:1;" d="M 35.066406 24.007812 C 35.066406 30.121094 30.113281 35.074219 24 35.074219 C 17.886719 35.074219 12.933594 30.121094 12.933594 24.007812 C 12.933594 17.898438 17.886719 12.945312 24 12.945312 C 30.113281 12.945312 35.066406 17.898438 35.066406 24.007812 Z M 35.066406 24.007812 "/>
<path style=" stroke:none;fill-rule:nonzero;fill:rgb(95.686275%,32.156863%,27.45098%);fill-opacity:1;" d="M 28.007812 17.132812 C 28.765625 17.566406 29.074219 18.449219 28.699219 19.097656 L 25.3125 24.960938 C 24.9375 25.609375 24.023438 25.78125 23.265625 25.347656 C 22.507812 24.910156 22.199219 24.03125 22.574219 23.382812 L 25.960938 17.515625 C 26.335938 16.867188 27.253906 16.695312 28.007812 17.132812 Z M 28.007812 17.132812 "/>
<path style=" stroke:none;fill-rule:nonzero;fill:rgb(30.196078%,30.196078%,30.196078%);fill-opacity:1;" d="M 26.636719 24.007812 C 26.636719 25.464844 25.457031 26.644531 24 26.644531 C 22.542969 26.644531 21.363281 25.464844 21.363281 24.007812 C 21.363281 22.554688 22.542969 21.375 24 21.375 C 25.457031 21.375 26.636719 22.554688 26.636719 24.007812 Z M 26.636719 24.007812 "/>
<path style=" stroke:none;fill-rule:nonzero;fill:rgb(30.196078%,30.196078%,30.196078%);fill-opacity:1;" d="M 25.582031 32.441406 C 25.582031 33.3125 24.875 34.023438 24 34.023438 C 23.125 34.023438 22.417969 33.3125 22.417969 32.441406 C 22.417969 31.566406 23.125 30.859375 24 30.859375 C 24.875 30.859375 25.582031 31.566406 25.582031 32.441406 Z M 25.582031 32.441406 "/>
<path style=" stroke:none;fill-rule:nonzero;fill:rgb(30.196078%,30.196078%,30.196078%);fill-opacity:1;" d="M 25.582031 15.578125 C 25.582031 16.453125 24.875 17.160156 24 17.160156 C 23.125 17.160156 22.417969 16.453125 22.417969 15.578125 C 22.417969 14.707031 23.125 13.996094 24 13.996094 C 24.875 13.996094 25.582031 14.707031 25.582031 15.578125 Z M 25.582031 15.578125 "/>
<path style=" stroke:none;fill-rule:nonzero;fill:rgb(30.196078%,30.196078%,30.196078%);fill-opacity:1;" d="M 15.570312 25.589844 C 14.695312 25.589844 13.988281 24.882812 13.988281 24.007812 C 13.988281 23.136719 14.695312 22.429688 15.570312 22.429688 C 16.441406 22.429688 17.148438 23.136719 17.148438 24.007812 C 17.148438 24.882812 16.441406 25.589844 15.570312 25.589844 Z M 15.570312 25.589844 "/>
<path style=" stroke:none;fill-rule:nonzero;fill:rgb(30.196078%,30.196078%,30.196078%);fill-opacity:1;" d="M 32.429688 25.589844 C 31.558594 25.589844 30.851562 24.882812 30.851562 24.007812 C 30.851562 23.136719 31.558594 22.429688 32.429688 22.429688 C 33.304688 22.429688 34.011719 23.136719 34.011719 24.007812 C 34.011719 24.882812 33.304688 25.589844 32.429688 25.589844 Z M 32.429688 25.589844 "/>
</g>
</svg>
