<?xml version="1.0" encoding="UTF-8"?>
<svg xmlns="http://www.w3.org/2000/svg" xmlns:xlink="http://www.w3.org/1999/xlink" width="48pt" height="48pt" viewBox="0 0 48 48" version="1.1">
<g id="surface1">
<path style=" stroke:none;fill-rule:evenodd;fill:rgb(55.686275%,55.686275%,55.686275%);fill-opacity:1;" d="M 11.210938 2.847656 L 36.789062 2.847656 C 41.410156 2.847656 45.152344 6.589844 45.152344 11.210938 L 45.152344 36.789062 C 45.152344 41.410156 41.410156 45.152344 36.789062 45.152344 L 11.210938 45.152344 C 6.589844 45.152344 2.847656 41.410156 2.847656 36.789062 L 2.847656 11.210938 C 2.847656 6.589844 6.589844 2.847656 11.210938 2.847656 Z M 11.210938 2.847656 "/>
<path style=" stroke:none;fill-rule:nonzero;fill:rgb(27.843137%,27.843137%,27.843137%);fill-opacity:1;" d="M 13.371094 12.269531 L 34.628906 12.269531 C 37.414062 12.269531 39.671875 14.527344 39.671875 17.3125 L 39.671875 30.6875 C 39.671875 33.472656 37.414062 35.730469 34.628906 35.730469 L 13.371094 35.730469 C 10.585938 35.730469 8.328125 33.472656 8.328125 30.6875 L 8.328125 17.3125 C 8.328125 14.527344 10.585938 12.269531 13.371094 12.269531 Z M 13.371094 12.269531 "/>
<path style=" stroke:none;fill-rule:nonzero;fill:rgb(11.372549%,51.372549%,68.627451%);fill-opacity:1;" d="M 13.558594 13.753906 L 34.441406 13.753906 C 36.550781 13.753906 38.261719 15.394531 38.261719 17.421875 L 38.261719 30.578125 C 38.261719 32.605469 36.550781 34.246094 34.441406 34.246094 L 13.558594 34.246094 C 11.449219 34.246094 9.738281 32.605469 9.738281 30.578125 L 9.738281 17.421875 C 9.738281 15.394531 11.449219 13.753906 13.558594 13.753906 Z M 13.558594 13.753906 "/>
<path style=" stroke:none;fill-rule:nonzero;fill:rgb(94.117647%,97.647059%,99.215686%);fill-opacity:1;" d="M 34.261719 20.007812 C 34.261719 22.214844 32.476562 24 30.273438 24 C 28.066406 24 26.28125 22.214844 26.28125 20.007812 C 26.28125 17.804688 28.066406 16.015625 30.273438 16.015625 C 32.476562 16.015625 34.261719 17.804688 34.261719 20.007812 Z M 34.261719 20.007812 "/>
<path style=" stroke:none;fill-rule:nonzero;fill:rgb(76.862745%,90.588235%,96.078431%);fill-opacity:1;" d="M 19.4375 24.570312 C 19.4375 26.144531 18.164062 27.421875 16.585938 27.421875 C 15.011719 27.421875 13.738281 26.144531 13.738281 24.570312 C 13.738281 22.996094 15.011719 21.71875 16.585938 21.71875 C 18.164062 21.71875 19.4375 22.996094 19.4375 24.570312 Z M 19.4375 24.570312 "/>
<path style=" stroke:none;fill-rule:nonzero;fill:rgb(65.098039%,85.490196%,94.117647%);fill-opacity:1;" d="M 28.5625 29.703125 C 28.5625 30.960938 27.539062 31.984375 26.28125 31.984375 C 25.019531 31.984375 24 30.960938 24 29.703125 C 24 28.441406 25.019531 27.421875 26.28125 27.421875 C 27.539062 27.421875 28.5625 28.441406 28.5625 29.703125 Z M 28.5625 29.703125 "/>
<path style=" stroke:none;fill-rule:nonzero;fill:rgb(76.862745%,90.588235%,96.078431%);fill-opacity:1;" d="M 24 20.007812 C 24 20.953125 23.234375 21.71875 22.289062 21.71875 C 21.34375 21.71875 20.578125 20.953125 20.578125 20.007812 C 20.578125 19.0625 21.34375 18.296875 22.289062 18.296875 C 23.234375 18.296875 24 19.0625 24 20.007812 Z M 24 20.007812 "/>
<path style=" stroke:none;fill-rule:nonzero;fill:rgb(82.745098%,92.941176%,97.254902%);fill-opacity:1;" d="M 33.851562 28.199219 C 33.851562 29.027344 33.183594 29.699219 32.351562 29.699219 C 31.523438 29.699219 30.851562 29.027344 30.851562 28.199219 C 30.851562 27.371094 31.523438 26.699219 32.351562 26.699219 C 33.183594 26.699219 33.851562 27.371094 33.851562 28.199219 Z M 33.851562 28.199219 "/>
</g>
</svg>
