<?xml version="1.0" encoding="UTF-8"?>
<svg xmlns="http://www.w3.org/2000/svg" xmlns:xlink="http://www.w3.org/1999/xlink" width="48pt" height="48pt" viewBox="0 0 48 48" version="1.1">
<defs>
<clipPath id="clip1">
  <rect width="48" height="48"/>
</clipPath>
<g id="surface6" clip-path="url(#clip1)">
<path style=" stroke:none;fill-rule:nonzero;fill:rgb(95.294118%,25.882353%,20.784314%);fill-opacity:1;" d="M 14.464844 7.132812 C 10.648438 7.132812 7.550781 10.171875 7.550781 13.921875 C 7.550781 14.15625 7.570312 14.371094 7.59375 14.601562 C 7.613281 14.828125 7.644531 15.058594 7.679688 15.28125 C 8.472656 20.050781 11.699219 23.433594 14.464844 26.148438 C 17.230469 23.433594 20.460938 20.050781 21.25 15.28125 C 21.289062 15.058594 21.320312 14.828125 21.339844 14.601562 C 21.363281 14.371094 21.382812 14.15625 21.382812 13.921875 C 21.382812 10.171875 18.285156 7.132812 14.464844 7.132812 Z M 14.464844 7.132812 "/>
</g>
<clipPath id="clip2">
  <rect width="48" height="48"/>
</clipPath>
<g id="surface9" clip-path="url(#clip2)">
<path style=" stroke:none;fill-rule:nonzero;fill:rgb(100%,100%,100%);fill-opacity:1;" d="M 14.464844 10.589844 C 15.898438 10.589844 17.058594 11.75 17.058594 13.183594 C 17.058594 14.613281 15.898438 15.777344 14.464844 15.777344 C 13.035156 15.777344 11.871094 14.613281 11.871094 13.183594 C 11.871094 11.75 13.035156 10.589844 14.464844 10.589844 Z M 14.464844 10.589844 "/>
</g>
</defs>
<g id="surface1">
<path style=" stroke:none;fill-rule:evenodd;fill:rgb(12.54902%,58.431373%,94.901961%);fill-opacity:1;" d="M 41.238281 43.695312 L 24.625 27.089844 L 7.539062 44.222656 C 8.660156 44.777344 9.875 45.152344 11.207031 45.152344 L 36.789062 45.152344 C 38.46875 45.152344 39.933594 44.539062 41.238281 43.695312 Z M 41.238281 43.695312 "/>
<path style=" stroke:none;fill-rule:evenodd;fill:rgb(100%,89.803922%,0%);fill-opacity:1;" d="M 44.582031 39.617188 L 28.335938 23.371094 L 24.625 27.089844 L 41.238281 43.695312 C 42.757812 42.714844 43.957031 41.351562 44.582031 39.617188 Z M 44.582031 39.617188 "/>
<path style=" stroke:none;fill-rule:evenodd;fill:rgb(0%,63.921569%,10.980392%);fill-opacity:1;" d="M 44.179688 7.480469 L 28.335938 23.371094 L 44.582031 39.617188 C 44.90625 38.726562 45.152344 37.796875 45.152344 36.789062 L 45.152344 11.207031 C 45.152344 9.847656 44.753906 8.613281 44.179688 7.480469 Z M 44.179688 7.480469 "/>
<path style=" stroke:none;fill-rule:evenodd;fill:rgb(100%,100%,100%);fill-opacity:1;" d="M 40.542969 3.835938 L 3.820312 40.523438 C 4.632812 42.132812 5.921875 43.425781 7.539062 44.222656 L 44.179688 7.480469 C 43.382812 5.898438 42.121094 4.636719 40.542969 3.835938 Z M 40.542969 3.835938 "/>
<path style=" stroke:none;fill-rule:evenodd;fill:rgb(91.372549%,89.803922%,86.27451%);fill-opacity:1;" d="M 11.207031 2.847656 C 6.574219 2.847656 2.847656 6.574219 2.847656 11.207031 L 2.847656 36.789062 C 2.847656 38.15625 3.246094 39.386719 3.820312 40.523438 L 40.542969 3.835938 C 39.402344 3.253906 38.164062 2.847656 36.789062 2.847656 Z M 11.207031 2.847656 "/>
<use xlink:href="#surface6"/>
<use xlink:href="#surface9"/>
</g>
</svg>
