<?xml version="1.0" encoding="UTF-8"?>
<svg xmlns="http://www.w3.org/2000/svg" xmlns:xlink="http://www.w3.org/1999/xlink" width="48pt" height="48pt" viewBox="0 0 48 48" version="1.1">
<g id="surface1">
<path style=" stroke:none;fill-rule:evenodd;fill:rgb(41.960784%,41.960784%,41.960784%);fill-opacity:1;" d="M 11.210938 2.847656 L 36.789062 2.847656 C 41.410156 2.847656 45.152344 6.589844 45.152344 11.210938 L 45.152344 36.789062 C 45.152344 41.410156 41.410156 45.152344 36.789062 45.152344 L 11.210938 45.152344 C 6.589844 45.152344 2.847656 41.410156 2.847656 36.789062 L 2.847656 11.210938 C 2.847656 6.589844 6.589844 2.847656 11.210938 2.847656 Z M 11.210938 2.847656 "/>
<path style=" stroke:none;fill-rule:evenodd;fill:rgb(47.058824%,32.941176%,22.352941%);fill-opacity:1;" d="M 13.28125 45.152344 L 13.28125 34.71875 L 2.847656 34.71875 L 2.847656 36.792969 C 2.847656 41.425781 6.574219 45.152344 11.207031 45.152344 Z M 13.28125 45.152344 "/>
<path style=" stroke:none;fill-rule:evenodd;fill:rgb(34.509804%,23.529412%,15.686275%);fill-opacity:1;" d="M 24 45.152344 L 24 34.71875 L 13.28125 34.71875 L 13.28125 45.152344 Z M 24 45.152344 "/>
<path style=" stroke:none;fill-rule:evenodd;fill:rgb(72.156863%,51.764706%,35.686275%);fill-opacity:1;" d="M 34.71875 45.152344 L 34.71875 34.71875 L 24 34.71875 L 24 45.152344 Z M 34.71875 45.152344 "/>
<path style=" stroke:none;fill-rule:evenodd;fill:rgb(58.431373%,41.960784%,28.627451%);fill-opacity:1;" d="M 45.152344 34.71875 L 34.71875 34.71875 L 34.71875 45.152344 L 36.792969 45.152344 C 41.425781 45.152344 45.152344 41.425781 45.152344 36.792969 Z M 45.152344 34.71875 "/>
<path style=" stroke:none;fill-rule:evenodd;fill:rgb(47.058824%,32.941176%,22.352941%);fill-opacity:1;" d="M 13.28125 34.71875 L 13.28125 24 L 2.847656 24 L 2.847656 34.71875 Z M 13.28125 34.71875 "/>
<path style=" stroke:none;fill-rule:evenodd;fill:rgb(41.960784%,41.960784%,41.960784%);fill-opacity:1;" d="M 34.71875 34.71875 L 34.71875 24 L 24 24 L 24 34.71875 Z M 34.71875 34.71875 "/>
<path style=" stroke:none;fill-rule:evenodd;fill:rgb(60.784314%,79.215686%,41.960784%);fill-opacity:1;" d="M 45.152344 24 L 34.71875 24 L 34.71875 34.71875 L 45.152344 34.71875 Z M 45.152344 24 "/>
<path style=" stroke:none;fill-rule:evenodd;fill:rgb(44.705882%,69.803922%,28.235294%);fill-opacity:1;" d="M 45.152344 13.28125 L 34.71875 13.28125 L 34.71875 24 L 45.152344 24 Z M 45.152344 13.28125 "/>
<path style=" stroke:none;fill-rule:evenodd;fill:rgb(58.431373%,41.960784%,28.627451%);fill-opacity:1;" d="M 34.71875 13.28125 L 24 13.28125 L 24 24 L 34.71875 24 Z M 34.71875 13.28125 "/>
<path style=" stroke:none;fill-rule:evenodd;fill:rgb(58.431373%,41.960784%,28.627451%);fill-opacity:1;" d="M 24 24 L 13.28125 24 L 13.28125 34.71875 L 24 34.71875 Z M 24 24 "/>
<path style=" stroke:none;fill-rule:evenodd;fill:rgb(60.784314%,79.215686%,41.960784%);fill-opacity:1;" d="M 24 13.28125 L 13.28125 13.28125 L 13.28125 24 L 24 24 Z M 24 13.28125 "/>
<path style=" stroke:none;fill-rule:evenodd;fill:rgb(37.647059%,62.745098%,21.176471%);fill-opacity:1;" d="M 34.71875 2.847656 L 34.71875 13.28125 L 45.152344 13.28125 L 45.152344 11.207031 C 45.152344 6.574219 41.425781 2.847656 36.792969 2.847656 Z M 34.71875 2.847656 "/>
<path style=" stroke:none;fill-rule:evenodd;fill:rgb(44.705882%,69.803922%,28.235294%);fill-opacity:1;" d="M 24 2.847656 L 13.28125 2.847656 L 13.28125 13.28125 L 24 13.28125 Z M 24 2.847656 "/>
<path style=" stroke:none;fill-rule:evenodd;fill:rgb(33.72549%,58.823529%,17.254902%);fill-opacity:1;" d="M 24 2.847656 L 24 13.28125 L 34.71875 13.28125 L 34.71875 2.847656 Z M 24 2.847656 "/>
<path style=" stroke:none;fill-rule:evenodd;fill:rgb(34.509804%,23.529412%,15.686275%);fill-opacity:1;" d="M 2.847656 13.28125 L 2.847656 24 L 13.28125 24 L 13.28125 13.28125 Z M 2.847656 13.28125 "/>
<path style=" stroke:none;fill-rule:evenodd;fill:rgb(33.72549%,58.823529%,17.254902%);fill-opacity:1;" d="M 2.847656 13.28125 L 13.28125 13.28125 L 13.28125 2.847656 L 11.207031 2.847656 C 6.574219 2.847656 2.847656 6.574219 2.847656 11.207031 Z M 2.847656 13.28125 "/>
</g>
</svg>
