<?xml version="1.0" encoding="UTF-8"?>
<svg xmlns="http://www.w3.org/2000/svg" xmlns:xlink="http://www.w3.org/1999/xlink" width="48pt" height="48pt" viewBox="0 0 48 48" version="1.1">
<g id="surface1">
<path style=" stroke:none;fill-rule:evenodd;fill:rgb(93.333333%,84.705882%,24.313725%);fill-opacity:1;" d="M 44.863281 38.226562 C 43.574219 37.453125 42.371094 36.585938 40.941406 35.972656 C 38.5 34.925781 35.878906 34.117188 33.164062 33.554688 C 30.449219 32.992188 27.636719 32.675781 24.824219 32.621094 C 22.007812 32.566406 19.191406 32.769531 16.457031 33.242188 C 13.722656 33.714844 11.070312 34.457031 8.589844 35.480469 C 6.636719 36.28125 4.898438 37.398438 3.203125 38.554688 C 3.988281 42.113281 6.898438 44.765625 10.625 45.035156 L 37.375 45.035156 C 41.21875 44.757812 44.195312 41.945312 44.863281 38.226562 Z M 44.863281 38.226562 "/>
<path style=" stroke:none;fill-rule:evenodd;fill:rgb(26.27451%,27.843137%,31.372549%);fill-opacity:1;" d="M 11.207031 2.847656 C 6.574219 2.847656 2.847656 6.574219 2.847656 11.207031 L 2.847656 36.792969 C 2.847656 37.417969 3.074219 37.96875 3.203125 38.554688 C 4.898438 37.398438 6.636719 36.28125 8.589844 35.480469 C 11.070312 34.457031 13.722656 33.714844 16.457031 33.242188 C 19.191406 32.769531 22.007812 32.566406 24.824219 32.621094 C 27.636719 32.675781 30.449219 32.992188 33.164062 33.554688 C 35.878906 34.117188 38.5 34.925781 40.941406 35.972656 C 42.371094 36.585938 43.574219 37.453125 44.863281 38.226562 C 44.949219 37.742188 45.152344 37.300781 45.152344 36.792969 L 45.152344 11.207031 C 45.152344 6.574219 41.425781 2.847656 36.792969 2.847656 Z M 11.207031 2.847656 "/>
<path style=" stroke:none;fill-rule:nonzero;fill:rgb(76.470588%,46.666667%,0%);fill-opacity:1;" d="M 21.816406 16.308594 L 27.039062 16.308594 L 27.039062 37.425781 L 21.816406 37.425781 Z M 21.816406 16.308594 "/>
<path style="fill-rule:nonzero;fill:rgb(30.588235%,60.392157%,2.352941%);fill-opacity:1;stroke-width:0.432355;stroke-linecap:butt;stroke-linejoin:miter;stroke:rgb(25.098039%,46.27451%,7.058824%);stroke-opacity:1;stroke-miterlimit:4;" d="M 6.31362 16.494247 C 6.998516 3.593205 26.079245 4.830184 25.811016 16.929143 C 24.365704 15.163518 23.159975 13.067164 21.118308 12.14008 C 21.386537 14.356226 20.592266 16.26508 20.003725 18.236434 C 18.764141 16.272893 17.521954 14.629664 16.279766 14.074976 C 14.597475 15.085393 13.128725 16.410914 12.217266 18.574976 C 10.58185 14.89008 11.016745 13.949976 11.201641 12.382268 C 9.279766 13.275497 7.589662 14.569768 6.31362 16.494247 Z M 6.31362 16.494247 " transform="matrix(1.5,0,0,1.5,-0.0641806,-0.0890267)"/>
</g>
</svg>
