<?xml version="1.0" encoding="UTF-8"?>
<svg xmlns="http://www.w3.org/2000/svg" xmlns:xlink="http://www.w3.org/1999/xlink" width="48pt" height="48pt" viewBox="0 0 48 48" version="1.1">
<defs>
<clipPath id="clip1">
  <rect width="48" height="48"/>
</clipPath>
<g id="surface6" clip-path="url(#clip1)">
<path style=" stroke:none;fill-rule:nonzero;fill:rgb(100%,100%,100%);fill-opacity:1;" d="M 24 13.542969 C 20.0625 13.542969 16.707031 15.953125 15.265625 19.363281 C 11.597656 19.910156 8.789062 23.035156 8.789062 26.851562 C 8.789062 31.054688 12.195312 34.457031 16.394531 34.457031 L 32.554688 34.457031 C 36.230469 34.457031 39.210938 31.476562 39.210938 27.804688 C 39.210938 24.386719 36.644531 21.585938 33.328125 21.207031 C 32.464844 16.847656 28.613281 13.542969 24 13.542969 Z M 24 13.542969 "/>
</g>
</defs>
<g id="surface1">
<path style=" stroke:none;fill-rule:evenodd;fill:rgb(80%,80%,80%);fill-opacity:1;" d="M 11.210938 2.847656 L 36.789062 2.847656 C 41.410156 2.847656 45.152344 6.589844 45.152344 11.210938 L 45.152344 36.789062 C 45.152344 41.410156 41.410156 45.152344 36.789062 45.152344 L 11.210938 45.152344 C 6.589844 45.152344 2.847656 41.410156 2.847656 36.789062 L 2.847656 11.210938 C 2.847656 6.589844 6.589844 2.847656 11.210938 2.847656 Z M 11.210938 2.847656 "/>
<use xlink:href="#surface6"/>
<path style=" stroke:none;fill-rule:nonzero;fill:rgb(50.196078%,50.196078%,50.196078%);fill-opacity:1;" d="M 25.394531 18.246094 C 24.761719 18.277344 24.226562 18.71875 24.078125 19.335938 C 23.929688 19.953125 24.203125 20.59375 24.753906 20.910156 C 24.753906 20.910156 26.796875 21.945312 26.796875 25.464844 C 26.796875 27.21875 26.234375 28.289062 25.699219 28.976562 C 25.164062 29.664062 24.746094 29.878906 24.746094 29.878906 C 24.285156 30.113281 23.988281 30.578125 23.96875 31.097656 C 23.953125 31.613281 24.214844 32.101562 24.660156 32.367188 C 25.101562 32.636719 25.65625 32.640625 26.105469 32.382812 C 26.105469 32.382812 27.085938 31.835938 27.949219 30.730469 C 28.8125 29.621094 29.648438 27.859375 29.648438 25.464844 C 29.648438 20.6875 26.214844 18.457031 26.214844 18.457031 C 25.96875 18.304688 25.683594 18.234375 25.394531 18.246094 Z M 25.394531 18.246094 "/>
<path style=" stroke:none;fill-rule:nonzero;fill:rgb(50.196078%,50.196078%,50.196078%);fill-opacity:1;" d="M 19.683594 20.191406 C 19 20.199219 18.417969 20.695312 18.296875 21.371094 C 18.179688 22.046875 18.558594 22.710938 19.203125 22.949219 C 19.203125 22.949219 21.148438 23.71875 21.148438 25.503906 C 21.148438 27.289062 19.265625 27.878906 19.265625 27.878906 C 18.519531 28.128906 18.117188 28.9375 18.371094 29.683594 C 18.621094 30.429688 19.429688 30.832031 20.175781 30.582031 C 20.175781 30.582031 24 29.25 24 25.503906 C 24 21.757812 20.242188 20.296875 20.242188 20.296875 C 20.066406 20.222656 19.875 20.1875 19.683594 20.191406 Z M 19.683594 20.191406 "/>
</g>
</svg>
