<?xml version="1.0" encoding="UTF-8"?>
<svg xmlns="http://www.w3.org/2000/svg" xmlns:xlink="http://www.w3.org/1999/xlink" width="48pt" height="48pt" viewBox="0 0 48 48" version="1.1">
<g id="surface1">
<path style=" stroke:none;fill-rule:evenodd;fill:rgb(30.980392%,30.980392%,30.980392%);fill-opacity:1;" d="M 11.210938 2.847656 L 36.789062 2.847656 C 41.410156 2.847656 45.152344 6.589844 45.152344 11.210938 L 45.152344 36.789062 C 45.152344 41.410156 41.410156 45.152344 36.789062 45.152344 L 11.210938 45.152344 C 6.589844 45.152344 2.847656 41.410156 2.847656 36.789062 L 2.847656 11.210938 C 2.847656 6.589844 6.589844 2.847656 11.210938 2.847656 Z M 11.210938 2.847656 "/>
<path style=" stroke:none;fill-rule:nonzero;fill:rgb(100%,100%,100%);fill-opacity:1;" d="M 24 10.5 C 16.542969 10.5 10.5 16.542969 10.5 24 C 10.5 31.457031 16.542969 37.5 24 37.5 C 31.457031 37.5 37.5 31.457031 37.5 24 C 37.5 16.542969 31.457031 10.5 24 10.5 Z M 24 16.5 C 28.140625 16.5 31.5 19.859375 31.5 24 C 31.5 28.140625 28.140625 31.5 24 31.5 C 19.859375 31.5 16.5 28.140625 16.5 24 C 16.5 19.859375 19.859375 16.5 24 16.5 Z M 24 16.5 "/>
</g>
</svg>
