<?xml version="1.0" encoding="UTF-8"?>
<svg xmlns="http://www.w3.org/2000/svg" xmlns:xlink="http://www.w3.org/1999/xlink" width="48pt" height="48pt" viewBox="0 0 48 48" version="1.1">
<g id="surface1">
<path style=" stroke:none;fill-rule:evenodd;fill:rgb(38.431373%,68.235294%,100%);fill-opacity:1;" d="M 11.210938 2.847656 L 36.789062 2.847656 C 41.410156 2.847656 45.152344 6.589844 45.152344 11.210938 L 45.152344 36.789062 C 45.152344 41.410156 41.410156 45.152344 36.789062 45.152344 L 11.210938 45.152344 C 6.589844 45.152344 2.847656 41.410156 2.847656 36.789062 L 2.847656 11.210938 C 2.847656 6.589844 6.589844 2.847656 11.210938 2.847656 Z M 11.210938 2.847656 "/>
<path style=" stroke:none;fill-rule:nonzero;fill:rgb(63.529412%,49.803922%,74.117647%);fill-opacity:1;" d="M 25.964844 29.117188 L 35.132812 38.285156 C 37.253906 40.496094 40.523438 37.226562 38.3125 35.105469 L 29.003906 25.796875 C 25.449219 26.976562 26.949219 26.976562 25.964844 29.117188 Z M 25.964844 29.117188 "/>
<path style=" stroke:none;fill-rule:nonzero;fill:rgb(100%,100%,100%);fill-opacity:1;" d="M 20.949219 8.976562 C 14.324219 8.976562 8.949219 14.351562 8.949219 20.976562 C 8.949219 27.605469 14.324219 32.976562 20.949219 32.976562 C 27.578125 32.976562 32.949219 27.605469 32.949219 20.976562 C 32.949219 14.351562 27.578125 8.976562 20.949219 8.976562 Z M 20.949219 8.976562 "/>
<path style=" stroke:none;fill-rule:nonzero;fill:rgb(38.431373%,68.235294%,100%);fill-opacity:1;" d="M 14.949219 15.621094 L 14.949219 26.335938 C 14.949219 28.476562 16.449219 28.476562 16.449219 28.476562 C 16.449219 28.476562 17.949219 28.476562 17.949219 26.335938 L 17.949219 23.976562 L 23.949219 23.976562 L 23.949219 26.335938 C 23.949219 28.476562 25.449219 28.476562 25.449219 28.476562 C 25.449219 28.476562 26.949219 28.476562 26.949219 26.335938 L 26.949219 15.621094 C 26.949219 15.621094 26.949219 13.476562 24.949219 13.476562 L 16.949219 13.476562 C 14.949219 13.476562 14.949219 15.621094 14.949219 15.621094 Z M 17.949219 16.476562 L 23.949219 16.476562 L 23.949219 20.976562 L 17.949219 20.976562 Z M 17.949219 16.476562 "/>
</g>
</svg>
