<?xml version="1.0" encoding="UTF-8"?>
<svg xmlns="http://www.w3.org/2000/svg" xmlns:xlink="http://www.w3.org/1999/xlink" width="48pt" height="48pt" viewBox="0 0 48 48" version="1.1">
<g id="surface1">
<path style=" stroke:none;fill-rule:evenodd;fill:rgb(14.509804%,47.058824%,20%);fill-opacity:1;" d="M 11.210938 2.847656 L 36.789062 2.847656 C 41.410156 2.847656 45.152344 6.589844 45.152344 11.210938 L 45.152344 36.789062 C 45.152344 41.410156 41.410156 45.152344 36.789062 45.152344 L 11.210938 45.152344 C 6.589844 45.152344 2.847656 41.410156 2.847656 36.789062 L 2.847656 11.210938 C 2.847656 6.589844 6.589844 2.847656 11.210938 2.847656 Z M 11.210938 2.847656 "/>
<path style=" stroke:none;fill-rule:nonzero;fill:rgb(29.411765%,68.235294%,30.980392%);fill-opacity:1;" d="M 7.90625 28.222656 L 19.777344 40.09375 C 20.171875 40.488281 20.808594 40.488281 21.203125 40.09375 L 33.074219 28.222656 C 33.46875 27.828125 33.46875 27.191406 33.074219 26.796875 L 21.203125 14.925781 C 20.808594 14.53125 20.171875 14.53125 19.777344 14.925781 L 7.90625 26.796875 C 7.511719 27.191406 7.511719 27.828125 7.90625 28.222656 Z M 7.90625 28.222656 "/>
<path style=" stroke:none;fill-rule:nonzero;fill:rgb(29.411765%,68.235294%,30.980392%);fill-opacity:1;" d="M 14.925781 28.222656 L 26.796875 40.09375 C 27.191406 40.488281 27.828125 40.488281 28.222656 40.09375 L 40.09375 28.222656 C 40.488281 27.828125 40.488281 27.191406 40.09375 26.796875 L 28.222656 14.925781 C 27.828125 14.53125 27.191406 14.53125 26.796875 14.925781 L 14.925781 26.796875 C 14.53125 27.191406 14.53125 27.828125 14.925781 28.222656 Z M 14.925781 28.222656 "/>
<path style=" stroke:none;fill-rule:nonzero;fill:rgb(96.078431%,51.764706%,6.666667%);fill-opacity:1;" d="M 7.984375 24.90625 L 23.09375 40.015625 C 23.59375 40.515625 24.40625 40.515625 24.90625 40.015625 L 40.015625 24.90625 C 40.515625 24.40625 40.515625 23.59375 40.015625 23.09375 L 24.90625 7.984375 C 24.40625 7.484375 23.59375 7.484375 23.09375 7.984375 L 7.984375 23.09375 C 7.484375 23.59375 7.484375 24.40625 7.984375 24.90625 Z M 7.984375 24.90625 "/>
<path style=" stroke:none;fill-rule:nonzero;fill:rgb(100%,100%,100%);fill-opacity:1;" d="M 25.167969 30.4375 C 26.089844 30.363281 26.21875 30.128906 26.699219 29.714844 C 27.1875 29.296875 27.25 28.816406 27.25 28.097656 C 27.25 27.445312 27.292969 26.707031 26.8125 26.253906 C 26.332031 25.796875 26.097656 25.402344 25.167969 25.167969 Z M 22.828125 17.558594 C 21.988281 17.609375 21.738281 17.929688 21.273438 18.332031 C 20.808594 18.722656 20.746094 19.234375 20.746094 19.898438 C 20.746094 20.503906 20.789062 21.027344 21.210938 21.429688 C 21.644531 21.828125 21.917969 21.992188 22.828125 22.242188 Z M 18.144531 30.4375 L 18.144531 27.511719 L 19.445312 27.511719 C 19.476562 28.546875 19.773438 28.992188 20.390625 29.523438 C 21.007812 30.050781 21.605469 30.414062 22.828125 30.4375 L 22.828125 25.167969 C 20.957031 24.683594 20.039062 23.804688 19.28125 23.175781 C 18.523438 22.542969 18.144531 21.703125 18.144531 20.65625 C 18.144531 19.445312 18.59375 18.472656 19.488281 17.738281 C 20.386719 17.007812 21.230469 16.476562 22.828125 16.386719 L 22.828125 13.460938 L 25.167969 13.460938 L 25.167969 16.386719 C 25.992188 16.652344 26.269531 16.710938 26.816406 16.878906 C 27.613281 17.121094 28.476562 17.304688 29.203125 17.617188 L 29.203125 20.484375 L 27.902344 20.484375 C 27.804688 19.605469 27.445312 18.941406 26.882812 18.4375 C 26.320312 17.929688 26.128906 17.625 25.167969 17.558594 L 25.167969 22.828125 C 27.171875 23.332031 27.851562 23.871094 28.648438 24.527344 C 29.453125 25.179688 29.851562 25.828125 29.851562 26.925781 C 29.851562 28.179688 29.328125 29.34375 28.441406 30.167969 C 27.597656 30.949219 26.886719 31.496094 25.167969 31.609375 L 25.167969 34.535156 L 22.828125 34.535156 L 22.828125 31.609375 C 22.070312 31.441406 21.632812 31.351562 20.796875 31.15625 C 19.957031 30.96875 19.054688 30.816406 18.144531 30.4375 Z M 18.144531 30.4375 "/>
</g>
</svg>
