<?xml version="1.0" encoding="UTF-8"?>
<svg xmlns="http://www.w3.org/2000/svg" xmlns:xlink="http://www.w3.org/1999/xlink" width="48pt" height="48pt" viewBox="0 0 48 48" version="1.1">
<g id="surface1">
<path style=" stroke:none;fill-rule:evenodd;fill:rgb(100%,100%,100%);fill-opacity:1;" d="M 11.210938 2.847656 L 36.789062 2.847656 C 41.410156 2.847656 45.152344 6.589844 45.152344 11.210938 L 45.152344 36.789062 C 45.152344 41.410156 41.410156 45.152344 36.789062 45.152344 L 11.210938 45.152344 C 6.589844 45.152344 2.847656 41.410156 2.847656 36.789062 L 2.847656 11.210938 C 2.847656 6.589844 6.589844 2.847656 11.210938 2.847656 Z M 11.210938 2.847656 "/>
<path style=" stroke:none;fill-rule:nonzero;fill:rgb(80%,80%,80%);fill-opacity:1;" d="M 24 5.847656 L 24 13.628906 C 28.296875 13.628906 31.78125 18.269531 31.78125 24 C 31.78125 29.730469 28.296875 34.371094 24 34.371094 C 21.851562 34.371094 20.109375 36.113281 20.109375 38.261719 C 20.109375 40.410156 21.851562 42.152344 24 42.152344 C 24.109375 42.152344 24.222656 42.144531 24.332031 42.136719 C 34.230469 41.957031 42.152344 33.945312 42.152344 24 C 42.152344 13.945312 34.054688 5.847656 24 5.847656 Z M 24 5.847656 "/>
<path style=" stroke:none;fill-rule:nonzero;fill:rgb(90.588235%,29.803922%,23.529412%);fill-opacity:1;" d="M 24 5.847656 C 23.890625 5.847656 23.777344 5.855469 23.667969 5.863281 C 13.769531 6.042969 5.847656 14.054688 5.847656 24 C 5.847656 33.925781 13.738281 41.925781 23.613281 42.132812 C 21.625 41.933594 20.109375 40.261719 20.109375 38.261719 C 20.109375 36.113281 21.851562 34.371094 24 34.371094 C 19.703125 34.371094 16.21875 29.730469 16.21875 24 C 16.21875 18.269531 19.703125 13.628906 24 13.628906 C 26.148438 13.628906 27.890625 11.886719 27.890625 9.738281 C 27.890625 7.589844 26.148438 5.847656 24 5.847656 Z M 24 5.847656 "/>
</g>
</svg>
