<?xml version="1.0" encoding="UTF-8"?>
<svg xmlns="http://www.w3.org/2000/svg" xmlns:xlink="http://www.w3.org/1999/xlink" width="48pt" height="48pt" viewBox="0 0 48 48" version="1.1">
<defs>
<g>
<symbol overflow="visible" id="glyph0-0">
<path style="stroke:none;" d="M 0.40625 1.421875 L 0.40625 -5.640625 L 4.40625 -5.640625 L 4.40625 1.421875 Z M 0.84375 0.96875 L 3.953125 0.96875 L 3.953125 -5.1875 L 0.84375 -5.1875 Z M 0.84375 0.96875 "/>
</symbol>
<symbol overflow="visible" id="glyph0-1">
<path style="stroke:none;" d="M 1.578125 -5.1875 L 1.578125 -3 L 2.5625 -3 C 2.9375 -3 3.222656 -3.09375 3.421875 -3.28125 C 3.617188 -3.46875 3.71875 -3.738281 3.71875 -4.09375 C 3.71875 -4.4375 3.617188 -4.703125 3.421875 -4.890625 C 3.222656 -5.085938 2.9375 -5.1875 2.5625 -5.1875 Z M 0.78125 -5.828125 L 2.5625 -5.828125 C 3.21875 -5.828125 3.710938 -5.679688 4.046875 -5.390625 C 4.378906 -5.097656 4.546875 -4.664062 4.546875 -4.09375 C 4.546875 -3.519531 4.378906 -3.082031 4.046875 -2.78125 C 3.710938 -2.488281 3.21875 -2.34375 2.5625 -2.34375 L 1.578125 -2.34375 L 1.578125 0 L 0.78125 0 Z M 0.78125 -5.828125 "/>
</symbol>
<symbol overflow="visible" id="glyph0-2">
<path style="stroke:none;" d="M 1.578125 -5.1875 L 1.578125 -0.65625 L 2.53125 -0.65625 C 3.332031 -0.65625 3.921875 -0.835938 4.296875 -1.203125 C 4.671875 -1.566406 4.859375 -2.140625 4.859375 -2.921875 C 4.859375 -3.703125 4.671875 -4.273438 4.296875 -4.640625 C 3.921875 -5.003906 3.332031 -5.1875 2.53125 -5.1875 Z M 0.78125 -5.828125 L 2.40625 -5.828125 C 3.539062 -5.828125 4.367188 -5.59375 4.890625 -5.125 C 5.421875 -4.65625 5.6875 -3.921875 5.6875 -2.921875 C 5.6875 -1.921875 5.421875 -1.179688 4.890625 -0.703125 C 4.359375 -0.234375 3.53125 0 2.40625 0 L 0.78125 0 Z M 0.78125 -5.828125 "/>
</symbol>
<symbol overflow="visible" id="glyph0-3">
<path style="stroke:none;" d="M 0.78125 -5.828125 L 4.140625 -5.828125 L 4.140625 -5.171875 L 1.578125 -5.171875 L 1.578125 -3.453125 L 3.890625 -3.453125 L 3.890625 -2.78125 L 1.578125 -2.78125 L 1.578125 0 L 0.78125 0 Z M 0.78125 -5.828125 "/>
</symbol>
</g>
</defs>
<g id="surface1">
<path style=" stroke:none;fill-rule:evenodd;fill:rgb(76.862745%,9.803922%,12.156863%);fill-opacity:1;" d="M 11.207031 2.847656 C 6.574219 2.847656 2.847656 6.574219 2.847656 11.207031 L 2.847656 36.792969 C 2.847656 41.425781 6.574219 45.152344 11.207031 45.152344 L 11.488281 45.152344 L 11.488281 41.785156 C 11.488281 40.84375 11.679688 39.945312 12.023438 39.132812 C 12.367188 38.316406 12.863281 37.585938 13.480469 36.96875 C 14.09375 36.355469 14.828125 35.855469 15.640625 35.511719 C 16.457031 35.167969 17.355469 34.976562 18.300781 34.976562 L 29.699219 34.976562 C 30.644531 34.976562 31.542969 35.167969 32.359375 35.511719 C 33.171875 35.855469 33.90625 36.355469 34.519531 36.96875 C 35.136719 37.585938 35.632812 38.316406 35.976562 39.132812 C 36.320312 39.945312 36.511719 40.84375 36.511719 41.785156 L 36.511719 45.152344 L 36.792969 45.152344 C 41.425781 45.152344 45.152344 41.425781 45.152344 36.792969 L 45.152344 11.207031 C 45.152344 6.574219 41.425781 2.847656 36.792969 2.847656 Z M 11.207031 2.847656 "/>
<path style=" stroke:none;fill-rule:nonzero;fill:rgb(86.27451%,27.843137%,28.627451%);fill-opacity:1;" d="M 21.742188 13 C 38.953125 17.34375 45.0625 26.898438 24.695312 35.925781 C 23.015625 36.671875 28.925781 36.453125 27.148438 37.816406 C 51.929688 27.121094 39.914062 16.832031 21.742188 13 Z M 21.742188 13 "/>
<path style=" stroke:none;fill-rule:nonzero;fill:rgb(86.27451%,27.843137%,28.627451%);fill-opacity:1;" d="M 16.242188 12.769531 C 32.117188 16.988281 40.804688 21.238281 28.765625 32.632812 C 47.589844 23.054688 30.511719 14.253906 16.242188 12.769531 Z M 16.242188 12.769531 "/>
<path style=" stroke:none;fill-rule:nonzero;fill:rgb(86.27451%,27.843137%,28.627451%);fill-opacity:1;" d="M 5.65625 13.015625 C 23.269531 16.75 40.71875 21.84375 20.460938 35.539062 C 50.488281 21.152344 21.742188 13.722656 5.65625 13.015625 Z M 5.65625 13.015625 "/>
<path style=" stroke:none;fill-rule:evenodd;fill:rgb(80%,80%,80%);fill-opacity:1;" d="M 36.511719 45.152344 L 36.511719 41.785156 C 36.511719 40.84375 36.320312 39.945312 35.976562 39.132812 C 35.632812 38.316406 35.136719 37.585938 34.519531 36.96875 C 33.90625 36.355469 33.171875 35.855469 32.359375 35.511719 C 31.542969 35.167969 30.644531 34.976562 29.699219 34.976562 L 18.300781 34.976562 C 17.355469 34.976562 16.457031 35.167969 15.640625 35.511719 C 14.828125 35.855469 14.09375 36.355469 13.480469 36.96875 C 12.863281 37.585938 12.367188 38.316406 12.023438 39.132812 C 11.679688 39.945312 11.488281 40.84375 11.488281 41.785156 L 11.488281 45.152344 Z M 36.511719 45.152344 "/>
<path style=" stroke:none;fill-rule:nonzero;fill:rgb(100%,100%,100%);fill-opacity:1;" d="M 24.460938 28.984375 L 27.285156 26.160156 C 26.445312 28.710938 27.367188 31.785156 30.355469 31.554688 C 32.804688 30.816406 34.59375 29.550781 36.648438 27.972656 C 36.976562 27.597656 37.140625 27.070312 36.929688 27.070312 C 34.578125 29.019531 30.128906 31.503906 29.238281 29.410156 C 27.210938 21.761719 40.695312 15.21875 36.519531 10.507812 C 29.671875 14.640625 29.476562 23.710938 23.816406 28.503906 C 26.304688 22.398438 27.527344 15.660156 30.339844 10.671875 C 29.394531 10.226562 28.980469 10.570312 28.035156 10.945312 C 26.144531 14.523438 25.058594 18.589844 23.128906 21.472656 C 20.207031 25.820312 20.066406 26.019531 19.300781 26.929688 C 17.5 29.074219 15.3125 30.457031 13.875 30.363281 C 12.949219 30.300781 12.324219 29.675781 12.175781 28.667969 C 12.121094 28.289062 12.125 28.136719 12.203125 27.683594 C 13.285156 24.3125 14.8125 22.835938 16.613281 20.265625 C 15.921875 20.214844 15.242188 20.484375 14.589844 20.652344 C 12.445312 22.511719 10.636719 25.816406 10.59375 28.648438 C 10.59375 29.644531 10.765625 30.222656 11.234375 30.796875 C 11.496094 31.113281 12.175781 31.558594 12.535156 31.644531 C 12.890625 31.730469 13.964844 31.683594 14.421875 31.5625 C 16.132812 31.105469 18.4375 28.964844 21.503906 24.976562 C 22.882812 23.175781 23.710938 22.121094 23.8125 22.027344 C 23.925781 21.929688 23.925781 21.929688 23.925781 22.160156 C 23.117188 25.5 21.890625 28.332031 21.378906 31.746094 C 21.429688 31.777344 21.511719 31.804688 21.554688 31.804688 C 21.601562 31.804688 22.90625 30.535156 24.460938 28.984375 Z M 31.253906 20.5 C 32.136719 17.34375 33.464844 14.417969 35.414062 12.070312 C 35.105469 15.476562 33.21875 17.871094 31.304688 20.59375 C 31.273438 20.625 31.253906 20.589844 31.253906 20.5 Z M 31.253906 20.5 "/>
<g style="fill:rgb(76.862745%,9.803922%,12.156863%);fill-opacity:1;">
  <use xlink:href="#glyph0-1" x="16.386719" y="43.260254"/>
  <use xlink:href="#glyph0-2" x="21.189941" y="43.260254"/>
  <use xlink:href="#glyph0-3" x="27.323242" y="43.260254"/>
</g>
</g>
</svg>
