<?xml version="1.0" encoding="UTF-8"?>
<svg xmlns="http://www.w3.org/2000/svg" xmlns:xlink="http://www.w3.org/1999/xlink" width="48pt" height="48pt" viewBox="0 0 48 48" version="1.1">
<g id="surface1">
<path style=" stroke:none;fill-rule:evenodd;fill:rgb(23.529412%,69.019608%,32.941176%);fill-opacity:1;" d="M 11.210938 2.847656 L 36.789062 2.847656 C 41.410156 2.847656 45.152344 6.589844 45.152344 11.210938 L 45.152344 36.789062 C 45.152344 41.410156 41.410156 45.152344 36.789062 45.152344 L 11.210938 45.152344 C 6.589844 45.152344 2.847656 41.410156 2.847656 36.789062 L 2.847656 11.210938 C 2.847656 6.589844 6.589844 2.847656 11.210938 2.847656 Z M 11.210938 2.847656 "/>
<path style=" stroke:none;fill-rule:evenodd;fill:rgb(100%,100%,100%);fill-opacity:1;" d="M 14.25 13.5 C 29.972656 14.023438 36.03125 22.488281 32.988281 30.046875 C 32.128906 32.148438 31.210938 33.300781 29.285156 34.5 C 29.363281 34.195312 29.445312 33.890625 29.503906 33.582031 C 30.644531 27.6875 29.316406 20.417969 18.75 16.5 C 27.15625 20.988281 30.082031 30 25.796875 34.308594 C 19.125 35.25 14.25 30.136719 14.25 24.242188 Z M 14.25 13.5 "/>
</g>
</svg>
