<?xml version="1.0" encoding="UTF-8"?>
<svg xmlns="http://www.w3.org/2000/svg" xmlns:xlink="http://www.w3.org/1999/xlink" width="48pt" height="48pt" viewBox="0 0 48 48" version="1.1">
<g id="surface1">
<path style=" stroke:none;fill-rule:evenodd;fill:rgb(0%,63.529412%,52.54902%);fill-opacity:1;" d="M 11.210938 2.847656 L 36.789062 2.847656 C 41.410156 2.847656 45.152344 6.589844 45.152344 11.210938 L 45.152344 36.789062 C 45.152344 41.410156 41.410156 45.152344 36.789062 45.152344 L 11.210938 45.152344 C 6.589844 45.152344 2.847656 41.410156 2.847656 36.789062 L 2.847656 11.210938 C 2.847656 6.589844 6.589844 2.847656 11.210938 2.847656 Z M 11.210938 2.847656 "/>
<path style=" stroke:none;fill-rule:nonzero;fill:rgb(92.54902%,94.117647%,94.509804%);fill-opacity:1;" d="M 12.511719 14.210938 C 6.496094 22.28125 9.269531 30.84375 15.402344 35.066406 C 22.539062 39.984375 34.183594 39.207031 37.984375 30.667969 C 39.527344 26.648438 39.664062 20.742188 32.417969 18.832031 C 28.4375 18.003906 26.617188 18.640625 27.21875 14.644531 C 28.253906 7.648438 16.191406 9.152344 12.511719 14.210938 Z M 12.511719 14.210938 "/>
<path style=" stroke:none;fill-rule:nonzero;fill:rgb(0%,68.627451%,40.392157%);fill-opacity:1;" d="M 19.714844 31.011719 C 19.714844 32.605469 18.425781 33.894531 16.832031 33.894531 C 15.242188 33.894531 13.949219 32.605469 13.949219 31.011719 C 13.949219 29.417969 15.242188 28.128906 16.832031 28.128906 C 18.425781 28.128906 19.714844 29.417969 19.714844 31.011719 Z M 19.714844 31.011719 "/>
<path style=" stroke:none;fill-rule:nonzero;fill:rgb(7.45098%,50.196078%,71.372549%);fill-opacity:1;" d="M 26.777344 33.859375 C 26.777344 35.449219 25.488281 36.742188 23.894531 36.742188 C 22.300781 36.742188 21.011719 35.449219 21.011719 33.859375 C 21.011719 32.265625 22.300781 30.976562 23.894531 30.976562 C 25.488281 30.976562 26.777344 32.265625 26.777344 33.859375 Z M 26.777344 33.859375 "/>
<path style=" stroke:none;fill-rule:nonzero;fill:rgb(97.254902%,60.784314%,21.176471%);fill-opacity:1;" d="M 33.371094 31.515625 C 33.371094 33.109375 32.082031 34.398438 30.488281 34.398438 C 28.894531 34.398438 27.605469 33.109375 27.605469 31.515625 C 27.605469 29.925781 28.894531 28.632812 30.488281 28.632812 C 32.082031 28.632812 33.371094 29.925781 33.371094 31.515625 Z M 33.371094 31.515625 "/>
<path style=" stroke:none;fill-rule:nonzero;fill:rgb(77.647059%,21.176471%,16.862745%);fill-opacity:1;" d="M 37.335938 25.066406 C 37.335938 26.660156 36.042969 27.949219 34.453125 27.949219 C 32.859375 27.949219 31.570312 26.660156 31.570312 25.066406 C 31.570312 23.472656 32.859375 22.183594 34.453125 22.183594 C 36.042969 22.183594 37.335938 23.472656 37.335938 25.066406 Z M 37.335938 25.066406 "/>
<path style=" stroke:none;fill-rule:nonzero;fill:rgb(0%,63.529412%,52.54902%);fill-opacity:1;" d="M 21.230469 15.066406 C 21.230469 16.261719 20.261719 17.234375 19.0625 17.234375 C 17.863281 17.234375 16.894531 16.261719 16.894531 15.066406 C 16.894531 13.867188 17.863281 12.894531 19.0625 12.894531 C 20.261719 12.894531 21.230469 13.867188 21.230469 15.066406 Z M 21.230469 15.066406 "/>
</g>
</svg>
