<?xml version="1.0" encoding="UTF-8"?>
<svg xmlns="http://www.w3.org/2000/svg" xmlns:xlink="http://www.w3.org/1999/xlink" width="48pt" height="48pt" viewBox="0 0 48 48" version="1.1">
<g id="surface1">
<path style=" stroke:none;fill-rule:evenodd;fill:rgb(1.960784%,70.588235%,94.901961%);fill-opacity:1;" d="M 11.210938 2.847656 L 36.789062 2.847656 C 41.410156 2.847656 45.152344 6.589844 45.152344 11.210938 L 45.152344 36.789062 C 45.152344 41.410156 41.410156 45.152344 36.789062 45.152344 L 11.210938 45.152344 C 6.589844 45.152344 2.847656 41.410156 2.847656 36.789062 L 2.847656 11.210938 C 2.847656 6.589844 6.589844 2.847656 11.210938 2.847656 Z M 11.210938 2.847656 "/>
<path style=" stroke:none;fill-rule:evenodd;fill:rgb(1.960784%,70.588235%,94.901961%);fill-opacity:1;" d="M 23.796875 45.152344 L 36.792969 45.152344 C 41.425781 45.152344 45.152344 41.425781 45.152344 36.792969 L 45.152344 11.207031 C 45.152344 6.574219 41.425781 2.847656 36.792969 2.847656 L 23.796875 2.847656 Z M 23.796875 45.152344 "/>
<path style=" stroke:none;fill-rule:evenodd;fill:rgb(1.960784%,60%,94.901961%);fill-opacity:1;" d="M 23.796875 45.152344 L 23.796875 2.847656 L 11.207031 2.847656 C 6.574219 2.847656 2.847656 6.574219 2.847656 11.207031 L 2.847656 36.792969 C 2.847656 41.425781 6.574219 45.152344 11.207031 45.152344 Z M 23.796875 45.152344 "/>
<path style=" stroke:none;fill-rule:nonzero;fill:rgb(100%,100%,100%);fill-opacity:1;" d="M 13.304688 36.074219 C 13.304688 35.355469 13.386719 35.121094 13.714844 34.902344 C 13.902344 34.777344 13.957031 34.769531 14.574219 34.753906 L 15.234375 34.738281 L 15.234375 34.136719 C 15.234375 33.625 15.25 33.507812 15.339844 33.320312 C 15.484375 33.019531 15.789062 32.832031 16.195312 32.789062 L 16.503906 32.753906 L 16.5625 31.980469 C 16.71875 29.839844 17.253906 28.214844 18.242188 26.878906 C 18.574219 26.429688 19.214844 25.78125 20.03125 25.066406 C 21.117188 24.117188 21.109375 23.867188 19.9375 22.863281 C 19.136719 22.175781 18.390625 21.386719 18.050781 20.878906 C 17.160156 19.539062 16.664062 17.875 16.542969 15.820312 L 16.507812 15.246094 L 16.199219 15.210938 C 15.789062 15.167969 15.488281 14.980469 15.339844 14.679688 C 15.25 14.492188 15.234375 14.371094 15.234375 13.855469 L 15.234375 13.253906 L 14.632812 13.253906 C 13.914062 13.253906 13.679688 13.171875 13.460938 12.84375 C 13.335938 12.65625 13.328125 12.601562 13.3125 11.984375 L 13.296875 11.324219 L 34.703125 11.324219 L 34.6875 11.984375 C 34.671875 12.601562 34.664062 12.65625 34.539062 12.84375 C 34.320312 13.171875 34.085938 13.253906 33.367188 13.253906 L 32.765625 13.253906 L 32.765625 13.855469 C 32.765625 14.371094 32.75 14.492188 32.660156 14.679688 C 32.511719 14.980469 32.210938 15.167969 31.800781 15.210938 L 31.492188 15.246094 L 31.457031 15.796875 C 31.359375 17.382812 31.058594 18.703125 30.558594 19.78125 C 30.003906 20.972656 29.355469 21.761719 28.011719 22.882812 C 27.324219 23.457031 27.121094 23.710938 27.121094 23.988281 C 27.121094 24.304688 27.277344 24.503906 28.019531 25.148438 C 28.898438 25.910156 29.269531 26.273438 29.636719 26.742188 C 30.722656 28.113281 31.320312 29.90625 31.457031 32.179688 L 31.488281 32.753906 L 31.800781 32.789062 C 32.210938 32.832031 32.511719 33.019531 32.660156 33.320312 C 32.75 33.507812 32.765625 33.625 32.765625 34.140625 L 32.765625 34.738281 L 33.425781 34.753906 C 34.042969 34.769531 34.097656 34.777344 34.285156 34.902344 C 34.613281 35.121094 34.695312 35.355469 34.695312 36.074219 L 34.695312 36.675781 L 13.304688 36.675781 Z M 20.160156 32.429688 C 20.242188 31.5 20.503906 30.652344 20.929688 29.941406 C 21.246094 29.414062 21.464844 29.132812 22.1875 28.308594 C 23.578125 26.722656 23.761719 26.3125 23.652344 25.039062 C 23.589844 24.316406 23.414062 23.660156 23.132812 23.085938 C 22.878906 22.570312 22.628906 22.226562 21.90625 21.410156 C 21.382812 20.820312 21.199219 20.53125 21.167969 20.261719 L 21.152344 20.113281 L 24.042969 20.101562 L 26.933594 20.085938 L 26.90625 20.289062 C 26.863281 20.636719 26.644531 20.984375 26.101562 21.597656 C 25.390625 22.402344 25.171875 22.691406 24.917969 23.171875 C 24.371094 24.207031 24.195312 25.605469 24.507812 26.429688 C 24.714844 26.972656 24.929688 27.265625 26.128906 28.65625 C 27.257812 29.960938 27.6875 30.925781 27.839844 32.480469 L 27.871094 32.765625 L 29.929688 32.765625 L 29.910156 32.429688 C 29.765625 30.144531 29.285156 28.738281 28.238281 27.503906 C 28.082031 27.320312 27.609375 26.867188 27.191406 26.5 C 26.1875 25.617188 26.007812 25.429688 25.804688 25.015625 C 25.5 24.402344 25.492188 23.617188 25.785156 23.027344 C 25.980469 22.628906 26.25 22.332031 27.066406 21.625 C 28.242188 20.605469 28.644531 20.128906 29.105469 19.1875 C 29.582031 18.210938 29.847656 17.007812 29.90625 15.542969 L 29.917969 15.234375 L 18.070312 15.234375 L 18.089844 15.59375 C 18.171875 17.054688 18.390625 18.082031 18.832031 19.0625 C 19.25 19.996094 19.722656 20.59375 20.726562 21.472656 C 21.652344 22.28125 21.972656 22.628906 22.179688 23.046875 C 22.335938 23.371094 22.339844 23.398438 22.339844 24 C 22.339844 24.601562 22.335938 24.632812 22.179688 24.945312 C 21.953125 25.410156 21.695312 25.703125 20.953125 26.351562 C 19.875 27.289062 19.359375 27.898438 18.945312 28.710938 C 18.535156 29.523438 18.203125 30.808594 18.132812 31.875 C 18.117188 32.105469 18.09375 32.402344 18.078125 32.53125 L 18.054688 32.765625 L 20.128906 32.765625 Z M 20.160156 32.429688 "/>
</g>
</svg>
