<?xml version="1.0" encoding="UTF-8"?>
<svg xmlns="http://www.w3.org/2000/svg" xmlns:xlink="http://www.w3.org/1999/xlink" width="48pt" height="48pt" viewBox="0 0 48 48" version="1.1">
<defs>
<clipPath id="clip1">
  <rect width="48" height="48"/>
</clipPath>
<g id="surface6" clip-path="url(#clip1)">
<path style=" stroke:none;fill-rule:nonzero;fill:rgb(49.411765%,49.411765%,49.411765%);fill-opacity:1;" d="M 17.15625 34.285156 C 15.503906 34.285156 14.363281 34.46875 13.726562 34.835938 C 13.089844 35.203125 12.769531 35.828125 12.769531 36.714844 C 12.769531 37.421875 13.007812 37.980469 13.480469 38.398438 C 13.960938 38.808594 14.613281 39.015625 15.433594 39.015625 C 16.566406 39.015625 17.472656 38.625 18.152344 37.847656 C 18.84375 37.0625 19.1875 36.023438 19.1875 34.726562 L 19.1875 34.285156 L 17.15625 34.285156 M 21.230469 33.464844 L 21.230469 40.363281 L 19.1875 40.363281 L 19.1875 38.527344 C 18.722656 39.265625 18.140625 39.808594 17.445312 40.160156 C 16.75 40.503906 15.898438 40.679688 14.890625 40.679688 C 13.617188 40.679688 12.605469 40.332031 11.851562 39.640625 C 11.101562 38.941406 10.730469 38.011719 10.730469 36.847656 C 10.730469 35.484375 11.195312 34.460938 12.128906 33.769531 C 13.066406 33.078125 14.464844 32.730469 16.324219 32.730469 L 19.1875 32.730469 L 19.1875 32.539062 C 19.1875 31.625 18.875 30.917969 18.253906 30.421875 C 17.640625 29.917969 16.773438 29.664062 15.65625 29.664062 C 14.945312 29.664062 14.253906 29.746094 13.582031 29.914062 C 12.910156 30.078125 12.261719 30.328125 11.640625 30.660156 L 11.640625 28.824219 C 12.386719 28.542969 13.113281 28.332031 13.816406 28.195312 C 14.519531 28.050781 15.203125 27.980469 15.867188 27.980469 C 17.667969 27.980469 19.007812 28.433594 19.898438 29.339844 C 20.785156 30.25 21.230469 31.625 21.230469 33.464844 M 14.347656 22.679688 L 17.480469 26.71875 L 15.78125 26.71875 L 12.164062 22.679688 L 14.347656 22.679688 "/>
</g>
</defs>
<g id="surface1">
<path style=" stroke:none;fill-rule:evenodd;fill:rgb(60%,60%,60%);fill-opacity:1;" d="M 28.777344 27.457031 L 28.777344 45.152344 L 36.789062 45.152344 C 41.421875 45.152344 45.152344 41.421875 45.152344 36.789062 L 45.152344 27.457031 Z M 28.777344 27.457031 "/>
<path style=" stroke:none;fill-rule:evenodd;fill:rgb(60%,60%,60%);fill-opacity:1;" d="M 20.136719 2.847656 L 11.207031 2.847656 C 6.574219 2.847656 2.847656 6.574219 2.847656 11.207031 L 2.847656 19.117188 L 20.136719 19.117188 Z M 20.136719 2.847656 "/>
<path style=" stroke:none;fill-rule:evenodd;fill:rgb(76.078431%,76.078431%,76.078431%);fill-opacity:1;" d="M 20.136719 2.847656 L 20.136719 19.117188 L 28.777344 19.117188 L 28.777344 27.457031 L 45.152344 27.457031 L 45.152344 11.207031 C 45.152344 6.574219 41.421875 2.847656 36.789062 2.847656 Z M 20.136719 2.847656 "/>
<path style=" stroke:none;fill-rule:nonzero;fill:rgb(61.568627%,61.568627%,61.568627%);fill-opacity:1;" d="M 38.175781 16.53125 L 38.175781 17.488281 L 29.183594 17.488281 C 29.269531 18.835938 29.675781 19.863281 30.398438 20.570312 C 31.125 21.273438 32.140625 21.621094 33.4375 21.621094 C 34.1875 21.621094 34.914062 21.53125 35.613281 21.347656 C 36.324219 21.164062 37.023438 20.886719 37.71875 20.515625 L 37.71875 22.367188 C 37.015625 22.664062 36.296875 22.890625 35.5625 23.046875 C 34.824219 23.203125 34.078125 23.28125 33.320312 23.28125 C 31.421875 23.28125 29.914062 22.726562 28.800781 21.621094 C 27.699219 20.515625 27.144531 19.023438 27.144531 17.136719 C 27.144531 15.191406 27.667969 13.644531 28.71875 12.503906 C 29.773438 11.359375 31.191406 10.785156 32.976562 10.785156 C 34.578125 10.785156 35.84375 11.300781 36.773438 12.335938 C 37.707031 13.363281 38.175781 14.761719 38.175781 16.53125 M 36.21875 15.957031 C 36.207031 14.890625 35.902344 14.035156 35.316406 13.398438 C 34.734375 12.761719 33.964844 12.441406 33 12.441406 C 31.910156 12.441406 31.035156 12.75 30.375 13.367188 C 29.722656 13.980469 29.347656 14.851562 29.25 15.96875 L 36.21875 15.957031 M 33.859375 6.480469 L 36.015625 6.480469 L 36.015625 8.625 L 33.859375 8.625 L 33.859375 6.480469 M 29.707031 6.480469 L 31.863281 6.480469 L 31.863281 8.625 L 29.707031 8.625 L 29.707031 6.480469 "/>
<path style=" stroke:none;fill-rule:evenodd;fill:rgb(82.745098%,82.745098%,82.745098%);fill-opacity:1;" d="M 28.777344 45.152344 L 28.777344 19.117188 L 2.847656 19.117188 L 2.847656 36.789062 C 2.847656 41.421875 6.574219 45.152344 11.207031 45.152344 Z M 28.777344 45.152344 "/>
<use xlink:href="#surface6"/>
</g>
</svg>
