<?xml version="1.0" encoding="UTF-8"?>
<svg xmlns="http://www.w3.org/2000/svg" xmlns:xlink="http://www.w3.org/1999/xlink" width="48pt" height="48pt" viewBox="0 0 48 48" version="1.1">
<defs>
<clipPath id="clip1">
  <rect width="48" height="48"/>
</clipPath>
<g id="surface6" clip-path="url(#clip1)">
<path style=" stroke:none;fill-rule:nonzero;fill:rgb(100%,100%,100%);fill-opacity:1;" d="M 24.027344 12 C 26.65625 12.003906 29.320312 12.792969 31.40625 14.351562 C 32.871094 15.96875 30.078125 17.703125 28.824219 16.125 C 25.039062 13.925781 19.703125 14.703125 16.859375 17.988281 C 15.34375 19.617188 14.492188 21.792969 14.5 23.976562 L 17 23.976562 C 15.667969 25.898438 14.332031 27.820312 13 29.738281 L 9 23.976562 L 11.5 23.976562 C 11.421875 18.761719 15.328125 13.800781 20.574219 12.449219 C 21.699219 12.15625 22.855469 11.988281 24.023438 12 Z M 35 18.242188 C 36.332031 20.160156 37.667969 22.082031 39 24.003906 L 36.5 24.003906 C 36.570312 29.28125 32.5625 34.296875 27.226562 35.578125 C 23.625 36.542969 19.554688 35.839844 16.59375 33.628906 C 15.085938 31.984375 17.914062 30.265625 19.179688 31.859375 C 22.847656 33.992188 27.980469 33.316406 30.871094 30.265625 C 32.546875 28.609375 33.511719 26.3125 33.5 24.003906 L 31 24.003906 Z M 35 18.242188 "/>
</g>
<clipPath id="clip2">
  <rect width="48" height="48"/>
</clipPath>
<g id="surface9" clip-path="url(#clip2)">
<path style=" stroke:none;fill-rule:nonzero;fill:rgb(95.294118%,25.882353%,20.784314%);fill-opacity:1;" d="M 42.566406 33.0625 C 42.566406 38.035156 38.535156 42.0625 33.566406 42.0625 C 28.597656 42.0625 24.566406 38.035156 24.566406 33.0625 C 24.566406 28.09375 28.597656 24.0625 33.566406 24.0625 C 38.535156 24.0625 42.566406 28.09375 42.566406 33.0625 Z M 42.566406 33.0625 "/>
</g>
</defs>
<g id="surface1">
<path style=" stroke:none;fill-rule:evenodd;fill:rgb(50.588235%,83.529412%,27.843137%);fill-opacity:1;" d="M 11.210938 2.847656 L 36.789062 2.847656 C 41.410156 2.847656 45.152344 6.589844 45.152344 11.210938 L 45.152344 36.789062 C 45.152344 41.410156 41.410156 45.152344 36.789062 45.152344 L 11.210938 45.152344 C 6.589844 45.152344 2.847656 41.410156 2.847656 36.789062 L 2.847656 11.210938 C 2.847656 6.589844 6.589844 2.847656 11.210938 2.847656 Z M 11.210938 2.847656 "/>
<use xlink:href="#surface6"/>
<use xlink:href="#surface9"/>
<path style=" stroke:none;fill-rule:nonzero;fill:rgb(100%,100%,100%);fill-opacity:1;" d="M 28.5625 29.6875 L 35.59375 29.6875 C 36.097656 29.6875 36.097656 30.171875 36.097656 30.171875 L 36.097656 35.957031 C 36.09375 36.4375 35.59375 36.4375 35.59375 36.4375 L 28.5625 36.4375 C 28.5625 36.4375 28.058594 36.4375 28.058594 35.953125 L 28.058594 30.167969 C 28.058594 30.171875 28.058594 29.6875 28.5625 29.6875 Z M 28.5625 29.6875 "/>
<path style=" stroke:none;fill-rule:nonzero;fill:rgb(100%,100%,100%);fill-opacity:1;" d="M 39.308594 30.25 L 39.308594 35.3125 L 35.933594 32.671875 Z M 39.308594 30.25 "/>
</g>
</svg>
