<?xml version="1.0" encoding="UTF-8"?>
<svg xmlns="http://www.w3.org/2000/svg" xmlns:xlink="http://www.w3.org/1999/xlink" width="48pt" height="48pt" viewBox="0 0 48 48" version="1.1">
<g id="surface1">
<path style=" stroke:none;fill-rule:evenodd;fill:rgb(76.078431%,20.784314%,16.470588%);fill-opacity:1;" d="M 11.210938 2.847656 L 36.789062 2.847656 C 41.410156 2.847656 45.152344 6.589844 45.152344 11.210938 L 45.152344 36.789062 C 45.152344 41.410156 41.410156 45.152344 36.789062 45.152344 L 11.210938 45.152344 C 6.589844 45.152344 2.847656 41.410156 2.847656 36.789062 L 2.847656 11.210938 C 2.847656 6.589844 6.589844 2.847656 11.210938 2.847656 Z M 11.210938 2.847656 "/>
<path style=" stroke:none;fill-rule:evenodd;fill:rgb(60.784314%,16.470588%,13.333333%);fill-opacity:1;" d="M 13.625 45.15625 L 13.625 2.851562 L 11.207031 2.851562 C 6.574219 2.851562 2.847656 6.578125 2.847656 11.210938 L 2.847656 36.792969 C 2.847656 41.425781 6.574219 45.15625 11.207031 45.15625 Z M 13.625 45.15625 "/>
<path style=" stroke:none;fill-rule:nonzero;fill:rgb(99.607843%,75.294118%,2.352941%);fill-opacity:1;" d="M 29.804688 2.84375 L 29.804688 23.84375 L 32.804688 20.84375 L 35.804688 23.84375 L 35.804688 2.84375 Z M 29.804688 2.84375 "/>
</g>
</svg>
