<?xml version="1.0" encoding="UTF-8"?>
<svg xmlns="http://www.w3.org/2000/svg" xmlns:xlink="http://www.w3.org/1999/xlink" width="48pt" height="48pt" viewBox="0 0 48 48" version="1.1">
<g id="surface1">
<path style=" stroke:none;fill-rule:evenodd;fill:rgb(76.078431%,20.784314%,16.470588%);fill-opacity:1;" d="M 11.210938 2.847656 L 36.789062 2.847656 C 41.410156 2.847656 45.152344 6.589844 45.152344 11.210938 L 45.152344 36.789062 C 45.152344 41.410156 41.410156 45.152344 36.789062 45.152344 L 11.210938 45.152344 C 6.589844 45.152344 2.847656 41.410156 2.847656 36.789062 L 2.847656 11.210938 C 2.847656 6.589844 6.589844 2.847656 11.210938 2.847656 Z M 11.210938 2.847656 "/>
<path style=" stroke:none;fill-rule:nonzero;fill:rgb(100%,100%,100%);fill-opacity:1;" d="M 24.605469 23.257812 L 26.101562 24.757812 L 24.605469 26.257812 L 23.105469 24.757812 Z M 24.605469 23.257812 "/>
<path style=" stroke:none;fill-rule:nonzero;fill:rgb(100%,100%,100%);fill-opacity:1;" d="M 29.105469 9.75 L 27.605469 18.75 L 21.605469 18.75 L 20.105469 9.75 Z M 29.105469 9.75 "/>
<path style=" stroke:none;fill-rule:nonzero;fill:rgb(100%,100%,100%);fill-opacity:1;" d="M 21.605469 20.25 L 27.605469 20.25 L 27.605469 21.75 L 21.605469 21.75 Z M 21.605469 20.25 "/>
<path style=" stroke:none;fill-rule:nonzero;fill:rgb(100%,100%,100%);fill-opacity:1;" d="M 9.605469 20.25 L 18.605469 21.75 L 18.605469 27.75 L 9.605469 29.25 Z M 9.605469 20.25 "/>
<path style=" stroke:none;fill-rule:nonzero;fill:rgb(100%,100%,100%);fill-opacity:1;" d="M 20.105469 27.75 L 20.105469 21.75 L 21.605469 21.75 L 21.605469 27.75 Z M 20.105469 27.75 "/>
<path style=" stroke:none;fill-rule:nonzero;fill:rgb(100%,100%,100%);fill-opacity:1;" d="M 32.03125 38.25 L 26.726562 30.824219 L 30.96875 26.582031 L 38.394531 31.886719 Z M 32.03125 38.25 "/>
<path style=" stroke:none;fill-rule:nonzero;fill:rgb(100%,100%,100%);fill-opacity:1;" d="M 29.910156 25.523438 L 25.667969 29.765625 L 24.605469 28.703125 L 28.847656 24.460938 Z M 29.910156 25.523438 "/>
</g>
</svg>
