<?xml version="1.0" encoding="UTF-8"?>
<svg xmlns="http://www.w3.org/2000/svg" xmlns:xlink="http://www.w3.org/1999/xlink" width="48pt" height="48pt" viewBox="0 0 48 48" version="1.1">
<defs>
<clipPath id="clip1">
  <rect width="48" height="48"/>
</clipPath>
<g id="surface6" clip-path="url(#clip1)">
<path style=" stroke:none;fill-rule:nonzero;fill:rgb(100%,66.27451%,17.254902%);fill-opacity:1;" d="M 17.25 15.75 L 17.25 17.25 L 21.75 17.25 L 21.75 18.75 L 15.75 18.75 L 15.75 23.25 L 14.25 23.25 L 14.25 18.75 L 12.75 18.75 L 12.75 29.25 L 14.25 29.25 L 14.25 24.75 L 15.75 24.75 L 15.75 29.25 L 18.75 32.25 L 28.5 32.25 L 30 30.75 L 32.25 30.75 L 32.25 32.25 L 33.75 32.25 L 35.25 30.75 L 35.25 21.75 L 33.75 20.25 L 32.25 20.25 L 32.25 21.75 L 30.9375 21.75 L 27.9375 18.75 L 23.25 18.75 L 23.25 17.25 L 27.75 17.25 L 27.75 15.75 Z M 17.25 20.25 L 27 20.25 L 30 23.25 L 33.75 23.25 L 33.75 29.25 L 29.25 29.25 L 27.75 30.75 L 19.6875 30.75 L 17.25 28.199219 Z M 17.25 20.25 "/>
</g>
</defs>
<g id="surface1">
<path style=" stroke:none;fill-rule:evenodd;fill:rgb(30.980392%,30.980392%,30.980392%);fill-opacity:1;" d="M 11.210938 2.847656 L 36.789062 2.847656 C 41.410156 2.847656 45.152344 6.589844 45.152344 11.210938 L 45.152344 36.789062 C 45.152344 41.410156 41.410156 45.152344 36.789062 45.152344 L 11.210938 45.152344 C 6.589844 45.152344 2.847656 41.410156 2.847656 36.789062 L 2.847656 11.210938 C 2.847656 6.589844 6.589844 2.847656 11.210938 2.847656 Z M 11.210938 2.847656 "/>
<use xlink:href="#surface6"/>
</g>
</svg>
