<?xml version="1.0" encoding="UTF-8"?>
<svg xmlns="http://www.w3.org/2000/svg" xmlns:xlink="http://www.w3.org/1999/xlink" width="48pt" height="48pt" viewBox="0 0 48 48" version="1.1">
<g id="surface1">
<path style=" stroke:none;fill-rule:evenodd;fill:rgb(17.647059%,61.176471%,94.901961%);fill-opacity:1;" d="M 11.210938 2.847656 L 36.789062 2.847656 C 41.410156 2.847656 45.152344 6.589844 45.152344 11.210938 L 45.152344 36.789062 C 45.152344 41.410156 41.410156 45.152344 36.789062 45.152344 L 11.210938 45.152344 C 6.589844 45.152344 2.847656 41.410156 2.847656 36.789062 L 2.847656 11.210938 C 2.847656 6.589844 6.589844 2.847656 11.210938 2.847656 Z M 11.210938 2.847656 "/>
<path style=" stroke:none;fill-rule:nonzero;fill:rgb(100%,100%,100%);fill-opacity:1;" d="M 17.511719 10.714844 C 13.253906 10.714844 9.8125 14.15625 9.8125 18.410156 C 9.8125 19.722656 10.148438 20.992188 10.726562 22.074219 C 10.535156 22.992188 10.429688 23.925781 10.429688 24.898438 C 10.429688 32.386719 16.503906 38.464844 24.007812 38.464844 C 24.976562 38.464844 25.914062 38.363281 26.828125 38.171875 C 27.914062 38.757812 29.167969 39.085938 30.488281 39.085938 C 34.746094 39.085938 38.1875 35.640625 38.1875 31.390625 C 38.1875 30.070312 37.851562 28.808594 37.269531 27.71875 C 37.460938 26.808594 37.5625 25.871094 37.5625 24.902344 C 37.5625 17.414062 31.488281 11.335938 23.992188 11.335938 C 23.019531 11.335938 22.082031 11.433594 21.171875 11.628906 C 20.085938 11.050781 18.816406 10.710938 17.503906 10.710938 "/>
<path style=" stroke:none;fill-rule:nonzero;fill:rgb(17.647059%,61.176471%,94.901961%);fill-opacity:1;" d="M 24.257812 16.992188 C 28.257812 16.992188 30.320312 19.105469 30.320312 20.347656 C 30.320312 21.589844 29.726562 21.777344 28.742188 21.777344 C 26.835938 21.777344 27.617188 19.476562 24.042969 19.476562 C 22.859375 19.476562 21.382812 20.019531 21.382812 21.398438 C 21.382812 22.511719 22.691406 22.917969 25 23.488281 C 28.480469 24.421875 31.09375 25.351562 31.09375 28.546875 C 31.09375 31.652344 28.566406 33.207031 24.566406 33.207031 C 20.566406 33.207031 18.011719 30.8125 18.011719 29.574219 C 18.011719 28.332031 18.484375 28.023438 19.464844 28.023438 C 21.375 28.023438 21.117188 30.632812 24.691406 30.632812 C 25.878906 30.632812 27.628906 30.089844 27.628906 28.703125 C 27.628906 27.597656 27.535156 27.214844 25 26.53125 C 22.292969 26.164062 17.921875 25.28125 17.921875 21.902344 C 17.921875 18.800781 20.261719 16.996094 24.261719 16.996094 "/>
</g>
</svg>
