<?xml version="1.0" encoding="UTF-8"?>
<svg xmlns="http://www.w3.org/2000/svg" xmlns:xlink="http://www.w3.org/1999/xlink" width="48pt" height="48pt" viewBox="0 0 48 48" version="1.1">
<defs>
<g>
<symbol overflow="visible" id="glyph0-0">
<path style="stroke:none;" d="M 0.453125 1.59375 L 0.453125 -6.34375 L 4.953125 -6.34375 L 4.953125 1.59375 Z M 0.953125 1.09375 L 4.453125 1.09375 L 4.453125 -5.84375 L 0.953125 -5.84375 Z M 0.953125 1.09375 "/>
</symbol>
<symbol overflow="visible" id="glyph0-1">
<path style="stroke:none;" d="M 4.8125 -6.34375 L 4.8125 -5.484375 C 4.476562 -5.640625 4.160156 -5.753906 3.859375 -5.828125 C 3.566406 -5.910156 3.28125 -5.953125 3 -5.953125 C 2.507812 -5.953125 2.132812 -5.859375 1.875 -5.671875 C 1.613281 -5.484375 1.484375 -5.21875 1.484375 -4.875 C 1.484375 -4.582031 1.570312 -4.363281 1.75 -4.21875 C 1.925781 -4.070312 2.253906 -3.953125 2.734375 -3.859375 L 3.28125 -3.75 C 3.9375 -3.625 4.421875 -3.398438 4.734375 -3.078125 C 5.054688 -2.765625 5.21875 -2.34375 5.21875 -1.8125 C 5.21875 -1.175781 5.003906 -0.691406 4.578125 -0.359375 C 4.148438 -0.0351562 3.523438 0.125 2.703125 0.125 C 2.390625 0.125 2.054688 0.0859375 1.703125 0.015625 C 1.359375 -0.046875 1 -0.148438 0.625 -0.296875 L 0.625 -1.203125 C 0.976562 -1.003906 1.328125 -0.851562 1.671875 -0.75 C 2.023438 -0.644531 2.367188 -0.59375 2.703125 -0.59375 C 3.203125 -0.59375 3.585938 -0.691406 3.859375 -0.890625 C 4.140625 -1.085938 4.28125 -1.375 4.28125 -1.75 C 4.28125 -2.070312 4.179688 -2.320312 3.984375 -2.5 C 3.785156 -2.675781 3.460938 -2.8125 3.015625 -2.90625 L 2.46875 -3.015625 C 1.8125 -3.148438 1.332031 -3.359375 1.03125 -3.640625 C 0.738281 -3.921875 0.59375 -4.3125 0.59375 -4.8125 C 0.59375 -5.382812 0.796875 -5.835938 1.203125 -6.171875 C 1.609375 -6.515625 2.171875 -6.6875 2.890625 -6.6875 C 3.203125 -6.6875 3.515625 -6.65625 3.828125 -6.59375 C 4.148438 -6.539062 4.476562 -6.457031 4.8125 -6.34375 Z M 4.8125 -6.34375 "/>
</symbol>
<symbol overflow="visible" id="glyph0-2">
<path style="stroke:none;" d="M 2.578125 0 L 0.078125 -6.5625 L 1 -6.5625 L 3.078125 -1.03125 L 5.15625 -6.5625 L 6.078125 -6.5625 L 3.578125 0 Z M 2.578125 0 "/>
</symbol>
<symbol overflow="visible" id="glyph0-3">
<path style="stroke:none;" d="M 5.359375 -0.9375 L 5.359375 -2.703125 L 3.90625 -2.703125 L 3.90625 -3.421875 L 6.234375 -3.421875 L 6.234375 -0.609375 C 5.890625 -0.367188 5.507812 -0.1875 5.09375 -0.0625 C 4.6875 0.0625 4.25 0.125 3.78125 0.125 C 2.75 0.125 1.941406 -0.171875 1.359375 -0.765625 C 0.785156 -1.367188 0.5 -2.207031 0.5 -3.28125 C 0.5 -4.34375 0.785156 -5.175781 1.359375 -5.78125 C 1.941406 -6.382812 2.75 -6.6875 3.78125 -6.6875 C 4.207031 -6.6875 4.613281 -6.628906 5 -6.515625 C 5.382812 -6.410156 5.738281 -6.257812 6.0625 -6.0625 L 6.0625 -5.109375 C 5.738281 -5.390625 5.390625 -5.597656 5.015625 -5.734375 C 4.648438 -5.878906 4.265625 -5.953125 3.859375 -5.953125 C 3.054688 -5.953125 2.453125 -5.726562 2.046875 -5.28125 C 1.640625 -4.832031 1.4375 -4.164062 1.4375 -3.28125 C 1.4375 -2.394531 1.640625 -1.726562 2.046875 -1.28125 C 2.453125 -0.832031 3.054688 -0.609375 3.859375 -0.609375 C 4.171875 -0.609375 4.445312 -0.632812 4.6875 -0.6875 C 4.9375 -0.738281 5.160156 -0.820312 5.359375 -0.9375 Z M 5.359375 -0.9375 "/>
</symbol>
</g>
</defs>
<g id="surface1">
<path style=" stroke:none;fill-rule:evenodd;fill:rgb(20.784314%,33.72549%,50.588235%);fill-opacity:1;" d="M 11.210938 2.847656 L 36.789062 2.847656 C 41.410156 2.847656 45.152344 6.589844 45.152344 11.210938 L 45.152344 36.789062 C 45.152344 41.410156 41.410156 45.152344 36.789062 45.152344 L 11.210938 45.152344 C 6.589844 45.152344 2.847656 41.410156 2.847656 36.789062 L 2.847656 11.210938 C 2.847656 6.589844 6.589844 2.847656 11.210938 2.847656 Z M 11.210938 2.847656 "/>
<path style=" stroke:none;fill-rule:nonzero;fill:rgb(100%,100%,100%);fill-opacity:1;" d="M 28.054688 31.816406 C 22.925781 31.144531 18.21875 28.707031 15.214844 25.171875 L 14.871094 24.769531 L 14.871094 23.179688 L 15.355469 23.214844 C 18.042969 23.417969 21.328125 22.464844 23.402344 20.882812 C 23.917969 20.488281 24.566406 19.792969 24.878906 19.296875 L 25.152344 18.867188 L 25.988281 19.316406 C 26.445312 19.558594 26.839844 19.777344 26.863281 19.800781 C 26.914062 19.851562 26.617188 20.359375 26.230469 20.882812 C 24.742188 22.886719 21.925781 24.429688 18.773438 24.964844 C 18.496094 25.011719 18.265625 25.066406 18.265625 25.085938 C 18.265625 25.144531 19.324219 26.011719 19.855469 26.390625 C 20.113281 26.574219 20.367188 26.726562 20.417969 26.726562 C 20.574219 26.726562 21.433594 26.441406 21.730469 26.292969 C 22.152344 26.078125 22.488281 25.855469 22.75 25.609375 C 22.875 25.492188 22.980469 25.40625 22.980469 25.421875 C 22.980469 25.546875 22.121094 26.804688 21.777344 27.191406 C 21.59375 27.390625 21.5625 27.453125 21.617188 27.484375 C 21.808594 27.609375 22.839844 28.113281 23.347656 28.332031 L 23.925781 28.578125 L 24.242188 28.496094 C 25.125 28.265625 26.476562 27.433594 27.636719 26.40625 C 27.824219 26.238281 27.988281 26.109375 27.996094 26.121094 C 28.019531 26.144531 27.527344 27.179688 27.25 27.695312 C 27.039062 28.078125 26.53125 28.863281 26.277344 29.1875 C 26.226562 29.253906 26.199219 29.320312 26.21875 29.332031 C 26.355469 29.414062 27.808594 29.703125 28.382812 29.769531 L 28.671875 29.800781 L 28.976562 29.359375 C 30.0625 27.804688 31.152344 25.570312 32.003906 23.167969 C 32.152344 22.753906 32.289062 22.398438 32.308594 22.375 C 32.363281 22.320312 34.195312 22.953125 34.195312 23.023438 C 34.195312 23.1875 33.628906 24.707031 33.140625 25.847656 C 32.246094 27.9375 31.148438 29.894531 30.007812 31.429688 L 29.648438 31.910156 L 29.175781 31.90625 C 28.917969 31.902344 28.414062 31.863281 28.054688 31.816406 Z M 30.308594 19.496094 C 27.925781 18.421875 25.96875 17.527344 25.960938 17.503906 C 25.945312 17.449219 26.167969 17.105469 26.394531 16.84375 C 26.648438 16.546875 27.214844 16.191406 27.660156 16.046875 C 27.980469 15.941406 28.136719 15.917969 28.566406 15.917969 C 29.09375 15.914062 29.183594 15.929688 29.777344 16.15625 C 29.953125 16.222656 30.105469 16.269531 30.117188 16.261719 C 30.125 16.25 31.050781 14.46875 32.171875 12.304688 C 33.289062 10.140625 34.226562 8.351562 34.246094 8.328125 C 34.28125 8.292969 35.945312 9 36.046875 9.09375 C 36.0625 9.109375 35.371094 11 34.503906 13.292969 C 33.632812 15.585938 32.925781 17.464844 32.925781 17.472656 C 32.925781 17.480469 33.109375 17.574219 33.335938 17.6875 C 34.375 18.191406 35.011719 19.265625 34.933594 20.386719 C 34.910156 20.746094 34.753906 21.371094 34.675781 21.421875 C 34.65625 21.433594 32.691406 20.566406 30.308594 19.496094 Z M 16.949219 19.792969 C 16.273438 19.664062 15.535156 19.074219 15.226562 18.425781 C 14.746094 17.414062 14.933594 16.347656 15.730469 15.550781 C 16.292969 14.988281 17.050781 14.730469 17.8125 14.839844 C 18.917969 15 19.8125 15.894531 19.972656 17 C 20.039062 17.476562 19.949219 18.007812 19.726562 18.46875 C 19.539062 18.84375 19.046875 19.34375 18.660156 19.550781 C 18.164062 19.8125 17.519531 19.90625 16.949219 19.792969 Z M 13.144531 12.777344 C 12.273438 12.59375 11.730469 11.617188 12.042969 10.789062 C 12.167969 10.453125 12.457031 10.121094 12.769531 9.957031 C 12.984375 9.847656 13.0625 9.832031 13.457031 9.832031 C 13.855469 9.832031 13.933594 9.847656 14.148438 9.957031 C 14.664062 10.230469 14.992188 10.792969 14.957031 11.363281 C 14.902344 12.292969 14.042969 12.964844 13.144531 12.777344 Z M 17.746094 12.78125 C 17.253906 12.621094 16.992188 12.28125 16.992188 11.789062 C 16.992188 11.496094 17.042969 11.371094 17.238281 11.148438 C 17.644531 10.683594 18.324219 10.683594 18.730469 11.148438 C 18.925781 11.371094 18.972656 11.496094 18.972656 11.789062 C 18.972656 12.054688 18.878906 12.320312 18.722656 12.484375 C 18.5 12.726562 18.023438 12.871094 17.746094 12.78125 Z M 17.746094 12.78125 "/>
<g style="fill:rgb(97.647059%,97.647059%,97.647059%);fill-opacity:1;">
  <use xlink:href="#glyph0-1" x="14.636719" y="41.198242"/>
  <use xlink:href="#glyph0-2" x="20.359863" y="41.198242"/>
  <use xlink:href="#glyph0-3" x="26.52832" y="41.198242"/>
</g>
</g>
</svg>
