<?xml version="1.0" encoding="UTF-8"?>
<svg xmlns="http://www.w3.org/2000/svg" xmlns:xlink="http://www.w3.org/1999/xlink" width="48pt" height="48pt" viewBox="0 0 48 48" version="1.1">
<g id="surface1">
<path style=" stroke:none;fill-rule:evenodd;fill:rgb(0%,51.372549%,76.862745%);fill-opacity:1;" d="M 11.210938 2.847656 L 36.789062 2.847656 C 41.410156 2.847656 45.152344 6.589844 45.152344 11.210938 L 45.152344 36.789062 C 45.152344 41.410156 41.410156 45.152344 36.789062 45.152344 L 11.210938 45.152344 C 6.589844 45.152344 2.847656 41.410156 2.847656 36.789062 L 2.847656 11.210938 C 2.847656 6.589844 6.589844 2.847656 11.210938 2.847656 Z M 11.210938 2.847656 "/>
<path style=" stroke:none;fill-rule:nonzero;fill:rgb(10.980392%,64.313725%,83.137255%);fill-opacity:1;" d="M 40.878906 24 C 40.878906 14.675781 33.324219 7.121094 24 7.121094 C 14.675781 7.121094 7.121094 14.675781 7.121094 24 C 7.121094 33.324219 14.675781 40.878906 24 40.878906 C 33.324219 40.878906 40.878906 33.324219 40.878906 24 Z M 40.878906 24 "/>
<path style=" stroke:none;fill-rule:nonzero;fill:rgb(100%,100%,100%);fill-opacity:1;" d="M 24 11.941406 C 17.339844 11.941406 11.941406 17.339844 11.941406 24 C 11.941406 30.660156 17.339844 36.058594 24 36.058594 C 30.660156 36.058594 36.058594 30.660156 36.058594 24 C 36.050781 22.59375 35.800781 21.203125 35.316406 19.882812 L 35.339844 19.863281 L 35.277344 19.773438 C 33.519531 15.070312 29.023438 11.949219 24 11.941406 Z M 24 13.148438 C 28.054688 13.148438 31.765625 15.410156 33.632812 19.007812 L 26.109375 24.386719 L 13.269531 25.550781 C 13.191406 25.039062 13.152344 24.519531 13.148438 24 C 13.148438 18.007812 18.007812 13.148438 24 13.148438 Z M 34.296875 20.609375 C 34.660156 21.703125 34.847656 22.847656 34.851562 24 C 34.847656 26.855469 33.71875 29.597656 31.707031 31.628906 L 27.566406 25.417969 Z M 25.988281 26.089844 L 30.417969 32.734375 C 28.558594 34.105469 26.308594 34.847656 24 34.851562 C 19.25 34.847656 15.054688 31.75 13.648438 27.214844 Z M 25.988281 26.089844 "/>
<path style=" stroke:none;fill-rule:nonzero;fill:rgb(100%,100%,100%);fill-opacity:1;" d="M 15.558594 26.410156 C 15.558594 27.742188 14.480469 28.824219 13.148438 28.824219 C 11.816406 28.824219 10.738281 27.742188 10.738281 26.410156 C 10.738281 25.078125 11.816406 24 13.148438 24 C 14.480469 24 15.558594 25.078125 15.558594 26.410156 Z M 15.558594 26.410156 "/>
<path style=" stroke:none;fill-rule:nonzero;fill:rgb(100%,100%,100%);fill-opacity:1;" d="M 33.644531 32.441406 C 33.644531 33.773438 32.566406 34.851562 31.234375 34.851562 C 29.902344 34.851562 28.824219 33.773438 28.824219 32.441406 C 28.824219 31.109375 29.902344 30.027344 31.234375 30.027344 C 32.566406 30.027344 33.644531 31.109375 33.644531 32.441406 Z M 33.644531 32.441406 "/>
<path style=" stroke:none;fill-rule:nonzero;fill:rgb(100%,100%,100%);fill-opacity:1;" d="M 37.261719 19.175781 C 37.261719 20.507812 36.183594 21.589844 34.851562 21.589844 C 33.519531 21.589844 32.441406 20.507812 32.441406 19.175781 C 32.441406 17.84375 33.519531 16.765625 34.851562 16.765625 C 36.183594 16.765625 37.261719 17.84375 37.261719 19.175781 Z M 37.261719 19.175781 "/>
<path style=" stroke:none;fill-rule:nonzero;fill:rgb(100%,100%,100%);fill-opacity:1;" d="M 28.824219 25.207031 C 28.824219 26.539062 27.742188 27.617188 26.410156 27.617188 C 25.078125 27.617188 24 26.539062 24 25.207031 C 24 23.875 25.078125 22.792969 26.410156 22.792969 C 27.742188 22.792969 28.824219 23.875 28.824219 25.207031 Z M 28.824219 25.207031 "/>
</g>
</svg>
