<?xml version="1.0" encoding="UTF-8"?>
<svg xmlns="http://www.w3.org/2000/svg" xmlns:xlink="http://www.w3.org/1999/xlink" width="48pt" height="48pt" viewBox="0 0 48 48" version="1.1">
<g id="surface1">
<path style=" stroke:none;fill-rule:evenodd;fill:rgb(91.764706%,53.333333%,16.862745%);fill-opacity:1;" d="M 11.210938 2.847656 L 36.789062 2.847656 C 41.410156 2.847656 45.152344 6.589844 45.152344 11.210938 L 45.152344 36.789062 C 45.152344 41.410156 41.410156 45.152344 36.789062 45.152344 L 11.210938 45.152344 C 6.589844 45.152344 2.847656 41.410156 2.847656 36.789062 L 2.847656 11.210938 C 2.847656 6.589844 6.589844 2.847656 11.210938 2.847656 Z M 11.210938 2.847656 "/>
<path style=" stroke:none;fill-rule:nonzero;fill:rgb(100%,100%,100%);fill-opacity:1;" d="M 24 10.5 C 19.769531 10.5 16.5 13.941406 16.5 18.214844 L 16.5 21 L 14.835938 21 C 14.097656 21 13.5 21.710938 13.5 22.457031 L 13.5 36.148438 C 13.5 36.898438 14.097656 37.5 14.835938 37.5 L 33.164062 37.5 C 33.902344 37.5 34.5 36.898438 34.5 36.148438 L 34.5 22.457031 C 34.5 21.710938 33.902344 20.953125 33.164062 21 L 31.5 21 L 31.5 18.214844 C 31.5 13.941406 28.230469 10.5 24 10.5 Z M 24 13.5 C 26.644531 13.5 28.5 15.542969 28.5 18.214844 L 28.5 21 L 19.5 21 L 19.5 18.214844 C 19.5 15.542969 21.355469 13.5 24 13.5 Z M 24 13.5 "/>
</g>
</svg>
