<?xml version="1.0" encoding="UTF-8"?>
<svg xmlns="http://www.w3.org/2000/svg" xmlns:xlink="http://www.w3.org/1999/xlink" width="48pt" height="48pt" viewBox="0 0 48 48" version="1.1">
<defs>
<clipPath id="clip1">
  <rect width="48" height="48"/>
</clipPath>
<g id="surface6" clip-path="url(#clip1)">
<path style=" stroke:none;fill-rule:nonzero;fill:rgb(100%,100%,100%);fill-opacity:1;" d="M 20.691406 7.835938 C 20.347656 7.875 20.046875 8.152344 19.984375 8.492188 L 19.300781 11.953125 C 18.078125 12.433594 16.925781 13.089844 15.917969 13.898438 L 12.558594 12.761719 C 12.210938 12.640625 11.785156 12.796875 11.597656 13.113281 L 8.367188 18.722656 C 8.183594 19.042969 8.261719 19.492188 8.542969 19.730469 L 11.21875 22.082031 C 11.125 22.710938 11.070312 23.34375 11.070312 24 C 11.070312 24.65625 11.125 25.289062 11.21875 25.921875 L 8.542969 28.269531 C 8.261719 28.511719 8.183594 28.957031 8.367188 29.277344 L 11.597656 34.886719 C 11.785156 35.203125 12.210938 35.359375 12.558594 35.238281 L 15.917969 34.101562 C 16.925781 34.910156 18.078125 35.570312 19.300781 36.046875 L 19.984375 39.507812 C 20.054688 39.871094 20.398438 40.160156 20.765625 40.164062 L 27.234375 40.164062 C 27.601562 40.160156 27.945312 39.871094 28.015625 39.507812 L 28.699219 36.046875 C 29.921875 35.570312 31.074219 34.910156 32.082031 34.101562 L 35.441406 35.238281 C 35.789062 35.359375 36.214844 35.203125 36.402344 34.886719 L 39.632812 29.277344 C 39.816406 28.957031 39.738281 28.511719 39.457031 28.269531 L 36.78125 25.921875 C 36.875 25.289062 36.929688 24.65625 36.929688 24 C 36.929688 23.34375 36.875 22.710938 36.78125 22.082031 L 39.457031 19.730469 C 39.738281 19.492188 39.816406 19.042969 39.632812 18.722656 L 36.402344 13.113281 C 36.214844 12.796875 35.789062 12.640625 35.441406 12.761719 L 32.082031 13.898438 C 31.070312 13.089844 29.921875 12.429688 28.695312 11.953125 L 28.015625 8.492188 C 27.945312 8.128906 27.601562 7.839844 27.230469 7.835938 L 20.765625 7.835938 C 20.742188 7.835938 20.714844 7.835938 20.691406 7.835938 Z M 20.691406 7.835938 "/>
</g>
</defs>
<g id="surface1">
<path style=" stroke:none;fill-rule:evenodd;fill:rgb(37.254902%,48.627451%,54.117647%);fill-opacity:1;" d="M 11.210938 2.847656 L 36.789062 2.847656 C 41.410156 2.847656 45.152344 6.589844 45.152344 11.210938 L 45.152344 36.789062 C 45.152344 41.410156 41.410156 45.152344 36.789062 45.152344 L 11.210938 45.152344 C 6.589844 45.152344 2.847656 41.410156 2.847656 36.789062 L 2.847656 11.210938 C 2.847656 6.589844 6.589844 2.847656 11.210938 2.847656 Z M 11.210938 2.847656 "/>
<use xlink:href="#surface6"/>
<path style=" stroke:none;fill-rule:nonzero;fill:rgb(37.254902%,48.627451%,54.117647%);fill-opacity:1;" d="M 17.074219 18.148438 L 17.074219 22.765625 L 21.691406 22.765625 L 21.691406 32.003906 L 26.308594 32.003906 L 26.308594 22.765625 L 30.925781 22.765625 L 30.925781 18.148438 Z M 17.074219 18.148438 "/>
</g>
</svg>
