<?xml version="1.0" encoding="UTF-8"?>
<svg xmlns="http://www.w3.org/2000/svg" xmlns:xlink="http://www.w3.org/1999/xlink" width="48pt" height="48pt" viewBox="0 0 48 48" version="1.1">
<g id="surface1">
<path style=" stroke:none;fill-rule:evenodd;fill:rgb(99.607843%,80.392157%,21.960784%);fill-opacity:1;" d="M 11.210938 2.847656 L 36.789062 2.847656 C 41.410156 2.847656 45.152344 6.589844 45.152344 11.210938 L 45.152344 36.789062 C 45.152344 41.410156 41.410156 45.152344 36.789062 45.152344 L 11.210938 45.152344 C 6.589844 45.152344 2.847656 41.410156 2.847656 36.789062 L 2.847656 11.210938 C 2.847656 6.589844 6.589844 2.847656 11.210938 2.847656 Z M 11.210938 2.847656 "/>
<path style=" stroke:none;fill-rule:nonzero;fill:rgb(100%,100%,100%);fill-opacity:1;" d="M 11.03125 7.476562 C 12.210938 9.113281 12.816406 10.84375 11.03125 13.378906 C 10.84375 15.59375 11.621094 16.882812 14.269531 16.832031 C 14.898438 16.792969 15.894531 16.667969 16.414062 16.175781 C 17.246094 15.160156 16.921875 14.625 16.582031 14.554688 C 16.226562 14.449219 15.367188 14.984375 16.191406 15.375 C 16.367188 16.085938 14.382812 16.015625 14.019531 15.417969 C 12.640625 12.953125 16.304688 11.179688 20.472656 12.789062 C 21.328125 19.511719 22.296875 28.082031 21.25 36.085938 C 20.5625 37.675781 19.832031 38.632812 18.113281 39.34375 L 18.113281 40.523438 C 20.472656 39.34375 26.375 39.34375 29.914062 39.34375 L 29.914062 38.160156 C 28.386719 37.886719 27.175781 36.46875 26.996094 35.042969 C 26.402344 27.109375 25.96875 21.296875 27.554688 13.378906 L 33.417969 13.378906 C 34.148438 13.394531 34.449219 14 34.636719 15.738281 L 36.996094 15.738281 C 36.171875 13.773438 35.816406 12.199219 35.816406 9.839844 C 27 11.199219 20.566406 9.988281 11.03125 7.476562 Z M 11.03125 7.476562 "/>
</g>
</svg>
