<?xml version="1.0" encoding="UTF-8"?>
<svg xmlns="http://www.w3.org/2000/svg" xmlns:xlink="http://www.w3.org/1999/xlink" width="48pt" height="48pt" viewBox="0 0 48 48" version="1.1">
<g id="surface1">
<path style=" stroke:none;fill-rule:evenodd;fill:rgb(30.980392%,30.980392%,30.980392%);fill-opacity:1;" d="M 11.210938 2.847656 L 36.789062 2.847656 C 41.410156 2.847656 45.152344 6.589844 45.152344 11.210938 L 45.152344 36.789062 C 45.152344 41.410156 41.410156 45.152344 36.789062 45.152344 L 11.210938 45.152344 C 6.589844 45.152344 2.847656 41.410156 2.847656 36.789062 L 2.847656 11.210938 C 2.847656 6.589844 6.589844 2.847656 11.210938 2.847656 Z M 11.210938 2.847656 "/>
<path style=" stroke:none;fill-rule:nonzero;fill:rgb(34.509804%,100%,0%);fill-opacity:1;" d="M 13.511719 9.976562 L 13.511719 11.476562 L 12.761719 11.476562 C 11.515625 11.476562 10.511719 12.480469 10.511719 13.726562 C 10.511719 14.972656 11.515625 15.976562 12.761719 15.976562 L 13.511719 15.976562 L 13.511719 17.476562 L 10.648438 17.476562 C 10.957031 18.351562 11.78125 18.976562 12.761719 18.976562 L 13.511719 18.976562 L 13.511719 20.476562 L 15.011719 20.476562 L 15.011719 18.976562 L 15.761719 18.976562 C 17.007812 18.976562 18.011719 17.972656 18.011719 16.726562 C 18.011719 15.480469 17.007812 14.476562 15.761719 14.476562 L 15.011719 14.476562 L 15.011719 12.976562 L 17.871094 12.976562 C 17.5625 12.105469 16.742188 11.476562 15.761719 11.476562 L 15.011719 11.476562 L 15.011719 9.976562 Z M 12.761719 12.976562 L 13.511719 12.976562 L 13.511719 14.476562 L 12.761719 14.476562 C 12.34375 14.476562 12.011719 14.144531 12.011719 13.726562 C 12.011719 13.3125 12.34375 12.976562 12.761719 12.976562 Z M 15.011719 15.976562 L 15.761719 15.976562 C 16.175781 15.976562 16.511719 16.3125 16.511719 16.726562 C 16.511719 17.144531 16.175781 17.496094 15.761719 17.476562 L 15.011719 17.476562 Z M 21.011719 18.976562 L 21.011719 20.476562 L 30.011719 20.476562 L 30.011719 18.976562 Z M 21.011719 18.976562 "/>
</g>
</svg>
