<?xml version="1.0" encoding="UTF-8"?>
<svg xmlns="http://www.w3.org/2000/svg" xmlns:xlink="http://www.w3.org/1999/xlink" width="48pt" height="48pt" viewBox="0 0 48 48" version="1.1">
<g id="surface1">
<path style=" stroke:none;fill-rule:evenodd;fill:rgb(44.705882%,65.490196%,80.784314%);fill-opacity:1;" d="M 11.210938 2.847656 L 36.789062 2.847656 C 41.410156 2.847656 45.152344 6.589844 45.152344 11.210938 L 45.152344 36.789062 C 45.152344 41.410156 41.410156 45.152344 36.789062 45.152344 L 11.210938 45.152344 C 6.589844 45.152344 2.847656 41.410156 2.847656 36.789062 L 2.847656 11.210938 C 2.847656 6.589844 6.589844 2.847656 11.210938 2.847656 Z M 11.210938 2.847656 "/>
<path style=" stroke:none;fill-rule:nonzero;fill:rgb(100%,79.215686%,40.784314%);fill-opacity:1;" d="M 36 12 C 36 12 32.398438 11.898438 28.800781 13.699219 C 27.703125 14.199219 26.503906 15 25.503906 16 C 23.886719 17.613281 21.378906 20.589844 19.402344 22.996094 L 15.011719 22.996094 L 13.011719 25.992188 L 16.402344 26.910156 C 16.410156 27.03125 16.445312 27.199219 16.539062 27.433594 L 16.011719 28.589844 C 16.011719 28.589844 15.8125 28.988281 17.308594 30.589844 C 18.910156 32.191406 19.410156 31.988281 19.410156 31.988281 L 20.652344 31.425781 C 20.839844 31.484375 20.976562 31.503906 21.066406 31.503906 L 22.007812 34.988281 L 25.007812 32.988281 L 25.007812 28.464844 C 27.429688 26.503906 30.398438 24.046875 32.003906 22.492188 C 33.003906 21.496094 33.800781 20.296875 34.402344 19.195312 C 36.097656 15.597656 36 12 36 12 Z M 36 12 "/>
<path style=" stroke:none;fill-rule:nonzero;fill:rgb(100%,100%,100%);fill-opacity:1;" d="M 29.003906 20.996094 C 27.902344 20.996094 27.003906 20.09375 27.003906 18.996094 C 27.003906 17.894531 27.902344 16.996094 29.003906 16.996094 C 30.101562 16.996094 31 17.894531 31 18.996094 C 31 20.09375 30.101562 20.996094 29.003906 20.996094 Z M 29.003906 20.996094 "/>
<path style=" stroke:none;fill-rule:nonzero;fill:rgb(100%,79.215686%,40.784314%);fill-opacity:1;" d="M 18.507812 32.988281 C 18.707031 33.089844 18.808594 33.1875 19.007812 33.289062 C 18.808594 33.488281 18.609375 33.789062 18.40625 33.988281 C 16.109375 36.289062 12.011719 35.988281 12.011719 35.988281 C 12.011719 35.988281 11.710938 31.890625 14.011719 29.59375 C 14.210938 29.390625 14.511719 29.195312 14.710938 28.992188 C 14.8125 29.191406 14.910156 29.292969 15.011719 29.492188 C 13.511719 31.390625 13.710938 34.289062 13.710938 34.289062 C 13.710938 34.289062 16.609375 34.488281 18.507812 32.988281 Z M 18.507812 32.988281 "/>
</g>
</svg>
