<?xml version="1.0" encoding="UTF-8"?>
<svg xmlns="http://www.w3.org/2000/svg" xmlns:xlink="http://www.w3.org/1999/xlink" width="48pt" height="48pt" viewBox="0 0 48 48" version="1.1">
<g id="surface1">
<path style=" stroke:none;fill-rule:evenodd;fill:rgb(97.254902%,49.411765%,23.529412%);fill-opacity:1;" d="M 11.210938 2.847656 L 36.789062 2.847656 C 41.410156 2.847656 45.152344 6.589844 45.152344 11.210938 L 45.152344 36.789062 C 45.152344 41.410156 41.410156 45.152344 36.789062 45.152344 L 11.210938 45.152344 C 6.589844 45.152344 2.847656 41.410156 2.847656 36.789062 L 2.847656 11.210938 C 2.847656 6.589844 6.589844 2.847656 11.210938 2.847656 Z M 11.210938 2.847656 "/>
<path style=" stroke:none;fill-rule:nonzero;fill:rgb(100%,100%,100%);fill-opacity:1;" d="M 12.042969 9 C 10.960938 8.984375 9.953125 9.554688 9.410156 10.488281 C 8.863281 11.421875 8.863281 12.578125 9.410156 13.511719 C 9.953125 14.445312 10.960938 15.015625 12.042969 15 L 28.8125 15 C 28.8125 15 30.109375 15.042969 31.25 15.519531 C 32.394531 15.992188 33 16.195312 33 17.988281 C 33 19.78125 32.394531 19.984375 31.25 20.460938 C 30.109375 20.9375 28.8125 20.980469 28.8125 20.980469 L 12.042969 20.980469 C 10.386719 20.980469 9.042969 22.320312 9.042969 23.980469 L 9.042969 35.957031 C 9.027344 37.039062 9.597656 38.046875 10.53125 38.589844 C 11.464844 39.136719 12.621094 39.136719 13.554688 38.589844 C 14.488281 38.046875 15.058594 37.039062 15.042969 35.957031 L 15.042969 26.980469 L 28.8125 26.980469 C 28.8125 26.980469 31.109375 27.019531 33.558594 26 C 36.011719 24.976562 39 22.183594 39 17.988281 C 39 13.792969 36.011719 11 33.558594 9.980469 C 31.109375 8.957031 28.8125 9 28.8125 9 Z M 12.042969 9 "/>
</g>
</svg>
