<?xml version="1.0" encoding="UTF-8"?>
<svg xmlns="http://www.w3.org/2000/svg" xmlns:xlink="http://www.w3.org/1999/xlink" width="48pt" height="48pt" viewBox="0 0 48 48" version="1.1">
<defs>
<filter id="alpha" filterUnits="objectBoundingBox" x="0%" y="0%" width="100%" height="100%">
  <feColorMatrix type="matrix" in="SourceGraphic" values="0 0 0 0 1 0 0 0 0 1 0 0 0 0 1 0 0 0 1 0"/>
</filter>
<mask id="mask0">
  <g filter="url(#alpha)">
<rect x="0" y="0" width="48" height="48" style="fill:rgb(0%,0%,0%);fill-opacity:0.101961;stroke:none;"/>
  </g>
</mask>
<clipPath id="clip1">
  <rect width="48" height="48"/>
</clipPath>
<g id="surface6" clip-path="url(#clip1)">
<path style=" stroke:none;fill-rule:nonzero;fill:rgb(100%,100%,100%);fill-opacity:1;" d="M 29.046875 19.484375 C 29.984375 19.484375 30.738281 20.238281 30.738281 21.175781 L 30.738281 22.304688 C 30.738281 21.367188 29.984375 20.613281 29.046875 20.613281 L 9.285156 20.613281 L 8.15625 19.484375 Z M 29.046875 19.484375 "/>
</g>
</defs>
<g id="surface1">
<path style=" stroke:none;fill-rule:evenodd;fill:rgb(99.607843%,59.215686%,0%);fill-opacity:1;" d="M 11.210938 2.847656 L 36.789062 2.847656 C 41.410156 2.847656 45.152344 6.589844 45.152344 11.210938 L 45.152344 36.789062 C 45.152344 41.410156 41.410156 45.152344 36.789062 45.152344 L 11.210938 45.152344 C 6.589844 45.152344 2.847656 41.410156 2.847656 36.789062 L 2.847656 11.210938 C 2.847656 6.589844 6.589844 2.847656 11.210938 2.847656 Z M 11.210938 2.847656 "/>
<path style=" stroke:none;fill-rule:nonzero;fill:rgb(99.607843%,91.764706%,22.745098%);fill-opacity:1;" d="M 18.953125 9.320312 C 18.015625 9.320312 17.261719 10.074219 17.261719 11.015625 L 17.261719 26.824219 C 17.261719 27.761719 18.015625 28.515625 18.953125 28.515625 L 34.761719 28.515625 C 35.699219 28.515625 36.457031 27.761719 36.457031 26.824219 L 36.457031 12.707031 L 39.84375 9.320312 Z M 18.953125 9.320312 "/>
<path style=" stroke:none;fill-rule:nonzero;fill:rgb(100%,100%,100%);fill-opacity:1;" d="M 8.226562 19.484375 L 11.613281 22.871094 L 11.613281 36.984375 C 11.613281 37.925781 12.371094 38.679688 13.308594 38.679688 L 29.117188 38.679688 C 30.054688 38.679688 30.8125 37.925781 30.8125 36.984375 L 30.8125 21.175781 C 30.8125 20.238281 30.054688 19.484375 29.117188 19.484375 Z M 8.226562 19.484375 "/>
<use xlink:href="#surface6" mask="url(#mask0)"/>
<path style=" stroke:none;fill-rule:evenodd;fill:rgb(99.607843%,59.215686%,0%);fill-opacity:1;" d="M 18.921875 22.871094 L 18.324219 26.257812 L 15 26.257812 L 15 27.386719 L 18.125 27.386719 L 17.523438 30.773438 L 15 30.773438 L 15 31.90625 L 17.328125 31.90625 L 16.730469 35.292969 L 17.859375 35.292969 L 18.457031 31.90625 L 21.277344 31.90625 L 20.679688 35.292969 L 21.808594 35.292969 L 22.40625 31.90625 L 26.292969 31.90625 L 26.292969 30.773438 L 22.605469 30.773438 L 23.207031 27.386719 L 26.292969 27.386719 L 26.292969 26.257812 L 23.40625 26.257812 L 24.003906 22.871094 L 22.871094 22.871094 L 22.273438 26.257812 L 19.453125 26.257812 L 20.050781 22.871094 Z M 19.253906 27.386719 L 22.078125 27.386719 L 21.476562 30.773438 L 18.652344 30.773438 Z M 19.253906 27.386719 "/>
</g>
</svg>
