<?xml version="1.0" encoding="UTF-8"?>
<svg xmlns="http://www.w3.org/2000/svg" xmlns:xlink="http://www.w3.org/1999/xlink" width="48pt" height="48pt" viewBox="0 0 48 48" version="1.1">
<g id="surface1">
<path style=" stroke:none;fill-rule:evenodd;fill:rgb(45.490196%,69.803922%,92.941176%);fill-opacity:1;" d="M 11.210938 2.847656 L 36.789062 2.847656 C 41.410156 2.847656 45.152344 6.589844 45.152344 11.210938 L 45.152344 36.789062 C 45.152344 41.410156 41.410156 45.152344 36.789062 45.152344 L 11.210938 45.152344 C 6.589844 45.152344 2.847656 41.410156 2.847656 36.789062 L 2.847656 11.210938 C 2.847656 6.589844 6.589844 2.847656 11.210938 2.847656 Z M 11.210938 2.847656 "/>
<path style=" stroke:none;fill-rule:nonzero;fill:rgb(100%,100%,100%);fill-opacity:1;" d="M 17.25 18.75 L 17.25 20.25 L 16.5 20.25 C 15.253906 20.25 14.25 21.253906 14.25 22.5 C 14.25 23.746094 15.253906 24.75 16.5 24.75 L 17.25 24.75 L 17.25 26.25 L 14.386719 26.25 C 14.695312 27.121094 15.519531 27.75 16.5 27.75 L 17.25 27.75 L 17.25 29.25 L 18.75 29.25 L 18.75 27.75 L 19.5 27.75 C 20.746094 27.75 21.75 26.746094 21.75 25.5 C 21.75 24.253906 20.746094 23.25 19.5 23.25 L 18.75 23.25 L 18.75 21.75 L 21.613281 21.75 C 21.304688 20.878906 20.480469 20.25 19.5 20.25 L 18.75 20.25 L 18.75 18.75 Z M 16.5 21.75 L 17.25 21.75 L 17.25 23.25 L 16.5 23.25 C 16.085938 23.25 15.75 22.914062 15.75 22.5 C 15.75 22.085938 16.085938 21.75 16.5 21.75 Z M 18.75 24.75 L 19.5 24.75 C 19.914062 24.75 20.25 25.085938 20.25 25.5 C 20.25 25.914062 19.914062 26.269531 19.5 26.25 L 18.75 26.25 Z M 24.75 27.75 L 24.75 29.25 L 33.75 29.25 L 33.75 27.75 Z M 24.75 27.75 "/>
</g>
</svg>
