<?xml version="1.0" encoding="UTF-8"?>
<svg xmlns="http://www.w3.org/2000/svg" xmlns:xlink="http://www.w3.org/1999/xlink" width="48pt" height="48pt" viewBox="0 0 48 48" version="1.1">
<g id="surface1">
<path style=" stroke:none;fill-rule:evenodd;fill:rgb(98.039216%,74.117647%,49.803922%);fill-opacity:1;" d="M 11.210938 2.847656 L 36.789062 2.847656 C 41.410156 2.847656 45.152344 6.589844 45.152344 11.210938 L 45.152344 36.789062 C 45.152344 41.410156 41.410156 45.152344 36.789062 45.152344 L 11.210938 45.152344 C 6.589844 45.152344 2.847656 41.410156 2.847656 36.789062 L 2.847656 11.210938 C 2.847656 6.589844 6.589844 2.847656 11.210938 2.847656 Z M 11.210938 2.847656 "/>
<path style=" stroke:none;fill-rule:nonzero;fill:rgb(100%,100%,100%);fill-opacity:1;" d="M 18.054688 11.796875 C 17.296875 11.796875 16.6875 12.417969 16.6875 13.1875 L 16.6875 27.085938 L 12.480469 22.789062 C 11.945312 22.246094 11.082031 22.246094 10.550781 22.789062 L 9.585938 23.773438 C 9.050781 24.320312 9.050781 25.199219 9.585938 25.746094 L 16.917969 33.234375 C 17.796875 36.996094 21.085938 39.652344 24.875 39.65625 C 29.398438 39.65625 33.0625 35.914062 33.0625 31.296875 L 33.0625 13.1875 C 33.0625 12.417969 32.457031 11.796875 31.699219 11.796875 L 30.335938 11.796875 C 29.578125 11.796875 28.96875 12.417969 28.96875 13.1875 L 28.96875 21.046875 C 28.96875 20.550781 28.363281 20.152344 27.605469 20.152344 L 26.242188 20.152344 C 25.484375 20.152344 24.875 20.550781 24.875 21.046875 L 24.875 21.054688 C 24.875 20.554688 24.265625 20.152344 23.511719 20.152344 L 22.148438 20.152344 C 21.390625 20.152344 20.78125 20.554688 20.78125 21.054688 L 20.78125 13.1875 C 20.78125 12.417969 20.171875 11.796875 19.417969 11.796875 Z M 18.054688 11.796875 "/>
<path style=" stroke:none;fill-rule:nonzero;fill:rgb(98.039216%,80.784314%,63.529412%);fill-opacity:1;" d="M 18.800781 12.253906 C 18.046875 12.253906 17.371094 12.730469 17.371094 13.882812 C 17.371094 15.039062 17.980469 15.972656 18.734375 15.972656 C 19.488281 15.972656 20.101562 15.039062 20.101562 13.882812 C 20.101562 12.730469 19.554688 12.253906 18.800781 12.253906 Z M 31.015625 12.253906 C 30.261719 12.253906 29.652344 12.730469 29.652344 13.882812 C 29.652344 15.039062 30.261719 15.972656 31.015625 15.972656 C 31.769531 15.972656 32.382812 15.039062 32.382812 13.882812 C 32.382812 12.730469 31.769531 12.253906 31.015625 12.253906 Z M 11.066406 23.15625 C 10.878906 23.171875 10.675781 23.269531 10.429688 23.414062 C 9.777344 23.800781 9.082031 24.359375 9.644531 25.359375 C 10.210938 26.359375 11.199219 26.855469 11.851562 26.472656 C 12.503906 26.085938 12.574219 24.964844 12.011719 23.964844 C 11.65625 23.339844 11.382812 23.132812 11.066406 23.15625 Z M 11.066406 23.15625 "/>
<path style=" stroke:none;fill-rule:nonzero;fill:rgb(90.980392%,64.705882%,37.647059%);fill-opacity:1;" d="M 18.054688 11.796875 C 17.296875 11.796875 16.6875 12.417969 16.6875 13.1875 L 16.6875 27.085938 L 12.480469 22.789062 C 11.945312 22.246094 11.082031 22.246094 10.550781 22.789062 L 9.585938 23.773438 C 9.050781 24.320312 9.050781 25.199219 9.585938 25.746094 L 16.917969 33.234375 C 17.796875 36.996094 21.085938 39.652344 24.875 39.65625 C 29.398438 39.65625 33.0625 35.914062 33.0625 31.296875 L 33.0625 13.1875 C 33.0625 12.417969 32.457031 11.796875 31.699219 11.796875 L 30.335938 11.796875 C 29.578125 11.796875 28.96875 12.417969 28.96875 13.1875 L 28.96875 21.046875 C 28.96875 20.550781 28.363281 20.152344 27.605469 20.152344 L 26.242188 20.152344 C 25.484375 20.152344 24.875 20.550781 24.875 21.046875 L 24.875 21.054688 C 24.875 20.554688 24.265625 20.152344 23.511719 20.152344 L 22.148438 20.152344 C 21.390625 20.152344 20.78125 20.554688 20.78125 21.054688 L 20.78125 13.1875 C 20.78125 12.417969 20.171875 11.796875 19.417969 11.796875 Z M 18.054688 12.839844 L 19.417969 12.839844 C 19.625 12.839844 19.757812 12.976562 19.757812 13.1875 L 19.757812 25.511719 C 19.777344 26.734375 21.492188 26.863281 21.777344 25.671875 C 21.839844 25.640625 21.964844 21.199219 22.148438 21.199219 L 23.511719 21.199219 C 23.691406 21.199219 23.820312 24.941406 23.882812 24.976562 C 24.136719 26.039062 25.617188 26.039062 25.871094 24.976562 C 25.933594 24.941406 26.058594 21.199219 26.242188 21.199219 L 27.605469 21.199219 C 27.789062 21.199219 27.914062 25.847656 27.976562 25.882812 C 28.269531 27.066406 29.972656 26.933594 29.992188 25.714844 L 29.992188 13.1875 C 29.992188 12.976562 30.128906 12.839844 30.335938 12.839844 L 31.699219 12.839844 C 31.90625 12.839844 32.039062 12.976562 32.039062 13.1875 L 32.039062 31.296875 C 32.039062 35.347656 28.847656 38.609375 24.878906 38.613281 C 21.558594 38.609375 18.683594 36.289062 17.914062 32.992188 C 17.871094 32.800781 17.777344 32.628906 17.644531 32.492188 L 10.308594 25.007812 C 10.160156 24.855469 10.160156 24.664062 10.308594 24.515625 L 11.273438 23.527344 C 11.417969 23.378906 11.609375 23.378906 11.753906 23.527344 L 15.964844 27.828125 C 16.609375 28.484375 17.710938 28.019531 17.710938 27.085938 L 17.710938 13.1875 C 17.710938 12.976562 17.847656 12.839844 18.054688 12.839844 Z M 18.054688 12.839844 "/>
</g>
</svg>
