<?xml version="1.0" encoding="UTF-8"?>
<svg xmlns="http://www.w3.org/2000/svg" xmlns:xlink="http://www.w3.org/1999/xlink" width="48pt" height="48pt" viewBox="0 0 48 48" version="1.1">
<g id="surface1">
<path style=" stroke:none;fill-rule:evenodd;fill:rgb(76.078431%,20.784314%,16.470588%);fill-opacity:1;" d="M 11.210938 2.847656 L 36.789062 2.847656 C 41.410156 2.847656 45.152344 6.589844 45.152344 11.210938 L 45.152344 36.789062 C 45.152344 41.410156 41.410156 45.152344 36.789062 45.152344 L 11.210938 45.152344 C 6.589844 45.152344 2.847656 41.410156 2.847656 36.789062 L 2.847656 11.210938 C 2.847656 6.589844 6.589844 2.847656 11.210938 2.847656 Z M 11.210938 2.847656 "/>
<path style=" stroke:none;fill-rule:nonzero;fill:rgb(100%,100%,100%);fill-opacity:1;" d="M 23.210938 28.664062 C 31.382812 24.015625 31.207031 24.117188 31.207031 24.023438 C 31.207031 23.9375 16.902344 15.714844 16.832031 15.761719 C 16.785156 15.792969 16.777344 32.171875 16.824219 32.222656 C 16.839844 32.242188 16.890625 32.242188 16.933594 32.222656 C 16.976562 32.207031 19.800781 30.605469 23.210938 28.664062 Z M 23.210938 28.664062 "/>
<path style=" stroke:none;fill-rule:nonzero;fill:rgb(54.901961%,10.588235%,4.313725%);fill-opacity:1;" d="M 43.015625 34.320312 C 43.015625 39.292969 38.988281 43.320312 34.015625 43.320312 C 29.046875 43.320312 25.015625 39.292969 25.015625 34.320312 C 25.015625 29.351562 29.046875 25.320312 34.015625 25.320312 C 38.988281 25.320312 43.015625 29.351562 43.015625 34.320312 Z M 43.015625 34.320312 "/>
<path style=" stroke:none;fill-rule:nonzero;fill:rgb(100%,100%,100%);fill-opacity:1;" d="M 35.816406 28.921875 L 35.816406 33.722656 L 37.617188 33.722656 L 34.015625 38.523438 L 30.417969 33.722656 L 32.21875 33.722656 L 32.21875 28.921875 Z M 29.816406 38.523438 L 38.21875 38.523438 L 38.21875 39.722656 L 29.816406 39.722656 Z M 29.816406 38.523438 "/>
</g>
</svg>
