<?xml version="1.0" encoding="UTF-8" standalone="no"?>
<svg
   xmlns:dc="http://purl.org/dc/elements/1.1/"
   xmlns:cc="http://creativecommons.org/ns#"
   xmlns:rdf="http://www.w3.org/1999/02/22-rdf-syntax-ns#"
   xmlns:svg="http://www.w3.org/2000/svg"
   xmlns="http://www.w3.org/2000/svg"
   xmlns:sodipodi="http://sodipodi.sourceforge.net/DTD/sodipodi-0.dtd"
   xmlns:inkscape="http://www.inkscape.org/namespaces/inkscape"
   version="1.1"
   viewBox="0 0 32 32"
   width="32"
   height="32"
   id="svg6"
   sodipodi:docname="emblem-web.svg"
   inkscape:version="0.92.1 r">
  <metadata
     id="metadata12">
    <rdf:RDF>
      <cc:Work
         rdf:about="">
        <dc:format>image/svg+xml</dc:format>
        <dc:type
           rdf:resource="http://purl.org/dc/dcmitype/StillImage" />
      </cc:Work>
    </rdf:RDF>
  </metadata>
  <defs
     id="defs10" />
  <sodipodi:namedview
     pagecolor="#ffffff"
     bordercolor="#666666"
     borderopacity="1"
     objecttolerance="10"
     gridtolerance="10"
     guidetolerance="10"
     inkscape:pageopacity="0"
     inkscape:pageshadow="2"
     inkscape:window-width="640"
     inkscape:window-height="480"
     id="namedview8"
     showgrid="false"
     inkscape:zoom="8.8125"
     inkscape:cx="-5.6737589"
     inkscape:cy="16"
     inkscape:current-layer="svg6" />
  <rect
     style="opacity:1;fill:#252a35;fill-opacity:1;fill-rule:evenodd;stroke:none;stroke-width:1.03534329;stroke-linecap:round;stroke-linejoin:bevel;stroke-miterlimit:4;stroke-dasharray:none;stroke-dashoffset:0;stroke-opacity:1"
     id="rect4497-3"
     width="28.203388"
     height="28.203388"
     x="1.8983059"
     y="1.8983059"
     ry="5.575182" />
  <path
     d="M 14.879,6.0586747 C 9.8904,6.6179747 6,10.857974 6,15.996974 c 0,5.517 4.484,10.003 9.999,10.003 5.516,0 10.001,-4.486 10.001,-10.003 0,-5.065 -3.783,-9.2512993 -8.669,-9.9061993 0,0 -1.3648,-0.18073 -2.4521,-0.03209 z m 0.4547,1.3521 v 3.3669993 c -0.95474,-0.0337 -1.8677,-0.1349 -2.7115,-0.29442 0.12673,-0.29711 0.25959,-0.5832693 0.40449,-0.8441993 0.66796,-1.2028 1.4746,-1.9531 2.307,-2.2284 z m 1.4283,0.05582 c 0.0751,0.01244 0.15139,0.02116 0.22596,0.03488 0.75215,0.3293 1.475,1.0439 2.0824,2.1377 0.14222,0.2561 0.27279,0.5364793 0.39752,0.8274593 -0.83995,0.1637 -1.7521,0.26995 -2.7059,0.30838 z m -4.392,0.5693 c -0.21,0.2858 -0.411,0.585 -0.591,0.9098 -0.208,0.3735 -0.393,0.7781 -0.564,1.2002993 -0.46,-0.135 -0.888,-0.2883993 -1.2789,-0.4565993 0.7069,-0.6806 1.5289,-1.2407 2.4339,-1.6535 z m 7.5961,0.33489 c 0.8433,0.26221 1.4884,0.79657 2.0964,1.3186 -0.366,0.1576 -0.763,0.3025 -1.191,0.4315993 -0.168,-0.4128993 -0.349,-0.8093993 -0.552,-1.1752993 -0.111,-0.1998 -0.23,-0.3892 -0.353,-0.5749 z M 9.0311,10.713984 c 0.0149,0.05357 -0.0246,-0.07198 -0.006,-0.0173 0.51512,0.24049 1.1275,0.62481 1.7315,0.8057 -0.31235,1.1167 -0.50581,2.3436 -0.55792,3.6405 h -2.9054 c 0.1603,-1.658 0.7867,-3.174 1.7383,-4.429 z m 13.946,0.012 c 0.9462,1.2529 1.5688,2.7641 1.7282,4.4164 H 21.899 c -0.0525,-1.3066 -0.24842,-2.5423 -0.56489,-3.6657 0.57036,-0.1749 1.1388,-0.50787 1.6285,-0.73649 0.0214,-0.05033 -0.003,0.03522 0.0146,-0.01423 z m -3.0295,1.1037 c 0.28419,1.0006 0.46827,2.1208 0.52166,3.3126 h -3.7074 v -2.9387 c 1.1222,-0.04118 2.1943,-0.16798 3.1857,-0.37396 z m -7.8039,0.02094 c 0.99373,0.20059 2.0676,0.32029 3.1899,0.35582 v 2.9359 h -3.706 c 0.053,-1.1837 0.23519,-2.2963 0.51608,-3.2917 z m -4.8651,4.7206 h 2.9193 c 0.0535,1.3325 0.25541,2.5928 0.58303,3.734 -0.64233,0.08342 -1.7472,0.73315 -1.8042,0.76506 -1.1223,-1.371 -1.5757,-2.617 -1.6978,-4.5 z m 4.349,0 h 3.706 v 3.0363 c -1.1129,0.03513 -2.1782,0.15267 -3.1648,0.35024 -0.29598,-1.0191 -0.4865,-2.1657 -0.54118,-3.3866 z m 5.1342,0 h 3.7074 c -0.055,1.2291 -0.2474,2.3833 -0.54676,3.4075 -0.98429,-0.20292 -2.0479,-0.32763 -3.1606,-0.36838 z m 5.137,0 h 2.8203 c -0.11221,1.7301 -0.62358,3.2192 -1.5934,4.5293 -0.45371,-0.28625 -1.2817,-0.58515 -1.8169,-0.7701 0.33182,-1.1478 0.53607,-2.417 0.58999,-3.7591 z m -6.5653,4.4652 v 3.2652 c -0.832,-0.276 -1.639,-1.023 -2.307,-2.226 -0.13,-0.234 -0.25,-0.488 -0.365,-0.752 0.83299,-0.15542 1.7324,-0.25419 2.6724,-0.28745 z m 1.4283,0.0028 c 0.93988,0.03753 1.8384,0.14028 2.6682,0.30001 -0.11367,0.25821 -0.2322,0.50687 -0.35986,0.73676 -0.66805,1.203 -1.4756,1.9502 -2.3084,2.2256 z m -5.5094,0.61815 c 0.16104,0.38907 0.33318,0.76518 0.52584,1.1121 0.27272,0.49109 0.58399,0.93688 0.92336,1.334 -1.094,-0.44469 -2.0798,-1.0992 -2.8998,-1.9214 0.43629,-0.19557 0.92351,-0.37169 1.4506,-0.52466 z m 9.5823,0.02512 c 0.49327,0.14689 0.94942,0.31492 1.3613,0.49955 -0.78116,0.78324 -1.7116,1.4171 -2.7436,1.86 0.31784,-0.38106 0.60827,-0.80817 0.86617,-1.2726 0.18855,-0.33953 0.35779,-0.70706 0.51608,-1.087 z"
     style="fill:#ffffff;fill-rule:evenodd"
     id="path4"
     inkscape:connector-curvature="0" />
</svg>
