<?xml version="1.0" encoding="UTF-8"?>
<svg xmlns="http://www.w3.org/2000/svg" xmlns:xlink="http://www.w3.org/1999/xlink" width="12pt" height="12pt" viewBox="0 0 12 12" version="1.1">
<g id="surface1">
<path style=" stroke:none;fill-rule:evenodd;fill:rgb(43.921569%,78.039216%,30.196078%);fill-opacity:1;" d="M 2.835938 0.71875 L 9.308594 0.71875 C 10.472656 0.71875 11.421875 1.667969 11.421875 2.835938 L 11.421875 9.308594 C 11.421875 10.472656 10.472656 11.421875 9.308594 11.421875 L 2.835938 11.421875 C 1.667969 11.421875 0.71875 10.472656 0.71875 9.308594 L 0.71875 2.835938 C 0.71875 1.667969 1.667969 0.71875 2.835938 0.71875 Z M 2.835938 0.71875 "/>
<path style=" stroke:none;fill-rule:evenodd;fill:rgb(100%,100%,100%);fill-opacity:1;" d="M 3.226562 4.742188 C 3.226562 4.742188 3.042969 4.742188 2.855469 4.835938 C 2.667969 4.925781 2.464844 5.152344 2.464844 5.503906 L 2.847656 5.503906 C 2.847656 5.121094 3.226562 5.121094 3.226562 5.121094 C 3.226562 5.121094 3.605469 5.121094 3.605469 5.503906 C 3.605469 5.644531 3.558594 5.75 3.46875 5.863281 C 3.378906 5.980469 3.246094 6.089844 3.101562 6.210938 C 2.960938 6.328125 2.808594 6.453125 2.683594 6.613281 C 2.5625 6.773438 2.464844 6.972656 2.464844 7.210938 L 2.464844 7.398438 L 3.984375 7.398438 L 3.984375 7.019531 L 2.878906 7.019531 C 2.90625 6.960938 2.9375 6.902344 2.984375 6.847656 C 3.070312 6.734375 3.207031 6.621094 3.347656 6.5 C 3.492188 6.382812 3.640625 6.257812 3.765625 6.097656 C 3.890625 5.941406 3.984375 5.738281 3.984375 5.503906 C 3.984375 5.152344 3.785156 4.925781 3.59375 4.835938 C 3.40625 4.742188 3.226562 4.742188 3.226562 4.742188 Z M 3.226562 4.742188 "/>
<path style=" stroke:none;fill-rule:nonzero;fill:rgb(100%,100%,100%);fill-opacity:1;" d="M 5.121094 4.742188 C 4.703125 4.742188 4.363281 5.082031 4.363281 5.503906 L 4.363281 6.640625 C 4.363281 7.058594 4.703125 7.398438 5.121094 7.398438 C 5.542969 7.398438 5.882812 7.058594 5.882812 6.640625 L 5.882812 5.503906 C 5.882812 5.082031 5.542969 4.742188 5.121094 4.742188 Z M 5.121094 5.121094 C 5.335938 5.121094 5.503906 5.289062 5.503906 5.503906 L 5.503906 6.640625 C 5.503906 6.855469 5.335938 7.019531 5.121094 7.019531 C 4.90625 7.019531 4.742188 6.855469 4.742188 6.640625 L 4.742188 5.503906 C 4.742188 5.289062 4.90625 5.121094 5.121094 5.121094 Z M 5.121094 5.121094 "/>
<path style=" stroke:none;fill-rule:evenodd;fill:rgb(100%,100%,100%);fill-opacity:1;" d="M 6.640625 4.742188 L 6.640625 5.882812 L 7.398438 5.882812 L 7.398438 4.742188 L 7.777344 4.742188 L 7.777344 7.398438 L 7.398438 7.398438 L 7.398438 6.261719 L 6.261719 6.261719 L 6.261719 4.742188 L 6.640625 4.742188 "/>
<path style=" stroke:none;fill-rule:nonzero;fill:rgb(100%,100%,100%);fill-opacity:1;" d="M 8.917969 4.742188 C 8.5 4.742188 8.160156 5.082031 8.160156 5.503906 C 8.160156 5.726562 8.261719 5.933594 8.421875 6.070312 C 8.261719 6.210938 8.160156 6.414062 8.160156 6.640625 C 8.160156 7.058594 8.5 7.398438 8.917969 7.398438 C 9.335938 7.398438 9.675781 7.058594 9.675781 6.640625 C 9.675781 6.414062 9.574219 6.210938 9.414062 6.070312 C 9.574219 5.933594 9.675781 5.726562 9.675781 5.503906 C 9.675781 5.082031 9.335938 4.742188 8.917969 4.742188 Z M 8.917969 5.121094 C 9.132812 5.121094 9.296875 5.289062 9.296875 5.503906 C 9.296875 5.71875 9.132812 5.882812 8.917969 5.882812 C 8.703125 5.882812 8.539062 5.71875 8.539062 5.503906 C 8.539062 5.289062 8.703125 5.121094 8.917969 5.121094 Z M 8.917969 6.261719 C 9.132812 6.261719 9.296875 6.425781 9.296875 6.640625 C 9.296875 6.855469 9.132812 7.019531 8.917969 7.019531 C 8.703125 7.019531 8.539062 6.855469 8.539062 6.640625 C 8.539062 6.425781 8.703125 6.261719 8.917969 6.261719 Z M 8.917969 6.261719 "/>
</g>
</svg>
