<?xml version="1.0" encoding="UTF-8"?>
<svg xmlns="http://www.w3.org/2000/svg" xmlns:xlink="http://www.w3.org/1999/xlink" width="12pt" height="12pt" viewBox="0 0 12 12" version="1.1">
<g id="surface1">
<path style=" stroke:none;fill-rule:evenodd;fill:rgb(96.078431%,51.764706%,6.666667%);fill-opacity:1;" d="M 2.835938 0.71875 L 9.308594 0.71875 C 10.472656 0.71875 11.421875 1.667969 11.421875 2.835938 L 11.421875 9.308594 C 11.421875 10.472656 10.472656 11.421875 9.308594 11.421875 L 2.835938 11.421875 C 1.667969 11.421875 0.71875 10.472656 0.71875 9.308594 L 0.71875 2.835938 C 0.71875 1.667969 1.667969 0.71875 2.835938 0.71875 Z M 2.835938 0.71875 "/>
<path style=" stroke:none;fill-rule:nonzero;fill:rgb(100%,80.392157%,43.137255%);fill-opacity:1;" d="M 7.105469 2.65625 L 8.242188 1.898438 L 8.242188 9.488281 L 7.105469 10.246094 Z M 7.105469 2.65625 "/>
<path style=" stroke:none;fill-rule:nonzero;fill:rgb(100%,80.392157%,43.137255%);fill-opacity:1;" d="M 3.398438 7.589844 L 2.171875 6.984375 L 8.746094 3.1875 L 9.972656 3.792969 Z M 3.398438 7.589844 "/>
<path style=" stroke:none;fill-rule:nonzero;fill:rgb(100%,80.392157%,43.137255%);fill-opacity:1;" d="M 9.882812 8.121094 L 9.972656 9.488281 L 3.398438 5.691406 L 3.308594 4.328125 Z M 9.882812 8.121094 "/>
</g>
</svg>
