<?xml version="1.0" encoding="UTF-8"?>
<svg xmlns="http://www.w3.org/2000/svg" xmlns:xlink="http://www.w3.org/1999/xlink" width="12pt" height="12pt" viewBox="0 0 12 12" version="1.1">
<g id="surface1">
<path style=" stroke:none;fill-rule:evenodd;fill:rgb(0%,77.254902%,92.54902%);fill-opacity:1;" d="M 7.121094 11.421875 L 7.121094 5.8125 C 7.121094 5.664062 7.058594 5.53125 6.964844 5.433594 C 6.871094 5.339844 6.734375 5.277344 6.589844 5.277344 L 0.929688 5.277344 C 0.847656 5.277344 0.789062 5.335938 0.71875 5.367188 L 0.71875 9.304688 C 0.71875 10.480469 1.664062 11.421875 2.835938 11.421875 Z M 7.121094 11.421875 "/>
<path style=" stroke:none;fill-rule:evenodd;fill:rgb(76.078431%,76.078431%,76.078431%);fill-opacity:1;" d="M 7.121094 6.398438 L 7.121094 11.421875 L 9.308594 11.421875 C 10.480469 11.421875 11.421875 10.480469 11.421875 9.304688 L 11.421875 6.398438 C 11.421875 6.398438 11.421875 6.398438 11.417969 6.398438 Z M 7.121094 6.398438 "/>
<path style=" stroke:none;fill-rule:evenodd;fill:rgb(76.078431%,76.078431%,76.078431%);fill-opacity:1;" d="M 5.816406 0.71875 L 2.835938 0.71875 C 1.664062 0.71875 0.71875 1.664062 0.71875 2.835938 L 0.71875 5.367188 C 0.789062 5.335938 0.847656 5.277344 0.929688 5.277344 L 5.796875 5.277344 L 5.796875 0.777344 C 5.796875 0.757812 5.816406 0.742188 5.816406 0.71875 Z M 5.816406 0.71875 "/>
<path style=" stroke:none;fill-rule:evenodd;fill:rgb(84.705882%,85.490196%,86.27451%);fill-opacity:1;" d="M 5.816406 0.71875 C 5.816406 0.742188 5.796875 0.757812 5.796875 0.777344 L 5.796875 5.277344 L 6.589844 5.277344 C 6.734375 5.277344 6.871094 5.339844 6.964844 5.433594 C 7.058594 5.53125 7.121094 5.664062 7.121094 5.8125 L 7.121094 6.398438 L 11.417969 6.398438 C 11.421875 6.398438 11.421875 6.398438 11.421875 6.398438 L 11.421875 2.835938 C 11.421875 1.664062 10.480469 0.71875 9.308594 0.71875 Z M 5.816406 0.71875 "/>
<path style=" stroke:none;fill-rule:nonzero;fill:rgb(61.568627%,61.568627%,61.568627%);fill-opacity:1;" d="M 9.792969 3.597656 L 9.792969 3.796875 L 7.914062 3.796875 C 7.933594 4.078125 8.019531 4.292969 8.167969 4.441406 C 8.320312 4.585938 8.53125 4.664062 8.804688 4.664062 C 8.960938 4.664062 9.113281 4.644531 9.257812 4.605469 C 9.40625 4.566406 9.554688 4.507812 9.699219 4.429688 L 9.699219 4.816406 C 9.550781 4.878906 9.402344 4.925781 9.246094 4.957031 C 9.09375 4.992188 8.9375 5.007812 8.78125 5.007812 C 8.382812 5.007812 8.070312 4.890625 7.835938 4.664062 C 7.605469 4.429688 7.488281 4.117188 7.488281 3.726562 C 7.488281 3.316406 7.601562 2.992188 7.816406 2.757812 C 8.039062 2.515625 8.335938 2.398438 8.707031 2.398438 C 9.042969 2.398438 9.308594 2.503906 9.5 2.71875 C 9.695312 2.933594 9.792969 3.226562 9.792969 3.597656 M 9.386719 3.480469 C 9.382812 3.253906 9.320312 3.078125 9.195312 2.945312 C 9.078125 2.808594 8.914062 2.742188 8.714844 2.742188 C 8.484375 2.742188 8.300781 2.808594 8.164062 2.933594 C 8.027344 3.066406 7.949219 3.246094 7.929688 3.480469 L 9.386719 3.480469 M 8.890625 1.5 L 9.34375 1.5 L 9.34375 1.949219 L 8.890625 1.949219 L 8.890625 1.5 M 8.023438 1.5 L 8.476562 1.5 L 8.476562 1.949219 L 8.023438 1.949219 L 8.023438 1.5 "/>
<path style=" stroke:none;fill-rule:nonzero;fill:rgb(100%,100%,100%);fill-opacity:1;" d="M 4.308594 8.421875 C 3.949219 8.421875 3.707031 8.460938 3.566406 8.539062 C 3.429688 8.617188 3.359375 8.753906 3.359375 8.945312 C 3.359375 9.097656 3.414062 9.21875 3.511719 9.3125 C 3.617188 9.398438 3.757812 9.441406 3.9375 9.441406 C 4.179688 9.441406 4.375 9.359375 4.523438 9.191406 C 4.671875 9.019531 4.746094 8.796875 4.746094 8.519531 L 4.746094 8.421875 L 4.308594 8.421875 M 5.1875 8.246094 L 5.1875 9.734375 L 4.746094 9.734375 L 4.746094 9.339844 C 4.644531 9.496094 4.519531 9.613281 4.371094 9.691406 C 4.21875 9.765625 4.035156 9.800781 3.820312 9.800781 C 3.542969 9.800781 3.324219 9.726562 3.160156 9.578125 C 3 9.429688 2.921875 9.226562 2.921875 8.976562 C 2.921875 8.679688 3.023438 8.460938 3.222656 8.308594 C 3.421875 8.160156 3.726562 8.085938 4.125 8.085938 L 4.746094 8.085938 L 4.746094 8.042969 C 4.746094 7.847656 4.679688 7.695312 4.546875 7.589844 C 4.410156 7.480469 4.222656 7.425781 3.984375 7.425781 C 3.832031 7.425781 3.679688 7.445312 3.535156 7.476562 C 3.390625 7.515625 3.25 7.566406 3.117188 7.640625 L 3.117188 7.242188 C 3.277344 7.183594 3.433594 7.136719 3.585938 7.109375 C 3.738281 7.074219 3.886719 7.0625 4.027344 7.0625 C 4.417969 7.0625 4.707031 7.160156 4.898438 7.355469 C 5.089844 7.550781 5.1875 7.847656 5.1875 8.246094 M 3.703125 5.917969 L 4.378906 6.789062 L 4.007812 6.789062 L 3.226562 5.917969 L 3.703125 5.917969 "/>
</g>
</svg>
