<?xml version="1.0" encoding="UTF-8"?>
<svg xmlns="http://www.w3.org/2000/svg" xmlns:xlink="http://www.w3.org/1999/xlink" width="12pt" height="12pt" viewBox="0 0 12 12" version="1.1">
<g id="surface1">
<path style=" stroke:none;fill-rule:evenodd;fill:rgb(45.490196%,31.764706%,27.058824%);fill-opacity:1;" d="M 2.835938 0.71875 L 9.308594 0.71875 C 10.472656 0.71875 11.421875 1.667969 11.421875 2.835938 L 11.421875 9.308594 C 11.421875 10.472656 10.472656 11.421875 9.308594 11.421875 L 2.835938 11.421875 C 1.667969 11.421875 0.71875 10.472656 0.71875 9.308594 L 0.71875 2.835938 C 0.71875 1.667969 1.667969 0.71875 2.835938 0.71875 Z M 2.835938 0.71875 "/>
<path style=" stroke:none;fill-rule:nonzero;fill:rgb(100%,20.392157%,20.392157%);fill-opacity:1;" d="M 8.128906 4.039062 C 8.210938 4.042969 8.296875 4.039062 8.394531 4.105469 C 9.242188 4.46875 8.671875 5.46875 7.589844 6.230469 C 7.582031 6.089844 7.523438 5.777344 7.523438 5.636719 C 8.449219 5.003906 8.988281 4.390625 8.398438 4.144531 C 7.777344 3.886719 7.585938 4.589844 7.574219 5.609375 C 7.519531 5.667969 7.117188 5.933594 7.058594 5.976562 C 7.082031 5.046875 7.574219 4.097656 8.050781 4.042969 C 8.074219 4.039062 8.101562 4.039062 8.128906 4.039062 M 7.265625 5.660156 L 7.457031 5.582031 L 7.621094 5.6875 L 7.652344 6.03125 L 7.449219 6.183594 L 7.367188 6.296875 C 6.742188 6.710938 6.214844 7.027344 5.515625 7.289062 L 5.082031 7.355469 L 4.792969 7.355469 C 4.527344 7.199219 4.6875 7.140625 3.726562 7.019531 L 4.808594 7.105469 C 5.640625 6.78125 6.492188 6.316406 7.265625 5.808594 M 5.367188 7.164062 C 5.238281 7.164062 4.261719 7.078125 3.875 7.042969 C 3.492188 6.984375 3.023438 6.964844 3.109375 7.414062 C 3.007812 7.175781 3.238281 6.769531 3.570312 6.695312 C 4.078125 6.582031 4.886719 6.894531 5.175781 6.992188 M 4.710938 7.113281 C 4.859375 7.175781 5.207031 7.21875 5.367188 7.269531 C 5.136719 7.390625 3.976562 7.820312 3.496094 7.730469 C 3.417969 7.730469 3.09375 7.496094 3.085938 7.328125 C 3.109375 7.636719 4.53125 7.40625 4.710938 7.109375 M 4.390625 7.113281 C 4.515625 7.054688 5.101562 7.054688 5.230469 7.007812 C 5.960938 7.265625 6.941406 7.867188 7.644531 8.269531 L 7.847656 8.328125 C 7.886719 8.609375 8.0625 8.707031 8.21875 8.886719 L 7.980469 9.125 L 7.792969 8.820312 C 6.96875 8.324219 5.34375 7.523438 4.390625 7.132812 M 7.792969 8.820312 C 7.894531 8.882812 7.988281 8.941406 8.082031 9 C 8.292969 9.597656 8.539062 10.003906 8.773438 9.984375 C 8.410156 10.160156 7.628906 9.300781 7.363281 8.5 M 8.773438 9.984375 C 9.328125 9.65625 8.152344 9.058594 7.890625 8.882812 C 7.832031 8.714844 7.992188 8.4375 7.941406 8.238281 C 8.765625 8.753906 9.253906 9.496094 8.980469 9.851562 C 8.910156 9.9375 8.84375 9.976562 8.773438 9.984375 M 7.964844 8.730469 C 7.925781 8.574219 7.417969 8.222656 7.324219 8.167969 C 7.203125 7.199219 7.195312 7.101562 7.089844 6.34375 C 7.152344 6.285156 7.539062 5.984375 7.601562 5.941406 C 7.671875 6.75 7.8125 7.847656 8.011719 8.578125 "/>
<path style=" stroke:none;fill-rule:nonzero;fill:rgb(100%,20.392157%,20.392157%);fill-opacity:1;" d="M 3.085938 0.71875 L 3.085938 5.363281 L 3.75 4.703125 L 4.414062 5.363281 L 4.414062 0.71875 Z M 3.085938 0.71875 "/>
</g>
</svg>
