<?xml version="1.0" encoding="UTF-8"?>
<svg xmlns="http://www.w3.org/2000/svg" xmlns:xlink="http://www.w3.org/1999/xlink" width="12pt" height="12pt" viewBox="0 0 12 12" version="1.1">
<g id="surface1">
<path style=" stroke:none;fill-rule:evenodd;fill:rgb(45.490196%,69.803922%,92.941176%);fill-opacity:1;" d="M 2.800781 0.710938 L 9.199219 0.710938 C 10.351562 0.710938 11.289062 1.648438 11.289062 2.800781 L 11.289062 9.199219 C 11.289062 10.351562 10.351562 11.289062 9.199219 11.289062 L 2.800781 11.289062 C 1.648438 11.289062 0.710938 10.351562 0.710938 9.199219 L 0.710938 2.800781 C 0.710938 1.648438 1.648438 0.710938 2.800781 0.710938 Z M 2.800781 0.710938 "/>
<path style=" stroke:none;fill-rule:nonzero;fill:rgb(100%,100%,100%);fill-opacity:1;" d="M 4.3125 4.6875 L 4.3125 5.0625 L 4.125 5.0625 C 3.8125 5.0625 3.5625 5.3125 3.5625 5.625 C 3.5625 5.9375 3.8125 6.1875 4.125 6.1875 L 4.3125 6.1875 L 4.3125 6.5625 L 3.597656 6.5625 C 3.675781 6.78125 3.878906 6.9375 4.125 6.9375 L 4.3125 6.9375 L 4.3125 7.3125 L 4.6875 7.3125 L 4.6875 6.9375 L 4.875 6.9375 C 5.1875 6.9375 5.4375 6.6875 5.4375 6.375 C 5.4375 6.0625 5.1875 5.8125 4.875 5.8125 L 4.6875 5.8125 L 4.6875 5.4375 L 5.402344 5.4375 C 5.324219 5.21875 5.121094 5.0625 4.875 5.0625 L 4.6875 5.0625 L 4.6875 4.6875 Z M 4.125 5.4375 L 4.3125 5.4375 L 4.3125 5.8125 L 4.125 5.8125 C 4.019531 5.8125 3.9375 5.730469 3.9375 5.625 C 3.9375 5.519531 4.019531 5.4375 4.125 5.4375 Z M 4.6875 6.1875 L 4.875 6.1875 C 4.980469 6.1875 5.0625 6.269531 5.0625 6.375 C 5.0625 6.480469 4.980469 6.566406 4.875 6.5625 L 4.6875 6.5625 Z M 6.1875 6.9375 L 6.1875 7.3125 L 8.4375 7.3125 L 8.4375 6.9375 Z M 6.1875 6.9375 "/>
</g>
</svg>
