<?xml version="1.0" encoding="UTF-8"?>
<svg xmlns="http://www.w3.org/2000/svg" xmlns:xlink="http://www.w3.org/1999/xlink" width="12pt" height="12pt" viewBox="0 0 12 12" version="1.1">
<g id="surface1">
<path style=" stroke:none;fill-rule:evenodd;fill:rgb(57.647059%,69.411765%,20%);fill-opacity:1;" d="M 2.835938 0.71875 L 9.308594 0.71875 C 10.472656 0.71875 11.421875 1.667969 11.421875 2.835938 L 11.421875 9.308594 C 11.421875 10.472656 10.472656 11.421875 9.308594 11.421875 L 2.835938 11.421875 C 1.667969 11.421875 0.71875 10.472656 0.71875 9.308594 L 0.71875 2.835938 C 0.71875 1.667969 1.667969 0.71875 2.835938 0.71875 Z M 2.835938 0.71875 "/>
<path style=" stroke:none;fill-rule:nonzero;fill:rgb(100%,100%,100%);fill-opacity:1;" d="M 3.511719 5.601562 C 3.285156 5.601562 3.105469 5.757812 3.105469 5.953125 L 3.105469 7.683594 C 3.105469 7.875 3.285156 8.03125 3.511719 8.03125 C 3.734375 8.03125 3.914062 7.875 3.914062 7.683594 L 3.914062 5.953125 C 3.914062 5.757812 3.734375 5.601562 3.511719 5.601562 Z M 3.511719 5.601562 "/>
<path style=" stroke:none;fill-rule:nonzero;fill:rgb(100%,100%,100%);fill-opacity:1;" d="M 5.015625 2.496094 C 4.996094 2.492188 4.96875 2.492188 4.945312 2.5 C 4.847656 2.523438 4.792969 2.621094 4.820312 2.71875 L 5.042969 3.570312 C 3.914062 4.109375 3.914062 5.511719 3.914062 5.511719 L 3.914062 7.804688 C 3.914062 8.226562 4.234375 8.570312 4.632812 8.570312 L 4.992188 8.570312 L 4.992188 9.292969 C 4.992188 9.488281 5.152344 9.652344 5.351562 9.652344 C 5.550781 9.652344 5.710938 9.488281 5.710938 9.292969 L 5.710938 8.570312 L 6.429688 8.570312 L 6.429688 9.292969 C 6.429688 9.488281 6.589844 9.652344 6.792969 9.652344 C 6.988281 9.652344 7.152344 9.488281 7.152344 9.292969 L 7.152344 8.570312 L 7.511719 8.570312 C 7.910156 8.570312 8.230469 8.226562 8.230469 7.804688 L 8.230469 5.511719 C 8.230469 5.511719 8.226562 4.109375 7.097656 3.570312 L 7.324219 2.71875 C 7.347656 2.621094 7.292969 2.523438 7.195312 2.5 C 7.101562 2.472656 7.003906 2.53125 6.976562 2.625 L 6.757812 3.441406 C 6.558594 3.386719 6.332031 3.355469 6.070312 3.355469 C 5.8125 3.355469 5.585938 3.386719 5.386719 3.441406 L 5.167969 2.625 C 5.148438 2.554688 5.085938 2.503906 5.015625 2.496094 Z M 5.015625 2.496094 "/>
<path style=" stroke:none;fill-rule:nonzero;fill:rgb(100%,100%,100%);fill-opacity:1;" d="M 8.632812 5.601562 C 8.410156 5.601562 8.226562 5.757812 8.226562 5.953125 L 8.226562 7.683594 C 8.226562 7.875 8.410156 8.03125 8.632812 8.03125 C 8.859375 8.03125 9.039062 7.875 9.039062 7.683594 L 9.039062 5.953125 C 9.039062 5.757812 8.859375 5.601562 8.632812 5.601562 Z M 8.632812 5.601562 "/>
<path style=" stroke:none;fill-rule:nonzero;fill:rgb(57.647059%,69.411765%,20%);fill-opacity:1;" d="M 4.535156 5.335938 L 7.609375 5.335938 C 7.652344 5.335938 7.691406 5.394531 7.691406 5.46875 C 7.691406 5.542969 7.652344 5.601562 7.609375 5.601562 L 4.535156 5.601562 C 4.488281 5.601562 4.453125 5.542969 4.453125 5.46875 C 4.453125 5.394531 4.488281 5.335938 4.535156 5.335938 Z M 4.535156 5.335938 "/>
<path style=" stroke:none;fill-rule:nonzero;fill:rgb(57.647059%,69.411765%,20%);fill-opacity:1;" d="M 5.261719 4.527344 C 5.261719 4.671875 5.140625 4.792969 4.992188 4.792969 C 4.84375 4.792969 4.722656 4.671875 4.722656 4.527344 C 4.722656 4.375 4.84375 4.253906 4.992188 4.253906 C 5.140625 4.253906 5.261719 4.375 5.261719 4.527344 Z M 5.261719 4.527344 "/>
<path style=" stroke:none;fill-rule:nonzero;fill:rgb(57.647059%,69.411765%,20%);fill-opacity:1;" d="M 7.417969 4.527344 C 7.417969 4.671875 7.300781 4.792969 7.152344 4.792969 C 7 4.792969 6.878906 4.671875 6.878906 4.527344 C 6.878906 4.375 7 4.253906 7.152344 4.253906 C 7.300781 4.253906 7.417969 4.375 7.417969 4.527344 Z M 7.417969 4.527344 "/>
</g>
</svg>
