<?xml version="1.0" encoding="UTF-8"?>
<svg xmlns="http://www.w3.org/2000/svg" xmlns:xlink="http://www.w3.org/1999/xlink" width="12pt" height="12pt" viewBox="0 0 12 12" version="1.1">
<g id="surface1">
<path style=" stroke:none;fill-rule:evenodd;fill:rgb(80%,80%,80%);fill-opacity:1;" d="M 0.710938 3.964844 L 0.710938 9.199219 C 0.710938 10.355469 1.644531 11.289062 2.800781 11.289062 L 9.195312 11.289062 C 10.355469 11.289062 11.289062 10.355469 11.289062 9.199219 L 11.289062 3.964844 Z M 0.710938 3.964844 "/>
<path style=" stroke:none;fill-rule:evenodd;fill:rgb(76.078431%,20.784314%,16.470588%);fill-opacity:1;" d="M 0.710938 3.964844 L 11.289062 3.964844 L 11.289062 2.800781 C 11.289062 1.644531 10.355469 0.710938 9.195312 0.710938 L 2.800781 0.710938 C 1.644531 0.710938 0.710938 1.644531 0.710938 2.800781 Z M 0.710938 3.964844 "/>
<path style=" stroke:none;fill-rule:nonzero;fill:rgb(40%,40%,40%);fill-opacity:1;" d="M 2.796875 5.394531 L 2.796875 5.714844 L 9.203125 5.714844 L 9.203125 5.394531 Z M 2.796875 6.675781 L 2.796875 6.996094 L 9.203125 6.996094 L 9.203125 6.675781 Z M 2.796875 7.953125 L 2.796875 8.273438 L 9.203125 8.273438 L 9.203125 7.953125 Z M 2.796875 9.234375 L 2.796875 9.554688 L 9.203125 9.554688 L 9.203125 9.234375 Z M 2.796875 9.234375 "/>
</g>
</svg>
