<?xml version="1.0" encoding="UTF-8"?>
<svg xmlns="http://www.w3.org/2000/svg" xmlns:xlink="http://www.w3.org/1999/xlink" width="12pt" height="12pt" viewBox="0 0 12 12" version="1.1">
<g id="surface1">
<path style=" stroke:none;fill-rule:evenodd;fill:rgb(30.980392%,30.980392%,30.980392%);fill-opacity:1;" d="M 2.835938 0.71875 L 9.308594 0.71875 C 10.472656 0.71875 11.421875 1.667969 11.421875 2.835938 L 11.421875 9.308594 C 11.421875 10.472656 10.472656 11.421875 9.308594 11.421875 L 2.835938 11.421875 C 1.667969 11.421875 0.71875 10.472656 0.71875 9.308594 L 0.71875 2.835938 C 0.71875 1.667969 1.667969 0.71875 2.835938 0.71875 Z M 2.835938 0.71875 "/>
<path style=" stroke:none;fill-rule:nonzero;fill:rgb(100%,100%,100%);fill-opacity:1;" d="M 6.324219 3.414062 C 6.242188 3.414062 6.15625 3.417969 6.074219 3.421875 C 5.566406 3.445312 4.671875 3.425781 4.320312 3.875 C 4.105469 4.148438 4.203125 4.789062 4.535156 4.855469 C 4.941406 4.9375 5.628906 4.730469 6.074219 4.78125 C 6.382812 4.820312 6.46875 5.089844 6.21875 5.277344 C 5.953125 5.472656 5.351562 5.414062 5.046875 5.511719 C 3.992188 5.855469 3.617188 6.585938 3.871094 7.578125 C 4.039062 8.222656 4.636719 8.699219 5.285156 8.726562 C 6.535156 8.726562 6.304688 8.039062 6.90625 8.394531 C 7.105469 8.648438 7.507812 8.726562 7.714844 8.550781 C 8.050781 8.265625 8.550781 8.117188 8.199219 7.539062 C 8.027344 7.261719 8.421875 6.902344 8.335938 5.523438 C 8.257812 4.300781 7.535156 3.460938 6.324219 3.414062 Z M 6.160156 6.371094 C 6.441406 6.371094 6.664062 6.585938 6.664062 6.851562 C 6.664062 7.117188 6.441406 7.339844 6.160156 7.339844 C 5.878906 7.339844 5.648438 7.117188 5.648438 6.851562 C 5.648438 6.585938 5.878906 6.371094 6.160156 6.371094 Z M 6.160156 6.371094 "/>
</g>
</svg>
