<?xml version="1.0" encoding="UTF-8"?>
<svg xmlns="http://www.w3.org/2000/svg" xmlns:xlink="http://www.w3.org/1999/xlink" width="12pt" height="12pt" viewBox="0 0 12 12" version="1.1">
<g id="surface1">
<path style=" stroke:none;fill-rule:evenodd;fill:rgb(91.372549%,65.882353%,29.019608%);fill-opacity:1;" d="M 2.835938 0.71875 L 9.308594 0.71875 C 10.472656 0.71875 11.421875 1.667969 11.421875 2.835938 L 11.421875 9.308594 C 11.421875 10.472656 10.472656 11.421875 9.308594 11.421875 L 2.835938 11.421875 C 1.667969 11.421875 0.71875 10.472656 0.71875 9.308594 L 0.71875 2.835938 C 0.71875 1.667969 1.667969 0.71875 2.835938 0.71875 Z M 2.835938 0.71875 "/>
<path style=" stroke:none;fill-rule:nonzero;fill:rgb(100%,100%,100%);fill-opacity:1;" d="M 5.96875 2.574219 C 5.746094 2.578125 5.550781 2.726562 5.484375 2.9375 C 5.414062 3.152344 5.492188 3.382812 5.667969 3.519531 L 6.265625 3.976562 L 3.363281 3.976562 C 3.074219 3.976562 2.839844 4.210938 2.839844 4.5 C 2.839844 4.789062 3.074219 5.023438 3.363281 5.023438 L 4.683594 5.023438 L 2.53125 6.585938 C 2.375 6.695312 2.289062 6.878906 2.308594 7.066406 C 2.324219 7.257812 2.445312 7.421875 2.621094 7.496094 C 2.792969 7.574219 2.996094 7.550781 3.148438 7.433594 L 4.246094 6.636719 C 4.242188 6.683594 4.242188 6.726562 4.242188 6.773438 C 4.242188 8.316406 5.492188 9.570312 7.039062 9.570312 C 8.585938 9.570312 9.839844 8.316406 9.839844 6.773438 C 9.839844 5.851562 9.382812 4.984375 8.621094 4.46875 C 8.609375 4.457031 8.597656 4.445312 8.585938 4.433594 L 6.308594 2.683594 C 6.214844 2.609375 6.089844 2.570312 5.96875 2.574219 Z M 5.96875 2.574219 "/>
<path style=" stroke:none;fill-rule:nonzero;fill:rgb(95.686275%,70.588235%,24.705882%);fill-opacity:1;" d="M 7.144531 5.265625 C 8.039062 5.265625 8.761719 5.988281 8.761719 6.878906 C 8.761719 7.769531 8.039062 8.492188 7.144531 8.492188 C 6.253906 8.492188 5.53125 7.769531 5.53125 6.878906 C 5.53125 5.988281 6.253906 5.265625 7.144531 5.265625 Z M 7.144531 5.265625 "/>
<path style=" stroke:none;fill-rule:nonzero;fill:rgb(13.72549%,59.215686%,100%);fill-opacity:1;" d="M 7.953125 6.878906 C 7.953125 7.324219 7.59375 7.6875 7.144531 7.6875 C 6.703125 7.6875 6.339844 7.324219 6.339844 6.878906 C 6.339844 6.433594 6.703125 6.070312 7.144531 6.070312 C 7.59375 6.070312 7.953125 6.433594 7.953125 6.878906 Z M 7.953125 6.878906 "/>
</g>
</svg>
