<?xml version="1.0" encoding="UTF-8"?>
<svg xmlns="http://www.w3.org/2000/svg" xmlns:xlink="http://www.w3.org/1999/xlink" width="12pt" height="12pt" viewBox="0 0 12 12" version="1.1">
<g id="surface1">
<path style=" stroke:none;fill-rule:evenodd;fill:rgb(69.411765%,83.921569%,97.647059%);fill-opacity:1;" d="M 2.835938 0.71875 L 9.308594 0.71875 C 10.472656 0.71875 11.421875 1.667969 11.421875 2.835938 L 11.421875 9.308594 C 11.421875 10.472656 10.472656 11.421875 9.308594 11.421875 L 2.835938 11.421875 C 1.667969 11.421875 0.71875 10.472656 0.71875 9.308594 L 0.71875 2.835938 C 0.71875 1.667969 1.667969 0.71875 2.835938 0.71875 Z M 2.835938 0.71875 "/>
<path style=" stroke:none;fill-rule:nonzero;fill:rgb(45.098039%,65.098039%,85.882353%);fill-opacity:1;" d="M 7.789062 5.472656 C 8.050781 4.472656 8.519531 2.59375 9.78125 2.742188 C 9.039062 3.625 9.351562 4.800781 9.246094 5.238281 C 8.664062 6.867188 9.046875 7.535156 9.925781 8.1875 C 8.949219 8.238281 8.539062 7.785156 7.828125 7.191406 Z M 7.789062 5.472656 "/>
<path style=" stroke:none;fill-rule:nonzero;fill:rgb(36.470588%,54.901961%,76.078431%);fill-opacity:1;" d="M 2.496094 5.875 C 2.875 4.664062 3.539062 3.621094 4.328125 3.257812 C 3.765625 3.339844 3.105469 3.4375 2.566406 4.167969 C 2.097656 5.0625 2.449219 5.273438 2.496094 5.875 Z M 2.496094 5.875 "/>
<path style=" stroke:none;fill-rule:nonzero;fill:rgb(97.647059%,97.647059%,97.647059%);fill-opacity:1;" d="M 2.332031 4.839844 C 2.292969 5.378906 2.347656 5.550781 2.496094 5.875 L 2.945312 4.59375 C 2.757812 4.566406 2.585938 4.574219 2.332031 4.839844 Z M 2.332031 4.839844 "/>
<path style=" stroke:none;fill-rule:evenodd;fill:rgb(16.470588%,24.313725%,34.509804%);fill-opacity:1;" d="M 3.003906 5.328125 C 3.003906 5.152344 2.863281 5.011719 2.691406 5.011719 C 2.519531 5.011719 2.378906 5.152344 2.378906 5.328125 C 2.378906 5.507812 2.519531 5.648438 2.691406 5.648438 C 2.863281 5.648438 3.003906 5.507812 3.003906 5.328125 Z M 3.003906 5.328125 "/>
<path style=" stroke:none;fill-rule:nonzero;fill:rgb(16.862745%,38.039216%,64.313725%);fill-opacity:1;" d="M 2.667969 7.378906 C 2.015625 6.125 2.957031 2.9375 5.121094 3.214844 C 7.058594 3.460938 7.683594 4.636719 8.574219 5.839844 C 8.714844 6.097656 8.746094 6.285156 8.679688 6.605469 C 8.019531 8.425781 6.753906 9.503906 5.621094 9.511719 C 4.398438 9.515625 3.320312 8.628906 2.667969 7.378906 Z M 2.667969 7.378906 "/>
<path style=" stroke:none;fill-rule:evenodd;fill:rgb(36.470588%,54.901961%,76.078431%);fill-opacity:1;" d="M 6.871094 5.171875 C 6.871094 5.722656 7.007812 6.179688 6.75 6.507812 C 6.472656 6.859375 6.039062 6.898438 5.769531 6.890625 C 5.121094 6.859375 4.523438 6.132812 4.523438 5.171875 C 4.523438 4.207031 5.046875 3.425781 5.699219 3.425781 C 6.34375 3.425781 6.871094 4.207031 6.871094 5.171875 Z M 6.871094 5.171875 "/>
<path style=" stroke:none;fill-rule:evenodd;fill:rgb(97.647059%,97.647059%,97.647059%);fill-opacity:1;" d="M 6.851562 5.433594 C 6.851562 5.972656 6.242188 6.625 5.640625 6.625 C 5.042969 6.625 4.535156 5.914062 4.535156 5.375 C 4.535156 5.207031 4.527344 4.78125 4.613281 4.640625 C 4.800781 4.339844 5.25 4.359375 5.652344 4.433594 C 6.234375 4.539062 6.851562 4.898438 6.851562 5.433594 Z M 6.851562 5.433594 "/>
<path style=" stroke:none;fill-rule:evenodd;fill:rgb(16.470588%,24.313725%,34.509804%);fill-opacity:1;" d="M 6.410156 5.152344 C 6.410156 4.976562 6.269531 4.832031 6.097656 4.832031 C 5.925781 4.832031 5.785156 4.976562 5.785156 5.152344 C 5.785156 5.328125 5.925781 5.472656 6.097656 5.472656 C 6.269531 5.472656 6.410156 5.328125 6.410156 5.152344 Z M 6.410156 5.152344 "/>
<path style=" stroke:none;fill-rule:nonzero;fill:rgb(36.470588%,54.901961%,76.078431%);fill-opacity:1;" d="M 2.667969 7.378906 C 3.453125 8.511719 5.386719 7.914062 5.863281 7.507812 C 5.582031 9.195312 3.96875 9.359375 3.085938 8.726562 C 2.660156 8.425781 2.398438 7.886719 2.667969 7.378906 Z M 2.667969 7.378906 "/>
<path style="fill:none;stroke-width:0.4;stroke-linecap:round;stroke-linejoin:miter;stroke:rgb(27.058824%,42.352941%,60.784314%);stroke-opacity:1;stroke-miterlimit:4;" d="M -64.478432 35.416316 C -59.744028 40.731354 -52.061788 39.547753 -48.577981 36.354264 " transform="matrix(0.174916,0,0,0.174916,13.915056,1.684011)"/>
</g>
</svg>
