<?xml version="1.0" encoding="UTF-8"?>
<svg xmlns="http://www.w3.org/2000/svg" xmlns:xlink="http://www.w3.org/1999/xlink" width="12pt" height="12pt" viewBox="0 0 12 12" version="1.1">
<g id="surface1">
<path style=" stroke:none;fill-rule:evenodd;fill:rgb(30.980392%,30.980392%,30.980392%);fill-opacity:1;" d="M 2.835938 0.71875 L 9.308594 0.71875 C 10.472656 0.71875 11.421875 1.667969 11.421875 2.835938 L 11.421875 9.308594 C 11.421875 10.472656 10.472656 11.421875 9.308594 11.421875 L 2.835938 11.421875 C 1.667969 11.421875 0.71875 10.472656 0.71875 9.308594 L 0.71875 2.835938 C 0.71875 1.667969 1.667969 0.71875 2.835938 0.71875 Z M 2.835938 0.71875 "/>
<path style=" stroke:none;fill-rule:nonzero;fill:rgb(100%,38.823529%,38.823529%);fill-opacity:1;" d="M 2.371094 1.898438 L 5.21875 1.898438 C 5.480469 1.898438 5.691406 2.101562 5.691406 2.351562 L 5.691406 3.71875 C 5.691406 3.96875 5.480469 4.175781 5.21875 4.175781 L 2.371094 4.175781 C 2.109375 4.175781 1.898438 3.96875 1.898438 3.71875 L 1.898438 2.351562 C 1.898438 2.101562 2.109375 1.898438 2.371094 1.898438 Z M 2.371094 1.898438 "/>
<path style=" stroke:none;fill-rule:nonzero;fill:rgb(100%,38.823529%,38.823529%);fill-opacity:1;" d="M 6.925781 1.898438 L 9.769531 1.898438 C 10.035156 1.898438 10.246094 2.101562 10.246094 2.351562 L 10.246094 3.71875 C 10.246094 3.96875 10.035156 4.175781 9.769531 4.175781 L 6.925781 4.175781 C 6.664062 4.175781 6.449219 3.96875 6.449219 3.71875 L 6.449219 2.351562 C 6.449219 2.101562 6.664062 1.898438 6.925781 1.898438 Z M 6.925781 1.898438 "/>
<path style=" stroke:none;fill-rule:nonzero;fill:rgb(100%,38.823529%,38.823529%);fill-opacity:1;" d="M 4.648438 4.933594 L 7.496094 4.933594 C 7.757812 4.933594 7.96875 5.136719 7.96875 5.386719 L 7.96875 6.753906 C 7.96875 7.007812 7.757812 7.210938 7.496094 7.210938 L 4.648438 7.210938 C 4.386719 7.210938 4.175781 7.007812 4.175781 6.753906 L 4.175781 5.386719 C 4.175781 5.136719 4.386719 4.933594 4.648438 4.933594 Z M 4.648438 4.933594 "/>
<path style=" stroke:none;fill-rule:nonzero;fill:rgb(100%,38.823529%,38.823529%);fill-opacity:1;" d="M 8.917969 4.933594 L 10.054688 4.933594 C 10.160156 4.933594 10.246094 5.015625 10.246094 5.121094 L 10.246094 7.019531 C 10.246094 7.125 10.160156 7.210938 10.054688 7.210938 L 8.917969 7.210938 C 8.8125 7.210938 8.726562 7.125 8.726562 7.019531 L 8.726562 5.121094 C 8.726562 5.015625 8.8125 4.933594 8.917969 4.933594 Z M 8.917969 4.933594 "/>
<path style=" stroke:none;fill-rule:nonzero;fill:rgb(100%,38.823529%,38.823529%);fill-opacity:1;" d="M 2.371094 7.96875 L 5.21875 7.96875 C 5.480469 7.96875 5.691406 8.171875 5.691406 8.421875 L 5.691406 9.789062 C 5.691406 10.042969 5.480469 10.246094 5.21875 10.246094 L 2.371094 10.246094 C 2.109375 10.246094 1.898438 10.042969 1.898438 9.789062 L 1.898438 8.421875 C 1.898438 8.171875 2.109375 7.96875 2.371094 7.96875 Z M 2.371094 7.96875 "/>
<path style=" stroke:none;fill-rule:nonzero;fill:rgb(100%,38.823529%,38.823529%);fill-opacity:1;" d="M 6.925781 7.96875 L 9.769531 7.96875 C 10.035156 7.96875 10.246094 8.171875 10.246094 8.421875 L 10.246094 9.789062 C 10.246094 10.042969 10.035156 10.246094 9.769531 10.246094 L 6.925781 10.246094 C 6.664062 10.246094 6.449219 10.042969 6.449219 9.789062 L 6.449219 8.421875 C 6.449219 8.171875 6.664062 7.96875 6.925781 7.96875 Z M 6.925781 7.96875 "/>
</g>
</svg>
