<?xml version="1.0" encoding="UTF-8"?>
<svg xmlns="http://www.w3.org/2000/svg" xmlns:xlink="http://www.w3.org/1999/xlink" width="12pt" height="12pt" viewBox="0 0 12 12" version="1.1">
<g id="surface1">
<path style=" stroke:none;fill-rule:evenodd;fill:rgb(92.156863%,30.196078%,15.294118%);fill-opacity:1;" d="M 2.800781 0.710938 L 9.199219 0.710938 C 10.351562 0.710938 11.289062 1.648438 11.289062 2.800781 L 11.289062 9.199219 C 11.289062 10.351562 10.351562 11.289062 9.199219 11.289062 L 2.800781 11.289062 C 1.648438 11.289062 0.710938 10.351562 0.710938 9.199219 L 0.710938 2.800781 C 0.710938 1.648438 1.648438 0.710938 2.800781 0.710938 Z M 2.800781 0.710938 "/>
<path style=" stroke:none;fill-rule:nonzero;fill:rgb(100%,100%,100%);fill-opacity:1;" d="M 9.1875 5.558594 L 3.261719 2.171875 C 3.007812 2.03125 2.78125 2.042969 2.644531 2.179688 C 2.546875 2.273438 2.492188 2.421875 2.492188 2.621094 L 2.492188 9.375 C 2.492188 9.574219 2.550781 9.726562 2.644531 9.820312 C 2.785156 9.957031 3.007812 9.96875 3.261719 9.824219 L 9.1875 6.4375 C 9.613281 6.195312 9.613281 5.804688 9.1875 5.558594 Z M 9.1875 5.558594 "/>
<path style=" stroke:none;fill-rule:nonzero;fill:rgb(100%,84.313725%,22.352941%);fill-opacity:1;" d="M 6 2.914062 C 5.617188 2.914062 5.253906 2.988281 4.917969 3.121094 C 4.914062 3.121094 4.910156 3.125 4.910156 3.125 C 4.832031 3.15625 4.757812 3.191406 4.683594 3.226562 C 4.667969 3.234375 4.65625 3.242188 4.640625 3.246094 C 4.570312 3.285156 4.5 3.328125 4.429688 3.371094 C 4.414062 3.378906 4.402344 3.386719 4.386719 3.394531 C 4.324219 3.4375 4.261719 3.484375 4.199219 3.53125 C 4.183594 3.542969 4.164062 3.558594 4.148438 3.570312 C 4.09375 3.613281 4.042969 3.664062 3.988281 3.710938 C 3.96875 3.730469 3.949219 3.746094 3.929688 3.765625 C 3.867188 3.828125 3.804688 3.894531 3.746094 3.964844 C 3.742188 3.96875 3.738281 3.972656 3.734375 3.976562 C 3.488281 4.273438 3.296875 4.621094 3.183594 5.003906 C 3.179688 5.007812 3.179688 5.011719 3.179688 5.015625 C 3.152344 5.105469 3.128906 5.195312 3.109375 5.289062 C 3.109375 5.300781 3.105469 5.3125 3.105469 5.324219 C 3.089844 5.40625 3.078125 5.488281 3.070312 5.570312 C 3.058594 5.667969 3.054688 5.761719 3.054688 5.859375 C 3.054688 5.953125 3.058594 6.042969 3.066406 6.132812 C 3.070312 6.152344 3.070312 6.171875 3.074219 6.191406 C 3.082031 6.269531 3.09375 6.347656 3.109375 6.421875 C 3.113281 6.433594 3.113281 6.449219 3.117188 6.460938 C 3.175781 6.75 3.277344 7.019531 3.417969 7.273438 C 3.511719 7.445312 3.621094 7.605469 3.75 7.757812 C 4.058594 8.125 4.460938 8.417969 4.917969 8.601562 C 4.921875 8.601562 4.925781 8.597656 4.929688 8.601562 C 5.027344 8.636719 5.125 8.671875 5.226562 8.699219 L 8.839844 6.636719 C 8.910156 6.382812 8.945312 6.121094 8.945312 5.859375 C 8.945312 5.734375 8.933594 5.609375 8.917969 5.484375 C 8.917969 5.457031 8.914062 5.425781 8.90625 5.398438 C 8.683594 3.992188 7.46875 2.914062 6 2.914062 Z M 6 2.914062 "/>
<path style=" stroke:none;fill-rule:nonzero;fill:rgb(100%,54.901961%,0%);fill-opacity:1;" d="M 7.824219 5.859375 C 7.824219 6.867188 7.007812 7.683594 6 7.683594 C 4.992188 7.683594 4.175781 6.867188 4.175781 5.859375 C 4.175781 4.851562 4.992188 4.035156 6 4.035156 C 7.007812 4.035156 7.824219 4.851562 7.824219 5.859375 Z M 7.824219 5.859375 "/>
</g>
</svg>
