<?xml version="1.0" encoding="UTF-8"?>
<svg xmlns="http://www.w3.org/2000/svg" xmlns:xlink="http://www.w3.org/1999/xlink" width="12pt" height="12pt" viewBox="0 0 12 12" version="1.1">
<g id="surface1">
<path style=" stroke:none;fill-rule:evenodd;fill:rgb(93.333333%,25.098039%,33.72549%);fill-opacity:1;" d="M 2.800781 0.710938 L 9.199219 0.710938 C 10.351562 0.710938 11.289062 1.648438 11.289062 2.800781 L 11.289062 9.199219 C 11.289062 10.351562 10.351562 11.289062 9.199219 11.289062 L 2.800781 11.289062 C 1.648438 11.289062 0.710938 10.351562 0.710938 9.199219 L 0.710938 2.800781 C 0.710938 1.648438 1.648438 0.710938 2.800781 0.710938 Z M 2.800781 0.710938 "/>
<path style=" stroke:none;fill-rule:nonzero;fill:rgb(100%,100%,100%);fill-opacity:1;" d="M 3.359375 3 C 2.953125 3 2.625 3.339844 2.625 3.757812 C 2.625 6.871094 3.175781 9.011719 6 9 C 8.824219 8.988281 9.375 6.867188 9.375 3.757812 C 9.375 3.339844 9.046875 3 8.640625 3 Z M 4.421875 4.707031 C 4.539062 4.707031 4.65625 4.753906 4.746094 4.84375 L 6 6.082031 L 7.253906 4.808594 C 7.34375 4.714844 7.460938 4.671875 7.578125 4.671875 C 7.695312 4.671875 7.8125 4.714844 7.90625 4.808594 C 8.085938 4.988281 8.085938 5.289062 7.90625 5.46875 L 6.359375 7.035156 C 6.261719 7.132812 6.128906 7.175781 6 7.164062 C 5.871094 7.175781 5.738281 7.132812 5.640625 7.035156 L 4.097656 5.46875 C 3.914062 5.289062 3.914062 4.988281 4.097656 4.808594 C 4.1875 4.714844 4.304688 4.667969 4.421875 4.667969 Z M 4.421875 4.707031 "/>
</g>
</svg>
