<?xml version="1.0" encoding="UTF-8"?>
<svg xmlns="http://www.w3.org/2000/svg" xmlns:xlink="http://www.w3.org/1999/xlink" width="12pt" height="12pt" viewBox="0 0 12 12" version="1.1">
<defs>
<clipPath id="clip1">
  <rect width="12" height="12"/>
</clipPath>
<g id="surface6" clip-path="url(#clip1)">
<path style=" stroke:none;fill-rule:nonzero;fill:rgb(100%,100%,100%);fill-opacity:1;" d="M 6.1875 3 C 5.566406 3 5.0625 3.503906 5.0625 4.125 C 5.0625 4.210938 5.078125 4.289062 5.097656 4.371094 L 3.890625 5.121094 C 3.699219 4.96875 3.453125 4.875 3.1875 4.875 C 2.566406 4.875 2.0625 5.378906 2.0625 6 C 2.0625 6.621094 2.566406 7.125 3.1875 7.125 C 3.453125 7.125 3.699219 7.035156 3.890625 6.878906 L 5.097656 7.628906 C 5.078125 7.710938 5.0625 7.789062 5.0625 7.875 C 5.0625 8.496094 5.566406 9 6.1875 9 C 6.808594 9 7.3125 8.496094 7.3125 7.875 C 7.3125 7.253906 6.808594 6.75 6.1875 6.75 C 5.921875 6.75 5.675781 6.84375 5.484375 6.996094 L 4.277344 6.246094 C 4.296875 6.164062 4.3125 6.085938 4.3125 6 C 4.3125 5.914062 4.296875 5.835938 4.277344 5.753906 L 5.484375 5.003906 C 5.675781 5.160156 5.921875 5.25 6.1875 5.25 C 6.808594 5.25 7.3125 4.746094 7.3125 4.125 C 7.3125 3.503906 6.808594 3 6.1875 3 Z M 8.8125 3 C 8.191406 3 7.6875 3.503906 7.6875 4.125 C 7.6875 4.746094 8.191406 5.25 8.8125 5.25 C 9.433594 5.25 9.9375 4.746094 9.9375 4.125 C 9.9375 3.503906 9.433594 3 8.8125 3 Z M 8.8125 6.75 C 8.191406 6.75 7.6875 7.253906 7.6875 7.875 C 7.6875 8.496094 8.191406 9 8.8125 9 C 9.433594 9 9.9375 8.496094 9.9375 7.875 C 9.9375 7.253906 9.433594 6.75 8.8125 6.75 Z M 8.8125 6.75 "/>
</g>
</defs>
<g id="surface1">
<path style=" stroke:none;fill-rule:evenodd;fill:rgb(96.078431%,51.764706%,6.666667%);fill-opacity:1;" d="M 2.800781 0.710938 L 9.199219 0.710938 C 10.351562 0.710938 11.289062 1.648438 11.289062 2.800781 L 11.289062 9.199219 C 11.289062 10.351562 10.351562 11.289062 9.199219 11.289062 L 2.800781 11.289062 C 1.648438 11.289062 0.710938 10.351562 0.710938 9.199219 L 0.710938 2.800781 C 0.710938 1.648438 1.648438 0.710938 2.800781 0.710938 Z M 2.800781 0.710938 "/>
<use xlink:href="#surface6"/>
</g>
</svg>
