<?xml version="1.0" encoding="UTF-8"?>
<svg xmlns="http://www.w3.org/2000/svg" xmlns:xlink="http://www.w3.org/1999/xlink" width="12pt" height="12pt" viewBox="0 0 12 12" version="1.1">
<g id="surface1">
<path style=" stroke:none;fill-rule:evenodd;fill:rgb(12.54902%,56.470588%,91.764706%);fill-opacity:1;" d="M 2.835938 0.71875 L 9.308594 0.71875 C 10.472656 0.71875 11.421875 1.667969 11.421875 2.835938 L 11.421875 9.308594 C 11.421875 10.472656 10.472656 11.421875 9.308594 11.421875 L 2.835938 11.421875 C 1.667969 11.421875 0.71875 10.472656 0.71875 9.308594 L 0.71875 2.835938 C 0.71875 1.667969 1.667969 0.71875 2.835938 0.71875 Z M 2.835938 0.71875 "/>
<path style=" stroke:none;fill-rule:nonzero;fill:rgb(100%,100%,100%);fill-opacity:1;" d="M 6.070312 2.613281 C 4.160156 2.613281 2.613281 4.046875 2.613281 5.824219 C 2.613281 6.773438 3.0625 7.675781 3.847656 8.285156 L 3.847656 9.53125 L 4.765625 8.796875 C 5.179688 8.957031 5.625 9.039062 6.070312 9.039062 C 7.984375 9.039062 9.53125 7.597656 9.53125 5.824219 C 9.53125 4.046875 7.984375 2.613281 6.070312 2.613281 Z M 6.070312 2.613281 "/>
<path style="fill:none;stroke-width:3;stroke-linecap:butt;stroke-linejoin:miter;stroke:rgb(12.54902%,56.470588%,91.764706%);stroke-opacity:1;stroke-dasharray:6,3;stroke-miterlimit:4;" d="M 25.509927 14.999787 C 25.509927 10.305784 21.242652 6.496846 15.995484 6.496846 C 10.748317 6.496846 6.496846 10.305784 6.496846 14.999787 C 6.496846 19.693789 10.748317 23.502727 15.995484 23.502727 C 21.242652 23.502727 25.509927 19.693789 25.509927 14.999787 Z M 25.509927 14.999787 " transform="matrix(0.247157,0,0,0.247157,2.116914,2.116914)"/>
</g>
</svg>
