<?xml version="1.0" encoding="UTF-8"?>
<svg xmlns="http://www.w3.org/2000/svg" xmlns:xlink="http://www.w3.org/1999/xlink" width="12pt" height="12pt" viewBox="0 0 12 12" version="1.1">
<g id="surface1">
<path style=" stroke:none;fill-rule:evenodd;fill:rgb(37.254902%,72.54902%,63.137255%);fill-opacity:1;" d="M 2.800781 0.710938 L 9.199219 0.710938 C 10.351562 0.710938 11.289062 1.648438 11.289062 2.800781 L 11.289062 9.199219 C 11.289062 10.351562 10.351562 11.289062 9.199219 11.289062 L 2.800781 11.289062 C 1.648438 11.289062 0.710938 10.351562 0.710938 9.199219 L 0.710938 2.800781 C 0.710938 1.648438 1.648438 0.710938 2.800781 0.710938 Z M 2.800781 0.710938 "/>
<path style=" stroke:none;fill-rule:nonzero;fill:rgb(100%,100%,100%);fill-opacity:1;" d="M 4.171875 3.5625 C 4.058594 3.558594 3.953125 3.601562 3.875 3.675781 C 3.792969 3.75 3.75 3.851562 3.75 3.957031 L 3.75 8.042969 C 3.75 8.183594 3.828125 8.3125 3.957031 8.382812 C 4.082031 8.453125 4.238281 8.453125 4.367188 8.382812 L 6.207031 7.363281 L 8.042969 6.34375 C 8.171875 6.273438 8.25 6.140625 8.25 6 C 8.25 5.859375 8.171875 5.726562 8.042969 5.65625 L 6.207031 4.636719 L 4.367188 3.617188 C 4.308594 3.582031 4.238281 3.5625 4.171875 3.5625 Z M 4.171875 3.5625 "/>
</g>
</svg>
