<?xml version="1.0" encoding="UTF-8"?>
<svg xmlns="http://www.w3.org/2000/svg" xmlns:xlink="http://www.w3.org/1999/xlink" width="12pt" height="12pt" viewBox="0 0 12 12" version="1.1">
<g id="surface1">
<path style=" stroke:none;fill-rule:evenodd;fill:rgb(49.411765%,59.215686%,87.058824%);fill-opacity:1;" d="M 2.800781 0.710938 L 9.199219 0.710938 C 10.351562 0.710938 11.289062 1.648438 11.289062 2.800781 L 11.289062 9.199219 C 11.289062 10.351562 10.351562 11.289062 9.199219 11.289062 L 2.800781 11.289062 C 1.648438 11.289062 0.710938 10.351562 0.710938 9.199219 L 0.710938 2.800781 C 0.710938 1.648438 1.648438 0.710938 2.800781 0.710938 Z M 2.800781 0.710938 "/>
<path style=" stroke:none;fill-rule:nonzero;fill:rgb(100%,100%,100%);fill-opacity:1;" d="M 9.09375 3.394531 L 6.035156 2.3125 C 6.011719 2.304688 5.988281 2.304688 5.964844 2.3125 L 2.90625 3.394531 C 2.863281 3.410156 2.835938 3.449219 2.835938 3.492188 C 2.835938 4.589844 3.125 5.855469 3.628906 6.964844 C 4.035156 7.867188 4.773438 9.070312 5.953125 9.679688 C 5.96875 9.6875 5.984375 9.691406 6 9.691406 C 6.015625 9.691406 6.03125 9.6875 6.046875 9.679688 C 7.226562 9.070312 7.964844 7.867188 8.371094 6.964844 C 8.875 5.855469 9.164062 4.589844 9.164062 3.492188 C 9.164062 3.449219 9.136719 3.410156 9.09375 3.394531 Z M 9.09375 3.394531 "/>
</g>
</svg>
