<?xml version="1.0" encoding="UTF-8"?>
<svg xmlns="http://www.w3.org/2000/svg" xmlns:xlink="http://www.w3.org/1999/xlink" width="12pt" height="12pt" viewBox="0 0 12 12" version="1.1">
<g id="surface1">
<path style=" stroke:none;fill-rule:evenodd;fill:rgb(55.686275%,55.686275%,55.686275%);fill-opacity:1;" d="M 2.800781 0.710938 L 9.199219 0.710938 C 10.351562 0.710938 11.289062 1.648438 11.289062 2.800781 L 11.289062 9.199219 C 11.289062 10.351562 10.351562 11.289062 9.199219 11.289062 L 2.800781 11.289062 C 1.648438 11.289062 0.710938 10.351562 0.710938 9.199219 L 0.710938 2.800781 C 0.710938 1.648438 1.648438 0.710938 2.800781 0.710938 Z M 2.800781 0.710938 "/>
<path style=" stroke:none;fill-rule:nonzero;fill:rgb(27.843137%,27.843137%,27.843137%);fill-opacity:1;" d="M 3.34375 3.066406 L 8.65625 3.066406 C 9.351562 3.066406 9.917969 3.632812 9.917969 4.328125 L 9.917969 7.671875 C 9.917969 8.367188 9.351562 8.933594 8.65625 8.933594 L 3.34375 8.933594 C 2.648438 8.933594 2.082031 8.367188 2.082031 7.671875 L 2.082031 4.328125 C 2.082031 3.632812 2.648438 3.066406 3.34375 3.066406 Z M 3.34375 3.066406 "/>
<path style=" stroke:none;fill-rule:nonzero;fill:rgb(13.72549%,13.72549%,13.72549%);fill-opacity:1;" d="M 3.390625 3.4375 L 8.609375 3.4375 C 9.136719 3.4375 9.566406 3.847656 9.566406 4.355469 L 9.566406 7.644531 C 9.566406 8.152344 9.136719 8.5625 8.609375 8.5625 L 3.390625 8.5625 C 2.863281 8.5625 2.433594 8.152344 2.433594 7.644531 L 2.433594 4.355469 C 2.433594 3.847656 2.863281 3.4375 3.390625 3.4375 Z M 3.390625 3.4375 "/>
<path style=" stroke:none;fill-rule:nonzero;fill:rgb(55.686275%,55.686275%,55.686275%);fill-opacity:1;" d="M 6 4.546875 C 5.570312 4.546875 5.226562 4.925781 5.226562 5.390625 L 5.226562 5.710938 L 5.03125 5.710938 C 4.925781 5.710938 4.839844 5.886719 4.839844 6 L 4.839844 7.246094 C 4.839844 7.359375 4.925781 7.453125 5.03125 7.453125 L 6.96875 7.453125 C 7.074219 7.453125 7.160156 7.359375 7.160156 7.246094 L 7.160156 6 C 7.160156 5.886719 7.074219 5.710938 6.96875 5.710938 L 6.773438 5.710938 L 6.773438 5.390625 C 6.773438 4.925781 6.429688 4.546875 6 4.546875 Z M 6 5.128906 C 6.214844 5.128906 6.289062 5.148438 6.289062 5.378906 L 6.289062 5.710938 L 5.710938 5.710938 L 5.710938 5.378906 C 5.710938 5.148438 5.785156 5.128906 6 5.128906 Z M 6 5.128906 "/>
</g>
</svg>
