<?xml version="1.0" encoding="UTF-8"?>
<svg xmlns="http://www.w3.org/2000/svg" xmlns:xlink="http://www.w3.org/1999/xlink" width="12pt" height="12pt" viewBox="0 0 12 12" version="1.1">
<g id="surface1">
<path style=" stroke:none;fill-rule:evenodd;fill:rgb(30.196078%,30.196078%,30.196078%);fill-opacity:1;" d="M 11.289062 7.730469 C 11.140625 7.863281 10.964844 8.011719 10.90625 8.042969 C 10.753906 8.132812 10.59375 8.148438 10.449219 8.195312 C 10.304688 8.242188 10.179688 8.320312 10.089844 8.527344 C 10.054688 8.601562 10.054688 8.71875 10.042969 8.820312 C 10.03125 8.921875 10.007812 9.007812 9.933594 9.023438 C 9.675781 9.066406 8.777344 9.039062 8.652344 9.121094 C 8.089844 9.445312 7.394531 9.628906 6.769531 9.808594 C 6.652344 9.84375 6.460938 10.222656 6.339844 10.269531 C 6.195312 10.324219 6.035156 10.328125 5.871094 10.304688 C 5.707031 10.277344 5.539062 10.222656 5.367188 10.164062 C 5.023438 10.042969 4.679688 9.894531 4.378906 9.894531 C 3.988281 9.894531 3.445312 10.085938 2.902344 10.214844 C 2.628906 10.277344 2.359375 10.324219 2.105469 10.320312 C 1.855469 10.316406 1.621094 10.261719 1.425781 10.128906 C 1.253906 9.886719 1.078125 9.742188 0.886719 9.644531 C 0.859375 9.632812 0.824219 9.636719 0.796875 9.625 C 1 10.570312 1.796875 11.289062 2.800781 11.289062 L 9.195312 11.289062 C 10.355469 11.289062 11.289062 10.355469 11.289062 9.195312 Z M 11.289062 7.730469 "/>
<path style=" stroke:none;fill-rule:evenodd;fill:rgb(29.019608%,69.411765%,94.509804%);fill-opacity:1;" d="M 2.800781 0.710938 C 1.644531 0.710938 0.710938 1.644531 0.710938 2.800781 L 0.710938 9.195312 C 0.710938 9.347656 0.765625 9.484375 0.796875 9.625 C 0.824219 9.636719 0.859375 9.632812 0.882812 9.644531 C 1.078125 9.742188 1.253906 9.886719 1.421875 10.128906 C 1.621094 10.261719 1.855469 10.316406 2.105469 10.320312 C 2.359375 10.324219 2.628906 10.277344 2.902344 10.214844 C 3.445312 10.085938 3.988281 9.894531 4.378906 9.894531 C 4.679688 9.894531 5.023438 10.042969 5.367188 10.164062 C 5.539062 10.222656 5.707031 10.277344 5.871094 10.304688 C 6.035156 10.328125 6.195312 10.324219 6.339844 10.269531 C 6.460938 10.222656 6.652344 9.84375 6.769531 9.808594 C 7.394531 9.628906 8.089844 9.445312 8.652344 9.121094 C 8.777344 9.039062 9.675781 9.066406 9.933594 9.023438 C 10.007812 9.007812 10.03125 8.921875 10.042969 8.820312 C 10.054688 8.71875 10.054688 8.601562 10.089844 8.527344 C 10.179688 8.320312 10.304688 8.242188 10.449219 8.195312 C 10.59375 8.148438 10.753906 8.132812 10.90625 8.042969 C 10.964844 8.011719 11.140625 7.863281 11.289062 7.730469 L 11.289062 2.800781 C 11.289062 1.644531 10.355469 0.710938 9.195312 0.710938 Z M 2.800781 0.710938 "/>
<path style=" stroke:none;fill-rule:nonzero;fill:rgb(30.196078%,30.196078%,30.196078%);fill-opacity:1;" d="M 4.535156 10.097656 C 4.304688 9.980469 4.257812 9.792969 4.359375 9.730469 C 4.484375 9.652344 4.414062 9.210938 4.199219 8.714844 C 3.988281 8.226562 3.984375 8.210938 4.082031 8.101562 C 4.308594 7.851562 4.296875 7.835938 3.894531 7.875 C 2.773438 7.984375 2.734375 8.167969 2.351562 8.328125 C 1.84375 8.539062 1.382812 8.613281 1.382812 8.554688 C 1.382812 8.527344 1.453125 8.488281 1.535156 8.464844 L 1.683594 8.425781 L 1.523438 8.390625 C 1.367188 8.359375 1.367188 8.359375 1.6875 8.148438 C 2.628906 7.191406 3.492188 6.042969 4.726562 5.394531 C 4.878906 5.316406 5.058594 5.199219 5.09375 5.113281 C 5.128906 5.035156 5.160156 4.632812 5.160156 4.355469 C 5.160156 3.761719 5.253906 3.449219 5.613281 3.34375 C 5.890625 3.304688 5.84375 3.289062 6.089844 3.445312 C 6.257812 3.546875 6.46875 3.855469 6.648438 3.878906 C 7.367188 3.96875 8.039062 4.242188 8.152344 4.425781 C 8.171875 4.457031 8.121094 4.449219 8.03125 4.402344 C 7.5625 4.160156 6.574219 3.996094 6.226562 4.160156 C 5.941406 4.292969 6.109375 4.417969 6.210938 4.992188 C 6.347656 5.769531 6.25 6.386719 5.929688 6.8125 C 5.851562 6.914062 5.640625 7.105469 5.460938 7.238281 C 5.277344 7.371094 4.90625 7.542969 4.867188 7.617188 C 4.828125 7.691406 4.75 7.8125 4.691406 7.886719 C 4.601562 8 4.585938 8.113281 4.582031 8.707031 C 4.578125 9.136719 4.597656 9.417969 4.636719 9.464844 C 4.671875 9.503906 4.683594 9.597656 4.664062 9.671875 C 4.625 9.824219 4.851562 10.046875 5.074219 10.046875 C 5.144531 10.046875 5.25 10.082031 5.308594 10.125 C 5.40625 10.199219 5.394531 10.207031 5.144531 10.207031 C 4.972656 10.210938 4.679688 10.167969 4.535156 10.097656 Z M 4.410156 8.546875 C 4.40625 8.453125 4.421875 8.269531 4.441406 8.140625 C 4.488281 7.882812 4.417969 7.832031 4.304688 8.042969 C 4.222656 8.203125 4.21875 8.457031 4.304688 8.613281 C 4.386719 8.769531 4.414062 8.753906 4.410156 8.546875 Z M 4.410156 8.546875 "/>
</g>
</svg>
