<?xml version="1.0" encoding="UTF-8"?>
<svg xmlns="http://www.w3.org/2000/svg" xmlns:xlink="http://www.w3.org/1999/xlink" width="12pt" height="12pt" viewBox="0 0 12 12" version="1.1">
<g id="surface1">
<path style=" stroke:none;fill-rule:evenodd;fill:rgb(60%,60%,60%);fill-opacity:1;" d="M 7.175781 0.710938 L 2.800781 0.710938 C 1.644531 0.710938 0.710938 1.644531 0.710938 2.800781 L 0.710938 9.199219 C 0.710938 10.355469 1.644531 11.289062 2.800781 11.289062 L 9.199219 11.289062 C 10.355469 11.289062 11.289062 10.355469 11.289062 9.199219 L 11.289062 2.800781 C 11.289062 1.644531 10.355469 0.710938 9.199219 0.710938 L 7.882812 0.710938 C 7.714844 0.890625 7.523438 1.074219 7.386719 1.25 C 7.144531 1.566406 6.953125 1.875 6.796875 2.179688 C 6.488281 2.792969 6.320312 3.390625 6.199219 4 L 5.683594 3.894531 C 5.8125 3.261719 6 2.609375 6.335938 1.945312 C 6.507812 1.609375 6.714844 1.273438 6.972656 0.933594 C 7.027344 0.863281 7.117188 0.785156 7.175781 0.710938 Z M 7.175781 0.710938 "/>
<path style=" stroke:none;fill-rule:evenodd;fill:rgb(40%,40%,40%);fill-opacity:1;" d="M 7.175781 0.710938 C 7.117188 0.785156 7.027344 0.863281 6.972656 0.933594 C 6.714844 1.273438 6.507812 1.609375 6.335938 1.945312 C 6 2.609375 5.8125 3.261719 5.683594 3.894531 L 6.199219 4 C 6.320312 3.390625 6.488281 2.792969 6.796875 2.179688 C 6.953125 1.875 7.144531 1.566406 7.386719 1.25 C 7.523438 1.074219 7.714844 0.890625 7.882812 0.710938 Z M 7.175781 0.710938 "/>
<path style=" stroke:none;fill-rule:evenodd;fill:rgb(60%,60%,60%);fill-opacity:1;" d="M 9.863281 11.152344 L 9.238281 10.371094 C 8.578125 9.539062 8.550781 9.511719 8.464844 9.523438 C 8.171875 9.574219 7.890625 9.574219 7.707031 9.527344 C 7.476562 9.464844 7.222656 9.304688 7.070312 9.128906 C 6.945312 8.988281 6.796875 8.703125 6.769531 8.554688 L 6.753906 8.460938 L 5.21875 8.460938 L 5.15625 8.65625 C 5.054688 8.960938 4.886719 9.195312 4.660156 9.347656 C 4.433594 9.503906 4.148438 9.578125 3.824219 9.5625 L 3.554688 9.550781 L 2.816406 10.40625 C 2.425781 10.855469 2.261719 11.050781 2.136719 11.152344 C 2.347656 11.226562 2.566406 11.289062 2.800781 11.289062 L 9.199219 11.289062 C 9.433594 11.289062 9.652344 11.226562 9.863281 11.152344 Z M 9.863281 11.152344 "/>
<path style=" stroke:none;fill-rule:evenodd;fill:rgb(20%,20%,20%);fill-opacity:1;" d="M 11.289062 8.324219 C 11.28125 8.300781 11.277344 8.277344 11.273438 8.253906 C 11.230469 8.085938 11.058594 7.359375 10.890625 6.636719 C 10.644531 5.59375 10.558594 5.273438 10.472656 5.089844 C 10.371094 4.867188 10.238281 4.667969 10.078125 4.488281 C 9.917969 4.3125 9.730469 4.152344 9.511719 4.015625 C 9.082031 3.742188 8.546875 3.554688 7.910156 3.460938 C 7.535156 3.40625 4.382812 3.40625 4.074219 3.460938 C 3.585938 3.550781 3.203125 3.65625 2.878906 3.800781 C 2.558594 3.949219 2.296875 4.136719 2.042969 4.386719 C 1.789062 4.640625 1.730469 4.714844 1.613281 4.957031 C 1.46875 5.25 1.457031 5.292969 0.9375 7.410156 C 0.867188 7.699219 0.792969 8.007812 0.710938 8.332031 L 0.710938 9.199219 C 0.710938 10.117188 1.3125 10.875 2.136719 11.152344 C 2.261719 11.050781 2.425781 10.855469 2.816406 10.40625 L 3.554688 9.550781 L 3.824219 9.5625 C 4.148438 9.578125 4.433594 9.503906 4.660156 9.347656 C 4.886719 9.195312 5.054688 8.960938 5.15625 8.65625 L 5.21875 8.460938 L 6.753906 8.460938 L 6.769531 8.554688 C 6.796875 8.703125 6.945312 8.988281 7.070312 9.128906 C 7.222656 9.304688 7.476562 9.464844 7.707031 9.527344 C 7.890625 9.574219 8.171875 9.574219 8.46875 9.523438 C 8.550781 9.511719 8.578125 9.539062 9.242188 10.371094 L 9.863281 11.152344 C 10.6875 10.875 11.289062 10.121094 11.289062 9.199219 Z M 8.457031 4.554688 C 8.601562 4.652344 8.648438 4.8125 8.582031 4.980469 C 8.542969 5.089844 8.460938 5.167969 8.363281 5.199219 C 8.265625 5.234375 8.15625 5.222656 8.054688 5.164062 C 7.949219 5.097656 7.886719 4.996094 7.875 4.886719 C 7.867188 4.78125 7.90625 4.667969 8 4.585938 C 8.132812 4.464844 8.304688 4.453125 8.457031 4.554688 Z M 3.375 4.664062 L 4.132812 4.664062 L 4.132812 5.394531 L 4.507812 5.402344 L 4.878906 5.410156 L 4.894531 6.152344 L 4.132812 6.152344 L 4.132812 6.914062 L 3.375 6.914062 L 3.375 6.152344 L 2.644531 6.152344 L 2.644531 5.394531 L 3.375 5.394531 Z M 5.625 7.261719 L 6.382812 7.261719 L 6.382812 7.671875 L 5.625 7.671875 Z M 4.039062 7.660156 C 4.210938 7.6875 4.367188 7.796875 4.453125 7.96875 C 4.511719 8.089844 4.523438 8.210938 4.5 8.324219 C 4.476562 8.433594 4.421875 8.535156 4.34375 8.613281 C 4.265625 8.691406 4.164062 8.746094 4.050781 8.769531 C 3.941406 8.789062 3.820312 8.777344 3.699219 8.71875 C 3.527344 8.632812 3.421875 8.476562 3.394531 8.304688 C 3.363281 8.136719 3.414062 7.953125 3.550781 7.816406 C 3.6875 7.679688 3.871094 7.632812 4.039062 7.660156 Z M 4.039062 7.660156 "/>
<path style=" stroke:none;fill-rule:evenodd;fill:rgb(90.196078%,90.196078%,90.196078%);fill-opacity:1;" d="M 7.925781 7.667969 C 7.769531 7.707031 7.632812 7.808594 7.554688 7.96875 C 7.484375 8.117188 7.476562 8.269531 7.527344 8.40625 C 7.574219 8.539062 7.679688 8.65625 7.828125 8.726562 C 7.996094 8.808594 8.183594 8.789062 8.332031 8.699219 C 8.480469 8.613281 8.59375 8.453125 8.621094 8.257812 C 8.640625 8.113281 8.527344 7.851562 8.40625 7.769531 C 8.253906 7.660156 8.082031 7.632812 7.925781 7.667969 Z M 7.925781 7.667969 "/>
<path style=" stroke:none;fill-rule:evenodd;fill:rgb(90.196078%,90.196078%,90.196078%);fill-opacity:1;" d="M 7.925781 7.667969 C 8.082031 7.632812 8.253906 7.660156 8.40625 7.769531 C 8.527344 7.851562 8.640625 8.113281 8.621094 8.257812 C 8.59375 8.453125 8.480469 8.613281 8.332031 8.699219 C 8.183594 8.789062 7.996094 8.808594 7.828125 8.726562 C 7.679688 8.65625 7.574219 8.539062 7.527344 8.40625 C 7.476562 8.269531 7.484375 8.117188 7.554688 7.96875 C 7.632812 7.808594 7.769531 7.707031 7.925781 7.667969 Z M 7.925781 7.667969 "/>
<path style=" stroke:none;fill-rule:evenodd;fill:rgb(90.196078%,90.196078%,90.196078%);fill-opacity:1;" d="M 4.039062 7.660156 C 3.871094 7.632812 3.6875 7.679688 3.550781 7.816406 C 3.414062 7.953125 3.363281 8.136719 3.394531 8.304688 C 3.421875 8.476562 3.527344 8.632812 3.699219 8.71875 C 3.820312 8.777344 3.941406 8.789062 4.050781 8.769531 C 4.164062 8.746094 4.265625 8.691406 4.34375 8.613281 C 4.421875 8.535156 4.476562 8.433594 4.5 8.324219 C 4.523438 8.210938 4.511719 8.089844 4.453125 7.96875 C 4.367188 7.796875 4.210938 7.6875 4.039062 7.660156 Z M 4.039062 7.660156 "/>
<path style=" stroke:none;fill-rule:evenodd;fill:rgb(90.196078%,90.196078%,90.196078%);fill-opacity:1;" d="M 5.625 7.261719 L 5.625 7.671875 L 6.382812 7.671875 L 6.382812 7.261719 Z M 5.625 7.261719 "/>
<path style=" stroke:none;fill-rule:evenodd;fill:rgb(90.196078%,90.196078%,90.196078%);fill-opacity:1;" d="M 8.183594 5.988281 C 8.03125 6.007812 7.925781 6.113281 7.890625 6.242188 C 7.855469 6.367188 7.886719 6.515625 8.003906 6.617188 C 8.105469 6.707031 8.238281 6.730469 8.351562 6.699219 C 8.464844 6.667969 8.5625 6.582031 8.597656 6.453125 C 8.636719 6.316406 8.605469 6.191406 8.527344 6.101562 C 8.449219 6.015625 8.328125 5.96875 8.183594 5.988281 Z M 8.183594 5.988281 "/>
<path style=" stroke:none;fill-rule:evenodd;fill:rgb(90.196078%,90.196078%,90.196078%);fill-opacity:1;" d="M 8.183594 5.988281 C 8.328125 5.96875 8.449219 6.015625 8.527344 6.101562 C 8.605469 6.191406 8.636719 6.316406 8.597656 6.453125 C 8.5625 6.582031 8.464844 6.667969 8.351562 6.699219 C 8.238281 6.730469 8.105469 6.707031 8.003906 6.617188 C 7.886719 6.515625 7.855469 6.367188 7.890625 6.242188 C 7.925781 6.113281 8.03125 6.007812 8.183594 5.988281 Z M 8.183594 5.988281 "/>
<path style=" stroke:none;fill-rule:evenodd;fill:rgb(90.196078%,90.196078%,90.196078%);fill-opacity:1;" d="M 7.660156 5.273438 C 7.503906 5.195312 7.367188 5.222656 7.238281 5.351562 C 7.152344 5.433594 7.140625 5.46875 7.140625 5.59375 C 7.140625 5.757812 7.214844 5.875 7.359375 5.9375 C 7.480469 5.988281 7.511719 5.988281 7.65625 5.917969 C 7.792969 5.851562 7.867188 5.726562 7.867188 5.597656 C 7.867188 5.472656 7.796875 5.34375 7.660156 5.273438 Z M 7.660156 5.273438 "/>
<path style=" stroke:none;fill-rule:evenodd;fill:rgb(90.196078%,90.196078%,90.196078%);fill-opacity:1;" d="M 7.660156 5.273438 C 7.796875 5.34375 7.867188 5.472656 7.867188 5.597656 C 7.867188 5.726562 7.792969 5.851562 7.65625 5.917969 C 7.511719 5.988281 7.480469 5.988281 7.359375 5.9375 C 7.214844 5.875 7.140625 5.757812 7.140625 5.59375 C 7.140625 5.46875 7.152344 5.433594 7.238281 5.351562 C 7.367188 5.222656 7.503906 5.195312 7.660156 5.273438 Z M 7.660156 5.273438 "/>
<path style=" stroke:none;fill-rule:evenodd;fill:rgb(90.196078%,90.196078%,90.196078%);fill-opacity:1;" d="M 9.136719 5.257812 C 8.988281 5.199219 8.847656 5.230469 8.726562 5.351562 C 8.644531 5.433594 8.628906 5.46875 8.628906 5.59375 C 8.628906 5.757812 8.703125 5.875 8.847656 5.9375 C 8.964844 5.988281 9.019531 5.988281 9.140625 5.9375 C 9.285156 5.875 9.355469 5.738281 9.355469 5.597656 C 9.351562 5.457031 9.28125 5.320312 9.136719 5.257812 Z M 9.136719 5.257812 "/>
<path style=" stroke:none;fill-rule:evenodd;fill:rgb(100%,79.215686%,34.509804%);fill-opacity:1;" d="M 9.136719 5.257812 C 9.28125 5.320312 9.351562 5.457031 9.355469 5.597656 C 9.355469 5.738281 9.285156 5.875 9.140625 5.9375 C 9.019531 5.988281 8.964844 5.988281 8.847656 5.9375 C 8.703125 5.875 8.628906 5.757812 8.628906 5.59375 C 8.628906 5.46875 8.644531 5.433594 8.726562 5.351562 C 8.847656 5.230469 8.988281 5.199219 9.136719 5.257812 Z M 9.136719 5.257812 "/>
<path style=" stroke:none;fill-rule:evenodd;fill:rgb(90.196078%,90.196078%,90.196078%);fill-opacity:1;" d="M 3.375 4.664062 L 3.375 5.394531 L 2.644531 5.394531 L 2.644531 6.152344 L 3.375 6.152344 L 3.375 6.914062 L 4.132812 6.914062 L 4.132812 6.152344 L 4.894531 6.152344 L 4.878906 5.410156 L 4.507812 5.402344 L 4.132812 5.394531 L 4.132812 4.664062 Z M 3.375 4.664062 "/>
<path style=" stroke:none;fill-rule:evenodd;fill:rgb(93.333333%,32.54902%,32.54902%);fill-opacity:1;" d="M 8.457031 4.554688 C 8.304688 4.453125 8.132812 4.464844 8 4.585938 C 7.90625 4.667969 7.867188 4.78125 7.875 4.886719 C 7.886719 4.996094 7.949219 5.097656 8.054688 5.164062 C 8.15625 5.222656 8.265625 5.234375 8.363281 5.199219 C 8.460938 5.167969 8.542969 5.089844 8.582031 4.980469 C 8.648438 4.8125 8.601562 4.652344 8.457031 4.554688 Z M 8.457031 4.554688 "/>
</g>
</svg>
