<?xml version="1.0" encoding="UTF-8"?>
<svg xmlns="http://www.w3.org/2000/svg" xmlns:xlink="http://www.w3.org/1999/xlink" width="12pt" height="12pt" viewBox="0 0 12 12" version="1.1">
<g id="surface1">
<path style=" stroke:none;fill-rule:evenodd;fill:rgb(20%,20%,20%);fill-opacity:1;" d="M 1.976562 0.882812 C 1.234375 1.199219 0.710938 1.9375 0.710938 2.800781 L 0.710938 9.195312 C 0.710938 10.039062 1.214844 10.753906 1.929688 11.085938 C 2.089844 10.945312 2.25 10.808594 2.394531 10.644531 C 2.558594 10.457031 2.707031 10.238281 2.824219 9.980469 C 3.03125 9.507812 3.101562 9.046875 3.117188 8.546875 C 3.132812 8.050781 3.09375 7.511719 3.09375 6.890625 L 3.09375 2.21875 C 3.09375 2.015625 3.082031 1.882812 3.039062 1.769531 C 2.992188 1.65625 2.914062 1.5625 2.777344 1.433594 C 2.53125 1.238281 2.246094 1.058594 1.976562 0.882812 Z M 1.976562 0.882812 "/>
<path style=" stroke:none;fill-rule:evenodd;fill:rgb(91.372549%,49.411765%,6.27451%);fill-opacity:1;" d="M 1.976562 0.882812 C 2.246094 1.058594 2.53125 1.238281 2.777344 1.433594 C 2.914062 1.5625 2.992188 1.65625 3.039062 1.769531 C 3.082031 1.882812 3.09375 2.015625 3.09375 2.21875 L 3.09375 6.890625 C 3.09375 7.511719 3.132812 8.050781 3.117188 8.546875 C 3.101562 9.046875 3.03125 9.507812 2.824219 9.980469 C 2.707031 10.238281 2.558594 10.457031 2.394531 10.644531 C 2.25 10.808594 2.089844 10.945312 1.929688 11.085938 C 2.195312 11.207031 2.488281 11.289062 2.804688 11.289062 L 9.199219 11.289062 C 10.355469 11.289062 11.289062 10.355469 11.289062 9.195312 L 11.289062 2.800781 C 11.289062 1.644531 10.355469 0.710938 9.199219 0.710938 L 2.804688 0.710938 C 2.507812 0.710938 2.230469 0.773438 1.976562 0.882812 Z M 1.976562 0.882812 "/>
<path style=" stroke:none;fill-rule:evenodd;fill:rgb(100%,100%,100%);fill-opacity:1;" d="M 5.4375 2.597656 C 6.082031 2.601562 7.398438 2.617188 7.660156 2.742188 C 8.789062 3.378906 8.957031 4.140625 8.933594 5.222656 C 8.964844 6.207031 8.605469 7.265625 7.660156 7.765625 C 7.3125 7.933594 5.140625 7.933594 5.140625 7.933594 L 5.082031 2.597656 C 5.082031 2.597656 5.222656 2.597656 5.4375 2.597656 Z M 5.4375 2.597656 "/>
<path style=" stroke:none;fill-rule:evenodd;fill:rgb(76.078431%,20.784314%,16.470588%);fill-opacity:1;" d="M 4.1875 5.273438 C 4.15625 5.285156 4.238281 5.484375 4.324219 5.605469 C 4.460938 5.792969 4.546875 5.902344 4.734375 6.070312 C 4.976562 6.292969 5.039062 6.328125 5.140625 6.433594 C 5.246094 6.535156 5.375 6.730469 5.375 6.730469 L 5.375 9.738281 C 5.375 9.945312 5.167969 10.074219 5.097656 10.101562 C 5.003906 10.132812 4.792969 10.203125 4.792969 10.203125 L 4.792969 10.304688 L 7.160156 10.304688 L 7.160156 10.203125 C 7.160156 10.203125 6.917969 10.132812 6.820312 10.101562 C 6.753906 10.074219 6.582031 9.945312 6.578125 9.738281 L 6.578125 6.679688 C 6.578125 6.457031 6.773438 6.402344 6.851562 6.367188 C 6.957031 6.324219 7.109375 6.316406 7.160156 6.214844 C 7.210938 6.109375 7.09375 6.160156 7.054688 6.160156 C 6.691406 6.164062 5.734375 6.160156 5.734375 6.160156 C 5.484375 6.160156 5.242188 6.128906 5.039062 6.019531 C 4.898438 5.941406 4.761719 5.839844 4.632812 5.710938 L 4.222656 5.296875 C 4.203125 5.277344 4.191406 5.269531 4.1875 5.273438 Z M 10.441406 5.273438 C 10.433594 5.269531 10.421875 5.277344 10.402344 5.296875 L 9.996094 5.710938 C 9.863281 5.839844 9.726562 5.941406 9.585938 6.019531 C 9.382812 6.128906 9.140625 6.160156 8.890625 6.160156 C 8.890625 6.160156 7.9375 6.164062 7.570312 6.160156 C 7.53125 6.160156 7.417969 6.109375 7.46875 6.214844 C 7.519531 6.316406 7.667969 6.324219 7.773438 6.367188 C 7.851562 6.402344 8.046875 6.457031 8.046875 6.679688 L 8.046875 9.738281 C 8.046875 9.945312 7.875 10.074219 7.804688 10.101562 C 7.710938 10.132812 7.472656 10.203125 7.472656 10.203125 L 7.472656 10.304688 L 9.832031 10.304688 L 9.832031 10.203125 C 9.832031 10.203125 9.625 10.132812 9.527344 10.101562 C 9.460938 10.074219 9.25 9.945312 9.25 9.738281 L 9.25 6.730469 C 9.25 6.730469 9.382812 6.535156 9.484375 6.433594 C 9.585938 6.328125 9.648438 6.292969 9.890625 6.070312 C 10.078125 5.902344 10.167969 5.792969 10.300781 5.605469 C 10.386719 5.484375 10.46875 5.285156 10.441406 5.273438 Z M 10.441406 5.273438 "/>
</g>
</svg>
