<?xml version="1.0" encoding="UTF-8"?>
<svg xmlns="http://www.w3.org/2000/svg" xmlns:xlink="http://www.w3.org/1999/xlink" width="12pt" height="12pt" viewBox="0 0 12 12" version="1.1">
<g id="surface1">
<path style=" stroke:none;fill-rule:evenodd;fill:rgb(53.333333%,2.745098%,8.627451%);fill-opacity:1;" d="M 2.800781 0.710938 L 9.199219 0.710938 C 10.351562 0.710938 11.289062 1.648438 11.289062 2.800781 L 11.289062 9.199219 C 11.289062 10.351562 10.351562 11.289062 9.199219 11.289062 L 2.800781 11.289062 C 1.648438 11.289062 0.710938 10.351562 0.710938 9.199219 L 0.710938 2.800781 C 0.710938 1.648438 1.648438 0.710938 2.800781 0.710938 Z M 2.800781 0.710938 "/>
<path style=" stroke:none;fill-rule:nonzero;fill:rgb(93.333333%,11.764706%,7.843137%);fill-opacity:1;" d="M 6.726562 2.320312 C 5.574219 3.066406 4.183594 4.695312 4.171875 4.816406 C 4.03125 4.726562 3.375 4.554688 2.671875 4.484375 C 3.148438 4.816406 3.363281 5.542969 3.234375 5.945312 C 2.402344 8.632812 4.726562 9.710938 6.070312 9.628906 C 7.414062 9.550781 9.875 8.964844 9.21875 5.628906 C 9.085938 5.914062 8.671875 6.042969 8.515625 5.722656 C 7.539062 3.683594 6.183594 4.714844 6.726562 2.320312 Z M 6.726562 2.320312 "/>
<path style=" stroke:none;fill-rule:nonzero;fill:rgb(95.294118%,56.470588%,9.803922%);fill-opacity:1;" d="M 6.421875 3.015625 C 5.867188 3.527344 5.324219 4.320312 5.335938 4.761719 C 5.34375 5.011719 5.335938 6.261719 5.261719 6.070312 C 4.789062 5.566406 4.246094 5.152344 3.546875 4.917969 C 4.019531 5.253906 4.152344 5.636719 4.023438 6.039062 C 3.15625 8.804688 4.582031 9.59375 6.132812 9.625 C 6.25 9.625 9.636719 9.453125 8.6875 6.421875 C 8.761719 7.128906 7.882812 7.5 7.847656 7.058594 C 7.679688 4.863281 5.652344 5.324219 6.421875 3.015625 Z M 6.421875 3.015625 "/>
<path style=" stroke:none;fill-rule:nonzero;fill:rgb(95.294118%,70.196078%,14.901961%);fill-opacity:1;" d="M 5.984375 9.601562 C 4.703125 9.464844 4.4375 8.457031 5.003906 7.484375 C 5.25 7.058594 5.695312 6.671875 5.875 6.253906 C 6.125 5.679688 5.964844 5.082031 5.542969 4.40625 C 7.988281 6.636719 8.503906 9.632812 5.984375 9.601562 Z M 5.984375 9.601562 "/>
<path style=" stroke:none;fill-rule:nonzero;fill:rgb(100%,100%,49.411765%);fill-opacity:1;" d="M 6.285156 9.601562 C 7.042969 9.429688 7.199219 8.8125 6.863281 8.277344 C 6.71875 8.042969 6.457031 7.84375 6.347656 7.609375 C 6.203125 7.289062 6.296875 6.921875 6.546875 6.492188 C 5.097656 7.992188 4.792969 9.804688 6.285156 9.601562 Z M 6.285156 9.601562 "/>
</g>
</svg>
