<?xml version="1.0" encoding="UTF-8"?>
<svg xmlns="http://www.w3.org/2000/svg" xmlns:xlink="http://www.w3.org/1999/xlink" width="12pt" height="12pt" viewBox="0 0 12 12" version="1.1">
<g id="surface1">
<path style=" stroke:none;fill-rule:evenodd;fill:rgb(24.705882%,24.705882%,24.705882%);fill-opacity:1;" d="M 2.417969 4.285156 C 2.398438 4.285156 2.382812 4.285156 2.363281 4.289062 C 2.34375 4.289062 2.324219 4.292969 2.308594 4.296875 C 2.289062 4.300781 2.269531 4.304688 2.253906 4.3125 C 2.234375 4.316406 2.21875 4.324219 2.199219 4.332031 C 2.183594 4.335938 2.164062 4.347656 2.148438 4.355469 C 2.132812 4.363281 2.117188 4.375 2.101562 4.382812 C 2.085938 4.394531 2.070312 4.40625 2.054688 4.417969 C 2.042969 4.429688 2.027344 4.441406 2.015625 4.457031 C 2.003906 4.46875 1.988281 4.484375 1.980469 4.5 C 1.96875 4.511719 1.957031 4.527344 1.945312 4.542969 C 1.9375 4.558594 1.925781 4.578125 1.917969 4.59375 C 1.910156 4.609375 1.902344 4.628906 1.894531 4.644531 C 1.886719 4.664062 1.882812 4.679688 1.875 4.699219 C 1.871094 4.714844 1.867188 4.734375 1.863281 4.753906 C 1.859375 4.769531 1.859375 4.789062 1.859375 4.808594 C 1.855469 4.820312 1.855469 4.835938 1.855469 4.847656 C 1.855469 4.867188 1.855469 4.886719 1.859375 4.90625 C 1.859375 4.921875 1.863281 4.941406 1.867188 4.960938 C 1.871094 4.980469 1.875 4.996094 1.882812 5.015625 C 1.886719 5.03125 1.894531 5.050781 1.902344 5.066406 C 1.910156 5.085938 1.917969 5.101562 1.925781 5.117188 C 1.933594 5.132812 1.945312 5.152344 1.953125 5.167969 C 1.964844 5.179688 1.976562 5.195312 1.988281 5.210938 C 2 5.226562 2.011719 5.238281 2.027344 5.25 C 2.039062 5.265625 2.054688 5.277344 2.070312 5.289062 C 2.085938 5.300781 2.097656 5.3125 2.113281 5.320312 C 2.128906 5.332031 2.148438 5.339844 2.164062 5.351562 C 2.179688 5.359375 2.199219 5.367188 2.214844 5.371094 C 2.234375 5.378906 2.25 5.386719 2.269531 5.390625 C 2.285156 5.394531 2.304688 5.398438 2.324219 5.402344 C 2.34375 5.40625 2.359375 5.40625 2.378906 5.410156 C 2.390625 5.410156 2.40625 5.410156 2.417969 5.410156 C 2.4375 5.410156 2.457031 5.410156 2.476562 5.40625 C 2.492188 5.40625 2.511719 5.402344 2.53125 5.398438 C 2.550781 5.394531 2.566406 5.390625 2.585938 5.386719 C 2.601562 5.378906 2.621094 5.375 2.636719 5.367188 C 2.65625 5.359375 2.671875 5.351562 2.6875 5.34375 C 2.703125 5.332031 2.722656 5.324219 2.738281 5.3125 C 2.753906 5.300781 2.765625 5.289062 2.78125 5.277344 C 2.796875 5.265625 2.808594 5.253906 2.824219 5.238281 C 2.835938 5.226562 2.847656 5.210938 2.859375 5.199219 C 2.871094 5.183594 2.882812 5.167969 2.890625 5.152344 C 2.902344 5.136719 2.910156 5.121094 2.921875 5.101562 C 2.929688 5.085938 2.9375 5.070312 2.941406 5.050781 C 2.949219 5.035156 2.957031 5.015625 2.960938 5 C 2.964844 4.980469 2.96875 4.960938 2.972656 4.945312 C 2.976562 4.925781 2.980469 4.90625 2.980469 4.886719 C 2.980469 4.875 2.980469 4.863281 2.980469 4.847656 C 2.980469 4.828125 2.980469 4.8125 2.976562 4.792969 C 2.976562 4.773438 2.972656 4.753906 2.96875 4.738281 C 2.964844 4.71875 2.960938 4.699219 2.957031 4.683594 C 2.949219 4.664062 2.945312 4.648438 2.9375 4.628906 C 2.929688 4.613281 2.921875 4.59375 2.914062 4.578125 C 2.902344 4.5625 2.894531 4.546875 2.882812 4.53125 C 2.871094 4.515625 2.863281 4.5 2.847656 4.484375 C 2.835938 4.472656 2.824219 4.457031 2.8125 4.445312 C 2.796875 4.433594 2.785156 4.417969 2.769531 4.40625 C 2.753906 4.394531 2.738281 4.386719 2.722656 4.375 C 2.707031 4.363281 2.691406 4.355469 2.671875 4.347656 C 2.65625 4.339844 2.640625 4.332031 2.621094 4.324219 C 2.605469 4.316406 2.585938 4.3125 2.570312 4.304688 C 2.550781 4.300781 2.535156 4.296875 2.515625 4.292969 C 2.496094 4.289062 2.476562 4.289062 2.457031 4.289062 C 2.445312 4.285156 2.433594 4.285156 2.417969 4.285156 Z M 2.417969 4.285156 "/>
<path style=" stroke:none;fill-rule:evenodd;fill:rgb(24.705882%,24.705882%,24.705882%);fill-opacity:1;" d="M 4.480469 3.910156 C 4.457031 3.910156 4.429688 3.910156 4.40625 3.914062 C 4.382812 3.917969 4.355469 3.921875 4.332031 3.925781 C 4.308594 3.929688 4.285156 3.9375 4.261719 3.945312 C 4.234375 3.953125 4.210938 3.960938 4.1875 3.96875 C 4.167969 3.980469 4.144531 3.992188 4.121094 4.003906 C 4.101562 4.015625 4.078125 4.027344 4.058594 4.042969 C 4.039062 4.054688 4.015625 4.070312 3.996094 4.085938 C 3.980469 4.101562 3.960938 4.121094 3.945312 4.136719 C 3.925781 4.15625 3.910156 4.175781 3.894531 4.195312 C 3.878906 4.214844 3.863281 4.234375 3.851562 4.253906 C 3.835938 4.277344 3.824219 4.296875 3.8125 4.320312 C 3.800781 4.34375 3.792969 4.367188 3.78125 4.390625 C 3.773438 4.414062 3.765625 4.4375 3.757812 4.460938 C 3.75 4.484375 3.746094 4.507812 3.742188 4.535156 C 3.738281 4.558594 3.734375 4.582031 3.734375 4.609375 C 3.730469 4.625 3.730469 4.644531 3.730469 4.660156 C 3.730469 4.6875 3.734375 4.710938 3.734375 4.734375 C 3.738281 4.761719 3.742188 4.785156 3.746094 4.808594 C 3.75 4.835938 3.757812 4.859375 3.765625 4.882812 C 3.773438 4.90625 3.78125 4.929688 3.789062 4.953125 C 3.800781 4.976562 3.8125 5 3.824219 5.019531 C 3.835938 5.042969 3.847656 5.0625 3.863281 5.085938 C 3.875 5.105469 3.890625 5.125 3.90625 5.144531 C 3.925781 5.164062 3.941406 5.183594 3.960938 5.199219 C 3.976562 5.214844 3.996094 5.234375 4.015625 5.25 C 4.035156 5.265625 4.054688 5.277344 4.078125 5.292969 C 4.097656 5.304688 4.117188 5.316406 4.140625 5.328125 C 4.164062 5.339844 4.1875 5.351562 4.210938 5.359375 C 4.234375 5.371094 4.257812 5.378906 4.28125 5.382812 C 4.304688 5.390625 4.328125 5.394531 4.355469 5.398438 C 4.378906 5.402344 4.402344 5.40625 4.429688 5.410156 C 4.445312 5.410156 4.464844 5.410156 4.480469 5.410156 C 4.507812 5.410156 4.53125 5.410156 4.554688 5.40625 C 4.582031 5.40625 4.605469 5.402344 4.628906 5.394531 C 4.65625 5.390625 4.679688 5.382812 4.703125 5.378906 C 4.726562 5.371094 4.75 5.359375 4.773438 5.351562 C 4.796875 5.34375 4.820312 5.332031 4.839844 5.320312 C 4.863281 5.308594 4.882812 5.292969 4.90625 5.28125 C 4.925781 5.265625 4.945312 5.25 4.964844 5.234375 C 4.984375 5.21875 5.003906 5.203125 5.019531 5.183594 C 5.035156 5.164062 5.054688 5.148438 5.070312 5.128906 C 5.085938 5.109375 5.097656 5.085938 5.113281 5.066406 C 5.125 5.046875 5.136719 5.023438 5.148438 5 C 5.160156 4.980469 5.171875 4.957031 5.179688 4.933594 C 5.191406 4.910156 5.199219 4.886719 5.203125 4.863281 C 5.210938 4.835938 5.214844 4.8125 5.21875 4.789062 C 5.226562 4.765625 5.226562 4.738281 5.230469 4.714844 C 5.230469 4.695312 5.230469 4.679688 5.230469 4.660156 C 5.230469 4.636719 5.230469 4.609375 5.226562 4.585938 C 5.226562 4.5625 5.222656 4.535156 5.214844 4.511719 C 5.210938 4.488281 5.207031 4.464844 5.199219 4.441406 C 5.191406 4.414062 5.183594 4.390625 5.171875 4.367188 C 5.164062 4.34375 5.152344 4.324219 5.140625 4.300781 C 5.128906 4.277344 5.113281 4.257812 5.101562 4.238281 C 5.085938 4.214844 5.070312 4.195312 5.054688 4.175781 C 5.039062 4.160156 5.023438 4.140625 5.003906 4.125 C 4.984375 4.105469 4.96875 4.089844 4.949219 4.074219 C 4.929688 4.058594 4.90625 4.042969 4.886719 4.03125 C 4.867188 4.015625 4.84375 4.003906 4.820312 3.992188 C 4.800781 3.980469 4.777344 3.972656 4.753906 3.960938 C 4.730469 3.953125 4.707031 3.945312 4.683594 3.9375 C 4.65625 3.929688 4.632812 3.925781 4.609375 3.921875 C 4.585938 3.917969 4.558594 3.914062 4.535156 3.914062 C 4.515625 3.910156 4.5 3.910156 4.480469 3.910156 Z M 4.480469 3.910156 "/>
<path style=" stroke:none;fill-rule:evenodd;fill:rgb(100%,100%,100%);fill-opacity:1;" d="M 5.042969 2.785156 C 4.988281 2.785156 4.929688 2.789062 4.875 2.792969 C 4.820312 2.800781 4.761719 2.808594 4.707031 2.820312 C 4.652344 2.832031 4.597656 2.84375 4.546875 2.859375 C 4.492188 2.878906 4.4375 2.898438 4.386719 2.917969 C 4.335938 2.941406 4.285156 2.964844 4.234375 2.992188 C 4.1875 3.019531 4.136719 3.050781 4.089844 3.082031 C 4.042969 3.113281 4 3.148438 3.957031 3.183594 C 3.914062 3.21875 3.871094 3.257812 3.832031 3.296875 C 3.792969 3.339844 3.757812 3.378906 3.722656 3.425781 C 3.6875 3.46875 3.652344 3.515625 3.625 3.5625 C 3.59375 3.609375 3.566406 3.65625 3.539062 3.707031 C 3.515625 3.757812 3.492188 3.808594 3.472656 3.863281 C 3.449219 3.914062 3.433594 3.96875 3.417969 4.023438 C 3.402344 4.078125 3.390625 4.132812 3.382812 4.1875 C 3.371094 4.242188 3.363281 4.296875 3.359375 4.355469 C 3.359375 4.394531 3.355469 4.433594 3.355469 4.472656 C 3.355469 4.53125 3.359375 4.585938 3.363281 4.640625 C 3.371094 4.699219 3.378906 4.753906 3.390625 4.808594 C 3.402344 4.863281 3.414062 4.917969 3.433594 4.972656 C 3.449219 5.027344 3.46875 5.078125 3.488281 5.128906 C 3.511719 5.183594 3.535156 5.234375 3.5625 5.28125 C 3.589844 5.332031 3.621094 5.378906 3.652344 5.425781 C 3.683594 5.472656 3.71875 5.515625 3.753906 5.558594 C 3.789062 5.601562 3.828125 5.644531 3.867188 5.683594 C 3.910156 5.722656 3.949219 5.761719 3.996094 5.796875 C 4.039062 5.832031 4.085938 5.863281 4.132812 5.894531 C 4.179688 5.921875 4.226562 5.953125 4.277344 5.976562 C 4.328125 6.003906 4.378906 6.027344 4.433594 6.046875 C 4.484375 6.066406 4.539062 6.085938 4.59375 6.097656 C 4.648438 6.113281 4.703125 6.125 4.757812 6.136719 C 4.8125 6.144531 4.867188 6.152344 4.925781 6.15625 C 4.964844 6.160156 5.003906 6.160156 5.042969 6.160156 C 5.101562 6.160156 5.15625 6.15625 5.210938 6.152344 C 5.269531 6.148438 5.324219 6.136719 5.378906 6.128906 C 5.433594 6.117188 5.488281 6.101562 5.542969 6.085938 C 5.597656 6.070312 5.648438 6.050781 5.699219 6.027344 C 5.753906 6.003906 5.804688 5.980469 5.851562 5.953125 C 5.902344 5.925781 5.949219 5.898438 5.996094 5.867188 C 6.042969 5.835938 6.085938 5.800781 6.128906 5.765625 C 6.175781 5.726562 6.214844 5.6875 6.253906 5.648438 C 6.292969 5.609375 6.332031 5.566406 6.367188 5.523438 C 6.402344 5.476562 6.433594 5.433594 6.464844 5.386719 C 6.496094 5.335938 6.523438 5.289062 6.546875 5.238281 C 6.574219 5.1875 6.597656 5.136719 6.617188 5.085938 C 6.636719 5.03125 6.65625 4.980469 6.667969 4.925781 C 6.683594 4.871094 6.699219 4.816406 6.707031 4.761719 C 6.714844 4.703125 6.722656 4.648438 6.726562 4.59375 C 6.730469 4.554688 6.730469 4.511719 6.730469 4.472656 C 6.730469 4.417969 6.730469 4.359375 6.722656 4.304688 C 6.71875 4.25 6.707031 4.191406 6.699219 4.136719 C 6.6875 4.082031 6.671875 4.027344 6.65625 3.972656 C 6.640625 3.921875 6.621094 3.867188 6.597656 3.816406 C 6.574219 3.765625 6.550781 3.714844 6.523438 3.664062 C 6.496094 3.613281 6.46875 3.566406 6.4375 3.519531 C 6.40625 3.472656 6.371094 3.429688 6.335938 3.386719 C 6.296875 3.34375 6.257812 3.300781 6.21875 3.261719 C 6.179688 3.222656 6.136719 3.1875 6.09375 3.152344 C 6.046875 3.117188 6.003906 3.082031 5.957031 3.054688 C 5.910156 3.023438 5.859375 2.996094 5.808594 2.96875 C 5.757812 2.945312 5.707031 2.921875 5.65625 2.902344 C 5.601562 2.878906 5.550781 2.863281 5.496094 2.847656 C 5.441406 2.832031 5.386719 2.820312 5.332031 2.8125 C 5.277344 2.800781 5.21875 2.792969 5.164062 2.789062 C 5.125 2.789062 5.082031 2.785156 5.042969 2.785156 Z M 4.480469 3.910156 C 4.5 3.910156 4.515625 3.910156 4.535156 3.914062 C 4.558594 3.914062 4.585938 3.917969 4.609375 3.921875 C 4.632812 3.925781 4.65625 3.929688 4.683594 3.9375 C 4.707031 3.945312 4.730469 3.953125 4.753906 3.960938 C 4.777344 3.972656 4.800781 3.980469 4.820312 3.992188 C 4.84375 4.003906 4.867188 4.015625 4.886719 4.03125 C 4.90625 4.042969 4.929688 4.058594 4.949219 4.074219 C 4.96875 4.089844 4.984375 4.105469 5.003906 4.125 C 5.023438 4.140625 5.039062 4.160156 5.054688 4.175781 C 5.070312 4.195312 5.085938 4.214844 5.101562 4.238281 C 5.113281 4.257812 5.128906 4.277344 5.140625 4.300781 C 5.152344 4.324219 5.164062 4.34375 5.171875 4.367188 C 5.183594 4.390625 5.191406 4.414062 5.199219 4.441406 C 5.207031 4.464844 5.210938 4.488281 5.214844 4.511719 C 5.222656 4.535156 5.226562 4.5625 5.226562 4.585938 C 5.230469 4.609375 5.230469 4.636719 5.230469 4.660156 C 5.230469 4.679688 5.230469 4.695312 5.230469 4.714844 C 5.226562 4.738281 5.226562 4.765625 5.21875 4.789062 C 5.214844 4.8125 5.210938 4.835938 5.203125 4.863281 C 5.199219 4.886719 5.191406 4.910156 5.179688 4.933594 C 5.171875 4.957031 5.160156 4.980469 5.148438 5 C 5.136719 5.023438 5.125 5.046875 5.113281 5.066406 C 5.097656 5.085938 5.085938 5.109375 5.070312 5.128906 C 5.054688 5.148438 5.035156 5.164062 5.019531 5.183594 C 5.003906 5.203125 4.984375 5.21875 4.964844 5.234375 C 4.945312 5.25 4.925781 5.265625 4.90625 5.28125 C 4.882812 5.292969 4.863281 5.308594 4.839844 5.320312 C 4.820312 5.332031 4.796875 5.34375 4.773438 5.351562 C 4.75 5.359375 4.726562 5.371094 4.703125 5.378906 C 4.679688 5.382812 4.65625 5.390625 4.628906 5.394531 C 4.605469 5.402344 4.582031 5.40625 4.554688 5.40625 C 4.53125 5.410156 4.507812 5.410156 4.480469 5.410156 C 4.464844 5.410156 4.445312 5.410156 4.429688 5.410156 C 4.402344 5.40625 4.378906 5.402344 4.355469 5.398438 C 4.328125 5.394531 4.304688 5.390625 4.28125 5.382812 C 4.257812 5.378906 4.234375 5.371094 4.210938 5.359375 C 4.1875 5.351562 4.164062 5.339844 4.140625 5.328125 C 4.121094 5.316406 4.097656 5.304688 4.078125 5.292969 C 4.054688 5.277344 4.035156 5.265625 4.015625 5.25 C 3.996094 5.234375 3.976562 5.214844 3.960938 5.199219 C 3.941406 5.183594 3.925781 5.164062 3.90625 5.144531 C 3.890625 5.125 3.875 5.105469 3.863281 5.085938 C 3.847656 5.0625 3.835938 5.042969 3.824219 5.019531 C 3.8125 5 3.800781 4.976562 3.789062 4.953125 C 3.78125 4.929688 3.773438 4.90625 3.765625 4.882812 C 3.757812 4.859375 3.75 4.835938 3.746094 4.808594 C 3.742188 4.785156 3.738281 4.761719 3.734375 4.734375 C 3.734375 4.710938 3.730469 4.6875 3.730469 4.660156 C 3.730469 4.644531 3.730469 4.625 3.734375 4.609375 C 3.734375 4.582031 3.738281 4.558594 3.742188 4.535156 C 3.746094 4.507812 3.75 4.484375 3.757812 4.460938 C 3.765625 4.4375 3.773438 4.414062 3.78125 4.390625 C 3.792969 4.367188 3.800781 4.34375 3.8125 4.320312 C 3.824219 4.296875 3.835938 4.277344 3.851562 4.253906 C 3.863281 4.234375 3.878906 4.214844 3.894531 4.195312 C 3.910156 4.175781 3.925781 4.15625 3.945312 4.136719 C 3.960938 4.121094 3.980469 4.101562 3.996094 4.085938 C 4.015625 4.070312 4.039062 4.054688 4.058594 4.042969 C 4.078125 4.027344 4.101562 4.015625 4.121094 4.003906 C 4.144531 3.992188 4.167969 3.980469 4.1875 3.96875 C 4.210938 3.960938 4.234375 3.953125 4.261719 3.945312 C 4.285156 3.9375 4.308594 3.929688 4.332031 3.925781 C 4.355469 3.921875 4.382812 3.917969 4.40625 3.914062 C 4.429688 3.910156 4.457031 3.910156 4.480469 3.910156 Z M 4.480469 3.910156 "/>
<path style=" stroke:none;fill-rule:evenodd;fill:rgb(100%,100%,100%);fill-opacity:1;" d="M 3.453125 3.921875 C 3.433594 3.898438 3.410156 3.875 3.390625 3.855469 C 3.363281 3.828125 3.335938 3.804688 3.304688 3.78125 C 3.277344 3.757812 3.246094 3.734375 3.214844 3.714844 C 3.183594 3.695312 3.148438 3.675781 3.117188 3.65625 C 3.082031 3.640625 3.050781 3.625 3.015625 3.613281 C 2.980469 3.597656 2.945312 3.585938 2.90625 3.578125 C 2.871094 3.566406 2.835938 3.558594 2.796875 3.550781 C 2.761719 3.546875 2.722656 3.542969 2.6875 3.539062 C 2.660156 3.535156 2.632812 3.535156 2.605469 3.535156 C 2.570312 3.535156 2.53125 3.539062 2.496094 3.542969 C 2.457031 3.546875 2.417969 3.550781 2.382812 3.558594 C 2.347656 3.566406 2.308594 3.574219 2.273438 3.585938 C 2.238281 3.597656 2.203125 3.609375 2.167969 3.625 C 2.132812 3.640625 2.101562 3.65625 2.066406 3.671875 C 2.035156 3.691406 2.003906 3.710938 1.972656 3.730469 C 1.941406 3.753906 1.910156 3.777344 1.882812 3.800781 C 1.851562 3.824219 1.824219 3.851562 1.800781 3.878906 C 1.773438 3.902344 1.75 3.933594 1.726562 3.960938 C 1.703125 3.992188 1.679688 4.019531 1.660156 4.054688 C 1.640625 4.085938 1.621094 4.117188 1.605469 4.148438 C 1.585938 4.183594 1.570312 4.21875 1.558594 4.253906 C 1.542969 4.289062 1.53125 4.324219 1.523438 4.359375 C 1.511719 4.394531 1.503906 4.433594 1.496094 4.46875 C 1.492188 4.507812 1.488281 4.542969 1.484375 4.582031 C 1.480469 4.609375 1.480469 4.632812 1.480469 4.660156 C 1.480469 4.699219 1.484375 4.734375 1.488281 4.773438 C 1.492188 4.808594 1.496094 4.847656 1.503906 4.882812 C 1.511719 4.921875 1.519531 4.957031 1.53125 4.992188 C 1.542969 5.027344 1.554688 5.0625 1.570312 5.097656 C 1.585938 5.132812 1.601562 5.167969 1.617188 5.199219 C 1.636719 5.234375 1.65625 5.265625 1.675781 5.296875 C 1.699219 5.328125 1.722656 5.355469 1.746094 5.386719 C 1.769531 5.414062 1.796875 5.441406 1.824219 5.46875 C 1.847656 5.492188 1.878906 5.519531 1.90625 5.542969 C 1.9375 5.566406 1.96875 5.585938 2 5.609375 C 2.03125 5.628906 2.0625 5.648438 2.097656 5.664062 C 2.128906 5.679688 2.164062 5.695312 2.199219 5.710938 C 2.234375 5.722656 2.269531 5.734375 2.304688 5.746094 C 2.339844 5.753906 2.378906 5.761719 2.414062 5.769531 C 2.453125 5.777344 2.488281 5.78125 2.527344 5.78125 C 2.554688 5.785156 2.578125 5.785156 2.605469 5.785156 C 2.644531 5.785156 2.679688 5.785156 2.71875 5.78125 C 2.753906 5.777344 2.792969 5.769531 2.828125 5.765625 C 2.867188 5.757812 2.902344 5.746094 2.9375 5.734375 C 2.976562 5.726562 3.011719 5.710938 3.042969 5.695312 C 3.078125 5.683594 3.113281 5.667969 3.144531 5.648438 C 3.179688 5.628906 3.210938 5.609375 3.242188 5.589844 C 3.273438 5.566406 3.300781 5.546875 3.332031 5.519531 C 3.359375 5.496094 3.386719 5.472656 3.414062 5.445312 C 3.441406 5.417969 3.464844 5.390625 3.488281 5.359375 C 3.511719 5.332031 3.53125 5.300781 3.554688 5.269531 C 3.554688 5.269531 3.554688 5.265625 3.554688 5.265625 C 3.53125 5.222656 3.507812 5.175781 3.488281 5.128906 C 3.46875 5.078125 3.449219 5.027344 3.433594 4.972656 C 3.414062 4.917969 3.402344 4.863281 3.390625 4.808594 C 3.378906 4.753906 3.371094 4.699219 3.363281 4.640625 C 3.359375 4.585938 3.355469 4.53125 3.355469 4.472656 C 3.355469 4.433594 3.359375 4.394531 3.359375 4.355469 C 3.363281 4.296875 3.371094 4.242188 3.382812 4.1875 C 3.390625 4.132812 3.402344 4.078125 3.417969 4.023438 C 3.429688 3.988281 3.441406 3.953125 3.453125 3.921875 Z M 2.417969 4.285156 C 2.433594 4.285156 2.445312 4.285156 2.457031 4.289062 C 2.476562 4.289062 2.496094 4.289062 2.515625 4.292969 C 2.535156 4.296875 2.550781 4.300781 2.570312 4.304688 C 2.585938 4.3125 2.605469 4.316406 2.621094 4.324219 C 2.640625 4.332031 2.65625 4.339844 2.671875 4.347656 C 2.691406 4.355469 2.707031 4.363281 2.722656 4.375 C 2.738281 4.386719 2.753906 4.394531 2.769531 4.40625 C 2.785156 4.417969 2.796875 4.433594 2.8125 4.445312 C 2.824219 4.457031 2.835938 4.472656 2.847656 4.484375 C 2.863281 4.5 2.871094 4.515625 2.882812 4.53125 C 2.894531 4.546875 2.902344 4.5625 2.914062 4.578125 C 2.921875 4.59375 2.929688 4.613281 2.9375 4.628906 C 2.945312 4.648438 2.949219 4.664062 2.957031 4.683594 C 2.960938 4.699219 2.964844 4.71875 2.96875 4.738281 C 2.972656 4.753906 2.976562 4.773438 2.976562 4.792969 C 2.980469 4.8125 2.980469 4.828125 2.980469 4.847656 C 2.980469 4.863281 2.980469 4.875 2.980469 4.886719 C 2.980469 4.90625 2.976562 4.925781 2.972656 4.945312 C 2.96875 4.960938 2.964844 4.980469 2.960938 5 C 2.957031 5.015625 2.949219 5.035156 2.941406 5.050781 C 2.9375 5.070312 2.929688 5.085938 2.921875 5.101562 C 2.910156 5.121094 2.902344 5.136719 2.890625 5.152344 C 2.882812 5.167969 2.871094 5.183594 2.859375 5.199219 C 2.847656 5.210938 2.835938 5.226562 2.824219 5.238281 C 2.808594 5.253906 2.796875 5.265625 2.78125 5.277344 C 2.765625 5.289062 2.753906 5.300781 2.738281 5.3125 C 2.722656 5.324219 2.703125 5.332031 2.6875 5.34375 C 2.671875 5.351562 2.65625 5.359375 2.636719 5.367188 C 2.621094 5.375 2.601562 5.378906 2.585938 5.386719 C 2.566406 5.390625 2.550781 5.394531 2.53125 5.398438 C 2.511719 5.402344 2.492188 5.40625 2.476562 5.40625 C 2.457031 5.410156 2.4375 5.410156 2.417969 5.410156 C 2.40625 5.410156 2.390625 5.410156 2.378906 5.410156 C 2.359375 5.40625 2.34375 5.40625 2.324219 5.402344 C 2.304688 5.398438 2.285156 5.394531 2.269531 5.390625 C 2.25 5.386719 2.234375 5.378906 2.214844 5.371094 C 2.199219 5.367188 2.179688 5.359375 2.164062 5.351562 C 2.148438 5.339844 2.128906 5.332031 2.113281 5.320312 C 2.097656 5.3125 2.085938 5.300781 2.070312 5.289062 C 2.054688 5.277344 2.039062 5.265625 2.027344 5.25 C 2.011719 5.238281 2 5.226562 1.988281 5.210938 C 1.976562 5.195312 1.964844 5.179688 1.953125 5.167969 C 1.945312 5.152344 1.933594 5.132812 1.925781 5.117188 C 1.917969 5.101562 1.910156 5.085938 1.902344 5.066406 C 1.894531 5.050781 1.886719 5.03125 1.882812 5.015625 C 1.875 4.996094 1.871094 4.980469 1.867188 4.960938 C 1.863281 4.941406 1.859375 4.921875 1.859375 4.90625 C 1.855469 4.886719 1.855469 4.867188 1.855469 4.847656 C 1.855469 4.835938 1.855469 4.820312 1.859375 4.808594 C 1.859375 4.789062 1.859375 4.769531 1.863281 4.753906 C 1.867188 4.734375 1.871094 4.714844 1.875 4.699219 C 1.882812 4.679688 1.886719 4.664062 1.894531 4.644531 C 1.902344 4.628906 1.910156 4.609375 1.917969 4.59375 C 1.925781 4.578125 1.9375 4.558594 1.945312 4.542969 C 1.957031 4.527344 1.96875 4.511719 1.980469 4.5 C 1.988281 4.484375 2.003906 4.46875 2.015625 4.457031 C 2.027344 4.441406 2.042969 4.429688 2.054688 4.417969 C 2.070312 4.40625 2.085938 4.394531 2.101562 4.382812 C 2.117188 4.375 2.132812 4.363281 2.148438 4.355469 C 2.164062 4.347656 2.183594 4.335938 2.199219 4.332031 C 2.21875 4.324219 2.234375 4.316406 2.253906 4.3125 C 2.269531 4.304688 2.289062 4.300781 2.308594 4.296875 C 2.324219 4.292969 2.34375 4.289062 2.363281 4.289062 C 2.382812 4.285156 2.398438 4.285156 2.417969 4.285156 Z M 2.417969 4.285156 "/>
<path style=" stroke:none;fill-rule:evenodd;fill:rgb(55.686275%,55.686275%,55.686275%);fill-opacity:1;" d="M 3.371094 5.484375 C 3.488281 5.488281 3.589844 5.492188 3.710938 5.503906 C 3.6875 5.476562 3.671875 5.453125 3.652344 5.425781 C 3.621094 5.378906 3.589844 5.332031 3.5625 5.28125 C 3.558594 5.277344 3.558594 5.269531 3.554688 5.265625 C 3.554688 5.265625 3.554688 5.269531 3.554688 5.269531 C 3.53125 5.300781 3.511719 5.332031 3.488281 5.359375 C 3.464844 5.390625 3.441406 5.417969 3.414062 5.445312 C 3.398438 5.457031 3.386719 5.472656 3.371094 5.484375 Z M 3.371094 5.484375 "/>
<path style=" stroke:none;fill-rule:evenodd;fill:rgb(100%,75.686275%,0.784314%);fill-opacity:1;" d="M 1.996094 5.605469 C 1.984375 5.625 1.933594 5.621094 1.921875 5.640625 C 1.863281 5.761719 1.871094 5.949219 1.859375 6.238281 C 1.847656 6.5625 1.867188 6.933594 1.953125 7.25 C 1.996094 7.40625 2.058594 7.550781 2.144531 7.667969 C 2.230469 7.789062 2.335938 7.882812 2.472656 7.933594 C 2.753906 8.046875 3.105469 8.0625 3.46875 7.996094 C 3.835938 7.933594 4.214844 7.796875 4.550781 7.605469 C 4.882812 7.417969 5.175781 7.183594 5.367188 6.921875 C 5.464844 6.789062 5.535156 6.652344 5.574219 6.515625 C 5.613281 6.375 5.617188 6.230469 5.585938 6.089844 C 5.585938 6.085938 5.570312 6.082031 5.566406 6.074219 C 5.558594 6.078125 5.550781 6.082031 5.542969 6.085938 C 5.488281 6.101562 5.433594 6.117188 5.378906 6.128906 C 5.324219 6.136719 5.269531 6.148438 5.210938 6.152344 C 5.15625 6.15625 5.101562 6.160156 5.042969 6.160156 C 5.003906 6.160156 4.964844 6.160156 4.925781 6.15625 C 4.867188 6.152344 4.8125 6.144531 4.757812 6.136719 C 4.703125 6.125 4.648438 6.113281 4.59375 6.097656 C 4.539062 6.085938 4.484375 6.066406 4.433594 6.046875 C 4.378906 6.027344 4.328125 6.003906 4.277344 5.976562 C 4.226562 5.953125 4.179688 5.921875 4.132812 5.894531 C 4.085938 5.863281 4.039062 5.832031 3.996094 5.796875 C 3.949219 5.761719 3.910156 5.722656 3.867188 5.683594 C 3.828125 5.644531 3.789062 5.601562 3.753906 5.558594 C 3.738281 5.542969 3.722656 5.523438 3.710938 5.503906 C 3.589844 5.492188 3.488281 5.488281 3.371094 5.484375 C 3.359375 5.496094 3.34375 5.507812 3.332031 5.519531 C 3.300781 5.546875 3.273438 5.566406 3.242188 5.589844 C 3.210938 5.609375 3.179688 5.628906 3.144531 5.648438 C 3.113281 5.667969 3.078125 5.683594 3.042969 5.695312 C 3.011719 5.710938 2.976562 5.726562 2.9375 5.734375 C 2.902344 5.746094 2.867188 5.757812 2.828125 5.765625 C 2.792969 5.769531 2.753906 5.777344 2.71875 5.78125 C 2.679688 5.785156 2.644531 5.785156 2.605469 5.785156 C 2.578125 5.785156 2.554688 5.785156 2.527344 5.78125 C 2.488281 5.78125 2.453125 5.777344 2.414062 5.769531 C 2.378906 5.761719 2.339844 5.753906 2.304688 5.746094 C 2.269531 5.734375 2.234375 5.722656 2.199219 5.710938 C 2.164062 5.695312 2.128906 5.679688 2.097656 5.664062 C 2.0625 5.648438 2.03125 5.628906 2 5.609375 C 2 5.609375 1.996094 5.605469 1.996094 5.605469 Z M 1.996094 5.605469 "/>
<path style=" stroke:none;fill-rule:evenodd;fill:rgb(98.823529%,97.254902%,99.215686%);fill-opacity:1;" d="M 2.613281 7.945312 C 2.613281 7.957031 2.613281 7.96875 2.609375 7.980469 C 2.605469 8.046875 2.605469 8.113281 2.609375 8.179688 C 2.609375 8.246094 2.617188 8.316406 2.625 8.382812 C 2.636719 8.453125 2.648438 8.519531 2.664062 8.589844 C 2.679688 8.65625 2.699219 8.726562 2.722656 8.792969 C 2.746094 8.863281 2.773438 8.929688 2.800781 9 C 2.832031 9.066406 2.863281 9.132812 2.898438 9.199219 C 2.933594 9.265625 2.972656 9.328125 3.011719 9.390625 C 3.054688 9.457031 3.097656 9.519531 3.144531 9.578125 C 3.191406 9.640625 3.238281 9.699219 3.289062 9.753906 C 3.339844 9.8125 3.394531 9.867188 3.449219 9.917969 C 3.488281 9.957031 3.53125 9.992188 3.570312 10.027344 C 3.628906 10.078125 3.6875 10.125 3.75 10.167969 C 3.8125 10.214844 3.875 10.257812 3.9375 10.296875 C 4.003906 10.335938 4.070312 10.371094 4.136719 10.402344 C 4.203125 10.4375 4.269531 10.46875 4.335938 10.496094 C 4.40625 10.519531 4.472656 10.546875 4.542969 10.566406 C 4.609375 10.585938 4.679688 10.605469 4.746094 10.617188 C 4.816406 10.632812 4.886719 10.640625 4.953125 10.648438 C 5.023438 10.65625 5.089844 10.660156 5.15625 10.660156 C 5.222656 10.660156 5.289062 10.65625 5.355469 10.652344 C 5.417969 10.644531 5.480469 10.636719 5.542969 10.621094 C 5.605469 10.609375 5.667969 10.589844 5.726562 10.570312 C 5.785156 10.550781 5.84375 10.527344 5.898438 10.5 C 5.953125 10.476562 6.007812 10.445312 6.058594 10.414062 C 6.109375 10.378906 6.15625 10.34375 6.203125 10.304688 C 6.25 10.265625 6.292969 10.226562 6.332031 10.183594 C 6.363281 10.152344 6.390625 10.117188 6.414062 10.085938 C 6.453125 10.035156 6.484375 9.988281 6.515625 9.933594 C 6.546875 9.882812 6.574219 9.828125 6.597656 9.769531 C 6.621094 9.714844 6.644531 9.65625 6.660156 9.597656 C 6.679688 9.535156 6.695312 9.472656 6.703125 9.410156 C 6.714844 9.347656 6.722656 9.28125 6.726562 9.21875 C 6.730469 9.152344 6.734375 9.085938 6.730469 9.019531 C 6.726562 8.949219 6.722656 8.882812 6.710938 8.8125 C 6.703125 8.746094 6.691406 8.675781 6.671875 8.609375 C 6.65625 8.539062 6.636719 8.46875 6.613281 8.402344 C 6.59375 8.332031 6.566406 8.265625 6.535156 8.199219 C 6.507812 8.132812 6.476562 8.0625 6.441406 8 C 6.40625 7.933594 6.367188 7.867188 6.324219 7.804688 C 6.285156 7.742188 6.242188 7.679688 6.195312 7.617188 C 6.148438 7.558594 6.097656 7.5 6.046875 7.441406 C 5.996094 7.386719 5.945312 7.328125 5.886719 7.277344 C 5.847656 7.238281 5.808594 7.203125 5.765625 7.167969 C 5.710938 7.117188 5.648438 7.070312 5.589844 7.027344 C 5.527344 6.984375 5.464844 6.941406 5.398438 6.902344 C 5.394531 6.898438 5.386719 6.894531 5.382812 6.890625 C 5.375 6.902344 5.375 6.910156 5.367188 6.921875 C 5.175781 7.183594 4.882812 7.417969 4.550781 7.605469 C 4.214844 7.796875 3.835938 7.933594 3.46875 7.996094 C 3.15625 8.050781 2.871094 8.015625 2.613281 7.945312 Z M 2.613281 7.945312 "/>
<path style=" stroke:none;fill-rule:evenodd;fill:rgb(55.686275%,55.686275%,55.686275%);fill-opacity:1;" d="M 3.246094 9.703125 C 3.210938 9.664062 3.175781 9.621094 3.144531 9.578125 C 3.097656 9.519531 3.054688 9.457031 3.011719 9.390625 C 2.972656 9.328125 2.933594 9.265625 2.898438 9.199219 C 2.863281 9.132812 2.832031 9.066406 2.800781 9 C 2.773438 8.929688 2.746094 8.863281 2.722656 8.792969 C 2.699219 8.726562 2.679688 8.65625 2.664062 8.589844 C 2.648438 8.519531 2.636719 8.453125 2.625 8.382812 C 2.617188 8.316406 2.609375 8.246094 2.609375 8.179688 C 2.605469 8.113281 2.605469 8.046875 2.609375 7.980469 C 2.613281 7.96875 2.613281 7.957031 2.613281 7.945312 C 2.574219 7.933594 2.523438 7.945312 2.484375 7.9375 C 2.492188 7.964844 2.492188 7.992188 2.5 8.019531 C 2.515625 8.296875 2.578125 8.5625 2.671875 8.8125 C 2.769531 9.066406 2.898438 9.304688 3.058594 9.527344 C 3.109375 9.59375 3.195312 9.636719 3.246094 9.703125 Z M 3.246094 9.703125 "/>
<path style=" stroke:none;fill-rule:evenodd;fill:rgb(55.686275%,55.686275%,55.686275%);fill-opacity:1;" d="M 10.742188 10.582031 C 10.625 10.664062 10.546875 10.738281 10.421875 10.816406 C 10.1875 10.964844 9.902344 11.074219 9.636719 11.199219 C 10.070312 11.105469 10.457031 10.902344 10.742188 10.582031 Z M 10.742188 10.582031 "/>
<path style=" stroke:none;fill-rule:evenodd;fill:rgb(39.215686%,15.686275%,48.235294%);fill-opacity:1;" d="M 11.167969 5.089844 C 11.023438 4.996094 10.898438 4.878906 10.742188 4.796875 C 10.339844 4.589844 9.914062 4.421875 9.496094 4.285156 L 8.230469 5.800781 C 8.4375 5.949219 8.542969 6.308594 8.78125 6.480469 C 9.34375 6.894531 9.972656 7.246094 10.636719 7.515625 C 10.847656 7.597656 11.074219 7.613281 11.289062 7.679688 L 11.289062 5.296875 C 11.25 5.226562 11.207031 5.164062 11.167969 5.089844 Z M 11.167969 5.089844 "/>
<path style=" stroke:none;fill-rule:evenodd;fill:rgb(49.019608%,19.607843%,60.392157%);fill-opacity:1;" d="M 6.363281 1.285156 C 6.046875 1.289062 5.652344 1.421875 5.234375 1.65625 C 4.816406 1.890625 4.371094 2.226562 3.960938 2.640625 C 3.660156 2.941406 3.414062 3.316406 3.164062 3.6875 C 3.179688 3.695312 3.199219 3.703125 3.214844 3.714844 C 3.246094 3.734375 3.277344 3.757812 3.304688 3.78125 C 3.335938 3.804688 3.363281 3.828125 3.390625 3.855469 C 3.410156 3.875 3.433594 3.898438 3.453125 3.921875 C 3.457031 3.902344 3.464844 3.882812 3.472656 3.863281 C 3.492188 3.808594 3.515625 3.757812 3.539062 3.707031 C 3.566406 3.65625 3.59375 3.609375 3.625 3.5625 C 3.652344 3.515625 3.6875 3.46875 3.722656 3.425781 C 3.757812 3.378906 3.792969 3.339844 3.832031 3.296875 C 3.871094 3.257812 3.914062 3.21875 3.957031 3.183594 C 4 3.148438 4.042969 3.113281 4.089844 3.082031 C 4.136719 3.050781 4.1875 3.019531 4.234375 2.992188 C 4.285156 2.964844 4.335938 2.941406 4.386719 2.917969 C 4.4375 2.898438 4.492188 2.878906 4.546875 2.859375 C 4.597656 2.84375 4.652344 2.832031 4.707031 2.820312 C 4.761719 2.808594 4.820312 2.800781 4.875 2.792969 C 4.929688 2.789062 4.988281 2.785156 5.042969 2.785156 C 5.082031 2.785156 5.125 2.789062 5.164062 2.789062 C 5.21875 2.792969 5.277344 2.800781 5.332031 2.8125 C 5.386719 2.820312 5.441406 2.832031 5.496094 2.847656 C 5.550781 2.863281 5.601562 2.878906 5.65625 2.902344 C 5.707031 2.921875 5.757812 2.945312 5.808594 2.96875 C 5.859375 2.996094 5.910156 3.023438 5.957031 3.054688 C 6.003906 3.082031 6.046875 3.117188 6.09375 3.152344 C 6.136719 3.1875 6.179688 3.222656 6.21875 3.261719 C 6.257812 3.300781 6.296875 3.34375 6.335938 3.386719 C 6.371094 3.429688 6.40625 3.472656 6.4375 3.519531 C 6.46875 3.566406 6.496094 3.613281 6.523438 3.664062 C 6.550781 3.714844 6.574219 3.765625 6.597656 3.816406 C 6.621094 3.867188 6.640625 3.921875 6.65625 3.972656 C 6.671875 4.027344 6.6875 4.082031 6.699219 4.136719 C 6.707031 4.191406 6.71875 4.25 6.722656 4.304688 C 6.730469 4.359375 6.730469 4.417969 6.730469 4.472656 C 6.730469 4.511719 6.730469 4.554688 6.726562 4.59375 C 6.722656 4.648438 6.714844 4.703125 6.707031 4.761719 C 6.699219 4.816406 6.683594 4.871094 6.667969 4.925781 C 6.65625 4.980469 6.636719 5.03125 6.617188 5.085938 C 6.597656 5.136719 6.574219 5.1875 6.546875 5.238281 C 6.523438 5.289062 6.496094 5.335938 6.464844 5.386719 C 6.433594 5.433594 6.402344 5.476562 6.367188 5.523438 C 6.332031 5.566406 6.292969 5.609375 6.253906 5.648438 C 6.214844 5.6875 6.175781 5.726562 6.128906 5.765625 C 6.085938 5.800781 6.042969 5.835938 5.996094 5.867188 C 5.949219 5.898438 5.902344 5.925781 5.851562 5.953125 C 5.804688 5.980469 5.753906 6.003906 5.699219 6.027344 C 5.65625 6.046875 5.613281 6.0625 5.566406 6.074219 C 5.570312 6.082031 5.585938 6.085938 5.585938 6.089844 C 5.617188 6.230469 5.613281 6.375 5.574219 6.515625 C 5.535156 6.644531 5.46875 6.769531 5.382812 6.890625 C 5.386719 6.894531 5.394531 6.898438 5.398438 6.902344 C 5.464844 6.941406 5.527344 6.984375 5.589844 7.027344 C 5.648438 7.070312 5.710938 7.117188 5.765625 7.167969 C 5.808594 7.203125 5.847656 7.238281 5.886719 7.277344 C 5.945312 7.328125 5.996094 7.386719 6.046875 7.441406 C 6.097656 7.5 6.148438 7.558594 6.195312 7.617188 C 6.242188 7.679688 6.285156 7.742188 6.324219 7.804688 C 6.367188 7.867188 6.40625 7.933594 6.441406 8 C 6.476562 8.0625 6.507812 8.132812 6.535156 8.199219 C 6.566406 8.265625 6.59375 8.332031 6.613281 8.402344 C 6.636719 8.46875 6.65625 8.539062 6.671875 8.609375 C 6.691406 8.675781 6.703125 8.746094 6.710938 8.8125 C 6.722656 8.882812 6.726562 8.949219 6.730469 9.019531 C 6.734375 9.085938 6.730469 9.152344 6.726562 9.21875 C 6.722656 9.28125 6.714844 9.347656 6.703125 9.410156 C 6.695312 9.472656 6.679688 9.535156 6.660156 9.597656 C 6.644531 9.65625 6.621094 9.714844 6.597656 9.769531 C 6.574219 9.828125 6.546875 9.882812 6.515625 9.933594 C 6.484375 9.988281 6.453125 10.035156 6.414062 10.085938 C 6.390625 10.117188 6.363281 10.152344 6.332031 10.183594 C 6.292969 10.226562 6.25 10.265625 6.203125 10.304688 C 6.15625 10.34375 6.109375 10.378906 6.058594 10.414062 C 6.007812 10.445312 5.953125 10.476562 5.898438 10.5 C 5.84375 10.527344 5.785156 10.550781 5.726562 10.570312 C 5.667969 10.589844 5.605469 10.609375 5.542969 10.621094 C 5.480469 10.636719 5.417969 10.644531 5.355469 10.652344 C 5.289062 10.65625 5.222656 10.660156 5.15625 10.660156 C 5.089844 10.660156 5.023438 10.65625 4.953125 10.648438 C 4.886719 10.640625 4.816406 10.632812 4.746094 10.617188 C 4.679688 10.605469 4.609375 10.585938 4.542969 10.566406 C 4.472656 10.546875 4.40625 10.519531 4.335938 10.496094 C 4.269531 10.46875 4.203125 10.4375 4.136719 10.402344 C 4.070312 10.371094 4.003906 10.335938 3.9375 10.296875 C 3.875 10.257812 3.8125 10.214844 3.75 10.167969 C 3.738281 10.160156 3.730469 10.152344 3.71875 10.144531 C 3.917969 10.324219 4.074219 10.539062 4.300781 10.691406 C 4.683594 10.941406 5.101562 11.121094 5.515625 11.289062 L 9.199219 11.289062 C 9.351562 11.289062 9.492188 11.230469 9.636719 11.199219 C 9.902344 11.074219 10.1875 10.964844 10.421875 10.816406 C 10.546875 10.738281 10.625 10.664062 10.742188 10.582031 C 11.074219 10.210938 11.289062 9.734375 11.289062 9.199219 L 11.289062 7.679688 C 11.074219 7.613281 10.847656 7.597656 10.636719 7.515625 C 9.972656 7.246094 9.34375 6.894531 8.78125 6.480469 C 8.542969 6.308594 8.4375 5.949219 8.230469 5.800781 L 9.496094 4.285156 C 9.914062 4.421875 10.339844 4.589844 10.742188 4.796875 C 10.898438 4.878906 11.019531 4.996094 11.167969 5.089844 C 11.0625 4.898438 10.953125 4.699219 10.84375 4.539062 C 10.585938 4.160156 10.269531 3.804688 9.917969 3.472656 C 9.570312 3.144531 9.183594 2.84375 8.78125 2.570312 C 7.976562 2.027344 7.117188 1.59375 6.363281 1.285156 Z M 6.363281 1.285156 "/>
<path style=" stroke:none;fill-rule:evenodd;fill:rgb(49.019608%,19.607843%,60.392157%);fill-opacity:1;" d="M 2.285156 7.785156 C 2.089844 8.347656 1.914062 8.921875 1.855469 9.503906 C 2.121094 9.539062 2.371094 9.546875 2.601562 9.519531 C 2.746094 9.507812 2.871094 9.460938 3.003906 9.425781 C 2.875 9.230469 2.753906 9.03125 2.671875 8.8125 C 2.578125 8.5625 2.515625 8.296875 2.5 8.019531 C 2.492188 7.992188 2.492188 7.964844 2.484375 7.9375 C 2.480469 7.933594 2.476562 7.9375 2.472656 7.933594 C 2.394531 7.90625 2.34375 7.835938 2.285156 7.785156 Z M 2.285156 7.785156 "/>
<path style=" stroke:none;fill-rule:evenodd;fill:rgb(40%,40%,40%);fill-opacity:1;" d="M 2.800781 0.710938 C 1.644531 0.710938 0.710938 1.644531 0.710938 2.800781 L 0.710938 9.199219 C 0.710938 10.355469 1.644531 11.289062 2.800781 11.289062 L 5.515625 11.289062 C 5.101562 11.121094 4.683594 10.941406 4.300781 10.691406 C 4.074219 10.539062 3.917969 10.324219 3.71875 10.144531 C 3.667969 10.105469 3.617188 10.070312 3.570312 10.027344 C 3.53125 9.992188 3.488281 9.957031 3.449219 9.917969 C 3.394531 9.867188 3.339844 9.8125 3.289062 9.753906 C 3.273438 9.738281 3.261719 9.71875 3.246094 9.703125 C 3.195312 9.636719 3.109375 9.59375 3.058594 9.527344 C 3.039062 9.496094 3.027344 9.457031 3.003906 9.425781 C 2.871094 9.460938 2.746094 9.507812 2.601562 9.519531 C 2.371094 9.546875 2.121094 9.539062 1.855469 9.503906 C 1.914062 8.921875 2.089844 8.347656 2.285156 7.785156 C 2.238281 7.742188 2.179688 7.722656 2.144531 7.667969 C 2.058594 7.550781 1.996094 7.40625 1.953125 7.25 C 1.867188 6.933594 1.847656 6.5625 1.859375 6.238281 C 1.871094 5.949219 1.863281 5.761719 1.921875 5.640625 C 1.933594 5.621094 1.984375 5.625 1.996094 5.605469 C 1.964844 5.585938 1.9375 5.566406 1.90625 5.542969 C 1.878906 5.519531 1.847656 5.492188 1.824219 5.46875 C 1.796875 5.441406 1.769531 5.414062 1.746094 5.386719 C 1.722656 5.355469 1.699219 5.328125 1.675781 5.296875 C 1.65625 5.265625 1.636719 5.234375 1.617188 5.199219 C 1.601562 5.167969 1.585938 5.132812 1.570312 5.097656 C 1.554688 5.0625 1.542969 5.027344 1.53125 4.992188 C 1.519531 4.957031 1.511719 4.921875 1.503906 4.882812 C 1.496094 4.847656 1.492188 4.808594 1.488281 4.773438 C 1.484375 4.734375 1.480469 4.699219 1.480469 4.660156 C 1.480469 4.632812 1.480469 4.609375 1.484375 4.582031 C 1.488281 4.542969 1.492188 4.507812 1.496094 4.46875 C 1.503906 4.433594 1.511719 4.394531 1.523438 4.359375 C 1.53125 4.324219 1.542969 4.289062 1.558594 4.253906 C 1.570312 4.21875 1.585938 4.183594 1.605469 4.148438 C 1.621094 4.117188 1.640625 4.085938 1.660156 4.054688 C 1.679688 4.019531 1.703125 3.992188 1.726562 3.960938 C 1.75 3.933594 1.773438 3.902344 1.800781 3.878906 C 1.824219 3.851562 1.851562 3.824219 1.882812 3.800781 C 1.910156 3.777344 1.941406 3.753906 1.972656 3.730469 C 2.003906 3.710938 2.035156 3.691406 2.066406 3.671875 C 2.101562 3.65625 2.132812 3.640625 2.167969 3.625 C 2.203125 3.609375 2.238281 3.597656 2.273438 3.585938 C 2.308594 3.574219 2.347656 3.566406 2.382812 3.558594 C 2.417969 3.550781 2.457031 3.546875 2.496094 3.542969 C 2.53125 3.539062 2.570312 3.535156 2.605469 3.535156 C 2.632812 3.535156 2.660156 3.535156 2.6875 3.539062 C 2.722656 3.542969 2.761719 3.546875 2.796875 3.550781 C 2.835938 3.558594 2.871094 3.566406 2.90625 3.578125 C 2.945312 3.585938 2.980469 3.597656 3.015625 3.613281 C 3.050781 3.625 3.082031 3.640625 3.117188 3.65625 C 3.132812 3.667969 3.148438 3.675781 3.164062 3.6875 C 3.414062 3.316406 3.660156 2.941406 3.960938 2.640625 C 4.371094 2.226562 4.816406 1.890625 5.234375 1.65625 C 5.652344 1.421875 6.046875 1.289062 6.363281 1.285156 C 7.117188 1.59375 7.976562 2.027344 8.78125 2.570312 C 9.183594 2.84375 9.570312 3.144531 9.917969 3.472656 C 10.269531 3.804688 10.585938 4.160156 10.84375 4.539062 C 10.996094 4.761719 11.140625 5.035156 11.289062 5.296875 L 11.289062 2.800781 C 11.289062 1.644531 10.355469 0.710938 9.199219 0.710938 Z M 2.800781 0.710938 "/>
</g>
</svg>
