<?xml version="1.0" encoding="UTF-8"?>
<svg xmlns="http://www.w3.org/2000/svg" xmlns:xlink="http://www.w3.org/1999/xlink" width="12pt" height="12pt" viewBox="0 0 12 12" version="1.1">
<g id="surface1">
<path style=" stroke:none;fill-rule:evenodd;fill:rgb(48.235294%,75.686275%,21.176471%);fill-opacity:1;" d="M 2.800781 0.710938 L 9.199219 0.710938 C 10.351562 0.710938 11.289062 1.648438 11.289062 2.800781 L 11.289062 9.199219 C 11.289062 10.351562 10.351562 11.289062 9.199219 11.289062 L 2.800781 11.289062 C 1.648438 11.289062 0.710938 10.351562 0.710938 9.199219 L 0.710938 2.800781 C 0.710938 1.648438 1.648438 0.710938 2.800781 0.710938 Z M 2.800781 0.710938 "/>
<path style=" stroke:none;fill-rule:nonzero;fill:rgb(100%,100%,100%);fill-opacity:1;" d="M 6 4.871094 C 3.820312 4.871094 2.050781 6.183594 2.050781 7.691406 L 3.742188 7.691406 L 3.742188 9.558594 C 3.742188 9.558594 3.769531 9.949219 4.167969 9.949219 L 7.832031 9.949219 C 8.230469 9.949219 8.257812 9.558594 8.257812 9.558594 L 8.257812 7.691406 L 9.949219 7.691406 C 9.949219 6.183594 8.179688 4.871094 6 4.871094 Z M 6 4.871094 "/>
<path style=" stroke:none;fill-rule:nonzero;fill:rgb(29.803922%,29.803922%,29.803922%);fill-opacity:1;" d="M 4.871094 4.871094 L 7.128906 4.871094 L 6.847656 6 L 5.152344 6 Z M 4.871094 4.871094 "/>
<path style=" stroke:none;fill-rule:nonzero;fill:rgb(99.607843%,80.392157%,21.960784%);fill-opacity:1;" d="M 7.691406 3.742188 C 7.691406 4.679688 6.933594 5.4375 6 5.4375 C 5.066406 5.4375 4.308594 4.679688 4.308594 3.742188 C 4.308594 2.808594 5.066406 2.050781 6 2.050781 C 6.933594 2.050781 7.691406 2.808594 7.691406 3.742188 Z M 7.691406 3.742188 "/>
</g>
</svg>
