<?xml version="1.0" encoding="UTF-8"?>
<svg xmlns="http://www.w3.org/2000/svg" xmlns:xlink="http://www.w3.org/1999/xlink" width="12pt" height="12pt" viewBox="0 0 12 12" version="1.1">
<defs>
<g>
<symbol overflow="visible" id="glyph0-0">
<path style="stroke:none;" d="M 0.15625 0.53125 L 0.15625 -2.109375 L 1.65625 -2.109375 L 1.65625 0.53125 Z M 0.3125 0.359375 L 1.484375 0.359375 L 1.484375 -1.953125 L 0.3125 -1.953125 Z M 0.3125 0.359375 "/>
</symbol>
<symbol overflow="visible" id="glyph0-1">
<path style="stroke:none;" d="M 1.78125 -0.3125 L 1.78125 -0.90625 L 1.296875 -0.90625 L 1.296875 -1.140625 L 2.078125 -1.140625 L 2.078125 -0.203125 C 1.960938 -0.117188 1.835938 -0.0546875 1.703125 -0.015625 C 1.566406 0.0234375 1.421875 0.046875 1.265625 0.046875 C 0.921875 0.046875 0.648438 -0.0507812 0.453125 -0.25 C 0.265625 -0.457031 0.171875 -0.738281 0.171875 -1.09375 C 0.171875 -1.445312 0.265625 -1.722656 0.453125 -1.921875 C 0.648438 -2.128906 0.921875 -2.234375 1.265625 -2.234375 C 1.398438 -2.234375 1.53125 -2.210938 1.65625 -2.171875 C 1.789062 -2.140625 1.910156 -2.085938 2.015625 -2.015625 L 2.015625 -1.703125 C 1.910156 -1.796875 1.796875 -1.863281 1.671875 -1.90625 C 1.546875 -1.957031 1.414062 -1.984375 1.28125 -1.984375 C 1.019531 -1.984375 0.820312 -1.90625 0.6875 -1.75 C 0.550781 -1.601562 0.484375 -1.382812 0.484375 -1.09375 C 0.484375 -0.800781 0.550781 -0.578125 0.6875 -0.421875 C 0.820312 -0.273438 1.019531 -0.203125 1.28125 -0.203125 C 1.382812 -0.203125 1.476562 -0.207031 1.5625 -0.21875 C 1.644531 -0.238281 1.71875 -0.269531 1.78125 -0.3125 Z M 1.78125 -0.3125 "/>
</symbol>
</g>
</defs>
<g id="surface1">
<path style=" stroke:none;fill-rule:evenodd;fill:rgb(29.411765%,68.235294%,30.980392%);fill-opacity:1;" d="M 2.800781 0.710938 L 9.199219 0.710938 C 10.351562 0.710938 11.289062 1.648438 11.289062 2.800781 L 11.289062 9.199219 C 11.289062 10.351562 10.351562 11.289062 9.199219 11.289062 L 2.800781 11.289062 C 1.648438 11.289062 0.710938 10.351562 0.710938 9.199219 L 0.710938 2.800781 C 0.710938 1.648438 1.648438 0.710938 2.800781 0.710938 Z M 2.800781 0.710938 "/>
<path style=" stroke:none;fill-rule:nonzero;fill:rgb(100%,100%,100%);fill-opacity:1;" d="M 9.113281 9.199219 C 9.011719 9.164062 8.898438 9.097656 8.835938 9.027344 C 8.796875 8.988281 8.769531 8.953125 8.769531 8.945312 C 8.769531 8.9375 8.863281 8.878906 8.984375 8.8125 C 9.101562 8.746094 9.214844 8.679688 9.238281 8.667969 C 9.257812 8.65625 9.375 8.589844 9.496094 8.523438 L 9.714844 8.394531 L 9.746094 8.464844 C 9.792969 8.566406 9.792969 8.75 9.742188 8.878906 C 9.699219 8.996094 9.605469 9.09375 9.472656 9.160156 C 9.382812 9.207031 9.191406 9.226562 9.113281 9.199219 Z M 8.625 8.695312 C 8.574219 8.605469 8.386719 8.285156 8.332031 8.183594 C 8.304688 8.136719 8.234375 8.015625 8.175781 7.914062 C 8.019531 7.652344 7.9375 7.496094 7.945312 7.488281 C 7.953125 7.480469 8.117188 7.382812 8.320312 7.269531 C 8.519531 7.152344 8.726562 7.035156 8.78125 7 L 8.882812 6.941406 L 8.984375 7.117188 C 9.042969 7.214844 9.125 7.359375 9.171875 7.4375 C 9.214844 7.515625 9.296875 7.65625 9.351562 7.753906 C 9.585938 8.160156 9.613281 8.207031 9.597656 8.222656 C 9.582031 8.234375 9.359375 8.367188 9.132812 8.492188 C 9.09375 8.515625 8.976562 8.582031 8.871094 8.644531 C 8.761719 8.707031 8.671875 8.757812 8.667969 8.757812 C 8.664062 8.757812 8.644531 8.730469 8.625 8.695312 Z M 7.046875 7.355469 C 6.292969 7.308594 5.648438 6.890625 5.253906 6.195312 C 5.191406 6.078125 5.097656 5.828125 5.050781 5.648438 C 4.992188 5.402344 4.992188 4.90625 5.054688 4.65625 C 5.160156 4.21875 5.347656 3.886719 5.65625 3.582031 C 5.980469 3.265625 6.324219 3.078125 6.757812 2.988281 C 7.898438 2.75 9.011719 3.414062 9.339844 4.527344 C 9.570312 5.296875 9.355469 6.144531 8.789062 6.710938 C 8.386719 7.109375 7.917969 7.320312 7.332031 7.363281 C 7.296875 7.367188 7.167969 7.363281 7.046875 7.355469 Z M 7.675781 6.945312 C 8.6875 6.691406 9.292969 5.628906 8.996094 4.636719 C 8.824219 4.066406 8.421875 3.632812 7.871094 3.421875 C 7.390625 3.238281 6.78125 3.277344 6.34375 3.519531 C 6.15625 3.621094 6.070312 3.6875 5.917969 3.839844 C 5.703125 4.054688 5.597656 4.210938 5.492188 4.46875 C 5.214844 5.167969 5.390625 5.964844 5.933594 6.484375 C 6.410156 6.941406 7.039062 7.109375 7.675781 6.945312 Z M 7.675781 6.945312 "/>
<g style="fill:rgb(77.647059%,98.431373%,81.176471%);fill-opacity:1;">
  <use xlink:href="#glyph0-1" x="5.792969" y="6.299561"/>
</g>
<path style=" stroke:none;fill-rule:nonzero;fill:rgb(77.647059%,98.431373%,81.176471%);fill-opacity:1;" d="M 2.308594 5.269531 C 2.1875 5.195312 2.191406 4.945312 2.308594 4.871094 C 2.347656 4.851562 2.546875 4.847656 3.398438 4.847656 L 4.441406 4.847656 L 4.429688 4.890625 C 4.425781 4.914062 4.414062 5.003906 4.40625 5.089844 C 4.398438 5.175781 4.390625 5.257812 4.386719 5.273438 C 4.378906 5.308594 2.367188 5.304688 2.308594 5.269531 Z M 2.292969 4.234375 C 2.253906 4.207031 2.21875 4.117188 2.21875 4.03125 C 2.21875 3.976562 2.230469 3.945312 2.265625 3.894531 L 2.3125 3.828125 L 3.539062 3.828125 C 4.214844 3.828125 4.765625 3.832031 4.765625 3.839844 C 4.765625 3.847656 4.738281 3.910156 4.703125 3.984375 C 4.671875 4.054688 4.632812 4.144531 4.621094 4.183594 L 4.597656 4.257812 L 3.460938 4.257812 C 2.722656 4.257812 2.3125 4.25 2.292969 4.234375 Z M 2.304688 3.21875 C 2.257812 3.191406 2.21875 3.105469 2.21875 3.015625 C 2.21875 2.910156 2.277344 2.820312 2.351562 2.800781 C 2.425781 2.785156 5.804688 2.785156 5.804688 2.804688 C 5.804688 2.8125 5.761719 2.839844 5.707031 2.863281 C 5.589844 2.914062 5.402344 3.046875 5.285156 3.160156 L 5.203125 3.238281 L 3.769531 3.238281 C 2.980469 3.238281 2.324219 3.230469 2.304688 3.21875 Z M 2.304688 3.21875 "/>
</g>
</svg>
