<?xml version="1.0" encoding="UTF-8"?>
<svg xmlns="http://www.w3.org/2000/svg" xmlns:xlink="http://www.w3.org/1999/xlink" width="12pt" height="12pt" viewBox="0 0 12 12" version="1.1">
<defs>
<clipPath id="clip1">
  <rect width="12" height="12"/>
</clipPath>
<g id="surface6" clip-path="url(#clip1)">
<path style=" stroke:none;fill-rule:nonzero;fill:rgb(18.039216%,67.45098%,26.27451%);fill-opacity:1;" d="M 10.515625 8.308594 C 10.515625 9.550781 9.507812 10.558594 8.265625 10.558594 C 7.023438 10.558594 6.015625 9.550781 6.015625 8.308594 C 6.015625 7.066406 7.023438 6.058594 8.265625 6.058594 C 9.507812 6.058594 10.515625 7.066406 10.515625 8.308594 Z M 10.515625 8.308594 "/>
</g>
</defs>
<g id="surface1">
<path style=" stroke:none;fill-rule:evenodd;fill:rgb(9.019608%,52.156863%,15.686275%);fill-opacity:1;" d="M 2.800781 0.710938 L 9.199219 0.710938 C 10.351562 0.710938 11.289062 1.648438 11.289062 2.800781 L 11.289062 9.199219 C 11.289062 10.351562 10.351562 11.289062 9.199219 11.289062 L 2.800781 11.289062 C 1.648438 11.289062 0.710938 10.351562 0.710938 9.199219 L 0.710938 2.800781 C 0.710938 1.648438 1.648438 0.710938 2.800781 0.710938 Z M 2.800781 0.710938 "/>
<path style=" stroke:none;fill-rule:nonzero;fill:rgb(100%,100%,100%);fill-opacity:1;" d="M 7.382812 6.355469 C 7.382812 7.0625 6.8125 7.636719 6.105469 7.636719 C 5.398438 7.636719 4.824219 7.0625 4.824219 6.355469 C 4.824219 5.648438 5.398438 5.078125 6.105469 5.078125 C 6.8125 5.078125 7.382812 5.648438 7.382812 6.355469 Z M 7.382812 6.355469 "/>
<path style=" stroke:none;fill-rule:nonzero;fill:rgb(51.764706%,51.764706%,51.764706%);fill-opacity:1;" d="M 6 3.984375 C 4.886719 3.984375 3.984375 4.886719 3.984375 6 C 3.984375 7.113281 4.886719 8.015625 6 8.015625 C 7.113281 8.015625 8.015625 7.113281 8.015625 6 C 8.015625 4.886719 7.113281 3.984375 6 3.984375 Z M 6 5.195312 C 6.445312 5.195312 6.804688 5.554688 6.804688 6 C 6.804688 6.445312 6.445312 6.804688 6 6.804688 C 5.554688 6.804688 5.195312 6.445312 5.195312 6 C 5.195312 5.554688 5.554688 5.195312 6 5.195312 Z M 6 5.195312 "/>
<path style=" stroke:none;fill-rule:nonzero;fill:rgb(80%,80%,80%);fill-opacity:1;" d="M 6 1.96875 C 3.765625 1.96875 1.96875 3.765625 1.96875 6 C 1.96875 8.234375 3.765625 10.03125 6 10.03125 C 8.234375 10.03125 10.03125 8.234375 10.03125 6 C 10.03125 3.765625 8.234375 1.96875 6 1.96875 Z M 6 4.386719 C 6.890625 4.386719 7.613281 5.109375 7.613281 6 C 7.613281 6.890625 6.890625 7.613281 6 7.613281 C 5.109375 7.613281 4.386719 6.890625 4.386719 6 C 4.386719 5.109375 5.109375 4.386719 6 4.386719 Z M 6 4.386719 "/>
<use xlink:href="#surface6"/>
<path style=" stroke:none;fill-rule:nonzero;fill:rgb(100%,100%,100%);fill-opacity:1;" d="M 8.828125 9.292969 C 8.828125 9.679688 8.511719 9.996094 8.125 9.996094 C 7.738281 9.996094 7.421875 9.679688 7.421875 9.292969 C 7.421875 8.902344 7.738281 8.589844 8.125 8.589844 C 8.511719 8.589844 8.828125 8.902344 8.828125 9.292969 Z M 8.828125 9.292969 "/>
<path style=" stroke:none;fill-rule:nonzero;fill:rgb(100%,100%,100%);fill-opacity:1;" d="M 8.546875 7.183594 C 8.703125 7.183594 8.828125 7.308594 8.828125 7.464844 L 8.828125 9.152344 C 8.828125 9.308594 8.703125 9.433594 8.546875 9.433594 C 8.390625 9.433594 8.265625 9.308594 8.265625 9.152344 L 8.265625 7.464844 C 8.265625 7.308594 8.390625 7.183594 8.546875 7.183594 Z M 8.546875 7.183594 "/>
</g>
</svg>
