<?xml version="1.0" encoding="UTF-8"?>
<svg xmlns="http://www.w3.org/2000/svg" xmlns:xlink="http://www.w3.org/1999/xlink" width="12pt" height="12pt" viewBox="0 0 12 12" version="1.1">
<g id="surface1">
<path style=" stroke:none;fill-rule:evenodd;fill:rgb(100%,77.254902%,26.27451%);fill-opacity:1;" d="M 2.800781 0.710938 L 9.199219 0.710938 C 10.351562 0.710938 11.289062 1.648438 11.289062 2.800781 L 11.289062 9.199219 C 11.289062 10.351562 10.351562 11.289062 9.199219 11.289062 L 2.800781 11.289062 C 1.648438 11.289062 0.710938 10.351562 0.710938 9.199219 L 0.710938 2.800781 C 0.710938 1.648438 1.648438 0.710938 2.800781 0.710938 Z M 2.800781 0.710938 "/>
<path style=" stroke:none;fill-rule:nonzero;fill:rgb(100%,31.764706%,0%);fill-opacity:1;" d="M 4.5 7.125 C 4.5 7.953125 3.828125 8.625 3 8.625 C 2.171875 8.625 1.5 7.953125 1.5 7.125 C 1.5 6.296875 2.171875 5.625 3 5.625 C 3.828125 5.625 4.5 6.296875 4.5 7.125 Z M 4.5 7.125 "/>
<path style=" stroke:none;fill-rule:nonzero;fill:rgb(30.196078%,30.196078%,30.196078%);fill-opacity:1;" d="M 1.5 2.625 L 10.5 2.625 L 10.5 4.5 L 1.5 4.5 Z M 1.5 2.625 "/>
<path style=" stroke:none;fill-rule:nonzero;fill:rgb(100%,31.764706%,0%);fill-opacity:1;" d="M 4.875 3 L 4.875 4.5 L 3.75 4.5 L 3.75 3 Z M 4.875 3 "/>
<path style=" stroke:none;fill-rule:nonzero;fill:rgb(30.196078%,30.196078%,30.196078%);fill-opacity:1;" d="M 6.9375 5.25 C 6.625 5.25 6.375 5.5 6.375 5.8125 C 6.375 6.125 6.625 6.375 6.9375 6.375 C 7.25 6.375 7.5 6.125 7.5 5.8125 C 7.5 5.5 7.25 5.25 6.9375 5.25 Z M 8.4375 5.25 C 8.125 5.25 7.875 5.5 7.875 5.8125 C 7.875 6.125 8.125 6.375 8.4375 6.375 C 8.75 6.375 9 6.125 9 5.8125 C 9 5.5 8.75 5.25 8.4375 5.25 Z M 9.9375 5.25 C 9.625 5.25 9.375 5.5 9.375 5.8125 C 9.375 6.125 9.625 6.375 9.9375 6.375 C 10.25 6.375 10.5 6.125 10.5 5.8125 C 10.5 5.5 10.25 5.25 9.9375 5.25 Z M 6.9375 6.75 C 6.625 6.75 6.375 7 6.375 7.3125 C 6.375 7.625 6.625 7.875 6.9375 7.875 C 7.25 7.875 7.5 7.625 7.5 7.3125 C 7.5 7 7.25 6.75 6.9375 6.75 Z M 8.4375 6.75 C 8.125 6.75 7.875 7 7.875 7.3125 C 7.875 7.625 8.125 7.875 8.4375 7.875 C 8.75 7.875 9 7.625 9 7.3125 C 9 7 8.75 6.75 8.4375 6.75 Z M 9.9375 6.75 C 9.625 6.75 9.375 7 9.375 7.3125 C 9.375 7.625 9.625 7.875 9.9375 7.875 C 10.25 7.875 10.5 7.625 10.5 7.3125 C 10.5 7 10.25 6.75 9.9375 6.75 Z M 6.9375 8.25 C 6.625 8.25 6.375 8.5 6.375 8.8125 C 6.375 9.125 6.625 9.375 6.9375 9.375 C 7.25 9.375 7.5 9.125 7.5 8.8125 C 7.5 8.5 7.25 8.25 6.9375 8.25 Z M 8.4375 8.25 C 8.125 8.25 7.875 8.5 7.875 8.8125 C 7.875 9.125 8.125 9.375 8.4375 9.375 C 8.75 9.375 9 9.125 9 8.8125 C 9 8.5 8.75 8.25 8.4375 8.25 Z M 9.9375 8.25 C 9.625 8.25 9.375 8.5 9.375 8.8125 C 9.375 9.125 9.625 9.375 9.9375 9.375 C 10.25 9.375 10.5 9.125 10.5 8.8125 C 10.5 8.5 10.25 8.25 9.9375 8.25 Z M 9.9375 8.25 "/>
</g>
</svg>
