<?xml version="1.0" encoding="UTF-8"?>
<svg xmlns="http://www.w3.org/2000/svg" xmlns:xlink="http://www.w3.org/1999/xlink" width="12pt" height="12pt" viewBox="0 0 12 12" version="1.1">
<g id="surface1">
<path style=" stroke:none;fill-rule:evenodd;fill:rgb(15.686275%,35.686275%,12.156863%);fill-opacity:1;" d="M 2.800781 0.710938 L 9.199219 0.710938 C 10.351562 0.710938 11.289062 1.648438 11.289062 2.800781 L 11.289062 9.199219 C 11.289062 10.351562 10.351562 11.289062 9.199219 11.289062 L 2.800781 11.289062 C 1.648438 11.289062 0.710938 10.351562 0.710938 9.199219 L 0.710938 2.800781 C 0.710938 1.648438 1.648438 0.710938 2.800781 0.710938 Z M 2.800781 0.710938 "/>
<path style=" stroke:none;fill-rule:nonzero;fill:rgb(100%,100%,100%);fill-opacity:1;" d="M 8.234375 8.078125 C 6.761719 9.75 5.480469 9.699219 4.601562 8.933594 C 3.28125 7.785156 2.058594 3.601562 2.757812 2.8125 C 3.453125 2.019531 7.835938 3.226562 8.777344 4.101562 C 9.714844 4.976562 9.78125 6.316406 8.234375 8.078125 Z M 8.234375 8.078125 "/>
<path style=" stroke:none;fill-rule:nonzero;fill:rgb(71.764706%,81.960784%,38.039216%);fill-opacity:1;" d="M 5.144531 5.015625 C 4.792969 5.015625 4.523438 5.113281 4.324219 5.308594 C 4.128906 5.503906 4.03125 5.773438 4.03125 6.125 C 4.03125 6.472656 4.128906 6.742188 4.324219 6.9375 C 4.523438 7.132812 4.792969 7.230469 5.144531 7.230469 C 5.300781 7.230469 5.453125 7.210938 5.59375 7.171875 C 5.734375 7.128906 5.882812 7.070312 6 6.992188 L 6 6 L 5.261719 6 L 5.261719 6.246094 L 5.753906 6.246094 L 5.753906 6.882812 C 5.6875 6.921875 5.609375 6.949219 5.527344 6.96875 C 5.445312 6.984375 5.273438 6.992188 5.167969 6.992188 C 4.894531 6.992188 4.628906 6.921875 4.492188 6.773438 C 4.355469 6.628906 4.277344 6.410156 4.277344 6.125 C 4.277344 5.835938 4.355469 5.617188 4.492188 5.472656 C 4.628906 5.324219 4.894531 5.253906 5.167969 5.253906 C 5.308594 5.253906 5.402344 5.277344 5.527344 5.320312 C 5.652344 5.367188 5.765625 5.433594 5.875 5.527344 L 5.875 5.21875 C 5.765625 5.152344 5.652344 5.101562 5.519531 5.066406 C 5.390625 5.03125 5.289062 5.015625 5.144531 5.015625 Z M 6.492188 5.015625 L 6.492188 7.230469 L 6.738281 7.230469 L 6.738281 6.492188 L 7.171875 6.492188 C 7.421875 6.488281 7.648438 6.441406 7.777344 6.335938 C 7.902344 6.226562 7.96875 5.992188 7.96875 5.78125 C 7.96875 5.574219 7.902344 5.292969 7.777344 5.183594 C 7.648438 5.074219 7.421875 5.015625 7.171875 5.015625 Z M 6.738281 5.261719 L 7.195312 5.261719 C 7.363281 5.257812 7.492188 5.296875 7.585938 5.363281 C 7.675781 5.433594 7.722656 5.652344 7.722656 5.777344 C 7.722656 5.902344 7.675781 6.074219 7.585938 6.144531 C 7.492188 6.210938 7.363281 6.246094 7.195312 6.246094 L 6.738281 6.246094 Z M 6.738281 5.261719 "/>
</g>
</svg>
