<?xml version="1.0" encoding="UTF-8"?>
<svg xmlns="http://www.w3.org/2000/svg" xmlns:xlink="http://www.w3.org/1999/xlink" width="12pt" height="12pt" viewBox="0 0 12 12" version="1.1">
<g id="surface1">
<path style=" stroke:none;fill-rule:evenodd;fill:rgb(30.980392%,30.980392%,30.980392%);fill-opacity:1;" d="M 2.800781 0.710938 L 9.199219 0.710938 C 10.351562 0.710938 11.289062 1.648438 11.289062 2.800781 L 11.289062 9.199219 C 11.289062 10.351562 10.351562 11.289062 9.199219 11.289062 L 2.800781 11.289062 C 1.648438 11.289062 0.710938 10.351562 0.710938 9.199219 L 0.710938 2.800781 C 0.710938 1.648438 1.648438 0.710938 2.800781 0.710938 Z M 2.800781 0.710938 "/>
<path style=" stroke:none;fill-rule:nonzero;fill:rgb(70.588235%,70.588235%,70.588235%);fill-opacity:1;" d="M 2.632812 3.375 L 2.652344 3.53125 C 2.683594 3.820312 2.722656 3.910156 2.820312 3.960938 C 2.867188 3.988281 2.917969 4.042969 2.929688 4.085938 C 2.949219 4.167969 3.003906 4.191406 3.003906 4.117188 C 3.003906 4.089844 2.949219 3.960938 2.878906 3.832031 C 2.8125 3.699219 2.753906 3.578125 2.753906 3.558594 C 2.753906 3.542969 2.726562 3.496094 2.695312 3.453125 Z M 9.367188 3.375 L 9.304688 3.453125 C 9.273438 3.496094 9.246094 3.542969 9.246094 3.558594 C 9.242188 3.578125 9.1875 3.699219 9.121094 3.832031 C 9.050781 3.960938 8.996094 4.089844 8.996094 4.117188 C 8.996094 4.191406 9.050781 4.167969 9.070312 4.085938 C 9.082031 4.042969 9.132812 3.988281 9.179688 3.960938 C 9.277344 3.910156 9.3125 3.820312 9.347656 3.53125 Z M 2.316406 3.546875 C 2.296875 3.546875 2.292969 3.566406 2.308594 3.597656 C 2.359375 3.722656 2.359375 3.792969 2.308594 3.792969 C 2.28125 3.792969 2.261719 3.800781 2.261719 3.816406 C 2.261719 3.863281 2.363281 3.980469 2.425781 4.007812 C 2.503906 4.039062 2.570312 4.046875 2.570312 4.023438 C 2.570312 4.015625 2.554688 3.980469 2.539062 3.953125 C 2.523438 3.921875 2.496094 3.839844 2.476562 3.769531 C 2.445312 3.640625 2.375 3.546875 2.316406 3.546875 Z M 9.683594 3.546875 C 9.621094 3.546875 9.554688 3.640625 9.523438 3.769531 C 9.503906 3.839844 9.476562 3.921875 9.460938 3.953125 C 9.441406 3.980469 9.429688 4.015625 9.429688 4.023438 C 9.429688 4.046875 9.496094 4.039062 9.574219 4.007812 C 9.636719 3.980469 9.738281 3.863281 9.738281 3.816406 C 9.738281 3.800781 9.714844 3.792969 9.6875 3.792969 C 9.636719 3.792969 9.640625 3.722656 9.691406 3.597656 C 9.707031 3.566406 9.703125 3.546875 9.683594 3.546875 Z M 5.988281 3.621094 C 6 3.648438 5.992188 3.667969 5.964844 3.667969 C 5.863281 3.667969 5.824219 4.039062 5.902344 4.269531 C 5.921875 4.332031 5.921875 4.332031 5.882812 4.269531 C 5.820312 4.167969 5.722656 4.070312 5.683594 4.070312 C 5.660156 4.070312 5.632812 4.109375 5.621094 4.160156 C 5.609375 4.210938 5.589844 4.253906 5.570312 4.253906 C 5.554688 4.253906 5.550781 4.242188 5.558594 4.222656 C 5.570312 4.207031 5.566406 4.171875 5.550781 4.140625 C 5.523438 4.09375 5.519531 4.097656 5.488281 4.15625 C 5.457031 4.207031 5.460938 4.246094 5.496094 4.335938 C 5.558594 4.476562 5.558594 4.5 5.496094 4.5 C 5.429688 4.5 5.457031 4.574219 5.527344 4.589844 C 5.585938 4.601562 5.699219 4.511719 5.699219 4.453125 C 5.699219 4.429688 5.714844 4.402344 5.734375 4.390625 C 5.78125 4.363281 5.835938 4.425781 5.804688 4.476562 C 5.789062 4.496094 5.777344 4.527344 5.777344 4.535156 C 5.777344 4.546875 5.738281 4.589844 5.691406 4.625 C 5.578125 4.710938 5.582031 4.851562 5.695312 4.867188 C 5.738281 4.871094 5.761719 4.863281 5.75 4.847656 C 5.738281 4.828125 5.761719 4.828125 5.804688 4.847656 C 5.84375 4.867188 5.890625 4.921875 5.910156 4.96875 C 5.941406 4.96875 5.972656 4.964844 6 4.957031 C 6.027344 4.964844 6.058594 4.96875 6.089844 4.96875 C 6.109375 4.921875 6.15625 4.867188 6.195312 4.847656 C 6.238281 4.828125 6.261719 4.828125 6.25 4.847656 C 6.238281 4.863281 6.261719 4.871094 6.304688 4.867188 C 6.417969 4.851562 6.417969 4.710938 6.308594 4.625 C 6.261719 4.589844 6.222656 4.546875 6.222656 4.535156 C 6.222656 4.527344 6.210938 4.496094 6.195312 4.476562 C 6.164062 4.425781 6.21875 4.363281 6.265625 4.390625 C 6.285156 4.402344 6.300781 4.429688 6.300781 4.453125 C 6.300781 4.511719 6.410156 4.601562 6.472656 4.589844 C 6.542969 4.574219 6.566406 4.5 6.503906 4.5 C 6.441406 4.5 6.441406 4.476562 6.5 4.335938 C 6.539062 4.246094 6.539062 4.207031 6.511719 4.15625 C 6.480469 4.097656 6.476562 4.09375 6.449219 4.140625 C 6.433594 4.171875 6.429688 4.207031 6.4375 4.222656 C 6.449219 4.242188 6.445312 4.253906 6.425781 4.253906 C 6.410156 4.253906 6.386719 4.210938 6.378906 4.160156 C 6.367188 4.109375 6.339844 4.070312 6.316406 4.070312 C 6.277344 4.070312 6.179688 4.167969 6.117188 4.269531 C 6.078125 4.332031 6.078125 4.332031 6.097656 4.269531 C 6.175781 4.039062 6.136719 3.667969 6.03125 3.667969 C 6.007812 3.667969 6 3.648438 6.007812 3.621094 C 6.007812 3.625 6.003906 3.628906 6 3.632812 C 5.996094 3.628906 5.992188 3.625 5.988281 3.621094 Z M 1.910156 3.707031 C 1.851562 3.726562 1.871094 4.113281 1.933594 4.210938 C 1.984375 4.285156 1.984375 4.292969 1.9375 4.273438 C 1.875 4.25 1.875 4.292969 1.933594 4.402344 C 2 4.527344 2.132812 4.640625 2.34375 4.746094 C 2.453125 4.796875 2.539062 4.847656 2.539062 4.851562 C 2.539062 4.886719 2.242188 4.800781 2.175781 4.75 C 2.054688 4.652344 1.996094 4.667969 2.078125 4.777344 C 2.113281 4.824219 2.136719 4.886719 2.128906 4.914062 C 2.109375 4.964844 2.191406 5.046875 2.355469 5.144531 C 2.488281 5.226562 2.519531 5.226562 2.492188 5.148438 C 2.46875 5.066406 2.480469 5.070312 2.570312 5.164062 C 2.632812 5.230469 2.636719 5.242188 2.585938 5.222656 C 2.542969 5.207031 2.535156 5.210938 2.554688 5.242188 C 2.578125 5.28125 2.527344 5.277344 2.34375 5.222656 C 2.292969 5.207031 2.289062 5.214844 2.308594 5.277344 C 2.359375 5.4375 2.441406 5.511719 2.644531 5.566406 C 2.753906 5.597656 2.835938 5.636719 2.828125 5.648438 C 2.808594 5.679688 2.601562 5.644531 2.546875 5.605469 C 2.492188 5.558594 2.496094 5.671875 2.554688 5.753906 C 2.605469 5.828125 2.8125 5.933594 3.066406 6.015625 L 3.234375 6.070312 L 3.082031 6.054688 C 2.996094 6.046875 2.890625 6.035156 2.84375 6.027344 C 2.777344 6.019531 2.765625 6.023438 2.777344 6.074219 C 2.800781 6.164062 2.960938 6.285156 3.074219 6.304688 C 3.128906 6.3125 3.242188 6.332031 3.328125 6.34375 L 3.484375 6.371094 L 3.34375 6.410156 C 3.269531 6.433594 3.152344 6.445312 3.085938 6.433594 C 2.972656 6.417969 2.96875 6.421875 3.011719 6.484375 C 3.074219 6.578125 3.226562 6.660156 3.398438 6.691406 L 3.546875 6.71875 L 3.367188 6.707031 C 3.269531 6.703125 3.191406 6.707031 3.191406 6.71875 C 3.191406 6.734375 3.226562 6.78125 3.273438 6.828125 C 3.359375 6.914062 3.394531 6.917969 3.730469 6.910156 L 3.949219 6.90625 L 3.761719 6.988281 C 3.539062 7.085938 3.5 7.117188 3.5625 7.15625 C 3.597656 7.179688 3.585938 7.203125 3.496094 7.300781 C 3.433594 7.363281 3.332031 7.484375 3.265625 7.570312 C 2.976562 7.957031 2.824219 8.078125 2.640625 8.078125 C 2.480469 8.078125 2.464844 8.128906 2.617188 8.160156 C 2.769531 8.1875 2.972656 8.152344 3.140625 8.066406 C 3.34375 7.964844 3.332031 8.019531 3.113281 8.1875 C 3.050781 8.234375 3.050781 8.238281 3.128906 8.21875 C 3.171875 8.207031 3.273438 8.15625 3.351562 8.109375 C 3.507812 8.015625 3.53125 8.011719 3.449219 8.09375 C 3.378906 8.164062 3.421875 8.191406 3.523438 8.140625 C 3.570312 8.117188 3.632812 8.101562 3.660156 8.105469 C 3.691406 8.109375 3.78125 8.054688 3.859375 7.980469 C 3.941406 7.90625 3.992188 7.875 3.972656 7.914062 C 3.953125 7.949219 3.914062 7.996094 3.886719 8.015625 C 3.863281 8.039062 3.839844 8.070312 3.839844 8.082031 C 3.839844 8.144531 3.914062 8.101562 4.070312 7.953125 C 4.167969 7.863281 4.246094 7.8125 4.257812 7.832031 C 4.269531 7.847656 4.261719 7.863281 4.242188 7.863281 C 4.222656 7.863281 4.214844 7.886719 4.222656 7.910156 C 4.234375 7.9375 4.222656 7.957031 4.195312 7.957031 C 4.171875 7.957031 4.152344 7.96875 4.152344 7.984375 C 4.152344 8.046875 4.339844 7.945312 4.382812 7.859375 C 4.445312 7.746094 4.464844 7.746094 4.4375 7.867188 C 4.425781 7.9375 4.429688 7.960938 4.457031 7.945312 C 4.476562 7.933594 4.492188 7.902344 4.492188 7.875 C 4.492188 7.851562 4.515625 7.832031 4.542969 7.839844 C 4.582031 7.84375 4.625 7.800781 4.683594 7.695312 C 4.75 7.570312 4.769531 7.554688 4.769531 7.613281 C 4.769531 7.671875 4.78125 7.683594 4.832031 7.671875 C 4.882812 7.65625 4.875 7.675781 4.789062 7.78125 C 4.675781 7.917969 4.613281 8.078125 4.675781 8.078125 C 4.691406 8.078125 4.707031 8.066406 4.707031 8.050781 C 4.707031 8.035156 4.753906 8.007812 4.808594 7.988281 L 4.910156 7.957031 L 4.808594 8.035156 C 4.667969 8.144531 4.523438 8.40625 4.523438 8.542969 C 4.527344 8.640625 4.53125 8.644531 4.5625 8.59375 C 4.664062 8.429688 4.796875 8.320312 5.019531 8.207031 L 5.265625 8.085938 L 5.265625 8.175781 C 5.265625 8.226562 5.28125 8.265625 5.296875 8.265625 C 5.3125 8.265625 5.328125 8.238281 5.328125 8.203125 C 5.328125 8.167969 5.355469 8.085938 5.390625 8.019531 C 5.464844 7.875 5.882812 7.542969 6 7.527344 C 6.113281 7.535156 6.535156 7.871094 6.609375 8.019531 C 6.644531 8.085938 6.671875 8.167969 6.671875 8.203125 C 6.671875 8.238281 6.6875 8.265625 6.703125 8.265625 C 6.71875 8.265625 6.734375 8.226562 6.734375 8.175781 L 6.734375 8.085938 L 6.980469 8.207031 C 7.203125 8.320312 7.332031 8.429688 7.4375 8.59375 C 7.46875 8.644531 7.472656 8.640625 7.476562 8.542969 C 7.476562 8.40625 7.332031 8.148438 7.191406 8.035156 L 7.089844 7.957031 L 7.191406 7.988281 C 7.246094 8.007812 7.292969 8.035156 7.292969 8.050781 C 7.292969 8.066406 7.304688 8.078125 7.324219 8.078125 C 7.386719 8.078125 7.324219 7.917969 7.210938 7.78125 C 7.125 7.675781 7.117188 7.65625 7.167969 7.671875 C 7.214844 7.683594 7.230469 7.671875 7.230469 7.613281 C 7.230469 7.554688 7.25 7.574219 7.316406 7.695312 C 7.375 7.800781 7.417969 7.84375 7.453125 7.839844 C 7.484375 7.835938 7.507812 7.851562 7.507812 7.875 C 7.507812 7.902344 7.523438 7.933594 7.542969 7.945312 C 7.570312 7.960938 7.574219 7.9375 7.558594 7.867188 C 7.535156 7.746094 7.554688 7.746094 7.613281 7.859375 C 7.660156 7.945312 7.847656 8.046875 7.847656 7.984375 C 7.847656 7.96875 7.828125 7.957031 7.804688 7.957031 C 7.777344 7.957031 7.765625 7.9375 7.777344 7.910156 C 7.785156 7.886719 7.777344 7.863281 7.757812 7.863281 C 7.738281 7.863281 7.730469 7.847656 7.742188 7.832031 C 7.753906 7.8125 7.832031 7.863281 7.929688 7.953125 C 8.085938 8.101562 8.160156 8.144531 8.160156 8.085938 C 8.160156 8.070312 8.136719 8.039062 8.113281 8.015625 C 8.085938 7.996094 8.046875 7.949219 8.027344 7.914062 C 8.007812 7.875 8.058594 7.90625 8.140625 7.980469 C 8.21875 8.054688 8.308594 8.109375 8.339844 8.105469 C 8.367188 8.101562 8.429688 8.117188 8.476562 8.140625 C 8.578125 8.191406 8.621094 8.164062 8.550781 8.09375 C 8.46875 8.011719 8.492188 8.015625 8.648438 8.109375 C 8.726562 8.15625 8.828125 8.207031 8.871094 8.21875 C 8.945312 8.238281 8.949219 8.234375 8.886719 8.1875 C 8.667969 8.019531 8.65625 7.964844 8.859375 8.066406 C 9.023438 8.152344 9.230469 8.1875 9.382812 8.160156 C 9.535156 8.128906 9.519531 8.078125 9.359375 8.078125 C 9.175781 8.078125 9.023438 7.957031 8.734375 7.570312 C 8.667969 7.488281 8.566406 7.363281 8.503906 7.300781 C 8.410156 7.203125 8.398438 7.179688 8.4375 7.15625 C 8.5 7.117188 8.460938 7.085938 8.238281 6.988281 L 8.050781 6.90625 L 8.265625 6.910156 C 8.605469 6.917969 8.640625 6.914062 8.726562 6.828125 C 8.773438 6.78125 8.808594 6.734375 8.808594 6.71875 C 8.808594 6.707031 8.730469 6.703125 8.632812 6.707031 L 8.453125 6.71875 L 8.601562 6.691406 C 8.773438 6.660156 8.921875 6.582031 8.988281 6.484375 C 9.03125 6.421875 9.027344 6.417969 8.910156 6.433594 C 8.847656 6.445312 8.730469 6.433594 8.652344 6.410156 L 8.515625 6.371094 L 8.671875 6.34375 C 8.757812 6.328125 8.871094 6.3125 8.925781 6.304688 C 9.039062 6.285156 9.199219 6.164062 9.222656 6.074219 C 9.234375 6.023438 9.222656 6.015625 9.15625 6.027344 C 9.109375 6.035156 9.003906 6.046875 8.917969 6.054688 L 8.765625 6.070312 L 8.933594 6.015625 C 9.1875 5.933594 9.394531 5.828125 9.445312 5.753906 C 9.503906 5.671875 9.507812 5.558594 9.453125 5.601562 C 9.398438 5.644531 9.191406 5.679688 9.171875 5.648438 C 9.164062 5.636719 9.246094 5.597656 9.355469 5.566406 C 9.558594 5.507812 9.640625 5.4375 9.691406 5.277344 C 9.710938 5.214844 9.707031 5.207031 9.65625 5.222656 C 9.472656 5.277344 9.421875 5.28125 9.445312 5.242188 C 9.464844 5.210938 9.457031 5.207031 9.414062 5.222656 C 9.363281 5.242188 9.367188 5.230469 9.429688 5.164062 C 9.519531 5.070312 9.53125 5.066406 9.507812 5.148438 C 9.480469 5.226562 9.511719 5.226562 9.644531 5.144531 C 9.808594 5.046875 9.890625 4.960938 9.871094 4.914062 C 9.863281 4.886719 9.886719 4.824219 9.921875 4.777344 C 10.003906 4.667969 9.945312 4.652344 9.824219 4.75 C 9.757812 4.800781 9.460938 4.886719 9.460938 4.851562 C 9.460938 4.847656 9.546875 4.796875 9.65625 4.746094 C 9.867188 4.636719 10 4.527344 10.066406 4.402344 C 10.125 4.292969 10.125 4.25 10.0625 4.273438 C 10.015625 4.292969 10.015625 4.285156 10.066406 4.210938 C 10.128906 4.113281 10.148438 3.726562 10.089844 3.707031 C 10.070312 3.699219 10.046875 3.722656 10.035156 3.757812 C 10.023438 3.789062 9.957031 3.875 9.886719 3.945312 C 9.8125 4.019531 9.777344 4.070312 9.804688 4.058594 C 9.890625 4.03125 9.898438 4.074219 9.828125 4.152344 C 9.75 4.234375 9.683594 4.242188 9.65625 4.175781 C 9.636719 4.117188 9.617188 4.117188 9.363281 4.195312 L 9.148438 4.257812 L 9.050781 4.460938 C 8.96875 4.632812 8.917969 4.6875 8.734375 4.824219 C 8.613281 4.914062 8.488281 5.015625 8.457031 5.050781 C 8.382812 5.132812 8.410156 5.257812 8.519531 5.3125 C 8.597656 5.355469 8.59375 5.355469 8.3125 5.457031 C 7.914062 5.601562 7.769531 5.589844 7.792969 5.410156 C 7.800781 5.351562 7.867188 5.308594 8.058594 5.238281 C 8.183594 5.195312 8.1875 5.148438 8.070312 5.148438 C 7.917969 5.148438 7.929688 5.097656 8.097656 5.011719 C 8.433594 4.84375 8.839844 4.492188 8.917969 4.304688 C 8.957031 4.210938 8.949219 4.035156 8.90625 4.039062 C 8.894531 4.039062 8.855469 4.109375 8.816406 4.195312 C 8.699219 4.4375 8.273438 4.738281 7.878906 4.851562 C 7.644531 4.917969 7.402344 5.0625 7.300781 5.199219 C 7.136719 5.414062 7.027344 5.511719 6.933594 5.535156 L 6.84375 5.554688 L 6.949219 5.484375 C 7.089844 5.386719 7.109375 5.324219 6.992188 5.351562 L 6.90625 5.371094 L 6.980469 5.316406 C 7.101562 5.234375 7.230469 5.109375 7.230469 5.078125 C 7.230469 5.0625 7.203125 5.054688 7.167969 5.066406 C 7.117188 5.078125 7.125 5.058594 7.210938 4.953125 C 7.324219 4.816406 7.386719 4.65625 7.324219 4.65625 C 7.308594 4.65625 7.292969 4.667969 7.292969 4.683594 C 7.292969 4.699219 7.246094 4.726562 7.191406 4.746094 L 7.089844 4.777344 L 7.191406 4.699219 C 7.332031 4.589844 7.476562 4.328125 7.476562 4.191406 C 7.472656 4.097656 7.46875 4.089844 7.4375 4.144531 C 7.335938 4.304688 7.203125 4.417969 6.980469 4.527344 L 6.734375 4.648438 L 6.734375 4.558594 C 6.734375 4.511719 6.71875 4.46875 6.703125 4.46875 C 6.6875 4.46875 6.671875 4.5 6.671875 4.53125 C 6.671875 4.660156 6.542969 4.84375 6.34375 5 C 6.113281 5.179688 6.066406 5.257812 6.03125 5.492188 L 6 5.535156 L 5.96875 5.492188 C 5.9375 5.257812 5.886719 5.179688 5.65625 5 C 5.457031 4.84375 5.328125 4.660156 5.328125 4.535156 C 5.328125 4.5 5.3125 4.46875 5.296875 4.46875 C 5.28125 4.46875 5.265625 4.511719 5.265625 4.558594 L 5.265625 4.648438 L 5.019531 4.527344 C 4.796875 4.417969 4.667969 4.304688 4.5625 4.144531 C 4.53125 4.089844 4.527344 4.097656 4.523438 4.191406 C 4.523438 4.328125 4.667969 4.589844 4.808594 4.699219 L 4.910156 4.78125 L 4.808594 4.746094 C 4.753906 4.726562 4.710938 4.699219 4.710938 4.683594 C 4.710938 4.667969 4.695312 4.65625 4.675781 4.65625 C 4.613281 4.65625 4.675781 4.816406 4.789062 4.953125 C 4.875 5.058594 4.882812 5.078125 4.832031 5.066406 C 4.796875 5.054688 4.769531 5.0625 4.769531 5.078125 C 4.769531 5.109375 4.898438 5.234375 5.019531 5.316406 L 5.097656 5.371094 L 5.007812 5.351562 C 4.890625 5.324219 4.910156 5.386719 5.050781 5.484375 L 5.15625 5.554688 L 5.066406 5.535156 C 4.972656 5.511719 4.863281 5.414062 4.699219 5.199219 C 4.597656 5.066406 4.355469 4.917969 4.121094 4.851562 C 3.726562 4.738281 3.300781 4.433594 3.1875 4.195312 C 3.144531 4.109375 3.105469 4.039062 3.09375 4.039062 C 3.050781 4.035156 3.042969 4.210938 3.082031 4.304688 C 3.160156 4.492188 3.566406 4.84375 3.902344 5.011719 C 4.070312 5.097656 4.082031 5.148438 3.933594 5.148438 C 3.8125 5.148438 3.816406 5.195312 3.941406 5.238281 C 4.132812 5.308594 4.199219 5.351562 4.207031 5.414062 C 4.230469 5.589844 4.085938 5.601562 3.6875 5.457031 C 3.40625 5.355469 3.402344 5.355469 3.480469 5.3125 C 3.589844 5.257812 3.617188 5.132812 3.542969 5.050781 C 3.511719 5.015625 3.386719 4.914062 3.265625 4.824219 C 3.082031 4.6875 3.03125 4.632812 2.949219 4.460938 L 2.851562 4.257812 L 2.636719 4.195312 C 2.382812 4.117188 2.367188 4.117188 2.34375 4.175781 C 2.316406 4.242188 2.25 4.234375 2.171875 4.152344 C 2.101562 4.074219 2.109375 4.03125 2.195312 4.058594 C 2.222656 4.070312 2.1875 4.019531 2.113281 3.945312 C 2.042969 3.875 1.976562 3.789062 1.964844 3.757812 C 1.953125 3.722656 1.929688 3.699219 1.910156 3.707031 Z M 2.515625 4.398438 C 2.53125 4.394531 2.570312 4.402344 2.625 4.425781 C 2.683594 4.449219 2.75 4.511719 2.78125 4.566406 C 2.808594 4.625 2.878906 4.714844 2.929688 4.769531 C 2.984375 4.828125 3.019531 4.871094 3.007812 4.871094 C 2.960938 4.867188 2.796875 4.765625 2.710938 4.683594 C 2.660156 4.636719 2.582031 4.582031 2.539062 4.566406 C 2.484375 4.546875 2.476562 4.535156 2.515625 4.535156 C 2.578125 4.53125 2.585938 4.496094 2.535156 4.445312 C 2.503906 4.417969 2.5 4.398438 2.515625 4.398438 Z M 9.484375 4.398438 C 9.5 4.402344 9.496094 4.417969 9.464844 4.445312 C 9.414062 4.5 9.421875 4.53125 9.484375 4.535156 C 9.523438 4.535156 9.515625 4.546875 9.460938 4.566406 C 9.417969 4.582031 9.339844 4.636719 9.289062 4.683594 C 9.203125 4.765625 9.039062 4.867188 8.992188 4.871094 C 8.980469 4.871094 9.015625 4.828125 9.070312 4.769531 C 9.121094 4.714844 9.191406 4.625 9.21875 4.566406 C 9.25 4.511719 9.316406 4.449219 9.375 4.425781 C 9.429688 4.402344 9.46875 4.394531 9.484375 4.398438 Z M 5.949219 4.425781 C 5.964844 4.414062 5.96875 4.425781 5.960938 4.453125 C 5.9375 4.507812 5.917969 4.515625 5.917969 4.472656 C 5.917969 4.457031 5.929688 4.433594 5.949219 4.425781 Z M 6.035156 4.425781 C 6.039062 4.417969 6.042969 4.417969 6.050781 4.425781 C 6.070312 4.433594 6.082031 4.457031 6.082031 4.472656 C 6.082031 4.515625 6.0625 4.507812 6.039062 4.453125 C 6.035156 4.441406 6.035156 4.429688 6.035156 4.425781 Z M 6.035156 4.425781 "/>
</g>
</svg>
