<?xml version="1.0" encoding="UTF-8"?>
<svg xmlns="http://www.w3.org/2000/svg" xmlns:xlink="http://www.w3.org/1999/xlink" width="12pt" height="12pt" viewBox="0 0 12 12" version="1.1">
<defs>
<clipPath id="clip1">
  <rect width="12" height="12"/>
</clipPath>
<g id="surface6" clip-path="url(#clip1)">
<path style=" stroke:none;fill-rule:nonzero;fill:rgb(100%,100%,100%);fill-opacity:1;" d="M 6.222656 8.632812 L 5.472656 8.601562 L 5.503906 7.851562 L 6.253906 7.882812 Z M 7.117188 5.757812 L 6.765625 6.089844 C 6.484375 6.351562 6.304688 6.570312 6.285156 7.132812 L 5.535156 7.101562 L 5.542969 6.914062 C 5.558594 6.503906 5.742188 6.132812 6.023438 5.871094 L 6.507812 5.417969 C 6.652344 5.289062 6.742188 5.105469 6.75 4.898438 C 6.765625 4.488281 6.441406 4.136719 6.03125 4.121094 C 5.617188 4.101562 5.265625 4.425781 5.25 4.839844 L 4.5 4.808594 C 4.535156 3.980469 5.230469 3.335938 6.058594 3.371094 C 6.886719 3.402344 7.53125 4.101562 7.5 4.929688 C 7.484375 5.257812 7.335938 5.554688 7.117188 5.757812 Z M 7.117188 5.757812 "/>
</g>
</defs>
<g id="surface1">
<path style=" stroke:none;fill-rule:evenodd;fill:rgb(0%,58.431373%,80%);fill-opacity:1;" d="M 2.800781 0.710938 L 9.199219 0.710938 C 10.351562 0.710938 11.289062 1.648438 11.289062 2.800781 L 11.289062 9.199219 C 11.289062 10.351562 10.351562 11.289062 9.199219 11.289062 L 2.800781 11.289062 C 1.648438 11.289062 0.710938 10.351562 0.710938 9.199219 L 0.710938 2.800781 C 0.710938 1.648438 1.648438 0.710938 2.800781 0.710938 Z M 2.800781 0.710938 "/>
<use xlink:href="#surface6"/>
</g>
</svg>
