<?xml version="1.0" encoding="UTF-8"?>
<svg xmlns="http://www.w3.org/2000/svg" xmlns:xlink="http://www.w3.org/1999/xlink" width="12pt" height="12pt" viewBox="0 0 12 12" version="1.1">
<defs>
<clipPath id="clip1">
  <rect width="12" height="12"/>
</clipPath>
<g id="surface6" clip-path="url(#clip1)">
<path style=" stroke:none;fill-rule:nonzero;fill:rgb(100%,100%,100%);fill-opacity:1;" d="M 6 2.8125 C 5.585938 2.8125 5.25 3.148438 5.25 3.5625 C 5.25 3.976562 5.585938 4.3125 6 4.3125 C 6.414062 4.3125 6.75 3.976562 6.75 3.5625 C 6.75 3.148438 6.414062 2.8125 6 2.8125 Z M 4.5 5.0625 L 4.5 5.8125 L 5.25 5.8125 L 5.25 8.4375 L 4.5 8.4375 L 4.5 9.1875 L 7.5 9.1875 L 7.5 8.4375 L 6.75 8.4375 L 6.75 5.0625 Z M 4.5 5.0625 "/>
</g>
</defs>
<g id="surface1">
<path style=" stroke:none;fill-rule:evenodd;fill:rgb(12.54902%,58.431373%,94.901961%);fill-opacity:1;" d="M 2.800781 0.710938 L 9.199219 0.710938 C 10.351562 0.710938 11.289062 1.648438 11.289062 2.800781 L 11.289062 9.199219 C 11.289062 10.351562 10.351562 11.289062 9.199219 11.289062 L 2.800781 11.289062 C 1.648438 11.289062 0.710938 10.351562 0.710938 9.199219 L 0.710938 2.800781 C 0.710938 1.648438 1.648438 0.710938 2.800781 0.710938 Z M 2.800781 0.710938 "/>
<use xlink:href="#surface6"/>
</g>
</svg>
