<?xml version="1.0" encoding="UTF-8"?>
<svg xmlns="http://www.w3.org/2000/svg" xmlns:xlink="http://www.w3.org/1999/xlink" width="12pt" height="12pt" viewBox="0 0 12 12" version="1.1">
<g id="surface1">
<path style=" stroke:none;fill-rule:evenodd;fill:rgb(41.960784%,40%,29.803922%);fill-opacity:1;" d="M 2.800781 0.710938 L 9.199219 0.710938 C 10.351562 0.710938 11.289062 1.648438 11.289062 2.800781 L 11.289062 9.199219 C 11.289062 10.351562 10.351562 11.289062 9.199219 11.289062 L 2.800781 11.289062 C 1.648438 11.289062 0.710938 10.351562 0.710938 9.199219 L 0.710938 2.800781 C 0.710938 1.648438 1.648438 0.710938 2.800781 0.710938 Z M 2.800781 0.710938 "/>
<path style=" stroke:none;fill-rule:nonzero;fill:rgb(100%,100%,100%);fill-opacity:0.792157;" d="M 2.4375 4.125 L 3.425781 4.125 L 3.425781 5.492188 L 4.851562 4.125 L 5.996094 4.125 L 4.152344 5.902344 L 6.1875 7.875 L 4.949219 7.875 L 3.425781 6.398438 L 3.425781 7.875 L 2.4375 7.875 Z M 2.4375 4.125 "/>
<path style=" stroke:none;fill-rule:nonzero;fill:rgb(100%,100%,100%);fill-opacity:0.792157;" d="M 9.5625 7.535156 C 9.308594 7.648438 9.046875 7.734375 8.777344 7.789062 C 8.507812 7.847656 8.226562 7.875 7.9375 7.875 C 7.285156 7.875 6.765625 7.707031 6.386719 7.371094 C 6.003906 7.035156 5.8125 6.578125 5.8125 6 C 5.8125 5.417969 6.007812 4.960938 6.394531 4.625 C 6.785156 4.292969 7.316406 4.125 7.992188 4.125 C 8.253906 4.125 8.503906 4.148438 8.742188 4.191406 C 8.980469 4.238281 9.207031 4.304688 9.417969 4.394531 L 9.417969 5.140625 C 9.199219 5.027344 8.980469 4.941406 8.765625 4.886719 C 8.546875 4.828125 8.332031 4.800781 8.117188 4.800781 C 7.710938 4.800781 7.402344 4.90625 7.183594 5.113281 C 6.964844 5.320312 6.859375 5.617188 6.859375 6 C 6.859375 6.382812 6.960938 6.679688 7.171875 6.886719 C 7.382812 7.09375 7.679688 7.199219 8.066406 7.199219 C 8.171875 7.199219 8.269531 7.195312 8.359375 7.183594 C 8.449219 7.167969 8.53125 7.148438 8.605469 7.125 L 8.605469 6.421875 L 7.988281 6.421875 L 7.988281 5.796875 L 9.5625 5.796875 Z M 9.5625 7.535156 "/>
</g>
</svg>
