<?xml version="1.0" encoding="UTF-8"?>
<svg xmlns="http://www.w3.org/2000/svg" xmlns:xlink="http://www.w3.org/1999/xlink" width="12pt" height="12pt" viewBox="0 0 12 12" version="1.1">
<g id="surface1">
<path style=" stroke:none;fill-rule:evenodd;fill:rgb(30.588235%,65.490196%,11.764706%);fill-opacity:1;" d="M 2.800781 0.710938 L 9.199219 0.710938 C 10.351562 0.710938 11.289062 1.648438 11.289062 2.800781 L 11.289062 9.199219 C 11.289062 10.351562 10.351562 11.289062 9.199219 11.289062 L 2.800781 11.289062 C 1.648438 11.289062 0.710938 10.351562 0.710938 9.199219 L 0.710938 2.800781 C 0.710938 1.648438 1.648438 0.710938 2.800781 0.710938 Z M 2.800781 0.710938 "/>
<path style=" stroke:none;fill-rule:nonzero;fill:rgb(100%,100%,100%);fill-opacity:1;" d="M 6 2.863281 C 5.054688 2.863281 4.289062 3.628906 4.289062 4.574219 C 4.289062 5.519531 5.054688 6.285156 6 6.285156 C 6.945312 6.285156 7.710938 5.519531 7.710938 4.574219 C 7.710938 3.628906 6.945312 2.863281 6 2.863281 Z M 6 3.148438 C 6.472656 3.148438 6.855469 3.53125 6.855469 4.003906 C 6.855469 4.476562 6.472656 4.859375 6 4.859375 C 5.527344 4.859375 5.144531 4.476562 5.144531 4.003906 C 5.144531 3.53125 5.527344 3.148438 6 3.148438 Z M 6 3.148438 "/>
<path style=" stroke:none;fill-rule:nonzero;fill:rgb(100%,100%,100%);fill-opacity:1;" d="M 5.144531 5.714844 L 5.144531 8.546875 L 6 9.136719 L 6.855469 8.546875 L 6.855469 8.300781 L 7.140625 8.015625 L 6.855469 7.730469 L 6.855469 7.425781 L 7.425781 6.996094 L 6.855469 6.570312 L 6.855469 5.714844 Z M 5.429688 6.570312 L 5.714844 6.570312 L 5.714844 8.28125 L 5.429688 8.28125 Z M 5.429688 6.570312 "/>
</g>
</svg>
