<?xml version="1.0" encoding="UTF-8"?>
<svg xmlns="http://www.w3.org/2000/svg" xmlns:xlink="http://www.w3.org/1999/xlink" width="12pt" height="12pt" viewBox="0 0 12 12" version="1.1">
<g id="surface1">
<path style=" stroke:none;fill-rule:evenodd;fill:rgb(30.980392%,45.882353%,87.058824%);fill-opacity:1;" d="M 2.800781 0.710938 L 9.199219 0.710938 C 10.351562 0.710938 11.289062 1.648438 11.289062 2.800781 L 11.289062 9.199219 C 11.289062 10.351562 10.351562 11.289062 9.199219 11.289062 L 2.800781 11.289062 C 1.648438 11.289062 0.710938 10.351562 0.710938 9.199219 L 0.710938 2.800781 C 0.710938 1.648438 1.648438 0.710938 2.800781 0.710938 Z M 2.800781 0.710938 "/>
<path style=" stroke:none;fill-rule:nonzero;fill:rgb(100%,100%,100%);fill-opacity:1;" d="M 6.351562 3.757812 C 5.765625 3.171875 4.699219 3.289062 3.964844 4.019531 C 3.234375 4.753906 3.113281 5.820312 3.699219 6.40625 C 4.285156 6.992188 5.355469 6.875 6.085938 6.144531 C 6.820312 5.410156 6.9375 4.34375 6.351562 3.757812 Z M 6.085938 4.019531 C 6.378906 4.3125 6.378906 4.789062 6.085938 5.082031 C 5.792969 5.375 5.320312 5.375 5.027344 5.082031 C 5.320312 5.375 5.320312 5.851562 5.027344 6.144531 C 4.734375 6.4375 4.257812 6.4375 3.964844 6.144531 C 3.671875 5.851562 3.671875 5.375 3.964844 5.082031 C 4.257812 4.789062 4.734375 4.789062 5.027344 5.082031 C 4.734375 4.789062 4.734375 4.3125 5.027344 4.019531 C 5.320312 3.726562 5.792969 3.726562 6.085938 4.019531 Z M 6.085938 4.019531 "/>
<path style=" stroke:none;fill-rule:nonzero;fill:rgb(100%,100%,100%);fill-opacity:1;" d="M 6.1875 5.710938 L 8.375 7.898438 C 8.574219 8.101562 8.621094 8.382812 8.472656 8.527344 C 8.328125 8.675781 8.042969 8.632812 7.84375 8.429688 L 5.65625 6.242188 C 5.453125 6.039062 5.410156 5.757812 5.554688 5.613281 C 5.703125 5.464844 5.984375 5.511719 6.1875 5.710938 Z M 6.1875 5.710938 "/>
<path style=" stroke:none;fill-rule:nonzero;fill:rgb(100%,100%,100%);fill-opacity:1;" d="M 8.042969 6.507812 L 8.640625 7.105469 C 8.695312 7.160156 8.679688 7.261719 8.605469 7.335938 C 8.53125 7.410156 8.429688 7.425781 8.375 7.367188 L 7.777344 6.773438 C 7.722656 6.71875 7.738281 6.613281 7.808594 6.539062 C 7.882812 6.46875 7.988281 6.453125 8.042969 6.507812 Z M 8.042969 6.507812 "/>
<path style=" stroke:none;fill-rule:nonzero;fill:rgb(100%,100%,100%);fill-opacity:1;" d="M 8.222656 7.1875 L 7.527344 7.882812 C 7.464844 7.945312 7.351562 7.941406 7.28125 7.867188 C 7.207031 7.792969 7.199219 7.683594 7.261719 7.617188 L 7.960938 6.921875 C 8.023438 6.859375 8.132812 6.863281 8.207031 6.9375 C 8.28125 7.011719 8.289062 7.121094 8.222656 7.1875 Z M 8.222656 7.1875 "/>
</g>
</svg>
