<?xml version="1.0" encoding="UTF-8"?>
<svg xmlns="http://www.w3.org/2000/svg" xmlns:xlink="http://www.w3.org/1999/xlink" width="12pt" height="12pt" viewBox="0 0 12 12" version="1.1">
<g id="surface1">
<path style=" stroke:none;fill-rule:evenodd;fill:rgb(11.372549%,65.098039%,90.980392%);fill-opacity:1;" d="M 2.800781 0.710938 L 9.199219 0.710938 C 10.351562 0.710938 11.289062 1.648438 11.289062 2.800781 L 11.289062 9.199219 C 11.289062 10.351562 10.351562 11.289062 9.199219 11.289062 L 2.800781 11.289062 C 1.648438 11.289062 0.710938 10.351562 0.710938 9.199219 L 0.710938 2.800781 C 0.710938 1.648438 1.648438 0.710938 2.800781 0.710938 Z M 2.800781 0.710938 "/>
<path style=" stroke:none;fill-rule:nonzero;fill:rgb(100%,100%,100%);fill-opacity:1;" d="M 9.632812 6 C 9.632812 3.992188 8.007812 2.367188 6 2.367188 C 3.992188 2.367188 2.367188 3.992188 2.367188 6 C 2.367188 8.007812 3.992188 9.632812 6 9.632812 C 8.007812 9.632812 9.632812 8.007812 9.632812 6 Z M 9.632812 6 "/>
<path style=" stroke:none;fill-rule:nonzero;fill:rgb(11.372549%,65.098039%,90.980392%);fill-opacity:1;" d="M 3.535156 4.183594 L 3.535156 7.816406 L 4.3125 7.816406 L 4.3125 6.726562 L 5.351562 7.816406 L 6.128906 7.816406 L 4.832031 6 L 6.128906 4.183594 L 5.351562 4.183594 L 4.3125 5.273438 L 4.3125 4.183594 Z M 6.390625 4.960938 L 6.390625 6.257812 L 8.464844 6.257812 L 8.464844 4.960938 L 7.945312 4.960938 L 7.945312 5.742188 L 7.6875 5.742188 L 7.6875 4.960938 L 7.167969 4.960938 L 7.167969 5.742188 L 6.910156 5.742188 L 6.910156 4.960938 Z M 6.390625 6.519531 L 6.390625 7.039062 L 8.464844 7.039062 L 8.464844 6.519531 Z M 6.390625 7.296875 L 6.390625 7.816406 L 6.910156 7.816406 L 6.910156 7.296875 Z M 7.167969 7.296875 L 7.167969 7.816406 L 8.464844 7.816406 L 8.464844 7.296875 Z M 7.167969 7.296875 "/>
</g>
</svg>
