<?xml version="1.0" encoding="UTF-8"?>
<svg xmlns="http://www.w3.org/2000/svg" xmlns:xlink="http://www.w3.org/1999/xlink" width="12pt" height="12pt" viewBox="0 0 12 12" version="1.1">
<defs>
<filter id="alpha" filterUnits="objectBoundingBox" x="0%" y="0%" width="100%" height="100%">
  <feColorMatrix type="matrix" in="SourceGraphic" values="0 0 0 0 1 0 0 0 0 1 0 0 0 0 1 0 0 0 1 0"/>
</filter>
<mask id="mask0">
  <g filter="url(#alpha)">
<rect x="0" y="0" width="12" height="12" style="fill:rgb(0%,0%,0%);fill-opacity:0.976471;stroke:none;"/>
  </g>
</mask>
<clipPath id="clip1">
  <rect width="12" height="12"/>
</clipPath>
<g id="surface6" clip-path="url(#clip1)">
<path style=" stroke:none;fill-rule:evenodd;fill:rgb(58.823529%,77.254902%,1.176471%);fill-opacity:1;" d="M 11.277344 9.496094 L 11.003906 8.804688 C 11.003906 8.804688 10.140625 9.703125 10.140625 9.617188 C 10.140625 9.527344 9.953125 8.804688 9.953125 8.804688 L 9.238281 9.683594 L 8.898438 9.15625 L 8.035156 9.726562 L 7.710938 9 L 7.152344 9.835938 L 6.386719 9 L 5.84375 9.878906 L 5.402344 8.957031 L 4.964844 9.859375 L 4.285156 8.933594 L 3.980469 9.96875 L 3.488281 9.023438 L 3.128906 9.617188 L 2.296875 8.847656 C 2.296875 8.847656 2.078125 9.617188 2.042969 9.902344 C 2.027344 10.046875 1.863281 9.691406 1.707031 9.304688 C 1.550781 8.917969 1.398438 8.496094 1.398438 8.496094 C 1.398438 8.496094 1.085938 9.230469 0.871094 9.734375 C 1.113281 10.621094 1.886719 11.285156 2.855469 11.285156 L 9.25 11.285156 C 10.296875 11.285156 11.125 10.503906 11.277344 9.496094 Z M 11.277344 9.496094 "/>
</g>
<mask id="mask1">
  <g filter="url(#alpha)">
<rect x="0" y="0" width="12" height="12" style="fill:rgb(0%,0%,0%);fill-opacity:0.976471;stroke:none;"/>
  </g>
</mask>
<clipPath id="clip2">
  <rect width="12" height="12"/>
</clipPath>
<g id="surface9" clip-path="url(#clip2)">
<path style=" stroke:none;fill-rule:evenodd;fill:rgb(67.843137%,85.882353%,12.156863%);fill-opacity:1;" d="M 11.292969 8.828125 C 11.054688 9.207031 10.863281 9.664062 10.714844 10.179688 C 10.753906 9.351562 10.847656 8.542969 10.933594 7.738281 C 10.753906 8.4375 10.582031 9.132812 10.433594 9.828125 C 10.390625 9.625 10.34375 9.4375 10.296875 9.25 C 10.339844 8.832031 10.402344 8.480469 10.5 8.253906 C 10.425781 8.378906 10.363281 8.519531 10.300781 8.667969 C 10.324219 8.453125 10.34375 8.234375 10.367188 8.023438 C 10.296875 8.277344 10.234375 8.53125 10.171875 8.785156 C 10.105469 8.582031 10.035156 8.390625 9.957031 8.222656 C 10.027344 8.417969 10.070312 8.710938 10.105469 9.046875 C 10.042969 9.316406 9.980469 9.582031 9.921875 9.847656 C 9.867188 9.636719 9.808594 9.429688 9.75 9.21875 C 9.796875 8.683594 9.855469 8.152344 9.910156 7.621094 C 9.8125 8.007812 9.714844 8.390625 9.625 8.773438 C 9.527344 8.4375 9.425781 8.101562 9.320312 7.765625 C 9.355469 8.050781 9.394531 8.335938 9.433594 8.621094 C 9.417969 8.585938 9.402344 8.542969 9.382812 8.507812 C 9.414062 8.585938 9.433594 8.699219 9.453125 8.804688 C 9.472656 8.960938 9.492188 9.121094 9.507812 9.277344 C 9.5 9.308594 9.492188 9.34375 9.488281 9.375 C 9.421875 9.210938 9.351562 9.054688 9.273438 8.914062 C 9.34375 9.082031 9.394531 9.324219 9.433594 9.597656 C 9.425781 9.636719 9.417969 9.675781 9.410156 9.710938 C 9.285156 9.09375 9.140625 8.535156 8.933594 8.109375 C 9.089844 8.539062 9.144531 9.371094 9.152344 10.40625 C 9.082031 10.152344 9.011719 9.90625 8.925781 9.6875 C 8.875 9.523438 8.832031 9.359375 8.78125 9.191406 C 8.839844 9.035156 8.898438 8.878906 8.972656 8.714844 C 8.902344 8.839844 8.824219 8.957031 8.746094 9.070312 C 8.703125 8.9375 8.671875 8.804688 8.628906 8.671875 C 8.648438 8.832031 8.671875 8.996094 8.691406 9.160156 C 8.636719 9.246094 8.578125 9.332031 8.523438 9.421875 C 8.445312 9.195312 8.355469 8.984375 8.25 8.796875 C 8.332031 8.992188 8.386719 9.261719 8.429688 9.585938 C 8.390625 9.652344 8.355469 9.714844 8.320312 9.78125 C 8.230469 9.863281 8.152344 9.96875 8.074219 10.082031 C 8.023438 10.035156 7.96875 9.988281 7.910156 9.949219 C 7.898438 9.957031 7.890625 9.964844 7.882812 9.96875 C 7.875 9.960938 7.867188 9.949219 7.859375 9.941406 C 7.910156 9.585938 7.96875 9.25 8.058594 8.988281 C 7.929688 9.210938 7.820312 9.46875 7.722656 9.757812 C 7.644531 9.609375 7.558594 9.464844 7.472656 9.332031 C 7.476562 9.316406 7.480469 9.292969 7.484375 9.273438 C 7.476562 9.289062 7.46875 9.304688 7.460938 9.320312 C 7.308594 9.089844 7.144531 8.878906 6.957031 8.695312 C 6.988281 8.746094 7 8.828125 7.027344 8.886719 C 7.03125 8.882812 7.03125 8.878906 7.035156 8.875 C 7.03125 8.878906 7.03125 8.886719 7.03125 8.890625 C 7.136719 9.117188 7.234375 9.355469 7.308594 9.632812 C 7.300781 9.644531 7.296875 9.660156 7.289062 9.671875 C 7.257812 9.699219 7.230469 9.734375 7.199219 9.769531 C 7.125 9.550781 7.046875 9.339844 6.972656 9.125 C 6.992188 9.046875 7.007812 8.960938 7.03125 8.890625 C 7.027344 8.890625 7.027344 8.886719 7.027344 8.886719 C 7 8.9375 6.972656 8.996094 6.945312 9.050781 C 6.941406 9.035156 6.9375 9.027344 6.933594 9.011719 C 6.9375 9.027344 6.9375 9.042969 6.941406 9.054688 C 6.882812 9.171875 6.832031 9.296875 6.777344 9.429688 C 6.773438 9.066406 6.773438 8.738281 6.839844 8.519531 C 6.679688 8.847656 6.628906 9.382812 6.558594 9.851562 C 6.492188 9.667969 6.425781 9.488281 6.363281 9.296875 C 6.421875 9.527344 6.472656 9.753906 6.511719 9.976562 C 6.453125 10.0625 6.394531 10.160156 6.34375 10.269531 C 6.304688 10.085938 6.257812 9.910156 6.207031 9.753906 C 6.203125 9.375 6.203125 9.03125 6.269531 8.804688 C 6.1875 8.96875 6.136719 9.1875 6.09375 9.421875 C 6.03125 9.25 5.96875 9.078125 5.910156 8.898438 C 5.972656 9.136719 6.023438 9.375 6.066406 9.609375 C 6.039062 9.792969 6.011719 9.980469 5.984375 10.160156 C 5.921875 10.03125 5.851562 9.910156 5.761719 9.753906 C 5.753906 9.203125 5.726562 8.707031 5.816406 8.40625 C 5.707031 8.628906 5.652344 8.953125 5.605469 9.28125 C 5.570312 9.105469 5.535156 8.933594 5.480469 8.785156 C 5.496094 8.753906 5.507812 8.722656 5.519531 8.695312 C 5.503906 8.714844 5.488281 8.738281 5.472656 8.761719 C 5.441406 8.671875 5.40625 8.589844 5.367188 8.519531 C 5.398438 8.605469 5.417969 8.707031 5.429688 8.820312 C 5.363281 8.902344 5.296875 8.984375 5.238281 9.078125 C 5.242188 9.054688 5.246094 9.035156 5.253906 9.011719 C 5.234375 9.058594 5.214844 9.105469 5.195312 9.148438 C 5.066406 9.359375 4.953125 9.589844 4.851562 9.835938 C 4.8125 9.773438 4.769531 9.695312 4.726562 9.613281 C 4.789062 9.378906 4.859375 9.164062 4.949219 8.980469 C 4.832031 9.117188 4.726562 9.269531 4.628906 9.433594 C 4.621094 9.425781 4.621094 9.421875 4.617188 9.414062 C 4.621094 9.421875 4.621094 9.429688 4.625 9.4375 C 4.546875 9.5625 4.472656 9.691406 4.40625 9.832031 C 4.351562 9.691406 4.285156 9.570312 4.222656 9.441406 C 4.292969 9.121094 4.378906 8.820312 4.496094 8.578125 C 4.34375 8.753906 4.214844 8.960938 4.089844 9.179688 C 4.085938 9.175781 4.082031 9.164062 4.078125 9.160156 C 4.097656 8.996094 4.117188 8.832031 4.132812 8.671875 C 4.097656 8.804688 4.070312 8.9375 4.035156 9.070312 C 3.96875 8.957031 3.90625 8.839844 3.847656 8.714844 C 3.898438 8.855469 3.941406 8.992188 3.984375 9.128906 C 3.957031 9.082031 3.929688 9.03125 3.898438 8.988281 C 3.933594 9.074219 3.957031 9.179688 3.984375 9.273438 C 3.96875 9.339844 3.953125 9.402344 3.9375 9.46875 C 3.871094 9.613281 3.804688 9.761719 3.746094 9.917969 C 3.671875 9.757812 3.59375 9.597656 3.507812 9.441406 C 3.527344 9.28125 3.546875 9.117188 3.5625 8.953125 C 3.527344 9.089844 3.5 9.222656 3.464844 9.355469 C 3.445312 9.320312 3.425781 9.285156 3.40625 9.25 C 3.453125 8.753906 3.507812 8.257812 3.558594 7.765625 C 3.425781 8.277344 3.300781 8.789062 3.183594 9.300781 C 3.140625 9.214844 3.101562 9.125 3.058594 9.042969 C 3.074219 8.882812 3.09375 8.71875 3.109375 8.554688 C 3.074219 8.6875 3.046875 8.824219 3.011719 8.957031 C 2.980469 8.898438 2.945312 8.835938 2.914062 8.773438 C 2.941406 8.535156 2.960938 8.292969 2.988281 8.050781 C 2.9375 8.246094 2.890625 8.441406 2.839844 8.636719 C 2.835938 8.625 2.828125 8.613281 2.824219 8.601562 C 2.828125 8.617188 2.832031 8.632812 2.839844 8.648438 C 2.824219 8.703125 2.808594 8.761719 2.796875 8.816406 C 2.730469 8.613281 2.660156 8.421875 2.578125 8.253906 C 2.648438 8.449219 2.695312 8.742188 2.730469 9.082031 C 2.644531 9.4375 2.5625 9.789062 2.484375 10.140625 C 2.445312 9.929688 2.394531 9.742188 2.34375 9.546875 C 2.359375 9.367188 2.378906 9.191406 2.394531 9.015625 C 2.410156 8.984375 2.417969 8.941406 2.433594 8.914062 C 2.421875 8.929688 2.414062 8.949219 2.402344 8.964844 C 2.445312 8.527344 2.488281 8.089844 2.535156 7.652344 C 2.417969 8.109375 2.304688 8.566406 2.199219 9.019531 C 2.140625 8.847656 2.078125 8.683594 2.007812 8.539062 C 2.070312 8.707031 2.113281 8.960938 2.148438 9.242188 C 2.144531 9.261719 2.140625 9.277344 2.136719 9.296875 C 2.058594 9.09375 1.980469 8.902344 1.886719 8.734375 C 1.96875 8.9375 2.023438 9.246094 2.066406 9.597656 C 2.0625 9.613281 2.058594 9.628906 2.054688 9.640625 C 2.046875 9.667969 2.039062 9.695312 2.027344 9.71875 C 1.917969 9.160156 1.78125 8.65625 1.601562 8.25 C 1.605469 8.242188 1.609375 8.230469 1.613281 8.222656 C 1.609375 8.230469 1.605469 8.238281 1.601562 8.246094 C 1.585938 8.210938 1.570312 8.171875 1.554688 8.136719 C 1.570312 8.175781 1.574219 8.234375 1.585938 8.273438 C 1.417969 8.574219 1.289062 8.949219 1.175781 9.347656 C 1.085938 9.078125 0.980469 8.832031 0.863281 8.617188 C 0.964844 8.867188 1.027344 9.25 1.070312 9.714844 C 1.0625 9.753906 1.046875 9.789062 1.039062 9.828125 C 0.945312 9.460938 0.824219 9.089844 0.71875 8.722656 C 0.550781 10.480469 1.667969 11.34375 3.050781 11.28125 C 3.875 11.304688 6.214844 11.285156 7.175781 11.285156 C 7.191406 11.085938 7.207031 10.878906 7.226562 10.691406 C 7.25 10.890625 7.257812 11.085938 7.273438 11.285156 L 8.378906 11.285156 L 8.457031 11.222656 C 8.46875 11.242188 8.476562 11.261719 8.488281 11.285156 L 9.203125 11.285156 C 10.027344 11.285156 10.75 10.839844 11.089844 10.101562 C 11.097656 9.996094 11.078125 9.851562 11.089844 9.753906 C 11.132812 9.394531 11.207031 9.132812 11.292969 8.90625 Z M 2.90625 8.851562 C 2.929688 8.925781 2.957031 9.003906 2.980469 9.078125 C 2.960938 9.152344 2.945312 9.230469 2.925781 9.304688 C 2.910156 9.242188 2.898438 9.171875 2.878906 9.109375 C 2.890625 9.023438 2.898438 8.9375 2.90625 8.851562 Z M 5.433594 8.90625 C 5.457031 9.265625 5.425781 9.730469 5.433594 10.230469 C 5.421875 10.285156 5.40625 10.335938 5.386719 10.382812 C 5.324219 10.261719 5.246094 10.136719 5.152344 9.96875 C 5.222656 9.570312 5.3125 9.210938 5.433594 8.90625 Z M 6.964844 9.15625 C 7.023438 9.398438 7.070312 9.636719 7.113281 9.871094 C 7.011719 10.007812 6.921875 10.164062 6.832031 10.316406 C 6.933594 10.226562 7.035156 10.117188 7.136719 10.027344 C 7.140625 10.039062 7.140625 10.050781 7.144531 10.0625 C 7.039062 10.371094 6.949219 10.710938 6.875 11.082031 C 6.847656 10.886719 6.8125 10.710938 6.773438 10.546875 C 6.78125 10.417969 6.785156 10.292969 6.785156 10.167969 C 6.828125 9.789062 6.890625 9.453125 6.964844 9.15625 Z M 3.035156 9.238281 C 3.066406 9.351562 3.09375 9.464844 3.121094 9.578125 C 3.101562 9.671875 3.078125 9.765625 3.058594 9.859375 C 3.039062 9.773438 3.019531 9.699219 3 9.617188 C 3.015625 9.492188 3.019531 9.363281 3.035156 9.238281 Z M 8.71875 9.355469 C 8.746094 9.550781 8.769531 9.746094 8.792969 9.941406 C 8.742188 9.886719 8.691406 9.835938 8.636719 9.789062 C 8.628906 9.757812 8.621094 9.730469 8.613281 9.703125 C 8.644531 9.585938 8.679688 9.472656 8.71875 9.355469 Z M 3.394531 9.363281 C 3.40625 9.398438 3.421875 9.4375 3.433594 9.476562 C 3.417969 9.539062 3.402344 9.605469 3.386719 9.667969 C 3.382812 9.671875 3.375 9.675781 3.371094 9.679688 C 3.371094 9.675781 3.367188 9.675781 3.367188 9.671875 C 3.375 9.570312 3.386719 9.464844 3.394531 9.363281 Z M 3.488281 9.640625 C 3.496094 9.671875 3.503906 9.707031 3.511719 9.738281 C 3.503906 9.734375 3.492188 9.726562 3.480469 9.71875 C 3.484375 9.691406 3.484375 9.664062 3.488281 9.640625 Z M 4.707031 9.699219 C 4.734375 9.789062 4.769531 9.890625 4.792969 9.96875 C 4.726562 10.140625 4.664062 10.316406 4.609375 10.5 C 4.597656 10.445312 4.582031 10.398438 4.570312 10.34375 C 4.605469 10.117188 4.652344 9.902344 4.707031 9.699219 Z M 4.128906 9.871094 C 4.152344 10.015625 4.179688 10.152344 4.203125 10.308594 C 4.144531 10.460938 4.089844 10.621094 4.039062 10.785156 C 4.03125 10.75 4.019531 10.714844 4.011719 10.679688 C 4.023438 10.570312 4.039062 10.46875 4.054688 10.359375 C 4.085938 10.382812 4.113281 10.410156 4.144531 10.429688 C 4.117188 10.394531 4.089844 10.359375 4.0625 10.320312 C 4.082031 10.171875 4.101562 10.015625 4.128906 9.871094 Z M 7.371094 9.875 C 7.371094 9.875 7.371094 9.878906 7.375 9.878906 C 7.414062 10.050781 7.445312 10.230469 7.476562 10.410156 C 7.449219 10.453125 7.425781 10.496094 7.398438 10.539062 C 7.371094 10.390625 7.339844 10.246094 7.304688 10.117188 C 7.316406 10.042969 7.324219 9.964844 7.335938 9.894531 C 7.347656 9.890625 7.359375 9.878906 7.371094 9.875 Z M 5.761719 9.921875 C 5.824219 10.136719 5.871094 10.332031 5.890625 10.507812 C 5.839844 10.394531 5.792969 10.261719 5.761719 10.113281 C 5.761719 10.050781 5.761719 9.984375 5.761719 9.921875 Z M 3.492188 9.992188 C 3.523438 10 3.554688 10.015625 3.585938 10.03125 C 3.601562 10.101562 3.621094 10.171875 3.632812 10.242188 C 3.617188 10.289062 3.601562 10.335938 3.585938 10.386719 C 3.558594 10.246094 3.523438 10.117188 3.488281 9.996094 C 3.488281 9.996094 3.492188 9.992188 3.492188 9.992188 Z M 5.140625 10.042969 C 5.207031 10.238281 5.257812 10.417969 5.285156 10.578125 C 5.246094 10.628906 5.203125 10.667969 5.148438 10.6875 C 5.125 10.574219 5.105469 10.507812 5.085938 10.425781 C 5.105469 10.296875 5.121094 10.167969 5.140625 10.042969 Z M 8.164062 10.136719 C 8.164062 10.144531 8.160156 10.15625 8.15625 10.164062 C 8.15625 10.160156 8.152344 10.15625 8.148438 10.152344 C 8.152344 10.148438 8.160156 10.140625 8.164062 10.136719 Z M 8.484375 10.199219 C 8.492188 10.320312 8.496094 10.457031 8.5 10.589844 C 8.476562 10.550781 8.449219 10.519531 8.425781 10.484375 C 8.441406 10.390625 8.464844 10.292969 8.484375 10.199219 Z M 7.496094 10.511719 C 7.496094 10.523438 7.5 10.535156 7.5 10.550781 C 7.480469 10.632812 7.460938 10.710938 7.445312 10.796875 C 7.433594 10.722656 7.417969 10.664062 7.40625 10.597656 C 7.4375 10.570312 7.464844 10.542969 7.496094 10.511719 Z M 8.835938 10.5625 C 8.84375 10.574219 8.851562 10.585938 8.859375 10.601562 C 8.867188 10.648438 8.871094 10.695312 8.875 10.742188 C 8.863281 10.683594 8.851562 10.621094 8.835938 10.5625 Z M 6.210938 10.652344 C 6.210938 10.65625 6.210938 10.660156 6.210938 10.664062 C 6.210938 10.664062 6.210938 10.664062 6.210938 10.667969 C 6.210938 10.660156 6.210938 10.65625 6.210938 10.652344 Z M 6.210938 10.652344 "/>
</g>
<mask id="mask2">
  <g filter="url(#alpha)">
<rect x="0" y="0" width="12" height="12" style="fill:rgb(0%,0%,0%);fill-opacity:0.976471;stroke:none;"/>
  </g>
</mask>
<clipPath id="clip3">
  <rect width="12" height="12"/>
</clipPath>
<g id="surface12" clip-path="url(#clip3)">
<path style=" stroke:none;fill-rule:evenodd;fill:rgb(45.098039%,62.745098%,4.705882%);fill-opacity:1;" d="M 1.335938 7.882812 C 1.441406 8.863281 1.527344 9.855469 1.542969 10.878906 C 1.710938 10.996094 1.890625 11.09375 2.09375 11.15625 C 2.085938 10.554688 2.09375 9.992188 2.121094 9.53125 C 2.15625 9.027344 2.214844 8.628906 2.308594 8.367188 C 2.101562 8.796875 1.953125 9.359375 1.832031 9.976562 C 1.6875 9.28125 1.515625 8.582031 1.335938 7.882812 Z M 8.652344 7.910156 C 8.769531 9.015625 8.898438 10.117188 8.886719 11.285156 L 9.230469 11.285156 C 9.292969 11.285156 9.355469 11.28125 9.414062 11.273438 C 9.410156 10.640625 9.40625 10.03125 9.441406 9.550781 C 9.472656 9.050781 9.53125 8.65625 9.625 8.398438 C 9.417969 8.824219 9.269531 9.390625 9.148438 10.007812 C 9.003906 9.3125 8.832031 8.613281 8.652344 7.910156 Z M 5.398438 8.667969 C 5.476562 8.933594 5.464844 9.335938 5.457031 9.800781 C 5.449219 10.261719 5.449219 10.78125 5.53125 11.285156 L 6.292969 11.285156 C 6.300781 11.039062 6.308594 10.808594 6.347656 10.5625 C 6.386719 10.304688 6.457031 10.023438 6.589844 9.675781 C 6.453125 9.957031 6.355469 10.085938 6.277344 10.242188 C 6.195312 10.394531 6.132812 10.574219 6.058594 10.957031 C 5.945312 10.910156 5.867188 10.785156 5.808594 10.613281 C 5.75 10.441406 5.710938 10.222656 5.675781 9.988281 C 5.605469 9.519531 5.554688 8.992188 5.398438 8.667969 Z M 8.082031 8.816406 C 8.097656 8.980469 8.117188 9.144531 8.136719 9.308594 C 7.925781 9.699219 7.714844 10.097656 7.613281 10.652344 C 7.5 10.289062 7.375 9.953125 7.222656 9.648438 C 7.074219 9.34375 6.902344 9.074219 6.707031 8.839844 C 6.851562 9.140625 6.957031 9.519531 7.035156 9.941406 C 7.117188 10.359375 7.171875 10.816406 7.226562 11.285156 L 8.65625 11.285156 C 8.527344 10.640625 8.375 9.992188 8.210938 9.339844 C 8.257812 9.183594 8.304688 9.023438 8.367188 8.863281 C 8.304688 8.984375 8.242188 9.101562 8.179688 9.21875 C 8.144531 9.085938 8.117188 8.953125 8.082031 8.816406 Z M 10.3125 8.882812 C 10.140625 9.1875 10.007812 9.558594 9.890625 9.96875 C 9.785156 10.351562 9.703125 10.8125 9.621094 11.246094 C 9.769531 11.21875 9.921875 11.175781 10.058594 11.121094 C 10.066406 10.65625 10.078125 10.214844 10.113281 9.855469 C 10.15625 9.441406 10.21875 9.109375 10.3125 8.882812 Z M 2.980469 9.0625 C 2.824219 9.347656 2.695312 9.691406 2.585938 10.074219 C 2.484375 10.421875 2.390625 10.828125 2.3125 11.222656 C 2.449219 11.25 2.589844 11.285156 2.734375 11.285156 L 3.128906 11.285156 C 3.234375 11.066406 3.335938 10.84375 3.445312 10.640625 C 3.5625 10.433594 3.691406 10.253906 3.855469 10.140625 C 4.042969 10.199219 4.214844 10.429688 4.390625 10.582031 C 4.207031 10.273438 4.03125 9.945312 3.769531 9.816406 C 3.546875 9.96875 3.367188 10.183594 3.203125 10.421875 C 3.039062 10.664062 2.886719 10.925781 2.722656 11.164062 C 2.742188 10.21875 2.8125 9.472656 2.980469 9.0625 Z M 4.191406 9.136719 C 4.363281 9.671875 4.449219 10.453125 4.515625 11.285156 L 4.972656 11.285156 C 5.027344 10.59375 5.117188 9.894531 5.304688 9.160156 C 5.121094 9.722656 4.894531 10.1875 4.796875 10.949219 C 4.648438 10.222656 4.457031 9.601562 4.191406 9.136719 Z M 4.191406 9.136719 "/>
</g>
<mask id="mask3">
  <g filter="url(#alpha)">
<rect x="0" y="0" width="12" height="12" style="fill:rgb(0%,0%,0%);fill-opacity:0.976471;stroke:none;"/>
  </g>
</mask>
<clipPath id="clip4">
  <rect width="12" height="12"/>
</clipPath>
<g id="surface15" clip-path="url(#clip4)">
<path style=" stroke:none;fill-rule:evenodd;fill:rgb(30.196078%,51.372549%,1.568627%);fill-opacity:1;" d="M 2.75 8.585938 C 2.546875 9.148438 2.355469 9.710938 2.191406 10.269531 C 2.058594 9.769531 1.894531 9.320312 1.664062 8.976562 C 1.769531 9.183594 1.832031 9.5 1.871094 9.898438 C 1.902344 10.222656 1.886719 10.660156 1.886719 11.078125 C 2.066406 11.167969 2.285156 11.222656 2.492188 11.257812 C 2.484375 10.347656 2.621094 9.449219 2.75 8.585938 Z M 9.808594 8.953125 C 9.910156 9.160156 9.976562 9.480469 10.011719 9.882812 C 10.046875 10.230469 10.0625 10.667969 10.058594 11.121094 C 10.21875 11.050781 10.355469 10.960938 10.492188 10.859375 C 10.429688 10.578125 10.347656 10.261719 10.269531 10.007812 C 10.148438 9.601562 10 9.238281 9.808594 8.953125 Z M 6.371094 9.191406 C 6.195312 9.453125 6.136719 9.875 6.0625 10.253906 C 6.023438 10.441406 5.980469 10.617188 5.914062 10.753906 C 5.847656 10.894531 5.757812 10.992188 5.632812 11.027344 C 5.550781 10.722656 5.480469 10.578125 5.390625 10.457031 C 5.304688 10.332031 5.195312 10.230469 5.042969 10.003906 C 5.195312 10.289062 5.269531 10.507812 5.3125 10.710938 C 5.355469 10.902344 5.363281 11.082031 5.375 11.285156 L 6.222656 11.285156 C 6.3125 10.882812 6.308594 10.46875 6.300781 10.101562 C 6.292969 9.726562 6.28125 9.402344 6.371094 9.191406 Z M 3.382812 9.3125 C 3.34375 9.421875 3.308594 9.527344 3.273438 9.636719 C 3.203125 9.542969 3.132812 9.449219 3.066406 9.351562 C 3.132812 9.480469 3.1875 9.605469 3.238281 9.734375 C 3.058594 10.246094 2.878906 10.769531 2.734375 11.28125 C 2.761719 11.28125 2.796875 11.285156 2.824219 11.285156 L 4.335938 11.285156 C 4.394531 10.910156 4.457031 10.542969 4.546875 10.214844 C 4.636719 9.875 4.75 9.570312 4.914062 9.332031 C 4.695312 9.515625 4.503906 9.734375 4.335938 9.980469 C 4.171875 10.222656 4.027344 10.496094 3.90625 10.785156 C 3.789062 10.339844 3.558594 10.019531 3.324219 9.707031 C 3.34375 9.574219 3.363281 9.445312 3.382812 9.3125 Z M 0.902344 9.363281 C 1.003906 9.546875 1.074219 9.8125 1.121094 10.144531 C 1.128906 10.203125 1.128906 10.425781 1.136719 10.488281 C 1.253906 10.660156 1.378906 10.75 1.542969 10.878906 C 1.484375 10.6875 1.4375 10.410156 1.367188 10.234375 C 1.238281 9.90625 1.089844 9.609375 0.902344 9.363281 Z M 9.058594 9.507812 C 9.152344 9.671875 9.21875 9.90625 9.261719 10.191406 C 9.308594 10.476562 9.335938 10.820312 9.34375 11.199219 C 9.164062 11.003906 8.996094 10.792969 8.8125 10.601562 C 8.625 10.410156 8.425781 10.238281 8.179688 10.113281 C 7.890625 10.21875 7.695312 10.480469 7.488281 10.730469 C 7.6875 10.605469 7.878906 10.421875 8.085938 10.375 C 8.265625 10.464844 8.410156 10.609375 8.539062 10.773438 C 8.660156 10.933594 8.769531 11.113281 8.886719 11.285156 L 9.21875 11.285156 C 9.414062 11.285156 9.617188 11.261719 9.796875 11.210938 C 9.714844 10.914062 9.601562 10.582031 9.496094 10.316406 C 9.375 10.011719 9.230469 9.738281 9.058594 9.507812 Z M 7.710938 9.570312 C 7.417969 9.941406 7.199219 10.441406 7.035156 11.023438 C 6.929688 10.410156 6.675781 10.039062 6.472656 9.585938 C 6.679688 10.171875 6.777344 10.734375 6.839844 11.285156 L 7.351562 11.285156 C 7.425781 10.621094 7.519531 9.996094 7.710938 9.570312 Z M 7.710938 9.570312 "/>
</g>
<clipPath id="clip5">
  <rect width="12" height="12"/>
</clipPath>
<g id="surface18" clip-path="url(#clip5)">
<path style=" stroke:none;fill-rule:evenodd;fill:rgb(100%,100%,100%);fill-opacity:1;" d="M 8.410156 2.203125 C 9.230469 2.203125 9.898438 2.871094 9.898438 3.691406 C 9.898438 4.515625 9.230469 5.183594 8.410156 5.183594 C 7.585938 5.183594 6.917969 4.515625 6.917969 3.691406 C 6.917969 2.871094 7.585938 2.203125 8.410156 2.203125 Z M 8.410156 2.203125 "/>
</g>
</defs>
<g id="surface1">
<path style=" stroke:none;fill-rule:evenodd;fill:rgb(100%,46.27451%,41.568627%);fill-opacity:1;" d="M 2.8125 0.707031 L 9.207031 0.707031 C 10.363281 0.707031 11.296875 1.644531 11.296875 2.796875 L 11.296875 9.191406 C 11.296875 10.347656 10.363281 11.285156 9.207031 11.285156 L 2.8125 11.285156 C 1.660156 11.285156 0.722656 10.347656 0.722656 9.191406 L 0.722656 2.796875 C 0.722656 1.644531 1.660156 0.707031 2.8125 0.707031 Z M 2.8125 0.707031 "/>
<use xlink:href="#surface6" mask="url(#mask0)"/>
<use xlink:href="#surface9" mask="url(#mask1)"/>
<use xlink:href="#surface12" mask="url(#mask2)"/>
<use xlink:href="#surface15" mask="url(#mask3)"/>
<path style=" stroke:none;fill-rule:nonzero;fill:rgb(45.098039%,62.745098%,4.705882%);fill-opacity:1;" d="M 2.804688 9.117188 C 2.976562 9.65625 3.0625 10.441406 3.128906 11.285156 L 3.574219 11.285156 C 3.625 10.589844 3.71875 9.878906 3.902344 9.140625 C 3.722656 9.699219 3.5 10.164062 3.402344 10.929688 C 3.257812 10.203125 3.066406 9.578125 2.804688 9.117188 Z M 2.804688 9.117188 "/>
<use xlink:href="#surface18"/>
</g>
</svg>
