<?xml version="1.0" encoding="UTF-8"?>
<svg xmlns="http://www.w3.org/2000/svg" xmlns:xlink="http://www.w3.org/1999/xlink" width="12pt" height="12pt" viewBox="0 0 12 12" version="1.1">
<g id="surface1">
<path style=" stroke:none;fill-rule:evenodd;fill:rgb(35.686275%,35.686275%,35.686275%);fill-opacity:1;" d="M 2.800781 0.710938 L 9.199219 0.710938 C 10.351562 0.710938 11.289062 1.648438 11.289062 2.800781 L 11.289062 9.199219 C 11.289062 10.351562 10.351562 11.289062 9.199219 11.289062 L 2.800781 11.289062 C 1.648438 11.289062 0.710938 10.351562 0.710938 9.199219 L 0.710938 2.800781 C 0.710938 1.648438 1.648438 0.710938 2.800781 0.710938 Z M 2.800781 0.710938 "/>
<path style=" stroke:none;fill-rule:nonzero;fill:rgb(43.529412%,43.529412%,43.529412%);fill-opacity:1;" d="M 5.035156 6.269531 L 6.964844 6.269531 C 7.175781 6.269531 7.351562 6.429688 7.351562 6.628906 L 7.351562 9.152344 C 7.351562 9.351562 7.175781 9.511719 6.964844 9.511719 L 5.035156 9.511719 C 4.824219 9.511719 4.648438 9.351562 4.648438 9.152344 L 4.648438 6.628906 C 4.648438 6.429688 4.824219 6.269531 5.035156 6.269531 Z M 5.035156 6.269531 "/>
<path style=" stroke:none;fill-rule:nonzero;fill:rgb(43.529412%,43.529412%,43.529412%);fill-opacity:1;" d="M 5.460938 3.839844 C 5.460938 4.734375 4.734375 5.460938 3.839844 5.460938 C 2.945312 5.460938 2.21875 4.734375 2.21875 3.839844 C 2.21875 2.945312 2.945312 2.21875 3.839844 2.21875 C 4.734375 2.21875 5.460938 2.945312 5.460938 3.839844 Z M 5.460938 3.839844 "/>
<path style=" stroke:none;fill-rule:nonzero;fill:rgb(43.529412%,43.529412%,43.529412%);fill-opacity:1;" d="M 9.78125 3.839844 C 9.78125 4.734375 9.054688 5.460938 8.160156 5.460938 C 7.265625 5.460938 6.539062 4.734375 6.539062 3.839844 C 6.539062 2.945312 7.265625 2.21875 8.160156 2.21875 C 9.054688 2.21875 9.78125 2.945312 9.78125 3.839844 Z M 9.78125 3.839844 "/>
<path style=" stroke:none;fill-rule:nonzero;fill:rgb(62.745098%,63.921569%,64.313725%);fill-opacity:1;" d="M 4.648438 7.753906 L 4.648438 6.808594 C 4.648438 6.808594 4.410156 6.820312 4.292969 6.855469 C 3.816406 6.988281 3.46875 7.5 3.597656 8.003906 C 3.722656 8.507812 4.214844 8.804688 4.691406 8.667969 C 5.171875 8.535156 4.777344 8.257812 4.648438 7.753906 Z M 4.648438 7.753906 "/>
<path style=" stroke:none;fill-rule:nonzero;fill:rgb(62.745098%,63.921569%,64.313725%);fill-opacity:1;" d="M 7.351562 7.753906 L 7.351562 6.808594 C 7.351562 6.808594 7.59375 6.820312 7.710938 6.855469 C 8.1875 6.988281 8.535156 7.5 8.40625 8.003906 C 8.28125 8.507812 7.789062 8.804688 7.3125 8.667969 C 6.832031 8.535156 7.222656 8.257812 7.351562 7.753906 Z M 7.351562 7.753906 "/>
<path style=" stroke:none;fill-rule:nonzero;fill:rgb(62.745098%,63.921569%,64.313725%);fill-opacity:1;" d="M 7.890625 9.78125 L 6.269531 9.78125 C 6.269531 9.332031 6.632812 8.972656 7.082031 8.972656 C 7.527344 8.972656 7.890625 9.332031 7.890625 9.78125 Z M 7.890625 9.78125 "/>
<path style=" stroke:none;fill-rule:nonzero;fill:rgb(62.745098%,63.921569%,64.313725%);fill-opacity:1;" d="M 5.730469 9.78125 L 4.109375 9.78125 C 4.109375 9.332031 4.472656 8.972656 4.917969 8.972656 C 5.367188 8.972656 5.730469 9.332031 5.730469 9.78125 Z M 5.730469 9.78125 "/>
<path style=" stroke:none;fill-rule:nonzero;fill:rgb(62.745098%,63.921569%,64.313725%);fill-opacity:1;" d="M 5.261719 6.808594 L 6.738281 6.808594 C 7.964844 6.808594 8.699219 6.289062 8.699219 4.71875 C 8.699219 3.671875 7.71875 2.765625 6 2.757812 C 4.28125 2.757812 3.296875 3.671875 3.296875 4.71875 C 3.296875 6.289062 4.035156 6.808594 5.261719 6.808594 Z M 5.261719 6.808594 "/>
<path style=" stroke:none;fill-rule:nonzero;fill:rgb(45.490196%,72.156863%,100%);fill-opacity:1;" d="M 4.917969 4.785156 C 4.917969 5.15625 4.617188 5.460938 4.246094 5.460938 C 3.871094 5.460938 3.570312 5.15625 3.570312 4.785156 C 3.570312 4.410156 3.871094 4.109375 4.246094 4.109375 C 4.617188 4.109375 4.917969 4.410156 4.917969 4.785156 Z M 4.917969 4.785156 "/>
<path style=" stroke:none;fill-rule:nonzero;fill:rgb(30.196078%,30.196078%,30.196078%);fill-opacity:1;" d="M 4.648438 4.785156 C 4.648438 5.007812 4.46875 5.191406 4.246094 5.191406 C 4.019531 5.191406 3.839844 5.007812 3.839844 4.785156 C 3.839844 4.5625 4.019531 4.378906 4.246094 4.378906 C 4.46875 4.378906 4.648438 4.5625 4.648438 4.785156 Z M 4.648438 4.785156 "/>
<path style=" stroke:none;fill-rule:nonzero;fill:rgb(30.196078%,30.196078%,30.196078%);fill-opacity:1;" d="M 5.300781 6 C 5.226562 6.054688 5.191406 6.117188 5.191406 6.179688 C 5.191406 6.378906 5.550781 6.539062 6 6.539062 C 6.449219 6.539062 6.808594 6.378906 6.808594 6.179688 C 6.808594 6.117188 6.773438 6.054688 6.699219 6 C 6.554688 6.109375 6.289062 6.179688 6 6.179688 C 5.710938 6.179688 5.445312 6.109375 5.300781 6 Z M 5.300781 6 "/>
<path style=" stroke:none;fill-rule:nonzero;fill:rgb(30.196078%,30.196078%,30.196078%);fill-opacity:1;" d="M 5.191406 4.730469 C 5.195312 5.8125 5.691406 5.8125 6 5.8125 C 6.308594 5.8125 6.804688 5.8125 6.808594 4.730469 C 6.8125 3.867188 6.289062 3.109375 6 3.109375 C 5.710938 3.109375 5.1875 3.867188 5.191406 4.730469 Z M 5.191406 4.730469 "/>
<path style=" stroke:none;fill-rule:nonzero;fill:rgb(20.392157%,20.392157%,20.392157%);fill-opacity:1;" d="M 5.460938 5.449219 C 5.414062 5.449219 5.367188 5.460938 5.328125 5.476562 C 5.410156 5.640625 5.523438 5.722656 5.640625 5.765625 C 5.699219 5.730469 5.730469 5.679688 5.730469 5.628906 C 5.730469 5.53125 5.609375 5.449219 5.460938 5.449219 Z M 6.539062 5.449219 C 6.390625 5.449219 6.269531 5.53125 6.269531 5.628906 C 6.269531 5.679688 6.300781 5.730469 6.359375 5.765625 C 6.476562 5.722656 6.589844 5.640625 6.675781 5.476562 C 6.632812 5.460938 6.585938 5.449219 6.539062 5.449219 Z M 6.539062 5.449219 "/>
<path style=" stroke:none;fill-rule:nonzero;fill:rgb(45.490196%,72.156863%,100%);fill-opacity:1;" d="M 8.429688 4.785156 C 8.429688 5.15625 8.128906 5.460938 7.753906 5.460938 C 7.382812 5.460938 7.082031 5.15625 7.082031 4.785156 C 7.082031 4.410156 7.382812 4.109375 7.753906 4.109375 C 8.128906 4.109375 8.429688 4.410156 8.429688 4.785156 Z M 8.429688 4.785156 "/>
<path style=" stroke:none;fill-rule:nonzero;fill:rgb(30.196078%,30.196078%,30.196078%);fill-opacity:1;" d="M 8.160156 4.785156 C 8.160156 5.007812 7.980469 5.191406 7.753906 5.191406 C 7.53125 5.191406 7.351562 5.007812 7.351562 4.785156 C 7.351562 4.5625 7.53125 4.378906 7.753906 4.378906 C 7.980469 4.378906 8.160156 4.5625 8.160156 4.785156 Z M 8.160156 4.785156 "/>
</g>
</svg>
