<?xml version="1.0" encoding="UTF-8"?>
<svg xmlns="http://www.w3.org/2000/svg" xmlns:xlink="http://www.w3.org/1999/xlink" width="12pt" height="12pt" viewBox="0 0 12 12" version="1.1">
<g id="surface1">
<path style=" stroke:none;fill-rule:evenodd;fill:rgb(30.196078%,30.196078%,30.196078%);fill-opacity:1;" d="M 2.800781 0.710938 L 9.199219 0.710938 C 10.351562 0.710938 11.289062 1.648438 11.289062 2.800781 L 11.289062 9.199219 C 11.289062 10.351562 10.351562 11.289062 9.199219 11.289062 L 2.800781 11.289062 C 1.648438 11.289062 0.710938 10.351562 0.710938 9.199219 L 0.710938 2.800781 C 0.710938 1.648438 1.648438 0.710938 2.800781 0.710938 Z M 2.800781 0.710938 "/>
<path style=" stroke:none;fill-rule:nonzero;fill:rgb(55.686275%,55.686275%,55.686275%);fill-opacity:1;" d="M 6.003906 2.273438 C 5.746094 2.261719 5.503906 2.382812 5.375 2.585938 L 2.15625 7.660156 C 2.03125 8.152344 2.402344 8.519531 2.960938 8.785156 C 4.003906 9.289062 5.695312 9.449219 5.972656 9.453125 C 6.429688 9.460938 7.8125 9.253906 8.800781 8.859375 C 9.550781 8.5625 10.074219 8.15625 9.785156 7.660156 L 6.570312 2.585938 C 6.453125 2.398438 6.238281 2.28125 6.003906 2.273438 Z M 6.003906 2.273438 "/>
<path style=" stroke:none;fill-rule:nonzero;fill:rgb(40.784314%,40.784314%,40.784314%);fill-opacity:1;" d="M 6.003906 2.269531 C 5.746094 2.261719 5.503906 2.382812 5.375 2.585938 L 4.894531 3.339844 L 4.894531 8.945312 C 4.894531 9.53125 5.527344 9.730469 6 9.730469 C 6.472656 9.730469 7.105469 9.53125 7.105469 8.945312 L 7.105469 3.429688 L 6.570312 2.585938 C 6.453125 2.398438 6.238281 2.28125 6.003906 2.269531 Z M 6.003906 2.269531 "/>
<path style=" stroke:none;fill-rule:nonzero;fill:rgb(68.627451%,68.627451%,69.411765%);fill-opacity:1;" d="M 3.652344 4.757812 C 3.878906 4.757812 4.066406 5.019531 4.066406 5.34375 L 4.066406 8.867188 C 4.066406 9.191406 3.878906 9.453125 3.652344 9.453125 C 3.421875 9.453125 3.238281 9.191406 3.238281 8.867188 L 3.238281 5.34375 C 3.238281 5.019531 3.421875 4.757812 3.652344 4.757812 Z M 3.652344 4.757812 "/>
<path style=" stroke:none;fill-rule:nonzero;fill:rgb(39.215686%,69.019608%,100%);fill-opacity:1;" d="M 6.828125 7.382812 C 6.828125 6.847656 6.457031 6.414062 6 6.414062 C 5.542969 6.414062 5.171875 6.847656 5.171875 7.382812 C 5.171875 7.914062 5.542969 8.347656 6 8.347656 C 6.457031 8.347656 6.828125 7.914062 6.828125 7.382812 Z M 6.828125 7.382812 "/>
<path style=" stroke:none;fill-rule:nonzero;fill:rgb(68.627451%,68.627451%,69.411765%);fill-opacity:1;" d="M 8.347656 4.757812 C 8.578125 4.757812 8.761719 5.019531 8.761719 5.34375 L 8.761719 8.867188 C 8.761719 9.191406 8.578125 9.453125 8.347656 9.453125 C 8.121094 9.453125 7.933594 9.191406 7.933594 8.867188 L 7.933594 5.34375 C 7.933594 5.019531 8.121094 4.757812 8.347656 4.757812 Z M 8.347656 4.757812 "/>
</g>
</svg>
