<?xml version="1.0" encoding="UTF-8"?>
<svg xmlns="http://www.w3.org/2000/svg" xmlns:xlink="http://www.w3.org/1999/xlink" width="12pt" height="12pt" viewBox="0 0 12 12" version="1.1">
<g id="surface1">
<path style=" stroke:none;fill-rule:evenodd;fill:rgb(60%,60%,60%);fill-opacity:1;" d="M 2.800781 0.710938 L 9.199219 0.710938 C 10.351562 0.710938 11.289062 1.648438 11.289062 2.800781 L 11.289062 9.199219 C 11.289062 10.351562 10.351562 11.289062 9.199219 11.289062 L 2.800781 11.289062 C 1.648438 11.289062 0.710938 10.351562 0.710938 9.199219 L 0.710938 2.800781 C 0.710938 1.648438 1.648438 0.710938 2.800781 0.710938 Z M 2.800781 0.710938 "/>
<path style=" stroke:none;fill-rule:nonzero;fill:rgb(94.901961%,21.568627%,21.568627%);fill-opacity:1;" d="M 8.25 1.5 C 6.800781 1.5 5.625 2.675781 5.625 4.125 C 5.625 5.574219 6.800781 6.75 8.25 6.75 C 9.699219 6.75 10.875 5.574219 10.875 4.125 C 10.875 2.675781 9.699219 1.5 8.25 1.5 Z M 8.25 1.5 "/>
<path style=" stroke:none;fill-rule:nonzero;fill:rgb(21.568627%,62.745098%,94.901961%);fill-opacity:1;" d="M 3.75 5.25 C 2.300781 5.25 1.125 6.425781 1.125 7.875 C 1.125 9.324219 2.300781 10.5 3.75 10.5 C 5.199219 10.5 6.375 9.324219 6.375 7.875 C 6.375 6.425781 5.199219 5.25 3.75 5.25 Z M 3.75 5.25 "/>
</g>
</svg>
