<?xml version="1.0" encoding="UTF-8"?>
<svg xmlns="http://www.w3.org/2000/svg" xmlns:xlink="http://www.w3.org/1999/xlink" width="12pt" height="12pt" viewBox="0 0 12 12" version="1.1">
<g id="surface1">
<path style=" stroke:none;fill-rule:evenodd;fill:rgb(80%,80%,80%);fill-opacity:1;" d="M 2.800781 0.710938 L 9.199219 0.710938 C 10.351562 0.710938 11.289062 1.648438 11.289062 2.800781 L 11.289062 9.199219 C 11.289062 10.351562 10.351562 11.289062 9.199219 11.289062 L 2.800781 11.289062 C 1.648438 11.289062 0.710938 10.351562 0.710938 9.199219 L 0.710938 2.800781 C 0.710938 1.648438 1.648438 0.710938 2.800781 0.710938 Z M 2.800781 0.710938 "/>
<path style=" stroke:none;fill-rule:nonzero;fill:rgb(97.647059%,97.647059%,97.647059%);fill-opacity:1;" d="M 6 2.023438 C 3.796875 2.023438 2.023438 3.796875 2.023438 6 C 2.023438 8.203125 3.796875 9.976562 6 9.976562 C 8.203125 9.976562 9.976562 8.203125 9.976562 6 C 9.976562 3.796875 8.203125 2.023438 6 2.023438 Z M 6 2.023438 "/>
<path style=" stroke:none;fill-rule:nonzero;fill:rgb(9.019608%,58.431373%,4.313725%);fill-opacity:1;" d="M 6 3.160156 C 4.425781 3.160156 3.160156 4.425781 3.160156 6 C 3.160156 7.574219 4.425781 8.839844 6 8.839844 C 7.574219 8.839844 8.839844 7.574219 8.839844 6 C 8.839844 4.425781 7.574219 3.160156 6 3.160156 Z M 6 3.160156 "/>
<path style=" stroke:none;fill-rule:nonzero;fill:rgb(100%,100%,13.333333%);fill-opacity:1;" d="M 6 4.011719 C 4.898438 4.011719 4.011719 4.898438 4.011719 6 C 4.011719 7.101562 4.898438 7.988281 6 7.988281 C 7.101562 7.988281 7.988281 7.101562 7.988281 6 C 7.988281 4.898438 7.101562 4.011719 6 4.011719 Z M 6 4.011719 "/>
<path style=" stroke:none;fill-rule:nonzero;fill:rgb(81.960784%,39.607843%,100%);fill-opacity:1;" d="M 6 4.863281 C 5.371094 4.863281 4.863281 5.371094 4.863281 6 C 4.863281 6.628906 5.371094 7.136719 6 7.136719 C 6.628906 7.136719 7.136719 6.628906 7.136719 6 C 7.136719 5.371094 6.628906 4.863281 6 4.863281 Z M 6 4.863281 "/>
</g>
</svg>
