<?xml version="1.0" encoding="UTF-8"?>
<svg xmlns="http://www.w3.org/2000/svg" xmlns:xlink="http://www.w3.org/1999/xlink" width="12pt" height="12pt" viewBox="0 0 12 12" version="1.1">
<defs>
<clipPath id="clip1">
  <rect width="12" height="12"/>
</clipPath>
<g id="surface6" clip-path="url(#clip1)">
<path style=" stroke:none;fill-rule:nonzero;fill:rgb(90.588235%,29.803922%,23.529412%);fill-opacity:1;" d="M 5.136719 4.5 C 4.582031 4.5 4.125 4.917969 4.125 5.4375 C 4.125 5.707031 4.246094 5.953125 4.441406 6.125 L 5.976562 7.5 L 7.558594 6.125 C 7.753906 5.953125 7.875 5.707031 7.875 5.4375 C 7.875 4.917969 7.417969 4.5 6.863281 4.5 C 6.496094 4.5 6.175781 4.679688 6 4.953125 C 5.824219 4.679688 5.503906 4.5 5.136719 4.5 Z M 5.136719 4.5 "/>
</g>
<clipPath id="clip2">
  <rect width="12" height="12"/>
</clipPath>
<g id="surface9" clip-path="url(#clip2)">
<path style=" stroke:none;fill-rule:nonzero;fill:rgb(90.588235%,29.803922%,23.529412%);fill-opacity:1;" d="M 3.03125 3.75 C 2.808594 3.75 2.625 3.90625 2.625 4.101562 C 2.625 4.203125 2.671875 4.296875 2.753906 4.359375 L 3.363281 4.875 L 3.996094 4.359375 C 4.078125 4.296875 4.125 4.203125 4.125 4.101562 C 4.125 3.90625 3.941406 3.75 3.71875 3.75 C 3.574219 3.75 3.445312 3.816406 3.375 3.917969 C 3.304688 3.816406 3.175781 3.75 3.03125 3.75 Z M 3.03125 3.75 "/>
</g>
<clipPath id="clip3">
  <rect width="12" height="12"/>
</clipPath>
<g id="surface12" clip-path="url(#clip3)">
<path style=" stroke:none;fill-rule:nonzero;fill:rgb(90.588235%,29.803922%,23.529412%);fill-opacity:1;" d="M 8.96875 8.25 C 9.191406 8.25 9.375 8.09375 9.375 7.898438 C 9.375 7.796875 9.328125 7.703125 9.246094 7.640625 L 8.636719 7.125 L 8.003906 7.640625 C 7.921875 7.703125 7.875 7.796875 7.875 7.898438 C 7.875 8.09375 8.058594 8.25 8.28125 8.25 C 8.425781 8.25 8.554688 8.183594 8.625 8.082031 C 8.695312 8.183594 8.824219 8.25 8.96875 8.25 Z M 8.96875 8.25 "/>
</g>
</defs>
<g id="surface1">
<path style=" stroke:none;fill-rule:evenodd;fill:rgb(80%,80%,80%);fill-opacity:1;" d="M 2.800781 0.710938 L 9.199219 0.710938 C 10.351562 0.710938 11.289062 1.648438 11.289062 2.800781 L 11.289062 9.199219 C 11.289062 10.351562 10.351562 11.289062 9.199219 11.289062 L 2.800781 11.289062 C 1.648438 11.289062 0.710938 10.351562 0.710938 9.199219 L 0.710938 2.800781 C 0.710938 1.648438 1.648438 0.710938 2.800781 0.710938 Z M 2.800781 0.710938 "/>
<use xlink:href="#surface6"/>
<use xlink:href="#surface9"/>
<path style=" stroke:none;fill-rule:nonzero;fill:rgb(90.588235%,29.803922%,23.529412%);fill-opacity:1;" d="M 3.714844 3.101562 L 3.109375 3.101562 L 3.015625 3.375 L 2.625 3.375 L 3.179688 1.875 L 3.640625 1.875 L 4.199219 3.375 L 3.808594 3.375 Z M 3.207031 2.824219 L 3.617188 2.824219 L 3.410156 2.226562 Z M 3.207031 2.824219 "/>
<use xlink:href="#surface12"/>
<path style=" stroke:none;fill-rule:nonzero;fill:rgb(90.588235%,29.803922%,23.529412%);fill-opacity:1;" d="M 8.285156 8.898438 L 8.890625 8.898438 L 8.984375 8.625 L 9.375 8.625 L 8.820312 10.125 L 8.359375 10.125 L 7.800781 8.625 L 8.191406 8.625 Z M 8.792969 9.175781 L 8.382812 9.175781 L 8.589844 9.773438 Z M 8.792969 9.175781 "/>
</g>
</svg>
