<?xml version="1.0" encoding="UTF-8"?>
<svg xmlns="http://www.w3.org/2000/svg" xmlns:xlink="http://www.w3.org/1999/xlink" width="12pt" height="12pt" viewBox="0 0 12 12" version="1.1">
<g id="surface1">
<path style=" stroke:none;fill-rule:evenodd;fill:rgb(0.784314%,52.54902%,76.078431%);fill-opacity:1;" d="M 2.800781 0.710938 L 9.199219 0.710938 C 10.351562 0.710938 11.289062 1.648438 11.289062 2.800781 L 11.289062 9.199219 C 11.289062 10.351562 10.351562 11.289062 9.199219 11.289062 L 2.800781 11.289062 C 1.648438 11.289062 0.710938 10.351562 0.710938 9.199219 L 0.710938 2.800781 C 0.710938 1.648438 1.648438 0.710938 2.800781 0.710938 Z M 2.800781 0.710938 "/>
<path style=" stroke:none;fill-rule:evenodd;fill:rgb(13.333333%,59.215686%,99.215686%);fill-opacity:1;" d="M 7.140625 4.742188 L 7.140625 5.921875 L 7.832031 5.921875 C 8.066406 5.921875 8.246094 5.871094 8.363281 5.773438 C 8.484375 5.675781 8.542969 5.527344 8.542969 5.328125 C 8.542969 5.132812 8.484375 4.988281 8.367188 4.890625 C 8.246094 4.792969 8.070312 4.742188 7.832031 4.742188 Z M 7.140625 4.742188 "/>
<path style=" stroke:none;fill-rule:evenodd;fill:rgb(13.333333%,59.215686%,99.215686%);fill-opacity:1;" d="M 7.140625 3 L 7.140625 3.953125 L 7.792969 3.953125 C 7.976562 3.953125 8.117188 3.914062 8.214844 3.832031 C 8.308594 3.753906 8.355469 3.632812 8.355469 3.476562 C 8.355469 3.324219 8.308594 3.207031 8.214844 3.125 C 8.117188 3.042969 7.976562 3 7.792969 3 Z M 7.140625 3 "/>
<path style=" stroke:none;fill-rule:evenodd;fill:rgb(100%,100%,100%);fill-opacity:1;" d="M 5.96875 2.210938 L 5.96875 6.710938 L 7.917969 6.710938 C 8.21875 6.710938 8.484375 6.683594 8.710938 6.632812 C 8.9375 6.578125 9.125 6.5 9.273438 6.394531 C 9.421875 6.285156 9.53125 6.152344 9.605469 5.988281 C 9.679688 5.828125 9.71875 5.640625 9.71875 5.421875 C 9.71875 5.140625 9.648438 4.898438 9.511719 4.703125 C 9.371094 4.507812 9.175781 4.375 8.925781 4.304688 C 9.121094 4.230469 9.273438 4.117188 9.375 3.964844 C 9.480469 3.808594 9.53125 3.621094 9.53125 3.402344 C 9.53125 3.195312 9.496094 3.015625 9.425781 2.863281 C 9.355469 2.710938 9.246094 2.589844 9.105469 2.496094 C 8.964844 2.402344 8.777344 2.332031 8.546875 2.28125 C 8.320312 2.234375 8.046875 2.210938 7.730469 2.210938 Z M 7.140625 3 L 7.792969 3 C 7.976562 3 8.117188 3.042969 8.214844 3.125 C 8.308594 3.207031 8.355469 3.324219 8.355469 3.476562 C 8.355469 3.632812 8.308594 3.753906 8.214844 3.832031 C 8.117188 3.914062 7.976562 3.953125 7.792969 3.953125 L 7.140625 3.953125 Z M 7.140625 4.742188 L 7.832031 4.742188 C 8.070312 4.742188 8.246094 4.792969 8.367188 4.890625 C 8.484375 4.988281 8.542969 5.132812 8.542969 5.328125 C 8.542969 5.527344 8.484375 5.675781 8.363281 5.773438 C 8.246094 5.871094 8.066406 5.921875 7.832031 5.921875 L 7.140625 5.921875 Z M 7.140625 4.742188 "/>
<path style=" stroke:none;fill-rule:evenodd;fill:rgb(0.784314%,52.54902%,76.078431%);fill-opacity:1;" d="M 8.21875 8.210938 L 8.21875 11.023438 C 8.21875 11.128906 8.15625 11.203125 8.109375 11.289062 L 9.199219 11.289062 C 10.355469 11.289062 11.289062 10.355469 11.289062 9.199219 L 11.289062 8.105469 C 11.207031 8.152344 11.132812 8.210938 11.03125 8.210938 Z M 8.21875 8.210938 "/>
<path style=" stroke:none;fill-rule:evenodd;fill:rgb(95.294118%,26.666667%,24.705882%);fill-opacity:1;" d="M 3.742188 7.710938 L 3.503906 8.433594 L 4.679688 8.433594 L 4.609375 8.210938 L 4.28125 8.210938 C 4.125 8.210938 3.984375 8.148438 3.882812 8.046875 C 3.796875 7.960938 3.757812 7.835938 3.742188 7.710938 Z M 3.742188 7.710938 "/>
<path style=" stroke:none;fill-rule:evenodd;fill:rgb(100%,100%,100%);fill-opacity:1;" d="M 3.71875 5.585938 L 3.433594 5.585938 L 1.84375 10.085938 L 2.957031 10.085938 L 3.226562 9.265625 L 4.960938 9.265625 L 5.230469 10.085938 L 6.34375 10.085938 L 5.679688 8.210938 L 4.609375 8.210938 L 4.679688 8.433594 L 3.503906 8.433594 L 3.742188 7.710938 C 3.738281 7.6875 3.71875 7.671875 3.71875 7.648438 Z M 3.71875 5.585938 "/>
<path style=" stroke:none;fill-rule:evenodd;fill:rgb(95.294118%,26.666667%,24.705882%);fill-opacity:1;" d="M 0.90625 3.710938 C 0.828125 3.710938 0.777344 3.765625 0.710938 3.792969 L 0.710938 9.199219 C 0.710938 10.355469 1.644531 11.289062 2.800781 11.289062 L 8.109375 11.289062 C 8.15625 11.203125 8.21875 11.128906 8.21875 11.023438 L 8.21875 8.210938 L 5.679688 8.210938 L 6.34375 10.085938 L 5.230469 10.085938 L 4.960938 9.265625 L 3.226562 9.265625 L 2.957031 10.085938 L 1.84375 10.085938 L 3.433594 5.585938 L 3.71875 5.585938 L 3.71875 3.710938 Z M 0.90625 3.710938 "/>
<path style=" stroke:none;fill-rule:evenodd;fill:rgb(0.784314%,52.54902%,76.078431%);fill-opacity:1;" d="M 2.800781 0.710938 C 1.644531 0.710938 0.710938 1.644531 0.710938 2.804688 L 0.710938 3.792969 C 0.777344 3.765625 0.828125 3.710938 0.90625 3.710938 L 3.71875 3.710938 L 3.71875 0.898438 C 3.71875 0.824219 3.769531 0.777344 3.792969 0.710938 Z M 2.800781 0.710938 "/>
<path style=" stroke:none;fill-rule:evenodd;fill:rgb(13.333333%,59.215686%,99.215686%);fill-opacity:1;" d="M 3.792969 0.710938 C 3.769531 0.777344 3.71875 0.824219 3.71875 0.898438 L 3.71875 7.648438 C 3.71875 7.804688 3.78125 7.945312 3.882812 8.046875 C 3.984375 8.148438 4.125 8.210938 4.28125 8.210938 L 11.03125 8.210938 C 11.132812 8.210938 11.207031 8.152344 11.289062 8.105469 L 11.289062 2.804688 C 11.289062 1.644531 10.355469 0.710938 9.199219 0.710938 Z M 5.96875 2.210938 L 7.730469 2.210938 C 8.046875 2.210938 8.320312 2.234375 8.546875 2.28125 C 8.777344 2.332031 8.964844 2.402344 9.105469 2.496094 C 9.246094 2.589844 9.355469 2.710938 9.425781 2.863281 C 9.496094 3.015625 9.53125 3.195312 9.53125 3.402344 C 9.53125 3.621094 9.480469 3.808594 9.375 3.964844 C 9.273438 4.117188 9.121094 4.230469 8.925781 4.304688 C 9.175781 4.375 9.371094 4.507812 9.511719 4.703125 C 9.648438 4.898438 9.71875 5.140625 9.71875 5.421875 C 9.71875 5.640625 9.679688 5.828125 9.605469 5.988281 C 9.53125 6.152344 9.421875 6.285156 9.273438 6.394531 C 9.125 6.5 8.9375 6.578125 8.710938 6.632812 C 8.484375 6.683594 8.21875 6.710938 7.917969 6.710938 L 5.96875 6.710938 Z M 5.96875 2.210938 "/>
</g>
</svg>
