<?xml version="1.0" encoding="UTF-8"?>
<svg xmlns="http://www.w3.org/2000/svg" xmlns:xlink="http://www.w3.org/1999/xlink" width="12pt" height="12pt" viewBox="0 0 12 12" version="1.1">
<g id="surface1">
<path style=" stroke:none;fill-rule:evenodd;fill:rgb(30.980392%,30.980392%,30.980392%);fill-opacity:1;" d="M 2.800781 0.710938 L 9.199219 0.710938 C 10.351562 0.710938 11.289062 1.648438 11.289062 2.800781 L 11.289062 9.199219 C 11.289062 10.351562 10.351562 11.289062 9.199219 11.289062 L 2.800781 11.289062 C 1.648438 11.289062 0.710938 10.351562 0.710938 9.199219 L 0.710938 2.800781 C 0.710938 1.648438 1.648438 0.710938 2.800781 0.710938 Z M 2.800781 0.710938 "/>
<path style=" stroke:none;fill-rule:nonzero;fill:rgb(100%,100%,100%);fill-opacity:1;" d="M 6 2.445312 C 4.027344 2.445312 2.445312 4.027344 2.445312 6 C 2.445312 7.972656 4.027344 9.554688 6 9.554688 C 6.316406 9.554688 6.59375 9.277344 6.59375 8.960938 C 6.59375 8.804688 6.550781 8.683594 6.433594 8.566406 C 6.355469 8.449219 6.277344 8.328125 6.277344 8.171875 C 6.277344 7.855469 6.554688 7.578125 6.867188 7.578125 L 7.578125 7.578125 C 8.683594 7.578125 9.554688 6.710938 9.554688 5.605469 C 9.554688 3.867188 7.972656 2.445312 6 2.445312 Z M 6 2.445312 "/>
<path style=" stroke:none;fill-rule:nonzero;fill:rgb(94.509804%,64.313725%,26.27451%);fill-opacity:1;" d="M 3.539062 6 C 3.25 6 2.992188 5.746094 2.992188 5.453125 C 2.992188 5.160156 3.25 4.90625 3.539062 4.90625 C 3.832031 4.90625 4.085938 5.160156 4.085938 5.453125 C 4.085938 5.746094 3.832031 6 3.539062 6 Z M 3.539062 6 "/>
<path style=" stroke:none;fill-rule:nonzero;fill:rgb(24.705882%,56.470588%,86.27451%);fill-opacity:1;" d="M 4.90625 4.359375 C 4.617188 4.359375 4.359375 4.105469 4.359375 3.8125 C 4.359375 3.523438 4.617188 3.265625 4.90625 3.265625 C 5.199219 3.265625 5.453125 3.523438 5.453125 3.8125 C 5.453125 4.105469 5.199219 4.359375 4.90625 4.359375 Z M 4.90625 4.359375 "/>
<path style=" stroke:none;fill-rule:nonzero;fill:rgb(33.72549%,66.27451%,7.45098%);fill-opacity:1;" d="M 6.820312 4.359375 C 6.527344 4.359375 6.273438 4.105469 6.273438 3.8125 C 6.273438 3.523438 6.527344 3.265625 6.820312 3.265625 C 7.113281 3.265625 7.367188 3.523438 7.367188 3.8125 C 7.367188 4.105469 7.113281 4.359375 6.820312 4.359375 Z M 6.820312 4.359375 "/>
<path style=" stroke:none;fill-rule:nonzero;fill:rgb(95.294118%,35.686275%,35.686275%);fill-opacity:1;" d="M 8.1875 6 C 7.894531 6 7.640625 5.746094 7.640625 5.453125 C 7.640625 5.160156 7.894531 4.90625 8.1875 4.90625 C 8.476562 4.90625 8.734375 5.160156 8.734375 5.453125 C 8.734375 5.746094 8.476562 6 8.1875 6 Z M 8.1875 6 "/>
</g>
</svg>
