<?xml version="1.0" encoding="UTF-8"?>
<svg xmlns="http://www.w3.org/2000/svg" xmlns:xlink="http://www.w3.org/1999/xlink" width="12pt" height="12pt" viewBox="0 0 12 12" version="1.1">
<g id="surface1">
<path style=" stroke:none;fill-rule:evenodd;fill:rgb(89.411765%,59.607843%,8.235294%);fill-opacity:1;" d="M 11.289062 4.875 C 11.210938 4.835938 11.144531 4.78125 11.050781 4.78125 L 0.949219 4.78125 C 0.855469 4.78125 0.789062 4.835938 0.710938 4.875 L 0.710938 9.199219 C 0.710938 10.355469 1.644531 11.289062 2.800781 11.289062 L 9.199219 11.289062 C 10.355469 11.289062 11.289062 10.355469 11.289062 9.199219 Z M 11.289062 4.875 "/>
<path style=" stroke:none;fill-rule:evenodd;fill:rgb(94.901961%,71.764706%,25.098039%);fill-opacity:1;" d="M 10.351562 4.78125 C 10.367188 4.730469 10.410156 4.699219 10.410156 4.644531 L 10.410156 4.113281 C 10.410156 3.964844 10.347656 3.832031 10.242188 3.734375 C 10.136719 3.636719 9.996094 3.578125 9.835938 3.578125 L 6.972656 3.578125 C 6.816406 3.578125 6.671875 3.636719 6.566406 3.734375 C 6.464844 3.832031 6.402344 3.964844 6.402344 4.113281 L 6.402344 4.644531 C 6.402344 4.699219 6.445312 4.730469 6.460938 4.78125 Z M 10.351562 4.78125 "/>
<path style=" stroke:none;fill-rule:evenodd;fill:rgb(94.901961%,71.764706%,25.098039%);fill-opacity:1;" d="M 5.539062 4.78125 C 5.554688 4.730469 5.597656 4.699219 5.597656 4.644531 L 5.597656 4.113281 C 5.597656 3.964844 5.535156 3.832031 5.429688 3.734375 C 5.328125 3.636719 5.183594 3.578125 5.027344 3.578125 L 2.164062 3.578125 C 2.003906 3.578125 1.863281 3.636719 1.757812 3.734375 C 1.652344 3.832031 1.589844 3.964844 1.589844 4.113281 L 1.589844 4.644531 C 1.589844 4.699219 1.632812 4.730469 1.648438 4.78125 Z M 5.539062 4.78125 "/>
<path style=" stroke:none;fill-rule:evenodd;fill:rgb(55.686275%,55.686275%,55.686275%);fill-opacity:1;" d="M 2.800781 0.710938 C 1.644531 0.710938 0.710938 1.644531 0.710938 2.800781 L 0.710938 4.875 C 0.789062 4.835938 0.855469 4.78125 0.949219 4.78125 L 1.648438 4.78125 C 1.632812 4.730469 1.589844 4.699219 1.589844 4.644531 L 1.589844 4.113281 C 1.589844 3.964844 1.652344 3.832031 1.757812 3.734375 C 1.863281 3.636719 2.003906 3.578125 2.164062 3.578125 L 5.027344 3.578125 C 5.183594 3.578125 5.328125 3.636719 5.429688 3.734375 C 5.535156 3.832031 5.597656 3.964844 5.597656 4.113281 L 5.597656 4.644531 C 5.597656 4.699219 5.554688 4.730469 5.539062 4.78125 L 6.460938 4.78125 C 6.445312 4.730469 6.402344 4.699219 6.402344 4.644531 L 6.402344 4.113281 C 6.402344 3.964844 6.464844 3.832031 6.570312 3.734375 C 6.671875 3.636719 6.816406 3.578125 6.972656 3.578125 L 9.835938 3.578125 C 9.996094 3.578125 10.140625 3.636719 10.242188 3.734375 C 10.347656 3.832031 10.410156 3.964844 10.410156 4.113281 L 10.410156 4.644531 C 10.410156 4.699219 10.367188 4.730469 10.351562 4.78125 L 11.050781 4.78125 C 11.144531 4.78125 11.210938 4.835938 11.289062 4.875 L 11.289062 2.800781 C 11.289062 1.644531 10.355469 0.710938 9.199219 0.710938 Z M 2.800781 0.710938 "/>
</g>
</svg>
