<?xml version="1.0" encoding="UTF-8"?>
<svg xmlns="http://www.w3.org/2000/svg" xmlns:xlink="http://www.w3.org/1999/xlink" width="12pt" height="12pt" viewBox="0 0 12 12" version="1.1">
<g id="surface1">
<path style=" stroke:none;fill-rule:evenodd;fill:rgb(76.078431%,24.705882%,17.254902%);fill-opacity:1;" d="M 2.824219 0.75 L 9.175781 0.75 C 10.320312 0.75 11.25 1.679688 11.25 2.824219 L 11.25 9.175781 C 11.25 10.320312 10.320312 11.25 9.175781 11.25 L 2.824219 11.25 C 1.679688 11.25 0.75 10.320312 0.75 9.175781 L 0.75 2.824219 C 0.75 1.679688 1.679688 0.75 2.824219 0.75 Z M 2.824219 0.75 "/>
<path style=" stroke:none;fill-rule:nonzero;fill:rgb(60.784314%,12.54902%,5.098039%);fill-opacity:1;" d="M 6 1.925781 C 8.25 1.925781 10.074219 3.75 10.074219 6 C 10.074219 8.25 8.25 10.074219 6 10.074219 C 3.75 10.074219 1.925781 8.25 1.925781 6 C 1.925781 3.75 3.75 1.925781 6 1.925781 Z M 6 1.925781 "/>
<path style=" stroke:none;fill-rule:nonzero;fill:rgb(89.803922%,45.490196%,32.156863%);fill-opacity:1;" d="M 6 1.925781 C 5.488281 1.925781 5 2.027344 4.546875 2.199219 C 4.511719 2.230469 4.46875 2.253906 4.4375 2.25 C 4.433594 2.25 4.425781 2.246094 4.421875 2.242188 C 4.199219 2.335938 3.988281 2.453125 3.789062 2.582031 C 3.8125 2.621094 3.820312 2.667969 3.769531 2.691406 C 3.757812 2.695312 3.644531 2.707031 3.605469 2.707031 C 3.035156 3.121094 2.582031 3.675781 2.289062 4.328125 C 2.292969 4.328125 2.296875 4.324219 2.300781 4.324219 C 2.34375 4.324219 2.410156 4.335938 2.453125 4.34375 C 2.492188 4.351562 2.523438 4.378906 2.558594 4.382812 C 2.652344 4.390625 2.675781 4.3125 2.753906 4.273438 C 2.835938 4.28125 2.890625 4.257812 2.964844 4.265625 C 3.015625 4.273438 3.050781 4.324219 3.089844 4.328125 C 3.121094 4.332031 3.152344 4.296875 3.183594 4.300781 C 3.214844 4.308594 3.265625 4.375 3.273438 4.414062 C 3.277344 4.460938 3.238281 4.5 3.25 4.554688 C 3.300781 4.605469 3.390625 4.613281 3.460938 4.640625 C 3.507812 4.605469 3.464844 4.535156 3.460938 4.480469 C 3.460938 4.457031 3.464844 4.433594 3.460938 4.414062 C 3.457031 4.375 3.4375 4.339844 3.4375 4.308594 C 3.4375 4.160156 3.558594 4.089844 3.660156 4.03125 C 3.703125 4.007812 3.734375 3.960938 3.773438 3.941406 C 3.824219 3.917969 3.867188 3.910156 3.910156 3.886719 C 3.988281 3.839844 4.054688 3.804688 4.117188 3.753906 C 4.144531 3.6875 4.121094 3.597656 4.121094 3.53125 C 4.152344 3.511719 4.175781 3.539062 4.207031 3.535156 C 4.253906 3.527344 4.257812 3.457031 4.285156 3.429688 C 4.300781 3.414062 4.34375 3.40625 4.363281 3.390625 C 4.410156 3.351562 4.425781 3.296875 4.46875 3.28125 C 4.484375 3.273438 4.515625 3.277344 4.539062 3.269531 C 4.570312 3.261719 4.617188 3.222656 4.664062 3.207031 C 4.699219 3.195312 4.773438 3.195312 4.785156 3.183594 C 4.800781 3.164062 4.785156 3.121094 4.792969 3.097656 C 4.816406 2.980469 4.996094 2.957031 5.101562 2.914062 C 5.171875 2.886719 5.25 2.835938 5.328125 2.851562 C 5.3125 2.90625 5.238281 2.886719 5.25 2.957031 C 5.269531 3.050781 5.394531 2.929688 5.429688 2.914062 C 5.492188 2.886719 5.601562 2.871094 5.683594 2.839844 C 5.757812 2.816406 5.890625 2.773438 5.820312 2.691406 C 5.761719 2.6875 5.734375 2.757812 5.683594 2.78125 C 5.648438 2.785156 5.65625 2.75 5.628906 2.746094 C 5.597656 2.742188 5.582031 2.773438 5.554688 2.769531 C 5.527344 2.765625 5.484375 2.71875 5.480469 2.683594 C 5.46875 2.597656 5.554688 2.5625 5.589844 2.496094 C 5.566406 2.417969 5.457031 2.480469 5.390625 2.449219 C 5.398438 2.402344 5.445312 2.371094 5.5 2.363281 C 5.546875 2.355469 5.648438 2.359375 5.675781 2.382812 C 5.691406 2.394531 5.675781 2.429688 5.699219 2.449219 C 5.726562 2.472656 5.757812 2.472656 5.792969 2.464844 C 5.804688 2.40625 5.71875 2.421875 5.726562 2.382812 C 5.796875 2.335938 5.910156 2.375 6 2.359375 C 6.046875 2.351562 6.097656 2.316406 6.144531 2.292969 C 6.1875 2.269531 6.242188 2.230469 6.285156 2.269531 C 6.296875 2.308594 6.246094 2.324219 6.222656 2.34375 C 6.140625 2.417969 6.0625 2.496094 6 2.582031 C 6.035156 2.617188 6.105469 2.597656 6.171875 2.605469 C 6.195312 2.609375 6.226562 2.617188 6.253906 2.621094 C 6.285156 2.628906 6.316406 2.625 6.34375 2.632812 C 6.386719 2.644531 6.398438 2.691406 6.441406 2.691406 C 6.511719 2.691406 6.511719 2.613281 6.472656 2.566406 C 6.484375 2.515625 6.503906 2.488281 6.488281 2.457031 C 6.457031 2.390625 6.339844 2.453125 6.332031 2.371094 C 6.328125 2.320312 6.375 2.320312 6.394531 2.285156 C 6.386719 2.183594 6.476562 2.175781 6.46875 2.085938 C 6.460938 2.046875 6.433594 2.046875 6.40625 2.011719 C 6.390625 1.992188 6.386719 1.960938 6.371094 1.945312 C 6.25 1.933594 6.125 1.925781 6 1.925781 Z M 3.898438 2.75 C 3.921875 2.753906 3.953125 2.78125 3.980469 2.78125 C 4.011719 2.78125 4.035156 2.765625 4.050781 2.769531 C 4.09375 2.78125 4.113281 2.847656 4.070312 2.878906 C 4.039062 2.882812 4.023438 2.867188 4 2.871094 C 3.925781 2.882812 3.902344 3.019531 3.847656 3.015625 C 3.796875 3.011719 3.769531 2.890625 3.820312 2.855469 C 3.824219 2.824219 3.796875 2.816406 3.800781 2.785156 C 3.8125 2.765625 3.859375 2.746094 3.898438 2.75 Z M 3.664062 2.765625 C 3.679688 2.765625 3.691406 2.769531 3.695312 2.777344 C 3.6875 2.832031 3.644531 2.828125 3.601562 2.855469 C 3.527344 2.898438 3.484375 2.96875 3.460938 3.0625 C 3.453125 3.089844 3.378906 3.164062 3.347656 3.15625 C 3.261719 3.140625 3.367188 2.988281 3.386719 2.964844 C 3.40625 2.9375 3.4375 2.914062 3.460938 2.886719 C 3.484375 2.855469 3.5 2.820312 3.523438 2.804688 C 3.550781 2.785156 3.621094 2.765625 3.664062 2.765625 Z M 4.28125 2.953125 C 4.308594 2.953125 4.332031 2.957031 4.34375 2.96875 C 4.324219 3.039062 4.175781 3.019531 4.121094 2.996094 C 4.125 2.96875 4.167969 2.960938 4.203125 2.957031 C 4.226562 2.957031 4.253906 2.953125 4.28125 2.953125 Z M 3.945312 3.082031 C 3.960938 3.082031 3.980469 3.085938 3.996094 3.089844 C 3.949219 3.128906 3.898438 3.152344 3.816406 3.179688 C 3.777344 3.191406 3.707031 3.207031 3.699219 3.164062 C 3.691406 3.109375 3.757812 3.121094 3.792969 3.117188 C 3.839844 3.109375 3.890625 3.082031 3.945312 3.082031 Z M 9.128906 3.390625 C 9.125 3.40625 9.117188 3.417969 9.121094 3.433594 C 9.121094 3.460938 9.148438 3.484375 9.15625 3.519531 C 9.160156 3.535156 9.148438 3.574219 9.15625 3.589844 C 9.179688 3.640625 9.246094 3.605469 9.292969 3.605469 C 9.242188 3.535156 9.1875 3.460938 9.128906 3.390625 Z M 9.394531 3.75 C 9.386719 3.785156 9.363281 3.832031 9.34375 3.863281 C 9.300781 3.929688 9.238281 3.933594 9.171875 3.972656 C 9.117188 4.003906 9.09375 4.054688 9.0625 4.105469 C 9.027344 4.164062 9.003906 4.199219 9.019531 4.285156 C 8.972656 4.378906 8.902344 4.433594 8.804688 4.476562 C 8.777344 4.492188 8.738281 4.496094 8.710938 4.515625 C 8.691406 4.53125 8.679688 4.570312 8.648438 4.601562 C 8.613281 4.644531 8.574219 4.660156 8.554688 4.691406 C 8.539062 4.714844 8.535156 4.765625 8.519531 4.796875 C 8.496094 4.839844 8.449219 4.863281 8.421875 4.90625 C 8.40625 4.925781 8.398438 4.96875 8.382812 4.996094 C 8.351562 5.054688 8.292969 5.097656 8.300781 5.152344 C 8.304688 5.203125 8.363281 5.210938 8.367188 5.257812 C 8.367188 5.28125 8.351562 5.296875 8.351562 5.324219 C 8.351562 5.363281 8.378906 5.390625 8.382812 5.421875 C 8.390625 5.5 8.355469 5.53125 8.34375 5.585938 C 8.335938 5.609375 8.339844 5.636719 8.332031 5.65625 C 8.316406 5.699219 8.265625 5.730469 8.261719 5.777344 C 8.261719 5.808594 8.296875 5.835938 8.300781 5.882812 C 8.300781 5.914062 8.285156 5.945312 8.289062 5.976562 C 8.300781 6.035156 8.402344 6.097656 8.445312 6.144531 C 8.503906 6.203125 8.582031 6.25 8.609375 6.308594 C 8.628906 6.363281 8.628906 6.433594 8.671875 6.472656 C 8.699219 6.5 8.75 6.519531 8.792969 6.550781 C 8.828125 6.578125 8.867188 6.605469 8.90625 6.632812 C 8.96875 6.683594 9.066406 6.78125 9.167969 6.773438 C 9.21875 6.769531 9.273438 6.726562 9.332031 6.71875 C 9.394531 6.707031 9.476562 6.699219 9.535156 6.707031 C 9.585938 6.710938 9.632812 6.742188 9.683594 6.738281 C 9.734375 6.734375 9.796875 6.695312 9.855469 6.667969 C 9.902344 6.648438 9.960938 6.625 10.027344 6.609375 C 10.054688 6.410156 10.074219 6.207031 10.074219 6 C 10.074219 5.167969 9.824219 4.394531 9.394531 3.75 Z M 2.660156 5.117188 C 2.574219 5.121094 2.515625 5.125 2.46875 5.148438 C 2.355469 5.199219 2.378906 5.351562 2.265625 5.386719 C 2.226562 5.402344 2.171875 5.402344 2.128906 5.410156 C 2.09375 5.417969 2.046875 5.4375 2.007812 5.4375 C 1.996094 5.4375 1.984375 5.429688 1.96875 5.421875 C 1.957031 5.496094 1.949219 5.566406 1.945312 5.640625 C 2.050781 5.660156 2.109375 5.804688 2.203125 5.851562 C 2.230469 5.863281 2.261719 5.863281 2.296875 5.871094 C 2.324219 5.878906 2.34375 5.890625 2.371094 5.898438 C 2.425781 5.914062 2.492188 5.914062 2.535156 5.933594 C 2.601562 5.964844 2.652344 6.089844 2.707031 6.121094 C 2.710938 6.15625 2.703125 6.203125 2.714844 6.226562 C 2.742188 6.261719 2.78125 6.253906 2.824219 6.277344 C 2.875 6.308594 2.894531 6.382812 2.945312 6.40625 C 2.960938 6.414062 3.003906 6.410156 3.03125 6.417969 C 3.101562 6.441406 3.125 6.519531 3.183594 6.503906 C 3.222656 6.492188 3.21875 6.453125 3.226562 6.414062 C 3.25 6.386719 3.28125 6.34375 3.320312 6.339844 C 3.382812 6.339844 3.390625 6.410156 3.414062 6.472656 C 3.425781 6.507812 3.460938 6.539062 3.472656 6.574219 C 3.488281 6.640625 3.480469 6.835938 3.464844 6.875 C 3.449219 6.921875 3.382812 6.941406 3.347656 6.996094 C 3.328125 7.019531 3.316406 7.054688 3.304688 7.074219 C 3.277344 7.105469 3.238281 7.113281 3.21875 7.140625 C 3.210938 7.15625 3.199219 7.191406 3.191406 7.210938 C 3.15625 7.28125 3.117188 7.328125 3.140625 7.40625 C 3.152344 7.4375 3.203125 7.460938 3.203125 7.5 C 3.203125 7.542969 3.109375 7.585938 3.101562 7.636719 C 3.09375 7.671875 3.128906 7.738281 3.140625 7.789062 C 3.152344 7.824219 3.21875 7.847656 3.242188 7.871094 C 3.277344 7.910156 3.308594 7.96875 3.339844 8.023438 C 3.40625 8.125 3.457031 8.25 3.523438 8.347656 C 3.554688 8.398438 3.605469 8.445312 3.628906 8.496094 C 3.640625 8.523438 3.636719 8.558594 3.648438 8.582031 C 3.6875 8.664062 3.851562 8.753906 3.933594 8.796875 C 3.976562 8.8125 4.019531 8.820312 4.054688 8.839844 C 4.109375 8.871094 4.222656 8.957031 4.25 9.003906 C 4.273438 9.046875 4.289062 9.152344 4.300781 9.222656 C 4.316406 9.316406 4.300781 9.382812 4.304688 9.484375 C 4.308594 9.539062 4.328125 9.589844 4.328125 9.644531 C 4.328125 9.664062 4.316406 9.679688 4.316406 9.699219 C 4.316406 9.703125 4.316406 9.703125 4.316406 9.707031 C 4.828125 9.9375 5.398438 10.074219 6 10.074219 C 6.109375 10.074219 6.214844 10.066406 6.320312 10.058594 C 6.328125 10.050781 6.332031 10.042969 6.335938 10.035156 C 6.363281 10.003906 6.382812 9.972656 6.398438 9.945312 C 6.414062 9.851562 6.363281 9.785156 6.382812 9.699219 C 6.410156 9.605469 6.539062 9.546875 6.628906 9.507812 C 6.660156 9.492188 6.691406 9.46875 6.71875 9.460938 C 6.78125 9.4375 6.859375 9.449219 6.917969 9.429688 C 7.015625 9.394531 7.023438 9.289062 7.074219 9.199219 C 7.097656 9.15625 7.125 9.113281 7.128906 9.085938 C 7.132812 9.058594 7.121094 9.03125 7.125 9 C 7.128906 8.96875 7.160156 8.941406 7.167969 8.90625 C 7.175781 8.859375 7.183594 8.796875 7.183594 8.746094 C 7.183594 8.703125 7.164062 8.667969 7.164062 8.628906 C 7.15625 8.496094 7.210938 8.480469 7.261719 8.40625 C 7.285156 8.371094 7.296875 8.328125 7.3125 8.300781 C 7.398438 8.175781 7.542969 8.113281 7.53125 7.925781 C 7.53125 7.863281 7.488281 7.71875 7.445312 7.703125 C 7.417969 7.691406 7.355469 7.699219 7.320312 7.6875 C 7.195312 7.640625 7.121094 7.488281 6.996094 7.476562 C 6.96875 7.472656 6.941406 7.488281 6.910156 7.488281 C 6.859375 7.484375 6.785156 7.453125 6.726562 7.445312 C 6.691406 7.441406 6.644531 7.457031 6.625 7.445312 C 6.589844 7.429688 6.589844 7.367188 6.5625 7.351562 C 6.539062 7.335938 6.5 7.332031 6.46875 7.320312 C 6.417969 7.300781 6.375 7.277344 6.316406 7.273438 C 6.296875 7.273438 6.273438 7.28125 6.253906 7.277344 C 6.222656 7.273438 6.195312 7.234375 6.164062 7.214844 C 6.125 7.191406 6.089844 7.179688 6.078125 7.148438 C 6.109375 7.035156 6.015625 7.003906 5.992188 6.941406 C 5.980469 6.910156 5.988281 6.871094 5.976562 6.84375 C 5.964844 6.808594 5.925781 6.785156 5.882812 6.75 C 5.808594 6.691406 5.738281 6.636719 5.632812 6.625 C 5.585938 6.621094 5.539062 6.640625 5.480469 6.636719 C 5.417969 6.632812 5.34375 6.578125 5.296875 6.527344 C 5.253906 6.476562 5.230469 6.429688 5.191406 6.40625 C 5.15625 6.382812 5.109375 6.382812 5.082031 6.359375 C 5.074219 6.351562 5.074219 6.332031 5.0625 6.308594 C 5.042969 6.269531 5.011719 6.25 5.035156 6.203125 C 4.996094 6.183594 4.996094 6.242188 4.949219 6.234375 C 4.90625 6.175781 4.875 6.148438 4.78125 6.167969 C 4.738281 6.175781 4.714844 6.226562 4.664062 6.230469 C 4.625 6.234375 4.59375 6.183594 4.542969 6.175781 C 4.5 6.171875 4.457031 6.1875 4.425781 6.183594 C 4.382812 6.171875 4.367188 6.136719 4.328125 6.109375 C 4.296875 6.089844 4.238281 6.058594 4.222656 6.058594 C 4.171875 6.0625 4.132812 6.167969 4.0625 6.128906 C 4.027344 6.085938 4.117188 6.0625 4.078125 6.019531 C 4.042969 5.988281 4.019531 6.035156 3.992188 6.054688 C 3.964844 6.074219 3.9375 6.089844 3.90625 6.105469 C 3.832031 6.128906 3.789062 6.117188 3.734375 6.144531 C 3.679688 6.171875 3.679688 6.21875 3.648438 6.273438 C 3.625 6.316406 3.570312 6.378906 3.535156 6.382812 C 3.488281 6.386719 3.449219 6.320312 3.40625 6.304688 C 3.289062 6.253906 3.230469 6.347656 3.132812 6.351562 C 3.039062 6.355469 2.90625 6.203125 2.914062 6.113281 C 2.914062 6.0625 2.941406 5.980469 2.949219 5.917969 C 2.953125 5.863281 2.992188 5.832031 2.992188 5.785156 C 2.992188 5.722656 2.90625 5.675781 2.863281 5.667969 C 2.769531 5.648438 2.632812 5.707031 2.519531 5.660156 C 2.5 5.625 2.546875 5.601562 2.558594 5.566406 C 2.566406 5.546875 2.5625 5.519531 2.566406 5.5 C 2.582031 5.464844 2.617188 5.441406 2.632812 5.40625 C 2.644531 5.378906 2.644531 5.339844 2.65625 5.304688 C 2.667969 5.269531 2.695312 5.242188 2.699219 5.214844 C 2.703125 5.183594 2.6875 5.140625 2.660156 5.117188 Z M 4.058594 6.222656 C 4.09375 6.226562 4.097656 6.296875 4.0625 6.304688 C 4.023438 6.3125 4 6.246094 4.039062 6.226562 C 4.046875 6.222656 4.050781 6.222656 4.058594 6.222656 Z M 4.058594 6.222656 "/>
</g>
</svg>
