<?xml version="1.0" encoding="UTF-8"?>
<svg xmlns="http://www.w3.org/2000/svg" xmlns:xlink="http://www.w3.org/1999/xlink" width="12pt" height="12pt" viewBox="0 0 12 12" version="1.1">
<g id="surface1">
<path style=" stroke:none;fill-rule:evenodd;fill:rgb(55.686275%,55.686275%,55.686275%);fill-opacity:1;" d="M 2.800781 0.710938 L 9.199219 0.710938 C 10.351562 0.710938 11.289062 1.648438 11.289062 2.800781 L 11.289062 9.199219 C 11.289062 10.351562 10.351562 11.289062 9.199219 11.289062 L 2.800781 11.289062 C 1.648438 11.289062 0.710938 10.351562 0.710938 9.199219 L 0.710938 2.800781 C 0.710938 1.648438 1.648438 0.710938 2.800781 0.710938 Z M 2.800781 0.710938 "/>
<path style=" stroke:none;fill-rule:nonzero;fill:rgb(71.764706%,71.764706%,71.764706%);fill-opacity:1;" d="M 2.710938 10.1875 L 9.289062 10.1875 L 9.289062 7.195312 L 2.710938 7.195312 Z M 2.710938 10.1875 "/>
<path style=" stroke:none;fill-rule:nonzero;fill:rgb(40%,40%,40%);fill-opacity:1;" d="M 3.609375 9.589844 L 4.804688 9.589844 L 4.804688 8.691406 L 3.609375 8.691406 Z M 3.609375 9.589844 "/>
<path style=" stroke:none;fill-rule:nonzero;fill:rgb(40%,40%,40%);fill-opacity:1;" d="M 7.195312 9.589844 L 8.390625 9.589844 L 8.390625 8.691406 L 7.195312 8.691406 Z M 7.195312 9.589844 "/>
<path style=" stroke:none;fill-rule:nonzero;fill:rgb(31.764706%,38.039216%,63.529412%);fill-opacity:1;" d="M 6 1.8125 C 3.6875 1.8125 1.8125 3.6875 1.8125 6 C 1.816406 6.621094 1.953125 7.234375 2.222656 7.792969 L 9.777344 7.792969 C 10.042969 7.234375 10.183594 6.621094 10.1875 6 C 10.1875 3.6875 8.3125 1.8125 6 1.8125 Z M 6 1.8125 "/>
<path style=" stroke:none;fill-rule:nonzero;fill:rgb(100%,100%,100%);fill-opacity:0.454902;" d="M 7.046875 2.710938 C 6.304688 2.710938 5.699219 3.3125 5.699219 4.054688 L 5.699219 4.804688 L 4.953125 4.804688 C 4.210938 4.804688 3.609375 5.40625 3.609375 6.148438 C 3.609375 6.894531 4.210938 7.496094 4.953125 7.496094 C 5.695312 7.496094 6.300781 6.894531 6.300781 6.148438 L 6.300781 5.402344 L 7.046875 5.402344 C 7.789062 5.402344 8.390625 4.800781 8.390625 4.054688 C 8.390625 3.3125 7.789062 2.710938 7.046875 2.710938 Z M 7.046875 3.308594 C 7.460938 3.308594 7.792969 3.644531 7.792969 4.054688 C 7.792969 4.46875 7.460938 4.804688 7.046875 4.804688 L 6.453125 4.804688 C 6.382812 4.804688 6.300781 4.804688 6.300781 4.640625 L 6.300781 4.054688 C 6.300781 3.644531 6.632812 3.308594 7.046875 3.308594 Z M 4.953125 5.402344 L 5.546875 5.402344 C 5.617188 5.402344 5.699219 5.402344 5.699219 5.566406 L 5.699219 6.148438 C 5.699219 6.5625 5.367188 6.898438 4.953125 6.898438 C 4.539062 6.898438 4.207031 6.5625 4.207031 6.148438 C 4.207031 5.738281 4.539062 5.402344 4.953125 5.402344 Z M 4.953125 5.402344 "/>
<path style=" stroke:none;fill-rule:nonzero;fill:rgb(100%,100%,100%);fill-opacity:1;" d="M 7.046875 2.710938 C 6.304688 2.710938 5.699219 3.3125 5.699219 4.054688 L 5.699219 4.804688 L 4.953125 4.804688 C 4.945312 4.804688 4.933594 4.804688 4.921875 4.804688 C 4.769531 4.820312 4.65625 4.949219 4.65625 5.101562 C 4.65625 5.269531 4.789062 5.402344 4.953125 5.402344 L 5.546875 5.402344 C 5.617188 5.402344 5.699219 5.402344 5.699219 5.566406 L 5.699219 6.148438 C 5.699219 6.5625 5.367188 6.898438 4.953125 6.898438 C 4.839844 6.898438 4.730469 6.867188 4.632812 6.824219 C 4.59375 6.804688 4.550781 6.792969 4.503906 6.792969 C 4.339844 6.792969 4.207031 6.925781 4.207031 7.089844 C 4.207031 7.203125 4.269531 7.308594 4.371094 7.359375 C 4.546875 7.445312 4.746094 7.496094 4.953125 7.496094 C 5.695312 7.496094 6.300781 6.894531 6.300781 6.148438 L 6.300781 5.402344 L 6.898438 5.402344 C 7.0625 5.402344 7.195312 5.269531 7.195312 5.101562 C 7.195312 4.9375 7.0625 4.804688 6.898438 4.804688 L 6.453125 4.804688 C 6.382812 4.804688 6.300781 4.804688 6.300781 4.640625 L 6.300781 4.054688 C 6.300781 3.644531 6.632812 3.308594 7.046875 3.308594 C 7.121094 3.308594 7.191406 3.324219 7.261719 3.34375 C 7.261719 3.34375 7.261719 3.34375 7.261719 3.339844 C 7.289062 3.351562 7.316406 3.355469 7.34375 3.355469 C 7.511719 3.355469 7.644531 3.21875 7.644531 3.054688 C 7.644531 3.027344 7.640625 3 7.632812 2.972656 C 7.632812 2.96875 7.632812 2.964844 7.632812 2.957031 C 7.632812 2.953125 7.625 2.949219 7.625 2.945312 C 7.585938 2.851562 7.503906 2.78125 7.402344 2.761719 C 7.398438 2.761719 7.398438 2.757812 7.394531 2.757812 C 7.285156 2.726562 7.167969 2.710938 7.046875 2.710938 Z M 7.046875 2.710938 "/>
</g>
</svg>
