<?xml version="1.0" encoding="UTF-8"?>
<svg xmlns="http://www.w3.org/2000/svg" xmlns:xlink="http://www.w3.org/1999/xlink" width="12pt" height="12pt" viewBox="0 0 12 12" version="1.1">
<g id="surface1">
<path style=" stroke:none;fill-rule:evenodd;fill:rgb(100%,100%,100%);fill-opacity:1;" d="M 2.800781 0.710938 L 9.199219 0.710938 C 10.351562 0.710938 11.289062 1.648438 11.289062 2.800781 L 11.289062 9.199219 C 11.289062 10.351562 10.351562 11.289062 9.199219 11.289062 L 2.800781 11.289062 C 1.648438 11.289062 0.710938 10.351562 0.710938 9.199219 L 0.710938 2.800781 C 0.710938 1.648438 1.648438 0.710938 2.800781 0.710938 Z M 2.800781 0.710938 "/>
<path style=" stroke:none;fill-rule:evenodd;fill:rgb(48.627451%,68.627451%,25.882353%);fill-opacity:1;" d="M 10.675781 1.324219 L 1.324219 10.675781 C 1.699219 11.054688 2.222656 11.289062 2.800781 11.289062 L 9.199219 11.289062 C 10.355469 11.289062 11.289062 10.355469 11.289062 9.199219 L 11.289062 2.800781 C 11.289062 2.222656 11.054688 1.703125 10.675781 1.324219 Z M 10.675781 1.324219 "/>
<path style=" stroke:none;fill-rule:evenodd;fill:rgb(63.137255%,80.784314%,42.745098%);fill-opacity:1;" d="M 10.675781 1.324219 C 10.300781 0.945312 9.777344 0.710938 9.199219 0.710938 L 2.800781 0.710938 C 1.644531 0.710938 0.710938 1.644531 0.710938 2.800781 L 0.710938 9.199219 C 0.710938 9.777344 0.945312 10.300781 1.324219 10.675781 Z M 10.675781 1.324219 "/>
<path style=" stroke:none;fill-rule:nonzero;fill:rgb(94.901961%,94.901961%,94.901961%);fill-opacity:1;" d="M 3.085938 8.914062 L 5.636719 5.636719 L 6.363281 6.363281 Z M 3.085938 8.914062 "/>
<path style=" stroke:none;fill-rule:nonzero;fill:rgb(95.294118%,25.882353%,20.784314%);fill-opacity:1;" d="M 8.914062 3.085938 L 5.636719 5.636719 L 6.363281 6.363281 Z M 8.914062 3.085938 "/>
</g>
</svg>
