<?xml version="1.0" encoding="UTF-8"?>
<svg xmlns="http://www.w3.org/2000/svg" xmlns:xlink="http://www.w3.org/1999/xlink" width="12pt" height="12pt" viewBox="0 0 12 12" version="1.1">
<g id="surface1">
<path style=" stroke:none;fill-rule:evenodd;fill:rgb(87.058824%,33.333333%,29.803922%);fill-opacity:1;" d="M 2.800781 0.710938 L 9.199219 0.710938 C 10.351562 0.710938 11.289062 1.648438 11.289062 2.800781 L 11.289062 9.199219 C 11.289062 10.351562 10.351562 11.289062 9.199219 11.289062 L 2.800781 11.289062 C 1.648438 11.289062 0.710938 10.351562 0.710938 9.199219 L 0.710938 2.800781 C 0.710938 1.648438 1.648438 0.710938 2.800781 0.710938 Z M 2.800781 0.710938 "/>
<path style=" stroke:none;fill-rule:nonzero;fill:rgb(100%,100%,100%);fill-opacity:1;" d="M 3.550781 2.8125 C 3.25 2.820312 3.007812 3.070312 3.007812 3.375 L 3.007812 5.910156 C 2.996094 5.96875 2.996094 6.03125 3.007812 6.09375 L 3.007812 8.625 C 3.003906 8.828125 3.113281 9.015625 3.285156 9.117188 C 3.460938 9.21875 3.679688 9.21875 3.855469 9.117188 C 4.027344 9.015625 4.136719 8.828125 4.132812 8.625 L 4.132812 6.539062 C 4.527344 6.542969 5.09375 6.574219 6.074219 6.460938 C 6.710938 6.386719 7.355469 6.269531 7.898438 6.039062 C 8.171875 5.925781 8.425781 5.78125 8.636719 5.566406 C 8.84375 5.347656 9.003906 5.03125 9 4.691406 C 8.996094 4.351562 8.839844 4.035156 8.628906 3.820312 C 8.417969 3.605469 8.164062 3.460938 7.890625 3.34375 C 7.34375 3.113281 6.703125 2.996094 6.066406 2.921875 C 4.796875 2.769531 3.550781 2.8125 3.550781 2.8125 Z M 4.132812 3.957031 C 4.503906 3.953125 5.042969 3.929688 5.933594 4.039062 C 6.511719 4.105469 7.085938 4.226562 7.453125 4.382812 C 7.636719 4.460938 7.765625 4.546875 7.820312 4.605469 C 7.878906 4.664062 7.875 4.667969 7.875 4.699219 C 7.875 4.730469 7.882812 4.726562 7.828125 4.785156 C 7.773438 4.839844 7.648438 4.925781 7.464844 5.003906 C 7.097656 5.15625 6.523438 5.273438 5.941406 5.34375 C 5.050781 5.445312 4.503906 5.417969 4.132812 5.414062 Z M 4.132812 3.957031 "/>
</g>
</svg>
