<?xml version="1.0" encoding="UTF-8"?>
<svg xmlns="http://www.w3.org/2000/svg" xmlns:xlink="http://www.w3.org/1999/xlink" width="12pt" height="12pt" viewBox="0 0 12 12" version="1.1">
<defs>
<clipPath id="clip1">
  <rect width="12" height="12"/>
</clipPath>
<g id="surface6" clip-path="url(#clip1)">
<path style=" stroke:none;fill-rule:evenodd;fill:rgb(100%,100%,100%);fill-opacity:1;" d="M 8.476562 2.242188 C 9.300781 2.242188 9.96875 2.910156 9.96875 3.734375 C 9.96875 4.558594 9.300781 5.222656 8.476562 5.222656 C 7.652344 5.222656 6.984375 4.558594 6.984375 3.734375 C 6.984375 2.910156 7.652344 2.242188 8.476562 2.242188 Z M 8.476562 2.242188 "/>
</g>
</defs>
<g id="surface1">
<path style=" stroke:none;fill-rule:evenodd;fill:rgb(73.72549%,92.941176%,96.862745%);fill-opacity:1;" d="M 2.800781 0.710938 L 9.199219 0.710938 C 10.351562 0.710938 11.289062 1.648438 11.289062 2.800781 L 11.289062 9.199219 C 11.289062 10.351562 10.351562 11.289062 9.199219 11.289062 L 2.800781 11.289062 C 1.648438 11.289062 0.710938 10.351562 0.710938 9.199219 L 0.710938 2.800781 C 0.710938 1.648438 1.648438 0.710938 2.800781 0.710938 Z M 2.800781 0.710938 "/>
<path style=" stroke:none;fill-rule:evenodd;fill:rgb(73.72549%,92.941176%,96.862745%);fill-opacity:1;" d="M 2.804688 0.710938 C 1.644531 0.710938 0.710938 1.644531 0.710938 2.800781 L 0.710938 6.820312 C 1.089844 6.742188 1.519531 6.632812 1.828125 6.59375 C 2.398438 6.527344 2.867188 6.523438 3.277344 6.5625 C 3.6875 6.601562 4.039062 6.6875 4.367188 6.796875 C 4.695312 6.90625 5.003906 7.042969 5.332031 7.1875 C 5.660156 7.328125 6.007812 7.480469 6.414062 7.617188 C 6.816406 7.757812 7.28125 7.882812 7.84375 7.980469 C 8.410156 8.078125 9.070312 8.144531 9.871094 8.160156 C 10.265625 8.171875 10.816406 8.125 11.289062 8.105469 L 11.289062 2.800781 C 11.289062 1.644531 10.355469 0.710938 9.199219 0.710938 Z M 2.804688 0.710938 "/>
<use xlink:href="#surface6"/>
<path style=" stroke:none;fill-rule:nonzero;fill:rgb(59.607843%,37.647059%,1.960784%);fill-opacity:1;" d="M 5.554688 7.59375 L 5.898438 7.59375 L 5.898438 8.113281 L 5.554688 8.113281 Z M 5.554688 7.59375 "/>
<path style=" stroke:none;fill-rule:nonzero;fill:rgb(45.490196%,63.137255%,5.098039%);fill-opacity:1;" d="M 6.472656 7.792969 L 5.015625 7.792969 L 5.746094 6.53125 Z M 6.472656 7.792969 "/>
<path style=" stroke:none;fill-rule:nonzero;fill:rgb(59.607843%,76.470588%,1.960784%);fill-opacity:1;" d="M 6.359375 7.351562 L 5.105469 7.351562 L 5.730469 6.265625 Z M 6.359375 7.351562 "/>
<path style=" stroke:none;fill-rule:nonzero;fill:rgb(67.843137%,85.882353%,11.764706%);fill-opacity:1;" d="M 6.246094 6.851562 L 5.25 6.851562 L 5.746094 5.992188 Z M 6.246094 6.851562 "/>
<path style=" stroke:none;fill-rule:evenodd;fill:rgb(59.215686%,77.647059%,2.745098%);fill-opacity:1;" d="M 7.242188 7.710938 C 5.398438 7.878906 3.992188 8.886719 1.828125 8.777344 C 1.386719 8.738281 1.023438 8.652344 0.710938 8.535156 L 0.710938 9.199219 C 0.710938 9.433594 0.75 9.660156 0.820312 9.871094 C 1.171875 9.683594 1.546875 9.527344 1.894531 9.441406 C 2.285156 9.34375 2.675781 9.304688 3.066406 9.300781 C 3.851562 9.289062 4.644531 9.425781 5.480469 9.542969 C 5.898438 9.601562 6.328125 9.652344 6.773438 9.683594 C 7.21875 9.710938 7.675781 9.71875 8.15625 9.675781 C 8.632812 9.636719 9.132812 9.550781 9.652344 9.402344 C 10.171875 9.253906 10.71875 9.039062 11.289062 8.738281 C 9.613281 7.8125 8.351562 7.609375 7.242188 7.710938 Z M 7.242188 7.710938 "/>
<path style=" stroke:none;fill-rule:nonzero;fill:rgb(59.607843%,37.647059%,1.960784%);fill-opacity:1;" d="M 2.773438 8.324219 L 3.648438 8.324219 L 3.648438 9.632812 L 2.773438 9.632812 Z M 2.773438 8.324219 "/>
<path style=" stroke:none;fill-rule:nonzero;fill:rgb(45.490196%,63.137255%,5.098039%);fill-opacity:1;" d="M 5.101562 8.828125 L 1.40625 8.828125 L 3.253906 5.628906 Z M 5.101562 8.828125 "/>
<path style=" stroke:none;fill-rule:nonzero;fill:rgb(59.607843%,76.470588%,1.960784%);fill-opacity:1;" d="M 4.808594 7.707031 L 1.632812 7.707031 L 3.222656 4.960938 Z M 4.808594 7.707031 "/>
<path style=" stroke:none;fill-rule:nonzero;fill:rgb(67.843137%,85.882353%,11.764706%);fill-opacity:1;" d="M 4.523438 6.445312 L 2 6.445312 L 3.261719 4.261719 Z M 4.523438 6.445312 "/>
<path style=" stroke:none;fill-rule:evenodd;fill:rgb(45.490196%,63.137255%,5.098039%);fill-opacity:1;" d="M 11.289062 8.738281 C 10.71875 9.039062 10.171875 9.253906 9.652344 9.402344 C 9.132812 9.550781 8.632812 9.636719 8.15625 9.675781 C 7.675781 9.71875 7.21875 9.710938 6.773438 9.683594 C 6.328125 9.652344 5.898438 9.601562 5.480469 9.542969 C 4.644531 9.425781 3.851562 9.289062 3.066406 9.300781 C 2.675781 9.304688 2.285156 9.34375 1.894531 9.441406 C 1.546875 9.527344 1.171875 9.683594 0.820312 9.871094 C 1.101562 10.699219 1.878906 11.289062 2.800781 11.289062 L 9.195312 11.289062 C 10.355469 11.289062 11.289062 10.355469 11.289062 9.199219 Z M 11.289062 8.738281 "/>
</g>
</svg>
