<?xml version="1.0" encoding="UTF-8"?>
<svg xmlns="http://www.w3.org/2000/svg" xmlns:xlink="http://www.w3.org/1999/xlink" width="12pt" height="12pt" viewBox="0 0 12 12" version="1.1">
<g id="surface1">
<path style=" stroke:none;fill-rule:evenodd;fill:rgb(30.980392%,30.980392%,30.980392%);fill-opacity:1;" d="M 2.800781 0.710938 L 9.199219 0.710938 C 10.351562 0.710938 11.289062 1.648438 11.289062 2.800781 L 11.289062 9.199219 C 11.289062 10.351562 10.351562 11.289062 9.199219 11.289062 L 2.800781 11.289062 C 1.648438 11.289062 0.710938 10.351562 0.710938 9.199219 L 0.710938 2.800781 C 0.710938 1.648438 1.648438 0.710938 2.800781 0.710938 Z M 2.800781 0.710938 "/>
<path style=" stroke:none;fill-rule:nonzero;fill:rgb(100%,100%,100%);fill-opacity:1;" d="M 5.4375 1.6875 L 5.4375 3.5625 L 6.5625 3.5625 L 6.5625 1.6875 Z M 5.4375 5.0625 L 5.4375 6.9375 L 6.5625 6.9375 L 6.5625 5.0625 Z M 5.4375 8.4375 L 5.4375 10.3125 L 6.5625 10.3125 L 6.5625 8.4375 Z M 5.4375 8.4375 "/>
<path style=" stroke:none;fill-rule:evenodd;fill:rgb(24.705882%,54.901961%,90.196078%);fill-opacity:1;" d="M 10.78125 8.421875 C 10.78125 9.664062 9.773438 10.671875 8.53125 10.671875 C 7.289062 10.671875 6.28125 9.664062 6.28125 8.421875 C 6.28125 7.179688 7.289062 6.171875 8.53125 6.171875 C 9.773438 6.171875 10.78125 7.179688 10.78125 8.421875 Z M 10.78125 8.421875 "/>
<path style=" stroke:none;fill-rule:nonzero;fill:rgb(100%,100%,100%);fill-opacity:1;" d="M 8.25 6.453125 L 8.25 7.046875 C 7.699219 7.160156 7.265625 7.589844 7.15625 8.140625 L 6.5625 8.140625 L 6.5625 8.703125 L 7.152344 8.703125 C 7.265625 9.257812 7.699219 9.6875 8.25 9.800781 L 8.25 10.390625 L 8.8125 10.390625 L 8.8125 9.800781 C 9.363281 9.6875 9.796875 9.257812 9.90625 8.703125 L 10.5 8.703125 L 10.5 8.140625 L 9.910156 8.140625 C 9.796875 7.589844 9.363281 7.160156 8.8125 7.046875 L 8.8125 6.453125 Z M 8.53125 7.859375 C 8.84375 7.859375 9.09375 8.113281 9.09375 8.421875 C 9.09375 8.734375 8.84375 8.984375 8.53125 8.984375 C 8.21875 8.984375 7.96875 8.734375 7.96875 8.421875 C 7.96875 8.113281 8.21875 7.859375 8.53125 7.859375 Z M 8.53125 7.859375 "/>
</g>
</svg>
