<?xml version="1.0" encoding="UTF-8"?>
<svg xmlns="http://www.w3.org/2000/svg" xmlns:xlink="http://www.w3.org/1999/xlink" width="12pt" height="12pt" viewBox="0 0 12 12" version="1.1">
<g id="surface1">
<path style=" stroke:none;fill-rule:evenodd;fill:rgb(11.372549%,23.529412%,39.607843%);fill-opacity:1;" d="M 2.800781 0.710938 L 9.199219 0.710938 C 10.351562 0.710938 11.289062 1.648438 11.289062 2.800781 L 11.289062 9.199219 C 11.289062 10.351562 10.351562 11.289062 9.199219 11.289062 L 2.800781 11.289062 C 1.648438 11.289062 0.710938 10.351562 0.710938 9.199219 L 0.710938 2.800781 C 0.710938 1.648438 1.648438 0.710938 2.800781 0.710938 Z M 2.800781 0.710938 "/>
<path style=" stroke:none;fill-rule:nonzero;fill:rgb(16.470588%,66.666667%,87.45098%);fill-opacity:1;" d="M 5.160156 5.753906 C 2.914062 4.738281 2.066406 4.3125 2.050781 4.191406 C 2.035156 4.109375 2.082031 4.027344 2.171875 3.96875 C 2.25 3.917969 3.0625 3.53125 3.980469 3.109375 C 5.472656 2.417969 5.679688 2.339844 5.976562 2.339844 C 6.277344 2.339844 6.484375 2.417969 7.976562 3.109375 C 8.890625 3.53125 9.703125 3.917969 9.78125 3.96875 C 10.058594 4.152344 9.964844 4.28125 9.328125 4.578125 C 5.828125 6.214844 6.046875 6.152344 5.160156 5.753906 Z M 5.160156 5.753906 "/>
<path style=" stroke:none;fill-rule:nonzero;fill:rgb(50.588235%,68.235294%,12.941176%);fill-opacity:1;" d="M 5.496094 7.699219 C 5.335938 7.636719 3.488281 6.792969 2.761719 6.453125 C 2.375 6.269531 2.042969 6.074219 2.019531 6.019531 C 1.964844 5.878906 2.109375 5.773438 2.78125 5.464844 L 3.359375 5.199219 L 4.53125 5.742188 C 5.460938 6.171875 5.765625 6.285156 5.980469 6.285156 C 6.195312 6.285156 6.5 6.171875 7.429688 5.742188 L 8.601562 5.199219 L 9.183594 5.464844 C 9.5 5.613281 9.808594 5.773438 9.871094 5.828125 C 10.113281 6.035156 10.085938 6.050781 7.4375 7.273438 C 6.585938 7.664062 6.726562 7.589844 6.480469 7.703125 C 6.125 7.851562 5.863281 7.847656 5.496094 7.699219 Z M 5.496094 7.699219 "/>
<path style=" stroke:none;fill-rule:nonzero;fill:rgb(92.156863%,32.941176%,11.372549%);fill-opacity:1;" d="M 5.519531 9.550781 C 5.359375 9.484375 3.511719 8.640625 2.785156 8.300781 C 2.398438 8.117188 2.066406 7.925781 2.042969 7.867188 C 1.992188 7.726562 2.136719 7.621094 2.804688 7.316406 L 3.382812 7.050781 L 4.558594 7.59375 C 5.484375 8.023438 5.789062 8.136719 6.003906 8.136719 C 6.21875 8.136719 6.523438 8.023438 7.453125 7.59375 L 8.628906 7.050781 L 9.207031 7.316406 C 9.523438 7.460938 9.832031 7.625 9.894531 7.675781 C 10.136719 7.882812 10.109375 7.898438 7.460938 9.121094 C 6.613281 9.515625 6.75 9.4375 6.503906 9.554688 C 6.148438 9.699219 5.886719 9.695312 5.519531 9.550781 Z M 5.519531 9.550781 "/>
</g>
</svg>
