<?xml version="1.0" encoding="UTF-8"?>
<svg xmlns="http://www.w3.org/2000/svg" xmlns:xlink="http://www.w3.org/1999/xlink" width="12pt" height="12pt" viewBox="0 0 12 12" version="1.1">
<g id="surface1">
<path style=" stroke:none;fill-rule:evenodd;fill:rgb(38.823529%,65.882353%,82.745098%);fill-opacity:1;" d="M 1.628906 10.882812 L 8.492188 4.246094 C 8.296875 3.757812 8.101562 3.339844 7.917969 3.039062 C 7.734375 2.734375 7.566406 2.542969 7.417969 2.503906 C 7.382812 2.492188 7.34375 2.492188 7.296875 2.496094 C 7.117188 2.507812 6.863281 2.621094 6.554688 2.808594 C 6.246094 2.996094 5.886719 3.257812 5.492188 3.574219 C 4.707031 4.203125 3.792969 5.042969 2.9375 5.910156 C 2.082031 6.777344 1.28125 7.671875 0.710938 8.421875 L 0.710938 9.199219 C 0.710938 9.910156 1.089844 10.507812 1.628906 10.882812 Z M 1.628906 10.882812 "/>
<path style=" stroke:none;fill-rule:evenodd;fill:rgb(80.392157%,89.411765%,99.215686%);fill-opacity:1;" d="M 10.265625 10.953125 C 10.257812 10.898438 10.261719 10.867188 10.253906 10.8125 C 10.109375 9.789062 9.828125 8.507812 9.484375 7.257812 L 5.320312 11.289062 L 9.199219 11.289062 C 9.597656 11.289062 9.949219 11.148438 10.265625 10.953125 Z M 10.265625 10.953125 "/>
<path style=" stroke:none;fill-rule:evenodd;fill:rgb(61.176471%,78.039216%,95.686275%);fill-opacity:1;" d="M 9.472656 7.269531 C 9.476562 7.261719 9.484375 7.253906 9.488281 7.242188 C 9.183594 6.140625 8.835938 5.070312 8.492188 4.21875 C 8.488281 4.222656 8.488281 4.222656 8.484375 4.226562 C 8.488281 4.234375 8.488281 4.238281 8.492188 4.246094 L 1.628906 10.882812 C 1.96875 11.117188 2.359375 11.289062 2.800781 11.289062 L 5.320312 11.289062 Z M 9.472656 7.269531 "/>
<path style=" stroke:none;fill-rule:evenodd;fill:rgb(0%,49.411765%,100%);fill-opacity:1;" d="M 2.800781 0.710938 C 1.644531 0.710938 0.710938 1.644531 0.710938 2.800781 L 0.710938 8.421875 C 1.28125 7.671875 2.082031 6.777344 2.9375 5.910156 C 3.792969 5.042969 4.707031 4.203125 5.492188 3.574219 C 5.886719 3.257812 6.246094 2.996094 6.554688 2.808594 C 6.863281 2.621094 7.117188 2.507812 7.296875 2.496094 C 7.34375 2.492188 7.382812 2.492188 7.417969 2.503906 C 7.566406 2.542969 7.734375 2.734375 7.917969 3.039062 C 8.097656 3.335938 8.289062 3.746094 8.484375 4.226562 C 8.488281 4.222656 8.488281 4.222656 8.492188 4.21875 C 8.835938 5.070312 9.183594 6.140625 9.488281 7.242188 C 9.484375 7.253906 9.476562 7.261719 9.472656 7.269531 L 9.484375 7.257812 L 9.488281 7.257812 L 9.484375 7.257812 C 9.828125 8.507812 10.109375 9.789062 10.253906 10.8125 C 10.261719 10.867188 10.257812 10.898438 10.265625 10.953125 C 10.867188 10.589844 11.289062 9.957031 11.289062 9.199219 L 11.289062 2.800781 C 11.289062 1.644531 10.355469 0.710938 9.199219 0.710938 Z M 2.800781 0.710938 "/>
</g>
</svg>
