<?xml version="1.0" encoding="UTF-8"?>
<svg xmlns="http://www.w3.org/2000/svg" xmlns:xlink="http://www.w3.org/1999/xlink" width="12pt" height="12pt" viewBox="0 0 12 12" version="1.1">
<defs>
<clipPath id="clip1">
  <rect width="12" height="12"/>
</clipPath>
<g id="surface6" clip-path="url(#clip1)">
<path style=" stroke:none;fill-rule:evenodd;fill:rgb(29.411765%,29.411765%,29.411765%);fill-opacity:1;" d="M 10.992188 8.546875 C 10.992188 9.855469 9.933594 10.914062 8.625 10.914062 C 7.316406 10.914062 6.257812 9.855469 6.257812 8.546875 C 6.257812 7.238281 7.316406 6.179688 8.625 6.179688 C 9.933594 6.179688 10.992188 7.238281 10.992188 8.546875 Z M 10.992188 8.546875 "/>
</g>
<clipPath id="clip2">
  <rect width="12" height="12"/>
</clipPath>
<g id="surface9" clip-path="url(#clip2)">
<path style=" stroke:none;fill-rule:nonzero;fill:rgb(92.156863%,92.156863%,92.156863%);fill-opacity:1;" d="M 7.511719 7.886719 L 7.511719 8.265625 L 9.777344 8.265625 L 9.777344 7.886719 Z M 7.511719 9.019531 L 7.511719 9.398438 L 9.777344 9.398438 L 9.777344 9.019531 Z M 7.511719 9.019531 "/>
</g>
<clipPath id="clip3">
  <rect width="12" height="12"/>
</clipPath>
<g id="surface12" clip-path="url(#clip3)">
<path style=" stroke:none;fill-rule:nonzero;fill:rgb(100%,100%,100%);fill-opacity:1;" d="M 3.355469 2.222656 L 3.355469 3.355469 L 2.222656 3.355469 L 2.222656 3.734375 L 3.355469 3.734375 L 3.355469 4.867188 L 3.734375 4.867188 L 3.734375 3.734375 L 4.867188 3.734375 L 4.867188 3.355469 L 3.734375 3.355469 L 3.734375 2.222656 Z M 3.355469 2.222656 "/>
</g>
<clipPath id="clip4">
  <rect width="12" height="12"/>
</clipPath>
<g id="surface15" clip-path="url(#clip4)">
<path style=" stroke:none;fill-rule:nonzero;fill:rgb(92.156863%,92.156863%,92.156863%);fill-opacity:1;" d="M 7.511719 3.355469 L 7.511719 3.734375 L 9.777344 3.734375 L 9.777344 3.355469 Z M 7.511719 3.355469 "/>
</g>
</defs>
<g id="surface1">
<path style=" stroke:none;fill-rule:nonzero;fill:rgb(21.176471%,52.54902%,17.254902%);fill-opacity:1;" d="M 11.289062 6 L 11.289062 2.800781 C 11.289062 2.511719 11.230469 2.238281 11.125 1.988281 C 11.019531 1.738281 10.867188 1.511719 10.675781 1.324219 C 10.488281 1.132812 10.261719 0.980469 10.011719 0.875 C 9.761719 0.769531 9.488281 0.710938 9.195312 0.710938 L 6 0.710938 L 6 6 Z M 11.289062 6 "/>
<path style=" stroke:none;fill-rule:nonzero;fill:rgb(29.803922%,57.254902%,16.862745%);fill-opacity:1;" d="M 6 11.289062 L 9.199219 11.289062 C 9.488281 11.289062 9.761719 11.230469 10.011719 11.125 C 10.261719 11.019531 10.488281 10.867188 10.675781 10.675781 C 10.867188 10.488281 11.019531 10.261719 11.125 10.011719 C 11.230469 9.761719 11.289062 9.488281 11.289062 9.195312 L 11.289062 6 L 6 6 Z M 6 11.289062 "/>
<use xlink:href="#surface6"/>
<use xlink:href="#surface9"/>
<path style=" stroke:none;fill-rule:nonzero;fill:rgb(52.54902%,83.137255%,47.058824%);fill-opacity:1;" d="M 2.804688 0.710938 C 2.511719 0.710938 2.238281 0.769531 1.988281 0.875 C 1.738281 0.980469 1.511719 1.132812 1.324219 1.324219 C 1.132812 1.511719 0.980469 1.738281 0.875 1.988281 C 0.769531 2.238281 0.710938 2.511719 0.710938 2.804688 L 0.710938 6 L 6 6 L 6 0.710938 Z M 2.804688 0.710938 "/>
<use xlink:href="#surface12"/>
<use xlink:href="#surface15"/>
<path style=" stroke:none;fill-rule:nonzero;fill:rgb(44.313725%,76.862745%,32.941176%);fill-opacity:1;" d="M 0.710938 6 L 0.710938 9.195312 C 0.710938 9.488281 0.769531 9.761719 0.875 10.011719 C 0.980469 10.261719 1.132812 10.488281 1.324219 10.675781 C 1.511719 10.867188 1.738281 11.019531 1.988281 11.125 C 2.238281 11.230469 2.511719 11.289062 2.800781 11.289062 L 6 11.289062 L 6 6 Z M 0.710938 6 "/>
<path style=" stroke:none;fill-rule:evenodd;fill:rgb(92.156863%,92.156863%,92.156863%);fill-opacity:1;" d="M 2.355469 7.378906 L 2.089844 7.644531 L 3.089844 8.644531 L 2.089844 9.644531 L 2.355469 9.910156 L 3.355469 8.910156 L 4.355469 9.910156 L 4.621094 9.644531 L 3.621094 8.644531 L 4.621094 7.644531 L 4.355469 7.378906 L 3.355469 8.378906 Z M 2.355469 7.378906 "/>
</g>
</svg>
