<?xml version="1.0" encoding="UTF-8"?>
<svg xmlns="http://www.w3.org/2000/svg" xmlns:xlink="http://www.w3.org/1999/xlink" width="12pt" height="12pt" viewBox="0 0 12 12" version="1.1">
<g id="surface1">
<path style=" stroke:none;fill-rule:evenodd;fill:rgb(92.54902%,92.54902%,92.54902%);fill-opacity:1;" d="M 8.292969 3.679688 L 10.257812 3.679688 C 10.558594 3.679688 10.832031 3.800781 11.03125 4 C 11.191406 4.160156 11.25 4.390625 11.289062 4.625 L 11.289062 2.800781 C 11.289062 1.644531 10.355469 0.710938 9.199219 0.710938 L 7.347656 0.710938 C 7.582031 0.75 7.8125 0.8125 7.972656 0.96875 C 8.171875 1.167969 8.292969 1.441406 8.292969 1.742188 Z M 8.292969 3.679688 "/>
<path style=" stroke:none;fill-rule:evenodd;fill:rgb(92.54902%,92.54902%,92.54902%);fill-opacity:1;" d="M 0.710938 7.347656 L 0.710938 9.195312 C 0.710938 10.355469 1.644531 11.289062 2.804688 11.289062 L 4.71875 11.289062 C 4.453125 11.265625 4.203125 11.179688 4.027344 11.003906 C 3.828125 10.804688 3.707031 10.53125 3.707031 10.230469 L 3.707031 8.292969 L 1.742188 8.292969 C 1.441406 8.292969 1.167969 8.171875 0.96875 7.972656 C 0.8125 7.8125 0.75 7.582031 0.710938 7.347656 Z M 0.710938 7.347656 "/>
<path style=" stroke:none;fill-rule:evenodd;fill:rgb(85.882353%,49.019608%,62.745098%);fill-opacity:1;" d="M 0.710938 7.347656 C 0.75 7.582031 0.8125 7.8125 0.96875 7.972656 C 1.167969 8.171875 1.441406 8.292969 1.742188 8.292969 L 3.707031 8.292969 L 3.707031 4.773438 C 3.707031 4.46875 3.828125 4.195312 4.027344 4 C 4.222656 3.800781 4.496094 3.679688 4.800781 3.679688 L 8.292969 3.679688 L 8.292969 1.742188 C 8.292969 1.441406 8.171875 1.167969 7.972656 0.96875 C 7.8125 0.8125 7.582031 0.75 7.347656 0.710938 L 2.804688 0.710938 C 1.644531 0.710938 0.710938 1.644531 0.710938 2.800781 Z M 0.710938 7.347656 "/>
<path style=" stroke:none;fill-rule:nonzero;fill:rgb(65.098039%,92.156863%,49.019608%);fill-opacity:1;" d="M 9.820312 8.730469 L 9.820312 3.269531 C 9.820312 2.667969 9.332031 2.179688 8.730469 2.179688 L 3.269531 2.179688 C 2.667969 2.179688 2.179688 2.667969 2.179688 3.269531 L 2.179688 8.730469 C 2.179688 9.332031 2.667969 9.820312 3.269531 9.820312 L 8.730469 9.820312 C 9.332031 9.820312 9.820312 9.332031 9.820312 8.730469 Z M 9.820312 8.730469 "/>
<path style=" stroke:none;fill-rule:evenodd;fill:rgb(37.254902%,65.098039%,98.039216%);fill-opacity:1;" d="M 11.289062 4.625 C 11.25 4.390625 11.191406 4.160156 11.03125 4 C 10.832031 3.800781 10.558594 3.679688 10.257812 3.679688 L 4.800781 3.679688 C 4.496094 3.679688 4.222656 3.800781 4.027344 4 C 3.828125 4.195312 3.707031 4.46875 3.707031 4.773438 L 3.707031 10.230469 C 3.707031 10.53125 3.828125 10.804688 4.027344 11.003906 C 4.203125 11.179688 4.453125 11.265625 4.71875 11.289062 L 9.199219 11.289062 C 10.355469 11.289062 11.289062 10.355469 11.289062 9.195312 Z M 11.289062 4.625 "/>
<path style=" stroke:none;fill-rule:nonzero;fill:rgb(100%,100%,100%);fill-opacity:1;" d="M 6.953125 5.992188 C 6.847656 5.992188 6.761719 6.082031 6.765625 6.1875 L 6.765625 9.242188 C 6.761719 9.332031 6.824219 9.410156 6.910156 9.429688 C 6.953125 9.441406 6.996094 9.4375 7.035156 9.417969 C 7.113281 9.421875 7.417969 9.457031 7.808594 9.277344 C 8.246094 9.082031 8.6875 8.605469 8.679688 7.714844 C 8.671875 6.824219 8.230469 6.351562 7.796875 6.15625 C 7.417969 5.980469 7.136719 6.011719 7.050781 6.015625 C 7.019531 6 6.984375 5.992188 6.953125 5.992188 Z M 7.144531 6.410156 C 7.257812 6.410156 7.394531 6.390625 7.640625 6.503906 C 7.964844 6.652344 8.289062 6.945312 8.296875 7.71875 C 8.304688 8.492188 7.984375 8.777344 7.652344 8.929688 C 7.402344 9.042969 7.257812 9.023438 7.144531 9.023438 Z M 7.144531 6.410156 "/>
<path style=" stroke:none;fill-rule:nonzero;fill:rgb(100%,100%,100%);fill-opacity:1;" d="M 9.246094 5.996094 C 9.210938 5.996094 9.171875 6.007812 9.140625 6.027344 C 9.140625 6.03125 9.140625 6.03125 9.140625 6.03125 C 9.136719 6.03125 9.132812 6.035156 9.125 6.039062 C 9.121094 6.042969 9.117188 6.046875 9.113281 6.050781 C 9.113281 6.050781 9.113281 6.054688 9.113281 6.054688 C 9.109375 6.054688 9.109375 6.054688 9.109375 6.054688 C 9.101562 6.066406 9.09375 6.074219 9.089844 6.085938 C 9.0625 6.125 9.050781 6.171875 9.058594 6.21875 L 9.058594 7.679688 C 9.054688 7.703125 9.054688 7.726562 9.058594 7.746094 L 9.058594 9.246094 C 9.058594 9.3125 9.09375 9.378906 9.152344 9.414062 C 9.214844 9.445312 9.289062 9.445312 9.347656 9.414062 C 9.40625 9.378906 9.441406 9.3125 9.441406 9.246094 L 9.441406 7.90625 L 10.777344 7.90625 C 10.847656 7.910156 10.910156 7.871094 10.945312 7.8125 C 10.980469 7.753906 10.980469 7.679688 10.945312 7.621094 C 10.910156 7.5625 10.847656 7.523438 10.777344 7.523438 L 9.441406 7.523438 L 9.441406 6.378906 L 10.777344 6.378906 C 10.847656 6.378906 10.910156 6.34375 10.945312 6.285156 C 10.980469 6.226562 10.980469 6.152344 10.945312 6.09375 C 10.910156 6.03125 10.847656 5.996094 10.777344 5.996094 L 9.277344 5.996094 C 9.269531 5.996094 9.257812 5.996094 9.246094 5.996094 Z M 9.246094 5.996094 "/>
<path style=" stroke:none;fill-rule:nonzero;fill:rgb(100%,100%,100%);fill-opacity:1;" d="M 4.664062 5.996094 C 4.609375 5.996094 4.5625 6.019531 4.527344 6.054688 C 4.523438 6.058594 4.523438 6.058594 4.519531 6.058594 C 4.480469 6.105469 4.464844 6.164062 4.476562 6.222656 L 4.476562 7.683594 C 4.472656 7.703125 4.472656 7.726562 4.476562 7.75 L 4.476562 9.246094 C 4.472656 9.3125 4.511719 9.378906 4.570312 9.414062 C 4.628906 9.445312 4.703125 9.445312 4.761719 9.414062 C 4.820312 9.378906 4.859375 9.3125 4.855469 9.246094 L 4.855469 7.898438 C 4.992188 7.910156 5.15625 7.933594 5.464844 7.875 C 5.675781 7.835938 5.894531 7.761719 6.074219 7.617188 C 6.253906 7.472656 6.386719 7.238281 6.386719 6.953125 C 6.386719 6.664062 6.253906 6.433594 6.074219 6.289062 C 5.894531 6.140625 5.675781 6.070312 5.464844 6.03125 C 5.082031 5.957031 4.777344 5.996094 4.714844 6 C 4.699219 5.996094 4.679688 5.996094 4.664062 5.996094 Z M 4.855469 6.386719 C 4.972656 6.378906 5.132812 6.355469 5.394531 6.40625 C 5.566406 6.4375 5.730469 6.5 5.835938 6.585938 C 5.941406 6.671875 6.003906 6.769531 6.003906 6.953125 C 6.003906 7.136719 5.941406 7.234375 5.835938 7.320312 C 5.730469 7.40625 5.566406 7.46875 5.394531 7.5 C 5.132812 7.550781 4.972656 7.527344 4.855469 7.519531 Z M 4.855469 6.386719 "/>
</g>
</svg>
