<?xml version="1.0" encoding="UTF-8"?>
<svg xmlns="http://www.w3.org/2000/svg" xmlns:xlink="http://www.w3.org/1999/xlink" width="12pt" height="12pt" viewBox="0 0 12 12" version="1.1">
<g id="surface1">
<path style=" stroke:none;fill-rule:evenodd;fill:rgb(30.980392%,30.980392%,30.980392%);fill-opacity:1;" d="M 2.800781 0.710938 L 9.199219 0.710938 C 10.351562 0.710938 11.289062 1.648438 11.289062 2.800781 L 11.289062 9.199219 C 11.289062 10.351562 10.351562 11.289062 9.199219 11.289062 L 2.800781 11.289062 C 1.648438 11.289062 0.710938 10.351562 0.710938 9.199219 L 0.710938 2.800781 C 0.710938 1.648438 1.648438 0.710938 2.800781 0.710938 Z M 2.800781 0.710938 "/>
<path style=" stroke:none;fill-rule:nonzero;fill:rgb(100%,100%,100%);fill-opacity:1;" d="M 10.027344 1.972656 L 9.019531 1.972656 L 9.019531 2.980469 L 10.027344 2.980469 Z M 10.027344 9.019531 L 9.019531 9.019531 L 9.019531 10.027344 L 10.027344 10.027344 Z M 7.675781 1.972656 L 6.671875 1.972656 L 6.671875 2.980469 L 7.675781 2.980469 Z M 7.675781 9.019531 L 6.671875 9.019531 L 6.671875 10.027344 L 7.675781 10.027344 Z M 5.328125 1.972656 L 4.324219 1.972656 L 4.324219 2.980469 L 5.328125 2.980469 Z M 5.328125 9.019531 L 4.324219 9.019531 L 4.324219 10.027344 L 5.328125 10.027344 Z M 2.980469 1.972656 L 1.972656 1.972656 L 1.972656 2.980469 L 2.980469 2.980469 Z M 2.980469 9.019531 L 1.972656 9.019531 L 1.972656 10.027344 L 2.980469 10.027344 Z M 2.980469 9.019531 "/>
<path style=" stroke:none;fill-rule:nonzero;fill:rgb(74.509804%,100%,29.803922%);fill-opacity:1;" d="M 5.664062 6.335938 C 5.265625 6.976562 4.386719 7.195312 3.699219 6.828125 C 3.011719 6.457031 2.777344 5.636719 3.171875 4.992188 Z M 5.664062 6.335938 "/>
<path style=" stroke:none;fill-rule:nonzero;fill:rgb(17.254902%,17.254902%,17.254902%);fill-opacity:1;" d="M 4.289062 5.59375 C 4.230469 5.988281 4.347656 6.460938 4.644531 6.984375 C 4.648438 6.984375 4.648438 6.984375 4.648438 6.984375 C 4.488281 6.609375 4.511719 6.1875 4.65625 5.792969 Z M 4.289062 5.59375 "/>
<path style=" stroke:none;fill-rule:nonzero;fill:rgb(74.509804%,100%,29.803922%);fill-opacity:1;" d="M 6.335938 6.335938 C 6.734375 6.976562 7.613281 7.199219 8.300781 6.828125 C 8.988281 6.457031 9.222656 5.636719 8.828125 4.992188 Z M 6.335938 6.335938 "/>
<path style=" stroke:none;fill-rule:nonzero;fill:rgb(17.254902%,17.254902%,17.254902%);fill-opacity:1;" d="M 7.710938 5.59375 L 7.34375 5.792969 C 7.488281 6.1875 7.511719 6.609375 7.351562 6.984375 C 7.351562 6.984375 7.351562 6.984375 7.355469 6.984375 C 7.652344 6.460938 7.769531 5.988281 7.710938 5.59375 Z M 7.710938 5.59375 "/>
</g>
</svg>
