<?xml version="1.0" encoding="UTF-8"?>
<svg xmlns="http://www.w3.org/2000/svg" xmlns:xlink="http://www.w3.org/1999/xlink" width="12pt" height="12pt" viewBox="0 0 12 12" version="1.1">
<g id="surface1">
<path style=" stroke:none;fill-rule:evenodd;fill:rgb(100%,100%,100%);fill-opacity:1;" d="M 2.800781 0.710938 L 9.199219 0.710938 C 10.351562 0.710938 11.289062 1.648438 11.289062 2.800781 L 11.289062 9.199219 C 11.289062 10.351562 10.351562 11.289062 9.199219 11.289062 L 2.800781 11.289062 C 1.648438 11.289062 0.710938 10.351562 0.710938 9.199219 L 0.710938 2.800781 C 0.710938 1.648438 1.648438 0.710938 2.800781 0.710938 Z M 2.800781 0.710938 "/>
<path style=" stroke:none;fill-rule:evenodd;fill:rgb(37.254902%,70.196078%,9.803922%);fill-opacity:1;" d="M 11.289062 3.710938 L 11.289062 2.800781 C 11.289062 1.644531 10.355469 0.710938 9.199219 0.710938 L 7.527344 0.710938 L 7.527344 3.710938 Z M 11.289062 3.710938 "/>
<path style=" stroke:none;fill-rule:evenodd;fill:rgb(90.588235%,29.411765%,29.411765%);fill-opacity:1;" d="M 5.617188 11.289062 L 9.199219 11.289062 C 10.355469 11.289062 11.289062 10.355469 11.289062 9.199219 L 11.289062 4.855469 L 5.617188 4.855469 Z M 5.617188 11.289062 "/>
<path style=" stroke:none;fill-rule:evenodd;fill:rgb(20.784314%,67.058824%,89.411765%);fill-opacity:1;" d="M 0.710938 4.855469 L 0.710938 9.199219 C 0.710938 10.355469 1.644531 11.289062 2.800781 11.289062 L 4.472656 11.289062 L 4.472656 4.855469 Z M 0.710938 4.855469 "/>
<path style=" stroke:none;fill-rule:evenodd;fill:rgb(100%,75.686275%,16.078431%);fill-opacity:1;" d="M 6.382812 0.710938 L 2.800781 0.710938 C 1.644531 0.710938 0.710938 1.644531 0.710938 2.800781 L 0.710938 3.710938 L 6.382812 3.710938 Z M 6.382812 0.710938 "/>
<path style=" stroke:none;fill-rule:evenodd;fill:rgb(100%,100%,100%);fill-opacity:1;" d="M 6.382812 0.710938 L 6.382812 3.710938 L 0.710938 3.710938 L 0.710938 4.855469 L 4.472656 4.855469 L 4.472656 11.289062 L 5.617188 11.289062 L 5.617188 4.855469 L 11.289062 4.855469 L 11.289062 3.710938 L 7.527344 3.710938 L 7.527344 0.710938 Z M 6.382812 0.710938 "/>
</g>
</svg>
