<?xml version="1.0" encoding="UTF-8"?>
<svg xmlns="http://www.w3.org/2000/svg" xmlns:xlink="http://www.w3.org/1999/xlink" width="12pt" height="12pt" viewBox="0 0 12 12" version="1.1">
<g id="surface1">
<path style=" stroke:none;fill-rule:evenodd;fill:rgb(29.019608%,49.019608%,72.156863%);fill-opacity:1;" d="M 2.800781 0.710938 L 9.199219 0.710938 C 10.351562 0.710938 11.289062 1.648438 11.289062 2.800781 L 11.289062 9.199219 C 11.289062 10.351562 10.351562 11.289062 9.199219 11.289062 L 2.800781 11.289062 C 1.648438 11.289062 0.710938 10.351562 0.710938 9.199219 L 0.710938 2.800781 C 0.710938 1.648438 1.648438 0.710938 2.800781 0.710938 Z M 2.800781 0.710938 "/>
<path style=" stroke:none;fill-rule:nonzero;fill:rgb(47.843137%,79.607843%,69.803922%);fill-opacity:1;" d="M 4.363281 3.75 C 4.300781 3.75 4.238281 3.773438 4.195312 3.820312 C 4.148438 3.867188 4.125 3.933594 4.125 4 L 4.125 8 C 4.125 8.089844 4.167969 8.171875 4.242188 8.214844 C 4.3125 8.261719 4.402344 8.261719 4.476562 8.21875 L 7.757812 6.21875 C 7.828125 6.171875 7.875 6.089844 7.875 6 C 7.875 5.910156 7.828125 5.828125 7.757812 5.78125 L 4.476562 3.78125 C 4.441406 3.761719 4.402344 3.75 4.363281 3.75 Z M 4.363281 3.75 "/>
</g>
</svg>
