<?xml version="1.0" encoding="UTF-8"?>
<svg xmlns="http://www.w3.org/2000/svg" xmlns:xlink="http://www.w3.org/1999/xlink" width="12pt" height="12pt" viewBox="0 0 12 12" version="1.1">
<g id="surface1">
<path style=" stroke:none;fill-rule:evenodd;fill:rgb(60%,60%,60%);fill-opacity:1;" d="M 2.800781 0.710938 L 9.199219 0.710938 C 10.351562 0.710938 11.289062 1.648438 11.289062 2.800781 L 11.289062 9.199219 C 11.289062 10.351562 10.351562 11.289062 9.199219 11.289062 L 2.800781 11.289062 C 1.648438 11.289062 0.710938 10.351562 0.710938 9.199219 L 0.710938 2.800781 C 0.710938 1.648438 1.648438 0.710938 2.800781 0.710938 Z M 2.800781 0.710938 "/>
<path style=" stroke:none;fill-rule:nonzero;fill:rgb(90.196078%,90.196078%,90.196078%);fill-opacity:1;" d="M 3.050781 4.664062 L 2.992188 4.664062 C 2.515625 4.664062 2.132812 5.050781 2.132812 5.527344 L 2.132812 8.242188 C 2.132812 8.71875 2.515625 9.105469 2.992188 9.105469 L 9.007812 9.105469 C 9.484375 9.105469 9.867188 8.71875 9.867188 8.242188 L 9.867188 5.527344 C 9.867188 5.050781 9.484375 4.664062 9.007812 4.664062 L 8.949219 4.664062 L 8.949219 6.753906 C 8.949219 6.941406 8.871094 7.109375 8.75 7.234375 C 8.625 7.355469 8.457031 7.433594 8.269531 7.433594 L 3.730469 7.433594 C 3.542969 7.433594 3.375 7.355469 3.25 7.234375 C 3.128906 7.109375 3.050781 6.941406 3.050781 6.753906 Z M 3.050781 4.664062 "/>
<path style=" stroke:none;fill-rule:nonzero;fill:rgb(35.686275%,35.686275%,35.686275%);fill-opacity:1;" d="M 3.050781 4.664062 L 3.050781 6.753906 C 3.050781 6.941406 3.128906 7.109375 3.25 7.234375 C 3.375 7.355469 3.542969 7.433594 3.730469 7.433594 L 8.269531 7.433594 C 8.457031 7.433594 8.625 7.355469 8.75 7.234375 C 8.871094 7.109375 8.949219 6.941406 8.949219 6.753906 L 8.949219 4.664062 Z M 3.050781 4.664062 "/>
<path style=" stroke:none;fill-rule:nonzero;fill:rgb(32.156863%,32.156863%,32.156863%);fill-opacity:1;" d="M 3.40625 8.128906 L 8.59375 8.128906 L 8.59375 9.105469 L 3.40625 9.105469 Z M 3.40625 8.128906 "/>
<path style=" stroke:none;fill-rule:nonzero;fill:rgb(80%,80%,80%);fill-opacity:1;" d="M 3.738281 8.488281 L 8.261719 8.488281 L 8.261719 9.832031 L 3.738281 9.832031 Z M 3.738281 8.488281 "/>
<path style=" stroke:none;fill-rule:nonzero;fill:rgb(80%,80%,80%);fill-opacity:1;" d="M 4.074219 8.488281 L 7.925781 8.488281 L 7.925781 9.511719 L 4.074219 9.511719 Z M 4.074219 8.488281 "/>
<path style=" stroke:none;fill-rule:nonzero;fill:rgb(100%,100%,100%);fill-opacity:1;" d="M 9.441406 8.210938 C 9.441406 8.351562 9.332031 8.460938 9.195312 8.460938 C 9.058594 8.460938 8.945312 8.351562 8.945312 8.210938 C 8.945312 8.074219 9.058594 7.964844 9.195312 7.964844 C 9.332031 7.964844 9.441406 8.074219 9.441406 8.210938 Z M 9.441406 8.210938 "/>
<path style=" stroke:none;fill-rule:nonzero;fill:rgb(80%,80%,80%);fill-opacity:1;" d="M 3.695312 2.167969 L 8.222656 2.167969 L 8.222656 5.210938 L 3.695312 5.210938 Z M 3.695312 2.167969 "/>
<path style=" stroke:none;fill-rule:nonzero;fill:rgb(80%,80%,80%);fill-opacity:1;" d="M 4.035156 2.46875 L 7.882812 2.46875 L 7.882812 5.210938 L 4.035156 5.210938 Z M 4.035156 2.46875 "/>
</g>
</svg>
