<?xml version="1.0" encoding="UTF-8"?>
<svg xmlns="http://www.w3.org/2000/svg" xmlns:xlink="http://www.w3.org/1999/xlink" width="12pt" height="12pt" viewBox="0 0 12 12" version="1.1">
<g id="surface1">
<path style=" stroke:none;fill-rule:evenodd;fill:rgb(0.784314%,52.54902%,76.078431%);fill-opacity:1;" d="M 2.800781 0.710938 L 9.199219 0.710938 C 10.351562 0.710938 11.289062 1.648438 11.289062 2.800781 L 11.289062 9.199219 C 11.289062 10.351562 10.351562 11.289062 9.199219 11.289062 L 2.800781 11.289062 C 1.648438 11.289062 0.710938 10.351562 0.710938 9.199219 L 0.710938 2.800781 C 0.710938 1.648438 1.648438 0.710938 2.800781 0.710938 Z M 2.800781 0.710938 "/>
<path style=" stroke:none;fill-rule:nonzero;fill:rgb(100%,100%,100%);fill-opacity:1;" d="M 6 3 C 4.34375 3 3 4.34375 3 6 C 3 7.65625 4.34375 9 6 9 C 6.6875 9 7.355469 8.761719 7.886719 8.332031 C 7.609375 8.523438 7.277344 8.625 6.9375 8.625 C 6.003906 8.625 5.25 7.871094 5.25 6.9375 C 5.25 6.003906 6.003906 5.25 6.9375 5.25 C 7.871094 5.25 8.625 6.003906 8.625 6.9375 C 8.625 7.269531 8.527344 7.589844 8.34375 7.867188 C 8.769531 7.335938 9 6.679688 9 6 C 9 4.34375 7.65625 3 6 3 Z M 6 3 "/>
</g>
</svg>
