<?xml version="1.0" encoding="UTF-8"?>
<svg xmlns="http://www.w3.org/2000/svg" xmlns:xlink="http://www.w3.org/1999/xlink" width="12pt" height="12pt" viewBox="0 0 12 12" version="1.1">
<g id="surface1">
<path style=" stroke:none;fill-rule:evenodd;fill:rgb(19.215686%,63.921569%,70.196078%);fill-opacity:1;" d="M 2.800781 0.710938 L 9.199219 0.710938 C 10.351562 0.710938 11.289062 1.648438 11.289062 2.800781 L 11.289062 9.199219 C 11.289062 10.351562 10.351562 11.289062 9.199219 11.289062 L 2.800781 11.289062 C 1.648438 11.289062 0.710938 10.351562 0.710938 9.199219 L 0.710938 2.800781 C 0.710938 1.648438 1.648438 0.710938 2.800781 0.710938 Z M 2.800781 0.710938 "/>
<path style=" stroke:none;fill-rule:nonzero;fill:rgb(100%,100%,100%);fill-opacity:1;" d="M 3.292969 2.144531 L 4.015625 1.726562 C 4.414062 1.496094 4.949219 1.671875 5.207031 2.121094 L 8.960938 8.625 C 9.222656 9.074219 9.109375 9.625 8.710938 9.855469 L 7.988281 10.273438 C 7.589844 10.503906 7.054688 10.324219 6.796875 9.875 L 3.039062 3.375 C 2.78125 2.925781 2.894531 2.375 3.292969 2.144531 Z M 3.292969 2.144531 "/>
<path style=" stroke:none;fill-rule:nonzero;fill:rgb(40.392157%,73.72549%,78.431373%);fill-opacity:1;" d="M 8.707031 2.144531 L 7.984375 1.726562 C 7.585938 1.496094 7.054688 1.675781 6.792969 2.125 L 3.039062 8.625 C 2.78125 9.074219 2.894531 9.625 3.292969 9.855469 L 4.015625 10.273438 C 4.414062 10.503906 4.949219 10.328125 5.207031 9.878906 L 8.960938 3.375 C 9.222656 2.925781 9.109375 2.375 8.707031 2.144531 Z M 8.707031 2.144531 "/>
<path style=" stroke:none;fill-rule:nonzero;fill:rgb(58.039216%,83.137255%,87.058824%);fill-opacity:1;" d="M 10.695312 6.417969 L 10.695312 5.582031 C 10.695312 5.121094 10.273438 4.746094 9.753906 4.746094 L 2.246094 4.746094 C 1.726562 4.746094 1.304688 5.121094 1.304688 5.582031 L 1.304688 6.417969 C 1.304688 6.878906 1.726562 7.25 2.246094 7.25 L 9.753906 7.25 C 10.273438 7.25 10.695312 6.878906 10.695312 6.417969 Z M 10.695312 6.417969 "/>
</g>
</svg>
