<?xml version="1.0" encoding="UTF-8"?>
<svg xmlns="http://www.w3.org/2000/svg" xmlns:xlink="http://www.w3.org/1999/xlink" width="12pt" height="12pt" viewBox="0 0 12 12" version="1.1">
<defs>
<filter id="alpha" filterUnits="objectBoundingBox" x="0%" y="0%" width="100%" height="100%">
  <feColorMatrix type="matrix" in="SourceGraphic" values="0 0 0 0 1 0 0 0 0 1 0 0 0 0 1 0 0 0 1 0"/>
</filter>
<mask id="mask0">
  <g filter="url(#alpha)">
<rect x="0" y="0" width="12" height="12" style="fill:rgb(0%,0%,0%);fill-opacity:0.988235;stroke:none;"/>
  </g>
</mask>
<clipPath id="clip1">
  <rect width="12" height="12"/>
</clipPath>
<g id="surface6" clip-path="url(#clip1)">
<path style="fill:none;stroke-width:0.109435;stroke-linecap:round;stroke-linejoin:bevel;stroke:rgb(100%,100%,100%);stroke-opacity:0.552941;stroke-miterlimit:4;" d="M 16.217109 7.212699 C 20.867398 7.310087 24.714233 10.937799 25.347257 15.442005 " transform="matrix(0.320881,0,0,0.320881,0.854838,0.892616)"/>
</g>
</defs>
<g id="surface1">
<path style=" stroke:none;fill-rule:evenodd;fill:rgb(0%,49.411765%,100%);fill-opacity:1;" d="M 2.800781 0.710938 L 9.199219 0.710938 C 10.351562 0.710938 11.289062 1.648438 11.289062 2.800781 L 11.289062 9.199219 C 11.289062 10.351562 10.351562 11.289062 9.199219 11.289062 L 2.800781 11.289062 C 1.648438 11.289062 0.710938 10.351562 0.710938 9.199219 L 0.710938 2.800781 C 0.710938 1.648438 1.648438 0.710938 2.800781 0.710938 Z M 2.800781 0.710938 "/>
<path style=" stroke:none;fill-rule:nonzero;fill:rgb(32.156863%,65.882353%,91.764706%);fill-opacity:1;" d="M 5.84375 9.253906 C 5.183594 9.226562 4.554688 8.980469 4.039062 8.546875 C 3.953125 8.476562 3.792969 8.320312 3.714844 8.230469 C 3.394531 7.867188 3.164062 7.433594 3.050781 6.964844 C 2.96875 6.644531 2.945312 6.320312 2.96875 5.984375 C 2.976562 5.902344 2.992188 5.792969 2.996094 5.789062 C 2.996094 5.789062 3.011719 5.789062 3.03125 5.796875 C 3.050781 5.800781 3.089844 5.804688 3.121094 5.804688 L 3.175781 5.804688 L 3.226562 5.859375 L 3.28125 5.914062 L 3.390625 5.914062 L 3.390625 6.3125 L 3.394531 6.113281 L 3.394531 5.914062 L 3.503906 5.96875 C 3.605469 6.019531 3.609375 6.023438 3.660156 6.074219 L 3.714844 6.125 L 3.933594 6.125 L 4.035156 6.234375 L 4.253906 6.234375 L 4.253906 6.339844 L 4.199219 6.398438 L 4.140625 6.457031 L 4.089844 6.613281 L 4.035156 6.773438 L 4.09375 6.882812 L 4.148438 6.996094 L 4.25 7.101562 L 4.355469 7.203125 L 4.578125 7.203125 L 4.578125 7.421875 L 4.796875 7.859375 L 4.796875 8.078125 L 4.847656 8.179688 C 4.890625 8.269531 4.910156 8.3125 4.953125 8.445312 L 5.007812 8.609375 L 5.0625 8.664062 L 5.121094 8.71875 L 5.335938 8.71875 L 5.28125 8.664062 C 5.226562 8.609375 5.226562 8.605469 5.171875 8.5 L 5.121094 8.394531 L 5.175781 8.234375 L 5.226562 8.074219 L 5.445312 7.964844 L 5.445312 7.640625 L 5.550781 7.585938 L 5.660156 7.53125 L 5.660156 7.3125 L 5.769531 7.257812 L 5.878906 7.207031 L 5.929688 7.042969 L 5.984375 6.882812 L 5.929688 6.773438 L 5.878906 6.664062 L 5.765625 6.605469 C 5.65625 6.550781 5.652344 6.550781 5.601562 6.5 L 5.550781 6.445312 L 5.445312 6.445312 L 5.390625 6.339844 L 5.335938 6.230469 L 5.230469 6.179688 L 5.121094 6.125 L 4.902344 6.125 L 4.796875 6.230469 L 4.742188 6.125 L 4.6875 6.015625 L 4.46875 6.015625 L 4.417969 6.070312 L 4.363281 6.125 L 4.148438 6.125 L 4.148438 6.011719 L 4.09375 5.957031 L 4.039062 5.90625 L 4.039062 5.796875 L 3.929688 5.796875 L 3.878906 5.851562 C 3.851562 5.878906 3.828125 5.902344 3.824219 5.902344 C 3.824219 5.902344 3.800781 5.855469 3.769531 5.796875 L 3.71875 5.695312 L 3.828125 5.585938 L 4.140625 5.585938 L 4.359375 5.695312 L 4.472656 5.585938 L 4.582031 5.476562 L 4.632812 5.261719 L 4.6875 5.050781 L 4.796875 4.9375 L 4.90625 4.828125 L 5.226562 4.828125 L 5.226562 4.722656 C 5.226562 4.664062 5.226562 4.617188 5.226562 4.617188 C 5.226562 4.617188 5.300781 4.640625 5.390625 4.667969 L 5.550781 4.722656 L 5.660156 4.617188 L 5.769531 4.507812 L 5.660156 4.507812 L 5.605469 4.394531 C 5.550781 4.28125 5.546875 4.277344 5.496094 4.230469 L 5.445312 4.179688 L 5.226562 4.289062 L 4.792969 4.289062 L 4.738281 4.394531 L 4.683594 4.503906 L 4.632812 4.449219 L 4.578125 4.398438 L 4.472656 4.398438 L 4.472656 4.183594 L 4.632812 4.128906 L 4.792969 4.078125 L 4.84375 4.128906 C 4.871094 4.15625 4.898438 4.179688 4.90625 4.179688 C 4.910156 4.179688 4.984375 4.15625 5.066406 4.128906 L 5.222656 4.078125 L 5.332031 4.078125 C 5.394531 4.078125 5.445312 4.074219 5.445312 4.074219 C 5.445312 4.070312 5.421875 4.023438 5.390625 3.964844 C 5.339844 3.863281 5.339844 3.859375 5.285156 3.804688 L 5.230469 3.75 L 5.011719 3.75 L 4.957031 3.800781 C 4.90625 3.855469 4.902344 3.855469 4.796875 3.910156 L 4.6875 3.964844 L 4.628906 3.910156 C 4.574219 3.855469 4.570312 3.851562 4.472656 3.804688 L 4.375 3.753906 L 4.265625 3.746094 L 4.316406 3.710938 C 4.734375 3.433594 5.214844 3.269531 5.730469 3.21875 C 5.832031 3.210938 6.113281 3.210938 6.21875 3.21875 C 6.75 3.269531 7.230469 3.433594 7.652344 3.714844 L 7.707031 3.753906 L 7.710938 3.914062 L 7.710938 4.074219 L 7.765625 4.128906 C 7.816406 4.179688 7.820312 4.183594 7.925781 4.234375 L 8.035156 4.289062 L 7.925781 4.398438 L 7.707031 4.398438 L 7.601562 4.503906 L 7.601562 4.714844 L 7.546875 4.664062 L 7.496094 4.609375 L 7.277344 4.609375 L 7.167969 4.828125 L 7.277344 5.046875 L 7.496094 5.046875 L 7.546875 4.996094 C 7.597656 4.945312 7.601562 4.941406 7.710938 4.886719 C 7.820312 4.832031 7.824219 4.828125 7.875 4.777344 L 7.925781 4.726562 L 7.980469 4.828125 L 8.03125 4.933594 L 8.03125 5.042969 L 8.144531 5.15625 L 8.253906 5.101562 L 8.359375 5.046875 L 8.253906 4.9375 L 8.148438 4.832031 L 8.199219 4.777344 L 8.253906 4.726562 L 8.46875 4.941406 L 8.46875 5.046875 L 8.574219 5.046875 L 8.683594 5.15625 L 8.804688 5.15625 L 8.820312 5.1875 C 8.839844 5.246094 8.863281 5.316406 8.886719 5.386719 C 8.894531 5.425781 8.90625 5.460938 8.90625 5.46875 C 8.910156 5.476562 8.902344 5.476562 8.796875 5.476562 L 8.6875 5.476562 L 8.46875 5.367188 L 8.359375 5.421875 C 8.25 5.476562 8.246094 5.480469 8.195312 5.53125 L 8.140625 5.582031 L 8.039062 5.53125 C 7.9375 5.480469 7.933594 5.480469 7.878906 5.425781 L 7.824219 5.367188 L 7.492188 5.367188 L 7.273438 5.476562 L 7.058594 5.476562 L 7.007812 5.53125 L 6.953125 5.582031 L 6.953125 5.910156 L 6.84375 6.019531 L 6.84375 6.339844 L 6.953125 6.667969 L 7.058594 6.722656 L 7.164062 6.773438 L 7.390625 6.773438 L 7.5 6.71875 L 7.605469 6.664062 L 7.8125 6.664062 L 8.03125 6.773438 L 8.03125 6.988281 L 8.140625 7.207031 L 7.925781 7.421875 L 8.035156 7.636719 L 8.140625 7.851562 L 8.140625 8.066406 L 8.207031 8.136719 L 8.277344 8.203125 L 8.261719 8.21875 C 8.125 8.367188 8.035156 8.457031 7.914062 8.554688 C 7.453125 8.941406 6.894531 9.175781 6.296875 9.238281 C 6.222656 9.246094 5.996094 9.261719 5.960938 9.257812 C 5.953125 9.257812 5.902344 9.253906 5.84375 9.253906 Z M 3.398438 6.421875 C 3.398438 6.417969 3.394531 6.417969 3.394531 6.425781 C 3.394531 6.433594 3.394531 6.4375 3.398438 6.433594 C 3.398438 6.433594 3.398438 6.425781 3.398438 6.421875 Z M 5.390625 5.101562 L 5.445312 5.046875 L 5.332031 4.933594 L 5.386719 4.992188 L 5.441406 5.046875 L 5.386719 5.097656 L 5.335938 5.152344 L 5.277344 5.097656 L 5.222656 5.042969 L 5.277344 5.097656 C 5.308594 5.128906 5.332031 5.15625 5.335938 5.15625 C 5.335938 5.15625 5.363281 5.132812 5.390625 5.101562 Z M 5.609375 4.992188 L 5.664062 4.941406 L 5.660156 4.882812 L 5.660156 4.824219 L 5.65625 4.882812 L 5.65625 4.941406 L 5.605469 4.992188 L 5.550781 5.042969 L 5.5 4.988281 L 5.445312 4.933594 L 5.441406 4.878906 L 5.441406 4.824219 L 5.4375 4.878906 L 5.4375 4.933594 L 5.492188 4.988281 C 5.523438 5.019531 5.550781 5.046875 5.550781 5.046875 C 5.554688 5.046875 5.578125 5.023438 5.609375 4.992188 Z M 7.121094 4.453125 L 7.175781 4.398438 L 7.117188 4.34375 L 7.058594 4.285156 L 7.113281 4.34375 L 7.167969 4.398438 L 7.113281 4.449219 L 7.0625 4.503906 L 7.011719 4.453125 L 6.957031 4.402344 L 6.957031 4.285156 L 6.953125 4.34375 L 6.953125 4.398438 L 7.003906 4.453125 C 7.035156 4.484375 7.058594 4.507812 7.0625 4.507812 C 7.0625 4.507812 7.089844 4.480469 7.121094 4.453125 Z M 7.398438 4.472656 C 7.402344 4.464844 7.40625 4.457031 7.402344 4.457031 C 7.402344 4.457031 7.398438 4.464844 7.390625 4.472656 C 7.386719 4.480469 7.382812 4.488281 7.386719 4.488281 C 7.386719 4.488281 7.394531 4.480469 7.398438 4.472656 Z M 7.433594 4.410156 C 7.4375 4.398438 7.441406 4.390625 7.4375 4.390625 C 7.4375 4.390625 7.429688 4.398438 7.425781 4.410156 C 7.421875 4.417969 7.417969 4.425781 7.421875 4.425781 C 7.421875 4.425781 7.425781 4.417969 7.433594 4.410156 Z M 7.230469 4.34375 L 7.175781 4.289062 L 7.226562 4.238281 L 7.277344 4.183594 L 7.382812 4.238281 C 7.441406 4.265625 7.488281 4.289062 7.492188 4.289062 C 7.492188 4.289062 7.445312 4.261719 7.386719 4.234375 L 7.277344 4.179688 L 7.167969 4.289062 L 7.222656 4.34375 C 7.253906 4.375 7.277344 4.398438 7.28125 4.398438 C 7.28125 4.398438 7.257812 4.375 7.230469 4.34375 Z M 7.464844 4.351562 C 7.46875 4.339844 7.472656 4.328125 7.472656 4.328125 C 7.472656 4.328125 7.464844 4.339844 7.457031 4.351562 C 7.453125 4.363281 7.449219 4.375 7.449219 4.375 C 7.449219 4.375 7.457031 4.363281 7.464844 4.351562 Z M 7.492188 4.296875 C 7.488281 4.296875 7.488281 4.296875 7.484375 4.304688 C 7.480469 4.3125 7.480469 4.3125 7.488281 4.308594 C 7.492188 4.304688 7.492188 4.300781 7.492188 4.296875 Z M 7.492188 4.296875 "/>
<path style="fill:none;stroke-width:1.069;stroke-linecap:butt;stroke-linejoin:miter;stroke:rgb(100%,100%,100%);stroke-opacity:1;stroke-miterlimit:4.5;" d="M 25.408124 6.04404 C 25.018571 9.330893 25.176827 12.532532 25.35943 15.69765 C 25.383777 15.977641 25.395951 16.281979 25.395951 16.598491 C 25.395951 21.796588 21.183909 26.00863 15.985812 26.00863 C 10.787715 26.00863 6.5635 21.796588 6.5635 16.598491 C 6.5635 11.400393 10.787715 7.176178 16.071027 7.176178 C 19.333533 7.054443 22.63256 6.920534 25.408124 6.04404 Z M 25.408124 6.04404 " transform="matrix(0.320881,0,0,0.320881,0.854838,0.892616)"/>
<path style="fill:none;stroke-width:0.10965;stroke-linecap:butt;stroke-linejoin:miter;stroke:rgb(100%,100%,100%);stroke-opacity:0.74902;stroke-miterlimit:4;" d="M 6.624367 15.259402 C 9.66775 6.579675 23.70383 8.101367 25.335083 15.709823 " transform="matrix(0.320881,0,0,0.320881,0.854838,0.892616)"/>
<path style="fill:none;stroke-width:1.069;stroke-linecap:butt;stroke-linejoin:miter;stroke:rgb(100%,100%,100%);stroke-opacity:0.988235;stroke-miterlimit:4.5;" d="M 9.351238 23.318279 C 12.674612 24.365203 21.01348 17.414117 23.423839 10.852585 C 25.262042 5.861437 25.11596 6.713584 25.408124 6.04404 " transform="matrix(0.320881,0,0,0.320881,0.854838,0.892616)"/>
<path style="fill:none;stroke-width:0.10965;stroke-linecap:butt;stroke-linejoin:miter;stroke:rgb(100%,100%,100%);stroke-opacity:0.647059;stroke-dasharray:0.657899,0.657899;stroke-miterlimit:4;" d="M 8.937338 22.916553 C 8.779082 19.617526 12.029415 15.709823 15.791036 12.702961 C 22.802989 7.07879 25.94376 6.177949 25.408124 6.04404 " transform="matrix(0.320881,0,0,0.320881,0.854838,0.892616)"/>
<path style="fill:none;stroke-width:0.10965;stroke-linecap:butt;stroke-linejoin:miter;stroke:rgb(100%,100%,100%);stroke-opacity:0.647059;stroke-dasharray:0.657899,0.657899;stroke-miterlimit:4;" d="M 15.352788 26.020803 C 26.735039 24.900838 26.211577 10.852585 18.931806 7.736161 " transform="matrix(0.320881,0,0,0.320881,0.854838,0.892616)"/>
<path style="fill:none;stroke-width:0.10965;stroke-linecap:butt;stroke-linejoin:miter;stroke:rgb(100%,100%,100%);stroke-opacity:0.647059;stroke-dasharray:0.657899,0.657899;stroke-miterlimit:4;" d="M 10.105997 9.221331 C 13.928485 9.014381 25.11596 18.047141 22.46213 23.379147 " transform="matrix(0.320881,0,0,0.320881,0.854838,0.892616)"/>
<path style="fill:none;stroke-width:0.10965;stroke-linecap:butt;stroke-linejoin:miter;stroke:rgb(100%,100%,100%);stroke-opacity:0.619608;stroke-miterlimit:4;" d="M 8.998206 10.231734 C 7.732159 15.612435 19.455268 25.752986 22.46213 23.379147 " transform="matrix(0.320881,0,0,0.320881,0.854838,0.892616)"/>
<path style="fill:none;stroke-width:0.10965;stroke-linecap:butt;stroke-linejoin:miter;stroke:rgb(100%,100%,100%);stroke-opacity:0.647059;stroke-dasharray:0.657899,0.657899;stroke-miterlimit:4;" d="M 6.697408 18.047141 C 9.25385 25.083441 23.46036 26.471224 25.35943 16.93935 " transform="matrix(0.320881,0,0,0.320881,0.854838,0.892616)"/>
<use xlink:href="#surface6" mask="url(#mask0)"/>
<path style=" stroke:none;fill-rule:nonzero;fill:rgb(100%,100%,100%);fill-opacity:1;" d="M 3.855469 8.375 C 7.402344 7.605469 7.9375 5.0625 9.007812 2.832031 C 8.984375 4.964844 9.246094 7.554688 8.277344 8.203125 C 6.300781 9.871094 5.027344 9.28125 3.855469 8.375 Z M 3.855469 8.375 "/>
<path style=" stroke:none;fill-rule:nonzero;fill:rgb(100%,100%,100%);fill-opacity:1;" d="M 3.855469 8.375 C 7.652344 7.925781 8.011719 4.992188 9.007812 2.832031 C 7.269531 3.398438 5.328125 2.898438 4.375 3.753906 C 2.289062 5.332031 2.980469 7.605469 3.855469 8.375 Z M 3.855469 8.375 "/>
<path style=" stroke:none;fill-rule:nonzero;fill:rgb(60%,60%,60%);fill-opacity:1;" d="M 5.109375 6.917969 L 7.035156 6.917969 L 7.035156 8.433594 L 5.109375 8.433594 Z M 5.109375 6.917969 "/>
<path style=" stroke:none;fill-rule:nonzero;fill:rgb(30.196078%,30.196078%,30.196078%);fill-opacity:1;" d="M 5.066406 4.058594 L 7.074219 4.058594 C 7.3125 4.058594 7.507812 4.25 7.507812 4.488281 L 7.507812 6.792969 C 7.507812 7.03125 7.3125 7.226562 7.074219 7.226562 L 5.066406 7.226562 C 4.828125 7.226562 4.636719 7.03125 4.636719 6.792969 L 4.636719 4.488281 C 4.636719 4.25 4.828125 4.058594 5.066406 4.058594 Z M 5.066406 4.058594 "/>
<path style=" stroke:none;fill-rule:nonzero;fill:rgb(30.196078%,30.196078%,30.196078%);fill-opacity:1;" d="M 5.414062 7.867188 L 5.925781 7.867188 L 5.925781 8.160156 L 5.414062 8.160156 Z M 5.414062 7.867188 "/>
<path style=" stroke:none;fill-rule:nonzero;fill:rgb(30.196078%,30.196078%,30.196078%);fill-opacity:1;" d="M 6.21875 7.867188 L 6.730469 7.867188 L 6.730469 8.160156 L 6.21875 8.160156 Z M 6.21875 7.867188 "/>
</g>
</svg>
