<?xml version="1.0" encoding="UTF-8"?>
<svg xmlns="http://www.w3.org/2000/svg" xmlns:xlink="http://www.w3.org/1999/xlink" width="12pt" height="12pt" viewBox="0 0 12 12" version="1.1">
<defs>
<clipPath id="clip1">
  <rect width="12" height="12"/>
</clipPath>
<g id="surface6" clip-path="url(#clip1)">
<path style=" stroke:none;fill-rule:nonzero;fill:rgb(100%,100%,100%);fill-opacity:1;" d="M 1.5 6.136719 C 1.5 3.863281 2.675781 2.691406 3.363281 2.691406 C 4.050781 2.691406 4.164062 3.03125 4.164062 3.589844 C 4.164062 4.671875 2.890625 4.226562 2.890625 6.261719 C 2.890625 6.933594 3.183594 7.765625 3.953125 7.765625 C 4.566406 7.765625 4.792969 7.03125 5.105469 5.71875 C 5.625 3.742188 6.148438 2.25 7.921875 2.25 C 9.640625 2.25 10.5 3.695312 10.5 5.972656 C 10.5 8.246094 9.167969 9.691406 8.480469 9.691406 C 7.792969 9.691406 7.617188 9.417969 7.617188 8.859375 C 7.617188 7.777344 9.0625 7.933594 9.0625 5.898438 C 9.0625 5.226562 8.765625 4.234375 8 4.234375 C 7.382812 4.234375 7.164062 4.277344 6.785156 5.71875 C 6.582031 7.257812 6.09375 9.75 4.222656 9.75 C 2.5 9.75 1.5 8.410156 1.5 6.136719 Z M 1.5 6.136719 "/>
</g>
</defs>
<g id="surface1">
<path style=" stroke:none;fill-rule:evenodd;fill:rgb(90.588235%,29.803922%,23.529412%);fill-opacity:1;" d="M 2.800781 0.710938 L 9.199219 0.710938 C 10.351562 0.710938 11.289062 1.648438 11.289062 2.800781 L 11.289062 9.199219 C 11.289062 10.351562 10.351562 11.289062 9.199219 11.289062 L 2.800781 11.289062 C 1.648438 11.289062 0.710938 10.351562 0.710938 9.199219 L 0.710938 2.800781 C 0.710938 1.648438 1.648438 0.710938 2.800781 0.710938 Z M 2.800781 0.710938 "/>
<use xlink:href="#surface6"/>
</g>
</svg>
