<?xml version="1.0" encoding="UTF-8"?>
<svg xmlns="http://www.w3.org/2000/svg" xmlns:xlink="http://www.w3.org/1999/xlink" width="12pt" height="12pt" viewBox="0 0 12 12" version="1.1">
<g id="surface1">
<path style=" stroke:none;fill-rule:evenodd;fill:rgb(24.313725%,31.372549%,70.588235%);fill-opacity:1;" d="M 2.800781 0.710938 L 9.199219 0.710938 C 10.351562 0.710938 11.289062 1.648438 11.289062 2.800781 L 11.289062 9.199219 C 11.289062 10.351562 10.351562 11.289062 9.199219 11.289062 L 2.800781 11.289062 C 1.648438 11.289062 0.710938 10.351562 0.710938 9.199219 L 0.710938 2.800781 C 0.710938 1.648438 1.648438 0.710938 2.800781 0.710938 Z M 2.800781 0.710938 "/>
<path style=" stroke:none;fill-rule:nonzero;fill:rgb(100%,100%,100%);fill-opacity:1;" d="M 3.300781 2.40625 C 3.128906 2.402344 2.960938 2.460938 2.835938 2.566406 C 2.714844 2.671875 2.644531 2.820312 2.644531 2.972656 L 2.644531 9.027344 C 2.644531 9.230469 2.765625 9.414062 2.960938 9.515625 C 3.160156 9.617188 3.402344 9.617188 3.597656 9.515625 L 6.554688 8.003906 L 9.511719 6.488281 C 9.707031 6.386719 9.828125 6.199219 9.828125 6 C 9.828125 5.796875 9.707031 5.613281 9.511719 5.511719 L 6.554688 3.996094 L 3.597656 2.484375 C 3.507812 2.4375 3.402344 2.410156 3.300781 2.40625 Z M 3.300781 2.40625 "/>
<path style=" stroke:none;fill-rule:nonzero;fill:rgb(24.313725%,31.372549%,70.588235%);fill-opacity:1;" d="M 5.957031 4.460938 C 6.03125 4.457031 6.101562 4.484375 6.152344 4.527344 C 6.207031 4.574219 6.238281 4.636719 6.238281 4.703125 L 6.238281 7.296875 C 6.238281 7.382812 6.183594 7.464844 6.101562 7.507812 C 6.015625 7.550781 5.914062 7.550781 5.828125 7.507812 L 4.5625 6.859375 L 3.292969 6.207031 C 3.210938 6.164062 3.15625 6.085938 3.15625 6 C 3.15625 5.914062 3.210938 5.832031 3.292969 5.789062 L 4.5625 5.140625 L 5.828125 4.492188 C 5.867188 4.472656 5.910156 4.460938 5.957031 4.460938 Z M 5.957031 4.460938 "/>
</g>
</svg>
