<?xml version="1.0" encoding="UTF-8"?>
<svg xmlns="http://www.w3.org/2000/svg" xmlns:xlink="http://www.w3.org/1999/xlink" width="12pt" height="12pt" viewBox="0 0 12 12" version="1.1">
<defs>
<clipPath id="clip1">
  <rect width="12" height="12"/>
</clipPath>
<g id="surface6" clip-path="url(#clip1)">
<path style=" stroke:none;fill-rule:nonzero;fill:rgb(100%,100%,100%);fill-opacity:1;" d="M 6.007812 2.035156 C 6.796875 2.035156 7.597656 2.296875 8.222656 2.8125 C 8.660156 3.347656 7.824219 3.917969 7.445312 3.398438 C 6.3125 2.671875 4.710938 2.925781 3.859375 4.011719 C 3.402344 4.550781 3.148438 5.269531 3.148438 5.992188 L 3.898438 5.992188 C 3.5 6.628906 3.101562 7.261719 2.699219 7.898438 L 1.5 5.992188 L 2.25 5.992188 C 2.226562 4.269531 3.398438 2.628906 4.972656 2.183594 C 5.308594 2.085938 5.65625 2.03125 6.007812 2.035156 Z M 9.300781 4.097656 C 9.699219 4.730469 10.101562 5.367188 10.5 6 L 9.75 6 C 9.769531 7.746094 8.570312 9.402344 6.96875 9.828125 C 5.886719 10.144531 4.667969 9.914062 3.777344 9.183594 C 3.324219 8.636719 4.175781 8.070312 4.554688 8.597656 C 5.652344 9.304688 7.195312 9.078125 8.0625 8.070312 C 8.566406 7.523438 8.855469 6.765625 8.851562 6 L 8.101562 6 Z M 9.300781 4.097656 "/>
</g>
<clipPath id="clip2">
  <rect width="12" height="12"/>
</clipPath>
<g id="surface9" clip-path="url(#clip2)">
<path style=" stroke:none;fill-rule:nonzero;fill:rgb(100%,100%,100%);fill-opacity:1;" d="M 5.53125 4.117188 L 5.488281 4.613281 C 5.332031 4.671875 5.183594 4.757812 5.054688 4.863281 L 4.605469 4.652344 L 4.132812 5.464844 L 4.542969 5.75 C 4.527344 5.832031 4.519531 5.917969 4.519531 6 C 4.519531 6.085938 4.527344 6.167969 4.542969 6.25 L 4.132812 6.535156 L 4.605469 7.347656 L 5.054688 7.136719 C 5.183594 7.246094 5.332031 7.328125 5.488281 7.386719 L 5.527344 7.882812 L 6.46875 7.882812 L 6.511719 7.386719 C 6.667969 7.328125 6.816406 7.246094 6.945312 7.136719 L 7.394531 7.347656 L 7.867188 6.535156 L 7.457031 6.25 C 7.472656 6.167969 7.480469 6.082031 7.480469 6 C 7.480469 5.917969 7.472656 5.832031 7.457031 5.75 L 7.867188 5.464844 L 7.394531 4.652344 L 6.945312 4.863281 C 6.816406 4.753906 6.667969 4.671875 6.511719 4.613281 L 6.472656 4.117188 L 5.527344 4.117188 Z M 6 5.460938 C 6.296875 5.460938 6.539062 5.703125 6.539062 6 C 6.539062 6.296875 6.296875 6.539062 6 6.539062 C 5.703125 6.539062 5.460938 6.296875 5.460938 6 C 5.460938 5.703125 5.703125 5.460938 6 5.460938 Z M 6 5.460938 "/>
</g>
</defs>
<g id="surface1">
<path style=" stroke:none;fill-rule:evenodd;fill:rgb(36.470588%,70.588235%,24.313725%);fill-opacity:1;" d="M 2.800781 0.710938 L 9.199219 0.710938 C 10.351562 0.710938 11.289062 1.648438 11.289062 2.800781 L 11.289062 9.199219 C 11.289062 10.351562 10.351562 11.289062 9.199219 11.289062 L 2.800781 11.289062 C 1.648438 11.289062 0.710938 10.351562 0.710938 9.199219 L 0.710938 2.800781 C 0.710938 1.648438 1.648438 0.710938 2.800781 0.710938 Z M 2.800781 0.710938 "/>
<use xlink:href="#surface6"/>
<use xlink:href="#surface9"/>
</g>
</svg>
