<?xml version="1.0" encoding="UTF-8"?>
<svg xmlns="http://www.w3.org/2000/svg" xmlns:xlink="http://www.w3.org/1999/xlink" width="12pt" height="12pt" viewBox="0 0 12 12" version="1.1">
<g id="surface1">
<path style=" stroke:none;fill-rule:evenodd;fill:rgb(94.901961%,94.901961%,94.901961%);fill-opacity:1;" d="M 2.800781 0.710938 L 9.199219 0.710938 C 10.351562 0.710938 11.289062 1.648438 11.289062 2.800781 L 11.289062 9.199219 C 11.289062 10.351562 10.351562 11.289062 9.199219 11.289062 L 2.800781 11.289062 C 1.648438 11.289062 0.710938 10.351562 0.710938 9.199219 L 0.710938 2.800781 C 0.710938 1.648438 1.648438 0.710938 2.800781 0.710938 Z M 2.800781 0.710938 "/>
<path style=" stroke:none;fill-rule:nonzero;fill:rgb(50.196078%,37.254902%,83.921569%);fill-opacity:1;" d="M 6.582031 2.355469 C 6 2.355469 5.417969 2.355469 5.417969 2.9375 L 5.417969 6.5 C 5.273438 6.460938 5.128906 6.4375 4.980469 6.4375 C 4.09375 6.4375 3.375 7.15625 3.375 8.042969 C 3.375 8.929688 4.09375 9.644531 4.980469 9.644531 C 5.84375 9.644531 6.550781 8.960938 6.582031 8.097656 C 6.589844 7 6.582031 5.886719 6.582031 4.785156 C 6.582031 3.230469 8.332031 5.269531 8.625 5.5625 C 8.625 4.785156 8.625 2.355469 6.582031 2.355469 Z M 6.582031 2.355469 "/>
</g>
</svg>
