<?xml version="1.0" encoding="UTF-8"?>
<svg xmlns="http://www.w3.org/2000/svg" xmlns:xlink="http://www.w3.org/1999/xlink" width="12pt" height="12pt" viewBox="0 0 12 12" version="1.1">
<g id="surface1">
<path style=" stroke:none;fill-rule:evenodd;fill:rgb(70.196078%,70.196078%,70.196078%);fill-opacity:1;" d="M 11.289062 4.425781 L 0.710938 4.425781 L 0.710938 9.195312 C 0.710938 10.355469 1.644531 11.289062 2.800781 11.289062 L 9.199219 11.289062 C 10.355469 11.289062 11.289062 10.355469 11.289062 9.195312 Z M 11.289062 4.425781 "/>
<path style=" stroke:none;fill-rule:evenodd;fill:rgb(29.411765%,53.333333%,90.980392%);fill-opacity:1;" d="M 2.804688 0.710938 C 1.898438 0.710938 1.144531 1.289062 0.855469 2.09375 C 0.773438 2.316406 0.710938 2.550781 0.710938 2.800781 L 0.710938 4.679688 L 11.289062 4.679688 L 11.289062 2.800781 C 11.289062 2.550781 11.226562 2.316406 11.144531 2.09375 C 10.855469 1.289062 10.101562 0.710938 9.195312 0.710938 Z M 2.804688 0.710938 "/>
<path style=" stroke:none;fill-rule:nonzero;fill:rgb(100%,100%,100%);fill-opacity:1;" d="M 4.5 7.019531 L 7.5 7.019531 C 7.707031 7.019531 7.875 7.1875 7.875 7.394531 L 7.875 7.769531 C 7.875 7.976562 7.707031 8.144531 7.5 8.144531 L 4.5 8.144531 C 4.292969 8.144531 4.125 7.976562 4.125 7.769531 L 4.125 7.394531 C 4.125 7.1875 4.292969 7.019531 4.5 7.019531 Z M 4.5 7.019531 "/>
</g>
</svg>
