<?xml version="1.0" encoding="UTF-8"?>
<svg xmlns="http://www.w3.org/2000/svg" xmlns:xlink="http://www.w3.org/1999/xlink" width="12pt" height="12pt" viewBox="0 0 12 12" version="1.1">
<g id="surface1">
<path style=" stroke:none;fill-rule:evenodd;fill:rgb(30.588235%,56.862745%,85.098039%);fill-opacity:1;" d="M 2.800781 0.710938 L 9.199219 0.710938 C 10.351562 0.710938 11.289062 1.648438 11.289062 2.800781 L 11.289062 9.199219 C 11.289062 10.351562 10.351562 11.289062 9.199219 11.289062 L 2.800781 11.289062 C 1.648438 11.289062 0.710938 10.351562 0.710938 9.199219 L 0.710938 2.800781 C 0.710938 1.648438 1.648438 0.710938 2.800781 0.710938 Z M 2.800781 0.710938 "/>
<path style=" stroke:none;fill-rule:nonzero;fill:rgb(65.882353%,81.176471%,100%);fill-opacity:1;" d="M 5.8125 2.625 L 4.5 6.9375 L 3.75 4.5 L 2.25 4.5 L 2.25 5.25 L 3.375 5.25 L 4.5 9.375 L 5.8125 4.875 L 6.5625 7.125 L 7.5 4.5 L 8.25 7.125 L 9.75 7.125 L 9.75 6.375 L 8.8125 6.375 C 8.402344 5.113281 7.5 2.8125 7.5 2.8125 L 6.5625 5.25 Z M 5.8125 2.625 "/>
</g>
</svg>
