<?xml version="1.0" encoding="UTF-8"?>
<svg xmlns="http://www.w3.org/2000/svg" xmlns:xlink="http://www.w3.org/1999/xlink" width="12pt" height="12pt" viewBox="0 0 12 12" version="1.1">
<defs>
<filter id="alpha" filterUnits="objectBoundingBox" x="0%" y="0%" width="100%" height="100%">
  <feColorMatrix type="matrix" in="SourceGraphic" values="0 0 0 0 1 0 0 0 0 1 0 0 0 0 1 0 0 0 1 0"/>
</filter>
<mask id="mask0">
  <g filter="url(#alpha)">
<rect x="0" y="0" width="12" height="12" style="fill:rgb(0%,0%,0%);fill-opacity:0.2;stroke:none;"/>
  </g>
</mask>
<clipPath id="clip1">
  <rect width="12" height="12"/>
</clipPath>
<g id="surface6" clip-path="url(#clip1)">
<path style=" stroke:none;fill-rule:nonzero;fill:rgb(100%,100%,100%);fill-opacity:1;" d="M 5.972656 2.628906 C 5.617188 2.628906 5.378906 2.738281 5.378906 2.882812 C 5.378906 2.921875 5.40625 2.964844 5.445312 3.003906 C 5.539062 2.921875 5.726562 2.871094 5.972656 2.871094 C 6.222656 2.871094 6.449219 2.9375 6.566406 3.027344 C 6.617188 2.984375 6.652344 2.945312 6.652344 2.914062 C 6.652344 2.769531 6.332031 2.628906 5.972656 2.628906 Z M 5.972656 2.628906 "/>
</g>
</defs>
<g id="surface1">
<path style=" stroke:none;fill-rule:evenodd;fill:rgb(100%,100%,100%);fill-opacity:1;" d="M 2.800781 0.710938 L 9.199219 0.710938 C 10.351562 0.710938 11.289062 1.648438 11.289062 2.800781 L 11.289062 9.199219 C 11.289062 10.351562 10.351562 11.289062 9.199219 11.289062 L 2.800781 11.289062 C 1.648438 11.289062 0.710938 10.351562 0.710938 9.199219 L 0.710938 2.800781 C 0.710938 1.648438 1.648438 0.710938 2.800781 0.710938 Z M 2.800781 0.710938 "/>
<path style=" stroke:none;fill-rule:evenodd;fill:rgb(100%,53.333333%,0%);fill-opacity:1;" d="M 3.808594 6.71875 C 3.675781 6.71875 3.550781 6.800781 3.5 6.929688 L 2.65625 8.902344 C 2.5625 9.125 2.726562 9.371094 2.96875 9.371094 L 9.03125 9.371094 C 9.273438 9.371094 9.4375 9.125 9.34375 8.902344 L 8.5 6.929688 C 8.449219 6.800781 8.324219 6.71875 8.191406 6.71875 Z M 3.808594 6.71875 "/>
<path style=" stroke:none;fill-rule:evenodd;fill:rgb(100%,53.333333%,0%);fill-opacity:1;" d="M 6 2.628906 C 5.847656 2.628906 5.691406 2.652344 5.539062 2.714844 C 5.441406 2.753906 5.367188 2.832031 5.339844 2.933594 L 5.03125 3.980469 C 5.519531 5.035156 6.503906 4.324219 6.96875 3.980469 L 6.660156 2.933594 C 6.628906 2.828125 6.550781 2.746094 6.445312 2.710938 C 6.304688 2.660156 6.152344 2.632812 6 2.628906 Z M 4.632812 5.328125 L 4.257812 6.589844 C 4.378906 7.664062 6.261719 7.441406 7.730469 6.546875 L 7.367188 5.328125 C 6.441406 5.695312 6.066406 4.621094 4.632812 5.328125 Z M 4.632812 5.328125 "/>
<path style=" stroke:none;fill-rule:evenodd;fill:rgb(100%,100%,100%);fill-opacity:1;" d="M 5.03125 3.980469 L 4.257812 6.589844 L 4.632812 5.328125 C 5.664062 5.792969 6.441406 5.695312 7.367188 5.328125 L 7.730469 6.546875 C 6.261719 7.4375 4.621094 6.804688 4.257812 6.589844 L 3.992188 7.488281 C 3.953125 7.625 4.003906 7.773438 4.121094 7.859375 C 4.640625 8.21875 5.316406 8.367188 5.988281 8.359375 C 6.660156 8.351562 7.332031 8.195312 7.859375 7.867188 C 7.992188 7.789062 8.050781 7.632812 8.007812 7.488281 L 6.96875 3.980469 C 6.503906 4.316406 5.496094 4.316406 5.03125 3.980469 Z M 5.03125 3.980469 "/>
<use xlink:href="#surface6" mask="url(#mask0)"/>
</g>
</svg>
