<?xml version="1.0" encoding="UTF-8"?>
<svg xmlns="http://www.w3.org/2000/svg" xmlns:xlink="http://www.w3.org/1999/xlink" width="12pt" height="12pt" viewBox="0 0 12 12" version="1.1">
<g id="surface1">
<path style=" stroke:none;fill-rule:evenodd;fill:rgb(55.686275%,55.686275%,55.686275%);fill-opacity:1;" d="M 2.800781 0.710938 L 9.199219 0.710938 C 10.351562 0.710938 11.289062 1.648438 11.289062 2.800781 L 11.289062 9.199219 C 11.289062 10.351562 10.351562 11.289062 9.199219 11.289062 L 2.800781 11.289062 C 1.648438 11.289062 0.710938 10.351562 0.710938 9.199219 L 0.710938 2.800781 C 0.710938 1.648438 1.648438 0.710938 2.800781 0.710938 Z M 2.800781 0.710938 "/>
<path style=" stroke:none;fill-rule:nonzero;fill:rgb(30.980392%,30.980392%,30.980392%);fill-opacity:1;" d="M 6.015625 2.996094 C 4.429688 2.996094 3.003906 3.558594 1.820312 4.433594 L 6.015625 9.003906 L 10.179688 4.417969 C 9 3.554688 7.589844 2.996094 6.015625 2.996094 Z M 6.015625 2.996094 "/>
<path style=" stroke:none;fill-rule:nonzero;fill:rgb(47.45098%,47.45098%,47.45098%);fill-opacity:1;" d="M 6 4.195312 C 4.738281 4.195312 3.566406 4.609375 2.625 5.308594 L 6.019531 9.003906 L 9.375 5.308594 C 8.433594 4.609375 7.261719 4.195312 6 4.195312 Z M 6 4.195312 "/>
<path style=" stroke:none;fill-rule:nonzero;fill:rgb(80%,80%,80%);fill-opacity:1;" d="M 6 5.398438 C 5.054688 5.398438 4.175781 5.707031 3.46875 6.234375 L 6.011719 9.003906 L 8.53125 6.234375 C 7.824219 5.707031 6.945312 5.398438 6 5.398438 Z M 6 5.398438 "/>
<path style=" stroke:none;fill-rule:nonzero;fill:rgb(33.333333%,39.607843%,80%);fill-opacity:1;" d="M 10.398438 7.96875 C 10.398438 9.285156 9.332031 10.355469 8.015625 10.355469 C 6.699219 10.355469 5.628906 9.285156 5.628906 7.96875 C 5.628906 6.652344 6.699219 5.585938 8.015625 5.585938 C 9.332031 5.585938 10.398438 6.652344 10.398438 7.96875 Z M 10.398438 7.96875 "/>
<path style=" stroke:none;fill-rule:nonzero;fill:rgb(100%,100%,100%);fill-opacity:1;" d="M 7.417969 6.777344 C 6.761719 6.777344 6.226562 7.3125 6.226562 7.96875 C 6.226562 8.628906 6.761719 9.164062 7.417969 9.164062 C 8.078125 9.164062 8.609375 8.628906 8.609375 7.96875 C 8.609375 7.3125 8.078125 6.777344 7.417969 6.777344 Z M 7.417969 7.375 C 7.75 7.375 8.015625 7.640625 8.015625 7.96875 C 8.015625 8.300781 7.75 8.566406 7.417969 8.566406 C 7.089844 8.566406 6.824219 8.300781 6.824219 7.96875 C 6.824219 7.640625 7.089844 7.375 7.417969 7.375 Z M 7.417969 7.375 "/>
<path style=" stroke:none;fill-rule:nonzero;fill:rgb(100%,100%,100%);fill-opacity:1;" d="M 8.3125 7.671875 L 10.101562 7.671875 L 10.101562 8.269531 L 8.3125 8.269531 Z M 8.3125 7.671875 "/>
<path style=" stroke:none;fill-rule:nonzero;fill:rgb(100%,100%,100%);fill-opacity:1;" d="M 9.804688 8.269531 L 9.804688 8.863281 L 9.503906 8.863281 L 9.503906 8.269531 Z M 9.804688 8.269531 "/>
</g>
</svg>
