<?xml version="1.0" encoding="UTF-8"?>
<svg xmlns="http://www.w3.org/2000/svg" xmlns:xlink="http://www.w3.org/1999/xlink" width="12pt" height="12pt" viewBox="0 0 12 12" version="1.1">
<defs>
<clipPath id="clip1">
  <rect width="12" height="12"/>
</clipPath>
<g id="surface6" clip-path="url(#clip1)">
<path style=" stroke:none;fill-rule:nonzero;fill:rgb(34.509804%,51.372549%,90.980392%);fill-opacity:1;" d="M 6.464844 0.710938 L 6.464844 5.960938 L 7.214844 5.210938 L 7.964844 5.960938 L 7.964844 0.710938 Z M 6.464844 0.710938 "/>
</g>
</defs>
<g id="surface1">
<path style=" stroke:none;fill-rule:evenodd;fill:rgb(100%,78.823529%,20%);fill-opacity:1;" d="M 4.066406 11.289062 L 9.199219 11.289062 C 10.355469 11.289062 11.289062 10.355469 11.289062 9.199219 L 11.289062 2.804688 C 11.289062 1.644531 10.355469 0.710938 9.199219 0.710938 L 4.066406 0.710938 Z M 4.066406 11.289062 "/>
<path style=" stroke:none;fill-rule:evenodd;fill:rgb(80%,63.137255%,16.078431%);fill-opacity:1;" d="M 4.066406 11.289062 L 4.066406 0.710938 L 2.800781 0.710938 C 1.644531 0.710938 0.710938 1.644531 0.710938 2.804688 L 0.710938 9.199219 C 0.710938 10.355469 1.644531 11.289062 2.800781 11.289062 Z M 4.066406 11.289062 "/>
<use xlink:href="#surface6"/>
</g>
</svg>
