<?xml version="1.0" encoding="UTF-8"?>
<svg xmlns="http://www.w3.org/2000/svg" xmlns:xlink="http://www.w3.org/1999/xlink" width="17pt" height="17pt" viewBox="0 0 17 17" version="1.1">
<g id="surface1">
<path style=" stroke:none;fill-rule:evenodd;fill:rgb(0%,58.431373%,52.941176%);fill-opacity:1;" d="M 4.882812 16.183594 L 13.183594 16.183594 C 14.847656 16.183594 16.183594 14.847656 16.183594 13.1875 L 16.183594 4.019531 C 16.183594 2.359375 14.847656 1.023438 13.183594 1.023438 L 4.882812 1.023438 Z M 4.882812 16.183594 "/>
<path style=" stroke:none;fill-rule:evenodd;fill:rgb(0%,46.666667%,42.352941%);fill-opacity:1;" d="M 4.882812 16.183594 L 4.882812 1.023438 L 4.015625 1.023438 C 2.355469 1.023438 1.019531 2.359375 1.019531 4.019531 L 1.019531 13.1875 C 1.019531 14.847656 2.355469 16.183594 4.015625 16.183594 Z M 4.882812 16.183594 "/>
<path style=" stroke:none;fill-rule:nonzero;fill:rgb(84.705882%,84.705882%,84.705882%);fill-opacity:1;" d="M 10.679688 1.019531 L 10.679688 8.546875 L 11.753906 7.46875 L 12.832031 8.546875 L 12.832031 1.019531 Z M 10.679688 1.019531 "/>
</g>
</svg>
