<?xml version="1.0" encoding="UTF-8"?>
<svg xmlns="http://www.w3.org/2000/svg" xmlns:xlink="http://www.w3.org/1999/xlink" width="17pt" height="17pt" viewBox="0 0 17 17" version="1.1">
<g id="surface1">
<path style=" stroke:none;fill-rule:evenodd;fill:rgb(92.54902%,92.54902%,92.54902%);fill-opacity:1;" d="M 1.019531 4.777344 L 1.019531 13.1875 C 1.019531 14.847656 2.355469 16.183594 4.015625 16.183594 L 13.1875 16.183594 C 14.847656 16.183594 16.183594 14.847656 16.183594 13.1875 L 16.183594 4.777344 Z M 1.019531 4.777344 "/>
<path style=" stroke:none;fill-rule:evenodd;fill:rgb(75.686275%,29.803922%,27.843137%);fill-opacity:1;" d="M 1.019531 4.777344 L 16.183594 4.777344 L 16.183594 4.015625 C 16.183594 2.355469 14.847656 1.019531 13.1875 1.019531 L 4.015625 1.019531 C 2.355469 1.019531 1.019531 2.355469 1.019531 4.015625 Z M 1.019531 4.777344 "/>
<path style=" stroke:none;fill-rule:nonzero;fill:rgb(50.196078%,50.196078%,50.196078%);fill-opacity:1;" d="M 7.050781 12.882812 L 7.050781 14.296875 L 8.460938 14.296875 L 12.035156 10.722656 L 10.621094 9.3125 Z M 13.285156 9.480469 C 13.433594 9.328125 13.433594 9.09375 13.285156 8.945312 L 12.398438 8.058594 C 12.253906 7.910156 12.015625 7.910156 11.867188 8.058594 L 11.128906 8.804688 L 12.542969 10.21875 Z M 13.285156 9.480469 "/>
<path style=" stroke:none;fill-rule:nonzero;fill:rgb(50.196078%,50.196078%,50.196078%);fill-opacity:1;" d="M 4.429688 14.296875 L 4.429688 13.65625 L 6.328125 13.65625 L 6.328125 14.296875 Z M 4.429688 12.382812 L 4.429688 11.746094 L 6.347656 11.746094 L 6.347656 12.382812 Z M 4.429688 10.476562 L 4.429688 9.835938 L 8.132812 9.835938 L 8.132812 10.476562 Z M 4.429688 8.5625 L 4.429688 7.925781 L 10.652344 7.925781 L 10.652344 8.5625 C -1.488281 8.5625 6.703125 8.5625 4.429688 8.5625 Z M 4.429688 8.5625 "/>
</g>
</svg>
