<?xml version="1.0" encoding="UTF-8"?>
<svg xmlns="http://www.w3.org/2000/svg" xmlns:xlink="http://www.w3.org/1999/xlink" width="17pt" height="17pt" viewBox="0 0 17 17" version="1.1">
<g id="surface1">
<path style=" stroke:none;fill-rule:evenodd;fill:rgb(76.078431%,20.784314%,16.470588%);fill-opacity:1;" d="M 4.015625 1.019531 L 13.1875 1.019531 C 14.839844 1.019531 16.183594 2.363281 16.183594 4.015625 L 16.183594 13.1875 C 16.183594 14.839844 14.839844 16.183594 13.1875 16.183594 L 4.015625 16.183594 C 2.363281 16.183594 1.019531 14.839844 1.019531 13.1875 L 1.019531 4.015625 C 1.019531 2.363281 2.363281 1.019531 4.015625 1.019531 Z M 4.015625 1.019531 "/>
<path style=" stroke:none;fill-rule:nonzero;fill:rgb(40.392157%,54.509804%,100%);fill-opacity:1;" d="M 4.21875 7.589844 L 12.984375 7.589844 C 13.355469 7.589844 13.65625 7.894531 13.65625 8.265625 L 13.65625 8.9375 C 13.65625 9.308594 13.355469 9.613281 12.984375 9.613281 L 4.21875 9.613281 C 3.847656 9.613281 3.546875 9.308594 3.546875 8.9375 L 3.546875 8.265625 C 3.546875 7.894531 3.847656 7.589844 4.21875 7.589844 Z M 4.21875 7.589844 "/>
<path style=" stroke:none;fill-rule:nonzero;fill:rgb(100%,100%,100%);fill-opacity:1;" d="M 7.253906 12.308594 L 7.253906 4.894531 C 7.253906 4.335938 6.796875 3.882812 6.242188 3.882812 L 5.90625 3.882812 C 5.34375 3.882812 4.894531 4.335938 4.894531 4.894531 L 4.894531 12.308594 C 4.894531 12.867188 5.34375 13.320312 5.90625 13.320312 L 6.242188 13.320312 C 6.796875 13.320312 7.253906 12.867188 7.253906 12.308594 Z M 7.253906 12.308594 "/>
<path style=" stroke:none;fill-rule:nonzero;fill:rgb(100%,100%,100%);fill-opacity:1;" d="M 12.308594 12.308594 L 12.308594 4.894531 C 12.308594 4.335938 11.859375 3.882812 11.296875 3.882812 L 10.960938 3.882812 C 10.402344 3.882812 9.949219 4.335938 9.949219 4.894531 L 9.949219 12.308594 C 9.949219 12.867188 10.402344 13.320312 10.960938 13.320312 L 11.296875 13.320312 C 11.859375 13.320312 12.308594 12.867188 12.308594 12.308594 Z M 12.308594 12.308594 "/>
<path style=" stroke:none;fill-rule:nonzero;fill:rgb(100%,100%,100%);fill-opacity:1;" d="M 4.894531 11.46875 L 4.894531 5.734375 C 4.894531 5.453125 4.667969 5.230469 4.386719 5.230469 C 4.105469 5.230469 3.882812 5.453125 3.882812 5.734375 L 3.882812 11.46875 C 3.882812 11.746094 4.105469 11.972656 4.386719 11.972656 C 4.667969 11.972656 4.894531 11.746094 4.894531 11.46875 Z M 4.894531 11.46875 "/>
<path style=" stroke:none;fill-rule:nonzero;fill:rgb(100%,100%,100%);fill-opacity:1;" d="M 13.320312 11.46875 L 13.320312 5.734375 C 13.320312 5.453125 13.09375 5.230469 12.816406 5.230469 C 12.535156 5.230469 12.308594 5.453125 12.308594 5.734375 L 12.308594 11.46875 C 12.308594 11.746094 12.535156 11.972656 12.816406 11.972656 C 13.09375 11.972656 13.320312 11.746094 13.320312 11.46875 Z M 13.320312 11.46875 "/>
</g>
</svg>
