<?xml version="1.0" encoding="UTF-8"?>
<svg xmlns="http://www.w3.org/2000/svg" xmlns:xlink="http://www.w3.org/1999/xlink" width="17pt" height="17pt" viewBox="0 0 17 17" version="1.1">
<g id="surface1">
<path style=" stroke:none;fill-rule:evenodd;fill:rgb(37.647059%,54.117647%,70.980392%);fill-opacity:1;" d="M 4.015625 1.019531 L 13.1875 1.019531 C 14.839844 1.019531 16.183594 2.363281 16.183594 4.015625 L 16.183594 13.1875 C 16.183594 14.839844 14.839844 16.183594 13.1875 16.183594 L 4.015625 16.183594 C 2.363281 16.183594 1.019531 14.839844 1.019531 13.1875 L 1.019531 4.015625 C 1.019531 2.363281 2.363281 1.019531 4.015625 1.019531 Z M 4.015625 1.019531 "/>
<path style=" stroke:none;fill-rule:nonzero;fill:rgb(80.392157%,87.45098%,94.117647%);fill-opacity:1;" d="M 14.230469 9.378906 C 14.230469 12.40625 11.773438 14.863281 8.746094 14.863281 C 5.71875 14.863281 3.265625 12.40625 3.265625 9.378906 C 3.265625 6.351562 5.71875 3.898438 8.746094 3.898438 C 11.773438 3.898438 14.230469 6.351562 14.230469 9.378906 Z M 14.230469 9.378906 "/>
<path style=" stroke:none;fill-rule:nonzero;fill:rgb(52.156863%,70.588235%,87.45098%);fill-opacity:1;" d="M 12.136719 14.359375 C 9.203125 16.050781 5.453125 15.046875 3.761719 12.117188 C 2.070312 9.191406 3.074219 5.441406 6.007812 3.75 C 9.457031 3.734375 11.652344 11.195312 12.136719 14.359375 Z M 12.136719 14.359375 "/>
<path style=" stroke:none;fill-rule:nonzero;fill:rgb(37.647059%,54.117647%,70.980392%);fill-opacity:1;" d="M 14.875 9.273438 C 14.875 12.65625 12.132812 15.398438 8.746094 15.398438 C 5.363281 15.398438 2.621094 12.65625 2.621094 9.273438 C 4.332031 6.273438 11.890625 8.101562 14.875 9.273438 Z M 14.875 9.273438 "/>
</g>
</svg>
