<?xml version="1.0" encoding="UTF-8"?>
<svg xmlns="http://www.w3.org/2000/svg" xmlns:xlink="http://www.w3.org/1999/xlink" width="17pt" height="17pt" viewBox="0 0 17 17" version="1.1">
<g id="surface1">
<path style=" stroke:none;fill-rule:evenodd;fill:rgb(16.470588%,63.529412%,93.333333%);fill-opacity:1;" d="M 4.015625 1.019531 L 13.1875 1.019531 C 14.839844 1.019531 16.183594 2.363281 16.183594 4.015625 L 16.183594 13.1875 C 16.183594 14.839844 14.839844 16.183594 13.1875 16.183594 L 4.015625 16.183594 C 2.363281 16.183594 1.019531 14.839844 1.019531 13.1875 L 1.019531 4.015625 C 1.019531 2.363281 2.363281 1.019531 4.015625 1.019531 Z M 4.015625 1.019531 "/>
<path style=" stroke:none;fill-rule:nonzero;fill:rgb(100%,100%,100%);fill-opacity:1;" d="M 7.617188 13.835938 C 6.441406 13.714844 5.625 13.378906 5.019531 12.769531 C 4.773438 12.523438 4.609375 12.296875 4.472656 12.019531 C 4.183594 11.433594 4.089844 10.777344 4.234375 10.292969 C 4.375 9.8125 4.695312 9.28125 5.152344 8.777344 C 5.402344 8.503906 5.535156 8.320312 5.648438 8.09375 C 5.789062 7.824219 5.804688 7.636719 5.792969 7.382812 C 5.78125 7.140625 5.726562 7.03125 5.59375 6.921875 C 5.464844 6.816406 5.414062 6.753906 5.015625 6.773438 C 4.632812 6.789062 4.441406 6.765625 4.257812 6.679688 C 4.113281 6.609375 4.0625 6.535156 4.105469 6.445312 C 4.335938 6.269531 4.417969 6.070312 4.671875 5.980469 C 4.300781 5.664062 3.933594 5.335938 3.921875 4.863281 C 3.949219 4.609375 4.183594 4.671875 4.183594 4.671875 C 4.550781 4.742188 4.929688 4.820312 5.273438 4.832031 C 5.371094 4.820312 5.476562 4.789062 5.507812 4.769531 C 5.535156 4.753906 5.613281 4.640625 5.679688 4.523438 C 5.941406 4.0625 6.214844 3.765625 6.523438 3.613281 C 6.878906 3.4375 7.382812 3.34375 7.863281 3.363281 C 8.433594 3.386719 8.925781 3.585938 9.320312 3.957031 C 9.597656 4.214844 9.773438 4.277344 10.035156 4.210938 C 10.222656 4.164062 10.226562 4.164062 10.226562 4.222656 C 10.226562 4.296875 10.167969 4.394531 10.070312 4.46875 L 9.988281 4.539062 L 10.070312 4.589844 C 10.191406 4.660156 10.179688 4.714844 10.035156 4.734375 C 9.917969 4.753906 9.832031 4.789062 9.832031 4.828125 C 9.832031 4.839844 9.847656 4.945312 9.871094 5.0625 C 9.917969 5.355469 9.902344 5.921875 9.832031 6.199219 C 9.726562 6.628906 9.566406 6.933594 9.289062 7.222656 C 9.074219 7.417969 8.472656 7.820312 8.414062 7.855469 C 8.4375 7.855469 8.671875 7.839844 8.828125 7.855469 C 9.394531 7.902344 9.789062 8 10.359375 8.265625 C 10.898438 8.515625 11.128906 8.542969 11.425781 8.390625 C 11.617188 8.292969 11.890625 8.085938 12.089844 7.8125 C 12.265625 7.578125 12.367188 7.480469 12.53125 7.480469 C 12.6875 7.480469 12.804688 7.582031 12.921875 7.765625 C 13.089844 8.023438 13.1875 8.210938 13.25 8.660156 C 13.296875 8.984375 13.285156 9.738281 13.226562 10.0625 C 12.878906 11.984375 11.652344 13.277344 9.777344 13.695312 C 9.273438 13.8125 9.070312 13.832031 8.371094 13.839844 C 8.007812 13.84375 7.667969 13.84375 7.617188 13.839844 Z M 7.617188 13.835938 "/>
</g>
</svg>
