<?xml version="1.0" encoding="UTF-8"?>
<svg xmlns="http://www.w3.org/2000/svg" xmlns:xlink="http://www.w3.org/1999/xlink" width="17pt" height="17pt" viewBox="0 0 17 17" version="1.1">
<g id="surface1">
<path style=" stroke:none;fill-rule:evenodd;fill:rgb(64.313725%,77.647059%,22.352941%);fill-opacity:1;" d="M 4.015625 1.019531 L 13.1875 1.019531 C 14.839844 1.019531 16.183594 2.363281 16.183594 4.015625 L 16.183594 13.1875 C 16.183594 14.839844 14.839844 16.183594 13.1875 16.183594 L 4.015625 16.183594 C 2.363281 16.183594 1.019531 14.839844 1.019531 13.1875 L 1.019531 4.015625 C 1.019531 2.363281 2.363281 1.019531 4.015625 1.019531 Z M 4.015625 1.019531 "/>
<path style=" stroke:none;fill-rule:nonzero;fill:rgb(100%,100%,100%);fill-opacity:1;" d="M 5.128906 7.285156 C 4.824219 7.285156 4.570312 7.570312 4.570312 7.921875 L 4.570312 10.40625 C 4.570312 10.757812 4.824219 11.046875 5.128906 11.046875 C 5.4375 11.046875 5.644531 10.757812 5.644531 10.40625 L 5.644531 7.917969 C 5.644531 7.566406 5.4375 7.28125 5.128906 7.28125 "/>
<path style=" stroke:none;fill-rule:nonzero;fill:rgb(100%,100%,100%);fill-opacity:1;" d="M 6.183594 7.285156 L 6.183594 11.855469 C 6.183594 11.980469 6.324219 12.125 6.449219 12.125 L 7.257812 12.125 L 7.257812 13.132812 C 7.257812 13.464844 7.46875 13.734375 7.792969 13.734375 C 8.117188 13.734375 8.34375 13.464844 8.332031 13.132812 L 8.332031 12.125 L 8.871094 12.125 L 8.871094 13.132812 C 8.871094 13.464844 9.082031 13.734375 9.40625 13.734375 C 9.730469 13.734375 9.945312 13.460938 9.945312 13.132812 L 9.945312 12.125 L 10.75 12.125 C 10.878906 12.125 11.019531 11.980469 11.019531 11.855469 L 11.019531 7.285156 Z M 6.183594 7.285156 "/>
<path style=" stroke:none;fill-rule:nonzero;fill:rgb(100%,100%,100%);fill-opacity:1;" d="M 12.117188 7.285156 C 11.8125 7.285156 11.558594 7.570312 11.558594 7.921875 L 11.558594 10.40625 C 11.558594 10.757812 11.8125 11.046875 12.117188 11.046875 C 12.425781 11.046875 12.632812 10.757812 12.632812 10.40625 L 12.632812 7.921875 C 12.632812 7.570312 12.425781 7.28125 12.117188 7.28125 "/>
<path style=" stroke:none;fill-rule:nonzero;fill:rgb(100%,100%,100%);fill-opacity:1;" d="M 7.1875 3.464844 L 6.71875 3.734375 L 7.363281 4.851562 C 6.1875 5.417969 6.183594 6.746094 6.183594 6.746094 L 11.019531 6.746094 C 11.019531 6.746094 11.015625 5.417969 9.839844 4.851562 L 10.484375 3.734375 L 10.015625 3.464844 L 9.320312 4.671875 C 9.105469 4.625 8.875 4.597656 8.601562 4.597656 C 8.332031 4.597656 8.09375 4.625 7.882812 4.671875 Z M 7.527344 5.671875 C 7.675781 5.671875 7.792969 5.789062 7.792969 5.9375 C 7.792969 6.085938 7.675781 6.210938 7.527344 6.210938 C 7.378906 6.210938 7.257812 6.085938 7.257812 5.9375 C 7.257812 5.789062 7.378906 5.671875 7.527344 5.671875 Z M 9.675781 5.671875 C 9.828125 5.671875 9.945312 5.789062 9.945312 5.9375 C 9.945312 6.085938 9.828125 6.210938 9.675781 6.210938 C 9.53125 6.210938 9.40625 6.085938 9.40625 5.9375 C 9.40625 5.789062 9.53125 5.671875 9.675781 5.671875 Z M 9.675781 5.671875 "/>
<path style=" stroke:none;fill-rule:nonzero;fill:rgb(80%,36.862745%,33.333333%);fill-opacity:1;" d="M 12.175781 14.640625 C 10.6875 14.640625 9.488281 13.4375 9.488281 11.953125 C 9.488281 10.472656 10.6875 9.265625 12.175781 9.265625 C 13.65625 9.265625 14.863281 10.472656 14.863281 11.953125 C 14.863281 13.4375 13.65625 14.640625 12.175781 14.640625 Z M 12.175781 14.640625 "/>
<path style=" stroke:none;fill-rule:nonzero;fill:rgb(100%,100%,100%);fill-opacity:1;" d="M 11.839844 12.625 L 12.847656 13.96875 L 13.855469 12.625 C 13.855469 12.628906 13.664062 12.625 13.519531 12.625 L 13.519531 11.953125 L 12.175781 11.953125 L 12.175781 12.625 Z M 11.839844 12.625 "/>
<path style=" stroke:none;fill-rule:nonzero;fill:rgb(100%,100%,100%);fill-opacity:1;" d="M 10.496094 11.28125 L 11.503906 9.9375 L 12.511719 11.28125 C 12.511719 11.28125 12.320312 11.28125 12.175781 11.28125 L 12.175781 11.953125 L 10.832031 11.953125 L 10.832031 11.28125 Z M 10.496094 11.28125 "/>
</g>
</svg>
