<?xml version="1.0" encoding="UTF-8"?>
<svg xmlns="http://www.w3.org/2000/svg" xmlns:xlink="http://www.w3.org/1999/xlink" width="17pt" height="17pt" viewBox="0 0 17 17" version="1.1">
<g id="surface1">
<path style=" stroke:none;fill-rule:evenodd;fill:rgb(42.745098%,89.803922%,53.333333%);fill-opacity:1;" d="M 4.015625 1.019531 L 13.1875 1.019531 C 14.839844 1.019531 16.183594 2.363281 16.183594 4.015625 L 16.183594 13.1875 C 16.183594 14.839844 14.839844 16.183594 13.1875 16.183594 L 4.015625 16.183594 C 2.363281 16.183594 1.019531 14.839844 1.019531 13.1875 L 1.019531 4.015625 C 1.019531 2.363281 2.363281 1.019531 4.015625 1.019531 Z M 4.015625 1.019531 "/>
<path style=" stroke:none;fill-rule:nonzero;fill:rgb(0%,58.823529%,53.333333%);fill-opacity:1;" d="M 3.554688 3.972656 L 3.554688 12.703125 C 3.554688 13.5 4.347656 13.5 4.347656 13.5 L 14.667969 13.5 Z M 5.539062 8.285156 L 9.304688 11.515625 L 5.539062 11.515625 Z M 5.539062 8.285156 "/>
<path style=" stroke:none;fill-rule:evenodd;fill:rgb(63.529412%,63.529412%,63.529412%);fill-opacity:1;" d="M 8.339844 7.542969 C 8.550781 7.550781 8.734375 7.667969 8.839844 7.851562 L 11.816406 13.210938 L 11.890625 14.6875 L 10.773438 13.789062 L 8.316406 9.367188 L 8.316406 7.546875 C 8.324219 7.546875 8.332031 7.542969 8.339844 7.542969 Z M 8.339844 7.542969 "/>
<path style=" stroke:none;fill-rule:nonzero;fill:rgb(80%,80%,80%);fill-opacity:1;" d="M 8.296875 7.542969 C 8.085938 7.550781 7.898438 7.667969 7.792969 7.851562 L 4.820312 13.210938 L 4.742188 14.6875 L 5.863281 13.789062 L 6.28125 13.035156 C 6.917969 13.339844 7.613281 13.5 8.316406 13.5 C 10.949219 13.5 13.078125 11.363281 13.078125 8.734375 L 11.890625 8.734375 C 11.890625 10.707031 10.289062 12.308594 8.316406 12.308594 C 7.816406 12.304688 7.316406 12.199219 6.863281 11.988281 L 8.316406 9.367188 L 8.316406 7.546875 C 8.308594 7.546875 8.304688 7.542969 8.296875 7.542969 Z M 8.296875 7.542969 "/>
<path style=" stroke:none;fill-rule:nonzero;fill:rgb(30.980392%,30.980392%,30.980392%);fill-opacity:1;" d="M 7.523438 5.164062 L 7.523438 6.351562 L 7.125 6.351562 C 6.332031 6.351562 6.332031 7.148438 6.332031 7.148438 L 6.332031 9.132812 C 6.332031 9.132812 7.324219 10.121094 7.722656 10.523438 C 8.078125 10.800781 8.671875 10.824219 8.976562 10.453125 L 10.300781 9.132812 L 10.300781 7.148438 C 10.300781 7.148438 10.300781 6.351562 9.511719 6.351562 L 9.109375 6.351562 L 9.109375 5.164062 Z M 7.523438 5.164062 "/>
<path style=" stroke:none;fill-rule:nonzero;fill:rgb(100%,100%,100%);fill-opacity:1;" d="M 9.109375 7.941406 C 9.109375 8.378906 8.753906 8.734375 8.316406 8.734375 C 7.878906 8.734375 7.523438 8.378906 7.523438 7.941406 C 7.523438 7.503906 7.878906 7.148438 8.316406 7.148438 C 8.753906 7.148438 9.109375 7.503906 9.109375 7.941406 Z M 9.109375 7.941406 "/>
</g>
</svg>
