<?xml version="1.0" encoding="UTF-8"?>
<svg xmlns="http://www.w3.org/2000/svg" xmlns:xlink="http://www.w3.org/1999/xlink" width="17pt" height="17pt" viewBox="0 0 17 17" version="1.1">
<g id="surface1">
<path style=" stroke:none;fill-rule:evenodd;fill:rgb(80%,80%,80%);fill-opacity:1;" d="M 8.703125 1.019531 L 4.015625 1.019531 C 2.355469 1.019531 1.019531 2.355469 1.019531 4.015625 L 1.019531 13.1875 C 1.019531 14.847656 2.355469 16.183594 4.015625 16.183594 L 8.703125 16.183594 Z M 8.703125 1.019531 "/>
<path style=" stroke:none;fill-rule:evenodd;fill:rgb(72.156863%,72.156863%,72.156863%);fill-opacity:1;" d="M 8.703125 1.019531 L 8.703125 16.183594 L 13.1875 16.183594 C 14.847656 16.183594 16.183594 14.847656 16.183594 13.1875 L 16.183594 4.015625 C 16.183594 2.355469 14.847656 1.019531 13.1875 1.019531 Z M 8.703125 1.019531 "/>
<path style=" stroke:none;fill-rule:evenodd;fill:rgb(80%,0%,0%);fill-opacity:1;" d="M 6.554688 1.019531 L 6.554688 6.933594 L 7.628906 6.394531 L 8.703125 6.933594 L 8.703125 1.019531 Z M 6.554688 1.019531 "/>
</g>
</svg>
