<?xml version="1.0" encoding="UTF-8"?>
<svg xmlns="http://www.w3.org/2000/svg" xmlns:xlink="http://www.w3.org/1999/xlink" width="17pt" height="17pt" viewBox="0 0 17 17" version="1.1">
<g id="surface1">
<path style=" stroke:none;fill-rule:evenodd;fill:rgb(80%,80%,80%);fill-opacity:1;" d="M 16.183594 11.808594 L 1.019531 11.808594 L 1.019531 13.1875 C 1.019531 14.847656 2.355469 16.183594 4.019531 16.183594 L 13.1875 16.183594 C 14.847656 16.183594 16.183594 14.847656 16.183594 13.1875 Z M 16.183594 11.808594 "/>
<path style=" stroke:none;fill-rule:evenodd;fill:rgb(76.078431%,20.784314%,16.470588%);fill-opacity:1;" d="M 4.019531 1.019531 C 2.355469 1.019531 1.019531 2.355469 1.019531 4.019531 L 1.019531 11.808594 L 16.183594 11.808594 L 16.183594 4.019531 C 16.183594 2.355469 14.847656 1.019531 13.1875 1.019531 Z M 4.019531 1.019531 "/>
<path style=" stroke:none;fill-rule:nonzero;fill:rgb(100%,100%,100%);fill-opacity:1;" d="M 6.871094 4.417969 C 6.738281 4.417969 6.632812 4.527344 6.632812 4.65625 L 6.632812 9.554688 C 6.632812 9.734375 6.828125 9.851562 6.984375 9.761719 L 11.46875 7.316406 C 11.632812 7.226562 11.632812 6.988281 11.46875 6.898438 L 7.433594 4.691406 L 6.984375 4.445312 C 6.949219 4.429688 6.910156 4.417969 6.871094 4.417969 Z M 6.871094 4.417969 "/>
<path style=" stroke:none;fill-rule:nonzero;fill:rgb(60%,60%,60%);fill-opacity:1;" d="M 11.289062 13.320312 L 14.515625 13.320312 C 14.8125 13.320312 15.050781 13.5625 15.050781 13.859375 C 15.050781 14.15625 14.8125 14.394531 14.515625 14.394531 L 11.289062 14.394531 C 10.992188 14.394531 10.75 14.15625 10.75 13.859375 C 10.75 13.5625 10.992188 13.320312 11.289062 13.320312 Z M 11.289062 13.320312 "/>
<path style=" stroke:none;fill-rule:nonzero;fill:rgb(76.078431%,20.784314%,16.470588%);fill-opacity:1;" d="M 2.6875 13.320312 L 10.214844 13.320312 C 10.511719 13.320312 10.75 13.5625 10.75 13.859375 C 10.75 14.15625 10.511719 14.394531 10.214844 14.394531 L 2.6875 14.394531 C 2.390625 14.394531 2.148438 14.15625 2.148438 13.859375 C 2.148438 13.5625 2.390625 13.320312 2.6875 13.320312 Z M 2.6875 13.320312 "/>
<path style=" stroke:none;fill-rule:nonzero;fill:rgb(100%,100%,100%);fill-opacity:1;" d="M 11.828125 13.859375 C 11.828125 14.453125 11.34375 14.933594 10.75 14.933594 C 10.160156 14.933594 9.675781 14.453125 9.675781 13.859375 C 9.675781 13.265625 10.160156 12.78125 10.75 12.78125 C 11.34375 12.78125 11.828125 13.265625 11.828125 13.859375 Z M 11.828125 13.859375 "/>
</g>
</svg>
