<?xml version="1.0" encoding="UTF-8"?>
<svg xmlns="http://www.w3.org/2000/svg" xmlns:xlink="http://www.w3.org/1999/xlink" width="17pt" height="17pt" viewBox="0 0 17 17" version="1.1">
<g id="surface1">
<path style=" stroke:none;fill-rule:evenodd;fill:rgb(76.078431%,20.784314%,16.470588%);fill-opacity:1;" d="M 4.015625 1.019531 L 13.1875 1.019531 C 14.839844 1.019531 16.183594 2.363281 16.183594 4.015625 L 16.183594 13.1875 C 16.183594 14.839844 14.839844 16.183594 13.1875 16.183594 L 4.015625 16.183594 C 2.363281 16.183594 1.019531 14.839844 1.019531 13.1875 L 1.019531 4.015625 C 1.019531 2.363281 2.363281 1.019531 4.015625 1.019531 Z M 4.015625 1.019531 "/>
<path style=" stroke:none;fill-rule:nonzero;fill:rgb(100%,100%,100%);fill-opacity:1;" d="M 2.417969 6.71875 L 2.417969 10.484375 L 6.183594 10.484375 L 6.183594 6.71875 Z M 2.957031 7.257812 L 5.105469 7.257812 L 5.105469 8.332031 L 5.644531 8.332031 L 5.644531 9.945312 L 2.957031 9.945312 Z M 3.496094 7.792969 L 3.496094 8.332031 L 4.570312 8.332031 L 4.570312 7.792969 Z M 3.496094 8.871094 L 3.496094 9.40625 L 5.105469 9.40625 L 5.105469 8.871094 Z M 3.496094 8.871094 "/>
<path style=" stroke:none;fill-rule:nonzero;fill:rgb(100%,100%,100%);fill-opacity:1;" d="M 11.019531 6.71875 L 11.019531 10.484375 L 14.785156 10.484375 L 14.785156 6.71875 Z M 11.558594 7.257812 L 14.246094 7.257812 L 14.246094 7.792969 L 12.09375 7.792969 L 12.09375 9.40625 L 14.246094 9.40625 L 14.246094 9.945312 L 11.558594 9.945312 Z M 11.558594 7.257812 "/>
<path style=" stroke:none;fill-rule:nonzero;fill:rgb(100%,100%,100%);fill-opacity:1;" d="M 6.71875 6.71875 L 6.71875 10.484375 L 10.484375 10.484375 L 10.484375 6.71875 Z M 7.257812 7.257812 L 9.40625 7.257812 L 9.40625 8.332031 L 9.945312 8.332031 L 9.945312 9.945312 L 7.257812 9.945312 Z M 7.792969 7.792969 L 7.792969 8.332031 L 8.871094 8.332031 L 8.871094 7.792969 Z M 7.792969 8.871094 L 7.792969 9.40625 L 9.40625 9.40625 L 9.40625 8.871094 Z M 7.792969 8.871094 "/>
</g>
</svg>
