<?xml version="1.0" encoding="UTF-8"?>
<svg xmlns="http://www.w3.org/2000/svg" xmlns:xlink="http://www.w3.org/1999/xlink" width="17pt" height="17pt" viewBox="0 0 17 17" version="1.1">
<g id="surface1">
<path style=" stroke:none;fill-rule:evenodd;fill:rgb(12.54902%,78.823529%,19.215686%);fill-opacity:1;" d="M 1.019531 11.175781 L 6.027344 11.175781 L 6.027344 6.027344 L 1.019531 6.027344 Z M 1.019531 11.175781 "/>
<path style=" stroke:none;fill-rule:evenodd;fill:rgb(19.215686%,50.980392%,77.647059%);fill-opacity:1;" d="M 6.027344 11.175781 L 11.175781 11.175781 L 11.175781 6.027344 L 6.027344 6.027344 Z M 6.027344 11.175781 "/>
<path style=" stroke:none;fill-rule:evenodd;fill:rgb(15.294118%,55.686275%,20%);fill-opacity:1;" d="M 11.175781 11.175781 L 11.175781 16.183594 L 13.1875 16.183594 C 14.847656 16.183594 16.183594 14.847656 16.183594 13.1875 L 16.183594 11.175781 Z M 11.175781 11.175781 "/>
<path style=" stroke:none;fill-rule:evenodd;fill:rgb(11.764706%,30.980392%,46.666667%);fill-opacity:1;" d="M 6.027344 11.175781 L 6.027344 16.183594 L 11.175781 16.183594 L 11.175781 11.175781 Z M 6.027344 11.175781 "/>
<path style=" stroke:none;fill-rule:evenodd;fill:rgb(15.294118%,55.686275%,20%);fill-opacity:1;" d="M 6.027344 16.183594 L 6.027344 11.175781 L 1.019531 11.175781 L 1.019531 13.1875 C 1.019531 14.847656 2.355469 16.183594 4.015625 16.183594 Z M 6.027344 16.183594 "/>
<path style=" stroke:none;fill-rule:evenodd;fill:rgb(12.54902%,78.823529%,19.215686%);fill-opacity:1;" d="M 16.183594 6.027344 L 11.175781 6.027344 L 11.175781 11.175781 L 16.183594 11.175781 Z M 16.183594 6.027344 "/>
<path style=" stroke:none;fill-rule:evenodd;fill:rgb(40%,99.607843%,46.27451%);fill-opacity:1;" d="M 11.175781 1.019531 L 11.175781 6.027344 L 16.183594 6.027344 L 16.183594 4.015625 C 16.183594 2.355469 14.847656 1.019531 13.1875 1.019531 Z M 11.175781 1.019531 "/>
<path style=" stroke:none;fill-rule:evenodd;fill:rgb(40%,71.764706%,99.607843%);fill-opacity:1;" d="M 1.019531 6.027344 L 6.027344 6.027344 L 6.027344 1.019531 L 4.015625 1.019531 C 2.355469 1.019531 1.019531 2.355469 1.019531 4.015625 Z M 1.019531 6.027344 "/>
<path style=" stroke:none;fill-rule:evenodd;fill:rgb(27.843137%,60%,88.627451%);fill-opacity:1;" d="M 6.027344 1.019531 L 6.027344 6.027344 L 11.175781 6.027344 L 11.175781 1.019531 Z M 6.027344 1.019531 "/>
</g>
</svg>
