<?xml version="1.0" encoding="UTF-8"?>
<svg xmlns="http://www.w3.org/2000/svg" xmlns:xlink="http://www.w3.org/1999/xlink" width="17pt" height="17pt" viewBox="0 0 17 17" version="1.1">
<g id="surface1">
<path style=" stroke:none;fill-rule:evenodd;fill:rgb(90.588235%,31.764706%,46.666667%);fill-opacity:1;" d="M 4.015625 1.019531 L 13.1875 1.019531 C 14.839844 1.019531 16.183594 2.363281 16.183594 4.015625 L 16.183594 13.1875 C 16.183594 14.839844 14.839844 16.183594 13.1875 16.183594 L 4.015625 16.183594 C 2.363281 16.183594 1.019531 14.839844 1.019531 13.1875 L 1.019531 4.015625 C 1.019531 2.363281 2.363281 1.019531 4.015625 1.019531 Z M 4.015625 1.019531 "/>
<path style=" stroke:none;fill-rule:nonzero;fill:rgb(100%,100%,100%);fill-opacity:1;" d="M 8.601562 3.761719 C 8.050781 3.761719 7.507812 3.863281 6.988281 4.042969 L 6.988281 10.214844 C 6.988281 10.511719 6.746094 10.75 6.449219 10.75 C 6.15625 10.75 5.914062 10.511719 5.914062 10.214844 L 5.914062 4.582031 C 4.570312 5.476562 3.761719 6.988281 3.761719 8.601562 C 3.761719 11.273438 5.929688 13.4375 8.601562 13.4375 C 11.273438 13.4375 13.4375 11.273438 13.4375 8.601562 C 13.4375 5.929688 11.273438 3.761719 8.601562 3.761719 Z M 8.300781 6.449219 C 8.339844 6.449219 8.378906 6.460938 8.414062 6.484375 L 10.058594 7.433594 L 11.707031 8.390625 C 11.777344 8.429688 11.828125 8.515625 11.828125 8.601562 C 11.828125 8.6875 11.777344 8.769531 11.707031 8.8125 L 10.058594 9.765625 L 8.414062 10.71875 C 8.339844 10.761719 8.253906 10.757812 8.183594 10.714844 C 8.105469 10.671875 8.0625 10.59375 8.0625 10.511719 L 8.0625 6.691406 C 8.0625 6.628906 8.085938 6.566406 8.132812 6.523438 C 8.179688 6.476562 8.238281 6.449219 8.300781 6.449219 Z M 8.300781 6.449219 "/>
</g>
</svg>
