<?xml version="1.0" encoding="UTF-8"?>
<svg xmlns="http://www.w3.org/2000/svg" xmlns:xlink="http://www.w3.org/1999/xlink" width="17pt" height="17pt" viewBox="0 0 17 17" version="1.1">
<g id="surface1">
<path style=" stroke:none;fill-rule:evenodd;fill:rgb(83.137255%,29.019608%,29.019608%);fill-opacity:1;" d="M 4.015625 1.019531 L 13.1875 1.019531 C 14.839844 1.019531 16.183594 2.363281 16.183594 4.015625 L 16.183594 13.1875 C 16.183594 14.839844 14.839844 16.183594 13.1875 16.183594 L 4.015625 16.183594 C 2.363281 16.183594 1.019531 14.839844 1.019531 13.1875 L 1.019531 4.015625 C 1.019531 2.363281 2.363281 1.019531 4.015625 1.019531 Z M 4.015625 1.019531 "/>
<path style=" stroke:none;fill-rule:nonzero;fill:rgb(100%,100%,100%);fill-opacity:1;" d="M 8.601562 3.226562 C 6.894531 3.230469 5.289062 4.039062 4.277344 5.414062 L 5.9375 8.285156 C 5.9375 8.257812 5.941406 8.234375 5.945312 8.210938 C 5.957031 8.117188 5.976562 8.03125 5.996094 7.945312 C 6.019531 7.859375 6.042969 7.769531 6.074219 7.6875 C 6.101562 7.617188 6.128906 7.546875 6.164062 7.476562 C 6.171875 7.457031 6.179688 7.441406 6.1875 7.425781 C 6.21875 7.363281 6.25 7.304688 6.285156 7.25 C 6.292969 7.230469 6.304688 7.210938 6.316406 7.195312 C 6.355469 7.128906 6.394531 7.066406 6.4375 7.011719 C 6.445312 6.996094 6.453125 6.984375 6.460938 6.972656 C 6.507812 6.917969 6.550781 6.867188 6.597656 6.816406 C 6.613281 6.796875 6.628906 6.777344 6.640625 6.761719 C 6.679688 6.722656 6.722656 6.679688 6.765625 6.640625 C 6.789062 6.617188 6.820312 6.59375 6.84375 6.570312 C 6.878906 6.539062 6.917969 6.511719 6.953125 6.484375 C 6.988281 6.453125 7.023438 6.425781 7.058594 6.402344 C 7.09375 6.375 7.132812 6.351562 7.171875 6.328125 C 7.203125 6.308594 7.230469 6.292969 7.257812 6.273438 C 7.269531 6.269531 7.277344 6.261719 7.289062 6.257812 C 7.3125 6.246094 7.332031 6.234375 7.351562 6.222656 C 7.394531 6.203125 7.441406 6.179688 7.488281 6.160156 C 7.53125 6.136719 7.574219 6.117188 7.621094 6.101562 C 7.65625 6.085938 7.691406 6.070312 7.730469 6.058594 C 7.777344 6.042969 7.828125 6.027344 7.875 6.015625 C 7.914062 6.003906 7.957031 5.992188 8 5.984375 C 8.042969 5.972656 8.085938 5.964844 8.128906 5.957031 C 8.175781 5.949219 8.21875 5.945312 8.261719 5.9375 C 8.308594 5.933594 8.351562 5.929688 8.398438 5.925781 C 8.441406 5.921875 8.484375 5.917969 8.523438 5.917969 C 8.550781 5.917969 8.574219 5.914062 8.601562 5.914062 L 13.25 5.914062 C 12.289062 4.253906 10.519531 3.230469 8.601562 3.226562 Z M 3.949219 5.917969 C 3.476562 6.730469 3.226562 7.660156 3.226562 8.601562 C 3.226562 11.570312 5.632812 13.976562 8.601562 13.976562 C 9.339844 13.972656 10.074219 13.820312 10.75 13.523438 L 10.75 10.214844 C 10.738281 10.226562 10.730469 10.238281 10.71875 10.253906 C 10.699219 10.28125 10.675781 10.308594 10.652344 10.335938 C 10.617188 10.375 10.585938 10.414062 10.546875 10.453125 C 10.523438 10.480469 10.496094 10.507812 10.464844 10.535156 C 10.425781 10.570312 10.390625 10.605469 10.351562 10.640625 C 10.320312 10.664062 10.292969 10.6875 10.261719 10.710938 C 10.222656 10.742188 10.183594 10.769531 10.144531 10.800781 C 10.105469 10.828125 10.066406 10.851562 10.03125 10.875 C 10 10.894531 9.972656 10.910156 9.945312 10.929688 C 9.933594 10.933594 9.925781 10.941406 9.914062 10.945312 C 9.890625 10.957031 9.871094 10.96875 9.851562 10.980469 C 9.808594 11 9.757812 11.023438 9.714844 11.042969 C 9.671875 11.0625 9.628906 11.082031 9.582031 11.097656 C 9.546875 11.113281 9.511719 11.132812 9.472656 11.144531 C 9.421875 11.160156 9.375 11.175781 9.328125 11.1875 C 9.289062 11.199219 9.246094 11.210938 9.203125 11.21875 C 9.160156 11.226562 9.113281 11.238281 9.070312 11.246094 C 9.027344 11.253906 8.984375 11.257812 8.941406 11.265625 C 8.898438 11.269531 8.851562 11.273438 8.804688 11.277344 C 8.757812 11.28125 8.71875 11.285156 8.679688 11.285156 C 8.652344 11.285156 8.628906 11.289062 8.601562 11.289062 C 8.570312 11.289062 8.535156 11.289062 8.503906 11.285156 C 8.488281 11.285156 8.476562 11.285156 8.457031 11.285156 C 8.398438 11.28125 8.339844 11.273438 8.28125 11.265625 C 8.25 11.265625 8.21875 11.261719 8.1875 11.253906 C 8.128906 11.246094 8.074219 11.234375 8.019531 11.222656 C 7.988281 11.214844 7.953125 11.207031 7.921875 11.199219 C 7.871094 11.1875 7.816406 11.171875 7.761719 11.152344 C 7.730469 11.144531 7.695312 11.132812 7.664062 11.117188 C 7.617188 11.097656 7.574219 11.082031 7.53125 11.0625 C 7.492188 11.042969 7.445312 11.027344 7.40625 11.007812 C 7.371094 10.988281 7.335938 10.96875 7.304688 10.949219 C 7.261719 10.925781 7.21875 10.902344 7.175781 10.878906 C 7.144531 10.855469 7.105469 10.832031 7.074219 10.8125 C 7.03125 10.777344 6.992188 10.75 6.953125 10.71875 C 6.921875 10.699219 6.894531 10.675781 6.867188 10.652344 C 6.828125 10.617188 6.785156 10.582031 6.75 10.546875 C 6.722656 10.523438 6.695312 10.496094 6.667969 10.46875 C 6.632812 10.425781 6.597656 10.390625 6.566406 10.351562 C 6.539062 10.320312 6.515625 10.292969 6.492188 10.261719 C 6.457031 10.222656 6.429688 10.183594 6.402344 10.144531 C 6.375 10.105469 6.351562 10.066406 6.328125 10.027344 C 6.308594 10 6.292969 9.972656 6.273438 9.945312 L 6.242188 9.890625 Z M 10.214844 6.449219 C 10.226562 6.460938 10.238281 6.46875 10.253906 6.484375 C 10.28125 6.503906 10.308594 6.527344 10.335938 6.550781 C 10.375 6.585938 10.414062 6.617188 10.453125 6.65625 C 10.480469 6.679688 10.507812 6.707031 10.535156 6.738281 C 10.570312 6.773438 10.605469 6.8125 10.640625 6.851562 C 10.664062 6.882812 10.6875 6.910156 10.710938 6.941406 C 10.742188 6.980469 10.769531 7.019531 10.800781 7.058594 C 10.828125 7.09375 10.851562 7.132812 10.875 7.175781 C 10.894531 7.203125 10.910156 7.230469 10.929688 7.257812 C 10.933594 7.269531 10.941406 7.277344 10.945312 7.289062 C 10.957031 7.3125 10.96875 7.332031 10.980469 7.351562 C 11 7.394531 11.023438 7.441406 11.042969 7.488281 C 11.0625 7.53125 11.082031 7.574219 11.097656 7.621094 C 11.113281 7.65625 11.132812 7.691406 11.144531 7.730469 C 11.160156 7.777344 11.175781 7.828125 11.1875 7.875 C 11.199219 7.914062 11.207031 7.957031 11.21875 8 C 11.226562 8.042969 11.238281 8.085938 11.246094 8.128906 C 11.253906 8.175781 11.257812 8.21875 11.265625 8.261719 C 11.269531 8.285156 11.273438 8.308594 11.277344 8.332031 C 11.277344 8.355469 11.277344 8.378906 11.277344 8.398438 C 11.28125 8.441406 11.285156 8.484375 11.285156 8.523438 C 11.285156 8.550781 11.289062 8.574219 11.289062 8.601562 L 11.289062 13.25 C 12.949219 12.289062 13.972656 10.519531 13.976562 8.601562 C 13.972656 7.863281 13.820312 7.125 13.523438 6.449219 Z M 10.214844 6.449219 "/>
</g>
</svg>
