<?xml version="1.0" encoding="UTF-8"?>
<svg xmlns="http://www.w3.org/2000/svg" xmlns:xlink="http://www.w3.org/1999/xlink" width="17pt" height="17pt" viewBox="0 0 17 17" version="1.1">
<g id="surface1">
<path style=" stroke:none;fill-rule:evenodd;fill:rgb(30.980392%,30.980392%,30.980392%);fill-opacity:1;" d="M 4.015625 1.019531 L 13.1875 1.019531 C 14.839844 1.019531 16.183594 2.363281 16.183594 4.015625 L 16.183594 13.1875 C 16.183594 14.839844 14.839844 16.183594 13.1875 16.183594 L 4.015625 16.183594 C 2.363281 16.183594 1.019531 14.839844 1.019531 13.1875 L 1.019531 4.015625 C 1.019531 2.363281 2.363281 1.019531 4.015625 1.019531 Z M 4.015625 1.019531 "/>
<path style=" stroke:none;fill-rule:nonzero;fill:rgb(88.235294%,38.431373%,38.431373%);fill-opacity:1;" d="M 5.054688 7.011719 C 3.8125 7.222656 2.90625 8.292969 2.902344 9.550781 C 2.902344 10.972656 4.054688 12.125 5.476562 12.125 C 6.28125 12.125 7.039062 11.746094 7.527344 11.105469 C 7.085938 10.992188 6.679688 10.789062 6.320312 10.519531 C 6.085938 10.722656 5.785156 10.835938 5.476562 10.839844 C 4.765625 10.839844 4.191406 10.261719 4.191406 9.550781 C 4.191406 9.019531 4.515625 8.542969 5.007812 8.351562 C 4.976562 8.167969 4.960938 7.976562 4.960938 7.789062 C 4.964844 7.53125 4.992188 7.269531 5.054688 7.011719 Z M 5.054688 7.011719 "/>
<path style=" stroke:none;fill-rule:nonzero;fill:rgb(41.176471%,85.882353%,24.313725%);fill-opacity:1;" d="M 7.621094 3.542969 C 6.203125 3.542969 5.046875 4.695312 5.046875 6.113281 C 5.046875 6.402344 5.097656 6.6875 5.195312 6.957031 C 5.519531 6.628906 5.910156 6.367188 6.339844 6.199219 C 6.335938 6.171875 6.335938 6.140625 6.335938 6.113281 C 6.335938 5.40625 6.910156 4.832031 7.621094 4.832031 C 8.332031 4.832031 8.910156 5.40625 8.910156 6.113281 C 8.910156 6.140625 8.90625 6.171875 8.90625 6.199219 C 9.335938 6.371094 9.722656 6.628906 10.050781 6.957031 C 10.148438 6.683594 10.195312 6.402344 10.199219 6.113281 C 10.199219 4.695312 9.042969 3.542969 7.621094 3.542969 Z M 7.621094 3.542969 "/>
<path style=" stroke:none;fill-rule:nonzero;fill:rgb(64.705882%,91.372549%,54.901961%);fill-opacity:1;" d="M 8.480469 6.113281 C 8.480469 6.589844 8.09375 6.976562 7.621094 6.976562 C 7.148438 6.976562 6.761719 6.589844 6.761719 6.113281 C 6.761719 5.644531 7.148438 5.257812 7.621094 5.257812 C 8.09375 5.257812 8.480469 5.644531 8.480469 6.113281 Z M 8.480469 6.113281 "/>
<path style=" stroke:none;fill-rule:nonzero;fill:rgb(92.156863%,58.431373%,58.431373%);fill-opacity:1;" d="M 6.335938 9.550781 C 6.335938 10.023438 5.949219 10.40625 5.476562 10.40625 C 5.003906 10.40625 4.617188 10.023438 4.617188 9.550781 C 4.617188 9.074219 5.003906 8.691406 5.476562 8.691406 C 5.949219 8.691406 6.335938 9.074219 6.335938 9.550781 Z M 6.335938 9.550781 "/>
<path style=" stroke:none;fill-rule:nonzero;fill:rgb(100%,100%,100%);fill-opacity:1;" d="M 12.769531 9.550781 C 12.769531 10.5 12.003906 11.265625 11.054688 11.265625 C 10.105469 11.265625 9.339844 10.5 9.339844 9.550781 C 9.339844 8.601562 10.105469 7.835938 11.054688 7.835938 C 12.003906 7.835938 12.769531 8.601562 12.769531 9.550781 Z M 12.769531 9.550781 "/>
<path style=" stroke:none;fill-rule:nonzero;fill:rgb(100%,100%,100%);fill-opacity:1;" d="M 10.199219 9.976562 L 11.914062 9.976562 L 11.914062 11.695312 L 10.199219 11.695312 Z M 10.199219 9.976562 "/>
<path style=" stroke:none;fill-rule:nonzero;fill:rgb(100%,100%,100%);fill-opacity:1;" d="M 10.199219 12.125 L 11.914062 12.125 L 11.914062 12.554688 L 10.199219 12.554688 Z M 10.199219 12.125 "/>
<path style=" stroke:none;fill-rule:nonzero;fill:rgb(88.235294%,38.431373%,38.431373%);fill-opacity:1;" d="M 14.300781 10.433594 C 14.300781 12.21875 12.859375 13.660156 11.074219 13.660156 C 9.292969 13.660156 7.851562 12.21875 7.851562 10.433594 C 7.851562 8.652344 9.292969 7.210938 11.074219 7.210938 C 12.859375 7.210938 14.300781 8.652344 14.300781 10.433594 Z M 14.300781 10.433594 "/>
<path style=" stroke:none;fill-rule:nonzero;fill:rgb(100%,100%,100%);fill-opacity:1;" d="M 11.074219 8.824219 C 10.1875 8.824219 9.460938 9.546875 9.460938 10.433594 C 9.460938 11.324219 10.1875 12.046875 11.074219 12.046875 C 11.808594 12.046875 12.425781 11.5625 12.621094 10.894531 L 12.128906 10.894531 C 11.949219 11.300781 11.546875 11.585938 11.074219 11.585938 C 10.4375 11.585938 9.921875 11.070312 9.921875 10.433594 C 9.921875 9.800781 10.4375 9.285156 11.074219 9.285156 C 11.390625 9.285156 11.675781 9.414062 11.886719 9.625 L 11.304688 10.207031 L 12.6875 10.207031 L 12.6875 8.824219 L 12.214844 9.296875 C 11.921875 9.003906 11.523438 8.824219 11.074219 8.824219 Z M 11.074219 8.824219 "/>
</g>
</svg>
