<?xml version="1.0" encoding="UTF-8"?>
<svg xmlns="http://www.w3.org/2000/svg" xmlns:xlink="http://www.w3.org/1999/xlink" width="17pt" height="17pt" viewBox="0 0 17 17" version="1.1">
<g id="surface1">
<path style=" stroke:none;fill-rule:evenodd;fill:rgb(80%,80%,80%);fill-opacity:1;" d="M 4.015625 1.019531 L 13.1875 1.019531 C 14.839844 1.019531 16.183594 2.363281 16.183594 4.015625 L 16.183594 13.1875 C 16.183594 14.839844 14.839844 16.183594 13.1875 16.183594 L 4.015625 16.183594 C 2.363281 16.183594 1.019531 14.839844 1.019531 13.1875 L 1.019531 4.015625 C 1.019531 2.363281 2.363281 1.019531 4.015625 1.019531 Z M 4.015625 1.019531 "/>
<path style=" stroke:none;fill-rule:nonzero;fill:rgb(97.647059%,32.941176%,56.078431%);fill-opacity:1;" d="M 7.753906 9.152344 C 7.691406 9.082031 7.652344 8.996094 7.609375 8.914062 C 7.652344 9.058594 7.734375 9.1875 7.8125 9.316406 L 7.753906 9.152344 M 7.753906 9.152344 C 7.691406 9.082031 7.652344 8.996094 7.609375 8.914062 C 7.652344 9.058594 7.734375 9.191406 7.8125 9.316406 L 7.753906 9.152344 M 11.695312 7.867188 C 11.703125 8.144531 11.617188 8.277344 11.539062 8.511719 L 11.390625 8.585938 C 11.273438 8.820312 11.402344 8.734375 11.316406 8.921875 C 11.136719 9.085938 10.753906 9.441406 10.636719 9.480469 C 10.550781 9.476562 10.695312 9.371094 10.714844 9.332031 C 10.46875 9.503906 10.519531 9.589844 10.140625 9.695312 L 10.125 9.667969 C 9.195312 10.117188 7.898438 9.230469 7.914062 8.023438 C 7.90625 8.097656 7.886719 8.078125 7.867188 8.109375 C 7.816406 7.492188 8.148438 6.867188 8.703125 6.609375 C 9.25 6.335938 9.890625 6.445312 10.277344 6.820312 C 10.0625 6.535156 9.636719 6.230469 9.132812 6.257812 C 8.636719 6.265625 8.171875 6.585938 8.015625 6.933594 C 7.761719 7.09375 7.734375 7.5625 7.625 7.644531 C 7.476562 8.757812 7.902344 9.242188 8.628906 9.808594 C 8.742188 9.886719 8.660156 9.898438 8.675781 9.957031 C 8.433594 9.84375 8.214844 9.667969 8.03125 9.453125 C 8.128906 9.597656 8.234375 9.738281 8.367188 9.847656 C 8.140625 9.769531 7.839844 9.289062 7.746094 9.269531 C 8.140625 9.980469 9.335938 10.519531 9.964844 10.253906 C 9.675781 10.261719 9.304688 10.257812 8.980469 10.136719 C 8.84375 10.0625 8.65625 9.917969 8.6875 9.890625 C 9.546875 10.214844 10.429688 10.136719 11.171875 9.53125 C 11.359375 9.378906 11.566406 9.125 11.625 9.121094 C 11.535156 9.261719 11.640625 9.191406 11.570312 9.308594 C 11.757812 9 11.492188 9.1875 11.761719 8.777344 L 11.867188 8.921875 C 11.828125 8.664062 12.179688 8.351562 12.144531 7.949219 C 12.222656 7.828125 12.234375 8.082031 12.148438 8.367188 C 12.265625 8.050781 12.179688 8 12.210938 7.738281 C 12.242188 7.828125 12.285156 7.921875 12.308594 8.011719 C 12.230469 7.707031 12.382812 7.5 12.421875 7.320312 C 12.386719 7.304688 12.304688 7.457031 12.285156 7.09375 C 12.289062 6.941406 12.328125 7.015625 12.34375 6.976562 C 12.316406 6.957031 12.238281 6.839844 12.1875 6.609375 C 12.222656 6.554688 12.28125 6.746094 12.328125 6.753906 C 12.296875 6.574219 12.246094 6.433594 12.242188 6.292969 C 12.101562 6 12.195312 6.332031 12.078125 6.167969 C 11.933594 5.695312 12.207031 6.058594 12.222656 5.847656 C 12.445312 6.175781 12.574219 6.6875 12.632812 6.898438 C 12.589844 6.640625 12.515625 6.390625 12.425781 6.148438 C 12.496094 6.179688 12.316406 5.617188 12.515625 5.988281 C 12.304688 5.195312 11.609375 4.453125 10.972656 4.105469 C 11.046875 4.183594 11.148438 4.273438 11.109375 4.285156 C 10.796875 4.09375 10.851562 4.078125 10.808594 3.996094 C 10.546875 3.890625 10.53125 4.007812 10.359375 3.996094 C 9.871094 3.734375 9.777344 3.761719 9.328125 3.597656 L 9.347656 3.695312 C 9.027344 3.585938 8.972656 3.734375 8.625 3.695312 C 8.601562 3.679688 8.734375 3.632812 8.847656 3.617188 C 8.535156 3.660156 8.546875 3.554688 8.242188 3.628906 C 8.316406 3.578125 8.394531 3.542969 8.480469 3.496094 C 8.222656 3.511719 7.871094 3.644531 7.976562 3.523438 C 7.5625 3.710938 6.828125 3.976562 6.410156 4.371094 L 6.398438 4.28125 C 6.210938 4.515625 5.574219 4.972656 5.523438 5.273438 L 5.46875 5.285156 C 5.371094 5.453125 5.308594 5.648438 5.230469 5.824219 C 5.097656 6.046875 5.039062 5.910156 5.058594 5.945312 C 4.800781 6.46875 4.679688 6.910156 4.570312 7.269531 C 4.648438 7.386719 4.570312 7.980469 4.601562 8.453125 C 4.472656 10.800781 6.21875 13.074219 8.121094 13.601562 C 8.402344 13.699219 8.820312 13.695312 9.171875 13.707031 C 8.753906 13.585938 8.699219 13.644531 8.292969 13.5 C 8 13.359375 7.9375 13.199219 7.726562 13.015625 L 7.8125 13.164062 C 7.402344 13.015625 7.574219 12.980469 7.242188 12.875 L 7.332031 12.757812 C 7.199219 12.746094 6.980469 12.535156 6.921875 12.410156 L 6.777344 12.417969 C 6.605469 12.203125 6.515625 12.042969 6.519531 11.921875 L 6.476562 12.007812 C 6.417969 11.914062 5.835938 11.191406 6.136719 11.359375 C 6.082031 11.308594 6.007812 11.273438 5.925781 11.125 L 5.988281 11.050781 C 5.84375 10.863281 5.71875 10.617188 5.726562 10.535156 C 5.804688 10.640625 5.863281 10.660156 5.914062 10.679688 C 5.546875 9.746094 5.527344 10.628906 5.246094 9.730469 L 5.304688 9.726562 C 5.257812 9.65625 5.230469 9.582031 5.195312 9.507812 L 5.222656 9.246094 C 4.957031 8.933594 5.148438 7.917969 5.1875 7.359375 C 5.210938 7.132812 5.40625 6.894531 5.554688 6.515625 L 5.460938 6.5 C 5.636719 6.195312 6.449219 5.265625 6.828125 5.3125 C 7.011719 5.078125 6.789062 5.3125 6.753906 5.253906 C 7.160156 4.835938 7.28125 4.957031 7.554688 4.882812 C 7.847656 4.703125 7.304688 4.949219 7.441406 4.8125 C 7.945312 4.683594 7.796875 4.515625 8.457031 4.445312 C 8.527344 4.492188 8.296875 4.511719 8.238281 4.5625 C 8.660156 4.351562 9.570312 4.398438 10.160156 4.679688 C 10.847656 5.003906 11.617188 5.96875 11.648438 6.878906 L 11.679688 6.886719 C 11.664062 7.246094 11.734375 7.664062 11.613281 8.046875 L 11.695312 7.867188 "/>
</g>
</svg>
