<?xml version="1.0" encoding="UTF-8"?>
<svg xmlns="http://www.w3.org/2000/svg" xmlns:xlink="http://www.w3.org/1999/xlink" width="17pt" height="17pt" viewBox="0 0 17 17" version="1.1">
<g id="surface1">
<path style=" stroke:none;fill-rule:evenodd;fill:rgb(90.196078%,90.196078%,90.196078%);fill-opacity:1;" d="M 3.96875 1.007812 L 13.03125 1.007812 C 14.664062 1.007812 15.992188 2.335938 15.992188 3.96875 L 15.992188 13.03125 C 15.992188 14.664062 14.664062 15.992188 13.03125 15.992188 L 3.96875 15.992188 C 2.335938 15.992188 1.007812 14.664062 1.007812 13.03125 L 1.007812 3.96875 C 1.007812 2.335938 2.335938 1.007812 3.96875 1.007812 Z M 3.96875 1.007812 "/>
<path style=" stroke:none;fill-rule:nonzero;fill:rgb(94.901961%,45.490196%,13.72549%);fill-opacity:1;" d="M 8.726562 3.039062 C 9.90625 5.65625 15.125 12.09375 2.441406 11.113281 C 11.507812 15.085938 18.605469 11.683594 8.726562 3.039062 Z M 8.726562 3.039062 "/>
<path style=" stroke:none;fill-rule:nonzero;fill:rgb(11.372549%,29.019608%,42.352941%);fill-opacity:1;" d="M 11.453125 5.796875 C 12.34375 5.769531 13.375 5.796875 14.558594 5.886719 C 13.0625 5.230469 11.628906 4.796875 10.304688 4.53125 C 10.320312 4.546875 10.339844 4.566406 10.355469 4.582031 C 10.601562 4.832031 10.828125 5.074219 11.042969 5.3125 C 11.191406 5.480469 11.320312 5.636719 11.453125 5.796875 Z M 11.453125 5.796875 "/>
<path style=" stroke:none;fill-rule:nonzero;fill:rgb(11.372549%,29.019608%,42.352941%);fill-opacity:1;" d="M 7.78125 4.253906 C 3.652344 4.230469 1.78125 6.691406 5.519531 11.183594 C 5.859375 11.589844 6.234375 12.011719 6.667969 12.449219 C 7.144531 12.933594 7.675781 13.4375 8.273438 13.960938 C 8.105469 13.582031 7.847656 13.113281 7.574219 12.605469 C 7.316406 12.128906 7.046875 11.621094 6.8125 11.089844 C 5.824219 8.859375 5.550781 6.417969 10.160156 5.894531 C 10.109375 5.769531 10.058594 5.644531 10 5.523438 C 9.804688 5.121094 9.597656 4.742188 9.402344 4.375 C 8.832031 4.296875 8.289062 4.253906 7.78125 4.253906 Z M 7.78125 4.253906 "/>
<path style=" stroke:none;fill-rule:nonzero;fill:rgb(94.901961%,45.490196%,13.72549%);fill-opacity:1;" d="M 9.402344 4.375 C 9.597656 4.742188 9.804688 5.121094 10 5.523438 C 10.058594 5.644531 10.109375 5.769531 10.160156 5.894531 C 10.558594 5.847656 10.980469 5.8125 11.453125 5.796875 C 11.320312 5.636719 11.191406 5.480469 11.042969 5.3125 C 10.828125 5.074219 10.601562 4.832031 10.355469 4.582031 C 10.339844 4.566406 10.320312 4.546875 10.304688 4.53125 C 9.996094 4.46875 9.695312 4.414062 9.402344 4.375 Z M 9.402344 4.375 "/>
</g>
</svg>
