<?xml version="1.0" encoding="UTF-8"?>
<svg xmlns="http://www.w3.org/2000/svg" xmlns:xlink="http://www.w3.org/1999/xlink" width="17pt" height="17pt" viewBox="0 0 17 17" version="1.1">
<g id="surface1">
<path style=" stroke:none;fill-rule:evenodd;fill:rgb(30.196078%,30.196078%,30.196078%);fill-opacity:1;" d="M 15.992188 10.949219 C 15.785156 11.140625 15.53125 11.347656 15.449219 11.394531 C 15.230469 11.519531 15.007812 11.546875 14.804688 11.613281 C 14.601562 11.679688 14.421875 11.789062 14.292969 12.078125 C 14.246094 12.1875 14.242188 12.355469 14.226562 12.496094 C 14.210938 12.640625 14.179688 12.761719 14.074219 12.78125 C 13.707031 12.84375 12.433594 12.804688 12.257812 12.925781 C 11.457031 13.382812 10.476562 13.644531 9.59375 13.894531 C 9.421875 13.941406 9.152344 14.480469 8.980469 14.546875 C 8.773438 14.625 8.550781 14.632812 8.320312 14.597656 C 8.085938 14.5625 7.84375 14.484375 7.601562 14.398438 C 7.117188 14.226562 6.628906 14.015625 6.203125 14.015625 C 5.648438 14.015625 4.878906 14.289062 4.109375 14.46875 C 3.726562 14.558594 3.34375 14.625 2.984375 14.617188 C 2.628906 14.613281 2.296875 14.539062 2.015625 14.347656 C 1.773438 14.007812 1.53125 13.800781 1.253906 13.664062 C 1.21875 13.648438 1.167969 13.652344 1.128906 13.636719 C 1.417969 14.972656 2.542969 15.992188 3.96875 15.992188 L 13.027344 15.992188 C 14.671875 15.992188 15.992188 14.671875 15.992188 13.027344 Z M 15.992188 10.949219 "/>
<path style=" stroke:none;fill-rule:evenodd;fill:rgb(29.019608%,69.411765%,94.509804%);fill-opacity:1;" d="M 3.96875 1.007812 C 2.328125 1.007812 1.007812 2.328125 1.007812 3.96875 L 1.007812 13.027344 C 1.007812 13.246094 1.085938 13.433594 1.128906 13.636719 C 1.167969 13.652344 1.21875 13.648438 1.253906 13.664062 C 1.53125 13.800781 1.773438 14.007812 2.015625 14.347656 C 2.296875 14.539062 2.628906 14.613281 2.984375 14.617188 C 3.34375 14.625 3.726562 14.558594 4.109375 14.46875 C 4.878906 14.289062 5.648438 14.015625 6.203125 14.015625 C 6.628906 14.015625 7.117188 14.226562 7.601562 14.398438 C 7.84375 14.484375 8.085938 14.5625 8.320312 14.597656 C 8.550781 14.632812 8.773438 14.625 8.980469 14.546875 C 9.152344 14.480469 9.421875 13.941406 9.59375 13.894531 C 10.476562 13.644531 11.457031 13.382812 12.257812 12.925781 C 12.433594 12.804688 13.707031 12.84375 14.074219 12.78125 C 14.179688 12.761719 14.210938 12.640625 14.226562 12.496094 C 14.242188 12.355469 14.246094 12.1875 14.292969 12.078125 C 14.421875 11.789062 14.601562 11.679688 14.804688 11.613281 C 15.007812 11.546875 15.230469 11.519531 15.449219 11.394531 C 15.53125 11.347656 15.785156 11.140625 15.992188 10.949219 L 15.992188 3.96875 C 15.992188 2.328125 14.671875 1.007812 13.027344 1.007812 Z M 3.96875 1.007812 "/>
<path style=" stroke:none;fill-rule:nonzero;fill:rgb(30.196078%,30.196078%,30.196078%);fill-opacity:1;" d="M 6.425781 14.300781 C 6.097656 14.140625 6.035156 13.871094 6.175781 13.785156 C 6.351562 13.675781 6.25 13.050781 5.949219 12.34375 C 5.648438 11.652344 5.644531 11.632812 5.78125 11.480469 C 6.101562 11.121094 6.085938 11.101562 5.515625 11.15625 C 3.929688 11.308594 3.875 11.570312 3.328125 11.796875 C 2.609375 12.097656 1.960938 12.199219 1.960938 12.117188 C 1.960938 12.082031 2.054688 12.027344 2.171875 11.992188 L 2.382812 11.933594 L 2.160156 11.890625 C 1.9375 11.84375 1.9375 11.84375 2.390625 11.542969 C 3.726562 10.1875 4.945312 8.558594 6.695312 7.640625 C 6.914062 7.53125 7.164062 7.363281 7.21875 7.246094 C 7.269531 7.136719 7.308594 6.5625 7.308594 6.167969 C 7.308594 5.332031 7.445312 4.886719 7.949219 4.734375 C 8.34375 4.683594 8.277344 4.660156 8.628906 4.878906 C 8.863281 5.023438 9.164062 5.460938 9.417969 5.492188 C 10.4375 5.621094 11.390625 6.007812 11.550781 6.269531 C 11.578125 6.316406 11.503906 6.300781 11.378906 6.238281 C 10.714844 5.894531 9.3125 5.660156 8.820312 5.894531 C 8.417969 6.085938 8.65625 6.257812 8.800781 7.070312 C 8.992188 8.171875 8.855469 9.050781 8.398438 9.648438 C 8.289062 9.792969 7.988281 10.066406 7.734375 10.253906 C 7.476562 10.441406 6.953125 10.683594 6.898438 10.789062 C 6.84375 10.894531 6.730469 11.066406 6.648438 11.171875 C 6.519531 11.332031 6.5 11.496094 6.492188 12.332031 C 6.488281 12.945312 6.515625 13.34375 6.570312 13.410156 C 6.617188 13.464844 6.632812 13.597656 6.609375 13.703125 C 6.554688 13.917969 6.871094 14.234375 7.191406 14.234375 C 7.289062 14.234375 7.441406 14.285156 7.523438 14.347656 C 7.660156 14.449219 7.640625 14.460938 7.285156 14.460938 C 7.046875 14.464844 6.632812 14.402344 6.425781 14.300781 Z M 6.246094 12.109375 C 6.242188 11.972656 6.265625 11.714844 6.292969 11.53125 C 6.359375 11.164062 6.261719 11.097656 6.101562 11.394531 C 5.980469 11.621094 5.980469 11.980469 6.097656 12.203125 C 6.214844 12.421875 6.253906 12.398438 6.246094 12.109375 Z M 6.246094 12.109375 "/>
</g>
</svg>
