<?xml version="1.0" encoding="UTF-8"?>
<svg xmlns="http://www.w3.org/2000/svg" xmlns:xlink="http://www.w3.org/1999/xlink" width="17pt" height="17pt" viewBox="0 0 17 17" version="1.1">
<g id="surface1">
<path style=" stroke:none;fill-rule:evenodd;fill:rgb(20%,20%,20%);fill-opacity:1;" d="M 3.96875 1.007812 L 13.03125 1.007812 C 14.664062 1.007812 15.992188 2.335938 15.992188 3.96875 L 15.992188 13.03125 C 15.992188 14.664062 14.664062 15.992188 13.03125 15.992188 L 3.96875 15.992188 C 2.335938 15.992188 1.007812 14.664062 1.007812 13.03125 L 1.007812 3.96875 C 1.007812 2.335938 2.335938 1.007812 3.96875 1.007812 Z M 3.96875 1.007812 "/>
<path style=" stroke:none;fill-rule:nonzero;fill:rgb(57.647059%,20%,20%);fill-opacity:1;" d="M 2.632812 12.414062 L 4.585938 12.414062 L 4.585938 13.390625 L 2.632812 13.390625 Z M 2.632812 12.414062 "/>
<path style=" stroke:none;fill-rule:nonzero;fill:rgb(57.647059%,20%,20%);fill-opacity:1;" d="M 2.632812 10.945312 L 4.585938 10.945312 L 4.585938 11.921875 L 2.632812 11.921875 Z M 2.632812 10.945312 "/>
<path style=" stroke:none;fill-rule:nonzero;fill:rgb(57.647059%,20%,20%);fill-opacity:1;" d="M 2.632812 9.476562 L 4.585938 9.476562 L 4.585938 10.457031 L 2.632812 10.457031 Z M 2.632812 9.476562 "/>
<path style=" stroke:none;fill-rule:nonzero;fill:rgb(97.254902%,51.372549%,51.372549%);fill-opacity:1;" d="M 2.632812 8.011719 L 4.585938 8.011719 L 4.585938 8.988281 L 2.632812 8.988281 Z M 2.632812 8.011719 "/>
<path style=" stroke:none;fill-rule:nonzero;fill:rgb(97.254902%,51.372549%,51.372549%);fill-opacity:1;" d="M 2.632812 6.542969 L 4.585938 6.542969 L 4.585938 7.523438 L 2.632812 7.523438 Z M 2.632812 6.542969 "/>
<path style=" stroke:none;fill-rule:nonzero;fill:rgb(90.980392%,66.666667%,20.392157%);fill-opacity:1;" d="M 5.078125 12.414062 L 7.03125 12.414062 L 7.03125 13.390625 L 5.078125 13.390625 Z M 5.078125 12.414062 "/>
<path style=" stroke:none;fill-rule:nonzero;fill:rgb(90.980392%,66.666667%,20.392157%);fill-opacity:1;" d="M 5.078125 10.945312 L 7.03125 10.945312 L 7.03125 11.921875 L 5.078125 11.921875 Z M 5.078125 10.945312 "/>
<path style=" stroke:none;fill-rule:nonzero;fill:rgb(90.980392%,66.666667%,20.392157%);fill-opacity:1;" d="M 5.078125 9.476562 L 7.03125 9.476562 L 7.03125 10.457031 L 5.078125 10.457031 Z M 5.078125 9.476562 "/>
<path style=" stroke:none;fill-rule:nonzero;fill:rgb(46.27451%,9.411765%,36.862745%);fill-opacity:1;" d="M 7.523438 12.414062 L 9.476562 12.414062 L 9.476562 13.390625 L 7.523438 13.390625 Z M 7.523438 12.414062 "/>
<path style=" stroke:none;fill-rule:nonzero;fill:rgb(46.27451%,9.411765%,36.862745%);fill-opacity:1;" d="M 7.523438 10.945312 L 9.476562 10.945312 L 9.476562 11.921875 L 7.523438 11.921875 Z M 7.523438 10.945312 "/>
<path style=" stroke:none;fill-rule:nonzero;fill:rgb(46.27451%,9.411765%,36.862745%);fill-opacity:1;" d="M 7.523438 9.476562 L 9.476562 9.476562 L 9.476562 10.457031 L 7.523438 10.457031 Z M 7.523438 9.476562 "/>
<path style=" stroke:none;fill-rule:nonzero;fill:rgb(88.627451%,44.705882%,77.254902%);fill-opacity:1;" d="M 7.523438 8.011719 L 9.476562 8.011719 L 9.476562 8.988281 L 7.523438 8.988281 Z M 7.523438 8.011719 "/>
<path style=" stroke:none;fill-rule:nonzero;fill:rgb(88.627451%,44.705882%,77.254902%);fill-opacity:1;" d="M 7.523438 6.542969 L 9.476562 6.542969 L 9.476562 7.523438 L 7.523438 7.523438 Z M 7.523438 6.542969 "/>
<path style=" stroke:none;fill-rule:nonzero;fill:rgb(88.627451%,44.705882%,77.254902%);fill-opacity:1;" d="M 7.523438 5.078125 L 9.476562 5.078125 L 9.476562 6.054688 L 7.523438 6.054688 Z M 7.523438 5.078125 "/>
<path style=" stroke:none;fill-rule:nonzero;fill:rgb(29.019608%,69.803922%,14.509804%);fill-opacity:1;" d="M 9.96875 12.414062 L 11.921875 12.414062 L 11.921875 13.390625 L 9.96875 13.390625 Z M 9.96875 12.414062 "/>
<path style=" stroke:none;fill-rule:nonzero;fill:rgb(29.019608%,69.803922%,14.509804%);fill-opacity:1;" d="M 9.96875 10.945312 L 11.921875 10.945312 L 11.921875 11.921875 L 9.96875 11.921875 Z M 9.96875 10.945312 "/>
<path style=" stroke:none;fill-rule:nonzero;fill:rgb(29.019608%,69.803922%,14.509804%);fill-opacity:1;" d="M 9.96875 9.476562 L 11.921875 9.476562 L 11.921875 10.457031 L 9.96875 10.457031 Z M 9.96875 9.476562 "/>
<path style=" stroke:none;fill-rule:nonzero;fill:rgb(59.607843%,91.372549%,48.235294%);fill-opacity:1;" d="M 9.96875 8.011719 L 11.921875 8.011719 L 11.921875 8.988281 L 9.96875 8.988281 Z M 9.96875 8.011719 "/>
<path style=" stroke:none;fill-rule:nonzero;fill:rgb(59.607843%,91.372549%,48.235294%);fill-opacity:1;" d="M 9.96875 6.542969 L 11.921875 6.542969 L 11.921875 7.523438 L 9.96875 7.523438 Z M 9.96875 6.542969 "/>
<path style=" stroke:none;fill-rule:nonzero;fill:rgb(5.882353%,23.137255%,58.431373%);fill-opacity:1;" d="M 12.414062 12.414062 L 14.367188 12.414062 L 14.367188 13.390625 L 12.414062 13.390625 Z M 12.414062 12.414062 "/>
<path style=" stroke:none;fill-rule:nonzero;fill:rgb(5.882353%,23.137255%,58.431373%);fill-opacity:1;" d="M 12.414062 10.945312 L 14.367188 10.945312 L 14.367188 11.921875 L 12.414062 11.921875 Z M 12.414062 10.945312 "/>
<path style=" stroke:none;fill-rule:nonzero;fill:rgb(5.882353%,23.137255%,58.431373%);fill-opacity:1;" d="M 12.414062 9.476562 L 14.367188 9.476562 L 14.367188 10.457031 L 12.414062 10.457031 Z M 12.414062 9.476562 "/>
<path style=" stroke:none;fill-rule:nonzero;fill:rgb(30.980392%,76.078431%,88.235294%);fill-opacity:1;" d="M 12.414062 8.011719 L 14.367188 8.011719 L 14.367188 8.988281 L 12.414062 8.988281 Z M 12.414062 8.011719 "/>
<path style=" stroke:none;fill-rule:nonzero;fill:rgb(30.980392%,76.078431%,88.235294%);fill-opacity:1;" d="M 12.414062 6.542969 L 14.367188 6.542969 L 14.367188 7.523438 L 12.414062 7.523438 Z M 12.414062 6.542969 "/>
<path style=" stroke:none;fill-rule:nonzero;fill:rgb(30.980392%,76.078431%,88.235294%);fill-opacity:1;" d="M 12.414062 5.140625 L 14.367188 5.140625 L 14.367188 6.054688 L 12.414062 6.054688 Z M 12.414062 5.140625 "/>
<path style=" stroke:none;fill-rule:nonzero;fill:rgb(30.980392%,76.078431%,88.235294%);fill-opacity:1;" d="M 12.414062 3.609375 L 14.367188 3.609375 L 14.367188 4.585938 L 12.414062 4.585938 Z M 12.414062 3.609375 "/>
</g>
</svg>
