<?xml version="1.0" encoding="UTF-8"?>
<svg xmlns="http://www.w3.org/2000/svg" xmlns:xlink="http://www.w3.org/1999/xlink" width="17pt" height="17pt" viewBox="0 0 17 17" version="1.1">
<g id="surface1">
<path style=" stroke:none;fill-rule:evenodd;fill:rgb(55.686275%,55.686275%,55.686275%);fill-opacity:1;" d="M 3.96875 1.007812 L 13.03125 1.007812 C 14.664062 1.007812 15.992188 2.335938 15.992188 3.96875 L 15.992188 13.03125 C 15.992188 14.664062 14.664062 15.992188 13.03125 15.992188 L 3.96875 15.992188 C 2.335938 15.992188 1.007812 14.664062 1.007812 13.03125 L 1.007812 3.96875 C 1.007812 2.335938 2.335938 1.007812 3.96875 1.007812 Z M 3.96875 1.007812 "/>
<path style=" stroke:none;fill-rule:nonzero;fill:rgb(93.333333%,20.392157%,20.392157%);fill-opacity:1;" d="M 8.148438 14.070312 C 7.832031 14.054688 7.367188 13.988281 7.058594 13.914062 C 6.1875 13.703125 5.347656 13.253906 4.832031 12.710938 L 4.769531 12.648438 L 4.714844 12.679688 C 4.554688 12.761719 4.328125 12.777344 4.175781 12.714844 C 4.074219 12.671875 3.957031 12.554688 3.902344 12.4375 C 3.777344 12.191406 3.722656 11.726562 3.722656 10.992188 L 3.722656 10.632812 L 3.683594 10.625 C 3.578125 10.597656 3.414062 10.449219 3.355469 10.328125 C 3.230469 10.0625 3.292969 9.695312 3.550781 9.148438 C 3.628906 8.984375 3.792969 8.679688 3.902344 8.503906 L 3.960938 8.410156 L 3.929688 8.347656 C 3.824219 8.140625 3.929688 7.761719 4.183594 7.460938 L 4.285156 7.339844 L 4.148438 7.324219 C 3.910156 7.296875 3.742188 7.183594 3.683594 7.019531 C 3.644531 6.914062 3.660156 6.765625 3.714844 6.664062 C 3.777344 6.558594 4.070312 6.28125 4.238281 6.171875 C 4.527344 5.984375 4.886719 5.832031 5.316406 5.714844 L 5.558594 5.644531 L 5.566406 5.148438 C 5.570312 4.617188 5.585938 4.4375 5.65625 4.082031 C 5.75 3.625 5.960938 3.105469 6.09375 3 C 6.199219 2.917969 6.371094 2.894531 6.488281 2.953125 C 6.589844 3 6.640625 3.070312 6.722656 3.25 C 6.808594 3.4375 7.253906 4.28125 7.464844 4.65625 L 7.597656 4.890625 L 7.851562 4.953125 C 7.988281 4.984375 8.242188 5.050781 8.40625 5.097656 C 8.574219 5.144531 8.714844 5.183594 8.71875 5.183594 C 8.722656 5.183594 8.722656 5.148438 8.722656 5.105469 C 8.722656 4.949219 8.8125 4.808594 8.949219 4.734375 C 9.113281 4.65625 9.292969 4.695312 9.414062 4.753906 C 9.480469 4.785156 9.601562 4.859375 9.675781 4.914062 C 9.75 4.96875 9.816406 5.011719 9.820312 5.011719 C 9.839844 5.011719 10.882812 3.863281 11.117188 3.585938 C 11.199219 3.488281 11.285156 3.382812 11.316406 3.347656 C 11.480469 3.15625 11.800781 3.195312 11.921875 3.417969 C 11.957031 3.488281 12.019531 3.78125 12.039062 3.984375 C 12.097656 4.628906 11.976562 5.402344 11.679688 6.230469 C 11.632812 6.363281 11.589844 6.484375 11.585938 6.496094 C 11.578125 6.515625 11.609375 6.539062 11.726562 6.609375 C 11.902344 6.710938 12.175781 6.890625 12.328125 7.007812 C 12.496094 7.128906 12.804688 7.433594 12.890625 7.554688 C 13.09375 7.851562 13.167969 8.160156 13.070312 8.347656 L 13.039062 8.410156 L 13.097656 8.503906 C 13.207031 8.679688 13.371094 8.984375 13.449219 9.148438 C 13.707031 9.695312 13.769531 10.0625 13.644531 10.328125 C 13.585938 10.449219 13.421875 10.597656 13.316406 10.625 L 13.277344 10.632812 L 13.277344 11.007812 C 13.277344 11.734375 13.21875 12.191406 13.097656 12.4375 C 13.042969 12.554688 12.925781 12.671875 12.824219 12.714844 C 12.664062 12.78125 12.40625 12.757812 12.261719 12.664062 L 12.210938 12.628906 L 12.015625 12.8125 C 11.671875 13.128906 11.34375 13.351562 10.894531 13.5625 C 10.480469 13.757812 10.097656 13.882812 9.648438 13.96875 C 9.167969 14.058594 8.652344 14.097656 8.148438 14.070312 Z M 8.148438 14.070312 "/>
<path style=" stroke:none;fill-rule:nonzero;fill:rgb(100%,100%,100%);fill-opacity:1;" d="M 11.101562 8.871094 C 11.101562 7.640625 9.9375 6.640625 8.5 6.640625 C 7.0625 6.640625 5.898438 7.640625 5.898438 8.871094 C 5.898438 10.105469 7.0625 11.101562 8.5 11.101562 C 9.9375 11.101562 11.101562 10.105469 11.101562 8.871094 Z M 11.101562 8.871094 "/>
<path style=" stroke:none;fill-rule:nonzero;fill:rgb(15.294118%,15.294118%,15.294118%);fill-opacity:1;" d="M 8.5 7.757812 C 8.414062 7.757812 8.324219 7.777344 8.242188 7.8125 C 8.402344 7.894531 8.5 8.050781 8.5 8.222656 C 8.5 8.476562 8.277344 8.6875 8.003906 8.6875 C 7.917969 8.6875 7.832031 8.664062 7.757812 8.625 C 7.757812 8.644531 7.757812 8.664062 7.757812 8.6875 C 7.757812 9.199219 8.089844 9.617188 8.5 9.617188 C 8.910156 9.617188 9.242188 9.199219 9.242188 8.6875 C 9.242188 8.171875 8.910156 7.757812 8.5 7.757812 Z M 8.5 7.757812 "/>
<path style=" stroke:none;fill-rule:nonzero;fill:rgb(100%,100%,100%);fill-opacity:1;" d="M 8.5 12.636719 C 8.5 12.9375 8.207031 13.335938 7.878906 13.335938 C 7.550781 13.335938 7.382812 12.921875 7.382812 12.621094 C 7.382812 12.320312 7.691406 12.488281 8.019531 12.488281 C 8.347656 12.488281 8.5 12.335938 8.5 12.636719 Z M 8.5 12.636719 "/>
<path style=" stroke:none;fill-rule:nonzero;fill:rgb(47.45098%,7.843137%,7.843137%);fill-opacity:1;" d="M 7.691406 12.371094 C 7.054688 12.371094 6.433594 12.222656 5.898438 11.945312 C 6.464844 12.363281 7.179688 12.589844 7.917969 12.589844 C 9.675781 12.589844 11.101562 11.929688 11.101562 10.359375 C 10.671875 11.910156 9.308594 12.332031 7.691406 12.371094 Z M 7.691406 12.371094 "/>
<path style=" stroke:none;fill-rule:nonzero;fill:rgb(100%,100%,100%);fill-opacity:1;" d="M 5.898438 5.765625 L 5.898438 5.382812 C 5.902344 4.972656 5.914062 4.832031 5.964844 4.558594 C 6.035156 4.207031 6.183594 3.808594 6.28125 3.726562 C 6.359375 3.660156 6.480469 3.644531 6.566406 3.691406 C 6.640625 3.726562 6.679688 3.777344 6.738281 3.917969 C 6.800781 4.0625 7.121094 4.710938 7.273438 5 L 7.367188 5.183594 C 7.554688 5.78125 6.023438 6.089844 5.898438 5.765625 Z M 5.898438 5.765625 "/>
<path style=" stroke:none;fill-rule:nonzero;fill:rgb(100%,100%,100%);fill-opacity:1;" d="M 11.132812 6.191406 L 11.246094 5.820312 C 11.371094 5.417969 11.402344 5.285156 11.441406 5.007812 C 11.492188 4.652344 11.484375 4.234375 11.425781 4.136719 C 11.378906 4.058594 11.28125 4.019531 11.191406 4.042969 C 11.121094 4.066406 11.070312 4.109375 10.976562 4.234375 C 10.878906 4.363281 10.40625 4.929688 10.1875 5.183594 L 10.046875 5.339844 C 9.703125 5.882812 10.925781 6.484375 11.132812 6.191406 Z M 11.132812 6.191406 "/>
</g>
</svg>
