<?xml version="1.0" encoding="UTF-8"?>
<svg xmlns="http://www.w3.org/2000/svg" xmlns:xlink="http://www.w3.org/1999/xlink" width="17pt" height="17pt" viewBox="0 0 17 17" version="1.1">
<g id="surface1">
<path style=" stroke:none;fill-rule:evenodd;fill:rgb(92.54902%,94.117647%,94.509804%);fill-opacity:1;" d="M 3.96875 1.007812 L 13.03125 1.007812 C 14.664062 1.007812 15.992188 2.335938 15.992188 3.96875 L 15.992188 13.03125 C 15.992188 14.664062 14.664062 15.992188 13.03125 15.992188 L 3.96875 15.992188 C 2.335938 15.992188 1.007812 14.664062 1.007812 13.03125 L 1.007812 3.96875 C 1.007812 2.335938 2.335938 1.007812 3.96875 1.007812 Z M 3.96875 1.007812 "/>
<path style=" stroke:none;fill-rule:nonzero;fill:rgb(0%,35.294118%,69.411765%);fill-opacity:1;" d="M 7.617188 11.488281 C 7.628906 12.421875 7.078125 13.265625 6.21875 13.625 C 5.363281 13.988281 4.371094 13.792969 3.710938 13.136719 L 5.332031 11.515625 Z M 7.617188 11.488281 "/>
<path style=" stroke:none;fill-rule:nonzero;fill:rgb(0%,74.117647%,61.176471%);fill-opacity:1;" d="M 3.695312 9.917969 C 4.34375 9.253906 5.332031 9.046875 6.191406 9.398438 C 7.054688 9.75 7.617188 10.585938 7.617188 11.515625 L 5.332031 11.515625 Z M 3.695312 9.917969 "/>
<path style=" stroke:none;fill-rule:nonzero;fill:rgb(95.686275%,80%,12.54902%);fill-opacity:1;" d="M 3.730469 13.15625 C 3.292969 12.726562 3.046875 12.144531 3.042969 11.53125 C 3.039062 10.917969 3.28125 10.332031 3.710938 9.898438 L 5.332031 11.515625 Z M 3.730469 13.15625 "/>
<path style=" stroke:none;fill-rule:nonzero;fill:rgb(95.686275%,29.019608%,12.54902%);fill-opacity:1;" d="M 5.359375 13.804688 C 4.742188 13.8125 4.148438 13.570312 3.710938 13.136719 L 5.332031 11.515625 Z M 5.359375 13.804688 "/>
<path style=" stroke:none;fill-rule:nonzero;fill:rgb(91.372549%,29.411765%,20.784314%);fill-opacity:1;" d="M 3.238281 4.632812 L 4.730469 4.632812 L 4.730469 7.839844 L 3.238281 7.839844 Z M 3.238281 4.632812 "/>
<path style=" stroke:none;fill-rule:nonzero;fill:rgb(95.686275%,80%,12.54902%);fill-opacity:1;" d="M 5.046875 5.253906 L 6.535156 5.253906 L 6.535156 7.839844 L 5.046875 7.839844 Z M 5.046875 5.253906 "/>
<path style=" stroke:none;fill-rule:nonzero;fill:rgb(16.862745%,24.313725%,31.764706%);fill-opacity:1;" d="M 6.855469 5.859375 L 8.34375 5.859375 L 8.34375 7.839844 L 6.855469 7.839844 Z M 6.855469 5.859375 "/>
<path style=" stroke:none;fill-rule:nonzero;fill:rgb(0%,74.117647%,61.176471%);fill-opacity:1;" d="M 8.660156 2.921875 L 10.152344 2.921875 L 10.152344 7.839844 L 8.660156 7.839844 Z M 8.660156 2.921875 "/>
<path style=" stroke:none;fill-rule:nonzero;fill:rgb(74.117647%,76.470588%,78.039216%);fill-opacity:1;" d="M 3.113281 8.621094 L 13.78125 8.621094 L 13.78125 8.316406 L 3.113281 8.316406 Z M 3.113281 8.621094 "/>
<path style=" stroke:none;fill-rule:nonzero;fill:rgb(0%,30.196078%,61.176471%);fill-opacity:1;" d="M 10.496094 3.9375 L 11.988281 3.9375 L 11.988281 7.855469 L 10.496094 7.855469 Z M 10.496094 3.9375 "/>
<path style=" stroke:none;fill-rule:nonzero;fill:rgb(16.862745%,61.176471%,31.764706%);fill-opacity:1;" d="M 12.28125 5.339844 L 13.769531 5.339844 L 13.769531 7.855469 L 12.28125 7.855469 Z M 12.28125 5.339844 "/>
<path style=" stroke:none;fill-rule:nonzero;fill:rgb(91.372549%,29.411765%,20.784314%);fill-opacity:1;" d="M 9.578125 11.085938 C 9.578125 11.328125 9.382812 11.527344 9.140625 11.527344 C 8.898438 11.527344 8.699219 11.328125 8.699219 11.085938 C 8.699219 10.84375 8.898438 10.644531 9.140625 10.644531 C 9.382812 10.644531 9.578125 10.84375 9.578125 11.085938 Z M 9.578125 11.085938 "/>
<path style=" stroke:none;fill-rule:nonzero;fill:rgb(16.862745%,61.176471%,31.764706%);fill-opacity:1;" d="M 9.578125 12.160156 C 9.578125 12.402344 9.382812 12.597656 9.140625 12.597656 C 8.898438 12.597656 8.699219 12.402344 8.699219 12.160156 C 8.699219 11.914062 8.898438 11.71875 9.140625 11.71875 C 9.382812 11.71875 9.578125 11.914062 9.578125 12.160156 Z M 9.578125 12.160156 "/>
<path style=" stroke:none;fill-rule:nonzero;fill:rgb(74.117647%,76.470588%,78.039216%);fill-opacity:1;" d="M 9.871094 10.144531 L 13.796875 10.144531 L 13.796875 9.839844 L 9.871094 9.839844 Z M 9.871094 10.144531 "/>
<path style=" stroke:none;fill-rule:nonzero;fill:rgb(74.117647%,76.470588%,78.039216%);fill-opacity:1;" d="M 9.871094 11.21875 L 12.457031 11.21875 L 12.457031 10.917969 L 9.871094 10.917969 Z M 9.871094 11.21875 "/>
<path style=" stroke:none;fill-rule:nonzero;fill:rgb(74.117647%,76.470588%,78.039216%);fill-opacity:1;" d="M 9.871094 12.296875 L 13.054688 12.296875 L 13.054688 11.996094 L 9.871094 11.996094 Z M 9.871094 12.296875 "/>
<path style=" stroke:none;fill-rule:nonzero;fill:rgb(16.862745%,24.313725%,31.764706%);fill-opacity:1;" d="M 9.578125 13.222656 C 9.578125 13.464844 9.382812 13.664062 9.140625 13.664062 C 8.898438 13.664062 8.699219 13.464844 8.699219 13.222656 C 8.699219 12.980469 8.898438 12.785156 9.140625 12.785156 C 9.382812 12.785156 9.578125 12.980469 9.578125 13.222656 Z M 9.578125 13.222656 "/>
<path style=" stroke:none;fill-rule:nonzero;fill:rgb(74.117647%,76.470588%,78.039216%);fill-opacity:1;" d="M 9.871094 13.375 L 12.195312 13.375 L 12.195312 13.070312 L 9.871094 13.070312 Z M 9.871094 13.375 "/>
<path style=" stroke:none;fill-rule:nonzero;fill:rgb(95.686275%,80%,12.54902%);fill-opacity:1;" d="M 9.5625 9.960938 C 9.5625 10.203125 9.363281 10.402344 9.121094 10.402344 C 8.878906 10.402344 8.683594 10.203125 8.683594 9.960938 C 8.683594 9.71875 8.878906 9.523438 9.121094 9.523438 C 9.363281 9.523438 9.5625 9.71875 9.5625 9.960938 Z M 9.5625 9.960938 "/>
</g>
</svg>
