<?xml version="1.0" encoding="UTF-8"?>
<svg xmlns="http://www.w3.org/2000/svg" xmlns:xlink="http://www.w3.org/1999/xlink" width="17pt" height="17pt" viewBox="0 0 17 17" version="1.1">
<g id="surface1">
<path style=" stroke:none;fill-rule:evenodd;fill:rgb(85.098039%,34.901961%,31.764706%);fill-opacity:1;" d="M 3.96875 1.007812 L 13.03125 1.007812 C 14.664062 1.007812 15.992188 2.335938 15.992188 3.96875 L 15.992188 13.03125 C 15.992188 14.664062 14.664062 15.992188 13.03125 15.992188 L 3.96875 15.992188 C 2.335938 15.992188 1.007812 14.664062 1.007812 13.03125 L 1.007812 3.96875 C 1.007812 2.335938 2.335938 1.007812 3.96875 1.007812 Z M 3.96875 1.007812 "/>
<path style=" stroke:none;fill-rule:nonzero;fill:rgb(100%,100%,100%);fill-opacity:1;" d="M 3.253906 4.128906 L 3.253906 5.878906 L 5.394531 5.878906 C 5.59375 5.878906 5.878906 6.117188 5.878906 6.3125 L 5.878906 10.6875 C 5.878906 10.882812 5.59375 11.132812 5.394531 11.121094 L 3.253906 11.121094 L 3.253906 12.871094 L 7 12.871094 C 7.347656 12.871094 7.625 12.59375 7.625 12.246094 L 7.625 4.753906 C 7.625 4.40625 7.347656 4.128906 7 4.128906 Z M 3.253906 4.128906 "/>
<path style=" stroke:none;fill-rule:nonzero;fill:rgb(100%,100%,100%);fill-opacity:1;" d="M 13.746094 4.128906 L 13.746094 5.878906 L 11.605469 5.878906 C 11.40625 5.878906 11.121094 6.117188 11.121094 6.3125 L 11.121094 10.6875 C 11.121094 10.882812 11.40625 11.132812 11.605469 11.121094 L 13.746094 11.121094 L 13.746094 12.871094 L 10 12.871094 C 9.652344 12.871094 9.375 12.59375 9.375 12.246094 L 9.375 4.753906 C 9.375 4.40625 9.652344 4.128906 10 4.128906 Z M 13.746094 4.128906 "/>
</g>
</svg>
