<?xml version="1.0" encoding="UTF-8"?>
<svg xmlns="http://www.w3.org/2000/svg" xmlns:xlink="http://www.w3.org/1999/xlink" width="17pt" height="17pt" viewBox="0 0 17 17" version="1.1">
<g id="surface1">
<path style=" stroke:none;fill-rule:evenodd;fill:rgb(67.058824%,30.588235%,57.254902%);fill-opacity:1;" d="M 3.96875 1.007812 L 13.03125 1.007812 C 14.664062 1.007812 15.992188 2.335938 15.992188 3.96875 L 15.992188 13.03125 C 15.992188 14.664062 14.664062 15.992188 13.03125 15.992188 L 3.96875 15.992188 C 2.335938 15.992188 1.007812 14.664062 1.007812 13.03125 L 1.007812 3.96875 C 1.007812 2.335938 2.335938 1.007812 3.96875 1.007812 Z M 3.96875 1.007812 "/>
<path style=" stroke:none;fill-rule:nonzero;fill:rgb(100%,100%,100%);fill-opacity:1;" d="M 8.914062 11.625 C 8.886719 11.601562 8.710938 11.285156 8.324219 10.558594 C 8.023438 9.992188 7.773438 9.523438 7.769531 9.519531 C 7.765625 9.511719 7.460938 9.738281 7.09375 10.015625 C 6.382812 10.554688 6.386719 10.550781 6.339844 10.5 C 6.320312 10.480469 6.320312 10.355469 6.320312 7.957031 C 6.324219 5.554688 6.324219 5.433594 6.34375 5.40625 C 6.378906 5.359375 6.414062 5.339844 6.472656 5.339844 L 6.527344 5.339844 L 8.558594 6.804688 C 9.675781 7.609375 10.609375 8.285156 10.632812 8.304688 C 10.675781 8.335938 10.679688 8.34375 10.679688 8.386719 C 10.679688 8.414062 10.671875 8.441406 10.660156 8.453125 C 10.644531 8.472656 10.496094 8.511719 9.855469 8.667969 C 9.421875 8.773438 9.070312 8.859375 9.066406 8.859375 C 9.066406 8.863281 9.320312 9.335938 9.628906 9.910156 C 9.941406 10.488281 10.199219 10.976562 10.203125 11 C 10.210938 11.027344 10.210938 11.046875 10.199219 11.074219 C 10.1875 11.105469 10.152344 11.125 9.613281 11.386719 C 8.972656 11.695312 8.980469 11.691406 8.914062 11.625 Z M 8.914062 11.625 "/>
</g>
</svg>
