<?xml version="1.0" encoding="UTF-8"?>
<svg xmlns="http://www.w3.org/2000/svg" xmlns:xlink="http://www.w3.org/1999/xlink" width="17pt" height="17pt" viewBox="0 0 17 17" version="1.1">
<g id="surface1">
<path style=" stroke:none;fill-rule:evenodd;fill:rgb(62.745098%,46.666667%,31.764706%);fill-opacity:1;" d="M 3.96875 1.007812 L 13.03125 1.007812 C 14.664062 1.007812 15.992188 2.335938 15.992188 3.96875 L 15.992188 13.03125 C 15.992188 14.664062 14.664062 15.992188 13.03125 15.992188 L 3.96875 15.992188 C 2.335938 15.992188 1.007812 14.664062 1.007812 13.03125 L 1.007812 3.96875 C 1.007812 2.335938 2.335938 1.007812 3.96875 1.007812 Z M 3.96875 1.007812 "/>
<path style=" stroke:none;fill-rule:nonzero;fill:rgb(54.509804%,29.803922%,18.039216%);fill-opacity:1;" d="M 11.730469 12.714844 C 11.578125 12.980469 11.988281 12.875 12.125 12.785156 C 11.734375 13.316406 11.183594 13.730469 10.324219 13.917969 C 9.984375 13.988281 10.304688 14.246094 10.507812 14.445312 C 9.890625 14.316406 9.269531 14.058594 8.652344 13.757812 C 8.394531 13.679688 8.203125 13.664062 8.3125 13.898438 L 8.546875 14.261719 C 8.1875 14.144531 7.820312 14.246094 7.089844 12.964844 C 6.84375 12.652344 6.5625 12.75 6.671875 13.246094 C 6.601562 13.082031 6.003906 13.101562 6.148438 11.46875 C 6.160156 10.816406 5.457031 11.207031 5.570312 11.714844 C 5.382812 11.480469 5.171875 11.277344 5.625 10.011719 C 5.722656 9.496094 5.425781 9.507812 5.089844 10 C 5.015625 9.832031 5.023438 9.589844 5.164062 9.21875 C 4.582031 9.65625 3.835938 9.78125 3.566406 10.8125 C 3.484375 10.554688 3.453125 10.246094 3.609375 9.765625 C 4.109375 8.5625 4.832031 7.074219 5.402344 5.71875 C 5.871094 4.609375 5.933594 4.214844 6.078125 3.914062 C 6.285156 3.023438 7.011719 1.980469 8.140625 2.792969 L 9.0625 3.746094 C 9.242188 3.960938 9.691406 3.800781 9.542969 3.382812 C 9.714844 3.277344 9.90625 3.367188 10.121094 3.757812 C 10.367188 3.996094 10.949219 4.195312 10.839844 3.46875 C 11.09375 3.476562 11.257812 3.625 11.296875 3.960938 C 11.460938 4.449219 11.738281 4.320312 11.757812 4.015625 C 11.734375 3.679688 11.824219 3.425781 11.019531 2.570312 C 11.601562 2.710938 12.496094 3.414062 12.648438 4.859375 C 12.949219 5.273438 13.410156 5.398438 13.214844 6.691406 C 13.472656 6.800781 13.566406 7.078125 13.449219 7.570312 C 13.328125 7.792969 12.554688 8.273438 12.164062 7.933594 C 12.230469 7.585938 12.414062 7.253906 11.824219 6.808594 C 11.328125 6.96875 11.128906 6.496094 10.945312 5.996094 C 10.410156 5.949219 9.878906 5.859375 9.230469 6.519531 C 10.101562 6.34375 10.308594 6.507812 10.339844 6.679688 C 10.382812 6.898438 10.070312 7.148438 9.671875 6.9375 C 10.265625 7.347656 9.742188 7.78125 9.460938 7.898438 C 7.609375 8.683594 7.574219 10.296875 7.8125 10.796875 L 7.464844 10.222656 C 7.707031 13.886719 11.402344 13.695312 11.207031 11.722656 C 11.015625 10.507812 9.582031 10.996094 9.644531 11.691406 C 9.671875 12.328125 10.488281 12.320312 10.585938 11.617188 C 11.414062 13.035156 8.679688 13.214844 9.039062 11.296875 C 9.722656 9.195312 12.839844 10.566406 11.730469 12.714844 Z M 11.730469 12.714844 "/>
<path style=" stroke:none;fill-rule:nonzero;fill:rgb(98.823529%,67.45098%,32.54902%);fill-opacity:1;" d="M 10.648438 2.351562 L 10.929688 2.652344 C 11.328125 3.074219 11.496094 3.339844 11.570312 3.53125 C 11.640625 3.714844 11.625 3.839844 11.636719 4.011719 C 11.632812 4.066406 11.617188 4.109375 11.601562 4.136719 C 11.582031 4.160156 11.574219 4.164062 11.570312 4.164062 C 11.566406 4.164062 11.554688 4.167969 11.523438 4.132812 C 11.492188 4.101562 11.453125 4.03125 11.414062 3.921875 L 11.417969 3.945312 C 11.398438 3.761719 11.339844 3.613281 11.238281 3.507812 C 11.132812 3.402344 10.992188 3.351562 10.839844 3.347656 L 10.695312 3.34375 L 10.71875 3.488281 C 10.742188 3.65625 10.722656 3.753906 10.699219 3.796875 C 10.675781 3.839844 10.65625 3.851562 10.605469 3.851562 C 10.507812 3.859375 10.3125 3.769531 10.210938 3.675781 C 10.105469 3.484375 10 3.351562 9.878906 3.277344 C 9.75 3.203125 9.59375 3.207031 9.480469 3.28125 L 9.394531 3.332031 L 9.425781 3.425781 C 9.488281 3.59375 9.433594 3.65625 9.367188 3.695312 C 9.296875 3.734375 9.203125 3.726562 9.152344 3.667969 L 9.152344 3.664062 L 8.21875 2.703125 L 8.210938 2.695312 C 7.914062 2.480469 7.632812 2.382812 7.371094 2.378906 C 7.113281 2.375 6.878906 2.46875 6.6875 2.617188 C 6.308594 2.910156 6.074219 3.410156 5.964844 3.875 C 5.808594 4.199219 5.75 4.582031 5.289062 5.671875 C 4.722656 7.023438 4 8.511719 3.5 9.71875 L 3.496094 9.722656 L 3.496094 9.726562 C 3.332031 10.226562 3.363281 10.574219 3.453125 10.851562 L 3.578125 11.253906 L 3.6875 10.84375 C 3.8125 10.351562 4.042969 10.09375 4.320312 9.890625 C 4.515625 9.746094 4.734375 9.628906 4.957031 9.496094 C 4.90625 9.71875 4.914062 9.902344 4.976562 10.046875 L 5.0625 10.253906 L 5.1875 10.070312 C 5.269531 9.953125 5.34375 9.867188 5.40625 9.816406 C 5.464844 9.769531 5.503906 9.757812 5.511719 9.753906 C 5.511719 9.757812 5.511719 9.753906 5.511719 9.757812 C 5.519531 9.789062 5.527344 9.867188 5.503906 9.984375 C 5.28125 10.617188 5.214844 10.992188 5.234375 11.257812 C 5.257812 11.527344 5.382812 11.675781 5.476562 11.789062 L 5.6875 11.6875 C 5.644531 11.492188 5.769531 11.320312 5.875 11.265625 C 5.929688 11.242188 5.957031 11.246094 5.976562 11.257812 C 5.992188 11.273438 6.03125 11.324219 6.027344 11.464844 L 6.027344 11.457031 C 5.953125 12.289062 6.066406 12.722656 6.226562 12.972656 C 6.308594 13.097656 6.398438 13.175781 6.46875 13.226562 C 6.539062 13.277344 6.570312 13.308594 6.5625 13.292969 L 6.792969 13.21875 C 6.765625 13.105469 6.765625 13.023438 6.777344 12.972656 C 6.785156 12.921875 6.800781 12.910156 6.804688 12.910156 C 6.808594 12.90625 6.820312 12.902344 6.855469 12.917969 C 6.890625 12.933594 6.941406 12.972656 6.992188 13.039062 C 7.359375 13.679688 7.640625 13.988281 7.890625 14.152344 C 8.144531 14.316406 8.351562 14.328125 8.507812 14.378906 L 8.835938 14.484375 L 8.421875 13.839844 C 8.417969 13.839844 8.421875 13.839844 8.417969 13.839844 C 8.457031 13.839844 8.515625 13.847656 8.617188 13.875 C 9.230469 14.171875 9.851562 14.433594 10.480469 14.5625 L 10.882812 14.648438 L 10.59375 14.355469 C 10.488281 14.253906 10.359375 14.136719 10.316406 14.066406 C 10.308594 14.058594 10.308594 14.058594 10.308594 14.050781 C 10.316406 14.046875 10.324219 14.042969 10.347656 14.039062 L 10.351562 14.039062 C 11.234375 13.84375 11.820312 13.410156 12.222656 12.855469 L 12.054688 12.683594 C 12.019531 12.707031 11.914062 12.742188 11.84375 12.753906 C 12.125 12.199219 12.144531 11.675781 11.988281 11.25 C 11.828125 10.820312 11.5 10.488281 11.109375 10.304688 C 10.722656 10.117188 10.269531 10.070312 9.863281 10.214844 C 9.457031 10.363281 9.105469 10.703125 8.925781 11.257812 L 8.921875 11.265625 L 8.921875 11.273438 C 8.824219 11.78125 8.933594 12.171875 9.152344 12.433594 C 9.371094 12.695312 9.6875 12.820312 9.984375 12.828125 C 10.285156 12.839844 10.578125 12.734375 10.742188 12.503906 C 10.90625 12.277344 10.914062 11.933594 10.691406 11.554688 L 10.511719 11.246094 L 10.464844 11.597656 C 10.421875 11.90625 10.242188 12.027344 10.082031 12.035156 C 9.925781 12.042969 9.777344 11.953125 9.769531 11.6875 L 9.765625 11.683594 L 9.765625 11.679688 C 9.753906 11.550781 9.8125 11.425781 9.921875 11.320312 C 10.027344 11.214844 10.1875 11.136719 10.347656 11.109375 C 10.511719 11.085938 10.671875 11.113281 10.800781 11.207031 C 10.933594 11.296875 11.039062 11.460938 11.082031 11.738281 C 11.128906 12.191406 10.957031 12.523438 10.664062 12.738281 C 10.375 12.953125 9.957031 13.042969 9.519531 12.964844 C 8.75 12.828125 7.921875 12.175781 7.660156 10.78125 L 7.710938 10.859375 L 7.921875 10.746094 C 7.828125 10.542969 7.769531 10.03125 7.96875 9.496094 C 8.167969 8.960938 8.609375 8.390625 9.507812 8.011719 C 9.671875 7.941406 9.886719 7.800781 10.003906 7.585938 C 10.058594 7.476562 10.085938 7.34375 10.046875 7.207031 C 10.039062 7.183594 10.015625 7.160156 10.003906 7.132812 C 10.085938 7.128906 10.164062 7.109375 10.226562 7.078125 C 10.386719 6.992188 10.492188 6.828125 10.460938 6.65625 C 10.4375 6.53125 10.324219 6.398438 10.128906 6.351562 C 10.007812 6.320312 9.835938 6.324219 9.636719 6.339844 C 9.816406 6.214844 9.988281 6.144531 10.152344 6.113281 C 10.386719 6.066406 10.617188 6.089844 10.859375 6.113281 C 10.945312 6.339844 11.035156 6.5625 11.175781 6.726562 C 11.316406 6.894531 11.535156 6.988281 11.785156 6.9375 C 12.03125 7.132812 12.105469 7.28125 12.117188 7.421875 C 12.136719 7.566406 12.082031 7.722656 12.046875 7.910156 L 12.035156 7.980469 L 12.085938 8.027344 C 12.210938 8.132812 12.363281 8.175781 12.515625 8.171875 C 12.664062 8.171875 12.816406 8.132812 12.953125 8.074219 C 13.09375 8.019531 13.222656 7.945312 13.324219 7.867188 C 13.429688 7.789062 13.507812 7.714844 13.558594 7.628906 L 13.566406 7.613281 L 13.570312 7.597656 C 13.628906 7.339844 13.640625 7.128906 13.589844 6.953125 C 13.550781 6.8125 13.460938 6.699219 13.34375 6.625 C 13.425781 6.019531 13.363281 5.648438 13.226562 5.386719 C 13.085938 5.125 12.898438 4.984375 12.761719 4.808594 C 12.59375 3.34375 11.6875 2.605469 11.050781 2.453125 Z M 7.371094 2.621094 C 7.566406 2.625 7.796875 2.699219 8.0625 2.890625 L 8.972656 3.832031 L 8.96875 3.828125 C 9.101562 3.984375 9.320312 4 9.484375 3.910156 C 9.621094 3.832031 9.707031 3.660156 9.679688 3.460938 C 9.699219 3.460938 9.722656 3.46875 9.753906 3.488281 C 9.816406 3.527344 9.910156 3.628906 10.015625 3.816406 L 10.023438 3.832031 L 10.035156 3.847656 C 10.183594 3.984375 10.398438 4.113281 10.621094 4.097656 C 10.734375 4.089844 10.855469 4.027344 10.917969 3.910156 C 10.957031 3.832031 10.96875 3.730469 10.96875 3.613281 C 11.003906 3.628906 11.035156 3.648438 11.0625 3.675781 C 11.113281 3.734375 11.160156 3.828125 11.175781 3.976562 L 11.183594 4 C 11.226562 4.132812 11.28125 4.230469 11.347656 4.300781 C 11.414062 4.371094 11.503906 4.414062 11.59375 4.40625 C 11.683594 4.398438 11.757812 4.339844 11.804688 4.269531 C 11.851562 4.203125 11.875 4.117188 11.882812 4.023438 L 11.882812 4.015625 L 11.878906 4.007812 C 11.871094 3.851562 11.886719 3.679688 11.796875 3.445312 C 11.742188 3.300781 11.644531 3.132812 11.488281 2.929688 C 11.941406 3.246094 12.421875 3.863281 12.527344 4.875 L 12.53125 4.90625 L 12.550781 4.933594 C 12.714844 5.160156 12.894531 5.285156 13.007812 5.503906 C 13.125 5.71875 13.191406 6.039062 13.09375 6.675781 L 13.082031 6.769531 L 13.167969 6.804688 C 13.265625 6.847656 13.324219 6.90625 13.355469 7.019531 C 13.386719 7.128906 13.382812 7.296875 13.335938 7.519531 C 13.316406 7.546875 13.261719 7.609375 13.179688 7.671875 C 13.09375 7.734375 12.980469 7.800781 12.863281 7.851562 C 12.742188 7.898438 12.621094 7.929688 12.511719 7.929688 C 12.433594 7.929688 12.363281 7.910156 12.304688 7.875 C 12.335938 7.734375 12.382812 7.578125 12.363281 7.394531 C 12.339844 7.175781 12.207031 6.945312 11.898438 6.710938 L 11.847656 6.675781 L 11.785156 6.695312 C 11.578125 6.761719 11.476562 6.707031 11.363281 6.570312 C 11.25 6.433594 11.152344 6.203125 11.058594 5.953125 L 11.03125 5.882812 L 10.957031 5.875 C 10.691406 5.851562 10.410156 5.816406 10.105469 5.875 C 9.804688 5.933594 9.480469 6.089844 9.144531 6.433594 L 8.867188 6.71875 L 9.257812 6.640625 C 9.679688 6.554688 9.9375 6.554688 10.070312 6.585938 C 10.203125 6.621094 10.210938 6.65625 10.222656 6.703125 C 10.230469 6.746094 10.199219 6.816406 10.113281 6.859375 C 10.03125 6.90625 9.898438 6.917969 9.726562 6.832031 L 9.601562 7.039062 C 9.734375 7.128906 9.792969 7.214844 9.8125 7.28125 C 9.832031 7.34375 9.820312 7.402344 9.785156 7.46875 C 9.714844 7.601562 9.53125 7.738281 9.410156 7.785156 C 8.460938 8.191406 7.960938 8.820312 7.738281 9.410156 C 7.636719 9.691406 7.59375 9.957031 7.589844 10.191406 L 7.570312 10.160156 L 7.34375 10.230469 C 7.46875 12.101562 8.492188 13.03125 9.480469 13.207031 C 9.972656 13.292969 10.457031 13.195312 10.808594 12.933594 C 11.164062 12.671875 11.378906 12.242188 11.328125 11.710938 L 11.328125 11.707031 L 11.324219 11.703125 C 11.273438 11.375 11.132812 11.140625 10.945312 11.007812 C 10.753906 10.871094 10.523438 10.835938 10.3125 10.871094 C 10.097656 10.902344 9.898438 11 9.75 11.144531 C 9.601562 11.289062 9.503906 11.484375 9.523438 11.699219 C 9.539062 12.066406 9.8125 12.289062 10.09375 12.277344 C 10.289062 12.269531 10.476562 12.148438 10.59375 11.945312 C 10.644531 12.128906 10.613281 12.261719 10.542969 12.363281 C 10.441406 12.507812 10.226562 12.59375 9.992188 12.585938 C 9.757812 12.578125 9.507812 12.476562 9.339844 12.277344 C 9.171875 12.078125 9.078125 11.777344 9.160156 11.328125 C 9.320312 10.835938 9.613281 10.566406 9.945312 10.445312 C 10.28125 10.324219 10.667969 10.363281 11.003906 10.523438 C 11.339844 10.683594 11.625 10.96875 11.757812 11.335938 C 11.894531 11.699219 11.882812 12.148438 11.621094 12.660156 L 11.621094 12.65625 C 11.597656 12.699219 11.582031 12.738281 11.574219 12.78125 C 11.570312 12.828125 11.578125 12.882812 11.609375 12.925781 C 11.65625 12.988281 11.71875 13 11.773438 13.003906 C 11.425781 13.371094 10.964844 13.652344 10.300781 13.800781 C 10.195312 13.820312 10.105469 13.863281 10.066406 13.957031 C 10.03125 14.050781 10.070312 14.136719 10.109375 14.199219 C 10.117188 14.207031 10.125 14.214844 10.128906 14.222656 C 9.660156 14.082031 9.183594 13.878906 8.707031 13.648438 L 8.699219 13.644531 L 8.6875 13.640625 C 8.554688 13.601562 8.441406 13.566406 8.316406 13.59375 C 8.257812 13.605469 8.179688 13.664062 8.164062 13.738281 C 8.148438 13.816406 8.167969 13.878906 8.199219 13.949219 L 8.203125 13.957031 L 8.269531 14.0625 C 8.191406 14.039062 8.113281 14.007812 8.023438 13.949219 C 7.820312 13.816406 7.558594 13.539062 7.195312 12.90625 L 7.1875 12.890625 C 7.117188 12.800781 7.039062 12.734375 6.957031 12.695312 C 6.871094 12.65625 6.773438 12.648438 6.6875 12.695312 C 6.605469 12.738281 6.554688 12.828125 6.539062 12.925781 C 6.535156 12.9375 6.535156 12.949219 6.535156 12.964844 C 6.5 12.929688 6.46875 12.894531 6.433594 12.839844 C 6.3125 12.652344 6.199219 12.28125 6.269531 11.476562 L 6.269531 11.46875 C 6.273438 11.285156 6.226562 11.144531 6.121094 11.0625 C 6.015625 10.984375 5.875 10.996094 5.769531 11.046875 C 5.65625 11.105469 5.554688 11.207031 5.496094 11.339844 C 5.488281 11.308594 5.484375 11.277344 5.480469 11.238281 C 5.460938 11.03125 5.515625 10.679688 5.738281 10.050781 L 5.742188 10.042969 L 5.742188 10.035156 C 5.769531 9.894531 5.773438 9.785156 5.746094 9.6875 C 5.730469 9.640625 5.707031 9.59375 5.664062 9.558594 C 5.625 9.523438 5.570312 9.507812 5.519531 9.507812 C 5.417969 9.507812 5.335938 9.558594 5.25 9.628906 C 5.222656 9.652344 5.195312 9.683594 5.167969 9.710938 C 5.175781 9.59375 5.207031 9.449219 5.277344 9.261719 L 5.425781 8.871094 L 5.089844 9.121094 C 4.816406 9.328125 4.484375 9.46875 4.175781 9.695312 C 3.964844 9.847656 3.769531 10.054688 3.621094 10.34375 C 3.628906 10.191406 3.65625 10.023438 3.726562 9.804688 C 4.222656 8.609375 4.945312 7.125 5.515625 5.765625 C 5.984375 4.652344 6.054688 4.242188 6.1875 3.96875 L 6.195312 3.953125 L 6.199219 3.941406 C 6.296875 3.515625 6.523438 3.054688 6.839844 2.808594 C 6.996094 2.6875 7.167969 2.621094 7.371094 2.621094 Z M 7.371094 2.621094 "/>
<path style=" stroke:none;fill-rule:nonzero;fill:rgb(98.823529%,67.45098%,32.54902%);fill-opacity:1;" d="M 5.753906 4.382812 C 5.46875 4.367188 5.09375 4.546875 5.449219 4.945312 C 5.476562 4.992188 5.625 5.089844 5.640625 5.296875 C 5.679688 5.949219 5.785156 7.347656 5.730469 7.949219 C 5.714844 8.121094 5.542969 8.378906 5.507812 8.386719 C 5.304688 8.703125 5.636719 8.738281 5.914062 8.75 L 7.929688 8.765625 C 8.089844 8.757812 8.21875 8.710938 8.28125 8.503906 L 8.449219 8.007812 L 8.417969 10.714844 C 8.417969 10.832031 8.402344 11.007812 8.304688 11.085938 C 7.996094 11.511719 8.394531 11.691406 8.59375 11.675781 L 10.925781 11.601562 C 12.386719 11.222656 10.832031 9.039062 9.886719 10.101562 C 10.1875 10.382812 10.714844 11.039062 10.050781 11.011719 C 9.730469 10.9375 9.546875 10.546875 9.535156 10.0625 C 9.507812 9.117188 9.5 7.898438 9.554688 7.925781 C 10.300781 7.308594 9.695312 7.121094 9.523438 7.125 L 8.230469 7.125 C 8.078125 7.898438 7.496094 8.261719 7.296875 8.226562 C 6.855469 8.289062 6.796875 8.039062 6.792969 7.875 C 6.792969 7.527344 6.789062 7.164062 6.851562 6.78125 C 6.945312 6.171875 7.558594 6.238281 7.4375 6.855469 C 8.695312 7.046875 7.984375 4.414062 6.824219 5.9375 L 6.859375 5.28125 C 7 4.765625 7.8125 4.921875 8.195312 5.476562 C 8.296875 5.554688 8.449219 5.558594 8.476562 5.28125 L 8.390625 4.585938 C 8.355469 4.417969 8.25 4.410156 8.101562 4.414062 Z M 5.753906 4.382812 "/>
<path style=" stroke:none;fill-rule:nonzero;fill:rgb(54.509804%,29.803922%,18.039216%);fill-opacity:1;" d="M 5.761719 4.261719 C 5.589844 4.253906 5.398438 4.289062 5.269531 4.425781 C 5.207031 4.496094 5.171875 4.597656 5.1875 4.703125 C 5.199219 4.804688 5.257812 4.902344 5.34375 5.007812 C 5.367188 5.042969 5.382812 5.054688 5.402344 5.074219 C 5.417969 5.09375 5.4375 5.113281 5.453125 5.132812 C 5.484375 5.175781 5.511719 5.226562 5.515625 5.304688 C 5.558594 5.957031 5.660156 7.367188 5.605469 7.9375 C 5.601562 7.992188 5.5625 8.09375 5.519531 8.171875 C 5.496094 8.210938 5.476562 8.246094 5.457031 8.265625 C 5.453125 8.269531 5.453125 8.273438 5.453125 8.277344 L 5.433594 8.28125 L 5.40625 8.320312 C 5.347656 8.414062 5.3125 8.503906 5.328125 8.59375 C 5.339844 8.683594 5.40625 8.753906 5.472656 8.789062 C 5.609375 8.863281 5.765625 8.867188 5.910156 8.875 L 5.914062 8.875 L 7.929688 8.886719 L 7.933594 8.886719 C 8.023438 8.882812 8.121094 8.867188 8.207031 8.8125 C 8.25 8.789062 8.285156 8.75 8.316406 8.707031 L 8.292969 10.71875 C 8.296875 10.769531 8.292969 10.832031 8.28125 10.886719 C 8.265625 10.941406 8.246094 10.976562 8.226562 10.992188 L 8.214844 11 L 8.203125 11.015625 C 8.117188 11.132812 8.074219 11.246094 8.070312 11.355469 C 8.066406 11.464844 8.105469 11.558594 8.167969 11.628906 C 8.289062 11.761719 8.460938 11.808594 8.601562 11.796875 L 8.597656 11.796875 L 10.945312 11.722656 L 10.957031 11.71875 C 11.355469 11.613281 11.578125 11.363281 11.632812 11.078125 C 11.6875 10.792969 11.585938 10.492188 11.410156 10.242188 C 11.234375 9.988281 10.976562 9.785156 10.683594 9.714844 C 10.390625 9.644531 10.058594 9.726562 9.796875 10.019531 L 9.71875 10.109375 L 9.804688 10.191406 C 9.945312 10.324219 10.144531 10.558594 10.21875 10.722656 C 10.253906 10.804688 10.25 10.847656 10.242188 10.855469 C 10.238281 10.863281 10.199219 10.890625 10.070312 10.886719 C 9.953125 10.859375 9.859375 10.773438 9.785156 10.632812 C 9.707031 10.488281 9.660156 10.289062 9.65625 10.0625 C 9.644531 9.585938 9.636719 9.046875 9.636719 8.628906 C 9.636719 8.421875 9.640625 8.242188 9.648438 8.121094 C 9.648438 8.066406 9.652344 8.023438 9.65625 8 C 9.835938 7.847656 9.945312 7.714844 10 7.589844 C 10.058594 7.457031 10.046875 7.320312 9.984375 7.226562 C 9.925781 7.132812 9.835938 7.082031 9.75 7.046875 C 9.664062 7.015625 9.589844 7 9.523438 7.003906 L 8.128906 7.003906 L 8.109375 7.101562 C 8.039062 7.464844 7.867188 7.726562 7.695312 7.890625 C 7.609375 7.976562 7.523438 8.035156 7.453125 8.070312 C 7.378906 8.105469 7.320312 8.109375 7.320312 8.105469 L 7.28125 8.105469 C 7.082031 8.132812 7.007812 8.09375 6.96875 8.050781 C 6.933594 8.011719 6.917969 7.941406 6.914062 7.871094 C 6.914062 7.523438 6.910156 7.167969 6.972656 6.800781 C 7.011719 6.535156 7.144531 6.472656 7.210938 6.480469 C 7.242188 6.484375 7.273438 6.5 7.300781 6.554688 C 7.328125 6.605469 7.34375 6.699219 7.316406 6.832031 L 7.292969 6.957031 L 7.417969 6.976562 C 7.773438 7.03125 8.035156 6.867188 8.144531 6.632812 C 8.257812 6.394531 8.246094 6.105469 8.152344 5.855469 C 8.058594 5.605469 7.871094 5.382812 7.605469 5.34375 C 7.40625 5.316406 7.1875 5.394531 6.964844 5.601562 L 6.980469 5.308594 C 7.007812 5.214844 7.054688 5.160156 7.128906 5.125 C 7.199219 5.089844 7.300781 5.078125 7.417969 5.097656 C 7.648438 5.136719 7.925781 5.296875 8.097656 5.542969 L 8.105469 5.558594 L 8.121094 5.570312 C 8.195312 5.628906 8.300781 5.671875 8.414062 5.625 C 8.523438 5.578125 8.582031 5.453125 8.597656 5.292969 L 8.597656 5.28125 L 8.511719 4.566406 L 8.507812 4.5625 C 8.488281 4.453125 8.421875 4.363281 8.339844 4.324219 C 8.253906 4.289062 8.175781 4.292969 8.101562 4.292969 Z M 5.75 4.503906 L 5.753906 4.503906 L 8.101562 4.539062 C 8.175781 4.535156 8.222656 4.542969 8.238281 4.546875 C 8.253906 4.554688 8.257812 4.550781 8.269531 4.609375 L 8.351562 5.28125 C 8.339844 5.386719 8.3125 5.402344 8.316406 5.398438 C 8.320312 5.398438 8.300781 5.398438 8.277344 5.382812 C 8.066406 5.089844 7.753906 4.90625 7.457031 4.855469 C 7.304688 4.832031 7.152344 4.84375 7.019531 4.90625 C 6.890625 4.96875 6.785156 5.089844 6.742188 5.25 L 6.738281 5.261719 L 6.683594 6.324219 L 6.921875 6.011719 C 7.199219 5.648438 7.417969 5.566406 7.570312 5.585938 C 7.71875 5.605469 7.851562 5.746094 7.921875 5.941406 C 7.996094 6.132812 7.996094 6.371094 7.925781 6.527344 C 7.863281 6.660156 7.761719 6.742188 7.566406 6.738281 C 7.570312 6.628906 7.558594 6.523438 7.519531 6.445312 C 7.460938 6.328125 7.355469 6.25 7.238281 6.238281 C 7.003906 6.210938 6.785156 6.417969 6.730469 6.761719 C 6.667969 7.15625 6.671875 7.527344 6.671875 7.875 C 6.671875 7.972656 6.691406 8.109375 6.792969 8.21875 C 6.894531 8.328125 7.070312 8.382812 7.3125 8.347656 L 7.273438 8.347656 C 7.371094 8.363281 7.460938 8.335938 7.558594 8.289062 C 7.65625 8.242188 7.761719 8.167969 7.867188 8.066406 C 8.054688 7.882812 8.230469 7.609375 8.320312 7.246094 L 9.527344 7.246094 C 9.542969 7.246094 9.605469 7.253906 9.660156 7.277344 C 9.714844 7.296875 9.761719 7.328125 9.78125 7.359375 C 9.800781 7.390625 9.808594 7.417969 9.777344 7.492188 C 9.742188 7.570312 9.65625 7.6875 9.476562 7.832031 L 9.480469 7.832031 C 9.476562 7.835938 9.472656 7.835938 9.46875 7.835938 C 9.441406 7.859375 9.4375 7.878906 9.433594 7.890625 C 9.421875 7.914062 9.421875 7.933594 9.417969 7.953125 C 9.410156 7.992188 9.40625 8.042969 9.402344 8.109375 C 9.394531 8.238281 9.394531 8.417969 9.390625 8.628906 C 9.390625 9.050781 9.398438 9.59375 9.410156 10.066406 C 9.417969 10.324219 9.46875 10.558594 9.566406 10.746094 C 9.667969 10.9375 9.820312 11.082031 10.019531 11.128906 L 10.03125 11.132812 L 10.042969 11.132812 C 10.230469 11.140625 10.375 11.101562 10.449219 10.984375 C 10.523438 10.871094 10.492188 10.738281 10.441406 10.625 C 10.359375 10.433594 10.203125 10.253906 10.0625 10.109375 C 10.246094 9.945312 10.4375 9.90625 10.625 9.953125 C 10.84375 10.003906 11.0625 10.171875 11.210938 10.382812 C 11.355469 10.589844 11.429688 10.839844 11.394531 11.035156 C 11.355469 11.230469 11.230469 11.390625 10.90625 11.480469 L 8.585938 11.554688 L 8.582031 11.554688 C 8.527344 11.558594 8.398438 11.523438 8.351562 11.464844 C 8.324219 11.4375 8.3125 11.410156 8.3125 11.363281 C 8.316406 11.320312 8.335938 11.25 8.402344 11.15625 L 8.378906 11.179688 C 8.460938 11.117188 8.496094 11.027344 8.515625 10.941406 C 8.535156 10.859375 8.539062 10.777344 8.539062 10.714844 L 8.539062 10.71875 L 8.570312 8.007812 L 8.332031 7.96875 L 8.164062 8.46875 C 8.140625 8.554688 8.109375 8.585938 8.078125 8.605469 C 8.042969 8.628906 7.996094 8.640625 7.925781 8.640625 L 5.921875 8.628906 C 5.785156 8.621094 5.640625 8.601562 5.589844 8.574219 C 5.566406 8.5625 5.570312 8.5625 5.570312 8.558594 C 5.566406 8.554688 5.578125 8.515625 5.605469 8.472656 C 5.609375 8.46875 5.613281 8.464844 5.613281 8.460938 C 5.628906 8.445312 5.640625 8.429688 5.652344 8.414062 C 5.679688 8.378906 5.707031 8.339844 5.734375 8.289062 C 5.785156 8.195312 5.839844 8.082031 5.851562 7.960938 C 5.910156 7.324219 5.800781 5.9375 5.761719 5.292969 C 5.753906 5.160156 5.699219 5.054688 5.648438 4.988281 C 5.621094 4.953125 5.597656 4.925781 5.578125 4.90625 C 5.558594 4.886719 5.546875 4.871094 5.554688 4.882812 L 5.550781 4.875 L 5.542969 4.863281 C 5.460938 4.773438 5.433594 4.707031 5.425781 4.667969 C 5.421875 4.628906 5.429688 4.613281 5.449219 4.589844 C 5.496094 4.542969 5.632812 4.5 5.75 4.503906 Z M 5.75 4.503906 "/>
<path style=" stroke:none;fill-rule:nonzero;fill:rgb(98.823529%,67.45098%,32.54902%);fill-opacity:1;" d="M 9.675781 10.300781 C 9.464844 10.398438 9.339844 10.542969 9.203125 10.730469 C 9.066406 10.914062 8.96875 11.109375 8.921875 11.261719 L 8.921875 11.273438 C 8.824219 11.78125 8.933594 12.171875 9.152344 12.433594 C 9.371094 12.695312 9.6875 12.820312 9.984375 12.828125 C 10.285156 12.839844 10.578125 12.734375 10.742188 12.503906 C 10.90625 12.277344 10.914062 11.933594 10.691406 11.554688 L 10.511719 11.246094 L 10.464844 11.597656 C 10.421875 11.90625 10.242188 12.027344 10.082031 12.035156 C 9.925781 12.042969 9.777344 11.953125 9.769531 11.6875 L 9.765625 11.683594 L 9.765625 11.679688 C 9.761719 11.613281 9.769531 11.574219 9.789062 11.542969 C 9.804688 11.515625 9.828125 11.492188 9.875 11.46875 C 9.964844 11.425781 10.128906 11.394531 10.3125 11.363281 L 10.273438 11.125 C 10.089844 11.152344 9.914062 11.175781 9.761719 11.253906 C 9.6875 11.289062 9.621094 11.347656 9.574219 11.425781 C 9.53125 11.5 9.515625 11.597656 9.523438 11.699219 C 9.539062 12.066406 9.8125 12.289062 10.09375 12.277344 C 10.289062 12.269531 10.476562 12.148438 10.59375 11.945312 C 10.644531 12.128906 10.613281 12.261719 10.542969 12.363281 C 10.441406 12.507812 10.226562 12.59375 9.992188 12.585938 C 9.757812 12.578125 9.507812 12.476562 9.339844 12.277344 C 9.171875 12.078125 9.078125 11.773438 9.160156 11.328125 C 9.191406 11.214844 9.285156 11.039062 9.402344 10.875 C 9.496094 10.742188 9.46875 10.753906 9.75 10.535156 Z M 9.675781 10.300781 "/>
<path style=" stroke:none;fill-rule:nonzero;fill:rgb(54.509804%,29.803922%,18.039216%);fill-opacity:1;" d="M 9.128906 11.558594 C 9.164062 11.226562 9.308594 10.921875 9.542969 10.699219 L 9.882812 11.046875 C 9.730469 11.097656 9.605469 11.269531 9.527344 11.554688 Z M 9.128906 11.558594 "/>
</g>
</svg>
