<?xml version="1.0" encoding="UTF-8"?>
<svg xmlns="http://www.w3.org/2000/svg" xmlns:xlink="http://www.w3.org/1999/xlink" width="17pt" height="17pt" viewBox="0 0 17 17" version="1.1">
<defs>
<clipPath id="clip1">
  <rect width="17" height="17"/>
</clipPath>
<g id="surface6" clip-path="url(#clip1)">
<path style=" stroke:none;fill-rule:nonzero;fill:rgb(100%,100%,100%);fill-opacity:1;" d="M 5.65625 3.71875 L 3.71875 12.316406 L 5.292969 12.316406 L 6.207031 8.46875 L 10.507812 8.46875 L 6.480469 12.074219 L 7.53125 13.28125 L 8.070312 13.003906 C 9.085938 12.480469 9.511719 12.789062 10.28125 13 C 11.03125 13.210938 11.738281 13.433594 13.203125 12.589844 L 12.910156 11.101562 C 11.3125 12.234375 10.808594 11.222656 9.671875 11.183594 L 12.929688 8.425781 L 13.28125 6.957031 L 6.460938 6.957031 L 6.898438 5.191406 L 11.371094 5.191406 L 11.675781 3.71875 Z M 5.65625 3.71875 "/>
</g>
</defs>
<g id="surface1">
<path style=" stroke:none;fill-rule:evenodd;fill:rgb(85.098039%,34.901961%,31.764706%);fill-opacity:1;" d="M 3.96875 1.007812 L 13.03125 1.007812 C 14.664062 1.007812 15.992188 2.335938 15.992188 3.96875 L 15.992188 13.03125 C 15.992188 14.664062 14.664062 15.992188 13.03125 15.992188 L 3.96875 15.992188 C 2.335938 15.992188 1.007812 14.664062 1.007812 13.03125 L 1.007812 3.96875 C 1.007812 2.335938 2.335938 1.007812 3.96875 1.007812 Z M 3.96875 1.007812 "/>
<use xlink:href="#surface6"/>
</g>
</svg>
