<?xml version="1.0" encoding="UTF-8"?>
<svg xmlns="http://www.w3.org/2000/svg" xmlns:xlink="http://www.w3.org/1999/xlink" width="17pt" height="17pt" viewBox="0 0 17 17" version="1.1">
<g id="surface1">
<path style=" stroke:none;fill-rule:evenodd;fill:rgb(80%,80%,80%);fill-opacity:1;" d="M 3.96875 1.007812 L 13.03125 1.007812 C 14.664062 1.007812 15.992188 2.335938 15.992188 3.96875 L 15.992188 13.03125 C 15.992188 14.664062 14.664062 15.992188 13.03125 15.992188 L 3.96875 15.992188 C 2.335938 15.992188 1.007812 14.664062 1.007812 13.03125 L 1.007812 3.96875 C 1.007812 2.335938 2.335938 1.007812 3.96875 1.007812 Z M 3.96875 1.007812 "/>
<path style=" stroke:none;fill-rule:nonzero;fill:rgb(24.705882%,24.705882%,24.705882%);fill-opacity:1;" d="M 13.8125 8.5 C 13.8125 11.433594 11.433594 13.8125 8.5 13.8125 C 5.566406 13.8125 3.1875 11.433594 3.1875 8.5 C 3.1875 5.566406 5.566406 3.1875 8.5 3.1875 C 11.433594 3.1875 13.8125 5.566406 13.8125 8.5 Z M 13.8125 8.5 "/>
<path style=" stroke:none;fill-rule:nonzero;fill:rgb(100%,100%,100%);fill-opacity:1;" d="M 6.375 5.3125 L 6.375 11.6875 L 7.96875 11.6875 L 7.96875 9.5625 L 9.5625 9.5625 L 9.5625 7.96875 L 7.96875 7.96875 L 7.96875 6.90625 L 10.625 6.90625 L 10.625 5.3125 Z M 6.375 5.3125 "/>
</g>
</svg>
