<?xml version="1.0" encoding="UTF-8"?>
<svg xmlns="http://www.w3.org/2000/svg" xmlns:xlink="http://www.w3.org/1999/xlink" width="17pt" height="17pt" viewBox="0 0 17 17" version="1.1">
<g id="surface1">
<path style=" stroke:none;fill-rule:evenodd;fill:rgb(49.411765%,6.27451%,5.490196%);fill-opacity:1;" d="M 3.96875 1.007812 L 13.03125 1.007812 C 14.664062 1.007812 15.992188 2.335938 15.992188 3.96875 L 15.992188 13.03125 C 15.992188 14.664062 14.664062 15.992188 13.03125 15.992188 L 3.96875 15.992188 C 2.335938 15.992188 1.007812 14.664062 1.007812 13.03125 L 1.007812 3.96875 C 1.007812 2.335938 2.335938 1.007812 3.96875 1.007812 Z M 3.96875 1.007812 "/>
<path style=" stroke:none;fill-rule:nonzero;fill:rgb(76.078431%,20.784314%,16.470588%);fill-opacity:1;" d="M 8.796875 14.136719 L 14.136719 8.796875 C 14.300781 8.632812 14.300781 8.367188 14.136719 8.203125 L 8.796875 2.863281 C 8.632812 2.699219 8.367188 2.699219 8.203125 2.863281 L 2.863281 8.203125 C 2.699219 8.367188 2.699219 8.632812 2.863281 8.796875 L 8.203125 14.136719 C 8.367188 14.300781 8.632812 14.300781 8.796875 14.136719 Z M 8.796875 14.136719 "/>
<path style="fill:none;stroke-width:1;stroke-linecap:butt;stroke-linejoin:miter;stroke:rgb(100%,100%,100%);stroke-opacity:1;stroke-miterlimit:4;" d="M -49.420557 3.394306 L -43.347028 9.467835 " transform="matrix(0.53125,0,0,0.53125,32.250765,3.313962)"/>
<path style="fill:none;stroke-width:1;stroke-linecap:butt;stroke-linejoin:miter;stroke:rgb(100%,100%,100%);stroke-opacity:1;stroke-miterlimit:4;" d="M -46.795557 5.607541 L -46.795557 12.261953 " transform="matrix(0.53125,0,0,0.53125,32.250765,3.313962)"/>
<path style=" stroke:none;fill-rule:nonzero;fill:rgb(100%,100%,100%);fill-opacity:1;" d="M 10.714844 8.71875 C 10.714844 9.332031 10.21875 9.828125 9.605469 9.828125 C 8.996094 9.828125 8.5 9.332031 8.5 8.71875 C 8.5 8.109375 8.996094 7.613281 9.605469 7.613281 C 10.21875 7.613281 10.714844 8.109375 10.714844 8.71875 Z M 10.714844 8.71875 "/>
<path style=" stroke:none;fill-rule:nonzero;fill:rgb(100%,100%,100%);fill-opacity:1;" d="M 8.5 10.492188 C 8.5 11.105469 8.003906 11.601562 7.390625 11.601562 C 6.78125 11.601562 6.285156 11.105469 6.285156 10.492188 C 6.285156 9.882812 6.78125 9.386719 7.390625 9.386719 C 8.003906 9.386719 8.5 9.882812 8.5 10.492188 Z M 8.5 10.492188 "/>
<path style=" stroke:none;fill-rule:nonzero;fill:rgb(100%,100%,100%);fill-opacity:1;" d="M 8.5 6.503906 C 8.5 7.117188 8.003906 7.613281 7.390625 7.613281 C 6.78125 7.613281 6.285156 7.117188 6.285156 6.503906 C 6.285156 5.894531 6.78125 5.398438 7.390625 5.398438 C 8.003906 5.398438 8.5 5.894531 8.5 6.503906 Z M 8.5 6.503906 "/>
</g>
</svg>
