<?xml version="1.0" encoding="UTF-8"?>
<svg xmlns="http://www.w3.org/2000/svg" xmlns:xlink="http://www.w3.org/1999/xlink" width="17pt" height="17pt" viewBox="0 0 17 17" version="1.1">
<g id="surface1">
<path style=" stroke:none;fill-rule:evenodd;fill:rgb(30.980392%,30.980392%,30.980392%);fill-opacity:1;" d="M 3.96875 1.007812 L 13.03125 1.007812 C 14.664062 1.007812 15.992188 2.335938 15.992188 3.96875 L 15.992188 13.03125 C 15.992188 14.664062 14.664062 15.992188 13.03125 15.992188 L 3.96875 15.992188 C 2.335938 15.992188 1.007812 14.664062 1.007812 13.03125 L 1.007812 3.96875 C 1.007812 2.335938 2.335938 1.007812 3.96875 1.007812 Z M 3.96875 1.007812 "/>
<path style=" stroke:none;fill-rule:nonzero;fill:rgb(24.705882%,69.803922%,67.058824%);fill-opacity:1;" d="M 5.566406 5.398438 C 4.648438 6.210938 4.066406 7.394531 4.066406 8.726562 C 4.066406 10.523438 5.125 12.058594 6.652344 12.757812 L 6.652344 12.792969 L 6.722656 12.792969 C 6.9375 12.882812 7.160156 12.957031 7.390625 13.015625 L 7.390625 13.769531 C 5.023438 13.25 3.332031 11.152344 3.324219 8.726562 C 3.328125 8.226562 3.398438 7.726562 3.542969 7.246094 L 2.78125 7.246094 C 2.652344 7.730469 2.589844 8.226562 2.585938 8.726562 C 2.585938 11.847656 5.015625 14.429688 8.128906 14.625 L 8.128906 12.015625 C 8.257812 12.035156 8.382812 12.050781 8.507812 12.050781 C 8.636719 12.046875 8.753906 12.03125 8.871094 12.015625 L 8.871094 14.621094 C 11.984375 14.425781 14.410156 11.847656 14.414062 8.726562 C 14.410156 8.226562 14.34375 7.730469 14.21875 7.246094 L 13.453125 7.246094 C 13.597656 7.726562 13.671875 8.226562 13.675781 8.726562 C 13.671875 11.152344 11.980469 13.253906 9.609375 13.773438 L 9.609375 13.015625 C 9.839844 12.957031 10.0625 12.886719 10.277344 12.792969 L 10.347656 12.792969 L 10.347656 12.757812 C 11.875 12.058594 12.933594 10.523438 12.933594 8.726562 C 12.933594 7.398438 12.351562 6.210938 11.433594 5.398438 L 10.109375 5.398438 C 11.34375 5.996094 12.195312 7.257812 12.195312 8.726562 C 12.195312 10.097656 11.453125 11.289062 10.347656 11.925781 L 10.347656 11.449219 C 10.601562 11.203125 10.617188 10.828125 10.355469 10.546875 L 10.210938 10.390625 L 10.261719 10.105469 C 10.335938 9.675781 10.511719 9.355469 10.773438 9.171875 C 10.890625 9.089844 11.011719 8.996094 11.039062 8.964844 C 11.101562 8.886719 11.105469 8.511719 11.042969 8.296875 C 10.878906 7.703125 10.007812 6.441406 9.363281 5.863281 C 9 5.535156 8.710938 5.382812 8.4375 5.402344 C 8.269531 5.410156 8.109375 5.480469 7.933594 5.609375 C 7.703125 5.777344 7.105469 6.402344 6.824219 6.773438 C 6.222656 7.5625 5.914062 8.203125 5.914062 8.644531 C 5.914062 8.941406 5.9375 8.988281 6.195312 9.15625 C 6.476562 9.34375 6.636719 9.617188 6.722656 10.050781 L 6.792969 10.394531 L 6.683594 10.492188 C 6.507812 10.648438 6.433594 10.828125 6.457031 11.042969 C 6.472656 11.191406 6.546875 11.335938 6.652344 11.445312 L 6.652344 11.925781 C 5.546875 11.289062 4.804688 10.097656 4.804688 8.726562 C 4.804688 7.257812 5.65625 5.996094 6.890625 5.398438 Z M 7.390625 10.574219 C 7.59375 10.574219 7.761719 10.738281 7.761719 10.945312 C 7.761719 11.148438 7.59375 11.3125 7.390625 11.3125 C 7.1875 11.3125 7.023438 11.148438 7.023438 10.945312 C 7.023438 10.738281 7.1875 10.574219 7.390625 10.574219 Z M 9.609375 10.574219 C 9.8125 10.574219 9.976562 10.738281 9.976562 10.945312 C 9.976562 11.148438 9.8125 11.3125 9.609375 11.3125 C 9.40625 11.3125 9.238281 11.148438 9.238281 10.945312 C 9.238281 10.738281 9.40625 10.574219 9.609375 10.574219 Z M 9.609375 10.574219 "/>
</g>
</svg>
