<?xml version="1.0" encoding="UTF-8"?>
<svg xmlns="http://www.w3.org/2000/svg" xmlns:xlink="http://www.w3.org/1999/xlink" width="17pt" height="17pt" viewBox="0 0 17 17" version="1.1">
<defs>
<filter id="alpha" filterUnits="objectBoundingBox" x="0%" y="0%" width="100%" height="100%">
  <feColorMatrix type="matrix" in="SourceGraphic" values="0 0 0 0 1 0 0 0 0 1 0 0 0 0 1 0 0 0 1 0"/>
</filter>
<mask id="mask0">
  <g filter="url(#alpha)">
<rect x="0" y="0" width="17" height="17" style="fill:rgb(0%,0%,0%);fill-opacity:0.988235;stroke:none;"/>
  </g>
</mask>
<clipPath id="clip1">
  <rect width="17" height="17"/>
</clipPath>
<g id="surface6" clip-path="url(#clip1)">
<path style=" stroke:none;fill-rule:evenodd;fill:rgb(30.980392%,30.980392%,30.980392%);fill-opacity:1;" d="M 3.96875 1.007812 L 13.03125 1.007812 C 14.664062 1.007812 15.992188 2.335938 15.992188 3.96875 L 15.992188 13.03125 C 15.992188 14.664062 14.664062 15.992188 13.03125 15.992188 L 3.96875 15.992188 C 2.335938 15.992188 1.007812 14.664062 1.007812 13.03125 L 1.007812 3.96875 C 1.007812 2.335938 2.335938 1.007812 3.96875 1.007812 Z M 3.96875 1.007812 "/>
</g>
</defs>
<g id="surface1">
<use xlink:href="#surface6" mask="url(#mask0)"/>
<path style=" stroke:none;fill-rule:nonzero;fill:rgb(50.588235%,100%,52.156863%);fill-opacity:1;" d="M 3.378906 2.65625 L 5.769531 2.65625 C 5.988281 2.65625 6.167969 2.835938 6.167969 3.054688 L 6.167969 5.445312 C 6.167969 5.664062 5.988281 5.84375 5.769531 5.84375 L 3.378906 5.84375 C 3.160156 5.84375 2.980469 5.664062 2.980469 5.445312 L 2.980469 3.054688 C 2.980469 2.835938 3.160156 2.65625 3.378906 2.65625 Z M 3.378906 2.65625 "/>
<path style=" stroke:none;fill-rule:nonzero;fill:rgb(50.588235%,100%,52.156863%);fill-opacity:1;" d="M 7.628906 2.65625 L 10.019531 2.65625 C 10.238281 2.65625 10.417969 2.835938 10.417969 3.054688 L 10.417969 5.445312 C 10.417969 5.664062 10.238281 5.84375 10.019531 5.84375 L 7.628906 5.84375 C 7.410156 5.84375 7.230469 5.664062 7.230469 5.445312 L 7.230469 3.054688 C 7.230469 2.835938 7.410156 2.65625 7.628906 2.65625 Z M 7.628906 2.65625 "/>
<path style=" stroke:none;fill-rule:nonzero;fill:rgb(50.588235%,100%,52.156863%);fill-opacity:1;" d="M 3.378906 6.90625 L 5.769531 6.90625 C 5.988281 6.90625 6.167969 7.085938 6.167969 7.304688 L 6.167969 9.695312 C 6.167969 9.914062 5.988281 10.09375 5.769531 10.09375 L 3.378906 10.09375 C 3.160156 10.09375 2.980469 9.914062 2.980469 9.695312 L 2.980469 7.304688 C 2.980469 7.085938 3.160156 6.90625 3.378906 6.90625 Z M 3.378906 6.90625 "/>
<path style=" stroke:none;fill-rule:nonzero;fill:rgb(50.588235%,100%,52.156863%);fill-opacity:1;" d="M 7.628906 6.90625 L 10.019531 6.90625 C 10.238281 6.90625 10.417969 7.085938 10.417969 7.304688 L 10.417969 9.695312 C 10.417969 9.914062 10.238281 10.09375 10.019531 10.09375 L 7.628906 10.09375 C 7.410156 10.09375 7.230469 9.914062 7.230469 9.695312 L 7.230469 7.304688 C 7.230469 7.085938 7.410156 6.90625 7.628906 6.90625 Z M 7.628906 6.90625 "/>
<path style=" stroke:none;fill-rule:nonzero;fill:rgb(50.588235%,100%,52.156863%);fill-opacity:1;" d="M 3.378906 11.15625 L 5.769531 11.15625 C 5.988281 11.15625 6.167969 11.335938 6.167969 11.554688 L 6.167969 13.945312 C 6.167969 14.164062 5.988281 14.34375 5.769531 14.34375 L 3.378906 14.34375 C 3.160156 14.34375 2.980469 14.164062 2.980469 13.945312 L 2.980469 11.554688 C 2.980469 11.335938 3.160156 11.15625 3.378906 11.15625 Z M 3.378906 11.15625 "/>
</g>
</svg>
