<?xml version="1.0" encoding="UTF-8"?>
<svg xmlns="http://www.w3.org/2000/svg" xmlns:xlink="http://www.w3.org/1999/xlink" width="17pt" height="17pt" viewBox="0 0 17 17" version="1.1">
<g id="surface1">
<path style=" stroke:none;fill-rule:evenodd;fill:rgb(48.235294%,35.294118%,71.764706%);fill-opacity:1;" d="M 3.96875 1.007812 L 13.03125 1.007812 C 14.664062 1.007812 15.992188 2.335938 15.992188 3.96875 L 15.992188 13.03125 C 15.992188 14.664062 14.664062 15.992188 13.03125 15.992188 L 3.96875 15.992188 C 2.335938 15.992188 1.007812 14.664062 1.007812 13.03125 L 1.007812 3.96875 C 1.007812 2.335938 2.335938 1.007812 3.96875 1.007812 Z M 3.96875 1.007812 "/>
<path style=" stroke:none;fill-rule:evenodd;fill:rgb(100%,100%,100%);fill-opacity:1;" d="M 4.25 2.921875 L 3.71875 5.046875 L 3.71875 13.015625 L 5.84375 13.015625 L 5.84375 14.078125 L 6.90625 14.078125 L 7.96875 13.015625 L 9.5625 13.015625 L 13.28125 9.296875 L 13.28125 2.921875 Z M 5.3125 3.453125 L 12.75 3.453125 L 12.75 9.03125 L 11.421875 10.359375 L 8.5 10.359375 L 6.90625 11.953125 L 6.90625 10.359375 L 5.3125 10.359375 Z M 7.4375 5.046875 L 7.4375 8.234375 L 8.5 8.234375 L 8.5 5.046875 Z M 10.09375 5.046875 L 10.09375 8.234375 L 11.15625 8.234375 L 11.15625 5.046875 Z M 10.09375 5.046875 "/>
</g>
</svg>
