<?xml version="1.0" encoding="UTF-8"?>
<svg xmlns="http://www.w3.org/2000/svg" xmlns:xlink="http://www.w3.org/1999/xlink" width="17pt" height="17pt" viewBox="0 0 17 17" version="1.1">
<defs>
<clipPath id="clip1">
  <rect width="17" height="17"/>
</clipPath>
<g id="surface6" clip-path="url(#clip1)">
<path style=" stroke:none;fill-rule:nonzero;fill:rgb(32.156863%,56.078431%,96.078431%);fill-opacity:1;" d="M 6.269531 8.3125 L 6.269531 8.6875 L 10.359375 8.6875 L 10.359375 8.3125 Z M 6.269531 9.429688 L 6.269531 9.800781 L 10.359375 9.800781 L 10.359375 9.429688 Z M 6.269531 10.546875 L 6.269531 10.917969 L 10.359375 10.917969 L 10.359375 10.546875 Z M 6.269531 11.660156 L 6.269531 12.03125 L 9.242188 12.03125 L 9.242188 11.660156 Z M 6.269531 11.660156 "/>
</g>
</defs>
<g id="surface1">
<path style=" stroke:none;fill-rule:evenodd;fill:rgb(32.156863%,56.078431%,96.078431%);fill-opacity:1;" d="M 3.96875 1.007812 L 13.03125 1.007812 C 14.664062 1.007812 15.992188 2.335938 15.992188 3.96875 L 15.992188 13.03125 C 15.992188 14.664062 14.664062 15.992188 13.03125 15.992188 L 3.96875 15.992188 C 2.335938 15.992188 1.007812 14.664062 1.007812 13.03125 L 1.007812 3.96875 C 1.007812 2.335938 2.335938 1.007812 3.96875 1.007812 Z M 3.96875 1.007812 "/>
<path style=" stroke:none;fill-rule:nonzero;fill:rgb(100%,100%,100%);fill-opacity:1;" d="M 5.246094 3.851562 C 4.988281 3.851562 4.78125 4.058594 4.78125 4.316406 L 4.78125 12.683594 C 4.78125 12.941406 4.988281 13.148438 5.246094 13.148438 L 11.753906 13.148438 C 12.011719 13.148438 12.21875 12.941406 12.21875 12.683594 L 12.21875 6.828125 L 9.660156 6.410156 L 9.242188 3.851562 Z M 5.246094 3.851562 "/>
<path style=" stroke:none;fill-rule:nonzero;fill:rgb(64.705882%,77.254902%,97.647059%);fill-opacity:1;" d="M 9.242188 3.851562 L 9.242188 6.332031 C 9.242188 6.605469 9.464844 6.828125 9.738281 6.828125 L 12.21875 6.828125 Z M 9.242188 3.851562 "/>
<use xlink:href="#surface6"/>
</g>
</svg>
