<?xml version="1.0" encoding="UTF-8"?>
<svg xmlns="http://www.w3.org/2000/svg" xmlns:xlink="http://www.w3.org/1999/xlink" width="17pt" height="17pt" viewBox="0 0 17 17" version="1.1">
<g id="surface1">
<path style=" stroke:none;fill-rule:evenodd;fill:rgb(92.54902%,92.54902%,92.54902%);fill-opacity:1;" d="M 3.96875 1.007812 L 13.03125 1.007812 C 14.664062 1.007812 15.992188 2.335938 15.992188 3.96875 L 15.992188 13.03125 C 15.992188 14.664062 14.664062 15.992188 13.03125 15.992188 L 3.96875 15.992188 C 2.335938 15.992188 1.007812 14.664062 1.007812 13.03125 L 1.007812 3.96875 C 1.007812 2.335938 2.335938 1.007812 3.96875 1.007812 Z M 3.96875 1.007812 "/>
<path style=" stroke:none;fill-rule:nonzero;fill:rgb(30.980392%,30.980392%,30.980392%);fill-opacity:1;" d="M 10.378906 3.398438 C 10.25 3.324219 10.085938 3.367188 10.011719 3.496094 L 9.648438 4.125 C 7.5625 3.613281 5.386719 4.539062 4.3125 6.398438 C 2.976562 8.707031 3.769531 11.660156 6.078125 12.992188 C 8.386719 14.324219 11.339844 13.535156 12.671875 11.226562 C 13.746094 9.363281 13.457031 7.019531 11.96875 5.46875 L 12.335938 4.835938 C 12.410156 4.707031 12.367188 4.542969 12.238281 4.46875 Z M 10.378906 3.398438 "/>
<path style=" stroke:none;fill-rule:evenodd;fill:rgb(73.333333%,71.372549%,45.098039%);fill-opacity:1;" d="M 13.128906 3.957031 C 13.027344 3.890625 12.90625 3.839844 12.785156 3.808594 C 12.542969 3.742188 12.269531 3.722656 12.007812 3.722656 C 11.480469 3.726562 10.992188 3.753906 10.992188 3.753906 L 11.660156 4.136719 C 11.769531 4.128906 11.886719 4.125 12.007812 4.125 C 12.25 4.125 12.496094 4.144531 12.679688 4.195312 C 12.863281 4.246094 12.960938 4.320312 12.992188 4.390625 C 13.074219 4.59375 13.027344 4.734375 12.871094 4.929688 C 12.710938 5.121094 12.433594 5.328125 12.128906 5.539062 C 11.824219 5.753906 11.492188 5.96875 11.210938 6.21875 C 10.933594 6.46875 10.699219 6.757812 10.644531 7.121094 C 10.585938 7.511719 10.796875 7.914062 10.996094 8.25 C 11.195312 8.589844 11.402344 8.851562 11.402344 8.851562 C 11.566406 9.074219 11.898438 8.8125 11.71875 8.601562 C 11.71875 8.601562 11.523438 8.355469 11.34375 8.046875 C 11.160156 7.738281 11.015625 7.355469 11.042969 7.179688 C 11.078125 6.960938 11.234375 6.738281 11.480469 6.519531 C 11.726562 6.300781 12.046875 6.085938 12.359375 5.871094 C 12.667969 5.65625 12.972656 5.441406 13.179688 5.179688 C 13.390625 4.921875 13.503906 4.582031 13.363281 4.242188 C 13.3125 4.117188 13.230469 4.027344 13.128906 3.957031 Z M 13.128906 3.957031 "/>
<path style=" stroke:none;fill-rule:nonzero;fill:rgb(100%,38.823529%,38.823529%);fill-opacity:1;" d="M 13.425781 7.945312 L 12.949219 9.066406 L 14.050781 9.644531 L 12.859375 9.960938 L 13.105469 11.167969 L 12.097656 10.4375 L 11.300781 11.363281 L 11.238281 10.140625 L 10 10.085938 L 10.925781 9.289062 L 10.179688 8.300781 L 11.398438 8.527344 L 11.707031 7.347656 L 12.300781 8.429688 Z M 13.425781 7.945312 "/>
</g>
</svg>
