<?xml version="1.0" encoding="UTF-8"?>
<svg xmlns="http://www.w3.org/2000/svg" xmlns:xlink="http://www.w3.org/1999/xlink" width="17pt" height="17pt" viewBox="0 0 17 17" version="1.1">
<defs>
<g>
<symbol overflow="visible" id="glyph0-0">
<path style="stroke:none;" d="M 0.15625 0.53125 L 0.15625 -2.109375 L 1.65625 -2.109375 L 1.65625 0.53125 Z M 0.3125 0.359375 L 1.484375 0.359375 L 1.484375 -1.953125 L 0.3125 -1.953125 Z M 0.3125 0.359375 "/>
</symbol>
<symbol overflow="visible" id="glyph0-1">
<path style="stroke:none;" d="M 0.859375 -0.421875 L 1.828125 -0.421875 L 1.828125 0 L 0.234375 0 L 0.234375 -0.421875 L 1.03125 -1.125 C 1.101562 -1.1875 1.15625 -1.25 1.1875 -1.3125 C 1.226562 -1.375 1.25 -1.4375 1.25 -1.5 C 1.25 -1.601562 1.210938 -1.6875 1.140625 -1.75 C 1.066406 -1.8125 0.976562 -1.84375 0.875 -1.84375 C 0.78125 -1.84375 0.679688 -1.820312 0.578125 -1.78125 C 0.472656 -1.75 0.363281 -1.695312 0.25 -1.625 L 0.25 -2.09375 C 0.375 -2.132812 0.5 -2.164062 0.625 -2.1875 C 0.75 -2.21875 0.867188 -2.234375 0.984375 -2.234375 C 1.242188 -2.234375 1.445312 -2.171875 1.59375 -2.046875 C 1.738281 -1.929688 1.8125 -1.773438 1.8125 -1.578125 C 1.8125 -1.453125 1.78125 -1.335938 1.71875 -1.234375 C 1.65625 -1.128906 1.523438 -0.992188 1.328125 -0.828125 Z M 0.859375 -0.421875 "/>
</symbol>
</g>
</defs>
<g id="surface1">
<path style=" stroke:none;fill-rule:evenodd;fill:rgb(100%,74.117647%,0%);fill-opacity:1;" d="M 3.96875 1.007812 L 13.03125 1.007812 C 14.664062 1.007812 15.992188 2.335938 15.992188 3.96875 L 15.992188 13.03125 C 15.992188 14.664062 14.664062 15.992188 13.03125 15.992188 L 3.96875 15.992188 C 2.335938 15.992188 1.007812 14.664062 1.007812 13.03125 L 1.007812 3.96875 C 1.007812 2.335938 2.335938 1.007812 3.96875 1.007812 Z M 3.96875 1.007812 "/>
<path style=" stroke:none;fill-rule:nonzero;fill:rgb(20%,20%,20%);fill-opacity:1;" d="M 13.863281 8.5 C 13.863281 11.460938 11.460938 13.863281 8.5 13.863281 C 5.539062 13.863281 3.136719 11.460938 3.136719 8.5 C 3.136719 5.539062 5.539062 3.136719 8.5 3.136719 C 11.460938 3.136719 13.863281 5.539062 13.863281 8.5 Z M 13.863281 8.5 "/>
<path style=" stroke:none;fill-rule:nonzero;fill:rgb(100%,100%,100%);fill-opacity:1;" d="M 13.328125 8.5 C 13.328125 11.164062 11.164062 13.328125 8.5 13.328125 C 5.835938 13.328125 3.671875 11.164062 3.671875 8.5 C 3.671875 5.835938 5.835938 3.671875 8.5 3.671875 C 11.164062 3.671875 13.328125 5.835938 13.328125 8.5 Z M 13.328125 8.5 "/>
<path style=" stroke:none;fill-rule:nonzero;fill:rgb(100%,42.745098%,0%);fill-opacity:1;" d="M 6.410156 4.910156 L 6.65625 5.945312 L 7.527344 5.929688 L 7.984375 6.601562 L 6 12.089844 L 7.757812 11.546875 L 8.890625 8.046875 L 10.710938 10.890625 L 12.109375 9.722656 L 11.5 8.835938 L 11.007812 9.230469 L 8.183594 4.929688 Z M 6.410156 4.910156 "/>
<g style="fill:rgb(20%,20%,20%);fill-opacity:1;">
  <use xlink:href="#glyph0-1" x="12.707031" y="4.42807"/>
</g>
</g>
</svg>
