<?xml version="1.0" encoding="UTF-8"?>
<svg xmlns="http://www.w3.org/2000/svg" xmlns:xlink="http://www.w3.org/1999/xlink" width="17pt" height="17pt" viewBox="0 0 17 17" version="1.1">
<g id="surface1">
<path style=" stroke:none;fill-rule:evenodd;fill:rgb(11.764706%,52.941176%,89.411765%);fill-opacity:1;" d="M 3.96875 1.007812 L 13.03125 1.007812 C 14.664062 1.007812 15.992188 2.335938 15.992188 3.96875 L 15.992188 13.03125 C 15.992188 14.664062 14.664062 15.992188 13.03125 15.992188 L 3.96875 15.992188 C 2.335938 15.992188 1.007812 14.664062 1.007812 13.03125 L 1.007812 3.96875 C 1.007812 2.335938 2.335938 1.007812 3.96875 1.007812 Z M 3.96875 1.007812 "/>
<path style="fill:none;stroke-width:2;stroke-linecap:square;stroke-linejoin:miter;stroke:rgb(100%,100%,100%);stroke-opacity:1;stroke-miterlimit:4;" d="M 13 18 C 13 13.580882 16.580882 10 21 10 " transform="matrix(0.53125,0,0,0.53125,0.265625,-0.265625)"/>
<path style="fill:none;stroke-width:2;stroke-linecap:square;stroke-linejoin:miter;stroke:rgb(100%,100%,100%);stroke-opacity:1;stroke-miterlimit:4;" d="M 17 18 C 17 15.794118 18.794118 14 21 14 " transform="matrix(0.53125,0,0,0.53125,0.265625,-0.265625)"/>
<path style="fill:none;stroke-width:2;stroke-linecap:square;stroke-linejoin:miter;stroke:rgb(100%,100%,100%);stroke-opacity:1;stroke-miterlimit:4;" d="M 9 18 C 9 11.375 14.375 6 21 6 " transform="matrix(0.53125,0,0,0.53125,0.265625,-0.265625)"/>
<path style=" stroke:none;fill-rule:nonzero;fill:rgb(100%,100%,100%);fill-opacity:1;" d="M 10.890625 11.421875 L 12.484375 11.421875 L 12.484375 14.609375 L 10.890625 14.609375 Z M 10.890625 11.421875 "/>
<path style=" stroke:none;fill-rule:nonzero;fill:rgb(100%,100%,100%);fill-opacity:1;" d="M 12.484375 9.5625 C 12.484375 10.003906 12.128906 10.359375 11.6875 10.359375 C 11.246094 10.359375 10.890625 10.003906 10.890625 9.5625 C 10.890625 9.121094 11.246094 8.765625 11.6875 8.765625 C 12.128906 8.765625 12.484375 9.121094 12.484375 9.5625 Z M 12.484375 9.5625 "/>
</g>
</svg>
