<?xml version="1.0" encoding="UTF-8"?>
<svg xmlns="http://www.w3.org/2000/svg" xmlns:xlink="http://www.w3.org/1999/xlink" width="17pt" height="17pt" viewBox="0 0 17 17" version="1.1">
<g id="surface1">
<path style=" stroke:none;fill-rule:evenodd;fill:rgb(40.392157%,12.941176%,40.784314%);fill-opacity:1;" d="M 3.96875 1.007812 L 13.03125 1.007812 C 14.664062 1.007812 15.992188 2.335938 15.992188 3.96875 L 15.992188 13.03125 C 15.992188 14.664062 14.664062 15.992188 13.03125 15.992188 L 3.96875 15.992188 C 2.335938 15.992188 1.007812 14.664062 1.007812 13.03125 L 1.007812 3.96875 C 1.007812 2.335938 2.335938 1.007812 3.96875 1.007812 Z M 3.96875 1.007812 "/>
<path style=" stroke:none;fill-rule:nonzero;fill:rgb(100%,100%,100%);fill-opacity:1;" d="M 8.5 3.1875 C 5.566406 3.1875 3.1875 5.566406 3.1875 8.5 C 3.1875 11.433594 5.566406 13.8125 8.5 13.8125 C 11.433594 13.8125 13.8125 11.433594 13.8125 8.5 C 13.8125 5.566406 11.433594 3.1875 8.5 3.1875 Z M 6.714844 5.3125 C 6.769531 5.3125 6.824219 5.328125 6.871094 5.359375 L 11.519531 8.191406 C 11.625 8.253906 11.6875 8.371094 11.6875 8.5 C 11.6875 8.628906 11.625 8.746094 11.519531 8.808594 L 6.871094 11.640625 C 6.769531 11.703125 6.640625 11.703125 6.539062 11.640625 C 6.4375 11.574219 6.375 11.457031 6.375 11.332031 L 6.375 5.667969 C 6.375 5.570312 6.410156 5.480469 6.472656 5.414062 C 6.539062 5.347656 6.625 5.3125 6.714844 5.3125 Z M 6.714844 5.3125 "/>
</g>
</svg>
