<?xml version="1.0" encoding="UTF-8"?>
<svg xmlns="http://www.w3.org/2000/svg" xmlns:xlink="http://www.w3.org/1999/xlink" width="17pt" height="17pt" viewBox="0 0 17 17" version="1.1">
<g id="surface1">
<path style=" stroke:none;fill-rule:evenodd;fill:rgb(50.588235%,38.039216%,18.823529%);fill-opacity:1;" d="M 3.96875 1.007812 L 13.03125 1.007812 C 14.664062 1.007812 15.992188 2.335938 15.992188 3.96875 L 15.992188 13.03125 C 15.992188 14.664062 14.664062 15.992188 13.03125 15.992188 L 3.96875 15.992188 C 2.335938 15.992188 1.007812 14.664062 1.007812 13.03125 L 1.007812 3.96875 C 1.007812 2.335938 2.335938 1.007812 3.96875 1.007812 Z M 3.96875 1.007812 "/>
<path style=" stroke:none;fill-rule:nonzero;fill:rgb(100%,100%,100%);fill-opacity:1;" d="M 6.375 5.136719 C 7.253906 5.136719 7.96875 5.847656 7.96875 6.730469 C 7.96875 7.609375 7.253906 8.324219 6.375 8.324219 C 5.496094 8.324219 4.78125 7.609375 4.78125 6.730469 C 4.78125 5.847656 5.496094 5.136719 6.375 5.136719 Z M 6.375 5.136719 "/>
<path style=" stroke:none;fill-rule:nonzero;fill:rgb(100%,100%,100%);fill-opacity:1;" d="M 6.375 9.207031 C 9.5625 9.207031 9.5625 11.332031 9.5625 11.332031 L 9.5625 11.863281 L 3.1875 11.863281 L 3.1875 11.332031 C 3.1875 11.332031 3.1875 9.210938 6.375 9.207031 Z M 6.375 9.207031 "/>
<path style=" stroke:none;fill-rule:nonzero;fill:rgb(100%,100%,100%);fill-opacity:1;" d="M 11.6875 5.136719 C 12.273438 5.136719 12.75 5.609375 12.75 6.199219 C 12.75 6.785156 12.273438 7.261719 11.6875 7.261719 C 11.101562 7.261719 10.625 6.785156 10.625 6.199219 C 10.625 5.609375 11.101562 5.136719 11.6875 5.136719 Z M 11.6875 5.136719 "/>
<path style=" stroke:none;fill-rule:nonzero;fill:rgb(100%,100%,100%);fill-opacity:1;" d="M 11.6875 7.792969 C 13.8125 7.789062 13.8125 9.492188 13.8125 9.492188 L 13.8125 9.917969 L 9.5625 9.917969 L 9.5625 9.492188 C 9.5625 9.492188 9.5625 7.792969 11.6875 7.792969 Z M 11.6875 7.792969 "/>
</g>
</svg>
