<?xml version="1.0" encoding="UTF-8"?>
<svg xmlns="http://www.w3.org/2000/svg" xmlns:xlink="http://www.w3.org/1999/xlink" width="17pt" height="17pt" viewBox="0 0 17 17" version="1.1">
<g id="surface1">
<path style=" stroke:none;fill-rule:evenodd;fill:rgb(34.509804%,49.019608%,90.196078%);fill-opacity:1;" d="M 3.96875 1.007812 L 13.03125 1.007812 C 14.664062 1.007812 15.992188 2.335938 15.992188 3.96875 L 15.992188 13.03125 C 15.992188 14.664062 14.664062 15.992188 13.03125 15.992188 L 3.96875 15.992188 C 2.335938 15.992188 1.007812 14.664062 1.007812 13.03125 L 1.007812 3.96875 C 1.007812 2.335938 2.335938 1.007812 3.96875 1.007812 Z M 3.96875 1.007812 "/>
<path style=" stroke:none;fill-rule:nonzero;fill:rgb(76.470588%,82.352941%,100%);fill-opacity:1;" d="M 5.425781 13.046875 C 5.324219 13 5.230469 12.898438 5.1875 12.792969 L 5.152344 12.710938 L 5.152344 8.082031 L 5.191406 7.984375 C 5.21875 7.90625 5.242188 7.867188 5.296875 7.816406 C 5.417969 7.703125 5.464844 7.691406 5.769531 7.683594 L 6.039062 7.675781 L 6.042969 6.898438 C 6.050781 6.257812 6.054688 6.09375 6.074219 5.972656 C 6.253906 4.914062 7.078125 4.101562 8.140625 3.9375 C 8.3125 3.910156 8.691406 3.910156 8.859375 3.9375 C 9.28125 4.003906 9.667969 4.167969 9.992188 4.417969 C 10.492188 4.804688 10.824219 5.359375 10.925781 5.980469 C 10.945312 6.109375 10.953125 6.265625 10.957031 6.90625 L 10.960938 7.675781 L 11.230469 7.683594 C 11.484375 7.6875 11.5 7.691406 11.578125 7.726562 C 11.683594 7.777344 11.765625 7.871094 11.8125 7.980469 L 11.847656 8.066406 L 11.847656 12.710938 L 11.8125 12.792969 C 11.769531 12.898438 11.675781 13 11.574219 13.046875 L 11.496094 13.082031 L 5.503906 13.082031 Z M 10.039062 6.957031 C 10.039062 6.558594 10.03125 6.191406 10.023438 6.132812 C 9.980469 5.839844 9.8125 5.511719 9.59375 5.289062 C 9.351562 5.042969 9.097656 4.914062 8.695312 4.839844 C 8.375 4.78125 7.929688 4.890625 7.609375 5.113281 C 7.285156 5.339844 7.03125 5.75 6.976562 6.132812 C 6.96875 6.191406 6.960938 6.558594 6.960938 6.957031 L 6.960938 7.679688 L 10.039062 7.679688 Z M 10.039062 6.957031 "/>
</g>
</svg>
