<?xml version="1.0" encoding="UTF-8"?>
<svg xmlns="http://www.w3.org/2000/svg" xmlns:xlink="http://www.w3.org/1999/xlink" width="17pt" height="17pt" viewBox="0 0 17 17" version="1.1">
<g id="surface1">
<path style=" stroke:none;fill-rule:evenodd;fill:rgb(21.568627%,62.745098%,94.901961%);fill-opacity:1;" d="M 3.96875 1.007812 L 13.03125 1.007812 C 14.664062 1.007812 15.992188 2.335938 15.992188 3.96875 L 15.992188 13.03125 C 15.992188 14.664062 14.664062 15.992188 13.03125 15.992188 L 3.96875 15.992188 C 2.335938 15.992188 1.007812 14.664062 1.007812 13.03125 L 1.007812 3.96875 C 1.007812 2.335938 2.335938 1.007812 3.96875 1.007812 Z M 3.96875 1.007812 "/>
<path style=" stroke:none;fill-rule:nonzero;fill:rgb(100%,100%,100%);fill-opacity:1;" d="M 7.792969 4.25 C 7.59375 4.25 7.4375 4.371094 7.4375 4.523438 L 7.4375 8.683594 L 6.019531 8.683594 L 8.5 12.011719 L 10.980469 8.683594 L 9.5625 8.683594 L 9.5625 4.523438 C 9.5625 4.371094 9.40625 4.25 9.207031 4.25 Z M 8.5 12.011719 L 5.632812 12.011719 C 5.453125 12.011719 5.3125 12.175781 5.3125 12.378906 C 5.3125 12.585938 5.453125 12.75 5.632812 12.75 L 11.367188 12.75 C 11.546875 12.75 11.6875 12.585938 11.6875 12.378906 C 11.6875 12.175781 11.546875 12.011719 11.367188 12.011719 Z M 8.5 12.011719 "/>
</g>
</svg>
