<?xml version="1.0" encoding="UTF-8"?>
<svg xmlns="http://www.w3.org/2000/svg" xmlns:xlink="http://www.w3.org/1999/xlink" width="17pt" height="17pt" viewBox="0 0 17 17" version="1.1">
<g id="surface1">
<path style=" stroke:none;fill-rule:evenodd;fill:rgb(94.901961%,94.901961%,94.901961%);fill-opacity:1;" d="M 3.96875 1.007812 L 13.03125 1.007812 C 14.664062 1.007812 15.992188 2.335938 15.992188 3.96875 L 15.992188 13.03125 C 15.992188 14.664062 14.664062 15.992188 13.03125 15.992188 L 3.96875 15.992188 C 2.335938 15.992188 1.007812 14.664062 1.007812 13.03125 L 1.007812 3.96875 C 1.007812 2.335938 2.335938 1.007812 3.96875 1.007812 Z M 3.96875 1.007812 "/>
<path style=" stroke:none;fill-rule:nonzero;fill:rgb(10.196078%,10.196078%,10.196078%);fill-opacity:0.929412;" d="M 8.5 2.4375 C 5.15625 2.4375 2.441406 5.15625 2.441406 8.5 C 2.441406 11.84375 5.15625 14.5625 8.5 14.5625 C 11.84375 14.5625 14.558594 11.84375 14.558594 8.5 C 14.558594 5.15625 11.84375 2.4375 8.5 2.4375 Z M 8.5 2.820312 C 11.636719 2.820312 14.179688 5.359375 14.179688 8.5 C 14.179688 11.640625 11.636719 14.179688 8.5 14.179688 C 5.359375 14.179688 2.820312 11.640625 2.820312 8.5 C 2.820312 5.359375 5.359375 2.820312 8.5 2.820312 Z M 8.5 2.820312 "/>
<path style=" stroke:none;fill-rule:evenodd;fill:rgb(56.470588%,36.078431%,68.235294%);fill-opacity:1;" d="M 3.394531 9.914062 L 8.070312 5.597656 L 6.09375 3.757812 C 4.125 4.972656 2.613281 6.972656 3.394531 9.914062 Z M 3.394531 9.914062 "/>
<path style=" stroke:none;fill-rule:evenodd;fill:rgb(100%,15.294118%,17.254902%);fill-opacity:1;" d="M 6.664062 3.507812 L 10.703125 7.1875 L 10.679688 3.601562 C 9.28125 3.066406 7.941406 3.015625 6.664062 3.507812 Z M 6.664062 3.507812 "/>
<path style=" stroke:none;fill-rule:evenodd;fill:rgb(100%,56.078431%,0%);fill-opacity:1;" d="M 11.273438 3.964844 L 11.316406 10.253906 L 13.496094 10.253906 C 14.554688 6.832031 12.765625 4.957031 11.273438 3.964844 Z M 11.273438 3.964844 "/>
<path style=" stroke:none;fill-rule:evenodd;fill:rgb(0.392157%,41.960784%,84.705882%);fill-opacity:1;" d="M 5.730469 8.527344 L 5.730469 13.089844 C 4.910156 12.464844 4.089844 11.832031 3.554688 10.523438 Z M 5.730469 8.527344 "/>
<path style=" stroke:none;fill-rule:evenodd;fill:rgb(0%,74.901961%,0%);fill-opacity:1;" d="M 13.269531 10.820312 L 6.324219 10.867188 L 6.34375 13.386719 C 10.175781 14.789062 12.449219 12.597656 13.269531 10.820312 Z M 13.269531 10.820312 "/>
</g>
</svg>
