<?xml version="1.0" encoding="UTF-8"?>
<svg xmlns="http://www.w3.org/2000/svg" xmlns:xlink="http://www.w3.org/1999/xlink" width="17pt" height="17pt" viewBox="0 0 17 17" version="1.1">
<defs>
<filter id="alpha" filterUnits="objectBoundingBox" x="0%" y="0%" width="100%" height="100%">
  <feColorMatrix type="matrix" in="SourceGraphic" values="0 0 0 0 1 0 0 0 0 1 0 0 0 0 1 0 0 0 1 0"/>
</filter>
<mask id="mask0">
  <g filter="url(#alpha)">
<rect x="0" y="0" width="17" height="17" style="fill:rgb(0%,0%,0%);fill-opacity:0.976471;stroke:none;"/>
  </g>
</mask>
<clipPath id="clip1">
  <rect width="17" height="17"/>
</clipPath>
<g id="surface6" clip-path="url(#clip1)">
<path style=" stroke:none;fill-rule:evenodd;fill:rgb(58.823529%,77.254902%,1.176471%);fill-opacity:1;" d="M 15.976562 13.453125 L 15.589844 12.472656 C 15.589844 12.472656 14.363281 13.746094 14.363281 13.621094 C 14.363281 13.5 14.097656 12.472656 14.097656 12.472656 L 13.089844 13.714844 L 12.609375 12.96875 L 11.382812 13.777344 L 10.925781 12.75 L 10.132812 13.933594 L 9.050781 12.75 L 8.28125 13.996094 L 7.65625 12.6875 L 7.03125 13.964844 L 6.070312 12.65625 L 5.636719 14.121094 L 4.9375 12.78125 L 4.433594 13.621094 L 3.257812 12.535156 C 3.257812 12.535156 2.941406 13.625 2.894531 14.027344 C 2.871094 14.230469 2.640625 13.730469 2.417969 13.183594 C 2.199219 12.632812 1.980469 12.035156 1.980469 12.035156 C 1.980469 12.035156 1.539062 13.074219 1.234375 13.792969 C 1.578125 15.046875 2.675781 15.984375 4.042969 15.984375 L 13.101562 15.984375 C 14.589844 15.984375 15.761719 14.878906 15.976562 13.453125 Z M 15.976562 13.453125 "/>
</g>
<mask id="mask1">
  <g filter="url(#alpha)">
<rect x="0" y="0" width="17" height="17" style="fill:rgb(0%,0%,0%);fill-opacity:0.976471;stroke:none;"/>
  </g>
</mask>
<clipPath id="clip2">
  <rect width="17" height="17"/>
</clipPath>
<g id="surface9" clip-path="url(#clip2)">
<path style=" stroke:none;fill-rule:evenodd;fill:rgb(67.843137%,85.882353%,12.156863%);fill-opacity:1;" d="M 16 12.507812 C 15.664062 13.046875 15.390625 13.6875 15.175781 14.421875 C 15.234375 13.246094 15.367188 12.105469 15.492188 10.960938 C 15.230469 11.953125 14.988281 12.941406 14.78125 13.921875 C 14.722656 13.632812 14.652344 13.371094 14.585938 13.105469 C 14.648438 12.511719 14.734375 12.015625 14.878906 11.691406 C 14.773438 11.871094 14.679688 12.070312 14.589844 12.277344 C 14.625 11.972656 14.652344 11.667969 14.683594 11.363281 C 14.589844 11.726562 14.5 12.085938 14.410156 12.449219 C 14.316406 12.160156 14.21875 11.886719 14.101562 11.648438 C 14.203125 11.925781 14.265625 12.34375 14.316406 12.816406 C 14.226562 13.195312 14.140625 13.570312 14.058594 13.949219 C 13.980469 13.652344 13.894531 13.355469 13.808594 13.058594 C 13.878906 12.300781 13.960938 11.550781 14.042969 10.796875 C 13.898438 11.339844 13.765625 11.886719 13.632812 12.425781 C 13.496094 11.953125 13.351562 11.476562 13.203125 11.003906 C 13.253906 11.40625 13.3125 11.8125 13.363281 12.214844 C 13.339844 12.164062 13.320312 12.101562 13.292969 12.054688 C 13.332031 12.164062 13.363281 12.328125 13.394531 12.472656 C 13.421875 12.695312 13.445312 12.917969 13.472656 13.144531 C 13.460938 13.191406 13.449219 13.234375 13.4375 13.28125 C 13.347656 13.050781 13.25 12.824219 13.140625 12.628906 C 13.238281 12.867188 13.308594 13.207031 13.367188 13.597656 C 13.355469 13.652344 13.339844 13.707031 13.328125 13.761719 C 13.15625 12.886719 12.949219 12.089844 12.652344 11.488281 C 12.875 12.097656 12.953125 13.277344 12.964844 14.742188 C 12.867188 14.382812 12.765625 14.035156 12.644531 13.726562 C 12.574219 13.492188 12.515625 13.257812 12.441406 13.023438 C 12.527344 12.796875 12.605469 12.578125 12.710938 12.347656 C 12.609375 12.523438 12.5 12.6875 12.390625 12.851562 C 12.332031 12.660156 12.28125 12.472656 12.222656 12.285156 C 12.253906 12.515625 12.285156 12.742188 12.3125 12.972656 C 12.234375 13.097656 12.15625 13.21875 12.078125 13.347656 C 11.960938 13.027344 11.835938 12.726562 11.691406 12.464844 C 11.800781 12.738281 11.882812 13.121094 11.941406 13.582031 C 11.886719 13.671875 11.835938 13.761719 11.785156 13.859375 C 11.660156 13.972656 11.546875 14.121094 11.441406 14.28125 C 11.363281 14.214844 11.289062 14.152344 11.203125 14.097656 C 11.191406 14.105469 11.179688 14.117188 11.167969 14.125 C 11.15625 14.109375 11.144531 14.097656 11.132812 14.082031 C 11.207031 13.578125 11.292969 13.105469 11.414062 12.734375 C 11.234375 13.046875 11.078125 13.414062 10.9375 13.820312 C 10.828125 13.613281 10.710938 13.410156 10.585938 13.21875 C 10.59375 13.195312 10.597656 13.164062 10.605469 13.140625 C 10.59375 13.160156 10.582031 13.183594 10.570312 13.203125 C 10.355469 12.878906 10.121094 12.574219 9.855469 12.316406 C 9.898438 12.390625 9.917969 12.507812 9.957031 12.589844 C 9.957031 12.582031 9.960938 12.578125 9.964844 12.574219 C 9.960938 12.578125 9.960938 12.589844 9.957031 12.59375 C 10.109375 12.914062 10.25 13.25 10.351562 13.644531 C 10.34375 13.664062 10.335938 13.683594 10.328125 13.703125 C 10.28125 13.742188 10.242188 13.792969 10.199219 13.839844 C 10.09375 13.53125 9.984375 13.230469 9.875 12.925781 C 9.90625 12.816406 9.929688 12.695312 9.957031 12.59375 C 9.957031 12.59375 9.957031 12.589844 9.957031 12.589844 C 9.914062 12.660156 9.878906 12.742188 9.839844 12.820312 C 9.835938 12.800781 9.828125 12.785156 9.820312 12.769531 C 9.828125 12.789062 9.828125 12.808594 9.835938 12.832031 C 9.753906 12.996094 9.675781 13.171875 9.605469 13.355469 C 9.59375 12.84375 9.597656 12.378906 9.691406 12.070312 C 9.464844 12.535156 9.390625 13.292969 9.289062 13.957031 C 9.195312 13.699219 9.101562 13.441406 9.011719 13.171875 C 9.097656 13.496094 9.167969 13.816406 9.226562 14.132812 C 9.140625 14.253906 9.058594 14.394531 8.988281 14.546875 C 8.933594 14.285156 8.867188 14.039062 8.796875 13.816406 C 8.785156 13.28125 8.785156 12.792969 8.882812 12.472656 C 8.769531 12.707031 8.691406 13.015625 8.632812 13.347656 C 8.546875 13.101562 8.457031 12.859375 8.371094 12.605469 C 8.460938 12.945312 8.53125 13.28125 8.59375 13.613281 C 8.554688 13.875 8.515625 14.136719 8.476562 14.394531 C 8.390625 14.210938 8.289062 14.035156 8.164062 13.816406 C 8.152344 13.039062 8.113281 12.335938 8.242188 11.90625 C 8.085938 12.226562 8.007812 12.683594 7.9375 13.152344 C 7.890625 12.902344 7.839844 12.660156 7.765625 12.445312 C 7.785156 12.402344 7.800781 12.355469 7.820312 12.316406 C 7.796875 12.34375 7.777344 12.378906 7.75 12.410156 C 7.707031 12.289062 7.660156 12.171875 7.601562 12.070312 C 7.644531 12.191406 7.671875 12.335938 7.6875 12.492188 C 7.597656 12.613281 7.503906 12.730469 7.417969 12.859375 C 7.429688 12.828125 7.433594 12.800781 7.445312 12.769531 C 7.417969 12.835938 7.390625 12.898438 7.363281 12.964844 C 7.179688 13.257812 7.019531 13.585938 6.871094 13.933594 C 6.820312 13.847656 6.757812 13.734375 6.691406 13.617188 C 6.78125 13.285156 6.882812 12.980469 7.011719 12.71875 C 6.84375 12.914062 6.695312 13.132812 6.554688 13.363281 C 6.550781 13.351562 6.542969 13.347656 6.539062 13.335938 C 6.542969 13.347656 6.546875 13.355469 6.550781 13.371094 C 6.441406 13.546875 6.339844 13.730469 6.242188 13.929688 C 6.164062 13.730469 6.070312 13.554688 5.980469 13.378906 C 6.085938 12.921875 6.203125 12.496094 6.371094 12.152344 C 6.15625 12.402344 5.96875 12.695312 5.792969 13.007812 C 5.789062 12.996094 5.785156 12.984375 5.777344 12.972656 C 5.804688 12.742188 5.832031 12.515625 5.855469 12.285156 C 5.804688 12.472656 5.761719 12.660156 5.714844 12.851562 C 5.625 12.6875 5.535156 12.523438 5.449219 12.347656 C 5.523438 12.546875 5.582031 12.738281 5.644531 12.933594 C 5.601562 12.867188 5.566406 12.796875 5.523438 12.734375 C 5.570312 12.855469 5.605469 13.003906 5.644531 13.140625 C 5.621094 13.230469 5.601562 13.324219 5.578125 13.414062 C 5.484375 13.617188 5.390625 13.828125 5.308594 14.050781 C 5.199219 13.820312 5.089844 13.59375 4.972656 13.378906 C 4.996094 13.148438 5.023438 12.917969 5.046875 12.6875 C 4.996094 12.875 4.957031 13.066406 4.90625 13.253906 C 4.878906 13.207031 4.855469 13.152344 4.828125 13.101562 C 4.894531 12.402344 4.96875 11.699219 5.042969 11.003906 C 4.855469 11.730469 4.675781 12.453125 4.511719 13.171875 C 4.449219 13.054688 4.394531 12.929688 4.332031 12.8125 C 4.355469 12.582031 4.382812 12.351562 4.40625 12.121094 C 4.355469 12.308594 4.316406 12.5 4.265625 12.6875 C 4.21875 12.601562 4.175781 12.515625 4.128906 12.429688 C 4.164062 12.089844 4.195312 11.746094 4.234375 11.40625 C 4.160156 11.683594 4.09375 11.957031 4.027344 12.234375 C 4.015625 12.21875 4.007812 12.203125 4 12.183594 C 4.007812 12.207031 4.011719 12.230469 4.023438 12.25 C 4 12.332031 3.980469 12.410156 3.960938 12.492188 C 3.867188 12.203125 3.769531 11.929688 3.652344 11.691406 C 3.753906 11.96875 3.816406 12.386719 3.867188 12.863281 C 3.746094 13.367188 3.628906 13.867188 3.519531 14.367188 C 3.460938 14.070312 3.390625 13.796875 3.320312 13.523438 C 3.339844 13.269531 3.371094 13.023438 3.394531 12.769531 C 3.414062 12.726562 3.425781 12.667969 3.445312 12.628906 C 3.429688 12.652344 3.417969 12.679688 3.402344 12.703125 C 3.464844 12.082031 3.527344 11.460938 3.59375 10.839844 C 3.421875 11.488281 3.265625 12.132812 3.113281 12.78125 C 3.03125 12.535156 2.945312 12.300781 2.84375 12.09375 C 2.933594 12.335938 2.992188 12.695312 3.042969 13.097656 C 3.035156 13.121094 3.03125 13.144531 3.027344 13.167969 C 2.917969 12.882812 2.804688 12.609375 2.671875 12.375 C 2.792969 12.660156 2.867188 13.097656 2.929688 13.597656 C 2.921875 13.617188 2.917969 13.636719 2.914062 13.660156 C 2.898438 13.695312 2.886719 13.734375 2.871094 13.769531 C 2.714844 12.980469 2.527344 12.261719 2.269531 11.6875 C 2.277344 11.675781 2.28125 11.660156 2.285156 11.648438 C 2.277344 11.660156 2.273438 11.671875 2.269531 11.679688 C 2.246094 11.632812 2.226562 11.578125 2.203125 11.527344 C 2.222656 11.578125 2.230469 11.664062 2.25 11.722656 C 2.007812 12.144531 1.828125 12.675781 1.664062 13.242188 C 1.535156 12.863281 1.390625 12.511719 1.222656 12.210938 C 1.367188 12.5625 1.457031 13.105469 1.515625 13.761719 C 1.503906 13.816406 1.484375 13.867188 1.472656 13.921875 C 1.335938 13.402344 1.167969 12.878906 1.015625 12.355469 C 0.78125 14.847656 2.359375 16.070312 4.320312 15.984375 C 5.488281 16.015625 8.804688 15.984375 10.164062 15.984375 C 10.1875 15.707031 10.207031 15.414062 10.238281 15.144531 C 10.269531 15.429688 10.285156 15.707031 10.304688 15.984375 L 11.871094 15.984375 L 11.984375 15.898438 C 11.996094 15.925781 12.011719 15.957031 12.023438 15.984375 L 13.039062 15.984375 C 14.207031 15.984375 15.226562 15.359375 15.710938 14.308594 C 15.722656 14.160156 15.695312 13.957031 15.710938 13.820312 C 15.769531 13.308594 15.875 12.9375 16 12.617188 Z M 4.117188 12.539062 C 4.152344 12.648438 4.191406 12.753906 4.222656 12.859375 C 4.195312 12.96875 4.171875 13.074219 4.144531 13.183594 C 4.125 13.089844 4.105469 12.992188 4.078125 12.90625 C 4.09375 12.785156 4.105469 12.660156 4.117188 12.539062 Z M 7.695312 12.617188 C 7.730469 13.128906 7.6875 13.785156 7.699219 14.496094 C 7.679688 14.570312 7.65625 14.640625 7.632812 14.707031 C 7.542969 14.539062 7.433594 14.363281 7.300781 14.121094 C 7.398438 13.558594 7.527344 13.046875 7.695312 12.617188 Z M 9.867188 12.96875 C 9.949219 13.3125 10.019531 13.652344 10.074219 13.984375 C 9.9375 14.175781 9.808594 14.398438 9.675781 14.613281 C 9.824219 14.488281 9.964844 14.332031 10.113281 14.203125 C 10.113281 14.222656 10.117188 14.238281 10.121094 14.253906 C 9.972656 14.691406 9.847656 15.175781 9.738281 15.699219 C 9.703125 15.421875 9.652344 15.171875 9.597656 14.941406 C 9.605469 14.761719 9.609375 14.582031 9.609375 14.40625 C 9.675781 13.867188 9.761719 13.394531 9.867188 12.96875 Z M 4.300781 13.089844 C 4.347656 13.25 4.382812 13.410156 4.421875 13.570312 C 4.390625 13.699219 4.359375 13.832031 4.332031 13.964844 C 4.308594 13.84375 4.277344 13.742188 4.25 13.625 C 4.269531 13.445312 4.28125 13.265625 4.300781 13.089844 Z M 12.351562 13.25 C 12.386719 13.527344 12.421875 13.808594 12.457031 14.085938 C 12.386719 14.007812 12.3125 13.933594 12.238281 13.867188 C 12.222656 13.828125 12.214844 13.785156 12.199219 13.742188 C 12.25 13.578125 12.292969 13.417969 12.351562 13.25 Z M 4.808594 13.261719 C 4.828125 13.316406 4.847656 13.371094 4.863281 13.425781 C 4.839844 13.515625 4.824219 13.605469 4.800781 13.695312 C 4.792969 13.703125 4.785156 13.707031 4.773438 13.714844 C 4.773438 13.710938 4.773438 13.707031 4.769531 13.703125 C 4.78125 13.554688 4.796875 13.410156 4.808594 13.261719 Z M 4.941406 13.65625 C 4.953125 13.703125 4.964844 13.75 4.976562 13.796875 C 4.960938 13.789062 4.945312 13.777344 4.929688 13.769531 C 4.933594 13.730469 4.9375 13.691406 4.941406 13.65625 Z M 6.667969 13.738281 C 6.707031 13.867188 6.757812 14.011719 6.789062 14.125 C 6.695312 14.367188 6.609375 14.617188 6.527344 14.875 C 6.511719 14.796875 6.492188 14.730469 6.472656 14.65625 C 6.527344 14.332031 6.59375 14.027344 6.667969 13.738281 Z M 5.847656 13.984375 C 5.882812 14.1875 5.921875 14.382812 5.953125 14.601562 C 5.871094 14.820312 5.792969 15.046875 5.71875 15.28125 C 5.710938 15.226562 5.695312 15.179688 5.683594 15.128906 C 5.699219 14.972656 5.722656 14.828125 5.746094 14.675781 C 5.789062 14.710938 5.828125 14.746094 5.871094 14.777344 C 5.832031 14.726562 5.792969 14.675781 5.753906 14.625 C 5.785156 14.410156 5.8125 14.1875 5.847656 13.984375 Z M 10.445312 13.992188 C 10.445312 13.992188 10.445312 13.992188 10.445312 13.996094 C 10.5 14.238281 10.550781 14.492188 10.59375 14.75 C 10.554688 14.808594 10.515625 14.867188 10.480469 14.929688 C 10.441406 14.71875 10.398438 14.515625 10.347656 14.332031 C 10.363281 14.230469 10.375 14.117188 10.394531 14.015625 C 10.410156 14.011719 10.425781 13.996094 10.445312 13.992188 Z M 8.164062 14.058594 C 8.253906 14.359375 8.316406 14.636719 8.34375 14.882812 C 8.269531 14.726562 8.210938 14.539062 8.160156 14.328125 C 8.160156 14.238281 8.164062 14.144531 8.164062 14.058594 Z M 4.949219 14.152344 C 4.992188 14.164062 5.035156 14.191406 5.082031 14.210938 C 5.105469 14.3125 5.128906 14.410156 5.148438 14.507812 C 5.125 14.578125 5.101562 14.644531 5.078125 14.714844 C 5.042969 14.515625 4.992188 14.332031 4.9375 14.160156 C 4.941406 14.160156 4.945312 14.15625 4.949219 14.152344 Z M 7.285156 14.230469 C 7.375 14.503906 7.445312 14.761719 7.488281 14.984375 C 7.433594 15.058594 7.367188 15.109375 7.292969 15.140625 C 7.261719 14.980469 7.234375 14.886719 7.207031 14.769531 C 7.230469 14.589844 7.253906 14.402344 7.285156 14.230469 Z M 11.566406 14.359375 C 11.5625 14.371094 11.5625 14.386719 11.558594 14.398438 C 11.550781 14.390625 11.546875 14.386719 11.542969 14.382812 C 11.550781 14.375 11.558594 14.367188 11.566406 14.359375 Z M 12.019531 14.445312 C 12.03125 14.621094 12.035156 14.8125 12.042969 15 C 12.007812 14.949219 11.972656 14.90625 11.933594 14.855469 C 11.960938 14.71875 11.992188 14.582031 12.019531 14.445312 Z M 10.617188 14.894531 C 10.621094 14.910156 10.625 14.925781 10.625 14.945312 C 10.597656 15.0625 10.570312 15.175781 10.546875 15.296875 C 10.53125 15.191406 10.511719 15.109375 10.496094 15.011719 C 10.535156 14.972656 10.578125 14.933594 10.617188 14.894531 Z M 12.519531 14.960938 C 12.53125 14.984375 12.542969 15 12.554688 15.019531 C 12.558594 15.085938 12.566406 15.152344 12.570312 15.21875 C 12.554688 15.132812 12.535156 15.046875 12.519531 14.960938 Z M 8.800781 15.089844 C 8.800781 15.09375 8.800781 15.097656 8.800781 15.105469 C 8.800781 15.105469 8.800781 15.109375 8.800781 15.109375 C 8.800781 15.101562 8.796875 15.097656 8.800781 15.089844 Z M 8.800781 15.089844 "/>
</g>
<mask id="mask2">
  <g filter="url(#alpha)">
<rect x="0" y="0" width="17" height="17" style="fill:rgb(0%,0%,0%);fill-opacity:0.976471;stroke:none;"/>
  </g>
</mask>
<clipPath id="clip3">
  <rect width="17" height="17"/>
</clipPath>
<g id="surface12" clip-path="url(#clip3)">
<path style=" stroke:none;fill-rule:evenodd;fill:rgb(45.098039%,62.745098%,4.705882%);fill-opacity:1;" d="M 1.890625 11.164062 C 2.039062 12.558594 2.164062 13.960938 2.183594 15.414062 C 2.425781 15.578125 2.675781 15.714844 2.964844 15.804688 C 2.957031 14.953125 2.964844 14.152344 3.007812 13.5 C 3.054688 12.789062 3.136719 12.222656 3.269531 11.855469 C 2.976562 12.460938 2.769531 13.257812 2.597656 14.136719 C 2.390625 13.148438 2.148438 12.160156 1.890625 11.164062 Z M 12.253906 11.207031 C 12.425781 12.773438 12.609375 14.332031 12.585938 15.984375 L 13.074219 15.984375 C 13.164062 15.984375 13.25 15.980469 13.339844 15.972656 C 13.332031 15.074219 13.328125 14.210938 13.375 13.527344 C 13.421875 12.824219 13.503906 12.261719 13.632812 11.898438 C 13.339844 12.503906 13.132812 13.300781 12.960938 14.179688 C 12.753906 13.191406 12.511719 12.203125 12.253906 11.207031 Z M 7.644531 12.277344 C 7.757812 12.652344 7.742188 13.226562 7.730469 13.886719 C 7.722656 14.535156 7.71875 15.273438 7.835938 15.984375 L 8.914062 15.984375 C 8.925781 15.636719 8.9375 15.3125 8.992188 14.960938 C 9.046875 14.597656 9.148438 14.203125 9.332031 13.710938 C 9.140625 14.105469 9.003906 14.289062 8.890625 14.507812 C 8.777344 14.726562 8.6875 14.980469 8.585938 15.519531 C 8.421875 15.457031 8.3125 15.28125 8.226562 15.035156 C 8.144531 14.792969 8.089844 14.480469 8.039062 14.148438 C 7.941406 13.488281 7.867188 12.738281 7.644531 12.277344 Z M 11.449219 12.492188 C 11.472656 12.722656 11.5 12.953125 11.523438 13.183594 C 11.226562 13.742188 10.929688 14.304688 10.78125 15.09375 C 10.625 14.578125 10.445312 14.101562 10.234375 13.667969 C 10.023438 13.238281 9.78125 12.851562 9.5 12.523438 C 9.707031 12.949219 9.855469 13.488281 9.96875 14.085938 C 10.082031 14.671875 10.164062 15.324219 10.238281 15.984375 L 12.261719 15.984375 C 12.078125 15.074219 11.863281 14.152344 11.628906 13.234375 C 11.699219 13.007812 11.765625 12.785156 11.851562 12.554688 C 11.765625 12.730469 11.675781 12.894531 11.589844 13.0625 C 11.539062 12.871094 11.5 12.683594 11.449219 12.492188 Z M 14.605469 12.582031 C 14.367188 13.015625 14.175781 13.539062 14.011719 14.125 C 13.859375 14.664062 13.742188 15.316406 13.628906 15.929688 C 13.839844 15.890625 14.058594 15.832031 14.25 15.753906 C 14.261719 15.097656 14.277344 14.472656 14.328125 13.960938 C 14.386719 13.375 14.476562 12.902344 14.605469 12.582031 Z M 4.222656 12.835938 C 4 13.242188 3.820312 13.730469 3.664062 14.269531 C 3.523438 14.765625 3.386719 15.335938 3.277344 15.898438 C 3.46875 15.9375 3.667969 15.984375 3.871094 15.984375 L 4.433594 15.984375 C 4.582031 15.679688 4.722656 15.359375 4.882812 15.074219 C 5.046875 14.78125 5.230469 14.527344 5.460938 14.367188 C 5.726562 14.449219 5.96875 14.773438 6.21875 14.992188 C 5.960938 14.554688 5.710938 14.089844 5.339844 13.90625 C 5.027344 14.121094 4.773438 14.425781 4.539062 14.765625 C 4.304688 15.105469 4.089844 15.476562 3.855469 15.816406 C 3.882812 14.480469 3.988281 13.417969 4.222656 12.835938 Z M 5.9375 12.945312 C 6.183594 13.703125 6.304688 14.808594 6.398438 15.984375 L 7.046875 15.984375 C 7.125 15.011719 7.25 14.015625 7.515625 12.976562 C 7.253906 13.773438 6.933594 14.433594 6.796875 15.511719 C 6.585938 14.484375 6.3125 13.601562 5.9375 12.945312 Z M 5.9375 12.945312 "/>
</g>
<mask id="mask3">
  <g filter="url(#alpha)">
<rect x="0" y="0" width="17" height="17" style="fill:rgb(0%,0%,0%);fill-opacity:0.976471;stroke:none;"/>
  </g>
</mask>
<clipPath id="clip4">
  <rect width="17" height="17"/>
</clipPath>
<g id="surface15" clip-path="url(#clip4)">
<path style=" stroke:none;fill-rule:evenodd;fill:rgb(30.196078%,51.372549%,1.568627%);fill-opacity:1;" d="M 3.894531 12.160156 C 3.605469 12.960938 3.339844 13.753906 3.105469 14.546875 C 2.917969 13.84375 2.6875 13.203125 2.359375 12.714844 C 2.503906 13.007812 2.597656 13.457031 2.648438 14.023438 C 2.691406 14.484375 2.671875 15.101562 2.671875 15.691406 C 2.925781 15.820312 3.238281 15.898438 3.53125 15.949219 C 3.519531 14.660156 3.710938 13.382812 3.894531 12.160156 Z M 13.894531 12.683594 C 14.042969 12.976562 14.132812 13.429688 14.183594 14 C 14.230469 14.496094 14.253906 15.117188 14.25 15.753906 C 14.472656 15.65625 14.671875 15.53125 14.863281 15.382812 C 14.773438 14.988281 14.65625 14.539062 14.546875 14.175781 C 14.375 13.601562 14.167969 13.089844 13.894531 12.683594 Z M 9.023438 13.019531 C 8.777344 13.390625 8.695312 13.992188 8.585938 14.523438 C 8.53125 14.789062 8.46875 15.039062 8.375 15.234375 C 8.285156 15.429688 8.160156 15.574219 7.976562 15.625 C 7.867188 15.191406 7.765625 14.988281 7.640625 14.8125 C 7.511719 14.636719 7.359375 14.492188 7.144531 14.171875 C 7.359375 14.574219 7.464844 14.886719 7.527344 15.171875 C 7.585938 15.445312 7.597656 15.699219 7.613281 15.984375 L 8.816406 15.984375 C 8.941406 15.414062 8.941406 14.828125 8.929688 14.308594 C 8.914062 13.78125 8.902344 13.320312 9.023438 13.019531 Z M 4.789062 13.191406 C 4.734375 13.34375 4.6875 13.496094 4.636719 13.652344 C 4.535156 13.519531 4.4375 13.382812 4.34375 13.246094 C 4.4375 13.429688 4.511719 13.609375 4.589844 13.789062 C 4.335938 14.515625 4.078125 15.257812 3.875 15.980469 C 3.914062 15.980469 3.964844 15.984375 4 15.984375 L 6.144531 15.984375 C 6.226562 15.457031 6.3125 14.9375 6.4375 14.46875 C 6.566406 13.988281 6.730469 13.558594 6.960938 13.21875 C 6.648438 13.480469 6.378906 13.792969 6.144531 14.136719 C 5.910156 14.484375 5.707031 14.867188 5.53125 15.28125 C 5.367188 14.648438 5.039062 14.195312 4.707031 13.75 C 4.734375 13.5625 4.761719 13.378906 4.789062 13.191406 Z M 1.277344 13.265625 C 1.421875 13.523438 1.523438 13.902344 1.585938 14.371094 C 1.597656 14.457031 1.601562 14.765625 1.613281 14.859375 C 1.777344 15.101562 1.953125 15.230469 2.183594 15.414062 C 2.101562 15.140625 2.035156 14.75 1.9375 14.5 C 1.757812 14.035156 1.542969 13.613281 1.277344 13.265625 Z M 12.832031 13.46875 C 12.964844 13.703125 13.058594 14.03125 13.121094 14.4375 C 13.1875 14.84375 13.226562 15.324219 13.238281 15.863281 C 12.980469 15.589844 12.742188 15.292969 12.480469 15.019531 C 12.222656 14.746094 11.9375 14.5 11.585938 14.328125 C 11.175781 14.476562 10.898438 14.847656 10.609375 15.199219 C 10.890625 15.023438 11.160156 14.765625 11.457031 14.699219 C 11.710938 14.828125 11.914062 15.03125 12.09375 15.265625 C 12.269531 15.488281 12.425781 15.742188 12.585938 15.984375 L 13.0625 15.984375 C 13.335938 15.984375 13.621094 15.953125 13.875 15.882812 C 13.761719 15.460938 13.601562 14.992188 13.453125 14.617188 C 13.28125 14.183594 13.078125 13.796875 12.832031 13.46875 Z M 10.925781 13.554688 C 10.507812 14.085938 10.203125 14.792969 9.96875 15.617188 C 9.816406 14.75 9.457031 14.222656 9.167969 13.582031 C 9.460938 14.414062 9.601562 15.207031 9.691406 15.984375 L 10.414062 15.984375 C 10.519531 15.042969 10.65625 14.160156 10.925781 13.554688 Z M 10.925781 13.554688 "/>
</g>
<clipPath id="clip5">
  <rect width="17" height="17"/>
</clipPath>
<g id="surface18" clip-path="url(#clip5)">
<path style=" stroke:none;fill-rule:evenodd;fill:rgb(100%,100%,100%);fill-opacity:1;" d="M 11.914062 3.121094 C 13.078125 3.121094 14.023438 4.066406 14.023438 5.230469 C 14.023438 6.398438 13.078125 7.34375 11.914062 7.34375 C 10.746094 7.34375 9.800781 6.398438 9.800781 5.230469 C 9.800781 4.066406 10.746094 3.121094 11.914062 3.121094 Z M 11.914062 3.121094 "/>
</g>
</defs>
<g id="surface1">
<path style=" stroke:none;fill-rule:evenodd;fill:rgb(100%,46.27451%,41.568627%);fill-opacity:1;" d="M 3.984375 1.003906 L 13.042969 1.003906 C 14.679688 1.003906 16.007812 2.328125 16.007812 3.964844 L 16.007812 13.023438 C 16.007812 14.660156 14.679688 15.984375 13.042969 15.984375 L 3.984375 15.984375 C 2.351562 15.984375 1.023438 14.660156 1.023438 13.023438 L 1.023438 3.964844 C 1.023438 2.328125 2.351562 1.003906 3.984375 1.003906 Z M 3.984375 1.003906 "/>
<use xlink:href="#surface6" mask="url(#mask0)"/>
<use xlink:href="#surface9" mask="url(#mask1)"/>
<use xlink:href="#surface12" mask="url(#mask2)"/>
<use xlink:href="#surface15" mask="url(#mask3)"/>
<path style=" stroke:none;fill-rule:nonzero;fill:rgb(45.098039%,62.745098%,4.705882%);fill-opacity:1;" d="M 3.972656 12.914062 C 4.21875 13.679688 4.339844 14.792969 4.433594 15.984375 L 5.0625 15.984375 C 5.136719 15 5.265625 13.996094 5.527344 12.945312 C 5.273438 13.742188 4.957031 14.402344 4.820312 15.480469 C 4.613281 14.453125 4.34375 13.570312 3.972656 12.914062 Z M 3.972656 12.914062 "/>
<use xlink:href="#surface18"/>
</g>
</svg>
