<?xml version="1.0" encoding="UTF-8"?>
<svg xmlns="http://www.w3.org/2000/svg" xmlns:xlink="http://www.w3.org/1999/xlink" width="17pt" height="17pt" viewBox="0 0 17 17" version="1.1">
<defs>
<clipPath id="clip1">
  <rect width="17" height="17"/>
</clipPath>
<g id="surface6" clip-path="url(#clip1)">
<path style=" stroke:none;fill-rule:nonzero;fill:rgb(90.588235%,29.803922%,23.529412%);fill-opacity:1;" d="M 7.277344 6.375 C 6.488281 6.375 5.84375 6.96875 5.84375 7.703125 C 5.84375 8.085938 6.015625 8.433594 6.292969 8.675781 L 8.464844 10.625 L 10.707031 8.675781 C 10.984375 8.433594 11.15625 8.085938 11.15625 7.703125 C 11.15625 6.96875 10.511719 6.375 9.722656 6.375 C 9.203125 6.375 8.75 6.628906 8.5 7.015625 C 8.25 6.628906 7.800781 6.375 7.277344 6.375 Z M 7.277344 6.375 "/>
</g>
<clipPath id="clip2">
  <rect width="17" height="17"/>
</clipPath>
<g id="surface9" clip-path="url(#clip2)">
<path style=" stroke:none;fill-rule:nonzero;fill:rgb(90.588235%,29.803922%,23.529412%);fill-opacity:1;" d="M 4.292969 5.3125 C 3.976562 5.3125 3.71875 5.535156 3.71875 5.8125 C 3.71875 5.953125 3.789062 6.085938 3.898438 6.175781 L 4.765625 6.90625 L 5.664062 6.175781 C 5.773438 6.085938 5.84375 5.953125 5.84375 5.8125 C 5.84375 5.535156 5.585938 5.3125 5.269531 5.3125 C 5.0625 5.3125 4.882812 5.40625 4.78125 5.554688 C 4.679688 5.40625 4.5 5.3125 4.292969 5.3125 Z M 4.292969 5.3125 "/>
</g>
<clipPath id="clip3">
  <rect width="17" height="17"/>
</clipPath>
<g id="surface12" clip-path="url(#clip3)">
<path style=" stroke:none;fill-rule:nonzero;fill:rgb(90.588235%,29.803922%,23.529412%);fill-opacity:1;" d="M 12.707031 11.6875 C 13.023438 11.6875 13.28125 11.464844 13.28125 11.1875 C 13.28125 11.046875 13.210938 10.914062 13.101562 10.824219 L 12.234375 10.09375 L 11.335938 10.824219 C 11.226562 10.914062 11.15625 11.046875 11.15625 11.1875 C 11.15625 11.464844 11.414062 11.6875 11.730469 11.6875 C 11.9375 11.6875 12.117188 11.59375 12.21875 11.445312 C 12.320312 11.59375 12.5 11.6875 12.707031 11.6875 Z M 12.707031 11.6875 "/>
</g>
</defs>
<g id="surface1">
<path style=" stroke:none;fill-rule:evenodd;fill:rgb(80%,80%,80%);fill-opacity:1;" d="M 3.96875 1.007812 L 13.03125 1.007812 C 14.664062 1.007812 15.992188 2.335938 15.992188 3.96875 L 15.992188 13.03125 C 15.992188 14.664062 14.664062 15.992188 13.03125 15.992188 L 3.96875 15.992188 C 2.335938 15.992188 1.007812 14.664062 1.007812 13.03125 L 1.007812 3.96875 C 1.007812 2.335938 2.335938 1.007812 3.96875 1.007812 Z M 3.96875 1.007812 "/>
<use xlink:href="#surface6"/>
<use xlink:href="#surface9"/>
<path style=" stroke:none;fill-rule:nonzero;fill:rgb(90.588235%,29.803922%,23.529412%);fill-opacity:1;" d="M 5.261719 4.394531 L 4.40625 4.394531 L 4.269531 4.78125 L 3.71875 4.78125 L 4.503906 2.65625 L 5.160156 2.65625 L 5.945312 4.78125 L 5.394531 4.78125 Z M 4.542969 4 L 5.125 4 L 4.832031 3.15625 Z M 4.542969 4 "/>
<use xlink:href="#surface12"/>
<path style=" stroke:none;fill-rule:nonzero;fill:rgb(90.588235%,29.803922%,23.529412%);fill-opacity:1;" d="M 11.738281 12.605469 L 12.59375 12.605469 L 12.730469 12.21875 L 13.28125 12.21875 L 12.492188 14.34375 L 11.839844 14.34375 L 11.054688 12.21875 L 11.605469 12.21875 Z M 12.457031 13 L 11.875 13 L 12.167969 13.847656 Z M 12.457031 13 "/>
</g>
</svg>
