<?xml version="1.0" encoding="UTF-8"?>
<svg xmlns="http://www.w3.org/2000/svg" xmlns:xlink="http://www.w3.org/1999/xlink" width="17pt" height="17pt" viewBox="0 0 17 17" version="1.1">
<g id="surface1">
<path style=" stroke:none;fill-rule:evenodd;fill:rgb(0.784314%,52.54902%,76.078431%);fill-opacity:1;" d="M 3.96875 1.007812 L 13.03125 1.007812 C 14.664062 1.007812 15.992188 2.335938 15.992188 3.96875 L 15.992188 13.03125 C 15.992188 14.664062 14.664062 15.992188 13.03125 15.992188 L 3.96875 15.992188 C 2.335938 15.992188 1.007812 14.664062 1.007812 13.03125 L 1.007812 3.96875 C 1.007812 2.335938 2.335938 1.007812 3.96875 1.007812 Z M 3.96875 1.007812 "/>
<path style=" stroke:none;fill-rule:evenodd;fill:rgb(13.333333%,59.215686%,99.215686%);fill-opacity:1;" d="M 10.117188 6.71875 L 10.117188 8.390625 L 11.09375 8.390625 C 11.429688 8.390625 11.679688 8.320312 11.847656 8.179688 C 12.015625 8.039062 12.101562 7.832031 12.101562 7.546875 C 12.101562 7.273438 12.019531 7.066406 11.851562 6.929688 C 11.683594 6.789062 11.433594 6.71875 11.09375 6.71875 Z M 10.117188 6.71875 "/>
<path style=" stroke:none;fill-rule:evenodd;fill:rgb(13.333333%,59.215686%,99.215686%);fill-opacity:1;" d="M 10.117188 4.253906 L 10.117188 5.601562 L 11.039062 5.601562 C 11.300781 5.601562 11.5 5.542969 11.636719 5.429688 C 11.769531 5.316406 11.839844 5.148438 11.839844 4.925781 C 11.839844 4.707031 11.769531 4.542969 11.636719 4.425781 C 11.5 4.3125 11.300781 4.253906 11.039062 4.253906 Z M 10.117188 4.253906 "/>
<path style=" stroke:none;fill-rule:evenodd;fill:rgb(100%,100%,100%);fill-opacity:1;" d="M 8.453125 3.132812 L 8.453125 9.507812 L 11.214844 9.507812 C 11.644531 9.507812 12.019531 9.472656 12.339844 9.394531 C 12.660156 9.320312 12.925781 9.207031 13.136719 9.054688 C 13.347656 8.90625 13.503906 8.714844 13.609375 8.484375 C 13.714844 8.257812 13.765625 7.988281 13.765625 7.679688 C 13.765625 7.28125 13.667969 6.941406 13.472656 6.664062 C 13.277344 6.386719 13 6.199219 12.644531 6.097656 C 12.921875 5.992188 13.136719 5.832031 13.28125 5.613281 C 13.429688 5.394531 13.503906 5.128906 13.503906 4.820312 C 13.503906 4.523438 13.453125 4.269531 13.351562 4.058594 C 13.25 3.84375 13.101562 3.667969 12.898438 3.535156 C 12.699219 3.402344 12.433594 3.300781 12.109375 3.234375 C 11.785156 3.167969 11.402344 3.132812 10.953125 3.132812 Z M 10.117188 4.253906 L 11.039062 4.253906 C 11.300781 4.253906 11.5 4.3125 11.636719 4.425781 C 11.769531 4.542969 11.839844 4.707031 11.839844 4.925781 C 11.839844 5.148438 11.769531 5.316406 11.636719 5.429688 C 11.5 5.542969 11.300781 5.601562 11.039062 5.601562 L 10.117188 5.601562 Z M 10.117188 6.71875 L 11.09375 6.71875 C 11.433594 6.71875 11.683594 6.789062 11.851562 6.929688 C 12.019531 7.066406 12.101562 7.273438 12.101562 7.546875 C 12.101562 7.832031 12.015625 8.039062 11.847656 8.179688 C 11.679688 8.320312 11.429688 8.390625 11.09375 8.390625 L 10.117188 8.390625 Z M 10.117188 6.71875 "/>
<path style=" stroke:none;fill-rule:evenodd;fill:rgb(0.784314%,52.54902%,76.078431%);fill-opacity:1;" d="M 11.640625 11.632812 L 11.640625 15.617188 C 11.640625 15.765625 11.554688 15.875 11.488281 15.992188 L 13.03125 15.992188 C 14.671875 15.992188 15.992188 14.671875 15.992188 13.03125 L 15.992188 11.480469 C 15.875 11.546875 15.769531 11.632812 15.625 11.632812 Z M 11.640625 11.632812 "/>
<path style=" stroke:none;fill-rule:evenodd;fill:rgb(95.294118%,26.666667%,24.705882%);fill-opacity:1;" d="M 5.300781 10.921875 L 4.964844 11.945312 L 6.632812 11.945312 L 6.527344 11.632812 L 6.0625 11.632812 C 5.84375 11.632812 5.644531 11.542969 5.5 11.398438 C 5.378906 11.277344 5.324219 11.101562 5.300781 10.921875 Z M 5.300781 10.921875 "/>
<path style=" stroke:none;fill-rule:evenodd;fill:rgb(100%,100%,100%);fill-opacity:1;" d="M 5.265625 7.914062 L 4.863281 7.914062 L 2.609375 14.289062 L 4.1875 14.289062 L 4.574219 13.128906 L 7.027344 13.128906 L 7.410156 14.289062 L 8.984375 14.289062 L 8.046875 11.632812 L 6.527344 11.632812 L 6.632812 11.945312 L 4.964844 11.945312 L 5.300781 10.921875 C 5.296875 10.890625 5.265625 10.871094 5.265625 10.835938 Z M 5.265625 7.914062 "/>
<path style=" stroke:none;fill-rule:evenodd;fill:rgb(95.294118%,26.666667%,24.705882%);fill-opacity:1;" d="M 1.28125 5.257812 C 1.175781 5.257812 1.101562 5.332031 1.007812 5.371094 L 1.007812 13.03125 C 1.007812 14.671875 2.328125 15.992188 3.96875 15.992188 L 11.488281 15.992188 C 11.554688 15.875 11.640625 15.765625 11.640625 15.617188 L 11.640625 11.632812 L 8.046875 11.632812 L 8.984375 14.289062 L 7.410156 14.289062 L 7.027344 13.128906 L 4.574219 13.128906 L 4.1875 14.289062 L 2.609375 14.289062 L 4.863281 7.914062 L 5.265625 7.914062 L 5.265625 5.257812 Z M 1.28125 5.257812 "/>
<path style=" stroke:none;fill-rule:evenodd;fill:rgb(0.784314%,52.54902%,76.078431%);fill-opacity:1;" d="M 3.96875 1.007812 C 2.328125 1.007812 1.007812 2.328125 1.007812 3.972656 L 1.007812 5.371094 C 1.101562 5.332031 1.175781 5.257812 1.28125 5.257812 L 5.265625 5.257812 L 5.265625 1.273438 C 5.265625 1.171875 5.339844 1.097656 5.375 1.007812 Z M 3.96875 1.007812 "/>
<path style=" stroke:none;fill-rule:evenodd;fill:rgb(13.333333%,59.215686%,99.215686%);fill-opacity:1;" d="M 5.375 1.007812 C 5.339844 1.097656 5.265625 1.171875 5.265625 1.273438 L 5.265625 10.835938 C 5.265625 11.058594 5.355469 11.257812 5.5 11.398438 C 5.644531 11.542969 5.84375 11.632812 6.0625 11.632812 L 15.625 11.632812 C 15.769531 11.632812 15.875 11.546875 15.992188 11.480469 L 15.992188 3.972656 C 15.992188 2.328125 14.671875 1.007812 13.03125 1.007812 Z M 8.453125 3.132812 L 10.953125 3.132812 C 11.402344 3.132812 11.785156 3.167969 12.109375 3.234375 C 12.433594 3.300781 12.699219 3.402344 12.898438 3.535156 C 13.101562 3.667969 13.25 3.84375 13.351562 4.058594 C 13.453125 4.269531 13.503906 4.523438 13.503906 4.820312 C 13.503906 5.128906 13.429688 5.394531 13.28125 5.613281 C 13.136719 5.832031 12.921875 5.992188 12.644531 6.097656 C 13 6.199219 13.277344 6.386719 13.472656 6.664062 C 13.667969 6.941406 13.765625 7.28125 13.765625 7.679688 C 13.765625 7.988281 13.714844 8.257812 13.609375 8.484375 C 13.503906 8.714844 13.347656 8.90625 13.136719 9.054688 C 12.925781 9.207031 12.660156 9.320312 12.339844 9.394531 C 12.019531 9.472656 11.644531 9.507812 11.214844 9.507812 L 8.453125 9.507812 Z M 8.453125 3.132812 "/>
</g>
</svg>
