<?xml version="1.0" encoding="UTF-8"?>
<svg xmlns="http://www.w3.org/2000/svg" xmlns:xlink="http://www.w3.org/1999/xlink" width="17pt" height="17pt" viewBox="0 0 17 17" version="1.1">
<g id="surface1">
<path style=" stroke:none;fill-rule:evenodd;fill:rgb(35.294118%,63.921569%,19.215686%);fill-opacity:1;" d="M 3.96875 1.007812 L 13.03125 1.007812 C 14.664062 1.007812 15.992188 2.335938 15.992188 3.96875 L 15.992188 13.03125 C 15.992188 14.664062 14.664062 15.992188 13.03125 15.992188 L 3.96875 15.992188 C 2.335938 15.992188 1.007812 14.664062 1.007812 13.03125 L 1.007812 3.96875 C 1.007812 2.335938 2.335938 1.007812 3.96875 1.007812 Z M 3.96875 1.007812 "/>
<path style=" stroke:none;fill-rule:nonzero;fill:rgb(93.72549%,93.72549%,93.72549%);fill-opacity:1;" d="M 13.8125 8.5 C 13.8125 11.433594 11.433594 13.8125 8.5 13.8125 C 5.566406 13.8125 3.1875 11.433594 3.1875 8.5 C 3.1875 5.566406 5.566406 3.1875 8.5 3.1875 C 11.433594 3.1875 13.8125 5.566406 13.8125 8.5 Z M 13.8125 8.5 "/>
<path style=" stroke:none;fill-rule:nonzero;fill:rgb(100%,20.784314%,18.039216%);fill-opacity:1;" d="M 6.6875 12.695312 C 6.65625 12.683594 6.609375 12.640625 6.578125 12.601562 C 6.546875 12.5625 6.46875 12.476562 6.402344 12.414062 C 6.300781 12.316406 6.273438 12.296875 6.222656 12.292969 C 6.1875 12.292969 6.136719 12.269531 6.101562 12.246094 C 6.039062 12.203125 5.921875 12.070312 5.921875 12.039062 C 5.921875 12.015625 5.851562 11.992188 5.78125 11.992188 C 5.65625 11.992188 5.5625 11.929688 5.535156 11.828125 C 5.523438 11.796875 5.5 11.726562 5.480469 11.675781 C 5.453125 11.597656 5.4375 11.582031 5.386719 11.5625 C 5.105469 11.453125 5.097656 11.449219 5.054688 11.339844 C 5.039062 11.300781 5.007812 11.25 4.992188 11.226562 C 4.964844 11.191406 4.960938 11.167969 4.96875 11.105469 C 4.976562 11.046875 4.972656 11.015625 4.945312 10.96875 C 4.914062 10.910156 4.914062 10.902344 4.933594 10.851562 C 4.949219 10.824219 4.96875 10.796875 4.976562 10.789062 C 4.988281 10.785156 5.007812 10.757812 5.023438 10.734375 C 5.046875 10.6875 5.046875 10.6875 4.976562 10.625 C 4.9375 10.59375 4.871094 10.546875 4.832031 10.523438 C 4.773438 10.488281 4.753906 10.464844 4.734375 10.402344 C 4.691406 10.269531 4.699219 10.230469 4.792969 10.140625 C 4.839844 10.097656 4.878906 10.046875 4.878906 10.03125 C 4.878906 10.015625 4.847656 9.976562 4.8125 9.9375 C 4.777344 9.902344 4.722656 9.839844 4.6875 9.796875 C 4.605469 9.6875 4.558594 9.652344 4.464844 9.617188 C 4.324219 9.570312 4.164062 9.507812 4.136719 9.496094 C 4.121094 9.488281 4.089844 9.449219 4.066406 9.410156 C 4 9.296875 3.964844 9.273438 3.859375 9.265625 C 3.707031 9.253906 3.695312 9.207031 3.746094 8.863281 C 3.769531 8.71875 3.796875 8.660156 3.875 8.574219 C 3.972656 8.460938 4.054688 8.425781 4.214844 8.414062 C 4.339844 8.40625 4.355469 8.410156 4.472656 8.457031 C 4.542969 8.484375 4.613281 8.515625 4.625 8.523438 C 4.6875 8.558594 4.9375 8.894531 4.953125 8.964844 C 4.960938 8.988281 4.984375 9.03125 5.011719 9.066406 C 5.050781 9.121094 5.074219 9.132812 5.222656 9.179688 C 5.3125 9.207031 5.410156 9.246094 5.4375 9.269531 C 5.503906 9.316406 5.515625 9.316406 5.59375 9.261719 C 5.707031 9.179688 5.761719 9.15625 5.875 9.144531 C 6.050781 9.125 6.058594 9.121094 6.058594 9.019531 C 6.058594 8.953125 6.070312 8.914062 6.101562 8.863281 C 6.164062 8.765625 6.203125 8.773438 6.3125 8.886719 C 6.363281 8.9375 6.4375 8.996094 6.480469 9.015625 C 6.554688 9.054688 6.558594 9.054688 6.625 9.027344 C 6.695312 9 6.78125 8.914062 6.816406 8.832031 C 6.847656 8.761719 6.824219 8.664062 6.769531 8.605469 C 6.664062 8.492188 6.53125 8.292969 6.53125 8.242188 C 6.53125 8.175781 6.648438 8.015625 6.730469 7.964844 C 6.8125 7.917969 6.839844 7.882812 6.878906 7.769531 C 6.921875 7.640625 6.953125 7.585938 7.015625 7.542969 C 7.078125 7.5 7.082031 7.476562 7.042969 7.382812 C 6.980469 7.21875 7.027344 7.121094 7.207031 7.042969 C 7.335938 6.988281 7.355469 6.949219 7.289062 6.894531 C 7.238281 6.851562 7.246094 6.792969 7.3125 6.742188 C 7.394531 6.683594 7.433594 6.574219 7.40625 6.480469 C 7.394531 6.445312 7.371094 6.386719 7.355469 6.355469 C 7.292969 6.246094 7.316406 6.183594 7.445312 6.136719 C 7.511719 6.109375 7.578125 6.042969 7.578125 6.003906 C 7.578125 5.988281 7.542969 5.949219 7.5 5.910156 C 7.421875 5.835938 7.394531 5.773438 7.425781 5.722656 C 7.449219 5.679688 7.519531 5.683594 7.574219 5.738281 C 7.597656 5.761719 7.636719 5.785156 7.660156 5.789062 C 7.726562 5.804688 7.863281 5.738281 7.925781 5.664062 C 7.96875 5.617188 7.996094 5.597656 8.050781 5.589844 C 8.085938 5.585938 8.148438 5.558594 8.1875 5.53125 C 8.253906 5.484375 8.257812 5.472656 8.257812 5.414062 C 8.257812 5.347656 8.261719 5.34375 8.320312 5.335938 C 8.394531 5.324219 8.460938 5.285156 8.496094 5.234375 C 8.523438 5.199219 8.523438 5.191406 8.488281 5.144531 C 8.46875 5.113281 8.453125 5.078125 8.453125 5.058594 C 8.453125 5.039062 8.445312 4.996094 8.433594 4.957031 C 8.421875 4.921875 8.417969 4.867188 8.425781 4.832031 C 8.449219 4.730469 8.5625 4.71875 8.65625 4.808594 C 8.714844 4.867188 8.71875 4.902344 8.671875 4.96875 C 8.644531 5.011719 8.644531 5.019531 8.664062 5.046875 C 8.6875 5.074219 8.691406 5.074219 8.773438 5.050781 C 8.886719 5.015625 8.957031 5.019531 9.054688 5.066406 C 9.101562 5.085938 9.164062 5.105469 9.203125 5.105469 C 9.300781 5.105469 9.351562 5.132812 9.367188 5.195312 C 9.390625 5.308594 9.460938 5.3125 9.53125 5.203125 C 9.578125 5.136719 9.621094 5.125 9.710938 5.15625 C 9.769531 5.175781 9.785156 5.175781 9.820312 5.15625 C 9.878906 5.125 9.925781 5.128906 10.046875 5.171875 C 10.109375 5.195312 10.164062 5.207031 10.183594 5.203125 C 10.199219 5.195312 10.265625 5.144531 10.324219 5.085938 C 10.417969 4.992188 10.441406 4.980469 10.492188 4.980469 C 10.566406 4.980469 10.652344 5.027344 10.683594 5.085938 C 10.699219 5.109375 10.738281 5.148438 10.769531 5.167969 C 10.808594 5.199219 10.828125 5.226562 10.835938 5.269531 C 10.84375 5.300781 10.871094 5.363281 10.90625 5.40625 C 10.949219 5.464844 10.964844 5.5 10.976562 5.578125 C 10.984375 5.667969 10.992188 5.679688 11.035156 5.699219 C 11.109375 5.734375 11.175781 5.730469 11.238281 5.679688 C 11.269531 5.65625 11.324219 5.617188 11.359375 5.59375 C 11.398438 5.566406 11.441406 5.515625 11.46875 5.460938 C 11.507812 5.382812 11.519531 5.375 11.582031 5.363281 C 11.65625 5.351562 11.746094 5.382812 11.78125 5.433594 C 11.820312 5.480469 11.796875 5.636719 11.738281 5.734375 C 11.695312 5.804688 11.691406 5.828125 11.699219 5.878906 C 11.710938 5.945312 11.726562 5.964844 11.832031 6.039062 C 11.867188 6.0625 11.90625 6.109375 11.925781 6.140625 C 11.972656 6.222656 12.097656 6.292969 12.152344 6.269531 C 12.183594 6.257812 12.195312 6.238281 12.199219 6.179688 C 12.207031 6.140625 12.21875 6.101562 12.230469 6.089844 C 12.253906 6.066406 12.46875 6.070312 12.515625 6.097656 C 12.539062 6.109375 12.550781 6.128906 12.550781 6.164062 C 12.550781 6.195312 12.5625 6.242188 12.578125 6.277344 C 12.597656 6.320312 12.605469 6.378906 12.601562 6.480469 C 12.597656 6.644531 12.605469 6.65625 12.726562 6.785156 C 12.851562 6.921875 12.894531 6.976562 12.96875 7.109375 C 13.066406 7.273438 13.105469 7.371094 13.117188 7.484375 C 13.125 7.550781 13.144531 7.597656 13.175781 7.640625 C 13.292969 7.796875 13.300781 7.898438 13.253906 8.402344 C 13.238281 8.597656 13.230469 8.71875 13.242188 8.757812 C 13.25 8.796875 13.25 8.894531 13.234375 9.039062 C 13.207031 9.273438 13.183594 9.355469 13.066406 9.601562 C 13.015625 9.699219 13 9.753906 12.996094 9.832031 C 12.96875 10.363281 12.847656 10.597656 12.605469 10.597656 C 12.554688 10.597656 12.503906 10.617188 12.386719 10.683594 C 12.152344 10.820312 12.113281 10.839844 11.972656 10.871094 C 11.808594 10.910156 11.738281 10.949219 11.703125 11.019531 C 11.664062 11.089844 11.671875 11.105469 11.78125 11.183594 C 11.898438 11.265625 11.902344 11.277344 11.871094 11.371094 C 11.820312 11.519531 11.757812 11.53125 11.597656 11.417969 C 11.53125 11.371094 11.46875 11.339844 11.441406 11.339844 C 11.417969 11.339844 11.339844 11.367188 11.269531 11.402344 C 11.050781 11.503906 10.996094 11.511719 10.875 11.464844 C 10.785156 11.425781 10.777344 11.429688 10.652344 11.527344 C 10.605469 11.566406 10.59375 11.589844 10.59375 11.632812 C 10.59375 11.703125 10.570312 11.730469 10.503906 11.730469 C 10.476562 11.730469 10.4375 11.742188 10.421875 11.753906 C 10.402344 11.769531 10.363281 11.78125 10.328125 11.78125 C 10.269531 11.78125 10.265625 11.789062 10.246094 11.851562 C 10.222656 11.929688 10.15625 11.992188 10.105469 11.992188 C 10.085938 11.992188 10.035156 12.007812 9.988281 12.03125 C 9.816406 12.109375 9.695312 12.101562 9.523438 12 C 9.371094 11.90625 9.351562 11.890625 9.304688 11.804688 C 9.25 11.710938 9.214844 11.683594 9.09375 11.65625 C 9.035156 11.644531 8.9375 11.617188 8.878906 11.59375 C 8.78125 11.558594 8.753906 11.554688 8.640625 11.5625 C 8.570312 11.570312 8.503906 11.574219 8.496094 11.574219 C 8.484375 11.574219 8.417969 11.574219 8.347656 11.570312 C 8.230469 11.5625 8.210938 11.5625 8.175781 11.527344 C 8.132812 11.476562 8.023438 11.417969 7.980469 11.417969 C 7.941406 11.417969 7.863281 11.488281 7.820312 11.5625 C 7.792969 11.613281 7.789062 11.625 7.808594 11.6875 C 7.839844 11.796875 7.835938 11.816406 7.773438 11.851562 C 7.726562 11.878906 7.703125 11.882812 7.601562 11.875 C 7.5 11.867188 7.472656 11.871094 7.410156 11.902344 C 7.371094 11.921875 7.292969 11.980469 7.238281 12.03125 C 7.140625 12.117188 7.136719 12.128906 7.144531 12.175781 C 7.164062 12.296875 7.113281 12.335938 7.023438 12.269531 C 6.972656 12.234375 6.945312 12.234375 6.855469 12.269531 C 6.765625 12.308594 6.765625 12.328125 6.847656 12.339844 C 6.882812 12.347656 6.945312 12.359375 6.988281 12.375 C 7.0625 12.394531 7.074219 12.394531 7.144531 12.375 C 7.21875 12.347656 7.222656 12.347656 7.300781 12.382812 C 7.398438 12.425781 7.421875 12.480469 7.390625 12.578125 C 7.367188 12.664062 7.335938 12.679688 7.144531 12.695312 C 6.773438 12.726562 6.742188 12.726562 6.6875 12.699219 Z M 11.101562 11.238281 C 11.121094 11.222656 11.152344 11.179688 11.171875 11.144531 C 11.210938 11.078125 11.210938 11.085938 11.203125 10.5 C 11.199219 10.140625 11.210938 10.09375 11.316406 9.980469 C 11.367188 9.925781 11.410156 9.898438 11.519531 9.859375 C 11.761719 9.765625 11.894531 9.679688 11.945312 9.578125 C 11.984375 9.5 11.984375 9.4375 11.945312 9.328125 C 11.902344 9.214844 11.875 9.191406 11.828125 9.210938 C 11.785156 9.234375 11.746094 9.222656 11.734375 9.175781 C 11.726562 9.144531 11.714844 9.136719 11.640625 9.140625 C 11.570312 9.140625 11.558594 9.144531 11.542969 9.175781 C 11.515625 9.226562 11.476562 9.222656 11.453125 9.171875 C 11.441406 9.136719 11.429688 9.132812 11.386719 9.140625 C 11.34375 9.148438 11.335938 9.144531 11.335938 9.121094 C 11.335938 9.105469 11.351562 9.074219 11.371094 9.050781 C 11.40625 9.007812 11.40625 9.007812 11.375 9 C 11.355469 8.996094 11.316406 8.964844 11.289062 8.929688 C 11.242188 8.867188 11.238281 8.855469 11.234375 8.691406 C 11.226562 8.398438 11.230469 8.367188 11.273438 8.316406 C 11.304688 8.28125 11.316406 8.246094 11.324219 8.148438 C 11.332031 8.082031 11.34375 7.949219 11.351562 7.855469 C 11.371094 7.671875 11.355469 7.554688 11.300781 7.464844 C 11.265625 7.410156 11.234375 7.179688 11.242188 7.027344 C 11.246094 6.929688 11.242188 6.910156 11.210938 6.890625 C 11.179688 6.871094 11.171875 6.875 11.132812 6.910156 C 11.082031 6.957031 11.074219 6.957031 11.0625 6.914062 C 11.054688 6.898438 11.039062 6.886719 11.019531 6.886719 C 10.964844 6.886719 10.972656 6.851562 11.035156 6.804688 C 11.078125 6.773438 11.085938 6.761719 11.070312 6.734375 C 11.035156 6.675781 11.109375 6.644531 11.242188 6.667969 C 11.265625 6.675781 11.277344 6.667969 11.273438 6.652344 C 11.269531 6.640625 11.277344 6.613281 11.285156 6.585938 C 11.3125 6.535156 11.285156 6.496094 11.226562 6.496094 C 11.179688 6.496094 11.152344 6.457031 11.152344 6.398438 C 11.152344 6.375 11.136719 6.351562 11.117188 6.339844 C 11.078125 6.316406 11.074219 6.296875 11.109375 6.273438 C 11.132812 6.257812 11.132812 6.25 11.101562 6.199219 C 11.058594 6.128906 10.988281 6.09375 10.882812 6.078125 C 10.839844 6.070312 10.753906 6.058594 10.6875 6.046875 C 10.621094 6.039062 10.507812 6.019531 10.433594 6.007812 C 10.171875 5.957031 10.011719 5.949219 9.878906 5.976562 C 9.609375 6.03125 9.414062 6.132812 9.355469 6.253906 C 9.308594 6.34375 9.253906 6.429688 9.183594 6.515625 C 9.144531 6.5625 9.105469 6.628906 9.09375 6.664062 C 9.078125 6.722656 9.054688 6.757812 8.921875 6.933594 C 8.886719 6.980469 8.75 7.125 8.613281 7.253906 C 8.417969 7.441406 8.355469 7.511719 8.308594 7.601562 C 8.273438 7.664062 8.242188 7.738281 8.234375 7.761719 C 8.226562 7.789062 8.203125 7.84375 8.1875 7.886719 C 8.167969 7.929688 8.132812 8.007812 8.113281 8.0625 C 8.078125 8.148438 8.054688 8.175781 7.914062 8.296875 C 7.71875 8.460938 7.644531 8.578125 7.675781 8.664062 C 7.695312 8.710938 7.691406 8.726562 7.636719 8.816406 C 7.582031 8.914062 7.582031 8.917969 7.609375 8.941406 C 7.640625 8.96875 7.640625 8.96875 7.601562 9.023438 C 7.574219 9.0625 7.5625 9.089844 7.570312 9.121094 C 7.578125 9.152344 7.570312 9.167969 7.542969 9.179688 C 7.523438 9.191406 7.507812 9.207031 7.507812 9.21875 C 7.507812 9.230469 7.492188 9.253906 7.46875 9.269531 C 7.429688 9.296875 7.425781 9.300781 7.445312 9.371094 C 7.460938 9.433594 7.460938 9.449219 7.4375 9.472656 C 7.417969 9.492188 7.40625 9.535156 7.402344 9.59375 C 7.398438 9.683594 7.398438 9.6875 7.449219 9.71875 C 7.476562 9.734375 7.507812 9.773438 7.519531 9.800781 C 7.554688 9.898438 7.605469 9.929688 7.78125 9.953125 C 7.867188 9.964844 7.976562 9.972656 8.023438 9.972656 C 8.074219 9.972656 8.136719 9.984375 8.167969 9.996094 C 8.199219 10.007812 8.3125 10.023438 8.417969 10.035156 C 8.523438 10.042969 8.617188 10.054688 8.625 10.0625 C 8.667969 10.085938 8.78125 10.097656 8.96875 10.105469 C 9.222656 10.113281 9.378906 10.121094 9.496094 10.136719 C 9.574219 10.144531 9.589844 10.144531 9.628906 10.109375 C 9.667969 10.074219 9.671875 10.074219 9.695312 10.105469 C 9.707031 10.121094 9.71875 10.148438 9.71875 10.167969 C 9.71875 10.191406 9.742188 10.21875 9.777344 10.246094 C 9.859375 10.308594 9.902344 10.382812 9.902344 10.457031 C 9.902344 10.496094 9.90625 10.574219 9.90625 10.640625 C 9.910156 10.746094 9.914062 10.757812 9.949219 10.761719 C 9.992188 10.765625 10.011719 10.832031 9.988281 10.894531 C 9.96875 10.941406 9.988281 10.980469 10.035156 10.980469 C 10.058594 10.980469 10.058594 11 10.027344 11.125 C 10.011719 11.1875 10.070312 11.183594 10.09375 11.121094 C 10.117188 11.0625 10.171875 11.054688 10.171875 11.109375 C 10.171875 11.179688 10.25 11.171875 10.28125 11.097656 C 10.296875 11.0625 10.351562 11.136719 10.351562 11.195312 C 10.351562 11.242188 10.355469 11.25 10.382812 11.246094 C 10.472656 11.234375 10.707031 11.246094 10.726562 11.265625 C 10.730469 11.273438 10.8125 11.273438 10.902344 11.269531 C 11.03125 11.265625 11.074219 11.257812 11.101562 11.234375 Z M 9.226562 8.980469 C 9.125 8.964844 9.011719 8.917969 8.96875 8.875 C 8.9375 8.84375 8.9375 8.835938 8.957031 8.773438 C 8.96875 8.738281 8.984375 8.679688 8.992188 8.644531 C 8.996094 8.609375 9.023438 8.554688 9.046875 8.519531 C 9.109375 8.433594 9.179688 8.304688 9.179688 8.273438 C 9.179688 8.191406 9.316406 8.042969 9.480469 7.9375 C 9.503906 7.921875 9.550781 7.894531 9.585938 7.871094 C 9.628906 7.84375 9.65625 7.835938 9.671875 7.84375 C 9.722656 7.867188 9.84375 8.03125 9.867188 8.097656 C 9.890625 8.171875 9.914062 8.230469 9.96875 8.351562 C 9.984375 8.394531 10.003906 8.449219 10.011719 8.46875 C 10.019531 8.511719 10.125 8.578125 10.175781 8.578125 C 10.210938 8.578125 10.253906 8.628906 10.273438 8.683594 C 10.289062 8.738281 10.273438 8.796875 10.210938 8.890625 C 10.148438 8.984375 10.078125 8.996094 9.660156 8.996094 C 9.464844 8.996094 9.269531 8.988281 9.226562 8.980469 Z M 11.285156 6.789062 C 11.285156 6.777344 11.265625 6.753906 11.242188 6.742188 C 11.203125 6.71875 11.203125 6.71875 11.203125 6.746094 C 11.203125 6.777344 11.230469 6.8125 11.265625 6.8125 C 11.277344 6.8125 11.285156 6.800781 11.285156 6.789062 Z M 10.101562 12.3125 C 10.082031 12.261719 10.175781 12.175781 10.222656 12.203125 C 10.25 12.21875 10.242188 12.28125 10.210938 12.308594 C 10.171875 12.335938 10.113281 12.339844 10.101562 12.3125 Z M 11.007812 12.207031 C 10.980469 12.1875 10.953125 12.164062 10.945312 12.15625 C 10.929688 12.132812 10.957031 12.09375 11.007812 12.070312 C 11.042969 12.050781 11.058594 12.050781 11.109375 12.074219 C 11.175781 12.105469 11.179688 12.113281 11.140625 12.1875 C 11.105469 12.25 11.078125 12.253906 11.007812 12.207031 Z M 10.3125 12.132812 C 10.269531 12.105469 10.257812 12.03125 10.28125 11.992188 C 10.296875 11.96875 10.417969 11.984375 10.457031 12.011719 C 10.5 12.042969 10.4375 12.164062 10.375 12.164062 C 10.363281 12.164062 10.332031 12.148438 10.3125 12.132812 Z M 10.3125 12.132812 "/>
</g>
</svg>
