<?xml version="1.0" encoding="UTF-8"?>
<svg xmlns="http://www.w3.org/2000/svg" xmlns:xlink="http://www.w3.org/1999/xlink" width="17pt" height="17pt" viewBox="0 0 17 17" version="1.1">
<g id="surface1">
<path style=" stroke:none;fill-rule:evenodd;fill:rgb(100%,34.117647%,13.333333%);fill-opacity:1;" d="M 15.992188 6.492188 L 15.992188 3.96875 C 15.992188 2.328125 14.671875 1.007812 13.03125 1.007812 L 10.507812 1.007812 Z M 15.992188 6.492188 "/>
<path style=" stroke:none;fill-rule:evenodd;fill:rgb(100%,34.117647%,13.333333%);fill-opacity:1;" d="M 9.621094 1.007812 L 3.972656 1.007812 C 2.328125 1.007812 1.007812 2.328125 1.007812 3.96875 L 1.007812 13.027344 C 1.007812 14.671875 2.328125 15.992188 3.972656 15.992188 L 13.03125 15.992188 C 14.671875 15.992188 15.992188 14.671875 15.992188 13.027344 L 15.992188 7.378906 Z M 9.621094 1.007812 "/>
<path style=" stroke:none;fill-rule:evenodd;fill:rgb(100%,100%,100%);fill-opacity:1;" d="M 9.621094 1.007812 L 15.992188 7.378906 L 15.992188 6.492188 L 10.507812 1.007812 Z M 9.621094 1.007812 "/>
<path style=" stroke:none;fill-rule:nonzero;fill:rgb(100%,100%,100%);fill-opacity:1;" d="M 5.699219 6.835938 C 5.054688 6.832031 4.460938 7.175781 4.136719 7.734375 C 3.816406 8.292969 3.816406 8.976562 4.136719 9.535156 C 4.375 9.945312 4.765625 10.246094 5.226562 10.371094 C 5.277344 10.386719 5.328125 10.394531 5.378906 10.40625 C 5.410156 10.414062 5.445312 10.417969 5.480469 10.421875 C 5.496094 10.425781 5.511719 10.425781 5.527344 10.429688 C 5.90625 10.46875 6.289062 10.390625 6.621094 10.199219 C 7.175781 9.878906 7.519531 9.28125 7.519531 8.640625 L 5.699219 8.640625 Z M 5.699219 6.835938 "/>
<path style=" stroke:none;fill-rule:nonzero;fill:rgb(100%,100%,100%);fill-opacity:1;" d="M 8.820312 7.25 L 12.753906 7.25 C 12.945312 7.25 13.101562 7.40625 13.101562 7.597656 C 13.101562 7.789062 12.945312 7.945312 12.753906 7.945312 L 8.820312 7.945312 C 8.628906 7.945312 8.472656 7.789062 8.472656 7.597656 C 8.472656 7.40625 8.628906 7.25 8.820312 7.25 Z M 8.820312 7.25 "/>
<path style=" stroke:none;fill-rule:nonzero;fill:rgb(100%,100%,100%);fill-opacity:1;" d="M 8.820312 9.332031 L 12.753906 9.332031 C 12.945312 9.332031 13.101562 9.488281 13.101562 9.679688 C 13.101562 9.871094 12.945312 10.027344 12.753906 10.027344 L 8.820312 10.027344 C 8.628906 10.027344 8.472656 9.871094 8.472656 9.679688 C 8.472656 9.488281 8.628906 9.332031 8.820312 9.332031 Z M 8.820312 9.332031 "/>
<path style=" stroke:none;fill-rule:nonzero;fill:rgb(100%,100%,100%);fill-opacity:1;" d="M 4.65625 11.417969 L 10.90625 11.417969 C 11.097656 11.417969 11.253906 11.570312 11.253906 11.761719 C 11.253906 11.957031 11.097656 12.109375 10.90625 12.109375 L 4.65625 12.109375 C 4.464844 12.109375 4.308594 11.957031 4.308594 11.761719 C 4.308594 11.570312 4.464844 11.417969 4.65625 11.417969 Z M 4.65625 11.417969 "/>
</g>
</svg>
