<?xml version="1.0" encoding="UTF-8"?>
<svg xmlns="http://www.w3.org/2000/svg" xmlns:xlink="http://www.w3.org/1999/xlink" width="17pt" height="17pt" viewBox="0 0 17 17" version="1.1">
<defs>
<clipPath id="clip1">
  <rect width="17" height="17"/>
</clipPath>
<g id="surface6" clip-path="url(#clip1)">
<path style=" stroke:none;fill-rule:nonzero;fill:rgb(14.509804%,77.647059%,37.254902%);fill-opacity:1;" d="M 2.71875 12.9375 L 2.726562 8.503906 L 2.71875 6.277344 L 4.652344 5.171875 L 8.503906 2.949219 L 12.359375 5.171875 L 14.28125 6.277344 L 14.28125 12.9375 L 12.355469 14.050781 L 10.425781 12.9375 L 10.433594 10.722656 L 12.355469 9.609375 L 12.355469 7.386719 L 10.433594 6.28125 L 8.503906 5.171875 L 6.578125 6.28125 L 4.644531 7.386719 L 4.644531 9.609375 L 6.574219 10.71875 L 6.574219 12.9375 L 4.644531 14.046875 Z M 2.71875 12.9375 "/>
</g>
</defs>
<g id="surface1">
<path style=" stroke:none;fill-rule:evenodd;fill:rgb(30.196078%,30.196078%,30.196078%);fill-opacity:1;" d="M 3.96875 1.007812 L 13.03125 1.007812 C 14.664062 1.007812 15.992188 2.335938 15.992188 3.96875 L 15.992188 13.03125 C 15.992188 14.664062 14.664062 15.992188 13.03125 15.992188 L 3.96875 15.992188 C 2.335938 15.992188 1.007812 14.664062 1.007812 13.03125 L 1.007812 3.96875 C 1.007812 2.335938 2.335938 1.007812 3.96875 1.007812 Z M 3.96875 1.007812 "/>
<use xlink:href="#surface6"/>
</g>
</svg>
