<?xml version="1.0" encoding="UTF-8"?>
<svg xmlns="http://www.w3.org/2000/svg" xmlns:xlink="http://www.w3.org/1999/xlink" width="17pt" height="17pt" viewBox="0 0 17 17" version="1.1">
<g id="surface1">
<path style=" stroke:none;fill-rule:evenodd;fill:rgb(11.372549%,65.098039%,90.980392%);fill-opacity:1;" d="M 3.96875 1.007812 L 13.03125 1.007812 C 14.664062 1.007812 15.992188 2.335938 15.992188 3.96875 L 15.992188 13.03125 C 15.992188 14.664062 14.664062 15.992188 13.03125 15.992188 L 3.96875 15.992188 C 2.335938 15.992188 1.007812 14.664062 1.007812 13.03125 L 1.007812 3.96875 C 1.007812 2.335938 2.335938 1.007812 3.96875 1.007812 Z M 3.96875 1.007812 "/>
<path style=" stroke:none;fill-rule:nonzero;fill:rgb(100%,88.235294%,45.490196%);fill-opacity:1;" d="M 6.90625 10.09375 C 6.90625 11.121094 6.074219 11.953125 5.046875 11.953125 C 4.019531 11.953125 3.1875 11.121094 3.1875 10.09375 C 3.1875 9.066406 4.019531 8.234375 5.046875 8.234375 C 6.074219 8.234375 6.90625 9.066406 6.90625 10.09375 Z M 6.90625 10.09375 "/>
<path style=" stroke:none;fill-rule:nonzero;fill:rgb(100%,82.745098%,21.960784%);fill-opacity:1;" d="M 7.4375 7.703125 C 7.4375 8.582031 6.722656 9.296875 5.84375 9.296875 C 4.964844 9.296875 4.25 8.582031 4.25 7.703125 C 4.25 6.824219 4.964844 6.109375 5.84375 6.109375 C 6.722656 6.109375 7.4375 6.824219 7.4375 7.703125 Z M 7.4375 7.703125 "/>
<path style=" stroke:none;fill-rule:nonzero;fill:rgb(100%,72.156863%,13.333333%);fill-opacity:1;" d="M 11.15625 7.4375 C 11.15625 8.757812 10.085938 9.828125 8.765625 9.828125 C 7.445312 9.828125 6.375 8.757812 6.375 7.4375 C 6.375 6.117188 7.445312 5.046875 8.765625 5.046875 C 10.085938 5.046875 11.15625 6.117188 11.15625 7.4375 Z M 11.15625 7.4375 "/>
<path style=" stroke:none;fill-rule:nonzero;fill:rgb(100%,48.627451%,17.647059%);fill-opacity:1;" d="M 13.8125 9.5625 C 13.8125 10.882812 12.742188 11.953125 11.421875 11.953125 C 10.101562 11.953125 9.03125 10.882812 9.03125 9.5625 C 9.03125 8.242188 10.101562 7.171875 11.421875 7.171875 C 12.742188 7.171875 13.8125 8.242188 13.8125 9.5625 Z M 13.8125 9.5625 "/>
<path style=" stroke:none;fill-rule:nonzero;fill:rgb(100%,59.215686%,17.647059%);fill-opacity:1;" d="M 11.15625 9.296875 C 11.15625 10.765625 9.96875 11.953125 8.5 11.953125 C 7.03125 11.953125 5.84375 10.765625 5.84375 9.296875 C 5.84375 7.828125 7.03125 6.640625 8.5 6.640625 C 9.96875 6.640625 11.15625 7.828125 11.15625 9.296875 Z M 11.15625 9.296875 "/>
</g>
</svg>
