<?xml version="1.0" encoding="UTF-8"?>
<svg xmlns="http://www.w3.org/2000/svg" xmlns:xlink="http://www.w3.org/1999/xlink" width="17pt" height="17pt" viewBox="0 0 17 17" version="1.1">
<g id="surface1">
<path style=" stroke:none;fill-rule:evenodd;fill:rgb(80%,80%,80%);fill-opacity:1;" d="M 3.96875 1.007812 L 13.03125 1.007812 C 14.664062 1.007812 15.992188 2.335938 15.992188 3.96875 L 15.992188 13.03125 C 15.992188 14.664062 14.664062 15.992188 13.03125 15.992188 L 3.96875 15.992188 C 2.335938 15.992188 1.007812 14.664062 1.007812 13.03125 L 1.007812 3.96875 C 1.007812 2.335938 2.335938 1.007812 3.96875 1.007812 Z M 3.96875 1.007812 "/>
<path style=" stroke:none;fill-rule:evenodd;fill:rgb(30.196078%,30.196078%,30.196078%);fill-opacity:1;" d="M 4.78125 3.453125 L 12.21875 3.453125 L 12.21875 7.703125 L 4.78125 7.703125 Z M 4.78125 3.453125 "/>
<path style=" stroke:none;fill-rule:nonzero;fill:rgb(30.980392%,30.980392%,30.980392%);fill-opacity:1;" d="M 5.207031 9.828125 C 5 9.828125 4.835938 9.992188 4.835938 10.199219 L 4.835938 10.945312 L 4.089844 10.945312 C 3.882812 10.945312 3.71875 11.109375 3.71875 11.316406 L 3.71875 12.058594 C 3.71875 12.265625 3.882812 12.429688 4.089844 12.429688 L 4.835938 12.429688 L 4.835938 13.175781 C 4.835938 13.382812 5 13.546875 5.207031 13.546875 L 5.949219 13.546875 C 6.15625 13.546875 6.320312 13.382812 6.320312 13.175781 L 6.320312 12.429688 L 7.066406 12.429688 C 7.273438 12.429688 7.4375 12.265625 7.4375 12.058594 L 7.4375 11.316406 C 7.4375 11.109375 7.273438 10.945312 7.066406 10.945312 L 6.320312 10.945312 L 6.320312 10.199219 C 6.320312 9.992188 6.15625 9.828125 5.949219 9.828125 Z M 5.207031 9.828125 "/>
<path style=" stroke:none;fill-rule:nonzero;fill:rgb(93.72549%,33.72549%,27.45098%);fill-opacity:1;" d="M 13.28125 10.625 C 13.28125 11.066406 12.925781 11.421875 12.484375 11.421875 C 12.042969 11.421875 11.6875 11.066406 11.6875 10.625 C 11.6875 10.183594 12.042969 9.828125 12.484375 9.828125 C 12.925781 9.828125 13.28125 10.183594 13.28125 10.625 Z M 13.28125 10.625 "/>
<path style=" stroke:none;fill-rule:nonzero;fill:rgb(93.72549%,33.72549%,27.45098%);fill-opacity:1;" d="M 11.15625 10.625 C 11.15625 11.066406 10.800781 11.421875 10.359375 11.421875 C 9.917969 11.421875 9.5625 11.066406 9.5625 10.625 C 9.5625 10.183594 9.917969 9.828125 10.359375 9.828125 C 10.800781 9.828125 11.15625 10.183594 11.15625 10.625 Z M 11.15625 10.625 "/>
<path style=" stroke:none;fill-rule:nonzero;fill:rgb(92.156863%,57.254902%,0%);fill-opacity:1;" d="M 13.28125 12.75 C 13.28125 13.191406 12.925781 13.546875 12.484375 13.546875 C 12.042969 13.546875 11.6875 13.191406 11.6875 12.75 C 11.6875 12.308594 12.042969 11.953125 12.484375 11.953125 C 12.925781 11.953125 13.28125 12.308594 13.28125 12.75 Z M 13.28125 12.75 "/>
<path style=" stroke:none;fill-rule:nonzero;fill:rgb(92.156863%,57.254902%,0%);fill-opacity:1;" d="M 11.15625 12.75 C 11.15625 13.191406 10.800781 13.546875 10.359375 13.546875 C 9.917969 13.546875 9.5625 13.191406 9.5625 12.75 C 9.5625 12.308594 9.917969 11.953125 10.359375 11.953125 C 10.800781 11.953125 11.15625 12.308594 11.15625 12.75 Z M 11.15625 12.75 "/>
</g>
</svg>
