<?xml version="1.0" encoding="UTF-8"?>
<svg xmlns="http://www.w3.org/2000/svg" xmlns:xlink="http://www.w3.org/1999/xlink" width="17pt" height="17pt" viewBox="0 0 17 17" version="1.1">
<g id="surface1">
<path style=" stroke:none;fill-rule:evenodd;fill:rgb(37.254902%,48.627451%,54.117647%);fill-opacity:1;" d="M 3.96875 1.007812 L 13.03125 1.007812 C 14.664062 1.007812 15.992188 2.335938 15.992188 3.96875 L 15.992188 13.03125 C 15.992188 14.664062 14.664062 15.992188 13.03125 15.992188 L 3.96875 15.992188 C 2.335938 15.992188 1.007812 14.664062 1.007812 13.03125 L 1.007812 3.96875 C 1.007812 2.335938 2.335938 1.007812 3.96875 1.007812 Z M 3.96875 1.007812 "/>
<path style=" stroke:none;fill-rule:nonzero;fill:rgb(44.705882%,85.882353%,66.27451%);fill-opacity:1;" d="M 4.839844 5.710938 C 4.839844 6.058594 4.5625 6.335938 4.214844 6.335938 C 3.871094 6.335938 3.589844 6.058594 3.589844 5.710938 C 3.589844 5.363281 3.871094 5.085938 4.214844 5.085938 C 4.5625 5.085938 4.839844 5.363281 4.839844 5.710938 Z M 4.839844 5.710938 "/>
<path style=" stroke:none;fill-rule:nonzero;fill:rgb(80%,80%,80%);fill-opacity:1;" d="M 6.929688 5.710938 C 6.929688 6.058594 6.648438 6.335938 6.300781 6.335938 C 5.957031 6.335938 5.675781 6.058594 5.675781 5.710938 C 5.675781 5.363281 5.957031 5.085938 6.300781 5.085938 C 6.648438 5.085938 6.929688 5.363281 6.929688 5.710938 Z M 6.929688 5.710938 "/>
<path style=" stroke:none;fill-rule:nonzero;fill:rgb(80%,80%,80%);fill-opacity:1;" d="M 9.015625 5.710938 C 9.015625 6.058594 8.734375 6.335938 8.390625 6.335938 C 8.042969 6.335938 7.761719 6.058594 7.761719 5.710938 C 7.761719 5.363281 8.042969 5.085938 8.390625 5.085938 C 8.734375 5.085938 9.015625 5.363281 9.015625 5.710938 Z M 9.015625 5.710938 "/>
<path style=" stroke:none;fill-rule:nonzero;fill:rgb(80%,80%,80%);fill-opacity:1;" d="M 11.101562 5.710938 C 11.101562 6.058594 10.824219 6.335938 10.476562 6.335938 C 10.128906 6.335938 9.851562 6.058594 9.851562 5.710938 C 9.851562 5.363281 10.128906 5.085938 10.476562 5.085938 C 10.824219 5.085938 11.101562 5.363281 11.101562 5.710938 Z M 11.101562 5.710938 "/>
<path style=" stroke:none;fill-rule:nonzero;fill:rgb(44.705882%,85.882353%,66.27451%);fill-opacity:1;" d="M 13.191406 5.710938 C 13.191406 6.058594 12.910156 6.335938 12.5625 6.335938 C 12.21875 6.335938 11.9375 6.058594 11.9375 5.710938 C 11.9375 5.363281 12.21875 5.085938 12.5625 5.085938 C 12.910156 5.085938 13.191406 5.363281 13.191406 5.710938 Z M 13.191406 5.710938 "/>
<path style=" stroke:none;fill-rule:nonzero;fill:rgb(80%,80%,80%);fill-opacity:1;" d="M 6.09375 8.214844 C 6.09375 8.5625 5.8125 8.839844 5.46875 8.839844 C 5.121094 8.839844 4.839844 8.5625 4.839844 8.214844 C 4.839844 7.871094 5.121094 7.589844 5.46875 7.589844 C 5.8125 7.589844 6.09375 7.871094 6.09375 8.214844 Z M 6.09375 8.214844 "/>
<path style=" stroke:none;fill-rule:nonzero;fill:rgb(80%,80%,80%);fill-opacity:1;" d="M 8.179688 8.214844 C 8.179688 8.5625 7.902344 8.839844 7.554688 8.839844 C 7.207031 8.839844 6.929688 8.5625 6.929688 8.214844 C 6.929688 7.871094 7.207031 7.589844 7.554688 7.589844 C 7.902344 7.589844 8.179688 7.871094 8.179688 8.214844 Z M 8.179688 8.214844 "/>
<path style=" stroke:none;fill-rule:nonzero;fill:rgb(80%,80%,80%);fill-opacity:1;" d="M 12.355469 8.214844 C 12.355469 8.5625 12.074219 8.839844 11.730469 8.839844 C 11.382812 8.839844 11.101562 8.5625 11.101562 8.214844 C 11.101562 7.871094 11.382812 7.589844 11.730469 7.589844 C 12.074219 7.589844 12.355469 7.871094 12.355469 8.214844 Z M 12.355469 8.214844 "/>
<path style=" stroke:none;fill-rule:nonzero;fill:rgb(80%,80%,80%);fill-opacity:1;" d="M 4.542969 10.09375 L 7.507812 10.09375 C 7.574219 10.09375 7.628906 10.234375 7.628906 10.40625 L 7.628906 11.03125 C 7.628906 11.207031 7.574219 11.347656 7.507812 11.347656 L 4.542969 11.347656 C 4.476562 11.347656 4.425781 11.207031 4.425781 11.03125 L 4.425781 10.40625 C 4.425781 10.234375 4.476562 10.09375 4.542969 10.09375 Z M 4.542969 10.09375 "/>
<path style=" stroke:none;fill-rule:nonzero;fill:rgb(37.254902%,48.627451%,54.117647%);fill-opacity:1;" d="M 12.972656 7.144531 C 12.28125 6.453125 11.171875 6.453125 10.480469 7.144531 L 8.261719 9.363281 L 7.605469 10.015625 C 6.917969 10.707031 6.914062 11.820312 7.605469 12.511719 L 8.097656 13 L 8.296875 13.199219 L 8.785156 13.691406 C 8.875 13.777344 8.964844 13.851562 9.066406 13.917969 C 9.75 14.371094 10.675781 14.296875 11.28125 13.691406 L 13.292969 11.679688 L 13.496094 11.472656 L 14.152344 10.820312 C 14.84375 10.128906 14.84375 9.015625 14.152344 8.324219 Z M 12.972656 7.144531 "/>
<path style=" stroke:none;fill-rule:nonzero;fill:rgb(80%,80%,80%);fill-opacity:1;" d="M 8.117188 10.203125 C 7.539062 10.777344 7.539062 11.707031 8.117188 12.285156 L 9.101562 13.269531 C 9.679688 13.847656 10.609375 13.847656 11.183594 13.269531 L 12.867188 11.589844 C 12.300781 11.269531 11.75 10.863281 11.238281 10.363281 C 10.648438 9.789062 10.171875 9.152344 9.816406 8.5 Z M 8.117188 10.203125 "/>
<path style=" stroke:none;fill-rule:nonzero;fill:rgb(44.705882%,85.882353%,66.27451%);fill-opacity:1;" d="M 9.992188 8.328125 C 10.300781 8.90625 10.710938 9.480469 11.214844 10.007812 L 13.007812 8.210938 L 12.597656 7.804688 C 12.023438 7.226562 11.09375 7.226562 10.515625 7.804688 Z M 9.992188 8.328125 "/>
<path style=" stroke:none;fill-rule:nonzero;fill:rgb(80%,80%,80%);fill-opacity:1;" d="M 11.378906 10.171875 C 11.386719 10.179688 11.394531 10.1875 11.402344 10.195312 C 11.914062 10.699219 12.472656 11.105469 13.039062 11.417969 L 13.585938 10.871094 C 14.160156 10.292969 14.160156 9.367188 13.585938 8.789062 L 13.175781 8.378906 Z M 11.378906 10.171875 "/>
</g>
</svg>
