<?xml version="1.0" encoding="UTF-8"?>
<svg xmlns="http://www.w3.org/2000/svg" xmlns:xlink="http://www.w3.org/1999/xlink" width="17pt" height="17pt" viewBox="0 0 17 17" version="1.1">
<g id="surface1">
<path style=" stroke:none;fill-rule:evenodd;fill:rgb(87.058824%,33.333333%,29.803922%);fill-opacity:1;" d="M 3.96875 1.007812 L 13.03125 1.007812 C 14.664062 1.007812 15.992188 2.335938 15.992188 3.96875 L 15.992188 13.03125 C 15.992188 14.664062 14.664062 15.992188 13.03125 15.992188 L 3.96875 15.992188 C 2.335938 15.992188 1.007812 14.664062 1.007812 13.03125 L 1.007812 3.96875 C 1.007812 2.335938 2.335938 1.007812 3.96875 1.007812 Z M 3.96875 1.007812 "/>
<path style=" stroke:none;fill-rule:nonzero;fill:rgb(100%,100%,100%);fill-opacity:1;" d="M 5.03125 3.984375 C 4.601562 3.996094 4.261719 4.347656 4.261719 4.78125 L 4.261719 8.371094 C 4.246094 8.457031 4.246094 8.546875 4.261719 8.632812 L 4.261719 12.21875 C 4.257812 12.503906 4.40625 12.773438 4.65625 12.917969 C 4.90625 13.0625 5.210938 13.0625 5.460938 12.917969 C 5.707031 12.773438 5.859375 12.503906 5.855469 12.21875 L 5.855469 9.261719 C 6.414062 9.269531 7.214844 9.3125 8.601562 9.152344 C 9.503906 9.046875 10.417969 8.882812 11.191406 8.558594 C 11.578125 8.394531 11.9375 8.191406 12.234375 7.886719 C 12.53125 7.578125 12.753906 7.125 12.75 6.644531 C 12.746094 6.164062 12.519531 5.71875 12.222656 5.410156 C 11.925781 5.105469 11.566406 4.902344 11.179688 4.738281 C 10.40625 4.414062 9.496094 4.246094 8.59375 4.136719 C 6.792969 3.921875 5.03125 3.984375 5.03125 3.984375 Z M 5.855469 5.609375 C 6.382812 5.601562 7.144531 5.570312 8.40625 5.71875 C 9.226562 5.816406 10.035156 5.988281 10.558594 6.207031 C 10.820312 6.316406 11 6.441406 11.082031 6.523438 C 11.164062 6.605469 11.15625 6.613281 11.15625 6.65625 C 11.15625 6.699219 11.164062 6.695312 11.089844 6.777344 C 11.011719 6.855469 10.832031 6.980469 10.574219 7.089844 C 10.054688 7.304688 9.242188 7.472656 8.417969 7.570312 C 7.152344 7.714844 6.382812 7.679688 5.855469 7.671875 Z M 5.855469 5.609375 "/>
</g>
</svg>
