<?xml version="1.0" encoding="UTF-8"?>
<svg xmlns="http://www.w3.org/2000/svg" xmlns:xlink="http://www.w3.org/1999/xlink" width="17pt" height="17pt" viewBox="0 0 17 17" version="1.1">
<g id="surface1">
<path style=" stroke:none;fill-rule:evenodd;fill:rgb(23.529412%,54.901961%,97.254902%);fill-opacity:1;" d="M 3.96875 1.007812 L 13.03125 1.007812 C 14.664062 1.007812 15.992188 2.335938 15.992188 3.96875 L 15.992188 13.03125 C 15.992188 14.664062 14.664062 15.992188 13.03125 15.992188 L 3.96875 15.992188 C 2.335938 15.992188 1.007812 14.664062 1.007812 13.03125 L 1.007812 3.96875 C 1.007812 2.335938 2.335938 1.007812 3.96875 1.007812 Z M 3.96875 1.007812 "/>
<path style=" stroke:none;fill-rule:nonzero;fill:rgb(100%,100%,100%);fill-opacity:1;" d="M 12.242188 4.109375 L 7.148438 5.28125 C 6.433594 5.371094 6.460938 6.109375 6.460938 6.109375 L 6.460938 9.242188 C 6.292969 9.195312 6.121094 9.167969 5.949219 9.167969 C 4.917969 9.167969 4.078125 10.007812 4.078125 11.039062 C 4.078125 12.070312 4.917969 12.910156 5.949219 12.910156 C 6.917969 12.910156 7.722656 12.171875 7.8125 11.210938 L 7.820312 11.210938 L 7.820312 6.5 L 11.5625 5.613281 L 11.5625 8.222656 C 11.394531 8.171875 11.222656 8.148438 11.050781 8.148438 C 10.019531 8.148438 9.179688 8.984375 9.179688 10.019531 C 9.179688 11.050781 10.019531 11.890625 11.050781 11.890625 C 12.015625 11.890625 12.824219 11.152344 12.914062 10.1875 L 12.921875 10.1875 L 12.921875 4.746094 C 12.921875 4.746094 12.929688 3.964844 12.242188 4.109375 Z M 12.242188 4.109375 "/>
</g>
</svg>
