<?xml version="1.0" encoding="UTF-8"?>
<svg xmlns="http://www.w3.org/2000/svg" xmlns:xlink="http://www.w3.org/1999/xlink" width="17pt" height="17pt" viewBox="0 0 17 17" version="1.1">
<g id="surface1">
<path style=" stroke:none;fill-rule:evenodd;fill:rgb(25.098039%,62.745098%,0%);fill-opacity:1;" d="M 3.96875 1.007812 L 13.03125 1.007812 C 14.664062 1.007812 15.992188 2.335938 15.992188 3.96875 L 15.992188 13.03125 C 15.992188 14.664062 14.664062 15.992188 13.03125 15.992188 L 3.96875 15.992188 C 2.335938 15.992188 1.007812 14.664062 1.007812 13.03125 L 1.007812 3.96875 C 1.007812 2.335938 2.335938 1.007812 3.96875 1.007812 Z M 3.96875 1.007812 "/>
<path style=" stroke:none;fill-rule:nonzero;fill:rgb(100%,100%,100%);fill-opacity:1;" d="M 8.824219 7.257812 C 7.828125 7.207031 6.691406 7.371094 5.941406 7.96875 C 4.726562 8.941406 4.15625 10.398438 4.796875 12.085938 C 4.980469 12.582031 5.675781 13.019531 6.328125 13.371094 C 9.027344 14.382812 11.683594 13.234375 13.152344 11.464844 C 13.65625 10.84375 13.34375 10.128906 13.042969 9.714844 C 12.132812 8.46875 10.96875 7.371094 8.824219 7.257812 Z M 8.390625 3.25 C 6.722656 3.234375 5.027344 4.167969 4.183594 5.273438 C 3.492188 6.179688 2.960938 7.09375 2.84375 8.195312 L 2.847656 8.195312 C 2.875 8.820312 3.195312 9.238281 3.917969 9.269531 C 4.117188 9.277344 4.3125 9.28125 4.511719 9.285156 C 4.75 8.671875 5.136719 8.085938 5.703125 7.695312 C 6.585938 7.09375 7.746094 6.878906 8.800781 6.921875 C 8.976562 6.929688 9.152344 6.941406 9.320312 6.964844 C 9.4375 6.101562 9.597656 5.234375 9.5625 4.355469 C 9.53125 3.652344 8.910156 3.265625 8.390625 3.25 Z M 11.722656 4.519531 C 11.253906 5.457031 10.730469 6.308594 10.21875 7.160156 C 11.4375 7.542969 12.527344 8.402344 13.285156 9.582031 C 13.355469 9.691406 13.414062 9.792969 13.460938 9.894531 C 13.804688 9.847656 13.996094 9.527344 14.046875 9.171875 C 14.429688 6.691406 13.730469 5.441406 12.828125 4.421875 C 12.410156 3.949219 12.039062 3.910156 11.722656 4.519531 Z M 11.722656 4.519531 "/>
</g>
</svg>
