<?xml version="1.0" encoding="UTF-8"?>
<svg xmlns="http://www.w3.org/2000/svg" xmlns:xlink="http://www.w3.org/1999/xlink" width="17pt" height="17pt" viewBox="0 0 17 17" version="1.1">
<g id="surface1">
<path style=" stroke:none;fill-rule:evenodd;fill:rgb(6.27451%,62.745098%,69.019608%);fill-opacity:1;" d="M 3.96875 1.007812 L 13.03125 1.007812 C 14.664062 1.007812 15.992188 2.335938 15.992188 3.96875 L 15.992188 13.03125 C 15.992188 14.664062 14.664062 15.992188 13.03125 15.992188 L 3.96875 15.992188 C 2.335938 15.992188 1.007812 14.664062 1.007812 13.03125 L 1.007812 3.96875 C 1.007812 2.335938 2.335938 1.007812 3.96875 1.007812 Z M 3.96875 1.007812 "/>
<path style=" stroke:none;fill-rule:nonzero;fill:rgb(100%,100%,100%);fill-opacity:1;" d="M 8.824219 7.246094 C 7.820312 7.191406 6.671875 7.359375 5.914062 7.964844 C 4.691406 8.945312 4.113281 10.414062 4.761719 12.121094 C 4.949219 12.621094 5.648438 13.0625 6.304688 13.417969 C 9.03125 14.441406 11.714844 13.28125 13.195312 11.492188 C 13.707031 10.863281 13.390625 10.144531 13.085938 9.726562 C 12.167969 8.46875 10.992188 7.359375 8.828125 7.246094 Z M 8.390625 3.199219 C 6.707031 3.183594 4.992188 4.125 4.140625 5.242188 C 3.441406 6.15625 2.90625 7.082031 2.789062 8.191406 L 2.792969 8.191406 C 2.820312 8.824219 3.144531 9.246094 3.875 9.277344 C 4.074219 9.285156 4.273438 9.289062 4.472656 9.292969 C 4.710938 8.675781 5.101562 8.082031 5.675781 7.6875 C 6.566406 7.078125 7.738281 6.863281 8.804688 6.90625 C 8.980469 6.914062 9.15625 6.929688 9.328125 6.949219 C 9.445312 6.078125 9.609375 5.203125 9.570312 4.316406 C 9.542969 3.605469 8.914062 3.214844 8.390625 3.199219 Z M 11.753906 4.480469 C 11.277344 5.429688 10.75 6.285156 10.234375 7.148438 C 11.464844 7.53125 12.566406 8.398438 13.332031 9.589844 C 13.402344 9.699219 13.460938 9.804688 13.507812 9.910156 C 13.855469 9.859375 14.046875 9.539062 14.101562 9.179688 C 14.484375 6.671875 13.78125 5.410156 12.871094 4.382812 C 12.449219 3.90625 12.074219 3.867188 11.753906 4.480469 Z M 11.753906 4.480469 "/>
</g>
</svg>
