<?xml version="1.0" encoding="UTF-8"?>
<svg xmlns="http://www.w3.org/2000/svg" xmlns:xlink="http://www.w3.org/1999/xlink" width="17pt" height="17pt" viewBox="0 0 17 17" version="1.1">
<g id="surface1">
<path style=" stroke:none;fill-rule:evenodd;fill:rgb(29.803922%,63.921569%,25.490196%);fill-opacity:1;" d="M 3.96875 1.007812 L 13.03125 1.007812 C 14.664062 1.007812 15.992188 2.335938 15.992188 3.96875 L 15.992188 13.03125 C 15.992188 14.664062 14.664062 15.992188 13.03125 15.992188 L 3.96875 15.992188 C 2.335938 15.992188 1.007812 14.664062 1.007812 13.03125 L 1.007812 3.96875 C 1.007812 2.335938 2.335938 1.007812 3.96875 1.007812 Z M 3.96875 1.007812 "/>
<path style=" stroke:none;fill-rule:nonzero;fill:rgb(14.901961%,14.901961%,14.901961%);fill-opacity:1;" d="M 4.273438 7.984375 C 4.273438 7.984375 5.519531 6.484375 7.4375 6.328125 L 7.4375 5.785156 C 5.3125 5.964844 3.1875 7.867188 3.1875 7.867188 C 3.1875 7.867188 4.515625 11.054688 7.4375 11.347656 L 7.4375 10.769531 C 5.292969 10.484375 4.273438 7.984375 4.273438 7.984375 Z M 7.4375 9.617188 L 7.4375 10.148438 C 5.816406 9.84375 5.082031 8.058594 5.082031 8.058594 C 5.082031 8.058594 6.144531 7.148438 7.4375 7 L 7.4375 7.582031 C 6.757812 7.496094 5.941406 8.164062 5.941406 8.164062 C 5.941406 8.164062 6.523438 9.292969 7.4375 9.617188 M 7.4375 4.78125 L 7.4375 5.785156 C 7.5 5.78125 7.277344 5.773438 7.339844 5.773438 C 9.753906 5.6875 11.328125 7.867188 11.328125 7.867188 C 11.328125 7.867188 9.519531 10.195312 7.636719 10.195312 C 7.464844 10.195312 7.589844 10.175781 7.4375 10.148438 L 7.4375 10.769531 C 7.570312 10.785156 7.417969 10.796875 7.558594 10.796875 C 9.308594 10.796875 10.578125 9.851562 11.804688 8.730469 C 12.007812 8.902344 12.839844 9.320312 13.011719 9.503906 C 11.84375 10.539062 9.125 11.371094 7.582031 11.371094 C 7.433594 11.371094 7.578125 11.359375 7.4375 11.347656 L 7.4375 12.21875 L 13.8125 12.21875 L 13.8125 4.78125 Z M 7.4375 7 L 7.4375 6.328125 C 7.5 6.324219 7.277344 6.320312 7.339844 6.320312 C 9.078125 6.261719 10.214844 7.898438 10.214844 7.898438 C 10.214844 7.898438 8.984375 9.707031 7.664062 9.707031 C 7.476562 9.707031 7.59375 9.671875 7.4375 9.617188 L 7.4375 7.582031 C 8.113281 7.667969 8.09375 7.984375 8.5 8.699219 L 9.273438 7.894531 C 9.273438 7.894531 8.613281 6.980469 7.503906 6.980469 C 7.382812 6.980469 7.550781 6.988281 7.4375 7 "/>
</g>
</svg>
