<?xml version="1.0" encoding="UTF-8"?>
<svg xmlns="http://www.w3.org/2000/svg" xmlns:xlink="http://www.w3.org/1999/xlink" width="17pt" height="17pt" viewBox="0 0 17 17" version="1.1">
<g id="surface1">
<path style=" stroke:none;fill-rule:evenodd;fill:rgb(99.215686%,73.333333%,15.686275%);fill-opacity:1;" d="M 3.96875 1.007812 L 13.03125 1.007812 C 14.664062 1.007812 15.992188 2.335938 15.992188 3.96875 L 15.992188 13.03125 C 15.992188 14.664062 14.664062 15.992188 13.03125 15.992188 L 3.96875 15.992188 C 2.335938 15.992188 1.007812 14.664062 1.007812 13.03125 L 1.007812 3.96875 C 1.007812 2.335938 2.335938 1.007812 3.96875 1.007812 Z M 3.96875 1.007812 "/>
<path style=" stroke:none;fill-rule:nonzero;fill:rgb(100%,100%,100%);fill-opacity:1;" d="M 12.933594 9.304688 C 12.933594 11.757812 10.949219 13.742188 8.5 13.742188 C 6.050781 13.742188 4.066406 11.757812 4.066406 9.304688 C 4.066406 6.855469 6.050781 4.871094 8.5 4.871094 C 10.949219 4.871094 12.933594 6.855469 12.933594 9.304688 Z M 12.933594 9.304688 "/>
<path style=" stroke:none;fill-rule:nonzero;fill:rgb(30.980392%,30.980392%,30.980392%);fill-opacity:1;" d="M 8.5 3.257812 C 7.246094 3.257812 6.101562 3.640625 5.261719 4.28125 C 4.417969 4.917969 4.066406 5.835938 4.066406 6.855469 L 4.066406 7.289062 C 3.226562 7.703125 2.453125 8.71875 2.453125 9.988281 C 2.453125 11.617188 3.648438 12.933594 4.871094 12.933594 L 4.871094 6.855469 C 4.871094 6.089844 5.03125 5.46875 5.726562 4.941406 C 6.421875 4.414062 7.40625 4.066406 8.5 4.066406 C 9.59375 4.066406 10.578125 4.414062 11.273438 4.941406 C 11.96875 5.46875 12.128906 6.089844 12.128906 6.855469 L 12.128906 12.933594 C 13.351562 12.933594 14.546875 11.617188 14.546875 9.988281 C 14.546875 8.71875 13.773438 7.703125 12.933594 7.289062 L 12.933594 6.855469 C 12.933594 5.835938 12.582031 4.917969 11.738281 4.28125 C 10.898438 3.640625 9.753906 3.257812 8.5 3.257812 Z M 6.484375 7.289062 C 6.039062 7.289062 5.675781 7.652344 5.675781 8.097656 C 5.675781 8.542969 6.039062 8.902344 6.484375 8.902344 C 6.929688 8.902344 7.289062 8.542969 7.289062 8.097656 C 7.289062 7.652344 6.929688 7.289062 6.484375 7.289062 Z M 10.515625 7.289062 C 10.070312 7.289062 9.710938 7.652344 9.710938 8.097656 C 9.710938 8.542969 10.070312 8.902344 10.515625 8.902344 C 10.960938 8.902344 11.324219 8.542969 11.324219 8.097656 C 11.324219 7.652344 10.960938 7.289062 10.515625 7.289062 Z M 10.113281 10.917969 L 6.886719 10.925781 C 6.886719 11.816406 7.609375 12.53125 8.5 12.53125 C 9.390625 12.53125 10.113281 11.808594 10.113281 10.917969 Z M 10.113281 10.917969 "/>
</g>
</svg>
