<?xml version="1.0" encoding="UTF-8"?>
<svg xmlns="http://www.w3.org/2000/svg" xmlns:xlink="http://www.w3.org/1999/xlink" width="17pt" height="17pt" viewBox="0 0 17 17" version="1.1">
<g id="surface1">
<path style=" stroke:none;fill-rule:evenodd;fill:rgb(37.254902%,48.627451%,54.117647%);fill-opacity:1;" d="M 3.96875 1.007812 L 13.03125 1.007812 C 14.664062 1.007812 15.992188 2.335938 15.992188 3.96875 L 15.992188 13.03125 C 15.992188 14.664062 14.664062 15.992188 13.03125 15.992188 L 3.96875 15.992188 C 2.335938 15.992188 1.007812 14.664062 1.007812 13.03125 L 1.007812 3.96875 C 1.007812 2.335938 2.335938 1.007812 3.96875 1.007812 Z M 3.96875 1.007812 "/>
<path style=" stroke:none;fill-rule:nonzero;fill:rgb(92.156863%,92.156863%,92.156863%);fill-opacity:1;" d="M 3.609375 5.644531 C 3.519531 5.644531 3.445312 5.71875 3.445312 5.808594 L 3.445312 6.796875 C 3.445312 6.886719 3.519531 6.960938 3.609375 6.960938 L 4.601562 6.960938 C 4.691406 6.960938 4.765625 6.886719 4.765625 6.796875 L 4.765625 5.808594 C 4.765625 5.71875 4.691406 5.644531 4.601562 5.644531 Z M 5.808594 5.644531 C 5.71875 5.644531 5.644531 5.71875 5.644531 5.808594 L 5.644531 6.796875 C 5.644531 6.886719 5.71875 6.960938 5.808594 6.960938 L 6.796875 6.960938 C 6.886719 6.960938 6.960938 6.886719 6.960938 6.796875 L 6.960938 5.808594 C 6.960938 5.71875 6.886719 5.644531 6.796875 5.644531 Z M 8.003906 5.644531 C 7.914062 5.644531 7.839844 5.71875 7.839844 5.808594 L 7.839844 6.796875 C 7.839844 6.886719 7.914062 6.960938 8.003906 6.960938 L 8.996094 6.960938 C 9.085938 6.960938 9.160156 6.886719 9.160156 6.796875 L 9.160156 5.808594 C 9.160156 5.71875 9.085938 5.644531 8.996094 5.644531 Z M 10.203125 5.644531 C 10.113281 5.644531 10.039062 5.71875 10.039062 5.808594 L 10.039062 6.796875 C 10.039062 6.886719 10.113281 6.960938 10.203125 6.960938 L 11.191406 6.960938 C 11.28125 6.960938 11.355469 6.886719 11.355469 6.796875 L 11.355469 5.808594 C 11.355469 5.71875 11.28125 5.644531 11.191406 5.644531 Z M 12.398438 5.644531 C 12.308594 5.644531 12.234375 5.71875 12.234375 5.808594 L 12.234375 6.796875 C 12.234375 6.886719 12.308594 6.960938 12.398438 6.960938 L 13.390625 6.960938 C 13.480469 6.960938 13.554688 6.886719 13.554688 6.796875 L 13.554688 5.808594 C 13.554688 5.71875 13.480469 5.644531 13.390625 5.644531 Z M 3.609375 7.839844 C 3.519531 7.839844 3.445312 7.914062 3.445312 8.003906 L 3.445312 8.996094 C 3.445312 9.085938 3.519531 9.160156 3.609375 9.160156 L 4.601562 9.160156 C 4.691406 9.160156 4.765625 9.085938 4.765625 8.996094 L 4.765625 8.003906 C 4.765625 7.914062 4.691406 7.839844 4.601562 7.839844 Z M 5.808594 7.839844 C 5.71875 7.839844 5.644531 7.914062 5.644531 8.003906 L 5.644531 8.996094 C 5.644531 9.085938 5.71875 9.160156 5.808594 9.160156 L 6.796875 9.160156 C 6.886719 9.160156 6.960938 9.085938 6.960938 8.996094 L 6.960938 8.003906 C 6.960938 7.914062 6.886719 7.839844 6.796875 7.839844 Z M 8.003906 7.839844 C 7.914062 7.839844 7.839844 7.914062 7.839844 8.003906 L 7.839844 8.996094 C 7.839844 9.085938 7.914062 9.160156 8.003906 9.160156 L 8.996094 9.160156 C 9.085938 9.160156 9.160156 9.085938 9.160156 8.996094 L 9.160156 8.003906 C 9.160156 7.914062 9.085938 7.839844 8.996094 7.839844 Z M 10.203125 7.839844 C 10.113281 7.839844 10.039062 7.914062 10.039062 8.003906 L 10.039062 8.996094 C 10.039062 9.085938 10.113281 9.160156 10.203125 9.160156 L 11.191406 9.160156 C 11.28125 9.160156 11.355469 9.085938 11.355469 8.996094 L 11.355469 8.003906 C 11.355469 7.914062 11.28125 7.839844 11.191406 7.839844 Z M 12.398438 7.839844 C 12.308594 7.839844 12.234375 7.914062 12.234375 8.003906 L 12.234375 8.996094 C 12.234375 9.085938 12.308594 9.160156 12.398438 9.160156 L 13.390625 9.160156 C 13.480469 9.160156 13.554688 9.085938 13.554688 8.996094 L 13.554688 8.003906 C 13.554688 7.914062 13.480469 7.839844 13.390625 7.839844 Z M 5.808594 10.039062 C 5.71875 10.039062 5.644531 10.113281 5.644531 10.203125 L 5.644531 11.191406 C 5.644531 11.28125 5.71875 11.355469 5.808594 11.355469 L 11.191406 11.355469 C 11.28125 11.355469 11.355469 11.28125 11.355469 11.191406 L 11.355469 10.203125 C 11.355469 10.113281 11.28125 10.039062 11.191406 10.039062 Z M 5.808594 10.039062 "/>
</g>
</svg>
