<?xml version="1.0" encoding="UTF-8"?>
<svg xmlns="http://www.w3.org/2000/svg" xmlns:xlink="http://www.w3.org/1999/xlink" width="17pt" height="17pt" viewBox="0 0 17 17" version="1.1">
<g id="surface1">
<path style=" stroke:none;fill-rule:evenodd;fill:rgb(18.823529%,21.960784%,46.666667%);fill-opacity:1;" d="M 3.96875 1.007812 L 13.03125 1.007812 C 14.664062 1.007812 15.992188 2.335938 15.992188 3.96875 L 15.992188 13.03125 C 15.992188 14.664062 14.664062 15.992188 13.03125 15.992188 L 3.96875 15.992188 C 2.335938 15.992188 1.007812 14.664062 1.007812 13.03125 L 1.007812 3.96875 C 1.007812 2.335938 2.335938 1.007812 3.96875 1.007812 Z M 3.96875 1.007812 "/>
<path style=" stroke:none;fill-rule:nonzero;fill:rgb(61.176471%,61.176471%,61.176471%);fill-opacity:1;" d="M 8.5 4.78125 C 7.332031 4.78125 6.167969 5.066406 5.277344 5.632812 C 3.320312 6.875 3.1875 9.023438 4.984375 10.34375 C 5.148438 10.464844 5.300781 10.574219 5.316406 10.589844 L 4.820312 11.472656 L 5.84375 12.21875 L 8.5 7.796875 L 11.15625 12.21875 L 12.179688 11.472656 L 11.683594 10.589844 C 11.703125 10.574219 11.851562 10.464844 12.015625 10.34375 C 13.8125 9.023438 13.679688 6.875 11.722656 5.632812 C 10.832031 5.066406 9.667969 4.78125 8.5 4.78125 Z M 8.230469 5.3125 L 5.839844 9.5625 C 3.183594 7.4375 6.105469 5.3125 8.230469 5.3125 Z M 8.765625 5.3125 C 10.890625 5.3125 13.8125 7.4375 11.15625 9.5625 Z M 8.5 9.03125 L 7.4375 10.625 L 8.5 12.21875 L 9.5625 10.625 Z M 8.5 9.03125 "/>
</g>
</svg>
