<?xml version="1.0" encoding="UTF-8"?>
<svg xmlns="http://www.w3.org/2000/svg" xmlns:xlink="http://www.w3.org/1999/xlink" width="17pt" height="17pt" viewBox="0 0 17 17" version="1.1">
<g id="surface1">
<path style=" stroke:none;fill-rule:evenodd;fill:rgb(92.54902%,92.54902%,92.54902%);fill-opacity:1;" d="M 11.746094 5.214844 L 14.53125 5.214844 C 14.960938 5.214844 15.347656 5.386719 15.625 5.664062 C 15.851562 5.890625 15.941406 6.21875 15.992188 6.550781 L 15.992188 3.96875 C 15.992188 2.328125 14.671875 1.007812 13.03125 1.007812 L 10.410156 1.007812 C 10.742188 1.058594 11.070312 1.148438 11.296875 1.375 C 11.574219 1.65625 11.746094 2.039062 11.746094 2.46875 Z M 11.746094 5.214844 "/>
<path style=" stroke:none;fill-rule:evenodd;fill:rgb(92.54902%,92.54902%,92.54902%);fill-opacity:1;" d="M 1.007812 10.410156 L 1.007812 13.027344 C 1.007812 14.671875 2.328125 15.992188 3.972656 15.992188 L 6.6875 15.992188 C 6.3125 15.960938 5.957031 15.835938 5.703125 15.585938 C 5.425781 15.308594 5.253906 14.921875 5.253906 14.492188 L 5.253906 11.746094 L 2.46875 11.746094 C 2.039062 11.746094 1.65625 11.574219 1.375 11.296875 C 1.148438 11.070312 1.058594 10.742188 1.007812 10.410156 Z M 1.007812 10.410156 "/>
<path style=" stroke:none;fill-rule:evenodd;fill:rgb(85.882353%,49.019608%,62.745098%);fill-opacity:1;" d="M 1.007812 10.410156 C 1.058594 10.742188 1.148438 11.070312 1.375 11.296875 C 1.65625 11.574219 2.039062 11.746094 2.46875 11.746094 L 5.253906 11.746094 L 5.253906 6.761719 C 5.253906 6.332031 5.425781 5.945312 5.703125 5.664062 C 5.984375 5.386719 6.371094 5.214844 6.800781 5.214844 L 11.746094 5.214844 L 11.746094 2.46875 C 11.746094 2.039062 11.574219 1.65625 11.296875 1.375 C 11.070312 1.148438 10.742188 1.058594 10.410156 1.007812 L 3.972656 1.007812 C 2.328125 1.007812 1.007812 2.328125 1.007812 3.96875 Z M 1.007812 10.410156 "/>
<path style=" stroke:none;fill-rule:nonzero;fill:rgb(65.098039%,92.156863%,49.019608%);fill-opacity:1;" d="M 13.914062 12.367188 L 13.914062 4.632812 C 13.914062 3.78125 13.21875 3.085938 12.367188 3.085938 L 4.632812 3.085938 C 3.78125 3.085938 3.085938 3.78125 3.085938 4.632812 L 3.085938 12.367188 C 3.085938 13.21875 3.78125 13.914062 4.632812 13.914062 L 12.367188 13.914062 C 13.21875 13.914062 13.914062 13.21875 13.914062 12.367188 Z M 13.914062 12.367188 "/>
<path style=" stroke:none;fill-rule:evenodd;fill:rgb(37.254902%,65.098039%,98.039216%);fill-opacity:1;" d="M 15.992188 6.550781 C 15.941406 6.21875 15.851562 5.890625 15.625 5.664062 C 15.347656 5.386719 14.960938 5.214844 14.53125 5.214844 L 6.800781 5.214844 C 6.371094 5.214844 5.984375 5.386719 5.703125 5.664062 C 5.425781 5.945312 5.253906 6.332031 5.253906 6.761719 L 5.253906 14.492188 C 5.253906 14.921875 5.425781 15.308594 5.703125 15.585938 C 5.957031 15.835938 6.3125 15.960938 6.6875 15.992188 L 13.03125 15.992188 C 14.671875 15.992188 15.992188 14.671875 15.992188 13.027344 Z M 15.992188 6.550781 "/>
<path style=" stroke:none;fill-rule:nonzero;fill:rgb(100%,100%,100%);fill-opacity:1;" d="M 9.847656 8.488281 C 9.699219 8.492188 9.582031 8.613281 9.582031 8.761719 L 9.582031 13.09375 C 9.582031 13.21875 9.667969 13.332031 9.792969 13.359375 C 9.851562 13.375 9.910156 13.367188 9.964844 13.34375 C 10.074219 13.351562 10.511719 13.394531 11.0625 13.144531 C 11.683594 12.863281 12.308594 12.191406 12.296875 10.929688 C 12.285156 9.671875 11.660156 9 11.046875 8.71875 C 10.511719 8.472656 10.109375 8.515625 9.988281 8.523438 C 9.945312 8.5 9.898438 8.488281 9.847656 8.488281 Z M 10.125 9.082031 C 10.28125 9.082031 10.476562 9.054688 10.820312 9.210938 C 11.285156 9.425781 11.742188 9.839844 11.753906 10.933594 C 11.765625 12.027344 11.3125 12.4375 10.839844 12.652344 C 10.488281 12.808594 10.28125 12.78125 10.125 12.78125 Z M 10.125 9.082031 "/>
<path style=" stroke:none;fill-rule:nonzero;fill:rgb(100%,100%,100%);fill-opacity:1;" d="M 13.101562 8.492188 C 13.046875 8.492188 12.996094 8.511719 12.949219 8.542969 C 12.941406 8.546875 12.9375 8.550781 12.929688 8.558594 C 12.921875 8.5625 12.917969 8.566406 12.910156 8.574219 C 12.910156 8.574219 12.910156 8.574219 12.910156 8.578125 C 12.90625 8.578125 12.90625 8.578125 12.90625 8.578125 C 12.894531 8.59375 12.882812 8.605469 12.875 8.621094 C 12.839844 8.675781 12.824219 8.746094 12.835938 8.8125 L 12.835938 10.882812 C 12.828125 10.914062 12.828125 10.945312 12.835938 10.976562 L 12.835938 13.097656 C 12.832031 13.195312 12.882812 13.285156 12.96875 13.335938 C 13.054688 13.382812 13.15625 13.382812 13.242188 13.335938 C 13.324219 13.285156 13.378906 13.195312 13.375 13.097656 L 13.375 11.203125 L 15.269531 11.203125 C 15.367188 11.203125 15.457031 11.152344 15.507812 11.066406 C 15.558594 10.984375 15.558594 10.878906 15.507812 10.796875 C 15.457031 10.710938 15.367188 10.660156 15.269531 10.660156 L 13.375 10.660156 L 13.375 9.039062 L 15.269531 9.039062 C 15.367188 9.039062 15.457031 8.988281 15.507812 8.902344 C 15.558594 8.820312 15.558594 8.714844 15.507812 8.628906 C 15.457031 8.546875 15.367188 8.496094 15.269531 8.496094 L 13.144531 8.496094 C 13.128906 8.492188 13.117188 8.492188 13.101562 8.492188 Z M 13.101562 8.492188 "/>
<path style=" stroke:none;fill-rule:nonzero;fill:rgb(100%,100%,100%);fill-opacity:1;" d="M 6.605469 8.492188 C 6.53125 8.492188 6.460938 8.523438 6.410156 8.578125 C 6.410156 8.582031 6.40625 8.582031 6.40625 8.585938 C 6.347656 8.648438 6.324219 8.730469 6.339844 8.8125 L 6.339844 10.882812 C 6.332031 10.914062 6.332031 10.945312 6.339844 10.976562 L 6.339844 13.097656 C 6.339844 13.195312 6.390625 13.285156 6.472656 13.335938 C 6.558594 13.382812 6.660156 13.382812 6.746094 13.335938 C 6.832031 13.285156 6.882812 13.195312 6.878906 13.097656 L 6.878906 11.191406 C 7.074219 11.203125 7.304688 11.242188 7.742188 11.15625 C 8.039062 11.101562 8.351562 11 8.605469 10.792969 C 8.863281 10.585938 9.046875 10.253906 9.046875 9.847656 C 9.046875 9.441406 8.863281 9.113281 8.605469 8.90625 C 8.351562 8.699219 8.039062 8.597656 7.742188 8.542969 C 7.199219 8.4375 6.765625 8.492188 6.679688 8.503906 C 6.65625 8.496094 6.628906 8.492188 6.605469 8.492188 Z M 6.878906 9.046875 C 7.042969 9.035156 7.269531 9.003906 7.640625 9.074219 C 7.886719 9.121094 8.117188 9.207031 8.265625 9.328125 C 8.417969 9.449219 8.503906 9.589844 8.503906 9.847656 C 8.503906 10.109375 8.417969 10.25 8.265625 10.371094 C 8.117188 10.492188 7.886719 10.578125 7.640625 10.625 C 7.269531 10.695312 7.042969 10.664062 6.878906 10.652344 Z M 6.878906 9.046875 "/>
</g>
</svg>
