<?xml version="1.0" encoding="UTF-8"?>
<svg xmlns="http://www.w3.org/2000/svg" xmlns:xlink="http://www.w3.org/1999/xlink" width="17pt" height="17pt" viewBox="0 0 17 17" version="1.1">
<defs>
<clipPath id="clip1">
  <rect width="17" height="17"/>
</clipPath>
<g id="surface6" clip-path="url(#clip1)">
<path style=" stroke:none;fill-rule:evenodd;fill:rgb(100%,98.823529%,63.921569%);fill-opacity:1;" d="M 11.699219 4.226562 C 12.867188 4.226562 13.8125 5.171875 13.8125 6.335938 C 13.8125 7.503906 12.867188 8.449219 11.699219 8.449219 C 10.53125 8.449219 9.585938 7.503906 9.585938 6.335938 C 9.585938 5.171875 10.53125 4.226562 11.699219 4.226562 Z M 11.699219 4.226562 "/>
</g>
</defs>
<g id="surface1">
<path style=" stroke:none;fill-rule:nonzero;fill:rgb(0%,0%,0%);fill-opacity:1;" d="M 15.992188 11.609375 C 15.4375 11.433594 14.976562 11.261719 14.796875 11.246094 C 14.429688 11.21875 13.949219 11.332031 13.511719 11.460938 C 13.078125 11.589844 12.6875 11.726562 12.5 11.742188 C 12.3125 11.753906 11.664062 11.742188 11.261719 11.703125 C 10.855469 11.667969 10.507812 11.621094 10.359375 11.605469 C 10.207031 11.59375 9.78125 11.542969 9.539062 11.507812 C 9.292969 11.472656 9.074219 11.441406 8.890625 11.425781 C 8.707031 11.410156 7.898438 11.347656 7.308594 11.3125 C 6.714844 11.277344 6.164062 11.246094 5.941406 11.246094 C 5.71875 11.242188 5.007812 11.265625 4.578125 11.292969 C 4.148438 11.316406 3.78125 11.34375 3.574219 11.335938 C 3.371094 11.328125 2.71875 11.21875 2.277344 11.136719 C 1.839844 11.050781 1.414062 10.992188 1.050781 11.066406 C 1.042969 11.066406 1.019531 11.085938 1.007812 11.089844 L 1.007812 12.496094 L 15.992188 12.496094 Z M 15.992188 11.609375 "/>
<path style=" stroke:none;fill-rule:nonzero;fill:rgb(54.901961%,57.647059%,86.666667%);fill-opacity:1;" d="M 3.972656 1.042969 C 3.5625 1.042969 3.171875 1.125 2.816406 1.277344 C 2.460938 1.425781 2.140625 1.640625 1.875 1.910156 C 1.605469 2.175781 1.390625 2.496094 1.242188 2.851562 C 1.089844 3.207031 1.007812 3.59375 1.007812 4.003906 L 1.007812 11.089844 C 1.019531 11.085938 1.042969 11.066406 1.050781 11.066406 C 1.414062 10.992188 1.839844 11.050781 2.277344 11.136719 C 2.71875 11.21875 3.371094 11.328125 3.574219 11.335938 C 3.78125 11.34375 4.148438 11.316406 4.578125 11.292969 C 5.007812 11.265625 5.71875 11.242188 5.941406 11.246094 C 6.164062 11.246094 6.714844 11.277344 7.308594 11.3125 C 7.898438 11.347656 8.707031 11.410156 8.890625 11.425781 C 9.074219 11.441406 9.292969 11.472656 9.539062 11.507812 C 9.78125 11.542969 10.207031 11.59375 10.359375 11.605469 C 10.507812 11.621094 10.855469 11.667969 11.261719 11.703125 C 11.664062 11.742188 12.3125 11.753906 12.5 11.742188 C 12.6875 11.726562 13.078125 11.589844 13.511719 11.460938 C 13.949219 11.332031 14.429688 11.21875 14.796875 11.246094 C 14.976562 11.261719 15.4375 11.433594 15.992188 11.609375 L 15.992188 4.003906 C 15.992188 3.59375 15.910156 3.207031 15.761719 2.851562 C 15.609375 2.496094 15.394531 2.175781 15.125 1.910156 C 14.859375 1.640625 14.539062 1.425781 14.183594 1.277344 C 13.832031 1.125 13.441406 1.042969 13.03125 1.042969 Z M 3.972656 1.042969 "/>
<use xlink:href="#surface6"/>
<path style=" stroke:none;fill-rule:nonzero;fill:rgb(31.764706%,51.764706%,69.019608%);fill-opacity:1;" d="M 1.007812 12.496094 L 1.007812 12.992188 C 1.007812 13.402344 1.089844 13.792969 1.242188 14.148438 C 1.390625 14.503906 1.605469 14.824219 1.875 15.089844 C 2.140625 15.359375 2.460938 15.574219 2.816406 15.722656 C 3.171875 15.871094 3.5625 15.957031 3.972656 15.957031 L 13.03125 15.957031 C 13.441406 15.957031 13.832031 15.871094 14.183594 15.722656 C 14.539062 15.574219 14.859375 15.359375 15.125 15.089844 C 15.394531 14.824219 15.609375 14.503906 15.761719 14.148438 C 15.910156 13.792969 15.992188 13.402344 15.992188 12.992188 L 15.992188 12.496094 Z M 1.007812 12.496094 "/>
</g>
</svg>
