<?xml version="1.0" encoding="UTF-8"?>
<svg xmlns="http://www.w3.org/2000/svg" xmlns:xlink="http://www.w3.org/1999/xlink" width="17pt" height="17pt" viewBox="0 0 17 17" version="1.1">
<g id="surface1">
<path style=" stroke:none;fill-rule:evenodd;fill:rgb(94.901961%,94.901961%,94.901961%);fill-opacity:1;" d="M 3.96875 1.007812 L 13.03125 1.007812 C 14.664062 1.007812 15.992188 2.335938 15.992188 3.96875 L 15.992188 13.03125 C 15.992188 14.664062 14.664062 15.992188 13.03125 15.992188 L 3.96875 15.992188 C 2.335938 15.992188 1.007812 14.664062 1.007812 13.03125 L 1.007812 3.96875 C 1.007812 2.335938 2.335938 1.007812 3.96875 1.007812 Z M 3.96875 1.007812 "/>
<path style=" stroke:none;fill-rule:nonzero;fill:rgb(33.72549%,66.666667%,83.137255%);fill-opacity:1;" d="M 15.992188 8.5 C 15.992188 12.636719 12.636719 15.992188 8.5 15.992188 C 4.363281 15.992188 1.007812 12.636719 1.007812 8.5 C 1.007812 4.363281 4.363281 1.007812 8.5 1.007812 C 12.636719 1.007812 15.992188 4.363281 15.992188 8.5 Z M 15.992188 8.5 "/>
<path style=" stroke:none;fill-rule:evenodd;fill:rgb(33.72549%,66.666667%,83.137255%);fill-opacity:1;" d="M 12.371094 1.007812 L 7.394531 1.007812 L 11.691406 5.308594 C 11.742188 5.355469 11.789062 5.40625 11.835938 5.457031 C 11.9375 5.570312 12.03125 5.6875 12.121094 5.808594 C 12.210938 5.929688 12.292969 6.054688 12.371094 6.183594 Z M 12.371094 1.007812 "/>
<path style=" stroke:none;fill-rule:evenodd;fill:rgb(33.72549%,66.666667%,83.137255%);fill-opacity:1;" d="M 15.992188 6.484375 L 15.992188 3.96875 C 15.992188 2.328125 14.671875 1.007812 13.03125 1.007812 L 13.015625 1.007812 L 13.015625 8.5 C 13.015625 8.570312 13.011719 8.636719 13.007812 8.707031 C 13.003906 8.859375 12.988281 9.007812 12.964844 9.15625 C 12.941406 9.304688 12.910156 9.453125 12.875 9.597656 Z M 14.929688 2.164062 C 15.015625 2.25 15.09375 2.339844 15.175781 2.429688 C 15.09375 2.339844 15.015625 2.25 14.929688 2.164062 Z M 15.492188 2.789062 C 15.574219 2.894531 15.65625 3.003906 15.738281 3.113281 C 15.65625 3.003906 15.574219 2.894531 15.492188 2.789062 Z M 15.996094 3.472656 C 16.074219 3.589844 16.144531 3.707031 16.214844 3.824219 C 16.144531 3.707031 16.070312 3.589844 15.996094 3.472656 Z M 16.4375 4.207031 C 16.503906 4.328125 16.566406 4.453125 16.625 4.578125 C 16.566406 4.453125 16.503906 4.328125 16.4375 4.207031 Z M 16.4375 4.207031 "/>
<path style=" stroke:none;fill-rule:evenodd;fill:rgb(33.72549%,66.666667%,83.137255%);fill-opacity:1;" d="M 15.992188 12.371094 L 15.992188 7.394531 L 11.691406 11.691406 C 11.644531 11.742188 11.59375 11.789062 11.542969 11.835938 C 11.429688 11.9375 11.3125 12.03125 11.191406 12.121094 C 11.070312 12.210938 10.945312 12.292969 10.816406 12.371094 Z M 15.992188 12.371094 "/>
<path style=" stroke:none;fill-rule:evenodd;fill:rgb(33.72549%,66.666667%,83.137255%);fill-opacity:1;" d="M 10.519531 15.992188 L 13.03125 15.992188 C 14.671875 15.992188 15.992188 14.671875 15.992188 13.03125 L 15.992188 13.015625 L 8.5 13.015625 C 8.429688 13.015625 8.363281 13.011719 8.292969 13.007812 C 8.140625 13.003906 7.992188 12.988281 7.84375 12.964844 C 7.695312 12.941406 7.546875 12.910156 7.402344 12.875 Z M 14.835938 14.929688 C 14.753906 15.007812 14.671875 15.085938 14.585938 15.160156 C 14.667969 15.082031 14.753906 15.007812 14.835938 14.929688 Z M 14.203125 15.496094 C 14.105469 15.574219 14.007812 15.648438 13.90625 15.722656 C 14.003906 15.648438 14.105469 15.574219 14.203125 15.496094 Z M 14.203125 15.496094 "/>
<path style=" stroke:none;fill-rule:evenodd;fill:rgb(33.72549%,66.666667%,83.137255%);fill-opacity:1;" d="M 4.628906 15.992188 L 9.605469 15.992188 L 5.308594 11.691406 C 5.261719 11.644531 5.210938 11.59375 5.167969 11.542969 C 5.066406 11.429688 4.96875 11.3125 4.878906 11.191406 C 4.789062 11.070312 4.707031 10.945312 4.628906 10.816406 Z M 4.628906 15.992188 "/>
<path style=" stroke:none;fill-rule:evenodd;fill:rgb(33.72549%,66.666667%,83.137255%);fill-opacity:1;" d="M 1.007812 10.515625 L 1.007812 13.03125 C 1.007812 14.671875 2.328125 15.992188 3.96875 15.992188 L 3.984375 15.992188 L 3.984375 8.5 C 3.984375 8.429688 3.988281 8.363281 3.992188 8.292969 C 3.996094 8.140625 4.011719 7.992188 4.035156 7.84375 C 4.058594 7.695312 4.089844 7.546875 4.125 7.402344 Z M 1.25 13.871094 C 1.335938 13.984375 1.421875 14.101562 1.511719 14.210938 C 1.421875 14.101562 1.335938 13.984375 1.25 13.871094 Z M 1.824219 14.570312 C 1.90625 14.660156 1.984375 14.75 2.070312 14.835938 C 1.984375 14.75 1.902344 14.660156 1.824219 14.570312 Z M 1.824219 14.570312 "/>
<path style=" stroke:none;fill-rule:evenodd;fill:rgb(33.72549%,66.666667%,83.137255%);fill-opacity:1;" d="M 1.007812 4.628906 L 1.007812 9.605469 L 5.308594 5.308594 C 5.359375 5.257812 5.410156 5.210938 5.460938 5.164062 C 5.570312 5.0625 5.6875 4.96875 5.808594 4.878906 C 5.929688 4.789062 6.054688 4.707031 6.183594 4.628906 Z M 1.007812 4.628906 "/>
<path style=" stroke:none;fill-rule:evenodd;fill:rgb(33.72549%,66.666667%,83.137255%);fill-opacity:1;" d="M 6.484375 1.007812 L 3.96875 1.007812 C 2.328125 1.007812 1.007812 2.328125 1.007812 3.96875 L 1.007812 3.984375 L 8.5 3.984375 C 8.570312 3.984375 8.636719 3.988281 8.707031 3.992188 C 8.859375 3.996094 9.007812 4.011719 9.15625 4.035156 C 9.304688 4.058594 9.453125 4.089844 9.597656 4.125 Z M 3.113281 1.261719 C 3.003906 1.34375 2.894531 1.425781 2.789062 1.507812 C 2.894531 1.425781 3.003906 1.34375 3.113281 1.261719 Z M 2.429688 1.824219 C 2.339844 1.90625 2.25 1.984375 2.164062 2.070312 C 2.25 1.984375 2.339844 1.90625 2.429688 1.824219 Z M 2.429688 1.824219 "/>
<path style=" stroke:none;fill-rule:evenodd;fill:rgb(94.901961%,94.901961%,94.901961%);fill-opacity:1;" d="M 6.484375 1.007812 L 9.597656 4.125 C 9.453125 4.089844 9.304688 4.058594 9.15625 4.035156 C 9.007812 4.011719 8.859375 3.996094 8.707031 3.992188 C 8.636719 3.988281 8.570312 3.984375 8.5 3.984375 L 1.007812 3.984375 L 1.007812 4.628906 L 6.183594 4.628906 C 6.054688 4.707031 5.929688 4.789062 5.808594 4.878906 C 5.6875 4.96875 5.570312 5.0625 5.460938 5.164062 C 5.410156 5.210938 5.359375 5.257812 5.308594 5.308594 L 1.007812 9.605469 L 1.007812 10.515625 L 4.125 7.402344 C 4.089844 7.546875 4.058594 7.695312 4.035156 7.84375 C 4.011719 7.992188 3.996094 8.140625 3.992188 8.292969 C 3.988281 8.363281 3.984375 8.429688 3.984375 8.5 L 3.984375 15.992188 L 4.628906 15.992188 L 4.628906 10.816406 C 4.707031 10.945312 4.789062 11.070312 4.878906 11.191406 C 4.96875 11.3125 5.066406 11.429688 5.167969 11.542969 C 5.210938 11.59375 5.261719 11.644531 5.308594 11.691406 L 9.605469 15.992188 L 10.519531 15.992188 L 7.402344 12.875 C 7.546875 12.910156 7.695312 12.941406 7.84375 12.964844 C 7.992188 12.988281 8.140625 13.003906 8.292969 13.007812 C 8.363281 13.011719 8.429688 13.015625 8.5 13.015625 L 15.992188 13.015625 L 15.992188 12.371094 L 10.816406 12.371094 C 10.945312 12.292969 11.070312 12.210938 11.191406 12.121094 C 11.3125 12.03125 11.429688 11.9375 11.542969 11.835938 C 11.59375 11.789062 11.644531 11.742188 11.691406 11.691406 L 15.992188 7.394531 L 15.992188 6.484375 L 12.875 9.597656 C 12.910156 9.453125 12.941406 9.304688 12.964844 9.15625 C 12.988281 9.007812 13.003906 8.859375 13.007812 8.707031 C 13.011719 8.636719 13.015625 8.570312 13.015625 8.5 L 13.015625 1.007812 L 12.371094 1.007812 L 12.371094 6.183594 C 12.292969 6.054688 12.210938 5.929688 12.121094 5.808594 C 12.03125 5.6875 11.9375 5.570312 11.835938 5.457031 C 11.789062 5.40625 11.742188 5.355469 11.691406 5.308594 L 7.394531 1.007812 Z M 6.484375 1.007812 "/>
</g>
</svg>
