<?xml version="1.0" encoding="UTF-8"?>
<svg xmlns="http://www.w3.org/2000/svg" xmlns:xlink="http://www.w3.org/1999/xlink" width="17pt" height="17pt" viewBox="0 0 17 17" version="1.1">
<g id="surface1">
<path style=" stroke:none;fill-rule:evenodd;fill:rgb(0%,57.647059%,80.392157%);fill-opacity:1;" d="M 3.96875 1.007812 L 13.03125 1.007812 C 14.664062 1.007812 15.992188 2.335938 15.992188 3.96875 L 15.992188 13.03125 C 15.992188 14.664062 14.664062 15.992188 13.03125 15.992188 L 3.96875 15.992188 C 2.335938 15.992188 1.007812 14.664062 1.007812 13.03125 L 1.007812 3.96875 C 1.007812 2.335938 2.335938 1.007812 3.96875 1.007812 Z M 3.96875 1.007812 "/>
<path style=" stroke:none;fill-rule:nonzero;fill:rgb(30.980392%,30.980392%,30.980392%);fill-opacity:1;" d="M 3.070312 8.265625 L 10.484375 3.4375 C 11.363281 2.867188 12.535156 3.117188 13.105469 3.996094 L 14.484375 6.113281 C 15.058594 6.992188 14.808594 8.164062 13.929688 8.734375 L 6.515625 13.5625 C 5.636719 14.132812 4.464844 13.882812 3.894531 13.003906 L 2.515625 10.886719 C 1.941406 10.007812 2.191406 8.835938 3.070312 8.265625 Z M 3.070312 8.265625 "/>
<path style=" stroke:none;fill-rule:nonzero;fill:rgb(0%,57.647059%,80.392157%);fill-opacity:1;" d="M 4.621094 8.332031 L 9.917969 4.886719 L 12.378906 8.667969 L 7.082031 12.113281 Z M 4.621094 8.332031 "/>
<path style="fill:none;stroke-width:0.588496;stroke-linecap:butt;stroke-linejoin:miter;stroke:rgb(100%,100%,100%);stroke-opacity:1;stroke-miterlimit:4;" d="M 9.849334 18.803667 L 9.845325 15.651942 L 12.653831 15.651768 L 12.648937 12.850516 L 9.501932 12.847271 " transform="matrix(0.37833,-0.246159,0.246159,0.37833,-1.253441,6.337853)"/>
<path style="fill:none;stroke-width:0.588496;stroke-linecap:butt;stroke-linejoin:miter;stroke:rgb(100%,100%,100%);stroke-opacity:1;stroke-miterlimit:4;" d="M 16.996116 12.849953 L 15.251004 12.850248 L 15.253538 18.448031 L 13.496452 18.45086 " transform="matrix(0.37833,-0.246159,0.246159,0.37833,-1.253441,6.337853)"/>
<path style="fill:none;stroke-width:0.588496;stroke-linecap:butt;stroke-linejoin:miter;stroke:rgb(100%,100%,100%);stroke-opacity:1;stroke-miterlimit:4;" d="M 17.85472 18.798236 L 17.850711 15.646511 L 20.647243 15.648871 L 20.649603 12.852339 L 17.502598 12.849095 " transform="matrix(0.37833,-0.246159,0.246159,0.37833,-1.253441,6.337853)"/>
<path style=" stroke:none;fill-rule:nonzero;fill:rgb(41.176471%,49.411765%,51.372549%);fill-opacity:1;" d="M 3.75 9.972656 C 3.625 10.054688 3.589844 10.222656 3.671875 10.347656 L 3.96875 10.804688 L 3.511719 11.097656 C 3.386719 11.179688 3.351562 11.347656 3.433594 11.472656 L 3.730469 11.925781 C 3.8125 12.054688 3.976562 12.089844 4.105469 12.007812 L 4.558594 11.710938 L 4.851562 12.164062 C 4.933594 12.289062 5.101562 12.324219 5.226562 12.246094 L 5.683594 11.949219 C 5.808594 11.867188 5.84375 11.699219 5.761719 11.574219 L 5.464844 11.121094 L 5.921875 10.824219 C 6.046875 10.742188 6.082031 10.574219 6 10.449219 L 5.703125 9.996094 C 5.621094 9.871094 5.453125 9.835938 5.328125 9.917969 L 4.875 10.210938 L 4.578125 9.757812 C 4.5 9.632812 4.332031 9.597656 4.207031 9.679688 Z M 3.75 9.972656 "/>
<path style=" stroke:none;fill-rule:nonzero;fill:rgb(41.176471%,49.411765%,51.372549%);fill-opacity:1;" d="M 12.039062 5.660156 C 11.828125 5.796875 11.546875 5.738281 11.414062 5.527344 C 11.277344 5.320312 11.335938 5.039062 11.542969 4.902344 C 11.753906 4.765625 12.035156 4.828125 12.167969 5.035156 C 12.304688 5.246094 12.246094 5.523438 12.039062 5.660156 Z M 12.039062 5.660156 "/>
<path style=" stroke:none;fill-rule:nonzero;fill:rgb(41.176471%,49.411765%,51.372549%);fill-opacity:1;" d="M 13.023438 7.171875 C 12.8125 7.308594 12.535156 7.25 12.398438 7.042969 C 12.261719 6.832031 12.320312 6.550781 12.53125 6.417969 C 12.738281 6.28125 13.019531 6.339844 13.152344 6.550781 C 13.289062 6.757812 13.230469 7.039062 13.023438 7.171875 Z M 13.023438 7.171875 "/>
<path style=" stroke:none;fill-rule:nonzero;fill:rgb(41.176471%,49.411765%,51.372549%);fill-opacity:1;" d="M 12.660156 5.792969 C 12.527344 5.582031 12.585938 5.304688 12.792969 5.167969 C 13.003906 5.03125 13.28125 5.089844 13.417969 5.300781 C 13.554688 5.507812 13.496094 5.789062 13.285156 5.925781 C 13.078125 6.058594 12.796875 6 12.660156 5.792969 Z M 12.660156 5.792969 "/>
<path style=" stroke:none;fill-rule:nonzero;fill:rgb(41.176471%,49.411765%,51.372549%);fill-opacity:1;" d="M 11.148438 6.777344 C 11.011719 6.566406 11.070312 6.289062 11.28125 6.152344 C 11.488281 6.015625 11.769531 6.074219 11.90625 6.285156 C 12.039062 6.492188 11.980469 6.773438 11.773438 6.910156 C 11.5625 7.046875 11.285156 6.984375 11.148438 6.777344 Z M 11.148438 6.777344 "/>
</g>
</svg>
