<?xml version="1.0" encoding="UTF-8"?>
<svg xmlns="http://www.w3.org/2000/svg" xmlns:xlink="http://www.w3.org/1999/xlink" width="17pt" height="17pt" viewBox="0 0 17 17" version="1.1">
<g id="surface1">
<path style=" stroke:none;fill-rule:evenodd;fill:rgb(37.254902%,48.627451%,54.117647%);fill-opacity:1;" d="M 3.96875 1.007812 L 13.03125 1.007812 C 14.664062 1.007812 15.992188 2.335938 15.992188 3.96875 L 15.992188 13.03125 C 15.992188 14.664062 14.664062 15.992188 13.03125 15.992188 L 3.96875 15.992188 C 2.335938 15.992188 1.007812 14.664062 1.007812 13.03125 L 1.007812 3.96875 C 1.007812 2.335938 2.335938 1.007812 3.96875 1.007812 Z M 3.96875 1.007812 "/>
<path style=" stroke:none;fill-rule:nonzero;fill:rgb(100%,100%,100%);fill-opacity:1;" d="M 8.5 3.285156 C 7.972656 3.804688 7.464844 4.398438 6.929688 4.917969 L 4.917969 4.917969 L 4.917969 6.929688 C 4.398438 7.464844 3.804688 7.972656 3.285156 8.5 C 3.804688 9.027344 4.398438 9.554688 4.917969 10.089844 L 4.917969 12.082031 L 6.929688 12.082031 C 7.464844 12.601562 7.972656 13.195312 8.5 13.714844 C 9.027344 13.195312 9.554688 12.601562 10.089844 12.082031 L 12.082031 12.082031 L 12.082031 10.089844 C 12.601562 9.554688 13.195312 9.027344 13.714844 8.5 C 13.195312 7.972656 12.601562 7.464844 12.082031 6.929688 L 12.082031 4.917969 L 10.089844 4.917969 C 9.554688 4.398438 9.027344 3.804688 8.5 3.285156 Z M 8.5 6.351562 C 7.3125 6.351562 6.351562 7.3125 6.351562 8.5 C 6.351562 9.6875 7.3125 10.648438 8.5 10.648438 Z M 8.5 6.351562 "/>
<path style=" stroke:none;fill-rule:nonzero;fill:rgb(37.254902%,48.627451%,54.117647%);fill-opacity:1;" d="M 8.5 5.476562 C 6.917969 5.476562 5.636719 6.761719 5.636719 8.34375 C 5.636719 9.925781 6.917969 11.207031 8.5 11.207031 Z M 8.5 5.476562 "/>
</g>
</svg>
