<?xml version="1.0" encoding="UTF-8"?>
<svg xmlns="http://www.w3.org/2000/svg" xmlns:xlink="http://www.w3.org/1999/xlink" width="17pt" height="17pt" viewBox="0 0 17 17" version="1.1">
<defs>
<clipPath id="clip1">
  <rect width="17" height="17"/>
</clipPath>
<g id="surface6" clip-path="url(#clip1)">
<path style=" stroke:none;fill-rule:nonzero;fill:rgb(20%,20%,20%);fill-opacity:1;" d="M 6.910156 3.71875 C 6.175781 3.71875 5.582031 4.3125 5.582031 5.046875 C 5.582031 5.78125 6.175781 6.375 6.910156 6.375 C 7.640625 6.375 8.238281 5.78125 8.238281 5.046875 C 8.238281 4.3125 7.640625 3.71875 6.910156 3.71875 Z M 5.847656 6.90625 C 5.632812 6.90625 5.4375 7.035156 5.355469 7.234375 L 4.027344 9.890625 C 3.734375 10.550781 4.746094 10.972656 5.007812 10.296875 L 5.597656 8.886719 L 5.578125 9.03125 L 5.578125 12.75 C 5.578125 13.042969 5.816406 13.28125 6.109375 13.28125 L 6.113281 13.28125 C 6.40625 13.28125 6.644531 13.042969 6.644531 12.75 L 6.640625 10.625 L 7.171875 10.625 L 7.175781 12.75 C 7.175781 13.042969 7.410156 13.28125 7.707031 13.28125 C 8 13.28125 8.238281 13.042969 8.238281 12.75 L 8.234375 9.03125 L 8.214844 8.871094 L 8.808594 10.296875 C 8.925781 10.601562 9.285156 10.726562 9.570312 10.566406 L 10.382812 10.519531 C 10.375 10.554688 10.359375 10.589844 10.359375 10.625 L 10.359375 13.015625 C 10.359375 13.164062 10.480469 13.28125 10.625 13.28125 C 10.773438 13.28125 10.890625 13.164062 10.890625 13.015625 L 10.890625 11.6875 L 11.421875 11.6875 L 11.425781 13.015625 C 11.425781 13.164062 11.542969 13.28125 11.691406 13.28125 C 11.835938 13.28125 11.957031 13.164062 11.957031 13.015625 L 11.957031 11 L 12.5625 11.609375 C 12.8125 11.871094 13.199219 11.484375 12.9375 11.234375 L 11.878906 10.171875 C 11.828125 10.121094 11.761719 10.09375 11.691406 10.09375 L 10.699219 10.09375 L 9.835938 10.105469 C 9.835938 10.03125 9.820312 9.957031 9.789062 9.890625 L 8.460938 7.234375 C 8.378906 7.035156 8.1875 6.90625 7.972656 6.90625 Z M 11.15625 7.835938 C 10.644531 7.835938 10.226562 8.253906 10.226562 8.765625 C 10.226562 9.277344 10.644531 9.695312 11.15625 9.695312 C 11.667969 9.695312 12.085938 9.277344 12.085938 8.765625 C 12.085938 8.253906 11.667969 7.835938 11.15625 7.835938 Z M 11.15625 7.835938 "/>
</g>
</defs>
<g id="surface1">
<path style=" stroke:none;fill-rule:evenodd;fill:rgb(99.607843%,80.392157%,21.960784%);fill-opacity:1;" d="M 3.96875 1.007812 L 13.03125 1.007812 C 14.664062 1.007812 15.992188 2.335938 15.992188 3.96875 L 15.992188 13.03125 C 15.992188 14.664062 14.664062 15.992188 13.03125 15.992188 L 3.96875 15.992188 C 2.335938 15.992188 1.007812 14.664062 1.007812 13.03125 L 1.007812 3.96875 C 1.007812 2.335938 2.335938 1.007812 3.96875 1.007812 Z M 3.96875 1.007812 "/>
<use xlink:href="#surface6"/>
</g>
</svg>
