<?xml version="1.0" encoding="UTF-8"?>
<svg xmlns="http://www.w3.org/2000/svg" xmlns:xlink="http://www.w3.org/1999/xlink" width="17pt" height="17pt" viewBox="0 0 17 17" version="1.1">
<g id="surface1">
<path style=" stroke:none;fill-rule:evenodd;fill:rgb(1.960784%,70.588235%,94.901961%);fill-opacity:1;" d="M 3.96875 1.007812 L 13.03125 1.007812 C 14.664062 1.007812 15.992188 2.335938 15.992188 3.96875 L 15.992188 13.03125 C 15.992188 14.664062 14.664062 15.992188 13.03125 15.992188 L 3.96875 15.992188 C 2.335938 15.992188 1.007812 14.664062 1.007812 13.03125 L 1.007812 3.96875 C 1.007812 2.335938 2.335938 1.007812 3.96875 1.007812 Z M 3.96875 1.007812 "/>
<path style=" stroke:none;fill-rule:evenodd;fill:rgb(1.960784%,70.588235%,94.901961%);fill-opacity:1;" d="M 8.429688 15.992188 L 13.03125 15.992188 C 14.671875 15.992188 15.992188 14.671875 15.992188 13.03125 L 15.992188 3.96875 C 15.992188 2.328125 14.671875 1.007812 13.03125 1.007812 L 8.429688 1.007812 Z M 8.429688 15.992188 "/>
<path style=" stroke:none;fill-rule:evenodd;fill:rgb(1.960784%,60%,94.901961%);fill-opacity:1;" d="M 8.429688 15.992188 L 8.429688 1.007812 L 3.96875 1.007812 C 2.328125 1.007812 1.007812 2.328125 1.007812 3.96875 L 1.007812 13.03125 C 1.007812 14.671875 2.328125 15.992188 3.96875 15.992188 Z M 8.429688 15.992188 "/>
<path style=" stroke:none;fill-rule:nonzero;fill:rgb(100%,100%,100%);fill-opacity:1;" d="M 4.710938 12.777344 C 4.710938 12.523438 4.742188 12.4375 4.855469 12.363281 C 4.925781 12.316406 4.941406 12.3125 5.160156 12.308594 L 5.394531 12.304688 L 5.394531 12.089844 C 5.394531 11.910156 5.402344 11.867188 5.433594 11.800781 C 5.484375 11.695312 5.59375 11.628906 5.734375 11.613281 L 5.84375 11.601562 L 5.867188 11.328125 C 5.921875 10.566406 6.109375 9.992188 6.460938 9.519531 C 6.578125 9.359375 6.804688 9.128906 7.09375 8.878906 C 7.480469 8.539062 7.476562 8.453125 7.0625 8.097656 C 6.777344 7.851562 6.511719 7.574219 6.394531 7.394531 C 6.078125 6.921875 5.902344 6.332031 5.859375 5.601562 L 5.847656 5.398438 L 5.738281 5.386719 C 5.59375 5.371094 5.484375 5.304688 5.433594 5.199219 C 5.402344 5.132812 5.394531 5.089844 5.394531 4.90625 L 5.394531 4.695312 L 5.183594 4.695312 C 4.929688 4.695312 4.84375 4.664062 4.765625 4.546875 C 4.722656 4.480469 4.71875 4.464844 4.714844 4.242188 L 4.707031 4.011719 L 12.292969 4.011719 L 12.285156 4.242188 C 12.28125 4.464844 12.277344 4.480469 12.230469 4.546875 C 12.15625 4.664062 12.070312 4.695312 11.816406 4.695312 L 11.605469 4.695312 L 11.605469 4.90625 C 11.605469 5.089844 11.597656 5.132812 11.566406 5.199219 C 11.515625 5.304688 11.40625 5.371094 11.261719 5.386719 L 11.152344 5.398438 L 11.140625 5.59375 C 11.105469 6.15625 11 6.625 10.824219 7.003906 C 10.625 7.425781 10.398438 7.707031 9.921875 8.105469 C 9.675781 8.308594 9.605469 8.398438 9.605469 8.496094 C 9.605469 8.609375 9.660156 8.679688 9.921875 8.90625 C 10.234375 9.175781 10.367188 9.304688 10.496094 9.46875 C 10.878906 9.957031 11.09375 10.589844 11.140625 11.394531 L 11.152344 11.601562 L 11.261719 11.613281 C 11.40625 11.628906 11.515625 11.695312 11.566406 11.800781 C 11.597656 11.867188 11.605469 11.910156 11.605469 12.089844 L 11.605469 12.304688 L 11.839844 12.308594 C 12.058594 12.3125 12.074219 12.316406 12.144531 12.363281 C 12.257812 12.4375 12.289062 12.523438 12.289062 12.777344 L 12.289062 12.988281 L 4.710938 12.988281 Z M 7.140625 11.484375 C 7.167969 11.15625 7.261719 10.855469 7.414062 10.605469 C 7.523438 10.417969 7.601562 10.316406 7.859375 10.027344 C 8.351562 9.464844 8.414062 9.320312 8.375 8.867188 C 8.355469 8.613281 8.292969 8.378906 8.191406 8.175781 C 8.101562 7.992188 8.015625 7.871094 7.757812 7.582031 C 7.574219 7.375 7.507812 7.269531 7.496094 7.175781 L 7.492188 7.125 L 8.515625 7.117188 L 9.539062 7.113281 L 9.53125 7.183594 C 9.511719 7.308594 9.4375 7.433594 9.246094 7.648438 C 8.992188 7.933594 8.914062 8.035156 8.824219 8.207031 C 8.632812 8.574219 8.570312 9.066406 8.679688 9.359375 C 8.753906 9.550781 8.828125 9.65625 9.253906 10.148438 C 9.652344 10.609375 9.804688 10.953125 9.859375 11.503906 L 9.871094 11.605469 L 10.601562 11.605469 L 10.59375 11.484375 C 10.542969 10.675781 10.371094 10.179688 10 9.742188 C 9.945312 9.675781 9.777344 9.515625 9.628906 9.386719 C 9.273438 9.074219 9.210938 9.003906 9.140625 8.859375 C 9.03125 8.644531 9.027344 8.363281 9.132812 8.15625 C 9.199219 8.015625 9.296875 7.910156 9.585938 7.660156 C 10.003906 7.296875 10.144531 7.128906 10.308594 6.796875 C 10.476562 6.449219 10.570312 6.023438 10.589844 5.503906 L 10.597656 5.394531 L 6.398438 5.394531 L 6.40625 5.523438 C 6.4375 6.039062 6.515625 6.40625 6.667969 6.75 C 6.816406 7.082031 6.984375 7.292969 7.339844 7.605469 C 7.667969 7.890625 7.78125 8.015625 7.855469 8.164062 C 7.910156 8.277344 7.914062 8.289062 7.914062 8.5 C 7.914062 8.710938 7.910156 8.722656 7.855469 8.835938 C 7.773438 9 7.683594 9.101562 7.421875 9.332031 C 7.039062 9.664062 6.855469 9.878906 6.710938 10.167969 C 6.566406 10.457031 6.449219 10.910156 6.421875 11.289062 C 6.417969 11.371094 6.40625 11.476562 6.402344 11.519531 L 6.394531 11.605469 L 7.128906 11.605469 Z M 7.140625 11.484375 "/>
</g>
</svg>
