<?xml version="1.0" encoding="UTF-8"?>
<svg xmlns="http://www.w3.org/2000/svg" xmlns:xlink="http://www.w3.org/1999/xlink" width="17pt" height="17pt" viewBox="0 0 17 17" version="1.1">
<g id="surface1">
<path style=" stroke:none;fill-rule:evenodd;fill:rgb(55.686275%,55.686275%,55.686275%);fill-opacity:1;" d="M 1.007812 5.851562 L 1.007812 13.03125 C 1.007812 14.671875 2.328125 15.992188 3.96875 15.992188 L 13.03125 15.992188 C 14.671875 15.992188 15.992188 14.671875 15.992188 13.03125 L 15.992188 5.851562 Z M 1.007812 5.851562 "/>
<path style=" stroke:none;fill-rule:evenodd;fill:rgb(20%,20%,20%);fill-opacity:1;" d="M 1.007812 5.851562 L 15.992188 5.851562 L 15.992188 3.972656 C 15.992188 2.328125 14.671875 1.007812 13.03125 1.007812 L 3.96875 1.007812 C 2.328125 1.007812 1.007812 2.328125 1.007812 3.972656 Z M 1.007812 5.851562 "/>
<path style=" stroke:none;fill-rule:nonzero;fill:rgb(94.901961%,37.647059%,33.72549%);fill-opacity:1;" d="M 11.378906 2.140625 L 12.726562 2.140625 C 13.109375 2.140625 13.417969 2.453125 13.417969 2.835938 L 13.417969 4.183594 C 13.417969 4.566406 13.109375 4.875 12.726562 4.875 L 11.378906 4.875 C 10.996094 4.875 10.683594 4.566406 10.683594 4.183594 L 10.683594 2.835938 C 10.683594 2.453125 10.996094 2.140625 11.378906 2.140625 Z M 11.378906 2.140625 "/>
<path style=" stroke:none;fill-rule:nonzero;fill:rgb(94.901961%,97.647059%,94.117647%);fill-opacity:1;" d="M 12.632812 2.925781 C 12.566406 2.859375 12.457031 2.859375 12.390625 2.925781 L 12.050781 3.261719 L 11.714844 2.925781 C 11.648438 2.859375 11.539062 2.859375 11.46875 2.925781 C 11.402344 2.992188 11.402344 3.101562 11.46875 3.171875 L 11.808594 3.507812 L 11.46875 3.84375 C 11.402344 3.914062 11.402344 4.023438 11.46875 4.089844 C 11.539062 4.160156 11.648438 4.160156 11.714844 4.089844 L 12.050781 3.753906 L 12.390625 4.089844 C 12.457031 4.160156 12.566406 4.160156 12.632812 4.089844 C 12.703125 4.023438 12.703125 3.914062 12.632812 3.84375 L 12.296875 3.507812 L 12.632812 3.171875 C 12.703125 3.101562 12.703125 2.992188 12.632812 2.925781 Z M 12.632812 2.925781 "/>
<path style=" stroke:none;fill-rule:nonzero;fill:rgb(51.764706%,74.509804%,23.137255%);fill-opacity:1;" d="M 7.828125 2.140625 L 9.171875 2.140625 C 9.554688 2.140625 9.867188 2.453125 9.867188 2.835938 L 9.867188 4.183594 C 9.867188 4.566406 9.554688 4.875 9.171875 4.875 L 7.828125 4.875 C 7.445312 4.875 7.132812 4.566406 7.132812 4.183594 L 7.132812 2.835938 C 7.132812 2.453125 7.445312 2.140625 7.828125 2.140625 Z M 7.828125 2.140625 "/>
<path style=" stroke:none;fill-rule:nonzero;fill:rgb(100%,100%,100%);fill-opacity:1;" d="M 8.851562 4.140625 L 7.867188 3.160156 L 7.867188 3.949219 C 7.867188 4.054688 7.953125 4.140625 8.058594 4.140625 Z M 8.851562 4.140625 "/>
<path style=" stroke:none;fill-rule:nonzero;fill:rgb(100%,100%,100%);fill-opacity:1;" d="M 9.078125 2.933594 C 9.042969 2.898438 8.992188 2.875 8.941406 2.875 L 8.136719 2.875 L 9.132812 3.867188 L 9.132812 3.066406 C 9.132812 3.015625 9.113281 2.964844 9.078125 2.933594 Z M 9.078125 2.933594 "/>
<path style=" stroke:none;fill-rule:nonzero;fill:rgb(98.823529%,78.039216%,2.745098%);fill-opacity:1;" d="M 4.273438 2.140625 L 5.621094 2.140625 C 6.003906 2.140625 6.316406 2.453125 6.316406 2.835938 L 6.316406 4.183594 C 6.316406 4.566406 6.003906 4.875 5.621094 4.875 L 4.273438 4.875 C 3.890625 4.875 3.582031 4.566406 3.582031 4.183594 L 3.582031 2.835938 C 3.582031 2.453125 3.890625 2.140625 4.273438 2.140625 Z M 4.273438 2.140625 "/>
<path style=" stroke:none;fill-rule:nonzero;fill:rgb(100%,100%,100%);fill-opacity:1;" d="M 5.300781 4.140625 L 4.316406 3.160156 L 4.316406 3.949219 C 4.316406 4.054688 4.402344 4.140625 4.507812 4.140625 Z M 5.300781 4.140625 "/>
</g>
</svg>
