<?xml version="1.0" encoding="UTF-8"?>
<svg xmlns="http://www.w3.org/2000/svg" xmlns:xlink="http://www.w3.org/1999/xlink" width="17pt" height="17pt" viewBox="0 0 17 17" version="1.1">
<g id="surface1">
<path style=" stroke:none;fill-rule:evenodd;fill:rgb(96.078431%,51.764706%,6.666667%);fill-opacity:1;" d="M 3.96875 1.007812 L 13.03125 1.007812 C 14.664062 1.007812 15.992188 2.335938 15.992188 3.96875 L 15.992188 13.03125 C 15.992188 14.664062 14.664062 15.992188 13.03125 15.992188 L 3.96875 15.992188 C 2.335938 15.992188 1.007812 14.664062 1.007812 13.03125 L 1.007812 3.96875 C 1.007812 2.335938 2.335938 1.007812 3.96875 1.007812 Z M 3.96875 1.007812 "/>
<path style=" stroke:none;fill-rule:nonzero;fill:rgb(100%,100%,100%);fill-opacity:1;" d="M 7.390625 5.445312 L 8.5 6.078125 L 9.609375 5.445312 C 11.453125 5.445312 12.9375 6.941406 12.9375 8.800781 L 12.9375 9.695312 C 12.9375 11.550781 11.453125 13.046875 9.609375 13.046875 L 8.5 12.730469 L 7.390625 13.046875 C 5.546875 13.046875 4.0625 11.550781 4.0625 9.695312 L 4.0625 8.796875 C 4.0625 6.941406 5.546875 5.445312 7.390625 5.445312 Z M 7.390625 5.445312 "/>
<path style="fill:none;stroke-width:2;stroke-linecap:round;stroke-linejoin:round;stroke:rgb(29.019608%,14.509804%,2.745098%);stroke-opacity:1;stroke-miterlimit:4;" d="M -18.685448 12.115395 C -18.685448 12.115395 -18.781036 9.284512 -17.435448 9.130101 C -16.082507 8.983042 -15.104566 9.725689 -15.104566 9.725689 " transform="matrix(0.53125,0,0,0.53125,18.426644,-0.358178)"/>
</g>
</svg>
