<?xml version="1.0" encoding="UTF-8"?>
<svg xmlns="http://www.w3.org/2000/svg" xmlns:xlink="http://www.w3.org/1999/xlink" width="17pt" height="17pt" viewBox="0 0 17 17" version="1.1">
<g id="surface1">
<path style=" stroke:none;fill-rule:evenodd;fill:rgb(100%,100%,100%);fill-opacity:1;" d="M 1.007812 12.441406 C 1.835938 11.527344 2.667969 10.714844 3.507812 10.050781 C 4.414062 9.34375 5.328125 8.773438 6.253906 8.328125 C 7.179688 7.886719 8.113281 7.566406 9.0625 7.359375 C 10.015625 7.152344 10.976562 7.054688 11.949219 7.054688 C 12.488281 7.054688 13.164062 7.296875 13.707031 7.347656 C 12.835938 6.964844 11.265625 6.085938 9.453125 5.304688 C 8.546875 4.914062 7.582031 4.546875 6.613281 4.277344 C 5.640625 4.007812 4.671875 3.835938 3.753906 3.835938 C 3.242188 3.835938 2.75 3.851562 2.269531 3.933594 C 1.847656 4.003906 1.429688 4.15625 1.007812 4.359375 Z M 1.007812 12.441406 "/>
<path style=" stroke:none;fill-rule:evenodd;fill:rgb(49.411765%,81.960784%,95.294118%);fill-opacity:1;" d="M 7.265625 9.105469 C 6.820312 9.136719 6.390625 9.234375 5.972656 9.386719 C 5.558594 9.535156 5.160156 9.738281 4.773438 9.976562 C 3.996094 10.457031 3.273438 11.085938 2.582031 11.738281 C 3.410156 11.410156 4.1875 11.207031 4.921875 11.132812 C 5.65625 11.0625 6.34375 11.125 6.992188 11.328125 C 7.214844 11.402344 7.886719 11.699219 8.480469 11.996094 C 9.234375 12.371094 9.796875 12.621094 10.300781 12.796875 C 10.808594 12.972656 11.253906 13.070312 11.777344 13.136719 C 12.40625 13.199219 13.019531 13.152344 13.628906 13.046875 C 14.238281 12.945312 14.847656 12.78125 15.464844 12.617188 L 14.050781 12.117188 C 13.390625 11.835938 12.589844 11.40625 11.449219 10.746094 C 10.675781 10.328125 10.003906 9.894531 9.339844 9.574219 C 9.003906 9.414062 8.675781 9.285156 8.332031 9.199219 C 7.992188 9.117188 7.640625 9.078125 7.265625 9.105469 Z M 7.265625 9.105469 "/>
<path style=" stroke:none;fill-rule:evenodd;fill:rgb(0.784314%,52.54902%,76.078431%);fill-opacity:1;" d="M 3.96875 1.007812 C 2.328125 1.007812 1.007812 2.328125 1.007812 3.972656 L 1.007812 4.359375 C 1.429688 4.15625 1.847656 4.003906 2.269531 3.933594 C 2.75 3.851562 3.242188 3.835938 3.753906 3.835938 C 4.671875 3.835938 5.640625 4.007812 6.613281 4.277344 C 7.582031 4.546875 8.546875 4.914062 9.453125 5.304688 C 11.265625 6.085938 12.835938 6.964844 13.707031 7.347656 C 13.164062 7.296875 12.488281 7.054688 11.949219 7.054688 C 10.976562 7.054688 10.015625 7.152344 9.0625 7.359375 C 8.113281 7.566406 7.179688 7.886719 6.253906 8.328125 C 5.328125 8.773438 4.414062 9.34375 3.507812 10.050781 C 2.667969 10.714844 1.835938 11.527344 1.007812 12.441406 L 1.007812 13.03125 C 1.007812 14.671875 2.328125 15.992188 3.96875 15.992188 L 13.027344 15.992188 C 14.671875 15.992188 15.992188 14.671875 15.992188 13.03125 L 15.992188 3.972656 C 15.992188 2.328125 14.671875 1.007812 13.027344 1.007812 Z M 7.265625 9.105469 C 7.640625 9.078125 7.992188 9.117188 8.332031 9.199219 C 8.675781 9.285156 9.003906 9.414062 9.339844 9.574219 C 10.003906 9.894531 10.675781 10.328125 11.449219 10.746094 C 12.589844 11.40625 13.390625 11.835938 14.050781 12.117188 L 15.464844 12.617188 C 14.847656 12.78125 14.238281 12.945312 13.628906 13.046875 C 13.019531 13.152344 12.40625 13.199219 11.777344 13.136719 C 11.253906 13.070312 10.808594 12.972656 10.300781 12.796875 C 9.796875 12.621094 9.234375 12.371094 8.480469 11.996094 C 7.886719 11.699219 7.214844 11.402344 6.992188 11.328125 C 6.34375 11.125 5.65625 11.0625 4.921875 11.132812 C 4.1875 11.207031 3.410156 11.410156 2.582031 11.738281 C 3.273438 11.085938 3.996094 10.457031 4.773438 9.976562 C 5.160156 9.738281 5.558594 9.535156 5.972656 9.386719 C 6.390625 9.234375 6.820312 9.136719 7.265625 9.105469 Z M 7.265625 9.105469 "/>
</g>
</svg>
