<?xml version="1.0" encoding="UTF-8"?>
<svg xmlns="http://www.w3.org/2000/svg" xmlns:xlink="http://www.w3.org/1999/xlink" width="17pt" height="17pt" viewBox="0 0 17 17" version="1.1">
<g id="surface1">
<path style=" stroke:none;fill-rule:evenodd;fill:rgb(29.803922%,38.823529%,41.960784%);fill-opacity:1;" d="M 3.96875 1.007812 L 13.03125 1.007812 C 14.664062 1.007812 15.992188 2.335938 15.992188 3.96875 L 15.992188 13.03125 C 15.992188 14.664062 14.664062 15.992188 13.03125 15.992188 L 3.96875 15.992188 C 2.335938 15.992188 1.007812 14.664062 1.007812 13.03125 L 1.007812 3.96875 C 1.007812 2.335938 2.335938 1.007812 3.96875 1.007812 Z M 3.96875 1.007812 "/>
<path style=" stroke:none;fill-rule:nonzero;fill:rgb(23.921569%,30.980392%,33.72549%);fill-opacity:1;" d="M 9.5625 7.96875 C 9.5625 10.023438 7.898438 11.6875 5.84375 11.6875 C 3.789062 11.6875 2.125 10.023438 2.125 7.96875 C 2.125 5.914062 3.789062 4.25 5.84375 4.25 C 7.898438 4.25 9.5625 5.914062 9.5625 7.96875 Z M 9.5625 7.96875 "/>
<path style=" stroke:none;fill-rule:nonzero;fill:rgb(93.333333%,34.509804%,34.509804%);fill-opacity:1;" d="M 3.214844 5.339844 C 3.089844 5.464844 2.972656 5.601562 2.867188 5.742188 L 4.015625 6.890625 C 3.523438 7.726562 3.65625 8.785156 4.339844 9.472656 C 5.027344 10.15625 6.085938 10.289062 6.921875 9.796875 L 8.066406 10.945312 C 8.210938 10.839844 8.347656 10.722656 8.472656 10.597656 C 8.597656 10.472656 8.714844 10.335938 8.820312 10.191406 L 7.671875 9.046875 C 8.164062 8.210938 8.03125 7.152344 7.347656 6.464844 C 6.660156 5.78125 5.601562 5.648438 4.765625 6.140625 L 3.621094 4.992188 C 3.476562 5.097656 3.339844 5.214844 3.214844 5.339844 Z M 3.214844 5.339844 "/>
<path style=" stroke:none;fill-rule:nonzero;fill:rgb(95.294118%,76.862745%,76.862745%);fill-opacity:1;" d="M 6.90625 7.96875 C 6.90625 8.554688 6.429688 9.03125 5.84375 9.03125 C 5.257812 9.03125 4.78125 8.554688 4.78125 7.96875 C 4.78125 7.382812 5.257812 6.90625 5.84375 6.90625 C 6.429688 6.90625 6.90625 7.382812 6.90625 7.96875 Z M 6.90625 7.96875 "/>
<path style=" stroke:none;fill-rule:nonzero;fill:rgb(23.921569%,30.980392%,33.72549%);fill-opacity:1;" d="M 11.15625 4.78125 L 14.34375 4.78125 C 14.636719 4.78125 14.875 5.019531 14.875 5.3125 C 14.875 5.605469 14.636719 5.84375 14.34375 5.84375 L 11.15625 5.84375 C 10.863281 5.84375 10.625 5.605469 10.625 5.3125 C 10.625 5.019531 10.863281 4.78125 11.15625 4.78125 Z M 11.15625 4.78125 "/>
<path style=" stroke:none;fill-rule:nonzero;fill:rgb(34.509804%,76.862745%,93.333333%);fill-opacity:1;" d="M 14.875 11.953125 C 14.875 12.394531 14.519531 12.75 14.078125 12.75 C 13.636719 12.75 13.28125 12.394531 13.28125 11.953125 C 13.28125 11.511719 13.636719 11.15625 14.078125 11.15625 C 14.519531 11.15625 14.875 11.511719 14.875 11.953125 Z M 14.875 11.953125 "/>
<path style=" stroke:none;fill-rule:nonzero;fill:rgb(34.509804%,76.862745%,93.333333%);fill-opacity:1;" d="M 12.75 11.953125 C 12.75 12.394531 12.394531 12.75 11.953125 12.75 C 11.511719 12.75 11.15625 12.394531 11.15625 11.953125 C 11.15625 11.511719 11.511719 11.15625 11.953125 11.15625 C 12.394531 11.15625 12.75 11.511719 12.75 11.953125 Z M 12.75 11.953125 "/>
<path style=" stroke:none;fill-rule:nonzero;fill:rgb(23.921569%,30.980392%,33.72549%);fill-opacity:1;" d="M 11.15625 6.375 L 14.34375 6.375 C 14.636719 6.375 14.875 6.613281 14.875 6.90625 C 14.875 7.199219 14.636719 7.4375 14.34375 7.4375 L 11.15625 7.4375 C 10.863281 7.4375 10.625 7.199219 10.625 6.90625 C 10.625 6.613281 10.863281 6.375 11.15625 6.375 Z M 11.15625 6.375 "/>
<path style=" stroke:none;fill-rule:nonzero;fill:rgb(23.921569%,30.980392%,33.72549%);fill-opacity:1;" d="M 11.15625 7.96875 L 14.34375 7.96875 C 14.636719 7.96875 14.875 8.207031 14.875 8.5 C 14.875 8.792969 14.636719 9.03125 14.34375 9.03125 L 11.15625 9.03125 C 10.863281 9.03125 10.625 8.792969 10.625 8.5 C 10.625 8.207031 10.863281 7.96875 11.15625 7.96875 Z M 11.15625 7.96875 "/>
<path style=" stroke:none;fill-rule:nonzero;fill:rgb(23.921569%,30.980392%,33.72549%);fill-opacity:1;" d="M 11.15625 9.5625 L 14.34375 9.5625 C 14.636719 9.5625 14.875 9.800781 14.875 10.09375 C 14.875 10.386719 14.636719 10.625 14.34375 10.625 L 11.15625 10.625 C 10.863281 10.625 10.625 10.386719 10.625 10.09375 C 10.625 9.800781 10.863281 9.5625 11.15625 9.5625 Z M 11.15625 9.5625 "/>
</g>
</svg>
