<?xml version="1.0" encoding="UTF-8"?>
<svg xmlns="http://www.w3.org/2000/svg" xmlns:xlink="http://www.w3.org/1999/xlink" width="17pt" height="17pt" viewBox="0 0 17 17" version="1.1">
<g id="surface1">
<path style=" stroke:none;fill-rule:evenodd;fill:rgb(72.156863%,45.490196%,14.509804%);fill-opacity:1;" d="M 3.96875 1.007812 L 13.03125 1.007812 C 14.664062 1.007812 15.992188 2.335938 15.992188 3.96875 L 15.992188 13.03125 C 15.992188 14.664062 14.664062 15.992188 13.03125 15.992188 L 3.96875 15.992188 C 2.335938 15.992188 1.007812 14.664062 1.007812 13.03125 L 1.007812 3.96875 C 1.007812 2.335938 2.335938 1.007812 3.96875 1.007812 Z M 3.96875 1.007812 "/>
<path style=" stroke:none;fill-rule:nonzero;fill:rgb(92.941176%,80%,36.078431%);fill-opacity:1;" d="M 5.597656 5.597656 C 4.246094 6.945312 4.246094 9.132812 5.597656 10.480469 C 6.945312 11.828125 9.132812 11.828125 10.480469 10.480469 C 11.828125 9.132812 11.828125 6.945312 10.480469 5.597656 C 9.132812 4.246094 6.945312 4.246094 5.597656 5.597656 Z M 6.722656 6.722656 C 7.449219 5.996094 8.625 5.996094 9.351562 6.722656 C 10.078125 7.449219 10.078125 8.625 9.351562 9.351562 C 8.625 10.078125 7.449219 10.078125 6.722656 9.351562 C 5.996094 8.625 5.996094 7.449219 6.722656 6.722656 Z M 6.722656 6.722656 "/>
<path style=" stroke:none;fill-rule:nonzero;fill:rgb(92.941176%,80%,36.078431%);fill-opacity:1;" d="M 9.539062 9.539062 C 9.851562 9.230469 10.339844 9.210938 10.628906 9.503906 L 12.207031 11.082031 C 12.496094 11.371094 12.480469 11.859375 12.167969 12.167969 C 11.859375 12.480469 11.371094 12.496094 11.082031 12.207031 L 9.503906 10.628906 C 9.210938 10.339844 9.230469 9.851562 9.539062 9.539062 Z M 9.539062 9.539062 "/>
</g>
</svg>
