<?xml version="1.0" encoding="UTF-8"?>
<svg xmlns="http://www.w3.org/2000/svg" xmlns:xlink="http://www.w3.org/1999/xlink" width="17pt" height="17pt" viewBox="0 0 17 17" version="1.1">
<g id="surface1">
<path style=" stroke:none;fill-rule:evenodd;fill:rgb(95.686275%,40.784314%,40.784314%);fill-opacity:1;" d="M 3.96875 1.007812 L 13.03125 1.007812 C 14.664062 1.007812 15.992188 2.335938 15.992188 3.96875 L 15.992188 13.03125 C 15.992188 14.664062 14.664062 15.992188 13.03125 15.992188 L 3.96875 15.992188 C 2.335938 15.992188 1.007812 14.664062 1.007812 13.03125 L 1.007812 3.96875 C 1.007812 2.335938 2.335938 1.007812 3.96875 1.007812 Z M 3.96875 1.007812 "/>
<path style=" stroke:none;fill-rule:nonzero;fill:rgb(100%,100%,100%);fill-opacity:1;" d="M 8.445312 2.441406 L 3.480469 4.21875 C 3.410156 4.246094 3.367188 4.308594 3.367188 4.382812 C 3.367188 6.179688 3.835938 8.261719 4.652344 10.085938 C 5.316406 11.570312 6.507812 13.546875 8.421875 14.546875 C 8.445312 14.5625 8.472656 14.566406 8.5 14.566406 C 8.527344 14.566406 8.554688 14.5625 8.578125 14.546875 C 10.492188 13.546875 11.683594 11.570312 12.347656 10.085938 C 13.164062 8.261719 13.632812 6.179688 13.632812 4.382812 C 13.632812 4.308594 13.589844 4.246094 13.519531 4.21875 L 8.554688 2.441406 C 8.519531 2.429688 8.480469 2.429688 8.445312 2.441406 Z M 8.46875 5.238281 C 8.488281 5.230469 8.511719 5.230469 8.53125 5.238281 L 11.238281 6.195312 C 11.277344 6.207031 11.300781 6.242188 11.300781 6.28125 C 11.300781 7.25 11.046875 8.371094 10.597656 9.355469 C 10.238281 10.152344 9.585938 11.214844 8.542969 11.757812 C 8.53125 11.761719 8.515625 11.765625 8.5 11.765625 C 8.484375 11.765625 8.472656 11.761719 8.457031 11.757812 C 7.414062 11.21875 6.761719 10.152344 6.402344 9.355469 C 5.957031 8.371094 5.699219 7.25 5.699219 6.28125 C 5.699219 6.242188 5.726562 6.207031 5.761719 6.195312 Z M 8.46875 5.238281 "/>
</g>
</svg>
