<?xml version="1.0" encoding="UTF-8"?>
<svg xmlns="http://www.w3.org/2000/svg" xmlns:xlink="http://www.w3.org/1999/xlink" width="17pt" height="17pt" viewBox="0 0 17 17" version="1.1">
<g id="surface1">
<path style=" stroke:none;fill-rule:evenodd;fill:rgb(24.313725%,31.372549%,70.588235%);fill-opacity:1;" d="M 3.96875 1.007812 L 13.03125 1.007812 C 14.664062 1.007812 15.992188 2.335938 15.992188 3.96875 L 15.992188 13.03125 C 15.992188 14.664062 14.664062 15.992188 13.03125 15.992188 L 3.96875 15.992188 C 2.335938 15.992188 1.007812 14.664062 1.007812 13.03125 L 1.007812 3.96875 C 1.007812 2.335938 2.335938 1.007812 3.96875 1.007812 Z M 3.96875 1.007812 "/>
<path style=" stroke:none;fill-rule:nonzero;fill:rgb(100%,100%,100%);fill-opacity:1;" d="M 4.671875 3.410156 C 4.429688 3.40625 4.195312 3.484375 4.019531 3.636719 C 3.84375 3.785156 3.746094 3.992188 3.746094 4.210938 L 3.746094 12.789062 C 3.746094 13.074219 3.917969 13.339844 4.195312 13.480469 C 4.476562 13.625 4.820312 13.625 5.097656 13.480469 L 13.472656 9.191406 C 13.753906 9.046875 13.925781 8.785156 13.925781 8.5 C 13.925781 8.214844 13.753906 7.949219 13.472656 7.808594 L 5.097656 3.519531 C 4.96875 3.453125 4.824219 3.414062 4.671875 3.410156 Z M 4.671875 3.410156 "/>
<path style=" stroke:none;fill-rule:nonzero;fill:rgb(24.313725%,31.372549%,70.588235%);fill-opacity:1;" d="M 8.4375 6.320312 C 8.542969 6.316406 8.644531 6.351562 8.71875 6.414062 C 8.792969 6.480469 8.835938 6.570312 8.835938 6.660156 L 8.835938 10.339844 C 8.835938 10.460938 8.761719 10.574219 8.644531 10.636719 C 8.523438 10.695312 8.375 10.695312 8.257812 10.636719 L 6.460938 9.714844 L 4.667969 8.796875 C 4.546875 8.734375 4.472656 8.621094 4.472656 8.5 C 4.472656 8.378906 4.546875 8.265625 4.667969 8.203125 L 6.460938 7.285156 L 8.257812 6.363281 C 8.3125 6.335938 8.375 6.320312 8.4375 6.320312 Z M 8.4375 6.320312 "/>
</g>
</svg>
