<?xml version="1.0" encoding="UTF-8"?>
<svg xmlns="http://www.w3.org/2000/svg" xmlns:xlink="http://www.w3.org/1999/xlink" width="17pt" height="17pt" viewBox="0 0 17 17" version="1.1">
<g id="surface1">
<path style=" stroke:none;fill-rule:evenodd;fill:rgb(18.823529%,23.137255%,70.980392%);fill-opacity:1;" d="M 3.96875 1.007812 L 13.03125 1.007812 C 14.664062 1.007812 15.992188 2.335938 15.992188 3.96875 L 15.992188 13.03125 C 15.992188 14.664062 14.664062 15.992188 13.03125 15.992188 L 3.96875 15.992188 C 2.335938 15.992188 1.007812 14.664062 1.007812 13.03125 L 1.007812 3.96875 C 1.007812 2.335938 2.335938 1.007812 3.96875 1.007812 Z M 3.96875 1.007812 "/>
<path style=" stroke:none;fill-rule:nonzero;fill:rgb(100%,100%,100%);fill-opacity:1;" d="M 4.492188 8.636719 C 5.148438 8.054688 5.964844 7.648438 6.949219 7.425781 C 6.339844 6.984375 5.980469 6.59375 5.605469 6.074219 C 5.433594 5.84375 5.617188 5.710938 5.855469 5.527344 C 7.269531 4.984375 9.753906 4.675781 11.011719 5.605469 C 11.34375 5.875 10.605469 6.328125 10.246094 6.46875 C 11.566406 6.703125 12.585938 7.082031 13.164062 7.96875 C 14.070312 6.625 13.710938 4.667969 12.675781 4.027344 C 11.644531 3.390625 8.105469 2.046875 4.160156 3.90625 C 2.375 4.769531 3.125 6.808594 4.492188 8.636719 Z M 4.492188 8.636719 "/>
<path style=" stroke:none;fill-rule:nonzero;fill:rgb(100%,100%,100%);fill-opacity:1;" d="M 5.046875 9.125 C 6.894531 8.667969 8.769531 8.207031 11.347656 9.125 C 10.179688 6.761719 7.117188 7.675781 5.046875 9.125 Z M 5.046875 9.125 "/>
<path style=" stroke:none;fill-rule:nonzero;fill:rgb(100%,100%,100%);fill-opacity:1;" d="M 9.804688 7.496094 C 12.4375 8.554688 13.535156 11.289062 9.945312 12.382812 C 8.144531 12.976562 5.171875 12.5 4.375 11.902344 C 3.746094 11.421875 4.472656 10.652344 5.355469 10.335938 C 4.273438 10.339844 3.691406 10.605469 3.339844 11.210938 C 3.152344 11.632812 3.203125 11.898438 3.25 12.074219 C 4.503906 15.109375 13.628906 14.585938 13.886719 10.808594 C 13.960938 8.773438 11.582031 7.570312 9.804688 7.496094 Z M 9.804688 7.496094 "/>
<path style=" stroke:none;fill-rule:evenodd;fill:rgb(76.470588%,71.372549%,58.039216%);fill-opacity:1;" d="M 10.277344 10.625 C 10.277344 11.636719 9.457031 12.457031 8.445312 12.457031 C 7.429688 12.457031 6.609375 11.636719 6.609375 10.625 C 6.609375 9.613281 7.429688 8.792969 8.445312 8.792969 C 9.457031 8.792969 10.277344 9.613281 10.277344 10.625 Z M 10.277344 10.625 "/>
<path style=" stroke:none;fill-rule:evenodd;fill:rgb(3.137255%,14.509804%,52.156863%);fill-opacity:1;" d="M 9.921875 10.636719 C 9.921875 11.449219 9.265625 12.105469 8.453125 12.105469 C 7.644531 12.105469 6.984375 11.449219 6.984375 10.636719 C 6.984375 9.824219 7.644531 9.167969 8.453125 9.167969 C 9.265625 9.167969 9.921875 9.824219 9.921875 10.636719 Z M 9.921875 10.636719 "/>
<path style=" stroke:none;fill-rule:evenodd;fill:rgb(100%,100%,100%);fill-opacity:1;" d="M 8.761719 11.804688 L 8.476562 11.25 L 8.234375 11.824219 L 8.21875 11.199219 L 7.75 11.613281 L 8.007812 11.042969 L 7.40625 11.210938 L 7.882812 10.8125 L 7.269531 10.703125 L 7.875 10.546875 L 7.367188 10.183594 L 7.980469 10.308594 L 7.679688 9.757812 L 8.179688 10.136719 L 8.148438 9.511719 L 8.433594 10.066406 L 8.675781 9.492188 L 8.691406 10.117188 L 9.160156 9.703125 L 8.902344 10.273438 L 9.503906 10.101562 L 9.023438 10.503906 L 9.640625 10.613281 L 9.035156 10.769531 L 9.542969 11.132812 L 8.929688 11.007812 L 9.226562 11.558594 L 8.730469 11.179688 Z M 8.761719 11.804688 "/>
</g>
</svg>
