<?xml version="1.0" encoding="UTF-8"?>
<svg xmlns="http://www.w3.org/2000/svg" xmlns:xlink="http://www.w3.org/1999/xlink" width="17pt" height="17pt" viewBox="0 0 17 17" version="1.1">
<g id="surface1">
<path style=" stroke:none;fill-rule:evenodd;fill:rgb(55.686275%,55.686275%,55.686275%);fill-opacity:1;" d="M 3.96875 1.007812 L 13.03125 1.007812 C 14.664062 1.007812 15.992188 2.335938 15.992188 3.96875 L 15.992188 13.03125 C 15.992188 14.664062 14.664062 15.992188 13.03125 15.992188 L 3.96875 15.992188 C 2.335938 15.992188 1.007812 14.664062 1.007812 13.03125 L 1.007812 3.96875 C 1.007812 2.335938 2.335938 1.007812 3.96875 1.007812 Z M 3.96875 1.007812 "/>
<path style=" stroke:none;fill-rule:nonzero;fill:rgb(30.980392%,30.980392%,30.980392%);fill-opacity:1;" d="M 12.195312 8.5 C 12.195312 10.542969 10.542969 12.195312 8.5 12.195312 C 6.457031 12.195312 4.804688 10.542969 4.804688 8.5 C 4.804688 6.457031 6.457031 4.804688 8.5 4.804688 C 10.542969 4.804688 12.195312 6.457031 12.195312 8.5 Z M 12.195312 8.5 "/>
<path style=" stroke:none;fill-rule:nonzero;fill:rgb(80%,80%,80%);fill-opacity:1;" d="M 8.5 2.75 C 5.316406 2.75 2.75 5.316406 2.75 8.5 C 2.75 11.683594 5.316406 14.25 8.5 14.25 C 11.683594 14.25 14.25 11.683594 14.25 8.5 C 14.25 5.316406 11.683594 2.75 8.5 2.75 Z M 8.5 3.984375 C 9.40625 3.984375 10.144531 4.71875 10.144531 5.625 C 10.144531 6.53125 9.40625 7.269531 8.5 7.269531 C 7.59375 7.269531 6.855469 6.53125 6.855469 5.625 C 6.855469 4.71875 7.59375 3.984375 8.5 3.984375 Z M 5.625 6.855469 C 6.53125 6.855469 7.269531 7.59375 7.269531 8.5 C 7.269531 9.40625 6.53125 10.144531 5.625 10.144531 C 4.71875 10.144531 3.984375 9.40625 3.984375 8.5 C 3.984375 7.59375 4.71875 6.855469 5.625 6.855469 Z M 11.375 6.855469 C 12.28125 6.855469 13.015625 7.59375 13.015625 8.5 C 13.015625 9.40625 12.28125 10.144531 11.375 10.144531 C 10.46875 10.144531 9.730469 9.40625 9.730469 8.5 C 9.730469 7.59375 10.46875 6.855469 11.375 6.855469 Z M 8.5 9.730469 C 9.40625 9.730469 10.144531 10.46875 10.144531 11.375 C 10.144531 12.28125 9.40625 13.015625 8.5 13.015625 C 7.59375 13.015625 6.855469 12.28125 6.855469 11.375 C 6.855469 10.46875 7.59375 9.730469 8.5 9.730469 Z M 8.5 9.730469 "/>
<path style=" stroke:none;fill-rule:nonzero;fill:rgb(30.980392%,30.980392%,30.980392%);fill-opacity:1;" d="M 9.210938 8.089844 C 9.15625 7.992188 9.027344 7.957031 8.929688 8.015625 C 8.832031 8.070312 8.800781 8.195312 8.855469 8.292969 C 8.914062 8.394531 9.039062 8.425781 9.136719 8.371094 C 9.234375 8.3125 9.269531 8.1875 9.210938 8.089844 Z M 8.371094 7.863281 C 8.3125 7.765625 8.1875 7.730469 8.089844 7.789062 C 7.992188 7.84375 7.957031 7.972656 8.015625 8.070312 C 8.070312 8.167969 8.195312 8.199219 8.292969 8.144531 C 8.394531 8.085938 8.425781 7.960938 8.371094 7.863281 Z M 8.984375 8.929688 C 8.929688 8.832031 8.804688 8.800781 8.707031 8.855469 C 8.605469 8.914062 8.574219 9.039062 8.628906 9.136719 C 8.6875 9.234375 8.8125 9.269531 8.910156 9.210938 C 9.007812 9.15625 9.042969 9.027344 8.984375 8.929688 Z M 8.144531 8.707031 C 8.085938 8.605469 7.960938 8.574219 7.863281 8.628906 C 7.765625 8.6875 7.730469 8.8125 7.789062 8.910156 C 7.84375 9.007812 7.972656 9.042969 8.070312 8.984375 C 8.167969 8.929688 8.199219 8.804688 8.144531 8.707031 Z M 8.144531 8.707031 "/>
</g>
</svg>
