<?xml version="1.0" encoding="UTF-8"?>
<svg xmlns="http://www.w3.org/2000/svg" xmlns:xlink="http://www.w3.org/1999/xlink" width="17pt" height="17pt" viewBox="0 0 17 17" version="1.1">
<defs>
<clipPath id="clip1">
  <rect width="17" height="17"/>
</clipPath>
<g id="surface6" clip-path="url(#clip1)">
<path style=" stroke:none;fill-rule:nonzero;fill:rgb(100%,100%,100%);fill-opacity:1;" d="M 8.507812 4.25 C 9.441406 4.253906 10.386719 4.53125 11.121094 5.082031 C 11.640625 5.65625 10.652344 6.269531 10.207031 5.710938 C 8.867188 4.933594 6.980469 5.207031 5.96875 6.371094 C 5.433594 6.949219 5.132812 7.71875 5.136719 8.492188 L 6.019531 8.492188 C 5.546875 9.171875 5.078125 9.851562 4.605469 10.53125 L 3.1875 8.492188 L 4.074219 8.492188 C 4.042969 6.644531 5.429688 4.886719 7.285156 4.410156 C 7.683594 4.304688 8.09375 4.246094 8.507812 4.25 Z M 12.394531 6.460938 C 12.867188 7.140625 13.339844 7.820312 13.8125 8.5 L 12.925781 8.5 C 12.953125 10.371094 11.53125 12.148438 9.644531 12.601562 C 8.367188 12.941406 6.925781 12.691406 5.878906 11.910156 C 5.34375 11.328125 6.34375 10.71875 6.792969 11.28125 C 8.089844 12.039062 9.910156 11.800781 10.933594 10.71875 C 11.527344 10.132812 11.867188 9.320312 11.863281 8.5 L 10.980469 8.5 Z M 12.394531 6.460938 "/>
</g>
<clipPath id="clip2">
  <rect width="17" height="17"/>
</clipPath>
<g id="surface9" clip-path="url(#clip2)">
<path style=" stroke:none;fill-rule:nonzero;fill:rgb(52.156863%,38.039216%,77.254902%);fill-opacity:1;" d="M 15.042969 12.136719 C 15.042969 13.894531 13.617188 15.324219 11.855469 15.324219 C 10.09375 15.324219 8.667969 13.894531 8.667969 12.136719 C 8.667969 10.375 10.09375 8.949219 11.855469 8.949219 C 13.617188 8.949219 15.042969 10.375 15.042969 12.136719 Z M 15.042969 12.136719 "/>
</g>
</defs>
<g id="surface1">
<path style=" stroke:none;fill-rule:evenodd;fill:rgb(50.588235%,83.529412%,27.843137%);fill-opacity:1;" d="M 3.96875 1.007812 L 13.03125 1.007812 C 14.664062 1.007812 15.992188 2.335938 15.992188 3.96875 L 15.992188 13.03125 C 15.992188 14.664062 14.664062 15.992188 13.03125 15.992188 L 3.96875 15.992188 C 2.335938 15.992188 1.007812 14.664062 1.007812 13.03125 L 1.007812 3.96875 C 1.007812 2.335938 2.335938 1.007812 3.96875 1.007812 Z M 3.96875 1.007812 "/>
<use xlink:href="#surface6"/>
<use xlink:href="#surface9"/>
<path style=" stroke:none;fill-rule:nonzero;fill:rgb(100%,100%,100%);fill-opacity:1;" d="M 13.449219 10.144531 L 11.058594 10.542969 L 11.058594 12.640625 C 10.9375 12.570312 10.800781 12.535156 10.660156 12.53125 C 10.21875 12.53125 9.863281 12.890625 9.863281 13.328125 C 9.863281 13.769531 10.21875 14.125 10.660156 14.125 C 11.101562 14.125 11.457031 13.769531 11.457031 13.328125 L 11.457031 11.273438 L 13.050781 11.003906 L 13.050781 12.242188 C 12.929688 12.171875 12.792969 12.132812 12.652344 12.132812 C 12.210938 12.132812 11.855469 12.492188 11.855469 12.929688 C 11.855469 13.371094 12.210938 13.726562 12.652344 13.726562 C 13.09375 13.726562 13.449219 13.371094 13.449219 12.929688 L 13.449219 10.140625 Z M 13.449219 10.144531 "/>
</g>
</svg>
