<?xml version="1.0" encoding="UTF-8"?>
<svg xmlns="http://www.w3.org/2000/svg" xmlns:xlink="http://www.w3.org/1999/xlink" width="17pt" height="17pt" viewBox="0 0 17 17" version="1.1">
<g id="surface1">
<path style=" stroke:none;fill-rule:evenodd;fill:rgb(96.078431%,46.27451%,20.784314%);fill-opacity:1;" d="M 3.96875 1.007812 L 13.03125 1.007812 C 14.664062 1.007812 15.992188 2.335938 15.992188 3.96875 L 15.992188 13.03125 C 15.992188 14.664062 14.664062 15.992188 13.03125 15.992188 L 3.96875 15.992188 C 2.335938 15.992188 1.007812 14.664062 1.007812 13.03125 L 1.007812 3.96875 C 1.007812 2.335938 2.335938 1.007812 3.96875 1.007812 Z M 3.96875 1.007812 "/>
<path style=" stroke:none;fill-rule:nonzero;fill:rgb(100%,100%,100%);fill-opacity:1;" d="M 9.050781 5.3125 C 7.9375 5.3125 6.917969 5.921875 6.425781 6.882812 C 6.21875 6.777344 5.988281 6.722656 5.753906 6.722656 C 4.941406 6.722656 4.285156 7.355469 4.285156 8.132812 C 4.285156 8.183594 4.289062 8.230469 4.296875 8.28125 C 3.648438 8.53125 3.1875 9.167969 3.1875 9.925781 C 3.1875 10.902344 3.949219 11.6875 4.898438 11.6875 L 11.734375 11.6875 C 11.890625 11.6875 12.035156 11.660156 12.175781 11.621094 C 13.125 11.449219 13.8125 10.648438 13.8125 9.71875 C 13.8125 8.703125 13 7.863281 11.949219 7.785156 L 11.953125 7.78125 C 11.769531 6.371094 10.527344 5.3125 9.050781 5.3125 Z M 8.5 6.90625 L 10.625 9.03125 L 9.03125 9.03125 L 9.03125 11.15625 L 7.96875 11.15625 L 7.96875 9.03125 L 6.375 9.03125 Z M 8.5 6.90625 "/>
</g>
</svg>
