<?xml version="1.0" encoding="UTF-8"?>
<svg xmlns="http://www.w3.org/2000/svg" xmlns:xlink="http://www.w3.org/1999/xlink" width="17pt" height="17pt" viewBox="0 0 17 17" version="1.1">
<g id="surface1">
<path style=" stroke:none;fill-rule:evenodd;fill:rgb(32.941176%,31.372549%,89.019608%);fill-opacity:1;" d="M 3.96875 1.007812 L 13.03125 1.007812 C 14.664062 1.007812 15.992188 2.335938 15.992188 3.96875 L 15.992188 13.03125 C 15.992188 14.664062 14.664062 15.992188 13.03125 15.992188 L 3.96875 15.992188 C 2.335938 15.992188 1.007812 14.664062 1.007812 13.03125 L 1.007812 3.96875 C 1.007812 2.335938 2.335938 1.007812 3.96875 1.007812 Z M 3.96875 1.007812 "/>
<path style=" stroke:none;fill-rule:nonzero;fill:rgb(70.588235%,61.960784%,100%);fill-opacity:1;" d="M 4.25 10.09375 L 8.5 11.6875 L 12.75 10.09375 L 12.75 11.15625 L 8.5 12.75 L 4.25 11.15625 Z M 4.25 10.09375 "/>
<path style=" stroke:none;fill-rule:nonzero;fill:rgb(70.588235%,61.960784%,100%);fill-opacity:1;" d="M 4.25 7.96875 L 8.5 9.5625 L 12.75 7.96875 L 12.75 9.03125 L 8.5 10.625 L 4.25 9.03125 Z M 4.25 7.96875 "/>
<path style=" stroke:none;fill-rule:nonzero;fill:rgb(70.588235%,61.960784%,100%);fill-opacity:1;" d="M 8.5 4.25 L 4.25 5.84375 L 4.25 6.90625 L 8.5 8.5 L 12.75 6.90625 L 12.75 5.84375 Z M 8.5 4.25 "/>
</g>
</svg>
