<?xml version="1.0" encoding="UTF-8"?>
<svg xmlns="http://www.w3.org/2000/svg" xmlns:xlink="http://www.w3.org/1999/xlink" width="17pt" height="17pt" viewBox="0 0 17 17" version="1.1">
<defs>
<g>
<symbol overflow="visible" id="glyph0-0">
<path style="stroke:none;" d="M 0.15625 0.53125 L 0.15625 -2.109375 L 1.65625 -2.109375 L 1.65625 0.53125 Z M 0.3125 0.359375 L 1.484375 0.359375 L 1.484375 -1.953125 L 0.3125 -1.953125 Z M 0.3125 0.359375 "/>
</symbol>
<symbol overflow="visible" id="glyph0-1">
<path style="stroke:none;" d="M 1.609375 -2.109375 L 1.609375 -1.828125 C 1.492188 -1.878906 1.382812 -1.914062 1.28125 -1.9375 C 1.1875 -1.96875 1.09375 -1.984375 1 -1.984375 C 0.832031 -1.984375 0.707031 -1.953125 0.625 -1.890625 C 0.539062 -1.828125 0.5 -1.738281 0.5 -1.625 C 0.5 -1.53125 0.523438 -1.457031 0.578125 -1.40625 C 0.640625 -1.351562 0.75 -1.3125 0.90625 -1.28125 L 1.09375 -1.25 C 1.3125 -1.207031 1.472656 -1.132812 1.578125 -1.03125 C 1.679688 -0.925781 1.734375 -0.785156 1.734375 -0.609375 C 1.734375 -0.390625 1.660156 -0.222656 1.515625 -0.109375 C 1.378906 -0.00390625 1.175781 0.046875 0.90625 0.046875 C 0.800781 0.046875 0.6875 0.03125 0.5625 0 C 0.445312 -0.0195312 0.328125 -0.0507812 0.203125 -0.09375 L 0.203125 -0.40625 C 0.328125 -0.332031 0.445312 -0.28125 0.5625 -0.25 C 0.675781 -0.21875 0.789062 -0.203125 0.90625 -0.203125 C 1.070312 -0.203125 1.195312 -0.234375 1.28125 -0.296875 C 1.375 -0.359375 1.421875 -0.453125 1.421875 -0.578125 C 1.421875 -0.691406 1.390625 -0.773438 1.328125 -0.828125 C 1.265625 -0.890625 1.15625 -0.9375 1 -0.96875 L 0.828125 -1 C 0.609375 -1.050781 0.445312 -1.125 0.34375 -1.21875 C 0.25 -1.3125 0.203125 -1.441406 0.203125 -1.609375 C 0.203125 -1.796875 0.269531 -1.945312 0.40625 -2.0625 C 0.539062 -2.175781 0.726562 -2.234375 0.96875 -2.234375 C 1.070312 -2.234375 1.175781 -2.222656 1.28125 -2.203125 C 1.382812 -2.179688 1.492188 -2.148438 1.609375 -2.109375 Z M 1.609375 -2.109375 "/>
</symbol>
<symbol overflow="visible" id="glyph0-2">
<path style="stroke:none;" d="M 0.859375 0 L 0.03125 -2.1875 L 0.328125 -2.1875 L 1.03125 -0.34375 L 1.71875 -2.1875 L 2.03125 -2.1875 L 1.1875 0 Z M 0.859375 0 "/>
</symbol>
<symbol overflow="visible" id="glyph0-3">
<path style="stroke:none;" d="M 1.78125 -0.3125 L 1.78125 -0.90625 L 1.296875 -0.90625 L 1.296875 -1.140625 L 2.078125 -1.140625 L 2.078125 -0.203125 C 1.960938 -0.117188 1.835938 -0.0546875 1.703125 -0.015625 C 1.566406 0.0234375 1.421875 0.046875 1.265625 0.046875 C 0.921875 0.046875 0.648438 -0.0507812 0.453125 -0.25 C 0.265625 -0.457031 0.171875 -0.738281 0.171875 -1.09375 C 0.171875 -1.445312 0.265625 -1.722656 0.453125 -1.921875 C 0.648438 -2.128906 0.921875 -2.234375 1.265625 -2.234375 C 1.398438 -2.234375 1.53125 -2.210938 1.65625 -2.171875 C 1.789062 -2.140625 1.910156 -2.085938 2.015625 -2.015625 L 2.015625 -1.703125 C 1.910156 -1.796875 1.796875 -1.863281 1.671875 -1.90625 C 1.546875 -1.957031 1.414062 -1.984375 1.28125 -1.984375 C 1.019531 -1.984375 0.820312 -1.90625 0.6875 -1.75 C 0.550781 -1.601562 0.484375 -1.382812 0.484375 -1.09375 C 0.484375 -0.800781 0.550781 -0.578125 0.6875 -0.421875 C 0.820312 -0.273438 1.019531 -0.203125 1.28125 -0.203125 C 1.382812 -0.203125 1.476562 -0.207031 1.5625 -0.21875 C 1.644531 -0.238281 1.71875 -0.269531 1.78125 -0.3125 Z M 1.78125 -0.3125 "/>
</symbol>
</g>
</defs>
<g id="surface1">
<path style=" stroke:none;fill-rule:evenodd;fill:rgb(20.784314%,33.72549%,50.588235%);fill-opacity:1;" d="M 3.96875 1.007812 L 13.03125 1.007812 C 14.664062 1.007812 15.992188 2.335938 15.992188 3.96875 L 15.992188 13.03125 C 15.992188 14.664062 14.664062 15.992188 13.03125 15.992188 L 3.96875 15.992188 C 2.335938 15.992188 1.007812 14.664062 1.007812 13.03125 L 1.007812 3.96875 C 1.007812 2.335938 2.335938 1.007812 3.96875 1.007812 Z M 3.96875 1.007812 "/>
<path style=" stroke:none;fill-rule:nonzero;fill:rgb(100%,100%,100%);fill-opacity:1;" d="M 9.9375 11.269531 C 8.121094 11.03125 6.453125 10.167969 5.386719 8.914062 L 5.265625 8.773438 L 5.265625 8.210938 L 5.4375 8.222656 C 6.390625 8.292969 7.554688 7.957031 8.289062 7.394531 C 8.472656 7.257812 8.703125 7.011719 8.8125 6.835938 L 8.90625 6.683594 L 9.203125 6.839844 C 9.367188 6.925781 9.503906 7.003906 9.515625 7.011719 C 9.53125 7.03125 9.425781 7.210938 9.289062 7.394531 C 8.761719 8.105469 7.765625 8.652344 6.648438 8.839844 C 6.550781 8.859375 6.46875 8.878906 6.46875 8.886719 C 6.46875 8.90625 6.84375 9.210938 7.03125 9.347656 C 7.125 9.414062 7.214844 9.464844 7.230469 9.464844 C 7.285156 9.464844 7.589844 9.363281 7.695312 9.3125 C 7.84375 9.238281 7.964844 9.15625 8.058594 9.070312 C 8.101562 9.027344 8.136719 9 8.136719 9.003906 C 8.136719 9.046875 7.835938 9.492188 7.710938 9.628906 C 7.648438 9.703125 7.636719 9.722656 7.65625 9.734375 C 7.722656 9.777344 8.089844 9.957031 8.269531 10.035156 L 8.472656 10.121094 L 8.585938 10.09375 C 8.898438 10.011719 9.375 9.714844 9.789062 9.351562 C 9.855469 9.292969 9.914062 9.246094 9.914062 9.25 C 9.925781 9.257812 9.75 9.625 9.652344 9.808594 C 9.578125 9.945312 9.394531 10.222656 9.308594 10.335938 C 9.289062 10.363281 9.277344 10.386719 9.285156 10.390625 C 9.332031 10.417969 9.847656 10.519531 10.050781 10.542969 L 10.152344 10.554688 L 10.261719 10.398438 C 10.648438 9.847656 11.035156 9.054688 11.335938 8.207031 C 11.386719 8.058594 11.433594 7.933594 11.441406 7.925781 C 11.460938 7.90625 12.113281 8.128906 12.113281 8.15625 C 12.113281 8.210938 11.910156 8.75 11.738281 9.15625 C 11.421875 9.894531 11.03125 10.585938 10.628906 11.128906 L 10.5 11.300781 L 10.332031 11.300781 C 10.242188 11.300781 10.0625 11.285156 9.9375 11.269531 Z M 10.734375 6.902344 C 9.890625 6.523438 9.199219 6.207031 9.195312 6.199219 C 9.1875 6.179688 9.269531 6.058594 9.347656 5.964844 C 9.4375 5.859375 9.636719 5.734375 9.796875 5.683594 C 9.910156 5.644531 9.964844 5.636719 10.117188 5.636719 C 10.304688 5.636719 10.335938 5.640625 10.546875 5.722656 C 10.609375 5.746094 10.664062 5.761719 10.667969 5.757812 C 10.667969 5.753906 10.996094 5.125 11.394531 4.359375 C 11.789062 3.589844 12.121094 2.957031 12.128906 2.949219 C 12.140625 2.9375 12.730469 3.1875 12.765625 3.21875 C 12.773438 3.226562 12.527344 3.894531 12.21875 4.707031 C 11.914062 5.519531 11.660156 6.1875 11.660156 6.1875 C 11.660156 6.191406 11.726562 6.226562 11.808594 6.265625 C 12.175781 6.441406 12.398438 6.824219 12.371094 7.222656 C 12.363281 7.347656 12.308594 7.570312 12.28125 7.585938 C 12.273438 7.589844 11.578125 7.285156 10.734375 6.902344 Z M 6.003906 7.011719 C 5.761719 6.964844 5.5 6.753906 5.394531 6.527344 C 5.222656 6.167969 5.289062 5.789062 5.570312 5.507812 C 5.769531 5.308594 6.039062 5.21875 6.308594 5.257812 C 6.699219 5.3125 7.015625 5.628906 7.074219 6.019531 C 7.097656 6.1875 7.066406 6.378906 6.984375 6.539062 C 6.921875 6.675781 6.746094 6.851562 6.609375 6.925781 C 6.433594 7.015625 6.203125 7.050781 6.003906 7.011719 Z M 4.65625 4.523438 C 4.347656 4.460938 4.15625 4.113281 4.265625 3.820312 C 4.308594 3.703125 4.414062 3.585938 4.523438 3.527344 C 4.597656 3.488281 4.625 3.480469 4.765625 3.480469 C 4.90625 3.480469 4.933594 3.488281 5.011719 3.527344 C 5.195312 3.625 5.308594 3.824219 5.296875 4.023438 C 5.277344 4.355469 4.972656 4.589844 4.65625 4.523438 Z M 6.285156 4.527344 C 6.109375 4.46875 6.019531 4.347656 6.019531 4.175781 C 6.019531 4.070312 6.035156 4.027344 6.105469 3.949219 C 6.25 3.785156 6.488281 3.785156 6.632812 3.949219 C 6.703125 4.027344 6.71875 4.070312 6.71875 4.175781 C 6.71875 4.269531 6.6875 4.363281 6.632812 4.421875 C 6.550781 4.507812 6.382812 4.558594 6.285156 4.527344 Z M 6.285156 4.527344 "/>
<g style="fill:rgb(97.647059%,97.647059%,97.647059%);fill-opacity:1;">
  <use xlink:href="#glyph0-1" x="5.183594" y="14.588898"/>
  <use xlink:href="#glyph0-2" x="7.210541" y="14.588898"/>
  <use xlink:href="#glyph0-3" x="9.395203" y="14.588898"/>
</g>
</g>
</svg>
