<?xml version="1.0" encoding="UTF-8"?>
<svg xmlns="http://www.w3.org/2000/svg" xmlns:xlink="http://www.w3.org/1999/xlink" width="17pt" height="17pt" viewBox="0 0 17 17" version="1.1">
<g id="surface1">
<path style=" stroke:none;fill-rule:evenodd;fill:rgb(99.607843%,80.392157%,21.960784%);fill-opacity:1;" d="M 3.96875 1.007812 L 13.03125 1.007812 C 14.664062 1.007812 15.992188 2.335938 15.992188 3.96875 L 15.992188 13.03125 C 15.992188 14.664062 14.664062 15.992188 13.03125 15.992188 L 3.96875 15.992188 C 2.335938 15.992188 1.007812 14.664062 1.007812 13.03125 L 1.007812 3.96875 C 1.007812 2.335938 2.335938 1.007812 3.96875 1.007812 Z M 3.96875 1.007812 "/>
<path style=" stroke:none;fill-rule:nonzero;fill:rgb(0%,0%,0%);fill-opacity:0.537255;" d="M 3.1875 6.375 L 3.1875 8.5 L 5.3125 8.5 L 5.3125 6.375 Z M 5.3125 8.5 L 5.3125 10.625 L 7.4375 10.625 L 7.4375 8.5 Z M 7.4375 8.5 L 9.5625 8.5 L 9.5625 6.375 L 7.4375 6.375 Z M 9.5625 8.5 L 9.5625 10.625 L 11.6875 10.625 L 11.6875 8.5 Z M 11.6875 8.5 L 13.8125 8.5 L 13.8125 6.375 L 11.6875 6.375 Z M 11.6875 8.5 "/>
</g>
</svg>
