<?xml version="1.0" encoding="UTF-8"?>
<svg xmlns="http://www.w3.org/2000/svg" xmlns:xlink="http://www.w3.org/1999/xlink" width="17pt" height="17pt" viewBox="0 0 17 17" version="1.1">
<g id="surface1">
<path style=" stroke:none;fill-rule:evenodd;fill:rgb(55.686275%,55.686275%,55.686275%);fill-opacity:1;" d="M 3.96875 1.007812 L 13.03125 1.007812 C 14.664062 1.007812 15.992188 2.335938 15.992188 3.96875 L 15.992188 13.03125 C 15.992188 14.664062 14.664062 15.992188 13.03125 15.992188 L 3.96875 15.992188 C 2.335938 15.992188 1.007812 14.664062 1.007812 13.03125 L 1.007812 3.96875 C 1.007812 2.335938 2.335938 1.007812 3.96875 1.007812 Z M 3.96875 1.007812 "/>
<path style=" stroke:none;fill-rule:nonzero;fill:rgb(25.882353%,81.176471%,34.117647%);fill-opacity:1;" d="M 11.097656 13.175781 L 11.097656 11.617188 C 11.097656 11.328125 10.863281 11.097656 10.578125 11.097656 L 3.824219 11.097656 C 3.539062 11.097656 3.304688 11.328125 3.304688 11.617188 L 3.304688 13.175781 C 3.304688 13.460938 3.539062 13.695312 3.824219 13.695312 L 10.578125 13.695312 C 10.863281 13.695312 11.097656 13.460938 11.097656 13.175781 Z M 11.097656 13.175781 "/>
<path style=" stroke:none;fill-rule:nonzero;fill:rgb(18.039216%,62.745098%,89.019608%);fill-opacity:1;" d="M 13.695312 10.578125 L 13.695312 9.019531 C 13.695312 8.734375 13.460938 8.5 13.175781 8.5 L 6.421875 8.5 C 6.136719 8.5 5.902344 8.734375 5.902344 9.019531 L 5.902344 10.578125 C 5.902344 10.863281 6.136719 11.097656 6.421875 11.097656 L 13.175781 11.097656 C 13.460938 11.097656 13.695312 10.863281 13.695312 10.578125 Z M 13.695312 10.578125 "/>
<path style=" stroke:none;fill-rule:nonzero;fill:rgb(90.196078%,34.901961%,34.117647%);fill-opacity:1;" d="M 11.097656 7.980469 L 11.097656 6.421875 C 11.097656 6.136719 10.863281 5.902344 10.578125 5.902344 L 3.824219 5.902344 C 3.539062 5.902344 3.304688 6.136719 3.304688 6.421875 L 3.304688 7.980469 C 3.304688 8.265625 3.539062 8.5 3.824219 8.5 L 10.578125 8.5 C 10.863281 8.5 11.097656 8.265625 11.097656 7.980469 Z M 11.097656 7.980469 "/>
<path style=" stroke:none;fill-rule:nonzero;fill:rgb(100%,90.588235%,40%);fill-opacity:1;" d="M 13.695312 5.382812 L 13.695312 3.824219 C 13.695312 3.539062 13.460938 3.304688 13.175781 3.304688 L 6.421875 3.304688 C 6.136719 3.304688 5.902344 3.539062 5.902344 3.824219 L 5.902344 5.382812 C 5.902344 5.671875 6.136719 5.902344 6.421875 5.902344 L 13.175781 5.902344 C 13.460938 5.902344 13.695312 5.671875 13.695312 5.382812 Z M 13.695312 5.382812 "/>
</g>
</svg>
