<?xml version="1.0" encoding="UTF-8"?>
<svg xmlns="http://www.w3.org/2000/svg" xmlns:xlink="http://www.w3.org/1999/xlink" width="17pt" height="17pt" viewBox="0 0 17 17" version="1.1">
<g id="surface1">
<path style=" stroke:none;fill-rule:evenodd;fill:rgb(2.745098%,37.647059%,24.313725%);fill-opacity:1;" d="M 3.972656 1.007812 C 2.328125 1.007812 1.007812 2.328125 1.007812 3.972656 L 1.007812 7.300781 C 1.140625 6.996094 1.324219 6.71875 1.554688 6.488281 C 1.792969 6.25 2.082031 6.054688 2.398438 5.921875 C 2.71875 5.785156 3.070312 5.710938 3.4375 5.710938 L 13.519531 5.710938 C 13.886719 5.710938 14.238281 5.785156 14.558594 5.921875 C 14.875 6.054688 15.164062 6.25 15.402344 6.488281 C 15.644531 6.730469 15.839844 7.015625 15.972656 7.335938 C 15.984375 7.363281 15.980469 7.398438 15.992188 7.429688 L 15.992188 3.972656 C 15.992188 2.328125 14.671875 1.007812 13.03125 1.007812 Z M 3.972656 1.007812 "/>
<path style=" stroke:none;fill-rule:nonzero;fill:rgb(90.980392%,74.117647%,0%);fill-opacity:1;" d="M 9.539062 4.101562 L 10.664062 4.101562 C 11.417969 4.101562 12.027344 4.710938 12.027344 5.460938 L 12.027344 5.800781 C 12.027344 6.554688 11.417969 7.164062 10.664062 7.164062 L 9.539062 7.164062 C 8.785156 7.164062 8.175781 6.554688 8.175781 5.800781 L 8.175781 5.460938 C 8.175781 4.710938 8.785156 4.101562 9.539062 4.101562 Z M 9.539062 4.101562 "/>
<path style=" stroke:none;fill-rule:evenodd;fill:rgb(12.54902%,63.921569%,40%);fill-opacity:1;" d="M 15.992188 7.429688 C 15.980469 7.398438 15.984375 7.363281 15.972656 7.335938 C 15.839844 7.015625 15.644531 6.730469 15.402344 6.488281 C 15.164062 6.25 14.875 6.054688 14.558594 5.921875 C 14.238281 5.785156 13.886719 5.710938 13.519531 5.710938 L 3.4375 5.710938 C 3.070312 5.710938 2.71875 5.785156 2.398438 5.921875 C 2.082031 6.054688 1.792969 6.25 1.554688 6.488281 C 1.324219 6.71875 1.140625 6.996094 1.007812 7.300781 L 1.007812 13.03125 C 1.007812 14.671875 2.328125 15.992188 3.972656 15.992188 L 13.03125 15.992188 C 14.671875 15.992188 15.992188 14.671875 15.992188 13.03125 Z M 15.992188 7.429688 "/>
<path style=" stroke:none;fill-rule:nonzero;fill:rgb(39.215686%,70.196078%,70.196078%);fill-opacity:1;" d="M 11.601562 10.867188 C 11.601562 9.144531 10.203125 7.75 8.480469 7.75 C 6.753906 7.75 5.355469 9.144531 5.355469 10.867188 C 5.355469 12.589844 6.753906 13.988281 8.480469 13.988281 C 10.203125 13.988281 11.601562 12.589844 11.601562 10.867188 Z M 11.601562 10.867188 "/>
<path style=" stroke:none;fill-rule:nonzero;fill:rgb(90.980392%,74.117647%,0%);fill-opacity:1;" d="M 10.195312 1.617188 C 10.089844 1.625 10.007812 1.679688 10.011719 1.742188 L 10.011719 3.261719 C 10.003906 3.425781 10.433594 3.425781 10.429688 3.261719 L 10.429688 1.742188 C 10.429688 1.667969 10.320312 1.609375 10.195312 1.617188 Z M 10.195312 1.617188 "/>
<path style=" stroke:none;fill-rule:nonzero;fill:rgb(0.784314%,15.686275%,1.568627%);fill-opacity:1;" d="M 8.640625 7.359375 C 6.652344 7.359375 5.027344 8.984375 5.027344 10.972656 C 5.027344 12.960938 6.652344 14.582031 8.640625 14.582031 C 10.632812 14.582031 12.253906 12.960938 12.253906 10.972656 C 12.253906 8.984375 10.632812 7.359375 8.640625 7.359375 Z M 8.640625 8.34375 C 10.101562 8.34375 11.273438 9.515625 11.273438 10.972656 C 11.273438 12.429688 10.101562 13.601562 8.640625 13.601562 C 7.183594 13.601562 6.007812 12.429688 6.007812 10.972656 C 6.007812 9.515625 7.183594 8.34375 8.640625 8.34375 Z M 8.640625 8.34375 "/>
<path style=" stroke:none;fill-rule:nonzero;fill:rgb(90.980392%,74.117647%,0%);fill-opacity:1;" d="M 13.71875 2.707031 C 13.636719 2.636719 13.542969 2.617188 13.5 2.664062 L 12.425781 3.738281 C 12.304688 3.851562 12.609375 4.15625 12.722656 4.035156 L 13.796875 2.960938 C 13.847656 2.910156 13.8125 2.789062 13.71875 2.707031 Z M 13.71875 2.707031 "/>
<path style=" stroke:none;fill-rule:nonzero;fill:rgb(90.980392%,74.117647%,0%);fill-opacity:1;" d="M 6.59375 2.671875 C 6.675781 2.601562 6.769531 2.582031 6.8125 2.625 L 7.886719 3.703125 C 8.007812 3.816406 7.707031 4.117188 7.59375 3.996094 L 6.515625 2.921875 C 6.464844 2.871094 6.5 2.753906 6.59375 2.671875 Z M 6.59375 2.671875 "/>
</g>
</svg>
