<?xml version="1.0" encoding="UTF-8"?>
<svg xmlns="http://www.w3.org/2000/svg" xmlns:xlink="http://www.w3.org/1999/xlink" width="17pt" height="17pt" viewBox="0 0 17 17" version="1.1">
<g id="surface1">
<path style=" stroke:none;fill-rule:evenodd;fill:rgb(14.509804%,55.294118%,79.607843%);fill-opacity:1;" d="M 3.96875 1.007812 L 13.03125 1.007812 C 14.664062 1.007812 15.992188 2.335938 15.992188 3.96875 L 15.992188 13.03125 C 15.992188 14.664062 14.664062 15.992188 13.03125 15.992188 L 3.96875 15.992188 C 2.335938 15.992188 1.007812 14.664062 1.007812 13.03125 L 1.007812 3.96875 C 1.007812 2.335938 2.335938 1.007812 3.96875 1.007812 Z M 3.96875 1.007812 "/>
<path style=" stroke:none;fill-rule:nonzero;fill:rgb(31.372549%,74.509804%,93.333333%);fill-opacity:1;" d="M 9.40625 3.082031 L 7.816406 5.324219 C 7.351562 5.484375 6.917969 5.722656 6.53125 6.027344 C 4.945312 5.648438 3.265625 6.914062 3.265625 6.914062 L 4.898438 10.257812 C 5.269531 12.375 7.117188 13.917969 9.28125 13.917969 C 11.738281 13.917969 13.734375 11.9375 13.734375 9.496094 C 13.730469 8.105469 13.070312 6.792969 11.949219 5.960938 C 11.675781 4.113281 9.40625 3.082031 9.40625 3.082031 Z M 9.40625 3.082031 "/>
<path style=" stroke:none;fill-rule:nonzero;fill:rgb(100%,100%,100%);fill-opacity:1;" d="M 4.441406 7.191406 C 4.308594 7.191406 4.164062 7.207031 4.015625 7.238281 C 4.015625 7.238281 4.953125 7.34375 5.417969 7.976562 C 5.222656 8.804688 4.964844 9.433594 4.964844 9.433594 L 5.882812 7.832031 C 5.882812 7.832031 5.378906 7.183594 4.441406 7.191406 Z M 4.441406 7.191406 "/>
<path style=" stroke:none;fill-rule:nonzero;fill:rgb(100%,100%,100%);fill-opacity:1;" d="M 9.246094 3.828125 L 8.5 5.324219 L 8.957031 5.175781 C 8.957031 5.175781 9.1875 4.554688 9.246094 3.828125 Z M 9.246094 3.828125 "/>
<path style=" stroke:none;fill-rule:nonzero;fill:rgb(100%,100%,100%);fill-opacity:1;" d="M 7.265625 9.71875 C 7.019531 9.976562 6.941406 10.351562 7.0625 10.6875 C 7.238281 11.171875 7.773438 11.421875 8.257812 11.246094 C 8.742188 11.070312 8.992188 10.53125 8.816406 10.042969 C 8.695312 9.710938 8.394531 9.472656 8.042969 9.433594 L 8.039062 9.496094 L 7.992188 10.511719 L 7.308594 9.765625 Z M 7.265625 9.71875 "/>
<path style=" stroke:none;fill-rule:nonzero;fill:rgb(100%,100%,100%);fill-opacity:1;" d="M 10.253906 8.222656 C 10.007812 8.480469 9.929688 8.855469 10.050781 9.191406 C 10.226562 9.679688 10.765625 9.929688 11.25 9.75 C 11.734375 9.574219 11.984375 9.035156 11.808594 8.550781 C 11.6875 8.214844 11.386719 7.976562 11.03125 7.9375 L 11.027344 8.003906 L 10.984375 9.015625 L 10.296875 8.269531 Z M 10.253906 8.222656 "/>
<path style=" stroke:none;fill-rule:nonzero;fill:rgb(100%,100%,100%);fill-opacity:1;" d="M 11.597656 10.929688 C 11.589844 10.929688 11.582031 10.929688 11.570312 10.929688 C 11.5 10.9375 11.4375 10.972656 11.390625 11.03125 C 11.277344 11.167969 11.054688 11.195312 10.816406 11.160156 C 10.601562 11.128906 10.441406 11.0625 10.402344 11.046875 C 10.363281 11.023438 10.320312 11.007812 10.277344 11.007812 C 10.199219 11.003906 10.125 11.035156 10.070312 11.097656 C 10.015625 11.15625 9.988281 11.242188 9.992188 11.324219 C 9.980469 11.398438 9.949219 11.550781 9.871094 11.738281 C 9.773438 11.980469 9.632812 12.175781 9.46875 12.207031 C 9.320312 12.238281 9.226562 12.394531 9.253906 12.554688 C 9.277344 12.714844 9.421875 12.824219 9.566406 12.792969 C 10 12.703125 10.238281 12.300781 10.367188 11.980469 C 10.410156 11.875 10.4375 11.777344 10.464844 11.6875 C 10.546875 11.710938 10.636719 11.734375 10.742188 11.75 C 11.058594 11.796875 11.496094 11.789062 11.792969 11.429688 C 11.863281 11.34375 11.882812 11.21875 11.84375 11.109375 C 11.800781 11.003906 11.707031 10.933594 11.597656 10.929688 Z M 11.597656 10.929688 "/>
</g>
</svg>
