<?xml version="1.0" encoding="UTF-8"?>
<svg xmlns="http://www.w3.org/2000/svg" xmlns:xlink="http://www.w3.org/1999/xlink" width="17pt" height="17pt" viewBox="0 0 17 17" version="1.1">
<g id="surface1">
<path style=" stroke:none;fill-rule:evenodd;fill:rgb(30.980392%,30.980392%,30.980392%);fill-opacity:1;" d="M 3.96875 1.007812 L 13.03125 1.007812 C 14.664062 1.007812 15.992188 2.335938 15.992188 3.96875 L 15.992188 13.03125 C 15.992188 14.664062 14.664062 15.992188 13.03125 15.992188 L 3.96875 15.992188 C 2.335938 15.992188 1.007812 14.664062 1.007812 13.03125 L 1.007812 3.96875 C 1.007812 2.335938 2.335938 1.007812 3.96875 1.007812 Z M 3.96875 1.007812 "/>
<path style=" stroke:none;fill-rule:nonzero;fill:rgb(100%,100%,100%);fill-opacity:1;" d="M 8.5 3.160156 C 6.960938 3.160156 5.933594 4.226562 5.933594 5.789062 L 5.933594 7.429688 L 4.851562 7.429688 C 4.851562 7.429688 4.390625 7.433594 4.390625 7.964844 L 4.390625 13.304688 C 4.390625 13.839844 4.851562 13.839844 4.851562 13.839844 L 12.148438 13.839844 C 12.148438 13.839844 12.609375 13.839844 12.609375 13.304688 L 12.609375 7.964844 C 12.609375 7.433594 12.148438 7.429688 12.148438 7.429688 L 11.070312 7.433594 L 11.066406 5.773438 C 11.066406 4.226562 10.039062 3.160156 8.5 3.160156 Z M 8.5 3.160156 "/>
<path style=" stroke:none;fill-rule:nonzero;fill:rgb(30.980392%,30.980392%,30.980392%);fill-opacity:1;" d="M 8.5 4.390625 C 9.40625 4.390625 10.144531 5.113281 10.144531 6.019531 C 10.144531 7.117188 8.980469 8.484375 8.707031 8.5 C 8.707031 8.5 8.820312 7.664062 8.5 7.664062 C 7.59375 7.664062 6.855469 6.929688 6.855469 6.019531 C 6.855469 5.113281 7.59375 4.390625 8.5 4.390625 Z M 8.5 4.390625 "/>
<path style=" stroke:none;fill-rule:nonzero;fill:rgb(30.980392%,30.980392%,30.980392%);fill-opacity:1;" d="M 8.5 9.320312 C 9.011719 9.320312 9.425781 9.734375 9.425781 10.246094 C 9.425781 10.679688 9.125 11.039062 8.726562 11.140625 L 8.808594 11.140625 C 9.117188 11.140625 9.304688 11.421875 9.488281 11.667969 C 9.660156 11.902344 9.734375 12.226562 9.734375 12.34375 L 9.734375 12.554688 C 9.730469 12.5625 9.734375 12.566406 9.734375 12.574219 C 9.734375 12.820312 9.53125 13.019531 9.285156 13.019531 L 7.714844 13.019531 C 7.46875 13.019531 7.269531 12.820312 7.269531 12.574219 C 7.269531 12.566406 7.269531 12.5625 7.269531 12.554688 C 7.269531 12.554688 7.269531 12.449219 7.269531 12.34375 C 7.269531 12.226562 7.320312 11.894531 7.488281 11.660156 C 7.660156 11.40625 7.882812 11.140625 8.191406 11.140625 L 8.273438 11.140625 C 7.875 11.039062 7.574219 10.679688 7.574219 10.246094 C 7.574219 9.734375 7.988281 9.320312 8.5 9.320312 Z M 8.5 9.320312 "/>
</g>
</svg>
