<?xml version="1.0" encoding="UTF-8"?>
<svg xmlns="http://www.w3.org/2000/svg" xmlns:xlink="http://www.w3.org/1999/xlink" width="17pt" height="17pt" viewBox="0 0 17 17" version="1.1">
<defs>
<clipPath id="clip1">
  <rect width="17" height="17"/>
</clipPath>
<g id="surface6" clip-path="url(#clip1)">
<path style=" stroke:none;fill-rule:nonzero;fill:rgb(84.705882%,84.705882%,84.705882%);fill-opacity:1;" d="M 8.5 5.8125 C 7.109375 5.8125 5.921875 6.636719 5.414062 7.808594 C 4.117188 7.996094 3.125 9.066406 3.125 10.375 C 3.125 11.8125 4.328125 12.980469 5.8125 12.980469 L 11.523438 12.980469 C 12.824219 12.980469 13.875 11.957031 13.875 10.699219 C 13.875 9.527344 12.96875 8.570312 11.796875 8.4375 C 11.492188 6.945312 10.128906 5.8125 8.5 5.8125 Z M 8.5 5.8125 "/>
</g>
</defs>
<g id="surface1">
<path style=" stroke:none;fill-rule:evenodd;fill:rgb(40%,40%,40%);fill-opacity:1;" d="M 3.96875 1.007812 L 13.03125 1.007812 C 14.664062 1.007812 15.992188 2.335938 15.992188 3.96875 L 15.992188 13.03125 C 15.992188 14.664062 14.664062 15.992188 13.03125 15.992188 L 3.96875 15.992188 C 2.335938 15.992188 1.007812 14.664062 1.007812 13.03125 L 1.007812 3.96875 C 1.007812 2.335938 2.335938 1.007812 3.96875 1.007812 Z M 3.96875 1.007812 "/>
<path style=" stroke:none;fill-rule:nonzero;fill:rgb(99.607843%,75.294118%,2.352941%);fill-opacity:1;" d="M 6.707031 4.019531 L 5.660156 5.070312 L 4.175781 5.070312 L 4.175781 6.554688 L 3.125 7.605469 L 4.175781 8.652344 L 4.175781 10.136719 L 5.660156 10.136719 L 6.707031 11.1875 L 7.757812 10.136719 L 9.242188 10.136719 L 9.242188 8.652344 L 10.292969 7.605469 L 9.242188 6.554688 L 9.242188 5.070312 L 7.757812 5.070312 Z M 6.707031 4.019531 "/>
<path style=" stroke:none;fill-rule:nonzero;fill:rgb(99.607843%,80.392157%,21.960784%);fill-opacity:1;" d="M 5.335938 4.292969 L 4.769531 5.664062 L 3.398438 6.230469 L 3.964844 7.605469 L 3.398438 8.976562 L 4.769531 9.542969 L 5.335938 10.914062 L 6.710938 10.347656 L 8.082031 10.914062 L 8.648438 9.542969 L 10.019531 8.976562 L 9.453125 7.605469 L 10.019531 6.230469 L 8.648438 5.664062 L 8.082031 4.292969 L 6.710938 4.859375 Z M 5.335938 4.292969 "/>
<path style=" stroke:none;fill-rule:nonzero;fill:rgb(99.607843%,85.098039%,41.568627%);fill-opacity:1;" d="M 9.664062 7.605469 C 9.664062 5.972656 8.34375 4.648438 6.710938 4.648438 C 5.078125 4.648438 3.753906 5.972656 3.753906 7.605469 C 3.753906 9.238281 5.078125 10.5625 6.710938 10.5625 C 8.34375 10.5625 9.664062 9.238281 9.664062 7.605469 Z M 9.664062 7.605469 "/>
<use xlink:href="#surface6"/>
</g>
</svg>
