<?xml version="1.0" encoding="UTF-8"?>
<svg xmlns="http://www.w3.org/2000/svg" xmlns:xlink="http://www.w3.org/1999/xlink" width="17pt" height="17pt" viewBox="0 0 17 17" version="1.1">
<g id="surface1">
<path style=" stroke:none;fill-rule:evenodd;fill:rgb(35.686275%,35.686275%,35.686275%);fill-opacity:1;" d="M 3.96875 1.007812 L 13.03125 1.007812 C 14.664062 1.007812 15.992188 2.335938 15.992188 3.96875 L 15.992188 13.03125 C 15.992188 14.664062 14.664062 15.992188 13.03125 15.992188 L 3.96875 15.992188 C 2.335938 15.992188 1.007812 14.664062 1.007812 13.03125 L 1.007812 3.96875 C 1.007812 2.335938 2.335938 1.007812 3.96875 1.007812 Z M 3.96875 1.007812 "/>
<path style=" stroke:none;fill-rule:nonzero;fill:rgb(31.372549%,55.294118%,29.803922%);fill-opacity:1;" d="M 4.578125 3.523438 C 4.085938 3.53125 3.695312 3.933594 3.703125 4.425781 L 3.703125 10.457031 C 3.703125 10.773438 3.867188 11.0625 4.136719 11.222656 C 4.40625 11.382812 4.742188 11.386719 5.015625 11.234375 L 8.140625 9.519531 L 11.261719 11.234375 C 11.535156 11.386719 11.871094 11.382812 12.140625 11.222656 C 12.410156 11.0625 12.574219 10.773438 12.574219 10.457031 L 12.574219 4.425781 C 12.578125 4.105469 12.410156 3.808594 12.136719 3.644531 C 11.859375 3.484375 11.515625 3.484375 11.242188 3.644531 C 10.964844 3.808594 10.796875 4.105469 10.800781 4.425781 L 10.800781 8.957031 L 8.566406 7.730469 C 8.300781 7.582031 7.976562 7.582031 7.710938 7.730469 L 5.476562 8.957031 L 5.476562 4.425781 C 5.480469 4.183594 5.386719 3.953125 5.214844 3.785156 C 5.046875 3.613281 4.816406 3.519531 4.578125 3.523438 Z M 4.578125 3.523438 "/>
<path style=" stroke:none;fill-rule:nonzero;fill:rgb(100%,43.529412%,34.117647%);fill-opacity:1;" d="M 8.125 5.300781 C 7.636719 5.308594 7.246094 5.710938 7.25 6.199219 L 7.25 12.589844 C 7.25 13.078125 7.648438 13.476562 8.140625 13.476562 L 12.398438 13.476562 C 12.71875 13.480469 13.015625 13.3125 13.175781 13.035156 C 13.339844 12.757812 13.339844 12.417969 13.175781 12.140625 C 13.015625 11.863281 12.71875 11.695312 12.398438 11.699219 L 9.027344 11.699219 L 9.027344 6.199219 C 9.03125 5.960938 8.9375 5.726562 8.765625 5.558594 C 8.597656 5.390625 8.367188 5.296875 8.125 5.300781 Z M 8.125 5.300781 "/>
</g>
</svg>
