<?xml version="1.0" encoding="UTF-8"?>
<svg xmlns="http://www.w3.org/2000/svg" xmlns:xlink="http://www.w3.org/1999/xlink" width="17pt" height="17pt" viewBox="0 0 17 17" version="1.1">
<g id="surface1">
<path style=" stroke:none;fill-rule:evenodd;fill:rgb(62.745098%,0%,18.431373%);fill-opacity:1;" d="M 3.96875 1.007812 L 13.03125 1.007812 C 14.664062 1.007812 15.992188 2.335938 15.992188 3.96875 L 15.992188 13.03125 C 15.992188 14.664062 14.664062 15.992188 13.03125 15.992188 L 3.96875 15.992188 C 2.335938 15.992188 1.007812 14.664062 1.007812 13.03125 L 1.007812 3.96875 C 1.007812 2.335938 2.335938 1.007812 3.96875 1.007812 Z M 3.96875 1.007812 "/>
<path style=" stroke:none;fill-rule:evenodd;fill:rgb(62.745098%,0%,18.431373%);fill-opacity:1;" d="M 5.15625 15.992188 L 8.5 8.5 L 1.007812 5.15625 L 1.007812 13.03125 C 1.007812 14.671875 2.328125 15.992188 3.96875 15.992188 Z M 5.15625 15.992188 "/>
<path style=" stroke:none;fill-rule:evenodd;fill:rgb(76.470588%,15.686275%,22.745098%);fill-opacity:1;" d="M 15.992188 11.84375 L 8.5 8.5 L 5.15625 15.992188 L 13.03125 15.992188 C 14.671875 15.992188 15.992188 14.671875 15.992188 13.03125 Z M 15.992188 11.84375 "/>
<path style=" stroke:none;fill-rule:evenodd;fill:rgb(62.745098%,0%,18.431373%);fill-opacity:1;" d="M 11.84375 1.007812 L 8.5 8.5 L 15.992188 11.84375 L 15.992188 3.96875 C 15.992188 2.328125 14.671875 1.007812 13.03125 1.007812 Z M 11.84375 1.007812 "/>
<path style=" stroke:none;fill-rule:evenodd;fill:rgb(76.470588%,15.686275%,22.745098%);fill-opacity:1;" d="M 1.007812 5.15625 L 8.5 8.5 L 11.84375 1.007812 L 3.96875 1.007812 C 2.328125 1.007812 1.007812 2.328125 1.007812 3.96875 Z M 1.007812 5.15625 "/>
<path style=" stroke:none;fill-rule:nonzero;fill:rgb(100%,100%,100%);fill-opacity:1;" d="M 6.550781 13.941406 C 6.574219 13.917969 6.648438 13.867188 6.71875 13.832031 C 6.839844 13.765625 6.863281 13.761719 7.144531 13.738281 C 7.503906 13.707031 7.789062 13.652344 7.917969 13.59375 C 8.109375 13.5 8.226562 13.335938 8.285156 13.0625 C 8.3125 12.9375 8.320312 12.800781 8.328125 12.210938 C 8.335938 11.488281 8.308594 10.46875 8.277344 10.3125 C 8.242188 10.144531 8.214844 10.113281 7.921875 9.894531 C 7.605469 9.65625 7.222656 9.289062 7.050781 9.058594 C 6.742188 8.640625 6.570312 8.210938 6.484375 7.640625 C 6.460938 7.484375 6.453125 7.316406 6.453125 7.007812 C 6.453125 6.3125 6.515625 5.863281 6.816406 4.457031 C 6.925781 3.949219 6.957031 3.839844 7.015625 3.773438 L 7.054688 3.734375 L 9.9375 3.734375 L 9.976562 3.773438 C 10.03125 3.832031 10.058594 3.933594 10.1875 4.511719 C 10.527344 6.097656 10.609375 6.882812 10.503906 7.636719 C 10.371094 8.589844 9.929688 9.269531 8.996094 9.949219 C 8.882812 10.035156 8.777344 10.125 8.765625 10.152344 C 8.714844 10.242188 8.695312 10.402344 8.679688 10.828125 C 8.65625 11.433594 8.652344 12.699219 8.679688 12.886719 C 8.734375 13.3125 8.855469 13.507812 9.128906 13.617188 C 9.25 13.664062 9.503906 13.707031 9.851562 13.738281 C 10.113281 13.761719 10.144531 13.769531 10.265625 13.828125 C 10.335938 13.863281 10.414062 13.914062 10.441406 13.941406 L 10.484375 13.988281 L 6.507812 13.988281 Z M 6.550781 13.941406 "/>
<path style=" stroke:none;fill-rule:nonzero;fill:rgb(73.333333%,0%,18.431373%);fill-opacity:1;" d="M 6.726562 7.265625 C 6.628906 10.035156 10.066406 10.734375 10.324219 7.269531 C 9.527344 8.417969 7.59375 6.203125 6.726562 7.265625 Z M 6.726562 7.265625 "/>
<path style=" stroke:none;fill-rule:nonzero;fill:rgb(98.039216%,38.431373%,34.117647%);fill-opacity:1;" d="M 14.289062 11.695312 C 14.289062 13.160156 13.101562 14.351562 11.632812 14.351562 C 10.167969 14.351562 8.976562 13.160156 8.976562 11.695312 C 8.976562 10.226562 10.167969 9.039062 11.632812 9.039062 C 13.101562 9.039062 14.289062 10.226562 14.289062 11.695312 Z M 14.289062 11.695312 "/>
<path style=" stroke:none;fill-rule:nonzero;fill:rgb(100%,100%,100%);fill-opacity:1;" d="M 12.875 10.453125 C 12.761719 10.339844 12.578125 10.339844 12.460938 10.453125 L 11.632812 11.28125 L 10.808594 10.453125 C 10.691406 10.339844 10.507812 10.339844 10.394531 10.453125 C 10.277344 10.566406 10.277344 10.753906 10.394531 10.867188 L 11.222656 11.695312 L 10.394531 12.523438 C 10.277344 12.636719 10.277344 12.824219 10.394531 12.9375 C 10.507812 13.050781 10.691406 13.050781 10.808594 12.9375 L 11.632812 12.109375 L 12.460938 12.9375 C 12.578125 13.050781 12.761719 13.050781 12.875 12.9375 C 12.992188 12.824219 12.992188 12.636719 12.875 12.523438 L 12.046875 11.695312 L 12.875 10.867188 C 12.992188 10.753906 12.992188 10.566406 12.875 10.453125 Z M 12.875 10.453125 "/>
</g>
</svg>
