<?xml version="1.0" encoding="UTF-8"?>
<svg xmlns="http://www.w3.org/2000/svg" xmlns:xlink="http://www.w3.org/1999/xlink" width="17pt" height="17pt" viewBox="0 0 17 17" version="1.1">
<g id="surface1">
<path style=" stroke:none;fill-rule:evenodd;fill:rgb(80%,80%,80%);fill-opacity:1;" d="M 3.96875 1.007812 L 13.03125 1.007812 C 14.664062 1.007812 15.992188 2.335938 15.992188 3.96875 L 15.992188 13.03125 C 15.992188 14.664062 14.664062 15.992188 13.03125 15.992188 L 3.96875 15.992188 C 2.335938 15.992188 1.007812 14.664062 1.007812 13.03125 L 1.007812 3.96875 C 1.007812 2.335938 2.335938 1.007812 3.96875 1.007812 Z M 3.96875 1.007812 "/>
<path style=" stroke:none;fill-rule:nonzero;fill:rgb(100%,100%,100%);fill-opacity:1;" d="M 8.5 2.8125 C 7.730469 2.8125 7.007812 3.175781 6.550781 3.789062 C 5.789062 3.679688 5.019531 3.933594 4.476562 4.476562 C 3.933594 5.019531 3.679688 5.789062 3.789062 6.550781 C 3.175781 7.007812 2.8125 7.730469 2.8125 8.5 C 2.8125 9.269531 3.175781 9.992188 3.789062 10.449219 C 3.679688 11.210938 3.933594 11.980469 4.476562 12.523438 C 5.019531 13.066406 5.789062 13.320312 6.550781 13.210938 C 7.007812 13.824219 7.730469 14.1875 8.5 14.1875 C 9.269531 14.1875 9.992188 13.824219 10.449219 13.210938 C 11.210938 13.320312 11.980469 13.066406 12.523438 12.523438 C 13.066406 11.980469 13.320312 11.210938 13.210938 10.449219 C 13.824219 9.992188 14.1875 9.269531 14.1875 8.5 C 14.1875 7.730469 13.824219 7.007812 13.210938 6.550781 C 13.320312 5.789062 13.066406 5.019531 12.523438 4.476562 C 11.980469 3.933594 11.210938 3.679688 10.449219 3.789062 C 9.992188 3.175781 9.269531 2.8125 8.5 2.8125 Z M 8.5 2.8125 "/>
<path style=" stroke:none;fill-rule:nonzero;fill:rgb(81.568627%,61.960784%,45.098039%);fill-opacity:1;" d="M 7.070312 7.273438 C 6.585938 6.785156 5.796875 6.785156 5.3125 7.273438 L 3.550781 9.03125 C 3.066406 9.515625 3.066406 10.304688 3.550781 10.789062 C 4.039062 11.277344 4.828125 11.277344 5.3125 10.789062 L 7.070312 9.03125 C 7.558594 8.546875 7.558594 7.757812 7.070312 7.273438 Z M 7.070312 7.273438 "/>
<path style=" stroke:none;fill-rule:nonzero;fill:rgb(81.568627%,61.960784%,45.098039%);fill-opacity:1;" d="M 11.691406 8.5 C 11.691406 10.261719 10.261719 11.6875 8.503906 11.6875 C 6.742188 11.6875 5.316406 10.261719 5.316406 8.5 C 5.316406 6.738281 6.742188 5.3125 8.503906 5.3125 C 10.261719 5.3125 11.691406 6.738281 11.691406 8.5 Z M 11.691406 8.5 "/>
<path style=" stroke:none;fill-rule:nonzero;fill:rgb(81.568627%,61.960784%,45.098039%);fill-opacity:1;" d="M 9.929688 7.273438 C 10.414062 6.785156 11.203125 6.785156 11.6875 7.273438 L 13.449219 9.03125 C 13.933594 9.515625 13.933594 10.304688 13.449219 10.789062 C 12.960938 11.277344 12.171875 11.277344 11.6875 10.789062 L 9.929688 9.03125 C 9.441406 8.546875 9.441406 7.757812 9.929688 7.273438 Z M 9.929688 7.273438 "/>
<path style=" stroke:none;fill-rule:nonzero;fill:rgb(30.196078%,30.196078%,30.196078%);fill-opacity:1;" d="M 7.972656 7.703125 C 7.972656 8.144531 7.613281 8.5 7.175781 8.5 C 6.734375 8.5 6.378906 8.144531 6.378906 7.703125 C 6.378906 7.261719 6.734375 6.90625 7.175781 6.90625 C 7.613281 6.90625 7.972656 7.261719 7.972656 7.703125 Z M 7.972656 7.703125 "/>
<path style=" stroke:none;fill-rule:nonzero;fill:rgb(30.196078%,30.196078%,30.196078%);fill-opacity:1;" d="M 10.628906 7.703125 C 10.628906 8.144531 10.269531 8.5 9.832031 8.5 C 9.390625 8.5 9.035156 8.144531 9.035156 7.703125 C 9.035156 7.261719 9.390625 6.90625 9.832031 6.90625 C 10.269531 6.90625 10.628906 7.261719 10.628906 7.703125 Z M 10.628906 7.703125 "/>
</g>
</svg>
