<?xml version="1.0" encoding="UTF-8"?>
<svg xmlns="http://www.w3.org/2000/svg" xmlns:xlink="http://www.w3.org/1999/xlink" width="17pt" height="17pt" viewBox="0 0 17 17" version="1.1">
<g id="surface1">
<path style=" stroke:none;fill-rule:evenodd;fill:rgb(97.254902%,49.411765%,23.529412%);fill-opacity:1;" d="M 3.96875 1.007812 L 13.03125 1.007812 C 14.664062 1.007812 15.992188 2.335938 15.992188 3.96875 L 15.992188 13.03125 C 15.992188 14.664062 14.664062 15.992188 13.03125 15.992188 L 3.96875 15.992188 C 2.335938 15.992188 1.007812 14.664062 1.007812 13.03125 L 1.007812 3.96875 C 1.007812 2.335938 2.335938 1.007812 3.96875 1.007812 Z M 3.96875 1.007812 "/>
<path style=" stroke:none;fill-rule:nonzero;fill:rgb(100%,100%,100%);fill-opacity:1;" d="M 4.265625 3.1875 C 3.882812 3.183594 3.527344 3.382812 3.332031 3.714844 C 3.140625 4.046875 3.140625 4.453125 3.332031 4.785156 C 3.527344 5.117188 3.882812 5.316406 4.265625 5.3125 L 10.203125 5.3125 C 10.203125 5.3125 10.664062 5.328125 11.066406 5.496094 C 11.472656 5.664062 11.6875 5.734375 11.6875 6.371094 C 11.6875 7.007812 11.472656 7.078125 11.066406 7.246094 C 10.664062 7.414062 10.203125 7.429688 10.203125 7.429688 L 4.265625 7.429688 C 3.679688 7.429688 3.203125 7.90625 3.203125 8.492188 L 3.203125 12.734375 C 3.195312 13.117188 3.398438 13.472656 3.730469 13.667969 C 4.058594 13.859375 4.46875 13.859375 4.800781 13.667969 C 5.132812 13.472656 5.332031 13.117188 5.328125 12.734375 L 5.328125 9.554688 L 10.203125 9.554688 C 10.203125 9.554688 11.015625 9.570312 11.886719 9.207031 C 12.753906 8.847656 13.8125 7.855469 13.8125 6.371094 C 13.8125 4.886719 12.753906 3.894531 11.886719 3.535156 C 11.015625 3.171875 10.203125 3.1875 10.203125 3.1875 Z M 4.265625 3.1875 "/>
</g>
</svg>
