<?xml version="1.0" encoding="UTF-8"?>
<svg xmlns="http://www.w3.org/2000/svg" xmlns:xlink="http://www.w3.org/1999/xlink" width="17pt" height="17pt" viewBox="0 0 17 17" version="1.1">
<g id="surface1">
<path style=" stroke:none;fill-rule:evenodd;fill:rgb(37.647059%,37.647059%,37.647059%);fill-opacity:1;" d="M 3.96875 1.007812 L 13.03125 1.007812 C 14.664062 1.007812 15.992188 2.335938 15.992188 3.96875 L 15.992188 13.03125 C 15.992188 14.664062 14.664062 15.992188 13.03125 15.992188 L 3.96875 15.992188 C 2.335938 15.992188 1.007812 14.664062 1.007812 13.03125 L 1.007812 3.96875 C 1.007812 2.335938 2.335938 1.007812 3.96875 1.007812 Z M 3.96875 1.007812 "/>
<path style=" stroke:none;fill-rule:nonzero;fill:rgb(30.980392%,30.980392%,30.980392%);fill-opacity:1;" d="M 8.152344 5.183594 C 5.707031 5.183594 6.273438 7.335938 5.023438 8.011719 C 3.753906 8.730469 4.453125 9.375 4.65625 10.070312 C 5.003906 11.234375 5.976562 10.414062 8.847656 9.722656 C 11.722656 9.03125 12.339844 9.136719 11.992188 7.976562 C 11.785156 7.289062 12.46875 6.648438 10.984375 6.589844 C 9.777344 6.65625 9.898438 5.183594 8.152344 5.183594 Z M 8.152344 5.183594 "/>
<path style=" stroke:none;fill-rule:nonzero;fill:rgb(60%,60%,60%);fill-opacity:1;" d="M 13.699219 7.773438 C 13.355469 6.613281 10.746094 6.230469 7.871094 6.921875 C 5 7.613281 2.953125 9.113281 3.300781 10.273438 C 3.644531 11.433594 6.253906 11.816406 9.128906 11.125 C 12 10.4375 14.046875 8.9375 13.699219 7.773438 Z M 13.699219 7.773438 "/>
<path style=" stroke:none;fill-rule:nonzero;fill:rgb(100%,100%,100%);fill-opacity:1;" d="M 11.28125 10.015625 C 11.152344 9.421875 9.957031 9.199219 8.613281 9.519531 C 7.269531 9.839844 6.285156 10.582031 6.414062 11.175781 C 6.546875 11.769531 7.742188 11.992188 9.085938 11.671875 C 10.429688 11.351562 11.414062 10.609375 11.28125 10.015625 Z M 11.28125 10.015625 "/>
</g>
</svg>
