<?xml version="1.0" encoding="UTF-8"?>
<svg xmlns="http://www.w3.org/2000/svg" xmlns:xlink="http://www.w3.org/1999/xlink" width="17pt" height="17pt" viewBox="0 0 17 17" version="1.1">
<g id="surface1">
<path style=" stroke:none;fill-rule:evenodd;fill:rgb(28.627451%,79.607843%,77.647059%);fill-opacity:1;" d="M 3.96875 1.007812 L 13.03125 1.007812 C 14.664062 1.007812 15.992188 2.335938 15.992188 3.96875 L 15.992188 13.03125 C 15.992188 14.664062 14.664062 15.992188 13.03125 15.992188 L 3.96875 15.992188 C 2.335938 15.992188 1.007812 14.664062 1.007812 13.03125 L 1.007812 3.96875 C 1.007812 2.335938 2.335938 1.007812 3.96875 1.007812 Z M 3.96875 1.007812 "/>
<path style=" stroke:none;fill-rule:nonzero;fill:rgb(18.823529%,18.823529%,18.823529%);fill-opacity:1;" d="M 3.242188 4.996094 L 3.242188 5.871094 L 7.625 5.871094 L 3.269531 12.003906 L 9.375 12.003906 L 9.375 11.128906 L 4.996094 11.128906 L 9.351562 4.996094 Z M 12.011719 7.625 C 11.351562 7.625 10.800781 7.816406 10.402344 8.210938 C 10.007812 8.601562 9.8125 9.152344 9.8125 9.816406 C 9.8125 10.476562 10.007812 11.027344 10.402344 11.421875 C 10.800781 11.8125 11.351562 12.003906 12.011719 12.003906 C 12.3125 12.003906 12.601562 11.964844 12.871094 11.890625 L 12.875 11.890625 C 13.136719 11.8125 13.421875 11.699219 13.660156 11.539062 L 13.757812 11.472656 L 13.757812 9.375 L 12.003906 9.375 L 12.003906 10.253906 L 12.878906 10.253906 L 12.878906 11.019531 C 12.808594 11.050781 12.738281 11.082031 12.652344 11.101562 C 12.546875 11.125 12.234375 11.144531 12.058594 11.144531 C 11.613281 11.144531 11.1875 11.007812 11.011719 10.824219 C 10.816406 10.613281 10.691406 10.289062 10.691406 9.816406 C 10.722656 8.882812 11.28125 8.515625 12.058594 8.484375 C 12.441406 8.5 13.757812 8.5 13.757812 8.5 L 13.757812 7.625 Z M 12.011719 7.625 "/>
</g>
</svg>
