<?xml version="1.0" encoding="UTF-8"?>
<svg xmlns="http://www.w3.org/2000/svg" xmlns:xlink="http://www.w3.org/1999/xlink" width="17pt" height="17pt" viewBox="0 0 17 17" version="1.1">
<g id="surface1">
<path style=" stroke:none;fill-rule:evenodd;fill:rgb(99.607843%,80.392157%,21.960784%);fill-opacity:1;" d="M 4.015625 1.019531 L 13.1875 1.019531 C 14.839844 1.019531 16.183594 2.363281 16.183594 4.015625 L 16.183594 13.1875 C 16.183594 14.839844 14.839844 16.183594 13.1875 16.183594 L 4.015625 16.183594 C 2.363281 16.183594 1.019531 14.839844 1.019531 13.1875 L 1.019531 4.015625 C 1.019531 2.363281 2.363281 1.019531 4.015625 1.019531 Z M 4.015625 1.019531 "/>
<path style="fill:none;stroke-width:4;stroke-linecap:round;stroke-linejoin:round;stroke:rgb(100%,100%,100%);stroke-opacity:1;stroke-miterlimit:4;" d="M 7.992242 25.992178 L 19.965346 25.992178 C 19.965346 25.992178 26.002977 26.349737 26.002977 21.00679 C 26.002977 15.663844 19.965346 16.011186 19.965346 16.011186 L 11.414588 16.011186 C 11.414588 16.011186 4.998966 16.368745 4.998966 11.025798 C 4.998966 5.672636 11.414588 6.030195 11.414588 6.030195 L 23.009701 6.030195 " transform="matrix(0.382367,0,0,0.382367,2.674496,2.483312)"/>
<path style="fill:none;stroke-width:4;stroke-linecap:round;stroke-linejoin:round;stroke:rgb(100%,100%,100%);stroke-opacity:1;stroke-miterlimit:4;" d="M 15.991338 2.996055 L 15.991338 29.005886 " transform="matrix(0.382367,0,0,0.382367,2.674496,2.483312)"/>
</g>
</svg>
