<?xml version="1.0" encoding="UTF-8"?>
<svg xmlns="http://www.w3.org/2000/svg" xmlns:xlink="http://www.w3.org/1999/xlink" width="17pt" height="17pt" viewBox="0 0 17 17" version="1.1">
<g id="surface1">
<path style=" stroke:none;fill-rule:evenodd;fill:rgb(81.960784%,100%,25.882353%);fill-opacity:1;" d="M 4.015625 1.019531 L 13.1875 1.019531 C 14.839844 1.019531 16.183594 2.363281 16.183594 4.015625 L 16.183594 13.1875 C 16.183594 14.839844 14.839844 16.183594 13.1875 16.183594 L 4.015625 16.183594 C 2.363281 16.183594 1.019531 14.839844 1.019531 13.1875 L 1.019531 4.015625 C 1.019531 2.363281 2.363281 1.019531 4.015625 1.019531 Z M 4.015625 1.019531 "/>
<path style=" stroke:none;fill-rule:nonzero;fill:rgb(30.980392%,30.980392%,30.980392%);fill-opacity:1;" d="M 14.515625 9.675781 C 13.535156 10.75 12.441406 11.902344 10.917969 11.796875 C 10.289062 11.699219 9.597656 10.996094 9.089844 10.296875 C 8.445312 9.410156 7.910156 8.371094 7.328125 7.410156 C 6.84375 6.683594 6.234375 5.972656 5.054688 6.847656 C 4.652344 7.128906 4.261719 7.640625 3.957031 8.1875 C 3.464844 9.054688 4.316406 10.222656 5.105469 10.214844 C 8.371094 10.183594 11.992188 6.882812 13.976562 5.375 C 12.183594 7.300781 11.21875 8.40625 7.550781 10.554688 C 6.644531 11.070312 5.851562 11.398438 4.6875 11.683594 C 3.992188 11.855469 2.96875 12.011719 2.742188 11.273438 C 2.511719 10.503906 3.066406 9.316406 3.1875 9.058594 C 4.058594 7.117188 5.371094 5.105469 7.660156 5.40625 C 9.84375 5.691406 9.945312 9.097656 11.574219 9.992188 C 12.375 10.433594 12.972656 10.484375 14.515625 9.675781 Z M 14.515625 9.675781 "/>
</g>
</svg>
