<?xml version="1.0" encoding="UTF-8"?>
<svg xmlns="http://www.w3.org/2000/svg" xmlns:xlink="http://www.w3.org/1999/xlink" width="17pt" height="17pt" viewBox="0 0 17 17" version="1.1">
<g id="surface1">
<path style=" stroke:none;fill-rule:evenodd;fill:rgb(30.980392%,30.980392%,30.980392%);fill-opacity:1;" d="M 4.015625 1.019531 L 13.1875 1.019531 C 14.839844 1.019531 16.183594 2.363281 16.183594 4.015625 L 16.183594 13.1875 C 16.183594 14.839844 14.839844 16.183594 13.1875 16.183594 L 4.015625 16.183594 C 2.363281 16.183594 1.019531 14.839844 1.019531 13.1875 L 1.019531 4.015625 C 1.019531 2.363281 2.363281 1.019531 4.015625 1.019531 Z M 4.015625 1.019531 "/>
<path style=" stroke:none;fill-rule:nonzero;fill:rgb(100%,38.823529%,38.823529%);fill-opacity:1;" d="M 3.785156 11.011719 L 5.519531 11.011719 C 5.929688 11.011719 6.265625 11.324219 6.265625 11.710938 L 6.265625 13.535156 C 6.265625 13.921875 5.929688 14.238281 5.519531 14.238281 L 3.785156 14.238281 C 3.371094 14.238281 3.039062 13.921875 3.039062 13.535156 L 3.039062 11.710938 C 3.039062 11.324219 3.371094 11.011719 3.785156 11.011719 Z M 3.785156 11.011719 "/>
<path style=" stroke:none;fill-rule:nonzero;fill:rgb(100%,38.823529%,38.823529%);fill-opacity:1;" d="M 3.785156 6.175781 L 5.519531 6.175781 C 5.929688 6.175781 6.265625 6.488281 6.265625 6.875 L 6.265625 8.695312 C 6.265625 9.082031 5.929688 9.398438 5.519531 9.398438 L 3.785156 9.398438 C 3.371094 9.398438 3.039062 9.082031 3.039062 8.695312 L 3.039062 6.875 C 3.039062 6.488281 3.371094 6.175781 3.785156 6.175781 Z M 3.785156 6.175781 "/>
<path style=" stroke:none;fill-rule:nonzero;fill:rgb(100%,38.823529%,38.823529%);fill-opacity:1;" d="M 8.625 11.011719 L 10.355469 11.011719 C 10.765625 11.011719 11.101562 11.324219 11.101562 11.710938 L 11.101562 13.535156 C 11.101562 13.921875 10.765625 14.238281 10.355469 14.238281 L 8.625 14.238281 C 8.210938 14.238281 7.878906 13.921875 7.878906 13.535156 L 7.878906 11.710938 C 7.878906 11.324219 8.210938 11.011719 8.625 11.011719 Z M 8.625 11.011719 "/>
<path style=" stroke:none;fill-rule:nonzero;fill:rgb(100%,38.823529%,38.823529%);fill-opacity:1;" d="M 8.625 6.175781 L 10.355469 6.175781 C 10.765625 6.175781 11.101562 6.488281 11.101562 6.875 L 11.101562 8.695312 C 11.101562 9.082031 10.765625 9.398438 10.355469 9.398438 L 8.625 9.398438 C 8.210938 9.398438 7.878906 9.082031 7.878906 8.695312 L 7.878906 6.875 C 7.878906 6.488281 8.210938 6.175781 8.625 6.175781 Z M 8.625 6.175781 "/>
</g>
</svg>
