<?xml version="1.0" encoding="UTF-8"?>
<svg xmlns="http://www.w3.org/2000/svg" xmlns:xlink="http://www.w3.org/1999/xlink" width="17pt" height="17pt" viewBox="0 0 17 17" version="1.1">
<g id="surface1">
<path style=" stroke:none;fill-rule:evenodd;fill:rgb(80%,80%,80%);fill-opacity:1;" d="M 4.015625 1.019531 L 13.1875 1.019531 C 14.839844 1.019531 16.183594 2.363281 16.183594 4.015625 L 16.183594 13.1875 C 16.183594 14.839844 14.839844 16.183594 13.1875 16.183594 L 4.015625 16.183594 C 2.363281 16.183594 1.019531 14.839844 1.019531 13.1875 L 1.019531 4.015625 C 1.019531 2.363281 2.363281 1.019531 4.015625 1.019531 Z M 4.015625 1.019531 "/>
<path style=" stroke:none;fill-rule:nonzero;fill:rgb(100%,100%,100%);fill-opacity:1;" d="M 8.601562 5.519531 C 6.039062 5.519531 3.976562 7.582031 3.976562 10.144531 C 3.976562 12.703125 6.039062 14.765625 8.601562 14.765625 C 11.164062 14.765625 13.226562 12.703125 13.226562 10.144531 C 13.226562 7.582031 11.164062 5.519531 8.601562 5.519531 Z M 8.601562 5.519531 "/>
<path style=" stroke:none;fill-rule:nonzero;fill:rgb(23.529412%,54.901961%,97.254902%);fill-opacity:1;" d="M 6.636719 2.433594 C 4.414062 2.433594 4.417969 5.078125 4.417969 5.925781 C 4.734375 5.605469 6.621094 3.386719 6.621094 5.078125 C 6.621094 6.25 6.613281 7.429688 6.621094 8.601562 L 6.621094 8.679688 C 6.621094 8.691406 6.621094 8.699219 6.625 8.707031 C 6.628906 8.785156 6.640625 8.867188 6.65625 8.945312 C 6.664062 8.988281 6.671875 9.03125 6.683594 9.070312 C 6.6875 9.082031 6.691406 9.089844 6.691406 9.097656 C 6.710938 9.160156 6.730469 9.214844 6.75 9.269531 C 6.765625 9.308594 6.785156 9.351562 6.804688 9.390625 C 6.839844 9.453125 6.878906 9.523438 6.921875 9.582031 C 6.9375 9.609375 6.957031 9.632812 6.976562 9.660156 C 7.027344 9.726562 7.082031 9.789062 7.144531 9.851562 C 7.160156 9.867188 7.175781 9.882812 7.191406 9.898438 C 7.257812 9.960938 7.332031 10.015625 7.410156 10.066406 C 7.417969 10.074219 7.429688 10.078125 7.4375 10.085938 C 7.527344 10.144531 7.617188 10.191406 7.710938 10.230469 C 7.714844 10.230469 7.71875 10.230469 7.71875 10.234375 C 7.824219 10.273438 7.929688 10.304688 8.039062 10.328125 C 8.152344 10.351562 8.265625 10.363281 8.378906 10.363281 C 8.496094 10.363281 8.605469 10.351562 8.714844 10.328125 C 8.730469 10.324219 8.742188 10.320312 8.757812 10.320312 C 8.863281 10.296875 8.957031 10.265625 9.050781 10.226562 C 9.058594 10.226562 9.0625 10.222656 9.070312 10.222656 C 9.71875 9.945312 10.144531 9.308594 10.144531 8.601562 C 10.144531 7.628906 9.351562 6.839844 8.378906 6.839844 C 8.234375 6.839844 8.082031 6.859375 7.941406 6.898438 L 7.941406 3.070312 C 7.941406 2.433594 7.269531 2.433594 6.636719 2.433594 Z M 8.378906 7.71875 C 8.867188 7.71875 9.261719 8.113281 9.261719 8.601562 C 9.261719 9.085938 8.867188 9.484375 8.378906 9.484375 C 7.894531 9.484375 7.5 9.085938 7.5 8.601562 C 7.5 8.113281 7.894531 7.71875 8.378906 7.71875 Z M 8.378906 7.71875 "/>
</g>
</svg>
