<?xml version="1.0" encoding="UTF-8"?>
<svg xmlns="http://www.w3.org/2000/svg" xmlns:xlink="http://www.w3.org/1999/xlink" width="17pt" height="17pt" viewBox="0 0 17 17" version="1.1">
<g id="surface1">
<path style=" stroke:none;fill-rule:evenodd;fill:rgb(8.235294%,25.882353%,46.666667%);fill-opacity:1;" d="M 4.015625 1.019531 L 13.1875 1.019531 C 14.839844 1.019531 16.183594 2.363281 16.183594 4.015625 L 16.183594 13.1875 C 16.183594 14.839844 14.839844 16.183594 13.1875 16.183594 L 4.015625 16.183594 C 2.363281 16.183594 1.019531 14.839844 1.019531 13.1875 L 1.019531 4.015625 C 1.019531 2.363281 2.363281 1.019531 4.015625 1.019531 Z M 4.015625 1.019531 "/>
<path style=" stroke:none;fill-rule:nonzero;fill:rgb(96.078431%,79.215686%,29.019608%);fill-opacity:1;" d="M 10.75 8.601562 C 10.75 9.785156 9.785156 10.75 8.601562 10.75 C 7.414062 10.75 6.449219 9.785156 6.449219 8.601562 C 6.449219 7.414062 7.414062 6.449219 8.601562 6.449219 C 9.785156 6.449219 10.75 7.414062 10.75 8.601562 Z M 10.75 8.601562 "/>
<path style=" stroke:none;fill-rule:nonzero;fill:rgb(32.156863%,52.54902%,99.607843%);fill-opacity:1;" d="M 13.039062 2.527344 L 11.957031 4.402344 L 11.136719 5.828125 C 11.917969 6.539062 12.363281 7.546875 12.363281 8.601562 C 12.363281 8.988281 12.304688 9.371094 12.1875 9.738281 L 13.605469 10.5625 C 13.851562 9.9375 13.976562 9.273438 13.976562 8.601562 C 13.976562 7.554688 13.667969 6.53125 13.09375 5.65625 L 14.257812 3.640625 C 13.894531 3.226562 13.488281 2.851562 13.039062 2.527344 Z M 3.640625 2.945312 C 3.226562 3.308594 2.851562 3.714844 2.527344 4.164062 L 4.402344 5.246094 L 5.828125 6.066406 C 6.539062 5.285156 7.546875 4.839844 8.601562 4.839844 C 8.988281 4.839844 9.371094 4.898438 9.738281 5.015625 L 10.5625 3.597656 C 9.9375 3.351562 9.273438 3.226562 8.601562 3.226562 C 7.554688 3.226562 6.53125 3.535156 5.65625 4.105469 Z M 3.597656 6.640625 C 3.351562 7.265625 3.226562 7.929688 3.226562 8.601562 C 3.226562 9.648438 3.535156 10.671875 4.105469 11.546875 L 2.945312 13.5625 C 3.308594 13.976562 3.714844 14.351562 4.164062 14.675781 L 5.246094 12.800781 L 6.066406 11.375 C 5.285156 10.664062 4.839844 9.65625 4.839844 8.601562 C 4.839844 8.214844 4.898438 7.832031 5.015625 7.460938 Z M 11.375 11.136719 C 10.664062 11.917969 9.65625 12.363281 8.601562 12.363281 C 8.214844 12.363281 7.832031 12.304688 7.460938 12.1875 L 6.640625 13.605469 C 7.265625 13.851562 7.929688 13.976562 8.601562 13.976562 C 9.648438 13.976562 10.671875 13.667969 11.546875 13.09375 L 13.5625 14.257812 C 13.976562 13.894531 14.351562 13.488281 14.675781 13.039062 L 12.800781 11.957031 Z M 11.375 11.136719 "/>
</g>
</svg>
