<?xml version="1.0" encoding="UTF-8"?>
<svg xmlns="http://www.w3.org/2000/svg" xmlns:xlink="http://www.w3.org/1999/xlink" width="17pt" height="17pt" viewBox="0 0 17 17" version="1.1">
<defs>
<radialGradient id="radial0" gradientUnits="userSpaceOnUse" cx="24.391607" cy="16.559441" fx="24.391607" fy="16.559441" r="14.101694" gradientTransform="matrix(0.82631,0,0,0.82631,-11.65513,-5.183337)">
<stop offset="0" style="stop-color:rgb(33.72549%,34.117647%,16.862745%);stop-opacity:1;"/>
<stop offset="1" style="stop-color:rgb(10.196078%,10.980392%,5.490196%);stop-opacity:1;"/>
</radialGradient>
</defs>
<g id="surface1">
<path style=" stroke:none;fill-rule:evenodd;fill:rgb(33.72549%,34.117647%,16.862745%);fill-opacity:1;" d="M 3.96875 1.007812 L 13.03125 1.007812 C 14.664062 1.007812 15.992188 2.335938 15.992188 3.96875 L 15.992188 13.03125 C 15.992188 14.664062 14.664062 15.992188 13.03125 15.992188 L 3.96875 15.992188 C 2.335938 15.992188 1.007812 14.664062 1.007812 13.03125 L 1.007812 3.96875 C 1.007812 2.335938 2.335938 1.007812 3.96875 1.007812 Z M 3.96875 1.007812 "/>
<path style=" stroke:none;fill-rule:evenodd;fill:rgb(13.333333%,14.509804%,7.843137%);fill-opacity:1;" d="M 9.527344 15.992188 C 9.105469 15.808594 8.570312 15.652344 8.222656 15.457031 C 7.433594 15.003906 6.824219 14.515625 6.347656 14.003906 C 5.867188 13.496094 5.519531 12.964844 5.246094 12.429688 C 4.972656 11.890625 4.777344 11.351562 4.601562 10.816406 C 4.429688 10.285156 4.277344 9.765625 4.09375 9.269531 C 3.914062 8.777344 3.699219 8.308594 3.402344 7.882812 C 3.105469 7.457031 2.722656 7.074219 2.207031 6.746094 C 1.898438 6.554688 1.421875 6.429688 1.007812 6.28125 L 1.007812 13.03125 C 1.007812 14.671875 2.328125 15.992188 3.96875 15.992188 Z M 9.527344 15.992188 "/>
<path style=" stroke:none;fill-rule:evenodd;fill:url(#radial0);" d="M 6.839844 1.007812 L 3.96875 1.007812 C 2.328125 1.007812 1.007812 2.328125 1.007812 3.96875 L 1.007812 6.28125 C 1.421875 6.429688 1.898438 6.554688 2.207031 6.746094 C 2.722656 7.074219 3.105469 7.457031 3.402344 7.882812 C 3.699219 8.308594 3.914062 8.777344 4.09375 9.269531 C 4.277344 9.765625 4.429688 10.285156 4.601562 10.816406 C 4.777344 11.351562 4.972656 11.890625 5.246094 12.429688 C 5.519531 12.964844 5.867188 13.496094 6.347656 14.003906 C 6.824219 14.515625 7.433594 15.003906 8.222656 15.457031 C 8.570312 15.652344 9.105469 15.808594 9.527344 15.992188 L 13.03125 15.992188 C 14.671875 15.992188 15.992188 14.671875 15.992188 13.03125 L 15.992188 10.984375 C 15.644531 10.847656 15.214844 10.746094 14.945312 10.578125 C 14.429688 10.25 14.046875 9.867188 13.75 9.441406 C 13.453125 9.015625 13.242188 8.546875 13.058594 8.054688 C 12.875 7.558594 12.722656 7.039062 12.550781 6.507812 C 12.375 5.976562 12.179688 5.433594 11.90625 4.898438 C 11.632812 4.359375 11.28125 3.828125 10.804688 3.320312 C 10.328125 2.808594 9.71875 2.320312 8.925781 1.871094 C 8.371094 1.554688 7.59375 1.285156 6.839844 1.007812 Z M 6.839844 1.007812 "/>
<path style=" stroke:none;fill-rule:evenodd;fill:rgb(33.72549%,34.117647%,16.862745%);fill-opacity:1;" d="M 6.839844 1.007812 C 7.59375 1.285156 8.371094 1.554688 8.925781 1.871094 C 9.71875 2.320312 10.328125 2.808594 10.804688 3.320312 C 11.28125 3.828125 11.632812 4.359375 11.90625 4.898438 C 12.179688 5.433594 12.375 5.976562 12.550781 6.507812 C 12.722656 7.039062 12.875 7.558594 13.058594 8.054688 C 13.242188 8.546875 13.453125 9.015625 13.75 9.441406 C 14.046875 9.867188 14.429688 10.25 14.945312 10.578125 C 15.214844 10.746094 15.644531 10.847656 15.992188 10.984375 L 15.992188 3.96875 C 15.992188 2.328125 14.671875 1.007812 13.03125 1.007812 Z M 6.839844 1.007812 "/>
<path style=" stroke:none;fill-rule:nonzero;fill:rgb(100%,100%,100%);fill-opacity:1;" d="M 6.539062 12.992188 C 6.71875 12.90625 6.742188 12.855469 6.75 12.5625 L 6.757812 12.316406 L 6.148438 12.316406 L 6.152344 12.496094 L 6.160156 12.679688 L 4.921875 12.679688 L 4.921875 11.632812 L 5.542969 11.628906 L 6.160156 11.628906 L 6.152344 11.804688 L 6.148438 11.980469 L 6.285156 11.964844 C 6.460938 11.949219 6.660156 11.851562 6.730469 11.75 C 6.769531 11.695312 6.777344 11.664062 6.765625 11.59375 C 6.75 11.460938 6.6875 11.378906 6.558594 11.316406 L 6.441406 11.257812 L 4.691406 11.257812 L 4.585938 11.304688 C 4.445312 11.371094 4.34375 11.480469 4.328125 11.59375 C 4.320312 11.640625 4.316406 11.925781 4.320312 12.226562 C 4.328125 12.835938 4.332031 12.847656 4.484375 12.953125 C 4.628906 13.054688 4.683594 13.058594 5.585938 13.054688 L 6.421875 13.050781 Z M 9.117188 13.039062 C 9.234375 13.007812 9.355469 12.921875 9.398438 12.839844 C 9.425781 12.785156 9.433594 12.714844 9.433594 12.519531 C 9.433594 12.230469 9.410156 12.160156 9.292969 12.082031 C 9.144531 11.984375 9.042969 11.972656 8.289062 11.972656 L 7.601562 11.972656 L 7.601562 11.632812 L 8.515625 11.632812 C 9.425781 11.632812 9.433594 11.628906 9.433594 11.589844 C 9.433594 11.527344 9.382812 11.425781 9.328125 11.375 C 9.304688 11.351562 9.234375 11.316406 9.179688 11.296875 C 9.085938 11.261719 9.011719 11.257812 8.203125 11.257812 L 7.328125 11.257812 L 7.21875 11.3125 C 7.089844 11.375 7.003906 11.488281 6.984375 11.625 C 6.960938 11.769531 6.984375 12.054688 7.023438 12.128906 C 7.066406 12.214844 7.210938 12.304688 7.339844 12.335938 C 7.402344 12.347656 7.722656 12.355469 8.132812 12.355469 L 8.828125 12.355469 L 8.828125 12.679688 L 7.898438 12.679688 C 7.0625 12.679688 6.972656 12.679688 6.984375 12.710938 C 6.992188 12.726562 6.996094 12.753906 6.996094 12.769531 C 6.996094 12.851562 7.195312 13 7.351562 13.039062 C 7.464844 13.066406 9.011719 13.066406 9.117188 13.039062 Z M 9.117188 13.039062 "/>
<path style=" stroke:none;fill-rule:nonzero;fill:rgb(100%,100%,100%);fill-opacity:1;" d="M 12.375 13.039062 C 12.492188 13.007812 12.617188 12.921875 12.65625 12.839844 C 12.683594 12.785156 12.691406 12.714844 12.691406 12.519531 C 12.691406 12.230469 12.671875 12.160156 12.554688 12.082031 C 12.40625 11.984375 12.300781 11.972656 11.550781 11.972656 L 10.859375 11.972656 L 10.859375 11.632812 L 11.777344 11.632812 C 12.683594 11.632812 12.691406 11.628906 12.691406 11.589844 C 12.691406 11.527344 12.644531 11.425781 12.589844 11.375 C 12.5625 11.351562 12.496094 11.316406 12.441406 11.296875 C 12.347656 11.261719 12.273438 11.257812 11.464844 11.257812 L 10.589844 11.257812 L 10.476562 11.3125 C 10.347656 11.375 10.265625 11.488281 10.246094 11.625 C 10.222656 11.769531 10.246094 12.054688 10.285156 12.128906 C 10.328125 12.214844 10.472656 12.304688 10.601562 12.335938 C 10.660156 12.347656 10.980469 12.355469 11.394531 12.355469 L 12.089844 12.355469 L 12.089844 12.679688 L 11.160156 12.679688 C 10.320312 12.679688 10.234375 12.679688 10.242188 12.710938 C 10.25 12.726562 10.257812 12.753906 10.257812 12.769531 C 10.257812 12.851562 10.453125 13 10.613281 13.039062 C 10.726562 13.066406 12.273438 13.066406 12.375 13.039062 Z M 12.375 13.039062 "/>
<path style=" stroke:none;fill-rule:nonzero;fill:rgb(100%,100%,100%);fill-opacity:1;" d="M 8.621094 4.316406 C 6.445312 4.316406 4.679688 6.085938 4.679688 8.261719 C 4.679688 9.347656 5.121094 10.335938 5.835938 11.046875 L 6.480469 11.046875 C 5.644531 10.40625 5.101562 9.398438 5.101562 8.261719 C 5.101562 6.316406 6.675781 4.742188 8.621094 4.742188 C 10.566406 4.742188 12.136719 6.316406 12.136719 8.261719 C 12.136719 9.398438 11.597656 10.40625 10.761719 11.046875 L 11.40625 11.046875 C 12.121094 10.335938 12.5625 9.347656 12.5625 8.261719 C 12.5625 6.085938 10.796875 4.316406 8.621094 4.316406 Z M 8.621094 4.316406 "/>
<path style=" stroke:none;fill-rule:nonzero;fill:rgb(100%,100%,100%);fill-opacity:1;" d="M 9.726562 10.8125 C 9.796875 10.746094 9.78125 10.621094 9.679688 10.476562 C 9.589844 10.351562 9.589844 10.347656 9.523438 9.859375 C 9.464844 9.390625 9.457031 9.363281 9.367188 9.191406 C 9.308594 9.078125 9.246094 8.992188 9.1875 8.949219 C 9.074219 8.871094 9.019531 8.726562 9.066406 8.640625 C 9.09375 8.59375 9.082031 8.570312 8.96875 8.425781 C 8.902344 8.339844 8.832031 8.253906 8.816406 8.238281 C 8.800781 8.222656 8.753906 8.160156 8.710938 8.105469 C 8.660156 8.03125 8.625 8.003906 8.597656 8.011719 C 8.566406 8.023438 8.554688 8.007812 8.546875 7.9375 C 8.539062 7.886719 8.527344 7.828125 8.519531 7.804688 C 8.503906 7.773438 8.511719 7.765625 8.558594 7.765625 C 8.640625 7.765625 8.667969 7.707031 8.667969 7.523438 L 8.667969 7.367188 L 8.851562 7.367188 C 8.949219 7.367188 9.066406 7.359375 9.109375 7.34375 C 9.214844 7.316406 9.316406 7.214844 9.371094 7.09375 C 9.417969 6.988281 9.460938 6.96875 9.511719 7.03125 C 9.53125 7.050781 9.570312 7.0625 9.613281 7.058594 C 9.679688 7.054688 9.6875 7.042969 9.691406 6.964844 C 9.695312 6.917969 9.707031 6.878906 9.71875 6.878906 C 9.726562 6.878906 9.78125 6.992188 9.839844 7.128906 C 9.941406 7.367188 9.949219 7.378906 10.011719 7.375 C 10.046875 7.371094 10.082031 7.363281 10.089844 7.359375 C 10.097656 7.351562 10.0625 7.238281 10.011719 7.105469 C 9.964844 6.972656 9.917969 6.855469 9.914062 6.839844 C 9.910156 6.828125 9.953125 6.796875 10.007812 6.773438 C 10.085938 6.742188 10.117188 6.714844 10.132812 6.65625 L 10.152344 6.585938 L 10.421875 6.570312 C 10.570312 6.5625 10.695312 6.554688 10.695312 6.554688 C 10.699219 6.550781 10.703125 6.535156 10.703125 6.515625 C 10.703125 6.496094 10.671875 6.480469 10.625 6.476562 C 10.550781 6.46875 10.550781 6.464844 10.542969 6.335938 C 10.542969 6.289062 10.460938 6.292969 10.421875 6.269531 C 10.421875 6.335938 10.417969 6.339844 10.328125 6.339844 C 10.261719 6.339844 10.234375 6.328125 10.234375 6.304688 C 10.234375 6.265625 10.195312 6.257812 10.183594 6.292969 C 10.179688 6.304688 10.125 6.324219 10.066406 6.332031 L 9.953125 6.347656 L 9.953125 6.273438 C 9.953125 6.234375 9.941406 6.199219 9.921875 6.191406 C 9.886719 6.175781 9.835938 6.21875 9.835938 6.261719 C 9.835938 6.285156 9.78125 6.292969 9.605469 6.292969 L 9.371094 6.292969 L 9.371094 6.222656 C 9.371094 6.15625 9.363281 6.152344 9.289062 6.152344 C 9.234375 6.152344 9.207031 6.164062 9.207031 6.183594 C 9.207031 6.222656 9.15625 6.246094 9.066406 6.246094 C 9.023438 6.246094 8.988281 6.261719 8.972656 6.292969 C 8.941406 6.355469 8.796875 6.359375 8.820312 6.300781 C 8.960938 5.929688 8.757812 5.578125 8.40625 5.589844 C 8.179688 5.59375 8.039062 5.789062 8.039062 6.097656 C 8.039062 6.261719 8.035156 6.265625 7.960938 6.292969 C 7.714844 6.398438 7.539062 6.789062 7.546875 7.214844 C 7.550781 7.347656 7.535156 7.492188 7.511719 7.601562 C 7.484375 7.71875 7.46875 7.894531 7.464844 8.128906 C 7.460938 8.449219 7.453125 8.503906 7.378906 8.769531 C 7.308594 9.015625 7.261719 9.226562 7.207031 9.554688 C 7.199219 9.582031 7.140625 9.644531 7.066406 9.695312 C 6.925781 9.789062 6.832031 9.898438 6.757812 10.046875 L 6.710938 10.140625 L 6.792969 10.359375 C 6.902344 10.636719 6.898438 10.636719 7 10.664062 C 7.0625 10.679688 7.105469 10.679688 7.164062 10.652344 L 7.242188 10.621094 L 7.242188 10.265625 L 7.335938 10.265625 C 7.539062 10.265625 7.695312 10.035156 7.898438 9.421875 C 8.078125 8.871094 8.132812 8.722656 8.15625 8.722656 C 8.167969 8.722656 8.175781 8.734375 8.175781 8.75 C 8.175781 8.761719 8.21875 8.839844 8.269531 8.921875 C 8.378906 9.089844 8.558594 9.269531 8.742188 9.386719 C 8.859375 9.460938 8.875 9.480469 8.886719 9.570312 C 8.898438 9.625 8.945312 9.796875 9 9.953125 C 9.050781 10.105469 9.105469 10.3125 9.125 10.414062 C 9.167969 10.648438 9.214844 10.714844 9.398438 10.789062 C 9.570312 10.859375 9.664062 10.867188 9.726562 10.8125 Z M 8.796875 6.824219 C 8.804688 6.769531 8.828125 6.710938 8.847656 6.695312 C 8.929688 6.636719 9.253906 6.679688 9.253906 6.75 C 9.253906 6.78125 9.183594 6.804688 9.085938 6.808594 C 9.046875 6.808594 9.003906 6.828125 8.976562 6.867188 C 8.945312 6.90625 8.90625 6.925781 8.855469 6.925781 L 8.78125 6.925781 Z M 8.796875 6.824219 "/>
</g>
</svg>
