<?xml version="1.0" encoding="UTF-8"?>
<svg xmlns="http://www.w3.org/2000/svg" xmlns:xlink="http://www.w3.org/1999/xlink" width="17pt" height="17pt" viewBox="0 0 17 17" version="1.1">
<g id="surface1">
<path style=" stroke:none;fill-rule:evenodd;fill:rgb(49.411765%,76.078431%,25.882353%);fill-opacity:1;" d="M 3.96875 1.007812 L 13.03125 1.007812 C 14.664062 1.007812 15.992188 2.335938 15.992188 3.96875 L 15.992188 13.03125 C 15.992188 14.664062 14.664062 15.992188 13.03125 15.992188 L 3.96875 15.992188 C 2.335938 15.992188 1.007812 14.664062 1.007812 13.03125 L 1.007812 3.96875 C 1.007812 2.335938 2.335938 1.007812 3.96875 1.007812 Z M 3.96875 1.007812 "/>
<path style=" stroke:none;fill-rule:nonzero;fill:rgb(75.294118%,100%,53.333333%);fill-opacity:1;" d="M 12.210938 13.449219 L 12.210938 8.085938 L 13.859375 8.085938 L 13.859375 3.675781 C 13.859375 3.378906 13.621094 3.140625 13.324219 3.140625 L 3.675781 3.140625 C 3.378906 3.140625 3.140625 3.378906 3.140625 3.675781 L 3.140625 8.085938 L 4.789062 8.085938 L 4.789062 13.449219 C 4.789062 13.746094 4.902344 13.859375 5.199219 13.859375 L 11.800781 13.859375 C 12.097656 13.859375 12.210938 13.746094 12.210938 13.449219 Z M 12.210938 13.449219 "/>
</g>
</svg>
