<?xml version="1.0" encoding="UTF-8"?>
<svg xmlns="http://www.w3.org/2000/svg" xmlns:xlink="http://www.w3.org/1999/xlink" width="17pt" height="17pt" viewBox="0 0 17 17" version="1.1">
<defs>
<filter id="alpha" filterUnits="objectBoundingBox" x="0%" y="0%" width="100%" height="100%">
  <feColorMatrix type="matrix" in="SourceGraphic" values="0 0 0 0 1 0 0 0 0 1 0 0 0 0 1 0 0 0 1 0"/>
</filter>
<mask id="mask0">
  <g filter="url(#alpha)">
<rect x="0" y="0" width="17" height="17" style="fill:rgb(0%,0%,0%);fill-opacity:0.980392;stroke:none;"/>
  </g>
</mask>
<clipPath id="clip1">
  <rect width="17" height="17"/>
</clipPath>
<g id="surface6" clip-path="url(#clip1)">
<path style=" stroke:none;fill-rule:evenodd;fill:rgb(30.980392%,30.980392%,30.980392%);fill-opacity:1;" d="M 3.96875 1.007812 L 13.03125 1.007812 C 14.664062 1.007812 15.992188 2.335938 15.992188 3.96875 L 15.992188 13.03125 C 15.992188 14.664062 14.664062 15.992188 13.03125 15.992188 L 3.96875 15.992188 C 2.335938 15.992188 1.007812 14.664062 1.007812 13.03125 L 1.007812 3.96875 C 1.007812 2.335938 2.335938 1.007812 3.96875 1.007812 Z M 3.96875 1.007812 "/>
</g>
</defs>
<g id="surface1">
<use xlink:href="#surface6" mask="url(#mask0)"/>
<path style=" stroke:none;fill-rule:nonzero;fill:rgb(100%,100%,100%);fill-opacity:1;" d="M 12.382812 4.84375 C 12.15625 4.835938 11.519531 4.882812 10.523438 5.578125 C 9.453125 5.253906 8.308594 5.207031 7.027344 5.578125 C 6.03125 4.882812 5.523438 4.835938 5.296875 4.847656 C 5.21875 4.851562 5.183594 4.859375 5.183594 4.859375 C 4.804688 5.84375 5.042969 6.570312 5.117188 6.753906 C 4.671875 7.25 4.398438 7.890625 4.398438 8.667969 C 4.398438 11.40625 6.023438 12.019531 7.570312 12.199219 C 7.371094 12.378906 7.191406 12.695312 7.128906 13.15625 C 6.730469 13.339844 5.722656 13.65625 5.101562 12.5625 C 5.101562 12.5625 4.734375 11.875 4.035156 11.824219 C 4.035156 11.824219 3.355469 11.816406 3.988281 12.261719 C 3.988281 12.261719 4.445312 12.480469 4.761719 13.304688 C 4.761719 13.304688 5.167969 14.695312 7.105469 14.261719 C 7.109375 14.789062 7.113281 15.128906 7.113281 15.335938 C 7.570312 15.421875 8.035156 15.46875 8.5 15.46875 C 9.199219 15.46875 9.898438 15.367188 10.566406 15.167969 C 10.570312 14.835938 10.574219 14.324219 10.574219 13.519531 C 10.574219 12.851562 10.351562 12.417969 10.101562 12.195312 C 11.652344 12.019531 13.28125 11.414062 13.28125 8.667969 C 13.28125 7.890625 13.011719 7.25 12.566406 6.753906 C 12.636719 6.570312 12.875 5.84375 12.496094 4.859375 C 12.496094 4.859375 12.460938 4.847656 12.382812 4.84375 Z M 12.382812 4.84375 "/>
</g>
</svg>
