<?xml version="1.0" encoding="UTF-8"?>
<svg xmlns="http://www.w3.org/2000/svg" xmlns:xlink="http://www.w3.org/1999/xlink" width="17pt" height="17pt" viewBox="0 0 17 17" version="1.1">
<g id="surface1">
<path style=" stroke:none;fill-rule:evenodd;fill:rgb(20.392157%,39.607843%,64.313725%);fill-opacity:1;" d="M 3.96875 1.007812 L 13.03125 1.007812 C 14.664062 1.007812 15.992188 2.335938 15.992188 3.96875 L 15.992188 13.03125 C 15.992188 14.664062 14.664062 15.992188 13.03125 15.992188 L 3.96875 15.992188 C 2.335938 15.992188 1.007812 14.664062 1.007812 13.03125 L 1.007812 3.96875 C 1.007812 2.335938 2.335938 1.007812 3.96875 1.007812 Z M 3.96875 1.007812 "/>
<path style=" stroke:none;fill-rule:evenodd;fill:rgb(100%,100%,100%);fill-opacity:1;" d="M 4.515625 6.640625 C 4.515625 6.640625 4.261719 6.636719 4 6.769531 C 3.734375 6.898438 3.453125 7.214844 3.453125 7.703125 L 3.984375 7.703125 C 3.984375 7.171875 4.515625 7.171875 4.515625 7.171875 C 4.515625 7.171875 5.046875 7.171875 5.046875 7.703125 C 5.046875 7.902344 4.980469 8.050781 4.855469 8.210938 C 4.730469 8.371094 4.542969 8.527344 4.34375 8.695312 C 4.144531 8.859375 3.933594 9.035156 3.757812 9.257812 C 3.585938 9.480469 3.453125 9.761719 3.453125 10.09375 L 3.453125 10.359375 L 5.578125 10.359375 L 5.578125 9.828125 L 4.03125 9.828125 C 4.066406 9.746094 4.113281 9.664062 4.175781 9.585938 C 4.300781 9.425781 4.488281 9.269531 4.6875 9.101562 C 4.886719 8.9375 5.097656 8.761719 5.273438 8.539062 C 5.445312 8.316406 5.578125 8.035156 5.578125 7.703125 C 5.578125 7.214844 5.296875 6.898438 5.03125 6.769531 C 4.769531 6.636719 4.515625 6.640625 4.515625 6.640625 Z M 4.515625 6.640625 "/>
<path style=" stroke:none;fill-rule:nonzero;fill:rgb(100%,100%,100%);fill-opacity:1;" d="M 7.171875 6.640625 C 6.585938 6.640625 6.109375 7.117188 6.109375 7.703125 L 6.109375 9.296875 C 6.109375 9.882812 6.585938 10.359375 7.171875 10.359375 C 7.757812 10.359375 8.234375 9.882812 8.234375 9.296875 L 8.234375 7.703125 C 8.234375 7.117188 7.757812 6.640625 7.171875 6.640625 Z M 7.171875 7.171875 C 7.472656 7.171875 7.703125 7.402344 7.703125 7.703125 L 7.703125 9.296875 C 7.703125 9.597656 7.472656 9.828125 7.171875 9.828125 C 6.871094 9.828125 6.640625 9.597656 6.640625 9.296875 L 6.640625 7.703125 C 6.640625 7.402344 6.871094 7.171875 7.171875 7.171875 Z M 7.171875 7.171875 "/>
<path style=" stroke:none;fill-rule:evenodd;fill:rgb(100%,100%,100%);fill-opacity:1;" d="M 9.296875 6.640625 L 9.296875 8.234375 L 10.359375 8.234375 L 10.359375 6.640625 L 10.890625 6.640625 L 10.890625 10.359375 L 10.359375 10.359375 L 10.359375 8.765625 L 8.765625 8.765625 L 8.765625 6.640625 L 9.296875 6.640625 "/>
<path style=" stroke:none;fill-rule:nonzero;fill:rgb(100%,100%,100%);fill-opacity:1;" d="M 12.484375 6.640625 C 11.898438 6.640625 11.421875 7.117188 11.421875 7.703125 C 11.421875 8.019531 11.566406 8.304688 11.789062 8.5 C 11.566406 8.695312 11.421875 8.980469 11.421875 9.296875 C 11.421875 9.882812 11.898438 10.359375 12.484375 10.359375 C 13.070312 10.359375 13.546875 9.882812 13.546875 9.296875 C 13.546875 8.980469 13.402344 8.695312 13.179688 8.5 C 13.402344 8.304688 13.546875 8.019531 13.546875 7.703125 C 13.546875 7.117188 13.070312 6.640625 12.484375 6.640625 Z M 12.484375 7.171875 C 12.785156 7.171875 13.015625 7.402344 13.015625 7.703125 C 13.015625 8.003906 12.785156 8.234375 12.484375 8.234375 C 12.183594 8.234375 11.953125 8.003906 11.953125 7.703125 C 11.953125 7.402344 12.183594 7.171875 12.484375 7.171875 Z M 12.484375 8.765625 C 12.785156 8.765625 13.015625 8.996094 13.015625 9.296875 C 13.015625 9.597656 12.785156 9.828125 12.484375 9.828125 C 12.183594 9.828125 11.953125 9.597656 11.953125 9.296875 C 11.953125 8.996094 12.183594 8.765625 12.484375 8.765625 Z M 12.484375 8.765625 "/>
</g>
</svg>
