<?xml version="1.0" encoding="UTF-8"?>
<svg xmlns="http://www.w3.org/2000/svg" xmlns:xlink="http://www.w3.org/1999/xlink" width="17pt" height="17pt" viewBox="0 0 17 17" version="1.1">
<g id="surface1">
<path style=" stroke:none;fill-rule:evenodd;fill:rgb(11.764706%,50.196078%,100%);fill-opacity:1;" d="M 3.96875 1.007812 L 13.03125 1.007812 C 14.664062 1.007812 15.992188 2.335938 15.992188 3.96875 L 15.992188 13.03125 C 15.992188 14.664062 14.664062 15.992188 13.03125 15.992188 L 3.96875 15.992188 C 2.335938 15.992188 1.007812 14.664062 1.007812 13.03125 L 1.007812 3.96875 C 1.007812 2.335938 2.335938 1.007812 3.96875 1.007812 Z M 3.96875 1.007812 "/>
<path style=" stroke:none;fill-rule:nonzero;fill:rgb(100%,100%,100%);fill-opacity:1;" d="M 7.199219 2.429688 L 7.199219 3.464844 C 5.371094 3.941406 3.941406 5.371094 3.46875 7.199219 L 2.429688 7.199219 L 2.429688 9.800781 L 3.464844 9.800781 C 3.941406 11.628906 5.371094 13.058594 7.199219 13.53125 L 7.199219 14.570312 L 9.800781 14.570312 L 9.800781 13.535156 C 11.628906 13.058594 13.058594 11.628906 13.53125 9.800781 L 14.570312 9.800781 L 14.570312 7.199219 L 13.535156 7.199219 C 13.058594 5.371094 11.628906 3.941406 9.800781 3.46875 L 9.800781 2.429688 Z M 7.199219 2.429688 "/>
<path style=" stroke:none;fill-rule:nonzero;fill:rgb(11.764706%,50.196078%,100%);fill-opacity:1;" d="M 11.535156 8.5 C 11.535156 6.824219 10.175781 5.464844 8.5 5.464844 C 6.824219 5.464844 5.464844 6.824219 5.464844 8.5 C 5.464844 10.175781 6.824219 11.535156 8.5 11.535156 C 10.175781 11.535156 11.535156 10.175781 11.535156 8.5 Z M 11.535156 8.5 "/>
</g>
</svg>
