<?xml version="1.0" encoding="UTF-8"?>
<svg xmlns="http://www.w3.org/2000/svg" xmlns:xlink="http://www.w3.org/1999/xlink" width="17pt" height="17pt" viewBox="0 0 17 17" version="1.1">
<defs>
<g>
<symbol overflow="visible" id="glyph0-0">
<path style="stroke:none;" d="M 0.75 0 L 0.75 -3.75 L 3.75 -3.75 L 3.75 0 Z M 0.84375 -0.09375 L 3.65625 -0.09375 L 3.65625 -3.65625 L 0.84375 -3.65625 Z M 0.84375 -0.09375 "/>
</symbol>
<symbol overflow="visible" id="glyph0-1">
<path style="stroke:none;" d="M 3.078125 -3 L 1.84375 -3 L 1.84375 -3.421875 C 1.84375 -3.691406 1.828125 -3.863281 1.796875 -3.9375 C 1.773438 -4.007812 1.722656 -4.046875 1.640625 -4.046875 C 1.566406 -4.046875 1.515625 -4.015625 1.484375 -3.953125 C 1.453125 -3.890625 1.4375 -3.738281 1.4375 -3.5 L 1.4375 -1.21875 C 1.4375 -1.007812 1.453125 -0.867188 1.484375 -0.796875 C 1.515625 -0.734375 1.570312 -0.703125 1.65625 -0.703125 C 1.738281 -0.703125 1.796875 -0.738281 1.828125 -0.8125 C 1.859375 -0.894531 1.875 -1.046875 1.875 -1.265625 L 1.875 -1.828125 L 1.625 -1.828125 L 1.625 -2.546875 L 3.078125 -2.546875 L 3.078125 0 L 2.296875 0 L 2.1875 -0.34375 C 2.101562 -0.195312 1.992188 -0.0859375 1.859375 -0.015625 C 1.734375 0.0546875 1.585938 0.09375 1.421875 0.09375 C 1.210938 0.09375 1.015625 0.046875 0.828125 -0.046875 C 0.648438 -0.148438 0.515625 -0.273438 0.421875 -0.421875 C 0.328125 -0.566406 0.269531 -0.722656 0.25 -0.890625 C 0.226562 -1.054688 0.21875 -1.300781 0.21875 -1.625 L 0.21875 -3.03125 C 0.21875 -3.488281 0.238281 -3.816406 0.28125 -4.015625 C 0.332031 -4.222656 0.472656 -4.410156 0.703125 -4.578125 C 0.929688 -4.753906 1.234375 -4.84375 1.609375 -4.84375 C 1.960938 -4.84375 2.257812 -4.765625 2.5 -4.609375 C 2.738281 -4.460938 2.894531 -4.285156 2.96875 -4.078125 C 3.039062 -3.878906 3.078125 -3.585938 3.078125 -3.203125 Z M 3.078125 -3 "/>
</symbol>
<symbol overflow="visible" id="glyph0-2">
<path style="stroke:none;" d="M 1.421875 -3.890625 L 1.390625 -3.546875 C 1.492188 -3.679688 1.609375 -3.78125 1.734375 -3.84375 C 1.867188 -3.914062 2.007812 -3.953125 2.15625 -3.953125 C 2.34375 -3.953125 2.503906 -3.898438 2.640625 -3.796875 C 2.773438 -3.703125 2.859375 -3.59375 2.890625 -3.46875 C 2.921875 -3.34375 2.9375 -3.125 2.9375 -2.8125 L 2.9375 -1.171875 C 2.9375 -0.816406 2.914062 -0.566406 2.875 -0.421875 C 2.832031 -0.273438 2.742188 -0.15625 2.609375 -0.0625 C 2.484375 0.03125 2.328125 0.078125 2.140625 0.078125 C 1.992188 0.078125 1.859375 0.0390625 1.734375 -0.03125 C 1.609375 -0.101562 1.492188 -0.207031 1.390625 -0.34375 L 1.390625 0.546875 L 0.21875 0.546875 L 0.21875 -3.890625 Z M 1.75 -2.75 C 1.75 -3 1.738281 -3.144531 1.71875 -3.1875 C 1.707031 -3.238281 1.660156 -3.265625 1.578125 -3.265625 C 1.503906 -3.265625 1.453125 -3.234375 1.421875 -3.171875 C 1.398438 -3.117188 1.390625 -2.976562 1.390625 -2.75 L 1.390625 -1.140625 C 1.390625 -0.910156 1.398438 -0.765625 1.421875 -0.703125 C 1.453125 -0.648438 1.503906 -0.625 1.578125 -0.625 C 1.660156 -0.625 1.707031 -0.648438 1.71875 -0.703125 C 1.738281 -0.753906 1.75 -0.882812 1.75 -1.09375 Z M 1.75 -2.75 "/>
</symbol>
<symbol overflow="visible" id="glyph0-3">
<path style="stroke:none;" d="M 2.921875 -3.890625 L 2.921875 0 L 1.71875 0 L 1.734375 -0.328125 C 1.648438 -0.191406 1.546875 -0.0859375 1.421875 -0.015625 C 1.304688 0.046875 1.171875 0.078125 1.015625 0.078125 C 0.835938 0.078125 0.691406 0.046875 0.578125 -0.015625 C 0.460938 -0.0859375 0.375 -0.171875 0.3125 -0.265625 C 0.257812 -0.367188 0.222656 -0.476562 0.203125 -0.59375 C 0.191406 -0.707031 0.1875 -0.929688 0.1875 -1.265625 L 0.1875 -3.890625 L 1.375 -3.890625 L 1.375 -1.25 C 1.375 -0.9375 1.382812 -0.753906 1.40625 -0.703125 C 1.425781 -0.648438 1.476562 -0.625 1.5625 -0.625 C 1.644531 -0.625 1.691406 -0.648438 1.703125 -0.703125 C 1.722656 -0.765625 1.734375 -0.953125 1.734375 -1.265625 L 1.734375 -3.890625 Z M 2.921875 -3.890625 "/>
</symbol>
</g>
</defs>
<g id="surface1">
<path style=" stroke:none;fill-rule:evenodd;fill:rgb(30.196078%,30.196078%,30.196078%);fill-opacity:1;" d="M 3.96875 1.007812 L 13.03125 1.007812 C 14.664062 1.007812 15.992188 2.335938 15.992188 3.96875 L 15.992188 13.03125 C 15.992188 14.664062 14.664062 15.992188 13.03125 15.992188 L 3.96875 15.992188 C 2.335938 15.992188 1.007812 14.664062 1.007812 13.03125 L 1.007812 3.96875 C 1.007812 2.335938 2.335938 1.007812 3.96875 1.007812 Z M 3.96875 1.007812 "/>
<g style="fill:rgb(100%,24.705882%,25.882353%);fill-opacity:1;">
  <use xlink:href="#glyph0-1" x="2.683594" y="7.651581"/>
  <use xlink:href="#glyph0-2" x="5.874207" y="7.651581"/>
  <use xlink:href="#glyph0-3" x="8.878571" y="7.651581"/>
</g>
</g>
</svg>
