<?xml version="1.0" encoding="UTF-8"?>
<svg xmlns="http://www.w3.org/2000/svg" xmlns:xlink="http://www.w3.org/1999/xlink" width="17pt" height="17pt" viewBox="0 0 17 17" version="1.1">
<g id="surface1">
<path style=" stroke:none;fill-rule:evenodd;fill:rgb(0.784314%,52.54902%,76.078431%);fill-opacity:1;" d="M 12.128906 5.816406 C 12.101562 5.8125 12.078125 5.8125 12.050781 5.820312 L 12.050781 5.816406 C 12.035156 5.820312 12.011719 5.839844 11.996094 5.851562 C 11.425781 7.449219 10.863281 9.042969 10.289062 10.636719 C 10.605469 10.640625 10.929688 10.660156 11.242188 10.636719 C 11.796875 9.03125 12.367188 7.425781 12.929688 5.820312 C 12.6875 5.8125 12.449219 5.824219 12.207031 5.820312 C 12.183594 5.824219 12.15625 5.820312 12.128906 5.816406 Z M 12.128906 5.816406 "/>
<path style=" stroke:none;fill-rule:evenodd;fill:rgb(100%,100%,100%);fill-opacity:1;" d="M 8.023438 15.992188 C 8.582031 14.542969 9.261719 12.957031 9.746094 11.605469 C 10.398438 11.589844 11.046875 11.597656 11.699219 11.585938 C 11.90625 11.578125 12.167969 11.511719 12.390625 11.398438 C 12.617188 11.285156 12.808594 11.121094 12.878906 10.917969 C 13.429688 9.367188 13.980469 7.832031 14.511719 6.277344 C 14.597656 6.042969 14.652344 5.78125 14.582031 5.539062 C 14.488281 5.226562 14.203125 4.988281 13.898438 4.90625 C 13.628906 4.820312 13.363281 4.859375 13.089844 4.851562 C 12.25 4.851562 11.390625 4.84375 10.554688 4.835938 C 10.542969 4.863281 10.535156 4.929688 10.519531 4.957031 C 9.28125 8.4375 7.816406 12.421875 6.53125 15.992188 Z M 12.128906 5.816406 C 12.15625 5.820312 12.183594 5.824219 12.207031 5.820312 C 12.449219 5.824219 12.6875 5.8125 12.929688 5.820312 C 12.367188 7.425781 11.796875 9.03125 11.242188 10.636719 C 10.929688 10.660156 10.605469 10.640625 10.289062 10.636719 C 10.863281 9.042969 11.425781 7.449219 11.996094 5.851562 C 12.011719 5.839844 12.035156 5.820312 12.050781 5.816406 L 12.050781 5.820312 C 12.078125 5.8125 12.101562 5.8125 12.128906 5.816406 Z M 12.128906 5.816406 "/>
<path style=" stroke:none;fill-rule:evenodd;fill:rgb(0.784314%,52.54902%,76.078431%);fill-opacity:1;" d="M 6.148438 1.007812 L 3.972656 1.007812 C 2.328125 1.007812 1.007812 2.328125 1.007812 3.96875 L 1.007812 13.027344 C 1.007812 14.671875 2.328125 15.992188 3.972656 15.992188 L 6.53125 15.992188 C 7.816406 12.421875 9.28125 8.4375 10.519531 4.957031 C 10.535156 4.929688 10.542969 4.863281 10.554688 4.835938 C 11.390625 4.84375 12.25 4.851562 13.089844 4.851562 C 13.363281 4.859375 13.628906 4.820312 13.898438 4.90625 C 14.203125 4.988281 14.488281 5.226562 14.582031 5.539062 C 14.652344 5.78125 14.597656 6.042969 14.511719 6.277344 C 13.980469 7.832031 13.429688 9.367188 12.878906 10.917969 C 12.808594 11.121094 12.617188 11.285156 12.390625 11.398438 C 12.167969 11.511719 11.90625 11.578125 11.699219 11.585938 C 11.046875 11.597656 10.398438 11.589844 9.746094 11.605469 C 9.261719 12.957031 8.582031 14.542969 8.023438 15.992188 L 13.03125 15.992188 C 14.671875 15.992188 15.992188 14.671875 15.992188 13.027344 L 15.992188 3.96875 C 15.992188 2.328125 14.671875 1.007812 13.03125 1.007812 L 7.980469 1.007812 C 7.558594 2.207031 7.132812 3.425781 6.722656 4.59375 C 7.050781 4.605469 7.46875 4.636719 7.859375 4.738281 C 8.253906 4.839844 8.621094 5.011719 8.851562 5.308594 C 8.957031 5.449219 9.007812 5.625 9.011719 5.8125 C 9.019531 6 8.984375 6.195312 8.921875 6.363281 C 8.328125 8.03125 7.714844 9.691406 7.125 11.359375 C 6.601562 11.363281 6.082031 11.351562 5.5625 11.359375 C 5.488281 11.355469 5.417969 11.367188 5.347656 11.339844 C 6.015625 9.511719 6.664062 7.667969 7.320312 5.835938 C 7.007812 5.832031 6.699219 5.839844 6.386719 5.835938 C 6.339844 5.9375 6.300781 6.046875 6.265625 6.152344 C 5.660156 7.84375 5.054688 9.527344 4.453125 11.21875 C 4.425781 11.261719 4.433594 11.359375 4.363281 11.359375 C 3.867188 11.359375 3.367188 11.355469 2.871094 11.359375 C 2.78125 11.355469 2.695312 11.367188 2.605469 11.339844 C 3.785156 8.078125 4.96875 4.394531 6.148438 1.007812 Z M 6.148438 1.007812 "/>
<path style=" stroke:none;fill-rule:evenodd;fill:rgb(100%,100%,100%);fill-opacity:1;" d="M 6.148438 1.007812 C 4.96875 4.394531 3.785156 8.078125 2.605469 11.339844 C 2.695312 11.367188 2.78125 11.355469 2.871094 11.359375 C 3.367188 11.355469 3.867188 11.359375 4.363281 11.359375 C 4.433594 11.359375 4.425781 11.261719 4.453125 11.21875 C 5.054688 9.527344 5.660156 7.84375 6.265625 6.152344 C 6.300781 6.046875 6.339844 5.9375 6.386719 5.835938 C 6.699219 5.839844 7.007812 5.832031 7.320312 5.835938 C 6.664062 7.667969 6.015625 9.511719 5.347656 11.339844 C 5.417969 11.367188 5.488281 11.355469 5.5625 11.359375 C 6.082031 11.351562 6.601562 11.363281 7.125 11.359375 C 7.714844 9.691406 8.328125 8.03125 8.921875 6.363281 C 8.984375 6.195312 9.019531 6 9.011719 5.8125 C 9.007812 5.625 8.957031 5.449219 8.851562 5.308594 C 8.621094 5.011719 8.253906 4.839844 7.859375 4.738281 C 7.46875 4.636719 7.050781 4.605469 6.722656 4.59375 C 7.132812 3.425781 7.558594 2.207031 7.980469 1.007812 Z M 6.148438 1.007812 "/>
</g>
</svg>
