<?xml version="1.0" encoding="UTF-8"?>
<svg xmlns="http://www.w3.org/2000/svg" xmlns:xlink="http://www.w3.org/1999/xlink" width="17pt" height="17pt" viewBox="0 0 17 17" version="1.1">
<g id="surface1">
<path style=" stroke:none;fill-rule:evenodd;fill:rgb(95.686275%,70.588235%,0%);fill-opacity:1;" d="M 3.96875 1.007812 L 13.03125 1.007812 C 14.664062 1.007812 15.992188 2.335938 15.992188 3.96875 L 15.992188 13.03125 C 15.992188 14.664062 14.664062 15.992188 13.03125 15.992188 L 3.96875 15.992188 C 2.335938 15.992188 1.007812 14.664062 1.007812 13.03125 L 1.007812 3.96875 C 1.007812 2.335938 2.335938 1.007812 3.96875 1.007812 Z M 3.96875 1.007812 "/>
<path style=" stroke:none;fill-rule:nonzero;fill:rgb(100%,100%,100%);fill-opacity:1;" d="M 8.5 3.1875 C 6.445312 3.1875 4.78125 4.851562 4.78125 6.90625 C 4.78125 7.949219 5.210938 8.886719 5.902344 9.5625 L 5.84375 9.5625 L 5.84375 13.28125 L 6.90625 13.28125 L 6.90625 13.8125 L 10.09375 13.8125 L 10.09375 13.28125 L 11.15625 13.28125 L 11.15625 9.5625 L 11.09375 9.5625 C 11.785156 8.886719 12.21875 7.949219 12.21875 6.90625 C 12.21875 4.851562 10.554688 3.1875 8.5 3.1875 Z M 8.5 4.25 C 9.96875 4.25 11.15625 5.4375 11.15625 6.90625 C 11.15625 7.714844 10.796875 8.4375 10.226562 8.925781 C 9.761719 9.324219 9.160156 9.5625 8.5 9.5625 C 7.855469 9.5625 7.261719 9.332031 6.800781 8.949219 C 6.214844 8.460938 5.84375 7.726562 5.84375 6.90625 C 5.84375 5.4375 7.03125 4.25 8.5 4.25 Z M 6.90625 10.625 L 10.09375 10.625 L 10.09375 11.15625 L 6.90625 11.15625 Z M 6.90625 12.21875 L 10.09375 12.21875 L 10.09375 12.75 L 6.90625 12.75 Z M 6.90625 12.21875 "/>
</g>
</svg>
