<?xml version="1.0" encoding="UTF-8"?>
<svg xmlns="http://www.w3.org/2000/svg" xmlns:xlink="http://www.w3.org/1999/xlink" width="17pt" height="17pt" viewBox="0 0 17 17" version="1.1">
<defs>
<clipPath id="clip1">
  <rect width="17" height="17"/>
</clipPath>
<g id="surface6" clip-path="url(#clip1)">
<path style=" stroke:none;fill-rule:evenodd;fill:rgb(100%,100%,100%);fill-opacity:1;" d="M 12.007812 3.175781 C 13.175781 3.175781 14.121094 4.121094 14.121094 5.289062 C 14.121094 6.457031 13.175781 7.402344 12.007812 7.402344 C 10.839844 7.402344 9.894531 6.457031 9.894531 5.289062 C 9.894531 4.121094 10.839844 3.175781 12.007812 3.175781 Z M 12.007812 3.175781 "/>
</g>
</defs>
<g id="surface1">
<path style=" stroke:none;fill-rule:evenodd;fill:rgb(59.607843%,76.470588%,1.960784%);fill-opacity:1;" d="M 3.96875 1.007812 L 13.03125 1.007812 C 14.664062 1.007812 15.992188 2.335938 15.992188 3.96875 L 15.992188 13.03125 C 15.992188 14.664062 14.664062 15.992188 13.03125 15.992188 L 3.96875 15.992188 C 2.335938 15.992188 1.007812 14.664062 1.007812 13.03125 L 1.007812 3.96875 C 1.007812 2.335938 2.335938 1.007812 3.96875 1.007812 Z M 3.96875 1.007812 "/>
<path style=" stroke:none;fill-rule:evenodd;fill:rgb(59.607843%,76.470588%,1.960784%);fill-opacity:1;" d="M 4.644531 9.296875 C 4.0625 9.238281 3.398438 9.246094 2.589844 9.339844 C 2.148438 9.394531 1.542969 9.550781 1.007812 9.660156 L 1.007812 12.089844 C 1.449219 12.257812 1.964844 12.378906 2.59375 12.433594 C 3.976562 12.5625 5.742188 12.464844 7.601562 12.34375 C 9.457031 12.222656 11.410156 12.074219 13.160156 12.089844 C 14.035156 12.097656 14.859375 12.148438 15.597656 12.265625 C 15.75 12.289062 15.847656 12.351562 15.992188 12.378906 L 15.992188 11.484375 C 15.324219 11.507812 14.546875 11.574219 13.980469 11.5625 C 12.847656 11.539062 11.910156 11.445312 11.113281 11.308594 C 10.316406 11.167969 9.660156 10.988281 9.082031 10.792969 C 8.507812 10.59375 8.015625 10.382812 7.554688 10.179688 C 7.089844 9.976562 6.652344 9.785156 6.1875 9.628906 C 5.71875 9.472656 5.222656 9.351562 4.644531 9.296875 Z M 4.644531 9.296875 "/>
<path style=" stroke:none;fill-rule:evenodd;fill:rgb(100%,46.27451%,41.568627%);fill-opacity:1;" d="M 3.96875 1.007812 C 2.328125 1.007812 1.007812 2.328125 1.007812 3.96875 L 1.007812 9.660156 C 1.542969 9.550781 2.148438 9.394531 2.589844 9.339844 C 3.398438 9.246094 4.0625 9.238281 4.644531 9.296875 C 5.222656 9.351562 5.71875 9.472656 6.1875 9.628906 C 6.652344 9.785156 7.089844 9.976562 7.554688 10.179688 C 8.015625 10.382812 8.507812 10.59375 9.082031 10.792969 C 9.660156 10.988281 10.316406 11.167969 11.113281 11.308594 C 11.910156 11.445312 12.847656 11.539062 13.980469 11.5625 C 14.546875 11.574219 15.324219 11.507812 15.992188 11.484375 L 15.992188 3.96875 C 15.992188 2.328125 14.671875 1.007812 13.03125 1.007812 Z M 3.96875 1.007812 "/>
<use xlink:href="#surface6"/>
<path style=" stroke:none;fill-rule:evenodd;fill:rgb(67.843137%,85.882353%,11.764706%);fill-opacity:1;" d="M 15.992188 12.378906 C 9.660156 8.875 7.492188 12.683594 2.59375 12.433594 C 1.964844 12.378906 1.449219 12.257812 1.007812 12.089844 L 1.007812 13.03125 C 1.007812 14.671875 2.328125 15.992188 3.96875 15.992188 L 13.03125 15.992188 C 14.671875 15.992188 15.992188 14.671875 15.992188 13.03125 Z M 15.992188 12.378906 "/>
</g>
</svg>
