<?xml version="1.0" encoding="UTF-8"?>
<svg xmlns="http://www.w3.org/2000/svg" xmlns:xlink="http://www.w3.org/1999/xlink" width="17pt" height="17pt" viewBox="0 0 17 17" version="1.1">
<g id="surface1">
<path style=" stroke:none;fill-rule:evenodd;fill:rgb(37.254902%,48.627451%,54.117647%);fill-opacity:1;" d="M 1.007812 7.234375 L 1.007812 13.027344 C 1.007812 14.671875 2.328125 15.992188 3.96875 15.992188 L 13.027344 15.992188 C 14.671875 15.992188 15.992188 14.671875 15.992188 13.027344 L 15.992188 7.234375 Z M 1.007812 7.234375 "/>
<path style=" stroke:none;fill-rule:evenodd;fill:rgb(100%,100%,100%);fill-opacity:1;" d="M 1.007812 7.234375 L 15.992188 7.234375 L 15.992188 3.96875 C 15.992188 2.328125 14.671875 1.007812 13.027344 1.007812 L 3.96875 1.007812 C 2.328125 1.007812 1.007812 2.328125 1.007812 3.96875 Z M 1.007812 7.234375 "/>
<path style=" stroke:none;fill-rule:nonzero;fill:rgb(100%,100%,100%);fill-opacity:1;" d="M 13.101562 9.296875 C 13.101562 9.738281 12.742188 10.09375 12.304688 10.09375 C 11.863281 10.09375 11.507812 9.738281 11.507812 9.296875 C 11.507812 8.855469 11.863281 8.5 12.304688 8.5 C 12.742188 8.5 13.101562 8.855469 13.101562 9.296875 Z M 13.101562 9.296875 "/>
<path style=" stroke:none;fill-rule:nonzero;fill:rgb(6.27451%,76.470588%,43.137255%);fill-opacity:1;" d="M 5.839844 2.125 L 10.796875 2.125 C 11.191406 2.125 11.507812 2.453125 11.507812 2.863281 L 11.507812 8.039062 C 11.507812 9.144531 9.027344 9.886719 8.320312 10.625 C 7.609375 9.886719 5.132812 9.144531 5.132812 8.039062 L 5.132812 2.863281 C 5.132812 2.453125 5.449219 2.125 5.839844 2.125 Z M 5.839844 2.125 "/>
<path style=" stroke:none;fill-rule:nonzero;fill:rgb(100%,100%,100%);fill-opacity:1;" d="M 5.132812 9.296875 C 5.132812 9.738281 4.773438 10.09375 4.335938 10.09375 C 3.894531 10.09375 3.539062 9.738281 3.539062 9.296875 C 3.539062 8.855469 3.894531 8.5 4.335938 8.5 C 4.773438 8.5 5.132812 8.855469 5.132812 9.296875 Z M 5.132812 9.296875 "/>
<path style=" stroke:none;fill-rule:nonzero;fill:rgb(100%,100%,100%);fill-opacity:1;" d="M 4.070312 11.421875 C 4.070312 11.863281 3.710938 12.21875 3.273438 12.21875 C 2.832031 12.21875 2.476562 11.863281 2.476562 11.421875 C 2.476562 10.980469 2.832031 10.625 3.273438 10.625 C 3.710938 10.625 4.070312 10.980469 4.070312 11.421875 Z M 4.070312 11.421875 "/>
<path style=" stroke:none;fill-rule:nonzero;fill:rgb(100%,100%,100%);fill-opacity:1;" d="M 6.726562 11.421875 C 6.726562 11.863281 6.367188 12.21875 5.929688 12.21875 C 5.488281 12.21875 5.132812 11.863281 5.132812 11.421875 C 5.132812 10.980469 5.488281 10.625 5.929688 10.625 C 6.367188 10.625 6.726562 10.980469 6.726562 11.421875 Z M 6.726562 11.421875 "/>
<path style=" stroke:none;fill-rule:nonzero;fill:rgb(100%,100%,100%);fill-opacity:1;" d="M 9.382812 11.421875 C 9.382812 11.863281 9.023438 12.21875 8.585938 12.21875 C 8.144531 12.21875 7.789062 11.863281 7.789062 11.421875 C 7.789062 10.980469 8.144531 10.625 8.585938 10.625 C 9.023438 10.625 9.382812 10.980469 9.382812 11.421875 Z M 9.382812 11.421875 "/>
<path style=" stroke:none;fill-rule:nonzero;fill:rgb(100%,100%,100%);fill-opacity:1;" d="M 12.039062 11.421875 C 12.039062 11.863281 11.679688 12.21875 11.242188 12.21875 C 10.800781 12.21875 10.445312 11.863281 10.445312 11.421875 C 10.445312 10.980469 10.800781 10.625 11.242188 10.625 C 11.679688 10.625 12.039062 10.980469 12.039062 11.421875 Z M 12.039062 11.421875 "/>
<path style=" stroke:none;fill-rule:nonzero;fill:rgb(100%,100%,100%);fill-opacity:1;" d="M 14.695312 11.421875 C 14.695312 11.863281 14.335938 12.21875 13.898438 12.21875 C 13.457031 12.21875 13.101562 11.863281 13.101562 11.421875 C 13.101562 10.980469 13.457031 10.625 13.898438 10.625 C 14.335938 10.625 14.695312 10.980469 14.695312 11.421875 Z M 14.695312 11.421875 "/>
<path style=" stroke:none;fill-rule:nonzero;fill:rgb(29.803922%,38.823529%,43.137255%);fill-opacity:1;" d="M 2.863281 12.75 L 13.773438 12.75 C 13.988281 12.75 14.164062 12.929688 14.164062 13.148438 L 14.164062 13.945312 C 14.164062 14.164062 13.988281 14.34375 13.773438 14.34375 L 2.863281 14.34375 C 2.648438 14.34375 2.476562 14.164062 2.476562 13.945312 L 2.476562 13.148438 C 2.476562 12.929688 2.648438 12.75 2.863281 12.75 Z M 2.863281 12.75 "/>
<path style=" stroke:none;fill-rule:nonzero;fill:rgb(100%,100%,100%);fill-opacity:1;" d="M 9.140625 7.96875 L 8.09375 6.164062 L 7.683594 6.621094 L 7.683594 7.96875 L 6.726562 7.96875 L 6.726562 3.59375 L 7.679688 3.59375 L 7.679688 5.535156 L 9.09375 3.59375 L 10.207031 3.59375 L 8.714844 5.472656 L 10.269531 7.96875 Z M 9.140625 7.96875 "/>
</g>
</svg>
