<?xml version="1.0" encoding="UTF-8"?>
<svg xmlns="http://www.w3.org/2000/svg" xmlns:xlink="http://www.w3.org/1999/xlink" width="17pt" height="17pt" viewBox="0 0 17 17" version="1.1">
<g id="surface1">
<path style=" stroke:none;fill-rule:evenodd;fill:rgb(41.176471%,57.647059%,76.862745%);fill-opacity:1;" d="M 3.96875 1.007812 L 13.03125 1.007812 C 14.664062 1.007812 15.992188 2.335938 15.992188 3.96875 L 15.992188 13.03125 C 15.992188 14.664062 14.664062 15.992188 13.03125 15.992188 L 3.96875 15.992188 C 2.335938 15.992188 1.007812 14.664062 1.007812 13.03125 L 1.007812 3.96875 C 1.007812 2.335938 2.335938 1.007812 3.96875 1.007812 Z M 3.96875 1.007812 "/>
<path style=" stroke:none;fill-rule:evenodd;fill:rgb(100%,86.666667%,45.098039%);fill-opacity:1;" d="M 5.808594 3.410156 C 5.707031 3.402344 5.609375 3.449219 5.546875 3.53125 C 5.1875 3.992188 4.816406 4.609375 4.460938 5.164062 L 4.039062 4.4375 C 3.949219 4.285156 3.757812 4.234375 3.609375 4.324219 C 3.460938 4.410156 3.410156 4.601562 3.496094 4.75 L 4.171875 5.910156 C 4.226562 6.003906 4.324219 6.0625 4.433594 6.0625 C 4.539062 6.066406 4.640625 6.015625 4.703125 5.925781 C 5.140625 5.273438 5.640625 4.429688 6.039062 3.917969 C 6.113281 3.824219 6.128906 3.699219 6.082031 3.59375 C 6.03125 3.484375 5.929688 3.414062 5.808594 3.410156 Z M 5.808594 3.410156 "/>
<path style=" stroke:none;fill-rule:nonzero;fill:rgb(100%,86.666667%,45.098039%);fill-opacity:1;" d="M 7.171875 4.472656 L 13.015625 4.472656 C 13.308594 4.472656 13.546875 4.707031 13.546875 5.003906 C 13.546875 5.296875 13.308594 5.535156 13.015625 5.535156 L 7.171875 5.535156 C 6.878906 5.535156 6.640625 5.296875 6.640625 5.003906 C 6.640625 4.707031 6.878906 4.472656 7.171875 4.472656 Z M 7.171875 4.472656 "/>
<path style=" stroke:none;fill-rule:nonzero;fill:rgb(100%,86.666667%,45.098039%);fill-opacity:1;" d="M 7.171875 8.1875 L 13.015625 8.1875 C 13.308594 8.1875 13.546875 8.425781 13.546875 8.71875 C 13.546875 9.015625 13.308594 9.25 13.015625 9.25 L 7.171875 9.25 C 6.878906 9.25 6.640625 9.015625 6.640625 8.71875 C 6.640625 8.425781 6.878906 8.1875 7.171875 8.1875 Z M 7.171875 8.1875 "/>
<path style=" stroke:none;fill-rule:nonzero;fill:rgb(100%,86.666667%,45.098039%);fill-opacity:1;" d="M 5.046875 8.71875 C 5.046875 9.015625 4.808594 9.25 4.515625 9.25 C 4.222656 9.25 3.984375 9.015625 3.984375 8.71875 C 3.984375 8.425781 4.222656 8.1875 4.515625 8.1875 C 4.808594 8.1875 5.046875 8.425781 5.046875 8.71875 Z M 5.046875 8.71875 "/>
<path style=" stroke:none;fill-rule:nonzero;fill:rgb(100%,86.666667%,45.098039%);fill-opacity:1;" d="M 7.171875 11.375 L 13.015625 11.375 C 13.308594 11.375 13.546875 11.613281 13.546875 11.90625 C 13.546875 12.203125 13.308594 12.4375 13.015625 12.4375 L 7.171875 12.4375 C 6.878906 12.4375 6.640625 12.203125 6.640625 11.90625 C 6.640625 11.613281 6.878906 11.375 7.171875 11.375 Z M 7.171875 11.375 "/>
<path style=" stroke:none;fill-rule:nonzero;fill:rgb(100%,86.666667%,45.098039%);fill-opacity:1;" d="M 5.046875 11.90625 C 5.046875 12.203125 4.808594 12.4375 4.515625 12.4375 C 4.222656 12.4375 3.984375 12.203125 3.984375 11.90625 C 3.984375 11.613281 4.222656 11.375 4.515625 11.375 C 4.808594 11.375 5.046875 11.613281 5.046875 11.90625 Z M 5.046875 11.90625 "/>
</g>
</svg>
