<?xml version="1.0" encoding="UTF-8"?>
<svg xmlns="http://www.w3.org/2000/svg" xmlns:xlink="http://www.w3.org/1999/xlink" width="17pt" height="17pt" viewBox="0 0 17 17" version="1.1">
<g id="surface1">
<path style=" stroke:none;fill-rule:evenodd;fill:rgb(69.803922%,54.117647%,38.823529%);fill-opacity:1;" d="M 3.96875 1.007812 L 13.03125 1.007812 C 14.664062 1.007812 15.992188 2.335938 15.992188 3.96875 L 15.992188 13.03125 C 15.992188 14.664062 14.664062 15.992188 13.03125 15.992188 L 3.96875 15.992188 C 2.335938 15.992188 1.007812 14.664062 1.007812 13.03125 L 1.007812 3.96875 C 1.007812 2.335938 2.335938 1.007812 3.96875 1.007812 Z M 3.96875 1.007812 "/>
<path style=" stroke:none;fill-rule:nonzero;fill:rgb(100%,100%,100%);fill-opacity:1;" d="M 12.75 8.5 C 12.75 10.847656 10.847656 12.75 8.5 12.75 C 6.152344 12.75 4.25 10.847656 4.25 8.5 C 4.25 6.152344 6.152344 4.25 8.5 4.25 C 10.847656 4.25 12.75 6.152344 12.75 8.5 Z M 12.75 8.5 "/>
<path style=" stroke:none;fill-rule:nonzero;fill:rgb(99.607843%,87.058824%,48.235294%);fill-opacity:1;" d="M 4.515625 5.101562 C 3.792969 5.089844 3.296875 5.273438 3.085938 5.628906 C 2.476562 6.671875 4.40625 8.894531 7.398438 10.597656 C 10.386719 12.300781 13.304688 12.835938 13.914062 11.792969 C 14.253906 11.214844 13.804688 10.226562 12.699219 9.125 C 12.683594 9.214844 12.671875 9.308594 12.652344 9.394531 C 13.078125 10.015625 13.195312 10.542969 12.988281 10.90625 C 12.46875 11.796875 10.105469 11.417969 7.710938 10.058594 C 5.316406 8.699219 3.800781 6.871094 4.324219 5.976562 C 4.503906 5.675781 4.910156 5.511719 5.496094 5.503906 C 5.578125 5.421875 5.660156 5.339844 5.75 5.265625 C 5.296875 5.164062 4.878906 5.109375 4.515625 5.101562 Z M 4.515625 5.101562 "/>
</g>
</svg>
