<?xml version="1.0" encoding="UTF-8"?>
<svg xmlns="http://www.w3.org/2000/svg" xmlns:xlink="http://www.w3.org/1999/xlink" width="17pt" height="17pt" viewBox="0 0 17 17" version="1.1">
<g id="surface1">
<path style=" stroke:none;fill-rule:evenodd;fill:rgb(17.254902%,50.196078%,76.078431%);fill-opacity:1;" d="M 3.96875 1.007812 L 13.03125 1.007812 C 14.664062 1.007812 15.992188 2.335938 15.992188 3.96875 L 15.992188 13.03125 C 15.992188 14.664062 14.664062 15.992188 13.03125 15.992188 L 3.96875 15.992188 C 2.335938 15.992188 1.007812 14.664062 1.007812 13.03125 L 1.007812 3.96875 C 1.007812 2.335938 2.335938 1.007812 3.96875 1.007812 Z M 3.96875 1.007812 "/>
<path style=" stroke:none;fill-rule:nonzero;fill:rgb(21.568627%,62.745098%,94.901961%);fill-opacity:1;" d="M 14.078125 8.5 C 14.078125 11.582031 11.582031 14.078125 8.5 14.078125 C 5.417969 14.078125 2.921875 11.582031 2.921875 8.5 C 2.921875 5.417969 5.417969 2.921875 8.5 2.921875 C 11.582031 2.921875 14.078125 5.417969 14.078125 8.5 Z M 14.078125 8.5 "/>
<path style=" stroke:none;fill-rule:nonzero;fill:rgb(17.254902%,50.196078%,76.078431%);fill-opacity:1;" d="M 7.972656 2.949219 C 7.269531 3.015625 6.582031 3.214844 5.953125 3.535156 C 5.980469 3.625 5.949219 3.726562 5.847656 3.816406 C 5.777344 3.875 5.71875 3.96875 5.71875 4.023438 C 5.71875 4.191406 5.871094 4.449219 5.992188 4.484375 C 6.152344 4.535156 6.097656 4.707031 5.890625 4.800781 C 5.796875 4.84375 5.679688 4.96875 5.632812 5.082031 C 5.582031 5.191406 5.511719 5.300781 5.472656 5.324219 C 5.433594 5.34375 5.402344 5.429688 5.402344 5.515625 C 5.402344 5.628906 5.457031 5.6875 5.628906 5.753906 C 5.753906 5.804688 5.902344 5.84375 5.960938 5.835938 C 6.292969 5.804688 6.316406 6 6.027344 6.378906 C 5.871094 6.578125 5.796875 6.628906 5.691406 6.601562 C 5.59375 6.578125 5.542969 6.605469 5.496094 6.703125 C 5.449219 6.808594 5.371094 6.84375 5.167969 6.855469 C 4.964844 6.871094 4.871094 6.910156 4.796875 7.023438 C 4.738281 7.105469 4.660156 7.171875 4.617188 7.171875 C 4.574219 7.171875 4.472656 7.226562 4.394531 7.292969 C 4.230469 7.425781 4.167969 7.441406 4.109375 7.351562 C 4.035156 7.234375 3.871094 7.292969 3.628906 7.527344 C 3.414062 7.730469 3.386719 7.785156 3.421875 7.964844 C 3.476562 8.28125 3.648438 8.5625 3.847656 8.660156 C 4.019531 8.746094 4.019531 8.757812 3.917969 8.867188 C 3.855469 8.929688 3.753906 8.996094 3.6875 9.019531 C 3.5 9.074219 3.605469 9.148438 3.945312 9.191406 C 4.289062 9.234375 4.394531 9.359375 4.234375 9.527344 C 4.144531 9.625 4.148438 9.640625 4.292969 9.734375 C 4.574219 9.910156 4.800781 9.800781 4.535156 9.617188 C 4.367188 9.496094 4.484375 9.449219 4.734375 9.535156 C 4.933594 9.605469 4.972656 9.601562 5.089844 9.496094 C 5.332031 9.289062 5.59375 9.597656 5.371094 9.832031 C 5.230469 9.980469 5.273438 10.160156 5.457031 10.183594 C 5.535156 10.195312 5.703125 10.269531 5.828125 10.351562 C 5.953125 10.429688 6.085938 10.496094 6.128906 10.496094 C 6.167969 10.496094 6.28125 10.578125 6.382812 10.679688 C 6.585938 10.878906 6.699219 10.90625 6.753906 10.765625 C 6.824219 10.59375 6.796875 10.503906 6.609375 10.300781 C 6.464844 10.140625 6.226562 9.714844 6.226562 9.613281 C 6.226562 9.550781 6.46875 9.601562 6.605469 9.695312 C 6.6875 9.753906 6.828125 9.828125 6.910156 9.863281 C 7 9.898438 7.089844 10.011719 7.132812 10.136719 C 7.199219 10.328125 7.226562 10.347656 7.457031 10.347656 L 7.710938 10.347656 L 7.746094 10.800781 C 7.792969 11.34375 7.835938 11.457031 8.023438 11.5 C 8.164062 11.53125 8.308594 11.746094 8.308594 11.914062 C 8.308594 11.957031 8.210938 12.066406 8.089844 12.15625 C 7.9375 12.265625 7.875 12.359375 7.882812 12.449219 C 7.898438 12.5625 7.871094 12.582031 7.710938 12.570312 C 7.605469 12.5625 7.425781 12.597656 7.308594 12.652344 C 7.171875 12.710938 7.023438 12.730469 6.882812 12.707031 C 6.722656 12.679688 6.667969 12.6875 6.667969 12.753906 C 6.667969 12.796875 6.609375 12.886719 6.542969 12.945312 C 6.371094 13.089844 6.441406 13.167969 6.703125 13.121094 C 6.863281 13.09375 6.929688 13.105469 6.957031 13.175781 C 7.015625 13.324219 6.863281 13.535156 6.726562 13.5 C 6.636719 13.480469 6.59375 13.507812 6.566406 13.613281 C 6.554688 13.652344 6.539062 13.683594 6.519531 13.710938 C 6.804688 13.820312 7.101562 13.90625 7.402344 13.972656 C 7.371094 13.917969 7.339844 13.867188 7.308594 13.847656 C 7.167969 13.746094 7.261719 13.480469 7.460938 13.433594 C 7.664062 13.386719 7.628906 13.253906 7.410156 13.230469 C 7.21875 13.207031 7.015625 13.011719 7.078125 12.914062 C 7.121094 12.847656 7.304688 12.855469 7.675781 12.945312 C 7.84375 12.984375 7.960938 12.90625 8.347656 12.480469 C 8.574219 12.230469 8.746094 12.128906 8.9375 12.128906 C 9.011719 12.128906 9.269531 12.0625 9.511719 11.980469 C 9.972656 11.828125 10.152344 11.832031 10.136719 12 C 10.101562 12.351562 10.328125 12.339844 10.691406 11.972656 C 10.847656 11.820312 10.984375 11.710938 11.003906 11.726562 C 11.074219 11.792969 10.949219 12.121094 10.800781 12.253906 C 10.613281 12.421875 10.605469 12.527344 10.769531 12.613281 C 10.859375 12.65625 10.898438 12.75 10.910156 12.960938 L 10.929688 13.25 L 11.164062 13.25 C 11.246094 13.25 11.3125 13.257812 11.367188 13.28125 C 12.992188 12.304688 14.011719 10.570312 14.070312 8.675781 C 13.984375 8.492188 13.992188 8.382812 14.070312 8.257812 C 14.066406 8.152344 14.058594 8.050781 14.046875 7.945312 C 13.996094 7.941406 13.945312 7.941406 13.882812 7.941406 C 13.601562 7.953125 13.363281 7.84375 13.363281 7.703125 C 13.363281 7.671875 13.261719 7.550781 13.140625 7.429688 C 13 7.292969 12.929688 7.171875 12.953125 7.109375 C 12.96875 7.054688 12.929688 6.960938 12.859375 6.898438 C 12.789062 6.839844 12.730469 6.742188 12.730469 6.683594 C 12.730469 6.589844 12.671875 6.578125 12.242188 6.589844 L 11.75 6.601562 L 11.757812 7.082031 C 11.773438 7.925781 11.898438 8.144531 12.289062 8.003906 C 12.464844 7.941406 12.902344 7.988281 13.027344 8.085938 C 13.070312 8.125 13.136719 8.253906 13.171875 8.375 C 13.207031 8.496094 13.332031 8.710938 13.457031 8.847656 C 13.703125 9.125 13.722656 9.230469 13.582031 9.554688 C 13.457031 9.839844 13.324219 9.808594 13.351562 9.5 L 13.371094 9.269531 L 13.160156 9.308594 C 13.042969 9.332031 12.898438 9.417969 12.835938 9.5 C 12.742188 9.621094 12.699219 9.640625 12.628906 9.585938 C 12.582031 9.546875 12.542969 9.464844 12.542969 9.40625 C 12.542969 9.34375 12.480469 9.277344 12.410156 9.253906 C 12.335938 9.234375 12.238281 9.125 12.1875 9.011719 C 12.109375 8.832031 12.109375 8.777344 12.203125 8.558594 C 12.292969 8.335938 12.296875 8.300781 12.210938 8.21875 C 12.132812 8.144531 12.09375 8.140625 11.988281 8.203125 C 11.886719 8.265625 11.835938 8.261719 11.714844 8.179688 C 11.632812 8.125 11.488281 8.078125 11.398438 8.078125 C 11.207031 8.078125 11.152344 7.984375 11.152344 7.683594 C 11.152344 7.402344 10.984375 7.300781 10.585938 7.339844 C 10.3125 7.363281 10.25 7.34375 10.027344 7.175781 C 9.890625 7.070312 9.675781 6.8125 9.546875 6.609375 C 9.417969 6.402344 9.277344 6.1875 9.238281 6.128906 C 9.179688 6.046875 9.195312 5.96875 9.308594 5.746094 L 9.453125 5.464844 L 9.148438 5.503906 C 8.609375 5.578125 8.5 5.648438 8.734375 5.769531 C 8.824219 5.820312 8.828125 5.84375 8.757812 5.925781 C 8.710938 5.976562 8.691406 6.0625 8.710938 6.109375 C 8.730469 6.160156 8.703125 6.273438 8.652344 6.367188 C 8.605469 6.460938 8.5625 6.589844 8.558594 6.65625 C 8.554688 6.863281 8.199219 7.03125 7.800781 7.007812 C 7.199219 6.976562 7.152344 6.984375 6.9375 7.183594 C 6.671875 7.429688 6.636719 7.546875 6.761719 7.773438 C 6.882812 8 7.09375 8.085938 7.464844 8.070312 C 7.796875 8.050781 7.835938 8.082031 7.757812 8.300781 C 7.695312 8.488281 7.476562 8.558594 7.332031 8.441406 C 7.21875 8.351562 6.832031 8.421875 6.710938 8.550781 C 6.660156 8.605469 6.585938 8.75 6.546875 8.871094 C 6.476562 9.078125 6.457031 9.09375 6.144531 9.121094 C 5.832031 9.152344 5.800781 9.144531 5.578125 8.9375 C 5.328125 8.707031 5.285156 8.53125 5.40625 8.226562 C 5.457031 8.089844 5.5 8.070312 5.640625 8.097656 C 5.925781 8.148438 6.035156 8.050781 6.035156 7.746094 C 6.035156 7.601562 6.007812 7.464844 5.972656 7.441406 C 5.9375 7.421875 5.910156 7.34375 5.910156 7.269531 C 5.910156 7.195312 5.875 7.101562 5.832031 7.058594 C 5.765625 6.996094 5.777344 6.964844 5.878906 6.890625 C 5.945312 6.84375 6.058594 6.808594 6.128906 6.820312 C 6.199219 6.828125 6.390625 6.796875 6.558594 6.753906 C 6.796875 6.6875 6.867188 6.636719 6.898438 6.511719 C 6.960938 6.273438 7.109375 6.082031 7.234375 6.082031 C 7.433594 6.082031 7.4375 5.617188 7.246094 4.9375 C 7.21875 4.835938 7.140625 4.773438 7 4.738281 C 6.886719 4.710938 6.765625 4.632812 6.730469 4.570312 C 6.691406 4.503906 6.625 4.449219 6.578125 4.449219 C 6.535156 4.449219 6.445312 4.394531 6.382812 4.328125 C 6.320312 4.261719 6.1875 4.207031 6.089844 4.207031 C 5.851562 4.207031 5.847656 4.046875 6.082031 3.960938 C 6.328125 3.871094 6.714844 3.988281 6.808594 4.183594 C 6.933594 4.449219 7.074219 4.335938 7.117188 3.9375 C 7.171875 3.441406 7.34375 3.300781 7.882812 3.300781 L 8.269531 3.300781 L 8.101562 3.128906 C 8.046875 3.078125 8.003906 3.011719 7.972656 2.949219 Z M 9.980469 3.125 C 9.96875 3.136719 9.957031 3.144531 9.945312 3.15625 C 9.816406 3.285156 9.757812 3.304688 9.554688 3.273438 C 9.207031 3.222656 9.253906 3.363281 9.640625 3.53125 C 9.847656 3.625 9.980469 3.726562 10.027344 3.835938 C 10.25 4.34375 10.398438 4.621094 10.476562 4.648438 C 10.628906 4.707031 10.722656 4.589844 10.757812 4.300781 C 10.796875 3.96875 10.910156 3.898438 11.109375 4.078125 C 11.191406 4.148438 11.300781 4.207031 11.355469 4.207031 C 11.527344 4.207031 11.65625 4.277344 11.65625 4.371094 C 11.65625 4.421875 11.714844 4.539062 11.785156 4.636719 C 11.890625 4.777344 11.964844 4.8125 12.160156 4.8125 C 12.402344 4.8125 12.554688 4.859375 12.855469 5.027344 C 12.859375 5.027344 12.867188 5.027344 12.871094 5.03125 C 12.132812 4.105469 11.121094 3.4375 9.980469 3.125 Z M 2.921875 8.476562 C 2.921875 8.484375 2.921875 8.492188 2.921875 8.5 C 2.921875 8.859375 2.957031 9.21875 3.027344 9.570312 C 3.230469 9.652344 3.289062 9.621094 3.308594 9.433594 C 3.320312 9.335938 3.371094 9.226562 3.421875 9.1875 C 3.5 9.128906 3.488281 9.097656 3.324219 8.988281 C 3.21875 8.914062 3.113281 8.789062 3.09375 8.707031 C 3.070312 8.628906 3 8.542969 2.921875 8.476562 Z M 4.675781 10.320312 C 4.625 10.316406 4.5625 10.34375 4.492188 10.410156 C 4.34375 10.550781 4.367188 10.835938 4.535156 10.945312 C 4.726562 11.074219 4.800781 11.039062 4.824219 10.800781 C 4.855469 10.507812 4.792969 10.332031 4.675781 10.320312 Z M 5.625 11.164062 C 5.566406 11.164062 5.503906 11.207031 5.441406 11.292969 C 5.375 11.382812 5.355469 11.5 5.382812 11.679688 C 5.414062 11.898438 5.402344 11.945312 5.285156 12.003906 C 5.136719 12.078125 5.105469 12.304688 5.226562 12.417969 C 5.347656 12.535156 5.460938 12.503906 5.503906 12.347656 C 5.5625 12.121094 5.890625 12.097656 6.113281 12.296875 C 6.210938 12.382812 6.289062 12.425781 6.289062 12.394531 C 6.289062 12.363281 6.1875 12.242188 6.066406 12.128906 C 5.882812 11.957031 5.847656 11.882812 5.847656 11.660156 C 5.847656 11.34375 5.75 11.160156 5.625 11.164062 Z M 4.070312 11.882812 C 4.113281 11.9375 4.15625 11.992188 4.199219 12.046875 C 4.160156 11.988281 4.117188 11.933594 4.070312 11.882812 Z M 5.949219 12.742188 C 5.921875 12.75 5.910156 12.785156 5.910156 12.847656 C 5.910156 12.910156 5.871094 12.976562 5.820312 12.996094 C 5.753906 13.019531 5.738281 13.09375 5.765625 13.277344 C 5.769531 13.308594 5.769531 13.335938 5.773438 13.363281 C 5.847656 13.40625 5.925781 13.445312 6.003906 13.484375 C 6 13.386719 6.019531 13.273438 6.070312 13.132812 C 6.15625 12.890625 6.15625 12.828125 6.089844 12.785156 C 6.023438 12.746094 5.976562 12.730469 5.949219 12.742188 Z M 5.949219 12.742188 "/>
<path style=" stroke:none;fill-rule:nonzero;fill:rgb(71.764706%,71.764706%,71.764706%);fill-opacity:1;" d="M 13.1875 14.765625 L 8.957031 14.765625 L 8.957031 12.648438 L 13.1875 12.648438 Z M 13.1875 14.765625 "/>
<path style=" stroke:none;fill-rule:nonzero;fill:rgb(60%,60%,60%);fill-opacity:1;" d="M 13.734375 12.859375 L 8.40625 12.859375 C 8.246094 12.859375 8.113281 12.726562 8.113281 12.5625 L 8.113281 9.566406 C 8.113281 9.402344 8.246094 9.265625 8.40625 9.265625 L 13.734375 9.265625 C 13.898438 9.265625 14.03125 9.402344 14.03125 9.566406 L 14.03125 12.5625 C 14.03125 12.726562 13.898438 12.859375 13.734375 12.859375 Z M 13.734375 12.859375 "/>
<path style=" stroke:none;fill-rule:nonzero;fill:rgb(50.196078%,50.196078%,50.196078%);fill-opacity:1;" d="M 12.761719 12.015625 L 9.378906 12.015625 L 9.378906 11.59375 L 12.761719 11.59375 Z M 12.761719 12.015625 "/>
<path style=" stroke:none;fill-rule:nonzero;fill:rgb(50.196078%,50.196078%,50.196078%);fill-opacity:1;" d="M 12.339844 11.167969 L 9.804688 11.167969 L 9.804688 10.746094 L 12.339844 10.746094 Z M 12.339844 11.167969 "/>
<path style=" stroke:none;fill-rule:nonzero;fill:rgb(50.196078%,50.196078%,50.196078%);fill-opacity:1;" d="M 11.917969 10.324219 L 10.226562 10.324219 L 10.226562 9.902344 L 11.917969 9.902344 Z M 11.917969 10.324219 "/>
<path style=" stroke:none;fill-rule:nonzero;fill:rgb(50.196078%,50.196078%,50.196078%);fill-opacity:1;" d="M 12.761719 14.339844 L 11.707031 14.339844 L 11.707031 13.707031 L 12.761719 13.707031 Z M 12.761719 14.339844 "/>
<path style=" stroke:none;fill-rule:nonzero;fill:rgb(50.196078%,50.196078%,50.196078%);fill-opacity:1;" d="M 10.4375 14.339844 L 9.378906 14.339844 L 9.378906 13.707031 L 10.4375 13.707031 Z M 10.4375 14.339844 "/>
</g>
</svg>
