<?xml version="1.0" encoding="UTF-8"?>
<svg xmlns="http://www.w3.org/2000/svg" xmlns:xlink="http://www.w3.org/1999/xlink" width="17pt" height="17pt" viewBox="0 0 17 17" version="1.1">
<defs>
<clipPath id="clip1">
  <rect width="17" height="17"/>
</clipPath>
<g id="surface6" clip-path="url(#clip1)">
<path style=" stroke:none;fill-rule:nonzero;fill:rgb(30.196078%,30.196078%,30.196078%);fill-opacity:1;" d="M 7.257812 2.753906 C 7.167969 2.828125 7.148438 2.945312 7.148438 3.078125 C 7.148438 3.328125 7.234375 3.636719 7.277344 3.75 C 7.277344 3.75 7.34375 5.097656 7.363281 5.25 C 7.167969 5.269531 6.820312 5.289062 6.691406 5.328125 L 6.515625 5.328125 C 6.144531 5.347656 5.796875 5.367188 5.644531 5.5 L 5.578125 5.558594 L 5.644531 5.636719 C 5.753906 5.75 5.796875 6.078125 5.839844 6.421875 C 5.949219 7.136719 6.078125 8.019531 6.734375 8.363281 L 6.863281 8.421875 L 6.863281 8.289062 C 6.863281 8.289062 6.886719 8.230469 6.886719 8.152344 C 6.886719 8.097656 6.863281 8 6.84375 7.867188 C 7.015625 7.882812 7.386719 7.921875 7.519531 7.921875 C 7.539062 8.078125 8.105469 14.34375 8.105469 14.34375 L 8.324219 14.34375 C 8.324219 14.34375 8.5625 8.152344 8.5625 7.960938 C 8.714844 7.960938 9.390625 7.980469 9.589844 8 C 9.542969 8.117188 9.371094 8.597656 9.371094 8.597656 L 9.675781 8.347656 C 9.761719 8.289062 11.660156 6.769531 11.398438 5.769531 C 11.308594 5.445312 11.003906 5.210938 10.503906 5.097656 L 10.460938 5.097656 C 10.175781 5.097656 9.304688 5.117188 8.652344 5.15625 C 8.671875 4.65625 8.671875 4.386719 8.671875 4.25 L 8.671875 4.078125 C 8.671875 3.984375 8.78125 3.847656 8.867188 3.75 C 8.957031 3.636719 9.066406 3.539062 9.066406 3.425781 C 9.066406 3.386719 9.042969 3.347656 9.023438 3.308594 C 8.890625 3.136719 7.933594 2.695312 7.519531 2.65625 C 7.386719 2.675781 7.300781 2.695312 7.257812 2.753906 Z M 7.277344 5.90625 L 7.386719 5.90625 C 7.386719 6.078125 7.453125 7.289062 7.472656 7.460938 C 7.300781 7.441406 6.886719 7.402344 6.753906 7.402344 C 6.691406 7.152344 6.667969 6.886719 6.644531 6.617188 C 6.625 6.386719 6.601562 6.15625 6.558594 5.941406 C 6.753906 5.941406 7.277344 5.90625 7.277344 5.90625 Z M 8.609375 6.5 C 8.609375 6.5 8.628906 6.039062 8.628906 5.886719 C 8.914062 5.921875 9.28125 5.941406 9.632812 5.941406 L 10.023438 5.941406 C 10.023438 6.019531 10.003906 6.117188 10.003906 6.117188 C 9.957031 6.539062 9.894531 7.039062 9.695312 7.539062 C 9.566406 7.539062 8.761719 7.5 8.585938 7.480469 C 8.585938 7.347656 8.609375 6.5 8.609375 6.5 Z M 8.609375 6.5 "/>
</g>
</defs>
<g id="surface1">
<path style=" stroke:none;fill-rule:evenodd;fill:rgb(80%,80%,80%);fill-opacity:1;" d="M 3.96875 1.007812 L 13.03125 1.007812 C 14.664062 1.007812 15.992188 2.335938 15.992188 3.96875 L 15.992188 13.03125 C 15.992188 14.664062 14.664062 15.992188 13.03125 15.992188 L 3.96875 15.992188 C 2.335938 15.992188 1.007812 14.664062 1.007812 13.03125 L 1.007812 3.96875 C 1.007812 2.335938 2.335938 1.007812 3.96875 1.007812 Z M 3.96875 1.007812 "/>
<use xlink:href="#surface6"/>
</g>
</svg>
