<?xml version="1.0" encoding="UTF-8"?>
<svg xmlns="http://www.w3.org/2000/svg" xmlns:xlink="http://www.w3.org/1999/xlink" width="17pt" height="17pt" viewBox="0 0 17 17" version="1.1">
<g id="surface1">
<path style=" stroke:none;fill-rule:evenodd;fill:rgb(55.686275%,55.686275%,55.686275%);fill-opacity:1;" d="M 3.96875 1.007812 L 13.03125 1.007812 C 14.664062 1.007812 15.992188 2.335938 15.992188 3.96875 L 15.992188 13.03125 C 15.992188 14.664062 14.664062 15.992188 13.03125 15.992188 L 3.96875 15.992188 C 2.335938 15.992188 1.007812 14.664062 1.007812 13.03125 L 1.007812 3.96875 C 1.007812 2.335938 2.335938 1.007812 3.96875 1.007812 Z M 3.96875 1.007812 "/>
<path style="fill:none;stroke-width:1;stroke-linecap:butt;stroke-linejoin:miter;stroke:rgb(15.294118%,51.372549%,93.333333%);stroke-opacity:1;stroke-miterlimit:4;" d="M -10.126667 23.406667 L -28.126667 23.406667 L -28.126667 18.406667 L -17.126667 18.406667 L -17.126667 15.406667 L -23.126667 15.406667 " transform="matrix(0.53125,0,0,0.53125,18.926667,1.643333)"/>
<path style="fill:none;stroke-width:1;stroke-linecap:butt;stroke-linejoin:miter;stroke:rgb(93.333333%,53.333333%,15.294118%);stroke-opacity:1;stroke-miterlimit:4;" d="M -29.126667 2.406667 L -11.126667 2.406667 L -11.126667 7.406667 L -22.126667 7.406667 L -22.126667 10.406667 L -16.126667 10.406667 " transform="matrix(0.53125,0,0,0.53125,18.926667,1.643333)"/>
</g>
</svg>
