<?xml version="1.0" encoding="UTF-8"?>
<svg xmlns="http://www.w3.org/2000/svg" xmlns:xlink="http://www.w3.org/1999/xlink" width="17pt" height="17pt" viewBox="0 0 17 17" version="1.1">
<g id="surface1">
<path style=" stroke:none;fill-rule:evenodd;fill:rgb(93.72549%,35.294118%,18.823529%);fill-opacity:1;" d="M 3.96875 1.007812 L 13.03125 1.007812 C 14.664062 1.007812 15.992188 2.335938 15.992188 3.96875 L 15.992188 13.03125 C 15.992188 14.664062 14.664062 15.992188 13.03125 15.992188 L 3.96875 15.992188 C 2.335938 15.992188 1.007812 14.664062 1.007812 13.03125 L 1.007812 3.96875 C 1.007812 2.335938 2.335938 1.007812 3.96875 1.007812 Z M 3.96875 1.007812 "/>
<path style=" stroke:none;fill-rule:nonzero;fill:rgb(100%,100%,100%);fill-opacity:1;" d="M 3.984375 3.1875 L 3.984375 13.8125 L 6.109375 13.8125 L 6.109375 11.535156 L 7.4375 13.8125 L 9.828125 13.8125 L 7.871094 10.359375 L 9.828125 6.90625 L 7.4375 6.90625 L 6.109375 9.183594 L 6.109375 3.1875 Z M 10.625 6.90625 L 8.765625 10.09375 L 8.605469 10.359375 L 8.765625 10.625 L 10.625 13.8125 L 13.015625 13.8125 L 11.058594 10.359375 L 13.015625 6.90625 Z M 10.625 6.90625 "/>
</g>
</svg>
