<?xml version="1.0" encoding="UTF-8"?>
<svg xmlns="http://www.w3.org/2000/svg" xmlns:xlink="http://www.w3.org/1999/xlink" width="17pt" height="17pt" viewBox="0 0 17 17" version="1.1">
<g id="surface1">
<path style=" stroke:none;fill-rule:evenodd;fill:rgb(66.27451%,28.627451%,7.058824%);fill-opacity:1;" d="M 3.96875 1.007812 L 13.03125 1.007812 C 14.664062 1.007812 15.992188 2.335938 15.992188 3.96875 L 15.992188 13.03125 C 15.992188 14.664062 14.664062 15.992188 13.03125 15.992188 L 3.96875 15.992188 C 2.335938 15.992188 1.007812 14.664062 1.007812 13.03125 L 1.007812 3.96875 C 1.007812 2.335938 2.335938 1.007812 3.96875 1.007812 Z M 3.96875 1.007812 "/>
<path style=" stroke:none;fill-rule:nonzero;fill:rgb(92.941176%,64.313725%,34.509804%);fill-opacity:1;" d="M 7.4375 8.765625 L 9.5625 8.765625 L 9.03125 14.078125 L 7.96875 14.078125 Z M 7.4375 8.765625 "/>
<path style=" stroke:none;fill-rule:nonzero;fill:rgb(92.941176%,64.313725%,34.509804%);fill-opacity:1;" d="M 8.5 2.921875 C 6.738281 2.921875 5.3125 4.347656 5.3125 6.109375 C 5.3125 7.871094 6.738281 9.296875 8.5 9.296875 C 10.261719 9.296875 11.6875 7.871094 11.6875 6.109375 C 11.6875 4.347656 10.261719 2.921875 8.5 2.921875 Z M 8.5 3.453125 C 9.671875 3.453125 10.625 4.40625 10.625 5.578125 C 10.625 6.75 9.671875 7.703125 8.5 7.703125 C 7.328125 7.703125 6.375 6.75 6.375 5.578125 C 6.375 4.40625 7.328125 3.453125 8.5 3.453125 Z M 8.5 3.453125 "/>
<path style=" stroke:none;fill-rule:nonzero;fill:rgb(96.078431%,38.039216%,38.039216%);fill-opacity:1;" d="M 10.625 9.296875 L 10.625 10.359375 L 6.375 10.359375 L 6.375 9.296875 Z M 10.625 9.296875 "/>
</g>
</svg>
