<?xml version="1.0" encoding="UTF-8"?>
<svg xmlns="http://www.w3.org/2000/svg" xmlns:xlink="http://www.w3.org/1999/xlink" width="17pt" height="17pt" viewBox="0 0 17 17" version="1.1">
<g id="surface1">
<path style=" stroke:none;fill-rule:evenodd;fill:rgb(16.470588%,59.215686%,13.333333%);fill-opacity:1;" d="M 3.96875 1.007812 L 13.03125 1.007812 C 14.664062 1.007812 15.992188 2.335938 15.992188 3.96875 L 15.992188 13.03125 C 15.992188 14.664062 14.664062 15.992188 13.03125 15.992188 L 3.96875 15.992188 C 2.335938 15.992188 1.007812 14.664062 1.007812 13.03125 L 1.007812 3.96875 C 1.007812 2.335938 2.335938 1.007812 3.96875 1.007812 Z M 3.96875 1.007812 "/>
<path style=" stroke:none;fill-rule:evenodd;fill:rgb(52.156863%,0%,85.882353%);fill-opacity:1;" d="M 4.808594 15.992188 L 13.03125 15.992188 C 14.671875 15.992188 15.992188 14.671875 15.992188 13.03125 L 15.992188 4.640625 C 15.988281 4.890625 15.972656 5.136719 15.953125 5.386719 C 15.914062 5.777344 15.855469 6.164062 15.777344 6.550781 C 15.699219 6.9375 15.601562 7.320312 15.484375 7.695312 C 15.371094 8.070312 15.234375 8.441406 15.082031 8.804688 C 14.929688 9.167969 14.757812 9.519531 14.566406 9.867188 C 14.378906 10.210938 14.171875 10.546875 13.949219 10.871094 C 13.726562 11.199219 13.488281 11.511719 13.238281 11.8125 C 12.984375 12.113281 12.714844 12.402344 12.433594 12.675781 C 12.148438 12.949219 11.855469 13.210938 11.546875 13.453125 C 11.238281 13.699219 10.917969 13.929688 10.585938 14.140625 C 10.253906 14.355469 9.914062 14.550781 9.5625 14.730469 C 9.210938 14.90625 8.851562 15.070312 8.484375 15.210938 C 8.117188 15.355469 7.742188 15.476562 7.363281 15.582031 C 6.984375 15.6875 6.601562 15.773438 6.214844 15.839844 C 5.824219 15.90625 5.433594 15.957031 5.039062 15.984375 C 4.964844 15.988281 4.886719 15.988281 4.808594 15.992188 Z M 4.808594 15.992188 "/>
<path style=" stroke:none;fill-rule:evenodd;fill:rgb(33.72549%,19.215686%,83.137255%);fill-opacity:1;" d="M 4.808594 15.992188 C 4.886719 15.988281 4.964844 15.988281 5.039062 15.984375 C 5.433594 15.957031 5.824219 15.90625 6.214844 15.839844 C 6.601562 15.773438 6.984375 15.6875 7.363281 15.582031 C 7.742188 15.476562 8.117188 15.355469 8.484375 15.210938 C 8.851562 15.070312 9.210938 14.90625 9.5625 14.730469 C 9.914062 14.550781 10.253906 14.355469 10.585938 14.140625 C 10.917969 13.929688 11.238281 13.699219 11.546875 13.453125 C 11.855469 13.210938 12.148438 12.949219 12.433594 12.675781 C 12.714844 12.402344 12.984375 12.113281 13.238281 11.8125 C 13.488281 11.511719 13.726562 11.199219 13.949219 10.871094 C 14.171875 10.546875 14.378906 10.210938 14.566406 9.867188 C 14.757812 9.519531 14.929688 9.167969 15.082031 8.804688 C 15.234375 8.441406 15.371094 8.070312 15.484375 7.695312 C 15.601562 7.320312 15.699219 6.9375 15.777344 6.550781 C 15.855469 6.164062 15.914062 5.777344 15.953125 5.386719 C 15.972656 5.136719 15.988281 4.890625 15.992188 4.640625 L 15.992188 3.972656 C 15.992188 2.492188 14.933594 1.296875 13.582031 1.054688 C 13.632812 1.195312 13.710938 1.410156 13.753906 1.554688 C 13.84375 1.875 13.914062 2.195312 13.972656 2.519531 C 14.027344 2.847656 14.066406 3.175781 14.089844 3.503906 C 14.105469 3.738281 14.117188 3.972656 14.117188 4.207031 C 14.117188 4.535156 14.097656 4.867188 14.066406 5.195312 C 14.03125 5.523438 13.984375 5.851562 13.917969 6.175781 C 13.851562 6.5 13.769531 6.820312 13.671875 7.132812 C 13.574219 7.449219 13.460938 7.761719 13.332031 8.066406 C 13.203125 8.371094 13.058594 8.667969 12.902344 8.957031 C 12.742188 9.246094 12.570312 9.527344 12.382812 9.800781 C 12.199219 10.074219 11.996094 10.335938 11.785156 10.589844 C 11.570312 10.84375 11.347656 11.082031 11.109375 11.3125 C 10.871094 11.542969 10.625 11.761719 10.367188 11.96875 C 10.105469 12.171875 9.835938 12.367188 9.558594 12.542969 C 9.28125 12.722656 8.996094 12.886719 8.699219 13.039062 C 8.40625 13.1875 8.105469 13.324219 7.796875 13.441406 C 7.488281 13.5625 7.175781 13.667969 6.855469 13.753906 C 6.539062 13.84375 6.214844 13.914062 5.890625 13.972656 C 5.566406 14.027344 5.238281 14.066406 4.90625 14.089844 C 4.671875 14.105469 4.4375 14.117188 4.207031 14.117188 C 3.875 14.117188 3.546875 14.097656 3.214844 14.066406 C 2.886719 14.03125 2.5625 13.984375 2.238281 13.917969 C 1.914062 13.851562 1.59375 13.769531 1.277344 13.671875 C 1.226562 13.65625 1.121094 13.640625 1.074219 13.621094 C 1.351562 14.96875 2.539062 15.992188 3.96875 15.992188 Z M 4.808594 15.992188 "/>
<path style=" stroke:none;fill-rule:evenodd;fill:rgb(0.392157%,55.294118%,75.686275%);fill-opacity:1;" d="M 1.074219 13.621094 C 1.121094 13.640625 1.226562 13.65625 1.277344 13.671875 C 1.59375 13.769531 1.914062 13.851562 2.238281 13.917969 C 2.5625 13.984375 2.886719 14.03125 3.214844 14.066406 C 3.546875 14.097656 3.875 14.117188 4.207031 14.117188 C 4.4375 14.117188 4.671875 14.105469 4.90625 14.089844 C 5.238281 14.066406 5.566406 14.027344 5.890625 13.972656 C 6.214844 13.914062 6.539062 13.84375 6.855469 13.753906 C 7.175781 13.667969 7.488281 13.5625 7.796875 13.441406 C 8.105469 13.324219 8.40625 13.1875 8.699219 13.039062 C 8.996094 12.886719 9.28125 12.722656 9.558594 12.542969 C 9.835938 12.367188 10.105469 12.171875 10.367188 11.96875 C 10.625 11.761719 10.871094 11.542969 11.109375 11.3125 C 11.347656 11.082031 11.570312 10.84375 11.785156 10.589844 C 11.996094 10.335938 12.199219 10.074219 12.386719 9.800781 C 12.570312 9.527344 12.742188 9.246094 12.902344 8.957031 C 13.058594 8.667969 13.203125 8.371094 13.332031 8.066406 C 13.460938 7.761719 13.574219 7.449219 13.671875 7.132812 C 13.769531 6.820312 13.851562 6.5 13.917969 6.175781 C 13.984375 5.851562 14.03125 5.523438 14.066406 5.195312 C 14.097656 4.867188 14.117188 4.535156 14.117188 4.207031 C 14.117188 3.972656 14.105469 3.738281 14.089844 3.503906 C 14.066406 3.175781 14.027344 2.847656 13.972656 2.519531 C 13.914062 2.195312 13.84375 1.875 13.753906 1.554688 C 13.710938 1.410156 13.632812 1.195312 13.582031 1.054688 C 13.386719 1.011719 13.238281 1.007812 13.03125 1.007812 L 11.800781 1.007812 C 11.832031 1.078125 11.863281 1.148438 11.894531 1.21875 C 11.992188 1.472656 12.078125 1.734375 12.152344 2 C 12.226562 2.265625 12.289062 2.53125 12.332031 2.804688 C 12.378906 3.074219 12.414062 3.347656 12.433594 3.621094 C 12.449219 3.816406 12.453125 4.011719 12.453125 4.207031 C 12.453125 4.480469 12.441406 4.753906 12.414062 5.027344 C 12.386719 5.304688 12.34375 5.574219 12.289062 5.84375 C 12.234375 6.113281 12.167969 6.382812 12.085938 6.644531 C 12.003906 6.90625 11.910156 7.164062 11.800781 7.417969 C 11.695312 7.671875 11.578125 7.917969 11.445312 8.160156 C 11.3125 8.402344 11.167969 8.636719 11.015625 8.863281 C 10.859375 9.089844 10.691406 9.308594 10.515625 9.519531 C 10.335938 9.730469 10.148438 9.929688 9.953125 10.121094 C 9.753906 10.316406 9.546875 10.496094 9.332031 10.667969 C 9.117188 10.839844 8.894531 11 8.664062 11.148438 C 8.429688 11.296875 8.191406 11.433594 7.945312 11.558594 C 7.703125 11.683594 7.449219 11.792969 7.195312 11.894531 C 6.9375 11.992188 6.675781 12.078125 6.414062 12.152344 C 6.148438 12.226562 5.878906 12.289062 5.609375 12.332031 C 5.335938 12.378906 5.0625 12.414062 4.789062 12.433594 C 4.59375 12.449219 4.398438 12.453125 4.207031 12.453125 C 3.929688 12.453125 3.65625 12.441406 3.382812 12.414062 C 3.109375 12.386719 2.835938 12.34375 2.566406 12.289062 C 2.296875 12.234375 2.03125 12.167969 1.769531 12.085938 C 1.511719 12.007812 1.257812 11.914062 1.007812 11.808594 L 1.007812 13.03125 C 1.007812 13.238281 1.03125 13.425781 1.074219 13.621094 Z M 1.074219 13.621094 "/>
<path style=" stroke:none;fill-rule:evenodd;fill:rgb(16.470588%,59.215686%,13.333333%);fill-opacity:1;" d="M 1.007812 11.808594 C 1.257812 11.914062 1.511719 12.007812 1.769531 12.085938 C 2.03125 12.167969 2.296875 12.234375 2.566406 12.289062 C 2.835938 12.34375 3.109375 12.386719 3.382812 12.414062 C 3.65625 12.441406 3.929688 12.453125 4.207031 12.453125 C 4.398438 12.453125 4.59375 12.449219 4.789062 12.433594 C 5.0625 12.414062 5.335938 12.378906 5.609375 12.332031 C 5.878906 12.289062 6.148438 12.226562 6.414062 12.152344 C 6.675781 12.078125 6.9375 11.992188 7.195312 11.894531 C 7.449219 11.792969 7.703125 11.683594 7.945312 11.558594 C 8.191406 11.433594 8.429688 11.296875 8.664062 11.148438 C 8.894531 11 9.117188 10.839844 9.332031 10.667969 C 9.546875 10.496094 9.753906 10.316406 9.953125 10.121094 C 10.148438 9.929688 10.335938 9.730469 10.515625 9.519531 C 10.691406 9.308594 10.859375 9.089844 11.015625 8.863281 C 11.167969 8.636719 11.3125 8.402344 11.445312 8.160156 C 11.578125 7.917969 11.695312 7.671875 11.800781 7.417969 C 11.910156 7.164062 12.003906 6.90625 12.085938 6.644531 C 12.167969 6.382812 12.234375 6.113281 12.289062 5.84375 C 12.34375 5.574219 12.386719 5.304688 12.414062 5.027344 C 12.441406 4.753906 12.453125 4.480469 12.453125 4.207031 C 12.453125 4.011719 12.449219 3.816406 12.433594 3.621094 C 12.414062 3.347656 12.378906 3.074219 12.332031 2.804688 C 12.289062 2.53125 12.226562 2.265625 12.152344 2 C 12.078125 1.734375 11.992188 1.472656 11.894531 1.21875 C 11.863281 1.148438 11.832031 1.078125 11.800781 1.007812 L 9.773438 1.007812 C 9.832031 1.101562 9.886719 1.195312 9.9375 1.289062 C 10.035156 1.480469 10.121094 1.675781 10.199219 1.875 C 10.277344 2.074219 10.34375 2.28125 10.402344 2.484375 C 10.457031 2.691406 10.503906 2.902344 10.542969 3.113281 C 10.578125 3.324219 10.605469 3.535156 10.617188 3.75 C 10.628906 3.902344 10.636719 4.054688 10.636719 4.207031 C 10.636719 4.421875 10.625 4.632812 10.601562 4.847656 C 10.582031 5.0625 10.550781 5.273438 10.507812 5.484375 C 10.464844 5.695312 10.410156 5.902344 10.347656 6.105469 C 10.285156 6.3125 10.210938 6.511719 10.128906 6.710938 C 10.042969 6.90625 9.949219 7.101562 9.847656 7.289062 C 9.746094 7.476562 9.632812 7.660156 9.511719 7.835938 C 9.390625 8.011719 9.261719 8.183594 9.125 8.347656 C 8.984375 8.511719 8.839844 8.667969 8.6875 8.820312 C 8.53125 8.96875 8.371094 9.109375 8.203125 9.242188 C 8.035156 9.375 7.859375 9.5 7.679688 9.617188 C 7.5 9.730469 7.3125 9.839844 7.121094 9.9375 C 6.929688 10.035156 6.734375 10.121094 6.535156 10.199219 C 6.335938 10.277344 6.132812 10.34375 5.925781 10.402344 C 5.71875 10.457031 5.511719 10.503906 5.300781 10.542969 C 5.085938 10.578125 4.875 10.605469 4.660156 10.621094 C 4.507812 10.628906 4.355469 10.636719 4.207031 10.636719 C 3.992188 10.636719 3.777344 10.625 3.5625 10.601562 C 3.351562 10.582031 3.136719 10.550781 2.929688 10.507812 C 2.71875 10.464844 2.511719 10.410156 2.304688 10.347656 C 2.101562 10.285156 1.898438 10.210938 1.703125 10.128906 C 1.503906 10.042969 1.3125 9.949219 1.125 9.847656 C 1.085938 9.824219 1.046875 9.800781 1.007812 9.777344 Z M 1.007812 11.808594 "/>
<path style=" stroke:none;fill-rule:evenodd;fill:rgb(90.980392%,87.843137%,13.333333%);fill-opacity:1;" d="M 1.007812 9.777344 C 1.046875 9.800781 1.085938 9.824219 1.125 9.847656 C 1.3125 9.949219 1.503906 10.042969 1.703125 10.128906 C 1.898438 10.210938 2.101562 10.285156 2.304688 10.347656 C 2.511719 10.410156 2.71875 10.464844 2.929688 10.507812 C 3.136719 10.550781 3.351562 10.582031 3.5625 10.601562 C 3.777344 10.625 3.992188 10.636719 4.207031 10.636719 C 4.355469 10.636719 4.507812 10.628906 4.660156 10.621094 C 4.875 10.605469 5.085938 10.578125 5.300781 10.542969 C 5.511719 10.503906 5.71875 10.457031 5.925781 10.402344 C 6.132812 10.34375 6.335938 10.277344 6.535156 10.199219 C 6.734375 10.121094 6.929688 10.035156 7.121094 9.9375 C 7.3125 9.839844 7.5 9.730469 7.679688 9.617188 C 7.859375 9.5 8.035156 9.375 8.203125 9.242188 C 8.371094 9.109375 8.53125 8.96875 8.6875 8.820312 C 8.839844 8.667969 8.984375 8.511719 9.125 8.347656 C 9.261719 8.183594 9.390625 8.011719 9.511719 7.835938 C 9.632812 7.660156 9.746094 7.476562 9.847656 7.289062 C 9.949219 7.101562 10.042969 6.90625 10.128906 6.710938 C 10.210938 6.511719 10.285156 6.3125 10.347656 6.105469 C 10.410156 5.902344 10.464844 5.695312 10.507812 5.484375 C 10.550781 5.273438 10.582031 5.0625 10.601562 4.847656 C 10.625 4.632812 10.636719 4.421875 10.636719 4.207031 C 10.636719 4.054688 10.628906 3.902344 10.617188 3.75 C 10.605469 3.535156 10.578125 3.324219 10.542969 3.113281 C 10.503906 2.902344 10.457031 2.691406 10.402344 2.484375 C 10.34375 2.28125 10.277344 2.074219 10.199219 1.875 C 10.121094 1.675781 10.035156 1.480469 9.9375 1.289062 C 9.886719 1.195312 9.832031 1.101562 9.773438 1.007812 L 7.859375 1.007812 C 7.914062 1.066406 7.964844 1.125 8.015625 1.183594 C 8.113281 1.3125 8.210938 1.441406 8.296875 1.578125 C 8.382812 1.714844 8.464844 1.855469 8.539062 2 C 8.613281 2.144531 8.679688 2.292969 8.738281 2.445312 C 8.796875 2.59375 8.847656 2.75 8.890625 2.90625 C 8.933594 3.0625 8.96875 3.21875 8.996094 3.378906 C 9.023438 3.539062 9.042969 3.699219 9.054688 3.863281 C 9.0625 3.976562 9.066406 4.089844 9.066406 4.207031 C 9.066406 4.367188 9.058594 4.53125 9.042969 4.691406 C 9.027344 4.851562 9.003906 5.011719 8.96875 5.171875 C 8.9375 5.332031 8.898438 5.488281 8.851562 5.640625 C 8.800781 5.796875 8.746094 5.949219 8.683594 6.097656 C 8.621094 6.25 8.550781 6.394531 8.472656 6.535156 C 8.394531 6.679688 8.308594 6.816406 8.21875 6.949219 C 8.125 7.085938 8.027344 7.214844 7.925781 7.339844 C 7.820312 7.460938 7.710938 7.582031 7.59375 7.695312 C 7.476562 7.808594 7.355469 7.914062 7.226562 8.015625 C 7.101562 8.113281 6.96875 8.210938 6.832031 8.296875 C 6.695312 8.382812 6.554688 8.464844 6.410156 8.539062 C 6.265625 8.613281 6.117188 8.679688 5.96875 8.738281 C 5.816406 8.796875 5.664062 8.847656 5.507812 8.890625 C 5.351562 8.933594 5.191406 8.96875 5.03125 8.996094 C 4.871094 9.023438 4.710938 9.042969 4.550781 9.054688 C 4.433594 9.0625 4.320312 9.066406 4.207031 9.066406 C 4.042969 9.066406 3.882812 9.058594 3.722656 9.042969 C 3.558594 9.027344 3.398438 9.003906 3.242188 8.96875 C 3.082031 8.9375 2.925781 8.898438 2.769531 8.851562 C 2.613281 8.800781 2.460938 8.746094 2.3125 8.683594 C 2.164062 8.621094 2.015625 8.550781 1.875 8.472656 C 1.734375 8.394531 1.59375 8.308594 1.460938 8.21875 C 1.328125 8.125 1.199219 8.027344 1.074219 7.925781 C 1.050781 7.902344 1.03125 7.882812 1.007812 7.863281 Z M 1.007812 9.777344 "/>
<path style=" stroke:none;fill-rule:evenodd;fill:rgb(84.313725%,38.039216%,0%);fill-opacity:1;" d="M 1.007812 7.863281 C 1.03125 7.882812 1.050781 7.902344 1.074219 7.925781 C 1.199219 8.027344 1.328125 8.125 1.460938 8.21875 C 1.59375 8.308594 1.734375 8.394531 1.875 8.472656 C 2.015625 8.550781 2.164062 8.621094 2.3125 8.683594 C 2.460938 8.746094 2.613281 8.800781 2.769531 8.851562 C 2.925781 8.898438 3.082031 8.9375 3.242188 8.96875 C 3.398438 9.003906 3.558594 9.027344 3.722656 9.042969 C 3.882812 9.058594 4.042969 9.066406 4.207031 9.066406 C 4.320312 9.066406 4.433594 9.0625 4.550781 9.054688 C 4.710938 9.042969 4.871094 9.023438 5.03125 8.996094 C 5.191406 8.96875 5.351562 8.933594 5.507812 8.890625 C 5.664062 8.847656 5.816406 8.796875 5.96875 8.738281 C 6.117188 8.679688 6.265625 8.613281 6.410156 8.539062 C 6.554688 8.464844 6.695312 8.382812 6.832031 8.296875 C 6.96875 8.210938 7.101562 8.113281 7.226562 8.015625 C 7.355469 7.914062 7.476562 7.808594 7.59375 7.695312 C 7.710938 7.582031 7.820312 7.460938 7.925781 7.339844 C 8.027344 7.214844 8.125 7.085938 8.21875 6.949219 C 8.308594 6.816406 8.394531 6.679688 8.472656 6.535156 C 8.550781 6.394531 8.621094 6.25 8.683594 6.097656 C 8.746094 5.949219 8.800781 5.796875 8.851562 5.640625 C 8.898438 5.488281 8.9375 5.332031 8.96875 5.171875 C 9.003906 5.011719 9.027344 4.851562 9.042969 4.691406 C 9.058594 4.53125 9.066406 4.367188 9.066406 4.207031 C 9.066406 4.089844 9.0625 3.976562 9.054688 3.863281 C 9.042969 3.699219 9.023438 3.539062 8.996094 3.378906 C 8.96875 3.21875 8.933594 3.0625 8.890625 2.90625 C 8.847656 2.75 8.796875 2.59375 8.738281 2.445312 C 8.679688 2.292969 8.613281 2.144531 8.539062 2 C 8.464844 1.855469 8.382812 1.714844 8.296875 1.578125 C 8.210938 1.441406 8.113281 1.3125 8.015625 1.183594 C 7.964844 1.125 7.914062 1.066406 7.859375 1.007812 L 5.1875 1.007812 C 5.1875 1.007812 5.191406 1.011719 5.195312 1.011719 C 5.300781 1.042969 5.40625 1.082031 5.507812 1.125 C 5.609375 1.167969 5.710938 1.214844 5.808594 1.269531 C 5.90625 1.324219 6.003906 1.382812 6.09375 1.445312 C 6.1875 1.507812 6.273438 1.574219 6.359375 1.648438 C 6.445312 1.71875 6.527344 1.796875 6.605469 1.875 C 6.683594 1.953125 6.757812 2.039062 6.828125 2.125 C 6.894531 2.214844 6.960938 2.304688 7.019531 2.398438 C 7.082031 2.492188 7.136719 2.589844 7.1875 2.6875 C 7.238281 2.789062 7.28125 2.890625 7.324219 2.992188 C 7.363281 3.097656 7.398438 3.203125 7.429688 3.3125 C 7.460938 3.417969 7.484375 3.527344 7.503906 3.636719 C 7.523438 3.746094 7.535156 3.859375 7.542969 3.96875 C 7.546875 4.046875 7.550781 4.128906 7.550781 4.207031 C 7.550781 4.316406 7.546875 4.429688 7.535156 4.539062 C 7.523438 4.652344 7.507812 4.761719 7.484375 4.871094 C 7.460938 4.980469 7.433594 5.085938 7.402344 5.195312 C 7.367188 5.300781 7.332031 5.40625 7.285156 5.507812 C 7.242188 5.613281 7.195312 5.710938 7.140625 5.808594 C 7.089844 5.90625 7.03125 6.003906 6.964844 6.09375 C 6.902344 6.1875 6.835938 6.277344 6.765625 6.359375 C 6.691406 6.445312 6.617188 6.527344 6.535156 6.605469 C 6.457031 6.683594 6.375 6.757812 6.285156 6.828125 C 6.199219 6.894531 6.105469 6.960938 6.011719 7.019531 C 5.917969 7.082031 5.824219 7.136719 5.722656 7.1875 C 5.625 7.238281 5.523438 7.285156 5.417969 7.324219 C 5.3125 7.363281 5.207031 7.398438 5.101562 7.429688 C 4.992188 7.460938 4.882812 7.484375 4.773438 7.503906 C 4.664062 7.523438 4.554688 7.535156 4.441406 7.542969 C 4.363281 7.546875 4.285156 7.550781 4.207031 7.550781 C 4.09375 7.550781 3.984375 7.546875 3.871094 7.535156 C 3.761719 7.523438 3.652344 7.507812 3.542969 7.484375 C 3.433594 7.460938 3.324219 7.433594 3.21875 7.402344 C 3.109375 7.371094 3.007812 7.332031 2.902344 7.289062 C 2.800781 7.242188 2.699219 7.195312 2.601562 7.140625 C 2.503906 7.089844 2.410156 7.03125 2.316406 6.964844 C 2.226562 6.902344 2.136719 6.835938 2.050781 6.765625 C 1.964844 6.691406 1.882812 6.617188 1.804688 6.535156 C 1.730469 6.457031 1.65625 6.375 1.585938 6.285156 C 1.515625 6.199219 1.453125 6.105469 1.390625 6.011719 C 1.332031 5.917969 1.273438 5.824219 1.222656 5.722656 C 1.175781 5.625 1.128906 5.523438 1.089844 5.417969 C 1.058594 5.339844 1.03125 5.257812 1.007812 5.179688 Z M 1.007812 7.863281 "/>
<path style=" stroke:none;fill-rule:evenodd;fill:rgb(67.058824%,7.843137%,2.352941%);fill-opacity:1;" d="M 1.007812 5.179688 C 1.03125 5.257812 1.058594 5.339844 1.089844 5.417969 C 1.128906 5.523438 1.175781 5.625 1.222656 5.722656 C 1.273438 5.824219 1.332031 5.917969 1.390625 6.011719 C 1.453125 6.105469 1.515625 6.199219 1.585938 6.285156 C 1.65625 6.375 1.730469 6.457031 1.804688 6.535156 C 1.882812 6.617188 1.964844 6.691406 2.050781 6.765625 C 2.136719 6.835938 2.226562 6.902344 2.316406 6.964844 C 2.410156 7.03125 2.503906 7.089844 2.601562 7.140625 C 2.699219 7.195312 2.800781 7.242188 2.902344 7.285156 C 3.007812 7.332031 3.109375 7.367188 3.21875 7.402344 C 3.324219 7.433594 3.433594 7.460938 3.542969 7.484375 C 3.652344 7.507812 3.761719 7.523438 3.871094 7.535156 C 3.984375 7.546875 4.09375 7.550781 4.207031 7.550781 C 4.285156 7.550781 4.363281 7.546875 4.441406 7.542969 C 4.554688 7.535156 4.664062 7.523438 4.773438 7.503906 C 4.882812 7.484375 4.992188 7.460938 5.101562 7.429688 C 5.207031 7.398438 5.3125 7.363281 5.417969 7.324219 C 5.523438 7.28125 5.625 7.238281 5.722656 7.1875 C 5.824219 7.136719 5.917969 7.082031 6.011719 7.019531 C 6.105469 6.960938 6.199219 6.894531 6.285156 6.828125 C 6.375 6.757812 6.457031 6.683594 6.535156 6.605469 C 6.617188 6.527344 6.691406 6.445312 6.765625 6.359375 C 6.835938 6.273438 6.902344 6.1875 6.964844 6.09375 C 7.03125 6.003906 7.089844 5.90625 7.140625 5.808594 C 7.195312 5.710938 7.242188 5.609375 7.285156 5.507812 C 7.332031 5.40625 7.367188 5.300781 7.402344 5.195312 C 7.433594 5.085938 7.460938 4.980469 7.484375 4.871094 C 7.507812 4.761719 7.523438 4.652344 7.535156 4.539062 C 7.546875 4.429688 7.550781 4.316406 7.550781 4.207031 C 7.550781 4.128906 7.546875 4.046875 7.542969 3.96875 C 7.535156 3.859375 7.523438 3.746094 7.503906 3.636719 C 7.484375 3.527344 7.460938 3.417969 7.429688 3.3125 C 7.398438 3.203125 7.363281 3.097656 7.324219 2.992188 C 7.28125 2.890625 7.238281 2.789062 7.1875 2.6875 C 7.136719 2.589844 7.082031 2.492188 7.019531 2.398438 C 6.960938 2.304688 6.894531 2.214844 6.828125 2.125 C 6.757812 2.039062 6.683594 1.953125 6.605469 1.875 C 6.527344 1.796875 6.445312 1.71875 6.359375 1.648438 C 6.273438 1.574219 6.1875 1.507812 6.09375 1.445312 C 6.003906 1.382812 5.90625 1.324219 5.808594 1.269531 C 5.710938 1.214844 5.609375 1.167969 5.507812 1.125 C 5.40625 1.082031 5.300781 1.042969 5.195312 1.011719 C 5.191406 1.011719 5.1875 1.007812 5.1875 1.007812 L 3.96875 1.007812 C 2.328125 1.007812 1.007812 2.328125 1.007812 3.972656 Z M 1.007812 5.179688 "/>
<path style=" stroke:none;fill-rule:nonzero;fill:rgb(100%,100%,100%);fill-opacity:1;" d="M 4.765625 5.113281 L 4.765625 5.609375 L 5.429688 5.660156 L 5.535156 5.8125 L 4.46875 11.488281 L 4.304688 11.648438 L 3.632812 11.695312 L 3.632812 12.214844 L 6.582031 12.214844 L 6.582031 11.695312 L 5.929688 11.652344 L 5.8125 11.488281 L 6.25 9.109375 L 6.917969 9.109375 L 7.875 11.128906 C 8.269531 11.933594 8.542969 12.277344 9.390625 12.289062 C 9.632812 12.292969 9.730469 12.3125 10.390625 12.289062 C 12.65625 10.398438 13.8125 8.957031 13.996094 8.304688 C 14.105469 7.910156 13.929688 7.667969 13.554688 7.667969 C 13.371094 7.667969 13.160156 7.742188 12.921875 7.898438 L 12.753906 9.257812 C 12.289062 9.863281 11.671875 10.523438 10.917969 11.210938 L 11.414062 8.605469 C 11.519531 8.074219 11.550781 7.789062 11.207031 7.679688 L 9.660156 8.019531 L 9.578125 8.308594 L 10.292969 8.421875 C 10.34375 8.605469 10.285156 9.007812 10.179688 9.621094 L 9.832031 11.53125 C 9.828125 11.550781 9.824219 11.574219 9.820312 11.597656 C 9.59375 11.476562 9.453125 11.261719 9.289062 10.933594 L 7.933594 8.222656 L 10.414062 5.710938 L 11.257812 5.628906 L 11.257812 5.113281 L 8.609375 5.113281 L 8.609375 5.628906 L 9.265625 5.679688 L 9.328125 5.851562 L 6.671875 8.585938 L 6.355469 8.585938 L 6.878906 5.8125 L 7.019531 5.660156 L 7.71875 5.609375 L 7.71875 5.113281 Z M 4.765625 5.113281 "/>
</g>
</svg>
