<?xml version="1.0" encoding="UTF-8"?>
<svg xmlns="http://www.w3.org/2000/svg" xmlns:xlink="http://www.w3.org/1999/xlink" width="17pt" height="17pt" viewBox="0 0 17 17" version="1.1">
<defs>
<clipPath id="clip1">
  <rect width="17" height="17"/>
</clipPath>
<g id="surface6" clip-path="url(#clip1)">
<path style=" stroke:none;fill-rule:nonzero;fill:rgb(100%,100%,100%);fill-opacity:1;" d="M 4.582031 13.378906 L 4.582031 12.722656 L 9.804688 12.722656 L 9.804688 13.378906 Z M 4.582031 11.40625 L 4.582031 10.75 L 12.417969 10.75 L 12.417969 11.40625 Z M 4.582031 9.433594 L 4.582031 8.773438 L 12.417969 8.773438 L 12.417969 9.433594 Z M 4.582031 7.457031 L 4.582031 6.800781 L 12.417969 6.800781 L 12.417969 7.457031 Z M 4.582031 7.457031 "/>
</g>
</defs>
<g id="surface1">
<path style=" stroke:none;fill-rule:evenodd;fill:rgb(18.823529%,45.490196%,100%);fill-opacity:1;" d="M 15.992188 6.492188 L 15.992188 3.96875 C 15.992188 2.328125 14.671875 1.007812 13.03125 1.007812 L 10.507812 1.007812 Z M 15.992188 6.492188 "/>
<path style=" stroke:none;fill-rule:evenodd;fill:rgb(18.823529%,45.490196%,100%);fill-opacity:1;" d="M 9.621094 1.007812 L 3.972656 1.007812 C 2.328125 1.007812 1.007812 2.328125 1.007812 3.96875 L 1.007812 13.027344 C 1.007812 14.671875 2.328125 15.992188 3.972656 15.992188 L 13.03125 15.992188 C 14.671875 15.992188 15.992188 14.671875 15.992188 13.027344 L 15.992188 7.378906 Z M 9.621094 1.007812 "/>
<path style=" stroke:none;fill-rule:evenodd;fill:rgb(100%,100%,100%);fill-opacity:1;" d="M 9.621094 1.007812 L 15.992188 7.378906 L 15.992188 6.492188 L 10.507812 1.007812 Z M 9.621094 1.007812 "/>
<use xlink:href="#surface6"/>
</g>
</svg>
