<?xml version="1.0" encoding="UTF-8"?>
<svg xmlns="http://www.w3.org/2000/svg" xmlns:xlink="http://www.w3.org/1999/xlink" width="17pt" height="17pt" viewBox="0 0 17 17" version="1.1">
<defs>
<clipPath id="clip1">
  <rect width="17" height="17"/>
</clipPath>
<g id="surface6" clip-path="url(#clip1)">
<path style=" stroke:none;fill-rule:evenodd;fill:rgb(100%,100%,100%);fill-opacity:1;" d="M 12.007812 3.175781 C 13.175781 3.175781 14.121094 4.121094 14.121094 5.289062 C 14.121094 6.457031 13.175781 7.402344 12.007812 7.402344 C 10.84375 7.402344 9.894531 6.457031 9.894531 5.289062 C 9.894531 4.121094 10.84375 3.175781 12.007812 3.175781 Z M 12.007812 3.175781 "/>
</g>
</defs>
<g id="surface1">
<path style=" stroke:none;fill-rule:evenodd;fill:rgb(73.72549%,92.941176%,96.862745%);fill-opacity:1;" d="M 3.96875 1.007812 L 13.03125 1.007812 C 14.664062 1.007812 15.992188 2.335938 15.992188 3.96875 L 15.992188 13.03125 C 15.992188 14.664062 14.664062 15.992188 13.03125 15.992188 L 3.96875 15.992188 C 2.335938 15.992188 1.007812 14.664062 1.007812 13.03125 L 1.007812 3.96875 C 1.007812 2.335938 2.335938 1.007812 3.96875 1.007812 Z M 3.96875 1.007812 "/>
<path style=" stroke:none;fill-rule:evenodd;fill:rgb(73.72549%,92.941176%,96.862745%);fill-opacity:1;" d="M 3.96875 1.007812 C 2.328125 1.007812 1.007812 2.328125 1.007812 3.96875 L 1.007812 9.660156 C 1.542969 9.550781 2.148438 9.394531 2.589844 9.339844 C 3.398438 9.246094 4.0625 9.238281 4.644531 9.296875 C 5.222656 9.351562 5.71875 9.472656 6.1875 9.628906 C 6.652344 9.785156 7.089844 9.976562 7.554688 10.179688 C 8.015625 10.382812 8.507812 10.59375 9.082031 10.792969 C 9.660156 10.988281 10.316406 11.167969 11.113281 11.304688 C 11.910156 11.445312 12.847656 11.539062 13.980469 11.5625 C 14.546875 11.574219 15.324219 11.507812 15.992188 11.484375 L 15.992188 3.96875 C 15.992188 2.328125 14.671875 1.007812 13.03125 1.007812 Z M 3.96875 1.007812 "/>
<use xlink:href="#surface6"/>
<path style=" stroke:none;fill-rule:nonzero;fill:rgb(59.607843%,37.647059%,1.960784%);fill-opacity:1;" d="M 7.871094 10.757812 L 8.359375 10.757812 L 8.359375 11.492188 L 7.871094 11.492188 Z M 7.871094 10.757812 "/>
<path style=" stroke:none;fill-rule:nonzero;fill:rgb(45.490196%,63.137255%,5.098039%);fill-opacity:1;" d="M 9.171875 11.042969 L 7.105469 11.042969 L 8.136719 9.253906 Z M 9.171875 11.042969 "/>
<path style=" stroke:none;fill-rule:nonzero;fill:rgb(59.607843%,76.470588%,1.960784%);fill-opacity:1;" d="M 9.007812 10.414062 L 7.230469 10.414062 L 8.121094 8.875 Z M 9.007812 10.414062 "/>
<path style=" stroke:none;fill-rule:nonzero;fill:rgb(67.843137%,85.882353%,11.764706%);fill-opacity:1;" d="M 8.847656 9.710938 L 7.4375 9.710938 L 8.140625 8.488281 Z M 8.847656 9.710938 "/>
<path style=" stroke:none;fill-rule:evenodd;fill:rgb(59.215686%,77.647059%,2.745098%);fill-opacity:1;" d="M 10.261719 10.921875 C 7.648438 11.160156 5.652344 12.589844 2.59375 12.433594 C 1.964844 12.378906 1.449219 12.257812 1.007812 12.089844 L 1.007812 13.03125 C 1.007812 13.367188 1.0625 13.6875 1.164062 13.984375 C 1.660156 13.71875 2.191406 13.496094 2.683594 13.375 C 3.238281 13.238281 3.789062 13.179688 4.34375 13.175781 C 5.453125 13.160156 6.578125 13.351562 7.765625 13.519531 C 8.359375 13.601562 8.964844 13.675781 9.59375 13.71875 C 10.222656 13.757812 10.875 13.765625 11.554688 13.707031 C 12.230469 13.652344 12.9375 13.53125 13.671875 13.320312 C 14.410156 13.109375 15.183594 12.804688 15.992188 12.378906 C 13.617188 11.066406 11.828125 10.777344 10.261719 10.921875 Z M 10.261719 10.921875 "/>
<path style=" stroke:none;fill-rule:nonzero;fill:rgb(59.607843%,37.647059%,1.960784%);fill-opacity:1;" d="M 3.929688 11.792969 L 5.167969 11.792969 L 5.167969 13.648438 L 3.929688 13.648438 Z M 3.929688 11.792969 "/>
<path style=" stroke:none;fill-rule:nonzero;fill:rgb(45.490196%,63.137255%,5.098039%);fill-opacity:1;" d="M 7.226562 12.507812 L 1.992188 12.507812 L 4.609375 7.976562 Z M 7.226562 12.507812 "/>
<path style=" stroke:none;fill-rule:nonzero;fill:rgb(59.607843%,76.470588%,1.960784%);fill-opacity:1;" d="M 6.8125 10.917969 L 2.316406 10.917969 L 4.5625 7.027344 Z M 6.8125 10.917969 "/>
<path style=" stroke:none;fill-rule:nonzero;fill:rgb(67.843137%,85.882353%,11.764706%);fill-opacity:1;" d="M 6.40625 9.132812 L 2.832031 9.132812 L 4.621094 6.035156 Z M 6.40625 9.132812 "/>
<path style=" stroke:none;fill-rule:evenodd;fill:rgb(45.490196%,63.137255%,5.098039%);fill-opacity:1;" d="M 15.992188 12.378906 C 15.183594 12.804688 14.410156 13.109375 13.671875 13.320312 C 12.9375 13.53125 12.230469 13.652344 11.554688 13.707031 C 10.875 13.765625 10.222656 13.757812 9.59375 13.71875 C 8.964844 13.675781 8.359375 13.601562 7.765625 13.519531 C 6.578125 13.351562 5.453125 13.160156 4.34375 13.175781 C 3.789062 13.179688 3.238281 13.238281 2.683594 13.375 C 2.191406 13.496094 1.660156 13.71875 1.164062 13.984375 C 1.558594 15.15625 2.664062 15.992188 3.96875 15.992188 L 13.03125 15.992188 C 14.671875 15.992188 15.992188 14.671875 15.992188 13.03125 Z M 15.992188 12.378906 "/>
</g>
</svg>
