<?xml version="1.0" encoding="UTF-8"?>
<svg xmlns="http://www.w3.org/2000/svg" xmlns:xlink="http://www.w3.org/1999/xlink" width="17pt" height="17pt" viewBox="0 0 17 17" version="1.1">
<defs>
<filter id="alpha" filterUnits="objectBoundingBox" x="0%" y="0%" width="100%" height="100%">
  <feColorMatrix type="matrix" in="SourceGraphic" values="0 0 0 0 1 0 0 0 0 1 0 0 0 0 1 0 0 0 1 0"/>
</filter>
<mask id="mask0">
  <g filter="url(#alpha)">
<rect x="0" y="0" width="17" height="17" style="fill:rgb(0%,0%,0%);fill-opacity:0.988235;stroke:none;"/>
  </g>
</mask>
<clipPath id="clip1">
  <rect width="17" height="17"/>
</clipPath>
<g id="surface6" clip-path="url(#clip1)">
<path style=" stroke:none;fill-rule:nonzero;fill:rgb(55.686275%,55.686275%,55.686275%);fill-opacity:1;" d="M 2.65625 13.164062 L 10.09375 13.164062 C 10.386719 13.164062 10.625 13.402344 10.625 13.695312 C 10.625 13.988281 10.386719 14.226562 10.09375 14.226562 L 2.65625 14.226562 C 2.363281 14.226562 2.125 13.988281 2.125 13.695312 C 2.125 13.402344 2.363281 13.164062 2.65625 13.164062 Z M 2.65625 13.164062 "/>
</g>
</defs>
<g id="surface1">
<path style=" stroke:none;fill-rule:evenodd;fill:rgb(80%,80%,80%);fill-opacity:1;" d="M 15.992188 11.667969 L 1.007812 11.667969 L 1.007812 13.03125 C 1.007812 14.671875 2.328125 15.992188 3.972656 15.992188 L 13.03125 15.992188 C 14.671875 15.992188 15.992188 14.671875 15.992188 13.03125 Z M 15.992188 11.667969 "/>
<path style=" stroke:none;fill-rule:evenodd;fill:rgb(55.686275%,55.686275%,55.686275%);fill-opacity:1;" d="M 3.972656 1.007812 C 2.328125 1.007812 1.007812 2.328125 1.007812 3.972656 L 1.007812 11.667969 L 15.992188 11.667969 L 15.992188 3.972656 C 15.992188 2.328125 14.671875 1.007812 13.03125 1.007812 Z M 3.972656 1.007812 "/>
<path style=" stroke:none;fill-rule:nonzero;fill:rgb(100%,100%,100%);fill-opacity:1;" d="M 6.789062 4.367188 C 6.660156 4.367188 6.554688 4.472656 6.554688 4.601562 L 6.554688 9.441406 C 6.554688 9.621094 6.746094 9.734375 6.902344 9.648438 L 11.332031 7.230469 C 11.496094 7.140625 11.496094 6.90625 11.332031 6.816406 L 7.347656 4.636719 L 6.902344 4.394531 C 6.867188 4.378906 6.828125 4.367188 6.789062 4.367188 Z M 6.789062 4.367188 "/>
<path style=" stroke:none;fill-rule:nonzero;fill:rgb(60%,60%,60%);fill-opacity:1;" d="M 11.15625 13.164062 L 14.34375 13.164062 C 14.636719 13.164062 14.875 13.402344 14.875 13.695312 C 14.875 13.988281 14.636719 14.226562 14.34375 14.226562 L 11.15625 14.226562 C 10.863281 14.226562 10.625 13.988281 10.625 13.695312 C 10.625 13.402344 10.863281 13.164062 11.15625 13.164062 Z M 11.15625 13.164062 "/>
<use xlink:href="#surface6" mask="url(#mask0)"/>
<path style=" stroke:none;fill-rule:nonzero;fill:rgb(100%,100%,100%);fill-opacity:1;" d="M 11.6875 13.695312 C 11.6875 14.28125 11.210938 14.757812 10.625 14.757812 C 10.039062 14.757812 9.5625 14.28125 9.5625 13.695312 C 9.5625 13.109375 10.039062 12.632812 10.625 12.632812 C 11.210938 12.632812 11.6875 13.109375 11.6875 13.695312 Z M 11.6875 13.695312 "/>
</g>
</svg>
