<?xml version="1.0" encoding="UTF-8"?>
<svg xmlns="http://www.w3.org/2000/svg" xmlns:xlink="http://www.w3.org/1999/xlink" width="17pt" height="17pt" viewBox="0 0 17 17" version="1.1">
<g id="surface1">
<path style=" stroke:none;fill-rule:evenodd;fill:rgb(89.019608%,18.039216%,18.039216%);fill-opacity:1;" d="M 3.96875 1.007812 L 13.03125 1.007812 C 14.664062 1.007812 15.992188 2.335938 15.992188 3.96875 L 15.992188 13.03125 C 15.992188 14.664062 14.664062 15.992188 13.03125 15.992188 L 3.96875 15.992188 C 2.335938 15.992188 1.007812 14.664062 1.007812 13.03125 L 1.007812 3.96875 C 1.007812 2.335938 2.335938 1.007812 3.96875 1.007812 Z M 3.96875 1.007812 "/>
<path style="fill:none;stroke-width:3;stroke-linecap:round;stroke-linejoin:round;stroke:rgb(100%,100%,100%);stroke-opacity:1;stroke-miterlimit:4;" d="M 13.169118 8.463235 C 8.227941 10.742647 6.911765 14.485294 7.786765 18.323529 C 9.772059 27.066176 16.544118 25.404412 17.720588 25.213235 C 19.669118 24.882353 23.558824 23.948529 24.345588 19.088235 C 25.147059 14.117647 21.904412 12.154412 19.955882 11.720588 C 17.5 11.183824 15.485294 11.522059 14.367647 13.257353 C 13.338235 14.860294 13.25 16.845588 13.904412 18.176471 C 14.5 19.397059 15.051471 19.441176 15.977941 19.463235 C 19.161765 19.529412 19.588235 18.073529 19.242647 16.205882 C 18.441176 12.242647 16.580882 11.117647 17.220588 8.058824 C 17.875 5.992647 20.022059 6.279412 21.470588 7.455882 " transform="matrix(0.53125,0,0,0.53125,0,0)"/>
</g>
</svg>
