<?xml version="1.0" encoding="UTF-8"?>
<svg xmlns="http://www.w3.org/2000/svg" xmlns:xlink="http://www.w3.org/1999/xlink" width="17pt" height="17pt" viewBox="0 0 17 17" version="1.1">
<g id="surface1">
<path style=" stroke:none;fill-rule:evenodd;fill:rgb(59.215686%,28.235294%,87.058824%);fill-opacity:1;" d="M 3.96875 1.007812 L 13.03125 1.007812 C 14.664062 1.007812 15.992188 2.335938 15.992188 3.96875 L 15.992188 13.03125 C 15.992188 14.664062 14.664062 15.992188 13.03125 15.992188 L 3.96875 15.992188 C 2.335938 15.992188 1.007812 14.664062 1.007812 13.03125 L 1.007812 3.96875 C 1.007812 2.335938 2.335938 1.007812 3.96875 1.007812 Z M 3.96875 1.007812 "/>
<path style=" stroke:none;fill-rule:nonzero;fill:rgb(62.745098%,100%,31.372549%);fill-opacity:1;" d="M 8.5 3.1875 C 5.566406 3.1875 3.1875 5.566406 3.1875 8.5 C 3.1875 11.433594 5.566406 13.8125 8.5 13.8125 C 11.433594 13.8125 13.8125 11.433594 13.8125 8.5 C 13.8125 5.566406 11.433594 3.1875 8.5 3.1875 Z M 8.003906 4.246094 C 8.0625 4.242188 8.132812 4.25 8.191406 4.246094 C 8.199219 4.273438 8.152344 4.375 8.085938 4.519531 C 7.664062 5.433594 7.640625 6.507812 8.03125 7.082031 C 8.101562 7.1875 8.164062 7.285156 8.164062 7.296875 C 8.164062 7.3125 8.089844 7.324219 8.003906 7.324219 C 7.800781 7.324219 7.609375 7.203125 7.21875 6.894531 C 7.046875 6.757812 6.820312 6.640625 6.734375 6.625 C 6.597656 6.597656 6.5625 6.609375 6.382812 6.785156 C 6.21875 6.949219 6.167969 7.039062 6.167969 7.191406 C 6.167969 7.765625 6.847656 8.21875 8.113281 8.488281 C 9.828125 8.851562 10.25 9.175781 10.296875 10.078125 C 10.359375 11.210938 9.753906 12.0625 8.4375 12.726562 C 8.277344 12.804688 8.179688 12.835938 8.113281 12.859375 C 8.082031 12.859375 8.058594 12.863281 8.03125 12.859375 C 8.019531 12.824219 8.003906 12.746094 8.003906 12.589844 C 8.003906 11.988281 7.765625 11.371094 7.410156 11.023438 C 7.3125 10.929688 7.046875 10.734375 6.816406 10.59375 C 6.585938 10.449219 6.355469 10.285156 6.300781 10.214844 C 6.214844 10.097656 6.210938 10.027344 6.277344 9.808594 C 6.394531 9.414062 6.539062 9.195312 6.816406 8.945312 C 6.960938 8.8125 7.109375 8.707031 7.140625 8.703125 C 7.171875 8.699219 6.953125 8.632812 6.628906 8.566406 C 6.300781 8.5 5.820312 8.359375 5.574219 8.269531 C 5.121094 8.105469 4.511719 7.761719 4.277344 7.515625 C 4.265625 7.503906 4.257812 7.496094 4.25 7.488281 C 4.582031 6.160156 5.519531 5.070312 6.761719 4.542969 C 7.019531 4.433594 7.289062 4.359375 7.570312 4.300781 C 7.710938 4.273438 7.859375 4.261719 8.003906 4.246094 Z M 12.054688 6.273438 C 12.15625 6.335938 12.539062 7.164062 12.648438 7.570312 C 12.789062 8.089844 12.78125 8.992188 12.648438 9.511719 C 12.597656 9.710938 12.535156 9.894531 12.511719 9.917969 C 12.492188 9.941406 12.414062 9.808594 12.324219 9.648438 C 12.230469 9.488281 11.945312 9.144531 11.703125 8.890625 C 11.007812 8.160156 10.898438 7.777344 11.1875 7.191406 C 11.335938 6.898438 11.976562 6.222656 12.054688 6.273438 Z M 12.054688 6.273438 "/>
</g>
</svg>
