<?xml version="1.0" encoding="UTF-8"?>
<svg xmlns="http://www.w3.org/2000/svg" xmlns:xlink="http://www.w3.org/1999/xlink" width="17pt" height="17pt" viewBox="0 0 17 17" version="1.1">
<g id="surface1">
<path style=" stroke:none;fill-rule:evenodd;fill:rgb(100%,100%,74.901961%);fill-opacity:1;" d="M 1.007812 6.925781 L 1.007812 13.03125 C 1.007812 14.671875 2.328125 15.992188 3.96875 15.992188 L 13.027344 15.992188 C 14.671875 15.992188 15.992188 14.671875 15.992188 13.03125 L 15.992188 6.925781 Z M 1.007812 6.925781 "/>
<path style=" stroke:none;fill-rule:evenodd;fill:rgb(40.392157%,39.607843%,96.470588%);fill-opacity:1;" d="M 1.007812 6.925781 L 15.992188 6.925781 L 15.992188 3.972656 C 15.992188 2.328125 14.671875 1.007812 13.027344 1.007812 L 3.96875 1.007812 C 2.328125 1.007812 1.007812 2.328125 1.007812 3.972656 Z M 1.007812 6.925781 "/>
<path style=" stroke:none;fill-rule:nonzero;fill:rgb(24.705882%,24.705882%,24.705882%);fill-opacity:1;" d="M 3.820312 6.925781 L 7 6.925781 L 7 10.105469 L 3.820312 10.105469 Z M 3.820312 6.925781 "/>
<path style=" stroke:none;fill-rule:nonzero;fill:rgb(24.705882%,24.705882%,24.705882%);fill-opacity:1;" d="M 10.179688 6.925781 L 13.359375 6.925781 L 13.359375 10.105469 L 10.179688 10.105469 Z M 10.179688 6.925781 "/>
</g>
</svg>
