<?xml version="1.0" encoding="UTF-8"?>
<svg xmlns="http://www.w3.org/2000/svg" xmlns:xlink="http://www.w3.org/1999/xlink" width="17pt" height="17pt" viewBox="0 0 17 17" version="1.1">
<g id="surface1">
<path style=" stroke:none;fill-rule:evenodd;fill:rgb(46.666667%,10.588235%,52.156863%);fill-opacity:1;" d="M 3.96875 1.007812 L 13.03125 1.007812 C 14.664062 1.007812 15.992188 2.335938 15.992188 3.96875 L 15.992188 13.03125 C 15.992188 14.664062 14.664062 15.992188 13.03125 15.992188 L 3.96875 15.992188 C 2.335938 15.992188 1.007812 14.664062 1.007812 13.03125 L 1.007812 3.96875 C 1.007812 2.335938 2.335938 1.007812 3.96875 1.007812 Z M 3.96875 1.007812 "/>
<path style=" stroke:none;fill-rule:nonzero;fill:rgb(92.156863%,45.490196%,23.137255%);fill-opacity:1;" d="M 12.664062 3.617188 L 7 4.921875 C 6.199219 5.023438 6.230469 5.839844 6.230469 5.839844 L 6.230469 9.324219 C 6.046875 9.273438 5.855469 9.246094 5.664062 9.242188 C 4.515625 9.242188 3.582031 10.175781 3.582031 11.324219 C 3.582031 12.472656 4.515625 13.402344 5.664062 13.402344 C 6.738281 13.402344 7.636719 12.582031 7.734375 11.511719 L 7.742188 11.511719 L 7.742188 6.277344 L 11.902344 5.289062 L 11.902344 8.191406 C 11.71875 8.136719 11.527344 8.109375 11.335938 8.109375 C 10.1875 8.109375 9.257812 9.039062 9.257812 10.1875 C 9.257812 11.339844 10.1875 12.269531 11.335938 12.269531 C 12.410156 12.269531 13.308594 11.449219 13.40625 10.378906 L 13.417969 10.378906 L 13.417969 4.328125 C 13.417969 4.328125 13.425781 3.453125 12.664062 3.617188 Z M 12.664062 3.617188 "/>
<path style=" stroke:none;fill-rule:nonzero;fill:rgb(100%,100%,100%);fill-opacity:1;" d="M 14.105469 9.976562 C 13.601562 9.113281 11.558594 9.371094 11.109375 9.621094 L 7.449219 11.71875 C 7.257812 11.832031 7.191406 12.074219 7.304688 12.265625 L 8.710938 14.691406 C 8.824219 14.882812 9.066406 14.949219 9.261719 14.839844 L 12.917969 12.738281 C 13.203125 12.566406 14.605469 10.84375 14.105469 9.976562 Z M 13.40625 10.378906 C 13.519531 10.570312 13.453125 10.8125 13.261719 10.925781 C 13.066406 11.035156 12.820312 10.96875 12.710938 10.777344 C 12.597656 10.585938 12.664062 10.34375 12.859375 10.230469 C 13.050781 10.121094 13.296875 10.1875 13.40625 10.378906 Z M 13.40625 10.378906 "/>
<path style=" stroke:none;fill-rule:nonzero;fill:rgb(60%,60%,60%);fill-opacity:1;" d="M 7.851562 12.414062 L 8.054688 12.757812 L 8.402344 12.558594 L 9.207031 13.945312 L 9.554688 13.746094 L 8.75 12.359375 L 9.097656 12.160156 L 8.898438 11.8125 L 8.203125 12.210938 Z M 9.246094 11.613281 L 9.449219 11.957031 L 9.648438 12.304688 L 9.851562 12.652344 L 10.253906 13.34375 L 10.601562 13.144531 L 10.199219 12.453125 L 10.546875 12.25 L 10.949219 12.945312 L 11.296875 12.746094 L 10.292969 11.011719 L 9.59375 11.414062 Z M 10.640625 10.8125 L 10.839844 11.160156 L 11.644531 12.542969 L 11.992188 12.34375 L 12.691406 11.945312 L 12.488281 11.597656 L 12.390625 11.425781 L 12.5625 11.324219 L 12.363281 10.976562 L 11.664062 11.378906 L 11.867188 11.726562 L 12.039062 11.625 L 12.140625 11.796875 L 11.792969 12 L 11.191406 10.957031 L 11.886719 10.558594 L 11.683594 10.210938 Z M 9.796875 11.757812 L 10.144531 11.558594 L 10.34375 11.90625 L 9.996094 12.105469 Z M 9.796875 11.757812 "/>
</g>
</svg>
