<?xml version="1.0" encoding="UTF-8"?>
<svg xmlns="http://www.w3.org/2000/svg" xmlns:xlink="http://www.w3.org/1999/xlink" width="17pt" height="17pt" viewBox="0 0 17 17" version="1.1">
<g id="surface1">
<path style=" stroke:none;fill-rule:evenodd;fill:rgb(86.666667%,62.352941%,34.901961%);fill-opacity:1;" d="M 3.96875 1.007812 L 13.03125 1.007812 C 14.664062 1.007812 15.992188 2.335938 15.992188 3.96875 L 15.992188 13.03125 C 15.992188 14.664062 14.664062 15.992188 13.03125 15.992188 L 3.96875 15.992188 C 2.335938 15.992188 1.007812 14.664062 1.007812 13.03125 L 1.007812 3.96875 C 1.007812 2.335938 2.335938 1.007812 3.96875 1.007812 Z M 3.96875 1.007812 "/>
<path style=" stroke:none;fill-rule:nonzero;fill:rgb(100%,100%,100%);fill-opacity:1;" d="M 14.34375 12.851562 L 14.34375 4.148438 C 14.34375 3.324219 13.675781 2.65625 12.851562 2.65625 L 4.148438 2.65625 C 3.324219 2.65625 2.65625 3.324219 2.65625 4.148438 L 2.65625 12.851562 C 2.65625 13.675781 3.324219 14.34375 4.148438 14.34375 L 12.851562 14.34375 C 13.675781 14.34375 14.34375 13.675781 14.34375 12.851562 Z M 14.34375 12.851562 "/>
<path style=" stroke:none;fill-rule:nonzero;fill:rgb(41.960784%,41.960784%,41.960784%);fill-opacity:1;" d="M 6.390625 3.1875 C 5.828125 3.53125 4.117188 3.972656 3.1875 4.242188 L 3.214844 4.324219 C 3.660156 4.28125 4.289062 4.21875 4.734375 4.144531 L 4.734375 4.792969 L 3.195312 4.792969 L 3.230469 5.34375 L 4.519531 5.34375 C 4.296875 6.253906 3.785156 6.636719 3.203125 7.339844 L 3.292969 7.421875 C 3.835938 7.023438 4.386719 6.671875 4.730469 6.152344 L 4.730469 7.96875 L 4.871094 7.96875 C 5.25 7.96875 5.863281 7.824219 5.871094 7.777344 L 5.871094 5.925781 C 6.152344 6.179688 6.203125 6.476562 6.257812 6.789062 C 6.351562 6.871094 6.457031 6.90625 6.550781 6.90625 C 6.75 6.90625 6.917969 6.765625 6.917969 6.5625 C 6.917969 6.292969 6.820312 6.042969 5.871094 5.828125 L 5.871094 5.34375 L 7.117188 5.34375 C 7.316406 5.34375 7.410156 4.886719 7.460938 4.808594 L 6.390625 4.25 L 6.152344 4.792969 L 5.871094 4.792969 L 5.871094 3.992188 C 6.203125 3.917969 6.511719 3.839844 6.765625 3.765625 C 6.910156 3.769531 7.453125 3.71875 7.453125 3.71875 Z M 6.390625 3.1875 "/>
<path style=" stroke:none;fill-rule:nonzero;fill:rgb(41.960784%,41.960784%,41.960784%);fill-opacity:1;" d="M 7.96875 4.265625 L 7.96875 7.96875 C 8.660156 7.96875 9.015625 7.691406 9.015625 7.707031 L 9.015625 7.457031 L 10.089844 7.457031 L 10.089844 7.847656 C 10.675781 7.847656 11.144531 7.679688 11.144531 7.667969 L 11.144531 4.867188 C 11.300781 4.835938 11.417969 4.789062 11.464844 4.730469 L 10.609375 4.269531 L 10.019531 4.78125 L 9.054688 4.78125 Z M 9.015625 5.332031 L 10.089844 5.332031 L 10.089844 6.925781 L 9.015625 6.925781 Z M 9.015625 5.332031 "/>
<path style=" stroke:none;fill-rule:nonzero;fill:rgb(41.960784%,41.960784%,41.960784%);fill-opacity:1;" d="M 7.96875 9.5625 L 7.96875 13.8125 L 9.03125 13.8125 L 9.03125 12.21875 L 9.632812 12.21875 C 9.875 13.15625 10.71875 13.8125 11.6875 13.8125 C 12.859375 13.8125 13.8125 12.859375 13.8125 11.6875 C 13.8125 10.515625 12.859375 9.5625 11.6875 9.5625 C 10.71875 9.5625 9.875 10.21875 9.632812 11.15625 L 9.03125 11.15625 L 9.03125 9.5625 Z M 11.6875 10.625 C 12.273438 10.625 12.75 11.101562 12.75 11.6875 C 12.75 12.273438 12.273438 12.75 11.6875 12.75 C 11.101562 12.75 10.625 12.273438 10.625 11.6875 C 10.625 11.101562 11.101562 10.625 11.6875 10.625 Z M 11.6875 10.625 "/>
</g>
</svg>
