<?xml version="1.0" encoding="UTF-8"?>
<svg xmlns="http://www.w3.org/2000/svg" xmlns:xlink="http://www.w3.org/1999/xlink" width="17pt" height="17pt" viewBox="0 0 17 17" version="1.1">
<g id="surface1">
<path style=" stroke:none;fill-rule:evenodd;fill:rgb(29.019608%,70.196078%,40.392157%);fill-opacity:1;" d="M 3.96875 1.007812 L 13.03125 1.007812 C 14.664062 1.007812 15.992188 2.335938 15.992188 3.96875 L 15.992188 13.03125 C 15.992188 14.664062 14.664062 15.992188 13.03125 15.992188 L 3.96875 15.992188 C 2.335938 15.992188 1.007812 14.664062 1.007812 13.03125 L 1.007812 3.96875 C 1.007812 2.335938 2.335938 1.007812 3.96875 1.007812 Z M 3.96875 1.007812 "/>
<path style=" stroke:none;fill-rule:nonzero;fill:rgb(97.647059%,97.647059%,97.647059%);fill-opacity:1;" d="M 4.339844 5.578125 L 5.753906 5.578125 C 5.949219 5.578125 6.109375 5.722656 6.109375 5.902344 L 6.109375 11.097656 C 6.109375 11.277344 5.949219 11.421875 5.753906 11.421875 L 4.339844 11.421875 C 4.144531 11.421875 3.984375 11.277344 3.984375 11.097656 L 3.984375 5.902344 C 3.984375 5.722656 4.144531 5.578125 4.339844 5.578125 "/>
<path style=" stroke:none;fill-rule:nonzero;fill:rgb(97.647059%,97.647059%,97.647059%);fill-opacity:1;" d="M 6.976562 5.578125 C 6.789062 5.578125 6.640625 5.722656 6.640625 5.902344 L 6.640625 11.097656 C 6.640625 11.273438 6.789062 11.421875 6.976562 11.421875 C 7.980469 11.421875 8.988281 11.421875 9.996094 11.421875 C 11.664062 11.421875 13.015625 10.113281 13.015625 8.5 C 13.015625 6.886719 11.664062 5.578125 9.996094 5.578125 Z M 6.976562 5.578125 "/>
</g>
</svg>
