<?xml version="1.0" encoding="UTF-8"?>
<svg xmlns="http://www.w3.org/2000/svg" xmlns:xlink="http://www.w3.org/1999/xlink" width="17pt" height="17pt" viewBox="0 0 17 17" version="1.1">
<g id="surface1">
<path style=" stroke:none;fill-rule:evenodd;fill:rgb(30.980392%,30.980392%,30.980392%);fill-opacity:1;" d="M 11.6875 11.6875 L 11.6875 15.671875 C 11.6875 15.796875 11.605469 15.886719 11.554688 15.992188 L 13.03125 15.992188 C 14.671875 15.992188 15.992188 14.671875 15.992188 13.03125 L 15.992188 11.554688 C 15.886719 11.605469 15.796875 11.6875 15.671875 11.6875 Z M 11.6875 11.6875 "/>
<path style=" stroke:none;fill-rule:evenodd;fill:rgb(13.333333%,59.215686%,99.215686%);fill-opacity:1;" d="M 5.3125 5.3125 L 1.328125 5.3125 C 1.203125 5.3125 1.113281 5.394531 1.007812 5.445312 L 1.007812 13.03125 C 1.007812 14.671875 2.328125 15.992188 3.96875 15.992188 L 11.554688 15.992188 C 11.605469 15.886719 11.6875 15.796875 11.6875 15.671875 L 11.6875 11.6875 L 6.109375 11.6875 C 5.886719 11.6875 5.6875 11.597656 5.546875 11.453125 C 5.402344 11.3125 5.3125 11.113281 5.3125 10.890625 Z M 5.3125 5.3125 "/>
<path style=" stroke:none;fill-rule:evenodd;fill:rgb(30.980392%,30.980392%,30.980392%);fill-opacity:1;" d="M 3.96875 1.007812 C 2.328125 1.007812 1.007812 2.328125 1.007812 3.96875 L 1.007812 5.445312 C 1.113281 5.394531 1.203125 5.3125 1.328125 5.3125 L 5.3125 5.3125 L 5.3125 1.328125 C 5.3125 1.203125 5.394531 1.113281 5.445312 1.007812 Z M 3.96875 1.007812 "/>
<path style=" stroke:none;fill-rule:nonzero;fill:rgb(100%,100%,100%);fill-opacity:1;" d="M 7.070312 13.183594 L 4.621094 13.183594 L 4.234375 14.34375 L 2.65625 14.34375 L 4.910156 7.96875 L 6.777344 7.96875 L 9.03125 14.34375 L 7.453125 14.34375 Z M 5.011719 12 L 6.675781 12 L 5.847656 9.464844 Z M 5.011719 12 "/>
<path style=" stroke:none;fill-rule:evenodd;fill:rgb(95.294118%,68.627451%,24.705882%);fill-opacity:1;" d="M 5.445312 1.007812 C 5.394531 1.113281 5.3125 1.203125 5.3125 1.328125 L 5.3125 10.890625 C 5.3125 11.113281 5.402344 11.3125 5.546875 11.453125 C 5.6875 11.597656 5.886719 11.6875 6.109375 11.6875 L 15.671875 11.6875 C 15.796875 11.6875 15.886719 11.605469 15.992188 11.554688 L 15.992188 3.96875 C 15.992188 2.328125 14.671875 1.007812 13.03125 1.007812 Z M 5.445312 1.007812 "/>
<path style=" stroke:none;fill-rule:nonzero;fill:rgb(100%,100%,100%);fill-opacity:1;" d="M 11.085938 5.65625 C 11.347656 5.65625 11.546875 5.597656 11.679688 5.484375 C 11.816406 5.371094 11.886719 5.203125 11.886719 4.980469 C 11.886719 4.761719 11.816406 4.59375 11.679688 4.480469 C 11.546875 4.363281 11.347656 4.304688 11.085938 4.304688 L 10.164062 4.304688 L 10.164062 5.65625 Z M 11.140625 8.445312 C 11.476562 8.445312 11.726562 8.375 11.894531 8.234375 C 12.0625 8.09375 12.148438 7.882812 12.148438 7.601562 C 12.148438 7.328125 12.066406 7.121094 11.898438 6.984375 C 11.730469 6.84375 11.476562 6.773438 11.140625 6.773438 L 10.164062 6.773438 L 10.164062 8.445312 Z M 12.6875 6.152344 C 13.046875 6.253906 13.324219 6.441406 13.519531 6.71875 C 13.714844 6.996094 13.8125 7.332031 13.8125 7.734375 C 13.8125 8.351562 13.601562 8.808594 13.179688 9.109375 C 12.761719 9.410156 12.121094 9.5625 11.261719 9.5625 L 8.5 9.5625 L 8.5 3.1875 L 11 3.1875 C 11.894531 3.1875 12.542969 3.320312 12.945312 3.589844 C 13.347656 3.855469 13.550781 4.285156 13.550781 4.875 C 13.550781 5.183594 13.476562 5.449219 13.328125 5.667969 C 13.179688 5.886719 12.96875 6.046875 12.6875 6.152344 Z M 12.6875 6.152344 "/>
</g>
</svg>
