<?xml version="1.0" encoding="UTF-8"?>
<svg xmlns="http://www.w3.org/2000/svg" xmlns:xlink="http://www.w3.org/1999/xlink" width="17pt" height="17pt" viewBox="0 0 17 17" version="1.1">
<defs>
<g>
<symbol overflow="visible" id="glyph0-0">
<path style="stroke:none;" d="M 0.09375 0.53125 L 0.09375 -2.109375 L 1.09375 -2.109375 L 1.09375 0.53125 Z M 0.21875 0.359375 L 0.984375 0.359375 L 0.984375 -1.953125 L 0.21875 -1.953125 Z M 0.21875 0.359375 "/>
</symbol>
<symbol overflow="visible" id="glyph0-1">
<path style="stroke:none;" d="M 0.6875 -1.890625 L 0.421875 -0.8125 L 0.953125 -0.8125 Z M 0.578125 -2.1875 L 0.796875 -2.1875 L 1.359375 0 L 1.140625 0 L 1.015625 -0.5625 L 0.359375 -0.5625 L 0.21875 0 L 0.015625 0 Z M 0.578125 -2.1875 "/>
</symbol>
<symbol overflow="visible" id="glyph1-0">
<path style="stroke:none;" d="M 0.09375 0.53125 L 0.09375 -2.109375 L 1.09375 -2.109375 L 1.09375 0.53125 Z M 0.21875 0.359375 L 0.984375 0.359375 L 0.984375 -1.953125 L 0.21875 -1.953125 Z M 0.21875 0.359375 "/>
</symbol>
<symbol overflow="visible" id="glyph1-1">
<path style="stroke:none;" d="M 0.75 -1.921875 L 0.265625 -0.765625 L 0.75 -0.765625 Z M 0.703125 -2.1875 L 0.953125 -2.1875 L 0.953125 -0.765625 L 1.15625 -0.765625 L 1.15625 -0.515625 L 0.953125 -0.515625 L 0.953125 0 L 0.75 0 L 0.75 -0.515625 L 0.09375 -0.515625 L 0.09375 -0.796875 Z M 0.703125 -2.1875 "/>
</symbol>
</g>
</defs>
<g id="surface1">
<path style=" stroke:none;fill-rule:evenodd;fill:rgb(11.764706%,51.764706%,21.960784%);fill-opacity:1;" d="M 3.96875 1.007812 L 13.03125 1.007812 C 14.664062 1.007812 15.992188 2.335938 15.992188 3.96875 L 15.992188 13.03125 C 15.992188 14.664062 14.664062 15.992188 13.03125 15.992188 L 3.96875 15.992188 C 2.335938 15.992188 1.007812 14.664062 1.007812 13.03125 L 1.007812 3.96875 C 1.007812 2.335938 2.335938 1.007812 3.96875 1.007812 Z M 3.96875 1.007812 "/>
<path style=" stroke:none;fill-rule:evenodd;fill:rgb(100%,100%,100%);fill-opacity:1;" d="M 9.820312 2.964844 L 13.425781 2.964844 C 13.9375 2.964844 14.355469 3.382812 14.355469 3.894531 L 14.355469 9.46875 C 14.355469 9.980469 13.9375 10.398438 13.425781 10.398438 L 9.820312 10.398438 C 9.304688 10.398438 8.890625 9.980469 8.890625 9.46875 L 8.890625 3.894531 C 8.890625 3.382812 9.304688 2.964844 9.820312 2.964844 Z M 9.820312 2.964844 "/>
<path style=" stroke:none;fill-rule:nonzero;fill:rgb(11.764706%,51.764706%,21.960784%);fill-opacity:1;" d="M 9.253906 6.816406 C 9.253906 6.183594 9.273438 5.953125 9.328125 5.929688 C 9.378906 5.910156 9.378906 5.886719 9.316406 5.84375 C 9.242188 5.792969 9.246094 5.773438 9.328125 5.679688 C 9.382812 5.621094 9.425781 5.5 9.421875 5.410156 C 9.421875 5.25 9.417969 5.25 9.339844 5.351562 C 9.261719 5.453125 9.253906 5.425781 9.253906 5.054688 C 9.253906 4.695312 9.273438 4.628906 9.394531 4.507812 C 9.589844 4.308594 9.941406 4.3125 10.046875 4.507812 C 10.113281 4.632812 10.109375 4.664062 10.015625 4.765625 C 9.871094 4.925781 9.679688 4.890625 9.679688 4.707031 C 9.679688 4.628906 9.710938 4.566406 9.75 4.566406 C 9.789062 4.566406 9.816406 4.589844 9.816406 4.621094 C 9.8125 4.652344 9.785156 4.671875 9.757812 4.664062 C 9.730469 4.65625 9.707031 4.679688 9.707031 4.710938 C 9.707031 4.746094 9.753906 4.761719 9.804688 4.753906 C 9.859375 4.742188 9.90625 4.683594 9.90625 4.621094 C 9.90625 4.464844 9.675781 4.4375 9.597656 4.585938 C 9.523438 4.726562 9.570312 4.859375 9.722656 4.941406 C 9.871094 5.019531 10.125 4.839844 10.148438 4.632812 C 10.175781 4.398438 9.972656 4.234375 9.695312 4.273438 C 9.574219 4.289062 9.425781 4.347656 9.363281 4.402344 C 9.257812 4.496094 9.214844 4.457031 9.300781 4.335938 C 9.375 4.226562 9.6875 4.136719 9.855469 4.175781 C 10.046875 4.222656 10.214844 4.355469 10.214844 4.460938 C 10.214844 4.503906 10.242188 4.539062 10.269531 4.539062 C 10.300781 4.539062 10.3125 4.570312 10.296875 4.613281 C 10.28125 4.652344 10.292969 4.75 10.320312 4.824219 L 10.371094 4.960938 L 10.414062 4.808594 C 10.4375 4.707031 10.421875 4.613281 10.363281 4.527344 C 10.253906 4.371094 10.246094 4.273438 10.347656 4.359375 C 10.390625 4.394531 10.441406 4.40625 10.460938 4.386719 C 10.480469 4.367188 10.453125 4.320312 10.398438 4.28125 C 10.34375 4.238281 10.320312 4.191406 10.339844 4.167969 C 10.402344 4.105469 10.554688 4.253906 10.554688 4.378906 C 10.554688 4.445312 10.585938 4.480469 10.625 4.464844 C 10.664062 4.453125 10.691406 4.359375 10.6875 4.265625 C 10.679688 4.105469 10.691406 4.089844 10.808594 4.121094 C 10.96875 4.160156 11.191406 4.097656 11.144531 4.023438 C 11.128906 3.996094 11.0625 3.972656 11.003906 3.972656 C 10.839844 3.972656 10.871094 3.898438 11.074219 3.804688 C 11.308594 3.695312 11.367188 3.546875 11.15625 3.597656 C 11.070312 3.621094 11.007812 3.613281 11.007812 3.578125 C 11.007812 3.457031 11.273438 3.363281 11.621094 3.363281 C 11.902344 3.363281 12 3.386719 12.089844 3.476562 C 12.226562 3.613281 12.191406 3.667969 12.023438 3.578125 C 11.914062 3.519531 11.902344 3.523438 11.917969 3.644531 C 11.933594 3.738281 11.996094 3.792969 12.132812 3.839844 L 12.328125 3.902344 L 12.160156 3.988281 C 12.019531 4.066406 12.007812 4.082031 12.09375 4.117188 C 12.152344 4.136719 12.265625 4.140625 12.351562 4.125 C 12.5 4.09375 12.507812 4.105469 12.488281 4.253906 C 12.453125 4.488281 12.5625 4.507812 12.691406 4.285156 C 12.804688 4.097656 12.804688 4.089844 12.699219 4.058594 C 12.441406 3.976562 12.09375 3.351562 12.304688 3.351562 C 12.335938 3.351562 12.363281 3.410156 12.363281 3.484375 C 12.363281 3.761719 12.796875 4.082031 13.082031 4.015625 C 13.195312 3.988281 13.128906 3.953125 12.867188 3.894531 C 12.59375 3.835938 12.378906 3.5625 12.476562 3.402344 C 12.519531 3.339844 12.546875 3.347656 12.617188 3.449219 C 12.730469 3.609375 12.921875 3.613281 13.085938 3.460938 C 13.1875 3.367188 13.261719 3.351562 13.464844 3.371094 C 13.757812 3.40625 13.847656 3.449219 13.792969 3.535156 C 13.773438 3.570312 13.78125 3.578125 13.820312 3.554688 C 13.902344 3.503906 14 3.699219 14 3.917969 L 14 4.097656 L 13.890625 3.964844 C 13.832031 3.890625 13.765625 3.851562 13.742188 3.871094 C 13.71875 3.894531 13.730469 3.949219 13.765625 3.992188 C 13.882812 4.132812 13.761719 4.140625 13.578125 4 C 13.359375 3.832031 13.304688 3.824219 13.347656 3.964844 C 13.375 4.054688 13.34375 4.078125 13.148438 4.109375 C 12.914062 4.144531 12.757812 4.25 12.757812 4.367188 C 12.757812 4.402344 12.785156 4.414062 12.824219 4.390625 C 12.871094 4.363281 12.875 4.382812 12.847656 4.457031 C 12.824219 4.515625 12.789062 4.640625 12.773438 4.730469 C 12.746094 4.859375 12.757812 4.890625 12.824219 4.863281 C 12.871094 4.84375 12.933594 4.878906 12.972656 4.9375 C 13.011719 4.996094 13.082031 5.046875 13.132812 5.046875 C 13.199219 5.046875 13.183594 5.011719 13.074219 4.929688 C 12.96875 4.84375 12.925781 4.761719 12.929688 4.632812 C 12.929688 4.390625 13.046875 4.253906 13.300781 4.195312 C 13.59375 4.128906 14 4.300781 14 4.492188 L 14 4.621094 L 13.914062 4.5 C 13.738281 4.246094 13.214844 4.203125 13.09375 4.425781 C 12.914062 4.765625 13.285156 5.132812 13.5625 4.890625 C 13.746094 4.726562 13.648438 4.480469 13.394531 4.480469 C 13.292969 4.480469 13.265625 4.511719 13.265625 4.621094 C 13.265625 4.726562 13.296875 4.761719 13.378906 4.761719 C 13.441406 4.761719 13.492188 4.734375 13.492188 4.699219 C 13.492188 4.667969 13.453125 4.652344 13.40625 4.671875 C 13.308594 4.707031 13.289062 4.621094 13.382812 4.5625 C 13.417969 4.542969 13.488281 4.566406 13.539062 4.621094 C 13.625 4.707031 13.625 4.722656 13.5 4.824219 C 13.347656 4.945312 13.183594 4.898438 13.125 4.710938 C 13.019531 4.378906 13.539062 4.230469 13.804688 4.519531 C 13.878906 4.601562 13.945312 4.695312 13.949219 4.730469 C 13.996094 5.371094 13.960938 5.601562 13.859375 5.34375 C 13.824219 5.257812 13.8125 5.261719 13.765625 5.382812 C 13.71875 5.503906 13.734375 5.542969 13.855469 5.640625 C 14.019531 5.769531 14.039062 5.835938 13.914062 5.835938 C 13.867188 5.835938 13.828125 5.851562 13.828125 5.867188 C 13.828125 5.886719 13.867188 5.9375 13.914062 5.984375 C 13.980469 6.054688 14 6.234375 14 6.871094 L 14 7.675781 L 11.628906 7.671875 L 9.253906 7.671875 Z M 10.429688 7.460938 C 10.4375 7.390625 10.453125 7.28125 10.464844 7.21875 C 10.480469 7.15625 10.492188 7.097656 10.492188 7.082031 C 10.496094 7.070312 10.535156 7.105469 10.578125 7.167969 C 10.621094 7.226562 10.644531 7.300781 10.625 7.332031 C 10.609375 7.363281 10.628906 7.359375 10.667969 7.320312 C 10.726562 7.265625 10.726562 7.238281 10.667969 7.164062 C 10.605469 7.089844 10.621094 7.082031 10.789062 7.109375 C 10.972656 7.140625 10.972656 7.140625 10.84375 7.0625 C 10.679688 6.964844 10.480469 7 10.347656 7.152344 C 10.289062 7.214844 10.277344 7.25 10.316406 7.226562 C 10.359375 7.199219 10.386719 7.21875 10.386719 7.269531 C 10.386719 7.3125 10.359375 7.359375 10.324219 7.371094 C 10.261719 7.390625 10.3125 7.585938 10.378906 7.585938 C 10.398438 7.585938 10.421875 7.53125 10.429688 7.460938 Z M 11.851562 7.503906 C 11.894531 7.457031 11.898438 7.417969 11.867188 7.417969 C 11.835938 7.417969 11.777344 7.457031 11.742188 7.503906 C 11.703125 7.550781 11.695312 7.585938 11.726562 7.585938 C 11.757812 7.585938 11.816406 7.550781 11.851562 7.503906 Z M 12.332031 7.53125 C 12.3125 7.5 12.328125 7.472656 12.363281 7.472656 C 12.398438 7.472656 12.414062 7.441406 12.402344 7.402344 C 12.386719 7.363281 12.347656 7.339844 12.3125 7.347656 C 12.277344 7.355469 12.25 7.328125 12.25 7.285156 C 12.25 7.230469 12.195312 7.210938 12.078125 7.226562 C 11.984375 7.238281 11.910156 7.222656 11.910156 7.191406 C 11.910156 7.160156 11.933594 7.136719 11.964844 7.136719 C 12.03125 7.136719 12.023438 6.691406 11.957031 6.648438 C 11.933594 6.632812 11.925781 6.660156 11.945312 6.707031 C 11.964844 6.757812 11.953125 6.796875 11.921875 6.796875 C 11.828125 6.796875 11.710938 6.617188 11.730469 6.5 C 11.742188 6.429688 11.726562 6.402344 11.6875 6.425781 C 11.574219 6.496094 11.625 6.679688 11.796875 6.804688 C 11.992188 6.949219 12.03125 7.074219 11.839844 6.941406 C 11.671875 6.820312 11.570312 6.832031 11.71875 6.957031 C 11.78125 7.007812 11.851562 7.121094 11.875 7.207031 C 11.894531 7.292969 11.929688 7.359375 11.953125 7.355469 C 12.09375 7.332031 12.1875 7.375 12.21875 7.472656 C 12.238281 7.535156 12.28125 7.585938 12.3125 7.585938 C 12.34375 7.585938 12.351562 7.5625 12.332031 7.53125 Z M 12.914062 7.382812 C 12.9375 7.167969 12.765625 7.003906 12.523438 7.011719 C 12.300781 7.015625 12.164062 7.132812 12.363281 7.144531 C 12.441406 7.148438 12.558594 7.148438 12.628906 7.140625 C 12.742188 7.132812 12.757812 7.15625 12.757812 7.363281 C 12.757812 7.636719 12.886719 7.652344 12.914062 7.382812 Z M 10.949219 7.414062 C 10.949219 7.382812 10.972656 7.367188 11.003906 7.386719 C 11.03125 7.40625 11.070312 7.394531 11.089844 7.363281 C 11.109375 7.335938 11.167969 7.324219 11.21875 7.347656 C 11.300781 7.375 11.304688 7.367188 11.246094 7.292969 C 11.171875 7.203125 10.988281 7.214844 10.851562 7.320312 C 10.753906 7.394531 10.761719 7.472656 10.863281 7.472656 C 10.910156 7.472656 10.949219 7.445312 10.949219 7.414062 Z M 11.730469 7.296875 C 11.785156 7.210938 11.789062 7.160156 11.746094 7.117188 C 11.703125 7.074219 11.683594 7.089844 11.683594 7.179688 C 11.683594 7.25 11.660156 7.304688 11.632812 7.304688 C 11.558594 7.304688 11.453125 7.15625 11.5 7.113281 C 11.519531 7.089844 11.496094 7.089844 11.441406 7.109375 C 11.316406 7.160156 11.320312 7.179688 11.472656 7.308594 C 11.632812 7.441406 11.640625 7.441406 11.730469 7.296875 Z M 12.585938 7.3125 C 12.585938 7.28125 12.546875 7.246094 12.496094 7.226562 C 12.417969 7.195312 12.414062 7.203125 12.472656 7.273438 C 12.554688 7.375 12.585938 7.382812 12.585938 7.3125 Z M 10.238281 7.011719 C 10.304688 6.957031 10.441406 6.898438 10.542969 6.875 C 10.785156 6.828125 10.703125 6.722656 10.339844 6.625 C 9.960938 6.523438 9.765625 6.414062 9.707031 6.269531 C 9.671875 6.179688 9.65625 6.171875 9.65625 6.242188 C 9.652344 6.292969 9.691406 6.375 9.738281 6.425781 C 9.820312 6.507812 9.804688 6.539062 9.695312 6.519531 C 9.671875 6.515625 9.652344 6.542969 9.652344 6.578125 C 9.652344 6.613281 9.710938 6.628906 9.800781 6.609375 C 9.890625 6.59375 9.984375 6.613281 10.03125 6.660156 C 10.101562 6.730469 10.09375 6.738281 9.988281 6.726562 C 9.859375 6.710938 9.707031 6.871094 9.78125 6.949219 C 9.808594 6.972656 9.84375 6.964844 9.867188 6.933594 C 9.886719 6.898438 9.984375 6.828125 10.082031 6.769531 C 10.25 6.671875 10.265625 6.671875 10.390625 6.765625 C 10.492188 6.839844 10.5 6.855469 10.417969 6.832031 C 10.253906 6.773438 10.046875 6.941406 10.050781 7.121094 C 10.054688 7.210938 10.070312 7.242188 10.085938 7.195312 C 10.105469 7.148438 10.171875 7.066406 10.238281 7.011719 Z M 11.488281 6.964844 C 11.535156 6.964844 11.570312 6.941406 11.570312 6.910156 C 11.570312 6.835938 11.390625 6.90625 11.304688 7.011719 C 11.246094 7.085938 11.230469 7.085938 11.230469 7.019531 C 11.230469 6.972656 11.3125 6.871094 11.410156 6.789062 C 11.546875 6.675781 11.578125 6.617188 11.542969 6.535156 C 11.5 6.433594 11.496094 6.433594 11.472656 6.542969 C 11.457031 6.605469 11.371094 6.726562 11.28125 6.808594 C 11.136719 6.941406 11.125 6.980469 11.179688 7.082031 L 11.242188 7.203125 L 11.324219 7.085938 C 11.371094 7.019531 11.445312 6.964844 11.488281 6.964844 Z M 13.152344 7.074219 C 13.152344 7.042969 13.070312 6.941406 12.96875 6.851562 C 12.742188 6.640625 12.878906 6.625 13.175781 6.824219 C 13.289062 6.902344 13.394531 6.964844 13.410156 6.964844 C 13.46875 6.964844 13.425781 6.804688 13.351562 6.738281 C 13.222656 6.636719 13.246094 6.582031 13.40625 6.613281 C 13.488281 6.628906 13.546875 6.613281 13.546875 6.578125 C 13.546875 6.542969 13.503906 6.515625 13.453125 6.515625 C 13.367188 6.515625 13.367188 6.507812 13.453125 6.410156 C 13.503906 6.355469 13.546875 6.269531 13.542969 6.226562 C 13.539062 6.160156 13.535156 6.160156 13.507812 6.230469 C 13.449219 6.375 13.246094 6.507812 12.945312 6.597656 C 12.789062 6.644531 12.597656 6.734375 12.523438 6.792969 L 12.390625 6.90625 L 12.574219 6.855469 C 12.675781 6.828125 12.746094 6.824219 12.730469 6.851562 C 12.710938 6.878906 12.757812 6.910156 12.828125 6.917969 C 12.898438 6.929688 12.980469 6.992188 13.007812 7.0625 C 13.0625 7.179688 13.152344 7.1875 13.152344 7.074219 Z M 12.453125 6.710938 C 12.519531 6.636719 12.683594 6.550781 12.820312 6.511719 C 13.234375 6.402344 13.3125 6.355469 13.410156 6.171875 C 13.574219 5.851562 13.386719 5.5625 13.066406 5.644531 C 12.886719 5.6875 12.800781 5.847656 12.847656 6.035156 C 12.894531 6.222656 13.136719 6.292969 13.242188 6.148438 C 13.328125 6.03125 13.253906 5.835938 13.125 5.835938 C 13.011719 5.835938 12.957031 5.949219 13.03125 6.023438 C 13.078125 6.066406 13.097656 6.058594 13.097656 5.988281 C 13.097656 5.9375 13.121094 5.894531 13.152344 5.894531 C 13.222656 5.894531 13.226562 6.101562 13.15625 6.144531 C 13 6.238281 12.8125 5.945312 12.9375 5.796875 C 13.03125 5.683594 13.285156 5.707031 13.367188 5.839844 C 13.425781 5.933594 13.421875 5.988281 13.347656 6.144531 C 13.253906 6.34375 13.046875 6.445312 12.972656 6.328125 C 12.9375 6.277344 12.914062 6.277344 12.882812 6.324219 C 12.859375 6.359375 12.738281 6.4375 12.617188 6.503906 C 12.464844 6.578125 12.347656 6.703125 12.261719 6.863281 C 12.179688 7.015625 12.167969 7.058594 12.230469 6.972656 C 12.289062 6.902344 12.386719 6.78125 12.453125 6.710938 Z M 10.867188 6.765625 C 10.78125 6.652344 10.625 6.523438 10.523438 6.480469 C 10.421875 6.4375 10.324219 6.371094 10.308594 6.332031 C 10.289062 6.277344 10.269531 6.277344 10.222656 6.34375 C 10.175781 6.410156 10.144531 6.414062 10.027344 6.351562 C 9.8125 6.234375 9.726562 6.039062 9.820312 5.863281 C 9.882812 5.75 9.933594 5.722656 10.070312 5.734375 C 10.21875 5.75 10.246094 5.777344 10.261719 5.929688 C 10.28125 6.140625 10.121094 6.242188 10.007812 6.082031 C 9.964844 6.03125 9.917969 6.003906 9.894531 6.027344 C 9.816406 6.105469 10.03125 6.246094 10.179688 6.210938 C 10.402344 6.15625 10.417969 5.773438 10.203125 5.660156 C 9.9375 5.515625 9.667969 5.757812 9.730469 6.085938 C 9.765625 6.269531 9.996094 6.457031 10.191406 6.457031 C 10.382812 6.457031 10.753906 6.679688 10.859375 6.855469 C 10.914062 6.953125 10.976562 7.015625 10.992188 7 C 11.007812 6.984375 10.953125 6.875 10.867188 6.765625 Z M 11.175781 6.457031 C 11.175781 6.433594 11.085938 6.359375 10.980469 6.296875 C 10.738281 6.152344 10.667969 5.9375 10.816406 5.773438 C 10.890625 5.6875 10.960938 5.667969 11.078125 5.691406 C 11.175781 5.710938 11.222656 5.699219 11.203125 5.667969 C 11.125 5.542969 10.667969 5.671875 10.667969 5.816406 C 10.667969 5.925781 10.570312 5.910156 10.503906 5.792969 C 10.449219 5.703125 10.445312 5.703125 10.445312 5.808594 C 10.441406 5.871094 10.503906 5.96875 10.582031 6.027344 C 10.660156 6.085938 10.722656 6.175781 10.722656 6.226562 C 10.722656 6.28125 10.707031 6.292969 10.679688 6.257812 C 10.640625 6.195312 10.441406 6.101562 10.441406 6.144531 C 10.441406 6.230469 10.519531 6.339844 10.558594 6.3125 C 10.589844 6.296875 10.609375 6.308594 10.609375 6.34375 C 10.609375 6.382812 10.644531 6.386719 10.710938 6.351562 C 10.773438 6.320312 10.863281 6.324219 10.949219 6.359375 L 11.089844 6.417969 L 10.921875 6.453125 L 10.753906 6.492188 L 10.90625 6.53125 C 10.992188 6.554688 11.0625 6.597656 11.0625 6.632812 C 11.0625 6.664062 11.039062 6.675781 11.011719 6.660156 C 10.984375 6.640625 10.972656 6.679688 10.992188 6.746094 C 11.019531 6.851562 11.03125 6.847656 11.097656 6.683594 C 11.140625 6.582031 11.175781 6.480469 11.175781 6.457031 Z M 12.207031 6.738281 C 12.226562 6.679688 12.21875 6.640625 12.191406 6.65625 C 12.167969 6.671875 12.132812 6.640625 12.109375 6.585938 C 12.0625 6.457031 12.230469 6.335938 12.425781 6.355469 C 12.574219 6.371094 12.757812 6.265625 12.757812 6.167969 C 12.757812 6.136719 12.703125 6.144531 12.640625 6.175781 C 12.578125 6.210938 12.496094 6.226562 12.457031 6.214844 C 12.359375 6.179688 12.09375 6.328125 12.027344 6.453125 C 11.984375 6.53125 11.992188 6.578125 12.050781 6.628906 C 12.097656 6.667969 12.136719 6.730469 12.136719 6.773438 C 12.136719 6.890625 12.175781 6.871094 12.207031 6.738281 Z M 11.324219 6.371094 C 11.304688 6.324219 11.269531 6.289062 11.238281 6.289062 C 11.210938 6.289062 11.214844 6.351562 11.25 6.425781 C 11.320312 6.570312 11.382812 6.519531 11.324219 6.371094 Z M 12.136719 6.21875 C 12.441406 6.015625 12.421875 5.78125 12.097656 5.78125 C 11.96875 5.78125 11.878906 5.921875 11.96875 5.980469 C 12 6 12.019531 5.980469 12.011719 5.941406 C 12 5.894531 12.046875 5.863281 12.136719 5.863281 C 12.363281 5.863281 12.335938 6.027344 12.082031 6.195312 C 11.921875 6.300781 11.855469 6.382812 11.859375 6.472656 L 11.863281 6.597656 L 11.902344 6.476562 C 11.921875 6.40625 12.027344 6.292969 12.136719 6.21875 Z M 12.332031 6.515625 C 12.433594 6.472656 12.429688 6.464844 12.292969 6.460938 C 12.207031 6.460938 12.136719 6.484375 12.136719 6.515625 C 12.136719 6.582031 12.179688 6.582031 12.332031 6.515625 Z M 11.757812 6.222656 C 11.761719 6.230469 11.816406 6.21875 11.875 6.199219 C 11.976562 6.160156 11.976562 6.152344 11.851562 6.109375 C 11.773438 6.078125 11.699219 6.082031 11.664062 6.117188 C 11.625 6.15625 11.574219 6.144531 11.503906 6.082031 C 11.390625 5.976562 11.363281 6.054688 11.472656 6.175781 C 11.515625 6.222656 11.480469 6.214844 11.386719 6.15625 C 11.300781 6.101562 11.230469 6.082031 11.230469 6.113281 C 11.230469 6.140625 11.316406 6.214844 11.414062 6.277344 C 11.585938 6.378906 11.605469 6.378906 11.671875 6.296875 C 11.710938 6.246094 11.75 6.210938 11.757812 6.222656 Z M 11.003906 6.128906 C 10.824219 5.980469 10.890625 5.808594 11.105469 5.863281 C 11.222656 5.890625 11.246094 5.886719 11.195312 5.835938 C 11.09375 5.730469 10.867188 5.792969 10.847656 5.929688 C 10.832031 6.042969 11.050781 6.320312 11.109375 6.261719 C 11.125 6.246094 11.078125 6.1875 11.003906 6.128906 Z M 12.6875 5.957031 C 12.726562 5.910156 12.757812 5.832031 12.753906 5.785156 C 12.753906 5.722656 12.722656 5.738281 12.644531 5.835938 C 12.558594 5.945312 12.535156 5.957031 12.53125 5.882812 C 12.53125 5.691406 12.039062 5.503906 11.941406 5.660156 C 11.925781 5.683594 11.976562 5.695312 12.050781 5.679688 C 12.132812 5.664062 12.257812 5.695312 12.339844 5.75 C 12.460938 5.832031 12.480469 5.875 12.453125 6.019531 C 12.421875 6.171875 12.425781 6.183594 12.515625 6.113281 C 12.570312 6.074219 12.648438 6 12.6875 5.957031 Z M 10.1875 5.945312 C 10.1875 5.839844 9.996094 5.804688 9.914062 5.894531 C 9.863281 5.949219 9.871094 5.957031 9.953125 5.929688 C 10.089844 5.878906 10.195312 5.945312 10.09375 6.015625 C 10.03125 6.0625 10.035156 6.066406 10.101562 6.046875 C 10.148438 6.035156 10.1875 5.988281 10.1875 5.945312 Z M 11.203125 6.007812 C 11.21875 5.980469 11.183594 5.960938 11.121094 5.964844 C 11.058594 5.96875 11.007812 5.992188 11.007812 6.019531 C 11.007812 6.082031 11.164062 6.074219 11.203125 6.007812 Z M 11.765625 5.917969 C 11.890625 5.824219 11.839844 5.808594 11.683594 5.894531 C 11.613281 5.929688 11.566406 5.929688 11.542969 5.890625 C 11.523438 5.859375 11.527344 5.839844 11.554688 5.847656 C 11.628906 5.875 11.964844 5.542969 11.964844 5.445312 C 11.960938 5.386719 11.890625 5.4375 11.761719 5.582031 C 11.648438 5.710938 11.550781 5.78125 11.535156 5.742188 C 11.480469 5.605469 11.230469 5.359375 11.230469 5.4375 C 11.230469 5.484375 11.300781 5.589844 11.382812 5.679688 C 11.519531 5.820312 11.523438 5.835938 11.425781 5.839844 C 11.332031 5.839844 11.335938 5.851562 11.457031 5.921875 C 11.632812 6.019531 11.632812 6.019531 11.765625 5.917969 Z M 10.941406 5.519531 C 11.070312 5.492188 11.121094 5.453125 11.121094 5.371094 C 11.121094 5.238281 10.707031 4.839844 10.675781 4.941406 C 10.660156 4.976562 10.703125 5.050781 10.761719 5.097656 C 10.871094 5.1875 10.976562 5.441406 10.90625 5.441406 C 10.886719 5.441406 10.816406 5.375 10.75 5.292969 C 10.652344 5.171875 10.601562 5.148438 10.480469 5.179688 C 10.308594 5.222656 10.269531 5.421875 10.417969 5.480469 C 10.507812 5.511719 10.636719 5.386719 10.570312 5.328125 C 10.554688 5.3125 10.527344 5.332031 10.515625 5.371094 C 10.480469 5.46875 10.386719 5.457031 10.386719 5.355469 C 10.386719 5.304688 10.4375 5.273438 10.527344 5.273438 C 10.636719 5.273438 10.667969 5.300781 10.667969 5.410156 C 10.667969 5.484375 10.640625 5.5625 10.609375 5.582031 C 10.578125 5.601562 10.554688 5.644531 10.554688 5.679688 C 10.554688 5.714844 10.601562 5.699219 10.65625 5.648438 C 10.714844 5.597656 10.839844 5.539062 10.941406 5.519531 Z M 12.53125 5.5 C 12.445312 5.335938 12.515625 5.253906 12.714844 5.292969 C 12.859375 5.324219 12.875 5.316406 12.8125 5.242188 C 12.773438 5.195312 12.699219 5.160156 12.644531 5.160156 C 12.523438 5.160156 12.339844 5.359375 12.386719 5.4375 C 12.40625 5.46875 12.410156 5.496094 12.394531 5.496094 C 12.378906 5.496094 12.339844 5.449219 12.308594 5.386719 C 12.257812 5.296875 12.277344 5.25 12.402344 5.136719 C 12.589844 4.960938 12.539062 4.886719 12.324219 5.027344 C 12.125 5.152344 12.082031 5.210938 12.082031 5.363281 C 12.078125 5.457031 12.125 5.492188 12.28125 5.523438 C 12.390625 5.542969 12.496094 5.601562 12.515625 5.652344 C 12.535156 5.707031 12.5625 5.71875 12.574219 5.679688 C 12.585938 5.644531 12.566406 5.5625 12.53125 5.5 Z M 11.910156 5.21875 C 12.15625 4.894531 12.164062 4.480469 11.921875 4.484375 C 11.832031 4.484375 11.832031 4.488281 11.925781 4.542969 C 11.976562 4.574219 12.023438 4.652344 12.023438 4.714844 C 12.023438 4.777344 12 4.8125 11.972656 4.792969 C 11.941406 4.777344 11.902344 4.835938 11.882812 4.929688 C 11.863281 5.023438 11.792969 5.164062 11.730469 5.246094 L 11.613281 5.390625 L 11.480469 5.265625 C 11.40625 5.195312 11.34375 5.09375 11.34375 5.039062 C 11.34375 4.890625 11.28125 4.761719 11.226562 4.796875 C 11.152344 4.84375 11.164062 4.628906 11.242188 4.550781 C 11.292969 4.5 11.292969 4.480469 11.246094 4.480469 C 11.210938 4.480469 11.152344 4.53125 11.117188 4.597656 C 11.03125 4.757812 11.140625 5.070312 11.398438 5.375 C 11.621094 5.644531 11.574219 5.660156 11.910156 5.21875 Z M 12.835938 5.464844 C 12.855469 5.417969 12.84375 5.394531 12.8125 5.414062 C 12.78125 5.433594 12.757812 5.472656 12.757812 5.5 C 12.757812 5.582031 12.796875 5.5625 12.835938 5.464844 Z M 12.679688 5.34375 C 12.621094 5.285156 12.574219 5.371094 12.621094 5.449219 C 12.65625 5.507812 12.667969 5.507812 12.6875 5.449219 C 12.703125 5.410156 12.695312 5.363281 12.679688 5.34375 Z M 11.773438 4.820312 C 11.808594 4.632812 11.808594 4.628906 11.71875 4.734375 C 11.632812 4.84375 11.628906 4.835938 11.640625 4.609375 C 11.648438 4.476562 11.632812 4.378906 11.597656 4.386719 C 11.566406 4.390625 11.550781 4.5 11.558594 4.621094 C 11.574219 4.828125 11.566406 4.839844 11.492188 4.746094 C 11.386719 4.609375 11.320312 4.722656 11.40625 4.890625 C 11.535156 5.136719 11.582031 5.171875 11.664062 5.089844 C 11.703125 5.050781 11.753906 4.925781 11.773438 4.820312 Z M 10.21875 4.929688 C 10.308594 4.757812 10.261719 4.75 10.121094 4.910156 C 10.035156 5.003906 10.023438 5.046875 10.078125 5.046875 C 10.121094 5.046875 10.183594 4.992188 10.21875 4.929688 Z M 9.445312 4.015625 C 9.484375 3.851562 9.4375 3.816406 9.324219 3.925781 C 9.269531 3.980469 9.253906 3.960938 9.253906 3.847656 C 9.253906 3.46875 9.863281 3.1875 10.097656 3.457031 C 10.230469 3.609375 10.425781 3.609375 10.585938 3.460938 C 10.746094 3.3125 10.796875 3.390625 10.6875 3.617188 C 10.609375 3.777344 10.363281 3.929688 10.074219 3.992188 C 9.992188 4.007812 10.007812 4.019531 10.117188 4.023438 C 10.402344 4.035156 10.644531 3.890625 10.757812 3.640625 C 10.816406 3.515625 10.882812 3.410156 10.90625 3.410156 C 10.96875 3.40625 10.957031 3.46875 10.847656 3.6875 C 10.710938 3.96875 10.371094 4.144531 10.058594 4.101562 C 9.855469 4.074219 9.824219 4.054688 9.851562 3.964844 C 9.898438 3.816406 9.804688 3.835938 9.589844 4.015625 L 9.40625 4.167969 Z M 10.257812 3.476562 C 10.097656 3.441406 10.144531 3.371094 10.328125 3.371094 C 10.421875 3.371094 10.5 3.390625 10.5 3.410156 C 10.5 3.46875 10.375 3.503906 10.257812 3.476562 Z M 12.769531 3.480469 C 12.640625 3.433594 12.699219 3.371094 12.871094 3.371094 C 12.964844 3.371094 13.039062 3.378906 13.039062 3.386719 C 13.039062 3.429688 12.832031 3.503906 12.769531 3.480469 Z M 12.769531 3.480469 "/>
<path style=" stroke:none;fill-rule:evenodd;fill:rgb(100%,100%,100%);fill-opacity:1;" d="M 3.574219 2.964844 L 7.179688 2.964844 C 7.695312 2.964844 8.109375 3.382812 8.109375 3.894531 L 8.109375 9.46875 C 8.109375 9.980469 7.695312 10.398438 7.179688 10.398438 L 3.574219 10.398438 C 3.0625 10.398438 2.644531 9.980469 2.644531 9.46875 L 2.644531 3.894531 C 2.644531 3.382812 3.0625 2.964844 3.574219 2.964844 Z M 3.574219 2.964844 "/>
<path style=" stroke:none;fill-rule:nonzero;fill:rgb(81.960784%,0%,0%);fill-opacity:1;" d="M 4.667969 9.046875 C 3.804688 8.164062 3.613281 7.871094 3.613281 7.4375 C 3.613281 6.96875 3.851562 6.660156 4.300781 6.539062 C 4.527344 6.476562 4.597656 6.480469 4.820312 6.566406 C 4.960938 6.621094 5.15625 6.757812 5.253906 6.867188 L 5.433594 7.070312 L 5.640625 6.84375 C 6.121094 6.316406 6.875 6.414062 7.179688 7.035156 C 7.292969 7.277344 7.300781 7.328125 7.238281 7.609375 C 7.152344 8.03125 6.878906 8.421875 6.324219 8.921875 C 6.070312 9.152344 5.769531 9.457031 5.65625 9.59375 L 5.449219 9.847656 Z M 4.667969 9.046875 "/>
<path style=" stroke:none;fill-rule:nonzero;fill:rgb(81.960784%,0%,0%);fill-opacity:1;" d="M 6.5 4.636719 C 6.1875 4.320312 6.121094 4.214844 6.121094 4.058594 C 6.121094 3.890625 6.207031 3.777344 6.367188 3.734375 C 6.449219 3.714844 6.476562 3.714844 6.554688 3.746094 C 6.605469 3.765625 6.675781 3.8125 6.710938 3.855469 L 6.773438 3.925781 L 6.847656 3.847656 C 7.023438 3.65625 7.292969 3.691406 7.402344 3.914062 C 7.445312 4 7.445312 4.019531 7.425781 4.121094 C 7.394531 4.273438 7.296875 4.414062 7.097656 4.59375 C 7.003906 4.675781 6.898438 4.785156 6.855469 4.835938 L 6.78125 4.925781 Z M 6.5 4.636719 "/>
<g style="fill:rgb(0%,0%,0%);fill-opacity:1;">
  <use xlink:href="#glyph0-1" x="3.414063" y="6.040328"/>
</g>
<path style=" stroke:none;fill-rule:nonzero;fill:rgb(81.960784%,0%,0%);fill-opacity:1;" d="M 10.914062 12.683594 C 10.050781 11.800781 9.859375 11.507812 9.859375 11.074219 C 9.859375 10.605469 10.097656 10.296875 10.546875 10.175781 C 10.773438 10.117188 10.84375 10.121094 11.066406 10.203125 C 11.207031 10.257812 11.402344 10.394531 11.5 10.503906 L 11.679688 10.707031 L 11.882812 10.480469 C 12.367188 9.957031 13.121094 10.050781 13.421875 10.675781 C 13.539062 10.914062 13.542969 10.964844 13.484375 11.246094 C 13.394531 11.667969 13.125 12.058594 12.570312 12.558594 C 12.316406 12.789062 12.015625 13.09375 11.902344 13.230469 L 11.695312 13.484375 Z M 10.914062 12.683594 "/>
<path style=" stroke:none;fill-rule:evenodd;fill:rgb(100%,100%,100%);fill-opacity:1;" d="M 9.820312 6.601562 L 13.425781 6.601562 C 13.9375 6.601562 14.355469 7.019531 14.355469 7.53125 L 14.355469 13.105469 C 14.355469 13.617188 13.9375 14.035156 13.425781 14.035156 L 9.820312 14.035156 C 9.304688 14.035156 8.890625 13.617188 8.890625 13.105469 L 8.890625 7.53125 C 8.890625 7.019531 9.304688 6.601562 9.820312 6.601562 Z M 9.820312 6.601562 "/>
<path style=" stroke:none;fill-rule:nonzero;fill:rgb(0%,0%,0%);fill-opacity:1;" d="M 10.796875 13.289062 C 11.152344 13.164062 11.523438 12.734375 11.609375 12.351562 C 11.65625 12.164062 11.625 12.160156 11.335938 12.339844 C 11.074219 12.5 10.605469 12.53125 10.355469 12.398438 C 10.046875 12.238281 9.921875 12.042969 9.921875 11.71875 C 9.921875 11.3125 10.105469 11.0625 10.84375 10.441406 C 11.164062 10.175781 11.480469 9.886719 11.550781 9.800781 L 11.679688 9.640625 L 11.832031 9.824219 C 11.914062 9.921875 12.207031 10.1875 12.476562 10.414062 C 13.097656 10.933594 13.253906 11.097656 13.363281 11.363281 C 13.621094 11.980469 13.25 12.480469 12.53125 12.480469 C 12.296875 12.480469 12.175781 12.445312 12.015625 12.339844 C 11.902344 12.261719 11.796875 12.195312 11.785156 12.195312 C 11.699219 12.195312 11.78125 12.554688 11.90625 12.738281 C 12.0625 12.96875 12.167969 13.0625 12.457031 13.226562 C 12.628906 13.324219 12.613281 13.324219 11.671875 13.320312 C 11.144531 13.320312 10.75 13.304688 10.796875 13.289062 Z M 10.796875 13.289062 "/>
<path style=" stroke:none;fill-rule:nonzero;fill:rgb(0%,0%,0%);fill-opacity:1;" d="M 12.585938 8.757812 C 12.738281 8.707031 12.894531 8.523438 12.933594 8.363281 C 12.949219 8.28125 12.9375 8.28125 12.816406 8.355469 C 12.703125 8.425781 12.507812 8.4375 12.402344 8.382812 C 12.269531 8.3125 12.21875 8.230469 12.21875 8.09375 C 12.21875 7.921875 12.292969 7.816406 12.609375 7.554688 C 12.742188 7.441406 12.878906 7.320312 12.90625 7.28125 L 12.960938 7.214844 L 13.027344 7.292969 C 13.0625 7.332031 13.183594 7.445312 13.300781 7.542969 C 13.5625 7.761719 13.628906 7.832031 13.675781 7.941406 C 13.785156 8.203125 13.625 8.417969 13.320312 8.417969 C 13.222656 8.417969 13.171875 8.402344 13.105469 8.355469 C 13.054688 8.324219 13.011719 8.296875 13.003906 8.296875 C 12.96875 8.296875 13.003906 8.449219 13.058594 8.527344 C 13.125 8.625 13.167969 8.664062 13.289062 8.734375 C 13.363281 8.773438 13.355469 8.773438 12.957031 8.773438 C 12.734375 8.773438 12.566406 8.765625 12.585938 8.757812 Z M 12.585938 8.757812 "/>
<g style="fill:rgb(0%,0%,0%);fill-opacity:1;">
  <use xlink:href="#glyph1-1" x="9.539062" y="9.663146"/>
</g>
</g>
</svg>
