<?xml version="1.0" encoding="UTF-8"?>
<svg xmlns="http://www.w3.org/2000/svg" xmlns:xlink="http://www.w3.org/1999/xlink" width="17pt" height="17pt" viewBox="0 0 17 17" version="1.1">
<defs>
<linearGradient id="linear0" gradientUnits="userSpaceOnUse" x1="-45.121761" y1="-6.136109" x2="-37.529903" y2="-3.40798" gradientTransform="matrix(0.53125,0,0,0.53125,31.528368,9.530141)">
<stop offset="0" style="stop-color:rgb(100%,100%,100%);stop-opacity:1;"/>
<stop offset="1" style="stop-color:rgb(80%,80%,80%);stop-opacity:1;"/>
</linearGradient>
</defs>
<g id="surface1">
<path style=" stroke:none;fill-rule:evenodd;fill:rgb(21.568627%,62.745098%,94.901961%);fill-opacity:1;" d="M 3.96875 1.015625 L 13.03125 1.015625 C 14.664062 1.015625 15.992188 2.339844 15.992188 3.976562 L 15.992188 13.035156 C 15.992188 14.671875 14.664062 15.996094 13.03125 15.996094 L 3.96875 15.996094 C 2.335938 15.996094 1.007812 14.671875 1.007812 13.035156 L 1.007812 3.976562 C 1.007812 2.339844 2.335938 1.015625 3.96875 1.015625 Z M 3.96875 1.015625 "/>
<path style=" stroke:none;fill-rule:evenodd;fill:url(#linear0);" d="M 8.394531 1.003906 C 8.105469 1.574219 7.757812 2.140625 7.496094 2.710938 C 6.707031 4.410156 6.042969 6.109375 5.539062 7.796875 C 5.007812 9.609375 4.527344 11.480469 4.0625 13.300781 C 4.820312 13.363281 4.347656 13.296875 4.933594 13.300781 C 5.335938 12.660156 5.820312 12.066406 6.355469 11.523438 C 6.894531 10.984375 7.488281 10.492188 8.105469 10.054688 C 8.722656 9.617188 9.371094 9.234375 10.015625 8.90625 C 10.65625 8.578125 11.300781 8.308594 11.914062 8.09375 C 11.925781 7.167969 11.886719 6.171875 11.933594 5.203125 C 11.957031 4.71875 12.003906 4.242188 12.09375 3.785156 C 12.179688 3.328125 12.304688 2.886719 12.492188 2.480469 C 12.6875 2.039062 12.980469 1.523438 13.253906 1.019531 C 13.222656 1.019531 13.199219 1.003906 13.167969 1.003906 Z M 8.394531 1.003906 "/>
<path style="fill:none;stroke-width:0.4;stroke-linecap:round;stroke-linejoin:miter;stroke:rgb(38.823529%,49.803922%,45.882353%);stroke-opacity:0.403922;stroke-miterlimit:4;" d="M -50.413693 6.980029 C -49.303399 1.994735 -47.325458 -3.505265 -45.501929 -7.718501 " transform="matrix(0.53125,0,0,0.53125,31.528368,9.530141)"/>
<path style=" stroke:none;fill-rule:nonzero;fill:rgb(75.294118%,79.607843%,78.039216%);fill-opacity:1;" d="M 6.859375 7.546875 C 6.945312 7.253906 6.867188 6.96875 6.679688 6.917969 C 6.496094 6.863281 6.277344 7.054688 6.191406 7.351562 C 6.105469 7.644531 6.183594 7.925781 6.371094 7.980469 C 6.554688 8.035156 6.773438 7.839844 6.859375 7.546875 Z M 6.859375 7.546875 "/>
</g>
</svg>
