<?xml version="1.0" encoding="UTF-8"?>
<svg xmlns="http://www.w3.org/2000/svg" xmlns:xlink="http://www.w3.org/1999/xlink" width="17pt" height="17pt" viewBox="0 0 17 17" version="1.1">
<g id="surface1">
<path style=" stroke:none;fill-rule:evenodd;fill:rgb(30.980392%,30.980392%,30.980392%);fill-opacity:1;" d="M 3.96875 1.007812 L 13.03125 1.007812 C 14.664062 1.007812 15.992188 2.335938 15.992188 3.96875 L 15.992188 13.03125 C 15.992188 14.664062 14.664062 15.992188 13.03125 15.992188 L 3.96875 15.992188 C 2.335938 15.992188 1.007812 14.664062 1.007812 13.03125 L 1.007812 3.96875 C 1.007812 2.335938 2.335938 1.007812 3.96875 1.007812 Z M 3.96875 1.007812 "/>
<path style=" stroke:none;fill-rule:nonzero;fill:rgb(100%,67.058824%,21.176471%);fill-opacity:1;" d="M 12.75 2.65625 L 4.25 5.3125 L 4.25 8.5 L 12.75 5.84375 Z M 12.75 2.65625 "/>
<path style=" stroke:none;fill-rule:nonzero;fill:rgb(100%,67.058824%,21.176471%);fill-opacity:1;" d="M 12.75 8.5 L 4.25 11.15625 L 4.25 14.34375 L 12.75 11.6875 Z M 12.75 8.5 "/>
<path style=" stroke:none;fill-rule:nonzero;fill:rgb(100%,67.058824%,21.176471%);fill-opacity:1;" d="M 4.25 5.3125 L 12.75 8.5 L 12.75 11.6875 L 4.25 8.5 Z M 4.25 5.3125 "/>
</g>
</svg>
