<?xml version="1.0" encoding="UTF-8"?>
<svg xmlns="http://www.w3.org/2000/svg" xmlns:xlink="http://www.w3.org/1999/xlink" width="17pt" height="17pt" viewBox="0 0 17 17" version="1.1">
<g id="surface1">
<path style=" stroke:none;fill-rule:evenodd;fill:rgb(48.235294%,73.333333%,21.176471%);fill-opacity:1;" d="M 3.96875 1.007812 L 13.03125 1.007812 C 14.664062 1.007812 15.992188 2.335938 15.992188 3.96875 L 15.992188 13.03125 C 15.992188 14.664062 14.664062 15.992188 13.03125 15.992188 L 3.96875 15.992188 C 2.335938 15.992188 1.007812 14.664062 1.007812 13.03125 L 1.007812 3.96875 C 1.007812 2.335938 2.335938 1.007812 3.96875 1.007812 Z M 3.96875 1.007812 "/>
<path style=" stroke:none;fill-rule:nonzero;fill:rgb(100%,100%,100%);fill-opacity:1;" d="M 8.5 3.71875 C 11.140625 3.71875 13.28125 5.859375 13.28125 8.5 C 13.28125 11.140625 11.140625 13.28125 8.5 13.28125 C 5.859375 13.28125 3.71875 11.140625 3.71875 8.5 C 3.71875 5.859375 5.859375 3.71875 8.5 3.71875 Z M 8.5 4.78125 C 6.445312 4.78125 4.78125 6.445312 4.78125 8.5 C 4.78125 10.554688 6.445312 12.21875 8.5 12.21875 C 10.554688 12.21875 12.21875 10.554688 12.21875 8.5 C 12.21875 6.445312 10.554688 4.78125 8.5 4.78125 Z M 8.5 6.90625 L 9.554688 7.722656 L 10.625 8.5 L 9.554688 9.277344 L 8.5 10.09375 L 8.511719 9.03125 L 6.90625 9.03125 C 6.613281 9.03125 6.375 8.792969 6.375 8.5 C 6.375 8.207031 6.613281 7.96875 6.90625 7.96875 L 8.511719 7.96875 Z M 8.5 6.90625 "/>
</g>
</svg>
