<?xml version="1.0" encoding="UTF-8"?>
<svg xmlns="http://www.w3.org/2000/svg" xmlns:xlink="http://www.w3.org/1999/xlink" width="17pt" height="17pt" viewBox="0 0 17 17" version="1.1">
<g id="surface1">
<path style=" stroke:none;fill-rule:evenodd;fill:rgb(55.686275%,55.686275%,55.686275%);fill-opacity:1;" d="M 3.96875 1.007812 L 13.03125 1.007812 C 14.664062 1.007812 15.992188 2.335938 15.992188 3.96875 L 15.992188 13.03125 C 15.992188 14.664062 14.664062 15.992188 13.03125 15.992188 L 3.96875 15.992188 C 2.335938 15.992188 1.007812 14.664062 1.007812 13.03125 L 1.007812 3.96875 C 1.007812 2.335938 2.335938 1.007812 3.96875 1.007812 Z M 3.96875 1.007812 "/>
<path style=" stroke:none;fill-rule:nonzero;fill:rgb(80%,80%,80%);fill-opacity:1;" d="M 9.664062 11.324219 C 9.660156 11.324219 9.660156 11.292969 9.660156 11.257812 C 9.660156 11.15625 9.644531 11.097656 9.574219 10.9375 C 9.550781 10.882812 9.515625 10.789062 9.492188 10.730469 C 9.433594 10.578125 9.320312 10.324219 9.292969 10.285156 C 9.28125 10.265625 9.261719 10.230469 9.253906 10.207031 C 9.242188 10.179688 9.226562 10.144531 9.21875 10.128906 C 9.167969 10.027344 9.019531 9.644531 8.945312 9.429688 C 8.921875 9.363281 8.882812 9.261719 8.859375 9.199219 C 8.832031 9.136719 8.792969 9.03125 8.769531 8.960938 C 8.746094 8.890625 8.699219 8.765625 8.664062 8.679688 C 8.589844 8.496094 8.476562 8.160156 8.460938 8.058594 C 8.453125 8.019531 8.441406 7.96875 8.4375 7.949219 C 8.433594 7.929688 8.429688 7.886719 8.429688 7.851562 C 8.429688 7.792969 8.449219 7.652344 8.457031 7.636719 C 8.46875 7.617188 8.484375 7.628906 8.519531 7.675781 C 8.609375 7.804688 8.671875 7.828125 8.980469 7.84375 C 9.152344 7.855469 9.246094 7.871094 9.296875 7.894531 C 9.382812 7.9375 9.449219 8.039062 9.535156 8.25 C 9.679688 8.601562 9.726562 8.726562 9.804688 8.957031 C 9.839844 9.058594 9.859375 9.109375 9.867188 9.113281 C 9.898438 9.117188 10.070312 8.855469 10.148438 8.675781 C 10.246094 8.453125 10.417969 8.003906 10.453125 7.871094 C 10.480469 7.765625 10.578125 7.625 10.734375 7.449219 C 10.78125 7.398438 10.835938 7.34375 10.855469 7.328125 C 10.933594 7.265625 11.132812 7.238281 11.269531 7.269531 C 11.300781 7.277344 11.390625 7.285156 11.472656 7.289062 C 11.578125 7.292969 11.621094 7.296875 11.628906 7.304688 C 11.640625 7.316406 11.621094 7.386719 11.582031 7.472656 C 11.570312 7.503906 11.546875 7.558594 11.539062 7.59375 C 11.527344 7.628906 11.515625 7.660156 11.511719 7.664062 C 11.507812 7.667969 11.492188 7.710938 11.480469 7.753906 C 11.464844 7.796875 11.449219 7.835938 11.445312 7.839844 C 11.421875 7.871094 11.269531 8.332031 11.222656 8.519531 C 11.203125 8.589844 11.179688 8.683594 11.167969 8.730469 C 11.15625 8.777344 11.128906 8.867188 11.113281 8.933594 C 11.09375 8.996094 11.074219 9.0625 11.074219 9.082031 C 11.070312 9.097656 11.054688 9.128906 11.042969 9.152344 C 10.980469 9.273438 10.859375 9.550781 10.71875 9.894531 C 10.574219 10.261719 10.542969 10.328125 10.480469 10.441406 C 10.421875 10.546875 10.226562 10.851562 10.199219 10.875 C 10.191406 10.882812 10.175781 10.90625 10.164062 10.929688 C 10.117188 10.996094 10.019531 11.117188 9.960938 11.171875 C 9.894531 11.238281 9.851562 11.265625 9.765625 11.304688 C 9.699219 11.332031 9.675781 11.335938 9.664062 11.324219 Z M 8.441406 10.949219 C 8.433594 10.945312 8.421875 10.921875 8.414062 10.894531 C 8.402344 10.871094 8.378906 10.824219 8.363281 10.796875 C 8.34375 10.765625 8.328125 10.742188 8.328125 10.738281 C 8.328125 10.734375 8.316406 10.710938 8.304688 10.6875 C 8.289062 10.664062 8.261719 10.605469 8.238281 10.558594 C 8.140625 10.324219 8.070312 10.160156 8.027344 10.078125 L 7.984375 9.992188 L 7.777344 9.988281 C 7.664062 9.988281 7.546875 9.988281 7.515625 9.992188 C 7.4375 10 7.429688 10.011719 7.390625 10.15625 C 7.371094 10.222656 7.351562 10.296875 7.34375 10.320312 C 7.320312 10.40625 7.238281 10.621094 7.21875 10.660156 C 7.191406 10.707031 7.121094 10.777344 7.070312 10.808594 C 7.019531 10.839844 6.933594 10.859375 6.871094 10.859375 C 6.84375 10.859375 6.761719 10.851562 6.695312 10.835938 C 6.617188 10.820312 6.542969 10.8125 6.503906 10.8125 C 6.4375 10.8125 6.4375 10.808594 6.386719 10.773438 C 6.332031 10.730469 6.328125 10.71875 6.347656 10.699219 C 6.378906 10.675781 6.425781 10.535156 6.453125 10.382812 C 6.460938 10.335938 6.476562 10.257812 6.484375 10.214844 C 6.503906 10.125 6.507812 10.078125 6.488281 10.0625 C 6.484375 10.058594 6.453125 10.050781 6.417969 10.046875 C 6.386719 10.042969 6.355469 10.035156 6.351562 10.03125 C 6.34375 10.023438 6.351562 10.011719 6.371094 9.988281 C 6.390625 9.960938 6.398438 9.941406 6.398438 9.917969 C 6.398438 9.890625 6.390625 9.878906 6.359375 9.851562 L 6.320312 9.816406 L 6.351562 9.761719 C 6.371094 9.730469 6.390625 9.695312 6.398438 9.683594 C 6.449219 9.597656 6.527344 9.492188 6.550781 9.476562 C 6.578125 9.460938 6.585938 9.457031 6.621094 9.464844 C 6.644531 9.464844 6.675781 9.46875 6.6875 9.46875 C 6.714844 9.472656 6.707031 9.492188 6.789062 9.25 C 6.808594 9.1875 6.839844 9.09375 6.859375 9.042969 C 6.875 8.992188 6.902344 8.90625 6.921875 8.851562 C 6.9375 8.800781 6.972656 8.6875 7 8.601562 C 7.027344 8.515625 7.058594 8.417969 7.066406 8.382812 C 7.074219 8.347656 7.097656 8.28125 7.121094 8.234375 C 7.140625 8.191406 7.179688 8.09375 7.207031 8.027344 C 7.261719 7.898438 7.402344 7.617188 7.457031 7.519531 C 7.492188 7.457031 7.570312 7.367188 7.585938 7.367188 C 7.589844 7.367188 7.597656 7.375 7.605469 7.382812 C 7.621094 7.410156 7.648438 7.402344 7.757812 7.355469 C 7.855469 7.308594 7.972656 7.277344 7.972656 7.296875 C 7.972656 7.300781 7.953125 7.324219 7.929688 7.351562 C 7.871094 7.417969 7.816406 7.503906 7.800781 7.554688 C 7.792969 7.578125 7.785156 7.636719 7.785156 7.683594 L 7.78125 7.765625 L 7.824219 7.890625 C 7.871094 8.03125 7.925781 8.15625 8.046875 8.390625 C 8.144531 8.574219 8.308594 8.914062 8.339844 8.980469 C 8.375 9.066406 8.476562 9.269531 8.519531 9.335938 C 8.539062 9.375 8.566406 9.421875 8.578125 9.445312 C 8.601562 9.492188 8.6875 9.578125 8.738281 9.601562 C 8.800781 9.632812 8.820312 9.652344 8.832031 9.695312 C 8.855469 9.769531 8.851562 9.789062 8.800781 9.847656 C 8.773438 9.875 8.753906 9.90625 8.753906 9.917969 C 8.753906 9.925781 8.777344 9.980469 8.808594 10.042969 C 8.957031 10.335938 9.085938 10.601562 9.085938 10.601562 C 9.085938 10.605469 9.050781 10.609375 9.003906 10.613281 C 8.875 10.621094 8.832031 10.648438 8.628906 10.847656 C 8.539062 10.9375 8.523438 10.949219 8.492188 10.953125 C 8.46875 10.957031 8.449219 10.957031 8.441406 10.949219 Z M 7.769531 9.472656 C 7.777344 9.464844 7.742188 9.378906 7.695312 9.289062 C 7.65625 9.214844 7.652344 9.207031 7.632812 9.207031 C 7.609375 9.207031 7.609375 9.207031 7.578125 9.324219 C 7.550781 9.425781 7.542969 9.464844 7.554688 9.476562 C 7.5625 9.488281 7.761719 9.484375 7.769531 9.472656 Z M 11.753906 10.890625 C 11.71875 10.882812 11.601562 10.824219 11.5625 10.792969 C 11.503906 10.746094 11.472656 10.734375 11.421875 10.730469 C 11.355469 10.722656 11.335938 10.730469 11.292969 10.769531 C 11.25 10.804688 11.25 10.804688 11.21875 10.792969 C 11.191406 10.785156 11.1875 10.765625 11.195312 10.667969 C 11.214844 10.496094 11.265625 10.347656 11.339844 10.253906 C 11.359375 10.226562 11.386719 10.183594 11.394531 10.160156 C 11.441406 10.039062 11.507812 9.703125 11.546875 9.390625 C 11.558594 9.28125 11.582031 9.140625 11.589844 9.070312 C 11.644531 8.757812 11.660156 8.480469 11.632812 8.386719 C 11.621094 8.34375 11.582031 8.296875 11.523438 8.25 C 11.480469 8.21875 11.480469 8.203125 11.527344 8.152344 C 11.585938 8.089844 11.636719 7.992188 11.742188 7.75 C 11.746094 7.734375 11.761719 7.6875 11.777344 7.640625 C 11.816406 7.519531 11.855469 7.417969 11.867188 7.414062 C 11.871094 7.410156 11.910156 7.425781 11.953125 7.445312 C 12.085938 7.511719 12.121094 7.519531 12.402344 7.519531 C 12.652344 7.519531 12.910156 7.5 13.019531 7.472656 C 13.089844 7.457031 13.394531 7.460938 13.480469 7.480469 C 13.570312 7.496094 13.78125 7.5625 13.839844 7.589844 C 13.886719 7.613281 14.019531 7.738281 14.078125 7.8125 C 14.121094 7.871094 14.167969 7.945312 14.160156 7.953125 C 14.160156 7.953125 14.132812 7.941406 14.101562 7.921875 C 14.046875 7.890625 14.039062 7.886719 14 7.890625 C 13.941406 7.894531 13.933594 7.90625 13.851562 8.023438 C 13.761719 8.152344 13.652344 8.300781 13.617188 8.339844 C 13.59375 8.367188 13.589844 8.367188 13.554688 8.363281 C 13.535156 8.359375 13.480469 8.34375 13.433594 8.332031 C 13.316406 8.296875 13.246094 8.292969 13.105469 8.316406 C 12.910156 8.347656 12.800781 8.359375 12.703125 8.359375 C 12.578125 8.359375 12.585938 8.351562 12.546875 8.554688 C 12.53125 8.644531 12.515625 8.75 12.507812 8.792969 C 12.5 8.863281 12.5 8.875 12.511719 8.886719 C 12.527344 8.898438 12.542969 8.902344 12.941406 8.921875 C 13.082031 8.925781 13.128906 8.933594 13.195312 8.949219 C 13.242188 8.960938 13.28125 8.976562 13.289062 8.980469 C 13.296875 8.988281 13.308594 9.046875 13.320312 9.140625 C 13.332031 9.226562 13.421875 9.355469 13.484375 9.371094 C 13.523438 9.382812 13.519531 9.40625 13.476562 9.421875 C 13.324219 9.480469 13.328125 9.476562 13.140625 9.484375 C 12.988281 9.488281 12.75 9.511719 12.53125 9.542969 C 12.5 9.546875 12.464844 9.550781 12.457031 9.550781 C 12.449219 9.550781 12.433594 9.5625 12.417969 9.574219 C 12.398438 9.59375 12.390625 9.613281 12.371094 9.675781 C 12.34375 9.78125 12.332031 9.914062 12.347656 9.925781 C 12.355469 9.933594 12.40625 9.941406 12.535156 9.945312 C 12.902344 9.960938 13.109375 9.972656 13.292969 9.984375 C 13.394531 9.992188 13.5625 9.996094 13.664062 9.996094 C 13.84375 9.996094 13.855469 9.996094 13.871094 10.011719 C 13.882812 10.03125 13.882812 10.03125 13.855469 10.050781 C 13.796875 10.097656 13.707031 10.195312 13.6875 10.238281 C 13.660156 10.292969 13.636719 10.363281 13.621094 10.457031 C 13.589844 10.613281 13.558594 10.691406 13.515625 10.730469 C 13.449219 10.789062 13.300781 10.835938 13.191406 10.835938 C 13.152344 10.835938 13.070312 10.839844 13.011719 10.84375 C 12.792969 10.859375 12.582031 10.871094 12.238281 10.878906 C 12.046875 10.882812 11.863281 10.886719 11.832031 10.890625 C 11.800781 10.890625 11.765625 10.890625 11.753906 10.890625 Z M 4.320312 10.835938 C 4.132812 10.808594 4.089844 10.796875 3.9375 10.746094 C 3.761719 10.6875 3.59375 10.613281 3.578125 10.582031 C 3.570312 10.570312 3.558594 10.558594 3.554688 10.558594 C 3.546875 10.558594 3.535156 10.546875 3.527344 10.535156 C 3.515625 10.523438 3.488281 10.5 3.460938 10.480469 C 3.433594 10.464844 3.367188 10.402344 3.3125 10.347656 C 3.144531 10.179688 3.082031 10.09375 3.011719 9.929688 C 2.957031 9.800781 2.941406 9.742188 2.925781 9.589844 C 2.917969 9.523438 2.90625 9.429688 2.898438 9.382812 C 2.878906 9.253906 2.871094 9.160156 2.855469 8.898438 C 2.835938 8.5 2.832031 8.332031 2.847656 8.230469 C 2.855469 8.183594 2.871094 8.078125 2.882812 7.996094 C 2.894531 7.914062 2.910156 7.8125 2.917969 7.769531 C 2.921875 7.726562 2.9375 7.640625 2.945312 7.582031 C 2.972656 7.386719 3.007812 7.25 3.046875 7.15625 C 3.066406 7.105469 3.101562 7.03125 3.117188 6.984375 C 3.164062 6.878906 3.277344 6.605469 3.390625 6.4375 C 3.460938 6.335938 3.546875 6.246094 3.640625 6.164062 C 3.769531 6.054688 3.960938 5.929688 4.0625 5.878906 C 4.15625 5.832031 4.339844 5.757812 4.484375 5.722656 C 4.640625 5.6875 4.835938 5.664062 4.964844 5.667969 C 5.238281 5.675781 5.265625 5.675781 5.414062 5.707031 C 5.519531 5.726562 5.621094 5.757812 5.714844 5.808594 C 5.863281 5.890625 6 6.003906 6.109375 6.132812 C 6.1875 6.21875 6.363281 6.480469 6.414062 6.582031 C 6.433594 6.621094 6.457031 6.683594 6.46875 6.714844 C 6.476562 6.746094 6.496094 6.796875 6.507812 6.820312 C 6.515625 6.847656 6.539062 6.925781 6.550781 7 C 6.574219 7.117188 6.578125 7.136719 6.574219 7.238281 C 6.566406 7.378906 6.550781 7.457031 6.515625 7.546875 C 6.492188 7.605469 6.480469 7.621094 6.414062 7.6875 C 6.335938 7.765625 6.253906 7.824219 6.140625 7.890625 C 6.042969 7.941406 5.746094 8.089844 5.734375 8.089844 C 5.726562 8.089844 5.71875 8.09375 5.714844 8.097656 C 5.710938 8.105469 5.621094 8.136719 5.570312 8.140625 C 5.535156 8.148438 5.527344 8.144531 5.503906 8.121094 C 5.480469 8.101562 5.480469 8.09375 5.484375 8.070312 C 5.492188 8.03125 5.5 8.027344 5.546875 8.027344 C 5.589844 8.03125 5.59375 8.03125 5.621094 7.996094 C 5.679688 7.921875 5.683594 7.917969 5.679688 7.832031 C 5.675781 7.71875 5.65625 7.558594 5.636719 7.507812 C 5.613281 7.449219 5.539062 7.304688 5.5 7.242188 C 5.457031 7.167969 5.425781 7.136719 5.308594 7.039062 C 5.253906 6.996094 5.207031 6.957031 5.199219 6.949219 C 5.195312 6.945312 5.164062 6.925781 5.128906 6.90625 C 5.019531 6.84375 4.914062 6.839844 4.816406 6.890625 C 4.726562 6.9375 4.523438 7.160156 4.429688 7.320312 C 4.300781 7.535156 4.226562 7.769531 4.199219 8.027344 C 4.195312 8.078125 4.191406 8.234375 4.191406 8.378906 C 4.191406 8.714844 4.199219 8.765625 4.285156 8.921875 C 4.308594 8.957031 4.324219 8.988281 4.324219 8.992188 C 4.324219 9 4.332031 9.011719 4.339844 9.023438 C 4.351562 9.03125 4.382812 9.078125 4.410156 9.125 C 4.445312 9.175781 4.492188 9.234375 4.53125 9.273438 C 4.570312 9.308594 4.601562 9.339844 4.605469 9.339844 C 4.605469 9.339844 4.632812 9.363281 4.664062 9.390625 C 4.730469 9.445312 4.808594 9.488281 4.925781 9.523438 C 5.066406 9.566406 5.132812 9.574219 5.386719 9.578125 C 5.585938 9.578125 5.625 9.578125 5.683594 9.5625 C 5.71875 9.554688 5.769531 9.542969 5.792969 9.539062 C 5.84375 9.53125 5.878906 9.527344 5.910156 9.519531 C 5.921875 9.515625 5.941406 9.515625 5.953125 9.515625 C 5.964844 9.515625 5.980469 9.511719 5.988281 9.507812 C 5.996094 9.503906 6.027344 9.5 6.0625 9.496094 C 6.097656 9.492188 6.144531 9.488281 6.167969 9.488281 C 6.214844 9.480469 6.253906 9.492188 6.253906 9.507812 C 6.253906 9.511719 6.238281 9.535156 6.222656 9.5625 C 6.160156 9.667969 6.035156 9.914062 6.011719 9.96875 C 5.992188 10.027344 5.996094 10.128906 6.019531 10.167969 C 6.042969 10.207031 6.039062 10.222656 6.007812 10.261719 C 5.992188 10.28125 5.976562 10.300781 5.976562 10.304688 C 5.976562 10.308594 5.972656 10.316406 5.964844 10.320312 C 5.960938 10.324219 5.949219 10.335938 5.945312 10.347656 C 5.914062 10.40625 5.679688 10.671875 5.632812 10.699219 C 5.558594 10.746094 5.300781 10.804688 5.007812 10.839844 C 4.9375 10.847656 4.8125 10.855469 4.683594 10.855469 C 4.496094 10.859375 4.464844 10.855469 4.320312 10.835938 Z M 9.992188 7.488281 C 9.988281 7.484375 9.703125 7.453125 9.496094 7.433594 C 9.28125 7.414062 9.148438 7.382812 9.121094 7.347656 C 9.101562 7.324219 9.121094 7.242188 9.210938 6.90625 C 9.222656 6.851562 9.242188 6.753906 9.253906 6.691406 C 9.261719 6.625 9.277344 6.539062 9.285156 6.496094 C 9.300781 6.445312 9.300781 6.40625 9.300781 6.359375 C 9.296875 6.308594 9.296875 6.300781 9.308594 6.300781 C 9.316406 6.300781 9.363281 6.308594 9.417969 6.316406 C 9.46875 6.324219 9.574219 6.339844 9.648438 6.347656 C 9.71875 6.351562 9.804688 6.363281 9.832031 6.367188 C 9.863281 6.371094 9.972656 6.378906 10.078125 6.382812 C 10.183594 6.386719 10.273438 6.394531 10.277344 6.398438 C 10.28125 6.398438 10.304688 6.445312 10.328125 6.496094 C 10.371094 6.578125 10.375 6.589844 10.363281 6.601562 C 10.328125 6.636719 10.015625 6.625 9.769531 6.582031 C 9.617188 6.554688 9.625 6.550781 9.609375 6.628906 C 9.589844 6.742188 9.597656 6.757812 9.710938 6.769531 C 9.835938 6.785156 9.910156 6.796875 9.910156 6.808594 C 9.910156 6.8125 9.910156 6.835938 9.910156 6.863281 C 9.90625 6.90625 9.910156 6.914062 9.933594 6.941406 C 9.949219 6.957031 9.957031 6.976562 9.953125 6.980469 C 9.949219 6.988281 9.90625 6.988281 9.792969 6.984375 C 9.609375 6.976562 9.574219 6.976562 9.5625 6.992188 C 9.546875 7.007812 9.53125 7.132812 9.546875 7.144531 C 9.566406 7.167969 9.789062 7.207031 9.933594 7.214844 C 10.015625 7.21875 10.121094 7.230469 10.175781 7.238281 C 10.226562 7.242188 10.285156 7.25 10.304688 7.25 C 10.347656 7.25 10.355469 7.261719 10.332031 7.285156 C 10.324219 7.296875 10.316406 7.308594 10.316406 7.3125 C 10.316406 7.316406 10.304688 7.335938 10.292969 7.351562 C 10.265625 7.398438 10.261719 7.421875 10.28125 7.453125 C 10.289062 7.46875 10.296875 7.484375 10.292969 7.488281 C 10.289062 7.492188 9.996094 7.496094 9.992188 7.488281 Z M 8.78125 7.269531 C 8.734375 7.234375 8.703125 7.234375 8.625 7.257812 C 8.542969 7.285156 8.542969 7.28125 8.542969 7.117188 C 8.542969 7.039062 8.546875 6.941406 8.558594 6.878906 L 8.574219 6.769531 L 8.546875 6.738281 C 8.507812 6.691406 8.460938 6.664062 8.394531 6.644531 C 8.332031 6.625 8.316406 6.625 8.304688 6.636719 C 8.300781 6.644531 8.292969 6.695312 8.285156 6.753906 C 8.257812 6.984375 8.25 6.992188 8.132812 7.03125 C 8.085938 7.046875 8.039062 7.0625 8.027344 7.070312 C 7.925781 7.113281 7.863281 7.132812 7.863281 7.117188 C 7.863281 7.117188 7.882812 7.078125 7.90625 7.035156 C 7.953125 6.945312 7.957031 6.925781 7.976562 6.742188 C 7.992188 6.59375 7.988281 6.550781 7.957031 6.523438 C 7.929688 6.5 7.859375 6.46875 7.828125 6.46875 C 7.808594 6.46875 7.796875 6.464844 7.796875 6.457031 C 7.796875 6.445312 7.921875 6.359375 7.996094 6.320312 C 8.046875 6.296875 8.039062 6.3125 8.085938 6.070312 C 8.121094 5.875 8.117188 5.878906 8.128906 5.878906 C 8.132812 5.878906 8.167969 5.90625 8.203125 5.941406 C 8.238281 5.976562 8.296875 6.019531 8.328125 6.039062 C 8.359375 6.058594 8.390625 6.078125 8.394531 6.085938 C 8.402344 6.09375 8.402344 6.117188 8.390625 6.167969 C 8.382812 6.203125 8.375 6.253906 8.375 6.277344 L 8.367188 6.316406 L 8.433594 6.355469 C 8.46875 6.378906 8.523438 6.414062 8.550781 6.433594 C 8.582031 6.453125 8.609375 6.46875 8.617188 6.46875 C 8.640625 6.46875 8.667969 6.371094 8.667969 6.285156 C 8.671875 6.210938 8.675781 6.210938 8.78125 6.253906 C 8.855469 6.285156 8.882812 6.289062 8.925781 6.292969 C 8.953125 6.292969 8.976562 6.292969 8.980469 6.296875 C 8.984375 6.300781 8.976562 6.363281 8.96875 6.433594 C 8.960938 6.503906 8.949219 6.636719 8.945312 6.726562 C 8.933594 6.9375 8.929688 6.960938 8.90625 7.035156 C 8.875 7.128906 8.859375 7.183594 8.855469 7.234375 C 8.851562 7.3125 8.847656 7.3125 8.78125 7.269531 Z M 7.238281 7.183594 C 7.226562 7.179688 7.214844 7.175781 7.203125 7.167969 C 7.195312 7.160156 7.167969 7.15625 7.148438 7.15625 C 7.109375 7.15625 7.109375 7.15625 7.113281 7.136719 C 7.128906 7.070312 7.15625 6.898438 7.160156 6.855469 C 7.164062 6.824219 7.171875 6.703125 7.179688 6.589844 C 7.183594 6.472656 7.191406 6.339844 7.195312 6.296875 C 7.203125 6.199219 7.191406 6.144531 7.164062 6.128906 C 7.148438 6.121094 7.089844 6.121094 6.910156 6.121094 C 6.660156 6.125 6.648438 6.121094 6.667969 6.085938 C 6.675781 6.078125 6.675781 6.046875 6.671875 6.015625 C 6.671875 5.972656 6.664062 5.953125 6.636719 5.917969 C 6.621094 5.890625 6.59375 5.855469 6.574219 5.839844 C 6.558594 5.824219 6.542969 5.808594 6.542969 5.804688 C 6.542969 5.789062 6.820312 5.792969 6.953125 5.8125 C 7.078125 5.828125 7.113281 5.828125 7.296875 5.8125 C 7.375 5.804688 7.460938 5.785156 7.46875 5.769531 C 7.472656 5.765625 7.480469 5.761719 7.488281 5.761719 C 7.503906 5.761719 7.507812 5.769531 7.511719 5.804688 C 7.515625 5.832031 7.519531 5.859375 7.527344 5.867188 C 7.539062 5.886719 7.636719 5.894531 7.8125 5.894531 C 7.980469 5.894531 7.984375 5.898438 7.964844 5.949219 C 7.957031 5.964844 7.933594 6 7.910156 6.03125 C 7.84375 6.109375 7.816406 6.125 7.664062 6.132812 C 7.597656 6.136719 7.542969 6.144531 7.539062 6.148438 C 7.53125 6.152344 7.511719 6.417969 7.5 6.589844 C 7.5 6.648438 7.5 6.742188 7.511719 6.84375 C 7.523438 6.972656 7.523438 7.019531 7.515625 7.058594 C 7.507812 7.113281 7.480469 7.152344 7.445312 7.167969 C 7.417969 7.179688 7.265625 7.191406 7.238281 7.183594 Z M 7.238281 7.183594 "/>
</g>
</svg>
