<?xml version="1.0" encoding="UTF-8"?>
<svg xmlns="http://www.w3.org/2000/svg" xmlns:xlink="http://www.w3.org/1999/xlink" width="17pt" height="17pt" viewBox="0 0 17 17" version="1.1">
<g id="surface1">
<path style=" stroke:none;fill-rule:evenodd;fill:rgb(55.686275%,55.686275%,55.686275%);fill-opacity:1;" d="M 3.96875 1.007812 L 13.03125 1.007812 C 14.664062 1.007812 15.992188 2.335938 15.992188 3.96875 L 15.992188 13.03125 C 15.992188 14.664062 14.664062 15.992188 13.03125 15.992188 L 3.96875 15.992188 C 2.335938 15.992188 1.007812 14.664062 1.007812 13.03125 L 1.007812 3.96875 C 1.007812 2.335938 2.335938 1.007812 3.96875 1.007812 Z M 3.96875 1.007812 "/>
<path style=" stroke:none;fill-rule:nonzero;fill:rgb(30.196078%,30.196078%,30.196078%);fill-opacity:1;" d="M 3.160156 10.734375 L 7.382812 10.734375 C 7.726562 10.734375 8.003906 11.011719 8.003906 11.355469 L 8.003906 13.09375 C 8.003906 13.4375 7.726562 13.714844 7.382812 13.714844 L 3.160156 13.714844 C 2.816406 13.714844 2.539062 13.4375 2.539062 13.09375 L 2.539062 11.355469 C 2.539062 11.011719 2.816406 10.734375 3.160156 10.734375 Z M 3.160156 10.734375 "/>
<path style=" stroke:none;fill-rule:nonzero;fill:rgb(30.196078%,30.196078%,30.196078%);fill-opacity:1;" d="M 9.617188 10.734375 L 13.839844 10.734375 C 14.183594 10.734375 14.460938 11.011719 14.460938 11.355469 L 14.460938 13.09375 C 14.460938 13.4375 14.183594 13.714844 13.839844 13.714844 L 9.617188 13.714844 C 9.273438 13.714844 8.996094 13.4375 8.996094 13.09375 L 8.996094 11.355469 C 8.996094 11.011719 9.273438 10.734375 9.617188 10.734375 Z M 9.617188 10.734375 "/>
<path style=" stroke:none;fill-rule:nonzero;fill:rgb(30.196078%,30.196078%,30.196078%);fill-opacity:1;" d="M 12.472656 3.285156 L 14.460938 3.285156 L 14.460938 3.78125 L 12.472656 3.78125 Z M 12.472656 3.285156 "/>
<path style=" stroke:none;fill-rule:nonzero;fill:rgb(30.196078%,30.196078%,30.196078%);fill-opacity:1;" d="M 12.472656 4.277344 L 14.460938 4.277344 L 14.460938 4.773438 L 12.472656 4.773438 Z M 12.472656 4.277344 "/>
<path style=" stroke:none;fill-rule:nonzero;fill:rgb(30.196078%,30.196078%,30.196078%);fill-opacity:1;" d="M 12.472656 5.269531 L 14.460938 5.269531 L 14.460938 5.769531 L 12.472656 5.769531 Z M 12.472656 5.269531 "/>
<path style=" stroke:none;fill-rule:nonzero;fill:rgb(30.196078%,30.196078%,30.196078%);fill-opacity:1;" d="M 12.472656 6.265625 L 14.460938 6.265625 L 14.460938 6.761719 L 12.472656 6.761719 Z M 12.472656 6.265625 "/>
<path style=" stroke:none;fill-rule:nonzero;fill:rgb(30.196078%,30.196078%,30.196078%);fill-opacity:1;" d="M 12.472656 7.257812 L 14.460938 7.257812 L 14.460938 7.753906 L 12.472656 7.753906 Z M 12.472656 7.257812 "/>
<path style=" stroke:none;fill-rule:nonzero;fill:rgb(30.196078%,30.196078%,30.196078%);fill-opacity:1;" d="M 12.472656 8.25 L 14.460938 8.25 L 14.460938 8.75 L 12.472656 8.75 Z M 12.472656 8.25 "/>
</g>
</svg>
