<?xml version="1.0" encoding="UTF-8"?>
<svg xmlns="http://www.w3.org/2000/svg" xmlns:xlink="http://www.w3.org/1999/xlink" width="17pt" height="17pt" viewBox="0 0 17 17" version="1.1">
<g id="surface1">
<path style=" stroke:none;fill-rule:evenodd;fill:rgb(60%,60%,60%);fill-opacity:1;" d="M 15.261719 14.921875 C 15.105469 14.960938 14.90625 15.011719 14.90625 15.011719 L 2.078125 15.011719 C 2.019531 15.011719 1.867188 14.960938 1.75 14.941406 C 2.292969 15.570312 3.070312 15.992188 3.96875 15.992188 L 13.03125 15.992188 C 13.9375 15.992188 14.71875 15.5625 15.261719 14.921875 Z M 15.261719 14.921875 "/>
<path style=" stroke:none;fill-rule:evenodd;fill:rgb(65.098039%,65.098039%,65.098039%);fill-opacity:1;" d="M 15.976562 13.113281 L 15.976562 7.421875 C 15.976562 7.175781 15.859375 6.960938 15.675781 6.824219 L 15.679688 6.820312 L 8.492188 1.542969 C 8.492188 1.542969 1.304688 6.828125 1.347656 6.796875 L 1.347656 6.792969 C 1.335938 6.804688 1.320312 6.816406 1.304688 6.828125 L 1.296875 6.832031 L 1.296875 6.835938 C 1.121094 6.972656 1.007812 7.183594 1.007812 7.421875 L 1.007812 13.03125 C 1.007812 13.769531 1.304688 14.421875 1.75 14.941406 C 1.871094 14.960938 2.019531 15.011719 2.078125 15.011719 L 14.90625 15.011719 C 14.90625 15.011719 15.105469 14.960938 15.261719 14.921875 C 15.683594 14.425781 15.957031 13.808594 15.976562 13.113281 Z M 15.976562 13.113281 "/>
<path style=" stroke:none;fill-rule:evenodd;fill:rgb(40%,40%,40%);fill-opacity:1;" d="M 3.96875 1.007812 C 2.328125 1.007812 1.007812 2.328125 1.007812 3.972656 L 1.007812 7.421875 C 1.007812 7.183594 1.121094 6.972656 1.296875 6.835938 L 1.296875 6.832031 L 1.304688 6.828125 C 1.320312 6.816406 1.335938 6.804688 1.347656 6.792969 L 1.347656 6.796875 C 1.304688 6.828125 8.492188 1.542969 8.492188 1.542969 L 15.679688 6.820312 L 15.675781 6.824219 C 15.859375 6.960938 15.976562 7.175781 15.976562 7.421875 L 15.976562 13.113281 C 15.976562 13.082031 15.992188 13.058594 15.992188 13.03125 L 15.992188 3.972656 C 15.992188 2.328125 14.671875 1.007812 13.03125 1.007812 Z M 3.96875 1.007812 "/>
<path style=" stroke:none;fill-rule:nonzero;fill:rgb(19.215686%,68.627451%,88.235294%);fill-opacity:1;" d="M 3.414062 3.144531 L 13.570312 3.144531 C 14.011719 3.144531 14.371094 3.503906 14.371094 3.945312 L 14.371094 11.964844 C 14.371094 12.40625 14.011719 12.765625 13.570312 12.765625 L 3.414062 12.765625 C 2.972656 12.765625 2.613281 12.40625 2.613281 11.964844 L 2.613281 3.945312 C 2.613281 3.503906 2.972656 3.144531 3.414062 3.144531 Z M 3.414062 3.144531 "/>
<path style=" stroke:none;fill-rule:nonzero;fill:rgb(100%,100%,100%);fill-opacity:1;" d="M 8.492188 4.75 C 7.015625 4.75 5.820312 5.945312 5.820312 7.421875 C 5.820312 8.898438 7.015625 10.09375 8.492188 10.09375 L 10.363281 10.09375 C 10.511719 10.09375 10.628906 9.976562 10.628906 9.828125 C 10.628906 9.679688 10.511719 9.558594 10.363281 9.558594 L 8.492188 9.558594 C 7.3125 9.558594 6.355469 8.601562 6.355469 7.421875 C 6.355469 6.242188 7.3125 5.285156 8.492188 5.285156 C 9.671875 5.285156 10.628906 6.242188 10.628906 7.421875 L 10.628906 8.222656 C 10.628906 8.371094 10.511719 8.492188 10.363281 8.492188 C 10.214844 8.492188 10.097656 8.371094 10.097656 8.222656 L 10.097656 7.421875 C 10.097656 6.535156 9.378906 5.816406 8.492188 5.816406 C 7.605469 5.816406 6.886719 6.535156 6.886719 7.421875 C 6.886719 8.308594 7.605469 9.023438 8.492188 9.023438 C 8.921875 9.023438 9.332031 8.851562 9.632812 8.550781 C 9.753906 8.828125 10.035156 9.023438 10.363281 9.023438 C 10.808594 9.023438 11.164062 8.667969 11.164062 8.222656 L 11.164062 7.421875 C 11.164062 5.945312 9.96875 4.75 8.492188 4.75 Z M 8.492188 6.351562 C 9.082031 6.351562 9.5625 6.832031 9.5625 7.421875 C 9.5625 8.011719 9.082031 8.492188 8.492188 8.492188 C 7.902344 8.492188 7.421875 8.011719 7.421875 7.421875 C 7.421875 6.832031 7.902344 6.351562 8.492188 6.351562 Z M 8.492188 6.351562 "/>
<path style=" stroke:none;fill-rule:evenodd;fill:rgb(82.352941%,82.352941%,82.352941%);fill-opacity:1;" d="M 15.976562 13.113281 L 15.976562 7.421875 L 3.679688 15.933594 C 3.78125 15.945312 3.867188 15.992188 3.96875 15.992188 L 13.03125 15.992188 C 14.640625 15.992188 15.929688 14.710938 15.976562 13.113281 Z M 15.976562 13.113281 "/>
<path style=" stroke:none;fill-rule:evenodd;fill:rgb(74.509804%,74.509804%,74.509804%);fill-opacity:1;" d="M 8.492188 12.601562 L 1.007812 7.421875 L 1.007812 13.03125 C 1.007812 14.566406 2.183594 15.78125 3.679688 15.933594 Z M 8.492188 12.601562 "/>
</g>
</svg>
