<?xml version="1.0" encoding="UTF-8"?>
<svg xmlns="http://www.w3.org/2000/svg" xmlns:xlink="http://www.w3.org/1999/xlink" width="17pt" height="17pt" viewBox="0 0 17 17" version="1.1">
<g id="surface1">
<path style=" stroke:none;fill-rule:evenodd;fill:rgb(14.117647%,22.745098%,52.156863%);fill-opacity:1;" d="M 3.96875 1.007812 L 13.03125 1.007812 C 14.664062 1.007812 15.992188 2.335938 15.992188 3.96875 L 15.992188 13.03125 C 15.992188 14.664062 14.664062 15.992188 13.03125 15.992188 L 3.96875 15.992188 C 2.335938 15.992188 1.007812 14.664062 1.007812 13.03125 L 1.007812 3.96875 C 1.007812 2.335938 2.335938 1.007812 3.96875 1.007812 Z M 3.96875 1.007812 "/>
<path style=" stroke:none;fill-rule:nonzero;fill:rgb(100%,100%,100%);fill-opacity:1;" d="M 8.710938 13.296875 C 7.476562 13.136719 6.296875 12.773438 5.589844 12.160156 C 5.386719 11.988281 4.984375 11.566406 5.019531 11.554688 C 5.136719 11.578125 5.375 11.683594 5.609375 11.691406 C 5.84375 11.695312 5.96875 11.449219 6.082031 11.257812 L 6.082031 9.277344 C 6.082031 7.089844 6.132812 7.128906 5.976562 6.992188 C 5.789062 6.828125 5.234375 6.878906 4.863281 7.132812 C 4.289062 7.511719 3.609375 8.359375 3.128906 9.242188 C 3.042969 9.398438 2.964844 9.53125 2.957031 9.542969 C 2.949219 9.550781 2.945312 9.378906 2.953125 9.164062 C 2.972656 8.566406 3.082031 8.152344 3.382812 7.535156 C 3.660156 6.976562 3.800781 6.824219 4.390625 6.183594 C 5.367188 5.117188 6.332031 4.382812 7.289062 3.972656 C 7.511719 3.878906 8.210938 3.691406 8.261719 3.691406 C 8.269531 3.691406 7.929688 3.890625 7.851562 3.945312 C 7.378906 4.292969 7.214844 4.53125 7.148438 4.953125 C 7.097656 5.265625 7.273438 5.644531 7.410156 5.796875 C 7.480469 5.875 7.507812 5.890625 7.605469 5.898438 C 7.742188 5.886719 8.066406 5.828125 8.207031 5.816406 L 8.207031 10.757812 C 8.207031 11.128906 8.367188 11.152344 8.734375 11.152344 C 9.113281 11.152344 9.429688 10.871094 9.800781 10.628906 L 9.800781 6.46875 L 9.667969 5.992188 C 9.613281 5.796875 9.46875 5.558594 9.269531 5.285156 C 9.648438 5.292969 9.894531 5.75 10.226562 5.871094 C 11.195312 5.101562 11.882812 4.480469 12.988281 4.222656 C 12.507812 4.988281 12.441406 5.3125 11.925781 6.054688 L 11.925781 10.503906 C 11.980469 10.566406 12.253906 10.644531 12.382812 10.65625 C 13.257812 10.53125 13.46875 10.039062 14.050781 9.535156 C 14.070312 9.554688 13.601562 10.4375 13.402344 10.734375 C 12.800781 11.636719 11.933594 12.199219 11.132812 12.707031 C 10.980469 12.804688 10.980469 12.804688 10.925781 12.765625 C 10.546875 12.589844 10.332031 12.496094 9.890625 12.164062 C 9.460938 12.574219 9.253906 12.871094 8.804688 13.308594 C 8.789062 13.304688 8.746094 13.300781 8.710938 13.296875 Z M 8.710938 13.296875 "/>
</g>
</svg>
