<?xml version="1.0" encoding="UTF-8"?>
<svg xmlns="http://www.w3.org/2000/svg" xmlns:xlink="http://www.w3.org/1999/xlink" width="17pt" height="17pt" viewBox="0 0 17 17" version="1.1">
<g id="surface1">
<path style=" stroke:none;fill-rule:evenodd;fill:rgb(30.980392%,30.980392%,30.980392%);fill-opacity:1;" d="M 3.96875 1.007812 L 13.03125 1.007812 C 14.664062 1.007812 15.992188 2.335938 15.992188 3.96875 L 15.992188 13.03125 C 15.992188 14.664062 14.664062 15.992188 13.03125 15.992188 L 3.96875 15.992188 C 2.335938 15.992188 1.007812 14.664062 1.007812 13.03125 L 1.007812 3.96875 C 1.007812 2.335938 2.335938 1.007812 3.96875 1.007812 Z M 3.96875 1.007812 "/>
<path style=" stroke:none;fill-rule:nonzero;fill:rgb(41.568627%,14.509804%,21.568627%);fill-opacity:1;" d="M 2.390625 6.375 L 4.105469 10.625 L 5.324219 10.625 L 7.011719 6.375 L 5.855469 6.375 L 4.703125 9.175781 L 3.558594 6.375 Z M 2.390625 6.375 "/>
<path style=" stroke:none;fill-rule:nonzero;fill:rgb(65.098039%,66.666667%,67.843137%);fill-opacity:0.941176;" d="M 8.140625 6.375 C 7.566406 7.800781 6.980469 9.214844 6.375 10.625 L 7.597656 10.625 L 8.738281 7.835938 L 9.867188 10.625 L 11.089844 10.625 L 12.21875 7.757812 L 13.386719 10.625 L 14.609375 10.625 C 14.003906 9.214844 13.40625 7.800781 12.828125 6.375 L 11.609375 6.375 L 10.480469 9.175781 L 9.324219 6.375 Z M 8.140625 6.375 "/>
</g>
</svg>
