<?xml version="1.0" encoding="UTF-8"?>
<svg xmlns="http://www.w3.org/2000/svg" xmlns:xlink="http://www.w3.org/1999/xlink" width="17pt" height="17pt" viewBox="0 0 17 17" version="1.1">
<defs>
<filter id="alpha" filterUnits="objectBoundingBox" x="0%" y="0%" width="100%" height="100%">
  <feColorMatrix type="matrix" in="SourceGraphic" values="0 0 0 0 1 0 0 0 0 1 0 0 0 0 1 0 0 0 1 0"/>
</filter>
<mask id="mask0">
  <g filter="url(#alpha)">
<rect x="0" y="0" width="17" height="17" style="fill:rgb(0%,0%,0%);fill-opacity:0.2;stroke:none;"/>
  </g>
</mask>
<clipPath id="clip1">
  <rect width="17" height="17"/>
</clipPath>
<g id="surface6" clip-path="url(#clip1)">
<path style=" stroke:none;fill-rule:nonzero;fill:rgb(100%,100%,100%);fill-opacity:1;" d="M 8.464844 3.726562 C 7.957031 3.726562 7.621094 3.878906 7.621094 4.085938 C 7.621094 4.140625 7.65625 4.199219 7.714844 4.253906 C 7.847656 4.140625 8.113281 4.066406 8.464844 4.066406 C 8.8125 4.066406 9.132812 4.160156 9.300781 4.285156 C 9.371094 4.230469 9.425781 4.175781 9.425781 4.125 C 9.425781 3.921875 8.96875 3.726562 8.464844 3.726562 Z M 8.464844 3.726562 "/>
</g>
</defs>
<g id="surface1">
<path style=" stroke:none;fill-rule:evenodd;fill:rgb(100%,100%,100%);fill-opacity:1;" d="M 3.96875 1.007812 L 13.03125 1.007812 C 14.664062 1.007812 15.992188 2.335938 15.992188 3.96875 L 15.992188 13.03125 C 15.992188 14.664062 14.664062 15.992188 13.03125 15.992188 L 3.96875 15.992188 C 2.335938 15.992188 1.007812 14.664062 1.007812 13.03125 L 1.007812 3.96875 C 1.007812 2.335938 2.335938 1.007812 3.96875 1.007812 Z M 3.96875 1.007812 "/>
<path style=" stroke:none;fill-rule:evenodd;fill:rgb(100%,53.333333%,0%);fill-opacity:1;" d="M 5.398438 9.519531 C 5.203125 9.519531 5.03125 9.636719 4.957031 9.816406 L 3.765625 12.613281 C 3.632812 12.929688 3.863281 13.273438 4.203125 13.273438 L 12.796875 13.273438 C 13.136719 13.273438 13.367188 12.929688 13.234375 12.613281 L 12.042969 9.816406 C 11.96875 9.636719 11.796875 9.519531 11.601562 9.519531 Z M 5.398438 9.519531 "/>
<path style=" stroke:none;fill-rule:evenodd;fill:rgb(100%,53.333333%,0%);fill-opacity:1;" d="M 8.5 3.726562 C 8.285156 3.722656 8.0625 3.757812 7.84375 3.847656 C 7.710938 3.902344 7.605469 4.015625 7.566406 4.15625 L 7.125 5.636719 C 7.820312 7.132812 9.214844 6.128906 9.875 5.636719 L 9.433594 4.15625 C 9.390625 4.007812 9.277344 3.890625 9.132812 3.839844 C 8.929688 3.769531 8.71875 3.726562 8.5 3.726562 Z M 6.5625 7.546875 L 6.03125 9.339844 C 6.203125 10.855469 8.871094 10.539062 10.949219 9.277344 L 10.4375 7.546875 C 9.125 8.070312 8.59375 6.546875 6.5625 7.546875 Z M 6.5625 7.546875 "/>
<path style=" stroke:none;fill-rule:evenodd;fill:rgb(100%,100%,100%);fill-opacity:1;" d="M 7.125 5.640625 L 6.03125 9.335938 L 6.5625 7.546875 C 8.023438 8.203125 9.125 8.070312 10.4375 7.546875 L 10.949219 9.277344 C 8.875 10.535156 6.546875 9.640625 6.03125 9.335938 L 5.65625 10.605469 C 5.597656 10.800781 5.671875 11.015625 5.839844 11.132812 C 6.574219 11.644531 7.53125 11.851562 8.480469 11.84375 C 9.433594 11.832031 10.386719 11.609375 11.136719 11.148438 C 11.320312 11.035156 11.40625 10.8125 11.34375 10.605469 L 9.875 5.640625 C 9.214844 6.117188 7.785156 6.117188 7.125 5.640625 Z M 7.125 5.640625 "/>
<use xlink:href="#surface6" mask="url(#mask0)"/>
</g>
</svg>
