<?xml version="1.0" encoding="UTF-8"?>
<svg xmlns="http://www.w3.org/2000/svg" xmlns:xlink="http://www.w3.org/1999/xlink" width="17pt" height="17pt" viewBox="0 0 17 17" version="1.1">
<g id="surface1">
<path style=" stroke:none;fill-rule:evenodd;fill:rgb(30.588235%,56.862745%,85.098039%);fill-opacity:1;" d="M 3.96875 1.007812 L 13.03125 1.007812 C 14.664062 1.007812 15.992188 2.335938 15.992188 3.96875 L 15.992188 13.03125 C 15.992188 14.664062 14.664062 15.992188 13.03125 15.992188 L 3.96875 15.992188 C 2.335938 15.992188 1.007812 14.664062 1.007812 13.03125 L 1.007812 3.96875 C 1.007812 2.335938 2.335938 1.007812 3.96875 1.007812 Z M 3.96875 1.007812 "/>
<path style=" stroke:none;fill-rule:nonzero;fill:rgb(100%,67.843137%,32.54902%);fill-opacity:1;" d="M 10.890625 13.8125 C 11.332031 13.8125 11.6875 13.457031 11.6875 13.015625 L 11.6875 6.109375 C 11.6875 5.667969 11.332031 5.3125 10.890625 5.3125 L 3.984375 5.3125 C 3.542969 5.3125 3.1875 5.667969 3.1875 6.109375 L 3.1875 13.015625 C 3.1875 13.457031 3.542969 13.8125 3.984375 13.8125 Z M 9.5625 11.6875 L 5.3125 11.6875 L 5.3125 7.4375 L 9.5625 7.4375 Z M 9.5625 11.6875 "/>
<path style=" stroke:none;fill-rule:nonzero;fill:rgb(63.921569%,79.215686%,96.470588%);fill-opacity:1;" d="M 13.015625 11.6875 C 13.457031 11.6875 13.8125 11.332031 13.8125 10.890625 L 13.8125 3.984375 C 13.8125 3.542969 13.457031 3.1875 13.015625 3.1875 L 6.109375 3.1875 C 5.667969 3.1875 5.3125 3.542969 5.3125 3.984375 L 5.3125 5.3125 L 11.6875 5.3125 L 11.6875 9.5625 L 7.4375 9.5625 L 7.4375 7.4375 L 5.3125 7.4375 L 5.3125 10.890625 C 5.3125 11.332031 5.667969 11.6875 6.109375 11.6875 Z M 13.015625 11.6875 "/>
</g>
</svg>
