<?xml version="1.0" encoding="UTF-8"?>
<svg xmlns="http://www.w3.org/2000/svg" xmlns:xlink="http://www.w3.org/1999/xlink" width="17pt" height="17pt" viewBox="0 0 17 17" version="1.1">
<g id="surface1">
<path style=" stroke:none;fill-rule:evenodd;fill:rgb(44.705882%,65.490196%,80.784314%);fill-opacity:1;" d="M 3.96875 1.007812 L 13.03125 1.007812 C 14.664062 1.007812 15.992188 2.335938 15.992188 3.96875 L 15.992188 13.03125 C 15.992188 14.664062 14.664062 15.992188 13.03125 15.992188 L 3.96875 15.992188 C 2.335938 15.992188 1.007812 14.664062 1.007812 13.03125 L 1.007812 3.96875 C 1.007812 2.335938 2.335938 1.007812 3.96875 1.007812 Z M 3.96875 1.007812 "/>
<path style=" stroke:none;fill-rule:nonzero;fill:rgb(100%,79.215686%,40.784314%);fill-opacity:1;" d="M 12.75 4.25 C 12.75 4.25 11.476562 4.214844 10.199219 4.851562 C 9.8125 5.027344 9.386719 5.3125 9.03125 5.667969 C 8.460938 6.238281 7.570312 7.292969 6.871094 8.144531 L 5.316406 8.144531 L 4.609375 9.207031 L 5.808594 9.53125 C 5.8125 9.574219 5.824219 9.632812 5.855469 9.714844 L 5.671875 10.125 C 5.671875 10.125 5.601562 10.265625 6.128906 10.832031 C 6.699219 11.402344 6.875 11.328125 6.875 11.328125 L 7.3125 11.128906 C 7.378906 11.148438 7.429688 11.15625 7.460938 11.15625 L 7.792969 12.390625 L 8.855469 11.683594 L 8.855469 10.082031 C 9.714844 9.386719 10.765625 8.515625 11.335938 7.964844 C 11.6875 7.613281 11.972656 7.1875 12.183594 6.796875 C 12.785156 5.523438 12.75 4.25 12.75 4.25 Z M 12.75 4.25 "/>
<path style=" stroke:none;fill-rule:nonzero;fill:rgb(100%,100%,100%);fill-opacity:1;" d="M 10.273438 7.4375 C 9.882812 7.4375 9.5625 7.117188 9.5625 6.726562 C 9.5625 6.339844 9.882812 6.019531 10.273438 6.019531 C 10.660156 6.019531 10.980469 6.339844 10.980469 6.726562 C 10.980469 7.117188 10.660156 7.4375 10.273438 7.4375 Z M 10.273438 7.4375 "/>
<path style=" stroke:none;fill-rule:nonzero;fill:rgb(100%,79.215686%,40.784314%);fill-opacity:1;" d="M 6.554688 11.683594 C 6.625 11.71875 6.660156 11.753906 6.730469 11.789062 C 6.660156 11.859375 6.589844 11.96875 6.519531 12.039062 C 5.703125 12.851562 4.253906 12.746094 4.253906 12.746094 C 4.253906 12.746094 4.148438 11.292969 4.960938 10.480469 C 5.03125 10.410156 5.140625 10.339844 5.210938 10.269531 C 5.246094 10.339844 5.28125 10.375 5.316406 10.445312 C 4.785156 11.117188 4.855469 12.144531 4.855469 12.144531 C 4.855469 12.144531 5.882812 12.214844 6.554688 11.683594 Z M 6.554688 11.683594 "/>
</g>
</svg>
