<?xml version="1.0" encoding="UTF-8"?>
<svg xmlns="http://www.w3.org/2000/svg" xmlns:xlink="http://www.w3.org/1999/xlink" width="17pt" height="17pt" viewBox="0 0 17 17" version="1.1">
<g id="surface1">
<path style=" stroke:none;fill-rule:evenodd;fill:rgb(94.901961%,35.686275%,43.529412%);fill-opacity:1;" d="M 3.96875 1.007812 L 13.03125 1.007812 C 14.664062 1.007812 15.992188 2.335938 15.992188 3.96875 L 15.992188 13.03125 C 15.992188 14.664062 14.664062 15.992188 13.03125 15.992188 L 3.96875 15.992188 C 2.335938 15.992188 1.007812 14.664062 1.007812 13.03125 L 1.007812 3.96875 C 1.007812 2.335938 2.335938 1.007812 3.96875 1.007812 Z M 3.96875 1.007812 "/>
<path style=" stroke:none;fill-rule:nonzero;fill:rgb(30.980392%,30.980392%,30.980392%);fill-opacity:1;" d="M 8.535156 2.359375 C 8.269531 2.355469 8.007812 2.417969 7.777344 2.546875 L 3.523438 4.917969 C 3.074219 5.167969 2.800781 5.628906 2.800781 6.128906 L 2.800781 10.871094 C 2.800781 11.371094 3.074219 11.832031 3.523438 12.082031 L 7.777344 14.453125 C 8.222656 14.703125 8.777344 14.703125 9.222656 14.453125 L 13.476562 12.082031 C 13.925781 11.832031 14.203125 11.371094 14.199219 10.871094 L 14.199219 6.128906 C 14.199219 5.628906 13.925781 5.167969 13.476562 4.917969 L 9.222656 2.546875 C 9.011719 2.429688 8.777344 2.367188 8.535156 2.359375 Z M 8.535156 2.359375 "/>
<path style=" stroke:none;fill-rule:nonzero;fill:rgb(94.901961%,35.686275%,43.529412%);fill-opacity:1;" d="M 10.167969 4.992188 C 9.511719 4.992188 8.917969 5.328125 8.5 5.835938 C 8.085938 5.328125 7.488281 4.992188 6.832031 4.992188 C 5.574219 4.992188 4.554688 6.152344 4.554688 7.582031 C 4.554688 7.96875 4.613281 8.339844 4.71875 8.691406 C 4.71875 8.691406 4.8125 9.011719 4.894531 9.1875 C 5.855469 11.429688 8.5 12.886719 8.5 12.886719 C 8.5 12.886719 11.144531 11.429688 12.105469 9.1875 C 13.0625 6.941406 12.226562 8.886719 12.28125 8.691406 C 12.382812 8.335938 12.445312 7.96875 12.445312 7.582031 C 12.445312 6.152344 11.425781 4.992188 10.167969 4.992188 Z M 10.167969 4.992188 "/>
</g>
</svg>
