<?xml version="1.0" encoding="UTF-8"?>
<svg xmlns="http://www.w3.org/2000/svg" xmlns:xlink="http://www.w3.org/1999/xlink" width="17pt" height="17pt" viewBox="0 0 17 17" version="1.1">
<g id="surface1">
<path style=" stroke:none;fill-rule:evenodd;fill:rgb(55.686275%,55.686275%,55.686275%);fill-opacity:1;" d="M 3.96875 1.007812 C 2.328125 1.007812 1.007812 2.328125 1.007812 3.96875 L 1.007812 8.707031 L 15.992188 8.707031 L 15.992188 3.96875 C 15.992188 2.328125 14.671875 1.007812 13.03125 1.007812 Z M 3.96875 1.007812 "/>
<path style=" stroke:none;fill-rule:nonzero;fill:rgb(90.196078%,90.196078%,90.196078%);fill-opacity:1;" d="M 3.777344 3.609375 L 13.226562 3.609375 L 13.226562 9.273438 L 3.777344 9.273438 Z M 3.777344 3.609375 "/>
<path style=" stroke:none;fill-rule:nonzero;fill:rgb(40%,40%,40%);fill-opacity:1;" d="M 4.722656 5.875 L 7.082031 5.875 L 7.082031 7.574219 L 4.722656 7.574219 Z M 4.722656 5.875 "/>
<path style=" stroke:none;fill-rule:nonzero;fill:rgb(40%,40%,40%);fill-opacity:1;" d="M 9.917969 5.875 L 12.28125 5.875 L 12.28125 7.574219 L 9.917969 7.574219 Z M 9.917969 5.875 "/>
<path style=" stroke:none;fill-rule:evenodd;fill:rgb(30.196078%,30.196078%,30.196078%);fill-opacity:1;" d="M 15.992188 8.707031 L 1.007812 8.707031 L 1.007812 13.03125 C 1.007812 14.671875 2.328125 15.992188 3.96875 15.992188 L 13.03125 15.992188 C 14.671875 15.992188 15.992188 14.671875 15.992188 13.03125 Z M 15.992188 8.707031 "/>
<path style=" stroke:none;fill-rule:nonzero;fill:rgb(40%,40%,40%);fill-opacity:1;" d="M 4.539062 10.972656 L 12.464844 10.972656 C 12.777344 10.972656 13.03125 11.222656 13.03125 11.539062 C 13.03125 11.851562 12.777344 12.101562 12.464844 12.101562 L 4.539062 12.101562 C 4.226562 12.101562 3.972656 11.851562 3.972656 11.539062 C 3.972656 11.222656 4.226562 10.972656 4.539062 10.972656 Z M 4.539062 10.972656 "/>
<path style=" stroke:none;fill-rule:nonzero;fill:rgb(40%,40%,40%);fill-opacity:1;" d="M 5.671875 13.234375 L 11.332031 13.234375 C 11.644531 13.234375 11.898438 13.488281 11.898438 13.800781 C 11.898438 14.113281 11.644531 14.367188 11.332031 14.367188 L 5.671875 14.367188 C 5.359375 14.367188 5.105469 14.113281 5.105469 13.800781 C 5.105469 13.488281 5.359375 13.234375 5.671875 13.234375 Z M 5.671875 13.234375 "/>
<path style=" stroke:none;fill-rule:nonzero;fill:rgb(28.235294%,68.235294%,100%);fill-opacity:1;" d="M 15.246094 12.058594 C 15.246094 13.816406 13.820312 15.246094 12.058594 15.246094 C 10.300781 15.246094 8.871094 13.816406 8.871094 12.058594 C 8.871094 10.296875 10.300781 8.871094 12.058594 8.871094 C 13.820312 8.871094 15.246094 10.296875 15.246094 12.058594 Z M 15.246094 12.058594 "/>
<path style=" stroke:none;fill-rule:nonzero;fill:rgb(100%,100%,100%);fill-opacity:1;" d="M 10.550781 10.464844 L 11.578125 10.464844 C 11.625 10.464844 11.660156 10.5 11.660156 10.550781 L 11.660156 11.574219 C 11.660156 11.621094 11.625 11.660156 11.578125 11.660156 L 10.550781 11.660156 C 10.503906 11.660156 10.464844 11.621094 10.464844 11.574219 L 10.464844 10.550781 C 10.464844 10.5 10.503906 10.464844 10.550781 10.464844 Z M 10.550781 10.464844 "/>
<path style=" stroke:none;fill-rule:nonzero;fill:rgb(100%,100%,100%);fill-opacity:1;" d="M 12.542969 10.464844 L 13.566406 10.464844 C 13.617188 10.464844 13.652344 10.5 13.652344 10.550781 L 13.652344 11.574219 C 13.652344 11.621094 13.617188 11.660156 13.570312 11.660156 L 12.542969 11.660156 C 12.496094 11.660156 12.457031 11.621094 12.457031 11.574219 L 12.457031 10.550781 C 12.457031 10.5 12.496094 10.464844 12.542969 10.464844 Z M 12.542969 10.464844 "/>
<path style=" stroke:none;fill-rule:nonzero;fill:rgb(100%,100%,100%);fill-opacity:1;" d="M 10.550781 12.457031 L 11.578125 12.457031 C 11.625 12.457031 11.660156 12.492188 11.660156 12.542969 L 11.660156 13.566406 C 11.660156 13.613281 11.625 13.652344 11.578125 13.652344 L 10.550781 13.652344 C 10.503906 13.652344 10.464844 13.613281 10.464844 13.566406 L 10.464844 12.542969 C 10.464844 12.492188 10.503906 12.457031 10.550781 12.457031 Z M 10.550781 12.457031 "/>
<path style=" stroke:none;fill-rule:nonzero;fill:rgb(100%,100%,100%);fill-opacity:1;" d="M 12.542969 12.457031 L 13.566406 12.457031 C 13.617188 12.457031 13.652344 12.492188 13.652344 12.542969 L 13.652344 13.566406 C 13.652344 13.613281 13.617188 13.652344 13.570312 13.652344 L 12.542969 13.652344 C 12.496094 13.652344 12.457031 13.613281 12.457031 13.566406 L 12.457031 12.542969 C 12.457031 12.492188 12.496094 12.457031 12.542969 12.457031 Z M 12.542969 12.457031 "/>
</g>
</svg>
