<?xml version="1.0" encoding="UTF-8"?>
<svg xmlns="http://www.w3.org/2000/svg" xmlns:xlink="http://www.w3.org/1999/xlink" width="12pt" height="12pt" viewBox="0 0 12 12" version="1.1">
<g id="surface1">
<path style=" stroke:none;fill-rule:evenodd;fill:rgb(24.705882%,50.980392%,90.980392%);fill-opacity:1;" d="M 7.773438 0.734375 L 2.765625 0.734375 C 1.640625 0.734375 0.734375 1.636719 0.734375 2.765625 L 0.734375 8.976562 C 0.734375 10.097656 1.640625 11.003906 2.765625 11.003906 L 8.976562 11.003906 C 10.101562 11.003906 11.003906 10.097656 11.003906 8.976562 L 11.003906 3.964844 Z M 7.773438 0.734375 "/>
<path style=" stroke:none;fill-rule:evenodd;fill:rgb(12.54902%,34.901961%,58.823529%);fill-opacity:0.32549;" d="M 11.003906 3.964844 L 7.773438 0.734375 L 7.773438 1.9375 C 7.773438 3.0625 8.675781 3.964844 9.804688 3.964844 Z M 11.003906 3.964844 "/>
<path style=" stroke:none;fill-rule:nonzero;fill:rgb(100%,100%,100%);fill-opacity:0.498039;" d="M 3.269531 4.625 L 3.269531 5.09375 L 8.398438 5.09375 L 8.398438 4.625 Z M 3.269531 6.023438 L 3.269531 6.492188 L 8.398438 6.492188 L 8.398438 6.023438 Z M 3.269531 7.421875 L 3.269531 7.890625 L 8.398438 7.890625 L 8.398438 7.421875 Z M 3.269531 8.820312 L 3.269531 9.289062 L 7 9.289062 L 7 8.820312 Z M 3.269531 8.820312 "/>
</g>
</svg>
