<?xml version="1.0" encoding="UTF-8"?>
<svg xmlns="http://www.w3.org/2000/svg" xmlns:xlink="http://www.w3.org/1999/xlink" width="12pt" height="12pt" viewBox="0 0 12 12" version="1.1">
<g id="surface1">
<path style=" stroke:none;fill-rule:evenodd;fill:rgb(11.372549%,65.098039%,90.980392%);fill-opacity:1;" d="M 2.835938 0.71875 L 9.308594 0.71875 C 10.472656 0.71875 11.421875 1.667969 11.421875 2.835938 L 11.421875 9.308594 C 11.421875 10.472656 10.472656 11.421875 9.308594 11.421875 L 2.835938 11.421875 C 1.667969 11.421875 0.71875 10.472656 0.71875 9.308594 L 0.71875 2.835938 C 0.71875 1.667969 1.667969 0.71875 2.835938 0.71875 Z M 2.835938 0.71875 "/>
<path style=" stroke:none;fill-rule:evenodd;fill:rgb(80%,36.862745%,33.333333%);fill-opacity:1;" d="M 10.335938 8.386719 C 10.335938 9.433594 9.488281 10.285156 8.4375 10.285156 C 7.390625 10.285156 6.539062 9.433594 6.539062 8.386719 C 6.539062 7.339844 7.390625 6.488281 8.4375 6.488281 C 9.488281 6.488281 10.335938 7.339844 10.335938 8.386719 Z M 10.335938 8.386719 "/>
<path style=" stroke:none;fill-rule:nonzero;fill:rgb(100%,100%,100%);fill-opacity:1;" d="M 8.199219 7.4375 L 8.179688 7.6875 C 8.101562 7.71875 8.027344 7.757812 7.964844 7.816406 L 7.734375 7.707031 L 7.496094 8.117188 L 7.703125 8.261719 C 7.699219 8.304688 7.691406 8.34375 7.691406 8.386719 C 7.691406 8.429688 7.695312 8.472656 7.703125 8.511719 L 7.496094 8.65625 L 7.734375 9.066406 L 7.964844 8.960938 C 8.027344 9.015625 8.101562 9.058594 8.179688 9.085938 L 8.199219 9.335938 L 8.675781 9.335938 L 8.695312 9.085938 C 8.773438 9.058594 8.851562 9.011719 8.914062 8.960938 L 9.140625 9.066406 L 9.378906 8.65625 L 9.171875 8.511719 C 9.179688 8.472656 9.183594 8.429688 9.183594 8.386719 C 9.183594 8.34375 9.179688 8.304688 9.175781 8.261719 L 9.378906 8.117188 L 9.140625 7.707031 L 8.914062 7.8125 C 8.851562 7.757812 8.773438 7.71875 8.695312 7.691406 L 8.675781 7.4375 Z M 8.4375 8.117188 C 8.589844 8.117188 8.707031 8.238281 8.707031 8.386719 C 8.707031 8.539062 8.589844 8.65625 8.4375 8.65625 C 8.289062 8.65625 8.167969 8.539062 8.167969 8.386719 C 8.167969 8.238281 8.289062 8.117188 8.4375 8.117188 Z M 8.4375 8.117188 "/>
<path style=" stroke:none;fill-rule:nonzero;fill:rgb(7.843137%,45.882353%,63.921569%);fill-opacity:1;" d="M 3.109375 6.558594 C 3.257812 6.664062 3.390625 6.785156 3.511719 6.929688 L 3.296875 7.203125 C 3.160156 7.03125 3.019531 6.890625 2.875 6.78125 L 3.109375 6.558594 M 3.109375 7.621094 C 3.246094 7.722656 3.375 7.835938 3.496094 7.960938 L 3.277344 8.246094 C 3.152344 8.089844 3.019531 7.953125 2.875 7.84375 L 3.109375 7.621094 M 3.175781 8.785156 L 3.445312 8.96875 C 3.3125 9.433594 3.113281 9.878906 2.855469 10.304688 L 2.570312 10.082031 C 2.828125 9.667969 3.03125 9.234375 3.179688 8.785156 M 3.96875 6.425781 L 4.289062 6.492188 C 4.265625 6.605469 4.234375 6.714844 4.1875 6.8125 L 5.503906 6.8125 L 5.503906 7.117188 L 4.054688 7.117188 L 3.902344 7.367188 C 3.855469 7.460938 3.785156 7.554688 3.683594 7.65625 L 3.480469 7.417969 C 3.695312 7.164062 3.855469 6.832031 3.96875 6.425781 M 3.882812 7.46875 L 5.433594 7.46875 C 5.433594 7.816406 5.429688 8.144531 5.417969 8.449219 L 5.640625 8.449219 L 5.640625 8.753906 L 5.402344 8.753906 C 5.378906 8.988281 5.363281 9.21875 5.351562 9.445312 L 5.605469 9.445312 L 5.605469 9.730469 L 5.316406 9.730469 C 5.273438 10.121094 5.113281 10.320312 4.847656 10.320312 C 4.78125 10.320312 4.683594 10.308594 4.558594 10.289062 L 4.507812 10 C 4.652344 10.023438 4.769531 10.035156 4.847656 10.035156 C 4.925781 10.035156 4.976562 9.933594 4.996094 9.730469 L 3.683594 9.730469 C 3.726562 9.429688 3.765625 9.101562 3.800781 8.753906 L 3.5625 8.753906 L 3.5625 8.449219 L 3.832031 8.449219 C 3.855469 8.132812 3.871094 7.808594 3.882812 7.472656 M 4.136719 8.449219 L 5.097656 8.449219 C 5.109375 8.210938 5.113281 7.984375 5.113281 7.757812 L 4.1875 7.757812 C 4.175781 8.003906 4.160156 8.234375 4.136719 8.449219 M 4.558594 7.84375 C 4.683594 7.921875 4.796875 8.011719 4.898438 8.109375 L 4.695312 8.363281 C 4.59375 8.253906 4.480469 8.148438 4.359375 8.0625 L 4.558594 7.84375 M 5.035156 9.445312 C 5.054688 9.207031 5.074219 8.976562 5.082031 8.753906 L 4.121094 8.753906 C 4.097656 9 4.070312 9.230469 4.039062 9.445312 L 5.035156 9.445312 M 4.507812 8.835938 C 4.644531 8.914062 4.769531 9.007812 4.878906 9.105469 L 4.664062 9.359375 C 4.546875 9.234375 4.429688 9.128906 4.308594 9.039062 L 4.507812 8.835938 M 2.738281 6.832031 L 2.738281 9.476562 L 2.4375 9.476562 L 2.4375 9.191406 L 2.148438 9.191406 L 2.148438 9.628906 L 1.84375 9.628906 L 1.84375 6.832031 L 2.738281 6.832031 M 2.148438 8.902344 L 2.4375 8.902344 L 2.4375 7.117188 L 2.148438 7.117188 L 2.148438 8.902344 "/>
<path style=" stroke:none;fill-rule:nonzero;fill:rgb(100%,100%,100%);fill-opacity:1;" d="M 8.117188 4.105469 L 8.210938 3.746094 C 8.320312 3.355469 8.421875 2.90625 8.515625 2.492188 L 8.539062 2.492188 C 8.640625 2.898438 8.75 3.355469 8.855469 3.746094 L 8.945312 4.105469 L 8.117188 4.105469 M 9.363281 5.71875 L 10.296875 5.71875 L 9.078125 1.820312 L 8.023438 1.820312 L 6.800781 5.71875 L 7.699219 5.71875 L 7.9375 4.789062 L 9.125 4.789062 L 9.363281 5.71875 "/>
</g>
</svg>
