<?xml version="1.0" encoding="UTF-8"?>
<svg xmlns="http://www.w3.org/2000/svg" xmlns:xlink="http://www.w3.org/1999/xlink" width="12pt" height="12pt" viewBox="0 0 12 12" version="1.1">
<g id="surface1">
<path style=" stroke:none;fill-rule:evenodd;fill:rgb(90.196078%,90.196078%,90.196078%);fill-opacity:1;" d="M 2.835938 0.71875 L 9.308594 0.71875 C 10.472656 0.71875 11.421875 1.667969 11.421875 2.835938 L 11.421875 9.308594 C 11.421875 10.472656 10.472656 11.421875 9.308594 11.421875 L 2.835938 11.421875 C 1.667969 11.421875 0.71875 10.472656 0.71875 9.308594 L 0.71875 2.835938 C 0.71875 1.667969 1.667969 0.71875 2.835938 0.71875 Z M 2.835938 0.71875 "/>
<path style=" stroke:none;fill-rule:nonzero;fill:rgb(30.980392%,30.980392%,30.980392%);fill-opacity:1;" d="M 1.972656 8.851562 L 4.019531 8.851562 L 6.070312 5.046875 L 8.121094 8.851562 L 10.171875 8.851562 L 7.09375 3.289062 L 5.046875 3.289062 Z M 1.972656 8.851562 "/>
<path style=" stroke:none;fill-rule:nonzero;fill:rgb(89.019608%,24.313725%,19.215686%);fill-opacity:1;" d="M 2.9375 7.09375 L 4.019531 8.851562 L 1.972656 8.851562 Z M 2.9375 7.09375 "/>
<path style=" stroke:none;fill-rule:nonzero;fill:rgb(89.411765%,74.509804%,12.941176%);fill-opacity:1;" d="M 9.203125 7.09375 L 10.171875 8.851562 L 8.121094 8.851562 Z M 9.203125 7.09375 "/>
<path style=" stroke:none;fill-rule:nonzero;fill:rgb(23.529412%,54.901961%,97.254902%);fill-opacity:1;" d="M 6.070312 5.046875 L 7.09375 3.289062 L 5.046875 3.289062 Z M 6.070312 5.046875 "/>
<path style=" stroke:none;fill-rule:nonzero;fill:rgb(30.980392%,30.980392%,30.980392%);fill-opacity:1;" d="M 5.601562 5.925781 L 4.652344 7.679688 L 6.070312 7.679688 L 6.070312 5.925781 Z M 5.601562 5.925781 "/>
<path style=" stroke:none;fill-rule:nonzero;fill:rgb(30.980392%,30.980392%,30.980392%);fill-opacity:1;" d="M 5.601562 5.925781 L 4.652344 7.679688 L 6.070312 7.679688 L 6.070312 5.925781 Z M 5.601562 5.925781 "/>
</g>
</svg>
