<?xml version="1.0" encoding="UTF-8"?>
<svg xmlns="http://www.w3.org/2000/svg" xmlns:xlink="http://www.w3.org/1999/xlink" width="12pt" height="12pt" viewBox="0 0 12 12" version="1.1">
<g id="surface1">
<path style=" stroke:none;fill-rule:evenodd;fill:rgb(0.784314%,65.882353%,95.294118%);fill-opacity:1;" d="M 2.835938 0.71875 L 9.308594 0.71875 C 10.472656 0.71875 11.421875 1.667969 11.421875 2.835938 L 11.421875 9.308594 C 11.421875 10.472656 10.472656 11.421875 9.308594 11.421875 L 2.835938 11.421875 C 1.667969 11.421875 0.71875 10.472656 0.71875 9.308594 L 0.71875 2.835938 C 0.71875 1.667969 1.667969 0.71875 2.835938 0.71875 Z M 2.835938 0.71875 "/>
<path style=" stroke:none;fill-rule:nonzero;fill:rgb(100%,100%,100%);fill-opacity:1;" d="M 2.476562 2.925781 C 2.230469 2.925781 2.027344 3.125 2.027344 3.371094 L 2.027344 8.707031 C 2.027344 8.953125 2.230469 9.070312 2.476562 9.070312 L 6.558594 9.070312 L 7.523438 10.039062 L 8.335938 9.070312 L 9.664062 9.070312 C 9.914062 9.070312 10.113281 8.953125 10.113281 8.707031 L 10.113281 3.371094 C 10.113281 3.125 9.914062 2.925781 9.664062 2.925781 Z M 2.476562 2.925781 "/>
<path style=" stroke:none;fill-rule:nonzero;fill:rgb(60%,60%,60%);fill-opacity:1;" d="M 6.070312 3.894531 C 4.910156 3.894531 3.96875 4.839844 3.96875 6 C 3.96875 7.160156 4.910156 8.101562 6.070312 8.101562 C 7.230469 8.101562 8.171875 7.160156 8.171875 6 C 8.171875 4.839844 7.230469 3.894531 6.070312 3.894531 Z M 6.472656 4.269531 C 6.777344 4.339844 7.058594 4.488281 7.285156 4.703125 C 7.210938 4.773438 7.132812 4.839844 7.050781 4.898438 C 6.898438 4.648438 6.695312 4.4375 6.460938 4.273438 C 6.464844 4.273438 6.46875 4.269531 6.472656 4.269531 Z M 5.667969 4.269531 C 5.675781 4.273438 5.679688 4.273438 5.683594 4.273438 C 5.445312 4.4375 5.246094 4.648438 5.09375 4.898438 C 5.007812 4.839844 4.929688 4.773438 4.855469 4.703125 C 5.082031 4.488281 5.367188 4.339844 5.667969 4.269531 Z M 5.910156 4.511719 L 5.910156 5.179688 C 5.722656 5.164062 5.542969 5.121094 5.375 5.050781 C 5.511719 4.835938 5.699219 4.652344 5.910156 4.511719 Z M 6.234375 4.511719 C 6.445312 4.652344 6.628906 4.835938 6.765625 5.050781 C 6.597656 5.121094 6.421875 5.164062 6.234375 5.179688 Z M 4.644531 4.945312 C 4.738281 5.03125 4.835938 5.113281 4.945312 5.179688 C 4.859375 5.386719 4.804688 5.605469 4.785156 5.835938 L 4.300781 5.835938 C 4.332031 5.511719 4.449219 5.207031 4.644531 4.945312 Z M 7.5 4.945312 C 7.691406 5.207031 7.808594 5.511719 7.839844 5.835938 L 7.359375 5.835938 C 7.339844 5.605469 7.285156 5.386719 7.199219 5.179688 C 7.308594 5.113281 7.40625 5.03125 7.5 4.945312 Z M 5.230469 5.335938 C 5.441406 5.429688 5.667969 5.484375 5.910156 5.503906 L 5.910156 5.835938 L 5.109375 5.835938 C 5.125 5.660156 5.167969 5.492188 5.230469 5.335938 Z M 6.914062 5.335938 C 6.976562 5.492188 7.015625 5.660156 7.035156 5.835938 L 6.234375 5.835938 L 6.234375 5.503906 C 6.472656 5.484375 6.703125 5.429688 6.914062 5.335938 Z M 4.300781 6.160156 L 4.785156 6.160156 C 4.804688 6.390625 4.859375 6.609375 4.945312 6.8125 C 4.839844 6.878906 4.710938 6.9375 4.625 7.023438 C 4.441406 6.769531 4.332031 6.46875 4.300781 6.160156 Z M 5.109375 6.160156 L 5.910156 6.160156 L 5.910156 6.492188 C 5.667969 6.507812 5.441406 6.566406 5.230469 6.660156 C 5.167969 6.503906 5.125 6.332031 5.109375 6.160156 Z M 6.234375 6.160156 L 7.035156 6.160156 C 7.015625 6.332031 6.976562 6.503906 6.914062 6.660156 C 6.703125 6.566406 6.472656 6.507812 6.234375 6.492188 Z M 7.359375 6.160156 L 7.839844 6.160156 C 7.808594 6.484375 7.691406 6.792969 7.496094 7.054688 C 7.40625 6.96875 7.308594 6.882812 7.199219 6.8125 C 7.285156 6.609375 7.339844 6.390625 7.359375 6.160156 Z M 5.910156 6.8125 L 5.910156 7.484375 C 5.699219 7.34375 5.511719 7.164062 5.375 6.949219 C 5.542969 6.875 5.722656 6.832031 5.910156 6.8125 Z M 6.234375 6.8125 C 6.421875 6.832031 6.597656 6.875 6.765625 6.949219 C 6.628906 7.164062 6.445312 7.34375 6.234375 7.484375 Z M 5.09375 7.101562 C 5.246094 7.347656 5.445312 7.558594 5.683594 7.726562 C 5.679688 7.726562 5.671875 7.726562 5.667969 7.726562 C 5.367188 7.65625 5.085938 7.503906 4.859375 7.292969 C 4.933594 7.222656 5.007812 7.15625 5.09375 7.101562 Z M 7.050781 7.101562 C 7.132812 7.15625 7.210938 7.222656 7.285156 7.289062 C 7.058594 7.503906 6.777344 7.65625 6.472656 7.726562 C 6.46875 7.726562 6.464844 7.726562 6.460938 7.726562 C 6.695312 7.558594 6.898438 7.347656 7.050781 7.101562 Z M 7.050781 7.101562 "/>
</g>
</svg>
