<?xml version="1.0" encoding="UTF-8"?>
<svg xmlns="http://www.w3.org/2000/svg" xmlns:xlink="http://www.w3.org/1999/xlink" width="12pt" height="12pt" viewBox="0 0 12 12" version="1.1">
<g id="surface1">
<path style=" stroke:none;fill-rule:evenodd;fill:rgb(27.058824%,70.588235%,27.058824%);fill-opacity:1;" d="M 0.71875 3.5 L 0.71875 9.308594 C 0.71875 10.480469 1.664062 11.421875 2.835938 11.421875 L 9.308594 11.421875 C 10.480469 11.421875 11.421875 10.480469 11.421875 9.308594 L 11.421875 3.5 Z M 0.71875 3.5 "/>
<path style=" stroke:none;fill-rule:evenodd;fill:rgb(41.568627%,76.470588%,41.568627%);fill-opacity:1;" d="M 0.71875 3.5 L 11.421875 3.5 L 11.421875 2.835938 C 11.421875 1.664062 10.480469 0.71875 9.308594 0.71875 L 2.835938 0.71875 C 1.664062 0.71875 0.71875 1.664062 0.71875 2.835938 Z M 0.71875 3.5 "/>
<path style=" stroke:none;fill-rule:evenodd;fill:rgb(100%,100%,100%);fill-opacity:1;" d="M 6.601562 7.515625 C 6.601562 7.875 6.613281 8.179688 6.421875 8.5 C 6.273438 8.761719 6.03125 8.921875 5.765625 8.921875 C 5.398438 8.921875 5.1875 8.652344 5.1875 8.25 C 5.1875 7.457031 5.914062 7.3125 6.601562 7.3125 L 6.601562 7.515625 M 7.5625 9.78125 C 7.5 9.835938 7.410156 9.839844 7.339844 9.804688 C 7.023438 9.546875 6.964844 9.429688 6.792969 9.183594 C 6.269531 9.703125 5.898438 9.859375 5.21875 9.859375 C 4.417969 9.859375 3.792969 9.378906 3.792969 8.410156 C 3.792969 7.65625 4.214844 7.144531 4.808594 6.890625 C 5.328125 6.667969 6.050781 6.628906 6.601562 6.566406 L 6.601562 6.449219 C 6.601562 6.226562 6.617188 5.964844 6.488281 5.773438 C 6.371094 5.601562 6.148438 5.53125 5.953125 5.53125 C 5.589844 5.53125 5.265625 5.714844 5.1875 6.089844 C 5.171875 6.175781 5.105469 6.253906 5.019531 6.261719 L 4.097656 6.164062 C 4.019531 6.148438 3.929688 6.085938 3.953125 5.96875 C 4.167969 4.878906 5.179688 4.546875 6.085938 4.546875 C 6.546875 4.546875 7.152344 4.667969 7.519531 5.011719 C 7.984375 5.433594 7.9375 5.996094 7.9375 6.609375 L 7.9375 8.058594 C 7.9375 8.492188 8.121094 8.6875 8.296875 8.921875 C 8.359375 9.003906 8.375 9.105469 8.296875 9.167969 C 8.101562 9.328125 7.753906 9.621094 7.5625 9.785156 L 7.5625 9.78125 "/>
</g>
</svg>
