<?xml version="1.0" encoding="UTF-8"?>
<svg xmlns="http://www.w3.org/2000/svg" xmlns:xlink="http://www.w3.org/1999/xlink" width="12pt" height="12pt" viewBox="0 0 12 12" version="1.1">
<g id="surface1">
<path style=" stroke:none;fill-rule:evenodd;fill:rgb(32.941176%,61.960784%,98.823529%);fill-opacity:1;" d="M 2.835938 0.71875 L 9.308594 0.71875 C 10.472656 0.71875 11.421875 1.667969 11.421875 2.835938 L 11.421875 9.308594 C 11.421875 10.472656 10.472656 11.421875 9.308594 11.421875 L 2.835938 11.421875 C 1.667969 11.421875 0.71875 10.472656 0.71875 9.308594 L 0.71875 2.835938 C 0.71875 1.667969 1.667969 0.71875 2.835938 0.71875 Z M 2.835938 0.71875 "/>
<path style=" stroke:none;fill-rule:nonzero;fill:rgb(100%,100%,100%);fill-opacity:1;" d="M 5.667969 4.488281 L 2.515625 9.175781 L 4.449219 9.175781 L 7.59375 4.410156 L 6.40625 2.914062 L 4.398438 2.914062 Z M 5.667969 4.488281 "/>
<path style=" stroke:none;fill-rule:nonzero;fill:rgb(98.823529%,100%,100%);fill-opacity:1;" d="M 6.6875 6.332031 L 8.492188 6.316406 L 9.625 7.757812 L 8.519531 9.226562 L 6.636719 9.226562 L 7.796875 7.679688 Z M 6.6875 6.332031 "/>
</g>
</svg>
