<?xml version="1.0" encoding="UTF-8"?>
<svg xmlns="http://www.w3.org/2000/svg" xmlns:xlink="http://www.w3.org/1999/xlink" width="12pt" height="12pt" viewBox="0 0 12 12" version="1.1">
<g id="surface1">
<path style=" stroke:none;fill-rule:evenodd;fill:rgb(0%,58.431373%,52.941176%);fill-opacity:1;" d="M 3.445312 11.421875 L 9.304688 11.421875 C 10.480469 11.421875 11.421875 10.480469 11.421875 9.308594 L 11.421875 2.835938 C 11.421875 1.664062 10.480469 0.722656 9.304688 0.722656 L 3.445312 0.722656 Z M 3.445312 11.421875 "/>
<path style=" stroke:none;fill-rule:evenodd;fill:rgb(0%,46.666667%,42.352941%);fill-opacity:1;" d="M 3.445312 11.421875 L 3.445312 0.722656 L 2.835938 0.722656 C 1.664062 0.722656 0.71875 1.664062 0.71875 2.835938 L 0.71875 9.308594 C 0.71875 10.480469 1.664062 11.421875 2.835938 11.421875 Z M 3.445312 11.421875 "/>
<path style=" stroke:none;fill-rule:nonzero;fill:rgb(84.705882%,84.705882%,84.705882%);fill-opacity:1;" d="M 7.539062 0.71875 L 7.539062 6.03125 L 8.296875 5.273438 L 9.058594 6.03125 L 9.058594 0.71875 Z M 7.539062 0.71875 "/>
</g>
</svg>
