<?xml version="1.0" encoding="UTF-8"?>
<svg xmlns="http://www.w3.org/2000/svg" xmlns:xlink="http://www.w3.org/1999/xlink" width="12pt" height="12pt" viewBox="0 0 12 12" version="1.1">
<g id="surface1">
<path style=" stroke:none;fill-rule:evenodd;fill:rgb(30.980392%,30.980392%,30.980392%);fill-opacity:1;" d="M 2.800781 0.710938 L 9.199219 0.710938 C 10.351562 0.710938 11.289062 1.648438 11.289062 2.800781 L 11.289062 9.199219 C 11.289062 10.351562 10.351562 11.289062 9.199219 11.289062 L 2.800781 11.289062 C 1.648438 11.289062 0.710938 10.351562 0.710938 9.199219 L 0.710938 2.800781 C 0.710938 1.648438 1.648438 0.710938 2.800781 0.710938 Z M 2.800781 0.710938 "/>
<path style=" stroke:none;fill-rule:nonzero;fill:rgb(51.764706%,51.764706%,51.764706%);fill-opacity:1;" d="M 3 3 L 3 9 L 9 9 L 9 3 Z M 4.125 4.125 L 7.875 4.125 L 7.875 7.875 L 4.125 7.875 Z M 4.125 4.125 "/>
<path style=" stroke:none;fill-rule:nonzero;fill:rgb(39.215686%,70.980392%,100%);fill-opacity:1;" d="M 2.25 6 L 6 6 L 6 9.75 L 2.25 9.75 Z M 2.25 6 "/>
<path style=" stroke:none;fill-rule:nonzero;fill:rgb(89.411765%,48.627451%,100%);fill-opacity:1;" d="M 2.25 2.25 L 6 2.25 L 6 4.875 L 2.25 4.875 Z M 2.25 2.25 "/>
<path style=" stroke:none;fill-rule:nonzero;fill:rgb(100%,38.823529%,38.823529%);fill-opacity:1;" d="M 9.75 3.5625 C 9.75 4.289062 9.164062 4.875 8.4375 4.875 C 7.710938 4.875 7.125 4.289062 7.125 3.5625 C 7.125 2.835938 7.710938 2.25 8.4375 2.25 C 9.164062 2.25 9.75 2.835938 9.75 3.5625 Z M 9.75 3.5625 "/>
<path style=" stroke:none;fill-rule:nonzero;fill:rgb(23.137255%,100%,50.196078%);fill-opacity:1;" d="M 6.75 6.75 L 9.75 6.75 L 9.75 9.375 L 6.75 9.375 Z M 6.75 6.75 "/>
</g>
</svg>
