<?xml version="1.0" encoding="UTF-8"?>
<svg xmlns="http://www.w3.org/2000/svg" xmlns:xlink="http://www.w3.org/1999/xlink" width="12pt" height="12pt" viewBox="0 0 12 12" version="1.1">
<g id="surface1">
<path style=" stroke:none;fill-rule:evenodd;fill:rgb(76.078431%,20.784314%,16.470588%);fill-opacity:1;" d="M 2.835938 0.71875 L 9.308594 0.71875 C 10.472656 0.71875 11.421875 1.667969 11.421875 2.835938 L 11.421875 9.308594 C 11.421875 10.472656 10.472656 11.421875 9.308594 11.421875 L 2.835938 11.421875 C 1.667969 11.421875 0.71875 10.472656 0.71875 9.308594 L 0.71875 2.835938 C 0.71875 1.667969 1.667969 0.71875 2.835938 0.71875 Z M 2.835938 0.71875 "/>
<path style=" stroke:none;fill-rule:evenodd;fill:rgb(100%,100%,100%);fill-opacity:1;" d="M 7.523438 2.460938 C 7.4375 2.464844 7.347656 2.492188 7.273438 2.535156 L 2.785156 5.050781 L 0.71875 4.078125 L 0.71875 5.335938 L 2.5625 6.203125 C 2.730469 6.28125 2.925781 6.273438 3.085938 6.1875 L 7.828125 3.53125 C 8.050781 3.40625 8.167969 3.148438 8.113281 2.902344 C 8.054688 2.652344 7.839844 2.472656 7.582031 2.460938 C 7.5625 2.457031 7.542969 2.457031 7.527344 2.460938 Z M 7.523438 4.359375 C 7.4375 4.359375 7.347656 4.390625 7.273438 4.433594 L 2.785156 6.949219 L 0.71875 5.972656 L 0.71875 7.230469 L 2.5625 8.101562 C 2.730469 8.179688 2.925781 8.171875 3.085938 8.082031 L 7.828125 5.425781 C 8.054688 5.304688 8.167969 5.046875 8.113281 4.800781 C 8.054688 4.546875 7.839844 4.371094 7.582031 4.359375 C 7.5625 4.355469 7.542969 4.355469 7.527344 4.359375 Z M 7.523438 6.253906 C 7.4375 6.257812 7.347656 6.285156 7.273438 6.332031 L 2.785156 8.84375 L 0.71875 7.871094 L 0.71875 9.128906 L 2.5625 9.996094 C 2.730469 10.074219 2.925781 10.070312 3.085938 9.980469 L 7.828125 7.324219 C 8.054688 7.203125 8.167969 6.945312 8.113281 6.695312 C 8.054688 6.445312 7.839844 6.265625 7.582031 6.253906 C 7.5625 6.253906 7.542969 6.253906 7.527344 6.253906 Z M 7.523438 6.253906 "/>
</g>
</svg>
