<?xml version="1.0" encoding="UTF-8"?>
<svg xmlns="http://www.w3.org/2000/svg" xmlns:xlink="http://www.w3.org/1999/xlink" width="12pt" height="12pt" viewBox="0 0 12 12" version="1.1">
<g id="surface1">
<path style=" stroke:none;fill-rule:evenodd;fill:rgb(45.882353%,66.27451%,89.411765%);fill-opacity:1;" d="M 0.710938 6.050781 L 0.710938 9.199219 C 0.710938 10.355469 1.644531 11.289062 2.800781 11.289062 L 9.195312 11.289062 C 10.355469 11.289062 11.289062 10.355469 11.289062 9.199219 L 11.289062 6.050781 Z M 0.710938 6.050781 "/>
<path style=" stroke:none;fill-rule:evenodd;fill:rgb(26.27451%,51.764706%,94.509804%);fill-opacity:1;" d="M 0.710938 6.050781 L 11.289062 6.050781 L 11.289062 2.800781 C 11.289062 1.644531 10.355469 0.710938 9.195312 0.710938 L 2.800781 0.710938 C 1.644531 0.710938 0.710938 1.644531 0.710938 2.800781 Z M 0.710938 6.050781 "/>
<path style=" stroke:none;fill-rule:nonzero;fill:rgb(100%,100%,100%);fill-opacity:1;" d="M 3.589844 6.910156 C 3.597656 7.105469 3.640625 7.261719 3.714844 7.371094 C 3.792969 7.480469 3.875 7.5625 3.96875 7.617188 C 4.0625 7.667969 4.152344 7.703125 4.238281 7.714844 C 4.324219 7.726562 4.386719 7.730469 4.417969 7.730469 C 4.539062 7.730469 4.652344 7.707031 4.753906 7.660156 C 4.851562 7.609375 4.9375 7.542969 5.003906 7.46875 C 5.070312 7.386719 5.125 7.300781 5.160156 7.203125 C 5.195312 7.109375 5.214844 7.011719 5.214844 6.917969 C 5.214844 6.796875 5.191406 6.6875 5.140625 6.585938 C 5.097656 6.488281 5.039062 6.402344 4.960938 6.335938 C 4.886719 6.269531 4.796875 6.214844 4.699219 6.179688 C 4.597656 6.140625 4.496094 6.121094 4.386719 6.121094 L 4.160156 6.121094 L 4.160156 5.496094 L 4.375 5.496094 C 4.535156 5.496094 4.660156 5.464844 4.746094 5.40625 C 4.835938 5.34375 4.898438 5.273438 4.9375 5.195312 C 4.980469 5.121094 5.007812 5.050781 5.011719 4.988281 C 5.019531 4.921875 5.023438 4.886719 5.023438 4.878906 C 5.023438 4.800781 5.007812 4.722656 4.980469 4.652344 C 4.953125 4.574219 4.910156 4.511719 4.859375 4.453125 C 4.808594 4.398438 4.746094 4.355469 4.667969 4.324219 C 4.597656 4.285156 4.515625 4.269531 4.429688 4.269531 C 4.398438 4.269531 4.351562 4.273438 4.289062 4.285156 C 4.234375 4.292969 4.175781 4.320312 4.109375 4.359375 C 4.046875 4.398438 3.988281 4.460938 3.9375 4.542969 C 3.886719 4.628906 3.851562 4.742188 3.835938 4.890625 L 3.210938 4.890625 C 3.226562 4.640625 3.285156 4.4375 3.386719 4.28125 C 3.484375 4.125 3.601562 4.003906 3.734375 3.921875 C 3.867188 3.832031 3.996094 3.773438 4.128906 3.746094 C 4.261719 3.714844 4.367188 3.699219 4.445312 3.699219 C 4.621094 3.699219 4.78125 3.730469 4.925781 3.796875 C 5.074219 3.855469 5.199219 3.941406 5.304688 4.054688 C 5.410156 4.160156 5.496094 4.289062 5.554688 4.441406 C 5.613281 4.589844 5.644531 4.75 5.644531 4.925781 C 5.644531 5.046875 5.632812 5.152344 5.609375 5.238281 C 5.585938 5.328125 5.554688 5.40625 5.511719 5.472656 C 5.476562 5.535156 5.433594 5.59375 5.386719 5.648438 C 5.339844 5.695312 5.289062 5.742188 5.238281 5.789062 C 5.367188 5.871094 5.46875 5.960938 5.542969 6.058594 C 5.621094 6.160156 5.683594 6.257812 5.730469 6.359375 C 5.773438 6.460938 5.800781 6.558594 5.8125 6.652344 C 5.828125 6.746094 5.835938 6.824219 5.835938 6.894531 C 5.835938 7.117188 5.796875 7.316406 5.71875 7.492188 C 5.640625 7.664062 5.539062 7.808594 5.40625 7.929688 C 5.273438 8.050781 5.121094 8.140625 4.945312 8.203125 C 4.773438 8.269531 4.589844 8.300781 4.398438 8.300781 C 4.210938 8.300781 4.03125 8.265625 3.859375 8.199219 C 3.6875 8.132812 3.535156 8.035156 3.402344 7.910156 C 3.273438 7.789062 3.167969 7.640625 3.085938 7.472656 C 3.007812 7.300781 2.96875 7.113281 2.96875 6.910156 Z M 3.589844 6.910156 "/>
<path style=" stroke:none;fill-rule:nonzero;fill:rgb(100%,100%,100%);fill-opacity:1;" d="M 8.320312 8.21875 L 7.699219 8.21875 L 7.699219 4.351562 L 7.046875 4.351562 L 7.046875 3.78125 L 8.320312 3.78125 Z M 8.320312 8.21875 "/>
</g>
</svg>
