<?xml version="1.0" encoding="UTF-8"?>
<svg xmlns="http://www.w3.org/2000/svg" xmlns:xlink="http://www.w3.org/1999/xlink" width="12pt" height="12pt" viewBox="0 0 12 12" version="1.1">
<g id="surface1">
<path style=" stroke:none;fill-rule:evenodd;fill:rgb(99.607843%,71.372549%,14.509804%);fill-opacity:1;" d="M 2.835938 0.71875 L 9.308594 0.71875 C 10.472656 0.71875 11.421875 1.667969 11.421875 2.835938 L 11.421875 9.308594 C 11.421875 10.472656 10.472656 11.421875 9.308594 11.421875 L 2.835938 11.421875 C 1.667969 11.421875 0.71875 10.472656 0.71875 9.308594 L 0.71875 2.835938 C 0.71875 1.667969 1.667969 0.71875 2.835938 0.71875 Z M 2.835938 0.71875 "/>
<path style=" stroke:none;fill-rule:nonzero;fill:rgb(25.882353%,25.882353%,25.882353%);fill-opacity:1;" d="M 8.726562 8.960938 C 8.113281 9.289062 7.4375 9.484375 6.800781 9.488281 C 5.757812 9.488281 4.9375 9.179688 4.328125 8.570312 C 3.71875 7.953125 3.414062 7.125 3.414062 6.074219 C 3.414062 5.023438 3.71875 4.1875 4.328125 3.578125 C 4.9375 2.964844 5.757812 2.65625 6.800781 2.65625 C 7.496094 2.664062 8.164062 2.875 8.726562 3.179688 L 8.726562 4.585938 C 8.175781 4.25 7.523438 4.046875 6.929688 4.039062 C 6.351562 4.039062 5.773438 4.234375 5.445312 4.625 C 5.113281 5.011719 4.949219 5.390625 4.949219 6.074219 C 4.949219 6.753906 5.113281 7.132812 5.445312 7.519531 C 5.773438 7.90625 6.351562 8.101562 6.929688 8.101562 C 7.570312 8.066406 8.265625 7.886719 8.726562 7.558594 Z M 8.726562 8.960938 "/>
</g>
</svg>
