<?xml version="1.0" encoding="UTF-8"?>
<svg xmlns="http://www.w3.org/2000/svg" xmlns:xlink="http://www.w3.org/1999/xlink" width="12pt" height="12pt" viewBox="0 0 12 12" version="1.1">
<g id="surface1">
<path style=" stroke:none;fill-rule:evenodd;fill:rgb(94.901961%,68.235294%,21.568627%);fill-opacity:1;" d="M 6.070312 11.421875 L 6.070312 6.070312 L 0.71875 6.070312 L 0.71875 9.308594 C 0.71875 10.480469 1.664062 11.421875 2.835938 11.421875 Z M 6.070312 11.421875 "/>
<path style=" stroke:none;fill-rule:evenodd;fill:rgb(21.568627%,62.745098%,94.901961%);fill-opacity:1;" d="M 11.421875 6.070312 L 6.070312 6.070312 L 6.070312 11.421875 L 9.308594 11.421875 C 10.480469 11.421875 11.421875 10.480469 11.421875 9.308594 Z M 11.421875 6.070312 "/>
<path style=" stroke:none;fill-rule:evenodd;fill:rgb(21.960784%,67.45098%,32.156863%);fill-opacity:1;" d="M 6.070312 0.71875 L 6.070312 6.070312 L 11.421875 6.070312 L 11.421875 2.835938 C 11.421875 1.664062 10.480469 0.71875 9.308594 0.71875 Z M 6.070312 0.71875 "/>
<path style=" stroke:none;fill-rule:evenodd;fill:rgb(89.411765%,27.058824%,27.058824%);fill-opacity:1;" d="M 0.71875 6.070312 L 6.070312 6.070312 L 6.070312 0.71875 L 2.835938 0.71875 C 1.664062 0.71875 0.71875 1.664062 0.71875 2.835938 Z M 0.71875 6.070312 "/>
</g>
</svg>
