<?xml version="1.0" encoding="UTF-8"?>
<svg xmlns="http://www.w3.org/2000/svg" xmlns:xlink="http://www.w3.org/1999/xlink" width="12pt" height="12pt" viewBox="0 0 12 12" version="1.1">
<g id="surface1">
<path style=" stroke:none;fill-rule:evenodd;fill:rgb(30.980392%,30.980392%,30.980392%);fill-opacity:1;" d="M 2.835938 0.71875 L 9.308594 0.71875 C 10.472656 0.71875 11.421875 1.667969 11.421875 2.835938 L 11.421875 9.308594 C 11.421875 10.472656 10.472656 11.421875 9.308594 11.421875 L 2.835938 11.421875 C 1.667969 11.421875 0.71875 10.472656 0.71875 9.308594 L 0.71875 2.835938 C 0.71875 1.667969 1.667969 0.71875 2.835938 0.71875 Z M 2.835938 0.71875 "/>
<path style=" stroke:none;fill-rule:nonzero;fill:rgb(24.705882%,67.45098%,82.352941%);fill-opacity:1;" d="M 8.332031 5.34375 L 8.308594 5.375 C 8.359375 5.589844 8.382812 5.8125 8.386719 6.03125 C 8.382812 6.195312 8.371094 6.355469 8.34375 6.515625 C 8.800781 6.675781 9.105469 7.105469 9.105469 7.589844 C 9.105469 8.21875 8.597656 8.726562 7.96875 8.726562 C 7.6875 8.726562 7.417969 8.621094 7.207031 8.433594 C 6.894531 8.675781 6.539062 8.851562 6.160156 8.960938 L 6.15625 8.964844 C 6.585938 9.53125 7.257812 9.867188 7.96875 9.867188 C 9.226562 9.867188 10.246094 8.847656 10.246094 7.589844 C 10.246094 6.472656 9.433594 5.519531 8.332031 5.34375 Z M 8.332031 5.34375 "/>
<path style=" stroke:none;fill-rule:nonzero;fill:rgb(88.235294%,38.431373%,38.431373%);fill-opacity:1;" d="M 3.800781 5.347656 C 2.703125 5.53125 1.898438 6.476562 1.898438 7.589844 C 1.898438 8.847656 2.914062 9.867188 4.175781 9.867188 C 4.886719 9.867188 5.554688 9.535156 5.984375 8.96875 C 5.601562 8.863281 5.238281 8.6875 4.917969 8.445312 C 4.710938 8.628906 4.449219 8.726562 4.175781 8.726562 C 3.546875 8.726562 3.035156 8.21875 3.035156 7.589844 C 3.035156 7.121094 3.324219 6.699219 3.761719 6.527344 C 3.734375 6.363281 3.71875 6.199219 3.71875 6.03125 C 3.71875 5.800781 3.746094 5.570312 3.800781 5.347656 Z M 3.800781 5.347656 "/>
<path style=" stroke:none;fill-rule:nonzero;fill:rgb(41.176471%,85.882353%,24.313725%);fill-opacity:1;" d="M 6.070312 2.277344 C 4.8125 2.277344 3.792969 3.296875 3.792969 4.554688 C 3.792969 4.808594 3.839844 5.058594 3.921875 5.296875 C 4.214844 5.003906 4.554688 4.777344 4.9375 4.625 C 4.9375 4.601562 4.933594 4.574219 4.933594 4.554688 C 4.933594 3.925781 5.445312 3.414062 6.070312 3.414062 C 6.699219 3.414062 7.210938 3.925781 7.210938 4.554688 C 7.210938 4.578125 7.207031 4.601562 7.207031 4.625 C 7.585938 4.777344 7.933594 5.003906 8.21875 5.296875 C 8.304688 5.054688 8.347656 4.808594 8.347656 4.554688 C 8.347656 3.296875 7.328125 2.277344 6.070312 2.277344 Z M 6.070312 2.277344 "/>
<path style=" stroke:none;fill-rule:nonzero;fill:rgb(64.705882%,91.372549%,54.901961%);fill-opacity:1;" d="M 6.832031 4.554688 C 6.832031 4.972656 6.488281 5.3125 6.070312 5.3125 C 5.652344 5.3125 5.3125 4.972656 5.3125 4.554688 C 5.3125 4.136719 5.652344 3.792969 6.070312 3.792969 C 6.488281 3.792969 6.832031 4.136719 6.832031 4.554688 Z M 6.832031 4.554688 "/>
<path style=" stroke:none;fill-rule:nonzero;fill:rgb(92.156863%,58.431373%,58.431373%);fill-opacity:1;" d="M 4.933594 7.589844 C 4.933594 8.007812 4.59375 8.347656 4.175781 8.347656 C 3.753906 8.347656 3.414062 8.007812 3.414062 7.589844 C 3.414062 7.171875 3.753906 6.832031 4.175781 6.832031 C 4.59375 6.832031 4.933594 7.171875 4.933594 7.589844 Z M 4.933594 7.589844 "/>
<path style=" stroke:none;fill-rule:nonzero;fill:rgb(54.901961%,80.392157%,89.411765%);fill-opacity:1;" d="M 8.726562 7.589844 C 8.726562 8.007812 8.386719 8.347656 7.96875 8.347656 C 7.550781 8.347656 7.210938 8.007812 7.210938 7.589844 C 7.210938 7.171875 7.550781 6.832031 7.96875 6.832031 C 8.386719 6.832031 8.726562 7.171875 8.726562 7.589844 Z M 8.726562 7.589844 "/>
</g>
</svg>
