<?xml version="1.0" encoding="UTF-8"?>
<svg xmlns="http://www.w3.org/2000/svg" xmlns:xlink="http://www.w3.org/1999/xlink" width="12pt" height="12pt" viewBox="0 0 12 12" version="1.1">
<g id="surface1">
<path style=" stroke:none;fill-rule:evenodd;fill:rgb(29.803922%,63.921569%,25.490196%);fill-opacity:1;" d="M 2.835938 0.71875 L 9.308594 0.71875 C 10.472656 0.71875 11.421875 1.667969 11.421875 2.835938 L 11.421875 9.308594 C 11.421875 10.472656 10.472656 11.421875 9.308594 11.421875 L 2.835938 11.421875 C 1.667969 11.421875 0.71875 10.472656 0.71875 9.308594 L 0.71875 2.835938 C 0.71875 1.667969 1.667969 0.71875 2.835938 0.71875 Z M 2.835938 0.71875 "/>
<path style=" stroke:none;fill-rule:nonzero;fill:rgb(14.901961%,14.901961%,14.901961%);fill-opacity:1;" d="M 3.050781 5.703125 C 3.050781 5.703125 3.941406 4.632812 5.3125 4.519531 L 5.3125 4.132812 C 3.792969 4.261719 2.277344 5.621094 2.277344 5.621094 C 2.277344 5.621094 3.226562 7.894531 5.3125 8.105469 L 5.3125 7.691406 C 3.78125 7.488281 3.050781 5.703125 3.050781 5.703125 Z M 5.3125 6.871094 L 5.3125 7.25 C 4.15625 7.03125 3.628906 5.757812 3.628906 5.757812 C 3.628906 5.757812 4.390625 5.105469 5.3125 5 L 5.3125 5.414062 C 4.828125 5.355469 4.242188 5.832031 4.242188 5.832031 C 4.242188 5.832031 4.660156 6.636719 5.3125 6.871094 M 5.3125 3.414062 L 5.3125 4.132812 C 5.355469 4.128906 5.199219 4.125 5.242188 4.125 C 6.96875 4.0625 8.089844 5.621094 8.089844 5.621094 C 8.089844 5.621094 6.800781 7.28125 5.453125 7.28125 C 5.332031 7.28125 5.421875 7.269531 5.3125 7.25 L 5.3125 7.691406 C 5.40625 7.703125 5.296875 7.710938 5.398438 7.710938 C 6.648438 7.710938 7.554688 7.035156 8.433594 6.234375 C 8.578125 6.359375 9.171875 6.65625 9.292969 6.789062 C 8.460938 7.527344 6.519531 8.121094 5.414062 8.121094 C 5.308594 8.121094 5.414062 8.113281 5.3125 8.105469 L 5.3125 8.726562 L 9.867188 8.726562 L 9.867188 3.414062 Z M 5.3125 5 L 5.3125 4.519531 C 5.355469 4.515625 5.199219 4.515625 5.242188 4.515625 C 6.484375 4.472656 7.296875 5.640625 7.296875 5.640625 C 7.296875 5.640625 6.417969 6.933594 5.472656 6.933594 C 5.339844 6.933594 5.425781 6.910156 5.3125 6.871094 L 5.3125 5.414062 C 5.796875 5.476562 5.78125 5.703125 6.070312 6.214844 L 6.625 5.640625 C 6.625 5.640625 6.152344 4.984375 5.359375 4.984375 C 5.273438 4.984375 5.394531 4.992188 5.3125 5 "/>
</g>
</svg>
