<?xml version="1.0" encoding="UTF-8"?>
<svg xmlns="http://www.w3.org/2000/svg" xmlns:xlink="http://www.w3.org/1999/xlink" width="12pt" height="12pt" viewBox="0 0 12 12" version="1.1">
<g id="surface1">
<path style=" stroke:none;fill-rule:evenodd;fill:rgb(11.764706%,84.313725%,37.647059%);fill-opacity:1;" d="M 2.800781 0.710938 L 9.199219 0.710938 C 10.351562 0.710938 11.289062 1.648438 11.289062 2.800781 L 11.289062 9.199219 C 11.289062 10.351562 10.351562 11.289062 9.199219 11.289062 L 2.800781 11.289062 C 1.648438 11.289062 0.710938 10.351562 0.710938 9.199219 L 0.710938 2.800781 C 0.710938 1.648438 1.648438 0.710938 2.800781 0.710938 Z M 2.800781 0.710938 "/>
<path style=" stroke:none;fill-rule:nonzero;fill:rgb(100%,100%,100%);fill-opacity:1;" d="M 5.273438 3.75 C 4.636719 3.75 4.019531 3.816406 3.496094 3.945312 C 3.226562 4.011719 3.207031 4.019531 3.132812 4.082031 C 3.039062 4.160156 3 4.246094 3 4.367188 C 3 4.519531 3.074219 4.636719 3.210938 4.703125 C 3.320312 4.757812 3.394531 4.757812 3.636719 4.695312 C 3.886719 4.632812 4.234375 4.574219 4.542969 4.539062 C 4.855469 4.507812 5.839844 4.511719 6.152344 4.550781 C 7.007812 4.648438 7.613281 4.808594 8.203125 5.09375 C 8.355469 5.167969 8.503906 5.234375 8.535156 5.242188 C 8.703125 5.28125 8.90625 5.175781 8.976562 5.015625 C 9.011719 4.9375 9.007812 4.789062 8.96875 4.710938 C 8.921875 4.613281 8.828125 4.542969 8.578125 4.417969 C 8.148438 4.210938 7.6875 4.054688 7.171875 3.945312 C 6.566406 3.816406 5.90625 3.75 5.273438 3.75 Z M 5.015625 5.25 C 4.902344 5.253906 4.804688 5.257812 4.738281 5.265625 C 4.3125 5.308594 3.757812 5.425781 3.582031 5.511719 C 3.394531 5.597656 3.328125 5.886719 3.445312 6.074219 C 3.488281 6.144531 3.617188 6.222656 3.691406 6.222656 C 3.722656 6.222656 3.855469 6.191406 3.992188 6.152344 C 4.394531 6.042969 4.660156 6.003906 5.148438 5.996094 C 5.464844 5.992188 5.742188 5.996094 5.925781 6.015625 C 6.710938 6.105469 7.398438 6.261719 8.0625 6.652344 C 8.152344 6.707031 8.25 6.75 8.273438 6.75 C 8.46875 6.75 8.640625 6.503906 8.609375 6.308594 C 8.578125 6.136719 8.503906 6.0625 8.164062 5.875 C 7.601562 5.5625 6.871094 5.398438 6.136719 5.289062 C 6.011719 5.269531 5.757812 5.257812 5.5 5.253906 C 5.371094 5.25 5.128906 5.25 5.015625 5.25 Z M 5.433594 6.75 C 5.34375 6.753906 5.265625 6.757812 5.210938 6.765625 C 4.871094 6.808594 4.425781 6.925781 4.285156 7.011719 C 4.136719 7.097656 4.082031 7.386719 4.175781 7.574219 C 4.210938 7.644531 4.3125 7.722656 4.375 7.722656 C 4.394531 7.722656 4.503906 7.691406 4.613281 7.652344 C 4.933594 7.542969 5.148438 7.503906 5.539062 7.496094 C 5.792969 7.492188 5.792969 7.496094 5.941406 7.515625 C 6.566406 7.605469 6.914062 7.761719 7.445312 8.152344 C 7.519531 8.207031 7.597656 8.25 7.617188 8.25 C 7.773438 8.25 7.910156 8.042969 7.882812 7.847656 C 7.859375 7.671875 7.800781 7.601562 7.53125 7.414062 C 7.082031 7.097656 6.699219 6.898438 6.109375 6.789062 C 6.011719 6.769531 5.804688 6.757812 5.601562 6.753906 C 5.496094 6.75 5.523438 6.75 5.433594 6.75 Z M 5.433594 6.75 "/>
</g>
</svg>
