<?xml version="1.0" encoding="UTF-8"?>
<svg xmlns="http://www.w3.org/2000/svg" xmlns:xlink="http://www.w3.org/1999/xlink" width="12pt" height="12pt" viewBox="0 0 12 12" version="1.1">
<g id="surface1">
<path style=" stroke:none;fill-rule:evenodd;fill:rgb(90.196078%,90.196078%,90.196078%);fill-opacity:1;" d="M 2.800781 0.710938 L 9.199219 0.710938 C 10.351562 0.710938 11.289062 1.648438 11.289062 2.800781 L 11.289062 9.199219 C 11.289062 10.351562 10.351562 11.289062 9.199219 11.289062 L 2.800781 11.289062 C 1.648438 11.289062 0.710938 10.351562 0.710938 9.199219 L 0.710938 2.800781 C 0.710938 1.648438 1.648438 0.710938 2.800781 0.710938 Z M 2.800781 0.710938 "/>
<path style=" stroke:none;fill-rule:nonzero;fill:rgb(94.901961%,45.490196%,13.72549%);fill-opacity:1;" d="M 6.160156 2.144531 C 6.992188 3.992188 10.675781 8.539062 1.722656 7.84375 C 8.125 10.648438 13.132812 8.246094 6.160156 2.144531 Z M 6.160156 2.144531 "/>
<path style=" stroke:none;fill-rule:nonzero;fill:rgb(11.372549%,29.019608%,42.352941%);fill-opacity:1;" d="M 8.085938 4.09375 C 8.714844 4.070312 9.441406 4.089844 10.277344 4.15625 C 9.21875 3.691406 8.207031 3.382812 7.273438 3.199219 C 7.285156 3.210938 7.300781 3.222656 7.308594 3.234375 C 7.484375 3.410156 7.644531 3.582031 7.796875 3.75 C 7.898438 3.867188 7.992188 3.980469 8.085938 4.09375 Z M 8.085938 4.09375 "/>
<path style=" stroke:none;fill-rule:nonzero;fill:rgb(11.372549%,29.019608%,42.352941%);fill-opacity:1;" d="M 5.492188 3.003906 C 2.578125 2.984375 1.257812 4.722656 3.894531 7.894531 C 4.136719 8.183594 4.402344 8.480469 4.707031 8.789062 C 5.042969 9.128906 5.417969 9.484375 5.839844 9.855469 C 5.71875 9.585938 5.539062 9.253906 5.347656 8.898438 C 5.164062 8.5625 4.972656 8.203125 4.808594 7.828125 C 4.113281 6.253906 3.917969 4.53125 7.171875 4.160156 C 7.132812 4.074219 7.097656 3.984375 7.058594 3.898438 C 6.921875 3.617188 6.777344 3.347656 6.636719 3.089844 C 6.234375 3.03125 5.851562 3.003906 5.492188 3.003906 Z M 5.492188 3.003906 "/>
<path style=" stroke:none;fill-rule:nonzero;fill:rgb(94.901961%,45.490196%,13.72549%);fill-opacity:1;" d="M 6.636719 3.089844 C 6.777344 3.347656 6.921875 3.617188 7.058594 3.898438 C 7.097656 3.984375 7.132812 4.074219 7.171875 4.160156 C 7.453125 4.128906 7.753906 4.101562 8.085938 4.09375 C 7.992188 3.980469 7.898438 3.867188 7.796875 3.75 C 7.644531 3.582031 7.484375 3.410156 7.308594 3.234375 C 7.300781 3.222656 7.285156 3.210938 7.273438 3.199219 C 7.058594 3.15625 6.84375 3.117188 6.636719 3.089844 Z M 6.636719 3.089844 "/>
</g>
</svg>
