<?xml version="1.0" encoding="UTF-8"?>
<svg xmlns="http://www.w3.org/2000/svg" xmlns:xlink="http://www.w3.org/1999/xlink" width="12pt" height="12pt" viewBox="0 0 12 12" version="1.1">
<g id="surface1">
<path style=" stroke:none;fill-rule:evenodd;fill:rgb(36.470588%,70.588235%,24.313725%);fill-opacity:1;" d="M 2.800781 0.710938 L 9.199219 0.710938 C 10.351562 0.710938 11.289062 1.648438 11.289062 2.800781 L 11.289062 9.199219 C 11.289062 10.351562 10.351562 11.289062 9.199219 11.289062 L 2.800781 11.289062 C 1.648438 11.289062 0.710938 10.351562 0.710938 9.199219 L 0.710938 2.800781 C 0.710938 1.648438 1.648438 0.710938 2.800781 0.710938 Z M 2.800781 0.710938 "/>
<path style=" stroke:none;fill-rule:evenodd;fill:rgb(44.705882%,81.176471%,37.647059%);fill-opacity:1;" d="M 11.289062 3.726562 C 7.84375 2.6875 6.917969 9.867188 0.710938 6.832031 L 0.710938 9.199219 C 0.710938 10.355469 1.644531 11.289062 2.800781 11.289062 L 9.199219 11.289062 C 10.355469 11.289062 11.289062 10.355469 11.289062 9.199219 Z M 11.289062 3.726562 "/>
<path style=" stroke:none;fill-rule:nonzero;fill:rgb(97.647059%,97.647059%,97.647059%);fill-opacity:1;" d="M 3.902344 6.289062 L 8.097656 6.289062 C 8.828125 6.289062 9.417969 6.882812 9.417969 7.609375 C 9.417969 8.339844 8.828125 8.933594 8.097656 8.933594 L 3.902344 8.933594 C 3.171875 8.933594 2.582031 8.339844 2.582031 7.609375 C 2.582031 6.882812 3.171875 6.289062 3.902344 6.289062 Z M 3.902344 6.289062 "/>
<path style=" stroke:none;fill-rule:nonzero;fill:rgb(60%,60%,60%);fill-opacity:1;" d="M 4.925781 7.628906 C 4.925781 8.144531 4.507812 8.5625 3.992188 8.5625 C 3.476562 8.5625 3.054688 8.144531 3.054688 7.628906 C 3.054688 7.113281 3.476562 6.695312 3.992188 6.695312 C 4.507812 6.695312 4.925781 7.113281 4.925781 7.628906 Z M 4.925781 7.628906 "/>
<path style=" stroke:none;fill-rule:nonzero;fill:rgb(60%,60%,60%);fill-opacity:1;" d="M 6.964844 7.628906 C 6.964844 8.144531 6.546875 8.5625 6.03125 8.5625 C 5.515625 8.5625 5.097656 8.144531 5.097656 7.628906 C 5.097656 7.113281 5.515625 6.695312 6.03125 6.695312 C 6.546875 6.695312 6.964844 7.113281 6.964844 7.628906 Z M 6.964844 7.628906 "/>
<path style=" stroke:none;fill-rule:nonzero;fill:rgb(97.647059%,97.647059%,97.647059%);fill-opacity:1;" d="M 3.902344 3.066406 L 8.097656 3.066406 C 8.828125 3.066406 9.417969 3.660156 9.417969 4.390625 C 9.417969 5.117188 8.828125 5.710938 8.097656 5.710938 L 3.902344 5.710938 C 3.171875 5.710938 2.582031 5.117188 2.582031 4.390625 C 2.582031 3.660156 3.171875 3.066406 3.902344 3.066406 Z M 3.902344 3.066406 "/>
</g>
</svg>
