<?xml version="1.0" encoding="UTF-8"?>
<svg xmlns="http://www.w3.org/2000/svg" xmlns:xlink="http://www.w3.org/1999/xlink" width="12pt" height="12pt" viewBox="0 0 12 12" version="1.1">
<defs>
<radialGradient id="radial0" gradientUnits="userSpaceOnUse" cx="24.391607" cy="16.559441" fx="24.391607" fy="16.559441" r="14.101694" gradientTransform="matrix(0.583277,0,0,0.583277,-8.227151,-3.658826)">
<stop offset="0" style="stop-color:rgb(33.72549%,34.117647%,16.862745%);stop-opacity:1;"/>
<stop offset="1" style="stop-color:rgb(10.196078%,10.980392%,5.490196%);stop-opacity:1;"/>
</radialGradient>
</defs>
<g id="surface1">
<path style=" stroke:none;fill-rule:evenodd;fill:rgb(33.72549%,34.117647%,16.862745%);fill-opacity:1;" d="M 2.800781 0.710938 L 9.199219 0.710938 C 10.351562 0.710938 11.289062 1.648438 11.289062 2.800781 L 11.289062 9.199219 C 11.289062 10.351562 10.351562 11.289062 9.199219 11.289062 L 2.800781 11.289062 C 1.648438 11.289062 0.710938 10.351562 0.710938 9.199219 L 0.710938 2.800781 C 0.710938 1.648438 1.648438 0.710938 2.800781 0.710938 Z M 2.800781 0.710938 "/>
<path style=" stroke:none;fill-rule:evenodd;fill:rgb(13.333333%,14.509804%,7.843137%);fill-opacity:1;" d="M 6.722656 11.289062 C 6.425781 11.160156 6.050781 11.050781 5.804688 10.910156 C 5.246094 10.589844 4.816406 10.246094 4.480469 9.886719 C 4.144531 9.527344 3.898438 9.152344 3.703125 8.773438 C 3.511719 8.394531 3.371094 8.011719 3.25 7.636719 C 3.125 7.261719 3.019531 6.894531 2.890625 6.542969 C 2.761719 6.195312 2.613281 5.863281 2.402344 5.5625 C 2.191406 5.265625 1.921875 4.992188 1.558594 4.761719 C 1.339844 4.628906 1.003906 4.539062 0.710938 4.433594 L 0.710938 9.195312 C 0.710938 10.355469 1.644531 11.289062 2.800781 11.289062 Z M 6.722656 11.289062 "/>
<path style=" stroke:none;fill-rule:evenodd;fill:url(#radial0);" d="M 4.828125 0.710938 L 2.800781 0.710938 C 1.644531 0.710938 0.710938 1.644531 0.710938 2.800781 L 0.710938 4.433594 C 1.003906 4.539062 1.339844 4.628906 1.558594 4.761719 C 1.921875 4.992188 2.191406 5.265625 2.402344 5.5625 C 2.613281 5.863281 2.761719 6.195312 2.890625 6.542969 C 3.019531 6.894531 3.125 7.261719 3.25 7.636719 C 3.371094 8.011719 3.511719 8.394531 3.703125 8.773438 C 3.898438 9.152344 4.144531 9.527344 4.480469 9.886719 C 4.816406 10.246094 5.246094 10.589844 5.804688 10.910156 C 6.050781 11.050781 6.425781 11.160156 6.722656 11.289062 L 9.195312 11.289062 C 10.355469 11.289062 11.289062 10.355469 11.289062 9.195312 L 11.289062 7.753906 C 11.042969 7.65625 10.738281 7.585938 10.550781 7.464844 C 10.183594 7.234375 9.914062 6.964844 9.707031 6.664062 C 9.496094 6.363281 9.347656 6.035156 9.21875 5.683594 C 9.089844 5.335938 8.980469 4.96875 8.859375 4.59375 C 8.734375 4.21875 8.597656 3.835938 8.402344 3.457031 C 8.210938 3.078125 7.964844 2.703125 7.625 2.34375 C 7.289062 1.984375 6.859375 1.636719 6.300781 1.320312 C 5.910156 1.097656 5.359375 0.90625 4.828125 0.710938 Z M 4.828125 0.710938 "/>
<path style=" stroke:none;fill-rule:evenodd;fill:rgb(33.72549%,34.117647%,16.862745%);fill-opacity:1;" d="M 4.828125 0.710938 C 5.359375 0.90625 5.910156 1.097656 6.300781 1.320312 C 6.859375 1.636719 7.289062 1.984375 7.625 2.34375 C 7.964844 2.703125 8.210938 3.078125 8.402344 3.457031 C 8.597656 3.835938 8.734375 4.21875 8.859375 4.59375 C 8.980469 4.96875 9.089844 5.335938 9.21875 5.683594 C 9.347656 6.035156 9.496094 6.363281 9.707031 6.664062 C 9.914062 6.964844 10.183594 7.234375 10.550781 7.464844 C 10.738281 7.585938 11.042969 7.65625 11.289062 7.753906 L 11.289062 2.800781 C 11.289062 1.644531 10.355469 0.710938 9.195312 0.710938 Z M 4.828125 0.710938 "/>
<path style=" stroke:none;fill-rule:nonzero;fill:rgb(100%,100%,100%);fill-opacity:1;" d="M 5.730469 9.316406 C 5.882812 9.238281 5.90625 9.199219 5.910156 8.949219 L 5.917969 8.738281 L 5.398438 8.738281 L 5.40625 8.894531 L 5.410156 9.046875 L 4.359375 9.046875 L 4.359375 8.160156 L 5.410156 8.160156 L 5.40625 8.308594 L 5.398438 8.457031 L 5.515625 8.445312 C 5.664062 8.429688 5.835938 8.347656 5.894531 8.261719 C 5.925781 8.214844 5.933594 8.1875 5.925781 8.128906 C 5.910156 8.015625 5.859375 7.945312 5.746094 7.890625 L 5.648438 7.84375 L 4.164062 7.84375 L 4.074219 7.882812 C 3.957031 7.9375 3.871094 8.03125 3.855469 8.128906 C 3.851562 8.167969 3.847656 8.410156 3.851562 8.664062 C 3.859375 9.179688 3.859375 9.191406 3.988281 9.28125 C 4.113281 9.367188 4.160156 9.371094 4.925781 9.367188 L 5.632812 9.363281 Z M 7.917969 9.355469 C 8.015625 9.328125 8.117188 9.253906 8.15625 9.183594 C 8.179688 9.136719 8.183594 9.082031 8.183594 8.914062 C 8.183594 8.667969 8.167969 8.609375 8.066406 8.542969 C 7.941406 8.460938 7.851562 8.449219 7.214844 8.449219 L 6.632812 8.449219 L 6.632812 8.160156 L 7.40625 8.160156 C 8.175781 8.160156 8.183594 8.160156 8.183594 8.125 C 8.183594 8.070312 8.140625 7.984375 8.097656 7.945312 C 8.074219 7.925781 8.019531 7.894531 7.972656 7.875 C 7.890625 7.847656 7.828125 7.84375 7.144531 7.84375 L 6.402344 7.84375 L 6.308594 7.890625 C 6.195312 7.945312 6.125 8.039062 6.109375 8.15625 C 6.089844 8.277344 6.109375 8.519531 6.140625 8.582031 C 6.179688 8.65625 6.300781 8.734375 6.410156 8.757812 C 6.460938 8.765625 6.734375 8.773438 7.085938 8.773438 L 7.671875 8.773438 L 7.671875 9.046875 L 6.886719 9.046875 C 6.175781 9.046875 6.097656 9.050781 6.109375 9.074219 C 6.113281 9.089844 6.117188 9.113281 6.117188 9.125 C 6.117188 9.195312 6.285156 9.320312 6.421875 9.351562 C 6.515625 9.375 7.828125 9.375 7.917969 9.355469 Z M 7.917969 9.355469 "/>
<path style=" stroke:none;fill-rule:nonzero;fill:rgb(100%,100%,100%);fill-opacity:1;" d="M 6.066406 2.953125 C 4.53125 2.953125 3.285156 4.199219 3.285156 5.734375 C 3.285156 6.503906 3.597656 7.199219 4.101562 7.703125 L 4.558594 7.703125 C 3.96875 7.25 3.585938 6.539062 3.585938 5.734375 C 3.585938 4.363281 4.695312 3.253906 6.066406 3.253906 C 7.441406 3.253906 8.550781 4.363281 8.550781 5.734375 C 8.550781 6.539062 8.167969 7.25 7.578125 7.703125 L 8.035156 7.703125 C 8.539062 7.199219 8.851562 6.503906 8.851562 5.734375 C 8.851562 4.199219 7.601562 2.953125 6.066406 2.953125 Z M 6.066406 2.953125 "/>
<path style=" stroke:none;fill-rule:nonzero;fill:rgb(100%,100%,100%);fill-opacity:1;" d="M 6.847656 7.539062 C 6.898438 7.492188 6.886719 7.402344 6.8125 7.300781 C 6.75 7.210938 6.75 7.207031 6.707031 6.863281 C 6.664062 6.53125 6.65625 6.511719 6.59375 6.394531 C 6.554688 6.3125 6.507812 6.253906 6.464844 6.222656 C 6.390625 6.164062 6.351562 6.0625 6.382812 6.003906 C 6.402344 5.96875 6.394531 5.953125 6.316406 5.851562 C 6.265625 5.792969 6.21875 5.730469 6.207031 5.71875 C 6.195312 5.707031 6.160156 5.664062 6.132812 5.625 C 6.09375 5.574219 6.070312 5.554688 6.050781 5.558594 C 6.027344 5.566406 6.019531 5.554688 6.015625 5.507812 C 6.011719 5.472656 6.003906 5.429688 5.996094 5.414062 C 5.984375 5.390625 5.992188 5.386719 6.023438 5.386719 C 6.082031 5.386719 6.101562 5.34375 6.101562 5.214844 L 6.101562 5.105469 L 6.230469 5.105469 C 6.300781 5.105469 6.382812 5.097656 6.414062 5.089844 C 6.488281 5.066406 6.558594 5 6.597656 4.910156 C 6.628906 4.839844 6.660156 4.824219 6.695312 4.867188 C 6.710938 4.882812 6.738281 4.890625 6.769531 4.886719 C 6.816406 4.882812 6.820312 4.875 6.824219 4.820312 C 6.828125 4.785156 6.835938 4.757812 6.839844 4.757812 C 6.847656 4.757812 6.886719 4.839844 6.929688 4.9375 C 7 5.105469 7.003906 5.113281 7.050781 5.109375 C 7.074219 5.109375 7.101562 5.101562 7.105469 5.097656 C 7.109375 5.09375 7.085938 5.011719 7.050781 4.917969 C 7.015625 4.828125 6.984375 4.742188 6.980469 4.734375 C 6.976562 4.722656 7.007812 4.703125 7.046875 4.683594 C 7.101562 4.664062 7.121094 4.644531 7.132812 4.605469 L 7.148438 4.550781 L 7.339844 4.542969 C 7.445312 4.535156 7.53125 4.53125 7.535156 4.53125 C 7.535156 4.527344 7.539062 4.515625 7.539062 4.503906 C 7.539062 4.488281 7.515625 4.476562 7.484375 4.476562 C 7.429688 4.46875 7.429688 4.46875 7.425781 4.375 C 7.425781 4.34375 7.367188 4.347656 7.339844 4.332031 C 7.339844 4.375 7.335938 4.378906 7.273438 4.378906 C 7.226562 4.378906 7.207031 4.371094 7.207031 4.355469 C 7.207031 4.328125 7.179688 4.320312 7.171875 4.347656 C 7.167969 4.355469 7.132812 4.367188 7.085938 4.371094 L 7.007812 4.382812 L 7.007812 4.332031 C 7.007812 4.304688 7 4.28125 6.988281 4.273438 C 6.960938 4.265625 6.925781 4.292969 6.925781 4.324219 C 6.925781 4.339844 6.886719 4.347656 6.761719 4.347656 L 6.597656 4.347656 L 6.597656 4.296875 C 6.597656 4.25 6.59375 4.246094 6.539062 4.246094 C 6.5 4.246094 6.480469 4.253906 6.480469 4.269531 C 6.480469 4.296875 6.445312 4.3125 6.382812 4.3125 C 6.351562 4.3125 6.328125 4.324219 6.316406 4.347656 C 6.292969 4.390625 6.191406 4.394531 6.207031 4.351562 C 6.308594 4.089844 6.164062 3.84375 5.914062 3.847656 C 5.753906 3.851562 5.65625 3.988281 5.65625 4.207031 C 5.65625 4.324219 5.65625 4.324219 5.601562 4.347656 C 5.429688 4.417969 5.304688 4.695312 5.308594 4.996094 C 5.3125 5.09375 5.304688 5.191406 5.285156 5.269531 C 5.265625 5.351562 5.253906 5.476562 5.25 5.640625 C 5.25 5.867188 5.242188 5.90625 5.191406 6.09375 C 5.140625 6.269531 5.109375 6.417969 5.070312 6.648438 C 5.066406 6.667969 5.023438 6.710938 4.972656 6.746094 C 4.871094 6.816406 4.804688 6.890625 4.753906 6.996094 L 4.71875 7.0625 L 4.777344 7.21875 C 4.855469 7.414062 4.851562 7.410156 4.925781 7.429688 C 4.96875 7.445312 4.996094 7.441406 5.039062 7.425781 L 5.09375 7.402344 L 5.09375 7.152344 L 5.160156 7.152344 C 5.304688 7.152344 5.414062 6.988281 5.558594 6.554688 C 5.683594 6.167969 5.722656 6.0625 5.742188 6.0625 C 5.75 6.0625 5.753906 6.070312 5.753906 6.078125 C 5.753906 6.089844 5.785156 6.144531 5.820312 6.199219 C 5.898438 6.320312 6.023438 6.449219 6.15625 6.53125 C 6.234375 6.582031 6.246094 6.597656 6.257812 6.660156 C 6.261719 6.699219 6.296875 6.820312 6.335938 6.929688 C 6.371094 7.039062 6.410156 7.183594 6.425781 7.253906 C 6.453125 7.421875 6.488281 7.46875 6.617188 7.519531 C 6.738281 7.570312 6.804688 7.574219 6.847656 7.539062 Z M 6.191406 4.722656 C 6.195312 4.683594 6.214844 4.640625 6.230469 4.632812 C 6.285156 4.589844 6.515625 4.617188 6.515625 4.667969 C 6.515625 4.691406 6.464844 4.707031 6.394531 4.710938 C 6.367188 4.710938 6.339844 4.726562 6.320312 4.75 C 6.296875 4.78125 6.269531 4.792969 6.234375 4.792969 L 6.179688 4.792969 Z M 6.191406 4.722656 "/>
</g>
</svg>
