<?xml version="1.0" encoding="UTF-8"?>
<svg xmlns="http://www.w3.org/2000/svg" xmlns:xlink="http://www.w3.org/1999/xlink" width="12pt" height="12pt" viewBox="0 0 12 12" version="1.1">
<g id="surface1">
<path style=" stroke:none;fill-rule:evenodd;fill:rgb(80%,80%,80%);fill-opacity:1;" d="M 2.800781 0.710938 L 9.199219 0.710938 C 10.351562 0.710938 11.289062 1.648438 11.289062 2.800781 L 11.289062 9.199219 C 11.289062 10.351562 10.351562 11.289062 9.199219 11.289062 L 2.800781 11.289062 C 1.648438 11.289062 0.710938 10.351562 0.710938 9.199219 L 0.710938 2.800781 C 0.710938 1.648438 1.648438 0.710938 2.800781 0.710938 Z M 2.800781 0.710938 "/>
<path style=" stroke:none;fill-rule:nonzero;fill:rgb(30.196078%,30.196078%,30.196078%);fill-opacity:1;" d="M 4.125 2.625 L 4.125 4.125 L 2.625 4.125 L 2.625 4.875 L 4.125 4.875 L 4.125 7.125 L 2.625 7.125 L 2.625 7.875 L 4.125 7.875 L 4.125 9.375 L 8.25 6.375 L 9.375 6.375 L 9.375 5.625 L 8.25 5.625 Z M 4.5 4.5 L 6 4.5 L 6 5.25 L 4.5 5.25 Z M 4.875 6.375 L 5.625 6.375 L 5.625 6.75 L 6 6.75 L 6 7.5 L 5.625 7.5 L 5.625 7.875 L 4.875 7.875 L 4.875 7.5 L 4.5 7.5 L 4.5 6.75 L 4.875 6.75 Z M 4.875 6.375 "/>
</g>
</svg>
