<?xml version="1.0" encoding="UTF-8"?>
<svg xmlns="http://www.w3.org/2000/svg" xmlns:xlink="http://www.w3.org/1999/xlink" width="12pt" height="12pt" viewBox="0 0 12 12" version="1.1">
<g id="surface1">
<path style=" stroke:none;fill-rule:evenodd;fill:rgb(30.980392%,30.980392%,30.980392%);fill-opacity:1;" d="M 2.800781 0.710938 L 9.199219 0.710938 C 10.351562 0.710938 11.289062 1.648438 11.289062 2.800781 L 11.289062 9.199219 C 11.289062 10.351562 10.351562 11.289062 9.199219 11.289062 L 2.800781 11.289062 C 1.648438 11.289062 0.710938 10.351562 0.710938 9.199219 L 0.710938 2.800781 C 0.710938 1.648438 1.648438 0.710938 2.800781 0.710938 Z M 2.800781 0.710938 "/>
<path style=" stroke:none;fill-rule:nonzero;fill:rgb(47.45098%,80.784314%,14.117647%);fill-opacity:1;" d="M 3.4375 2.125 C 3.265625 2.121094 3.097656 2.183594 2.976562 2.296875 C 2.855469 2.414062 2.785156 2.570312 2.785156 2.734375 L 2.785156 9.265625 C 2.785156 9.484375 2.90625 9.683594 3.101562 9.792969 C 3.300781 9.902344 3.542969 9.902344 3.738281 9.792969 L 6.699219 8.160156 L 9.664062 6.527344 C 9.859375 6.417969 9.980469 6.21875 9.980469 6 C 9.980469 5.78125 9.859375 5.582031 9.664062 5.472656 L 6.699219 3.839844 L 3.738281 2.207031 C 3.648438 2.15625 3.542969 2.128906 3.4375 2.125 Z M 4.167969 3.785156 L 5.828125 4.890625 L 7.492188 6 L 4.167969 8.214844 L 4.167969 7.660156 L 6.660156 6 L 5.414062 5.167969 L 4.167969 6 Z M 4.167969 3.785156 "/>
</g>
</svg>
