<?xml version="1.0" encoding="UTF-8"?>
<svg xmlns="http://www.w3.org/2000/svg" xmlns:xlink="http://www.w3.org/1999/xlink" width="12pt" height="12pt" viewBox="0 0 12 12" version="1.1">
<defs>
<filter id="alpha" filterUnits="objectBoundingBox" x="0%" y="0%" width="100%" height="100%">
  <feColorMatrix type="matrix" in="SourceGraphic" values="0 0 0 0 1 0 0 0 0 1 0 0 0 0 1 0 0 0 1 0"/>
</filter>
<mask id="mask0">
  <g filter="url(#alpha)">
<rect x="0" y="0" width="12" height="12" style="fill:rgb(0%,0%,0%);fill-opacity:0.8;stroke:none;"/>
  </g>
</mask>
<clipPath id="clip1">
  <rect width="12" height="12"/>
</clipPath>
<g id="surface6" clip-path="url(#clip1)">
<path style=" stroke:none;fill-rule:nonzero;fill:rgb(55.686275%,55.686275%,55.686275%);fill-opacity:1;" d="M 6.671875 4.585938 C 6.390625 4.585938 6.167969 4.8125 6.167969 5.089844 C 6.167969 5.128906 6.175781 5.164062 6.183594 5.199219 L 5.644531 5.535156 C 5.558594 5.464844 5.449219 5.425781 5.328125 5.425781 C 5.050781 5.425781 4.824219 5.648438 4.824219 5.929688 C 4.824219 6.207031 5.050781 6.429688 5.328125 6.429688 C 5.449219 6.429688 5.558594 6.390625 5.644531 6.320312 L 6.183594 6.65625 C 6.171875 6.695312 6.167969 6.730469 6.167969 6.765625 C 6.167969 7.046875 6.390625 7.269531 6.671875 7.269531 C 6.949219 7.269531 7.171875 7.046875 7.171875 6.765625 C 7.171875 6.488281 6.949219 6.265625 6.671875 6.265625 C 6.550781 6.265625 6.441406 6.304688 6.355469 6.375 L 5.816406 6.039062 C 5.824219 6.003906 5.832031 5.96875 5.832031 5.929688 C 5.832031 5.890625 5.824219 5.855469 5.816406 5.820312 L 6.355469 5.484375 C 6.441406 5.550781 6.550781 5.59375 6.671875 5.59375 C 6.949219 5.59375 7.175781 5.367188 7.175781 5.089844 C 7.175781 4.8125 6.949219 4.585938 6.671875 4.585938 Z M 6.671875 4.585938 "/>
</g>
</defs>
<g id="surface1">
<path style=" stroke:none;fill-rule:evenodd;fill:rgb(55.686275%,55.686275%,55.686275%);fill-opacity:1;" d="M 2.800781 0.710938 L 9.199219 0.710938 C 10.351562 0.710938 11.289062 1.648438 11.289062 2.800781 L 11.289062 9.199219 C 11.289062 10.351562 10.351562 11.289062 9.199219 11.289062 L 2.800781 11.289062 C 1.648438 11.289062 0.710938 10.351562 0.710938 9.199219 L 0.710938 2.800781 C 0.710938 1.648438 1.648438 0.710938 2.800781 0.710938 Z M 2.800781 0.710938 "/>
<path style=" stroke:none;fill-rule:nonzero;fill:rgb(27.843137%,27.843137%,27.843137%);fill-opacity:1;" d="M 3.410156 3.027344 C 2.730469 3.027344 2.183594 3.574219 2.183594 4.253906 L 2.183594 7.511719 C 2.183594 8.191406 2.730469 8.742188 3.410156 8.742188 L 4.074219 8.742188 C 4.128906 9.15625 4.480469 9.476562 4.914062 9.476562 L 7.085938 9.476562 C 7.519531 9.476562 7.871094 9.15625 7.925781 8.742188 L 8.589844 8.742188 C 9.269531 8.742188 9.816406 8.191406 9.816406 7.511719 L 9.816406 4.253906 C 9.816406 3.574219 9.269531 3.027344 8.589844 3.027344 Z M 3.410156 3.027344 "/>
<path style=" stroke:none;fill-rule:nonzero;fill:rgb(13.72549%,13.72549%,13.72549%);fill-opacity:1;" d="M 3.457031 3.386719 L 8.542969 3.386719 C 9.058594 3.386719 9.472656 3.785156 9.472656 4.28125 L 9.472656 7.484375 C 9.472656 7.980469 9.058594 8.378906 8.542969 8.378906 L 3.457031 8.378906 C 2.941406 8.378906 2.527344 7.980469 2.527344 7.484375 L 2.527344 4.28125 C 2.527344 3.785156 2.941406 3.386719 3.457031 3.386719 Z M 3.457031 3.386719 "/>
<use xlink:href="#surface6" mask="url(#mask0)"/>
</g>
</svg>
