<?xml version="1.0" encoding="UTF-8"?>
<svg xmlns="http://www.w3.org/2000/svg" xmlns:xlink="http://www.w3.org/1999/xlink" width="12pt" height="12pt" viewBox="0 0 12 12" version="1.1">
<g id="surface1">
<path style=" stroke:none;fill-rule:evenodd;fill:rgb(97.647059%,97.647059%,97.647059%);fill-opacity:1;" d="M 0.710938 6.585938 L 4.859375 6.585938 C 5.003906 6.585938 5.121094 6.476562 5.121094 6.335938 L 5.121094 3.085938 C 5.121094 2.949219 5.003906 2.835938 4.859375 2.835938 L 0.710938 2.835938 Z M 0.710938 6.585938 "/>
<path style=" stroke:none;fill-rule:evenodd;fill:rgb(97.647059%,97.647059%,97.647059%);fill-opacity:1;" d="M 8.496094 11.289062 L 8.496094 8.335938 C 8.496094 8.199219 8.378906 8.085938 8.234375 8.085938 L 3.507812 8.085938 C 3.363281 8.085938 3.246094 8.199219 3.246094 8.335938 L 3.246094 11.289062 Z M 8.496094 11.289062 "/>
<path style=" stroke:none;fill-rule:evenodd;fill:rgb(97.647059%,97.647059%,97.647059%);fill-opacity:1;" d="M 11.289062 2.835938 L 6.886719 2.835938 C 6.738281 2.835938 6.621094 2.949219 6.621094 3.085938 L 6.621094 6.335938 C 6.621094 6.476562 6.738281 6.585938 6.886719 6.585938 L 11.289062 6.585938 Z M 11.289062 2.835938 "/>
<path style=" stroke:none;fill-rule:evenodd;fill:rgb(29.019608%,70.196078%,89.411765%);fill-opacity:1;" d="M 2.800781 0.710938 C 1.644531 0.710938 0.710938 1.644531 0.710938 2.800781 L 0.710938 2.835938 L 4.859375 2.835938 C 5.003906 2.835938 5.121094 2.949219 5.121094 3.085938 L 5.121094 6.335938 C 5.121094 6.476562 5.003906 6.585938 4.859375 6.585938 L 0.710938 6.585938 L 0.710938 9.195312 C 0.710938 10.355469 1.644531 11.289062 2.800781 11.289062 L 3.246094 11.289062 L 3.246094 8.335938 C 3.246094 8.199219 3.363281 8.085938 3.507812 8.085938 L 8.234375 8.085938 C 8.378906 8.085938 8.496094 8.199219 8.496094 8.335938 L 8.496094 11.289062 L 9.195312 11.289062 C 10.355469 11.289062 11.289062 10.355469 11.289062 9.195312 L 11.289062 6.585938 L 6.886719 6.585938 C 6.738281 6.585938 6.621094 6.476562 6.621094 6.335938 L 6.621094 3.085938 C 6.621094 2.949219 6.738281 2.835938 6.886719 2.835938 L 11.289062 2.835938 L 11.289062 2.800781 C 11.289062 1.644531 10.355469 0.710938 9.195312 0.710938 Z M 2.800781 0.710938 "/>
</g>
</svg>
