<?xml version="1.0" encoding="UTF-8"?>
<svg xmlns="http://www.w3.org/2000/svg" xmlns:xlink="http://www.w3.org/1999/xlink" width="12pt" height="12pt" viewBox="0 0 12 12" version="1.1">
<g id="surface1">
<path style=" stroke:none;fill-rule:evenodd;fill:rgb(91.372549%,68.235294%,33.333333%);fill-opacity:1;" d="M 2.800781 0.710938 L 9.199219 0.710938 C 10.351562 0.710938 11.289062 1.648438 11.289062 2.800781 L 11.289062 9.199219 C 11.289062 10.351562 10.351562 11.289062 9.199219 11.289062 L 2.800781 11.289062 C 1.648438 11.289062 0.710938 10.351562 0.710938 9.199219 L 0.710938 2.800781 C 0.710938 1.648438 1.648438 0.710938 2.800781 0.710938 Z M 2.800781 0.710938 "/>
<path style=" stroke:none;fill-rule:nonzero;fill:rgb(100%,100%,100%);fill-opacity:1;" d="M 5.316406 3.5625 C 5.316406 3.5625 4.574219 3.546875 3.785156 4.125 C 3 4.703125 2.625 5.898438 2.625 7.621094 C 2.625 7.621094 3.460938 8.398438 4.667969 8.4375 C 4.667969 8.4375 4.867188 8.199219 5.03125 7.996094 C 4.339844 7.789062 4.074219 7.175781 4.074219 7.175781 C 4.714844 7.53125 5.148438 7.679688 5.8125 7.6875 C 6.476562 7.679688 7.285156 7.53125 7.925781 7.175781 C 7.925781 7.175781 7.660156 7.789062 6.96875 7.996094 C 7.132812 8.199219 7.332031 8.4375 7.332031 8.4375 C 8.539062 8.398438 9.375 7.621094 9.375 7.621094 C 9.375 5.898438 9 4.703125 8.214844 4.125 C 7.425781 3.546875 6.683594 3.5625 6.683594 3.5625 L 6.628906 3.628906 C 7.613281 3.902344 8.058594 4.515625 8.058594 4.515625 C 8.058594 4.515625 7.941406 4.453125 7.738281 4.367188 C 7.125 4.070312 6.375 3.9375 5.8125 3.9375 C 5.25 3.9375 4.875 4.070312 4.261719 4.367188 C 4.058594 4.453125 3.941406 4.515625 3.941406 4.515625 C 3.941406 4.515625 4.386719 3.902344 5.371094 3.628906 Z M 5.0625 5.8125 C 5.375 5.8125 5.628906 6.0625 5.625 6.375 C 5.625 6.6875 5.375 6.9375 5.0625 6.9375 C 4.753906 6.9375 4.5 6.6875 4.5 6.375 C 4.5 6.0625 4.75 5.8125 5.0625 5.8125 Z M 6.9375 5.8125 C 7.25 5.8125 7.5 6.0625 7.5 6.375 C 7.5 6.6875 7.246094 6.9375 6.9375 6.9375 C 6.625 6.9375 6.375 6.6875 6.375 6.375 C 6.371094 6.0625 6.625 5.8125 6.9375 5.8125 Z M 6.9375 5.8125 "/>
</g>
</svg>
