<?xml version="1.0" encoding="UTF-8"?>
<svg xmlns="http://www.w3.org/2000/svg" xmlns:xlink="http://www.w3.org/1999/xlink" width="12pt" height="12pt" viewBox="0 0 12 12" version="1.1">
<g id="surface1">
<path style=" stroke:none;fill-rule:evenodd;fill:rgb(99.607843%,78.039216%,52.54902%);fill-opacity:1;" d="M 2.800781 0.710938 L 9.199219 0.710938 C 10.351562 0.710938 11.289062 1.648438 11.289062 2.800781 L 11.289062 9.199219 C 11.289062 10.351562 10.351562 11.289062 9.199219 11.289062 L 2.800781 11.289062 C 1.648438 11.289062 0.710938 10.351562 0.710938 9.199219 L 0.710938 2.800781 C 0.710938 1.648438 1.648438 0.710938 2.800781 0.710938 Z M 2.800781 0.710938 "/>
<path style=" stroke:none;fill-rule:nonzero;fill:rgb(100%,100%,100%);fill-opacity:1;" d="M 8.25 6.71875 C 8.457031 8.160156 7.425781 10.15625 7.085938 10.054688 C 6.96875 10.191406 4.832031 8.882812 4.582031 7.464844 C 4.558594 7.332031 3.964844 6.40625 4.238281 6.695312 C 4.625 7.105469 3.835938 5.882812 4.011719 5.503906 C 4.269531 4.949219 5.703125 4.867188 6.375 4.867188 C 6.988281 4.867188 7.707031 4.589844 8.015625 4.941406 C 8.273438 5.234375 8.160156 6.09375 8.25 6.71875 Z M 8.25 6.71875 "/>
<path style=" stroke:none;fill-rule:nonzero;fill:rgb(30.980392%,30.980392%,30.980392%);fill-opacity:1;" d="M 6.4375 8.863281 C 6.4375 8.824219 6.523438 8.773438 6.792969 8.660156 C 6.917969 8.605469 6.960938 8.601562 6.992188 8.636719 C 7.011719 8.660156 7.023438 8.6875 7.011719 8.699219 C 7 8.714844 6.484375 8.902344 6.449219 8.902344 C 6.441406 8.902344 6.4375 8.886719 6.4375 8.863281 Z M 6.4375 8.863281 "/>
<path style=" stroke:none;fill-rule:nonzero;fill:rgb(30.980392%,30.980392%,30.980392%);fill-opacity:1;" d="M 6.570312 8.378906 C 6.421875 8.316406 6.382812 8.21875 6.523438 8.265625 C 6.746094 8.339844 6.753906 8.324219 6.738281 7.917969 C 6.726562 7.664062 6.738281 7.546875 6.769531 7.570312 C 6.796875 7.59375 6.824219 7.796875 6.835938 8.023438 C 6.855469 8.480469 6.84375 8.496094 6.570312 8.378906 Z M 6.570312 8.378906 "/>
<path style=" stroke:none;fill-rule:nonzero;fill:rgb(30.980392%,30.980392%,30.980392%);fill-opacity:1;" d="M 3.476562 6.96875 C 3.335938 6.875 3.222656 6.789062 3.222656 6.78125 C 3.226562 6.773438 3.296875 6.707031 3.382812 6.632812 C 3.535156 6.511719 3.554688 6.402344 3.554688 6.316406 C 3.554688 6.269531 2.992188 5.492188 2.644531 5.054688 C 2.507812 4.882812 2.386719 4.71875 2.375 4.6875 C 2.359375 4.648438 2.378906 4.59375 2.417969 4.539062 C 2.558594 4.359375 2.792969 4.070312 2.921875 3.820312 C 3.050781 3.574219 3.203125 3.375 3.230469 3.417969 C 3.269531 3.480469 3.308594 3.441406 3.613281 3.03125 C 3.921875 2.621094 4.171875 2.238281 4.234375 2.238281 C 4.300781 2.238281 4.273438 2.308594 4.140625 2.457031 C 3.90625 2.707031 3.832031 3.054688 3.832031 3.28125 C 3.8125 3.710938 4.160156 4.019531 4.539062 4.195312 C 5.023438 4.308594 5.476562 4.257812 5.5625 3.851562 C 5.632812 3.515625 5.394531 3.308594 5.117188 3.222656 C 5.050781 3.253906 4.855469 3.460938 4.792969 3.660156 C 4.773438 3.726562 4.710938 3.703125 4.710938 3.625 C 4.710938 3.460938 4.890625 3.050781 4.988281 2.875 C 5.125 2.628906 5.269531 2.617188 5.394531 2.640625 C 5.460938 2.65625 5.511719 2.613281 5.574219 2.5625 L 5.660156 2.496094 C 5.960938 2.71875 6.296875 2.878906 6.617188 3.066406 C 6.976562 3.320312 7.320312 3.464844 7.324219 3.5 C 7.328125 3.523438 7.324219 3.523438 7.320312 3.679688 C 7.316406 3.953125 7.316406 3.964844 7.382812 3.964844 C 7.519531 3.964844 7.652344 3.890625 7.832031 3.671875 C 8.148438 3.292969 8.1875 3.289062 8.1875 2.972656 C 8.210938 2.726562 7.890625 2.203125 7.6875 2.398438 C 7.605469 2.484375 7.507812 2.78125 7.535156 2.863281 C 7.558594 2.914062 7.6875 2.953125 7.757812 2.925781 C 7.832031 2.898438 7.820312 2.957031 7.734375 3.03125 C 7.625 3.132812 7.503906 3.152344 7.414062 3.078125 C 7.304688 2.988281 7.277344 2.636719 7.359375 2.40625 C 7.4375 2.191406 7.722656 1.960938 7.78125 1.941406 C 7.847656 1.914062 7.921875 1.96875 8.191406 2.320312 C 8.621094 2.96875 9.09375 3.550781 9.511719 4.167969 C 9.566406 4.246094 9.617188 4.355469 9.625 4.417969 C 9.640625 4.519531 9.621094 4.550781 9.390625 4.816406 C 9.011719 5.25 8.757812 5.601562 8.757812 5.691406 C 8.757812 5.789062 8.953125 5.863281 9.125 5.890625 C 9.25 5.910156 9.332031 5.953125 9.332031 6 C 9.128906 6.277344 8.320312 7.417969 8.222656 7.339844 C 8.214844 7.324219 8.199219 7.140625 8.1875 6.933594 C 8.113281 6.367188 8.089844 6.0625 8.023438 5.511719 C 8.003906 5.402344 8 5.402344 7.867188 5.421875 C 7.546875 5.464844 7.148438 5.492188 6.832031 5.542969 C 6.578125 5.585938 6.355469 5.765625 6.25 5.707031 C 6.144531 5.652344 5.582031 5.550781 5.246094 5.507812 C 4.261719 5.382812 4.421875 5.40625 4.421875 5.527344 L 4.640625 7.273438 C 4.640625 7.273438 4.742188 7.742188 4.65625 7.742188 C 4.1875 7.5625 3.839844 7.222656 3.476562 6.96875 Z M 3.476562 6.96875 "/>
<path style=" stroke:none;fill-rule:nonzero;fill:rgb(30.980392%,30.980392%,30.980392%);fill-opacity:1;" d="M 6.144531 7.453125 C 6.144531 7.613281 6.015625 7.742188 5.855469 7.742188 C 5.695312 7.742188 5.5625 7.613281 5.5625 7.453125 C 5.5625 7.292969 5.695312 7.160156 5.855469 7.160156 C 6.015625 7.160156 6.144531 7.292969 6.144531 7.453125 Z M 6.144531 7.453125 "/>
<path style=" stroke:none;fill-rule:nonzero;fill:rgb(30.980392%,30.980392%,30.980392%);fill-opacity:1;" d="M 5.0625 6.871094 C 5.042969 6.871094 5.03125 6.875 5.023438 6.875 C 5.007812 6.886719 4.992188 6.945312 4.988281 7.007812 L 4.984375 7.125 L 5.382812 7.144531 C 5.609375 7.164062 5.859375 7.167969 6.070312 7.152344 C 6.148438 7.152344 6.15625 7.148438 6.136719 7.109375 C 6.089844 7.007812 6.015625 6.949219 5.925781 6.945312 C 5.875 6.941406 5.660156 6.921875 5.445312 6.898438 C 5.261719 6.878906 5.125 6.871094 5.0625 6.871094 Z M 5.0625 6.871094 "/>
<path style=" stroke:none;fill-rule:nonzero;fill:rgb(30.980392%,30.980392%,30.980392%);fill-opacity:1;" d="M 6.796875 6.582031 C 6.765625 6.582031 6.75 6.582031 6.746094 6.585938 C 6.730469 6.601562 6.722656 6.671875 6.726562 6.742188 C 6.738281 6.855469 6.746094 6.867188 6.816406 6.863281 C 7.015625 6.871094 7.21875 6.871094 7.421875 6.871094 C 7.578125 6.863281 7.777344 6.761719 7.886719 6.707031 C 7.886719 6.691406 7.871094 6.679688 7.855469 6.679688 C 7.835938 6.679688 7.585938 6.652344 7.296875 6.621094 C 7.066406 6.59375 6.882812 6.578125 6.796875 6.582031 Z M 6.796875 6.582031 "/>
<path style=" stroke:none;fill-rule:nonzero;fill:rgb(30.980392%,30.980392%,30.980392%);fill-opacity:1;" d="M 7.308594 7.160156 C 7.308594 7.320312 7.175781 7.453125 7.015625 7.453125 C 6.855469 7.453125 6.726562 7.320312 6.726562 7.160156 C 6.726562 7 6.855469 6.871094 7.015625 6.871094 C 7.175781 6.871094 7.308594 7 7.308594 7.160156 Z M 7.308594 7.160156 "/>
</g>
</svg>
