<?xml version="1.0" encoding="UTF-8"?>
<svg xmlns="http://www.w3.org/2000/svg" xmlns:xlink="http://www.w3.org/1999/xlink" width="12pt" height="12pt" viewBox="0 0 12 12" version="1.1">
<g id="surface1">
<path style=" stroke:none;fill-rule:evenodd;fill:rgb(27.843137%,67.843137%,36.470588%);fill-opacity:1;" d="M 11.289062 7.925781 C 11.140625 7.554688 10.984375 7.191406 10.796875 6.875 C 10.566406 6.476562 10.304688 6.121094 10.023438 5.804688 C 9.742188 5.488281 9.441406 5.210938 9.121094 4.976562 C 8.800781 4.738281 8.464844 4.539062 8.117188 4.382812 C 7.769531 4.222656 7.410156 4.105469 7.050781 4.023438 C 6.6875 3.945312 6.316406 3.902344 5.949219 3.902344 C 5.582031 3.902344 5.210938 3.941406 4.847656 4.019531 C 4.488281 4.09375 4.128906 4.210938 3.785156 4.367188 C 3.441406 4.523438 3.105469 4.71875 2.789062 4.949219 C 2.472656 5.183594 2.171875 5.457031 1.890625 5.769531 C 1.613281 6.078125 1.359375 6.429688 1.128906 6.820312 C 0.96875 7.09375 0.84375 7.410156 0.710938 7.722656 L 0.710938 9.199219 C 0.710938 10.355469 1.644531 11.289062 2.800781 11.289062 L 9.199219 11.289062 C 10.355469 11.289062 11.289062 10.355469 11.289062 9.199219 Z M 11.289062 7.925781 "/>
<path style=" stroke:none;fill-rule:evenodd;fill:rgb(0%,31.764706%,17.647059%);fill-opacity:1;" d="M 2.800781 0.710938 C 1.644531 0.710938 0.710938 1.644531 0.710938 2.800781 L 0.710938 7.722656 C 0.84375 7.410156 0.96875 7.09375 1.128906 6.820312 C 1.359375 6.429688 1.613281 6.078125 1.890625 5.769531 C 2.171875 5.457031 2.472656 5.183594 2.789062 4.949219 C 3.105469 4.71875 3.441406 4.523438 3.785156 4.367188 C 4.128906 4.210938 4.488281 4.09375 4.847656 4.019531 C 5.210938 3.941406 5.582031 3.902344 5.949219 3.902344 C 6.316406 3.902344 6.6875 3.945312 7.050781 4.023438 C 7.410156 4.105469 7.769531 4.222656 8.117188 4.382812 C 8.464844 4.539062 8.800781 4.738281 9.121094 4.976562 C 9.441406 5.210938 9.742188 5.488281 10.023438 5.804688 C 10.304688 6.121094 10.566406 6.476562 10.796875 6.875 C 10.984375 7.191406 11.140625 7.554688 11.289062 7.925781 L 11.289062 2.800781 C 11.289062 1.644531 10.355469 0.710938 9.199219 0.710938 Z M 2.800781 0.710938 "/>
<path style=" stroke:none;fill-rule:nonzero;fill:rgb(100%,90.588235%,0%);fill-opacity:1;" d="M 3.105469 8.300781 C 5.375 8.75 6.246094 8.890625 8.75 8.328125 C 5.15625 10.746094 7.144531 10.238281 3.105469 8.300781 Z M 3.105469 8.300781 "/>
<path style=" stroke:none;fill-rule:evenodd;fill:rgb(81.568627%,4.313725%,35.294118%);fill-opacity:1;" d="M 9.425781 6 C 9.425781 5.144531 9.070312 4.453125 8.625 4.453125 C 8.183594 4.453125 7.824219 5.144531 7.824219 6 C 7.824219 6.855469 8.183594 7.546875 8.625 7.546875 C 9.070312 7.546875 9.425781 6.855469 9.425781 6 Z M 9.425781 6 "/>
<path style=" stroke:none;fill-rule:evenodd;fill:rgb(20%,20%,20%);fill-opacity:1;" d="M 9.171875 6 C 9.171875 5.675781 8.945312 5.414062 8.664062 5.414062 C 8.382812 5.414062 8.152344 5.675781 8.152344 6 C 8.152344 6.324219 8.382812 6.585938 8.664062 6.585938 C 8.945312 6.585938 9.171875 6.324219 9.171875 6 Z M 9.171875 6 "/>
<path style=" stroke:none;fill-rule:evenodd;fill:rgb(81.568627%,4.313725%,35.294118%);fill-opacity:1;" d="M 4.175781 6 C 4.175781 5.144531 3.816406 4.453125 3.375 4.453125 C 2.929688 4.453125 2.574219 5.144531 2.574219 6 C 2.574219 6.855469 2.929688 7.546875 3.375 7.546875 C 3.816406 7.546875 4.175781 6.855469 4.175781 6 Z M 4.175781 6 "/>
<path style=" stroke:none;fill-rule:evenodd;fill:rgb(20%,20%,20%);fill-opacity:1;" d="M 3.921875 6 C 3.921875 5.675781 3.691406 5.414062 3.410156 5.414062 C 3.128906 5.414062 2.902344 5.675781 2.902344 6 C 2.902344 6.324219 3.128906 6.585938 3.410156 6.585938 C 3.691406 6.585938 3.921875 6.324219 3.921875 6 Z M 3.921875 6 "/>
</g>
</svg>
