<?xml version="1.0" encoding="UTF-8"?>
<svg xmlns="http://www.w3.org/2000/svg" xmlns:xlink="http://www.w3.org/1999/xlink" width="12pt" height="12pt" viewBox="0 0 12 12" version="1.1">
<defs>
<clipPath id="clip1">
  <rect width="12" height="12"/>
</clipPath>
<g id="surface6" clip-path="url(#clip1)">
<path style=" stroke:none;fill-rule:evenodd;fill:rgb(80%,36.862745%,33.333333%);fill-opacity:1;" d="M 10.664062 8.433594 C 10.664062 9.675781 9.65625 10.683594 8.414062 10.683594 C 7.167969 10.683594 6.164062 9.675781 6.164062 8.433594 C 6.164062 7.191406 7.167969 6.183594 8.414062 6.183594 C 9.65625 6.183594 10.664062 7.191406 10.664062 8.433594 Z M 10.664062 8.433594 "/>
</g>
<clipPath id="clip2">
  <rect width="12" height="12"/>
</clipPath>
<g id="surface9" clip-path="url(#clip2)">
<path style=" stroke:none;fill-rule:nonzero;fill:rgb(100%,100%,100%);fill-opacity:1;" d="M 8.132812 7.308594 L 8.105469 7.605469 C 8.011719 7.640625 7.925781 7.691406 7.847656 7.753906 L 7.578125 7.628906 L 7.296875 8.117188 L 7.542969 8.285156 C 7.53125 8.335938 7.527344 8.382812 7.527344 8.433594 C 7.527344 8.484375 7.53125 8.535156 7.542969 8.582031 L 7.296875 8.753906 L 7.578125 9.238281 L 7.847656 9.113281 C 7.925781 9.175781 8.011719 9.226562 8.105469 9.261719 L 8.132812 9.558594 L 8.695312 9.558594 L 8.71875 9.261719 C 8.8125 9.226562 8.898438 9.175781 8.976562 9.113281 L 9.246094 9.238281 L 9.527344 8.753906 L 9.28125 8.582031 C 9.292969 8.535156 9.296875 8.484375 9.296875 8.433594 C 9.296875 8.382812 9.292969 8.332031 9.285156 8.285156 L 9.527344 8.113281 L 9.246094 7.628906 L 8.976562 7.753906 C 8.898438 7.691406 8.8125 7.640625 8.71875 7.605469 L 8.695312 7.308594 Z M 8.414062 8.113281 C 8.589844 8.113281 8.734375 8.257812 8.734375 8.433594 C 8.734375 8.613281 8.589844 8.753906 8.414062 8.753906 C 8.234375 8.753906 8.089844 8.613281 8.089844 8.433594 C 8.089844 8.257812 8.234375 8.113281 8.414062 8.113281 Z M 8.414062 8.113281 "/>
</g>
</defs>
<g id="surface1">
<path style=" stroke:none;fill-rule:evenodd;fill:rgb(58.431373%,58.431373%,58.431373%);fill-opacity:1;" d="M 2.800781 0.710938 L 9.199219 0.710938 C 10.351562 0.710938 11.289062 1.648438 11.289062 2.800781 L 11.289062 9.199219 C 11.289062 10.351562 10.351562 11.289062 9.199219 11.289062 L 2.800781 11.289062 C 1.648438 11.289062 0.710938 10.351562 0.710938 9.199219 L 0.710938 2.800781 C 0.710938 1.648438 1.648438 0.710938 2.800781 0.710938 Z M 2.800781 0.710938 "/>
<path style=" stroke:none;fill-rule:nonzero;fill:rgb(30.196078%,30.196078%,30.196078%);fill-opacity:1;" d="M 6 2.773438 C 4.871094 2.773438 3.910156 3.144531 3.507812 3.671875 C 3.476562 3.714844 3.445312 3.757812 3.421875 3.804688 C 3.398438 3.847656 3.375 3.894531 3.359375 3.9375 C 3.355469 3.953125 3.351562 3.96875 3.347656 3.980469 C 3.339844 4.011719 3.328125 4.042969 3.324219 4.074219 C 3.316406 4.117188 3.3125 4.164062 3.3125 4.207031 C 3.3125 4.253906 3.316406 4.300781 3.324219 4.347656 C 3.332031 4.390625 3.34375 4.4375 3.363281 4.480469 C 3.378906 4.527344 3.398438 4.570312 3.425781 4.617188 C 3.449219 4.660156 3.476562 4.703125 3.507812 4.746094 C 3.921875 5.289062 4.90625 5.640625 6 5.640625 C 7.09375 5.640625 8.078125 5.289062 8.492188 4.746094 C 8.519531 4.707031 8.542969 4.671875 8.5625 4.632812 C 8.566406 4.625 8.574219 4.621094 8.578125 4.613281 C 8.59375 4.582031 8.609375 4.550781 8.621094 4.515625 C 8.628906 4.5 8.636719 4.488281 8.640625 4.472656 C 8.648438 4.445312 8.65625 4.417969 8.664062 4.390625 C 8.667969 4.371094 8.675781 4.351562 8.675781 4.328125 C 8.683594 4.289062 8.6875 4.25 8.6875 4.207031 C 8.6875 4.160156 8.683594 4.113281 8.675781 4.066406 C 8.648438 3.925781 8.585938 3.792969 8.492188 3.667969 C 8.09375 3.144531 7.128906 2.773438 6 2.773438 Z M 3.507812 5.460938 C 3.378906 5.632812 3.3125 5.816406 3.3125 6 C 3.3125 6.792969 4.515625 7.433594 6 7.433594 C 7.484375 7.433594 8.6875 6.792969 8.6875 6 C 8.6875 5.816406 8.621094 5.632812 8.492188 5.460938 C 8.082031 6.003906 7.09375 6.359375 6 6.359375 C 4.90625 6.359375 3.917969 6.003906 3.507812 5.460938 Z M 3.507812 7.253906 C 3.378906 7.425781 3.3125 7.609375 3.3125 7.792969 C 3.3125 8.585938 4.515625 9.226562 6 9.226562 C 7.484375 9.226562 8.6875 8.585938 8.6875 7.792969 C 8.6875 7.609375 8.621094 7.425781 8.492188 7.253906 C 8.078125 7.796875 7.09375 8.152344 6 8.152344 C 4.90625 8.152344 3.917969 7.796875 3.507812 7.253906 Z M 3.507812 7.253906 "/>
<use xlink:href="#surface6"/>
<use xlink:href="#surface9"/>
</g>
</svg>
