<?xml version="1.0" encoding="UTF-8"?>
<svg xmlns="http://www.w3.org/2000/svg" xmlns:xlink="http://www.w3.org/1999/xlink" width="12pt" height="12pt" viewBox="0 0 12 12" version="1.1">
<g id="surface1">
<path style=" stroke:none;fill-rule:evenodd;fill:rgb(94.901961%,94.901961%,94.901961%);fill-opacity:1;" d="M 2.800781 0.710938 L 9.199219 0.710938 C 10.351562 0.710938 11.289062 1.648438 11.289062 2.800781 L 11.289062 9.199219 C 11.289062 10.351562 10.351562 11.289062 9.199219 11.289062 L 2.800781 11.289062 C 1.648438 11.289062 0.710938 10.351562 0.710938 9.199219 L 0.710938 2.800781 C 0.710938 1.648438 1.648438 0.710938 2.800781 0.710938 Z M 2.800781 0.710938 "/>
<path style=" stroke:none;fill-rule:nonzero;fill:rgb(20.392157%,46.27451%,80%);fill-opacity:1;" d="M 6.011719 1.386719 C 5.925781 1.382812 5.839844 1.40625 5.765625 1.449219 L 2.277344 3.519531 C 2.132812 3.605469 2.046875 3.761719 2.046875 3.933594 L 2.046875 8.066406 C 2.046875 8.238281 2.132812 8.394531 2.277344 8.480469 L 5.765625 10.550781 C 5.910156 10.636719 6.089844 10.636719 6.234375 10.550781 L 9.722656 8.480469 C 9.867188 8.394531 9.953125 8.238281 9.953125 8.066406 L 9.953125 3.933594 C 9.953125 3.761719 9.867188 3.605469 9.722656 3.519531 L 6.234375 1.449219 C 6.164062 1.410156 6.089844 1.386719 6.011719 1.386719 Z M 6.011719 1.386719 "/>
<path style=" stroke:none;fill-rule:nonzero;fill:rgb(96.078431%,40%,40%);fill-opacity:1;" d="M 6 10.613281 C 5.917969 10.613281 5.839844 10.59375 5.765625 10.550781 L 2.277344 8.480469 C 2.132812 8.398438 2.046875 8.238281 2.046875 8.066406 L 2.046875 3.933594 C 2.046875 3.863281 2.058594 3.796875 2.085938 3.734375 L 6 6.042969 Z M 6 10.613281 "/>
<path style=" stroke:none;fill-rule:nonzero;fill:rgb(48.627451%,80.784314%,26.666667%);fill-opacity:1;" d="M 6 10.613281 C 6.082031 10.613281 6.160156 10.59375 6.234375 10.550781 L 9.722656 8.480469 C 9.867188 8.398438 9.953125 8.238281 9.953125 8.066406 L 9.953125 3.933594 C 9.953125 3.863281 9.941406 3.796875 9.914062 3.734375 L 6 6.042969 Z M 6 10.613281 "/>
</g>
</svg>
