<?xml version="1.0" encoding="UTF-8"?>
<svg xmlns="http://www.w3.org/2000/svg" xmlns:xlink="http://www.w3.org/1999/xlink" width="12pt" height="12pt" viewBox="0 0 12 12" version="1.1">
<g id="surface1">
<path style=" stroke:none;fill-rule:evenodd;fill:rgb(11.372549%,23.137255%,52.156863%);fill-opacity:1;" d="M 2.800781 0.710938 L 9.199219 0.710938 C 10.351562 0.710938 11.289062 1.648438 11.289062 2.800781 L 11.289062 9.199219 C 11.289062 10.351562 10.351562 11.289062 9.199219 11.289062 L 2.800781 11.289062 C 1.648438 11.289062 0.710938 10.351562 0.710938 9.199219 L 0.710938 2.800781 C 0.710938 1.648438 1.648438 0.710938 2.800781 0.710938 Z M 2.800781 0.710938 "/>
<path style=" stroke:none;fill-rule:nonzero;fill:rgb(68.627451%,68.627451%,68.627451%);fill-opacity:1;" d="M 3.570312 3.71875 C 1.625 3.804688 1.679688 8.226562 3.570312 8.273438 L 9.894531 8.273438 L 9.894531 7.015625 L 7.664062 7.015625 L 9.875 5.226562 L 9.875 3.738281 Z M 7.769531 5.113281 L 6.34375 6.308594 L 6.34375 5.734375 L 4.953125 5.734375 L 4.953125 7.082031 L 3.875 7.082031 C 3.652344 7.234375 3.5 5.175781 3.875 5.132812 Z M 7.769531 5.113281 "/>
<path style=" stroke:none;fill-rule:nonzero;fill:rgb(7.058824%,13.333333%,27.45098%);fill-opacity:1;" d="M 3.554688 3.632812 C 3.03125 3.652344 2.640625 3.972656 2.390625 4.417969 C 2.140625 4.863281 2.023438 5.441406 2.027344 6.015625 C 2.03125 6.589844 2.15625 7.164062 2.40625 7.605469 C 2.65625 8.042969 3.046875 8.355469 3.554688 8.367188 L 9.972656 8.367188 L 9.972656 6.925781 L 7.910156 6.925781 L 9.957031 5.273438 L 9.957031 3.648438 Z M 3.5625 3.816406 L 9.769531 3.832031 L 9.769531 5.183594 L 7.386719 7.109375 L 9.789062 7.109375 L 9.789062 8.183594 L 3.558594 8.183594 C 3.125 8.171875 2.796875 7.914062 2.566406 7.511719 C 2.335938 7.109375 2.214844 6.5625 2.210938 6.015625 C 2.207031 5.464844 2.324219 4.917969 2.550781 4.507812 C 2.78125 4.101562 3.109375 3.835938 3.5625 3.816406 Z M 8.011719 5.023438 L 7.757812 5.027344 L 3.855469 5.042969 L 3.851562 5.042969 C 3.761719 5.054688 3.699219 5.121094 3.664062 5.195312 C 3.625 5.269531 3.597656 5.359375 3.582031 5.464844 C 3.542969 5.671875 3.535156 5.933594 3.546875 6.1875 C 3.554688 6.441406 3.582031 6.691406 3.625 6.871094 C 3.644531 6.960938 3.667969 7.035156 3.703125 7.09375 C 3.71875 7.121094 3.738281 7.152344 3.777344 7.171875 C 3.800781 7.183594 3.832031 7.183594 3.863281 7.175781 L 5.035156 7.175781 L 5.035156 5.832031 L 6.238281 5.832031 L 6.238281 6.511719 Z M 7.503906 5.210938 L 6.425781 6.117188 L 6.425781 5.644531 L 4.847656 5.644531 L 4.847656 6.992188 L 3.859375 6.992188 C 3.84375 6.964844 3.824219 6.90625 3.804688 6.828125 C 3.765625 6.667969 3.738281 6.425781 3.730469 6.179688 C 3.71875 5.933594 3.730469 5.679688 3.761719 5.496094 C 3.777344 5.402344 3.800781 5.328125 3.824219 5.28125 C 3.851562 5.234375 3.867188 5.230469 3.871094 5.230469 Z M 7.503906 5.210938 "/>
</g>
</svg>
