<?xml version="1.0" encoding="UTF-8"?>
<svg xmlns="http://www.w3.org/2000/svg" xmlns:xlink="http://www.w3.org/1999/xlink" width="12pt" height="12pt" viewBox="0 0 12 12" version="1.1">
<g id="surface1">
<path style=" stroke:none;fill-rule:evenodd;fill:rgb(24.313725%,73.72549%,90.980392%);fill-opacity:1;" d="M 2.800781 0.710938 L 9.199219 0.710938 C 10.351562 0.710938 11.289062 1.648438 11.289062 2.800781 L 11.289062 9.199219 C 11.289062 10.351562 10.351562 11.289062 9.199219 11.289062 L 2.800781 11.289062 C 1.648438 11.289062 0.710938 10.351562 0.710938 9.199219 L 0.710938 2.800781 C 0.710938 1.648438 1.648438 0.710938 2.800781 0.710938 Z M 2.800781 0.710938 "/>
<path style=" stroke:none;fill-rule:evenodd;fill:rgb(24.313725%,73.72549%,90.980392%);fill-opacity:1;" d="M 2.804688 0.710938 C 1.644531 0.710938 0.710938 1.644531 0.710938 2.800781 L 0.710938 5.230469 C 0.761719 5.222656 0.820312 5.1875 0.867188 5.179688 C 1.398438 5.097656 1.898438 5.113281 2.382812 5.199219 C 2.867188 5.285156 3.335938 5.4375 3.800781 5.628906 C 4.261719 5.816406 4.722656 6.046875 5.191406 6.289062 C 5.664062 6.527344 6.140625 6.777344 6.644531 7.007812 C 7.144531 7.234375 7.667969 7.445312 8.230469 7.609375 C 8.789062 7.769531 9.382812 7.882812 10.027344 7.917969 C 10.414062 7.9375 10.859375 7.863281 11.289062 7.820312 L 11.289062 2.800781 C 11.289062 1.644531 10.355469 0.710938 9.199219 0.710938 Z M 2.804688 0.710938 "/>
<path style=" stroke:none;fill-rule:evenodd;fill:rgb(59.215686%,77.647059%,2.745098%);fill-opacity:1;" d="M 11.289062 7.820312 C 3.789062 8.390625 4.042969 3.859375 0.710938 3.910156 L 0.710938 9.195312 C 0.710938 10.355469 1.644531 11.289062 2.804688 11.289062 L 9.199219 11.289062 C 10.355469 11.289062 11.289062 10.355469 11.289062 9.195312 Z M 11.289062 7.820312 "/>
<path style=" stroke:none;fill-rule:nonzero;fill:rgb(90.196078%,90.196078%,90.196078%);fill-opacity:1;" d="M 9.792969 6 C 9.792969 8.09375 8.09375 9.792969 6 9.792969 C 3.90625 9.792969 2.207031 8.09375 2.207031 6 C 2.207031 3.90625 3.90625 2.207031 6 2.207031 C 8.09375 2.207031 9.792969 3.90625 9.792969 6 Z M 9.792969 6 "/>
<path style=" stroke:none;fill-rule:nonzero;fill:rgb(40%,40%,40%);fill-opacity:1;" d="M 7.671875 6 C 7.671875 6.921875 6.921875 7.671875 6 7.671875 C 5.078125 7.671875 4.328125 6.921875 4.328125 6 C 4.328125 5.078125 5.078125 4.328125 6 4.328125 C 6.921875 4.328125 7.671875 5.078125 7.671875 6 Z M 7.671875 6 "/>
<path style=" stroke:none;fill-rule:nonzero;fill:rgb(100%,99.607843%,89.411765%);fill-opacity:1;" d="M 7.203125 6 C 7.203125 6.664062 6.664062 7.203125 6 7.203125 C 5.335938 7.203125 4.796875 6.664062 4.796875 6 C 4.796875 5.335938 5.335938 4.796875 6 4.796875 C 6.664062 4.796875 7.203125 5.335938 7.203125 6 Z M 7.203125 6 "/>
<path style=" stroke:none;fill-rule:evenodd;fill:rgb(45.490196%,63.137255%,5.098039%);fill-opacity:1;" d="M 11.277344 6.996094 C 6.761719 6.265625 5.753906 10.039062 0.722656 9.085938 C 0.714844 9.085938 0.707031 9.085938 0.703125 9.085938 L 0.703125 9.195312 C 0.703125 10.355469 1.632812 11.285156 2.792969 11.285156 L 9.1875 11.285156 C 10.34375 11.285156 11.277344 10.355469 11.277344 9.195312 Z M 11.277344 6.996094 "/>
</g>
</svg>
