<?xml version="1.0" encoding="UTF-8"?>
<svg xmlns="http://www.w3.org/2000/svg" xmlns:xlink="http://www.w3.org/1999/xlink" width="12pt" height="12pt" viewBox="0 0 12 12" version="1.1">
<g id="surface1">
<path style=" stroke:none;fill-rule:evenodd;fill:rgb(40%,53.333333%,74.509804%);fill-opacity:1;" d="M 2.800781 0.710938 L 9.199219 0.710938 C 10.351562 0.710938 11.289062 1.648438 11.289062 2.800781 L 11.289062 9.199219 C 11.289062 10.351562 10.351562 11.289062 9.199219 11.289062 L 2.800781 11.289062 C 1.648438 11.289062 0.710938 10.351562 0.710938 9.199219 L 0.710938 2.800781 C 0.710938 1.648438 1.648438 0.710938 2.800781 0.710938 Z M 2.800781 0.710938 "/>
<path style="fill:none;stroke-width:2;stroke-linecap:butt;stroke-linejoin:round;stroke:rgb(35.686275%,35.686275%,35.686275%);stroke-opacity:1;stroke-miterlimit:4;" d="M 7 16 L 21 16 " transform="matrix(0.375,0,0,0.375,0.1875,0)"/>
<path style="fill:none;stroke-width:2;stroke-linecap:butt;stroke-linejoin:round;stroke:rgb(35.686275%,35.686275%,35.686275%);stroke-opacity:1;stroke-miterlimit:4;" d="M 13.895833 16 L 17 9 " transform="matrix(0.375,0,0,0.375,0.1875,0)"/>
<path style="fill:none;stroke-width:2;stroke-linecap:butt;stroke-linejoin:round;stroke:rgb(35.686275%,35.686275%,35.686275%);stroke-opacity:1;stroke-miterlimit:4;" d="M 14 16 L 17 23 L 24 23 " transform="matrix(0.375,0,0,0.375,0.1875,0)"/>
<path style=" stroke:none;fill-rule:nonzero;fill:rgb(100%,100%,100%);fill-opacity:1;" d="M 3.5625 6 C 3.5625 6.414062 3.226562 6.75 2.8125 6.75 C 2.398438 6.75 2.0625 6.414062 2.0625 6 C 2.0625 5.585938 2.398438 5.25 2.8125 5.25 C 3.226562 5.25 3.5625 5.585938 3.5625 6 Z M 3.5625 6 "/>
<path style=" stroke:none;fill-rule:nonzero;fill:rgb(100%,100%,100%);fill-opacity:1;" d="M 6.1875 6 C 6.1875 6.414062 5.851562 6.75 5.4375 6.75 C 5.023438 6.75 4.6875 6.414062 4.6875 6 C 4.6875 5.585938 5.023438 5.25 5.4375 5.25 C 5.851562 5.25 6.1875 5.585938 6.1875 6 Z M 6.1875 6 "/>
<path style=" stroke:none;fill-rule:nonzero;fill:rgb(100%,100%,100%);fill-opacity:1;" d="M 8.8125 6 C 8.8125 6.414062 8.476562 6.75 8.0625 6.75 C 7.648438 6.75 7.3125 6.414062 7.3125 6 C 7.3125 5.585938 7.648438 5.25 8.0625 5.25 C 8.476562 5.25 8.8125 5.585938 8.8125 6 Z M 8.8125 6 "/>
<path style=" stroke:none;fill-rule:nonzero;fill:rgb(100%,100%,100%);fill-opacity:1;" d="M 7.3125 8.625 C 7.3125 9.039062 6.976562 9.375 6.5625 9.375 C 6.148438 9.375 5.8125 9.039062 5.8125 8.625 C 5.8125 8.210938 6.148438 7.875 6.5625 7.875 C 6.976562 7.875 7.3125 8.210938 7.3125 8.625 Z M 7.3125 8.625 "/>
<path style=" stroke:none;fill-rule:nonzero;fill:rgb(100%,100%,100%);fill-opacity:1;" d="M 9.9375 8.625 C 9.9375 9.039062 9.601562 9.375 9.1875 9.375 C 8.773438 9.375 8.4375 9.039062 8.4375 8.625 C 8.4375 8.210938 8.773438 7.875 9.1875 7.875 C 9.601562 7.875 9.9375 8.210938 9.9375 8.625 Z M 9.9375 8.625 "/>
<path style=" stroke:none;fill-rule:nonzero;fill:rgb(100%,100%,100%);fill-opacity:1;" d="M 7.3125 3.375 C 7.3125 3.789062 6.976562 4.125 6.5625 4.125 C 6.148438 4.125 5.8125 3.789062 5.8125 3.375 C 5.8125 2.960938 6.148438 2.625 6.5625 2.625 C 6.976562 2.625 7.3125 2.960938 7.3125 3.375 Z M 7.3125 3.375 "/>
</g>
</svg>
