<?xml version="1.0" encoding="UTF-8"?>
<svg xmlns="http://www.w3.org/2000/svg" xmlns:xlink="http://www.w3.org/1999/xlink" width="12pt" height="12pt" viewBox="0 0 12 12" version="1.1">
<g id="surface1">
<path style=" stroke:none;fill-rule:evenodd;fill:rgb(87.058824%,65.490196%,11.764706%);fill-opacity:1;" d="M 2.800781 0.710938 L 9.199219 0.710938 C 10.351562 0.710938 11.289062 1.648438 11.289062 2.800781 L 11.289062 9.199219 C 11.289062 10.351562 10.351562 11.289062 9.199219 11.289062 L 2.800781 11.289062 C 1.648438 11.289062 0.710938 10.351562 0.710938 9.199219 L 0.710938 2.800781 C 0.710938 1.648438 1.648438 0.710938 2.800781 0.710938 Z M 2.800781 0.710938 "/>
<path style=" stroke:none;fill-rule:nonzero;fill:rgb(100%,100%,100%);fill-opacity:1;" d="M 6.894531 9.769531 C 6.894531 9.765625 6.9375 9.648438 6.992188 9.507812 L 7.089844 9.253906 L 7.074219 9.21875 C 7.0625 9.199219 6.972656 9.039062 6.875 8.855469 C 6.671875 8.492188 6.285156 7.789062 5.984375 7.242188 C 5.878906 7.046875 5.789062 6.882812 5.785156 6.875 C 5.78125 6.863281 5.792969 6.851562 5.824219 6.832031 C 5.882812 6.800781 5.90625 6.777344 5.90625 6.746094 C 5.90625 6.730469 5.875 6.65625 5.832031 6.582031 L 5.753906 6.441406 L 5.808594 6.363281 C 6.167969 5.878906 6.222656 5.21875 5.953125 4.671875 C 5.703125 4.167969 5.230469 3.835938 4.667969 3.765625 C 4.378906 3.730469 4.023438 3.789062 3.777344 3.914062 L 3.71875 3.945312 L 3.75 4.019531 C 3.816406 4.171875 3.875 4.246094 4.011719 4.351562 C 4.078125 4.402344 4.082031 4.40625 4.113281 4.394531 C 4.132812 4.390625 4.191406 4.382812 4.246094 4.382812 C 4.410156 4.382812 4.550781 4.445312 4.667969 4.570312 C 4.847656 4.757812 4.878906 5.039062 4.746094 5.265625 C 4.679688 5.382812 4.523438 5.496094 4.386719 5.535156 C 4.296875 5.554688 4.132812 5.550781 4.046875 5.519531 C 3.929688 5.476562 3.804688 5.375 3.746094 5.273438 C 3.71875 5.222656 3.710938 5.21875 3.640625 5.195312 C 3.417969 5.117188 3.222656 4.941406 3.078125 4.691406 L 3.035156 4.617188 L 2.996094 4.691406 C 2.878906 4.941406 2.820312 5.269531 2.84375 5.53125 C 2.914062 6.261719 3.414062 6.835938 4.125 7 C 4.257812 7.03125 4.386719 7.042969 4.539062 7.039062 L 4.683594 7.035156 L 4.761719 7.175781 C 4.804688 7.253906 4.847656 7.320312 4.855469 7.324219 C 4.886719 7.335938 4.917969 7.332031 4.964844 7.304688 C 4.992188 7.292969 5.015625 7.28125 5.023438 7.28125 C 5.03125 7.28125 5.050781 7.316406 5.25 7.679688 C 5.324219 7.816406 5.390625 7.929688 5.394531 7.933594 C 5.402344 7.9375 5.464844 7.941406 5.535156 7.945312 C 5.605469 7.949219 5.667969 7.957031 5.675781 7.964844 C 5.683594 7.96875 5.710938 8.015625 5.738281 8.066406 L 5.789062 8.160156 L 5.710938 8.265625 L 5.628906 8.367188 L 5.675781 8.453125 L 5.71875 8.535156 L 5.773438 8.542969 C 5.800781 8.546875 5.867188 8.550781 5.917969 8.554688 L 6.011719 8.5625 L 6.066406 8.660156 C 6.097656 8.710938 6.117188 8.761719 6.113281 8.769531 C 6.113281 8.777344 6.078125 8.828125 6.035156 8.878906 L 5.964844 8.972656 L 5.996094 9.03125 L 6.027344 9.09375 L 6.167969 9.117188 C 6.246094 9.132812 6.3125 9.148438 6.320312 9.152344 C 6.328125 9.15625 6.3125 9.191406 6.265625 9.269531 C 6.226562 9.328125 6.195312 9.382812 6.195312 9.386719 C 6.195312 9.394531 6.230469 9.457031 6.269531 9.53125 L 6.34375 9.664062 L 6.597656 9.710938 C 6.734375 9.742188 6.859375 9.765625 6.871094 9.769531 C 6.882812 9.769531 6.894531 9.773438 6.894531 9.769531 Z M 9.160156 8.191406 L 9.15625 7.925781 L 8.703125 7.429688 C 8.449219 7.160156 8.0625 6.742188 7.84375 6.5 C 7.242188 5.851562 7.132812 5.730469 7.128906 5.722656 C 7.125 5.71875 7.144531 5.699219 7.164062 5.679688 C 7.242188 5.605469 7.25 5.5625 7.191406 5.5 C 7.167969 5.472656 7.125 5.425781 7.09375 5.390625 L 7.039062 5.328125 L 7.167969 4.976562 C 7.238281 4.78125 7.320312 4.5625 7.347656 4.488281 C 7.394531 4.367188 7.398438 4.347656 7.394531 4.292969 C 7.386719 4.199219 7.367188 4.167969 7.1875 4.015625 C 6.589844 3.5 6.167969 3.140625 6.132812 3.125 C 6.078125 3.09375 5.964844 3.09375 5.910156 3.125 C 5.878906 3.140625 5.503906 3.476562 5.363281 3.617188 L 5.324219 3.65625 L 5.414062 3.707031 C 5.816406 3.933594 6.117188 4.277344 6.28125 4.703125 C 6.363281 4.914062 6.398438 5.09375 6.40625 5.339844 C 6.414062 5.683594 6.351562 5.972656 6.203125 6.269531 L 6.15625 6.363281 L 6.203125 6.414062 C 6.246094 6.457031 6.253906 6.460938 6.285156 6.457031 C 6.3125 6.453125 6.339844 6.4375 6.378906 6.40625 L 6.429688 6.359375 L 6.472656 6.402344 C 6.515625 6.453125 7.003906 6.980469 7.101562 7.085938 L 7.171875 7.160156 L 7.261719 7.074219 C 7.3125 7.027344 7.359375 6.992188 7.371094 6.992188 C 7.390625 6.992188 7.53125 7.136719 7.546875 7.167969 C 7.550781 7.1875 7.539062 7.203125 7.460938 7.28125 L 7.363281 7.371094 L 7.398438 7.40625 C 7.417969 7.425781 7.460938 7.472656 7.492188 7.507812 C 7.527344 7.546875 7.582031 7.605469 7.613281 7.636719 L 7.671875 7.699219 L 7.757812 7.617188 C 7.816406 7.5625 7.851562 7.535156 7.867188 7.535156 C 7.894531 7.535156 8.046875 7.691406 8.046875 7.71875 C 8.046875 7.734375 7.957031 7.824219 7.886719 7.886719 L 7.859375 7.910156 L 7.9375 7.988281 L 8.011719 8.066406 L 8.101562 7.984375 C 8.179688 7.90625 8.210938 7.890625 8.234375 7.910156 C 8.269531 7.929688 8.386719 8.074219 8.386719 8.089844 C 8.386719 8.101562 8.355469 8.140625 8.296875 8.195312 L 8.207031 8.277344 L 8.234375 8.308594 C 8.25 8.328125 8.28125 8.363281 8.304688 8.386719 L 8.347656 8.433594 L 8.671875 8.445312 C 8.851562 8.449219 9.035156 8.453125 9.082031 8.453125 L 9.160156 8.453125 Z M 4.515625 5.179688 C 4.566406 5.089844 4.589844 4.964844 4.570312 4.871094 L 4.5625 4.828125 L 4.476562 4.820312 C 4.191406 4.800781 3.953125 4.691406 3.753906 4.492188 C 3.550781 4.285156 3.441406 4.023438 3.441406 3.726562 C 3.441406 3.445312 3.53125 3.207031 3.714844 3 C 3.871094 2.820312 4.046875 2.714844 4.28125 2.652344 C 4.367188 2.632812 4.398438 2.628906 4.535156 2.628906 C 4.78125 2.628906 4.960938 2.683594 5.160156 2.816406 C 5.242188 2.871094 5.398438 3.027344 5.449219 3.105469 C 5.472656 3.140625 5.496094 3.171875 5.5 3.171875 C 5.511719 3.171875 5.785156 2.921875 5.789062 2.910156 C 5.792969 2.894531 5.6875 2.761719 5.605469 2.679688 C 5.148438 2.207031 4.433594 2.09375 3.851562 2.398438 C 3.566406 2.546875 3.320312 2.796875 3.1875 3.082031 C 2.90625 3.6875 3.046875 4.398438 3.542969 4.839844 C 3.78125 5.050781 4.09375 5.1875 4.414062 5.214844 L 4.488281 5.21875 Z M 4.515625 5.179688 "/>
</g>
</svg>
