<?xml version="1.0" encoding="UTF-8"?>
<svg xmlns="http://www.w3.org/2000/svg" xmlns:xlink="http://www.w3.org/1999/xlink" width="12pt" height="12pt" viewBox="0 0 12 12" version="1.1">
<g id="surface1">
<path style=" stroke:none;fill-rule:evenodd;fill:rgb(55.686275%,55.686275%,55.686275%);fill-opacity:1;" d="M 2.800781 0.710938 L 9.199219 0.710938 C 10.351562 0.710938 11.289062 1.648438 11.289062 2.800781 L 11.289062 9.199219 C 11.289062 10.351562 10.351562 11.289062 9.199219 11.289062 L 2.800781 11.289062 C 1.648438 11.289062 0.710938 10.351562 0.710938 9.199219 L 0.710938 2.800781 C 0.710938 1.648438 1.648438 0.710938 2.800781 0.710938 Z M 2.800781 0.710938 "/>
<path style=" stroke:none;fill-rule:evenodd;fill:rgb(52.156863%,12.156863%,16.078431%);fill-opacity:1;" d="M 11.289062 9.152344 L 0.710938 9.152344 L 0.710938 9.199219 C 0.710938 10.355469 1.644531 11.289062 2.800781 11.289062 L 9.199219 11.289062 C 10.355469 11.289062 11.289062 10.355469 11.289062 9.199219 Z M 11.289062 9.152344 "/>
<path style=" stroke:none;fill-rule:evenodd;fill:rgb(85.098039%,27.45098%,33.333333%);fill-opacity:1;" d="M 6 2.796875 L 0.714844 2.796875 C 0.714844 2.796875 0.710938 2.800781 0.710938 2.804688 L 0.710938 9.152344 L 6 9.152344 Z M 6 2.796875 "/>
<path style=" stroke:none;fill-rule:evenodd;fill:rgb(67.843137%,18.431373%,23.921569%);fill-opacity:1;" d="M 6 2.796875 L 6 9.152344 L 11.289062 9.152344 L 11.289062 2.804688 C 11.289062 2.800781 11.285156 2.796875 11.285156 2.796875 Z M 6 2.796875 "/>
<path style=" stroke:none;fill-rule:evenodd;fill:rgb(52.156863%,12.156863%,16.078431%);fill-opacity:1;" d="M 0.714844 2.796875 L 11.285156 2.796875 C 11.285156 1.640625 10.351562 0.710938 9.199219 0.710938 L 2.800781 0.710938 C 1.648438 0.710938 0.714844 1.640625 0.714844 2.796875 Z M 0.714844 2.796875 "/>
<path style=" stroke:none;fill-rule:nonzero;fill:rgb(100%,100%,100%);fill-opacity:1;" d="M 6.292969 8.207031 C 6.273438 8.191406 6.148438 7.964844 5.878906 7.453125 C 5.664062 7.050781 5.488281 6.722656 5.484375 6.71875 C 5.480469 6.714844 5.265625 6.875 5.007812 7.070312 C 4.503906 7.449219 4.507812 7.449219 4.476562 7.414062 C 4.460938 7.398438 4.460938 7.308594 4.460938 5.617188 C 4.464844 3.921875 4.464844 3.835938 4.476562 3.816406 C 4.503906 3.78125 4.527344 3.769531 4.570312 3.769531 L 4.609375 3.769531 L 6.042969 4.800781 C 6.828125 5.371094 7.488281 5.847656 7.507812 5.863281 C 7.535156 5.882812 7.539062 5.890625 7.539062 5.917969 C 7.539062 5.9375 7.53125 5.957031 7.523438 5.96875 C 7.515625 5.980469 7.410156 6.007812 6.957031 6.117188 C 6.652344 6.191406 6.402344 6.253906 6.402344 6.253906 C 6.398438 6.253906 6.578125 6.589844 6.796875 6.996094 C 7.015625 7.402344 7.199219 7.75 7.203125 7.765625 C 7.207031 7.785156 7.207031 7.796875 7.199219 7.816406 C 7.191406 7.839844 7.164062 7.851562 6.785156 8.035156 C 6.332031 8.253906 6.339844 8.253906 6.292969 8.207031 Z M 6.292969 8.207031 "/>
</g>
</svg>
