<?xml version="1.0" encoding="UTF-8"?>
<svg xmlns="http://www.w3.org/2000/svg" xmlns:xlink="http://www.w3.org/1999/xlink" width="12pt" height="12pt" viewBox="0 0 12 12" version="1.1">
<g id="surface1">
<path style=" stroke:none;fill-rule:evenodd;fill:rgb(41.176471%,16.078431%,84.705882%);fill-opacity:1;" d="M 2.800781 0.710938 L 9.199219 0.710938 C 10.351562 0.710938 11.289062 1.648438 11.289062 2.800781 L 11.289062 9.199219 C 11.289062 10.351562 10.351562 11.289062 9.199219 11.289062 L 2.800781 11.289062 C 1.648438 11.289062 0.710938 10.351562 0.710938 9.199219 L 0.710938 2.800781 C 0.710938 1.648438 1.648438 0.710938 2.800781 0.710938 Z M 2.800781 0.710938 "/>
<path style=" stroke:none;fill-rule:evenodd;fill:rgb(41.176471%,16.078431%,84.705882%);fill-opacity:1;" d="M 2.71875 2.035156 C 2.46875 2.035156 2.253906 2.171875 2.132812 2.332031 C 2.007812 2.492188 1.953125 2.683594 1.953125 2.878906 L 1.953125 7.109375 C 1.953125 7.308594 2.007812 7.496094 2.132812 7.660156 C 2.253906 7.820312 2.46875 7.957031 2.71875 7.957031 L 7.820312 7.957031 C 8.074219 7.957031 8.289062 7.820312 8.410156 7.660156 C 8.53125 7.496094 8.589844 7.308594 8.589844 7.109375 L 8.589844 2.878906 C 8.589844 2.683594 8.53125 2.492188 8.410156 2.332031 C 8.289062 2.171875 8.074219 2.035156 7.820312 2.035156 Z M 2.71875 2.035156 "/>
<path style=" stroke:none;fill-rule:evenodd;fill:rgb(100%,100%,100%);fill-opacity:1;" d="M 2.957031 2.464844 C 2.828125 2.464844 2.714844 2.539062 2.640625 2.632812 C 2.570312 2.726562 2.53125 2.84375 2.53125 2.972656 L 2.53125 3.300781 C 2.53125 3.304688 2.53125 3.308594 2.53125 3.3125 L 2.53125 7.203125 C 2.53125 7.328125 2.570312 7.449219 2.640625 7.542969 C 2.714844 7.636719 2.828125 7.707031 2.957031 7.707031 L 8.058594 7.707031 C 8.191406 7.707031 8.304688 7.636719 8.375 7.542969 C 8.449219 7.449219 8.484375 7.328125 8.484375 7.203125 L 8.484375 3.316406 C 8.484375 3.316406 8.484375 3.316406 8.484375 3.3125 C 8.484375 3.308594 8.484375 3.300781 8.484375 3.296875 L 8.484375 2.972656 C 8.484375 2.84375 8.449219 2.726562 8.375 2.632812 C 8.304688 2.539062 8.191406 2.464844 8.058594 2.464844 Z M 2.957031 2.808594 L 8.058594 2.808594 C 8.070312 2.808594 8.082031 2.8125 8.101562 2.839844 C 8.125 2.867188 8.144531 2.914062 8.144531 2.972656 L 8.144531 3.3125 C 8.144531 3.359375 8.109375 3.390625 8.066406 3.390625 L 2.953125 3.390625 C 2.90625 3.390625 2.875 3.359375 2.875 3.3125 L 2.875 2.972656 C 2.875 2.914062 2.894531 2.867188 2.914062 2.839844 C 2.933594 2.8125 2.949219 2.808594 2.957031 2.808594 Z M 7.710938 2.882812 C 7.667969 2.882812 7.628906 2.90625 7.613281 2.945312 C 7.597656 2.984375 7.609375 3.027344 7.636719 3.058594 L 7.6875 3.105469 L 7.644531 3.148438 C 7.605469 3.191406 7.605469 3.253906 7.644531 3.296875 C 7.683594 3.335938 7.75 3.335938 7.789062 3.296875 L 7.832031 3.253906 L 7.875 3.296875 C 7.917969 3.335938 7.980469 3.335938 8.023438 3.296875 C 8.0625 3.253906 8.0625 3.191406 8.023438 3.148438 L 7.976562 3.105469 L 8.023438 3.0625 C 8.058594 3.023438 8.058594 2.960938 8.019531 2.921875 C 7.980469 2.882812 7.917969 2.878906 7.875 2.917969 L 7.832031 2.960938 L 7.785156 2.914062 C 7.765625 2.894531 7.738281 2.882812 7.710938 2.882812 Z M 2.875 3.71875 C 2.902344 3.722656 2.925781 3.734375 2.953125 3.734375 L 8.066406 3.734375 C 8.09375 3.734375 8.117188 3.722656 8.144531 3.71875 L 8.144531 7.203125 C 8.144531 7.257812 8.125 7.308594 8.101562 7.332031 C 8.082031 7.359375 8.070312 7.363281 8.058594 7.363281 L 2.957031 7.363281 C 2.949219 7.363281 2.933594 7.359375 2.914062 7.332031 C 2.894531 7.308594 2.875 7.257812 2.875 7.203125 Z M 2.875 3.71875 "/>
<path style=" stroke:none;fill-rule:evenodd;fill:rgb(41.176471%,16.078431%,84.705882%);fill-opacity:1;" d="M 4.179688 4.042969 C 3.925781 4.042969 3.710938 4.179688 3.589844 4.339844 C 3.46875 4.503906 3.410156 4.691406 3.410156 4.890625 L 3.410156 9.121094 C 3.410156 9.316406 3.46875 9.507812 3.589844 9.667969 C 3.710938 9.828125 3.925781 9.964844 4.179688 9.964844 L 9.28125 9.964844 C 9.53125 9.964844 9.746094 9.828125 9.867188 9.667969 C 9.992188 9.507812 10.046875 9.316406 10.046875 9.121094 L 10.046875 4.890625 C 10.046875 4.691406 9.992188 4.503906 9.867188 4.339844 C 9.746094 4.179688 9.53125 4.042969 9.28125 4.042969 Z M 4.179688 4.042969 "/>
<path style=" stroke:none;fill-rule:evenodd;fill:rgb(100%,100%,100%);fill-opacity:1;" d="M 4.179688 4.386719 C 4.046875 4.386719 3.9375 4.457031 3.863281 4.550781 C 3.792969 4.644531 3.753906 4.761719 3.753906 4.890625 L 3.753906 9.121094 C 3.753906 9.246094 3.792969 9.363281 3.863281 9.457031 C 3.9375 9.550781 4.046875 9.621094 4.179688 9.621094 L 9.28125 9.621094 C 9.410156 9.621094 9.523438 9.550781 9.59375 9.457031 C 9.664062 9.363281 9.703125 9.246094 9.703125 9.121094 L 9.703125 4.890625 C 9.703125 4.761719 9.664062 4.644531 9.59375 4.550781 C 9.523438 4.457031 9.410156 4.386719 9.28125 4.386719 Z M 4.179688 4.722656 L 9.28125 4.722656 C 9.292969 4.722656 9.304688 4.726562 9.328125 4.753906 C 9.347656 4.78125 9.367188 4.832031 9.367188 4.890625 L 9.367188 9.121094 C 9.367188 9.179688 9.347656 9.226562 9.328125 9.253906 C 9.304688 9.28125 9.292969 9.285156 9.28125 9.285156 L 4.179688 9.285156 C 4.167969 9.285156 4.152344 9.28125 4.132812 9.253906 C 4.109375 9.226562 4.089844 9.179688 4.089844 9.121094 L 4.089844 4.890625 C 4.089844 4.832031 4.109375 4.78125 4.132812 4.753906 C 4.152344 4.726562 4.167969 4.722656 4.179688 4.722656 Z M 4.179688 4.722656 "/>
<path style=" stroke:none;fill-rule:evenodd;fill:rgb(100%,100%,100%);fill-opacity:1;" d="M 4.171875 4.375 C 3.945312 4.375 3.753906 4.566406 3.753906 4.792969 L 3.753906 5.230469 C 3.753906 5.460938 3.945312 5.648438 4.171875 5.648438 L 9.285156 5.648438 C 9.511719 5.648438 9.703125 5.460938 9.703125 5.230469 L 9.703125 4.792969 C 9.703125 4.566406 9.511719 4.375 9.285156 4.375 Z M 4.171875 4.710938 L 9.285156 4.710938 C 9.332031 4.710938 9.367188 4.746094 9.367188 4.792969 L 9.367188 5.230469 C 9.367188 5.28125 9.332031 5.3125 9.285156 5.3125 L 4.171875 5.3125 C 4.125 5.3125 4.089844 5.28125 4.089844 5.230469 L 4.089844 4.792969 C 4.089844 4.746094 4.125 4.710938 4.171875 4.710938 Z M 4.171875 4.710938 "/>
<path style=" stroke:none;fill-rule:evenodd;fill:rgb(100%,100%,100%);fill-opacity:1;" d="M 4.179688 4.386719 C 4.046875 4.386719 3.933594 4.457031 3.863281 4.550781 C 3.789062 4.644531 3.753906 4.761719 3.753906 4.890625 L 3.753906 5.21875 C 3.753906 5.222656 3.753906 5.226562 3.753906 5.230469 L 3.753906 9.121094 C 3.753906 9.246094 3.789062 9.367188 3.863281 9.460938 C 3.933594 9.554688 4.046875 9.625 4.179688 9.625 L 9.28125 9.625 C 9.410156 9.625 9.523438 9.554688 9.597656 9.460938 C 9.667969 9.367188 9.707031 9.246094 9.707031 9.121094 L 9.707031 5.234375 C 9.707031 5.234375 9.707031 5.234375 9.707031 5.230469 C 9.707031 5.226562 9.707031 5.21875 9.707031 5.214844 L 9.707031 4.890625 C 9.707031 4.761719 9.667969 4.644531 9.597656 4.550781 C 9.523438 4.457031 9.410156 4.386719 9.28125 4.386719 Z M 4.179688 4.726562 L 9.28125 4.726562 C 9.289062 4.726562 9.304688 4.730469 9.324219 4.757812 C 9.34375 4.785156 9.363281 4.832031 9.363281 4.890625 L 9.363281 5.230469 C 9.363281 5.277344 9.332031 5.308594 9.285156 5.308594 L 4.171875 5.308594 C 4.128906 5.308594 4.09375 5.277344 4.09375 5.230469 L 4.09375 4.890625 C 4.09375 4.832031 4.113281 4.785156 4.132812 4.757812 C 4.15625 4.730469 4.167969 4.726562 4.179688 4.726562 Z M 8.929688 4.8125 C 8.890625 4.816406 8.859375 4.84375 8.847656 4.878906 C 8.835938 4.914062 8.84375 4.953125 8.871094 4.980469 L 8.917969 5.023438 L 8.875 5.066406 C 8.847656 5.089844 8.835938 5.125 8.84375 5.160156 C 8.851562 5.199219 8.878906 5.226562 8.914062 5.234375 C 8.953125 5.242188 8.988281 5.230469 9.011719 5.203125 L 9.054688 5.160156 L 9.09375 5.203125 C 9.117188 5.226562 9.152344 5.238281 9.1875 5.230469 C 9.222656 5.222656 9.25 5.195312 9.257812 5.160156 C 9.265625 5.125 9.257812 5.089844 9.230469 5.066406 L 9.1875 5.023438 L 9.230469 4.984375 C 9.269531 4.945312 9.269531 4.886719 9.230469 4.847656 C 9.191406 4.808594 9.132812 4.808594 9.09375 4.847656 L 9.054688 4.890625 L 9.007812 4.84375 C 8.988281 4.824219 8.964844 4.8125 8.9375 4.8125 C 8.933594 4.8125 8.929688 4.8125 8.929688 4.8125 Z M 4.09375 5.636719 C 4.121094 5.640625 4.144531 5.652344 4.171875 5.652344 L 9.285156 5.652344 C 9.3125 5.652344 9.335938 5.640625 9.363281 5.636719 L 9.363281 9.121094 C 9.363281 9.175781 9.34375 9.226562 9.324219 9.253906 C 9.304688 9.277344 9.289062 9.28125 9.28125 9.28125 L 4.179688 9.28125 C 4.167969 9.28125 4.15625 9.277344 4.132812 9.253906 C 4.113281 9.226562 4.09375 9.175781 4.09375 9.121094 Z M 6.808594 5.972656 C 6.753906 5.972656 6.707031 5.992188 6.667969 6.03125 C 6.632812 6.066406 6.613281 6.113281 6.613281 6.167969 L 6.613281 7.6875 C 6.613281 7.742188 6.632812 7.789062 6.667969 7.824219 C 6.707031 7.859375 6.753906 7.875 6.808594 7.875 C 6.867188 7.875 6.914062 7.855469 6.949219 7.820312 C 6.984375 7.785156 7.003906 7.738281 7.003906 7.6875 L 7.003906 7.015625 L 7.679688 7.753906 C 7.722656 7.796875 7.753906 7.828125 7.78125 7.847656 C 7.8125 7.867188 7.84375 7.875 7.875 7.875 C 7.933594 7.875 7.980469 7.859375 8.019531 7.832031 C 8.058594 7.800781 8.078125 7.753906 8.078125 7.695312 C 8.078125 7.65625 8.070312 7.621094 8.050781 7.59375 C 8.03125 7.5625 8.003906 7.527344 7.96875 7.496094 L 7.367188 6.863281 L 7.859375 6.371094 C 7.90625 6.328125 7.9375 6.289062 7.957031 6.257812 C 7.980469 6.226562 7.988281 6.195312 7.988281 6.164062 C 7.988281 6.105469 7.96875 6.0625 7.929688 6.027344 C 7.890625 5.992188 7.847656 5.972656 7.796875 5.972656 C 7.738281 5.972656 7.6875 6 7.644531 6.046875 L 7.003906 6.734375 L 7.003906 6.167969 C 7.003906 6.109375 6.984375 6.058594 6.949219 6.027344 C 6.914062 5.992188 6.867188 5.972656 6.808594 5.972656 Z M 5.96875 6.273438 L 5.710938 6.484375 L 5.945312 6.878906 L 5.8125 7.199219 L 5.363281 7.273438 L 5.359375 7.617188 L 5.824219 7.734375 L 5.953125 8.046875 L 5.65625 8.425781 L 5.90625 8.6875 L 6.3125 8.414062 L 6.632812 8.558594 L 6.742188 9.027344 L 7.085938 9.023438 L 7.179688 8.539062 L 7.503906 8.414062 L 7.90625 8.675781 L 8.097656 8.414062 L 7.636719 7.980469 C 6.460938 9.058594 5.445312 7.394531 6.457031 6.699219 L 6.457031 6.449219 L 6.335938 6.507812 Z M 5.96875 6.273438 "/>
</g>
</svg>
