<?xml version="1.0" encoding="UTF-8"?>
<svg xmlns="http://www.w3.org/2000/svg" xmlns:xlink="http://www.w3.org/1999/xlink" width="12pt" height="12pt" viewBox="0 0 12 12" version="1.1">
<defs>
<clipPath id="clip1">
  <rect width="12" height="12"/>
</clipPath>
<g id="surface6" clip-path="url(#clip1)">
<path style=" stroke:none;fill-rule:nonzero;fill:rgb(100%,100%,100%);fill-opacity:1;" d="M 3.234375 9.445312 L 3.234375 8.980469 L 6.921875 8.980469 L 6.921875 9.445312 Z M 3.234375 8.050781 L 3.234375 7.585938 L 8.765625 7.585938 L 8.765625 8.050781 Z M 3.234375 6.65625 L 3.234375 6.191406 L 8.765625 6.191406 L 8.765625 6.65625 Z M 3.234375 5.265625 L 3.234375 4.800781 L 8.765625 4.800781 L 8.765625 5.265625 Z M 3.234375 5.265625 "/>
</g>
</defs>
<g id="surface1">
<path style=" stroke:none;fill-rule:evenodd;fill:rgb(18.823529%,45.490196%,100%);fill-opacity:1;" d="M 11.289062 4.582031 L 11.289062 2.800781 C 11.289062 1.644531 10.355469 0.710938 9.199219 0.710938 L 7.417969 0.710938 Z M 11.289062 4.582031 "/>
<path style=" stroke:none;fill-rule:evenodd;fill:rgb(18.823529%,45.490196%,100%);fill-opacity:1;" d="M 6.792969 0.710938 L 2.804688 0.710938 C 1.644531 0.710938 0.710938 1.644531 0.710938 2.800781 L 0.710938 9.195312 C 0.710938 10.355469 1.644531 11.289062 2.804688 11.289062 L 9.199219 11.289062 C 10.355469 11.289062 11.289062 10.355469 11.289062 9.195312 L 11.289062 5.207031 Z M 6.792969 0.710938 "/>
<path style=" stroke:none;fill-rule:evenodd;fill:rgb(100%,100%,100%);fill-opacity:1;" d="M 6.792969 0.710938 L 11.289062 5.207031 L 11.289062 4.582031 L 7.417969 0.710938 Z M 6.792969 0.710938 "/>
<use xlink:href="#surface6"/>
</g>
</svg>
