<?xml version="1.0" encoding="UTF-8"?>
<svg xmlns="http://www.w3.org/2000/svg" xmlns:xlink="http://www.w3.org/1999/xlink" width="12pt" height="12pt" viewBox="0 0 12 12" version="1.1">
<g id="surface1">
<path style=" stroke:none;fill-rule:evenodd;fill:rgb(96.078431%,57.647059%,20.784314%);fill-opacity:1;" d="M 2.800781 0.710938 L 9.199219 0.710938 C 10.351562 0.710938 11.289062 1.648438 11.289062 2.800781 L 11.289062 9.199219 C 11.289062 10.351562 10.351562 11.289062 9.199219 11.289062 L 2.800781 11.289062 C 1.648438 11.289062 0.710938 10.351562 0.710938 9.199219 L 0.710938 2.800781 C 0.710938 1.648438 1.648438 0.710938 2.800781 0.710938 Z M 2.800781 0.710938 "/>
<path style=" stroke:none;fill-rule:nonzero;fill:rgb(100%,100%,100%);fill-opacity:1;" d="M 3.523438 3 C 3.066406 3 2.617188 3.363281 2.625 3.816406 L 2.625 7.5 L 1.875 7.5 L 1.875 9 L 10.125 9 L 10.125 7.5 L 9.375 7.5 L 9.375 3.816406 C 9.375 3.363281 8.933594 3 8.476562 3 Z M 3.9375 3.75 L 8.0625 3.75 C 8.367188 3.75 8.625 4.0625 8.625 4.363281 L 8.625 7.089844 C 8.625 7.191406 8.644531 7.550781 8.398438 7.5 L 3.601562 7.5 C 3.355469 7.484375 3.375 7.191406 3.375 7.089844 L 3.375 4.363281 C 3.375 4.0625 3.632812 3.75 3.9375 3.75 Z M 3.9375 3.75 "/>
</g>
</svg>
