<?xml version="1.0" encoding="UTF-8"?>
<svg xmlns="http://www.w3.org/2000/svg" xmlns:xlink="http://www.w3.org/1999/xlink" width="12pt" height="12pt" viewBox="0 0 12 12" version="1.1">
<g id="surface1">
<path style=" stroke:none;fill-rule:evenodd;fill:rgb(67.45098%,29.803922%,78.039216%);fill-opacity:1;" d="M 2.800781 0.710938 L 9.199219 0.710938 C 10.351562 0.710938 11.289062 1.648438 11.289062 2.800781 L 11.289062 9.199219 C 11.289062 10.351562 10.351562 11.289062 9.199219 11.289062 L 2.800781 11.289062 C 1.648438 11.289062 0.710938 10.351562 0.710938 9.199219 L 0.710938 2.800781 C 0.710938 1.648438 1.648438 0.710938 2.800781 0.710938 Z M 2.800781 0.710938 "/>
<path style=" stroke:none;fill-rule:nonzero;fill:rgb(65.882353%,80%,89.019608%);fill-opacity:1;" d="M 6 1.875 C 6.3125 1.875 6.5625 2.105469 6.5625 2.390625 L 6.5625 9.609375 C 6.5625 9.894531 6.3125 10.125 6 10.125 C 5.6875 10.125 5.4375 9.894531 5.4375 9.609375 L 5.4375 2.390625 C 5.4375 2.105469 5.6875 1.875 6 1.875 Z M 6 1.875 "/>
<path style=" stroke:none;fill-rule:nonzero;fill:rgb(65.882353%,80%,89.019608%);fill-opacity:1;" d="M 4.125 3.375 C 4.4375 3.375 4.6875 3.609375 4.6875 3.898438 L 4.6875 8.101562 C 4.6875 8.390625 4.4375 8.625 4.125 8.625 C 3.8125 8.625 3.5625 8.390625 3.5625 8.101562 L 3.5625 3.898438 C 3.5625 3.609375 3.8125 3.375 4.125 3.375 Z M 4.125 3.375 "/>
<path style=" stroke:none;fill-rule:nonzero;fill:rgb(65.882353%,80%,89.019608%);fill-opacity:1;" d="M 7.875 2.25 C 8.1875 2.25 8.4375 2.488281 8.4375 2.785156 L 8.4375 9.214844 C 8.4375 9.511719 8.1875 9.75 7.875 9.75 C 7.5625 9.75 7.3125 9.511719 7.3125 9.214844 L 7.3125 2.785156 C 7.3125 2.488281 7.5625 2.25 7.875 2.25 Z M 7.875 2.25 "/>
<path style=" stroke:none;fill-rule:nonzero;fill:rgb(65.882353%,80%,89.019608%);fill-opacity:1;" d="M 2.25 3 C 2.5625 3 2.8125 3.222656 2.8125 3.5 L 2.8125 8.5 C 2.8125 8.777344 2.5625 9 2.25 9 C 1.9375 9 1.6875 8.777344 1.6875 8.5 L 1.6875 3.5 C 1.6875 3.222656 1.9375 3 2.25 3 Z M 2.25 3 "/>
<path style=" stroke:none;fill-rule:nonzero;fill:rgb(65.882353%,80%,89.019608%);fill-opacity:1;" d="M 9.75 3 C 10.0625 3 10.3125 3.222656 10.3125 3.5 L 10.3125 8.5 C 10.3125 8.777344 10.0625 9 9.75 9 C 9.4375 9 9.1875 8.777344 9.1875 8.5 L 9.1875 3.5 C 9.1875 3.222656 9.4375 3 9.75 3 Z M 9.75 3 "/>
</g>
</svg>
