<?xml version="1.0" encoding="UTF-8"?>
<svg xmlns="http://www.w3.org/2000/svg" xmlns:xlink="http://www.w3.org/1999/xlink" width="12pt" height="12pt" viewBox="0 0 12 12" version="1.1">
<g id="surface1">
<path style=" stroke:none;fill-rule:evenodd;fill:rgb(58.823529%,38.039216%,16.078431%);fill-opacity:1;" d="M 2.800781 0.710938 L 9.199219 0.710938 C 10.351562 0.710938 11.289062 1.648438 11.289062 2.800781 L 11.289062 9.199219 C 11.289062 10.351562 10.351562 11.289062 9.199219 11.289062 L 2.800781 11.289062 C 1.648438 11.289062 0.710938 10.351562 0.710938 9.199219 L 0.710938 2.800781 C 0.710938 1.648438 1.648438 0.710938 2.800781 0.710938 Z M 2.800781 0.710938 "/>
<path style=" stroke:none;fill-rule:nonzero;fill:rgb(97.254902%,73.333333%,53.333333%);fill-opacity:1;" d="M 3.277344 4 C 2.246094 4 1.414062 4.835938 1.414062 5.863281 C 1.414062 6.894531 2.246094 7.726562 3.277344 7.726562 C 4.304688 7.726562 5.140625 6.894531 5.140625 5.863281 C 5.140625 4.835938 4.304688 4 3.277344 4 Z M 3.277344 4 "/>
<path style=" stroke:none;fill-rule:nonzero;fill:rgb(70.196078%,45.098039%,24.705882%);fill-opacity:1;" d="M 3.277344 4.859375 C 2.722656 4.859375 2.273438 5.308594 2.273438 5.863281 C 2.273438 6.417969 2.722656 6.867188 3.277344 6.867188 C 3.832031 6.867188 4.28125 6.417969 4.28125 5.863281 C 4.28125 5.308594 3.832031 4.859375 3.277344 4.859375 Z M 3.277344 4.859375 "/>
<path style=" stroke:none;fill-rule:nonzero;fill:rgb(97.254902%,73.333333%,53.333333%);fill-opacity:1;" d="M 8.722656 4 C 7.695312 4 6.859375 4.835938 6.859375 5.863281 C 6.859375 6.894531 7.695312 7.726562 8.722656 7.726562 C 9.753906 7.726562 10.585938 6.894531 10.585938 5.863281 C 10.585938 4.835938 9.753906 4 8.722656 4 Z M 8.722656 4 "/>
<path style=" stroke:none;fill-rule:nonzero;fill:rgb(70.196078%,45.098039%,24.705882%);fill-opacity:1;" d="M 8.722656 4.859375 C 8.167969 4.859375 7.71875 5.308594 7.71875 5.863281 C 7.71875 6.417969 8.167969 6.867188 8.722656 6.867188 C 9.277344 6.867188 9.726562 6.417969 9.726562 5.863281 C 9.726562 5.308594 9.277344 4.859375 8.722656 4.859375 Z M 8.722656 4.859375 "/>
<path style=" stroke:none;fill-rule:nonzero;fill:rgb(96.078431%,61.568627%,33.72549%);fill-opacity:1;" d="M 6 3.140625 C 6.082031 3.140625 6.160156 3.144531 6.242188 3.152344 C 6.160156 3.144531 6.082031 3.140625 6 3.140625 Z M 6 3.140625 C 4.839844 3.140625 3.777344 3.777344 3.226562 4.796875 C 3.777344 3.777344 4.839844 3.140625 6 3.140625 Z M 6.394531 3.167969 C 6.449219 3.175781 6.503906 3.183594 6.558594 3.191406 C 6.503906 3.183594 6.449219 3.175781 6.394531 3.167969 Z M 6.6875 3.21875 C 6.746094 3.234375 6.808594 3.246094 6.867188 3.261719 C 6.808594 3.246094 6.746094 3.234375 6.6875 3.21875 Z M 6.980469 3.300781 C 7.042969 3.320312 7.105469 3.34375 7.167969 3.367188 C 7.105469 3.34375 7.042969 3.320312 6.980469 3.300781 Z M 7.257812 3.40625 C 7.328125 3.433594 7.394531 3.464844 7.457031 3.5 C 7.394531 3.464844 7.328125 3.433594 7.257812 3.40625 Z M 7.519531 3.535156 C 7.589844 3.574219 7.660156 3.613281 7.730469 3.660156 C 7.660156 3.613281 7.589844 3.574219 7.519531 3.535156 Z M 7.785156 3.699219 C 7.855469 3.746094 7.921875 3.792969 7.988281 3.847656 C 7.921875 3.792969 7.855469 3.746094 7.785156 3.699219 Z M 8.023438 3.878906 C 8.09375 3.9375 8.160156 3.996094 8.222656 4.058594 C 8.160156 3.996094 8.09375 3.9375 8.023438 3.878906 Z M 8.25 4.089844 C 8.316406 4.152344 8.375 4.222656 8.433594 4.292969 C 8.375 4.222656 8.316406 4.152344 8.25 4.089844 Z M 4.421875 4.253906 C 3.960938 4.253906 3.519531 4.457031 3.21875 4.8125 C 2.976562 5.269531 2.847656 5.777344 2.847656 6.292969 C 2.847656 8.035156 4.257812 9.445312 6 9.445312 C 7.742188 9.445312 9.152344 8.035156 9.152344 6.292969 C 9.152344 5.78125 9.027344 5.273438 8.785156 4.820312 C 8.488281 4.460938 8.042969 4.253906 7.578125 4.253906 C 6.707031 4.253906 6 4.960938 6 5.828125 C 6 5.859375 6.003906 5.890625 6.003906 5.921875 L 5.996094 5.921875 C 6 5.890625 6 5.859375 6 5.828125 C 6 4.960938 5.292969 4.253906 4.421875 4.253906 Z M 8.785156 4.820312 C 8.738281 4.730469 8.683594 4.640625 8.628906 4.554688 C 8.683594 4.640625 8.738281 4.730469 8.785156 4.820312 Z M 8.453125 4.316406 C 8.511719 4.390625 8.570312 4.46875 8.625 4.550781 C 8.570312 4.46875 8.511719 4.390625 8.453125 4.316406 Z M 8.453125 4.316406 "/>
<path style=" stroke:none;fill-rule:nonzero;fill:rgb(70.196078%,45.098039%,24.705882%);fill-opacity:1;" d="M 6 3.140625 C 4.835938 3.140625 3.765625 3.785156 3.21875 4.8125 C 3.519531 4.457031 3.960938 4.253906 4.421875 4.253906 C 5.292969 4.253906 6 4.960938 6 5.828125 C 6 4.960938 6.707031 4.253906 7.578125 4.253906 C 8.042969 4.253906 8.488281 4.460938 8.785156 4.820312 C 8.242188 3.789062 7.167969 3.140625 6 3.140625 Z M 6 5.828125 C 6 5.859375 6 5.890625 5.996094 5.921875 L 6.003906 5.921875 C 6.003906 5.890625 6 5.859375 6 5.828125 Z M 6 5.828125 "/>
<path style=" stroke:none;fill-rule:nonzero;fill:rgb(24.705882%,24.705882%,24.705882%);fill-opacity:1;" d="M 5.425781 6.292969 C 5.425781 6.609375 5.171875 6.867188 4.851562 6.867188 C 4.535156 6.867188 4.28125 6.609375 4.28125 6.292969 C 4.28125 5.976562 4.535156 5.71875 4.851562 5.71875 C 5.171875 5.71875 5.425781 5.976562 5.425781 6.292969 Z M 5.425781 6.292969 "/>
<path style=" stroke:none;fill-rule:nonzero;fill:rgb(24.705882%,24.705882%,24.705882%);fill-opacity:1;" d="M 7.71875 6.292969 C 7.71875 6.609375 7.464844 6.867188 7.148438 6.867188 C 6.828125 6.867188 6.574219 6.609375 6.574219 6.292969 C 6.574219 5.976562 6.828125 5.71875 7.148438 5.71875 C 7.464844 5.71875 7.71875 5.976562 7.71875 6.292969 Z M 7.71875 6.292969 "/>
<path style=" stroke:none;fill-rule:nonzero;fill:rgb(24.705882%,24.705882%,24.705882%);fill-opacity:1;" d="M 4.570312 7.722656 C 4.449219 7.722656 4.339844 7.796875 4.296875 7.910156 C 4.253906 8.023438 4.285156 8.152344 4.378906 8.230469 C 4.378906 8.230469 5.09375 8.875 6 8.875 C 6.90625 8.875 7.621094 8.230469 7.621094 8.230469 C 7.699219 8.164062 7.738281 8.0625 7.71875 7.960938 C 7.699219 7.859375 7.628906 7.773438 7.53125 7.742188 C 7.433594 7.707031 7.324219 7.726562 7.246094 7.796875 C 7.246094 7.796875 6.621094 8.300781 6 8.300781 C 5.378906 8.300781 4.753906 7.796875 4.753906 7.796875 C 4.703125 7.75 4.636719 7.726562 4.570312 7.722656 Z M 4.570312 7.722656 "/>
</g>
</svg>
