<?xml version="1.0" encoding="UTF-8"?>
<svg xmlns="http://www.w3.org/2000/svg" xmlns:xlink="http://www.w3.org/1999/xlink" width="12pt" height="12pt" viewBox="0 0 12 12" version="1.1">
<defs>
<clipPath id="clip1">
  <path d="M 3 3 L 9 3 L 9 9 L 3 9 Z M 3 3 "/>
</clipPath>
<clipPath id="clip2">
  <path d="M 11.75 5.996094 C 11.75 9.175781 9.171875 11.75 6 11.75 C 2.828125 11.75 0.25 9.175781 0.25 5.996094 C 0.25 2.816406 2.828125 0.242188 6 0.242188 C 9.171875 0.242188 11.75 2.816406 11.75 5.996094 Z M 11.75 5.996094 "/>
</clipPath>
</defs>
<g id="surface1">
<path style=" stroke:none;fill-rule:evenodd;fill:rgb(36.862745%,40.784314%,51.764706%);fill-opacity:1;" d="M 2.800781 0.710938 L 9.199219 0.710938 C 10.351562 0.710938 11.289062 1.648438 11.289062 2.800781 L 11.289062 9.199219 C 11.289062 10.351562 10.351562 11.289062 9.199219 11.289062 L 2.800781 11.289062 C 1.648438 11.289062 0.710938 10.351562 0.710938 9.199219 L 0.710938 2.800781 C 0.710938 1.648438 1.648438 0.710938 2.800781 0.710938 Z M 2.800781 0.710938 "/>
<g clip-path="url(#clip1)" clip-rule="nonzero">
<g clip-path="url(#clip2)" clip-rule="nonzero">
<path style=" stroke:none;fill-rule:nonzero;fill:rgb(100%,100%,100%);fill-opacity:1;" d="M 3.507812 8.988281 C 3.507812 8.953125 4.761719 7.445312 4.789062 7.453125 C 4.800781 7.457031 5.363281 7.691406 6.03125 7.980469 C 7.171875 8.46875 7.25 8.5 7.28125 8.457031 C 7.328125 8.394531 7.488281 8.058594 7.574219 7.847656 L 7.644531 7.664062 L 7.523438 7.597656 C 7.351562 7.503906 7.097656 7.292969 6.941406 7.113281 C 6.796875 6.949219 6.535156 6.550781 6.535156 6.496094 C 6.535156 6.476562 6.617188 6.5625 6.71875 6.683594 C 7.003906 7.019531 7.660156 7.550781 7.699219 7.476562 C 7.746094 7.386719 7.78125 7.121094 7.777344 6.816406 C 7.777344 6.441406 7.726562 6.148438 7.597656 5.75 L 7.527344 5.523438 L 7.171875 5.410156 C 6.976562 5.347656 6.777344 5.289062 6.734375 5.273438 C 6.582031 5.226562 6.675781 5.226562 6.902344 5.277344 C 7.171875 5.339844 7.445312 5.390625 7.613281 5.410156 C 7.765625 5.429688 7.796875 5.398438 7.8125 5.234375 C 7.832031 5.023438 7.699219 4.4375 7.558594 4.144531 C 7.503906 4.03125 7.480469 4.003906 7.367188 3.953125 C 7 3.78125 5.851562 3.625 5.367188 3.675781 C 5.15625 3.699219 4.9375 3.75 4.871094 3.792969 C 4.851562 3.808594 4.988281 3.839844 5.222656 3.882812 C 5.429688 3.921875 5.585938 3.957031 5.5625 3.964844 C 5.535156 3.96875 5.207031 3.929688 4.828125 3.882812 C 4.160156 3.796875 4.136719 3.792969 4.085938 3.835938 C 3.988281 3.925781 3.851562 4.164062 3.820312 4.292969 C 3.792969 4.417969 3.792969 4.433594 3.855469 4.558594 C 3.960938 4.773438 4.160156 4.929688 4.605469 5.15625 C 4.816406 5.265625 4.984375 5.355469 4.976562 5.363281 C 4.972656 5.371094 4.789062 5.300781 4.578125 5.214844 L 4.1875 5.050781 L 3.617188 5.210938 C 3.304688 5.300781 3.035156 5.371094 3.023438 5.371094 C 3.007812 5.371094 3 4.992188 3 4.347656 C 3 3.363281 3.003906 3.324219 3.050781 3.222656 C 3.078125 3.160156 3.136719 3.097656 3.191406 3.066406 L 3.277344 3.007812 L 5.894531 3 C 7.332031 2.996094 8.566406 3 8.636719 3.007812 C 8.796875 3.027344 8.941406 3.144531 8.980469 3.289062 C 8.996094 3.347656 9.003906 4.28125 9 6.050781 L 8.992188 8.71875 L 8.9375 8.808594 C 8.902344 8.863281 8.839844 8.917969 8.777344 8.949219 C 8.675781 9 8.65625 9 6.09375 9 C 4.675781 9 3.511719 8.992188 3.511719 8.980469 M 3.507812 8.988281 "/>
</g>
</g>
</g>
</svg>
