<?xml version="1.0" encoding="UTF-8"?>
<svg xmlns="http://www.w3.org/2000/svg" xmlns:xlink="http://www.w3.org/1999/xlink" width="12pt" height="12pt" viewBox="0 0 12 12" version="1.1">
<g id="surface1">
<path style=" stroke:none;fill-rule:evenodd;fill:rgb(6.27451%,62.745098%,69.019608%);fill-opacity:1;" d="M 2.800781 0.710938 L 9.199219 0.710938 C 10.351562 0.710938 11.289062 1.648438 11.289062 2.800781 L 11.289062 9.199219 C 11.289062 10.351562 10.351562 11.289062 9.199219 11.289062 L 2.800781 11.289062 C 1.648438 11.289062 0.710938 10.351562 0.710938 9.199219 L 0.710938 2.800781 C 0.710938 1.648438 1.648438 0.710938 2.800781 0.710938 Z M 2.800781 0.710938 "/>
<path style=" stroke:none;fill-rule:nonzero;fill:rgb(100%,100%,100%);fill-opacity:1;" d="M 6.230469 5.113281 C 5.519531 5.078125 4.710938 5.195312 4.175781 5.621094 C 3.3125 6.316406 2.90625 7.351562 3.359375 8.558594 C 3.492188 8.910156 3.988281 9.21875 4.449219 9.472656 C 6.375 10.195312 8.269531 9.375 9.316406 8.113281 C 9.675781 7.667969 9.453125 7.160156 9.238281 6.867188 C 8.589844 5.976562 7.761719 5.195312 6.230469 5.113281 Z M 5.921875 2.257812 C 4.734375 2.246094 3.523438 2.914062 2.925781 3.699219 C 2.429688 4.347656 2.050781 5 1.96875 5.785156 C 1.992188 6.230469 2.21875 6.527344 2.734375 6.546875 C 2.875 6.554688 3.015625 6.558594 3.15625 6.558594 C 3.324219 6.125 3.601562 5.703125 4.007812 5.425781 C 4.636719 4.996094 5.460938 4.84375 6.214844 4.875 C 6.339844 4.878906 6.464844 4.890625 6.585938 4.90625 C 6.667969 4.289062 6.78125 3.671875 6.757812 3.046875 C 6.734375 2.546875 6.292969 2.269531 5.921875 2.257812 Z M 8.296875 3.164062 C 7.960938 3.832031 7.589844 4.4375 7.226562 5.046875 C 8.09375 5.316406 8.871094 5.929688 9.410156 6.769531 C 9.460938 6.847656 9.5 6.921875 9.535156 6.996094 C 9.78125 6.960938 9.917969 6.730469 9.953125 6.480469 C 10.226562 4.710938 9.730469 3.820312 9.085938 3.09375 C 8.785156 2.757812 8.523438 2.726562 8.296875 3.164062 Z M 8.296875 3.164062 "/>
</g>
</svg>
