<?xml version="1.0" encoding="UTF-8"?>
<svg xmlns="http://www.w3.org/2000/svg" xmlns:xlink="http://www.w3.org/1999/xlink" width="12pt" height="12pt" viewBox="0 0 12 12" version="1.1">
<defs>
<filter id="alpha" filterUnits="objectBoundingBox" x="0%" y="0%" width="100%" height="100%">
  <feColorMatrix type="matrix" in="SourceGraphic" values="0 0 0 0 1 0 0 0 0 1 0 0 0 0 1 0 0 0 1 0"/>
</filter>
<mask id="mask0">
  <g filter="url(#alpha)">
<rect x="0" y="0" width="12" height="12" style="fill:rgb(0%,0%,0%);fill-opacity:0.501961;stroke:none;"/>
  </g>
</mask>
<clipPath id="clip1">
  <rect width="12" height="12"/>
</clipPath>
<g id="surface6" clip-path="url(#clip1)">
<path style=" stroke:none;fill-rule:evenodd;fill:rgb(16.470588%,16.470588%,16.470588%);fill-opacity:1;" d="M 1.875 3.75 L 1.875 4.125 L 10.125 4.125 L 10.125 3.75 Z M 1.875 4.875 L 1.875 5.25 L 10.125 5.25 L 10.125 4.875 Z M 1.875 6 L 1.875 6.375 L 10.125 6.375 L 10.125 6 Z M 1.875 7.125 L 1.875 7.5 L 10.125 7.5 L 10.125 7.125 Z M 1.875 8.25 L 1.875 8.625 L 10.125 8.625 L 10.125 8.25 Z M 1.875 8.25 "/>
</g>
</defs>
<g id="surface1">
<path style=" stroke:none;fill-rule:evenodd;fill:rgb(86.27451%,86.27451%,74.509804%);fill-opacity:1;" d="M 2.800781 0.710938 L 9.199219 0.710938 C 10.351562 0.710938 11.289062 1.648438 11.289062 2.800781 L 11.289062 9.199219 C 11.289062 10.351562 10.351562 11.289062 9.199219 11.289062 L 2.800781 11.289062 C 1.648438 11.289062 0.710938 10.351562 0.710938 9.199219 L 0.710938 2.800781 C 0.710938 1.648438 1.648438 0.710938 2.800781 0.710938 Z M 2.800781 0.710938 "/>
<use xlink:href="#surface6" mask="url(#mask0)"/>
<path style=" stroke:none;fill-rule:nonzero;fill:rgb(16.470588%,16.470588%,16.470588%);fill-opacity:1;" d="M 5.324219 6.144531 C 5.101562 5.914062 4.785156 5.765625 4.402344 5.796875 C 4.371094 5.738281 4.246094 5.15625 4.246094 5.15625 C 4.246094 5.15625 4.6875 4.546875 4.785156 4.429688 C 5.261719 3.734375 5.292969 3.179688 5.007812 2.628906 C 4.910156 2.425781 4.65625 2.25 4.402344 2.25 C 4.214844 2.25 4.054688 2.394531 3.960938 2.570312 C 3.644531 3.0625 3.644531 3.996094 3.800781 4.632812 C 3.800781 4.632812 3.644531 4.777344 3.484375 4.953125 C 3.167969 5.273438 2.820312 5.621094 2.691406 6.085938 C 2.535156 6.609375 2.660156 7.105469 3.007812 7.484375 C 3.390625 7.917969 3.960938 8.121094 4.65625 8.0625 C 4.785156 8.617188 4.878906 8.964844 4.6875 9.285156 C 4.625 9.402344 4.5 9.515625 4.277344 9.515625 C 4.214844 9.515625 4.183594 9.515625 4.117188 9.488281 C 4.308594 9.402344 4.46875 9.226562 4.46875 9.023438 C 4.46875 8.734375 4.214844 8.5 3.898438 8.5 C 3.359375 8.527344 3.328125 9.023438 3.328125 9.023438 C 3.328125 9.199219 3.390625 9.371094 3.515625 9.488281 C 3.675781 9.632812 3.929688 9.75 4.214844 9.75 C 4.5625 9.75 4.910156 9.632812 5.039062 9.167969 C 5.164062 8.789062 4.941406 8.179688 4.910156 7.976562 C 5.261719 7.832031 5.578125 7.394531 5.609375 7.105469 C 5.671875 6.785156 5.546875 6.40625 5.324219 6.144531 Z M 4.308594 2.917969 C 4.339844 2.859375 4.402344 2.832031 4.46875 2.832031 C 4.5 2.832031 4.5625 2.859375 4.59375 2.890625 C 4.722656 2.949219 4.753906 3.0625 4.753906 3.238281 C 4.722656 3.675781 4.308594 4.199219 4.085938 4.371094 C 3.992188 3.964844 4.054688 3.210938 4.308594 2.917969 Z M 3.390625 7.484375 C 3.167969 7.277344 3.074219 6.988281 3.105469 6.699219 C 3.167969 6.234375 3.515625 5.855469 3.800781 5.5625 C 3.867188 5.503906 3.929688 5.449219 3.960938 5.390625 C 3.992188 5.535156 4.085938 5.765625 4.117188 5.882812 C 3.738281 6.027344 3.515625 6.496094 3.546875 6.871094 C 3.546875 7.046875 3.613281 7.164062 3.707031 7.277344 C 3.738281 7.308594 3.769531 7.335938 3.800781 7.335938 C 3.832031 7.335938 3.898438 7.308594 3.898438 7.277344 C 3.929688 7.25 3.929688 7.191406 3.898438 7.164062 C 3.867188 7.132812 3.867188 7.105469 3.867188 7.046875 C 3.832031 6.785156 4.023438 6.582031 4.246094 6.496094 C 4.277344 6.667969 4.5 7.570312 4.53125 7.773438 C 4.117188 7.890625 3.675781 7.773438 3.390625 7.484375 Z M 4.816406 7.65625 C 4.753906 7.453125 4.722656 7.222656 4.65625 6.960938 C 4.625 6.785156 4.59375 6.582031 4.53125 6.40625 C 4.941406 6.40625 5.070312 6.726562 5.101562 6.84375 C 5.195312 7.164062 5.101562 7.484375 4.816406 7.65625 Z M 4.816406 7.65625 "/>
</g>
</svg>
