<?xml version="1.0" encoding="UTF-8"?>
<svg xmlns="http://www.w3.org/2000/svg" xmlns:xlink="http://www.w3.org/1999/xlink" width="12pt" height="12pt" viewBox="0 0 12 12" version="1.1">
<g id="surface1">
<path style=" stroke:none;fill-rule:evenodd;fill:rgb(92.54902%,92.54902%,92.54902%);fill-opacity:1;" d="M 2.800781 0.710938 L 9.199219 0.710938 C 10.351562 0.710938 11.289062 1.648438 11.289062 2.800781 L 11.289062 9.199219 C 11.289062 10.351562 10.351562 11.289062 9.199219 11.289062 L 2.800781 11.289062 C 1.648438 11.289062 0.710938 10.351562 0.710938 9.199219 L 0.710938 2.800781 C 0.710938 1.648438 1.648438 0.710938 2.800781 0.710938 Z M 2.800781 0.710938 "/>
<path style=" stroke:none;fill-rule:evenodd;fill:rgb(92.54902%,92.54902%,92.54902%);fill-opacity:1;" d="M 2.800781 0.710938 C 1.644531 0.710938 0.710938 1.644531 0.710938 2.800781 L 0.710938 8.835938 C 0.777344 8.820312 0.882812 8.777344 0.941406 8.765625 C 1.628906 8.636719 2.160156 8.574219 2.625 8.578125 C 3.089844 8.585938 3.484375 8.660156 3.898438 8.800781 C 4.28125 8.933594 4.390625 8.949219 4.796875 8.929688 C 5.144531 8.910156 5.527344 8.84375 5.902344 8.738281 C 6.277344 8.632812 6.640625 8.488281 6.949219 8.324219 C 7.226562 8.171875 7.339844 8.046875 7.503906 7.863281 C 7.445312 7.871094 7.390625 7.878906 7.335938 7.886719 C 7.160156 7.898438 6.988281 7.898438 6.820312 7.890625 C 6.652344 7.878906 6.488281 7.855469 6.328125 7.820312 C 6.167969 7.789062 6.015625 7.742188 5.867188 7.683594 C 5.71875 7.628906 5.574219 7.5625 5.4375 7.480469 C 5.339844 7.425781 5.246094 7.363281 5.15625 7.296875 C 5.027344 7.203125 4.910156 7.097656 4.796875 6.984375 C 4.679688 6.867188 4.574219 6.742188 4.476562 6.609375 C 4.378906 6.472656 4.289062 6.328125 4.207031 6.175781 C 4.125 6.023438 4.050781 5.863281 3.988281 5.691406 C 3.921875 5.523438 3.867188 5.34375 3.820312 5.160156 C 3.773438 4.976562 3.734375 4.785156 3.707031 4.585938 C 3.679688 4.386719 3.660156 4.183594 3.648438 3.976562 C 3.640625 3.765625 3.640625 3.550781 3.648438 3.332031 C 3.65625 3.113281 3.675781 2.894531 3.699219 2.667969 C 3.726562 2.441406 3.765625 2.214844 3.808594 1.984375 C 3.855469 1.753906 3.910156 1.523438 3.972656 1.289062 C 4.023438 1.097656 4.085938 0.90625 4.148438 0.710938 Z M 2.800781 0.710938 "/>
<path style=" stroke:none;fill-rule:evenodd;fill:rgb(19.215686%,56.862745%,80.392157%);fill-opacity:1;" d="M 4.148438 0.710938 C 4.085938 0.90625 4.023438 1.097656 3.972656 1.289062 C 3.910156 1.523438 3.855469 1.753906 3.808594 1.984375 C 3.765625 2.214844 3.726562 2.441406 3.699219 2.667969 C 3.675781 2.894531 3.65625 3.113281 3.648438 3.332031 C 3.640625 3.550781 3.640625 3.765625 3.648438 3.976562 C 3.660156 4.183594 3.679688 4.386719 3.707031 4.585938 C 3.734375 4.785156 3.773438 4.976562 3.820312 5.160156 C 3.867188 5.34375 3.921875 5.523438 3.988281 5.691406 C 4.050781 5.863281 4.125 6.023438 4.207031 6.175781 C 4.289062 6.328125 4.378906 6.472656 4.476562 6.609375 C 4.574219 6.742188 4.679688 6.867188 4.796875 6.984375 C 4.910156 7.097656 5.027344 7.203125 5.15625 7.296875 C 5.246094 7.363281 5.339844 7.425781 5.4375 7.480469 C 5.574219 7.5625 5.71875 7.628906 5.867188 7.683594 C 6.015625 7.742188 6.167969 7.789062 6.328125 7.820312 C 6.488281 7.855469 6.652344 7.878906 6.820312 7.890625 C 6.988281 7.898438 7.160156 7.898438 7.335938 7.886719 C 7.511719 7.875 7.6875 7.851562 7.867188 7.8125 C 8.050781 7.777344 8.234375 7.730469 8.417969 7.671875 C 8.601562 7.613281 8.785156 7.542969 8.972656 7.464844 C 9.160156 7.382812 9.34375 7.292969 9.53125 7.191406 C 9.71875 7.089844 9.902344 6.976562 10.085938 6.851562 C 10.269531 6.730469 10.453125 6.597656 10.632812 6.457031 C 10.8125 6.316406 10.992188 6.164062 11.167969 6.007812 C 11.207031 5.964844 11.246094 5.925781 11.289062 5.886719 L 11.289062 4.816406 C 11.253906 4.855469 11.222656 4.898438 11.1875 4.9375 C 11.066406 5.078125 10.9375 5.214844 10.808594 5.347656 C 10.679688 5.476562 10.546875 5.601562 10.414062 5.71875 C 10.277344 5.835938 10.140625 5.949219 10.003906 6.050781 C 9.863281 6.15625 9.722656 6.253906 9.582031 6.339844 C 9.441406 6.429688 9.300781 6.511719 9.15625 6.585938 C 9.015625 6.660156 8.871094 6.722656 8.730469 6.78125 C 8.589844 6.835938 8.449219 6.886719 8.308594 6.925781 C 8.167969 6.964844 8.03125 6.996094 7.894531 7.015625 C 7.753906 7.039062 7.621094 7.050781 7.488281 7.054688 C 7.355469 7.058594 7.226562 7.054688 7.101562 7.042969 C 6.972656 7.027344 6.851562 7.007812 6.730469 6.976562 C 6.613281 6.945312 6.496094 6.90625 6.386719 6.855469 C 6.308594 6.824219 6.230469 6.785156 6.15625 6.742188 C 6.050781 6.679688 5.953125 6.613281 5.859375 6.535156 C 5.765625 6.457031 5.675781 6.375 5.59375 6.28125 C 5.507812 6.191406 5.429688 6.089844 5.359375 5.984375 C 5.289062 5.875 5.222656 5.761719 5.164062 5.640625 C 5.105469 5.519531 5.054688 5.394531 5.007812 5.261719 C 4.964844 5.128906 4.925781 4.988281 4.894531 4.84375 C 4.863281 4.699219 4.835938 4.550781 4.820312 4.398438 C 4.800781 4.242188 4.789062 4.085938 4.789062 3.921875 C 4.785156 3.761719 4.789062 3.59375 4.796875 3.425781 C 4.808594 3.257812 4.828125 3.085938 4.851562 2.914062 C 4.875 2.742188 4.90625 2.566406 4.945312 2.390625 C 4.984375 2.214844 5.03125 2.035156 5.082031 1.859375 C 5.132812 1.679688 5.191406 1.503906 5.257812 1.328125 C 5.324219 1.148438 5.394531 0.972656 5.472656 0.796875 C 5.484375 0.769531 5.5 0.742188 5.511719 0.710938 Z M 4.148438 0.710938 "/>
<path style="fill-rule:nonzero;fill:rgb(40%,40%,40%);fill-opacity:1;stroke-width:0.3;stroke-linecap:butt;stroke-linejoin:miter;stroke:rgb(40%,40%,40%);stroke-opacity:1;stroke-miterlimit:4;" d="M 23.083333 17.96875 C 22.5625 17.958333 22.010417 17.989583 21.333333 18.125 C 21.145833 18.15625 20.677083 18.28125 20.4375 18.354167 C 19.614583 18.614583 18.510417 19.145833 17.979167 19.552083 L 17.875 19.635417 C 17.625 19.833333 17.385417 20.052083 17.25 20.364583 L 17.197917 20.458333 C 17.15625 20.5625 17.145833 20.5625 17.09375 20.552083 C 17.0625 20.541667 16.833333 20.541667 16.59375 20.541667 C 16.1875 20.541667 16.135417 20.541667 15.916667 20.59375 C 15.354167 20.708333 14.822917 20.947917 14.34375 21.28125 L 14.208333 21.385417 L 14.114583 21.3125 C 13.989583 21.208333 13.625 21.041667 13.458333 20.989583 C 13.083333 20.885417 12.677083 20.84375 12.09375 20.864583 C 10.583333 20.90625 9.333333 21.208333 8.15625 21.822917 C 7.5 22.15625 6.833333 22.604167 6.489583 22.958333 C 6.260417 23.177083 6.166667 23.34375 6.135417 23.583333 C 6.114583 23.729167 6.114583 23.729167 6.052083 23.760417 C 5.927083 23.802083 5.4375 24.052083 5.34375 24.114583 C 5.270833 24.177083 5.260417 24.1875 5.260417 24.260417 C 5.260417 24.34375 5.302083 24.447917 5.333333 24.479167 C 5.354167 24.489583 5.354167 24.479167 5.34375 24.458333 C 5.3125 24.364583 5.291667 24.260417 5.3125 24.21875 C 5.34375 24.166667 5.666667 23.979167 5.927083 23.875 L 6.15625 23.78125 L 6.166667 23.885417 C 6.177083 23.9375 6.197917 24.03125 6.21875 24.072917 C 6.25 24.135417 6.25 24.166667 6.229167 24.166667 C 6.21875 24.177083 6.09375 24.21875 5.947917 24.260417 C 5.8125 24.3125 5.645833 24.364583 5.583333 24.375 C 5.46875 24.40625 5.427083 24.4375 5.416667 24.510417 C 5.416667 24.53125 5.416667 24.5625 5.40625 24.572917 C 5.40625 24.59375 5.4375 24.625 5.479167 24.645833 C 5.604167 24.708333 5.760417 24.697917 6.03125 24.59375 C 6.166667 24.541667 6.270833 24.510417 6.28125 24.520833 C 6.28125 24.520833 6.3125 24.583333 6.333333 24.645833 C 6.458333 24.958333 6.6875 25.34375 6.875 25.5625 C 7.0625 25.791667 7.354167 25.989583 7.635417 26.072917 L 7.729167 26.104167 L 7.333333 26.5 C 6.885417 26.9375 6.197917 27.666667 6.197917 27.697917 C 6.197917 27.71875 6.291667 27.90625 6.354167 27.989583 C 6.427083 28.09375 6.552083 28.21875 6.677083 28.322917 C 6.729167 28.364583 6.78125 28.395833 6.791667 28.395833 C 6.802083 28.395833 7.104167 28.104167 7.479167 27.739583 C 7.84375 27.375 8.34375 26.895833 8.572917 26.677083 L 9 26.28125 L 9.229167 26.28125 C 9.4375 26.28125 9.84375 26.25 10.114583 26.208333 C 10.375 26.583333 10.666667 27.135417 10.416667 26.177083 C 10.416667 26.166667 10.510417 26.145833 10.614583 26.125 C 12.208333 25.802083 13.572917 25.083333 14.3125 24.15625 C 14.59375 23.8125 14.677083 23.572917 14.6875 23.15625 L 14.6875 22.895833 L 14.770833 22.875 C 14.8125 22.854167 15 22.791667 15.1875 22.71875 C 15.916667 22.447917 16.052083 22.40625 16.385417 22.34375 C 16.8125 22.270833 17.489583 22.15625 17.5 22.15625 C 17.5 22.15625 17.53125 22.208333 17.552083 22.270833 C 17.697917 22.552083 17.927083 22.802083 18.145833 22.927083 C 18.40625 23.072917 18.854167 23.208333 19.291667 23.28125 C 20.59375 23.5 22.28125 23.197917 23.697917 22.489583 C 23.8125 22.427083 23.947917 22.354167 24.010417 22.322917 C 24.09375 22.270833 24.125 22.270833 24.177083 22.28125 C 24.333333 22.302083 25.177083 22.5 25.1875 22.520833 C 25.333333 22.552083 25.552083 22.614583 25.552083 22.614583 C 25.5625 22.604167 25.614583 22.614583 26.40625 22.822917 C 26.770833 22.916667 27.072917 22.989583 27.09375 22.989583 C 27.114583 22.979167 27.197917 22.791667 27.239583 22.635417 C 27.270833 22.53125 27.28125 22.270833 27.270833 22.166667 L 27.260417 22.083333 L 26.96875 21.989583 C 26.666667 21.895833 25.833333 21.65625 25.5 21.572917 L 25.28125 21.520833 L 25.260417 21.4375 C 25.239583 21.364583 25.25 21.364583 25.333333 21.229167 C 25.447917 21.0625 25.53125 20.875 25.59375 20.645833 C 25.625 20.5 25.635417 20.427083 25.635417 20.072917 C 25.635417 19.802083 25.625 19.614583 25.604167 19.520833 C 25.59375 19.447917 25.583333 19.375 25.59375 19.375 C 25.59375 19.364583 25.708333 19.34375 25.822917 19.322917 C 26.145833 19.270833 26.291667 19.197917 26.364583 19.052083 C 26.395833 18.989583 26.395833 18.979167 26.364583 18.979167 C 26.34375 18.979167 26.333333 18.96875 26.333333 18.958333 C 26.333333 18.9375 26.3125 18.916667 26.28125 18.90625 C 26.229167 18.885417 26.197917 18.885417 26.03125 18.927083 C 25.864583 18.96875 25.489583 19.052083 25.4375 19.052083 C 25.427083 19.052083 25.416667 19 25.40625 18.9375 C 25.395833 18.875 25.375 18.802083 25.354167 18.760417 L 25.3125 18.677083 L 25.375 18.666667 C 25.583333 18.635417 25.802083 18.614583 26.020833 18.625 L 26.28125 18.625 L 26.322917 18.71875 C 26.333333 18.760417 26.354167 18.8125 26.364583 18.833333 C 26.385417 18.90625 26.395833 18.854167 26.385417 18.760417 C 26.375 18.71875 26.354167 18.65625 26.322917 18.614583 L 26.270833 18.5625 L 26.0625 18.5625 C 25.854167 18.5625 25.479167 18.583333 25.375 18.614583 C 25.322917 18.614583 25.3125 18.604167 25.260417 18.520833 C 25.15625 18.364583 24.958333 18.229167 24.708333 18.135417 C 24.697917 18.135417 24.666667 18.135417 24.65625 18.125 C 24.645833 18.125 24.645833 18.135417 24.635417 18.135417 C 24.083333 18.052083 23.59375 17.979167 23.083333 17.96875 Z M 22.927083 18.010417 C 23.291667 18.010417 23.645833 18.03125 23.84375 18.052083 C 24.427083 18.125 24.65625 18.177083 24.854167 18.291667 C 24.927083 18.322917 24.96875 18.354167 24.947917 18.34375 C 24.614583 18.25 24.260417 18.166667 23.875 18.114583 C 23.489583 18.052083 22.6875 18.03125 22.291667 18.0625 C 21.302083 18.15625 20.385417 18.416667 19.333333 18.90625 C 18.770833 19.197917 18.177083 19.489583 17.666667 19.96875 C 17.5 20.135417 17.416667 20.270833 17.354167 20.447917 C 17.333333 20.510417 17.302083 20.614583 17.302083 20.6875 L 17.28125 20.802083 L 17.28125 20.697917 C 17.28125 20.604167 17.270833 20.583333 17.239583 20.572917 C 17.1875 20.5625 17.1875 20.552083 17.260417 20.395833 C 17.46875 20.010417 17.854167 19.625 18.364583 19.322917 C 18.53125 19.21875 18.875 19.041667 18.927083 19.020833 C 18.979167 19 18.979167 19 18.9375 19.03125 C 18.854167 19.09375 18.96875 19.052083 19.302083 18.875 C 20.135417 18.458333 21.052083 18.177083 22.020833 18.052083 C 22.208333 18.03125 22.572917 18.010417 22.927083 18.010417 Z M 22.71875 18.072917 C 22.96875 18.0625 23.229167 18.072917 23.385417 18.083333 C 23.65625 18.104167 24.09375 18.166667 24.072917 18.177083 C 24.072917 18.177083 23.979167 18.177083 23.875 18.166667 C 22.833333 18.0625 21.833333 18.125 20.927083 18.364583 C 20.583333 18.447917 20.552083 18.458333 20.71875 18.395833 C 21.0625 18.28125 21.59375 18.166667 22.041667 18.114583 C 22.208333 18.09375 22.46875 18.072917 22.71875 18.072917 Z M 23.25 18.177083 C 23.40625 18.177083 23.5625 18.1875 23.71875 18.208333 C 23.729167 18.197917 23.739583 18.197917 23.75 18.1875 C 24.052083 18.21875 24.260417 18.260417 24.427083 18.291667 C 24.447917 18.302083 24.46875 18.302083 24.489583 18.302083 L 24.46875 18.3125 C 24.572917 18.333333 24.666667 18.364583 24.75 18.40625 C 24.947917 18.5 25.020833 18.59375 25.145833 18.864583 C 25.21875 19.03125 25.21875 19.03125 25.177083 19.041667 C 25.052083 19.09375 24.458333 19.229167 23.8125 19.354167 C 23.010417 19.520833 22.729167 19.583333 22.479167 19.666667 C 22.333333 19.71875 22.145833 19.802083 22.239583 19.78125 C 22.697917 19.645833 24.010417 19.34375 24.6875 19.21875 C 24.78125 19.208333 24.947917 19.166667 25.052083 19.145833 L 25.239583 19.104167 L 25.260417 19.1875 L 25.291667 19.28125 L 25.020833 19.354167 C 23.416667 19.822917 22.75 20.010417 22.302083 20.09375 C 21.9375 20.177083 21.927083 20.177083 21.927083 19.989583 C 21.927083 19.916667 21.9375 19.895833 21.96875 19.885417 C 22.020833 19.854167 22.020833 19.8125 21.947917 19.760417 C 21.895833 19.739583 21.864583 19.729167 21.8125 19.739583 C 21.635417 19.760417 19.375 20.5 17.895833 21.010417 C 17.645833 21.09375 17.4375 21.15625 17.427083 21.15625 C 17.416667 21.15625 17.40625 21.104167 17.385417 20.958333 L 17.489583 20.625 L 17.40625 20.65625 C 17.697917 19.541667 20.375 18.09375 23.25 18.177083 Z M 24.135417 18.1875 C 24.15625 18.177083 24.166667 18.177083 24.177083 18.1875 C 24.177083 18.197917 24.166667 18.197917 24.145833 18.197917 C 24.125 18.197917 24.125 18.1875 24.135417 18.1875 Z M 24.84375 18.354167 C 24.875 18.354167 25.125 18.4375 25.145833 18.458333 C 25.166667 18.479167 25.177083 18.520833 25.1875 18.5625 C 25.197917 18.59375 25.270833 18.854167 25.364583 19.125 C 25.5 19.552083 25.59375 19.90625 25.572917 19.9375 C 25.572917 19.9375 25.552083 19.947917 25.520833 19.947917 C 25.5 19.947917 25.46875 19.958333 25.447917 19.96875 C 25.427083 19.979167 25.416667 19.947917 25.40625 19.791667 C 25.375 19.270833 25.166667 18.6875 24.9375 18.458333 C 24.885417 18.395833 24.833333 18.354167 24.84375 18.354167 Z M 25.21875 18.5625 C 25.21875 18.5625 25.229167 18.572917 25.239583 18.583333 C 25.25 18.604167 25.260417 18.625 25.25 18.635417 C 25.25 18.635417 25.239583 18.625 25.229167 18.614583 C 25.21875 18.583333 25.21875 18.572917 25.21875 18.5625 Z M 25.28125 18.770833 C 25.28125 18.760417 25.291667 18.760417 25.302083 18.791667 C 25.322917 18.822917 25.333333 18.875 25.34375 18.916667 C 25.364583 19.010417 25.34375 19 25.3125 18.90625 C 25.291667 18.833333 25.28125 18.791667 25.28125 18.770833 Z M 25.979167 18.989583 C 26.010417 18.989583 26.020833 18.989583 26.041667 19 C 26.0625 19.03125 26.0625 19.041667 26.020833 19.083333 C 25.989583 19.114583 25.895833 19.15625 25.8125 19.177083 C 25.739583 19.208333 25.645833 19.229167 25.614583 19.239583 C 25.552083 19.25 25.552083 19.25 25.53125 19.177083 C 25.510417 19.083333 25.479167 19.104167 25.822917 19.020833 C 25.90625 19 25.958333 18.989583 25.979167 18.989583 Z M 25.4375 19.114583 C 25.479167 19.114583 25.489583 19.125 25.510417 19.25 C 25.53125 19.322917 25.5625 19.46875 25.572917 19.572917 C 25.614583 19.802083 25.604167 19.864583 25.572917 19.6875 C 25.552083 19.59375 25.447917 19.270833 25.395833 19.145833 C 25.395833 19.125 25.395833 19.114583 25.4375 19.114583 Z M 25.291667 19.427083 C 25.333333 19.427083 25.34375 19.479167 25.375 19.822917 C 25.395833 20.09375 25.375 20.447917 25.322917 20.645833 C 25.260417 20.885417 25.03125 21.25 25.03125 21.25 C 25.020833 21.270833 24.979167 21.3125 24.9375 21.354167 L 24.864583 21.416667 L 24.53125 21.34375 C 23.59375 21.145833 22.447917 20.989583 21.59375 20.947917 C 21.208333 20.927083 21.03125 20.9375 20.541667 20.958333 L 20.385417 20.96875 L 20.822917 20.8125 C 21.84375 20.46875 22.020833 20.395833 22.072917 20.333333 C 22.104167 20.302083 22.125 20.260417 22.125 20.229167 C 22.125 20.208333 22.125 20.1875 22.135417 20.1875 C 22.25 20.1875 22.822917 20.052083 23.302083 19.916667 C 24.177083 19.666667 25.177083 19.427083 25.291667 19.427083 Z M 18.041667 19.6875 C 18.03125 19.708333 17.989583 19.75 17.90625 19.833333 C 17.697917 20.03125 17.552083 20.229167 17.4375 20.46875 C 17.375 20.59375 17.364583 20.625 17.354167 20.822917 C 17.354167 20.9375 17.354167 21.072917 17.375 21.145833 C 17.395833 21.270833 17.572917 21.802083 17.635417 21.947917 C 17.666667 22 17.677083 22.052083 17.677083 22.052083 C 17.65625 22.0625 17.541667 21.770833 17.458333 21.520833 C 17.322917 21.104167 17.291667 20.84375 17.34375 20.583333 C 17.416667 20.260417 17.635417 19.96875 17.989583 19.71875 C 18.03125 19.6875 18.052083 19.666667 18.041667 19.6875 Z M 19.916667 19.822917 L 19.770833 19.875 C 19.8125 19.854167 19.864583 19.84375 19.916667 19.822917 Z M 16.5625 20.552083 L 16.71875 20.552083 L 16.739583 20.604167 C 16.75 20.645833 16.75 20.666667 16.75 20.677083 C 16.75 20.677083 16.625 20.6875 16.479167 20.697917 C 16 20.739583 15.416667 20.895833 15.010417 21.09375 C 14.90625 21.135417 14.78125 21.197917 14.729167 21.239583 C 14.625 21.302083 14.604167 21.291667 14.604167 21.1875 C 14.604167 21.135417 14.708333 21.0625 15 20.927083 C 15.46875 20.697917 16.072917 20.552083 16.5625 20.552083 Z M 17.291667 20.8125 L 17.291667 20.927083 C 17.291667 21.083333 17.333333 21.25 17.4375 21.5625 C 17.583333 22.010417 17.760417 22.3125 18 22.552083 C 18.15625 22.697917 18.416667 22.885417 18.46875 22.875 C 18.479167 22.864583 18.489583 22.864583 18.479167 22.875 C 18.46875 22.895833 18.6875 23 18.885417 23.0625 C 19.385417 23.208333 20.416667 23.270833 21.125 23.177083 C 21.9375 23.072917 22.833333 22.802083 23.583333 22.427083 C 23.854167 22.291667 24.010417 22.197917 24.375 21.958333 C 24.541667 21.854167 24.666667 21.770833 24.677083 21.78125 C 24.677083 21.78125 24.65625 21.802083 24.614583 21.833333 C 23.604167 22.604167 22.125 23.135417 20.6875 23.260417 C 20.416667 23.28125 19.885417 23.28125 19.625 23.260417 C 19.197917 23.21875 18.739583 23.114583 18.395833 22.979167 C 17.979167 22.802083 17.75 22.583333 17.541667 22.125 C 17.34375 21.729167 17.104167 20.916667 17.177083 20.9375 C 17.1875 20.9375 17.21875 20.90625 17.25 20.875 Z M 15.864583 20.822917 C 15.885417 20.822917 15.895833 20.833333 15.90625 20.84375 C 15.916667 20.864583 15.927083 20.885417 15.927083 20.895833 C 15.927083 20.90625 15.864583 20.927083 15.791667 20.947917 C 15.71875 20.96875 15.614583 21 15.5625 21.020833 C 15.447917 21.052083 15.427083 21.052083 15.427083 21 C 15.427083 20.947917 15.479167 20.927083 15.739583 20.854167 C 15.802083 20.833333 15.84375 20.822917 15.864583 20.822917 Z M 16.760417 20.84375 C 16.885417 20.84375 16.989583 20.854167 17.041667 20.875 C 17.114583 20.90625 17.114583 20.90625 17.135417 21.072917 C 17.145833 21.166667 17.15625 21.25 17.145833 21.260417 C 17.135417 21.260417 16.854167 21.364583 16.5 21.489583 L 15.875 21.708333 L 15.239583 21.822917 C 14.895833 21.895833 14.59375 21.947917 14.5625 21.958333 C 14.520833 21.96875 14.510417 21.958333 14.46875 21.854167 C 14.447917 21.791667 14.427083 21.729167 14.427083 21.708333 C 14.427083 21.65625 14.604167 21.489583 14.75 21.395833 C 15.125 21.166667 15.78125 20.947917 16.354167 20.864583 C 16.479167 20.84375 16.625 20.833333 16.760417 20.84375 Z M 12.479167 20.885417 C 12.875 20.885417 13.270833 20.947917 13.53125 21.041667 C 13.729167 21.114583 13.989583 21.25 14.020833 21.302083 C 14.03125 21.322917 14.052083 21.354167 14.083333 21.375 C 14.104167 21.395833 14.145833 21.46875 14.177083 21.541667 C 14.21875 21.614583 14.260417 21.6875 14.270833 21.697917 C 14.322917 21.739583 14.40625 21.947917 14.46875 22.166667 C 14.666667 22.885417 14.677083 23.4375 14.479167 23.8125 C 14.322917 24.125 13.78125 24.666667 13.3125 24.979167 C 12.333333 25.625 11.09375 26.052083 9.75 26.177083 C 9.239583 26.21875 8.53125 26.197917 8.25 26.125 C 8.177083 26.114583 8.177083 26.104167 8.28125 26.114583 C 8.333333 26.125 8.458333 26.135417 8.541667 26.145833 C 8.791667 26.177083 9.510417 26.177083 9.84375 26.135417 C 10.6875 26.052083 11.479167 25.84375 12.208333 25.520833 C 12.53125 25.375 12.90625 25.166667 12.989583 25.09375 C 13.010417 25.072917 13.125 24.989583 13.229167 24.90625 C 13.822917 24.489583 14.28125 23.979167 14.395833 23.614583 C 14.40625 23.5625 14.427083 23.53125 14.427083 23.541667 C 14.46875 23.5625 14.5 23.333333 14.5 23.083333 C 14.489583 22.854167 14.479167 22.760417 14.427083 22.447917 C 14.322917 21.9375 14.302083 21.875 14.208333 21.71875 C 14.104167 21.5625 14 21.458333 13.822917 21.354167 C 13.375 21.09375 12.822917 20.979167 11.9375 20.96875 L 11.708333 20.958333 L 11.895833 20.9375 L 12.072917 20.916667 L 11.947917 20.90625 C 11.854167 20.90625 11.885417 20.90625 12.09375 20.885417 C 12.21875 20.875 12.354167 20.875 12.479167 20.885417 Z M 11.677083 20.96875 C 11.677083 20.979167 11.552083 21 11.395833 21.010417 C 9.802083 21.208333 8.604167 21.635417 7.416667 22.4375 C 7.010417 22.708333 6.739583 22.916667 6.583333 23.072917 C 6.416667 23.239583 6.385417 23.291667 6.34375 23.479167 C 6.291667 23.760417 6.40625 24.302083 6.635417 24.854167 C 6.6875 24.947917 6.71875 25.041667 6.71875 25.052083 C 6.71875 25.0625 6.697917 25.072917 6.677083 25.083333 C 6.635417 25.09375 6.552083 24.989583 6.4375 24.75 C 6.354167 24.5625 6.25 24.229167 6.270833 24.21875 C 6.333333 24.197917 6.333333 24.1875 6.28125 24.072917 C 6.25 24 6.229167 23.916667 6.21875 23.770833 C 6.1875 23.520833 6.21875 23.427083 6.354167 23.21875 C 6.479167 23.03125 6.635417 22.864583 6.9375 22.635417 C 7.989583 21.822917 9.177083 21.302083 10.46875 21.072917 C 10.895833 21 11.677083 20.9375 11.677083 20.96875 Z M 12.479167 21.041667 C 13.0625 21.0625 13.46875 21.1875 13.854167 21.4375 C 14.010417 21.541667 14.072917 21.614583 14.166667 21.802083 C 14.270833 22.010417 14.270833 22.010417 14.177083 22.03125 C 13.635417 22.114583 11.135417 22.625 9.9375 22.895833 C 9.59375 22.979167 9.572917 23.010417 9.635417 23.270833 C 9.645833 23.333333 9.65625 23.395833 9.65625 23.416667 C 9.65625 23.447917 9.395833 23.541667 8.947917 23.666667 C 8.395833 23.822917 6.6875 24.25 6.635417 24.25 C 6.604167 24.25 6.552083 24.25 6.53125 24.260417 C 6.479167 24.28125 6.46875 24.260417 6.458333 24.15625 C 6.458333 24.083333 6.427083 24.09375 7.385417 23.791667 C 8.291667 23.489583 8.59375 23.395833 8.96875 23.302083 C 9.322917 23.208333 9.333333 23.197917 9.208333 23.21875 C 9.010417 23.239583 8.6875 23.333333 7.989583 23.5625 C 6.854167 23.9375 6.46875 24.052083 6.427083 24.010417 C 6.395833 23.979167 6.385417 23.583333 6.40625 23.479167 C 6.458333 23.260417 6.645833 23.052083 7.041667 22.75 C 7.958333 22.03125 8.885417 21.583333 9.979167 21.302083 C 10.552083 21.15625 11.104167 21.083333 11.833333 21.041667 C 12.072917 21.03125 12.291667 21.03125 12.479167 21.041667 Z M 20.791667 21.833333 C 21.59375 21.84375 22.354167 21.927083 23.322917 22.104167 C 23.583333 22.15625 23.791667 22.1875 23.802083 22.1875 C 23.854167 22.1875 23.760417 22.25 23.510417 22.375 C 22.729167 22.760417 21.864583 23.020833 20.989583 23.114583 C 20.6875 23.15625 20.083333 23.166667 19.822917 23.145833 C 19.083333 23.083333 18.427083 22.875 18.125 22.604167 C 17.96875 22.458333 17.75 22.15625 17.78125 22.125 C 17.791667 22.114583 17.90625 22.09375 18.03125 22.072917 C 19.145833 21.90625 19.989583 21.833333 20.791667 21.833333 Z M 18.614583 22.927083 C 18.614583 22.916667 18.635417 22.927083 18.65625 22.9375 C 18.677083 22.947917 18.802083 22.989583 18.927083 23.020833 C 19.052083 23.0625 19.135417 23.083333 19.114583 23.083333 C 19.03125 23.083333 18.59375 22.9375 18.614583 22.927083 Z M 14.416667 23.010417 C 14.427083 23.010417 14.4375 23.083333 14.427083 23.229167 C 14.40625 23.59375 14.3125 23.8125 14.03125 24.145833 C 13.333333 24.979167 12.125 25.625 10.708333 25.927083 C 10.53125 25.958333 10.395833 25.989583 10.385417 25.989583 C 10.354167 25.854167 10.3125 25.697917 10.291667 25.552083 L 10.239583 25.427083 L 10.21875 25.270833 L 10.385417 25.125 C 11.239583 24.46875 12.239583 23.895833 13.385417 23.427083 C 13.864583 23.21875 14.395833 23.010417 14.416667 23.010417 Z M 19.177083 23.09375 C 19.1875 23.09375 19.208333 23.09375 19.21875 23.09375 C 19.239583 23.104167 19.229167 23.104167 19.197917 23.104167 C 19.177083 23.104167 19.166667 23.104167 19.177083 23.09375 Z M 19.291667 23.114583 C 19.302083 23.114583 19.322917 23.114583 19.34375 23.114583 C 19.354167 23.125 19.34375 23.125 19.3125 23.125 C 19.291667 23.125 19.28125 23.125 19.291667 23.114583 Z M 19.427083 23.135417 C 19.4375 23.125 19.458333 23.125 19.46875 23.135417 C 19.46875 23.145833 19.458333 23.145833 19.4375 23.145833 C 19.416667 23.145833 19.416667 23.135417 19.427083 23.135417 Z M 11.541667 23.322917 C 11.552083 23.322917 11.427083 23.385417 11.28125 23.46875 C 10.458333 23.895833 9.708333 24.416667 8.645833 25.3125 C 8.458333 25.458333 8.21875 25.666667 8.114583 25.760417 C 8.010417 25.854167 7.916667 25.9375 7.916667 25.9375 C 7.875 25.927083 7.583333 25.8125 7.510417 25.770833 C 7.197917 25.59375 6.927083 25.270833 6.708333 24.833333 C 6.625 24.6875 6.53125 24.447917 6.53125 24.427083 C 6.53125 24.385417 7.5 24.104167 8.510417 23.854167 C 9.083333 23.708333 9.21875 23.677083 9.5625 23.552083 L 9.677083 23.5 L 9.729167 23.552083 C 9.75 23.583333 9.791667 23.614583 9.822917 23.614583 C 9.875 23.625 10.166667 23.583333 10.979167 23.427083 C 11.28125 23.364583 11.53125 23.322917 11.541667 23.322917 Z M 6.208333 24.25 C 6.208333 24.260417 6.21875 24.291667 6.229167 24.333333 L 6.229167 24.395833 L 6.0625 24.4375 C 5.90625 24.479167 5.78125 24.489583 5.729167 24.46875 C 5.697917 24.458333 5.697917 24.395833 5.71875 24.375 C 5.770833 24.354167 6.1875 24.239583 6.208333 24.25 Z M 10.020833 25.552083 C 10.03125 25.572917 10.03125 25.635417 10.052083 25.6875 C 10.0625 25.770833 10.072917 25.78125 10.114583 25.78125 C 10.15625 25.78125 10.166667 25.802083 10.1875 25.989583 C 10.1875 26.010417 10.145833 26.03125 10.020833 26.041667 C 9.927083 26.052083 9.708333 26.072917 9.541667 26.083333 L 9.229167 26.09375 L 9.322917 26.010417 C 9.375 25.958333 9.541667 25.8125 9.708333 25.677083 Z M 10.020833 25.552083 " transform="matrix(0.375,0,0,0.375,0,0)"/>
</g>
</svg>
