<?xml version="1.0" encoding="UTF-8"?>
<svg xmlns="http://www.w3.org/2000/svg" xmlns:xlink="http://www.w3.org/1999/xlink" width="12pt" height="12pt" viewBox="0 0 12 12" version="1.1">
<g id="surface1">
<path style=" stroke:none;fill-rule:evenodd;fill:rgb(36.470588%,70.588235%,24.313725%);fill-opacity:1;" d="M 2.800781 0.710938 L 9.199219 0.710938 C 10.351562 0.710938 11.289062 1.648438 11.289062 2.800781 L 11.289062 9.199219 C 11.289062 10.351562 10.351562 11.289062 9.199219 11.289062 L 2.800781 11.289062 C 1.648438 11.289062 0.710938 10.351562 0.710938 9.199219 L 0.710938 2.800781 C 0.710938 1.648438 1.648438 0.710938 2.800781 0.710938 Z M 2.800781 0.710938 "/>
<path style=" stroke:none;fill-rule:nonzero;fill:rgb(100%,100%,100%);fill-opacity:1;" d="M 8.074219 2.625 C 6.742188 2.625 6.492188 4.628906 7.242188 4.628906 C 7.992188 4.628906 9.410156 2.625 8.074219 2.625 Z M 6.023438 2.933594 C 6 2.933594 5.976562 2.933594 5.953125 2.9375 C 5.199219 3.03125 5.464844 4.296875 5.867188 4.320312 C 6.257812 4.34375 6.683594 2.933594 6.023438 2.933594 Z M 4.710938 3.398438 C 4.664062 3.398438 4.613281 3.40625 4.558594 3.429688 C 3.949219 3.675781 4.464844 4.695312 4.804688 4.625 C 5.113281 4.5625 5.15625 3.429688 4.710938 3.398438 Z M 3.722656 4.230469 C 3.667969 4.230469 3.609375 4.25 3.550781 4.292969 C 3.0625 4.652344 3.714844 5.519531 4 5.382812 C 4.25 5.265625 4.089844 4.246094 3.71875 4.230469 Z M 6.589844 5.058594 C 5.539062 5.042969 4.148438 5.570312 3.910156 6.632812 C 3.65625 7.78125 4.96875 9.375 6.339844 9.375 C 7.011719 9.375 7.789062 8.765625 7.933594 7.996094 C 8.046875 7.40625 6.628906 7.640625 6.679688 8.03125 C 6.738281 8.496094 6.335938 8.726562 5.941406 8.429688 C 4.683594 7.46875 8.023438 6.992188 7.800781 5.683594 C 7.734375 5.277344 7.222656 5.070312 6.589844 5.058594 Z M 6.589844 5.058594 "/>
</g>
</svg>
