<?xml version="1.0" encoding="UTF-8"?>
<svg xmlns="http://www.w3.org/2000/svg" xmlns:xlink="http://www.w3.org/1999/xlink" width="12pt" height="12pt" viewBox="0 0 12 12" version="1.1">
<g id="surface1">
<path style=" stroke:none;fill-rule:evenodd;fill:rgb(29.019608%,70.196078%,40.392157%);fill-opacity:1;" d="M 2.800781 0.710938 L 9.199219 0.710938 C 10.351562 0.710938 11.289062 1.648438 11.289062 2.800781 L 11.289062 9.199219 C 11.289062 10.351562 10.351562 11.289062 9.199219 11.289062 L 2.800781 11.289062 C 1.648438 11.289062 0.710938 10.351562 0.710938 9.199219 L 0.710938 2.800781 C 0.710938 1.648438 1.648438 0.710938 2.800781 0.710938 Z M 2.800781 0.710938 "/>
<path style=" stroke:none;fill-rule:nonzero;fill:rgb(97.647059%,97.647059%,97.647059%);fill-opacity:1;" d="M 3.0625 3.9375 L 4.0625 3.9375 C 4.199219 3.9375 4.3125 4.039062 4.3125 4.164062 L 4.3125 7.832031 C 4.3125 7.960938 4.199219 8.0625 4.0625 8.0625 L 3.0625 8.0625 C 2.925781 8.0625 2.8125 7.960938 2.8125 7.832031 L 2.8125 4.164062 C 2.8125 4.039062 2.925781 3.9375 3.0625 3.9375 "/>
<path style=" stroke:none;fill-rule:nonzero;fill:rgb(97.647059%,97.647059%,97.647059%);fill-opacity:1;" d="M 4.921875 3.9375 C 4.792969 3.9375 4.6875 4.039062 4.6875 4.164062 L 4.6875 7.832031 C 4.6875 7.957031 4.792969 8.0625 4.921875 8.0625 C 5.632812 8.0625 6.34375 8.0625 7.054688 8.0625 C 8.234375 8.0625 9.1875 7.140625 9.1875 6 C 9.1875 4.859375 8.234375 3.9375 7.054688 3.9375 Z M 4.921875 3.9375 "/>
</g>
</svg>
