<?xml version="1.0" encoding="UTF-8"?>
<svg xmlns="http://www.w3.org/2000/svg" xmlns:xlink="http://www.w3.org/1999/xlink" width="12pt" height="12pt" viewBox="0 0 12 12" version="1.1">
<g id="surface1">
<path style=" stroke:none;fill-rule:evenodd;fill:rgb(12.54902%,58.431373%,94.901961%);fill-opacity:1;" d="M 2.800781 0.710938 L 9.199219 0.710938 C 10.351562 0.710938 11.289062 1.648438 11.289062 2.800781 L 11.289062 9.199219 C 11.289062 10.351562 10.351562 11.289062 9.199219 11.289062 L 2.800781 11.289062 C 1.648438 11.289062 0.710938 10.351562 0.710938 9.199219 L 0.710938 2.800781 C 0.710938 1.648438 1.648438 0.710938 2.800781 0.710938 Z M 2.800781 0.710938 "/>
<path style=" stroke:none;fill-rule:nonzero;fill:rgb(100%,100%,100%);fill-opacity:1;" d="M 3.714844 9.898438 C 2.613281 9.535156 2.257812 8.527344 3.058594 8.027344 C 3.328125 7.859375 3.894531 7.863281 4.261719 8.03125 C 4.410156 8.101562 4.550781 8.132812 4.578125 8.105469 C 4.644531 8.039062 4.765625 7.363281 5.058594 5.46875 C 5.308594 3.835938 5.347656 3.273438 5.234375 2.941406 C 5.183594 2.792969 5.183594 2.722656 5.242188 2.652344 C 5.429688 2.421875 7.070312 2.0625 7.929688 2.0625 C 8.636719 2.0625 9.023438 2.265625 9.273438 2.765625 C 9.699219 3.617188 8.769531 5.078125 7.175781 6.0625 L 7.007812 6.167969 L 7.136719 6.429688 C 7.390625 6.941406 7.90625 7.695312 8.214844 8.007812 C 8.390625 8.179688 8.53125 8.355469 8.53125 8.394531 C 8.53125 8.4375 8.414062 8.464844 8.234375 8.464844 C 7.65625 8.464844 7.0625 8.03125 6.261719 7.035156 C 6.140625 6.882812 6.027344 6.769531 6.007812 6.789062 C 5.992188 6.804688 5.894531 7.253906 5.792969 7.78125 C 5.558594 9.003906 5.351562 9.464844 4.914062 9.734375 C 4.683594 9.878906 4.53125 9.921875 4.242188 9.933594 C 4.039062 9.945312 3.800781 9.929688 3.714844 9.898438 Z M 6.976562 4.886719 C 7.445312 4.546875 7.847656 4.152344 8.097656 3.78125 C 8.257812 3.542969 8.320312 3.492188 8.429688 3.523438 C 8.519531 3.546875 8.503906 3.523438 8.378906 3.449219 C 8.066406 3.261719 6.699219 3.355469 6.527344 3.578125 C 6.464844 3.664062 6.214844 5.242188 6.257812 5.3125 C 6.289062 5.367188 6.421875 5.289062 6.976562 4.886719 Z M 6.976562 4.886719 "/>
</g>
</svg>
