<?xml version="1.0" encoding="UTF-8"?>
<svg xmlns="http://www.w3.org/2000/svg" xmlns:xlink="http://www.w3.org/1999/xlink" width="12pt" height="12pt" viewBox="0 0 12 12" version="1.1">
<g id="surface1">
<path style=" stroke:none;fill-rule:evenodd;fill:rgb(32.156863%,51.764706%,37.254902%);fill-opacity:1;" d="M 2.800781 0.710938 L 9.199219 0.710938 C 10.351562 0.710938 11.289062 1.648438 11.289062 2.800781 L 11.289062 9.199219 C 11.289062 10.351562 10.351562 11.289062 9.199219 11.289062 L 2.800781 11.289062 C 1.648438 11.289062 0.710938 10.351562 0.710938 9.199219 L 0.710938 2.800781 C 0.710938 1.648438 1.648438 0.710938 2.800781 0.710938 Z M 2.800781 0.710938 "/>
<path style=" stroke:none;fill-rule:evenodd;fill:rgb(32.156863%,51.764706%,37.254902%);fill-opacity:1;" d="M 8.625 11.289062 L 8.625 4.945312 L 3.375 4.945312 L 3.375 6.445312 L 6.601562 6.445312 C 6.746094 6.445312 6.875 6.503906 6.972656 6.597656 C 7.066406 6.695312 7.125 6.824219 7.125 6.96875 L 7.125 11.289062 Z M 8.625 11.289062 "/>
<path style=" stroke:none;fill-rule:evenodd;fill:rgb(98.431373%,76.078431%,58.431373%);fill-opacity:1;" d="M 9.75 11.175781 L 9.75 4.457031 C 9.75 4.28125 9.675781 4.125 9.558594 4.007812 C 9.441406 3.894531 9.285156 3.820312 9.113281 3.820312 L 2.886719 3.820312 C 2.714844 3.820312 2.558594 3.894531 2.441406 4.007812 C 2.324219 4.125 2.25 4.28125 2.25 4.457031 L 2.25 6.933594 C 2.25 7.105469 2.324219 7.265625 2.441406 7.382812 C 2.558594 7.5 2.714844 7.574219 2.886719 7.570312 L 6 7.570312 L 6 11.289062 L 7.125 11.289062 L 7.125 6.96875 C 7.125 6.824219 7.066406 6.695312 6.972656 6.597656 C 6.875 6.503906 6.746094 6.445312 6.601562 6.445312 L 3.375 6.445312 L 3.375 4.945312 L 8.625 4.945312 L 8.625 11.289062 L 9.199219 11.289062 C 9.394531 11.289062 9.570312 11.226562 9.75 11.175781 Z M 9.75 11.175781 "/>
<path style=" stroke:none;fill-rule:evenodd;fill:rgb(32.156863%,51.764706%,37.254902%);fill-opacity:1;" d="M 2.800781 0.710938 C 1.644531 0.710938 0.710938 1.644531 0.710938 2.800781 L 0.710938 9.199219 C 0.710938 10.355469 1.644531 11.289062 2.800781 11.289062 L 6 11.289062 L 6 7.570312 L 2.886719 7.570312 C 2.714844 7.574219 2.558594 7.5 2.441406 7.382812 C 2.324219 7.265625 2.25 7.105469 2.25 6.933594 L 2.25 4.457031 C 2.25 4.28125 2.324219 4.125 2.441406 4.007812 C 2.558594 3.894531 2.714844 3.820312 2.886719 3.820312 L 9.113281 3.820312 C 9.285156 3.820312 9.441406 3.894531 9.558594 4.007812 C 9.675781 4.125 9.75 4.28125 9.75 4.457031 L 9.75 11.175781 C 10.632812 10.929688 11.289062 10.160156 11.289062 9.199219 L 11.289062 2.800781 C 11.289062 1.644531 10.355469 0.710938 9.199219 0.710938 Z M 2.800781 0.710938 "/>
</g>
</svg>
