<?xml version="1.0" encoding="UTF-8"?>
<svg xmlns="http://www.w3.org/2000/svg" xmlns:xlink="http://www.w3.org/1999/xlink" width="12pt" height="12pt" viewBox="0 0 12 12" version="1.1">
<defs>
<clipPath id="clip1">
  <rect width="12" height="12"/>
</clipPath>
<g id="surface6" clip-path="url(#clip1)">
<path style=" stroke:none;fill-rule:nonzero;fill:rgb(100%,66.27451%,17.254902%);fill-opacity:1;" d="M 4.3125 3.9375 L 4.3125 4.3125 L 5.4375 4.3125 L 5.4375 4.6875 L 3.9375 4.6875 L 3.9375 5.8125 L 3.5625 5.8125 L 3.5625 4.6875 L 3.1875 4.6875 L 3.1875 7.3125 L 3.5625 7.3125 L 3.5625 6.1875 L 3.9375 6.1875 L 3.9375 7.3125 L 4.6875 8.0625 L 7.125 8.0625 L 7.5 7.6875 L 8.0625 7.6875 L 8.0625 8.0625 L 8.4375 8.0625 L 8.8125 7.6875 L 8.8125 5.4375 L 8.4375 5.0625 L 8.0625 5.0625 L 8.0625 5.4375 L 7.734375 5.4375 L 6.984375 4.6875 L 5.8125 4.6875 L 5.8125 4.3125 L 6.9375 4.3125 L 6.9375 3.9375 Z M 4.3125 5.0625 L 6.75 5.0625 L 7.5 5.8125 L 8.4375 5.8125 L 8.4375 7.3125 L 7.3125 7.3125 L 6.9375 7.6875 L 4.921875 7.6875 L 4.3125 7.050781 Z M 4.3125 5.0625 "/>
</g>
<clipPath id="clip2">
  <rect width="12" height="12"/>
</clipPath>
<g id="surface9" clip-path="url(#clip2)">
<path style=" stroke:none;fill-rule:evenodd;fill:rgb(24.705882%,57.254902%,90.588235%);fill-opacity:1;" d="M 10.757812 8.515625 C 10.757812 9.757812 9.75 10.765625 8.507812 10.765625 C 7.265625 10.765625 6.257812 9.757812 6.257812 8.515625 C 6.257812 7.273438 7.265625 6.265625 8.507812 6.265625 C 9.75 6.265625 10.757812 7.273438 10.757812 8.515625 Z M 10.757812 8.515625 "/>
</g>
<clipPath id="clip3">
  <rect width="12" height="12"/>
</clipPath>
<g id="surface12" clip-path="url(#clip3)">
<path style=" stroke:none;fill-rule:nonzero;fill:rgb(100%,100%,100%);fill-opacity:1;" d="M 8.226562 7.390625 L 8.199219 7.6875 C 8.105469 7.722656 8.019531 7.773438 7.941406 7.835938 L 7.671875 7.710938 L 7.390625 8.195312 L 7.636719 8.367188 C 7.628906 8.414062 7.621094 8.464844 7.621094 8.515625 C 7.621094 8.566406 7.625 8.617188 7.636719 8.664062 L 7.390625 8.835938 L 7.671875 9.320312 L 7.941406 9.195312 C 8.019531 9.257812 8.105469 9.308594 8.199219 9.34375 L 8.226562 9.640625 L 8.789062 9.640625 L 8.8125 9.34375 C 8.90625 9.308594 8.992188 9.257812 9.070312 9.195312 L 9.339844 9.320312 L 9.621094 8.835938 L 9.375 8.664062 C 9.386719 8.617188 9.390625 8.566406 9.390625 8.515625 C 9.390625 8.464844 9.386719 8.414062 9.378906 8.367188 L 9.621094 8.195312 L 9.339844 7.710938 L 9.070312 7.835938 C 8.996094 7.773438 8.90625 7.722656 8.8125 7.6875 L 8.789062 7.390625 Z M 8.507812 8.195312 C 8.683594 8.195312 8.828125 8.339844 8.828125 8.515625 C 8.828125 8.691406 8.683594 8.835938 8.507812 8.835938 C 8.328125 8.835938 8.183594 8.691406 8.183594 8.515625 C 8.183594 8.339844 8.328125 8.195312 8.507812 8.195312 Z M 8.507812 8.195312 "/>
</g>
</defs>
<g id="surface1">
<path style=" stroke:none;fill-rule:evenodd;fill:rgb(30.980392%,30.980392%,30.980392%);fill-opacity:1;" d="M 2.800781 0.710938 L 9.199219 0.710938 C 10.351562 0.710938 11.289062 1.648438 11.289062 2.800781 L 11.289062 9.199219 C 11.289062 10.351562 10.351562 11.289062 9.199219 11.289062 L 2.800781 11.289062 C 1.648438 11.289062 0.710938 10.351562 0.710938 9.199219 L 0.710938 2.800781 C 0.710938 1.648438 1.648438 0.710938 2.800781 0.710938 Z M 2.800781 0.710938 "/>
<use xlink:href="#surface6"/>
<use xlink:href="#surface9"/>
<use xlink:href="#surface12"/>
</g>
</svg>
