<?xml version="1.0" encoding="UTF-8"?>
<svg xmlns="http://www.w3.org/2000/svg" xmlns:xlink="http://www.w3.org/1999/xlink" width="12pt" height="12pt" viewBox="0 0 12 12" version="1.1">
<g id="surface1">
<path style=" stroke:none;fill-rule:evenodd;fill:rgb(18.823529%,23.137255%,70.980392%);fill-opacity:1;" d="M 2.800781 0.710938 L 9.199219 0.710938 C 10.351562 0.710938 11.289062 1.648438 11.289062 2.800781 L 11.289062 9.199219 C 11.289062 10.351562 10.351562 11.289062 9.199219 11.289062 L 2.800781 11.289062 C 1.648438 11.289062 0.710938 10.351562 0.710938 9.199219 L 0.710938 2.800781 C 0.710938 1.648438 1.648438 0.710938 2.800781 0.710938 Z M 2.800781 0.710938 "/>
<path style=" stroke:none;fill-rule:nonzero;fill:rgb(100%,100%,100%);fill-opacity:1;" d="M 3.171875 6.097656 C 3.632812 5.6875 4.210938 5.398438 4.902344 5.242188 C 4.476562 4.929688 4.21875 4.65625 3.957031 4.289062 C 3.835938 4.125 3.964844 4.03125 4.132812 3.902344 C 5.132812 3.519531 6.882812 3.300781 7.773438 3.957031 C 8.007812 4.148438 7.484375 4.46875 7.230469 4.566406 C 8.164062 4.730469 8.882812 4.996094 9.292969 5.625 C 9.933594 4.675781 9.675781 3.292969 8.949219 2.84375 C 8.222656 2.394531 5.722656 1.445312 2.933594 2.757812 C 1.675781 3.367188 2.207031 4.808594 3.171875 6.097656 Z M 3.171875 6.097656 "/>
<path style=" stroke:none;fill-rule:nonzero;fill:rgb(100%,100%,100%);fill-opacity:1;" d="M 3.5625 6.441406 C 4.867188 6.117188 6.191406 5.792969 8.011719 6.441406 C 7.183594 4.773438 5.023438 5.417969 3.5625 6.441406 Z M 3.5625 6.441406 "/>
<path style=" stroke:none;fill-rule:nonzero;fill:rgb(100%,100%,100%);fill-opacity:1;" d="M 6.921875 5.292969 C 8.777344 6.039062 9.554688 7.96875 7.019531 8.742188 C 5.75 9.160156 3.652344 8.824219 3.089844 8.402344 C 2.644531 8.0625 3.15625 7.519531 3.78125 7.296875 C 3.015625 7.296875 2.605469 7.488281 2.355469 7.914062 C 2.226562 8.210938 2.261719 8.398438 2.292969 8.523438 C 3.179688 10.667969 9.621094 10.296875 9.804688 7.628906 C 9.855469 6.195312 8.175781 5.34375 6.921875 5.292969 Z M 6.921875 5.292969 "/>
<path style=" stroke:none;fill-rule:evenodd;fill:rgb(76.470588%,71.372549%,58.039216%);fill-opacity:1;" d="M 7.253906 7.5 C 7.253906 8.214844 6.675781 8.792969 5.960938 8.792969 C 5.246094 8.792969 4.667969 8.214844 4.667969 7.5 C 4.667969 6.785156 5.246094 6.207031 5.960938 6.207031 C 6.675781 6.207031 7.253906 6.785156 7.253906 7.5 Z M 7.253906 7.5 "/>
<path style=" stroke:none;fill-rule:evenodd;fill:rgb(3.137255%,14.509804%,52.156863%);fill-opacity:1;" d="M 7.003906 7.507812 C 7.003906 8.082031 6.539062 8.542969 5.96875 8.542969 C 5.394531 8.542969 4.929688 8.082031 4.929688 7.507812 C 4.929688 6.9375 5.394531 6.472656 5.96875 6.472656 C 6.539062 6.472656 7.003906 6.9375 7.003906 7.507812 Z M 7.003906 7.507812 "/>
<path style=" stroke:none;fill-rule:evenodd;fill:rgb(100%,100%,100%);fill-opacity:1;" d="M 6.183594 8.332031 L 5.984375 7.941406 L 5.8125 8.347656 L 5.800781 7.90625 L 5.46875 8.199219 L 5.652344 7.796875 L 5.226562 7.914062 L 5.566406 7.632812 L 5.128906 7.554688 L 5.558594 7.445312 L 5.199219 7.1875 L 5.632812 7.277344 L 5.421875 6.886719 L 5.773438 7.15625 L 5.75 6.714844 L 5.953125 7.105469 L 6.125 6.699219 L 6.132812 7.140625 L 6.464844 6.847656 L 6.285156 7.25 L 6.707031 7.132812 L 6.371094 7.414062 L 6.804688 7.492188 L 6.378906 7.601562 L 6.734375 7.859375 L 6.304688 7.769531 L 6.515625 8.160156 L 6.164062 7.890625 Z M 6.183594 8.332031 "/>
</g>
</svg>
