<?xml version="1.0" encoding="UTF-8"?>
<svg xmlns="http://www.w3.org/2000/svg" xmlns:xlink="http://www.w3.org/1999/xlink" width="12pt" height="12pt" viewBox="0 0 12 12" version="1.1">
<g id="surface1">
<path style=" stroke:none;fill-rule:evenodd;fill:rgb(48.627451%,62.352941%,100%);fill-opacity:1;" d="M 2.800781 0.710938 L 9.199219 0.710938 C 10.351562 0.710938 11.289062 1.648438 11.289062 2.800781 L 11.289062 9.199219 C 11.289062 10.351562 10.351562 11.289062 9.199219 11.289062 L 2.800781 11.289062 C 1.648438 11.289062 0.710938 10.351562 0.710938 9.199219 L 0.710938 2.800781 C 0.710938 1.648438 1.648438 0.710938 2.800781 0.710938 Z M 2.800781 0.710938 "/>
<path style=" stroke:none;fill-rule:nonzero;fill:rgb(100%,100%,100%);fill-opacity:1;" d="M 5.515625 3.625 C 6.277344 3.625 6.894531 4.242188 6.894531 5.003906 C 6.894531 5.765625 6.277344 6.382812 5.515625 6.382812 C 4.753906 6.382812 4.136719 5.765625 4.136719 5.003906 C 4.136719 4.242188 4.753906 3.625 5.515625 3.625 Z M 5.515625 3.625 "/>
<path style=" stroke:none;fill-rule:nonzero;fill:rgb(100%,100%,100%);fill-opacity:1;" d="M 5.515625 7.148438 C 8.277344 7.148438 8.277344 8.988281 8.277344 8.988281 L 8.277344 9.449219 L 2.757812 9.449219 L 2.757812 8.988281 C 2.757812 8.988281 2.757812 7.152344 5.515625 7.148438 Z M 5.515625 7.148438 "/>
<path style=" stroke:none;fill-rule:nonzero;fill:rgb(100%,100%,100%);fill-opacity:1;" d="M 8.25 4.894531 C 8.664062 4.894531 9 5.230469 9 5.644531 C 9 6.0625 8.664062 6.394531 8.25 6.394531 C 7.835938 6.394531 7.5 6.0625 7.5 5.644531 C 7.5 5.230469 7.835938 4.894531 8.25 4.894531 Z M 8.25 4.894531 "/>
<path style=" stroke:none;fill-rule:nonzero;fill:rgb(100%,100%,100%);fill-opacity:1;" d="M 8.25 6.769531 C 9.75 6.769531 9.75 7.972656 9.75 7.972656 L 9.75 8.269531 L 6.75 8.269531 L 6.75 7.972656 C 6.75 7.972656 6.75 6.773438 8.25 6.769531 Z M 8.25 6.769531 "/>
</g>
</svg>
