<?xml version="1.0" encoding="UTF-8"?>
<svg xmlns="http://www.w3.org/2000/svg" xmlns:xlink="http://www.w3.org/1999/xlink" width="12pt" height="12pt" viewBox="0 0 12 12" version="1.1">
<defs>
<filter id="alpha" filterUnits="objectBoundingBox" x="0%" y="0%" width="100%" height="100%">
  <feColorMatrix type="matrix" in="SourceGraphic" values="0 0 0 0 1 0 0 0 0 1 0 0 0 0 1 0 0 0 1 0"/>
</filter>
<mask id="mask0">
  <g filter="url(#alpha)">
<rect x="0" y="0" width="12" height="12" style="fill:rgb(0%,0%,0%);fill-opacity:0.501961;stroke:none;"/>
  </g>
</mask>
<clipPath id="clip1">
  <rect width="12" height="12"/>
</clipPath>
<g id="surface6" clip-path="url(#clip1)">
<path style=" stroke:none;fill-rule:nonzero;fill:rgb(100%,74.509804%,13.72549%);fill-opacity:1;" d="M 4.671875 2.492188 L 6.546875 2.492188 L 6.546875 5.117188 L 4.671875 5.117188 Z M 4.671875 2.492188 "/>
</g>
</defs>
<g id="surface1">
<path style=" stroke:none;fill-rule:evenodd;fill:rgb(36.470588%,33.333333%,26.666667%);fill-opacity:1;" d="M 2.800781 0.710938 L 9.199219 0.710938 C 10.351562 0.710938 11.289062 1.648438 11.289062 2.800781 L 11.289062 9.199219 C 11.289062 10.351562 10.351562 11.289062 9.199219 11.289062 L 2.800781 11.289062 C 1.648438 11.289062 0.710938 10.351562 0.710938 9.199219 L 0.710938 2.800781 C 0.710938 1.648438 1.648438 0.710938 2.800781 0.710938 Z M 2.800781 0.710938 "/>
<path style=" stroke:none;fill-rule:nonzero;fill:rgb(100%,74.509804%,13.72549%);fill-opacity:1;" d="M 2.796875 2.492188 L 2.796875 2.867188 L 2.609375 2.867188 C 2.300781 2.867188 2.046875 3.121094 2.046875 3.429688 C 2.046875 3.742188 2.300781 3.992188 2.609375 3.992188 L 2.796875 3.992188 L 2.796875 4.367188 L 2.082031 4.367188 C 2.160156 4.585938 2.367188 4.742188 2.609375 4.742188 L 2.796875 4.742188 L 2.796875 5.117188 L 3.171875 5.117188 L 3.171875 4.742188 L 3.359375 4.742188 C 3.671875 4.742188 3.921875 4.492188 3.921875 4.179688 C 3.921875 3.871094 3.671875 3.617188 3.359375 3.617188 L 3.171875 3.617188 L 3.171875 3.242188 L 3.890625 3.242188 C 3.8125 3.023438 3.605469 2.867188 3.359375 2.867188 L 3.171875 2.867188 L 3.171875 2.492188 Z M 2.609375 3.242188 L 2.796875 3.242188 L 2.796875 3.617188 L 2.609375 3.617188 C 2.507812 3.617188 2.421875 3.535156 2.421875 3.429688 C 2.421875 3.328125 2.507812 3.242188 2.609375 3.242188 Z M 3.171875 3.992188 L 3.359375 3.992188 C 3.464844 3.992188 3.546875 4.078125 3.546875 4.179688 C 3.546875 4.285156 3.464844 4.375 3.359375 4.367188 L 3.171875 4.367188 Z M 3.171875 3.992188 "/>
<use xlink:href="#surface6" mask="url(#mask0)"/>
</g>
</svg>
