<?xml version="1.0" encoding="UTF-8"?>
<svg xmlns="http://www.w3.org/2000/svg" xmlns:xlink="http://www.w3.org/1999/xlink" width="12pt" height="12pt" viewBox="0 0 12 12" version="1.1">
<g id="surface1">
<path style=" stroke:none;fill-rule:evenodd;fill:rgb(92.156863%,92.156863%,92.156863%);fill-opacity:1;" d="M 2.648438 3.269531 C 2.609375 3.308594 2.554688 3.339844 2.519531 3.378906 C 2.359375 3.570312 2.203125 3.789062 2.085938 4.027344 C 1.964844 4.265625 1.878906 4.523438 1.855469 4.785156 C 1.832031 5.046875 1.851562 5.300781 1.914062 5.546875 C 1.976562 5.792969 2.078125 6.027344 2.214844 6.246094 C 1.921875 6.09375 1.691406 6.007812 1.519531 5.742188 C 1.476562 5.707031 1.492188 5.84375 1.5 5.96875 C 1.558594 6.53125 1.660156 7.082031 1.828125 7.613281 L 1.820312 7.609375 C 1.828125 7.621094 1.839844 7.757812 1.914062 7.980469 C 1.988281 8.203125 2.125 8.511719 2.378906 8.867188 C 2.554688 9.121094 2.761719 9.371094 2.984375 9.589844 C 3.207031 9.8125 3.445312 10.003906 3.691406 10.144531 C 3.835938 10.230469 3.953125 10.390625 4.109375 10.414062 C 3.804688 10.417969 3.492188 10.332031 3.1875 10.183594 C 2.882812 10.035156 2.585938 9.824219 2.3125 9.574219 C 2.039062 9.324219 1.785156 9.039062 1.566406 8.738281 C 1.347656 8.4375 1.164062 8.125 1.03125 7.824219 C 0.898438 7.492188 0.785156 7.152344 0.710938 6.804688 L 0.710938 9.199219 C 0.710938 10.355469 1.644531 11.289062 2.800781 11.289062 L 9.199219 11.289062 C 10.355469 11.289062 11.289062 10.355469 11.289062 9.199219 L 11.289062 6.050781 C 11.296875 6.578125 11.214844 7.125 11.03125 7.664062 C 10.839844 8.21875 10.546875 8.757812 10.15625 9.242188 C 10.148438 9.246094 10.144531 9.253906 10.136719 9.261719 C 10.105469 9.300781 10.078125 9.339844 10.046875 9.382812 C 9.996094 9.445312 9.910156 9.523438 9.859375 9.582031 C 9.484375 10.007812 9.128906 10.203125 9.128906 10.203125 C 8.90625 10.363281 8.679688 10.460938 8.417969 10.542969 C 8.160156 10.628906 7.867188 10.695312 7.519531 10.792969 C 7.898438 10.5625 8.433594 9.8125 8.277344 10.035156 C 8.277344 10.035156 8.070312 10.242188 7.730469 10.441406 C 7.5625 10.539062 7.359375 10.636719 7.128906 10.703125 C 6.902344 10.773438 6.648438 10.808594 6.382812 10.792969 C 6.582031 10.707031 6.828125 10.554688 7.089844 10.34375 C 7.351562 10.132812 7.628906 9.855469 7.890625 9.511719 C 8.148438 9.167969 8.394531 8.757812 8.597656 8.277344 C 8.796875 7.796875 8.953125 7.246094 9.035156 6.625 C 8.808594 6.839844 8.527344 6.933594 8.300781 6.976562 C 8.074219 7.019531 7.902344 7.003906 7.898438 7.003906 C 7.898438 7.003906 7.894531 7.003906 7.894531 7.003906 C 7.894531 7.003906 7.898438 7.003906 7.898438 7.003906 C 8.085938 6.761719 8.199219 6.484375 8.25 6.183594 C 8.304688 5.886719 8.300781 5.566406 8.265625 5.25 C 8.203125 4.761719 8.015625 4.265625 7.75 3.835938 C 7.660156 3.691406 7.445312 3.488281 7.328125 3.367188 C 7.070312 3.480469 6.804688 3.613281 6.539062 3.71875 C 6.273438 3.820312 6.007812 3.898438 5.746094 3.898438 C 5.476562 3.898438 5.238281 3.808594 5.019531 3.75 C 4.796875 3.691406 4.585938 3.660156 4.375 3.78125 C 4.054688 3.929688 3.792969 4.140625 3.472656 4.28125 C 3.328125 4.351562 3.167969 4.425781 3.03125 4.527344 C 2.894531 4.625 2.785156 4.75 2.75 4.914062 C 2.632812 4.785156 2.597656 4.628906 2.605469 4.464844 C 2.609375 4.300781 2.65625 4.132812 2.707031 3.984375 C 2.753906 3.964844 2.691406 3.75 2.699219 3.652344 C 2.683594 3.527344 2.664062 3.398438 2.648438 3.269531 Z M 2.648438 3.269531 "/>
<path style=" stroke:none;fill-rule:nonzero;fill:rgb(21.568627%,32.54902%,53.72549%);fill-opacity:1;" d="M 2.378906 8.867188 C 2.835938 9.527344 3.433594 10.308594 4.109375 10.414062 C 3.84375 10.261719 3.179688 9.660156 2.972656 8.519531 C 3.195312 8.953125 4.191406 9.523438 4.488281 9.65625 C 4.339844 9.515625 3.769531 8.6875 3.730469 8.199219 L 1.820312 7.609375 C 1.832031 7.628906 1.875 8.160156 2.378906 8.867188 Z M 2.378906 8.867188 "/>
<path style=" stroke:none;fill-rule:nonzero;fill:rgb(0%,0%,0%);fill-opacity:0.2;" d="M 9.179688 4.539062 L 5.734375 3.332031 L 2.042969 3.578125 L 1.101562 4.753906 C 1.269531 5.839844 1.164062 7.015625 1.75 7.96875 L 8.277344 10.035156 L 9.175781 7.527344 Z M 9.179688 4.539062 "/>
<path style=" stroke:none;fill-rule:nonzero;fill:rgb(92.156863%,92.156863%,92.156863%);fill-opacity:1;" d="M 9.179688 4.160156 L 5.734375 2.953125 L 2.042969 3.199219 L 1.101562 4.375 C 1.269531 5.460938 1.164062 6.636719 1.75 7.589844 L 8.277344 9.65625 L 9.175781 7.148438 Z M 9.179688 4.160156 "/>
<path style=" stroke:none;fill-rule:nonzero;fill:rgb(0%,0%,0%);fill-opacity:0.2;" d="M 8.902344 5.203125 L 8.390625 3.523438 L 2.136719 3.460938 L 2.101562 3.503906 L 2.042969 3.578125 L 4.410156 6.925781 Z M 8.902344 5.203125 "/>
<path style=" stroke:none;fill-rule:nonzero;fill:rgb(96.862745%,96.862745%,96.862745%);fill-opacity:1;" d="M 8.902344 4.824219 L 8.390625 3.144531 L 2.136719 3.082031 L 2.101562 3.125 L 2.042969 3.199219 L 4.410156 6.546875 Z M 8.902344 4.824219 "/>
<path style=" stroke:none;fill-rule:evenodd;fill:rgb(34.901961%,58.823529%,82.352941%);fill-opacity:1;" d="M 3.839844 0.710938 C 3.824219 0.730469 3.800781 0.738281 3.785156 0.757812 C 3.503906 1.078125 3.289062 1.484375 3.113281 1.839844 C 2.984375 2.066406 2.851562 2.332031 2.742188 2.546875 C 2.632812 2.714844 2.613281 2.898438 2.625 3.085938 C 2.632812 3.273438 2.675781 3.46875 2.699219 3.652344 C 2.691406 3.75 2.753906 3.964844 2.707031 3.984375 C 2.65625 4.132812 2.609375 4.300781 2.605469 4.464844 C 2.597656 4.628906 2.632812 4.785156 2.75 4.914062 C 2.785156 4.75 2.894531 4.625 3.03125 4.527344 C 3.167969 4.425781 3.328125 4.351562 3.472656 4.28125 C 3.792969 4.140625 4.054688 3.929688 4.375 3.78125 C 4.585938 3.660156 4.796875 3.691406 5.019531 3.75 C 5.238281 3.808594 5.476562 3.898438 5.746094 3.898438 C 6.007812 3.898438 6.273438 3.820312 6.539062 3.71875 C 6.804688 3.613281 7.070312 3.480469 7.328125 3.367188 C 7.445312 3.488281 7.660156 3.691406 7.75 3.835938 C 8.015625 4.265625 8.203125 4.761719 8.265625 5.25 C 8.300781 5.566406 8.304688 5.886719 8.25 6.183594 C 8.199219 6.484375 8.085938 6.761719 7.898438 7.003906 C 7.898438 7.003906 7.894531 7.003906 7.894531 7.003906 C 7.894531 7.003906 7.898438 7.003906 7.898438 7.003906 C 7.902344 7.003906 8.074219 7.019531 8.300781 6.976562 C 8.527344 6.933594 8.808594 6.839844 9.035156 6.625 C 8.953125 7.246094 8.796875 7.796875 8.597656 8.277344 C 8.394531 8.757812 8.148438 9.167969 7.890625 9.511719 C 7.628906 9.855469 7.351562 10.132812 7.089844 10.34375 C 6.828125 10.554688 6.582031 10.707031 6.382812 10.792969 C 6.648438 10.808594 6.902344 10.773438 7.128906 10.703125 C 7.359375 10.636719 7.5625 10.539062 7.730469 10.441406 C 8.070312 10.242188 8.277344 10.035156 8.277344 10.035156 C 8.433594 9.8125 7.898438 10.5625 7.519531 10.792969 C 7.867188 10.695312 8.160156 10.628906 8.417969 10.542969 C 8.679688 10.460938 8.90625 10.363281 9.128906 10.203125 C 9.128906 10.203125 9.484375 10.007812 9.859375 9.582031 C 9.910156 9.523438 9.996094 9.445312 10.046875 9.382812 C 10.078125 9.339844 10.105469 9.300781 10.136719 9.261719 C 10.144531 9.253906 10.148438 9.246094 10.15625 9.242188 C 10.546875 8.757812 10.839844 8.21875 11.03125 7.664062 C 11.214844 7.125 11.296875 6.578125 11.289062 6.050781 L 11.289062 2.800781 C 11.289062 1.644531 10.355469 0.710938 9.199219 0.710938 Z M 3.839844 0.710938 "/>
<path style=" stroke:none;fill-rule:nonzero;fill:rgb(25.882353%,44.313725%,63.921569%);fill-opacity:1;" d="M 3.089844 3.972656 C 4.355469 3.9375 3.5625 3.15625 5.246094 1.703125 C 3.875 2.414062 2.566406 2.410156 3.09375 3.972656 Z M 3.089844 3.972656 "/>
<path style=" stroke:none;fill-rule:evenodd;fill:rgb(25.882353%,44.313725%,63.921569%);fill-opacity:1;" d="M 2.800781 0.710938 C 1.644531 0.710938 0.710938 1.644531 0.710938 2.800781 L 0.710938 6.804688 C 0.785156 7.152344 0.898438 7.492188 1.03125 7.824219 C 1.164062 8.125 1.347656 8.4375 1.566406 8.738281 C 1.785156 9.039062 2.039062 9.324219 2.3125 9.574219 C 2.585938 9.824219 2.882812 10.035156 3.1875 10.183594 C 3.492188 10.332031 3.804688 10.417969 4.109375 10.414062 C 3.953125 10.390625 3.835938 10.230469 3.691406 10.144531 C 3.445312 10.003906 3.207031 9.8125 2.984375 9.589844 C 2.761719 9.371094 2.554688 9.121094 2.378906 8.867188 C 2.125 8.511719 1.988281 8.203125 1.914062 7.980469 C 1.839844 7.757812 1.828125 7.621094 1.820312 7.609375 L 1.828125 7.613281 C 1.660156 7.082031 1.558594 6.53125 1.5 5.96875 C 1.492188 5.84375 1.476562 5.707031 1.519531 5.742188 C 1.691406 6.007812 1.921875 6.09375 2.214844 6.246094 C 2.078125 6.027344 1.976562 5.792969 1.914062 5.546875 C 1.851562 5.300781 1.832031 5.046875 1.855469 4.785156 C 1.878906 4.523438 1.964844 4.265625 2.085938 4.027344 C 2.203125 3.789062 2.359375 3.570312 2.519531 3.382812 C 2.554688 3.339844 2.609375 3.308594 2.648438 3.269531 C 2.640625 3.207031 2.625 3.148438 2.625 3.085938 C 2.613281 2.898438 2.632812 2.714844 2.742188 2.546875 C 2.851562 2.332031 2.984375 2.066406 3.113281 1.839844 C 3.136719 1.792969 3.175781 1.746094 3.203125 1.695312 C 3.363281 1.378906 3.539062 1.035156 3.785156 0.753906 C 3.800781 0.738281 3.824219 0.730469 3.839844 0.710938 Z M 2.800781 0.710938 "/>
<path style=" stroke:none;fill-rule:nonzero;fill:rgb(100%,100%,100%);fill-opacity:1;" d="M 4.035156 3.335938 C 3.914062 3.558594 3.632812 3.648438 3.476562 3.566406 C 3.316406 3.480469 3.316406 3.203125 3.441406 2.980469 C 3.5625 2.761719 4.089844 2.859375 4.089844 2.859375 C 4.09375 2.859375 4.15625 3.117188 4.035156 3.335938 Z M 4.035156 3.335938 "/>
<path style=" stroke:none;fill-rule:nonzero;fill:rgb(36.078431%,37.254902%,37.647059%);fill-opacity:1;" d="M 3.320312 4.347656 C 3.320312 4.347656 3.386719 4.28125 3.351562 4.160156 C 2.925781 4.300781 2.71875 3.894531 2.71875 3.894531 C 2.722656 3.894531 2.402344 4.730469 2.785156 5.109375 C 2.816406 4.796875 3.304688 4.363281 3.304688 4.363281 "/>
</g>
</svg>
