<?xml version="1.0" encoding="UTF-8"?>
<svg xmlns="http://www.w3.org/2000/svg" xmlns:xlink="http://www.w3.org/1999/xlink" width="12pt" height="12pt" viewBox="0 0 12 12" version="1.1">
<g id="surface1">
<path style=" stroke:none;fill-rule:evenodd;fill:rgb(30.980392%,30.980392%,30.980392%);fill-opacity:1;" d="M 2.800781 0.710938 L 9.199219 0.710938 C 10.351562 0.710938 11.289062 1.648438 11.289062 2.800781 L 11.289062 9.199219 C 11.289062 10.351562 10.351562 11.289062 9.199219 11.289062 L 2.800781 11.289062 C 1.648438 11.289062 0.710938 10.351562 0.710938 9.199219 L 0.710938 2.800781 C 0.710938 1.648438 1.648438 0.710938 2.800781 0.710938 Z M 2.800781 0.710938 "/>
<path style=" stroke:none;fill-rule:nonzero;fill:rgb(100%,34.117647%,34.117647%);fill-opacity:1;" d="M 6 1.871094 C 5.6875 1.871094 5.4375 2.125 5.4375 2.433594 C 5.4375 2.746094 5.6875 2.996094 6 2.996094 C 6.3125 2.996094 6.5625 2.746094 6.5625 2.433594 C 6.5625 2.125 6.3125 1.871094 6 1.871094 Z M 3.738281 2.621094 C 3.644531 2.625 3.550781 2.648438 3.46875 2.695312 C 3.339844 2.773438 3.246094 2.894531 3.207031 3.039062 C 3.167969 3.183594 3.1875 3.335938 3.261719 3.464844 C 3.417969 3.734375 3.761719 3.828125 4.03125 3.671875 C 4.300781 3.515625 4.390625 3.171875 4.238281 2.902344 C 4.132812 2.726562 3.941406 2.617188 3.738281 2.621094 Z M 8.261719 2.621094 C 8.058594 2.617188 7.867188 2.726562 7.761719 2.902344 C 7.609375 3.171875 7.699219 3.515625 7.96875 3.671875 C 8.238281 3.828125 8.582031 3.734375 8.738281 3.464844 C 8.8125 3.335938 8.832031 3.183594 8.792969 3.039062 C 8.753906 2.894531 8.660156 2.773438 8.53125 2.695312 C 8.449219 2.648438 8.355469 2.625 8.261719 2.621094 Z M 2.265625 4.121094 C 2.25 4.121094 2.238281 4.121094 2.222656 4.121094 C 2.03125 4.132812 1.859375 4.238281 1.761719 4.402344 C 1.609375 4.671875 1.699219 5.015625 1.96875 5.171875 C 2.238281 5.328125 2.582031 5.234375 2.738281 4.964844 C 2.894531 4.695312 2.800781 4.351562 2.53125 4.199219 C 2.449219 4.152344 2.359375 4.125 2.265625 4.121094 Z M 9.734375 4.121094 C 9.640625 4.125 9.550781 4.152344 9.46875 4.199219 C 9.199219 4.351562 9.105469 4.695312 9.261719 4.964844 C 9.417969 5.234375 9.761719 5.328125 10.03125 5.171875 C 10.300781 5.015625 10.390625 4.671875 10.238281 4.402344 C 10.140625 4.238281 9.96875 4.132812 9.777344 4.121094 C 9.761719 4.121094 9.75 4.121094 9.734375 4.121094 Z M 1.875 6.371094 C 1.5625 6.371094 1.3125 6.625 1.3125 6.933594 C 1.3125 7.246094 1.5625 7.496094 1.875 7.496094 C 2.1875 7.496094 2.4375 7.246094 2.4375 6.933594 C 2.4375 6.625 2.1875 6.371094 1.875 6.371094 Z M 10.125 6.371094 C 9.8125 6.371094 9.5625 6.625 9.5625 6.933594 C 9.5625 7.246094 9.8125 7.496094 10.125 7.496094 C 10.4375 7.496094 10.6875 7.246094 10.6875 6.933594 C 10.6875 6.625 10.4375 6.371094 10.125 6.371094 Z M 2.613281 8.246094 C 2.519531 8.25 2.425781 8.277344 2.34375 8.324219 C 2.074219 8.476562 1.984375 8.820312 2.136719 9.089844 C 2.210938 9.21875 2.335938 9.316406 2.480469 9.351562 C 2.625 9.390625 2.777344 9.371094 2.90625 9.296875 C 3.175781 9.140625 3.269531 8.796875 3.113281 8.527344 C 3.011719 8.351562 2.816406 8.242188 2.613281 8.246094 Z M 9.347656 8.246094 C 9.15625 8.257812 8.984375 8.363281 8.886719 8.527344 C 8.730469 8.796875 8.824219 9.140625 9.09375 9.296875 C 9.222656 9.371094 9.375 9.390625 9.519531 9.351562 C 9.664062 9.316406 9.789062 9.21875 9.863281 9.089844 C 10.015625 8.820312 9.925781 8.476562 9.65625 8.324219 C 9.574219 8.277344 9.480469 8.25 9.386719 8.246094 C 9.375 8.246094 9.359375 8.246094 9.347656 8.246094 Z M 9.347656 8.246094 "/>
<path style=" stroke:none;fill-rule:nonzero;fill:rgb(100%,65.098039%,65.098039%);fill-opacity:1;" d="M 9.261719 7.433594 L 6.214844 7.199219 L 6.507812 6.113281 Z M 9.261719 7.433594 "/>
<path style=" stroke:none;fill-rule:nonzero;fill:rgb(100%,65.098039%,65.098039%);fill-opacity:1;" d="M 5.757812 7.464844 C 5.257812 7.332031 4.960938 6.816406 5.09375 6.316406 C 5.226562 5.816406 5.742188 5.519531 6.242188 5.652344 C 6.742188 5.789062 7.039062 6.300781 6.90625 6.800781 C 6.769531 7.300781 6.257812 7.597656 5.757812 7.464844 Z M 5.757812 7.464844 "/>
</g>
</svg>
