<?xml version="1.0" encoding="UTF-8"?>
<svg xmlns="http://www.w3.org/2000/svg" xmlns:xlink="http://www.w3.org/1999/xlink" width="12pt" height="12pt" viewBox="0 0 12 12" version="1.1">
<g id="surface1">
<path style=" stroke:none;fill-rule:evenodd;fill:rgb(55.686275%,55.686275%,55.686275%);fill-opacity:1;" d="M 2.800781 0.710938 L 9.199219 0.710938 C 10.351562 0.710938 11.289062 1.648438 11.289062 2.800781 L 11.289062 9.199219 C 11.289062 10.351562 10.351562 11.289062 9.199219 11.289062 L 2.800781 11.289062 C 1.648438 11.289062 0.710938 10.351562 0.710938 9.199219 L 0.710938 2.800781 C 0.710938 1.648438 1.648438 0.710938 2.800781 0.710938 Z M 2.800781 0.710938 "/>
<path style=" stroke:none;fill-rule:nonzero;fill:rgb(30.196078%,30.196078%,30.196078%);fill-opacity:1;" d="M 2.230469 7.578125 L 5.210938 7.578125 C 5.453125 7.578125 5.648438 7.773438 5.648438 8.015625 L 5.648438 9.242188 C 5.648438 9.484375 5.453125 9.683594 5.210938 9.683594 L 2.230469 9.683594 C 1.988281 9.683594 1.792969 9.484375 1.792969 9.242188 L 1.792969 8.015625 C 1.792969 7.773438 1.988281 7.578125 2.230469 7.578125 Z M 2.230469 7.578125 "/>
<path style=" stroke:none;fill-rule:nonzero;fill:rgb(30.196078%,30.196078%,30.196078%);fill-opacity:1;" d="M 6.789062 7.578125 L 9.769531 7.578125 C 10.011719 7.578125 10.207031 7.773438 10.207031 8.015625 L 10.207031 9.242188 C 10.207031 9.484375 10.011719 9.683594 9.769531 9.683594 L 6.789062 9.683594 C 6.546875 9.683594 6.351562 9.484375 6.351562 9.242188 L 6.351562 8.015625 C 6.351562 7.773438 6.546875 7.578125 6.789062 7.578125 Z M 6.789062 7.578125 "/>
<path style=" stroke:none;fill-rule:nonzero;fill:rgb(30.196078%,30.196078%,30.196078%);fill-opacity:1;" d="M 8.804688 2.316406 L 10.207031 2.316406 L 10.207031 2.667969 L 8.804688 2.667969 Z M 8.804688 2.316406 "/>
<path style=" stroke:none;fill-rule:nonzero;fill:rgb(30.196078%,30.196078%,30.196078%);fill-opacity:1;" d="M 8.804688 3.019531 L 10.207031 3.019531 L 10.207031 3.371094 L 8.804688 3.371094 Z M 8.804688 3.019531 "/>
<path style=" stroke:none;fill-rule:nonzero;fill:rgb(30.196078%,30.196078%,30.196078%);fill-opacity:1;" d="M 8.804688 3.71875 L 10.207031 3.71875 L 10.207031 4.070312 L 8.804688 4.070312 Z M 8.804688 3.71875 "/>
<path style=" stroke:none;fill-rule:nonzero;fill:rgb(30.196078%,30.196078%,30.196078%);fill-opacity:1;" d="M 8.804688 4.421875 L 10.207031 4.421875 L 10.207031 4.773438 L 8.804688 4.773438 Z M 8.804688 4.421875 "/>
<path style=" stroke:none;fill-rule:nonzero;fill:rgb(30.196078%,30.196078%,30.196078%);fill-opacity:1;" d="M 8.804688 5.125 L 10.207031 5.125 L 10.207031 5.472656 L 8.804688 5.472656 Z M 8.804688 5.125 "/>
<path style=" stroke:none;fill-rule:nonzero;fill:rgb(30.196078%,30.196078%,30.196078%);fill-opacity:1;" d="M 8.804688 5.824219 L 10.207031 5.824219 L 10.207031 6.175781 L 8.804688 6.175781 Z M 8.804688 5.824219 "/>
</g>
</svg>
