<?xml version="1.0" encoding="UTF-8"?>
<svg xmlns="http://www.w3.org/2000/svg" xmlns:xlink="http://www.w3.org/1999/xlink" width="12pt" height="12pt" viewBox="0 0 12 12" version="1.1">
<g id="surface1">
<path style=" stroke:none;fill-rule:evenodd;fill:rgb(60.784314%,41.960784%,79.215686%);fill-opacity:1;" d="M 2.800781 0.710938 L 9.199219 0.710938 C 10.351562 0.710938 11.289062 1.648438 11.289062 2.800781 L 11.289062 9.199219 C 11.289062 10.351562 10.351562 11.289062 9.199219 11.289062 L 2.800781 11.289062 C 1.648438 11.289062 0.710938 10.351562 0.710938 9.199219 L 0.710938 2.800781 C 0.710938 1.648438 1.648438 0.710938 2.800781 0.710938 Z M 2.800781 0.710938 "/>
<path style=" stroke:none;fill-rule:nonzero;fill:rgb(100%,100%,100%);fill-opacity:1;" d="M 2.394531 1.953125 C 2.683594 2.355469 2.832031 2.777344 2.394531 3.398438 C 2.347656 3.941406 2.539062 4.257812 3.1875 4.246094 C 3.339844 4.234375 3.585938 4.203125 3.710938 4.082031 C 3.914062 3.835938 3.835938 3.703125 3.753906 3.6875 C 3.667969 3.660156 3.457031 3.792969 3.65625 3.886719 C 3.699219 4.0625 3.214844 4.042969 3.125 3.898438 C 2.789062 3.292969 3.683594 2.859375 4.707031 3.253906 C 4.914062 4.902344 5.152344 7 4.894531 8.960938 C 4.726562 9.347656 4.546875 9.582031 4.128906 9.757812 L 4.128906 10.046875 C 4.707031 9.757812 6.152344 9.757812 7.019531 9.757812 L 7.019531 9.46875 C 6.644531 9.402344 6.347656 9.054688 6.304688 8.703125 C 6.160156 6.761719 6.050781 5.335938 6.441406 3.398438 L 7.875 3.398438 C 8.054688 3.402344 8.128906 3.550781 8.175781 3.976562 L 8.753906 3.976562 C 8.550781 3.496094 8.464844 3.109375 8.464844 2.53125 C 6.304688 2.867188 4.730469 2.570312 2.394531 1.953125 Z M 8.566406 6.582031 C 8.167969 6.578125 7.863281 6.710938 7.636719 7.046875 C 7.601562 7.125 7.585938 7.179688 7.582031 7.269531 C 7.574219 7.375 7.597656 7.457031 7.652344 7.550781 C 7.667969 7.578125 7.714844 7.628906 7.738281 7.644531 C 7.792969 7.6875 7.878906 7.730469 7.921875 7.734375 C 7.933594 7.734375 7.949219 7.738281 7.957031 7.738281 C 8.097656 7.734375 8.167969 7.621094 8.167969 7.46875 C 8.167969 7.28125 8.511719 6.90625 8.628906 7.414062 C 8.601562 7.734375 8.429688 7.796875 8.203125 7.960938 C 8.179688 7.972656 8.164062 7.992188 8.164062 8.015625 C 8.238281 8.167969 8.308594 8.3125 8.363281 8.472656 C 8.382812 8.515625 8.390625 8.527344 8.414062 8.527344 C 8.425781 8.527344 8.433594 8.523438 8.449219 8.507812 C 8.535156 8.386719 8.59375 8.21875 8.683594 8.375 C 8.710938 8.429688 8.722656 8.46875 8.742188 8.550781 C 8.746094 8.574219 8.75 8.601562 8.75 8.664062 C 8.753906 8.726562 8.75 8.75 8.738281 8.835938 C 8.605469 9.1875 8.390625 9.355469 7.949219 9.257812 C 7.910156 9.234375 7.867188 9.195312 7.867188 9.175781 C 7.867188 9.164062 7.890625 9.160156 7.9375 9.160156 C 7.996094 9.160156 8.035156 9.148438 8.0625 9.125 C 8.066406 9.121094 8.074219 9.117188 8.082031 9.109375 C 8.097656 9.101562 8.117188 9.074219 8.128906 9.054688 C 8.132812 9.046875 8.136719 9.042969 8.136719 9.039062 C 8.148438 9.03125 8.164062 8.984375 8.167969 8.941406 C 8.175781 8.851562 8.167969 8.855469 8.128906 8.785156 C 8.082031 8.707031 7.980469 8.636719 7.886719 8.613281 C 7.839844 8.605469 7.832031 8.605469 7.785156 8.601562 C 7.589844 8.601562 7.414062 8.761719 7.320312 9.019531 C 7.300781 9.144531 7.296875 9.164062 7.304688 9.25 C 7.3125 9.328125 7.324219 9.386719 7.355469 9.457031 C 7.367188 9.484375 7.390625 9.53125 7.398438 9.542969 C 7.398438 9.546875 7.410156 9.5625 7.417969 9.582031 C 7.4375 9.613281 7.464844 9.652344 7.480469 9.667969 C 7.484375 9.671875 7.484375 9.675781 7.484375 9.675781 C 7.484375 9.683594 7.582031 9.78125 7.617188 9.808594 C 7.628906 9.820312 7.640625 9.828125 7.644531 9.832031 C 7.679688 9.867188 7.804688 9.9375 7.863281 9.957031 C 7.871094 9.960938 7.898438 9.96875 7.917969 9.976562 C 7.953125 9.988281 8.046875 10.015625 8.074219 10.019531 C 8.078125 10.019531 8.097656 10.023438 8.113281 10.027344 C 8.132812 10.03125 8.164062 10.035156 8.1875 10.039062 C 8.207031 10.042969 8.257812 10.046875 8.296875 10.046875 C 8.382812 10.046875 8.542969 10.039062 8.5625 10.035156 C 8.570312 10.03125 8.585938 10.027344 8.59375 10.027344 C 8.605469 10.027344 8.691406 10.007812 8.703125 10.003906 C 8.726562 10 8.746094 9.992188 8.78125 9.984375 C 8.804688 9.976562 8.828125 9.96875 8.839844 9.96875 C 8.847656 9.964844 8.859375 9.960938 8.863281 9.960938 C 8.863281 9.957031 8.875 9.953125 8.890625 9.949219 C 8.933594 9.933594 9.023438 9.890625 9.070312 9.859375 C 9.085938 9.851562 9.101562 9.839844 9.109375 9.839844 C 9.113281 9.835938 9.125 9.828125 9.140625 9.816406 C 9.15625 9.804688 9.167969 9.796875 9.171875 9.796875 C 9.175781 9.796875 9.222656 9.765625 9.242188 9.746094 C 9.25 9.738281 9.265625 9.726562 9.277344 9.714844 C 9.320312 9.679688 9.382812 9.613281 9.394531 9.59375 C 9.398438 9.589844 9.40625 9.578125 9.414062 9.570312 C 9.445312 9.53125 9.46875 9.5 9.46875 9.496094 C 9.46875 9.492188 9.476562 9.476562 9.488281 9.460938 C 9.5 9.445312 9.507812 9.429688 9.507812 9.425781 C 9.507812 9.425781 9.515625 9.410156 9.523438 9.390625 C 9.535156 9.371094 9.542969 9.351562 9.546875 9.34375 C 9.570312 9.296875 9.597656 9.191406 9.605469 9.128906 C 9.605469 9.117188 9.609375 9.09375 9.609375 9.078125 C 9.613281 9.046875 9.613281 8.925781 9.609375 8.902344 C 9.605469 8.894531 9.605469 8.871094 9.601562 8.84375 C 9.59375 8.769531 9.570312 8.671875 9.546875 8.605469 C 9.539062 8.585938 9.527344 8.558594 9.523438 8.546875 C 9.519531 8.535156 9.515625 8.523438 9.511719 8.519531 C 9.507812 8.511719 9.503906 8.507812 9.503906 8.503906 C 9.503906 8.492188 9.449219 8.382812 9.421875 8.34375 C 9.40625 8.320312 9.394531 8.300781 9.394531 8.296875 C 9.390625 8.289062 9.378906 8.273438 9.375 8.269531 C 9.375 8.269531 9.367188 8.261719 9.363281 8.25 C 9.359375 8.242188 9.351562 8.234375 9.347656 8.230469 C 9.34375 8.226562 9.339844 8.21875 9.332031 8.210938 C 9.328125 8.199219 9.320312 8.191406 9.320312 8.191406 C 9.316406 8.191406 9.3125 8.183594 9.304688 8.175781 C 9.289062 8.15625 9.238281 8.097656 9.1875 8.046875 C 9.136719 7.992188 9.09375 7.992188 9.089844 7.976562 C 9.085938 7.960938 9.097656 7.941406 9.125 7.914062 C 9.15625 7.882812 9.1875 7.835938 9.207031 7.796875 C 9.210938 7.792969 9.214844 7.785156 9.21875 7.78125 C 9.222656 7.777344 9.273438 7.679688 9.277344 7.664062 C 9.28125 7.660156 9.285156 7.648438 9.285156 7.636719 C 9.289062 7.628906 9.296875 7.609375 9.300781 7.597656 C 9.3125 7.566406 9.328125 7.488281 9.328125 7.445312 C 9.335938 7.367188 9.332031 7.242188 9.320312 7.195312 C 9.316406 7.164062 9.28125 7.070312 9.269531 7.050781 C 9.265625 7.039062 9.253906 7.019531 9.246094 7.003906 C 9.226562 6.957031 9.203125 6.925781 9.148438 6.867188 C 9.121094 6.839844 9.039062 6.765625 9.011719 6.75 C 8.964844 6.71875 8.933594 6.699219 8.910156 6.6875 C 8.855469 6.664062 8.832031 6.652344 8.820312 6.648438 C 8.808594 6.644531 8.800781 6.640625 8.796875 6.636719 C 8.796875 6.636719 8.792969 6.632812 8.789062 6.632812 C 8.785156 6.632812 8.777344 6.632812 8.769531 6.628906 C 8.734375 6.613281 8.65625 6.589844 8.566406 6.582031 Z M 8.566406 6.582031 "/>
</g>
</svg>
