<?xml version="1.0" encoding="UTF-8"?>
<svg xmlns="http://www.w3.org/2000/svg" xmlns:xlink="http://www.w3.org/1999/xlink" width="12pt" height="12pt" viewBox="0 0 12 12" version="1.1">
<g id="surface1">
<path style=" stroke:none;fill-rule:evenodd;fill:rgb(70.196078%,70.196078%,70.196078%);fill-opacity:1;" d="M 2.800781 0.710938 L 9.199219 0.710938 C 10.351562 0.710938 11.289062 1.648438 11.289062 2.800781 L 11.289062 9.199219 C 11.289062 10.351562 10.351562 11.289062 9.199219 11.289062 L 2.800781 11.289062 C 1.648438 11.289062 0.710938 10.351562 0.710938 9.199219 L 0.710938 2.800781 C 0.710938 1.648438 1.648438 0.710938 2.800781 0.710938 Z M 2.800781 0.710938 "/>
<path style=" stroke:none;fill-rule:nonzero;fill:rgb(30.980392%,30.980392%,30.980392%);fill-opacity:1;" d="M 5.992188 1.761719 C 5.179688 1.761719 4.480469 2.515625 4.480469 3.457031 C 4.480469 5.574219 3.269531 5.789062 3.269531 7.273438 C 3.269531 8.910156 4.488281 10.238281 5.992188 10.238281 C 7.5 10.238281 8.71875 8.910156 8.71875 7.273438 C 8.71875 5.789062 7.507812 5.574219 7.507812 3.457031 C 7.507812 2.515625 6.804688 1.761719 5.992188 1.761719 Z M 5.992188 1.761719 "/>
<path style=" stroke:none;fill-rule:nonzero;fill:rgb(100%,100%,100%);fill-opacity:1;" d="M 5.992188 4.183594 C 5.453125 4.183594 5.085938 4.640625 5.085938 5.210938 C 5.085938 6.5 4.175781 6.628906 4.175781 7.527344 C 4.175781 8.523438 4.992188 9.332031 5.992188 9.332031 C 6.996094 9.332031 7.808594 8.523438 7.808594 7.527344 C 7.808594 6.628906 6.902344 6.5 6.902344 5.210938 C 6.902344 4.640625 6.535156 4.183594 5.992188 4.183594 Z M 5.992188 4.183594 "/>
<path style=" stroke:none;fill-rule:nonzero;fill:rgb(91.764706%,69.411765%,3.137255%);fill-opacity:1;" d="M 4.636719 10.230469 C 4.546875 10.21875 4.464844 10.191406 4.289062 10.113281 C 4.023438 10 3.902344 9.964844 3.421875 9.855469 C 3.179688 9.800781 3.089844 9.773438 2.882812 9.707031 C 2.804688 9.683594 2.707031 9.652344 2.65625 9.636719 C 2.527344 9.601562 2.492188 9.585938 2.445312 9.546875 C 2.382812 9.496094 2.351562 9.417969 2.363281 9.332031 C 2.371094 9.273438 2.390625 9.222656 2.445312 9.109375 C 2.515625 8.957031 2.695312 8.902344 2.707031 8.753906 C 2.714844 8.667969 2.707031 8.566406 2.6875 8.363281 C 2.671875 8.242188 2.667969 8.195312 2.667969 8.121094 C 2.667969 8.035156 2.671875 8.09375 2.679688 8.0625 C 2.710938 7.941406 2.734375 7.871094 2.851562 7.84375 C 2.882812 7.832031 2.816406 7.832031 2.96875 7.828125 C 3.066406 7.828125 3.125 7.824219 3.136719 7.820312 C 3.203125 7.804688 3.253906 7.78125 3.296875 7.738281 C 3.339844 7.695312 3.371094 7.472656 3.425781 7.371094 C 3.515625 7.214844 3.691406 7.21875 3.832031 7.210938 C 3.871094 7.21875 3.886719 7.226562 3.929688 7.25 C 3.972656 7.277344 3.988281 7.285156 4.027344 7.328125 C 4.125 7.429688 4.167969 7.496094 4.386719 7.824219 C 4.558594 8.085938 4.613281 8.171875 4.683594 8.292969 C 4.757812 8.429688 4.894531 8.640625 4.945312 8.707031 C 4.953125 8.71875 5.007812 8.785156 5.0625 8.855469 C 5.117188 8.925781 5.171875 8.992188 5.175781 9.003906 C 5.28125 9.148438 5.355469 9.316406 5.382812 9.484375 C 5.390625 9.542969 5.390625 9.550781 5.386719 9.621094 C 5.378906 9.703125 5.375 9.742188 5.363281 9.757812 C 5.359375 9.765625 5.351562 9.789062 5.347656 9.804688 C 5.265625 10.027344 5.066406 10.195312 4.835938 10.234375 C 4.785156 10.242188 4.6875 10.242188 4.636719 10.234375 Z M 4.636719 10.230469 "/>
<path style=" stroke:none;fill-rule:nonzero;fill:rgb(91.764706%,69.411765%,3.137255%);fill-opacity:1;" d="M 8.175781 10.132812 C 8.246094 10.082031 8.300781 10.027344 8.417969 9.894531 C 8.589844 9.695312 8.585938 9.613281 8.9375 9.328125 C 9.113281 9.1875 9.179688 9.132812 9.324219 8.992188 C 9.375 8.941406 9.445312 8.875 9.480469 8.84375 C 9.574219 8.761719 9.59375 8.734375 9.621094 8.6875 C 9.652344 8.617188 9.644531 8.542969 9.597656 8.476562 C 9.570312 8.433594 9.53125 8.398438 9.4375 8.328125 C 9.316406 8.234375 9.28125 8.15625 9.210938 8.039062 C 9.167969 7.972656 9.222656 7.796875 9.15625 7.625 C 9.117188 7.519531 9.101562 7.480469 9.070312 7.417969 C 9.035156 7.351562 9.027344 7.339844 9.007812 7.316406 C 8.929688 7.234375 8.84375 7.207031 8.738281 7.226562 C 8.707031 7.234375 8.6875 7.242188 8.558594 7.304688 C 8.476562 7.339844 8.402344 7.371094 8.390625 7.375 C 8.328125 7.390625 8.277344 7.390625 8.222656 7.371094 C 8.167969 7.355469 8.125 7.46875 8.039062 7.410156 C 7.976562 7.367188 7.910156 7.320312 7.863281 7.304688 C 7.800781 7.289062 7.800781 7.289062 7.738281 7.296875 C 7.679688 7.300781 7.636719 7.320312 7.589844 7.355469 C 7.5625 7.378906 7.550781 7.390625 7.527344 7.429688 C 7.5 7.46875 7.492188 7.480469 7.480469 7.53125 C 7.441406 7.652344 7.429688 7.722656 7.386719 8.078125 C 7.351562 8.363281 7.339844 8.453125 7.335938 8.578125 C 7.328125 8.71875 7.304688 8.949219 7.289062 9.023438 C 7.285156 9.035156 7.269531 9.109375 7.253906 9.191406 C 7.234375 9.269531 7.21875 9.34375 7.21875 9.355469 C 7.191406 9.515625 7.203125 9.679688 7.25 9.828125 C 7.265625 9.878906 7.269531 9.886719 7.300781 9.9375 C 7.34375 10.003906 7.363281 10.03125 7.378906 10.042969 C 7.382812 10.046875 7.398438 10.0625 7.410156 10.074219 C 7.570312 10.21875 7.804688 10.273438 8.011719 10.210938 C 8.054688 10.199219 8.136719 10.15625 8.175781 10.128906 Z M 8.175781 10.132812 "/>
<path style=" stroke:none;fill-rule:nonzero;fill:rgb(100%,100%,100%);fill-opacity:1;" d="M 5.992188 3.273438 C 5.992188 3.609375 5.722656 3.878906 5.386719 3.878906 C 5.054688 3.878906 4.78125 3.609375 4.78125 3.273438 C 4.78125 2.941406 5.054688 2.667969 5.386719 2.667969 C 5.722656 2.667969 5.992188 2.941406 5.992188 3.273438 Z M 5.992188 3.273438 "/>
<path style=" stroke:none;fill-rule:nonzero;fill:rgb(19.607843%,19.607843%,19.607843%);fill-opacity:1;" d="M 5.691406 3.273438 C 5.691406 3.441406 5.554688 3.578125 5.386719 3.578125 C 5.222656 3.578125 5.085938 3.441406 5.085938 3.273438 C 5.085938 3.109375 5.222656 2.972656 5.386719 2.972656 C 5.554688 2.972656 5.691406 3.109375 5.691406 3.273438 Z M 5.691406 3.273438 "/>
<path style=" stroke:none;fill-rule:nonzero;fill:rgb(96.862745%,49.019608%,0%);fill-opacity:1;" d="M 6.902344 4.03125 C 6.902344 4.617188 6.496094 5.089844 5.992188 5.089844 C 5.492188 5.089844 5.085938 4.617188 5.085938 4.03125 Z M 6.902344 4.03125 "/>
<path style=" stroke:none;fill-rule:nonzero;fill:rgb(100%,100%,100%);fill-opacity:1;" d="M 7.203125 3.273438 C 7.203125 3.609375 6.933594 3.878906 6.597656 3.878906 C 6.265625 3.878906 5.992188 3.609375 5.992188 3.273438 C 5.992188 2.941406 6.265625 2.667969 6.597656 2.667969 C 6.933594 2.667969 7.203125 2.941406 7.203125 3.273438 Z M 7.203125 3.273438 "/>
<path style=" stroke:none;fill-rule:nonzero;fill:rgb(19.607843%,19.607843%,19.607843%);fill-opacity:1;" d="M 6.902344 3.273438 C 6.902344 3.441406 6.765625 3.578125 6.597656 3.578125 C 6.433594 3.578125 6.296875 3.441406 6.296875 3.273438 C 6.296875 3.109375 6.433594 2.972656 6.597656 2.972656 C 6.765625 2.972656 6.902344 3.109375 6.902344 3.273438 Z M 6.902344 3.273438 "/>
<path style=" stroke:none;fill-rule:nonzero;fill:rgb(91.764706%,69.411765%,3.137255%);fill-opacity:1;" d="M 6.902344 4.082031 C 6.902344 4.183594 6.496094 4.789062 5.992188 4.789062 C 5.492188 4.789062 5.085938 4.183594 5.085938 4.082031 C 5.085938 3.804688 5.492188 3.578125 5.992188 3.578125 C 6.496094 3.578125 6.902344 3.804688 6.902344 4.082031 Z M 6.902344 4.082031 "/>
<path style=" stroke:none;fill-rule:nonzero;fill:rgb(30.980392%,30.980392%,30.980392%);fill-opacity:1;" d="M 8.25 8.132812 C 7.902344 8.132812 7.898438 7.84375 7.828125 7.503906 C 7.75 7.121094 7.703125 6.902344 8.308594 6.871094 C 8.835938 6.699219 8.914062 8.113281 8.25 8.132812 Z M 8.25 8.132812 "/>
</g>
</svg>
