<?xml version="1.0" encoding="UTF-8"?>
<svg xmlns="http://www.w3.org/2000/svg" xmlns:xlink="http://www.w3.org/1999/xlink" width="12pt" height="12pt" viewBox="0 0 12 12" version="1.1">
<g id="surface1">
<path style=" stroke:none;fill-rule:evenodd;fill:rgb(90.196078%,90.196078%,90.196078%);fill-opacity:1;" d="M 2.800781 0.710938 L 9.199219 0.710938 C 10.351562 0.710938 11.289062 1.648438 11.289062 2.800781 L 11.289062 9.199219 C 11.289062 10.351562 10.351562 11.289062 9.199219 11.289062 L 2.800781 11.289062 C 1.648438 11.289062 0.710938 10.351562 0.710938 9.199219 L 0.710938 2.800781 C 0.710938 1.648438 1.648438 0.710938 2.800781 0.710938 Z M 2.800781 0.710938 "/>
<path style=" stroke:none;fill-rule:nonzero;fill:rgb(31.372549%,58.431373%,67.058824%);fill-opacity:1;" d="M 5.996094 2.082031 C 5.242188 2.082031 4.59375 2.78125 4.59375 3.648438 C 4.59375 5.609375 3.476562 5.804688 3.476562 7.175781 C 3.476562 8.6875 4.605469 9.917969 5.996094 9.917969 C 7.386719 9.917969 8.511719 8.6875 8.511719 7.175781 C 8.511719 5.804688 7.394531 5.609375 7.394531 3.648438 C 7.394531 2.78125 6.746094 2.082031 5.996094 2.082031 Z M 5.996094 2.082031 "/>
<path style=" stroke:none;fill-rule:nonzero;fill:rgb(100%,100%,100%);fill-opacity:1;" d="M 5.996094 4.320312 C 5.492188 4.320312 5.15625 4.746094 5.15625 5.273438 C 5.15625 6.460938 4.316406 6.582031 4.316406 7.414062 C 4.316406 8.332031 5.066406 9.078125 5.996094 9.078125 C 6.921875 9.078125 7.671875 8.332031 7.671875 7.414062 C 7.671875 6.582031 6.832031 6.460938 6.832031 5.273438 C 6.832031 4.746094 6.496094 4.320312 5.996094 4.320312 Z M 5.996094 4.320312 "/>
<path style=" stroke:none;fill-rule:nonzero;fill:rgb(91.764706%,69.411765%,3.137255%);fill-opacity:1;" d="M 4.742188 9.910156 C 4.65625 9.898438 4.582031 9.871094 4.417969 9.800781 C 4.175781 9.695312 4.0625 9.664062 3.617188 9.5625 C 3.394531 9.511719 3.3125 9.488281 3.121094 9.425781 C 3.050781 9.402344 2.957031 9.375 2.910156 9.363281 C 2.792969 9.328125 2.761719 9.3125 2.714844 9.277344 C 2.65625 9.230469 2.628906 9.160156 2.640625 9.078125 C 2.644531 9.027344 2.664062 8.976562 2.714844 8.871094 C 2.78125 8.734375 2.945312 8.683594 2.957031 8.542969 C 2.964844 8.464844 2.957031 8.371094 2.9375 8.183594 C 2.925781 8.070312 2.921875 8.03125 2.921875 7.957031 C 2.921875 7.882812 2.921875 7.933594 2.929688 7.90625 C 2.960938 7.792969 2.984375 7.730469 3.089844 7.703125 C 3.121094 7.695312 3.054688 7.695312 3.199219 7.691406 C 3.289062 7.6875 3.34375 7.6875 3.351562 7.683594 C 3.414062 7.667969 3.460938 7.644531 3.503906 7.605469 C 3.542969 7.566406 3.570312 7.359375 3.621094 7.265625 C 3.703125 7.121094 3.867188 7.125 3.996094 7.117188 C 4.035156 7.125 4.046875 7.132812 4.085938 7.15625 C 4.128906 7.179688 4.140625 7.1875 4.175781 7.226562 C 4.265625 7.324219 4.308594 7.382812 4.511719 7.6875 C 4.667969 7.929688 4.71875 8.007812 4.78125 8.121094 C 4.851562 8.242188 4.980469 8.441406 5.027344 8.5 C 5.035156 8.511719 5.082031 8.574219 5.132812 8.640625 C 5.1875 8.703125 5.234375 8.765625 5.238281 8.773438 C 5.335938 8.910156 5.402344 9.066406 5.429688 9.21875 C 5.4375 9.273438 5.4375 9.28125 5.433594 9.34375 C 5.425781 9.421875 5.421875 9.457031 5.414062 9.472656 C 5.410156 9.480469 5.402344 9.5 5.394531 9.515625 C 5.320312 9.722656 5.136719 9.875 4.925781 9.910156 C 4.878906 9.917969 4.789062 9.917969 4.742188 9.910156 Z M 4.742188 9.910156 "/>
<path style=" stroke:none;fill-rule:nonzero;fill:rgb(91.764706%,69.411765%,3.137255%);fill-opacity:1;" d="M 8.011719 9.816406 C 8.078125 9.773438 8.128906 9.722656 8.234375 9.597656 C 8.390625 9.414062 8.386719 9.339844 8.714844 9.078125 C 8.878906 8.945312 8.9375 8.894531 9.070312 8.765625 C 9.121094 8.71875 9.183594 8.65625 9.214844 8.628906 C 9.300781 8.550781 9.324219 8.527344 9.34375 8.480469 C 9.375 8.417969 9.367188 8.347656 9.324219 8.289062 C 9.296875 8.25 9.261719 8.214844 9.175781 8.152344 C 9.0625 8.066406 9.03125 7.992188 8.964844 7.882812 C 8.925781 7.820312 8.976562 7.660156 8.917969 7.5 C 8.878906 7.402344 8.863281 7.371094 8.835938 7.3125 C 8.804688 7.25 8.796875 7.238281 8.777344 7.21875 C 8.707031 7.140625 8.628906 7.113281 8.527344 7.132812 C 8.5 7.140625 8.484375 7.148438 8.363281 7.203125 C 8.289062 7.238281 8.21875 7.269531 8.210938 7.269531 C 8.152344 7.285156 8.105469 7.285156 8.054688 7.269531 C 8.003906 7.253906 7.964844 7.355469 7.882812 7.300781 C 7.828125 7.265625 7.765625 7.21875 7.722656 7.207031 C 7.664062 7.191406 7.664062 7.191406 7.609375 7.195312 C 7.554688 7.203125 7.515625 7.21875 7.46875 7.253906 C 7.441406 7.273438 7.433594 7.285156 7.410156 7.320312 C 7.386719 7.355469 7.378906 7.367188 7.367188 7.414062 C 7.332031 7.527344 7.320312 7.59375 7.28125 7.921875 C 7.246094 8.183594 7.238281 8.265625 7.234375 8.382812 C 7.226562 8.511719 7.203125 8.722656 7.191406 8.792969 C 7.1875 8.804688 7.171875 8.875 7.15625 8.949219 C 7.140625 9.019531 7.128906 9.089844 7.125 9.101562 C 7.101562 9.25 7.109375 9.402344 7.15625 9.535156 C 7.171875 9.585938 7.175781 9.589844 7.203125 9.640625 C 7.242188 9.699219 7.257812 9.726562 7.273438 9.738281 C 7.277344 9.742188 7.292969 9.753906 7.304688 9.761719 C 7.449219 9.898438 7.667969 9.949219 7.859375 9.890625 C 7.898438 9.878906 7.976562 9.84375 8.011719 9.816406 Z M 8.011719 9.816406 "/>
<path style=" stroke:none;fill-rule:nonzero;fill:rgb(100%,100%,100%);fill-opacity:1;" d="M 5.996094 3.480469 C 5.996094 3.792969 5.742188 4.042969 5.433594 4.042969 C 5.125 4.042969 4.875 3.792969 4.875 3.480469 C 4.875 3.171875 5.125 2.921875 5.433594 2.921875 C 5.742188 2.921875 5.996094 3.171875 5.996094 3.480469 Z M 5.996094 3.480469 "/>
<path style=" stroke:none;fill-rule:nonzero;fill:rgb(19.607843%,19.607843%,19.607843%);fill-opacity:1;" d="M 5.714844 3.480469 C 5.714844 3.636719 5.589844 3.761719 5.433594 3.761719 C 5.28125 3.761719 5.15625 3.636719 5.15625 3.480469 C 5.15625 3.328125 5.28125 3.203125 5.433594 3.203125 C 5.589844 3.203125 5.714844 3.328125 5.714844 3.480469 Z M 5.714844 3.480469 "/>
<path style=" stroke:none;fill-rule:nonzero;fill:rgb(96.862745%,49.019608%,0%);fill-opacity:1;" d="M 6.832031 4.179688 C 6.832031 4.722656 6.457031 5.160156 5.996094 5.160156 C 5.53125 5.160156 5.15625 4.722656 5.15625 4.179688 Z M 6.832031 4.179688 "/>
<path style=" stroke:none;fill-rule:nonzero;fill:rgb(100%,100%,100%);fill-opacity:1;" d="M 7.113281 3.480469 C 7.113281 3.792969 6.863281 4.042969 6.554688 4.042969 C 6.246094 4.042969 5.996094 3.792969 5.996094 3.480469 C 5.996094 3.171875 6.246094 2.921875 6.554688 2.921875 C 6.863281 2.921875 7.113281 3.171875 7.113281 3.480469 Z M 7.113281 3.480469 "/>
<path style=" stroke:none;fill-rule:nonzero;fill:rgb(19.607843%,19.607843%,19.607843%);fill-opacity:1;" d="M 6.832031 3.480469 C 6.832031 3.636719 6.707031 3.761719 6.554688 3.761719 C 6.398438 3.761719 6.273438 3.636719 6.273438 3.480469 C 6.273438 3.328125 6.398438 3.203125 6.554688 3.203125 C 6.707031 3.203125 6.832031 3.328125 6.832031 3.480469 Z M 6.832031 3.480469 "/>
<path style=" stroke:none;fill-rule:nonzero;fill:rgb(91.764706%,69.411765%,3.137255%);fill-opacity:1;" d="M 6.832031 4.226562 C 6.832031 4.320312 6.457031 4.882812 5.996094 4.882812 C 5.53125 4.882812 5.15625 4.320312 5.15625 4.226562 C 5.15625 3.96875 5.53125 3.761719 5.996094 3.761719 C 6.457031 3.761719 6.832031 3.96875 6.832031 4.226562 Z M 6.832031 4.226562 "/>
<path style=" stroke:none;fill-rule:nonzero;fill:rgb(31.372549%,58.431373%,67.058824%);fill-opacity:1;" d="M 8.078125 7.972656 C 7.757812 7.972656 7.753906 7.703125 7.691406 7.386719 C 7.617188 7.039062 7.574219 6.835938 8.132812 6.804688 C 8.617188 6.644531 8.695312 7.953125 8.078125 7.972656 Z M 8.078125 7.972656 "/>
</g>
</svg>
