<?xml version="1.0" encoding="UTF-8"?>
<svg xmlns="http://www.w3.org/2000/svg" xmlns:xlink="http://www.w3.org/1999/xlink" width="12pt" height="12pt" viewBox="0 0 12 12" version="1.1">
<g id="surface1">
<path style=" stroke:none;fill-rule:evenodd;fill:rgb(16.470588%,45.490196%,76.078431%);fill-opacity:1;" d="M 2.800781 0.710938 L 9.199219 0.710938 C 10.351562 0.710938 11.289062 1.648438 11.289062 2.800781 L 11.289062 9.199219 C 11.289062 10.351562 10.351562 11.289062 9.199219 11.289062 L 2.800781 11.289062 C 1.648438 11.289062 0.710938 10.351562 0.710938 9.199219 L 0.710938 2.800781 C 0.710938 1.648438 1.648438 0.710938 2.800781 0.710938 Z M 2.800781 0.710938 "/>
<path style=" stroke:none;fill-rule:nonzero;fill:rgb(100%,100%,100%);fill-opacity:1;" d="M 1.574219 4.546875 L 3.273438 4.09375 L 4.183594 7.492188 L 2.484375 7.949219 Z M 1.574219 4.546875 "/>
<path style=" stroke:none;fill-rule:nonzero;fill:rgb(100%,100%,100%);fill-opacity:1;" d="M 2.558594 8.230469 L 4.257812 7.773438 L 4.488281 8.625 L 2.785156 9.082031 Z M 2.558594 8.230469 "/>
<path style=" stroke:none;fill-rule:nonzero;fill:rgb(69.019608%,69.019608%,69.019608%);fill-opacity:1;" d="M 1.929688 4.753906 L 3.066406 4.453125 L 3.824219 7.285156 L 2.691406 7.589844 Z M 1.929688 4.753906 "/>
<path style=" stroke:none;fill-rule:nonzero;fill:rgb(69.019608%,69.019608%,69.019608%);fill-opacity:1;" d="M 2.917969 8.4375 L 4.050781 8.132812 L 4.128906 8.417969 L 2.992188 8.722656 Z M 2.917969 8.4375 "/>
<path style=" stroke:none;fill-rule:nonzero;fill:rgb(100%,100%,100%);fill-opacity:1;" d="M 6.011719 2.625 L 7.710938 3.082031 L 6.800781 6.480469 L 5.101562 6.027344 Z M 6.011719 2.625 "/>
<path style=" stroke:none;fill-rule:nonzero;fill:rgb(100%,100%,100%);fill-opacity:1;" d="M 5.027344 6.308594 L 6.726562 6.765625 L 6.496094 7.613281 L 4.796875 7.160156 Z M 5.027344 6.308594 "/>
<path style=" stroke:none;fill-rule:nonzero;fill:rgb(69.019608%,69.019608%,69.019608%);fill-opacity:1;" d="M 6.21875 2.984375 L 7.351562 3.289062 L 6.59375 6.121094 L 5.460938 5.816406 Z M 6.21875 2.984375 "/>
<path style=" stroke:none;fill-rule:nonzero;fill:rgb(69.019608%,69.019608%,69.019608%);fill-opacity:1;" d="M 5.234375 6.667969 L 6.367188 6.972656 L 6.289062 7.253906 L 5.15625 6.953125 Z M 5.234375 6.667969 "/>
<path style=" stroke:none;fill-rule:nonzero;fill:rgb(100%,100%,100%);fill-opacity:1;" d="M 8.902344 4.429688 L 10.425781 5.308594 L 8.667969 8.359375 L 7.144531 7.476562 Z M 8.902344 4.429688 "/>
<path style=" stroke:none;fill-rule:nonzero;fill:rgb(100%,100%,100%);fill-opacity:1;" d="M 6.996094 7.730469 L 8.523438 8.613281 L 8.082031 9.375 L 6.558594 8.492188 Z M 6.996094 7.730469 "/>
<path style=" stroke:none;fill-rule:nonzero;fill:rgb(69.019608%,69.019608%,69.019608%);fill-opacity:1;" d="M 9.011719 4.832031 L 10.027344 5.417969 L 8.5625 7.957031 L 7.542969 7.371094 Z M 9.011719 4.832031 "/>
<path style=" stroke:none;fill-rule:nonzero;fill:rgb(69.019608%,69.019608%,69.019608%);fill-opacity:1;" d="M 7.105469 8.132812 L 8.121094 8.71875 L 7.972656 8.972656 L 6.957031 8.386719 Z M 7.105469 8.132812 "/>
</g>
</svg>
