<?xml version="1.0" encoding="UTF-8"?>
<svg xmlns="http://www.w3.org/2000/svg" xmlns:xlink="http://www.w3.org/1999/xlink" width="12pt" height="12pt" viewBox="0 0 12 12" version="1.1">
<g id="surface1">
<path style=" stroke:none;fill-rule:evenodd;fill:rgb(49.803922%,30.980392%,78.431373%);fill-opacity:1;" d="M 2.800781 0.710938 L 9.199219 0.710938 C 10.351562 0.710938 11.289062 1.648438 11.289062 2.800781 L 11.289062 9.199219 C 11.289062 10.351562 10.351562 11.289062 9.199219 11.289062 L 2.800781 11.289062 C 1.648438 11.289062 0.710938 10.351562 0.710938 9.199219 L 0.710938 2.800781 C 0.710938 1.648438 1.648438 0.710938 2.800781 0.710938 Z M 2.800781 0.710938 "/>
<path style=" stroke:none;fill-rule:nonzero;fill:rgb(100%,100%,100%);fill-opacity:1;" d="M 3.332031 5 C 3.035156 5.300781 2.785156 5.582031 2.792969 5.949219 L 2.234375 6.507812 C 1.726562 7.015625 1.765625 7.875 2.273438 8.382812 L 3.617188 9.726562 C 4.125 10.234375 4.984375 10.273438 5.492188 9.765625 L 6.050781 9.207031 C 6.417969 9.210938 6.699219 8.964844 7 8.667969 L 8.667969 7 C 8.964844 6.699219 9.214844 6.417969 9.207031 6.050781 L 9.765625 5.492188 C 10.273438 4.984375 10.234375 4.125 9.726562 3.617188 L 8.382812 2.273438 C 7.875 1.765625 7.015625 1.726562 6.507812 2.234375 L 5.949219 2.792969 C 5.582031 2.789062 5.300781 3.035156 5 3.332031 Z M 3.332031 5 "/>
<path style=" stroke:none;fill-rule:nonzero;fill:rgb(49.803922%,30.980392%,78.431373%);fill-opacity:1;" d="M 8.546875 2.84375 C 8.714844 3.011719 8.714844 3.285156 8.546875 3.453125 C 8.375 3.625 8.101562 3.625 7.933594 3.453125 C 7.765625 3.285156 7.765625 3.011719 7.933594 2.84375 C 8.101562 2.675781 8.375 2.675781 8.546875 2.84375 Z M 8.546875 2.84375 "/>
<path style=" stroke:none;fill-rule:nonzero;fill:rgb(49.803922%,30.980392%,78.431373%);fill-opacity:1;" d="M 8.136719 4.675781 C 7.96875 4.84375 7.695312 4.84375 7.527344 4.675781 C 7.359375 4.507812 7.359375 4.234375 7.527344 4.066406 C 7.695312 3.898438 7.96875 3.898438 8.136719 4.066406 C 8.304688 4.234375 8.304688 4.507812 8.136719 4.675781 Z M 8.136719 4.675781 "/>
<path style=" stroke:none;fill-rule:nonzero;fill:rgb(48.235294%,57.254902%,92.941176%);fill-opacity:1;" d="M 3.558594 6 L 6 3.558594 L 8.441406 6 L 6 8.441406 Z M 3.558594 6 "/>
<path style=" stroke:none;fill-rule:nonzero;fill:rgb(32.156863%,100%,25.490196%);fill-opacity:1;" d="M 7.222656 2.742188 C 7.109375 2.855469 6.925781 2.855469 6.8125 2.742188 C 6.703125 2.628906 6.703125 2.449219 6.8125 2.335938 C 6.925781 2.222656 7.109375 2.222656 7.222656 2.335938 C 7.335938 2.449219 7.335938 2.628906 7.222656 2.742188 Z M 7.222656 2.742188 "/>
<path style=" stroke:none;fill-rule:nonzero;fill:rgb(49.803922%,30.980392%,78.431373%);fill-opacity:1;" d="M 2.945312 7.425781 C 2.832031 7.539062 2.832031 7.71875 2.945312 7.832031 L 3.148438 8.035156 L 2.945312 8.238281 C 2.832031 8.351562 2.832031 8.535156 2.945312 8.648438 L 3.148438 8.851562 C 3.261719 8.964844 3.445312 8.964844 3.558594 8.851562 L 3.761719 8.648438 L 3.964844 8.851562 C 4.078125 8.964844 4.257812 8.964844 4.371094 8.851562 L 4.574219 8.648438 C 4.6875 8.535156 4.6875 8.351562 4.574219 8.238281 L 4.371094 8.035156 L 4.574219 7.832031 C 4.6875 7.71875 4.6875 7.539062 4.574219 7.425781 L 4.371094 7.222656 C 4.257812 7.109375 4.078125 7.109375 3.964844 7.222656 L 3.761719 7.425781 L 3.558594 7.222656 C 3.445312 7.109375 3.261719 7.109375 3.148438 7.222656 Z M 2.945312 7.425781 "/>
</g>
</svg>
