<?xml version="1.0" encoding="UTF-8"?>
<svg xmlns="http://www.w3.org/2000/svg" xmlns:xlink="http://www.w3.org/1999/xlink" width="12pt" height="12pt" viewBox="0 0 12 12" version="1.1">
<g id="surface1">
<path style=" stroke:none;fill-rule:evenodd;fill:rgb(26.27451%,76.078431%,16.470588%);fill-opacity:1;" d="M 2.800781 0.710938 L 9.199219 0.710938 C 10.351562 0.710938 11.289062 1.648438 11.289062 2.800781 L 11.289062 9.199219 C 11.289062 10.351562 10.351562 11.289062 9.199219 11.289062 L 2.800781 11.289062 C 1.648438 11.289062 0.710938 10.351562 0.710938 9.199219 L 0.710938 2.800781 C 0.710938 1.648438 1.648438 0.710938 2.800781 0.710938 Z M 2.800781 0.710938 "/>
<path style=" stroke:none;fill-rule:nonzero;fill:rgb(100%,100%,100%);fill-opacity:1;" d="M 6.234375 10.421875 L 10.421875 6.234375 C 10.550781 6.105469 10.550781 5.894531 10.421875 5.765625 L 6.234375 1.578125 C 6.105469 1.449219 5.894531 1.449219 5.765625 1.578125 L 1.578125 5.765625 C 1.449219 5.894531 1.449219 6.105469 1.578125 6.234375 L 5.765625 10.421875 C 5.894531 10.550781 6.105469 10.550781 6.234375 10.421875 Z M 6.234375 10.421875 "/>
<path style=" stroke:none;fill-rule:nonzero;fill:rgb(26.27451%,76.078431%,16.470588%);fill-opacity:1;" d="M 4.089844 3.742188 L 4.089844 4.089844 L 4.4375 4.089844 L 4.4375 8.257812 L 4.957031 8.257812 L 7.214844 4.089844 L 7.5625 4.089844 L 7.5625 3.742188 L 6.171875 3.742188 L 6.171875 4.089844 L 6.519531 4.089844 L 5.132812 6.519531 L 5.132812 4.089844 L 5.480469 4.089844 L 5.480469 3.742188 Z M 4.089844 3.742188 "/>
<path style=" stroke:none;fill-rule:nonzero;fill:rgb(26.27451%,76.078431%,16.470588%);fill-opacity:1;" d="M 5.828125 7.214844 L 6.171875 7.214844 L 6.171875 8.257812 L 5.828125 8.257812 Z M 5.828125 7.214844 "/>
<path style=" stroke:none;fill-rule:nonzero;fill:rgb(26.27451%,76.078431%,16.470588%);fill-opacity:1;" d="M 5.828125 6.519531 L 6.171875 6.519531 L 6.171875 6.867188 L 5.828125 6.867188 Z M 5.828125 6.519531 "/>
<path style=" stroke:none;fill-rule:nonzero;fill:rgb(26.27451%,76.078431%,16.470588%);fill-opacity:1;" d="M 6.519531 7.214844 L 6.519531 8.257812 L 6.867188 8.257812 L 6.867188 7.832031 L 7.214844 8.085938 L 7.5625 7.824219 L 7.5625 8.257812 L 7.910156 8.257812 L 7.910156 7.214844 L 7.5625 7.214844 L 7.214844 7.5625 L 6.867188 7.214844 Z M 6.519531 7.214844 "/>
</g>
</svg>
