<?xml version="1.0" encoding="UTF-8"?>
<svg xmlns="http://www.w3.org/2000/svg" xmlns:xlink="http://www.w3.org/1999/xlink" width="12pt" height="12pt" viewBox="0 0 12 12" version="1.1">
<g id="surface1">
<path style=" stroke:none;fill-rule:evenodd;fill:rgb(38.039216%,51.764706%,65.098039%);fill-opacity:1;" d="M 2.800781 0.710938 L 9.199219 0.710938 C 10.351562 0.710938 11.289062 1.648438 11.289062 2.800781 L 11.289062 9.199219 C 11.289062 10.351562 10.351562 11.289062 9.199219 11.289062 L 2.800781 11.289062 C 1.648438 11.289062 0.710938 10.351562 0.710938 9.199219 L 0.710938 2.800781 C 0.710938 1.648438 1.648438 0.710938 2.800781 0.710938 Z M 2.800781 0.710938 "/>
<path style=" stroke:none;fill-rule:evenodd;fill:rgb(100%,100%,100%);fill-opacity:1;" d="M 5.910156 8.417969 L 6.40625 8.417969 C 6.40625 8.417969 6.554688 8.398438 6.628906 8.316406 C 6.699219 8.238281 6.699219 8.089844 6.699219 8.089844 C 6.699219 8.089844 6.6875 7.40625 6.996094 7.304688 C 7.296875 7.203125 7.6875 7.964844 8.097656 8.261719 C 8.410156 8.480469 8.648438 8.433594 8.648438 8.433594 L 9.75 8.417969 C 9.75 8.417969 10.324219 8.378906 10.050781 7.910156 C 10.027344 7.871094 9.890625 7.5625 9.230469 6.929688 C 8.542969 6.265625 8.632812 6.371094 9.464844 5.222656 C 9.972656 4.523438 10.175781 4.097656 10.113281 3.914062 C 10.050781 3.738281 9.679688 3.785156 9.679688 3.785156 L 8.4375 3.792969 C 8.4375 3.792969 8.347656 3.78125 8.277344 3.824219 C 8.210938 3.863281 8.167969 3.960938 8.167969 3.960938 C 8.167969 3.960938 7.972656 4.503906 7.710938 4.960938 C 7.160156 5.933594 6.9375 5.984375 6.847656 5.925781 C 6.636719 5.785156 6.6875 5.359375 6.6875 5.058594 C 6.6875 4.117188 6.828125 3.726562 6.421875 3.625 C 6.285156 3.589844 6.1875 3.566406 5.84375 3.5625 C 5.398438 3.558594 5.023438 3.566406 4.8125 3.671875 C 4.671875 3.746094 4.5625 3.902344 4.628906 3.914062 C 4.710938 3.925781 4.898438 3.964844 4.996094 4.105469 C 5.121094 4.28125 5.117188 4.683594 5.117188 4.683594 C 5.117188 4.683594 5.191406 5.792969 4.945312 5.929688 C 4.78125 6.027344 4.550781 5.832031 4.058594 4.953125 C 3.804688 4.5 3.617188 4 3.617188 4 C 3.617188 4 3.578125 3.90625 3.511719 3.859375 C 3.433594 3.796875 3.324219 3.777344 3.324219 3.777344 L 2.144531 3.785156 C 2.144531 3.785156 1.96875 3.789062 1.902344 3.871094 C 1.84375 3.941406 1.898438 4.089844 1.898438 4.089844 C 1.898438 4.089844 2.820312 6.324219 3.863281 7.453125 C 4.824219 8.484375 5.910156 8.417969 5.910156 8.417969 "/>
</g>
</svg>
