<?xml version="1.0" encoding="UTF-8"?>
<svg xmlns="http://www.w3.org/2000/svg" xmlns:xlink="http://www.w3.org/1999/xlink" width="12pt" height="12pt" viewBox="0 0 12 12" version="1.1">
<g id="surface1">
<path style=" stroke:none;fill-rule:evenodd;fill:rgb(95.294118%,71.372549%,8.627451%);fill-opacity:1;" d="M 2.800781 0.710938 L 9.199219 0.710938 C 10.351562 0.710938 11.289062 1.648438 11.289062 2.800781 L 11.289062 9.199219 C 11.289062 10.351562 10.351562 11.289062 9.199219 11.289062 L 2.800781 11.289062 C 1.648438 11.289062 0.710938 10.351562 0.710938 9.199219 L 0.710938 2.800781 C 0.710938 1.648438 1.648438 0.710938 2.800781 0.710938 Z M 2.800781 0.710938 "/>
<path style=" stroke:none;fill-rule:nonzero;fill:rgb(100%,100%,100%);fill-opacity:1;" d="M 9.234375 1.824219 C 9.398438 1.824219 9.488281 1.953125 9.507812 2.210938 L 9.300781 3.433594 L 9.351562 3.433594 L 9.460938 3.34375 L 9.488281 3.34375 L 9.488281 3.371094 C 9.339844 3.484375 9.195312 3.800781 9.054688 4.3125 C 9 4.753906 8.910156 5.160156 8.785156 5.535156 C 8.671875 5.921875 8.617188 6.277344 8.617188 6.601562 L 8.40625 7.246094 C 8.40625 7.296875 8.488281 7.351562 8.648438 7.40625 C 8.617188 7.535156 8.574219 7.597656 8.515625 7.597656 L 8.515625 7.632812 L 8.566406 7.632812 L 8.566406 7.660156 C 8.566406 7.726562 8.484375 7.761719 8.320312 7.761719 L 8.347656 7.796875 L 8.347656 7.921875 L 8.296875 7.921875 C 8.332031 8.050781 8.402344 8.113281 8.515625 8.113281 L 8.515625 8.175781 L 8.296875 8.175781 L 8.296875 8.210938 C 8.371094 8.210938 8.40625 8.265625 8.40625 8.375 L 8.101562 8.503906 L 8.128906 8.539062 L 8.128906 8.566406 C 8.128906 8.609375 8.09375 8.628906 8.023438 8.628906 L 8.023438 8.664062 C 8.113281 8.664062 8.160156 8.6875 8.160156 8.730469 C 8.027344 8.78125 7.855469 9.050781 7.644531 9.535156 C 7.425781 9.960938 7.238281 10.175781 7.078125 10.175781 L 7.019531 10.175781 C 6.898438 10.082031 6.796875 9.761719 6.722656 9.21875 C 6.410156 8.390625 6.253906 7.90625 6.253906 7.761719 C 6.253906 7.386719 6.15625 7.054688 5.957031 6.632812 C 5.90625 6.445312 5.867188 6.117188 5.847656 5.835938 L 5.71875 5.835938 C 5.386719 6.457031 5.214844 6.929688 5.203125 7.28125 C 5.109375 7.484375 5.039062 7.734375 4.984375 8.023438 C 5.183594 8.089844 5.28125 8.152344 5.28125 8.210938 L 5.28125 8.25 C 5.125 8.226562 5.019531 8.179688 4.953125 8.113281 C 4.886719 8.277344 4.796875 8.628906 4.6875 9.371094 C 4.597656 9.714844 4.488281 9.84375 4.359375 9.84375 C 3.992188 9.691406 3.683594 9.488281 3.4375 9.144531 C 3.398438 9.144531 3.335938 8.972656 3.246094 8.628906 C 3.195312 8.628906 3.15625 8.457031 3.136719 8.113281 C 2.953125 7.625 2.828125 7.167969 2.761719 6.539062 L 2.761719 5.597656 L 2.730469 5.597656 L 2.601562 5.632812 L 2.601562 5.597656 C 2.601562 5.554688 2.644531 5.535156 2.730469 5.535156 L 2.703125 4.992188 L 2.703125 4.566406 L 2.492188 3.207031 L 2.492188 2.695312 C 2.582031 2.332031 2.742188 2.152344 2.972656 2.152344 L 3.058594 2.242188 L 2.972656 2.214844 C 3.324219 2.699219 3.53125 3.039062 3.597656 3.371094 L 3.84375 3.371094 L 3.84375 3.433594 L 3.652344 3.433594 L 3.652344 3.507812 C 3.726562 3.785156 3.78125 3.921875 3.8125 3.921875 L 3.871094 3.921875 L 4.003906 3.886719 L 4.03125 3.921875 L 4.0625 3.886719 L 4.089844 3.921875 L 4.089844 3.949219 C 3.992188 4.023438 3.929688 4.121094 3.894531 4.25 L 3.871094 4.25 L 3.871094 4.3125 L 3.921875 4.3125 C 3.992188 5.320312 4.117188 6.214844 4.300781 6.734375 L 4.410156 6.835938 L 4.46875 6.835938 C 4.539062 6.835938 4.691406 6.441406 4.925781 5.734375 C 5.074219 5.414062 5.183594 5.179688 5.253906 4.9375 L 5.222656 4.839844 C 5.375 4.605469 5.527344 4.496094 5.6875 4.496094 L 5.738281 4.496094 C 5.839844 4.496094 5.914062 4.550781 5.957031 4.683594 C 6.09375 4.882812 6.203125 5.136719 6.285156 5.535156 L 6.691406 6.375 C 6.746094 6.441406 6.773438 6.515625 6.773438 6.601562 C 6.921875 6.957031 7.058594 7.390625 7.179688 7.503906 L 7.265625 7.503906 C 7.367188 7.503906 7.503906 6.867188 7.671875 5.988281 C 7.703125 5.988281 7.78125 5.75 7.914062 5.28125 L 7.914062 5.246094 L 7.773438 5.179688 L 7.664062 5.21875 L 7.527344 5.21875 L 7.527344 5.144531 L 7.804688 5.117188 L 8.023438 5.117188 C 8.230469 4.339844 8.421875 3.734375 8.59375 3.308594 C 8.652344 2.425781 8.734375 1.984375 8.835938 1.984375 L 9.234375 1.824219 "/>
</g>
</svg>
