<?xml version="1.0" encoding="UTF-8"?>
<svg xmlns="http://www.w3.org/2000/svg" xmlns:xlink="http://www.w3.org/1999/xlink" width="12pt" height="12pt" viewBox="0 0 12 12" version="1.1">
<g id="surface1">
<path style=" stroke:none;fill-rule:evenodd;fill:rgb(25.882353%,41.176471%,69.019608%);fill-opacity:1;" d="M 4.640625 3.992188 C 4.332031 3.972656 4.234375 3.996094 4.234375 4.085938 C 4.234375 4.125 4.207031 4.199219 4.179688 4.257812 C 4.128906 4.355469 4.128906 4.359375 4.207031 4.371094 C 4.289062 4.382812 4.335938 4.402344 4.355469 4.457031 C 4.378906 4.515625 4.375 4.609375 4.363281 4.773438 C 4.351562 4.945312 4.332031 5.277344 4.320312 5.515625 C 4.3125 5.753906 4.296875 6.023438 4.285156 6.113281 C 4.273438 6.203125 4.25 6.5625 4.230469 6.910156 C 4.214844 7.257812 4.1875 7.609375 4.175781 7.695312 C 4.152344 7.84375 4.152344 7.847656 4.257812 7.847656 C 4.3125 7.847656 4.414062 7.863281 4.480469 7.882812 C 4.578125 7.910156 4.609375 7.90625 4.660156 7.851562 C 4.730469 7.777344 4.710938 7.808594 5.230469 7.054688 C 5.445312 6.746094 5.6875 6.398438 5.765625 6.285156 C 5.847656 6.171875 5.996094 5.964844 6.09375 5.824219 C 6.191406 5.6875 6.28125 5.570312 6.296875 5.570312 C 6.308594 5.570312 6.320312 6.136719 6.316406 6.828125 L 6.3125 8.082031 L 6.492188 8.105469 C 6.59375 8.117188 6.699219 8.128906 6.734375 8.132812 C 6.769531 8.136719 6.894531 7.988281 7.078125 7.71875 C 7.234375 7.488281 7.398438 7.25 7.445312 7.1875 C 7.542969 7.054688 8.058594 6.3125 8.441406 5.753906 C 9.15625 4.714844 9.105469 4.777344 9.246094 4.777344 C 9.3125 4.777344 9.375 4.753906 9.382812 4.730469 C 9.390625 4.707031 9.417969 4.613281 9.441406 4.527344 C 9.480469 4.40625 9.480469 4.367188 9.445312 4.34375 C 9.394531 4.3125 8.210938 4.230469 8.171875 4.253906 C 8.144531 4.269531 8.03125 4.601562 8.03125 4.664062 C 8.03125 4.6875 8.105469 4.703125 8.210938 4.703125 C 8.308594 4.703125 8.390625 4.714844 8.390625 4.726562 C 8.390625 4.742188 8.332031 4.84375 8.261719 4.953125 C 8.1875 5.066406 7.945312 5.441406 7.71875 5.789062 C 7.492188 6.136719 7.292969 6.441406 7.269531 6.464844 C 7.199219 6.546875 7.152344 6.515625 7.175781 6.40625 C 7.1875 6.34375 7.207031 6.128906 7.21875 5.925781 C 7.230469 5.71875 7.242188 5.464844 7.25 5.355469 C 7.308594 4.472656 7.3125 4.207031 7.28125 4.183594 C 7.261719 4.171875 7.105469 4.152344 6.933594 4.136719 L 6.625 4.113281 L 6.359375 4.527344 C 6.210938 4.753906 5.890625 5.257812 5.640625 5.652344 C 5.394531 6.042969 5.167969 6.363281 5.140625 6.363281 C 5.101562 6.367188 5.09375 6.304688 5.113281 6.03125 C 5.125 5.847656 5.144531 5.476562 5.15625 5.210938 C 5.171875 4.832031 5.175781 4.652344 5.207031 4.566406 C 5.238281 4.480469 5.296875 4.484375 5.417969 4.480469 L 5.621094 4.46875 L 5.6875 4.289062 C 5.722656 4.1875 5.75 4.097656 5.75 4.085938 C 5.75 4.074219 5.5625 4.050781 5.328125 4.039062 C 5.09375 4.023438 4.785156 4.003906 4.640625 3.992188 Z M 4.640625 3.992188 "/>
<path style=" stroke:none;fill-rule:evenodd;fill:rgb(25.882353%,41.176471%,69.019608%);fill-opacity:1;" d="M 9.378906 11.25 C 9.136719 11.222656 8.957031 11.199219 8.15625 11.105469 C 6.8125 10.945312 6.625 10.921875 6.332031 10.886719 C 5.640625 10.800781 4.695312 10.691406 4.304688 10.648438 C 4.195312 10.640625 4.007812 10.617188 3.890625 10.597656 C 3.769531 10.582031 3.664062 10.578125 3.648438 10.589844 C 3.636719 10.605469 3.605469 10.738281 3.585938 10.886719 C 3.566406 11.035156 3.539062 11.210938 3.523438 11.273438 C 3.523438 11.289062 3.535156 11.277344 3.535156 11.289062 L 9.199219 11.289062 C 9.261719 11.289062 9.316406 11.257812 9.378906 11.25 Z M 9.378906 11.25 "/>
<path style=" stroke:none;fill-rule:evenodd;fill:rgb(25.882353%,41.176471%,69.019608%);fill-opacity:1;" d="M 11.207031 9.613281 C 11.121094 9.601562 11.046875 9.59375 10.957031 9.585938 C 10.75 9.5625 10.457031 9.53125 10.308594 9.511719 C 10.160156 9.496094 9.867188 9.460938 9.65625 9.441406 C 9.449219 9.417969 9.058594 9.378906 8.789062 9.347656 C 8.519531 9.316406 8.074219 9.269531 7.796875 9.242188 C 6.976562 9.152344 6.933594 9.148438 6.800781 9.132812 C 6.730469 9.121094 6.578125 9.105469 6.457031 9.09375 C 6.335938 9.085938 6.101562 9.058594 5.933594 9.039062 C 5.761719 9.023438 5.460938 8.992188 5.265625 8.96875 C 5.066406 8.949219 4.820312 8.925781 4.722656 8.914062 C 4.128906 8.851562 3.941406 8.839844 3.910156 8.878906 C 3.894531 8.898438 3.871094 9.003906 3.859375 9.113281 C 3.847656 9.222656 3.824219 9.386719 3.808594 9.480469 L 3.777344 9.648438 L 3.976562 9.671875 C 4.089844 9.683594 4.351562 9.71875 4.558594 9.746094 C 4.765625 9.777344 5.078125 9.820312 5.246094 9.839844 C 5.414062 9.859375 5.683594 9.890625 5.84375 9.910156 C 6 9.929688 6.269531 9.960938 6.4375 9.980469 C 6.609375 10 7.078125 10.054688 7.488281 10.105469 C 7.894531 10.160156 8.496094 10.234375 8.824219 10.273438 C 9.910156 10.402344 10.035156 10.417969 10.289062 10.453125 C 10.402344 10.46875 10.609375 10.492188 10.789062 10.511719 C 11 10.253906 11.136719 9.949219 11.207031 9.613281 Z M 11.207031 9.613281 "/>
<path style=" stroke:none;fill-rule:evenodd;fill:rgb(25.882353%,41.176471%,69.019608%);fill-opacity:1;" d="M 11.289062 7.898438 C 11.253906 7.894531 11.21875 7.890625 11.175781 7.882812 C 9.59375 7.726562 9.617188 7.726562 9.585938 7.847656 C 9.570312 7.898438 9.550781 8.070312 9.535156 8.230469 L 9.511719 8.523438 L 9.773438 8.550781 C 9.917969 8.5625 10.09375 8.582031 10.164062 8.589844 C 10.234375 8.597656 10.460938 8.621094 10.667969 8.644531 C 10.878906 8.667969 11.136719 8.699219 11.246094 8.714844 C 11.257812 8.714844 11.277344 8.714844 11.289062 8.71875 Z M 11.289062 7.898438 "/>
<path style=" stroke:none;fill-rule:evenodd;fill:rgb(25.882353%,41.176471%,69.019608%);fill-opacity:1;" d="M 11.289062 6.175781 C 11.191406 6.167969 11.097656 6.160156 10.996094 6.148438 C 10.289062 6.085938 9.824219 6.054688 9.796875 6.0625 C 9.769531 6.078125 9.675781 6.796875 9.703125 6.820312 C 9.714844 6.832031 9.882812 6.859375 10.078125 6.875 C 10.273438 6.894531 10.613281 6.925781 10.832031 6.949219 C 10.96875 6.960938 11.132812 6.976562 11.289062 6.988281 Z M 11.289062 6.175781 "/>
<path style=" stroke:none;fill-rule:evenodd;fill:rgb(25.882353%,41.176471%,69.019608%);fill-opacity:1;" d="M 11.289062 4.457031 C 11.082031 4.441406 10.867188 4.429688 10.679688 4.417969 C 10.359375 4.394531 10.082031 4.375 10.066406 4.375 C 9.972656 4.359375 9.949219 4.394531 9.929688 4.621094 C 9.917969 4.753906 9.898438 4.925781 9.886719 4.996094 C 9.875 5.078125 9.871094 5.121094 9.929688 5.144531 C 9.992188 5.167969 10.113281 5.175781 10.351562 5.191406 C 10.554688 5.203125 10.84375 5.226562 10.988281 5.246094 C 11.074219 5.257812 11.183594 5.261719 11.289062 5.269531 Z M 11.289062 4.457031 "/>
<path style=" stroke:none;fill-rule:evenodd;fill:rgb(94.901961%,96.862745%,98.039216%);fill-opacity:1;" d="M 11.289062 3.078125 L 3.351562 2.554688 L 1.890625 11.0625 C 2.167969 11.195312 2.472656 11.289062 2.804688 11.289062 L 3.535156 11.289062 C 3.535156 11.277344 3.523438 11.289062 3.523438 11.273438 C 3.539062 11.210938 3.566406 11.035156 3.585938 10.886719 C 3.605469 10.738281 3.636719 10.605469 3.648438 10.589844 C 3.664062 10.578125 3.769531 10.582031 3.890625 10.597656 C 4.007812 10.617188 4.195312 10.640625 4.304688 10.648438 C 4.695312 10.691406 5.640625 10.800781 6.332031 10.886719 C 6.625 10.921875 6.8125 10.945312 8.15625 11.105469 C 8.957031 11.199219 9.136719 11.222656 9.378906 11.25 C 9.953125 11.199219 10.445312 10.929688 10.789062 10.511719 C 10.609375 10.492188 10.402344 10.46875 10.289062 10.453125 C 10.035156 10.417969 9.910156 10.402344 8.824219 10.273438 C 8.496094 10.234375 7.894531 10.160156 7.488281 10.105469 C 7.078125 10.054688 6.609375 10 6.4375 9.980469 C 6.269531 9.960938 6 9.929688 5.84375 9.910156 C 5.683594 9.890625 5.414062 9.859375 5.246094 9.839844 C 5.078125 9.820312 4.765625 9.777344 4.558594 9.746094 C 4.351562 9.71875 4.089844 9.683594 3.976562 9.671875 L 3.777344 9.648438 L 3.808594 9.480469 C 3.824219 9.386719 3.847656 9.222656 3.859375 9.113281 C 3.871094 9.003906 3.894531 8.898438 3.910156 8.878906 C 3.941406 8.839844 4.128906 8.851562 4.722656 8.914062 C 4.820312 8.925781 5.066406 8.949219 5.265625 8.96875 C 5.460938 8.992188 5.761719 9.023438 5.933594 9.039062 C 6.101562 9.058594 6.335938 9.085938 6.457031 9.09375 C 6.578125 9.105469 6.730469 9.121094 6.800781 9.132812 C 6.933594 9.148438 6.976562 9.152344 7.796875 9.242188 C 8.074219 9.269531 8.519531 9.316406 8.789062 9.347656 C 9.058594 9.378906 9.449219 9.417969 9.65625 9.441406 C 9.867188 9.460938 10.160156 9.496094 10.308594 9.511719 C 10.457031 9.53125 10.75 9.5625 10.957031 9.585938 C 11.046875 9.59375 11.121094 9.601562 11.207031 9.613281 C 11.234375 9.472656 11.289062 9.34375 11.289062 9.199219 L 11.289062 8.71875 C 11.277344 8.714844 11.257812 8.714844 11.246094 8.714844 C 11.136719 8.699219 10.878906 8.667969 10.667969 8.644531 C 10.460938 8.621094 10.234375 8.597656 10.164062 8.589844 C 10.09375 8.582031 9.917969 8.5625 9.773438 8.550781 L 9.511719 8.523438 L 9.535156 8.230469 C 9.550781 8.070312 9.570312 7.898438 9.585938 7.847656 C 9.617188 7.726562 9.59375 7.726562 11.175781 7.882812 C 11.21875 7.890625 11.253906 7.894531 11.289062 7.898438 L 11.289062 6.988281 C 11.132812 6.976562 10.96875 6.960938 10.832031 6.949219 C 10.613281 6.925781 10.273438 6.894531 10.078125 6.875 C 9.882812 6.859375 9.714844 6.832031 9.703125 6.820312 C 9.675781 6.796875 9.769531 6.078125 9.796875 6.0625 C 9.824219 6.054688 10.289062 6.085938 10.996094 6.148438 C 11.097656 6.160156 11.191406 6.167969 11.289062 6.175781 L 11.289062 5.269531 C 11.183594 5.261719 11.074219 5.257812 10.988281 5.246094 C 10.84375 5.226562 10.554688 5.203125 10.351562 5.191406 C 10.113281 5.175781 9.992188 5.167969 9.929688 5.144531 C 9.871094 5.121094 9.875 5.078125 9.886719 4.996094 C 9.898438 4.925781 9.917969 4.753906 9.929688 4.621094 C 9.949219 4.394531 9.972656 4.359375 10.066406 4.375 C 10.082031 4.375 10.359375 4.394531 10.679688 4.417969 C 10.867188 4.429688 11.082031 4.441406 11.289062 4.457031 Z M 4.640625 3.992188 C 4.785156 4.003906 5.09375 4.023438 5.328125 4.035156 C 5.5625 4.050781 5.75 4.074219 5.75 4.085938 C 5.75 4.097656 5.722656 4.1875 5.6875 4.289062 L 5.621094 4.46875 L 5.417969 4.480469 C 5.296875 4.484375 5.238281 4.480469 5.207031 4.566406 C 5.175781 4.652344 5.171875 4.832031 5.15625 5.210938 C 5.144531 5.476562 5.125 5.847656 5.113281 6.03125 C 5.09375 6.304688 5.101562 6.367188 5.140625 6.363281 C 5.167969 6.363281 5.394531 6.042969 5.640625 5.652344 C 5.890625 5.257812 6.210938 4.753906 6.359375 4.527344 L 6.625 4.113281 L 6.933594 4.136719 C 7.105469 4.152344 7.261719 4.171875 7.28125 4.183594 C 7.3125 4.207031 7.308594 4.472656 7.25 5.355469 C 7.242188 5.464844 7.230469 5.71875 7.21875 5.925781 C 7.207031 6.128906 7.1875 6.34375 7.175781 6.402344 C 7.152344 6.515625 7.199219 6.546875 7.269531 6.464844 C 7.292969 6.441406 7.492188 6.136719 7.71875 5.789062 C 7.945312 5.441406 8.1875 5.066406 8.261719 4.953125 C 8.332031 4.84375 8.390625 4.742188 8.390625 4.726562 C 8.390625 4.714844 8.308594 4.703125 8.210938 4.703125 C 8.105469 4.703125 8.03125 4.6875 8.03125 4.664062 C 8.03125 4.601562 8.144531 4.269531 8.171875 4.253906 C 8.210938 4.230469 9.394531 4.3125 9.445312 4.34375 C 9.480469 4.367188 9.480469 4.40625 9.441406 4.527344 C 9.417969 4.613281 9.390625 4.707031 9.382812 4.730469 C 9.375 4.753906 9.3125 4.773438 9.246094 4.773438 C 9.105469 4.773438 9.15625 4.714844 8.441406 5.753906 C 8.058594 6.3125 7.542969 7.054688 7.445312 7.1875 C 7.398438 7.25 7.234375 7.488281 7.078125 7.71875 C 6.894531 7.988281 6.769531 8.136719 6.734375 8.132812 C 6.699219 8.128906 6.59375 8.117188 6.492188 8.105469 L 6.3125 8.082031 L 6.316406 6.828125 C 6.320312 6.136719 6.308594 5.570312 6.296875 5.570312 C 6.28125 5.570312 6.191406 5.6875 6.09375 5.824219 C 5.996094 5.964844 5.847656 6.171875 5.765625 6.285156 C 5.6875 6.398438 5.445312 6.746094 5.230469 7.054688 C 4.710938 7.808594 4.730469 7.777344 4.660156 7.851562 C 4.609375 7.90625 4.578125 7.910156 4.480469 7.882812 C 4.414062 7.863281 4.3125 7.847656 4.257812 7.847656 C 4.152344 7.847656 4.152344 7.84375 4.175781 7.695312 C 4.1875 7.609375 4.214844 7.257812 4.230469 6.910156 C 4.25 6.5625 4.273438 6.203125 4.285156 6.113281 C 4.296875 6.023438 4.3125 5.753906 4.320312 5.515625 C 4.332031 5.277344 4.351562 4.945312 4.363281 4.773438 C 4.375 4.609375 4.378906 4.515625 4.355469 4.457031 C 4.335938 4.402344 4.289062 4.382812 4.207031 4.371094 C 4.128906 4.359375 4.128906 4.355469 4.179688 4.257812 C 4.207031 4.199219 4.234375 4.125 4.234375 4.085938 C 4.234375 3.996094 4.332031 3.972656 4.640625 3.992188 Z M 4.640625 3.992188 "/>
<path style=" stroke:none;fill-rule:evenodd;fill:rgb(25.882353%,41.176471%,69.019608%);fill-opacity:1;" d="M 2.804688 0.710938 C 1.644531 0.710938 0.710938 1.644531 0.710938 2.804688 L 0.710938 9.199219 C 0.710938 10.023438 1.199219 10.722656 1.890625 11.0625 L 3.351562 2.554688 L 11.289062 3.078125 L 11.289062 2.804688 C 11.289062 1.644531 10.355469 0.710938 9.199219 0.710938 Z M 2.804688 0.710938 "/>
</g>
</svg>
