<?xml version="1.0" encoding="UTF-8"?>
<svg xmlns="http://www.w3.org/2000/svg" xmlns:xlink="http://www.w3.org/1999/xlink" width="12pt" height="12pt" viewBox="0 0 12 12" version="1.1">
<g id="surface1">
<path style=" stroke:none;fill-rule:evenodd;fill:rgb(99.607843%,80.392157%,21.960784%);fill-opacity:1;" d="M 2.800781 0.710938 L 9.199219 0.710938 C 10.351562 0.710938 11.289062 1.648438 11.289062 2.800781 L 11.289062 9.199219 C 11.289062 10.351562 10.351562 11.289062 9.199219 11.289062 L 2.800781 11.289062 C 1.648438 11.289062 0.710938 10.351562 0.710938 9.199219 L 0.710938 2.800781 C 0.710938 1.648438 1.648438 0.710938 2.800781 0.710938 Z M 2.800781 0.710938 "/>
<path style=" stroke:none;fill-rule:nonzero;fill:rgb(24.705882%,24.705882%,24.705882%);fill-opacity:1;" d="M 5.972656 2.25 C 4.746094 2.25 4.015625 3.015625 4.015625 3.015625 L 5.140625 5.148438 C 5.390625 4.972656 5.691406 4.875 6 4.875 C 6.292969 4.875 6.574219 4.960938 6.820312 5.121094 L 7.929688 3.015625 C 7.929688 3.015625 7.195312 2.25 5.972656 2.25 Z M 6 5.625 C 5.585938 5.625 5.25 5.960938 5.25 6.375 C 5.25 6.789062 5.585938 7.125 6 7.125 C 6.414062 7.125 6.75 6.789062 6.75 6.375 C 6.75 5.960938 6.414062 5.625 6 5.625 Z M 7.519531 6.332031 C 7.515625 6.441406 7.5 6.550781 7.472656 6.660156 C 7.46875 6.675781 7.464844 6.691406 7.460938 6.707031 C 7.460938 6.714844 7.457031 6.722656 7.457031 6.730469 C 7.355469 7.144531 7.082031 7.496094 6.707031 7.695312 L 8.082031 9.71875 C 8.082031 9.71875 9.140625 9.492188 9.75 8.472656 C 10.363281 7.453125 10.039062 6.464844 10.039062 6.464844 Z M 4.480469 6.359375 L 1.960938 6.496094 C 1.960938 6.496094 1.636719 7.488281 2.25 8.507812 C 2.863281 9.523438 3.917969 9.75 3.917969 9.75 L 5.296875 7.722656 C 5.164062 7.640625 5.042969 7.542969 4.933594 7.425781 C 4.914062 7.40625 4.894531 7.386719 4.875 7.367188 C 4.859375 7.347656 4.84375 7.328125 4.828125 7.308594 C 4.824219 7.308594 4.824219 7.308594 4.824219 7.308594 C 4.789062 7.257812 4.753906 7.207031 4.722656 7.15625 C 4.71875 7.152344 4.714844 7.144531 4.710938 7.140625 C 4.703125 7.128906 4.699219 7.117188 4.695312 7.105469 C 4.675781 7.078125 4.660156 7.046875 4.644531 7.011719 C 4.542969 6.804688 4.484375 6.582031 4.480469 6.359375 Z M 4.480469 6.359375 "/>
</g>
</svg>
