<?xml version="1.0" encoding="UTF-8"?>
<svg xmlns="http://www.w3.org/2000/svg" xmlns:xlink="http://www.w3.org/1999/xlink" width="12pt" height="12pt" viewBox="0 0 12 12" version="1.1">
<g id="surface1">
<path style=" stroke:none;fill-rule:evenodd;fill:rgb(35.686275%,35.686275%,35.686275%);fill-opacity:1;" d="M 2.800781 0.710938 L 9.199219 0.710938 C 10.351562 0.710938 11.289062 1.648438 11.289062 2.800781 L 11.289062 9.199219 C 11.289062 10.351562 10.351562 11.289062 9.199219 11.289062 L 2.800781 11.289062 C 1.648438 11.289062 0.710938 10.351562 0.710938 9.199219 L 0.710938 2.800781 C 0.710938 1.648438 1.648438 0.710938 2.800781 0.710938 Z M 2.800781 0.710938 "/>
<path style=" stroke:none;fill-rule:nonzero;fill:rgb(55.686275%,55.686275%,55.686275%);fill-opacity:1;" d="M 10.179688 7.285156 L 10.179688 7.609375 L 1.820312 7.609375 L 1.820312 7.285156 Z M 10.179688 7.285156 "/>
<path style=" stroke:none;fill-rule:nonzero;fill:rgb(55.686275%,55.686275%,55.686275%);fill-opacity:1;" d="M 10.179688 8.25 L 10.179688 8.574219 L 1.820312 8.574219 L 1.820312 8.25 Z M 10.179688 8.25 "/>
<path style=" stroke:none;fill-rule:nonzero;fill:rgb(55.686275%,55.686275%,55.686275%);fill-opacity:1;" d="M 10.179688 9.214844 L 10.179688 9.539062 L 1.820312 9.539062 L 1.820312 9.214844 Z M 10.179688 9.214844 "/>
<path style=" stroke:none;fill-rule:nonzero;fill:rgb(55.686275%,55.686275%,55.686275%);fill-opacity:1;" d="M 10.179688 4.390625 L 10.179688 4.714844 L 1.820312 4.714844 L 1.820312 4.390625 Z M 10.179688 4.390625 "/>
<path style=" stroke:none;fill-rule:nonzero;fill:rgb(55.686275%,55.686275%,55.686275%);fill-opacity:1;" d="M 10.179688 5.355469 L 10.179688 5.679688 L 1.820312 5.679688 L 1.820312 5.355469 Z M 10.179688 5.355469 "/>
<path style=" stroke:none;fill-rule:nonzero;fill:rgb(55.686275%,55.686275%,55.686275%);fill-opacity:1;" d="M 10.179688 6.320312 L 10.179688 6.644531 L 1.820312 6.644531 L 1.820312 6.320312 Z M 10.179688 6.320312 "/>
<path style=" stroke:none;fill-rule:nonzero;fill:rgb(55.686275%,55.686275%,55.686275%);fill-opacity:1;" d="M 10.179688 3.425781 L 10.179688 3.75 L 1.820312 3.75 L 1.820312 3.425781 Z M 10.179688 3.425781 "/>
<path style=" stroke:none;fill-rule:nonzero;fill:rgb(55.686275%,55.686275%,55.686275%);fill-opacity:1;" d="M 10.179688 2.460938 L 10.179688 2.785156 L 1.820312 2.785156 L 1.820312 2.460938 Z M 10.179688 2.460938 "/>
<path style=" stroke:none;fill-rule:nonzero;fill:rgb(55.686275%,55.686275%,55.686275%);fill-opacity:1;" d="M 4.714844 10.179688 L 4.390625 10.179688 L 4.390625 1.820312 L 4.714844 1.820312 Z M 4.714844 10.179688 "/>
<path style=" stroke:none;fill-rule:nonzero;fill:rgb(55.686275%,55.686275%,55.686275%);fill-opacity:1;" d="M 3.75 10.179688 L 3.425781 10.179688 L 3.425781 1.820312 L 3.75 1.820312 Z M 3.75 10.179688 "/>
<path style=" stroke:none;fill-rule:nonzero;fill:rgb(55.686275%,55.686275%,55.686275%);fill-opacity:1;" d="M 2.785156 10.179688 L 2.460938 10.179688 L 2.460938 1.820312 L 2.785156 1.820312 Z M 2.785156 10.179688 "/>
<path style=" stroke:none;fill-rule:nonzero;fill:rgb(55.686275%,55.686275%,55.686275%);fill-opacity:1;" d="M 7.609375 10.179688 L 7.285156 10.179688 L 7.285156 1.820312 L 7.609375 1.820312 Z M 7.609375 10.179688 "/>
<path style=" stroke:none;fill-rule:nonzero;fill:rgb(55.686275%,55.686275%,55.686275%);fill-opacity:1;" d="M 6.644531 10.179688 L 6.320312 10.179688 L 6.320312 1.820312 L 6.644531 1.820312 Z M 6.644531 10.179688 "/>
<path style=" stroke:none;fill-rule:nonzero;fill:rgb(55.686275%,55.686275%,55.686275%);fill-opacity:1;" d="M 5.679688 10.179688 L 5.355469 10.179688 L 5.355469 1.820312 L 5.679688 1.820312 Z M 5.679688 10.179688 "/>
<path style=" stroke:none;fill-rule:nonzero;fill:rgb(55.686275%,55.686275%,55.686275%);fill-opacity:1;" d="M 8.574219 10.179688 L 8.25 10.179688 L 8.25 1.820312 L 8.574219 1.820312 Z M 8.574219 10.179688 "/>
<path style=" stroke:none;fill-rule:nonzero;fill:rgb(55.686275%,55.686275%,55.686275%);fill-opacity:1;" d="M 9.539062 10.179688 L 9.214844 10.179688 L 9.214844 1.820312 L 9.539062 1.820312 Z M 9.539062 10.179688 "/>
<path style=" stroke:none;fill-rule:nonzero;fill:rgb(71.764706%,71.764706%,71.764706%);fill-opacity:1;" d="M 9.859375 9.457031 L 9.859375 2.542969 C 9.859375 2.320312 9.679688 2.140625 9.457031 2.140625 L 2.542969 2.140625 C 2.320312 2.140625 2.140625 2.320312 2.140625 2.542969 L 2.140625 9.457031 C 2.140625 9.679688 2.320312 9.859375 2.542969 9.859375 L 9.457031 9.859375 C 9.679688 9.859375 9.859375 9.679688 9.859375 9.457031 Z M 9.859375 9.457031 "/>
<path style=" stroke:none;fill-rule:nonzero;fill:rgb(40%,40%,40%);fill-opacity:1;" d="M 3.105469 4.390625 L 5.035156 4.390625 L 5.035156 4.714844 L 3.105469 4.714844 Z M 3.105469 4.390625 "/>
<path style=" stroke:none;fill-rule:nonzero;fill:rgb(40%,40%,40%);fill-opacity:1;" d="M 5.355469 4.390625 L 6.320312 4.390625 L 6.320312 4.714844 L 5.355469 4.714844 Z M 5.355469 4.390625 "/>
<path style=" stroke:none;fill-rule:nonzero;fill:rgb(40%,40%,40%);fill-opacity:1;" d="M 6.644531 4.390625 L 8.894531 4.390625 L 8.894531 4.714844 L 6.644531 4.714844 Z M 6.644531 4.390625 "/>
<path style=" stroke:none;fill-rule:nonzero;fill:rgb(40%,40%,40%);fill-opacity:1;" d="M 3.105469 5.679688 L 5.679688 5.679688 L 5.679688 6 L 3.105469 6 Z M 3.105469 5.679688 "/>
<path style=" stroke:none;fill-rule:nonzero;fill:rgb(40%,40%,40%);fill-opacity:1;" d="M 6 5.679688 L 8.574219 5.679688 L 8.574219 6 L 6 6 Z M 6 5.679688 "/>
<path style=" stroke:none;fill-rule:nonzero;fill:rgb(40%,40%,40%);fill-opacity:1;" d="M 3.105469 6.964844 L 4.070312 6.964844 L 4.070312 7.285156 L 3.105469 7.285156 Z M 3.105469 6.964844 "/>
<path style=" stroke:none;fill-rule:nonzero;fill:rgb(40%,40%,40%);fill-opacity:1;" d="M 4.390625 6.964844 L 5.355469 6.964844 L 5.355469 7.285156 L 4.390625 7.285156 Z M 4.390625 6.964844 "/>
<path style=" stroke:none;fill-rule:nonzero;fill:rgb(40%,40%,40%);fill-opacity:1;" d="M 5.679688 6.964844 L 7.609375 6.964844 L 7.609375 7.285156 L 5.679688 7.285156 Z M 5.679688 6.964844 "/>
</g>
</svg>
