<?xml version="1.0" encoding="UTF-8"?>
<svg xmlns="http://www.w3.org/2000/svg" xmlns:xlink="http://www.w3.org/1999/xlink" width="36pt" height="36pt" viewBox="0 0 36 36" version="1.1">
<g id="surface1">
<path style=" stroke:none;fill-rule:evenodd;fill:rgb(63.137255%,14.509804%,16.862745%);fill-opacity:1;" d="M 8.40625 2.136719 L 27.59375 2.136719 C 31.054688 2.136719 33.863281 4.945312 33.863281 8.40625 L 33.863281 27.59375 C 33.863281 31.054688 31.054688 33.863281 27.59375 33.863281 L 8.40625 33.863281 C 4.945312 33.863281 2.136719 31.054688 2.136719 27.59375 L 2.136719 8.40625 C 2.136719 4.945312 4.945312 2.136719 8.40625 2.136719 Z M 8.40625 2.136719 "/>
<path style=" stroke:none;fill-rule:nonzero;fill:rgb(100%,100%,100%);fill-opacity:1;" d="M 14.035156 8.875 C 11.015625 8.875 8.484375 11.410156 8.484375 14.429688 C 8.484375 15.617188 8.886719 16.722656 9.546875 17.636719 L 7.464844 21.105469 C 5.878906 23.75 7.78125 27.113281 10.859375 27.113281 L 25.136719 27.125 C 28.082031 27.125 30 24.023438 28.683594 21.386719 L 25.511719 15.035156 C 24.386719 12.789062 21.484375 12.140625 19.511719 13.699219 C 19.140625 11.015625 16.804688 8.875 14.035156 8.875 Z M 14.035156 8.875 "/>
<path style=" stroke:none;fill-rule:nonzero;fill:rgb(63.137255%,14.509804%,16.862745%);fill-opacity:1;" d="M 14.03125 12.84375 C 13.15625 12.84375 12.445312 13.554688 12.445312 14.429688 C 12.445312 15.304688 13.15625 16.015625 14.03125 16.015625 C 14.910156 16.015625 15.621094 15.304688 15.621094 14.429688 C 15.621094 13.554688 14.910156 12.84375 14.03125 12.84375 Z M 21.96875 16.808594 L 19.585938 20.378906 L 17.207031 18.398438 L 14.828125 21.570312 L 13.238281 19.191406 L 10.859375 23.152344 L 25.140625 23.160156 Z M 21.96875 16.808594 "/>
</g>
</svg>
