<?xml version="1.0" encoding="UTF-8"?>
<svg xmlns="http://www.w3.org/2000/svg" xmlns:xlink="http://www.w3.org/1999/xlink" width="36pt" height="36pt" viewBox="0 0 36 36" version="1.1">
<defs>
<clipPath id="clip1">
  <rect width="36" height="36"/>
</clipPath>
<g id="surface6" clip-path="url(#clip1)">
<path style=" stroke:none;fill-rule:nonzero;fill:rgb(100%,20.392157%,20.392157%);fill-opacity:1;" d="M 9.148438 2.136719 L 9.148438 15.902344 L 11.117188 13.9375 L 13.082031 15.902344 L 13.082031 2.136719 Z M 9.148438 2.136719 "/>
</g>
</defs>
<g id="surface1">
<path style=" stroke:none;fill-rule:evenodd;fill:rgb(45.490196%,31.764706%,27.058824%);fill-opacity:1;" d="M 8.40625 2.136719 L 27.59375 2.136719 C 31.054688 2.136719 33.863281 4.945312 33.863281 8.40625 L 33.863281 27.59375 C 33.863281 31.054688 31.054688 33.863281 27.59375 33.863281 L 8.40625 33.863281 C 4.945312 33.863281 2.136719 31.054688 2.136719 27.59375 L 2.136719 8.40625 C 2.136719 4.945312 4.945312 2.136719 8.40625 2.136719 Z M 8.40625 2.136719 "/>
<path style=" stroke:none;fill-rule:nonzero;fill:rgb(100%,20.392157%,20.392157%);fill-opacity:1;" d="M 24.101562 11.96875 C 24.339844 11.984375 24.597656 11.96875 24.878906 12.164062 C 27.394531 13.246094 25.707031 16.214844 22.503906 18.476562 C 22.484375 18.050781 22.304688 17.121094 22.308594 16.714844 C 25.046875 14.839844 26.644531 13.011719 24.902344 12.289062 C 23.066406 11.527344 22.496094 13.609375 22.460938 16.632812 C 22.289062 16.808594 21.105469 17.597656 20.925781 17.722656 C 20.992188 14.964844 22.457031 12.152344 23.863281 11.988281 C 23.941406 11.976562 24.023438 11.976562 24.101562 11.976562 M 21.542969 16.773438 L 22.113281 16.550781 L 22.589844 16.867188 L 22.683594 17.875 L 22.085938 18.335938 L 21.835938 18.667969 C 19.992188 19.890625 18.417969 20.835938 16.351562 21.613281 L 15.0625 21.804688 L 14.210938 21.804688 C 13.429688 21.34375 13.894531 21.167969 11.054688 20.8125 L 14.257812 21.0625 C 16.726562 20.101562 19.25 18.726562 21.542969 17.226562 M 15.90625 21.238281 C 15.535156 21.238281 12.644531 20.988281 11.492188 20.882812 C 10.355469 20.703125 8.957031 20.652344 9.222656 21.980469 C 8.921875 21.273438 9.605469 20.066406 10.582031 19.855469 C 12.089844 19.515625 14.484375 20.441406 15.347656 20.726562 M 13.960938 21.09375 C 14.410156 21.273438 15.433594 21.398438 15.917969 21.558594 C 15.230469 21.914062 11.785156 23.1875 10.363281 22.921875 C 10.132812 22.921875 9.171875 22.230469 9.148438 21.734375 C 9.222656 22.636719 13.4375 21.964844 13.960938 21.078125 M 13.023438 21.09375 C 13.390625 20.914062 15.121094 20.925781 15.5 20.78125 C 17.667969 21.539062 20.578125 23.316406 22.664062 24.515625 L 23.265625 24.695312 C 23.382812 25.523438 23.894531 25.808594 24.359375 26.34375 L 23.652344 27.054688 L 23.101562 26.148438 C 20.660156 24.675781 15.839844 22.296875 13.023438 21.15625 M 23.101562 26.148438 C 23.402344 26.328125 23.683594 26.503906 23.957031 26.683594 C 24.582031 28.457031 25.3125 29.652344 26.007812 29.601562 C 24.929688 30.117188 22.613281 27.582031 21.832031 25.195312 M 26.007812 29.601562 C 27.648438 28.625 24.175781 26.847656 23.394531 26.332031 C 23.21875 25.835938 23.699219 25.011719 23.542969 24.425781 C 25.992188 25.953125 27.441406 28.160156 26.617188 29.207031 C 26.421875 29.453125 26.210938 29.578125 26.003906 29.597656 M 23.617188 25.878906 C 23.503906 25.421875 21.992188 24.382812 21.71875 24.222656 C 21.351562 21.339844 21.335938 21.054688 21.023438 18.8125 C 21.210938 18.636719 22.355469 17.742188 22.53125 17.617188 C 22.75 20.015625 23.164062 23.261719 23.75 25.429688 "/>
<use xlink:href="#surface6"/>
</g>
</svg>
