<?xml version="1.0" encoding="UTF-8"?>
<svg xmlns="http://www.w3.org/2000/svg" xmlns:xlink="http://www.w3.org/1999/xlink" width="36pt" height="36pt" viewBox="0 0 36 36" version="1.1">
<g id="surface1">
<path style=" stroke:none;fill-rule:evenodd;fill:rgb(16.470588%,63.529412%,93.333333%);fill-opacity:1;" d="M 8.40625 2.136719 L 27.59375 2.136719 C 31.054688 2.136719 33.863281 4.945312 33.863281 8.40625 L 33.863281 27.59375 C 33.863281 31.054688 31.054688 33.863281 27.59375 33.863281 L 8.40625 33.863281 C 4.945312 33.863281 2.136719 31.054688 2.136719 27.59375 L 2.136719 8.40625 C 2.136719 4.945312 4.945312 2.136719 8.40625 2.136719 Z M 8.40625 2.136719 "/>
<path style=" stroke:none;fill-rule:nonzero;fill:rgb(100%,100%,100%);fill-opacity:1;" d="M 15.941406 28.957031 C 13.484375 28.703125 11.773438 28 10.507812 26.722656 C 9.996094 26.207031 9.648438 25.734375 9.359375 25.15625 C 8.75 23.933594 8.558594 22.558594 8.855469 21.542969 C 9.152344 20.535156 9.832031 19.421875 10.78125 18.371094 C 11.3125 17.789062 11.578125 17.414062 11.824219 16.9375 C 12.117188 16.367188 12.148438 15.984375 12.125 15.453125 C 12.101562 14.9375 11.988281 14.714844 11.707031 14.480469 C 11.441406 14.257812 11.328125 14.136719 10.5 14.175781 C 9.691406 14.214844 9.292969 14.164062 8.90625 13.976562 C 8.609375 13.832031 8.5 13.667969 8.59375 13.496094 C 9.078125 13.121094 9.246094 12.707031 9.773438 12.515625 C 9 11.855469 8.234375 11.164062 8.207031 10.175781 C 8.261719 9.648438 8.753906 9.773438 8.753906 9.773438 C 9.519531 9.929688 10.3125 10.085938 11.035156 10.109375 C 11.242188 10.082031 11.460938 10.027344 11.523438 9.988281 C 11.582031 9.949219 11.746094 9.714844 11.886719 9.46875 C 12.429688 8.503906 13.007812 7.882812 13.652344 7.5625 C 14.398438 7.195312 15.449219 6.996094 16.449219 7.039062 C 17.652344 7.089844 18.675781 7.503906 19.507812 8.285156 C 20.082031 8.820312 20.460938 8.953125 21.003906 8.8125 C 21.390625 8.714844 21.398438 8.714844 21.398438 8.832031 C 21.398438 8.992188 21.273438 9.195312 21.078125 9.351562 L 20.898438 9.496094 L 21.078125 9.605469 C 21.328125 9.75 21.296875 9.871094 21.003906 9.910156 C 20.757812 9.945312 20.574219 10.027344 20.574219 10.101562 C 20.574219 10.128906 20.609375 10.351562 20.652344 10.601562 C 20.757812 11.210938 20.71875 12.390625 20.578125 12.972656 C 20.355469 13.875 20.015625 14.511719 19.441406 15.117188 C 18.992188 15.523438 17.726562 16.359375 17.609375 16.433594 C 17.664062 16.433594 18.148438 16.40625 18.472656 16.433594 C 19.660156 16.539062 20.488281 16.738281 21.683594 17.296875 C 22.808594 17.820312 23.289062 17.878906 23.910156 17.558594 C 24.308594 17.355469 24.878906 16.921875 25.304688 16.347656 C 25.667969 15.859375 25.886719 15.648438 26.226562 15.648438 C 26.554688 15.648438 26.792969 15.867188 27.046875 16.25 C 27.402344 16.792969 27.59375 17.179688 27.730469 18.125 C 27.832031 18.800781 27.804688 20.382812 27.679688 21.054688 C 26.953125 25.078125 24.386719 27.785156 20.46875 28.664062 C 19.410156 28.902344 18.984375 28.945312 17.519531 28.960938 C 16.757812 28.96875 16.050781 28.96875 15.941406 28.957031 Z M 15.941406 28.957031 "/>
</g>
</svg>
