<?xml version="1.0" encoding="UTF-8"?>
<svg xmlns="http://www.w3.org/2000/svg" xmlns:xlink="http://www.w3.org/1999/xlink" width="36pt" height="36pt" viewBox="0 0 36 36" version="1.1">
<g id="surface1">
<path style=" stroke:none;fill-rule:evenodd;fill:rgb(52.54902%,36.862745%,56.470588%);fill-opacity:1;" d="M 8.40625 2.136719 L 27.59375 2.136719 C 31.054688 2.136719 33.863281 4.945312 33.863281 8.40625 L 33.863281 27.59375 C 33.863281 31.054688 31.054688 33.863281 27.59375 33.863281 L 8.40625 33.863281 C 4.945312 33.863281 2.136719 31.054688 2.136719 27.59375 L 2.136719 8.40625 C 2.136719 4.945312 4.945312 2.136719 8.40625 2.136719 Z M 8.40625 2.136719 "/>
<path style=" stroke:none;fill-rule:nonzero;fill:rgb(63.137255%,63.137255%,84.313725%);fill-opacity:1;" d="M 10.125 16.308594 C 9.613281 16.15625 7.875 17.433594 7.875 17.433594 C 8.796875 14.019531 14.628906 10.6875 14.628906 10.6875 C 14.066406 10.476562 11.25 10.6875 11.25 10.6875 C 15.402344 6.652344 21.382812 8.4375 21.382812 8.4375 C 21.535156 7.554688 23.632812 6.1875 23.632812 6.1875 C 23.375 6.445312 23.632812 7.875 23.632812 7.875 C 23.890625 7.40625 24.757812 7.3125 24.757812 7.3125 C 24.296875 8.398438 24.328125 10.585938 24.328125 10.585938 C 25.660156 11.929688 27.144531 16.589844 27.144531 16.589844 L 27.710938 17.417969 C 28.429688 18.457031 28.136719 20.082031 27.425781 20.464844 C 25.433594 21.65625 24.53125 19.285156 24.53125 19.285156 C 22.328125 19.023438 20.257812 16.308594 20.257812 16.308594 C 17.457031 17.890625 20.625 22.90625 21.90625 24.585938 C 23.554688 26.742188 21.382812 29.804688 21.382812 29.804688 C 21.382812 29.804688 15.753906 30.199219 11.539062 25.867188 C 9.460938 23.644531 7.875 21.160156 10.125 16.308594 Z M 10.125 16.308594 "/>
</g>
</svg>
