<?xml version="1.0" encoding="UTF-8"?>
<svg xmlns="http://www.w3.org/2000/svg" xmlns:xlink="http://www.w3.org/1999/xlink" width="36pt" height="36pt" viewBox="0 0 36 36" version="1.1">
<g id="surface1">
<path style=" stroke:none;fill-rule:evenodd;fill:rgb(90.196078%,90.196078%,90.196078%);fill-opacity:1;" d="M 8.40625 2.136719 L 27.59375 2.136719 C 31.054688 2.136719 33.863281 4.945312 33.863281 8.40625 L 33.863281 27.59375 C 33.863281 31.054688 31.054688 33.863281 27.59375 33.863281 L 8.40625 33.863281 C 4.945312 33.863281 2.136719 31.054688 2.136719 27.59375 L 2.136719 8.40625 C 2.136719 4.945312 4.945312 2.136719 8.40625 2.136719 Z M 8.40625 2.136719 "/>
<path style=" stroke:none;fill-rule:nonzero;fill:rgb(31.372549%,58.431373%,67.058824%);fill-opacity:1;" d="M 17.984375 6.25 C 15.730469 6.25 13.785156 8.347656 13.785156 10.949219 C 13.785156 16.824219 10.429688 17.414062 10.429688 21.523438 C 10.429688 26.066406 13.8125 29.75 17.984375 29.75 C 22.15625 29.75 25.535156 26.066406 25.535156 21.523438 C 25.535156 17.414062 22.179688 16.824219 22.179688 10.949219 C 22.179688 8.347656 20.234375 6.25 17.984375 6.25 Z M 17.984375 6.25 "/>
<path style=" stroke:none;fill-rule:nonzero;fill:rgb(100%,100%,100%);fill-opacity:1;" d="M 17.984375 12.964844 C 16.480469 12.964844 15.464844 14.238281 15.464844 15.816406 C 15.464844 19.382812 12.945312 19.742188 12.945312 22.238281 C 12.945312 24.996094 15.203125 27.230469 17.984375 27.230469 C 20.765625 27.230469 23.019531 24.996094 23.019531 22.238281 C 23.019531 19.742188 20.5 19.382812 20.5 15.816406 C 20.5 14.238281 19.484375 12.964844 17.984375 12.964844 Z M 17.984375 12.964844 "/>
<path style=" stroke:none;fill-rule:nonzero;fill:rgb(91.764706%,69.411765%,3.137255%);fill-opacity:1;" d="M 14.222656 29.734375 C 13.96875 29.691406 13.746094 29.617188 13.253906 29.40625 C 12.523438 29.089844 12.183594 28.988281 10.851562 28.683594 C 10.183594 28.53125 9.933594 28.464844 9.359375 28.277344 C 9.148438 28.210938 8.867188 28.121094 8.734375 28.085938 C 8.375 27.980469 8.28125 27.941406 8.148438 27.835938 C 7.96875 27.695312 7.886719 27.476562 7.917969 27.234375 C 7.9375 27.078125 7.992188 26.929688 8.144531 26.617188 C 8.34375 26.199219 8.839844 26.046875 8.871094 25.632812 C 8.890625 25.390625 8.875 25.117188 8.8125 24.550781 C 8.777344 24.214844 8.769531 24.089844 8.765625 23.875 C 8.765625 23.644531 8.769531 23.804688 8.792969 23.714844 C 8.882812 23.382812 8.953125 23.191406 9.269531 23.109375 C 9.363281 23.082031 9.167969 23.082031 9.601562 23.070312 C 9.871094 23.0625 10.027344 23.058594 10.058594 23.046875 C 10.246094 23.003906 10.382812 22.9375 10.507812 22.816406 C 10.628906 22.699219 10.710938 22.082031 10.867188 21.800781 C 11.113281 21.367188 11.597656 21.375 11.992188 21.355469 C 12.101562 21.378906 12.140625 21.394531 12.261719 21.464844 C 12.386719 21.539062 12.421875 21.566406 12.527344 21.679688 C 12.796875 21.96875 12.925781 22.144531 13.53125 23.058594 C 14.007812 23.785156 14.15625 24.019531 14.347656 24.359375 C 14.558594 24.730469 14.9375 25.324219 15.078125 25.503906 C 15.101562 25.535156 15.25 25.722656 15.402344 25.917969 C 15.558594 26.113281 15.699219 26.296875 15.71875 26.324219 C 16.007812 26.730469 16.210938 27.195312 16.285156 27.660156 C 16.308594 27.820312 16.308594 27.847656 16.296875 28.035156 C 16.277344 28.269531 16.261719 28.371094 16.238281 28.421875 C 16.226562 28.441406 16.203125 28.5 16.1875 28.546875 C 15.964844 29.164062 15.414062 29.628906 14.773438 29.734375 C 14.636719 29.757812 14.367188 29.757812 14.222656 29.734375 Z M 14.222656 29.734375 "/>
<path style=" stroke:none;fill-rule:nonzero;fill:rgb(91.764706%,69.411765%,3.137255%);fill-opacity:1;" d="M 24.035156 29.453125 C 24.230469 29.316406 24.382812 29.164062 24.703125 28.792969 C 25.175781 28.242188 25.164062 28.023438 26.144531 27.230469 C 26.632812 26.835938 26.8125 26.679688 27.214844 26.292969 C 27.359375 26.152344 27.554688 25.96875 27.648438 25.882812 C 27.90625 25.65625 27.96875 25.582031 28.035156 25.445312 C 28.125 25.257812 28.101562 25.046875 27.976562 24.863281 C 27.894531 24.746094 27.785156 24.648438 27.53125 24.453125 C 27.191406 24.195312 27.09375 23.976562 26.898438 23.652344 C 26.78125 23.464844 26.933594 22.984375 26.75 22.5 C 26.640625 22.210938 26.59375 22.109375 26.507812 21.933594 C 26.410156 21.746094 26.390625 21.714844 26.335938 21.652344 C 26.121094 21.417969 25.886719 21.339844 25.585938 21.402344 C 25.5 21.421875 25.449219 21.441406 25.089844 21.613281 C 24.863281 21.714844 24.660156 21.804688 24.628906 21.8125 C 24.457031 21.855469 24.316406 21.851562 24.160156 21.804688 C 24.011719 21.761719 23.894531 22.070312 23.648438 21.90625 C 23.480469 21.796875 23.300781 21.65625 23.171875 21.621094 C 22.992188 21.574219 22.992188 21.574219 22.824219 21.589844 C 22.660156 21.609375 22.542969 21.65625 22.410156 21.761719 C 22.328125 21.824219 22.304688 21.851562 22.230469 21.960938 C 22.15625 22.066406 22.140625 22.105469 22.097656 22.238281 C 21.996094 22.582031 21.960938 22.777344 21.839844 23.765625 C 21.742188 24.546875 21.71875 24.796875 21.699219 25.152344 C 21.679688 25.535156 21.613281 26.171875 21.570312 26.375 C 21.5625 26.410156 21.519531 26.621094 21.472656 26.84375 C 21.425781 27.0625 21.382812 27.269531 21.378906 27.300781 C 21.308594 27.746094 21.332031 28.207031 21.464844 28.609375 C 21.511719 28.753906 21.523438 28.773438 21.609375 28.917969 C 21.722656 29.101562 21.777344 29.179688 21.820312 29.210938 C 21.835938 29.222656 21.878906 29.257812 21.914062 29.289062 C 22.351562 29.699219 23.003906 29.851562 23.578125 29.675781 C 23.699219 29.636719 23.925781 29.527344 24.035156 29.449219 Z M 24.035156 29.453125 "/>
<path style=" stroke:none;fill-rule:nonzero;fill:rgb(100%,100%,100%);fill-opacity:1;" d="M 17.984375 10.445312 C 17.984375 11.375 17.230469 12.125 16.304688 12.125 C 15.378906 12.125 14.625 11.375 14.625 10.445312 C 14.625 9.519531 15.378906 8.765625 16.304688 8.765625 C 17.230469 8.765625 17.984375 9.519531 17.984375 10.445312 Z M 17.984375 10.445312 "/>
<path style=" stroke:none;fill-rule:nonzero;fill:rgb(19.607843%,19.607843%,19.607843%);fill-opacity:1;" d="M 17.144531 10.445312 C 17.144531 10.910156 16.769531 11.285156 16.304688 11.285156 C 15.839844 11.285156 15.464844 10.910156 15.464844 10.445312 C 15.464844 9.984375 15.839844 9.605469 16.304688 9.605469 C 16.769531 9.605469 17.144531 9.984375 17.144531 10.445312 Z M 17.144531 10.445312 "/>
<path style=" stroke:none;fill-rule:nonzero;fill:rgb(96.862745%,49.019608%,0%);fill-opacity:1;" d="M 20.5 12.542969 C 20.5 14.167969 19.375 15.480469 17.984375 15.480469 C 16.59375 15.480469 15.464844 14.167969 15.464844 12.542969 Z M 20.5 12.542969 "/>
<path style=" stroke:none;fill-rule:nonzero;fill:rgb(100%,100%,100%);fill-opacity:1;" d="M 21.339844 10.445312 C 21.339844 11.375 20.589844 12.125 19.660156 12.125 C 18.734375 12.125 17.984375 11.375 17.984375 10.445312 C 17.984375 9.519531 18.734375 8.765625 19.660156 8.765625 C 20.589844 8.765625 21.339844 9.519531 21.339844 10.445312 Z M 21.339844 10.445312 "/>
<path style=" stroke:none;fill-rule:nonzero;fill:rgb(19.607843%,19.607843%,19.607843%);fill-opacity:1;" d="M 20.5 10.445312 C 20.5 10.910156 20.125 11.285156 19.660156 11.285156 C 19.199219 11.285156 18.820312 10.910156 18.820312 10.445312 C 18.820312 9.984375 19.199219 9.605469 19.660156 9.605469 C 20.125 9.605469 20.5 9.984375 20.5 10.445312 Z M 20.5 10.445312 "/>
<path style=" stroke:none;fill-rule:nonzero;fill:rgb(91.764706%,69.411765%,3.137255%);fill-opacity:1;" d="M 20.5 12.683594 C 20.5 12.964844 19.375 14.644531 17.984375 14.644531 C 16.59375 14.644531 15.464844 12.964844 15.464844 12.683594 C 15.464844 11.910156 16.59375 11.285156 17.984375 11.285156 C 19.375 11.285156 20.5 11.910156 20.5 12.683594 Z M 20.5 12.683594 "/>
<path style=" stroke:none;fill-rule:nonzero;fill:rgb(31.372549%,58.431373%,67.058824%);fill-opacity:1;" d="M 24.238281 23.914062 C 23.269531 23.914062 23.261719 23.113281 23.070312 22.164062 C 22.855469 21.113281 22.71875 20.503906 24.398438 20.414062 C 25.855469 19.9375 26.082031 23.859375 24.238281 23.914062 Z M 24.238281 23.914062 "/>
</g>
</svg>
