<?xml version="1.0" encoding="UTF-8"?>
<svg xmlns="http://www.w3.org/2000/svg" xmlns:xlink="http://www.w3.org/1999/xlink" width="36pt" height="36pt" viewBox="0 0 36 36" version="1.1">
<g id="surface1">
<path style=" stroke:none;fill-rule:evenodd;fill:rgb(54.509804%,76.470588%,29.019608%);fill-opacity:1;" d="M 8.40625 2.136719 L 27.59375 2.136719 C 31.054688 2.136719 33.863281 4.945312 33.863281 8.40625 L 33.863281 27.59375 C 33.863281 31.054688 31.054688 33.863281 27.59375 33.863281 L 8.40625 33.863281 C 4.945312 33.863281 2.136719 31.054688 2.136719 27.59375 L 2.136719 8.40625 C 2.136719 4.945312 4.945312 2.136719 8.40625 2.136719 Z M 8.40625 2.136719 "/>
<path style=" stroke:none;fill-rule:nonzero;fill:rgb(100%,100%,100%);fill-opacity:1;" d="M 18 13.355469 C 16.757812 13.355469 15.75 14.367188 15.75 15.605469 L 15.75 20.105469 C 15.75 21.339844 16.757812 22.355469 18 22.355469 C 19.242188 22.355469 20.25 21.339844 20.25 20.105469 L 20.25 15.605469 C 20.25 14.367188 19.242188 13.355469 18 13.355469 Z M 18 14.480469 C 18.621094 14.480469 19.125 14.929688 19.125 15.605469 C 19.125 16.167969 18.621094 16.730469 18 16.730469 C 17.378906 16.730469 16.875 16.167969 16.875 15.605469 C 16.875 14.929688 17.378906 14.480469 18 14.480469 Z M 18 17.855469 C 18.621094 17.855469 19.125 18.359375 19.125 18.980469 L 19.125 20.105469 C 19.125 20.726562 18.621094 21.230469 18 21.230469 C 17.378906 21.230469 16.875 20.726562 16.875 20.105469 L 16.875 18.980469 C 16.875 18.359375 17.378906 17.855469 18 17.855469 Z M 18 17.855469 "/>
<path style=" stroke:none;fill-rule:nonzero;fill:rgb(100%,100%,100%);fill-opacity:1;" d="M 16.875 2.105469 L 16.875 3.230469 L 18 3.230469 L 18 2.105469 Z M 16.875 4.355469 L 16.875 5.480469 L 18 5.480469 L 18 4.355469 Z M 16.875 6.605469 L 16.875 7.730469 L 18 7.730469 L 18 6.605469 Z M 16.875 8.855469 L 16.875 9.980469 L 18 9.980469 L 18 8.855469 Z M 16.875 11.105469 L 16.875 12.230469 L 18 12.230469 L 18 11.105469 Z M 16.875 11.105469 "/>
<path style=" stroke:none;fill-rule:nonzero;fill:rgb(100%,100%,100%);fill-opacity:1;" d="M 18 3.230469 L 18 4.355469 L 19.125 4.355469 L 19.125 3.230469 Z M 18 5.480469 L 18 6.605469 L 19.125 6.605469 L 19.125 5.480469 Z M 18 7.730469 L 18 8.855469 L 19.125 8.855469 L 19.125 7.730469 Z M 18 9.980469 L 18 11.105469 L 19.125 11.105469 L 19.125 9.980469 Z M 18 12.230469 L 18 13.355469 L 19.125 13.355469 L 19.125 12.230469 Z M 18 12.230469 "/>
</g>
</svg>
