<?xml version="1.0" encoding="UTF-8"?>
<svg xmlns="http://www.w3.org/2000/svg" xmlns:xlink="http://www.w3.org/1999/xlink" width="36pt" height="36pt" viewBox="0 0 36 36" version="1.1">
<g id="surface1">
<path style=" stroke:none;fill-rule:evenodd;fill:rgb(1.176471%,80.392157%,21.960784%);fill-opacity:1;" d="M 8.40625 2.136719 L 27.59375 2.136719 C 31.054688 2.136719 33.863281 4.945312 33.863281 8.40625 L 33.863281 27.59375 C 33.863281 31.054688 31.054688 33.863281 27.59375 33.863281 L 8.40625 33.863281 C 4.945312 33.863281 2.136719 31.054688 2.136719 27.59375 L 2.136719 8.40625 C 2.136719 4.945312 4.945312 2.136719 8.40625 2.136719 Z M 8.40625 2.136719 "/>
<path style=" stroke:none;fill-rule:nonzero;fill:rgb(100%,100%,100%);fill-opacity:1;" d="M 21.769531 25.976562 C 20.550781 25.761719 19.527344 24.894531 19.136719 23.75 C 19.058594 23.523438 18.972656 23.117188 18.972656 22.976562 C 18.972656 22.75 19.027344 22.789062 17.164062 21.757812 L 15.390625 20.78125 L 15.207031 20.878906 C 14.476562 21.28125 13.433594 21.363281 12.613281 21.082031 C 11.246094 20.613281 10.324219 19.324219 10.324219 17.890625 C 10.324219 16.457031 11.246094 15.167969 12.609375 14.699219 C 13.429688 14.417969 14.347656 14.480469 15.140625 14.867188 L 15.460938 15.023438 L 17.191406 14.113281 C 18.144531 13.613281 18.933594 13.183594 18.949219 13.164062 C 18.960938 13.144531 18.972656 13.074219 18.972656 13.011719 C 18.972656 12.605469 19.25 11.859375 19.558594 11.421875 C 20.617188 9.929688 22.652344 9.539062 24.164062 10.539062 C 25.15625 11.195312 25.71875 12.300781 25.667969 13.488281 C 25.59375 15.226562 24.226562 16.617188 22.5 16.707031 C 21.886719 16.738281 21.351562 16.625 20.816406 16.351562 L 20.546875 16.210938 L 18.929688 17.0625 C 18.035156 17.53125 17.320312 17.925781 17.332031 17.9375 C 17.347656 17.953125 18.089844 18.367188 18.980469 18.859375 L 20.605469 19.753906 L 20.789062 19.660156 C 21.332031 19.386719 21.71875 19.300781 22.355469 19.304688 C 22.960938 19.304688 23.292969 19.382812 23.816406 19.644531 C 25.65625 20.566406 26.246094 22.890625 25.066406 24.585938 C 24.742188 25.050781 24.152344 25.53125 23.648438 25.742188 C 23.066406 25.984375 22.335938 26.074219 21.769531 25.976562 Z M 21.769531 25.976562 "/>
<path style=" stroke:none;fill-rule:nonzero;fill:rgb(100%,100%,100%);fill-opacity:1;" d="M 22.90625 25.1875 C 23.355469 25.089844 23.886719 24.78125 24.210938 24.433594 C 25.164062 23.398438 25.160156 21.875 24.195312 20.863281 C 23.554688 20.183594 22.644531 19.910156 21.734375 20.117188 C 21.488281 20.171875 21.28125 20.261719 20.972656 20.4375 C 20.761719 20.558594 20.710938 20.574219 20.59375 20.5625 C 20.496094 20.550781 19.96875 20.273438 18.519531 19.472656 C 17.449219 18.882812 16.53125 18.375 16.480469 18.34375 C 16.347656 18.261719 16.292969 18.144531 16.292969 17.941406 C 16.292969 17.71875 16.351562 17.578125 16.476562 17.5 C 16.53125 17.464844 17.453125 16.980469 18.519531 16.417969 C 20.679688 15.285156 20.59375 15.316406 20.851562 15.496094 C 21.382812 15.855469 22.007812 16.011719 22.597656 15.9375 C 23.222656 15.859375 23.6875 15.632812 24.132812 15.195312 C 24.554688 14.773438 24.769531 14.378906 24.878906 13.800781 C 25.027344 13.003906 24.785156 12.1875 24.210938 11.566406 C 23.882812 11.214844 23.367188 10.917969 22.890625 10.808594 C 22.554688 10.730469 22.007812 10.734375 21.683594 10.820312 C 20.949219 11.011719 20.300781 11.539062 19.976562 12.210938 C 19.820312 12.539062 19.753906 12.792969 19.722656 13.214844 C 19.703125 13.472656 19.683594 13.570312 19.636719 13.636719 C 19.542969 13.765625 15.652344 15.808594 15.460938 15.828125 C 15.328125 15.84375 15.292969 15.828125 15.023438 15.667969 C 14.199219 15.171875 13.234375 15.15625 12.390625 15.628906 C 12.070312 15.804688 11.609375 16.269531 11.429688 16.589844 C 11.105469 17.167969 11.007812 17.773438 11.132812 18.394531 C 11.40625 19.710938 12.617188 20.617188 13.914062 20.476562 C 14.355469 20.429688 14.652344 20.328125 15.039062 20.101562 C 15.195312 20.011719 15.292969 19.972656 15.378906 19.972656 C 15.480469 19.972656 15.820312 20.148438 17.386719 21.011719 C 18.421875 21.582031 19.351562 22.097656 19.445312 22.15625 C 19.675781 22.292969 19.726562 22.394531 19.726562 22.738281 C 19.726562 23.632812 20.269531 24.503906 21.105469 24.953125 C 21.65625 25.246094 22.261719 25.324219 22.90625 25.1875 Z M 22.90625 25.1875 "/>
</g>
</svg>
