<?xml version="1.0" encoding="UTF-8"?>
<svg xmlns="http://www.w3.org/2000/svg" xmlns:xlink="http://www.w3.org/1999/xlink" width="36pt" height="36pt" viewBox="0 0 36 36" version="1.1">
<g id="surface1">
<path style=" stroke:none;fill-rule:evenodd;fill:rgb(67.058824%,30.588235%,57.254902%);fill-opacity:1;" d="M 8.40625 2.136719 L 27.59375 2.136719 C 31.054688 2.136719 33.863281 4.945312 33.863281 8.40625 L 33.863281 27.59375 C 33.863281 31.054688 31.054688 33.863281 27.59375 33.863281 L 8.40625 33.863281 C 4.945312 33.863281 2.136719 31.054688 2.136719 27.59375 L 2.136719 8.40625 C 2.136719 4.945312 4.945312 2.136719 8.40625 2.136719 Z M 8.40625 2.136719 "/>
<path style=" stroke:none;fill-rule:nonzero;fill:rgb(100%,100%,100%);fill-opacity:1;" d="M 18.875 24.621094 C 18.820312 24.570312 18.449219 23.894531 17.632812 22.359375 C 16.992188 21.15625 16.460938 20.164062 16.449219 20.15625 C 16.441406 20.144531 15.800781 20.621094 15.019531 21.210938 C 13.511719 22.351562 13.519531 22.347656 13.425781 22.238281 C 13.386719 22.195312 13.382812 21.929688 13.386719 16.851562 C 13.390625 11.761719 13.394531 11.503906 13.429688 11.453125 C 13.507812 11.347656 13.585938 11.304688 13.710938 11.304688 L 13.824219 11.304688 L 18.125 14.40625 C 20.488281 16.113281 22.464844 17.542969 22.519531 17.585938 C 22.605469 17.652344 22.613281 17.671875 22.613281 17.757812 C 22.613281 17.816406 22.597656 17.875 22.574219 17.902344 C 22.542969 17.941406 22.226562 18.023438 20.871094 18.355469 C 19.957031 18.578125 19.203125 18.761719 19.203125 18.765625 C 19.199219 18.765625 19.734375 19.765625 20.390625 20.988281 C 21.050781 22.207031 21.597656 23.246094 21.609375 23.292969 C 21.625 23.355469 21.625 23.394531 21.601562 23.449219 C 21.570312 23.519531 21.496094 23.558594 20.355469 24.109375 C 18.996094 24.761719 19.015625 24.757812 18.875 24.621094 Z M 18.875 24.621094 "/>
</g>
</svg>
