<?xml version="1.0" encoding="UTF-8"?>
<svg xmlns="http://www.w3.org/2000/svg" xmlns:xlink="http://www.w3.org/1999/xlink" width="36pt" height="36pt" viewBox="0 0 36 36" version="1.1">
<g id="surface1">
<path style=" stroke:none;fill-rule:evenodd;fill:rgb(80%,80%,80%);fill-opacity:1;" d="M 8.40625 2.136719 L 27.59375 2.136719 C 31.054688 2.136719 33.863281 4.945312 33.863281 8.40625 L 33.863281 27.59375 C 33.863281 31.054688 31.054688 33.863281 27.59375 33.863281 L 8.40625 33.863281 C 4.945312 33.863281 2.136719 31.054688 2.136719 27.59375 L 2.136719 8.40625 C 2.136719 4.945312 4.945312 2.136719 8.40625 2.136719 Z M 8.40625 2.136719 "/>
<path style="fill:none;stroke-width:1.224702;stroke-linecap:butt;stroke-linejoin:miter;stroke:rgb(14.509804%,61.176471%,85.490196%);stroke-opacity:1;stroke-miterlimit:4;" d="M 28.501696 15.999649 C 28.501696 11.857104 22.902322 8.498506 16 8.498506 C 9.097678 8.498506 3.498304 11.857104 3.498304 15.999649 C 3.498304 20.142194 9.097678 23.500791 16 23.500791 C 22.902322 23.500791 28.501696 20.142194 28.501696 15.999649 Z M 28.501696 15.999649 " transform="matrix(0.947371,0,0,0.946731,2.842057,2.85264)"/>
<path style="fill:none;stroke-width:1.224702;stroke-linecap:butt;stroke-linejoin:miter;stroke:rgb(14.509804%,61.176471%,85.490196%);stroke-opacity:1;stroke-miterlimit:4;" d="M 34.357751 -5.85661 C 34.35759 -9.998877 28.758301 -13.355417 21.855072 -13.355941 C 14.951843 -13.356464 9.354293 -9.998821 9.354454 -5.856554 C 9.354614 -1.714287 14.951842 1.645824 21.857132 1.642776 C 28.760361 1.6433 34.357911 -1.714343 34.357751 -5.85661 Z M 34.357751 -5.85661 " transform="matrix(0.473686,0.819893,-0.820448,0.473365,2.842057,2.85264)"/>
<path style="fill:none;stroke-width:1.224702;stroke-linecap:butt;stroke-linejoin:miter;stroke:rgb(14.509804%,61.176471%,85.490196%);stroke-opacity:1;stroke-miterlimit:4;" d="M 18.357751 21.856203 C 18.35759 17.713936 12.758301 14.357396 5.855072 14.356872 C -1.048157 14.356349 -6.645707 17.713991 -6.645546 21.856258 C -6.645386 25.998525 -1.046097 29.355066 5.857132 29.355589 C 12.760361 29.356113 18.357911 25.99847 18.357751 21.856203 Z M 18.357751 21.856203 " transform="matrix(-0.473686,0.819893,0.820448,0.473365,2.842057,2.85264)"/>
<path style=" stroke:none;fill-rule:nonzero;fill:rgb(14.509804%,61.176471%,85.490196%);fill-opacity:1;" d="M 16.105469 12.320312 L 16.105469 14.214844 C 15.871094 14.222656 15.445312 14.214844 15.222656 14.214844 L 14.210938 14.214844 L 14.210938 15.160156 C 14.210938 15.160156 14.550781 15.144531 14.539062 15.160156 C 14.972656 15.152344 15.113281 15.46875 15.15625 15.679688 L 15.15625 20.367188 C 15.140625 20.5 15.15625 20.832031 14.851562 20.839844 C 14.863281 20.851562 14.210938 20.839844 14.210938 20.839844 L 14.210938 21.789062 L 15.277344 21.789062 C 15.539062 21.777344 15.851562 21.789062 16.105469 21.789062 L 16.105469 23.679688 L 17.050781 23.664062 L 17.050781 21.789062 L 17.984375 21.789062 L 18.015625 23.679688 L 18.960938 23.679688 L 18.933594 21.789062 C 20.738281 21.65625 21.789062 21.441406 21.789062 19.421875 C 21.789062 18 20.839844 17.527344 19.71875 17.527344 C 20.429688 17.472656 20.839844 17.054688 20.84375 15.871094 C 20.84375 15.160156 20.429688 14.214844 19.894531 14.214844 L 18.949219 14.214844 L 18.949219 12.320312 L 18 12.320312 L 18 14.214844 C 17.71875 14.214844 17.339844 14.203125 17.050781 14.214844 L 17.050781 12.320312 Z M 17.050781 15.160156 C 18.386719 15.160156 18.949219 15.160156 18.949219 16.105469 C 18.949219 17.054688 18.253906 17.054688 17.050781 17.054688 Z M 17.050781 18 C 18.949219 18 19.894531 18 19.894531 19.421875 C 19.894531 20.839844 18.949219 20.839844 17.050781 20.839844 Z M 17.050781 18 "/>
</g>
</svg>
