<?xml version="1.0" encoding="UTF-8"?>
<svg xmlns="http://www.w3.org/2000/svg" xmlns:xlink="http://www.w3.org/1999/xlink" width="36pt" height="36pt" viewBox="0 0 36 36" version="1.1">
<g id="surface1">
<path style=" stroke:none;fill-rule:evenodd;fill:rgb(100%,35.294118%,28.235294%);fill-opacity:1;" d="M 8.40625 2.136719 L 27.59375 2.136719 C 31.054688 2.136719 33.863281 4.945312 33.863281 8.40625 L 33.863281 27.59375 C 33.863281 31.054688 31.054688 33.863281 27.59375 33.863281 L 8.40625 33.863281 C 4.945312 33.863281 2.136719 31.054688 2.136719 27.59375 L 2.136719 8.40625 C 2.136719 4.945312 4.945312 2.136719 8.40625 2.136719 Z M 8.40625 2.136719 "/>
<path style="fill:none;stroke-width:3;stroke-linecap:butt;stroke-linejoin:miter;stroke:rgb(100%,100%,100%);stroke-opacity:1;stroke-miterlimit:4;" d="M 7.5 19.999914 L 7.5 10.749914 C 7.5 7.951303 10.399306 7.499914 10.399306 7.499914 L 22.298611 7.499914 " transform="matrix(1.125,0,0,1.125,0,0.562596)"/>
<path style=" stroke:none;fill-rule:nonzero;fill:rgb(100%,100%,100%);fill-opacity:1;" d="M 24.113281 5.0625 C 23.84375 5.066406 23.625 5.289062 23.625 5.558594 L 23.625 10.191406 C 23.625 10.464844 23.847656 10.6875 24.121094 10.6875 L 28.753906 10.6875 C 28.953125 10.6875 29.136719 10.566406 29.210938 10.382812 C 29.289062 10.195312 29.246094 9.980469 29.105469 9.839844 L 24.472656 5.207031 C 24.378906 5.113281 24.25 5.0625 24.113281 5.0625 Z M 24.113281 5.0625 "/>
<path style=" stroke:none;fill-rule:nonzero;fill:rgb(100%,100%,100%);fill-opacity:1;" d="M 15 15.1875 L 15.375 15.1875 C 16.203125 15.1875 16.875 15.859375 16.875 16.6875 L 16.875 18.1875 C 16.875 19.015625 16.203125 19.6875 15.375 19.6875 L 15 19.6875 C 14.171875 19.6875 13.5 19.015625 13.5 18.1875 L 13.5 16.6875 C 13.5 15.859375 14.171875 15.1875 15 15.1875 Z M 15 15.1875 "/>
<path style="fill:none;stroke-width:3;stroke-linecap:butt;stroke-linejoin:miter;stroke:rgb(100%,100%,100%);stroke-opacity:1;stroke-miterlimit:4;" d="M 24.5 10.999914 L 24.5 20.249914 C 24.5 23.048525 21.600694 23.499914 21.600694 23.499914 L 9.701389 23.499914 " transform="matrix(1.125,0,0,1.125,0,0.562596)"/>
<path style=" stroke:none;fill-rule:nonzero;fill:rgb(100%,100%,100%);fill-opacity:1;" d="M 11.886719 30.9375 C 12.15625 30.933594 12.375 30.710938 12.375 30.441406 L 12.375 25.808594 C 12.375 25.535156 12.152344 25.3125 11.878906 25.3125 L 7.246094 25.3125 C 7.046875 25.3125 6.863281 25.433594 6.789062 25.617188 C 6.710938 25.804688 6.753906 26.019531 6.894531 26.160156 L 11.527344 30.792969 C 11.621094 30.886719 11.75 30.9375 11.886719 30.9375 Z M 11.886719 30.9375 "/>
<path style=" stroke:none;fill-rule:nonzero;fill:rgb(100%,100%,100%);fill-opacity:1;" d="M 20.625 15.1875 L 21 15.1875 C 21.828125 15.1875 22.5 15.859375 22.5 16.6875 L 22.5 18.1875 C 22.5 19.015625 21.828125 19.6875 21 19.6875 L 20.625 19.6875 C 19.796875 19.6875 19.125 19.015625 19.125 18.1875 L 19.125 16.6875 C 19.125 15.859375 19.796875 15.1875 20.625 15.1875 Z M 20.625 15.1875 "/>
</g>
</svg>
