<?xml version="1.0" encoding="UTF-8"?>
<svg xmlns="http://www.w3.org/2000/svg" xmlns:xlink="http://www.w3.org/1999/xlink" width="36pt" height="36pt" viewBox="0 0 36 36" version="1.1">
<defs>
<g>
<symbol overflow="visible" id="glyph0-0">
<path style="stroke:none;" d="M 0.0625 0.171875 L -0.03125 -0.703125 L 0.46875 -0.765625 L 0.5625 0.109375 Z M 0.125 0.109375 L 0.515625 0.0625 L 0.421875 -0.71875 L 0.03125 -0.671875 Z M 0.125 0.109375 "/>
</symbol>
<symbol overflow="visible" id="glyph0-1">
<path style="stroke:none;" d="M 0.234375 -0.703125 C 0.179688 -0.703125 0.144531 -0.671875 0.125 -0.609375 C 0.113281 -0.554688 0.113281 -0.476562 0.125 -0.375 C 0.132812 -0.28125 0.15625 -0.207031 0.1875 -0.15625 C 0.21875 -0.113281 0.257812 -0.09375 0.3125 -0.09375 C 0.363281 -0.101562 0.394531 -0.132812 0.40625 -0.1875 C 0.425781 -0.238281 0.429688 -0.3125 0.421875 -0.40625 C 0.410156 -0.507812 0.390625 -0.585938 0.359375 -0.640625 C 0.328125 -0.691406 0.285156 -0.710938 0.234375 -0.703125 Z M 0.234375 -0.78125 C 0.316406 -0.789062 0.378906 -0.765625 0.421875 -0.703125 C 0.472656 -0.640625 0.503906 -0.546875 0.515625 -0.421875 C 0.535156 -0.304688 0.523438 -0.210938 0.484375 -0.140625 C 0.453125 -0.0664062 0.394531 -0.0234375 0.3125 -0.015625 C 0.238281 -0.00390625 0.175781 -0.03125 0.125 -0.09375 C 0.0703125 -0.15625 0.0351562 -0.242188 0.015625 -0.359375 C 0.00390625 -0.484375 0.0195312 -0.582031 0.0625 -0.65625 C 0.101562 -0.726562 0.160156 -0.769531 0.234375 -0.78125 Z M 0.234375 -0.78125 "/>
</symbol>
<symbol overflow="visible" id="glyph0-2">
<path style="stroke:none;" d="M 0.109375 -0.140625 L 0.203125 -0.15625 L 0.21875 -0.03125 L 0.125 -0.015625 Z M 0.0625 -0.53125 L 0.15625 -0.546875 L 0.171875 -0.421875 L 0.078125 -0.40625 Z M 0.0625 -0.53125 "/>
</symbol>
<symbol overflow="visible" id="glyph0-3">
<path style="stroke:none;" d="M 0.109375 -0.09375 L 0.265625 -0.109375 L 0.203125 -0.671875 L 0.046875 -0.625 L 0.03125 -0.703125 L 0.203125 -0.765625 L 0.3125 -0.78125 L 0.375 -0.125 L 0.53125 -0.140625 L 0.546875 -0.0625 L 0.125 -0.015625 Z M 0.109375 -0.09375 "/>
</symbol>
</g>
<linearGradient id="linear0" gradientUnits="userSpaceOnUse" x1="13.69913" y1="10.763234" x2="13.57665" y2="23.940351" gradientTransform="matrix(1.13952,-0.126133,0.126133,1.13952,6.728058,8.192384)">
<stop offset="0" style="stop-color:rgb(100%,100%,100%);stop-opacity:1;"/>
<stop offset="1" style="stop-color:rgb(100%,100%,100%);stop-opacity:0;"/>
</linearGradient>
</defs>
<g id="surface1">
<path style=" stroke:none;fill-rule:evenodd;fill:rgb(75.294118%,95.294118%,44.313725%);fill-opacity:1;" d="M 8.40625 2.136719 L 27.59375 2.136719 C 31.058594 2.136719 33.863281 4.941406 33.863281 8.40625 L 33.863281 27.59375 C 33.863281 31.054688 31.058594 33.863281 27.59375 33.863281 L 8.40625 33.863281 C 4.945312 33.863281 2.136719 31.054688 2.136719 27.59375 L 2.136719 8.40625 C 2.136719 4.941406 4.945312 2.136719 8.40625 2.136719 Z M 8.40625 2.136719 "/>
<path style=" stroke:none;fill-rule:evenodd;fill:rgb(30.196078%,62.352941%,76.470588%);fill-opacity:1;" d="M 8.410156 2.136719 C 4.933594 2.136719 2.136719 4.933594 2.136719 8.40625 L 2.136719 20.457031 C 3.265625 20.226562 4.554688 19.894531 5.484375 19.78125 C 7.195312 19.578125 8.605469 19.566406 9.835938 19.683594 C 11.0625 19.804688 12.113281 20.058594 13.097656 20.386719 C 14.085938 20.71875 15.011719 21.128906 15.996094 21.558594 C 16.976562 21.988281 18.019531 22.4375 19.238281 22.851562 C 20.453125 23.269531 21.847656 23.652344 23.535156 23.941406 C 25.226562 24.234375 27.210938 24.433594 29.609375 24.484375 C 30.800781 24.511719 32.453125 24.371094 33.867188 24.316406 L 33.867188 8.40625 C 33.867188 4.933594 31.066406 2.136719 27.59375 2.136719 Z M 8.410156 2.136719 "/>
<path style=" stroke:none;fill-rule:evenodd;fill:rgb(59.215686%,77.647059%,2.745098%);fill-opacity:1;" d="M 21.730469 23.128906 C 16.199219 23.632812 11.972656 26.664062 5.488281 26.332031 C 4.164062 26.210938 3.070312 25.957031 2.132812 25.605469 L 2.132812 27.59375 C 2.132812 28.304688 2.246094 28.984375 2.460938 29.617188 C 3.519531 29.054688 4.640625 28.578125 5.679688 28.324219 C 6.855469 28.035156 8.023438 27.914062 9.199219 27.898438 C 11.550781 27.871094 13.929688 28.277344 16.441406 28.625 C 17.699219 28.800781 18.984375 28.960938 20.320312 29.050781 C 21.652344 29.136719 23.03125 29.152344 24.464844 29.03125 C 25.902344 28.910156 27.394531 28.65625 28.957031 28.210938 C 30.519531 27.761719 32.152344 27.117188 33.863281 26.21875 C 28.835938 23.433594 25.050781 22.824219 21.730469 23.128906 Z M 21.730469 23.128906 "/>
<path style=" stroke:none;fill-rule:nonzero;fill:rgb(59.607843%,37.647059%,1.960784%);fill-opacity:1;" d="M 8.324219 24.972656 L 10.941406 24.972656 L 10.941406 28.902344 L 8.324219 28.902344 Z M 8.324219 24.972656 "/>
<path style=" stroke:none;fill-rule:nonzero;fill:rgb(45.490196%,63.137255%,5.098039%);fill-opacity:1;" d="M 15.300781 26.484375 L 4.222656 26.484375 L 9.761719 16.890625 Z M 15.300781 26.484375 "/>
<path style=" stroke:none;fill-rule:nonzero;fill:rgb(59.607843%,76.470588%,1.960784%);fill-opacity:1;" d="M 14.421875 23.121094 L 4.902344 23.121094 L 9.664062 14.878906 Z M 14.421875 23.121094 "/>
<path style=" stroke:none;fill-rule:nonzero;fill:rgb(67.843137%,85.882353%,11.764706%);fill-opacity:1;" d="M 13.570312 19.339844 L 6 19.339844 L 9.785156 12.785156 Z M 13.570312 19.339844 "/>
<path style=" stroke:none;fill-rule:evenodd;fill:rgb(45.490196%,63.137255%,5.098039%);fill-opacity:1;" d="M 33.863281 26.21875 C 32.152344 27.117188 30.519531 27.761719 28.957031 28.210938 C 27.394531 28.65625 25.902344 28.910156 24.464844 29.03125 C 23.03125 29.152344 21.652344 29.136719 20.320312 29.050781 C 18.984375 28.960938 17.699219 28.800781 16.441406 28.625 C 13.929688 28.277344 11.550781 27.871094 9.199219 27.898438 C 8.023438 27.914062 6.855469 28.035156 5.679688 28.324219 C 4.640625 28.578125 3.519531 29.054688 2.460938 29.617188 C 3.300781 32.09375 5.640625 33.863281 8.40625 33.863281 L 27.589844 33.863281 C 31.066406 33.863281 33.863281 31.070312 33.863281 27.59375 Z M 33.863281 26.21875 "/>
<path style=" stroke:none;fill-rule:nonzero;fill:rgb(80.392157%,80.784314%,81.568627%);fill-opacity:1;" d="M 17.371094 6.921875 L 26.984375 5.855469 C 27.726562 5.773438 28.386719 6.304688 28.46875 7.046875 L 30.523438 25.59375 C 29.8125 33.359375 19.398438 32.058594 18.230469 26.953125 L 16.179688 8.40625 C 16.097656 7.664062 16.628906 7.003906 17.371094 6.921875 Z M 17.371094 6.921875 "/>
<path style=" stroke:none;fill-rule:nonzero;fill:rgb(0%,0%,0%);fill-opacity:1;" d="M 17.261719 7.679688 L 18.21875 17.082031 C 18.460938 18.652344 18.550781 20.234375 20.132812 21.65625 C 21.371094 19.9375 24.523438 18.929688 27.289062 20.863281 C 28.164062 19.964844 28.644531 18.492188 28.308594 15.828125 L 27.285156 6.597656 Z M 17.261719 7.679688 "/>
<path style=" stroke:none;fill-rule:nonzero;fill:rgb(50.196078%,50.196078%,50.196078%);fill-opacity:1;" d="M 29.65625 23.875 C 29.984375 26.839844 27.847656 29.511719 24.882812 29.839844 C 21.917969 30.167969 19.246094 28.03125 18.917969 25.0625 C 18.589844 22.097656 20.726562 19.429688 23.691406 19.101562 C 26.660156 18.773438 29.328125 20.910156 29.65625 23.875 Z M 29.65625 23.875 "/>
<path style=" stroke:none;fill-rule:nonzero;fill:url(#linear0);" d="M 23.691406 19.101562 C 22.4375 19.242188 21.273438 19.816406 20.398438 20.726562 L 24.277344 24.277344 L 27.175781 19.910156 C 26.140625 19.253906 24.910156 18.96875 23.691406 19.101562 Z M 27.367188 20.035156 L 24.515625 24.328125 L 29.636719 23.761719 C 29.4375 22.257812 28.613281 20.902344 27.367188 20.035156 Z M 20.242188 20.894531 C 19.261719 22.007812 18.78125 23.472656 18.914062 24.949219 L 24.050781 24.382812 Z M 18.933594 25.175781 C 19.132812 26.683594 19.960938 28.035156 21.207031 28.90625 L 24.054688 24.609375 Z M 24.574219 24.554688 L 28.355469 28.015625 C 29.320312 26.90625 29.792969 25.453125 29.660156 23.992188 Z M 24.320312 24.628906 L 21.398438 29.03125 C 22.433594 29.6875 23.660156 29.972656 24.878906 29.839844 C 26.148438 29.695312 27.324219 29.109375 28.199219 28.183594 Z M 24.320312 24.628906 "/>
<path style="fill-rule:nonzero;fill:rgb(80.392157%,80.784314%,81.568627%);fill-opacity:1;stroke-width:0.196253;stroke-linecap:round;stroke-linejoin:miter;stroke:rgb(50.196078%,50.196078%,50.196078%);stroke-opacity:1;stroke-miterlimit:4;" d="M 15.390218 15.795097 C 15.390616 16.751547 14.615845 17.52621 13.659395 17.526608 C 12.706332 17.527381 11.931669 16.75261 11.931271 15.79616 C 11.930498 14.843097 12.705269 14.068434 13.661718 14.068036 C 14.614782 14.067263 15.389445 14.842034 15.390218 15.795097 Z M 15.390218 15.795097 " transform="matrix(1.13952,-0.126133,0.126133,1.13952,6.728058,8.192384)"/>
<path style=" stroke:none;fill-rule:nonzero;fill:rgb(67.058824%,8.627451%,3.529412%);fill-opacity:1;" d="M 24.417969 20.027344 C 24.453125 20.34375 24.226562 20.628906 23.910156 20.664062 C 23.59375 20.699219 23.308594 20.472656 23.273438 20.152344 C 23.238281 19.835938 23.464844 19.550781 23.78125 19.515625 C 24.097656 19.480469 24.382812 19.710938 24.417969 20.027344 Z M 24.417969 20.027344 "/>
<path style="fill-rule:nonzero;fill:rgb(67.058824%,8.627451%,3.529412%);fill-opacity:1;stroke-width:0.196253;stroke-linecap:round;stroke-linejoin:miter;stroke:rgb(90.588235%,20.392157%,14.117647%);stroke-opacity:1;stroke-miterlimit:4;" d="M -45.12812 45.746569 C -45.128521 45.688249 -45.195513 45.643126 -45.284687 45.643539 C -45.370473 45.644328 -45.440439 45.688003 -45.440039 45.746323 C -45.439263 45.801256 -45.368884 45.846754 -45.283097 45.845966 C -45.197685 45.848564 -45.127345 45.801503 -45.12812 45.746569 Z M -45.12812 45.746569 " transform="matrix(1.13952,-0.126133,0.126133,1.13952,69.537059,-37.969743)"/>
<path style=" stroke:none;fill-rule:nonzero;fill:rgb(0%,38.431373%,80.392157%);fill-opacity:1;" d="M 18.578125 17.230469 L 18.585938 17.285156 L 18.65625 17.917969 L 20.976562 17.660156 L 21.089844 17.648438 L 23.414062 17.390625 L 25.734375 17.132812 L 28.054688 16.878906 L 27.980469 16.1875 L 25.660156 16.445312 L 23.335938 16.703125 L 21.015625 16.960938 L 20.898438 16.972656 Z M 18.707031 17.332031 L 20.914062 17.085938 L 20.964844 17.546875 L 18.753906 17.789062 Z M 21.027344 17.074219 L 23.234375 16.828125 L 23.285156 17.289062 L 21.078125 17.53125 Z M 23.351562 16.816406 L 25.558594 16.574219 L 25.609375 17.03125 L 23.402344 17.273438 Z M 25.671875 16.558594 L 27.878906 16.316406 L 27.929688 16.773438 L 25.722656 17.019531 Z M 25.671875 16.558594 "/>
<g style="fill:rgb(0%,38.431373%,80.392157%);fill-opacity:1;">
  <use xlink:href="#glyph0-1" x="20.742634" y="16.390861"/>
  <use xlink:href="#glyph0-1" x="21.470414" y="16.310304"/>
  <use xlink:href="#glyph0-2" x="22.198193" y="16.229746"/>
  <use xlink:href="#glyph0-1" x="22.583227" y="16.187126"/>
  <use xlink:href="#glyph0-1" x="23.311006" y="16.106569"/>
  <use xlink:href="#glyph0-2" x="24.038786" y="16.026011"/>
  <use xlink:href="#glyph0-1" x="24.423819" y="15.983392"/>
  <use xlink:href="#glyph0-3" x="25.151599" y="15.902834"/>
</g>
<path style=" stroke:none;fill-rule:nonzero;fill:rgb(50.196078%,50.196078%,50.196078%);fill-opacity:1;" d="M 20.5 23.667969 L 19.894531 22.816406 L 20.933594 22.71875 Z M 20.5 23.667969 "/>
<path style=" stroke:none;fill-rule:nonzero;fill:rgb(50.196078%,50.196078%,50.196078%);fill-opacity:1;" d="M 21.296875 24.078125 L 20.691406 23.226562 L 21.730469 23.128906 Z M 21.296875 24.078125 "/>
<path style=" stroke:none;fill-rule:nonzero;fill:rgb(50.196078%,50.196078%,50.196078%);fill-opacity:1;" d="M 27.210938 22.121094 L 28.25 22.023438 L 27.8125 22.972656 Z M 27.210938 22.121094 "/>
<path style=" stroke:none;fill-rule:nonzero;fill:rgb(50.196078%,50.196078%,50.196078%);fill-opacity:1;" d="M 26.453125 22.609375 L 27.492188 22.511719 L 27.058594 23.460938 Z M 26.453125 22.609375 "/>
<path style=" stroke:none;fill-rule:nonzero;fill:rgb(50.196078%,50.196078%,50.196078%);fill-opacity:1;" d="M 28.511719 25.335938 L 28.398438 25.664062 L 26.90625 25.164062 L 26.84375 25.347656 L 28.332031 25.847656 L 28.226562 26.15625 L 28.871094 25.929688 Z M 28.511719 25.335938 "/>
<path style=" stroke:none;fill-rule:nonzero;fill:rgb(50.196078%,50.196078%,50.196078%);fill-opacity:1;" d="M 20.824219 27.113281 L 20.640625 26.820312 L 21.964844 25.96875 L 21.859375 25.804688 L 20.539062 26.652344 L 20.367188 26.375 L 20.136719 27.023438 Z M 20.824219 27.113281 "/>
<path style=" stroke:none;fill-rule:nonzero;fill:rgb(50.196078%,50.196078%,50.196078%);fill-opacity:1;" d="M 22.863281 28.195312 L 22.578125 28.8125 C 24.742188 29.546875 26.203125 28.941406 27.296875 27.625 C 25.707031 28.511719 24.179688 29.003906 22.863281 28.195312 Z M 22.863281 28.195312 "/>
</g>
</svg>
