<?xml version="1.0" encoding="UTF-8"?>
<svg xmlns="http://www.w3.org/2000/svg" xmlns:xlink="http://www.w3.org/1999/xlink" width="36pt" height="36pt" viewBox="0 0 36 36" version="1.1">
<g id="surface1">
<path style=" stroke:none;fill-rule:evenodd;fill:rgb(76.078431%,20.784314%,16.470588%);fill-opacity:1;" d="M 8.40625 2.136719 L 27.59375 2.136719 C 31.054688 2.136719 33.863281 4.945312 33.863281 8.40625 L 33.863281 27.59375 C 33.863281 31.054688 31.054688 33.863281 27.59375 33.863281 L 8.40625 33.863281 C 4.945312 33.863281 2.136719 31.054688 2.136719 27.59375 L 2.136719 8.40625 C 2.136719 4.945312 4.945312 2.136719 8.40625 2.136719 Z M 8.40625 2.136719 "/>
<path style=" stroke:none;fill-rule:nonzero;fill:rgb(100%,100%,100%);fill-opacity:1;" d="M 20.253906 6.445312 C 19.886719 6.460938 19.484375 6.496094 19.050781 6.566406 C 18.222656 6.699219 16.960938 7.015625 15.785156 7.945312 C 14.5625 8.914062 13.898438 10.324219 13.707031 11.921875 C 12.738281 12.097656 11.761719 12.503906 11.125 13.214844 C 10.316406 14.125 9.996094 15.191406 9.996094 16.203125 C 9.996094 17.21875 10.316406 18.28125 11.125 19.191406 C 11.25 19.332031 11.457031 19.402344 11.609375 19.527344 C 11.191406 20.433594 10.894531 21.394531 10.894531 22.433594 L 10.894531 22.441406 C 10.894531 26.320312 14.101562 29.5625 17.992188 29.5625 C 21.882812 29.5625 25.089844 26.320312 25.089844 22.441406 L 25.089844 22.4375 C 25.089844 21.398438 24.792969 20.433594 24.378906 19.523438 C 24.527344 19.402344 24.730469 19.332031 24.859375 19.191406 C 25.667969 18.28125 25.988281 17.21875 25.988281 16.203125 C 25.988281 15.3125 25.679688 14.398438 25.070312 13.570312 C 25.519531 12.957031 25.847656 12.300781 25.949219 11.617188 C 26.101562 10.609375 25.945312 9.5 25.269531 8.472656 C 24.597656 7.460938 23.328125 6.714844 22.144531 6.550781 C 22.058594 6.539062 21.289062 6.40625 20.253906 6.445312 Z M 20.253906 6.445312 "/>
<path style=" stroke:none;fill-rule:nonzero;fill:rgb(76.078431%,20.784314%,16.470588%);fill-opacity:1;" d="M 20.390625 10 C 20.148438 10.011719 19.886719 10.03125 19.621094 10.074219 C 19.089844 10.164062 18.507812 10.328125 18 10.730469 C 17.488281 11.136719 17.109375 11.84375 17.109375 12.640625 L 17.109375 15.3125 L 14.453125 15.3125 C 14.132812 15.308594 13.835938 15.476562 13.675781 15.753906 C 13.511719 16.03125 13.511719 16.375 13.675781 16.652344 C 13.835938 16.929688 14.132812 17.097656 14.453125 17.09375 L 17.109375 17.09375 L 17.109375 18.996094 C 15.546875 19.398438 14.453125 20.816406 14.453125 22.441406 C 14.453125 24.410156 16.039062 26.003906 17.992188 26.003906 C 19.949219 26.003906 21.535156 24.410156 21.535156 22.441406 C 21.535156 20.816406 20.441406 19.398438 18.878906 18.992188 L 18.878906 17.09375 L 21.535156 17.09375 C 21.855469 17.097656 22.152344 16.929688 22.3125 16.652344 C 22.472656 16.375 22.472656 16.03125 22.3125 15.753906 C 22.152344 15.476562 21.855469 15.308594 21.535156 15.3125 L 18.878906 15.3125 L 18.878906 12.640625 C 18.878906 12.316406 18.941406 12.253906 19.09375 12.132812 C 19.246094 12.011719 19.550781 11.890625 19.90625 11.832031 C 20.613281 11.71875 21.402344 11.828125 21.402344 11.828125 C 21.71875 11.886719 22.042969 11.765625 22.246094 11.511719 C 22.449219 11.261719 22.503906 10.917969 22.382812 10.617188 C 22.261719 10.316406 21.988281 10.105469 21.667969 10.066406 C 21.667969 10.066406 21.113281 9.972656 20.390625 10 Z M 17.992188 21.550781 C 18.480469 21.550781 18.878906 21.949219 18.878906 22.441406 C 18.878906 22.933594 18.480469 23.332031 17.992188 23.332031 C 17.503906 23.332031 17.109375 22.933594 17.109375 22.441406 C 17.109375 21.949219 17.503906 21.550781 17.992188 21.550781 Z M 17.992188 21.550781 "/>
</g>
</svg>
