<?xml version="1.0" encoding="UTF-8"?>
<svg xmlns="http://www.w3.org/2000/svg" xmlns:xlink="http://www.w3.org/1999/xlink" width="36pt" height="36pt" viewBox="0 0 36 36" version="1.1">
<g id="surface1">
<path style=" stroke:none;fill-rule:evenodd;fill:rgb(24.705882%,24.705882%,24.705882%);fill-opacity:1;" d="M 7.257812 12.855469 C 7.199219 12.855469 7.144531 12.859375 7.085938 12.867188 C 7.03125 12.871094 6.976562 12.878906 6.921875 12.890625 C 6.867188 12.902344 6.8125 12.914062 6.757812 12.933594 C 6.703125 12.949219 6.652344 12.96875 6.597656 12.992188 C 6.546875 13.011719 6.496094 13.039062 6.449219 13.0625 C 6.398438 13.089844 6.351562 13.121094 6.304688 13.152344 C 6.257812 13.183594 6.210938 13.21875 6.167969 13.253906 C 6.125 13.289062 6.085938 13.328125 6.046875 13.371094 C 6.007812 13.410156 5.96875 13.453125 5.9375 13.496094 C 5.902344 13.539062 5.867188 13.585938 5.835938 13.632812 C 5.808594 13.679688 5.777344 13.730469 5.753906 13.78125 C 5.726562 13.832031 5.703125 13.882812 5.683594 13.933594 C 5.664062 13.988281 5.644531 14.039062 5.628906 14.09375 C 5.617188 14.148438 5.601562 14.203125 5.59375 14.257812 C 5.582031 14.3125 5.578125 14.371094 5.574219 14.425781 C 5.570312 14.464844 5.570312 14.503906 5.570312 14.542969 C 5.570312 14.601562 5.570312 14.65625 5.578125 14.714844 C 5.582031 14.769531 5.589844 14.824219 5.601562 14.882812 C 5.613281 14.9375 5.628906 14.988281 5.644531 15.042969 C 5.660156 15.097656 5.679688 15.148438 5.703125 15.203125 C 5.726562 15.253906 5.75 15.304688 5.777344 15.351562 C 5.800781 15.402344 5.832031 15.453125 5.863281 15.5 C 5.894531 15.542969 5.929688 15.589844 5.964844 15.632812 C 6.003906 15.675781 6.039062 15.714844 6.082031 15.753906 C 6.121094 15.796875 6.164062 15.832031 6.207031 15.867188 C 6.253906 15.902344 6.296875 15.933594 6.34375 15.964844 C 6.390625 15.996094 6.441406 16.023438 6.492188 16.050781 C 6.542969 16.074219 6.59375 16.097656 6.644531 16.117188 C 6.699219 16.136719 6.75 16.15625 6.804688 16.171875 C 6.859375 16.1875 6.914062 16.199219 6.972656 16.207031 C 7.027344 16.21875 7.082031 16.222656 7.136719 16.226562 C 7.175781 16.230469 7.21875 16.230469 7.257812 16.230469 C 7.3125 16.230469 7.371094 16.230469 7.425781 16.222656 C 7.480469 16.21875 7.539062 16.210938 7.59375 16.199219 C 7.648438 16.1875 7.703125 16.175781 7.753906 16.15625 C 7.808594 16.140625 7.863281 16.121094 7.914062 16.101562 C 7.964844 16.078125 8.015625 16.054688 8.066406 16.027344 C 8.113281 16 8.164062 15.96875 8.210938 15.9375 C 8.257812 15.90625 8.300781 15.871094 8.34375 15.835938 C 8.386719 15.800781 8.429688 15.761719 8.46875 15.71875 C 8.507812 15.679688 8.542969 15.636719 8.578125 15.59375 C 8.613281 15.550781 8.644531 15.503906 8.675781 15.457031 C 8.707031 15.410156 8.734375 15.359375 8.761719 15.308594 C 8.785156 15.257812 8.808594 15.207031 8.828125 15.15625 C 8.851562 15.105469 8.867188 15.050781 8.882812 14.996094 C 8.898438 14.941406 8.910156 14.886719 8.917969 14.832031 C 8.929688 14.777344 8.9375 14.71875 8.941406 14.664062 C 8.941406 14.625 8.945312 14.585938 8.945312 14.542969 C 8.945312 14.488281 8.941406 14.433594 8.933594 14.375 C 8.929688 14.320312 8.921875 14.265625 8.910156 14.210938 C 8.898438 14.15625 8.886719 14.101562 8.871094 14.046875 C 8.851562 13.992188 8.832031 13.941406 8.808594 13.886719 C 8.789062 13.835938 8.765625 13.785156 8.738281 13.734375 C 8.710938 13.6875 8.679688 13.636719 8.648438 13.589844 C 8.617188 13.542969 8.585938 13.5 8.546875 13.457031 C 8.511719 13.414062 8.472656 13.375 8.433594 13.335938 C 8.390625 13.296875 8.351562 13.257812 8.308594 13.222656 C 8.261719 13.1875 8.214844 13.15625 8.167969 13.125 C 8.121094 13.09375 8.070312 13.066406 8.019531 13.042969 C 7.972656 13.015625 7.917969 12.992188 7.867188 12.972656 C 7.816406 12.953125 7.761719 12.933594 7.710938 12.917969 C 7.65625 12.902344 7.601562 12.890625 7.542969 12.882812 C 7.488281 12.871094 7.433594 12.867188 7.375 12.863281 C 7.335938 12.859375 7.296875 12.855469 7.257812 12.855469 Z M 7.257812 12.855469 "/>
<path style=" stroke:none;fill-rule:evenodd;fill:rgb(24.705882%,24.705882%,24.705882%);fill-opacity:1;" d="M 13.445312 11.730469 C 13.367188 11.730469 13.292969 11.734375 13.21875 11.742188 C 13.144531 11.75 13.070312 11.761719 12.996094 11.777344 C 12.925781 11.792969 12.851562 11.8125 12.78125 11.832031 C 12.707031 11.855469 12.636719 11.882812 12.566406 11.910156 C 12.5 11.9375 12.429688 11.972656 12.363281 12.007812 C 12.300781 12.042969 12.234375 12.082031 12.175781 12.125 C 12.113281 12.167969 12.050781 12.214844 11.992188 12.261719 C 11.9375 12.308594 11.882812 12.363281 11.832031 12.414062 C 11.777344 12.46875 11.730469 12.527344 11.683594 12.585938 C 11.636719 12.644531 11.589844 12.703125 11.550781 12.765625 C 11.511719 12.832031 11.472656 12.894531 11.441406 12.960938 C 11.40625 13.03125 11.375 13.097656 11.347656 13.167969 C 11.320312 13.238281 11.296875 13.308594 11.273438 13.378906 C 11.253906 13.453125 11.238281 13.527344 11.226562 13.601562 C 11.214844 13.675781 11.207031 13.75 11.199219 13.824219 C 11.195312 13.875 11.195312 13.929688 11.195312 13.980469 C 11.195312 14.058594 11.199219 14.132812 11.203125 14.207031 C 11.210938 14.28125 11.226562 14.355469 11.238281 14.429688 C 11.253906 14.503906 11.273438 14.578125 11.296875 14.648438 C 11.316406 14.71875 11.34375 14.789062 11.371094 14.859375 C 11.402344 14.929688 11.433594 14.996094 11.46875 15.0625 C 11.503906 15.125 11.542969 15.191406 11.585938 15.253906 C 11.628906 15.316406 11.675781 15.375 11.722656 15.433594 C 11.773438 15.488281 11.824219 15.546875 11.878906 15.597656 C 11.929688 15.648438 11.988281 15.699219 12.046875 15.746094 C 12.105469 15.792969 12.164062 15.835938 12.230469 15.875 C 12.292969 15.917969 12.355469 15.953125 12.425781 15.988281 C 12.492188 16.023438 12.558594 16.054688 12.628906 16.082031 C 12.699219 16.109375 12.769531 16.132812 12.84375 16.152344 C 12.914062 16.171875 12.988281 16.1875 13.0625 16.199219 C 13.136719 16.210938 13.210938 16.222656 13.285156 16.226562 C 13.339844 16.230469 13.390625 16.234375 13.445312 16.230469 C 13.519531 16.230469 13.59375 16.230469 13.667969 16.222656 C 13.742188 16.214844 13.816406 16.203125 13.890625 16.1875 C 13.964844 16.171875 14.039062 16.152344 14.109375 16.132812 C 14.179688 16.109375 14.25 16.082031 14.320312 16.054688 C 14.390625 16.027344 14.457031 15.992188 14.523438 15.957031 C 14.589844 15.921875 14.652344 15.882812 14.714844 15.839844 C 14.777344 15.796875 14.835938 15.75 14.894531 15.703125 C 14.953125 15.65625 15.007812 15.605469 15.058594 15.550781 C 15.109375 15.496094 15.160156 15.441406 15.207031 15.382812 C 15.253906 15.324219 15.296875 15.261719 15.339844 15.199219 C 15.378906 15.136719 15.414062 15.070312 15.449219 15.003906 C 15.484375 14.9375 15.515625 14.867188 15.542969 14.796875 C 15.570312 14.726562 15.59375 14.65625 15.613281 14.585938 C 15.632812 14.511719 15.648438 14.4375 15.660156 14.363281 C 15.675781 14.292969 15.683594 14.21875 15.691406 14.144531 C 15.691406 14.089844 15.695312 14.035156 15.695312 13.980469 C 15.695312 13.90625 15.691406 13.832031 15.683594 13.757812 C 15.675781 13.683594 15.664062 13.609375 15.648438 13.535156 C 15.632812 13.460938 15.617188 13.390625 15.59375 13.320312 C 15.570312 13.246094 15.546875 13.175781 15.515625 13.105469 C 15.488281 13.035156 15.453125 12.96875 15.417969 12.902344 C 15.382812 12.835938 15.34375 12.773438 15.300781 12.710938 C 15.257812 12.648438 15.210938 12.589844 15.164062 12.53125 C 15.117188 12.476562 15.066406 12.421875 15.011719 12.371094 C 14.957031 12.316406 14.902344 12.265625 14.84375 12.21875 C 14.785156 12.171875 14.722656 12.128906 14.660156 12.089844 C 14.597656 12.046875 14.53125 12.011719 14.464844 11.976562 C 14.398438 11.945312 14.328125 11.914062 14.257812 11.886719 C 14.1875 11.859375 14.117188 11.835938 14.046875 11.8125 C 13.972656 11.792969 13.898438 11.777344 13.828125 11.765625 C 13.753906 11.753906 13.679688 11.742188 13.605469 11.738281 C 13.550781 11.734375 13.496094 11.734375 13.445312 11.730469 Z M 13.445312 11.730469 "/>
<path style=" stroke:none;fill-rule:evenodd;fill:rgb(100%,100%,100%);fill-opacity:1;" d="M 15.132812 8.355469 C 14.960938 8.359375 14.792969 8.367188 14.625 8.382812 C 14.457031 8.398438 14.289062 8.425781 14.125 8.457031 C 13.960938 8.492188 13.796875 8.535156 13.636719 8.582031 C 13.472656 8.632812 13.316406 8.691406 13.160156 8.757812 C 13.003906 8.824219 12.855469 8.894531 12.707031 8.976562 C 12.558594 9.058594 12.414062 9.148438 12.273438 9.242188 C 12.132812 9.335938 12 9.441406 11.871094 9.546875 C 11.742188 9.65625 11.617188 9.773438 11.5 9.894531 C 11.382812 10.015625 11.269531 10.140625 11.164062 10.273438 C 11.058594 10.40625 10.960938 10.542969 10.871094 10.683594 C 10.78125 10.828125 10.695312 10.972656 10.621094 11.125 C 10.542969 11.273438 10.476562 11.429688 10.414062 11.585938 C 10.351562 11.742188 10.300781 11.902344 10.253906 12.066406 C 10.207031 12.230469 10.171875 12.394531 10.144531 12.5625 C 10.113281 12.726562 10.09375 12.894531 10.082031 13.0625 C 10.074219 13.179688 10.070312 13.300781 10.070312 13.417969 C 10.070312 13.589844 10.078125 13.757812 10.09375 13.925781 C 10.113281 14.09375 10.136719 14.261719 10.171875 14.425781 C 10.203125 14.589844 10.246094 14.753906 10.296875 14.917969 C 10.34375 15.078125 10.402344 15.234375 10.46875 15.390625 C 10.535156 15.546875 10.609375 15.699219 10.6875 15.847656 C 10.769531 15.996094 10.859375 16.140625 10.953125 16.277344 C 11.050781 16.417969 11.152344 16.550781 11.261719 16.679688 C 11.367188 16.808594 11.484375 16.933594 11.605469 17.050781 C 11.726562 17.167969 11.851562 17.28125 11.984375 17.386719 C 12.117188 17.492188 12.253906 17.589844 12.394531 17.679688 C 12.539062 17.769531 12.683594 17.855469 12.835938 17.929688 C 12.984375 18.007812 13.140625 18.078125 13.296875 18.140625 C 13.453125 18.199219 13.613281 18.253906 13.777344 18.296875 C 13.941406 18.34375 14.105469 18.378906 14.273438 18.410156 C 14.4375 18.4375 14.605469 18.457031 14.773438 18.46875 C 14.890625 18.476562 15.011719 18.480469 15.132812 18.480469 C 15.300781 18.484375 15.46875 18.472656 15.636719 18.457031 C 15.804688 18.441406 15.972656 18.414062 16.136719 18.382812 C 16.304688 18.347656 16.464844 18.304688 16.628906 18.257812 C 16.789062 18.207031 16.945312 18.148438 17.101562 18.082031 C 17.257812 18.015625 17.410156 17.945312 17.558594 17.863281 C 17.707031 17.78125 17.851562 17.695312 17.988281 17.597656 C 18.128906 17.503906 18.261719 17.402344 18.390625 17.292969 C 18.523438 17.183594 18.644531 17.066406 18.761719 16.945312 C 18.882812 16.824219 18.992188 16.699219 19.097656 16.566406 C 19.203125 16.433594 19.300781 16.296875 19.390625 16.15625 C 19.484375 16.011719 19.566406 15.867188 19.640625 15.714844 C 19.71875 15.566406 19.789062 15.410156 19.851562 15.253906 C 19.910156 15.097656 19.964844 14.9375 20.007812 14.773438 C 20.054688 14.609375 20.09375 14.445312 20.121094 14.28125 C 20.148438 14.113281 20.167969 13.945312 20.179688 13.777344 C 20.1875 13.660156 20.195312 13.539062 20.195312 13.417969 C 20.195312 13.25 20.1875 13.082031 20.167969 12.914062 C 20.152344 12.746094 20.125 12.578125 20.09375 12.414062 C 20.058594 12.25 20.015625 12.085938 19.96875 11.921875 C 19.917969 11.761719 19.859375 11.605469 19.792969 11.449219 C 19.726562 11.292969 19.65625 11.140625 19.574219 10.992188 C 19.492188 10.84375 19.40625 10.699219 19.3125 10.5625 C 19.214844 10.421875 19.113281 10.289062 19.003906 10.160156 C 18.894531 10.03125 18.777344 9.90625 18.65625 9.789062 C 18.535156 9.671875 18.410156 9.558594 18.277344 9.453125 C 18.144531 9.347656 18.007812 9.25 17.867188 9.160156 C 17.726562 9.070312 17.578125 8.984375 17.425781 8.910156 C 17.277344 8.832031 17.125 8.761719 16.964844 8.703125 C 16.808594 8.640625 16.648438 8.585938 16.484375 8.542969 C 16.324219 8.496094 16.160156 8.460938 15.992188 8.433594 C 15.828125 8.402344 15.660156 8.382812 15.488281 8.371094 C 15.371094 8.363281 15.25 8.359375 15.132812 8.355469 Z M 13.445312 11.730469 C 13.496094 11.734375 13.550781 11.734375 13.605469 11.738281 C 13.679688 11.742188 13.753906 11.753906 13.828125 11.765625 C 13.898438 11.777344 13.972656 11.792969 14.046875 11.8125 C 14.117188 11.835938 14.1875 11.859375 14.257812 11.886719 C 14.328125 11.914062 14.398438 11.945312 14.464844 11.976562 C 14.53125 12.011719 14.597656 12.046875 14.660156 12.089844 C 14.722656 12.128906 14.785156 12.171875 14.84375 12.21875 C 14.902344 12.265625 14.957031 12.316406 15.011719 12.371094 C 15.066406 12.421875 15.117188 12.476562 15.164062 12.53125 C 15.210938 12.589844 15.257812 12.648438 15.300781 12.710938 C 15.34375 12.773438 15.382812 12.835938 15.417969 12.902344 C 15.453125 12.96875 15.488281 13.035156 15.515625 13.105469 C 15.546875 13.175781 15.570312 13.246094 15.59375 13.320312 C 15.617188 13.390625 15.632812 13.460938 15.648438 13.535156 C 15.664062 13.609375 15.675781 13.683594 15.683594 13.757812 C 15.691406 13.832031 15.695312 13.90625 15.695312 13.980469 C 15.695312 14.035156 15.691406 14.089844 15.691406 14.144531 C 15.683594 14.21875 15.675781 14.292969 15.660156 14.363281 C 15.648438 14.4375 15.632812 14.511719 15.613281 14.585938 C 15.59375 14.65625 15.570312 14.726562 15.542969 14.796875 C 15.515625 14.867188 15.484375 14.9375 15.449219 15.003906 C 15.414062 15.070312 15.378906 15.136719 15.339844 15.199219 C 15.296875 15.261719 15.253906 15.324219 15.207031 15.382812 C 15.160156 15.441406 15.109375 15.496094 15.058594 15.550781 C 15.007812 15.605469 14.953125 15.65625 14.894531 15.703125 C 14.835938 15.75 14.777344 15.796875 14.714844 15.839844 C 14.652344 15.882812 14.589844 15.921875 14.523438 15.957031 C 14.457031 15.992188 14.390625 16.027344 14.320312 16.054688 C 14.25 16.082031 14.179688 16.109375 14.109375 16.132812 C 14.039062 16.152344 13.964844 16.171875 13.890625 16.1875 C 13.816406 16.203125 13.742188 16.214844 13.667969 16.222656 C 13.59375 16.230469 13.519531 16.234375 13.445312 16.230469 C 13.390625 16.234375 13.339844 16.230469 13.285156 16.226562 C 13.210938 16.222656 13.136719 16.210938 13.0625 16.199219 C 12.988281 16.1875 12.914062 16.171875 12.84375 16.152344 C 12.769531 16.132812 12.699219 16.109375 12.628906 16.082031 C 12.558594 16.054688 12.492188 16.023438 12.425781 15.988281 C 12.359375 15.953125 12.292969 15.917969 12.230469 15.875 C 12.164062 15.835938 12.105469 15.792969 12.046875 15.746094 C 11.988281 15.699219 11.929688 15.648438 11.878906 15.597656 C 11.824219 15.546875 11.773438 15.488281 11.722656 15.433594 C 11.675781 15.375 11.628906 15.316406 11.585938 15.253906 C 11.542969 15.191406 11.503906 15.125 11.46875 15.0625 C 11.433594 14.996094 11.402344 14.929688 11.371094 14.859375 C 11.34375 14.789062 11.316406 14.71875 11.296875 14.648438 C 11.273438 14.578125 11.253906 14.503906 11.238281 14.429688 C 11.226562 14.355469 11.214844 14.28125 11.203125 14.207031 C 11.199219 14.132812 11.195312 14.058594 11.195312 13.980469 C 11.195312 13.929688 11.195312 13.875 11.199219 13.824219 C 11.207031 13.75 11.214844 13.675781 11.226562 13.601562 C 11.238281 13.527344 11.253906 13.453125 11.273438 13.378906 C 11.296875 13.308594 11.320312 13.238281 11.347656 13.167969 C 11.375 13.097656 11.40625 13.03125 11.441406 12.960938 C 11.472656 12.894531 11.511719 12.832031 11.550781 12.765625 C 11.589844 12.703125 11.636719 12.644531 11.683594 12.585938 C 11.730469 12.527344 11.777344 12.46875 11.832031 12.414062 C 11.882812 12.363281 11.9375 12.308594 11.992188 12.261719 C 12.050781 12.214844 12.113281 12.167969 12.175781 12.125 C 12.234375 12.082031 12.300781 12.042969 12.363281 12.007812 C 12.429688 11.972656 12.5 11.9375 12.566406 11.910156 C 12.636719 11.882812 12.707031 11.855469 12.78125 11.832031 C 12.851562 11.8125 12.925781 11.792969 12.996094 11.777344 C 13.070312 11.761719 13.144531 11.75 13.21875 11.742188 C 13.292969 11.734375 13.371094 11.730469 13.445312 11.730469 Z M 13.445312 11.730469 "/>
<path style=" stroke:none;fill-rule:evenodd;fill:rgb(100%,100%,100%);fill-opacity:1;" d="M 10.355469 11.761719 C 10.296875 11.691406 10.234375 11.625 10.171875 11.5625 C 10.089844 11.484375 10.003906 11.410156 9.917969 11.339844 C 9.828125 11.269531 9.738281 11.203125 9.644531 11.144531 C 9.546875 11.082031 9.449219 11.027344 9.351562 10.972656 C 9.25 10.921875 9.148438 10.878906 9.042969 10.839844 C 8.9375 10.796875 8.832031 10.761719 8.722656 10.730469 C 8.613281 10.699219 8.503906 10.675781 8.390625 10.65625 C 8.28125 10.636719 8.171875 10.625 8.058594 10.617188 C 7.980469 10.609375 7.898438 10.605469 7.820312 10.605469 C 7.707031 10.609375 7.59375 10.613281 7.484375 10.625 C 7.371094 10.636719 7.257812 10.652344 7.148438 10.675781 C 7.039062 10.699219 6.929688 10.726562 6.820312 10.757812 C 6.714844 10.792969 6.609375 10.828125 6.503906 10.875 C 6.402344 10.917969 6.300781 10.964844 6.203125 11.019531 C 6.101562 11.074219 6.007812 11.132812 5.914062 11.195312 C 5.820312 11.261719 5.730469 11.328125 5.644531 11.402344 C 5.558594 11.472656 5.476562 11.550781 5.398438 11.632812 C 5.320312 11.710938 5.246094 11.796875 5.175781 11.882812 C 5.105469 11.972656 5.039062 12.0625 4.980469 12.160156 C 4.917969 12.253906 4.863281 12.351562 4.8125 12.449219 C 4.761719 12.550781 4.714844 12.65625 4.675781 12.761719 C 4.632812 12.863281 4.597656 12.972656 4.566406 13.078125 C 4.535156 13.1875 4.511719 13.296875 4.492188 13.410156 C 4.472656 13.519531 4.460938 13.632812 4.453125 13.742188 C 4.445312 13.824219 4.445312 13.902344 4.445312 13.980469 C 4.445312 14.09375 4.449219 14.207031 4.460938 14.320312 C 4.472656 14.429688 4.488281 14.542969 4.511719 14.652344 C 4.535156 14.761719 4.5625 14.871094 4.59375 14.980469 C 4.628906 15.085938 4.667969 15.191406 4.710938 15.296875 C 4.753906 15.402344 4.804688 15.503906 4.855469 15.601562 C 4.910156 15.699219 4.96875 15.796875 5.03125 15.886719 C 5.097656 15.980469 5.164062 16.070312 5.238281 16.15625 C 5.308594 16.242188 5.386719 16.324219 5.46875 16.402344 C 5.546875 16.480469 5.632812 16.554688 5.71875 16.625 C 5.808594 16.695312 5.902344 16.761719 5.996094 16.824219 C 6.089844 16.882812 6.1875 16.941406 6.289062 16.992188 C 6.386719 17.042969 6.492188 17.085938 6.597656 17.128906 C 6.703125 17.167969 6.808594 17.203125 6.914062 17.234375 C 7.023438 17.265625 7.132812 17.289062 7.246094 17.308594 C 7.355469 17.328125 7.46875 17.339844 7.578125 17.347656 C 7.660156 17.355469 7.738281 17.355469 7.820312 17.355469 C 7.929688 17.355469 8.042969 17.351562 8.15625 17.339844 C 8.265625 17.328125 8.378906 17.3125 8.488281 17.292969 C 8.597656 17.269531 8.707031 17.242188 8.816406 17.207031 C 8.925781 17.175781 9.03125 17.136719 9.132812 17.089844 C 9.238281 17.046875 9.339844 17 9.4375 16.945312 C 9.535156 16.890625 9.632812 16.832031 9.722656 16.769531 C 9.816406 16.703125 9.90625 16.636719 9.996094 16.5625 C 10.082031 16.492188 10.164062 16.414062 10.242188 16.332031 C 10.320312 16.253906 10.390625 16.167969 10.460938 16.082031 C 10.53125 15.992188 10.597656 15.902344 10.660156 15.804688 C 10.660156 15.804688 10.664062 15.800781 10.664062 15.796875 C 10.59375 15.664062 10.527344 15.527344 10.46875 15.390625 C 10.402344 15.234375 10.34375 15.078125 10.296875 14.917969 C 10.246094 14.753906 10.203125 14.589844 10.171875 14.425781 C 10.136719 14.261719 10.113281 14.09375 10.09375 13.925781 C 10.078125 13.757812 10.070312 13.589844 10.070312 13.417969 C 10.070312 13.300781 10.074219 13.179688 10.082031 13.0625 C 10.09375 12.894531 10.113281 12.726562 10.144531 12.5625 C 10.171875 12.394531 10.207031 12.230469 10.253906 12.066406 C 10.285156 11.964844 10.320312 11.863281 10.355469 11.761719 Z M 7.257812 12.855469 C 7.296875 12.855469 7.335938 12.859375 7.375 12.863281 C 7.433594 12.867188 7.488281 12.871094 7.542969 12.882812 C 7.601562 12.890625 7.65625 12.902344 7.710938 12.917969 C 7.761719 12.933594 7.816406 12.953125 7.867188 12.972656 C 7.917969 12.992188 7.972656 13.015625 8.019531 13.042969 C 8.070312 13.066406 8.121094 13.09375 8.167969 13.125 C 8.214844 13.15625 8.261719 13.1875 8.308594 13.222656 C 8.351562 13.257812 8.390625 13.296875 8.433594 13.335938 C 8.472656 13.375 8.511719 13.414062 8.546875 13.457031 C 8.585938 13.5 8.617188 13.542969 8.648438 13.589844 C 8.679688 13.636719 8.710938 13.6875 8.738281 13.734375 C 8.765625 13.785156 8.789062 13.835938 8.808594 13.886719 C 8.832031 13.941406 8.851562 13.992188 8.871094 14.046875 C 8.886719 14.101562 8.898438 14.15625 8.910156 14.210938 C 8.921875 14.265625 8.929688 14.320312 8.933594 14.375 C 8.941406 14.433594 8.945312 14.488281 8.945312 14.542969 C 8.945312 14.585938 8.941406 14.625 8.941406 14.664062 C 8.9375 14.71875 8.929688 14.777344 8.917969 14.832031 C 8.910156 14.886719 8.898438 14.941406 8.882812 14.996094 C 8.867188 15.050781 8.851562 15.105469 8.828125 15.15625 C 8.808594 15.207031 8.785156 15.257812 8.761719 15.308594 C 8.734375 15.359375 8.707031 15.410156 8.675781 15.457031 C 8.644531 15.503906 8.613281 15.550781 8.578125 15.59375 C 8.542969 15.636719 8.507812 15.679688 8.46875 15.71875 C 8.429688 15.761719 8.386719 15.800781 8.34375 15.835938 C 8.300781 15.871094 8.257812 15.90625 8.210938 15.9375 C 8.164062 15.96875 8.113281 16 8.066406 16.027344 C 8.015625 16.054688 7.964844 16.078125 7.914062 16.101562 C 7.863281 16.121094 7.808594 16.140625 7.753906 16.15625 C 7.703125 16.175781 7.648438 16.1875 7.59375 16.199219 C 7.539062 16.210938 7.480469 16.21875 7.425781 16.222656 C 7.371094 16.230469 7.3125 16.230469 7.257812 16.230469 C 7.21875 16.230469 7.175781 16.230469 7.136719 16.226562 C 7.082031 16.222656 7.027344 16.21875 6.972656 16.207031 C 6.914062 16.199219 6.859375 16.1875 6.804688 16.171875 C 6.75 16.15625 6.699219 16.136719 6.644531 16.117188 C 6.59375 16.097656 6.542969 16.074219 6.492188 16.050781 C 6.441406 16.023438 6.390625 15.996094 6.34375 15.964844 C 6.296875 15.933594 6.253906 15.902344 6.207031 15.867188 C 6.164062 15.832031 6.121094 15.796875 6.082031 15.753906 C 6.039062 15.714844 6.003906 15.675781 5.964844 15.632812 C 5.929688 15.589844 5.894531 15.542969 5.863281 15.5 C 5.832031 15.453125 5.800781 15.402344 5.777344 15.351562 C 5.75 15.304688 5.726562 15.253906 5.703125 15.203125 C 5.679688 15.148438 5.660156 15.097656 5.644531 15.042969 C 5.628906 14.988281 5.613281 14.9375 5.601562 14.882812 C 5.589844 14.824219 5.582031 14.769531 5.578125 14.714844 C 5.570312 14.65625 5.570312 14.601562 5.570312 14.542969 C 5.570312 14.503906 5.570312 14.464844 5.574219 14.425781 C 5.578125 14.371094 5.582031 14.3125 5.59375 14.257812 C 5.601562 14.203125 5.617188 14.148438 5.628906 14.09375 C 5.644531 14.039062 5.664062 13.988281 5.683594 13.933594 C 5.703125 13.882812 5.726562 13.832031 5.753906 13.78125 C 5.777344 13.730469 5.808594 13.679688 5.835938 13.632812 C 5.867188 13.585938 5.902344 13.539062 5.9375 13.496094 C 5.96875 13.453125 6.007812 13.410156 6.046875 13.371094 C 6.085938 13.328125 6.125 13.289062 6.167969 13.253906 C 6.210938 13.21875 6.257812 13.183594 6.304688 13.152344 C 6.351562 13.121094 6.398438 13.089844 6.449219 13.0625 C 6.496094 13.039062 6.546875 13.011719 6.597656 12.992188 C 6.652344 12.96875 6.703125 12.949219 6.757812 12.933594 C 6.8125 12.914062 6.867188 12.902344 6.921875 12.890625 C 6.976562 12.878906 7.03125 12.871094 7.085938 12.867188 C 7.144531 12.859375 7.199219 12.855469 7.257812 12.855469 Z M 7.257812 12.855469 "/>
<path style=" stroke:none;fill-rule:evenodd;fill:rgb(55.686275%,55.686275%,55.686275%);fill-opacity:1;" d="M 10.113281 16.453125 C 10.464844 16.46875 10.769531 16.472656 11.128906 16.507812 C 11.066406 16.433594 11.011719 16.355469 10.953125 16.277344 C 10.859375 16.140625 10.769531 15.996094 10.6875 15.847656 C 10.679688 15.832031 10.671875 15.8125 10.664062 15.796875 C 10.664062 15.800781 10.660156 15.804688 10.660156 15.804688 C 10.597656 15.902344 10.53125 15.992188 10.460938 16.082031 C 10.390625 16.167969 10.320312 16.253906 10.242188 16.332031 C 10.199219 16.375 10.15625 16.414062 10.113281 16.453125 Z M 10.113281 16.453125 "/>
<path style=" stroke:none;fill-rule:evenodd;fill:rgb(100%,75.686275%,0.784314%);fill-opacity:1;" d="M 5.992188 16.820312 C 5.953125 16.871094 5.796875 16.863281 5.769531 16.921875 C 5.585938 17.289062 5.613281 17.851562 5.578125 18.714844 C 5.542969 19.6875 5.597656 20.796875 5.859375 21.746094 C 5.992188 22.21875 6.179688 22.652344 6.433594 23.007812 C 6.6875 23.363281 7.007812 23.644531 7.414062 23.804688 C 8.261719 24.144531 9.316406 24.183594 10.410156 23.992188 C 11.507812 23.804688 12.644531 23.386719 13.648438 22.820312 C 14.652344 22.257812 15.527344 21.546875 16.101562 20.761719 C 16.390625 20.367188 16.601562 19.960938 16.71875 19.542969 C 16.835938 19.125 16.855469 18.695312 16.757812 18.269531 C 16.753906 18.253906 16.710938 18.242188 16.703125 18.226562 C 16.679688 18.238281 16.652344 18.246094 16.628906 18.257812 C 16.464844 18.304688 16.304688 18.347656 16.136719 18.382812 C 15.972656 18.414062 15.804688 18.441406 15.636719 18.457031 C 15.46875 18.472656 15.300781 18.484375 15.132812 18.480469 C 15.011719 18.480469 14.890625 18.476562 14.773438 18.46875 C 14.605469 18.457031 14.4375 18.4375 14.273438 18.410156 C 14.105469 18.378906 13.941406 18.34375 13.777344 18.296875 C 13.613281 18.253906 13.453125 18.199219 13.296875 18.140625 C 13.140625 18.078125 12.984375 18.007812 12.835938 17.929688 C 12.683594 17.855469 12.539062 17.769531 12.394531 17.679688 C 12.253906 17.589844 12.117188 17.492188 11.984375 17.386719 C 11.851562 17.28125 11.726562 17.167969 11.605469 17.050781 C 11.484375 16.933594 11.367188 16.808594 11.261719 16.679688 C 11.214844 16.625 11.171875 16.566406 11.128906 16.507812 C 10.769531 16.472656 10.464844 16.46875 10.113281 16.453125 C 10.074219 16.492188 10.035156 16.527344 9.996094 16.5625 C 9.90625 16.636719 9.816406 16.703125 9.722656 16.769531 C 9.632812 16.832031 9.535156 16.890625 9.4375 16.945312 C 9.339844 17 9.238281 17.046875 9.132812 17.089844 C 9.03125 17.136719 8.925781 17.175781 8.816406 17.207031 C 8.707031 17.242188 8.597656 17.269531 8.488281 17.292969 C 8.378906 17.3125 8.265625 17.328125 8.15625 17.339844 C 8.042969 17.351562 7.929688 17.355469 7.820312 17.355469 C 7.738281 17.355469 7.660156 17.355469 7.578125 17.347656 C 7.46875 17.339844 7.355469 17.328125 7.246094 17.308594 C 7.132812 17.289062 7.023438 17.265625 6.914062 17.234375 C 6.808594 17.203125 6.703125 17.167969 6.597656 17.128906 C 6.492188 17.085938 6.386719 17.042969 6.289062 16.992188 C 6.1875 16.941406 6.089844 16.882812 5.996094 16.824219 C 5.996094 16.824219 5.992188 16.820312 5.992188 16.820312 Z M 5.992188 16.820312 "/>
<path style=" stroke:none;fill-rule:evenodd;fill:rgb(98.823529%,97.254902%,99.215686%);fill-opacity:1;" d="M 7.84375 23.832031 C 7.839844 23.867188 7.835938 23.902344 7.832031 23.9375 C 7.820312 24.136719 7.816406 24.335938 7.824219 24.539062 C 7.832031 24.738281 7.851562 24.945312 7.878906 25.148438 C 7.90625 25.355469 7.945312 25.558594 7.996094 25.765625 C 8.042969 25.972656 8.101562 26.179688 8.171875 26.382812 C 8.238281 26.589844 8.316406 26.792969 8.40625 26.996094 C 8.492188 27.199219 8.589844 27.398438 8.695312 27.597656 C 8.800781 27.792969 8.914062 27.988281 9.039062 28.175781 C 9.160156 28.367188 9.292969 28.554688 9.433594 28.734375 C 9.570312 28.917969 9.714844 29.09375 9.867188 29.265625 C 10.023438 29.433594 10.183594 29.601562 10.351562 29.757812 C 10.46875 29.871094 10.589844 29.980469 10.710938 30.082031 C 10.886719 30.234375 11.066406 30.375 11.25 30.507812 C 11.4375 30.640625 11.625 30.769531 11.816406 30.886719 C 12.011719 31.003906 12.207031 31.113281 12.40625 31.210938 C 12.605469 31.3125 12.808594 31.402344 13.011719 31.484375 C 13.214844 31.5625 13.421875 31.636719 13.625 31.695312 C 13.832031 31.757812 14.039062 31.8125 14.242188 31.851562 C 14.449219 31.894531 14.65625 31.925781 14.859375 31.949219 C 15.066406 31.96875 15.265625 31.980469 15.46875 31.980469 C 15.667969 31.984375 15.867188 31.972656 16.0625 31.953125 C 16.253906 31.933594 16.445312 31.90625 16.632812 31.867188 C 16.820312 31.824219 17.003906 31.773438 17.179688 31.714844 C 17.355469 31.65625 17.527344 31.585938 17.695312 31.503906 C 17.859375 31.425781 18.019531 31.335938 18.171875 31.238281 C 18.324219 31.140625 18.46875 31.035156 18.609375 30.917969 C 18.746094 30.800781 18.875 30.679688 19 30.546875 C 19.085938 30.453125 19.167969 30.355469 19.246094 30.253906 C 19.355469 30.109375 19.453125 29.960938 19.546875 29.800781 C 19.636719 29.644531 19.722656 29.480469 19.792969 29.3125 C 19.867188 29.144531 19.929688 28.96875 19.984375 28.789062 C 20.035156 28.605469 20.082031 28.421875 20.113281 28.230469 C 20.148438 28.042969 20.171875 27.847656 20.183594 27.652344 C 20.195312 27.453125 20.199219 27.253906 20.191406 27.054688 C 20.179688 26.851562 20.164062 26.648438 20.132812 26.441406 C 20.105469 26.238281 20.070312 26.03125 20.019531 25.824219 C 19.972656 25.617188 19.914062 25.410156 19.84375 25.207031 C 19.777344 25 19.699219 24.796875 19.609375 24.59375 C 19.523438 24.394531 19.425781 24.191406 19.320312 23.996094 C 19.214844 23.796875 19.097656 23.601562 18.976562 23.414062 C 18.855469 23.222656 18.722656 23.035156 18.582031 22.855469 C 18.445312 22.671875 18.296875 22.496094 18.144531 22.324219 C 17.992188 22.15625 17.832031 21.988281 17.664062 21.832031 C 17.546875 21.71875 17.425781 21.609375 17.300781 21.503906 C 17.128906 21.355469 16.949219 21.214844 16.765625 21.082031 C 16.578125 20.949219 16.390625 20.824219 16.195312 20.707031 C 16.179688 20.695312 16.160156 20.6875 16.144531 20.675781 C 16.125 20.703125 16.121094 20.734375 16.101562 20.761719 C 15.527344 21.546875 14.652344 22.257812 13.648438 22.820312 C 12.644531 23.386719 11.507812 23.804688 10.410156 23.992188 C 9.472656 24.15625 8.617188 24.050781 7.84375 23.832031 Z M 7.84375 23.832031 "/>
<path style=" stroke:none;fill-rule:evenodd;fill:rgb(55.686275%,55.686275%,55.686275%);fill-opacity:1;" d="M 9.738281 29.109375 C 9.632812 28.988281 9.53125 28.863281 9.433594 28.734375 C 9.292969 28.554688 9.160156 28.367188 9.039062 28.175781 C 8.914062 27.988281 8.800781 27.792969 8.695312 27.597656 C 8.589844 27.398438 8.492188 27.199219 8.40625 26.996094 C 8.316406 26.792969 8.238281 26.589844 8.171875 26.382812 C 8.101562 26.179688 8.042969 25.972656 7.996094 25.765625 C 7.945312 25.558594 7.90625 25.355469 7.878906 25.148438 C 7.851562 24.945312 7.832031 24.738281 7.824219 24.539062 C 7.816406 24.335938 7.820312 24.136719 7.832031 23.9375 C 7.835938 23.902344 7.839844 23.867188 7.84375 23.832031 C 7.726562 23.800781 7.566406 23.839844 7.449219 23.808594 C 7.472656 23.890625 7.476562 23.972656 7.503906 24.054688 C 7.550781 24.890625 7.730469 25.683594 8.019531 26.441406 C 8.304688 27.195312 8.699219 27.914062 9.179688 28.585938 C 9.324219 28.785156 9.582031 28.914062 9.738281 29.109375 Z M 9.738281 29.109375 "/>
<path style=" stroke:none;fill-rule:evenodd;fill:rgb(55.686275%,55.686275%,55.686275%);fill-opacity:1;" d="M 32.222656 31.746094 C 31.878906 31.988281 31.644531 32.21875 31.269531 32.453125 C 30.5625 32.894531 29.707031 33.21875 28.910156 33.597656 C 30.214844 33.3125 31.367188 32.707031 32.222656 31.746094 Z M 32.222656 31.746094 "/>
<path style=" stroke:none;fill-rule:evenodd;fill:rgb(39.215686%,15.686275%,48.235294%);fill-opacity:1;" d="M 33.503906 15.273438 C 33.066406 14.992188 32.695312 14.632812 32.226562 14.390625 C 31.019531 13.765625 29.738281 13.265625 28.492188 12.855469 L 24.695312 17.402344 C 25.3125 17.847656 25.628906 18.925781 26.339844 19.445312 C 28.027344 20.6875 29.917969 21.742188 31.914062 22.546875 C 32.542969 22.796875 33.21875 22.839844 33.867188 23.039062 L 33.867188 15.886719 C 33.746094 15.675781 33.625 15.488281 33.503906 15.273438 Z M 33.503906 15.273438 "/>
<path style=" stroke:none;fill-rule:evenodd;fill:rgb(49.019608%,19.607843%,60.392157%);fill-opacity:1;" d="M 19.089844 3.855469 C 18.144531 3.871094 16.960938 4.269531 15.703125 4.972656 C 14.449219 5.675781 13.117188 6.683594 11.878906 7.921875 C 10.980469 8.820312 10.238281 9.949219 9.492188 11.058594 C 9.542969 11.085938 9.59375 11.113281 9.644531 11.144531 C 9.738281 11.203125 9.828125 11.269531 9.917969 11.339844 C 10.003906 11.410156 10.089844 11.484375 10.171875 11.5625 C 10.234375 11.625 10.296875 11.691406 10.355469 11.761719 C 10.375 11.703125 10.394531 11.644531 10.414062 11.585938 C 10.476562 11.429688 10.542969 11.273438 10.621094 11.125 C 10.695312 10.972656 10.78125 10.828125 10.871094 10.683594 C 10.960938 10.542969 11.058594 10.40625 11.164062 10.273438 C 11.269531 10.140625 11.382812 10.015625 11.5 9.894531 C 11.617188 9.773438 11.742188 9.65625 11.871094 9.546875 C 12 9.441406 12.132812 9.335938 12.273438 9.242188 C 12.414062 9.148438 12.558594 9.058594 12.707031 8.976562 C 12.855469 8.894531 13.003906 8.824219 13.160156 8.757812 C 13.316406 8.691406 13.472656 8.632812 13.636719 8.582031 C 13.796875 8.535156 13.960938 8.492188 14.125 8.457031 C 14.289062 8.425781 14.457031 8.398438 14.625 8.382812 C 14.792969 8.367188 14.960938 8.359375 15.132812 8.355469 C 15.25 8.359375 15.371094 8.363281 15.488281 8.371094 C 15.660156 8.382812 15.828125 8.402344 15.992188 8.433594 C 16.160156 8.460938 16.324219 8.496094 16.484375 8.542969 C 16.648438 8.585938 16.808594 8.640625 16.964844 8.703125 C 17.125 8.761719 17.277344 8.832031 17.425781 8.910156 C 17.578125 8.984375 17.726562 9.070312 17.867188 9.160156 C 18.007812 9.25 18.144531 9.347656 18.277344 9.453125 C 18.410156 9.558594 18.535156 9.671875 18.65625 9.789062 C 18.777344 9.90625 18.894531 10.03125 19.003906 10.160156 C 19.113281 10.289062 19.214844 10.421875 19.3125 10.5625 C 19.40625 10.699219 19.492188 10.84375 19.574219 10.992188 C 19.65625 11.140625 19.726562 11.292969 19.792969 11.449219 C 19.859375 11.605469 19.917969 11.761719 19.96875 11.921875 C 20.015625 12.085938 20.058594 12.25 20.09375 12.414062 C 20.125 12.578125 20.152344 12.746094 20.167969 12.914062 C 20.1875 13.082031 20.195312 13.25 20.195312 13.417969 C 20.195312 13.539062 20.1875 13.660156 20.179688 13.777344 C 20.167969 13.945312 20.148438 14.113281 20.121094 14.28125 C 20.09375 14.445312 20.054688 14.609375 20.007812 14.773438 C 19.964844 14.9375 19.910156 15.097656 19.851562 15.253906 C 19.789062 15.410156 19.71875 15.566406 19.640625 15.714844 C 19.566406 15.867188 19.484375 16.011719 19.390625 16.15625 C 19.300781 16.296875 19.203125 16.433594 19.097656 16.566406 C 18.992188 16.699219 18.882812 16.824219 18.761719 16.945312 C 18.644531 17.066406 18.523438 17.183594 18.390625 17.292969 C 18.261719 17.402344 18.128906 17.503906 17.988281 17.597656 C 17.851562 17.695312 17.707031 17.78125 17.558594 17.863281 C 17.410156 17.945312 17.257812 18.015625 17.101562 18.082031 C 16.972656 18.136719 16.839844 18.183594 16.703125 18.226562 C 16.710938 18.242188 16.753906 18.253906 16.757812 18.269531 C 16.855469 18.695312 16.835938 19.125 16.71875 19.542969 C 16.609375 19.929688 16.402344 20.308594 16.144531 20.675781 C 16.160156 20.6875 16.179688 20.695312 16.195312 20.707031 C 16.390625 20.824219 16.578125 20.949219 16.765625 21.082031 C 16.949219 21.214844 17.128906 21.355469 17.300781 21.503906 C 17.425781 21.609375 17.546875 21.71875 17.664062 21.832031 C 17.832031 21.988281 17.992188 22.15625 18.144531 22.324219 C 18.296875 22.496094 18.445312 22.671875 18.582031 22.855469 C 18.722656 23.035156 18.855469 23.222656 18.976562 23.414062 C 19.097656 23.601562 19.214844 23.796875 19.320312 23.996094 C 19.425781 24.191406 19.523438 24.394531 19.609375 24.59375 C 19.699219 24.796875 19.777344 25 19.84375 25.207031 C 19.914062 25.410156 19.972656 25.617188 20.019531 25.824219 C 20.070312 26.03125 20.105469 26.238281 20.132812 26.441406 C 20.164062 26.648438 20.179688 26.851562 20.191406 27.054688 C 20.199219 27.253906 20.195312 27.453125 20.183594 27.652344 C 20.171875 27.847656 20.148438 28.042969 20.113281 28.230469 C 20.082031 28.421875 20.035156 28.605469 19.984375 28.789062 C 19.929688 28.96875 19.867188 29.144531 19.792969 29.3125 C 19.722656 29.480469 19.636719 29.644531 19.546875 29.800781 C 19.453125 29.960938 19.355469 30.109375 19.246094 30.253906 C 19.167969 30.355469 19.085938 30.453125 19 30.546875 C 18.875 30.679688 18.746094 30.800781 18.609375 30.917969 C 18.46875 31.035156 18.324219 31.140625 18.171875 31.238281 C 18.019531 31.335938 17.859375 31.425781 17.695312 31.503906 C 17.527344 31.585938 17.355469 31.65625 17.179688 31.714844 C 17.003906 31.773438 16.820312 31.824219 16.632812 31.867188 C 16.445312 31.90625 16.253906 31.933594 16.0625 31.953125 C 15.867188 31.972656 15.667969 31.984375 15.46875 31.980469 C 15.265625 31.980469 15.066406 31.96875 14.859375 31.949219 C 14.65625 31.925781 14.449219 31.894531 14.242188 31.851562 C 14.039062 31.8125 13.832031 31.757812 13.625 31.695312 C 13.421875 31.636719 13.214844 31.5625 13.011719 31.484375 C 12.808594 31.402344 12.605469 31.3125 12.40625 31.210938 C 12.207031 31.113281 12.011719 31.003906 11.816406 30.886719 C 11.625 30.769531 11.4375 30.640625 11.25 30.507812 C 11.21875 30.484375 11.1875 30.457031 11.15625 30.433594 C 11.753906 30.976562 12.21875 31.613281 12.90625 32.074219 C 14.046875 32.828125 15.304688 33.359375 16.550781 33.867188 L 27.59375 33.867188 C 28.058594 33.867188 28.472656 33.695312 28.910156 33.597656 C 29.707031 33.21875 30.5625 32.894531 31.269531 32.453125 C 31.644531 32.21875 31.878906 31.988281 32.222656 31.746094 C 33.21875 30.636719 33.867188 29.207031 33.867188 27.59375 L 33.867188 23.039062 C 33.21875 22.839844 32.542969 22.796875 31.914062 22.546875 C 29.917969 21.742188 28.027344 20.6875 26.339844 19.445312 C 25.628906 18.925781 25.3125 17.847656 24.695312 17.402344 L 28.492188 12.855469 C 29.738281 13.265625 31.019531 13.765625 32.226562 14.390625 C 32.695312 14.632812 33.0625 14.992188 33.503906 15.273438 C 33.183594 14.699219 32.863281 14.101562 32.535156 13.621094 C 31.757812 12.476562 30.8125 11.410156 29.757812 10.421875 C 28.707031 9.4375 27.546875 8.535156 26.34375 7.714844 C 23.933594 6.078125 21.351562 4.78125 19.089844 3.855469 Z M 19.089844 3.855469 "/>
<path style=" stroke:none;fill-rule:evenodd;fill:rgb(49.019608%,19.607843%,60.392157%);fill-opacity:1;" d="M 6.855469 23.355469 C 6.265625 25.042969 5.746094 26.765625 5.570312 28.507812 C 6.363281 28.621094 7.109375 28.636719 7.804688 28.5625 C 8.238281 28.519531 8.617188 28.386719 9.015625 28.277344 C 8.625 27.691406 8.265625 27.089844 8.019531 26.441406 C 7.730469 25.683594 7.550781 24.890625 7.503906 24.054688 C 7.476562 23.972656 7.472656 23.890625 7.449219 23.808594 C 7.4375 23.804688 7.425781 23.808594 7.414062 23.804688 C 7.183594 23.714844 7.035156 23.511719 6.855469 23.355469 Z M 6.855469 23.355469 "/>
<path style=" stroke:none;fill-rule:evenodd;fill:rgb(40%,40%,40%);fill-opacity:1;" d="M 8.40625 2.132812 C 4.933594 2.132812 2.132812 4.933594 2.132812 8.40625 L 2.132812 27.59375 C 2.132812 31.066406 4.933594 33.867188 8.40625 33.867188 L 16.550781 33.867188 C 15.304688 33.359375 14.046875 32.828125 12.90625 32.074219 C 12.21875 31.613281 11.753906 30.976562 11.15625 30.433594 C 11.003906 30.320312 10.855469 30.207031 10.710938 30.082031 C 10.589844 29.980469 10.46875 29.871094 10.351562 29.757812 C 10.183594 29.601562 10.023438 29.433594 9.867188 29.265625 C 9.824219 29.210938 9.78125 29.160156 9.738281 29.109375 C 9.582031 28.914062 9.324219 28.785156 9.179688 28.585938 C 9.113281 28.488281 9.078125 28.375 9.015625 28.277344 C 8.617188 28.386719 8.238281 28.519531 7.804688 28.5625 C 7.109375 28.636719 6.363281 28.621094 5.570312 28.507812 C 5.746094 26.765625 6.265625 25.042969 6.855469 23.355469 C 6.71875 23.230469 6.542969 23.164062 6.433594 23.007812 C 6.179688 22.652344 5.992188 22.21875 5.859375 21.746094 C 5.597656 20.796875 5.542969 19.6875 5.578125 18.714844 C 5.613281 17.851562 5.585938 17.289062 5.769531 16.921875 C 5.796875 16.863281 5.953125 16.871094 5.992188 16.820312 C 5.898438 16.761719 5.808594 16.695312 5.71875 16.625 C 5.632812 16.554688 5.546875 16.480469 5.46875 16.402344 C 5.386719 16.324219 5.308594 16.242188 5.238281 16.15625 C 5.164062 16.070312 5.097656 15.980469 5.03125 15.886719 C 4.96875 15.796875 4.910156 15.699219 4.855469 15.601562 C 4.804688 15.503906 4.753906 15.402344 4.710938 15.296875 C 4.667969 15.191406 4.628906 15.085938 4.59375 14.980469 C 4.5625 14.871094 4.535156 14.761719 4.511719 14.652344 C 4.488281 14.542969 4.472656 14.429688 4.460938 14.320312 C 4.449219 14.207031 4.445312 14.09375 4.445312 13.980469 C 4.445312 13.902344 4.445312 13.824219 4.453125 13.742188 C 4.460938 13.632812 4.472656 13.519531 4.492188 13.410156 C 4.511719 13.296875 4.535156 13.1875 4.566406 13.078125 C 4.597656 12.972656 4.632812 12.863281 4.675781 12.761719 C 4.714844 12.65625 4.761719 12.550781 4.8125 12.449219 C 4.863281 12.351562 4.917969 12.253906 4.980469 12.160156 C 5.039062 12.0625 5.105469 11.972656 5.175781 11.882812 C 5.246094 11.796875 5.320312 11.710938 5.398438 11.632812 C 5.476562 11.550781 5.558594 11.472656 5.644531 11.402344 C 5.730469 11.328125 5.820312 11.261719 5.914062 11.195312 C 6.007812 11.132812 6.101562 11.074219 6.203125 11.019531 C 6.300781 10.964844 6.402344 10.917969 6.503906 10.875 C 6.609375 10.828125 6.714844 10.792969 6.820312 10.757812 C 6.929688 10.726562 7.039062 10.699219 7.148438 10.675781 C 7.257812 10.652344 7.371094 10.636719 7.484375 10.625 C 7.59375 10.613281 7.707031 10.609375 7.820312 10.605469 C 7.898438 10.605469 7.980469 10.609375 8.058594 10.617188 C 8.171875 10.625 8.28125 10.636719 8.390625 10.65625 C 8.503906 10.675781 8.613281 10.699219 8.722656 10.730469 C 8.832031 10.761719 8.9375 10.796875 9.042969 10.839844 C 9.148438 10.878906 9.25 10.921875 9.351562 10.972656 C 9.398438 11 9.445312 11.027344 9.492188 11.058594 C 10.238281 9.949219 10.980469 8.820312 11.878906 7.921875 C 13.117188 6.683594 14.449219 5.675781 15.703125 4.972656 C 16.960938 4.269531 18.144531 3.871094 19.089844 3.855469 C 21.351562 4.78125 23.933594 6.078125 26.34375 7.714844 C 27.546875 8.535156 28.707031 9.4375 29.757812 10.421875 C 30.8125 11.410156 31.757812 12.476562 32.535156 13.621094 C 32.984375 14.28125 33.421875 15.105469 33.867188 15.886719 L 33.867188 8.40625 C 33.867188 4.933594 31.066406 2.132812 27.59375 2.132812 Z M 8.40625 2.132812 "/>
</g>
</svg>
