<?xml version="1.0" encoding="UTF-8"?>
<svg xmlns="http://www.w3.org/2000/svg" xmlns:xlink="http://www.w3.org/1999/xlink" width="36pt" height="36pt" viewBox="0 0 36 36" version="1.1">
<defs>
<filter id="alpha" filterUnits="objectBoundingBox" x="0%" y="0%" width="100%" height="100%">
  <feColorMatrix type="matrix" in="SourceGraphic" values="0 0 0 0 1 0 0 0 0 1 0 0 0 0 1 0 0 0 1 0"/>
</filter>
<mask id="mask0">
  <g filter="url(#alpha)">
<rect x="0" y="0" width="36" height="36" style="fill:rgb(0%,0%,0%);fill-opacity:0.0196078;stroke:none;"/>
  </g>
</mask>
<clipPath id="clip1">
  <rect width="36" height="36"/>
</clipPath>
<g id="surface6" clip-path="url(#clip1)">
<path style=" stroke:none;fill-rule:nonzero;fill:rgb(0%,0%,0%);fill-opacity:1;" d="M 25.375 19.226562 C 25.375 17.824219 22.042969 16.691406 17.933594 16.691406 C 13.824219 16.691406 10.492188 17.824219 10.492188 19.226562 C 10.492188 20.625 13.824219 21.757812 17.933594 21.757812 C 22.042969 21.757812 25.375 20.625 25.375 19.226562 Z M 25.375 19.226562 "/>
</g>
<mask id="mask1">
  <g filter="url(#alpha)">
<rect x="0" y="0" width="36" height="36" style="fill:rgb(0%,0%,0%);fill-opacity:0.0196078;stroke:none;"/>
  </g>
</mask>
<clipPath id="clip2">
  <rect width="36" height="36"/>
</clipPath>
<g id="surface9" clip-path="url(#clip2)">
<path style=" stroke:none;fill-rule:nonzero;fill:rgb(0%,0%,0%);fill-opacity:1;" d="M 23.511719 19.183594 C 23.511719 18.132812 21.015625 17.285156 17.933594 17.285156 C 14.851562 17.285156 12.351562 18.132812 12.351562 19.183594 C 12.351562 20.234375 14.851562 21.082031 17.933594 21.082031 C 21.015625 21.082031 23.511719 20.234375 23.511719 19.183594 Z M 23.511719 19.183594 "/>
</g>
</defs>
<g id="surface1">
<path style=" stroke:none;fill-rule:evenodd;fill:rgb(0.784314%,52.54902%,76.078431%);fill-opacity:1;" d="M 8.394531 2.136719 C 4.917969 2.136719 2.125 4.933594 2.125 8.40625 L 2.125 19.660156 C 2.195312 19.539062 2.183594 19.371094 2.28125 19.273438 C 2.574219 18.984375 2.976562 18.804688 3.421875 18.804688 C 10.914062 20.484375 27.566406 16.070312 33.582031 19.273438 C 33.75 19.441406 33.769531 19.699219 33.851562 19.925781 L 33.851562 8.40625 C 33.851562 4.933594 31.054688 2.136719 27.578125 2.136719 Z M 8.394531 2.136719 "/>
<path style=" stroke:none;fill-rule:evenodd;fill:rgb(90.196078%,15.686275%,10.588235%);fill-opacity:1;" d="M 33.851562 19.066406 C 33.769531 18.84375 33.75 18.582031 33.582031 18.417969 C 33.292969 18.125 32.886719 17.949219 32.441406 17.949219 L 3.421875 17.949219 C 2.976562 17.949219 2.574219 18.125 2.28125 18.417969 C 2.183594 18.515625 2.195312 18.679688 2.125 18.800781 L 2.125 27.589844 C 2.125 31.066406 4.917969 33.863281 8.394531 33.863281 L 27.578125 33.863281 C 31.054688 33.863281 33.851562 31.066406 33.851562 27.589844 Z M 33.851562 19.066406 "/>
<path style=" stroke:none;fill-rule:nonzero;fill:rgb(100%,100%,78.431373%);fill-opacity:1;" d="M 32.964844 18.804688 C 32.964844 16.003906 26.128906 13.738281 17.699219 13.738281 C 9.269531 13.738281 2.433594 16.003906 2.433594 18.804688 C 2.433594 21.601562 9.269531 23.871094 17.699219 23.871094 C 26.128906 23.871094 32.964844 21.601562 32.964844 18.804688 Z M 32.964844 18.804688 "/>
<use xlink:href="#surface6" mask="url(#mask0)"/>
<use xlink:href="#surface9" mask="url(#mask1)"/>
<path style=" stroke:none;fill-rule:nonzero;fill:rgb(68.627451%,68.627451%,68.627451%);fill-opacity:1;" d="M 18.003906 13.738281 C 9.238281 13.738281 2.132812 16.003906 2.132812 18.804688 C 2.136719 18.832031 2.140625 18.859375 2.144531 18.882812 C 2.140625 18.921875 2.136719 18.957031 2.132812 18.992188 C 2.140625 20.199219 3.558594 21.363281 6.128906 22.265625 L 6.210938 24.683594 L 7.003906 24.757812 L 7.4375 22.683594 C 7.4375 22.679688 7.4375 22.675781 7.4375 22.671875 C 10.164062 23.429688 13.652344 23.875 17.308594 23.925781 L 17.609375 26.402344 L 18.402344 26.402344 L 18.699219 23.921875 C 22.351562 23.871094 25.835938 23.433594 28.5625 22.675781 L 29.003906 24.757812 L 29.792969 24.683594 L 29.875 22.265625 C 32.445312 21.363281 33.871094 20.199219 33.875 18.992188 C 33.875 18.96875 33.871094 18.941406 33.863281 18.914062 C 33.871094 18.878906 33.875 18.839844 33.875 18.804688 C 33.875 16.003906 26.769531 13.738281 18.003906 13.738281 Z M 18.003906 15.003906 C 22.285156 15.003906 26.164062 15.566406 28.867188 16.429688 C 30.222656 16.863281 31.28125 17.378906 31.914062 17.855469 C 32.542969 18.332031 32.65625 18.660156 32.65625 18.804688 C 32.65625 18.945312 32.542969 19.273438 31.914062 19.75 C 31.28125 20.230469 30.222656 20.742188 28.867188 21.171875 C 26.164062 22.039062 22.285156 22.605469 18.003906 22.605469 C 13.722656 22.605469 9.847656 22.039062 7.140625 21.171875 C 5.789062 20.742188 4.730469 20.230469 4.097656 19.75 C 3.464844 19.273438 3.355469 18.945312 3.355469 18.804688 C 3.355469 18.660156 3.464844 18.332031 4.097656 17.855469 C 4.730469 17.378906 5.789062 16.863281 7.140625 16.429688 C 9.847656 15.566406 13.722656 15.003906 18.003906 15.003906 Z M 18.003906 15.003906 "/>
</g>
</svg>
