<?xml version="1.0" encoding="UTF-8"?>
<svg xmlns="http://www.w3.org/2000/svg" xmlns:xlink="http://www.w3.org/1999/xlink" width="36pt" height="36pt" viewBox="0 0 36 36" version="1.1">
<g id="surface1">
<path style=" stroke:none;fill-rule:evenodd;fill:rgb(0.784314%,52.54902%,76.078431%);fill-opacity:1;" d="M 8.40625 2.136719 L 27.59375 2.136719 C 31.054688 2.136719 33.863281 4.945312 33.863281 8.40625 L 33.863281 27.59375 C 33.863281 31.054688 31.054688 33.863281 27.59375 33.863281 L 8.40625 33.863281 C 4.945312 33.863281 2.136719 31.054688 2.136719 27.59375 L 2.136719 8.40625 C 2.136719 4.945312 4.945312 2.136719 8.40625 2.136719 Z M 8.40625 2.136719 "/>
<path style=" stroke:none;fill-rule:nonzero;fill:rgb(80%,80%,80%);fill-opacity:1;" d="M 28.710938 18 C 28.710938 12.082031 23.914062 7.285156 17.996094 7.285156 C 12.078125 7.285156 7.28125 12.082031 7.28125 18 C 7.28125 23.917969 12.078125 28.714844 17.996094 28.714844 C 23.914062 28.714844 28.710938 23.917969 28.710938 18 Z M 28.710938 18 "/>
<path style=" stroke:none;fill-rule:nonzero;fill:rgb(94.901961%,94.901961%,94.901961%);fill-opacity:1;" d="M 16.988281 11.882812 C 15.425781 11.835938 13.925781 12.15625 12.539062 12.484375 C 10.496094 12.964844 7.132812 14.453125 7.132812 14.453125 C 6.320312 14.808594 6.308594 15.957031 7.113281 16.328125 C 8.269531 16.921875 10.019531 17.167969 10.265625 18.5 C 10.625 20.464844 8.558594 22.265625 7.464844 24.078125 C 6.808594 25.121094 8.203125 26.226562 9.058594 25.34375 C 9.058594 25.34375 14.355469 20.425781 21.269531 20.242188 C 22.554688 20.207031 24.269531 20.777344 25.609375 21.394531 C 26.949219 22.015625 27.902344 22.484375 27.902344 22.484375 C 28.746094 23.039062 29.792969 21.921875 29.394531 20.992188 C 27.414062 16.359375 23.308594 12.546875 17.667969 11.925781 L 17.660156 11.925781 C 17.4375 11.902344 17.210938 11.886719 16.988281 11.882812 Z M 16.988281 11.882812 "/>
</g>
</svg>
