<?xml version="1.0" encoding="UTF-8"?>
<svg xmlns="http://www.w3.org/2000/svg" xmlns:xlink="http://www.w3.org/1999/xlink" width="36pt" height="36pt" viewBox="0 0 36 36" version="1.1">
<defs>
<g>
<symbol overflow="visible" id="glyph0-0">
<path style="stroke:none;" d="M 0.890625 3.1875 L 0.890625 -12.6875 L 9.890625 -12.6875 L 9.890625 3.1875 Z M 1.90625 2.1875 L 8.890625 2.1875 L 8.890625 -11.6875 L 1.90625 -11.6875 Z M 1.90625 2.1875 "/>
</symbol>
<symbol overflow="visible" id="glyph0-1">
<path style="stroke:none;" d="M 3.453125 -1.5 L 9.65625 -1.5 L 9.65625 0 L 1.3125 0 L 1.3125 -1.5 C 1.988281 -2.195312 2.90625 -3.128906 4.0625 -4.296875 C 5.226562 -5.472656 5.960938 -6.234375 6.265625 -6.578125 C 6.835938 -7.210938 7.234375 -7.75 7.453125 -8.1875 C 7.679688 -8.632812 7.796875 -9.070312 7.796875 -9.5 C 7.796875 -10.195312 7.550781 -10.765625 7.0625 -11.203125 C 6.570312 -11.640625 5.9375 -11.859375 5.15625 -11.859375 C 4.59375 -11.859375 4.003906 -11.757812 3.390625 -11.5625 C 2.773438 -11.375 2.113281 -11.085938 1.40625 -10.703125 L 1.40625 -12.484375 C 2.125 -12.773438 2.789062 -12.992188 3.40625 -13.140625 C 4.03125 -13.285156 4.597656 -13.359375 5.109375 -13.359375 C 6.472656 -13.359375 7.554688 -13.019531 8.359375 -12.34375 C 9.171875 -11.664062 9.578125 -10.753906 9.578125 -9.609375 C 9.578125 -9.078125 9.472656 -8.566406 9.265625 -8.078125 C 9.066406 -7.597656 8.703125 -7.03125 8.171875 -6.375 C 8.023438 -6.207031 7.554688 -5.71875 6.765625 -4.90625 C 5.984375 -4.09375 4.878906 -2.957031 3.453125 -1.5 Z M 3.453125 -1.5 "/>
</symbol>
<symbol overflow="visible" id="glyph0-2">
<path style="stroke:none;" d="M 7.296875 -7.078125 C 8.148438 -6.890625 8.816406 -6.507812 9.296875 -5.9375 C 9.773438 -5.363281 10.015625 -4.65625 10.015625 -3.8125 C 10.015625 -2.519531 9.566406 -1.519531 8.671875 -0.8125 C 7.785156 -0.101562 6.519531 0.25 4.875 0.25 C 4.320312 0.25 3.753906 0.191406 3.171875 0.078125 C 2.585938 -0.0234375 1.988281 -0.179688 1.375 -0.390625 L 1.375 -2.109375 C 1.863281 -1.816406 2.398438 -1.597656 2.984375 -1.453125 C 3.578125 -1.304688 4.191406 -1.234375 4.828125 -1.234375 C 5.941406 -1.234375 6.789062 -1.453125 7.375 -1.890625 C 7.957031 -2.335938 8.25 -2.976562 8.25 -3.8125 C 8.25 -4.582031 7.976562 -5.1875 7.4375 -5.625 C 6.894531 -6.0625 6.140625 -6.28125 5.171875 -6.28125 L 3.640625 -6.28125 L 3.640625 -7.75 L 5.234375 -7.75 C 6.109375 -7.75 6.773438 -7.921875 7.234375 -8.265625 C 7.703125 -8.617188 7.9375 -9.125 7.9375 -9.78125 C 7.9375 -10.445312 7.695312 -10.957031 7.21875 -11.3125 C 6.738281 -11.675781 6.054688 -11.859375 5.171875 -11.859375 C 4.679688 -11.859375 4.15625 -11.804688 3.59375 -11.703125 C 3.039062 -11.597656 2.429688 -11.4375 1.765625 -11.21875 L 1.765625 -12.796875 C 2.441406 -12.984375 3.070312 -13.125 3.65625 -13.21875 C 4.25 -13.3125 4.804688 -13.359375 5.328125 -13.359375 C 6.671875 -13.359375 7.734375 -13.050781 8.515625 -12.4375 C 9.304688 -11.820312 9.703125 -10.992188 9.703125 -9.953125 C 9.703125 -9.234375 9.492188 -8.617188 9.078125 -8.109375 C 8.660156 -7.609375 8.066406 -7.265625 7.296875 -7.078125 Z M 7.296875 -7.078125 "/>
</symbol>
</g>
</defs>
<g id="surface1">
<path style=" stroke:none;fill-rule:evenodd;fill:rgb(0%,72.156863%,16.470588%);fill-opacity:1;" d="M 8.40625 2.136719 L 27.59375 2.136719 C 31.054688 2.136719 33.863281 4.945312 33.863281 8.40625 L 33.863281 27.59375 C 33.863281 31.054688 31.054688 33.863281 27.59375 33.863281 L 8.40625 33.863281 C 4.945312 33.863281 2.136719 31.054688 2.136719 27.59375 L 2.136719 8.40625 C 2.136719 4.945312 4.945312 2.136719 8.40625 2.136719 Z M 8.40625 2.136719 "/>
<g style="fill:rgb(100%,100%,100%);fill-opacity:1;">
  <use xlink:href="#glyph0-1" x="6.875" y="24.395142"/>
  <use xlink:href="#glyph0-2" x="18.053589" y="24.395142"/>
</g>
</g>
</svg>
