<?xml version="1.0" encoding="UTF-8"?>
<svg xmlns="http://www.w3.org/2000/svg" xmlns:xlink="http://www.w3.org/1999/xlink" width="36pt" height="36pt" viewBox="0 0 36 36" version="1.1">
<g id="surface1">
<path style=" stroke:none;fill-rule:evenodd;fill:rgb(58.823529%,72.941176%,25.882353%);fill-opacity:1;" d="M 8.40625 2.136719 L 27.59375 2.136719 C 31.054688 2.136719 33.863281 4.945312 33.863281 8.40625 L 33.863281 27.59375 C 33.863281 31.054688 31.054688 33.863281 27.59375 33.863281 L 8.40625 33.863281 C 4.945312 33.863281 2.136719 31.054688 2.136719 27.59375 L 2.136719 8.40625 C 2.136719 4.945312 4.945312 2.136719 8.40625 2.136719 Z M 8.40625 2.136719 "/>
<path style=" stroke:none;fill-rule:nonzero;fill:rgb(34.901961%,44.313725%,13.72549%);fill-opacity:1;" d="M 6.863281 9.988281 L 9.992188 6.855469 C 10.425781 6.425781 11.125 6.425781 11.558594 6.855469 L 14.6875 9.988281 C 15.121094 10.417969 15.121094 11.121094 14.6875 11.550781 L 11.558594 14.679688 C 11.125 15.113281 10.425781 15.113281 9.992188 14.679688 L 6.863281 11.550781 C 6.429688 11.121094 6.429688 10.417969 6.863281 9.988281 Z M 6.863281 9.988281 "/>
<path style=" stroke:none;fill-rule:nonzero;fill:rgb(100%,100%,100%);fill-opacity:1;" d="M 29.460938 18.007812 C 29.460938 11.675781 24.328125 6.546875 18 6.546875 C 11.671875 6.546875 6.539062 11.675781 6.539062 18.007812 C 6.539062 24.335938 11.671875 29.46875 18 29.46875 C 24.328125 29.46875 29.460938 24.335938 29.460938 18.007812 Z M 29.460938 18.007812 "/>
<path style=" stroke:none;fill-rule:nonzero;fill:rgb(80%,80%,80%);fill-opacity:1;" d="M 26.300781 18.007812 C 26.300781 22.589844 22.582031 26.308594 18 26.308594 C 13.417969 26.308594 9.699219 22.589844 9.699219 18.007812 C 9.699219 13.421875 13.417969 9.707031 18 9.707031 C 22.582031 9.707031 26.300781 13.421875 26.300781 18.007812 Z M 26.300781 18.007812 "/>
<path style=" stroke:none;fill-rule:nonzero;fill:rgb(95.686275%,32.156863%,27.45098%);fill-opacity:1;" d="M 21.007812 12.847656 C 21.574219 13.175781 21.804688 13.835938 21.523438 14.320312 L 18.984375 18.722656 C 18.703125 19.207031 18.015625 19.335938 17.449219 19.007812 C 16.882812 18.683594 16.648438 18.023438 16.929688 17.535156 L 19.472656 13.136719 C 19.75 12.648438 20.4375 12.519531 21.007812 12.847656 Z M 21.007812 12.847656 "/>
<path style=" stroke:none;fill-rule:nonzero;fill:rgb(30.196078%,30.196078%,30.196078%);fill-opacity:1;" d="M 19.976562 18.007812 C 19.976562 19.097656 19.089844 19.984375 18 19.984375 C 16.910156 19.984375 16.023438 19.097656 16.023438 18.007812 C 16.023438 16.914062 16.910156 16.03125 18 16.03125 C 19.089844 16.03125 19.976562 16.914062 19.976562 18.007812 Z M 19.976562 18.007812 "/>
<path style=" stroke:none;fill-rule:nonzero;fill:rgb(30.196078%,30.196078%,30.196078%);fill-opacity:1;" d="M 19.1875 24.332031 C 19.1875 24.984375 18.65625 25.515625 18 25.515625 C 17.34375 25.515625 16.8125 24.984375 16.8125 24.332031 C 16.8125 23.675781 17.34375 23.144531 18 23.144531 C 18.65625 23.144531 19.1875 23.675781 19.1875 24.332031 Z M 19.1875 24.332031 "/>
<path style=" stroke:none;fill-rule:nonzero;fill:rgb(30.196078%,30.196078%,30.196078%);fill-opacity:1;" d="M 19.1875 11.683594 C 19.1875 12.339844 18.65625 12.871094 18 12.871094 C 17.34375 12.871094 16.8125 12.339844 16.8125 11.683594 C 16.8125 11.027344 17.34375 10.496094 18 10.496094 C 18.65625 10.496094 19.1875 11.027344 19.1875 11.683594 Z M 19.1875 11.683594 "/>
<path style=" stroke:none;fill-rule:nonzero;fill:rgb(30.196078%,30.196078%,30.196078%);fill-opacity:1;" d="M 11.675781 19.191406 C 11.023438 19.191406 10.492188 18.660156 10.492188 18.007812 C 10.492188 17.351562 11.023438 16.820312 11.675781 16.820312 C 12.332031 16.820312 12.863281 17.351562 12.863281 18.007812 C 12.863281 18.660156 12.332031 19.191406 11.675781 19.191406 Z M 11.675781 19.191406 "/>
<path style=" stroke:none;fill-rule:nonzero;fill:rgb(30.196078%,30.196078%,30.196078%);fill-opacity:1;" d="M 24.324219 19.191406 C 23.667969 19.191406 23.136719 18.660156 23.136719 18.007812 C 23.136719 17.351562 23.667969 16.820312 24.324219 16.820312 C 24.976562 16.820312 25.507812 17.351562 25.507812 18.007812 C 25.507812 18.660156 24.976562 19.191406 24.324219 19.191406 Z M 24.324219 19.191406 "/>
</g>
</svg>
