<?xml version="1.0" encoding="UTF-8"?>
<svg xmlns="http://www.w3.org/2000/svg" xmlns:xlink="http://www.w3.org/1999/xlink" width="36pt" height="36pt" viewBox="0 0 36 36" version="1.1">
<g id="surface1">
<path style=" stroke:none;fill-rule:evenodd;fill:rgb(0%,72.156863%,54.117647%);fill-opacity:1;" d="M 8.40625 2.136719 L 27.59375 2.136719 C 31.054688 2.136719 33.863281 4.945312 33.863281 8.40625 L 33.863281 27.59375 C 33.863281 31.054688 31.054688 33.863281 27.59375 33.863281 L 8.40625 33.863281 C 4.945312 33.863281 2.136719 31.054688 2.136719 27.59375 L 2.136719 8.40625 C 2.136719 4.945312 4.945312 2.136719 8.40625 2.136719 Z M 8.40625 2.136719 "/>
<path style=" stroke:none;fill-rule:nonzero;fill:rgb(100%,96.862745%,38.823529%);fill-opacity:1;" d="M 18 5.625 C 11.164062 5.625 5.625 11.164062 5.625 18 C 5.625 24.835938 11.164062 30.375 18 30.375 C 24.835938 30.375 30.375 24.835938 30.375 18 C 30.375 11.164062 24.835938 5.625 18 5.625 Z M 15.75 7.875 L 20.25 7.875 L 18 16.875 Z M 12.433594 9.25 L 14.820312 13.226562 L 17.203125 17.203125 L 13.226562 14.820312 L 9.25 12.433594 L 10.839844 10.839844 Z M 23.566406 9.25 L 25.160156 10.839844 L 26.75 12.433594 L 22.773438 14.820312 L 18.796875 17.203125 L 21.179688 13.226562 Z M 7.875 15.777344 L 16.875 18.027344 L 7.875 20.277344 Z M 28.125 15.777344 L 28.125 20.277344 L 19.125 18.027344 Z M 17.203125 18.820312 L 14.820312 22.796875 L 12.433594 26.773438 L 10.839844 25.183594 L 9.25 23.59375 Z M 18.796875 18.820312 L 26.75 23.59375 L 25.160156 25.183594 L 23.566406 26.773438 L 21.183594 22.796875 Z M 18 19.160156 L 20.25 28.160156 L 15.75 28.160156 Z M 18 19.160156 "/>
</g>
</svg>
