<?xml version="1.0" encoding="UTF-8"?>
<svg xmlns="http://www.w3.org/2000/svg" xmlns:xlink="http://www.w3.org/1999/xlink" width="36pt" height="36pt" viewBox="0 0 36 36" version="1.1">
<g id="surface1">
<path style=" stroke:none;fill-rule:evenodd;fill:rgb(96.078431%,49.803922%,21.960784%);fill-opacity:1;" d="M 8.40625 2.136719 L 27.59375 2.136719 C 31.054688 2.136719 33.863281 4.945312 33.863281 8.40625 L 33.863281 27.59375 C 33.863281 31.054688 31.054688 33.863281 27.59375 33.863281 L 8.40625 33.863281 C 4.945312 33.863281 2.136719 31.054688 2.136719 27.59375 L 2.136719 8.40625 C 2.136719 4.945312 4.945312 2.136719 8.40625 2.136719 Z M 8.40625 2.136719 "/>
<path style=" stroke:none;fill-rule:nonzero;fill:rgb(100%,100%,100%);fill-opacity:1;" d="M 18 7.160156 C 17.695312 7.160156 17.398438 7.175781 17.101562 7.199219 C 14.421875 7.390625 12.269531 8.382812 10.332031 10.316406 C 8.734375 11.910156 7.746094 13.875 7.355469 15.933594 C 7.320312 16.121094 7.292969 16.3125 7.265625 16.503906 C 7.25 16.621094 7.230469 16.738281 7.21875 16.855469 C 7.191406 17.109375 7.179688 17.367188 7.167969 17.625 C 7.167969 17.6875 7.164062 17.753906 7.164062 17.820312 C 7.160156 17.878906 7.160156 17.941406 7.160156 18 C 7.160156 23.90625 11.835938 28.675781 17.699219 28.832031 C 17.746094 28.832031 17.792969 28.835938 17.839844 28.835938 C 17.894531 28.835938 17.945312 28.839844 18 28.839844 C 18.261719 28.839844 18.519531 28.828125 18.777344 28.808594 C 18.808594 28.808594 18.839844 28.804688 18.871094 28.804688 C 22.742188 28.496094 26.023438 26.171875 27.679688 22.875 C 27.679688 22.875 27.683594 22.875 27.683594 22.875 C 27.789062 22.660156 27.898438 22.449219 27.992188 22.226562 C 28.5 21.082031 28.777344 19.863281 28.824219 18.589844 C 28.828125 18.550781 28.828125 18.507812 28.832031 18.46875 C 28.832031 18.347656 28.839844 18.226562 28.839844 18.101562 C 28.839844 18.066406 28.839844 18.035156 28.839844 18 L 28.839844 8.785156 C 28.839844 7.882812 28.117188 7.160156 27.214844 7.160156 Z M 18 7.160156 "/>
<path style=" stroke:none;fill-rule:nonzero;fill:rgb(96.078431%,49.803922%,21.960784%);fill-opacity:1;" d="M 19.0625 11.804688 C 18.792969 11.804688 18.566406 12.023438 18.5625 12.285156 C 18.5625 12.550781 18.789062 12.773438 19.0625 12.773438 C 20.242188 12.785156 21.214844 13.15625 22 13.894531 C 22.773438 14.625 23.179688 15.636719 23.1875 16.957031 C 23.191406 17.21875 23.417969 17.4375 23.691406 17.4375 C 23.691406 17.4375 23.695312 17.4375 23.695312 17.4375 C 23.96875 17.433594 24.195312 17.214844 24.195312 16.949219 C 24.1875 16.175781 24.0625 15.46875 23.816406 14.847656 C 23.570312 14.21875 23.195312 13.660156 22.703125 13.199219 C 21.734375 12.285156 20.492188 11.816406 19.066406 11.804688 Z M 13.984375 12.945312 C 13.792969 12.914062 13.585938 12.949219 13.378906 13.046875 L 13.363281 13.046875 L 13.339844 13.058594 C 12.957031 13.277344 12.601562 13.570312 12.265625 13.933594 L 12.238281 13.964844 L 12.238281 13.988281 C 12.003906 14.277344 11.851562 14.570312 11.816406 14.863281 C 11.804688 14.914062 11.804688 14.957031 11.804688 15.003906 C 11.804688 15.136719 11.824219 15.273438 11.867188 15.40625 L 11.875 15.441406 L 11.898438 15.457031 C 12.03125 15.910156 12.332031 16.617188 12.992188 17.816406 C 13.429688 18.613281 13.878906 19.277344 14.324219 19.835938 C 14.558594 20.128906 14.824219 20.4375 15.132812 20.746094 C 15.136719 20.75 15.148438 20.761719 15.164062 20.773438 C 15.167969 20.777344 15.175781 20.789062 15.191406 20.804688 L 15.222656 20.835938 L 15.226562 20.835938 C 15.234375 20.847656 15.242188 20.855469 15.246094 20.859375 L 15.25 20.863281 L 15.253906 20.871094 C 15.5625 21.175781 15.867188 21.441406 16.164062 21.675781 C 16.722656 22.121094 17.386719 22.570312 18.183594 23.011719 C 19.382812 23.675781 20.097656 23.972656 20.550781 24.105469 L 20.566406 24.125 L 20.59375 24.132812 C 20.722656 24.175781 20.855469 24.195312 20.988281 24.195312 C 21.042969 24.195312 21.089844 24.191406 21.136719 24.183594 C 21.445312 24.148438 21.75 24 22.054688 23.746094 L 22.0625 23.738281 C 22.066406 23.734375 22.0625 23.734375 22.066406 23.734375 C 22.070312 23.730469 22.070312 23.726562 22.074219 23.726562 C 22.433594 23.398438 22.722656 23.039062 22.941406 22.660156 L 22.957031 22.632812 L 22.957031 22.609375 C 23.15625 22.195312 23.078125 21.769531 22.75 21.496094 C 22.742188 21.488281 22.585938 21.359375 22.390625 21.199219 C 22.195312 21.039062 21.957031 20.847656 21.800781 20.730469 C 21.5 20.507812 21.035156 20.222656 20.769531 20.074219 L 20.765625 20.074219 C 20.257812 19.789062 19.726562 19.953125 19.492188 20.257812 L 19.082031 20.769531 C 18.917969 20.980469 18.585938 20.960938 18.578125 20.960938 C 15.792969 20.242188 15.046875 17.445312 15.042969 17.425781 C 15.039062 17.417969 15.019531 17.085938 15.230469 16.917969 L 15.742188 16.507812 C 16.042969 16.277344 16.214844 15.742188 15.929688 15.234375 C 15.78125 14.96875 15.492188 14.5 15.269531 14.203125 C 15.152344 14.042969 14.960938 13.804688 14.800781 13.609375 C 14.71875 13.507812 14.644531 13.417969 14.59375 13.351562 C 14.566406 13.320312 14.542969 13.292969 14.527344 13.277344 C 14.519531 13.265625 14.515625 13.261719 14.507812 13.253906 C 14.507812 13.253906 14.507812 13.25 14.503906 13.25 C 14.363281 13.078125 14.183594 12.976562 13.984375 12.945312 Z M 19.09375 14.058594 C 18.824219 14.039062 18.582031 14.242188 18.5625 14.5 C 18.542969 14.761719 18.753906 14.992188 19.023438 15.011719 C 19.683594 15.058594 20.132812 15.25 20.46875 15.605469 L 20.46875 15.609375 C 20.8125 15.96875 20.96875 16.382812 20.953125 16.949219 L 20.953125 16.953125 C 20.949219 17.210938 21.167969 17.433594 21.4375 17.4375 L 21.449219 17.4375 C 21.714844 17.4375 21.933594 17.226562 21.941406 16.972656 C 21.960938 16.195312 21.707031 15.5 21.195312 14.964844 C 20.683594 14.425781 19.957031 14.121094 19.09375 14.058594 Z M 19.09375 14.058594 "/>
</g>
</svg>
