<?xml version="1.0" encoding="UTF-8"?>
<svg xmlns="http://www.w3.org/2000/svg" xmlns:xlink="http://www.w3.org/1999/xlink" width="36pt" height="36pt" viewBox="0 0 36 36" version="1.1">
<g id="surface1">
<path style=" stroke:none;fill-rule:evenodd;fill:rgb(24.705882%,24.705882%,24.705882%);fill-opacity:1;" d="M 8.40625 2.136719 L 27.59375 2.136719 C 31.054688 2.136719 33.863281 4.945312 33.863281 8.40625 L 33.863281 27.59375 C 33.863281 31.054688 31.054688 33.863281 27.59375 33.863281 L 8.40625 33.863281 C 4.945312 33.863281 2.136719 31.054688 2.136719 27.59375 L 2.136719 8.40625 C 2.136719 4.945312 4.945312 2.136719 8.40625 2.136719 Z M 8.40625 2.136719 "/>
<path style=" stroke:none;fill-rule:nonzero;fill:rgb(80%,80%,80%);fill-opacity:1;" d="M 28.914062 18 C 28.914062 24.261719 23.839844 29.335938 17.582031 29.335938 C 11.320312 29.335938 6.246094 24.261719 6.246094 18 C 6.246094 11.738281 11.320312 6.664062 17.582031 6.664062 C 23.839844 6.664062 28.914062 11.738281 28.914062 18 Z M 28.914062 18 "/>
<path style=" stroke:none;fill-rule:nonzero;fill:rgb(27.45098%,60%,38.039216%);fill-opacity:1;" d="M 20.097656 16.742188 L 29.335938 16.742188 C 30.03125 16.742188 30.59375 17.304688 30.59375 18 C 30.59375 18.695312 30.03125 19.257812 29.335938 19.257812 L 20.097656 19.257812 C 19.402344 19.257812 18.839844 18.695312 18.839844 18 C 18.839844 17.304688 19.402344 16.742188 20.097656 16.742188 Z M 20.097656 16.742188 "/>
<path style=" stroke:none;fill-rule:nonzero;fill:rgb(26.27451%,56.078431%,58.823529%);fill-opacity:1;" d="M 6.664062 12.542969 L 15.902344 12.542969 C 16.597656 12.542969 17.160156 13.105469 17.160156 13.800781 C 17.160156 14.496094 16.597656 15.0625 15.902344 15.0625 L 6.664062 15.0625 C 5.96875 15.0625 5.40625 14.496094 5.40625 13.800781 C 5.40625 13.105469 5.96875 12.542969 6.664062 12.542969 Z M 6.664062 12.542969 "/>
<path style=" stroke:none;fill-rule:nonzero;fill:rgb(27.45098%,60%,38.039216%);fill-opacity:1;" d="M 6.664062 20.9375 L 15.902344 20.9375 C 16.597656 20.9375 17.160156 21.503906 17.160156 22.199219 C 17.160156 22.894531 16.597656 23.457031 15.902344 23.457031 L 6.664062 23.457031 C 5.96875 23.457031 5.40625 22.894531 5.40625 22.199219 C 5.40625 21.503906 5.96875 20.9375 6.664062 20.9375 Z M 6.664062 20.9375 "/>
<path style=" stroke:none;fill-rule:nonzero;fill:rgb(24.705882%,24.705882%,24.705882%);fill-opacity:1;" d="M 12.121094 24.296875 C 12.980469 21.820312 13.800781 20.9375 13.800781 18 C 13.800781 15.0625 13.007812 14.261719 12.121094 11.703125 C 20.261719 11.703125 23.878906 18 23.878906 18 C 23.878906 18 20.261719 24.296875 12.121094 24.296875 Z M 12.121094 24.296875 "/>
</g>
</svg>
