<?xml version="1.0" encoding="UTF-8"?>
<svg xmlns="http://www.w3.org/2000/svg" xmlns:xlink="http://www.w3.org/1999/xlink" width="36pt" height="36pt" viewBox="0 0 36 36" version="1.1">
<defs>
<clipPath id="clip1">
  <rect width="36" height="36"/>
</clipPath>
<g id="surface6" clip-path="url(#clip1)">
<path style=" stroke:none;fill-rule:nonzero;fill:rgb(100%,100%,100%);fill-opacity:1;" d="M 15.59375 25.359375 C 16.664062 25.027344 17.945312 24.128906 18.546875 23.285156 L 18.746094 23.003906 L 18.496094 22.253906 C 17.589844 19.503906 19.238281 16.734375 22.066406 16.257812 C 24.121094 15.910156 26.277344 17.167969 27.019531 19.144531 C 27.195312 19.617188 27.203125 19.621094 27.144531 19.257812 C 26.972656 18.191406 26.445312 17.203125 25.585938 16.355469 C 24.6875 15.464844 23.644531 14.960938 22.339844 14.789062 C 21.941406 14.734375 21.898438 14.75 21.75 15.003906 C 21.515625 15.398438 20.839844 16.054688 20.34375 16.371094 C 19 17.230469 16.929688 17.230469 15.585938 16.375 C 14.0625 15.40625 13.203125 13.550781 13.484375 11.839844 C 13.636719 10.90625 14.046875 10.078125 14.699219 9.386719 C 15.175781 8.882812 15.207031 8.828125 14.933594 8.984375 C 14.472656 9.25 13.390625 10.425781 13.082031 10.996094 C 12.730469 11.652344 12.441406 12.816406 12.445312 13.585938 C 12.445312 14.246094 12.621094 15.125 12.875 15.757812 C 13.023438 16.128906 13.039062 16.140625 13.589844 16.203125 C 13.898438 16.238281 14.390625 16.347656 14.679688 16.449219 C 17.230469 17.328125 18.4375 20.273438 17.242188 22.714844 C 16.425781 24.375 14.539062 25.449219 12.777344 25.25 C 12.058594 25.167969 12.136719 25.265625 12.929688 25.445312 C 13.636719 25.605469 14.921875 25.5625 15.59375 25.359375 Z M 15.59375 25.359375 "/>
<path style=" stroke:none;fill-rule:nonzero;fill:rgb(100%,100%,100%);fill-opacity:1;" d="M 18 6.75 C 11.792969 6.75 6.75 11.792969 6.75 18 C 6.75 24.207031 11.792969 29.25 18 29.25 C 24.207031 29.25 29.25 24.207031 29.25 18 C 29.25 11.792969 24.207031 6.75 18 6.75 Z M 18 7.957031 C 23.554688 7.957031 28.042969 12.445312 28.042969 18 C 28.042969 23.554688 23.554688 28.042969 18 28.042969 C 12.445312 28.042969 7.957031 23.554688 7.957031 18 C 7.957031 12.445312 12.445312 7.957031 18 7.957031 Z M 18 7.957031 "/>
</g>
</defs>
<g id="surface1">
<path style=" stroke:none;fill-rule:evenodd;fill:rgb(30.980392%,30.980392%,30.980392%);fill-opacity:1;" d="M 8.40625 2.136719 L 27.59375 2.136719 C 31.054688 2.136719 33.863281 4.945312 33.863281 8.40625 L 33.863281 27.59375 C 33.863281 31.054688 31.054688 33.863281 27.59375 33.863281 L 8.40625 33.863281 C 4.945312 33.863281 2.136719 31.054688 2.136719 27.59375 L 2.136719 8.40625 C 2.136719 4.945312 4.945312 2.136719 8.40625 2.136719 Z M 8.40625 2.136719 "/>
<use xlink:href="#surface6"/>
</g>
</svg>
