<?xml version="1.0" encoding="UTF-8"?>
<svg xmlns="http://www.w3.org/2000/svg" xmlns:xlink="http://www.w3.org/1999/xlink" width="36pt" height="36pt" viewBox="0 0 36 36" version="1.1">
<g id="surface1">
<path style=" stroke:none;fill-rule:evenodd;fill:rgb(100%,100%,100%);fill-opacity:1;" d="M 8.40625 2.136719 L 27.59375 2.136719 C 31.054688 2.136719 33.863281 4.945312 33.863281 8.40625 L 33.863281 27.59375 C 33.863281 31.054688 31.054688 33.863281 27.59375 33.863281 L 8.40625 33.863281 C 4.945312 33.863281 2.136719 31.054688 2.136719 27.59375 L 2.136719 8.40625 C 2.136719 4.945312 4.945312 2.136719 8.40625 2.136719 Z M 8.40625 2.136719 "/>
<path style=" stroke:none;fill-rule:nonzero;fill:rgb(90.588235%,29.803922%,23.529412%);fill-opacity:1;" d="M 18 5.605469 C 11.132812 5.605469 5.605469 11.132812 5.605469 18 C 5.605469 24.867188 11.132812 30.394531 18 30.394531 C 24.867188 30.394531 30.394531 24.867188 30.394531 18 C 30.394531 11.132812 24.867188 5.605469 18 5.605469 Z M 18 10.917969 C 20.933594 10.917969 23.3125 14.089844 23.3125 18 C 23.3125 21.910156 20.933594 25.082031 18 25.082031 C 15.066406 25.082031 12.6875 21.910156 12.6875 18 C 12.6875 14.089844 15.066406 10.917969 18 10.917969 Z M 18 10.917969 "/>
</g>
</svg>
