<?xml version="1.0" encoding="UTF-8"?>
<svg xmlns="http://www.w3.org/2000/svg" xmlns:xlink="http://www.w3.org/1999/xlink" width="36pt" height="36pt" viewBox="0 0 36 36" version="1.1">
<g id="surface1">
<path style=" stroke:none;fill-rule:evenodd;fill:rgb(47.843137%,82.745098%,32.941176%);fill-opacity:1;" d="M 8.40625 2.136719 L 27.59375 2.136719 C 31.054688 2.136719 33.863281 4.945312 33.863281 8.40625 L 33.863281 27.59375 C 33.863281 31.054688 31.054688 33.863281 27.59375 33.863281 L 8.40625 33.863281 C 4.945312 33.863281 2.136719 31.054688 2.136719 27.59375 L 2.136719 8.40625 C 2.136719 4.945312 4.945312 2.136719 8.40625 2.136719 Z M 8.40625 2.136719 "/>
<path style=" stroke:none;fill-rule:nonzero;fill:rgb(100%,100%,100%);fill-opacity:1;" d="M 17.5 5.5 C 16.15625 5.5 15.074219 6.585938 15.074219 7.929688 L 15.074219 10.359375 L 9.40625 10.359375 C 8.511719 10.359375 7.789062 11.078125 7.789062 11.976562 L 7.789062 16.832031 L 10.21875 16.832031 C 11.5625 16.832031 12.644531 17.914062 12.644531 19.261719 C 12.644531 20.605469 11.5625 21.6875 10.21875 21.6875 L 7.789062 21.6875 L 7.789062 27.355469 C 7.789062 28.25 8.511719 28.972656 9.40625 28.972656 L 15.074219 28.972656 L 15.074219 27.355469 C 15.074219 26.007812 16.15625 24.925781 17.5 24.925781 C 18.847656 24.925781 19.929688 26.007812 19.929688 27.355469 L 19.929688 28.972656 L 24.785156 28.972656 C 25.683594 28.972656 26.40625 28.25 26.40625 27.355469 L 26.40625 21.6875 L 28.832031 21.6875 C 30.179688 21.6875 31.261719 20.605469 31.261719 19.261719 C 31.261719 17.914062 30.179688 16.832031 28.832031 16.832031 L 26.40625 16.832031 L 26.40625 11.976562 C 26.40625 11.078125 25.683594 10.359375 24.785156 10.359375 L 19.929688 10.359375 L 19.929688 7.929688 C 19.929688 6.585938 18.847656 5.5 17.5 5.5 Z M 17.5 5.5 "/>
</g>
</svg>
