<?xml version="1.0" encoding="UTF-8"?>
<svg xmlns="http://www.w3.org/2000/svg" xmlns:xlink="http://www.w3.org/1999/xlink" width="36pt" height="36pt" viewBox="0 0 36 36" version="1.1">
<defs>
<clipPath id="clip1">
  <rect width="36" height="36"/>
</clipPath>
<g id="surface6" clip-path="url(#clip1)">
<path style=" stroke:none;fill-rule:nonzero;fill:rgb(100%,100%,100%);fill-opacity:1;" d="M 19.699219 10.121094 C 16.289062 10.121094 13.476562 12.90625 13.476562 16.308594 C 13.476562 17.605469 13.914062 18.792969 14.601562 19.792969 L 10.453125 23.941406 C 10.007812 24.375 10 25.089844 10.4375 25.535156 C 10.871094 25.984375 11.585938 25.992188 12.035156 25.558594 L 16.183594 21.410156 C 17.179688 22.09375 18.402344 22.5 19.699219 22.5 C 23.105469 22.5 25.886719 19.714844 25.886719 16.3125 C 25.886719 12.90625 23.105469 10.125 19.699219 10.125 Z M 19.699219 12.371094 C 21.890625 12.371094 23.636719 14.121094 23.636719 16.308594 C 23.636719 18.5 21.890625 20.246094 19.699219 20.246094 C 17.507812 20.246094 15.761719 18.5 15.761719 16.308594 C 15.761719 14.121094 17.507812 12.371094 19.699219 12.371094 Z M 19.699219 12.371094 "/>
</g>
</defs>
<g id="surface1">
<path style=" stroke:none;fill-rule:evenodd;fill:rgb(73.333333%,20%,20%);fill-opacity:1;" d="M 8.40625 2.136719 L 27.59375 2.136719 C 31.054688 2.136719 33.863281 4.945312 33.863281 8.40625 L 33.863281 27.59375 C 33.863281 31.054688 31.054688 33.863281 27.59375 33.863281 L 8.40625 33.863281 C 4.945312 33.863281 2.136719 31.054688 2.136719 27.59375 L 2.136719 8.40625 C 2.136719 4.945312 4.945312 2.136719 8.40625 2.136719 Z M 8.40625 2.136719 "/>
<use xlink:href="#surface6"/>
</g>
</svg>
