<?xml version="1.0" encoding="UTF-8"?>
<svg xmlns="http://www.w3.org/2000/svg" xmlns:xlink="http://www.w3.org/1999/xlink" width="36pt" height="36pt" viewBox="0 0 36 36" version="1.1">
<g id="surface1">
<path style=" stroke:none;fill-rule:evenodd;fill:rgb(70.196078%,70.196078%,70.196078%);fill-opacity:1;" d="M 8.40625 2.136719 L 27.59375 2.136719 C 31.054688 2.136719 33.863281 4.945312 33.863281 8.40625 L 33.863281 27.59375 C 33.863281 31.054688 31.054688 33.863281 27.59375 33.863281 L 8.40625 33.863281 C 4.945312 33.863281 2.136719 31.054688 2.136719 27.59375 L 2.136719 8.40625 C 2.136719 4.945312 4.945312 2.136719 8.40625 2.136719 Z M 8.40625 2.136719 "/>
<path style=" stroke:none;fill-rule:nonzero;fill:rgb(35.686275%,35.686275%,35.686275%);fill-opacity:1;" d="M 18 5.960938 C 17.988281 5.960938 17.976562 5.960938 17.964844 5.960938 L 17.960938 5.960938 C 13.519531 5.984375 9.09375 9.984375 9.09375 12.984375 L 9.09375 22.90625 C 9.09375 26.980469 12.433594 30.039062 18 30.039062 C 23.566406 30.042969 26.90625 26.984375 26.90625 22.90625 L 26.90625 13.257812 C 26.90625 10.140625 22.457031 5.988281 18 5.960938 Z M 18 5.960938 "/>
<path style=" stroke:none;fill-rule:nonzero;fill:rgb(40%,40%,40%);fill-opacity:1;" d="M 18 5.960938 C 17.988281 5.960938 17.976562 5.960938 17.964844 5.960938 L 17.960938 5.960938 C 13.519531 5.984375 9.09375 9.984375 9.09375 12.984375 L 9.09375 18 L 26.90625 18 L 26.90625 13.257812 C 26.90625 10.140625 22.457031 5.988281 18 5.964844 Z M 18 5.960938 "/>
<path style=" stroke:none;fill-rule:nonzero;fill:rgb(20%,20%,20%);fill-opacity:1;" d="M 18 5.960938 C 17.988281 5.960938 17.976562 5.960938 17.964844 5.960938 L 17.960938 5.960938 C 13.519531 5.984375 9.09375 9.984375 9.09375 12.984375 L 9.09375 18 L 18 18 C 18 18 18 5.960938 18 5.964844 Z M 18 5.960938 "/>
<path style=" stroke:none;fill-rule:nonzero;fill:rgb(80%,80%,80%);fill-opacity:1;" d="M 18 9.398438 C 18.546875 9.398438 18.988281 9.894531 18.988281 10.503906 L 18.988281 13.453125 C 18.988281 14.0625 18.546875 14.558594 18 14.558594 C 17.453125 14.558594 17.011719 14.0625 17.011719 13.453125 L 17.011719 10.503906 C 17.011719 9.894531 17.453125 9.398438 18 9.398438 "/>
</g>
</svg>
