<?xml version="1.0" encoding="UTF-8"?>
<svg xmlns="http://www.w3.org/2000/svg" xmlns:xlink="http://www.w3.org/1999/xlink" width="36pt" height="36pt" viewBox="0 0 36 36" version="1.1">
<g id="surface1">
<path style=" stroke:none;fill-rule:evenodd;fill:rgb(55.686275%,55.686275%,55.686275%);fill-opacity:1;" d="M 8.40625 2.136719 L 27.59375 2.136719 C 31.054688 2.136719 33.863281 4.945312 33.863281 8.40625 L 33.863281 27.59375 C 33.863281 31.054688 31.054688 33.863281 27.59375 33.863281 L 8.40625 33.863281 C 4.945312 33.863281 2.136719 31.054688 2.136719 27.59375 L 2.136719 8.40625 C 2.136719 4.945312 4.945312 2.136719 8.40625 2.136719 Z M 8.40625 2.136719 "/>
<path style=" stroke:none;fill-rule:nonzero;fill:rgb(27.843137%,27.843137%,27.843137%);fill-opacity:1;" d="M 10.230469 9.078125 C 8.191406 9.078125 6.546875 10.71875 6.546875 12.761719 L 6.546875 22.535156 C 6.546875 24.578125 8.191406 26.222656 10.230469 26.222656 L 12.222656 26.222656 C 12.390625 27.472656 13.445312 28.433594 14.742188 28.433594 L 21.257812 28.433594 C 22.554688 28.433594 23.609375 27.472656 23.777344 26.222656 L 25.769531 26.222656 C 27.808594 26.222656 29.453125 24.578125 29.453125 22.535156 L 29.453125 12.761719 C 29.453125 10.71875 27.808594 9.078125 25.769531 9.078125 Z M 10.230469 9.078125 "/>
<path style=" stroke:none;fill-rule:nonzero;fill:rgb(13.72549%,13.72549%,13.72549%);fill-opacity:1;" d="M 10.367188 10.160156 L 25.632812 10.160156 C 27.171875 10.160156 28.421875 11.359375 28.421875 12.839844 L 28.421875 22.457031 C 28.421875 23.9375 27.171875 25.136719 25.632812 25.136719 L 10.367188 25.136719 C 8.828125 25.136719 7.578125 23.9375 7.578125 22.457031 L 7.578125 12.839844 C 7.578125 11.359375 8.828125 10.160156 10.367188 10.160156 Z M 10.367188 10.160156 "/>
</g>
</svg>
