<?xml version="1.0" encoding="UTF-8"?>
<svg xmlns="http://www.w3.org/2000/svg" xmlns:xlink="http://www.w3.org/1999/xlink" width="36pt" height="36pt" viewBox="0 0 36 36" version="1.1">
<g id="surface1">
<path style=" stroke:none;fill-rule:evenodd;fill:rgb(30.196078%,30.196078%,30.196078%);fill-opacity:1;" d="M 8.40625 2.136719 L 27.59375 2.136719 C 31.054688 2.136719 33.863281 4.945312 33.863281 8.40625 L 33.863281 27.59375 C 33.863281 31.054688 31.054688 33.863281 27.59375 33.863281 L 8.40625 33.863281 C 4.945312 33.863281 2.136719 31.054688 2.136719 27.59375 L 2.136719 8.40625 C 2.136719 4.945312 4.945312 2.136719 8.40625 2.136719 Z M 8.40625 2.136719 "/>
<path style=" stroke:none;fill-rule:nonzero;fill:rgb(34.117647%,74.509804%,100%);fill-opacity:1;" d="M 25.792969 10.207031 C 24.773438 9.1875 23.605469 8.417969 22.363281 7.878906 L 17.566406 18.433594 L 28.121094 13.636719 C 27.582031 12.394531 26.8125 11.226562 25.792969 10.207031 Z M 25.792969 10.207031 "/>
<path style=" stroke:none;fill-rule:nonzero;fill:rgb(58.039216%,100%,34.117647%);fill-opacity:1;" d="M 19.835938 8.203125 C 19.835938 9.21875 19.015625 10.039062 18 10.039062 C 16.984375 10.039062 16.164062 9.21875 16.164062 8.203125 C 16.164062 7.1875 16.984375 6.363281 18 6.363281 C 19.015625 6.363281 19.835938 7.1875 19.835938 8.203125 Z M 19.835938 8.203125 "/>
<path style=" stroke:none;fill-rule:nonzero;fill:rgb(58.039216%,100%,34.117647%);fill-opacity:1;" d="M 19.835938 27.796875 C 19.835938 28.8125 19.015625 29.636719 18 29.636719 C 16.984375 29.636719 16.164062 28.8125 16.164062 27.796875 C 16.164062 26.78125 16.984375 25.960938 18 25.960938 C 19.015625 25.960938 19.835938 26.78125 19.835938 27.796875 Z M 19.835938 27.796875 "/>
<path style=" stroke:none;fill-rule:nonzero;fill:rgb(58.039216%,100%,34.117647%);fill-opacity:1;" d="M 27.796875 19.835938 C 26.78125 19.835938 25.960938 19.015625 25.960938 18 C 25.960938 16.984375 26.78125 16.164062 27.796875 16.164062 C 28.8125 16.164062 29.636719 16.984375 29.636719 18 C 29.636719 19.015625 28.8125 19.835938 27.796875 19.835938 Z M 27.796875 19.835938 "/>
<path style=" stroke:none;fill-rule:nonzero;fill:rgb(58.039216%,100%,34.117647%);fill-opacity:1;" d="M 8.203125 19.835938 C 7.1875 19.835938 6.363281 19.015625 6.363281 18 C 6.363281 16.984375 7.1875 16.164062 8.203125 16.164062 C 9.21875 16.164062 10.039062 16.984375 10.039062 18 C 10.039062 19.015625 9.21875 19.835938 8.203125 19.835938 Z M 8.203125 19.835938 "/>
</g>
</svg>
