<?xml version="1.0" encoding="UTF-8"?>
<svg xmlns="http://www.w3.org/2000/svg" xmlns:xlink="http://www.w3.org/1999/xlink" width="36pt" height="36pt" viewBox="0 0 36 36" version="1.1">
<g id="surface1">
<path style=" stroke:none;fill-rule:evenodd;fill:rgb(60%,47.45098%,32.941176%);fill-opacity:1;" d="M 8.40625 2.136719 L 27.59375 2.136719 C 31.054688 2.136719 33.863281 4.945312 33.863281 8.40625 L 33.863281 27.59375 C 33.863281 31.054688 31.054688 33.863281 27.59375 33.863281 L 8.40625 33.863281 C 4.945312 33.863281 2.136719 31.054688 2.136719 27.59375 L 2.136719 8.40625 C 2.136719 4.945312 4.945312 2.136719 8.40625 2.136719 Z M 8.40625 2.136719 "/>
<path style=" stroke:none;fill-rule:evenodd;fill:rgb(0%,49.411765%,100%);fill-opacity:1;" d="M 22.082031 2.222656 C 22.078125 2.191406 22.074219 2.164062 22.0625 2.136719 L 21.765625 2.136719 C 21.835938 2.152344 21.910156 2.167969 21.984375 2.183594 C 22.019531 2.191406 22.046875 2.210938 22.082031 2.222656 Z M 22.082031 2.222656 "/>
<path style=" stroke:none;fill-rule:evenodd;fill:rgb(60%,47.45098%,32.941176%);fill-opacity:1;" d="M 8.269531 21.074219 C 8.195312 21.101562 8.128906 21.15625 8.054688 21.183594 C 7.636719 20.214844 7.023438 19.226562 6.425781 18.101562 C 5.824219 16.976562 5.242188 15.71875 4.875 14.222656 C 4.867188 14.1875 4.859375 14.164062 4.851562 14.128906 C 4.804688 13.9375 4.785156 13.75 4.75 13.558594 C 4.378906 13.933594 3.40625 15.160156 3.335938 15.113281 C 3.210938 15.027344 2.59375 12.597656 2.136719 11.183594 L 2.136719 27.59375 C 2.136719 31.066406 4.933594 33.863281 8.410156 33.863281 L 27.59375 33.863281 C 31.066406 33.863281 33.863281 31.066406 33.863281 27.59375 L 33.863281 11.507812 C 33.457031 12.738281 32.878906 15.035156 32.761719 15.113281 C 32.695312 15.160156 31.722656 13.933594 31.347656 13.558594 C 31.3125 13.75 31.292969 13.9375 31.246094 14.128906 C 31.238281 14.164062 31.230469 14.1875 31.222656 14.222656 C 30.859375 15.71875 30.273438 16.976562 29.671875 18.101562 C 29.070312 19.226562 28.460938 20.214844 28.042969 21.183594 C 27.992188 21.167969 27.949219 21.128906 27.898438 21.109375 C 27.894531 21.328125 27.882812 21.550781 27.839844 21.671875 C 27.835938 21.671875 27.835938 21.671875 27.835938 21.667969 C 27.824219 21.695312 27.816406 21.726562 27.804688 21.753906 C 26.832031 24.578125 26.394531 26.714844 25.738281 28.304688 C 25.40625 29.097656 25.019531 29.753906 24.484375 30.292969 C 23.949219 30.828125 23.257812 31.246094 22.324219 31.558594 C 20.820312 32.058594 19.605469 32.300781 18.046875 32.277344 C 16.492188 32.300781 15.277344 32.058594 13.773438 31.558594 C 12.839844 31.246094 12.152344 30.828125 11.613281 30.292969 C 11.078125 29.753906 10.691406 29.097656 10.363281 28.304688 C 9.703125 26.714844 9.269531 24.578125 8.292969 21.753906 C 8.285156 21.726562 8.269531 21.699219 8.257812 21.671875 C 8.199219 21.5 8.226562 21.285156 8.269531 21.074219 Z M 8.269531 21.074219 "/>
<path style=" stroke:none;fill-rule:evenodd;fill:rgb(84.313725%,80.784314%,78.039216%);fill-opacity:1;" d="M 8.269531 21.074219 C 8.226562 21.285156 8.199219 21.5 8.257812 21.671875 C 8.269531 21.699219 8.28125 21.726562 8.292969 21.753906 C 9.269531 24.578125 9.703125 26.714844 10.363281 28.304688 C 10.691406 29.097656 11.078125 29.753906 11.613281 30.292969 C 12.152344 30.828125 12.839844 31.246094 13.773438 31.558594 C 15.277344 32.058594 16.492188 32.300781 18.046875 32.277344 C 19.605469 32.300781 20.820312 32.058594 22.324219 31.558594 C 23.257812 31.246094 23.945312 30.828125 24.484375 30.292969 C 25.019531 29.753906 25.40625 29.097656 25.738281 28.304688 C 26.394531 26.714844 26.832031 24.578125 27.804688 21.753906 C 27.816406 21.726562 27.824219 21.695312 27.835938 21.667969 C 27.835938 21.671875 27.835938 21.671875 27.839844 21.671875 C 27.882812 21.550781 27.894531 21.328125 27.894531 21.109375 C 26.777344 20.710938 25.691406 20.179688 24.691406 19.480469 C 23.652344 18.746094 22.699219 17.855469 21.898438 16.824219 C 21.09375 15.792969 20.4375 14.625 19.984375 13.332031 C 19.527344 12.039062 19.273438 10.621094 19.273438 9.101562 C 19.269531 7.960938 19.324219 6.683594 19.5 5.425781 C 19.664062 4.261719 19.960938 3.140625 20.375 2.136719 L 15.722656 2.136719 C 16.136719 3.140625 16.4375 4.261719 16.597656 5.425781 C 16.773438 6.683594 16.828125 7.960938 16.824219 9.101562 C 16.824219 10.621094 16.570312 12.039062 16.113281 13.332031 C 15.660156 14.625 15.003906 15.792969 14.199219 16.824219 C 13.398438 17.855469 12.449219 18.746094 11.40625 19.480469 C 10.429688 20.164062 9.363281 20.679688 8.269531 21.074219 Z M 8.269531 21.074219 "/>
<path style=" stroke:none;fill-rule:evenodd;fill:rgb(87.058824%,54.901961%,29.019608%);fill-opacity:1;" d="M 20.375 2.136719 C 19.960938 3.140625 19.664062 4.261719 19.5 5.425781 C 19.324219 6.683594 19.269531 7.960938 19.273438 9.101562 C 19.273438 10.621094 19.527344 12.039062 19.984375 13.332031 C 20.4375 14.625 21.09375 15.792969 21.898438 16.824219 C 22.699219 17.855469 23.652344 18.746094 24.691406 19.480469 C 25.734375 20.210938 26.867188 20.785156 28.042969 21.183594 C 28.460938 20.214844 29.070312 19.226562 29.671875 18.101562 C 30.273438 16.976562 30.859375 15.71875 31.222656 14.21875 C 31.230469 14.1875 31.238281 14.164062 31.246094 14.128906 C 31.292969 13.9375 31.3125 13.75 31.347656 13.558594 C 30.449219 12.652344 29.546875 11.757812 27.945312 9.816406 C 25.679688 7.070312 23.472656 4.28125 23.472656 4.28125 C 23.472656 4.28125 22.640625 3.398438 22.125 2.382812 C 22.097656 2.328125 22.089844 2.277344 22.082031 2.222656 C 22.046875 2.210938 22.019531 2.191406 21.984375 2.183594 C 21.910156 2.167969 21.835938 2.152344 21.765625 2.136719 Z M 20.375 2.136719 "/>
<path style=" stroke:none;fill-rule:evenodd;fill:rgb(0%,49.411765%,100%);fill-opacity:1;" d="M 14.335938 2.136719 L 14.035156 2.136719 C 14.023438 2.164062 14.019531 2.191406 14.015625 2.222656 C 14.050781 2.210938 14.078125 2.191406 14.113281 2.183594 C 14.1875 2.167969 14.261719 2.152344 14.335938 2.136719 Z M 14.335938 2.136719 "/>
<path style=" stroke:none;fill-rule:evenodd;fill:rgb(87.058824%,54.901961%,29.019608%);fill-opacity:1;" d="M 14.335938 2.136719 C 14.261719 2.152344 14.1875 2.167969 14.113281 2.183594 C 14.078125 2.191406 14.050781 2.210938 14.015625 2.222656 C 14.003906 2.277344 14 2.328125 13.972656 2.382812 C 13.457031 3.398438 12.628906 4.28125 12.628906 4.28125 C 12.628906 4.28125 10.417969 7.070312 8.152344 9.816406 C 6.554688 11.757812 5.648438 12.652344 4.75 13.558594 C 4.785156 13.75 4.804688 13.9375 4.851562 14.128906 C 4.859375 14.164062 4.867188 14.1875 4.875 14.222656 C 5.242188 15.71875 5.824219 16.976562 6.425781 18.101562 C 7.023438 19.226562 7.636719 20.214844 8.054688 21.183594 C 9.226562 20.785156 10.363281 20.210938 11.40625 19.480469 C 12.449219 18.746094 13.398438 17.855469 14.199219 16.824219 C 15.003906 15.792969 15.660156 14.625 16.113281 13.332031 C 16.570312 12.039062 16.824219 10.621094 16.824219 9.101562 C 16.828125 7.960938 16.773438 6.683594 16.597656 5.425781 C 16.4375 4.261719 16.136719 3.140625 15.722656 2.136719 Z M 14.335938 2.136719 "/>
<path style=" stroke:none;fill-rule:evenodd;fill:rgb(52.54902%,32.156863%,16.862745%);fill-opacity:1;" d="M 2.136719 11.183594 C 2.59375 12.597656 3.210938 15.027344 3.335938 15.113281 C 3.566406 15.273438 5.890625 12.566406 8.152344 9.816406 C 10.417969 7.070312 12.628906 4.28125 12.628906 4.28125 C 12.628906 4.28125 13.457031 3.398438 13.972656 2.382812 C 14.015625 2.300781 14 2.21875 14.035156 2.136719 L 8.410156 2.136719 C 4.933594 2.136719 2.136719 4.933594 2.136719 8.410156 Z M 2.136719 11.183594 "/>
<path style=" stroke:none;fill-rule:evenodd;fill:rgb(52.54902%,32.156863%,16.862745%);fill-opacity:1;" d="M 22.058594 2.136719 C 22.097656 2.21875 22.082031 2.300781 22.125 2.382812 C 22.640625 3.398438 23.472656 4.28125 23.472656 4.28125 C 23.472656 4.28125 25.679688 7.070312 27.945312 9.816406 C 30.210938 12.566406 32.53125 15.273438 32.761719 15.113281 C 32.878906 15.035156 33.457031 12.738281 33.863281 11.507812 L 33.863281 8.410156 C 33.863281 4.933594 31.066406 2.136719 27.59375 2.136719 Z M 22.058594 2.136719 "/>
<path style=" stroke:none;fill-rule:nonzero;fill:rgb(24.705882%,24.705882%,24.705882%);fill-opacity:1;" d="M 17.148438 23.699219 C 16.292969 23.699219 15.597656 24.320312 15.597656 25.089844 C 15.597656 25.863281 17.195312 27.375 18.050781 27.375 C 18.902344 27.375 20.5 25.863281 20.5 25.089844 C 20.5 24.320312 19.804688 23.699219 18.949219 23.699219 Z M 17.148438 23.699219 "/>
<path style=" stroke:none;fill-rule:nonzero;fill:rgb(24.705882%,24.705882%,24.705882%);fill-opacity:1;" d="M 13.148438 15.121094 C 13.148438 16.476562 12.050781 17.574219 10.695312 17.574219 C 9.34375 17.574219 8.246094 16.476562 8.246094 15.121094 C 8.246094 13.769531 9.34375 12.671875 10.695312 12.671875 C 12.050781 12.671875 13.148438 13.769531 13.148438 15.121094 Z M 13.148438 15.121094 "/>
<path style=" stroke:none;fill-rule:nonzero;fill:rgb(100%,100%,100%);fill-opacity:1;" d="M 10.695312 14.507812 C 10.695312 14.847656 10.421875 15.121094 10.082031 15.121094 C 9.746094 15.121094 9.472656 14.847656 9.472656 14.507812 C 9.472656 14.171875 9.746094 13.894531 10.082031 13.894531 C 10.421875 13.894531 10.695312 14.171875 10.695312 14.507812 Z M 10.695312 14.507812 "/>
<path style=" stroke:none;fill-rule:nonzero;fill:rgb(84.705882%,43.529412%,43.529412%);fill-opacity:1;" d="M 20.5 30.527344 C 20.5 31.496094 19.402344 32.277344 18.050781 32.277344 C 16.695312 32.277344 15.597656 31.496094 15.597656 30.527344 C 15.597656 30.320312 15.648438 30.121094 15.742188 29.933594 C 16.082031 29.257812 16.9375 29.636719 18 29.636719 C 19.058594 29.636719 20.011719 29.257812 20.355469 29.933594 C 20.449219 30.117188 20.5 30.320312 20.5 30.527344 Z M 20.5 30.527344 "/>
<path style="fill:none;stroke-width:1;stroke-linecap:round;stroke-linejoin:round;stroke:rgb(47.45098%,26.27451%,10.588235%);stroke-opacity:1;stroke-miterlimit:4;" d="M -75.712673 26.158203 C -75.712673 26.158203 -74.750868 26.696398 -73.84809 26.935981 C -73.28559 27.085287 -71.900173 26.158203 -71.900173 26.158203 C -71.900173 26.158203 -70.518229 27.085287 -69.955729 26.935981 C -69.052951 26.696398 -68.087673 26.158203 -68.087673 26.158203 " transform="matrix(1.125,0,0,1.125,98.938476,-0.213135)"/>
<path style=" stroke:none;fill-rule:nonzero;fill:rgb(24.705882%,24.705882%,24.705882%);fill-opacity:1;" d="M 22.949219 15.121094 C 22.949219 16.476562 24.046875 17.574219 25.402344 17.574219 C 26.753906 17.574219 27.851562 16.476562 27.851562 15.121094 C 27.851562 13.769531 26.753906 12.671875 25.402344 12.671875 C 24.046875 12.671875 22.949219 13.769531 22.949219 15.121094 Z M 22.949219 15.121094 "/>
<path style=" stroke:none;fill-rule:nonzero;fill:rgb(100%,100%,100%);fill-opacity:1;" d="M 24.175781 14.507812 C 24.175781 14.847656 24.449219 15.121094 24.789062 15.121094 C 25.128906 15.121094 25.402344 14.847656 25.402344 14.507812 C 25.402344 14.171875 25.128906 13.894531 24.789062 13.894531 C 24.449219 13.894531 24.175781 14.171875 24.175781 14.507812 Z M 24.175781 14.507812 "/>
</g>
</svg>
