<?xml version="1.0" encoding="UTF-8"?>
<svg xmlns="http://www.w3.org/2000/svg" xmlns:xlink="http://www.w3.org/1999/xlink" width="36pt" height="36pt" viewBox="0 0 36 36" version="1.1">
<g id="surface1">
<path style=" stroke:none;fill-rule:evenodd;fill:rgb(17.647059%,61.176471%,94.901961%);fill-opacity:1;" d="M 8.40625 2.136719 L 27.59375 2.136719 C 31.054688 2.136719 33.863281 4.945312 33.863281 8.40625 L 33.863281 27.59375 C 33.863281 31.054688 31.054688 33.863281 27.59375 33.863281 L 8.40625 33.863281 C 4.945312 33.863281 2.136719 31.054688 2.136719 27.59375 L 2.136719 8.40625 C 2.136719 4.945312 4.945312 2.136719 8.40625 2.136719 Z M 8.40625 2.136719 "/>
<path style=" stroke:none;fill-rule:nonzero;fill:rgb(100%,100%,100%);fill-opacity:1;" d="M 13.132812 8.035156 C 9.941406 8.035156 7.359375 10.617188 7.359375 13.804688 C 7.359375 14.789062 7.609375 15.742188 8.042969 16.554688 C 7.902344 17.242188 7.820312 17.945312 7.820312 18.671875 C 7.820312 24.292969 12.378906 28.847656 18.007812 28.847656 C 18.730469 28.847656 19.4375 28.773438 20.121094 28.628906 C 20.9375 29.066406 21.875 29.316406 22.867188 29.316406 C 26.058594 29.316406 28.640625 26.730469 28.640625 23.542969 C 28.640625 22.550781 28.390625 21.605469 27.953125 20.789062 C 28.097656 20.105469 28.171875 19.402344 28.171875 18.675781 C 28.171875 13.0625 23.617188 8.5 17.996094 8.5 C 17.265625 8.5 16.5625 8.574219 15.878906 8.722656 C 15.066406 8.289062 14.113281 8.035156 13.128906 8.035156 "/>
<path style=" stroke:none;fill-rule:nonzero;fill:rgb(17.647059%,61.176471%,94.901961%);fill-opacity:1;" d="M 18.191406 12.746094 C 21.191406 12.746094 22.742188 14.328125 22.742188 15.257812 C 22.742188 16.191406 22.292969 16.332031 21.558594 16.332031 C 20.125 16.332031 20.710938 14.609375 18.03125 14.609375 C 17.144531 14.609375 16.039062 15.015625 16.039062 16.050781 C 16.039062 16.882812 17.019531 17.191406 18.75 17.617188 C 21.363281 18.316406 23.320312 19.015625 23.320312 21.410156 C 23.320312 23.738281 21.425781 24.90625 18.425781 24.90625 C 15.425781 24.90625 13.507812 23.109375 13.507812 22.179688 C 13.507812 21.25 13.863281 21.015625 14.597656 21.015625 C 16.03125 21.015625 15.839844 22.972656 18.519531 22.972656 C 19.410156 22.972656 20.722656 22.566406 20.722656 21.527344 C 20.722656 20.699219 20.652344 20.410156 18.75 19.898438 C 16.71875 19.621094 13.441406 18.960938 13.441406 16.429688 C 13.441406 14.101562 15.195312 12.746094 18.195312 12.746094 "/>
</g>
</svg>
