<?xml version="1.0" encoding="UTF-8"?>
<svg xmlns="http://www.w3.org/2000/svg" xmlns:xlink="http://www.w3.org/1999/xlink" width="36pt" height="36pt" viewBox="0 0 36 36" version="1.1">
<defs>
<filter id="alpha" filterUnits="objectBoundingBox" x="0%" y="0%" width="100%" height="100%">
  <feColorMatrix type="matrix" in="SourceGraphic" values="0 0 0 0 1 0 0 0 0 1 0 0 0 0 1 0 0 0 1 0"/>
</filter>
<mask id="mask0">
  <g filter="url(#alpha)">
<rect x="0" y="0" width="36" height="36" style="fill:rgb(0%,0%,0%);fill-opacity:0.2;stroke:none;"/>
  </g>
</mask>
<clipPath id="clip1">
  <rect width="36" height="36"/>
</clipPath>
<g id="surface6" clip-path="url(#clip1)">
<path style=" stroke:none;fill-rule:nonzero;fill:rgb(0%,0%,0%);fill-opacity:1;" d="M 21.445312 16.394531 C 22.425781 16.414062 23.859375 16.390625 23.980469 16.390625 C 24.382812 16.109375 24.664062 15.003906 23.957031 13.917969 C 23.179688 12.703125 21.925781 13.226562 21.421875 14.144531 C 20.988281 15.171875 21.285156 15.855469 21.445312 16.386719 "/>
</g>
<mask id="mask1">
  <g filter="url(#alpha)">
<rect x="0" y="0" width="36" height="36" style="fill:rgb(0%,0%,0%);fill-opacity:0.2;stroke:none;"/>
  </g>
</mask>
<clipPath id="clip2">
  <rect width="36" height="36"/>
</clipPath>
<g id="surface9" clip-path="url(#clip2)">
<path style=" stroke:none;fill-rule:nonzero;fill:rgb(0%,0%,0%);fill-opacity:1;" d="M 10.820312 16.695312 L 10.820312 16.726562 C 10.808594 16.765625 10.808594 16.804688 10.820312 16.84375 C 10.832031 16.890625 10.863281 16.929688 10.894531 16.964844 C 11.011719 17.097656 11.195312 17.179688 11.378906 17.195312 C 11.570312 17.214844 12.160156 17.175781 12.328125 17.09375 C 12.472656 17.023438 12.601562 16.925781 12.746094 16.855469 C 12.886719 16.789062 13.039062 16.753906 13.203125 16.746094 C 13.433594 16.734375 13.667969 16.789062 13.902344 16.765625 C 14.019531 16.753906 14.132812 16.726562 14.230469 16.664062 C 14.277344 16.632812 14.316406 16.59375 14.347656 16.554688 C 14.382812 16.503906 14.402344 16.457031 14.402344 16.402344 C 14.410156 16.339844 14.390625 16.277344 14.363281 16.21875 C 14.332031 16.160156 14.285156 16.109375 14.234375 16.066406 C 14.132812 15.976562 14.007812 15.914062 13.890625 15.84375 C 13.824219 15.800781 13.761719 15.757812 13.679688 15.738281 C 13.589844 15.714844 13.488281 15.730469 13.390625 15.71875 C 13.289062 15.710938 13.195312 15.671875 13.097656 15.648438 C 12.898438 15.59375 12.6875 15.589844 12.484375 15.625 C 12.28125 15.65625 12.089844 15.734375 11.914062 15.832031 C 11.746094 15.925781 11.191406 16.050781 11.117188 16.210938 C 11.101562 16.242188 11.089844 16.277344 11.074219 16.308594 C 11.015625 16.453125 10.925781 16.582031 10.820312 16.695312 "/>
</g>
</defs>
<g id="surface1">
<path style=" stroke:none;fill-rule:evenodd;fill:rgb(62.352941%,21.960784%,18.823529%);fill-opacity:1;" d="M 8.40625 2.136719 L 27.59375 2.136719 C 31.054688 2.136719 33.863281 4.945312 33.863281 8.40625 L 33.863281 27.59375 C 33.863281 31.054688 31.054688 33.863281 27.59375 33.863281 L 8.40625 33.863281 C 4.945312 33.863281 2.136719 31.054688 2.136719 27.59375 L 2.136719 8.40625 C 2.136719 4.945312 4.945312 2.136719 8.40625 2.136719 Z M 8.40625 2.136719 "/>
<path style=" stroke:none;fill-rule:nonzero;fill:rgb(90.980392%,26.27451%,26.27451%);fill-opacity:1;" d="M 18 6.816406 C 14.660156 6.910156 10.921875 7.421875 8.039062 8.160156 C 7.253906 8.367188 6.957031 8.480469 6.816406 8.695312 L 6.816406 28.121094 C 6.816406 28.820312 11.011719 29.171875 11.6875 29.183594 C 12.410156 29.171875 15.605469 28.820312 15.605469 28.121094 L 15.605469 25.988281 L 20.394531 25.988281 L 20.394531 28.121094 C 20.394531 28.820312 23.589844 29.171875 24.3125 29.183594 C 24.988281 29.171875 29.183594 28.820312 29.183594 28.121094 L 29.183594 8.695312 C 29.042969 8.480469 28.746094 8.367188 27.960938 8.160156 C 25.078125 7.421875 21.339844 6.910156 18 6.816406 Z M 18 6.816406 "/>
<path style=" stroke:none;fill-rule:nonzero;fill:rgb(18.431373%,18.431373%,18.431373%);fill-opacity:1;" d="M 11.628906 16.003906 C 12.601562 15.90625 12.597656 15.894531 14.320312 15.753906 C 14.507812 15.207031 14.675781 14.882812 13.996094 13.867188 C 13.246094 12.738281 12.042969 13.226562 11.554688 14.078125 C 11.140625 15.035156 11.25 15.640625 11.628906 16.003906 M 11.628906 16.003906 "/>
<path style=" stroke:none;fill-rule:nonzero;fill:rgb(100%,100%,100%);fill-opacity:1;" d="M 13.207031 14.324219 C 13.207031 14.542969 13.027344 14.726562 12.808594 14.726562 C 12.585938 14.726562 12.410156 14.542969 12.410156 14.324219 C 12.410156 14.105469 12.585938 13.925781 12.808594 13.925781 C 13.027344 13.925781 13.207031 14.105469 13.207031 14.324219 M 13.207031 14.324219 "/>
<use xlink:href="#surface6" mask="url(#mask0)"/>
<path style=" stroke:none;fill-rule:nonzero;fill:rgb(18.431373%,18.431373%,18.431373%);fill-opacity:1;" d="M 21.445312 15.597656 C 22.425781 15.613281 23.859375 15.59375 23.980469 15.59375 C 24.382812 15.308594 24.664062 14.207031 23.957031 13.117188 C 23.179688 11.90625 21.925781 12.425781 21.421875 13.34375 C 20.988281 14.375 21.285156 15.054688 21.445312 15.589844 "/>
<path style=" stroke:none;fill-rule:nonzero;fill:rgb(100%,100%,100%);fill-opacity:1;" d="M 22.792969 13.605469 C 22.792969 13.828125 22.613281 14.007812 22.390625 14.007812 C 22.171875 14.007812 21.992188 13.828125 21.992188 13.605469 C 21.992188 13.386719 22.171875 13.207031 22.390625 13.207031 C 22.613281 13.207031 22.792969 13.386719 22.792969 13.605469 M 22.792969 13.605469 "/>
<path style=" stroke:none;fill-rule:nonzero;fill:rgb(18.431373%,18.431373%,18.431373%);fill-opacity:1;" d="M 11.609375 17.457031 C 15.855469 17.1875 20.109375 17.050781 24.390625 17.457031 C 23.683594 21.859375 21.101562 21.90625 18.53125 21.976562 C 15.640625 22.167969 12.121094 20.839844 11.609375 17.457031 M 11.609375 17.457031 "/>
<path style=" stroke:none;fill-rule:nonzero;fill:rgb(100%,100%,100%);fill-opacity:1;" d="M 12.410156 18.878906 C 12.460938 19.125 12.324219 19.378906 12.554688 19.535156 C 13.992188 20.492188 16.691406 21.160156 18.523438 21.195312 C 20.949219 21.207031 22.859375 20.765625 23.511719 19.929688 C 23.652344 19.746094 23.5625 19.132812 23.574219 18.859375 L 22.207031 18.828125 L 23.574219 18.703125 L 23.574219 18.050781 L 17.207031 18.050781 L 17.199219 18.796875 L 15.609375 18.796875 L 15.597656 18 L 12.410156 18 L 12.414062 18.769531 L 13.460938 18.804688 "/>
<use xlink:href="#surface9" mask="url(#mask1)"/>
<path style=" stroke:none;fill-rule:nonzero;fill:rgb(80.392157%,36.470588%,50.980392%);fill-opacity:1;" d="M 10.820312 15.898438 L 10.820312 15.929688 C 10.808594 15.964844 10.808594 16.007812 10.820312 16.046875 C 10.832031 16.09375 10.863281 16.128906 10.894531 16.167969 C 11.011719 16.296875 11.195312 16.378906 11.378906 16.398438 C 11.570312 16.417969 12.160156 16.378906 12.328125 16.296875 C 12.472656 16.226562 12.601562 16.128906 12.746094 16.054688 C 12.886719 15.992188 13.039062 15.953125 13.203125 15.945312 C 13.433594 15.9375 13.667969 15.988281 13.902344 15.964844 C 14.019531 15.957031 14.132812 15.925781 14.230469 15.863281 C 14.277344 15.835938 14.316406 15.796875 14.347656 15.753906 C 14.382812 15.707031 14.402344 15.660156 14.402344 15.605469 C 14.410156 15.539062 14.390625 15.476562 14.363281 15.417969 C 14.332031 15.363281 14.285156 15.3125 14.234375 15.269531 C 14.132812 15.179688 14.007812 15.117188 13.890625 15.042969 C 13.824219 15.003906 13.761719 14.960938 13.679688 14.941406 C 13.589844 14.914062 13.488281 14.933594 13.390625 14.921875 C 13.289062 14.910156 13.195312 14.875 13.097656 14.847656 C 12.898438 14.796875 12.6875 14.792969 12.484375 14.828125 C 12.28125 14.859375 12.089844 14.933594 11.914062 15.035156 C 11.746094 15.128906 11.191406 15.253906 11.117188 15.414062 C 11.101562 15.445312 11.089844 15.480469 11.074219 15.511719 C 11.015625 15.652344 10.925781 15.78125 10.820312 15.898438 "/>
<path style=" stroke:none;fill-rule:nonzero;fill:rgb(90.196078%,90.196078%,90.196078%);fill-opacity:1;" d="M 13.042969 8.3125 L 13.980469 7.671875 C 14.148438 7.558594 14.382812 7.625 14.488281 7.796875 L 15.003906 8.820312 L 16.621094 11.222656 C 16.734375 11.390625 16.382812 11.738281 16.210938 11.851562 L 15.433594 12.351562 C 15.261719 12.464844 15.03125 12.402344 14.925781 12.230469 L 13.949219 10.402344 L 12.792969 8.804688 C 12.675781 8.640625 12.875 8.425781 13.042969 8.3125 Z M 13.042969 8.3125 "/>
<path style=" stroke:none;fill-rule:nonzero;fill:rgb(93.72549%,93.72549%,93.72549%);fill-opacity:1;" d="M 16.398438 7.878906 L 17.125 8.738281 C 17.257812 8.894531 17.210938 9.128906 17.042969 9.246094 L 16.042969 9.835938 L 13.734375 11.609375 C 13.570312 11.734375 13.1875 11.421875 13.058594 11.261719 L 12.484375 10.546875 C 12.355469 10.390625 12.398438 10.160156 12.5625 10.042969 L 14.34375 8.9375 L 15.875 7.675781 C 16.03125 7.546875 16.265625 7.726562 16.398438 7.878906 Z M 16.398438 7.878906 "/>
</g>
</svg>
