<?xml version="1.0" encoding="UTF-8"?>
<svg xmlns="http://www.w3.org/2000/svg" xmlns:xlink="http://www.w3.org/1999/xlink" width="36pt" height="36pt" viewBox="0 0 36 36" version="1.1">
<g id="surface1">
<path style=" stroke:none;fill-rule:evenodd;fill:rgb(99.215686%,76.470588%,23.137255%);fill-opacity:1;" d="M 8.40625 2.136719 L 27.59375 2.136719 C 31.054688 2.136719 33.863281 4.945312 33.863281 8.40625 L 33.863281 27.59375 C 33.863281 31.054688 31.054688 33.863281 27.59375 33.863281 L 8.40625 33.863281 C 4.945312 33.863281 2.136719 31.054688 2.136719 27.59375 L 2.136719 8.40625 C 2.136719 4.945312 4.945312 2.136719 8.40625 2.136719 Z M 8.40625 2.136719 "/>
<path style=" stroke:none;fill-rule:nonzero;fill:rgb(91.372549%,59.607843%,3.921569%);fill-opacity:1;" d="M 27.242188 26.960938 C 27.238281 28.597656 26.835938 29.140625 21.6875 29.140625 C 20.226562 29.140625 18.445312 29.269531 17.507812 28.683594 C 16.621094 28.128906 16.941406 27.3125 16.941406 26.484375 C 16.941406 24.777344 18.613281 23.578125 21.457031 23.578125 C 24.304688 23.578125 27.246094 25.25 27.242188 26.960938 Z M 27.242188 26.960938 "/>
<path style=" stroke:none;fill-rule:nonzero;fill:rgb(100%,100%,100%);fill-opacity:1;" d="M 18 6.847656 C 12.28125 6.847656 7.640625 11.484375 7.640625 17.203125 C 7.640625 22.921875 12.28125 27.5625 18 27.5625 C 23.71875 27.5625 28.359375 22.921875 28.359375 17.203125 C 28.359375 11.484375 23.71875 6.847656 18 6.847656 Z M 18 6.847656 "/>
<path style=" stroke:none;fill-rule:nonzero;fill:rgb(91.372549%,59.607843%,3.921569%);fill-opacity:1;" d="M 18.796875 26.960938 C 18.792969 28.597656 18.390625 29.140625 13.242188 29.140625 C 11.78125 29.140625 10 29.269531 9.0625 28.683594 C 8.175781 28.128906 8.496094 27.3125 8.496094 26.484375 C 8.496094 24.777344 10.167969 23.578125 13.011719 23.578125 C 15.859375 23.578125 18.800781 25.25 18.796875 26.960938 Z M 18.796875 26.960938 "/>
<path style=" stroke:none;fill-rule:nonzero;fill:rgb(25.490196%,25.490196%,25.490196%);fill-opacity:1;" d="M 18 15.609375 C 18 14.289062 17.285156 13.21875 16.40625 13.21875 C 15.527344 13.21875 14.8125 14.289062 14.8125 15.609375 C 14.8125 16.929688 15.527344 18 16.40625 18 C 17.285156 18 18 16.929688 18 15.609375 Z M 18 15.609375 "/>
<path style=" stroke:none;fill-rule:nonzero;fill:rgb(25.490196%,25.490196%,25.490196%);fill-opacity:1;" d="M 22.78125 15.609375 C 22.78125 14.289062 22.066406 13.21875 21.1875 13.21875 C 20.308594 13.21875 19.59375 14.289062 19.59375 15.609375 C 19.59375 16.929688 20.308594 18 21.1875 18 C 22.066406 18 22.78125 16.929688 22.78125 15.609375 Z M 22.78125 15.609375 "/>
</g>
</svg>
