<?xml version="1.0" encoding="UTF-8"?>
<svg xmlns="http://www.w3.org/2000/svg" xmlns:xlink="http://www.w3.org/1999/xlink" width="36pt" height="36pt" viewBox="0 0 36 36" version="1.1">
<g id="surface1">
<path style=" stroke:none;fill-rule:evenodd;fill:rgb(71.764706%,71.764706%,71.764706%);fill-opacity:1;" d="M 8.40625 2.136719 L 27.59375 2.136719 C 31.054688 2.136719 33.863281 4.945312 33.863281 8.40625 L 33.863281 27.59375 C 33.863281 31.054688 31.054688 33.863281 27.59375 33.863281 L 8.40625 33.863281 C 4.945312 33.863281 2.136719 31.054688 2.136719 27.59375 L 2.136719 8.40625 C 2.136719 4.945312 4.945312 2.136719 8.40625 2.136719 Z M 8.40625 2.136719 "/>
<path style=" stroke:none;fill-rule:nonzero;fill:rgb(30.196078%,30.196078%,30.196078%);fill-opacity:1;" d="M 18 7.875 C 16.128906 7.875 14.625 9.378906 14.625 11.25 L 14.625 18.007812 C 13.210938 19.070312 12.378906 20.734375 12.375 22.5 C 12.375 25.605469 14.894531 28.125 18 28.125 C 21.105469 28.125 23.625 25.605469 23.625 22.5 C 23.621094 20.734375 22.789062 19.070312 21.375 18.007812 L 21.375 11.25 C 21.375 9.378906 19.871094 7.875 18 7.875 Z M 18 10.125 C 18.664062 10.125 19.125 10.585938 19.125 11.25 L 19.125 19.132812 L 20.027344 19.808594 C 20.875 20.445312 21.371094 21.441406 21.375 22.503906 C 21.375 24.390625 19.890625 25.875 18 25.875 C 16.109375 25.875 14.625 24.390625 14.625 22.503906 L 14.625 22.5 C 14.628906 21.4375 15.125 20.445312 15.972656 19.808594 L 16.875 19.132812 L 16.875 11.25 C 16.875 10.585938 17.335938 10.125 18 10.125 Z M 18 10.125 "/>
<path style=" stroke:none;fill-rule:nonzero;fill:rgb(96.862745%,37.254902%,37.254902%);fill-opacity:1;" d="M 16.875 14.625 L 16.875 19.132812 L 15.972656 19.808594 C 15.125 20.445312 14.628906 21.4375 14.625 22.5 L 14.625 22.503906 C 14.625 24.390625 16.109375 25.875 18 25.875 C 19.890625 25.875 21.375 24.390625 21.375 22.503906 C 21.371094 21.441406 20.875 20.445312 20.027344 19.808594 L 19.125 19.132812 L 19.125 14.625 Z M 16.875 14.625 "/>
</g>
</svg>
