<?xml version="1.0" encoding="UTF-8"?>
<svg xmlns="http://www.w3.org/2000/svg" xmlns:xlink="http://www.w3.org/1999/xlink" width="36pt" height="36pt" viewBox="0 0 36 36" version="1.1">
<defs>
<linearGradient id="linear0" gradientUnits="userSpaceOnUse" x1="-16.665062" y1="23.507727" x2="-13.157189" y2="32.913597" gradientTransform="matrix(0.825066,0,0,0.825066,40.034528,3.292809)">
<stop offset="0" style="stop-color:rgb(52.54902%,58.431373%,61.176471%);stop-opacity:1;"/>
<stop offset="1" style="stop-color:rgb(52.54902%,58.431373%,61.176471%);stop-opacity:0;"/>
</linearGradient>
<linearGradient id="linear1" gradientUnits="userSpaceOnUse" x1="-36.955921" y1="28.922037" x2="-39.662048" y2="34.202526" gradientTransform="matrix(0.825066,0,0,0.825066,40.034528,3.292809)">
<stop offset="0" style="stop-color:rgb(52.54902%,58.431373%,61.176471%);stop-opacity:1;"/>
<stop offset="1" style="stop-color:rgb(52.54902%,58.431373%,61.176471%);stop-opacity:0;"/>
</linearGradient>
<linearGradient id="linear2" gradientUnits="userSpaceOnUse" x1="-43.812916" y1="27.299231" x2="-37.59342" y2="27.299231" gradientTransform="matrix(0.825066,0,0,0.825066,40.034528,3.292809)">
<stop offset="0" style="stop-color:rgb(52.54902%,58.431373%,61.176471%);stop-opacity:1;"/>
<stop offset="1" style="stop-color:rgb(52.54902%,58.431373%,61.176471%);stop-opacity:0;"/>
</linearGradient>
<linearGradient id="linear3" gradientUnits="userSpaceOnUse" x1="10.486315" y1="20.666985" x2="19.018635" y2="20.666985" gradientTransform="matrix(1.125,0,0,1.125,0,0)">
<stop offset="0" style="stop-color:rgb(33.72549%,36.078431%,40%);stop-opacity:1;"/>
<stop offset="1" style="stop-color:rgb(33.72549%,36.078431%,40%);stop-opacity:0;"/>
</linearGradient>
<linearGradient id="linear4" gradientUnits="userSpaceOnUse" x1="7.78524" y1="21.071885" x2="10.896681" y2="21.071885" gradientTransform="matrix(1.125,0,0,1.125,0,0)">
<stop offset="0" style="stop-color:rgb(33.72549%,36.078431%,40%);stop-opacity:1;"/>
<stop offset="1" style="stop-color:rgb(33.72549%,36.078431%,40%);stop-opacity:0;"/>
</linearGradient>
<linearGradient id="linear5" gradientUnits="userSpaceOnUse" x1="-31.80279" y1="2.655921" x2="-29.783688" y2="9.256532" gradientTransform="matrix(0.825066,0,0,0.825066,40.034528,3.292809)">
<stop offset="0" style="stop-color:rgb(49.411765%,54.901961%,57.647059%);stop-opacity:1;"/>
<stop offset="1" style="stop-color:rgb(49.411765%,54.901961%,57.647059%);stop-opacity:0;"/>
</linearGradient>
<linearGradient id="linear6" gradientUnits="userSpaceOnUse" x1="-26.96739" y1="25.485662" x2="-24.467997" y2="35.304073" gradientTransform="matrix(0.825066,0,0,0.825066,40.034528,3.292809)">
<stop offset="0" style="stop-color:rgb(52.54902%,58.431373%,61.176471%);stop-opacity:1;"/>
<stop offset="1" style="stop-color:rgb(52.54902%,58.431373%,61.176471%);stop-opacity:0;"/>
</linearGradient>
<linearGradient id="linear7" gradientUnits="userSpaceOnUse" x1="-29.591215" y1="10.198193" x2="-28.316233" y2="17.782572" gradientTransform="matrix(0.825066,0,0,0.825066,40.034528,3.292809)">
<stop offset="0" style="stop-color:rgb(99.607843%,57.254902%,7.058824%);stop-opacity:1;"/>
<stop offset="1" style="stop-color:rgb(99.607843%,57.254902%,7.058824%);stop-opacity:0;"/>
</linearGradient>
</defs>
<g id="surface1">
<path style=" stroke:none;fill-rule:evenodd;fill:rgb(15.686275%,15.686275%,21.960784%);fill-opacity:1;" d="M 8.40625 2.136719 L 27.59375 2.136719 C 31.054688 2.136719 33.863281 4.945312 33.863281 8.40625 L 33.863281 27.59375 C 33.863281 31.054688 31.054688 33.863281 27.59375 33.863281 L 8.40625 33.863281 C 4.945312 33.863281 2.136719 31.054688 2.136719 27.59375 L 2.136719 8.40625 C 2.136719 4.945312 4.945312 2.136719 8.40625 2.136719 Z M 8.40625 2.136719 "/>
<path style=" stroke:none;fill-rule:evenodd;fill:rgb(20%,20%,24.705882%);fill-opacity:1;" d="M 33.132812 28.296875 C 33.097656 27.625 33.054688 27.257812 32.984375 27.011719 C 32.746094 26.183594 32.417969 25.40625 32.03125 24.742188 C 31.648438 24.082031 31.214844 23.535156 30.765625 23.175781 C 29.613281 22.253906 28.226562 21.53125 26.214844 20.808594 C 25.800781 20.660156 25.449219 20.472656 24.621094 19.964844 C 23.746094 19.425781 23.335938 19.214844 22.332031 18.769531 C 21.65625 18.46875 20.53125 18.023438 19.828125 17.773438 C 19.128906 17.527344 18.507812 17.292969 18.453125 17.257812 C 18.3125 17.167969 18.195312 16.902344 18.128906 16.539062 C 18.0625 16.148438 18.132812 15.507812 18.394531 14.195312 C 18.691406 12.699219 18.691406 12.445312 18.410156 10.933594 C 17.941406 8.40625 17.660156 7.609375 16.914062 6.703125 C 16.820312 6.585938 16.589844 6.375 16.398438 6.230469 C 15.839844 5.804688 15.128906 5.492188 14.382812 5.320312 C 13.636719 5.148438 12.855469 5.113281 12.148438 5.246094 C 10.941406 5.472656 9.792969 6.105469 8.90625 6.960938 C 8.019531 7.816406 7.386719 8.890625 7.207031 10 C 7.097656 10.679688 7.160156 11.222656 7.542969 12.847656 C 7.734375 13.660156 7.914062 14.382812 7.941406 14.457031 C 8.027344 14.679688 8.253906 14.972656 8.722656 15.46875 L 9.164062 15.933594 L 9.835938 17.414062 C 10.203125 18.230469 10.492188 18.929688 10.476562 18.96875 C 10.464844 19.007812 10.15625 19.292969 9.796875 19.601562 C 9.066406 20.230469 8.789062 20.492188 8.363281 20.964844 C 8.074219 21.28125 8.058594 21.292969 7.722656 21.351562 C 7.050781 21.472656 6.175781 22.023438 5.367188 22.839844 C 4.417969 23.792969 3.859375 24.859375 3.652344 26.109375 C 3.5625 26.636719 3.5625 26.65625 3.679688 29.21875 C 3.585938 31.578125 6.15625 32.730469 7.851562 32.753906 L 28.4375 32.753906 C 29.390625 32.925781 32.320312 31.242188 33.132812 28.296875 Z M 33.132812 28.296875 "/>
<path style=" stroke:none;fill-rule:nonzero;fill:url(#linear0);" d="M 23.027344 23.398438 C 23.042969 23.445312 23.046875 23.421875 23.066406 23.507812 C 23.226562 24.105469 23.414062 24.398438 24.121094 25.144531 C 24.902344 25.964844 25.269531 26.550781 25.46875 27.269531 C 25.683594 28.066406 26.097656 28.625 26.867188 29.167969 C 27.335938 29.5 28.015625 29.851562 28.484375 30.015625 C 29.039062 30.207031 29.945312 30.621094 30.347656 30.871094 C 30.925781 31.226562 31.199219 31.363281 31.589844 31.492188 C 32.050781 31.640625 32.242188 31.617188 32.566406 31.378906 C 32.84375 31.171875 32.972656 31.011719 33.023438 30.808594 L 33.058594 30.652344 C 33.058594 30.652344 33.058594 30.652344 33.019531 28.253906 C 32.96875 27.316406 32.957031 27.257812 32.769531 26.6875 C 32.539062 25.996094 31.917969 24.675781 31.847656 24.722656 C 31.816406 24.738281 31.804688 24.722656 31.820312 24.6875 C 31.832031 24.652344 31.808594 24.578125 31.765625 24.523438 C 31.722656 24.472656 31.703125 24.460938 31.71875 24.503906 C 31.738281 24.542969 31.71875 24.53125 31.675781 24.480469 C 31.632812 24.429688 31.597656 24.355469 31.597656 24.320312 C 31.597656 24.210938 31.445312 24.011719 31.390625 24.046875 C 31.359375 24.0625 31.351562 24.054688 31.375 24.019531 C 31.425781 23.9375 30.839844 23.347656 30.367188 23.007812 C 29.8125 22.605469 29.019531 22.136719 28.386719 21.832031 C 27.789062 21.542969 26.542969 21.039062 26.355469 21.003906 C 26.285156 20.992188 26.089844 20.925781 25.914062 20.855469 C 25.449219 20.664062 25.179688 20.695312 25.03125 20.960938 C 24.960938 21.082031 24.941406 21.085938 24.492188 21.089844 C 24.074219 21.09375 24 21.109375 23.789062 21.234375 C 23.183594 21.589844 23.023438 21.867188 22.972656 22.632812 L 22.949219 22.984375 Z M 23.027344 23.398438 "/>
<path style=" stroke:none;fill-rule:nonzero;fill:url(#linear1);" d="M 11.0625 32.15625 C 10.878906 31.007812 10.917969 29.851562 11.039062 29.21875 C 11.082031 29.003906 11.039062 28.859375 11.039062 28.820312 C 11.039062 28.628906 10.867188 28.367188 10.488281 27.984375 C 10.078125 27.574219 9.933594 27.355469 9.261719 26.152344 C 9.003906 25.691406 8.605469 25.261719 8.238281 25.054688 C 7.917969 24.871094 7.324219 24.726562 7.085938 24.769531 C 6.890625 24.808594 6.652344 25.058594 6.476562 25.414062 C 6.410156 25.542969 6.316406 25.6875 6.265625 25.742188 C 6.214844 25.792969 6.054688 26.070312 5.917969 26.359375 L 5.664062 26.878906 L 5.671875 27.664062 C 5.679688 28.296875 5.699219 28.527344 5.785156 28.84375 C 5.84375 29.058594 5.910156 29.386719 5.933594 29.570312 C 6.527344 32.964844 9.167969 32.5 11.121094 32.539062 Z M 11.0625 32.15625 "/>
<path style=" stroke:none;fill-rule:nonzero;fill:url(#linear2);" d="M 5.710938 29.667969 L 5.855469 29.453125 L 5.765625 29.097656 C 5.574219 28.332031 5.523438 27.335938 5.652344 26.929688 C 5.828125 26.382812 6.613281 25.175781 6.914062 24.984375 C 7.039062 24.90625 7.121094 24.894531 7.386719 24.914062 C 7.730469 24.945312 8.167969 25.074219 8.398438 25.21875 C 8.472656 25.265625 8.644531 25.40625 8.773438 25.527344 L 9.007812 25.753906 L 8.980469 25.488281 C 8.960938 25.339844 8.902344 25.03125 8.84375 24.800781 C 8.761719 24.472656 8.738281 24.226562 8.734375 23.695312 C 8.734375 23.070312 8.746094 22.964844 8.875 22.542969 L 9.015625 22.074219 L 8.9375 21.5625 C 8.890625 21.277344 8.855469 20.992188 8.851562 20.925781 C 8.851562 20.8125 8.824219 20.832031 8.570312 21.105469 C 8.300781 21.398438 8.28125 21.410156 7.910156 21.484375 C 7.214844 21.625 6.515625 22.046875 5.726562 22.808594 C 4.949219 23.558594 4.457031 24.296875 4.152344 25.164062 C 4.066406 25.40625 3.988281 25.738281 3.976562 25.898438 C 3.964844 26.0625 3.933594 26.480469 3.910156 26.832031 C 3.878906 27.214844 3.878906 27.722656 3.902344 28.105469 C 3.929688 28.457031 3.960938 29.179688 3.980469 29.714844 C 4.179688 30.671875 5.277344 30.660156 5.710938 29.667969 Z M 5.710938 29.667969 "/>
<path style=" stroke:none;fill-rule:nonzero;fill:url(#linear3);" d="M 12.699219 28.261719 C 13.085938 28.082031 13.527344 27.773438 13.902344 27.414062 C 14.253906 27.082031 16.378906 25.238281 16.660156 25.023438 C 16.765625 24.945312 16.851562 24.828125 16.871094 24.742188 C 16.914062 24.550781 17.207031 23.949219 17.398438 23.671875 C 17.480469 23.550781 17.984375 23.007812 18.515625 22.46875 C 19.867188 21.097656 19.9375 21.003906 20.175781 20.261719 C 20.332031 19.777344 20.632812 19.167969 20.832031 18.933594 C 20.925781 18.828125 21.09375 18.695312 21.203125 18.648438 C 21.511719 18.507812 21.527344 18.519531 20.664062 18.210938 C 20.238281 18.058594 20.183594 18.050781 20.050781 18.109375 C 19.660156 18.285156 19.324219 18.632812 19.269531 18.910156 C 19.253906 18.980469 19.152344 19.347656 19.046875 19.722656 C 18.792969 20.601562 18.578125 21.042969 18.25 21.351562 C 17.84375 21.734375 16.5 22.460938 15.449219 22.867188 C 14.460938 23.246094 13.234375 23.789062 13.136719 23.882812 C 13.082031 23.941406 13.019531 24.046875 13.003906 24.121094 C 12.976562 24.238281 12.992188 24.261719 13.140625 24.324219 C 13.238281 24.367188 13.367188 24.484375 13.449219 24.605469 C 13.570312 24.789062 13.585938 24.859375 13.585938 25.191406 C 13.585938 25.535156 13.570312 25.59375 13.4375 25.78125 C 13.355469 25.898438 13.191406 26.066406 13.070312 26.15625 C 12.949219 26.246094 12.828125 26.335938 12.796875 26.359375 C 12.769531 26.382812 12.695312 26.417969 12.636719 26.4375 C 12.578125 26.453125 12.53125 26.496094 12.53125 26.53125 C 12.53125 26.65625 12.28125 27.105469 12.140625 27.230469 C 12.039062 27.320312 12.007812 27.378906 12.039062 27.414062 C 12.128906 27.5 12.09375 27.625 11.921875 27.851562 C 11.792969 28.023438 11.769531 28.078125 11.824219 28.097656 C 11.910156 28.132812 11.914062 28.285156 11.832031 28.371094 C 11.722656 28.488281 12.386719 28.402344 12.699219 28.261719 Z M 12.699219 28.261719 "/>
<path style=" stroke:none;fill-rule:nonzero;fill:url(#linear4);" d="M 10.933594 27.953125 C 10.976562 27.9375 10.984375 27.859375 10.960938 27.675781 C 10.921875 27.390625 10.933594 27.34375 11.042969 27.34375 C 11.097656 27.34375 11.101562 27.324219 11.0625 27.25 C 10.976562 27.089844 11 26.902344 11.105469 26.902344 C 11.195312 26.902344 11.199219 26.894531 11.121094 26.703125 C 11.046875 26.515625 11.046875 26.496094 11.125 26.4375 C 11.203125 26.382812 11.199219 26.363281 11.0625 26.21875 C 10.890625 26.035156 10.816406 25.800781 10.816406 25.445312 C 10.816406 25.148438 10.890625 24.9375 11.078125 24.714844 C 11.285156 24.472656 11.714844 24.210938 11.964844 24.175781 C 12.171875 24.148438 12.1875 24.136719 12.1875 24.003906 C 12.1875 23.925781 12.214844 23.824219 12.246094 23.773438 C 12.335938 23.625 11.921875 23.007812 11.320312 22.402344 C 10.929688 22.007812 10.777344 21.8125 10.644531 21.542969 C 10.230469 20.691406 10.230469 20.105469 10.644531 19.476562 C 11.027344 18.894531 10.785156 18.933594 10.214844 19.546875 C 10.085938 19.683594 9.96875 19.789062 9.953125 19.785156 C 9.894531 19.757812 9.234375 20.367188 9.097656 20.574219 C 8.941406 20.8125 8.910156 21.082031 9 21.414062 C 9.109375 21.808594 9.09375 22.066406 8.925781 22.738281 C 8.832031 23.101562 8.757812 23.480469 8.757812 23.578125 C 8.757812 23.886719 8.914062 24.910156 8.988281 25.089844 C 9.027344 25.183594 9.132812 25.480469 9.226562 25.742188 C 9.496094 26.535156 10.164062 27.679688 10.609375 28.121094 L 10.839844 28.351562 L 10.855469 28.164062 C 10.863281 28.0625 10.898438 27.964844 10.933594 27.953125 Z M 10.933594 27.953125 "/>
<path style=" stroke:none;fill-rule:nonzero;fill:rgb(13.72549%,15.294118%,16.078431%);fill-opacity:1;" d="M 14.320312 23.132812 C 15.730469 22.5625 16.5 22.214844 17.109375 21.875 C 17.382812 21.722656 17.703125 21.542969 17.824219 21.476562 C 17.945312 21.414062 18.09375 21.3125 18.15625 21.253906 C 18.34375 21.078125 18.6875 20.296875 18.902344 19.550781 C 19.015625 19.160156 19.125 18.828125 19.148438 18.816406 C 19.167969 18.804688 19.21875 18.722656 19.265625 18.632812 C 19.371094 18.425781 19.566406 18.25 19.832031 18.125 C 20.09375 18.003906 20.105469 18.011719 19.328125 17.742188 C 18.515625 17.460938 18.285156 17.328125 18.171875 17.074219 C 18.121094 16.960938 18.066406 16.792969 18.046875 16.707031 C 18.019531 16.585938 18 16.566406 17.964844 16.617188 C 17.933594 16.664062 17.925781 16.640625 17.941406 16.539062 C 17.984375 16.28125 18.019531 15.800781 17.992188 15.863281 C 17.976562 15.898438 17.941406 15.910156 17.910156 15.890625 C 17.875 15.871094 17.871094 15.890625 17.890625 15.945312 C 17.90625 15.988281 17.902344 16.015625 17.878906 16 C 17.855469 15.984375 17.730469 16.152344 17.605469 16.367188 C 17.476562 16.585938 17.363281 16.753906 17.351562 16.742188 C 17.34375 16.730469 17.480469 16.484375 17.660156 16.1875 L 17.992188 15.65625 L 18.003906 15.121094 C 18.019531 14.53125 18.066406 14.355469 18.078125 14.851562 C 18.082031 15.023438 18.09375 15.109375 18.105469 15.042969 C 18.117188 14.976562 18.179688 14.664062 18.242188 14.355469 C 18.441406 13.382812 18.515625 12.886719 18.519531 12.5 C 18.519531 12.179688 18.269531 10.554688 18.183594 10.335938 C 18.167969 10.296875 18.117188 10.484375 18.070312 10.753906 C 18.023438 11.023438 17.929688 11.375 17.859375 11.539062 C 17.550781 12.269531 17.328125 13.164062 17.238281 14.050781 C 17.210938 14.328125 17.175781 15.265625 17.15625 16.136719 C 17.136719 17.308594 17.109375 17.738281 17.0625 17.816406 C 17.027344 17.875 16.894531 17.972656 16.761719 18.039062 C 16.542969 18.144531 16.472656 18.15625 15.792969 18.152344 C 14.960938 18.148438 14.851562 18.117188 14.828125 17.875 C 14.8125 17.722656 14.789062 17.703125 14.222656 17.457031 C 13.898438 17.316406 13.613281 17.199219 13.585938 17.199219 C 13.492188 17.199219 14.082031 17.75 14.34375 17.90625 C 14.820312 18.191406 15.222656 18.296875 15.867188 18.300781 C 16.40625 18.300781 16.445312 18.296875 16.757812 18.140625 C 16.9375 18.050781 17.132812 17.921875 17.1875 17.851562 C 17.242188 17.78125 17.300781 17.734375 17.3125 17.75 C 17.367188 17.800781 16.882812 18.175781 16.660156 18.25 C 15.910156 18.511719 14.6875 18.324219 14.128906 17.867188 C 14.007812 17.769531 13.675781 17.601562 13.335938 17.46875 C 11.640625 16.804688 10.226562 15.6875 9.625 14.535156 C 9.476562 14.25 9.46875 14.203125 9.46875 13.71875 C 9.46875 13.238281 9.476562 13.1875 9.621094 12.910156 C 9.820312 12.535156 9.925781 12.441406 10.363281 12.238281 L 10.722656 12.078125 L 10.445312 11.855469 C 10.113281 11.59375 9.597656 11.046875 9.386719 10.734375 C 9.125 10.351562 8.960938 10.050781 8.988281 10.023438 C 9.007812 10.007812 9.085938 10.109375 9.164062 10.25 C 9.402344 10.667969 9.90625 11.285156 10.304688 11.644531 C 10.507812 11.828125 10.699219 11.988281 10.730469 11.996094 C 10.757812 12.007812 10.582031 11.796875 10.339844 11.523438 C 10.097656 11.253906 9.785156 10.882812 9.644531 10.695312 C 9.183594 10.089844 8.714844 8.980469 8.707031 8.476562 C 8.703125 8.378906 8.683594 8.257812 8.660156 8.203125 C 8.625 8.128906 8.617188 8.148438 8.613281 8.300781 C 8.609375 8.722656 8.730469 9.285156 8.933594 9.816406 C 8.960938 9.882812 8.953125 9.902344 8.914062 9.875 C 8.875 9.855469 8.742188 9.953125 8.570312 10.125 C 8.324219 10.367188 8.265625 10.46875 8.15625 10.800781 C 8.050781 11.117188 8.03125 11.152344 8.054688 10.976562 C 8.101562 10.621094 8.25 10.34375 8.550781 10.050781 L 8.832031 9.773438 L 8.71875 9.382812 C 8.65625 9.164062 8.59375 8.855469 8.578125 8.6875 C 8.546875 8.371094 8.59375 7.820312 8.652344 7.855469 C 8.667969 7.867188 8.6875 7.785156 8.691406 7.675781 L 8.699219 7.476562 L 8.570312 7.644531 C 8.285156 8.003906 7.917969 8.613281 7.777344 8.949219 C 7.507812 9.597656 7.460938 9.855469 7.464844 10.628906 C 7.46875 11.273438 7.484375 11.40625 7.644531 12.027344 C 7.742188 12.40625 7.851562 12.800781 7.894531 12.910156 C 7.9375 13.019531 7.96875 13.164062 7.972656 13.230469 C 7.976562 13.503906 8.183594 14.34375 8.292969 14.53125 C 8.566406 15.003906 9.589844 15.917969 10.355469 16.375 C 10.460938 16.4375 10.679688 16.570312 10.839844 16.675781 C 11.003906 16.777344 11.332031 16.972656 11.578125 17.109375 C 12.183594 17.449219 12.496094 17.660156 12.910156 18.015625 C 13.261719 18.320312 13.824219 18.675781 14.050781 18.746094 C 14.117188 18.765625 14.199219 18.808594 14.234375 18.84375 C 14.328125 18.9375 14.953125 19.070312 15.453125 19.097656 C 16.105469 19.136719 16.503906 19.003906 17.035156 18.578125 C 17.328125 18.34375 17.414062 18.183594 17.539062 17.640625 C 17.660156 17.105469 17.757812 16.933594 17.703125 17.347656 C 17.640625 17.847656 17.519531 18.234375 17.363281 18.4375 C 16.871094 19.078125 15.890625 19.351562 14.859375 19.132812 C 14.671875 19.09375 14.476562 19.0625 14.425781 19.0625 C 14.300781 19.0625 13.484375 18.648438 13.328125 18.503906 C 12.648438 17.886719 11.308594 16.96875 11.308594 17.125 C 11.308594 17.136719 11.398438 17.390625 11.511719 17.699219 C 11.757812 18.375 12.027344 18.96875 12.398438 19.652344 C 13.261719 21.257812 13.316406 21.761719 12.695312 22.527344 C 12.605469 22.640625 12.550781 22.742188 12.578125 22.757812 C 12.601562 22.773438 12.660156 22.890625 12.707031 23.019531 C 12.757812 23.148438 12.800781 23.261719 12.808594 23.269531 C 12.816406 23.28125 12.9375 23.191406 13.082031 23.070312 C 13.53125 22.691406 14.574219 22.050781 14.742188 22.050781 C 14.847656 22.050781 15.8125 21.550781 16.164062 21.316406 C 16.335938 21.199219 16.703125 20.878906 16.976562 20.601562 C 17.425781 20.152344 17.503906 20.046875 17.722656 19.59375 C 17.960938 19.09375 18.117188 18.527344 18.195312 17.875 C 18.214844 17.71875 18.25 17.605469 18.273438 17.621094 C 18.296875 17.632812 18.308594 17.660156 18.296875 17.679688 C 18.285156 17.699219 18.261719 17.902344 18.246094 18.128906 C 18.230469 18.359375 18.183594 18.667969 18.148438 18.816406 C 18.109375 18.964844 18.066406 19.164062 18.050781 19.257812 C 17.988281 19.628906 17.699219 20.121094 17.242188 20.644531 C 16.9375 20.988281 15.753906 21.757812 14.855469 22.191406 C 14.230469 22.496094 13.753906 22.785156 13.328125 23.121094 C 13.089844 23.3125 13.078125 23.335938 13.128906 23.449219 C 13.160156 23.515625 13.195312 23.570312 13.210938 23.570312 C 13.222656 23.570312 13.722656 23.375 14.320312 23.132812 Z M 14.320312 23.132812 "/>
<path style=" stroke:none;fill-rule:nonzero;fill:rgb(13.72549%,15.294118%,16.078431%);fill-opacity:1;" d="M 12.5 23.351562 C 12.578125 23.292969 12.582031 23.261719 12.535156 23.109375 C 12.503906 23.015625 12.332031 22.742188 12.15625 22.507812 C 11.703125 21.902344 11.597656 21.617188 11.453125 20.609375 C 11.414062 20.359375 11.335938 20.144531 11.148438 19.789062 C 11.011719 19.523438 10.882812 19.320312 10.863281 19.34375 C 10.847656 19.363281 10.773438 19.515625 10.703125 19.679688 C 10.324219 20.546875 10.585938 21.410156 11.492188 22.308594 C 11.753906 22.566406 12.054688 22.921875 12.164062 23.097656 C 12.273438 23.277344 12.371094 23.421875 12.382812 23.421875 C 12.398438 23.421875 12.449219 23.390625 12.5 23.351562 Z M 12.5 23.351562 "/>
<path style=" stroke:none;fill-rule:nonzero;fill:rgb(13.72549%,15.294118%,16.078431%);fill-opacity:1;" d="M 12.644531 22.445312 C 12.835938 22.21875 12.988281 21.859375 13.011719 21.582031 C 13.042969 21.210938 12.925781 20.878906 12.402344 19.855469 C 11.902344 18.878906 11.585938 18.167969 11.34375 17.492188 C 11.261719 17.265625 11.160156 17.039062 11.121094 16.992188 C 11.082031 16.945312 10.902344 16.820312 10.71875 16.710938 C 10.535156 16.605469 10.183594 16.359375 9.933594 16.171875 C 9.683594 15.980469 9.46875 15.832031 9.460938 15.84375 C 9.441406 15.863281 10.789062 18.839844 10.882812 18.984375 C 10.921875 19.046875 11.089844 19.355469 11.257812 19.679688 C 11.515625 20.175781 11.570312 20.328125 11.628906 20.703125 C 11.710938 21.242188 11.890625 21.785156 12.085938 22.074219 C 12.324219 22.429688 12.449219 22.589844 12.488281 22.589844 C 12.507812 22.589844 12.578125 22.527344 12.644531 22.445312 Z M 12.644531 22.445312 "/>
<path style=" stroke:none;fill-rule:nonzero;fill:rgb(13.72549%,15.294118%,16.078431%);fill-opacity:1;" d="M 15.226562 17.691406 C 15.226562 17.277344 15.136719 16.722656 15.011719 16.371094 C 14.96875 16.253906 14.949219 16.136719 14.964844 16.109375 C 14.984375 16.078125 14.976562 16.070312 14.945312 16.089844 C 14.917969 16.105469 14.882812 16.085938 14.867188 16.042969 C 14.847656 15.996094 14.855469 15.980469 14.890625 16 C 15.058594 16.105469 14.613281 15.246094 14.230469 14.726562 C 13.839844 14.203125 13.117188 13.5 12.570312 13.125 C 11.277344 12.226562 10.605469 11.617188 10.351562 11.125 C 10.289062 11 10.0625 10.722656 9.851562 10.507812 C 9.640625 10.292969 9.390625 10.027344 9.300781 9.921875 L 9.136719 9.722656 L 9.296875 10.019531 C 9.386719 10.179688 9.578125 10.472656 9.726562 10.671875 C 9.976562 11.007812 10.6875 11.84375 10.785156 11.910156 C 10.808594 11.929688 10.816406 11.964844 10.796875 11.996094 C 10.78125 12.023438 10.792969 12.0625 10.824219 12.082031 C 10.863281 12.105469 10.867188 12.09375 10.839844 12.046875 C 10.816406 12.007812 10.917969 12.085938 11.0625 12.21875 C 11.210938 12.351562 11.414062 12.511719 11.515625 12.582031 C 11.617188 12.648438 11.699219 12.710938 11.699219 12.722656 C 11.699219 12.757812 11.363281 12.546875 11.074219 12.332031 L 10.820312 12.140625 L 10.675781 12.242188 C 10.335938 12.484375 9.835938 13.136719 9.835938 13.339844 C 9.835938 13.375 9.945312 13.488281 10.082031 13.59375 C 10.21875 13.695312 10.34375 13.804688 10.359375 13.832031 C 10.40625 13.902344 10.144531 13.734375 9.917969 13.542969 C 9.742188 13.398438 9.738281 13.386719 9.796875 13.226562 C 9.882812 12.972656 10.066406 12.703125 10.316406 12.457031 L 10.542969 12.234375 L 10.242188 12.386719 C 10 12.511719 9.910156 12.589844 9.769531 12.816406 C 9.4375 13.347656 9.40625 13.941406 9.679688 14.484375 C 9.976562 15.070312 10.730469 15.890625 11.433594 16.394531 C 11.898438 16.726562 12.289062 16.949219 12.359375 16.921875 C 12.394531 16.910156 12.484375 16.953125 12.558594 17.023438 C 12.632812 17.09375 12.710938 17.136719 12.734375 17.121094 C 12.757812 17.105469 12.777344 17.121094 12.777344 17.148438 C 12.777344 17.179688 12.796875 17.191406 12.820312 17.179688 C 12.839844 17.164062 13.015625 17.226562 13.203125 17.316406 C 13.390625 17.40625 13.597656 17.496094 13.660156 17.519531 L 13.777344 17.554688 L 13.644531 17.398438 C 13.570312 17.308594 13.527344 17.214844 13.542969 17.183594 C 13.5625 17.152344 13.558594 17.140625 13.535156 17.164062 C 13.492188 17.203125 13.316406 17.066406 13.316406 16.988281 C 13.316406 16.960938 13.355469 16.972656 13.402344 17.011719 C 13.484375 17.082031 14.5 17.542969 14.722656 17.613281 C 14.824219 17.644531 14.832031 17.632812 14.804688 17.484375 C 14.789062 17.394531 14.769531 17.292969 14.761719 17.261719 C 14.75 17.230469 14.5 17.078125 14.199219 16.929688 C 13.902344 16.78125 13.660156 16.648438 13.660156 16.636719 C 13.660156 16.625 13.878906 16.714844 14.148438 16.839844 C 14.417969 16.964844 14.65625 17.050781 14.671875 17.035156 C 14.691406 17.015625 14.664062 16.898438 14.613281 16.769531 L 14.515625 16.539062 L 13.570312 16.054688 C 12.535156 15.53125 12.574219 15.535156 12.777344 16.007812 C 12.855469 16.1875 12.917969 16.238281 13.25 16.410156 C 13.460938 16.515625 13.617188 16.605469 13.597656 16.609375 C 13.574219 16.609375 13.425781 16.542969 13.261719 16.460938 C 13.097656 16.378906 12.957031 16.316406 12.945312 16.324219 C 12.9375 16.335938 13.019531 16.472656 13.125 16.628906 C 13.230469 16.785156 13.304688 16.933594 13.289062 16.957031 C 13.273438 16.980469 13.285156 17.046875 13.316406 17.101562 C 13.34375 17.15625 13.351562 17.199219 13.328125 17.195312 C 13.277344 17.195312 12.847656 16.453125 12.855469 16.378906 C 12.859375 16.347656 12.847656 16.324219 12.824219 16.332031 C 12.804688 16.335938 12.636719 16.144531 12.457031 15.90625 C 12.082031 15.410156 11.644531 14.957031 11.355469 14.765625 C 11.246094 14.695312 11.167969 14.625 11.179688 14.613281 C 11.21875 14.574219 11.773438 15.027344 12.03125 15.308594 C 12.167969 15.460938 12.398438 15.738281 12.535156 15.925781 C 12.675781 16.113281 12.796875 16.269531 12.804688 16.269531 C 12.816406 16.269531 12.773438 16.183594 12.714844 16.082031 C 12.652344 15.984375 12.601562 15.84375 12.597656 15.777344 C 12.59375 15.710938 12.578125 15.566406 12.5625 15.457031 C 12.546875 15.34375 12.546875 15.3125 12.570312 15.386719 C 12.597656 15.484375 12.777344 15.59375 13.472656 15.949219 C 13.949219 16.191406 14.355469 16.371094 14.375 16.351562 C 14.394531 16.332031 14.320312 16.175781 14.207031 16.007812 C 14.046875 15.773438 14.035156 15.742188 14.152344 15.875 C 14.351562 16.101562 14.765625 16.960938 14.832031 17.285156 C 14.859375 17.429688 14.882812 17.644531 14.882812 17.761719 C 14.882812 17.984375 14.957031 18.078125 15.140625 18.078125 C 15.214844 18.082031 15.226562 18.03125 15.226562 17.695312 Z M 15.226562 17.691406 "/>
<path style=" stroke:none;fill-rule:nonzero;fill:rgb(99.607843%,98.039216%,7.058824%);fill-opacity:1;" d="M 16.671875 17.964844 C 17.035156 17.808594 17.042969 17.796875 17.042969 17.105469 C 17.042969 16.265625 17.125 14.53125 17.191406 13.964844 C 17.273438 13.230469 17.417969 12.632812 17.730469 11.699219 C 18.070312 10.691406 18.117188 10.394531 18 9.945312 C 17.957031 9.773438 17.910156 9.621094 17.902344 9.613281 C 17.890625 9.601562 17.835938 9.617188 17.78125 9.648438 C 17.671875 9.707031 17.488281 10.039062 17.382812 10.359375 C 17.347656 10.46875 17.25 10.667969 17.164062 10.800781 C 16.710938 11.511719 15.925781 11.847656 14.835938 11.789062 C 14.15625 11.757812 13.394531 11.589844 11.738281 11.113281 C 10.984375 10.894531 10.355469 10.730469 10.34375 10.746094 C 10.296875 10.789062 10.503906 11.1875 10.730469 11.496094 C 10.988281 11.84375 11.535156 12.308594 12.359375 12.890625 C 13.40625 13.621094 14.402344 14.710938 14.851562 15.609375 C 15.101562 16.109375 15.324219 17.125 15.324219 17.757812 C 15.324219 17.898438 15.34375 18.03125 15.363281 18.054688 C 15.429688 18.125 16.464844 18.054688 16.671875 17.964844 Z M 16.671875 17.964844 "/>
<path style=" stroke:none;fill-rule:nonzero;fill:url(#linear5);" d="M 15.621094 11.707031 C 16 11.648438 16.5625 11.386719 16.789062 11.167969 C 17.121094 10.847656 17.332031 10.382812 17.523438 9.578125 C 17.570312 9.382812 17.570312 9.382812 17.574219 9.542969 L 17.582031 9.703125 L 17.722656 9.597656 C 17.804688 9.539062 17.898438 9.503906 17.933594 9.515625 C 17.992188 9.539062 17.992188 9.496094 17.945312 9.265625 C 17.59375 7.566406 16.886719 6.515625 15.679688 5.90625 C 15.300781 5.714844 14.582031 5.484375 14.359375 5.484375 C 14.253906 5.484375 14.144531 5.460938 14.113281 5.429688 C 14.082031 5.398438 13.792969 5.363281 13.40625 5.351562 C 12.652344 5.320312 12.152344 5.394531 11.464844 5.640625 C 10.75 5.890625 9.6875 6.476562 9.6875 6.617188 C 9.6875 6.644531 9.667969 6.652344 9.640625 6.636719 C 9.613281 6.617188 9.402344 6.789062 9.171875 7.015625 L 8.757812 7.421875 L 8.757812 8.015625 C 8.757812 8.679688 8.839844 9.042969 9.09375 9.480469 C 9.289062 9.808594 10.132812 10.703125 10.179688 10.628906 C 10.230469 10.546875 10.453125 10.59375 11.15625 10.824219 C 11.46875 10.929688 11.84375 11.046875 11.992188 11.089844 L 12.261719 11.167969 L 12.085938 11.011719 C 11.992188 10.921875 11.554688 10.554688 11.117188 10.195312 C 10.296875 9.519531 9.671875 8.875 9.492188 8.519531 C 9.351562 8.246094 9.199219 7.625 9.203125 7.351562 C 9.207031 7.160156 9.21875 7.1875 9.269531 7.519531 C 9.351562 8.046875 9.472656 8.394531 9.675781 8.710938 C 9.851562 8.972656 10.585938 9.6875 11.140625 10.132812 C 11.664062 10.550781 12.28125 11.070312 12.3125 11.121094 C 12.328125 11.148438 12.597656 11.25 12.914062 11.34375 C 13.761719 11.605469 13.703125 11.597656 13.5625 11.433594 C 13.457031 11.3125 13.460938 11.3125 13.613281 11.453125 C 13.765625 11.589844 13.847656 11.621094 14.226562 11.679688 C 14.765625 11.765625 15.203125 11.773438 15.621094 11.707031 Z M 15.621094 11.707031 "/>
<path style=" stroke:none;fill-rule:nonzero;fill:url(#linear6);" d="M 22.9375 23.152344 L 22.929688 22.625 C 22.925781 22.148438 22.9375 22.066406 23.046875 21.828125 C 23.183594 21.539062 23.382812 21.355469 23.773438 21.140625 C 24 21.015625 24.074219 21 24.464844 21.003906 C 24.878906 21.007812 24.914062 21 25 20.886719 C 25.054688 20.820312 25.167969 20.734375 25.257812 20.695312 C 25.347656 20.660156 25.421875 20.621094 25.421875 20.609375 C 25.421875 20.546875 24.640625 20.125 24.425781 20.070312 C 22.691406 19.46875 21.507812 21.710938 21.613281 22.140625 C 21.265625 22.828125 21.066406 23.121094 20.75 23.410156 C 20.558594 23.589844 20.417969 23.6875 19.859375 24.042969 L 19.710938 24.132812 L 20.054688 24.164062 C 20.296875 24.183594 20.15625 24.195312 19.589844 24.199219 C 18.394531 24.214844 17.910156 24.34375 17.113281 24.871094 C 16.710938 25.132812 16.328125 25.453125 14.394531 27.148438 C 13.121094 28.265625 12.722656 28.5 12.015625 28.550781 C 11.828125 28.566406 11.617188 28.601562 11.550781 28.625 C 11.058594 28.820312 10.90625 30.253906 11.183594 32.109375 C 11.21875 32.351562 11.261719 32.5625 11.277344 32.578125 C 11.367188 32.667969 14.402344 32.667969 15.328125 32.8125 C 16.882812 33.050781 18.511719 33.078125 19.796875 32.6875 C 21.011719 32.320312 21.410156 32.566406 22.574219 31.730469 C 23.902344 30.773438 25.003906 29.882812 25.886719 29.054688 L 26.179688 28.78125 L 26.027344 28.589844 C 25.773438 28.269531 25.53125 27.785156 25.398438 27.320312 C 25.328125 27.082031 25.21875 26.773438 25.15625 26.636719 C 24.972656 26.253906 24.570312 25.710938 24.296875 25.480469 C 24.164062 25.367188 24.0625 25.253906 24.078125 25.234375 C 24.089844 25.210938 23.964844 25.050781 23.792969 24.878906 C 23.257812 24.273438 23.230469 24.117188 22.9375 23.152344 Z M 22.9375 23.152344 "/>
<path style=" stroke:none;fill-rule:nonzero;fill:url(#linear7);" d="M 14.457031 12.035156 L 16.289062 11.75 C 16.28125 11.90625 16.203125 11.9375 16.445312 12.300781 C 16.574219 12.488281 16.59375 12.503906 16.800781 12.722656 C 17.128906 13.074219 16.273438 16.117188 16.933594 17.652344 L 15.796875 18.015625 C 15.664062 16.910156 15.625 15.839844 14.671875 14.457031 C 14.484375 13.910156 14.171875 13.328125 14.539062 12.945312 C 14.734375 12.652344 14.769531 12.351562 14.457031 12.035156 Z M 14.457031 12.035156 "/>
</g>
</svg>
