<?xml version="1.0" encoding="UTF-8"?>
<svg xmlns="http://www.w3.org/2000/svg" xmlns:xlink="http://www.w3.org/1999/xlink" width="36pt" height="36pt" viewBox="0 0 36 36" version="1.1">
<g id="surface1">
<path style=" stroke:none;fill-rule:evenodd;fill:rgb(90.588235%,29.803922%,23.529412%);fill-opacity:1;" d="M 8.40625 2.136719 L 27.59375 2.136719 C 31.054688 2.136719 33.863281 4.945312 33.863281 8.40625 L 33.863281 27.59375 C 33.863281 31.054688 31.054688 33.863281 27.59375 33.863281 L 8.40625 33.863281 C 4.945312 33.863281 2.136719 31.054688 2.136719 27.59375 L 2.136719 8.40625 C 2.136719 4.945312 4.945312 2.136719 8.40625 2.136719 Z M 8.40625 2.136719 "/>
<path style=" stroke:none;fill-rule:nonzero;fill:rgb(100%,100%,100%);fill-opacity:1;" d="M 18 6.75 C 24.214844 6.75 29.25 11.785156 29.25 18 C 29.25 21.023438 28.03125 23.917969 25.875 26.03125 L 25.875 12.84375 C 25.875 11.960938 25.074219 11.25 24.074219 11.25 L 23.175781 11.25 C 22.175781 11.25 21.375 11.960938 21.375 12.84375 L 21.375 16.359375 L 17.273438 14.058594 L 12.449219 11.351562 C 12.332031 11.289062 12.203125 11.253906 12.066406 11.25 C 11.851562 11.246094 11.644531 11.324219 11.492188 11.472656 C 11.335938 11.617188 11.25 11.816406 11.25 12.023438 L 11.25 22.847656 C 11.25 23.125 11.402344 23.382812 11.648438 23.519531 C 11.898438 23.660156 12.203125 23.660156 12.449219 23.523438 L 17.273438 20.816406 L 21.375 18.515625 L 21.375 28.71875 C 20.285156 29.066406 19.144531 29.246094 18 29.25 C 11.785156 29.25 6.75 24.214844 6.75 18 C 6.75 11.785156 11.785156 6.75 18 6.75 Z M 18 6.75 "/>
</g>
</svg>
