<?xml version="1.0" encoding="UTF-8"?>
<svg xmlns="http://www.w3.org/2000/svg" xmlns:xlink="http://www.w3.org/1999/xlink" width="36pt" height="36pt" viewBox="0 0 36 36" version="1.1">
<g id="surface1">
<path style=" stroke:none;fill-rule:evenodd;fill:rgb(25.098039%,45.490196%,58.039216%);fill-opacity:1;" d="M 8.40625 2.136719 L 27.59375 2.136719 C 31.054688 2.136719 33.863281 4.945312 33.863281 8.40625 L 33.863281 27.59375 C 33.863281 31.054688 31.054688 33.863281 27.59375 33.863281 L 8.40625 33.863281 C 4.945312 33.863281 2.136719 31.054688 2.136719 27.59375 L 2.136719 8.40625 C 2.136719 4.945312 4.945312 2.136719 8.40625 2.136719 Z M 8.40625 2.136719 "/>
<path style=" stroke:none;fill-rule:nonzero;fill:rgb(56.862745%,76.078431%,81.568627%);fill-opacity:1;" d="M 11.25 7.875 L 11.25 10.125 L 9 10.125 L 9 22.5 L 11.25 22.5 L 11.25 24.75 L 14.625 24.75 L 14.625 27 L 11.25 27 L 11.25 28.125 L 24.75 28.125 L 24.75 27 L 21.375 27 L 21.375 24.75 L 24.75 24.75 L 24.75 22.5 L 27 22.5 L 27 10.125 L 24.75 10.125 L 24.75 7.875 Z M 11.25 7.875 "/>
<path style=" stroke:none;fill-rule:nonzero;fill:rgb(25.098039%,25.098039%,25.098039%);fill-opacity:1;" d="M 11.25 11.25 L 11.25 15.75 L 15.75 15.75 L 15.75 11.25 Z M 19.125 11.25 L 19.125 15.75 L 23.625 15.75 L 23.625 11.25 Z M 11.25 19.125 L 11.25 21.375 L 13.5 21.375 L 13.5 22.5 L 20.25 22.5 L 20.25 21.375 L 22.5 21.375 L 22.5 19.125 Z M 11.25 19.125 "/>
</g>
</svg>
