<?xml version="1.0" encoding="UTF-8"?>
<svg xmlns="http://www.w3.org/2000/svg" xmlns:xlink="http://www.w3.org/1999/xlink" width="36pt" height="36pt" viewBox="0 0 36 36" version="1.1">
<defs>
<clipPath id="clip1">
  <rect width="36" height="36"/>
</clipPath>
<g id="surface6" clip-path="url(#clip1)">
<path style=" stroke:none;fill-rule:nonzero;fill:rgb(84.705882%,84.705882%,84.705882%);fill-opacity:1;" d="M 18 12.308594 C 15.054688 12.308594 12.542969 14.058594 11.464844 16.535156 C 8.71875 16.929688 6.617188 19.199219 6.617188 21.96875 C 6.617188 25.015625 9.164062 27.488281 12.308594 27.488281 L 24.402344 27.488281 C 27.152344 27.488281 29.382812 25.324219 29.382812 22.65625 C 29.382812 20.179688 27.460938 18.148438 24.980469 17.871094 C 24.335938 14.707031 21.453125 12.308594 18 12.308594 Z M 18 12.308594 "/>
</g>
</defs>
<g id="surface1">
<path style=" stroke:none;fill-rule:evenodd;fill:rgb(40%,40%,40%);fill-opacity:1;" d="M 8.40625 2.136719 L 27.59375 2.136719 C 31.054688 2.136719 33.863281 4.945312 33.863281 8.40625 L 33.863281 27.59375 C 33.863281 31.054688 31.054688 33.863281 27.59375 33.863281 L 8.40625 33.863281 C 4.945312 33.863281 2.136719 31.054688 2.136719 27.59375 L 2.136719 8.40625 C 2.136719 4.945312 4.945312 2.136719 8.40625 2.136719 Z M 8.40625 2.136719 "/>
<path style=" stroke:none;fill-rule:nonzero;fill:rgb(99.607843%,75.294118%,2.352941%);fill-opacity:1;" d="M 14.207031 8.511719 L 11.984375 10.734375 L 8.839844 10.734375 L 8.839844 13.878906 L 6.617188 16.101562 L 8.839844 18.324219 L 8.839844 21.46875 L 11.984375 21.46875 L 14.207031 23.691406 L 16.429688 21.46875 L 19.574219 21.46875 L 19.574219 18.324219 L 21.792969 16.101562 L 19.574219 13.878906 L 19.574219 10.734375 L 16.429688 10.734375 Z M 14.207031 8.511719 "/>
<path style=" stroke:none;fill-rule:nonzero;fill:rgb(99.607843%,80.392157%,21.960784%);fill-opacity:1;" d="M 11.304688 9.089844 L 10.101562 11.992188 L 7.195312 13.199219 L 8.398438 16.101562 L 7.195312 19.003906 L 10.101562 20.210938 L 11.304688 23.113281 L 14.207031 21.910156 L 17.113281 23.113281 L 18.316406 20.210938 L 21.21875 19.003906 L 20.015625 16.101562 L 21.21875 13.199219 L 18.316406 11.992188 L 17.113281 9.089844 L 14.207031 10.292969 Z M 11.304688 9.089844 "/>
<path style=" stroke:none;fill-rule:nonzero;fill:rgb(99.607843%,85.098039%,41.568627%);fill-opacity:1;" d="M 20.46875 16.105469 C 20.46875 12.648438 17.667969 9.84375 14.207031 9.84375 C 10.75 9.84375 7.949219 12.648438 7.949219 16.105469 C 7.949219 19.5625 10.75 22.367188 14.207031 22.367188 C 17.667969 22.367188 20.46875 19.5625 20.46875 16.105469 Z M 20.46875 16.105469 "/>
<use xlink:href="#surface6"/>
</g>
</svg>
