<?xml version="1.0" encoding="UTF-8"?>
<svg xmlns="http://www.w3.org/2000/svg" xmlns:xlink="http://www.w3.org/1999/xlink" width="36pt" height="36pt" viewBox="0 0 36 36" version="1.1">
<g id="surface1">
<path style=" stroke:none;fill-rule:evenodd;fill:rgb(40%,44.705882%,64.705882%);fill-opacity:1;" d="M 8.40625 2.136719 L 27.59375 2.136719 C 31.054688 2.136719 33.863281 4.945312 33.863281 8.40625 L 33.863281 27.59375 C 33.863281 31.054688 31.054688 33.863281 27.59375 33.863281 L 8.40625 33.863281 C 4.945312 33.863281 2.136719 31.054688 2.136719 27.59375 L 2.136719 8.40625 C 2.136719 4.945312 4.945312 2.136719 8.40625 2.136719 Z M 8.40625 2.136719 "/>
<path style=" stroke:none;fill-rule:nonzero;fill:rgb(27.843137%,27.843137%,46.666667%);fill-opacity:1;" d="M 14.019531 8.628906 L 26.257812 8.628906 C 27.863281 8.628906 29.164062 9.925781 29.164062 11.53125 L 29.164062 19.234375 C 29.164062 20.839844 27.863281 22.140625 26.257812 22.140625 L 14.019531 22.140625 C 12.414062 22.140625 11.113281 20.839844 11.113281 19.234375 L 11.113281 11.53125 C 11.113281 9.925781 12.414062 8.628906 14.019531 8.628906 Z M 14.019531 8.628906 "/>
<path style=" stroke:none;fill-rule:nonzero;fill:rgb(0%,13.72549%,29.411765%);fill-opacity:1;" d="M 14.125 9.480469 L 26.152344 9.480469 C 27.367188 9.480469 28.351562 10.425781 28.351562 11.59375 L 28.351562 19.171875 C 28.351562 20.339844 27.367188 21.285156 26.152344 21.285156 L 14.125 21.285156 C 12.910156 21.285156 11.925781 20.339844 11.925781 19.171875 L 11.925781 11.59375 C 11.925781 10.425781 12.910156 9.480469 14.125 9.480469 Z M 14.125 9.480469 "/>
<path style=" stroke:none;fill-rule:nonzero;fill:rgb(29.411765%,29.803922%,49.019608%);fill-opacity:1;" d="M 9.742188 13.859375 L 21.980469 13.859375 C 23.585938 13.859375 24.886719 15.160156 24.886719 16.765625 L 24.886719 24.46875 C 24.886719 26.074219 23.585938 27.371094 21.980469 27.371094 L 9.742188 27.371094 C 8.136719 27.371094 6.835938 26.074219 6.835938 24.46875 L 6.835938 16.765625 C 6.835938 15.160156 8.136719 13.859375 9.742188 13.859375 Z M 9.742188 13.859375 "/>
<path style=" stroke:none;fill-rule:nonzero;fill:rgb(0%,13.72549%,29.411765%);fill-opacity:1;" d="M 9.847656 14.714844 L 21.875 14.714844 C 23.089844 14.714844 24.074219 15.660156 24.074219 16.828125 L 24.074219 24.40625 C 24.074219 25.574219 23.089844 26.519531 21.875 26.519531 L 9.847656 26.519531 C 8.632812 26.519531 7.648438 25.574219 7.648438 24.40625 L 7.648438 16.828125 C 7.648438 15.660156 8.632812 14.714844 9.847656 14.714844 Z M 9.847656 14.714844 "/>
</g>
</svg>
