<?xml version="1.0" encoding="UTF-8"?>
<svg xmlns="http://www.w3.org/2000/svg" xmlns:xlink="http://www.w3.org/1999/xlink" width="36pt" height="36pt" viewBox="0 0 36 36" version="1.1">
<g id="surface1">
<path style=" stroke:none;fill-rule:evenodd;fill:rgb(31.372549%,73.72549%,20.392157%);fill-opacity:1;" d="M 8.40625 2.136719 L 27.59375 2.136719 C 31.054688 2.136719 33.863281 4.945312 33.863281 8.40625 L 33.863281 27.59375 C 33.863281 31.054688 31.054688 33.863281 27.59375 33.863281 L 8.40625 33.863281 C 4.945312 33.863281 2.136719 31.054688 2.136719 27.59375 L 2.136719 8.40625 C 2.136719 4.945312 4.945312 2.136719 8.40625 2.136719 Z M 8.40625 2.136719 "/>
<path style=" stroke:none;fill-rule:nonzero;fill:rgb(100%,100%,100%);fill-opacity:1;" d="M 14.410156 6.78125 C 14.410156 6.78125 12.691406 6.75 10.855469 7.515625 C 9.019531 8.28125 6.78125 10.371094 6.78125 13.511719 C 6.78125 16.652344 9.019531 18.746094 10.855469 19.511719 C 12.691406 20.277344 14.410156 20.242188 14.410156 20.242188 L 21.589844 20.242188 C 21.589844 20.242188 22.5625 20.277344 23.417969 20.632812 C 24.277344 20.988281 24.730469 21.140625 24.730469 22.488281 C 24.730469 23.832031 24.277344 23.984375 23.417969 24.339844 C 22.5625 24.699219 21.589844 24.730469 21.589844 24.730469 L 9.027344 24.730469 C 8.214844 24.71875 7.464844 25.144531 7.054688 25.84375 C 6.648438 26.542969 6.648438 27.40625 7.054688 28.105469 C 7.464844 28.804688 8.214844 29.230469 9.027344 29.21875 L 21.589844 29.21875 C 21.589844 29.21875 23.308594 29.25 25.144531 28.484375 C 26.980469 27.71875 29.21875 25.628906 29.21875 22.488281 C 29.21875 19.347656 26.980469 17.253906 25.144531 16.488281 C 23.308594 15.722656 21.589844 15.757812 21.589844 15.757812 L 14.410156 15.757812 C 14.410156 15.757812 13.4375 15.722656 12.582031 15.367188 C 11.722656 15.011719 11.269531 14.859375 11.269531 13.511719 C 11.269531 12.167969 11.722656 12.015625 12.582031 11.660156 C 13.4375 11.300781 14.410156 11.269531 14.410156 11.269531 L 26.972656 11.269531 C 27.785156 11.28125 28.535156 10.855469 28.945312 10.15625 C 29.351562 9.457031 29.351562 8.59375 28.945312 7.894531 C 28.535156 7.195312 27.785156 6.769531 26.972656 6.78125 Z M 14.410156 6.78125 "/>
</g>
</svg>
