<?xml version="1.0" encoding="UTF-8"?>
<svg xmlns="http://www.w3.org/2000/svg" xmlns:xlink="http://www.w3.org/1999/xlink" width="36pt" height="36pt" viewBox="0 0 36 36" version="1.1">
<g id="surface1">
<path style=" stroke:none;fill-rule:evenodd;fill:rgb(23.529412%,54.901961%,97.254902%);fill-opacity:1;" d="M 8.40625 2.136719 L 27.59375 2.136719 C 31.054688 2.136719 33.863281 4.945312 33.863281 8.40625 L 33.863281 27.59375 C 33.863281 31.054688 31.054688 33.863281 27.59375 33.863281 L 8.40625 33.863281 C 4.945312 33.863281 2.136719 31.054688 2.136719 27.59375 L 2.136719 8.40625 C 2.136719 4.945312 4.945312 2.136719 8.40625 2.136719 Z M 8.40625 2.136719 "/>
<path style=" stroke:none;fill-rule:nonzero;fill:rgb(100%,100%,100%);fill-opacity:1;" d="M 8.96875 6.734375 C 7.726562 6.753906 6.734375 7.773438 6.75 9.019531 L 6.75 27.011719 C 6.75 27.910156 7.28125 28.722656 8.105469 29.078125 C 8.929688 29.4375 9.886719 29.273438 10.542969 28.660156 L 18 21.699219 L 25.460938 28.660156 C 26.117188 29.269531 27.074219 29.433594 27.894531 29.078125 C 28.71875 28.71875 29.25 27.910156 29.25 27.011719 L 29.25 9.019531 C 29.261719 8.207031 28.835938 7.449219 28.132812 7.039062 C 27.429688 6.632812 26.5625 6.632812 25.859375 7.039062 C 25.160156 7.449219 24.730469 8.207031 24.742188 9.019531 L 24.742188 21.828125 L 19.535156 16.96875 C 18.671875 16.160156 17.328125 16.160156 16.464844 16.96875 L 11.257812 21.828125 L 11.257812 9.019531 C 11.265625 8.410156 11.027344 7.824219 10.597656 7.394531 C 10.164062 6.960938 9.578125 6.726562 8.96875 6.734375 Z M 8.96875 6.734375 "/>
</g>
</svg>
