<?xml version="1.0" encoding="UTF-8"?>
<svg xmlns="http://www.w3.org/2000/svg" xmlns:xlink="http://www.w3.org/1999/xlink" width="24pt" height="24pt" viewBox="0 0 24 24" version="1.1">
<g id="surface1">
<path style=" stroke:none;fill-rule:evenodd;fill:rgb(25.490196%,64.705882%,78.039216%);fill-opacity:1;" d="M 5.605469 1.421875 L 18.394531 1.421875 C 20.703125 1.421875 22.578125 3.296875 22.578125 5.605469 L 22.578125 18.394531 C 22.578125 20.703125 20.703125 22.578125 18.394531 22.578125 L 5.605469 22.578125 C 3.296875 22.578125 1.421875 20.703125 1.421875 18.394531 L 1.421875 5.605469 C 1.421875 3.296875 3.296875 1.421875 5.605469 1.421875 Z M 5.605469 1.421875 "/>
<path style=" stroke:none;fill-rule:nonzero;fill:rgb(100%,100%,100%);fill-opacity:1;" d="M 12.207031 8.609375 C 10.445312 8.609375 9.019531 10.035156 9.019531 11.796875 C 9.019531 13.558594 10.445312 14.988281 12.207031 14.988281 C 13.96875 14.988281 15.398438 13.558594 15.398438 11.796875 C 15.398438 10.035156 13.96875 8.609375 12.207031 8.609375 Z M 12.207031 9.882812 C 13.265625 9.882812 14.121094 10.742188 14.121094 11.796875 C 14.121094 12.855469 13.265625 13.710938 12.207031 13.710938 C 11.152344 13.710938 10.292969 12.855469 10.292969 11.796875 C 10.292969 10.742188 11.152344 9.882812 12.207031 9.882812 Z M 12.207031 9.882812 "/>
<path style=" stroke:none;fill-rule:nonzero;fill:rgb(100%,100%,100%);fill-opacity:1;" d="M 4.554688 11.160156 C 4.203125 11.160156 3.917969 11.445312 3.917969 11.796875 C 3.871094 13.480469 3.976562 15.253906 3.917969 16.898438 C 3.917969 18.660156 5.34375 20.089844 7.105469 20.089844 C 8.867188 20.089844 10.292969 18.660156 10.292969 16.898438 C 10.292969 15.140625 8.867188 13.710938 7.105469 13.710938 C 6.414062 13.710938 5.742188 13.9375 5.191406 14.355469 L 5.191406 11.796875 C 5.191406 11.445312 4.910156 11.160156 4.554688 11.160156 Z M 7.105469 14.988281 C 8.164062 14.988281 9.019531 15.84375 9.019531 16.898438 C 9.019531 17.957031 8.164062 18.8125 7.105469 18.8125 C 6.050781 18.8125 5.191406 17.957031 5.191406 16.898438 C 5.191406 15.84375 6.050781 14.988281 7.105469 14.988281 Z M 7.105469 14.988281 "/>
<path style=" stroke:none;fill-rule:nonzero;fill:rgb(100%,100%,100%);fill-opacity:1;" d="M 15.398438 3.910156 C 15.234375 3.910156 15.070312 3.972656 14.945312 4.097656 C 14.695312 4.347656 14.695312 4.75 14.945312 5 L 16.523438 6.578125 L 14.945312 8.15625 C 14.695312 8.40625 14.695312 8.808594 14.945312 9.058594 C 15.195312 9.308594 15.597656 9.308594 15.847656 9.058594 L 17.425781 7.480469 L 19.003906 9.058594 C 19.253906 9.308594 19.65625 9.308594 19.90625 9.058594 C 20.15625 8.808594 20.15625 8.40625 19.90625 8.15625 L 18.328125 6.578125 L 19.90625 5 C 20.15625 4.75 20.15625 4.347656 19.90625 4.097656 C 19.65625 3.847656 19.253906 3.847656 19.003906 4.097656 L 17.425781 5.675781 L 15.847656 4.097656 C 15.722656 3.972656 15.558594 3.910156 15.398438 3.910156 Z M 15.398438 3.910156 "/>
</g>
</svg>
