<?xml version="1.0" encoding="UTF-8"?>
<svg xmlns="http://www.w3.org/2000/svg" xmlns:xlink="http://www.w3.org/1999/xlink" width="24pt" height="24pt" viewBox="0 0 24 24" version="1.1">
<g id="surface1">
<path style=" stroke:none;fill-rule:evenodd;fill:rgb(96.862745%,43.529412%,19.215686%);fill-opacity:1;" d="M 5.605469 1.421875 L 18.394531 1.421875 C 20.703125 1.421875 22.578125 3.296875 22.578125 5.605469 L 22.578125 18.394531 C 22.578125 20.703125 20.703125 22.578125 18.394531 22.578125 L 5.605469 22.578125 C 3.296875 22.578125 1.421875 20.703125 1.421875 18.394531 L 1.421875 5.605469 C 1.421875 3.296875 3.296875 1.421875 5.605469 1.421875 Z M 5.605469 1.421875 "/>
<path style=" stroke:none;fill-rule:nonzero;fill:rgb(100%,100%,100%);fill-opacity:1;" d="M 12.859375 18.183594 C 13.53125 17.617188 13.71875 17.410156 14.550781 16.820312 C 15.015625 16.484375 15.089844 16.402344 15.015625 16.28125 C 14.953125 16.1875 13.519531 15.523438 12.800781 15.234375 C 12.042969 14.933594 11.960938 14.933594 11.226562 15.230469 C 10.566406 15.496094 9.15625 16.152344 9.03125 16.273438 C 8.90625 16.394531 8.96875 16.507812 9.292969 16.726562 C 9.960938 17.179688 10.5625 17.691406 11.164062 18.203125 C 12.035156 18.941406 11.96875 18.941406 12.859375 18.183594 Z M 9.363281 15.382812 C 10.269531 14.957031 10.402344 14.871094 11.09375 14.257812 C 11.675781 13.746094 11.785156 13.59375 11.703125 13.398438 C 11.671875 13.332031 11.234375 12.933594 10.730469 12.507812 C 9.535156 11.503906 9.585938 11.644531 10.039062 10.554688 C 10.308594 9.90625 10.378906 9.6875 10.378906 9.507812 C 10.378906 9.238281 10.277344 9.035156 10.074219 8.894531 C 9.992188 8.835938 9.269531 8.546875 8.46875 8.25 C 7.667969 7.949219 7.015625 7.6875 7.023438 7.664062 C 7.035156 7.609375 7.917969 7.511719 8.558594 7.496094 L 9.042969 7.484375 L 9.9375 7.796875 C 10.714844 8.066406 10.835938 8.121094 10.894531 8.230469 C 10.929688 8.300781 10.960938 8.394531 10.960938 8.4375 C 10.960938 8.484375 10.816406 9.125 10.640625 9.867188 C 10.332031 11.167969 10.324219 11.21875 10.402344 11.300781 C 10.53125 11.425781 11.773438 11.65625 12.164062 11.628906 C 12.605469 11.59375 13.511719 11.382812 13.601562 11.292969 C 13.675781 11.222656 13.664062 11.136719 13.363281 9.867188 C 13.1875 9.125 13.042969 8.484375 13.039062 8.4375 C 13.039062 8.394531 13.070312 8.300781 13.105469 8.230469 C 13.164062 8.121094 13.28125 8.066406 13.972656 7.824219 C 15.089844 7.4375 15.066406 7.4375 16.082031 7.527344 C 16.554688 7.570312 16.960938 7.621094 16.984375 7.644531 C 17.011719 7.667969 16.980469 7.703125 16.917969 7.726562 C 16.855469 7.75 16.203125 7.992188 15.464844 8.269531 C 14.726562 8.542969 14.046875 8.820312 13.953125 8.878906 C 13.730469 9.023438 13.625 9.226562 13.621094 9.507812 C 13.621094 9.6875 13.691406 9.902344 13.953125 10.527344 C 14.136719 10.964844 14.289062 11.363281 14.289062 11.414062 C 14.289062 11.617188 14.136719 11.78125 13.292969 12.484375 C 12.8125 12.890625 12.382812 13.28125 12.339844 13.351562 C 12.300781 13.425781 12.277344 13.539062 12.289062 13.601562 C 12.3125 13.707031 12.890625 14.265625 13.480469 14.746094 C 13.726562 14.945312 15.226562 15.683594 15.464844 15.722656 C 15.667969 15.753906 15.882812 15.652344 16.234375 15.363281 C 16.578125 15.078125 16.785156 14.792969 16.921875 14.40625 C 17.054688 14.042969 17.023438 13.796875 16.761719 13.210938 C 16.566406 12.761719 16.511719 12.511719 16.578125 12.34375 C 16.59375 12.308594 17.128906 11.800781 17.769531 11.222656 C 19.160156 9.964844 19.382812 9.738281 19.460938 9.511719 C 19.542969 9.261719 19.484375 8.933594 19.292969 8.601562 C 18.839844 7.8125 17.03125 5.246094 16.871094 5.246094 C 16.042969 5.378906 15.378906 5.75 14.507812 5.890625 C 14.441406 5.890625 14.148438 5.816406 13.863281 5.730469 C 12.636719 5.359375 12.238281 5.257812 12 5.257812 C 11.761719 5.257812 11.363281 5.359375 10.136719 5.730469 C 9.851562 5.816406 9.558594 5.890625 9.484375 5.890625 C 8.628906 5.761719 7.9375 5.382812 7.046875 5.273438 C 6.910156 5.367188 5.734375 7.101562 5.226562 7.835938 C 4.628906 8.699219 4.566406 8.808594 4.519531 9.136719 C 4.453125 9.597656 4.515625 9.675781 6.300781 11.289062 C 6.902344 11.832031 7.40625 12.308594 7.421875 12.347656 C 7.488281 12.515625 7.4375 12.773438 7.242188 13.222656 C 6.972656 13.839844 6.949219 14.011719 7.078125 14.382812 C 7.21875 14.789062 7.457031 15.117188 7.816406 15.398438 C 8.152344 15.664062 8.28125 15.726562 8.480469 15.730469 C 8.550781 15.734375 8.949219 15.574219 9.363281 15.382812 Z M 9.363281 15.382812 "/>
</g>
</svg>
