<?xml version="1.0" encoding="UTF-8"?>
<svg xmlns="http://www.w3.org/2000/svg" xmlns:xlink="http://www.w3.org/1999/xlink" width="24pt" height="24pt" viewBox="0 0 24 24" version="1.1">
<g id="surface1">
<path style=" stroke:none;fill-rule:evenodd;fill:rgb(30.980392%,30.980392%,30.980392%);fill-opacity:1;" d="M 5.605469 1.421875 L 18.394531 1.421875 C 20.703125 1.421875 22.578125 3.296875 22.578125 5.605469 L 22.578125 18.394531 C 22.578125 20.703125 20.703125 22.578125 18.394531 22.578125 L 5.605469 22.578125 C 3.296875 22.578125 1.421875 20.703125 1.421875 18.394531 L 1.421875 5.605469 C 1.421875 3.296875 3.296875 1.421875 5.605469 1.421875 Z M 5.605469 1.421875 "/>
<path style=" stroke:none;fill-rule:nonzero;fill:rgb(36.078431%,81.960784%,100%);fill-opacity:1;" d="M 11.925781 4.5 C 11.386719 4.5 10.847656 4.558594 10.320312 4.675781 C 8.421875 5.097656 6.78125 6.257812 5.609375 8.011719 C 5.109375 8.753906 4.65625 9.789062 4.65625 10.1875 C 4.65625 10.527344 5.050781 10.699219 5.3125 10.480469 C 5.375 10.429688 5.4375 10.332031 5.449219 10.269531 C 5.582031 9.65625 6.054688 8.734375 6.601562 8.015625 C 7.054688 7.417969 7.890625 6.664062 8.535156 6.269531 C 10.546875 5.035156 13.296875 5.007812 15.320312 6.207031 C 16.589844 6.957031 17.628906 8.207031 18.234375 9.710938 C 18.367188 10.035156 18.585938 10.753906 18.585938 10.863281 C 18.585938 10.894531 18.390625 10.726562 18.152344 10.492188 C 17.636719 9.984375 17.585938 9.945312 17.382812 9.945312 C 17.160156 9.945312 17.003906 10.089844 16.976562 10.320312 C 16.96875 10.414062 16.972656 10.515625 16.992188 10.546875 C 17.03125 10.613281 18.671875 12.273438 18.800781 12.378906 C 18.929688 12.480469 19.175781 12.46875 19.3125 12.355469 C 19.492188 12.203125 19.515625 12.09375 19.492188 11.554688 C 19.398438 9.53125 18.132812 7.242188 16.390625 5.933594 C 15.140625 4.996094 13.539062 4.496094 11.925781 4.5 Z M 4.5 11.898438 L 4.523438 12.421875 C 4.558594 13.3125 4.8125 14.226562 5.28125 15.183594 C 6.226562 17.117188 7.777344 18.515625 9.65625 19.132812 C 10.203125 19.3125 10.601562 19.394531 11.328125 19.480469 C 11.640625 19.519531 12.636719 19.5 13.023438 19.449219 C 15.230469 19.164062 17.175781 17.890625 18.46875 15.890625 C 18.886719 15.246094 19.292969 14.308594 19.34375 13.878906 C 19.363281 13.710938 19.359375 13.691406 19.238281 13.570312 C 19.128906 13.460938 19.082031 13.4375 18.945312 13.441406 C 18.695312 13.441406 18.636719 13.515625 18.46875 14.007812 C 17.90625 15.703125 16.539062 17.257812 14.925781 18.039062 C 13.617188 18.671875 12.125 18.847656 10.628906 18.546875 C 8.929688 18.203125 7.460938 17.171875 6.449219 15.609375 C 6.066406 15.019531 5.671875 14.136719 5.523438 13.550781 C 5.488281 13.417969 5.453125 13.277344 5.441406 13.238281 C 5.429688 13.195312 5.644531 13.382812 5.921875 13.65625 L 6.417969 14.148438 L 6.605469 14.128906 C 6.863281 14.105469 6.976562 13.992188 7 13.734375 L 7.019531 13.542969 L 6.066406 12.589844 L 5.117188 11.636719 C 5.117188 11.636719 4.933594 11.515625 4.710938 11.617188 C 4.488281 11.714844 4.5 11.898438 4.5 11.898438 Z M 4.5 11.898438 "/>
</g>
</svg>
