<?xml version="1.0" encoding="UTF-8"?>
<svg xmlns="http://www.w3.org/2000/svg" xmlns:xlink="http://www.w3.org/1999/xlink" width="24pt" height="24pt" viewBox="0 0 24 24" version="1.1">
<g id="surface1">
<path style=" stroke:none;fill-rule:evenodd;fill:rgb(100%,92.54902%,67.45098%);fill-opacity:1;" d="M 5.605469 1.421875 L 18.394531 1.421875 C 20.703125 1.421875 22.578125 3.296875 22.578125 5.605469 L 22.578125 18.394531 C 22.578125 20.703125 20.703125 22.578125 18.394531 22.578125 L 5.605469 22.578125 C 3.296875 22.578125 1.421875 20.703125 1.421875 18.394531 L 1.421875 5.605469 C 1.421875 3.296875 3.296875 1.421875 5.605469 1.421875 Z M 5.605469 1.421875 "/>
<path style=" stroke:none;fill-rule:nonzero;fill:rgb(59.215686%,35.294118%,20.392157%);fill-opacity:1;" d="M 11.34375 4.269531 C 11.386719 4.242188 11.953125 4.605469 12.535156 5.035156 C 13.386719 5.660156 13.929688 6.214844 14.40625 6.949219 C 14.523438 7.132812 14.621094 7.320312 14.707031 7.511719 C 14.757812 7.589844 14.804688 7.671875 14.851562 7.753906 C 15.773438 9.492188 15.273438 11.683594 13.734375 12.648438 C 12.191406 13.617188 10.199219 12.992188 9.277344 11.253906 C 9.234375 11.175781 9.191406 11.09375 9.15625 11.011719 C 9.113281 10.933594 9.0625 10.855469 9.023438 10.777344 C 8.503906 9.667969 8.609375 8.484375 9.183594 7.472656 C 9.488281 6.941406 10.101562 6.394531 10.539062 6.117188 C 11.089844 5.769531 11.273438 5.070312 11.308594 4.460938 C 11.316406 4.363281 11.332031 4.277344 11.34375 4.269531 Z M 11.34375 4.269531 "/>
<path style=" stroke:none;fill-rule:nonzero;fill:rgb(94.509804%,71.372549%,36.078431%);fill-opacity:1;" d="M 9.289062 9.789062 C 9.101562 9.789062 8.925781 9.886719 8.8125 10.050781 C 8.695312 10.214844 8.660156 10.425781 8.707031 10.625 L 10.816406 19.242188 C 10.886719 19.53125 11.125 19.730469 11.398438 19.730469 L 12.601562 19.730469 C 12.875 19.730469 13.113281 19.53125 13.183594 19.242188 L 15.292969 10.625 C 15.339844 10.425781 15.304688 10.214844 15.1875 10.050781 C 15.074219 9.886719 14.898438 9.789062 14.710938 9.789062 Z M 9.289062 9.789062 "/>
<path style=" stroke:none;fill-rule:nonzero;fill:rgb(100%,81.176471%,53.333333%);fill-opacity:1;" d="M 7.984375 9.238281 L 16.015625 9.238281 C 16.238281 9.238281 16.417969 9.484375 16.417969 9.789062 C 16.417969 10.097656 16.238281 10.34375 16.015625 10.34375 L 7.984375 10.34375 C 7.761719 10.34375 7.582031 10.097656 7.582031 9.789062 C 7.582031 9.484375 7.761719 9.238281 7.984375 9.238281 Z M 7.984375 9.238281 "/>
</g>
</svg>
