<?xml version="1.0" encoding="UTF-8"?>
<svg xmlns="http://www.w3.org/2000/svg" xmlns:xlink="http://www.w3.org/1999/xlink" width="24pt" height="24pt" viewBox="0 0 24 24" version="1.1">
<g id="surface1">
<path style=" stroke:none;fill-rule:evenodd;fill:rgb(90.196078%,90.196078%,90.196078%);fill-opacity:1;" d="M 5.605469 1.421875 L 18.394531 1.421875 C 20.703125 1.421875 22.578125 3.296875 22.578125 5.605469 L 22.578125 18.394531 C 22.578125 20.703125 20.703125 22.578125 18.394531 22.578125 L 5.605469 22.578125 C 3.296875 22.578125 1.421875 20.703125 1.421875 18.394531 L 1.421875 5.605469 C 1.421875 3.296875 3.296875 1.421875 5.605469 1.421875 Z M 5.605469 1.421875 "/>
<path style=" stroke:none;fill-rule:nonzero;fill:rgb(87.843137%,23.529412%,23.137255%);fill-opacity:1;" d="M 17.566406 4.09375 C 17.351562 5.402344 16.710938 6.59375 15.742188 7.476562 C 14.671875 6.765625 13.386719 6.351562 12 6.351562 C 10.613281 6.351562 9.328125 6.765625 8.257812 7.476562 C 7.296875 6.605469 6.652344 5.425781 6.433594 4.128906 C 6.382812 4.441406 6.355469 4.757812 6.351562 5.078125 C 6.351562 6.207031 6.675781 7.316406 7.285156 8.257812 C 6.015625 9.488281 5.222656 11.210938 5.222656 13.128906 C 5.222656 16.882812 8.246094 19.90625 12 19.90625 C 15.753906 19.90625 18.777344 16.882812 18.777344 13.128906 C 18.777344 11.210938 17.988281 9.492188 16.714844 8.261719 C 17.324219 7.316406 17.648438 6.207031 17.648438 5.078125 C 17.648438 4.746094 17.621094 4.417969 17.566406 4.09375 Z M 17.566406 4.09375 "/>
<path style=" stroke:none;fill-rule:nonzero;fill:rgb(100%,100%,100%);fill-opacity:1;" d="M 11.433594 14.824219 C 10.765625 15.90625 9.285156 16.273438 8.128906 15.652344 C 6.96875 15.027344 6.574219 13.644531 7.242188 12.566406 Z M 11.433594 14.824219 "/>
<path style=" stroke:none;fill-rule:nonzero;fill:rgb(17.254902%,17.254902%,17.254902%);fill-opacity:1;" d="M 9.117188 13.574219 C 9.019531 14.238281 9.214844 15.035156 9.722656 15.914062 C 9.722656 15.914062 9.722656 15.914062 9.726562 15.914062 C 9.453125 15.285156 9.492188 14.574219 9.742188 13.910156 Z M 9.117188 13.574219 "/>
<path style=" stroke:none;fill-rule:nonzero;fill:rgb(100%,100%,100%);fill-opacity:1;" d="M 12.566406 14.824219 C 13.234375 15.90625 14.714844 16.273438 15.871094 15.652344 C 17.03125 15.027344 17.425781 13.644531 16.757812 12.566406 Z M 12.566406 14.824219 "/>
<path style=" stroke:none;fill-rule:nonzero;fill:rgb(17.254902%,17.254902%,17.254902%);fill-opacity:1;" d="M 14.882812 13.574219 L 14.257812 13.910156 C 14.507812 14.574219 14.546875 15.285156 14.273438 15.914062 C 14.277344 15.914062 14.277344 15.914062 14.277344 15.914062 C 14.785156 15.035156 14.980469 14.238281 14.882812 13.574219 Z M 14.882812 13.574219 "/>
</g>
</svg>
