<?xml version="1.0" encoding="UTF-8"?>
<svg xmlns="http://www.w3.org/2000/svg" xmlns:xlink="http://www.w3.org/1999/xlink" width="24pt" height="24pt" viewBox="0 0 24 24" version="1.1">
<g id="surface1">
<path style=" stroke:none;fill-rule:evenodd;fill:rgb(38.431373%,58.823529%,100%);fill-opacity:1;" d="M 5.605469 1.421875 L 18.394531 1.421875 C 20.703125 1.421875 22.578125 3.296875 22.578125 5.605469 L 22.578125 18.394531 C 22.578125 20.703125 20.703125 22.578125 18.394531 22.578125 L 5.605469 22.578125 C 3.296875 22.578125 1.421875 20.703125 1.421875 18.394531 L 1.421875 5.605469 C 1.421875 3.296875 3.296875 1.421875 5.605469 1.421875 Z M 5.605469 1.421875 "/>
<path style=" stroke:none;fill-rule:nonzero;fill:rgb(90.196078%,90.196078%,90.196078%);fill-opacity:1;" d="M 14.597656 8.140625 C 13.90625 7.449219 12.847656 7.394531 12.222656 8.015625 L 7.164062 13.074219 C 6.746094 13.492188 6.425781 13.820312 6.601562 14.386719 L 4.726562 16.261719 C 4.105469 16.882812 4.410156 18.191406 5.101562 18.886719 C 5.796875 19.578125 7.105469 19.882812 7.726562 19.261719 L 9.601562 17.386719 C 10.167969 17.5625 10.496094 17.242188 10.914062 16.824219 L 15.972656 11.761719 C 16.59375 11.140625 16.539062 10.082031 15.847656 9.390625 Z M 14.597656 8.140625 "/>
<path style=" stroke:none;fill-rule:nonzero;fill:rgb(100%,73.72549%,28.235294%);fill-opacity:1;" d="M 18.347656 5.164062 L 18.847656 5.664062 C 19.949219 6.769531 19.839844 8.671875 18.597656 9.914062 L 16.347656 12.160156 C 15.105469 13.402344 13.203125 13.515625 12.101562 12.410156 L 11.601562 11.910156 C 10.496094 10.808594 10.609375 8.90625 11.851562 7.664062 L 14.097656 5.414062 C 15.339844 4.171875 17.242188 4.0625 18.347656 5.164062 Z M 18.347656 5.164062 "/>
<path style=" stroke:none;fill-rule:nonzero;fill:rgb(100%,73.72549%,28.235294%);fill-opacity:1;" d="M 10.632812 7.195312 L 16.816406 13.378906 C 16.972656 13.535156 16.957031 13.800781 16.785156 13.972656 L 15.535156 15.222656 C 15.363281 15.394531 15.097656 15.410156 14.941406 15.253906 L 8.757812 9.070312 C 8.601562 8.914062 8.617188 8.648438 8.789062 8.476562 L 10.039062 7.226562 C 10.210938 7.054688 10.476562 7.039062 10.632812 7.195312 Z M 10.632812 7.195312 "/>
<path style=" stroke:none;fill-rule:nonzero;fill:rgb(38.431373%,58.823529%,100%);fill-opacity:1;" d="M 10.351562 13.660156 C 10.765625 14.074219 10.847656 14.664062 10.539062 14.972656 L 7.164062 18.347656 C 6.855469 18.65625 6.265625 18.574219 5.851562 18.160156 C 5.4375 17.746094 5.355469 17.15625 5.664062 16.847656 L 9.039062 13.472656 C 9.347656 13.164062 9.9375 13.246094 10.351562 13.660156 Z M 10.351562 13.660156 "/>
</g>
</svg>
