<?xml version="1.0" encoding="UTF-8"?>
<svg xmlns="http://www.w3.org/2000/svg" xmlns:xlink="http://www.w3.org/1999/xlink" width="24pt" height="24pt" viewBox="0 0 24 24" version="1.1">
<g id="surface1">
<path style=" stroke:none;fill-rule:evenodd;fill:rgb(23.137255%,50.196078%,68.235294%);fill-opacity:1;" d="M 5.605469 1.421875 L 18.394531 1.421875 C 20.703125 1.421875 22.578125 3.296875 22.578125 5.605469 L 22.578125 18.394531 C 22.578125 20.703125 20.703125 22.578125 18.394531 22.578125 L 5.605469 22.578125 C 3.296875 22.578125 1.421875 20.703125 1.421875 18.394531 L 1.421875 5.605469 C 1.421875 3.296875 3.296875 1.421875 5.605469 1.421875 Z M 5.605469 1.421875 "/>
<path style=" stroke:none;fill-rule:nonzero;fill:rgb(78.823529%,81.568627%,100%);fill-opacity:1;" d="M 5.722656 5.625 C 5.253906 5.625 4.875 6.035156 4.875 6.546875 L 4.875 9.957031 C 4.875 10.464844 5.253906 10.875 5.722656 10.875 L 9.253906 10.875 L 11.300781 14.625 L 10.761719 14.625 C 10.410156 14.625 10.125 14.917969 10.125 15.28125 L 10.125 17.71875 C 10.125 18.082031 10.410156 18.375 10.761719 18.375 L 13.988281 18.375 C 14.339844 18.375 14.625 18.082031 14.625 17.71875 L 14.625 15.28125 C 14.625 15.113281 14.558594 14.960938 14.457031 14.847656 L 15.75 13.125 L 18.382812 13.125 C 18.792969 13.125 19.125 12.773438 19.125 12.335938 L 19.125 9.414062 C 19.125 8.976562 18.792969 8.625 18.382812 8.625 L 14.617188 8.625 C 14.253906 8.625 13.964844 8.90625 13.902344 9.277344 L 10.875 8.519531 L 10.875 6.546875 C 10.875 6.035156 10.496094 5.625 10.027344 5.625 Z M 10.875 9.292969 L 13.875 10.042969 L 13.875 12.335938 C 13.875 12.773438 14.207031 13.125 14.617188 13.125 L 14.8125 13.125 L 13.6875 14.625 L 12.15625 14.625 L 10.105469 10.867188 C 10.539062 10.824219 10.875 10.4375 10.875 9.957031 Z M 10.875 9.292969 "/>
</g>
</svg>
