<?xml version="1.0" encoding="UTF-8"?>
<svg xmlns="http://www.w3.org/2000/svg" xmlns:xlink="http://www.w3.org/1999/xlink" width="24pt" height="24pt" viewBox="0 0 24 24" version="1.1">
<defs>
<clipPath id="clip1">
  <rect width="24" height="24"/>
</clipPath>
<g id="surface6" clip-path="url(#clip1)">
<path style=" stroke:none;fill-rule:nonzero;fill:rgb(83.921569%,20.784314%,18.431373%);fill-opacity:1;" d="M 8.625 8.25 C 7.382812 8.25 6.375 9.257812 6.375 10.5 C 6.375 11.742188 7.382812 12.75 8.625 12.75 C 9.867188 12.75 10.875 11.742188 10.875 10.5 L 8.625 10.5 Z M 12.375 8.25 L 12.375 9.75 L 17.625 9.75 L 17.625 8.25 Z M 12.375 11.25 L 12.375 12.75 L 17.625 12.75 L 17.625 11.25 Z M 6.375 14.25 L 6.375 15.75 L 15.375 15.75 L 15.375 14.25 Z M 6.375 14.25 "/>
</g>
</defs>
<g id="surface1">
<path style=" stroke:none;fill-rule:evenodd;fill:rgb(96.078431%,51.764706%,20.784314%);fill-opacity:1;" d="M 5.605469 1.421875 L 18.394531 1.421875 C 20.703125 1.421875 22.578125 3.296875 22.578125 5.605469 L 22.578125 18.394531 C 22.578125 20.703125 20.703125 22.578125 18.394531 22.578125 L 5.605469 22.578125 C 3.296875 22.578125 1.421875 20.703125 1.421875 18.394531 L 1.421875 5.605469 C 1.421875 3.296875 3.296875 1.421875 5.605469 1.421875 Z M 5.605469 1.421875 "/>
<use xlink:href="#surface6"/>
</g>
</svg>
