<?xml version="1.0" encoding="UTF-8"?>
<svg xmlns="http://www.w3.org/2000/svg" xmlns:xlink="http://www.w3.org/1999/xlink" width="24pt" height="24pt" viewBox="0 0 24 24" version="1.1">
<defs>
<filter id="alpha" filterUnits="objectBoundingBox" x="0%" y="0%" width="100%" height="100%">
  <feColorMatrix type="matrix" in="SourceGraphic" values="0 0 0 0 1 0 0 0 0 1 0 0 0 0 1 0 0 0 1 0"/>
</filter>
<mask id="mask0">
  <g filter="url(#alpha)">
<rect x="0" y="0" width="24" height="24" style="fill:rgb(0%,0%,0%);fill-opacity:0.101961;stroke:none;"/>
  </g>
</mask>
<clipPath id="clip1">
  <rect width="24" height="24"/>
</clipPath>
<g id="surface6" clip-path="url(#clip1)">
<path style=" stroke:none;fill-rule:nonzero;fill:rgb(100%,100%,100%);fill-opacity:1;" d="M 16.027344 7.972656 L 16.027344 8.644531 L 17.535156 8.644531 C 18.929688 8.644531 20.050781 10.214844 20.050781 12.167969 L 20.050781 11.496094 C 20.050781 9.546875 18.929688 7.972656 17.535156 7.972656 Z M 16.027344 9.988281 C 16.027344 11.101562 15.128906 12 14.011719 12 L 9.988281 12 C 9.988281 12 7.972656 12 7.972656 14.011719 L 7.972656 14.683594 C 7.972656 12.671875 9.988281 12.671875 9.988281 12.671875 L 14.011719 12.671875 C 15.128906 12.671875 16.027344 11.773438 16.027344 10.65625 Z M 16.027344 9.988281 "/>
</g>
<clipPath id="clip2">
  <rect width="24" height="24"/>
</clipPath>
<g id="surface9" clip-path="url(#clip2)">
<path style=" stroke:none;fill-rule:evenodd;fill:rgb(80%,36.862745%,33.333333%);fill-opacity:1;" d="M 20.714844 17.15625 C 20.714844 19.230469 19.039062 20.90625 16.964844 20.90625 C 14.894531 20.90625 13.214844 19.230469 13.214844 17.15625 C 13.214844 15.085938 14.894531 13.40625 16.964844 13.40625 C 19.039062 13.40625 20.714844 15.085938 20.714844 17.15625 Z M 20.714844 17.15625 "/>
</g>
<clipPath id="clip3">
  <rect width="24" height="24"/>
</clipPath>
<g id="surface12" clip-path="url(#clip3)">
<path style=" stroke:none;fill-rule:nonzero;fill:rgb(100%,100%,100%);fill-opacity:1;" d="M 16.496094 15.28125 L 16.457031 15.777344 C 16.300781 15.835938 16.152344 15.917969 16.027344 16.027344 L 15.578125 15.816406 L 15.109375 16.625 L 15.515625 16.910156 C 15.5 16.992188 15.492188 17.074219 15.492188 17.15625 C 15.492188 17.242188 15.5 17.324219 15.515625 17.40625 L 15.109375 17.691406 L 15.578125 18.5 L 16.023438 18.289062 C 16.152344 18.398438 16.300781 18.480469 16.457031 18.539062 L 16.496094 19.03125 L 17.433594 19.03125 L 17.476562 18.539062 C 17.632812 18.480469 17.777344 18.398438 17.90625 18.289062 L 18.355469 18.5 L 18.824219 17.6875 L 18.417969 17.40625 C 18.433594 17.324219 18.4375 17.242188 18.441406 17.15625 C 18.441406 17.074219 18.433594 16.992188 18.417969 16.910156 L 18.824219 16.625 L 18.355469 15.816406 L 17.90625 16.023438 C 17.78125 15.917969 17.632812 15.835938 17.476562 15.777344 L 17.433594 15.28125 Z M 16.964844 16.621094 C 17.261719 16.621094 17.503906 16.863281 17.503906 17.15625 C 17.503906 17.453125 17.261719 17.695312 16.964844 17.695312 C 16.671875 17.695312 16.429688 17.453125 16.429688 17.15625 C 16.429688 16.863281 16.671875 16.621094 16.964844 16.621094 Z M 16.964844 16.621094 "/>
</g>
</defs>
<g id="surface1">
<path style=" stroke:none;fill-rule:evenodd;fill:rgb(100%,78.431373%,32.156863%);fill-opacity:1;" d="M 5.605469 1.421875 L 18.394531 1.421875 C 20.703125 1.421875 22.578125 3.296875 22.578125 5.605469 L 22.578125 18.394531 C 22.578125 20.703125 20.703125 22.578125 18.394531 22.578125 L 5.605469 22.578125 C 3.296875 22.578125 1.421875 20.703125 1.421875 18.394531 L 1.421875 5.605469 C 1.421875 3.296875 3.296875 1.421875 5.605469 1.421875 Z M 5.605469 1.421875 "/>
<path style=" stroke:none;fill-rule:nonzero;fill:rgb(100%,100%,100%);fill-opacity:1;" d="M 16.027344 7.972656 L 16.027344 9.988281 C 16.027344 11.101562 15.128906 12 14.011719 12 L 9.988281 12 C 9.988281 12 7.972656 12 7.972656 14.011719 L 7.972656 17.535156 C 7.972656 18.929688 9.546875 20.050781 11.496094 20.050781 L 12.503906 20.050781 C 14.453125 20.050781 16.027344 18.929688 16.027344 17.535156 L 16.027344 16.027344 L 17.535156 16.027344 C 18.929688 16.027344 20.050781 14.453125 20.050781 12.503906 L 20.050781 11.496094 C 20.050781 9.546875 18.929688 7.972656 17.535156 7.972656 Z M 14.011719 17.367188 C 14.382812 17.367188 14.683594 17.667969 14.683594 18.039062 C 14.683594 18.410156 14.382812 18.710938 14.011719 18.710938 C 13.640625 18.710938 13.34375 18.410156 13.34375 18.039062 C 13.34375 17.667969 13.640625 17.367188 14.011719 17.367188 Z M 14.011719 17.367188 "/>
<path style=" stroke:none;fill-rule:nonzero;fill:rgb(27.843137%,58.431373%,81.960784%);fill-opacity:1;" d="M 11.496094 3.949219 C 9.546875 3.949219 7.972656 5.070312 7.972656 6.464844 L 7.972656 7.972656 L 6.464844 7.972656 C 5.070312 7.972656 3.949219 9.546875 3.949219 11.496094 L 3.949219 12.503906 C 3.949219 14.453125 5.070312 16.027344 6.464844 16.027344 L 7.972656 16.027344 L 7.972656 14.011719 C 7.972656 12.898438 8.871094 12 9.988281 12 L 14.011719 12 C 14.011719 12 16.027344 12 16.027344 9.988281 L 16.027344 6.464844 C 16.027344 5.070312 14.453125 3.949219 12.503906 3.949219 Z M 11.496094 3.949219 "/>
<path style=" stroke:none;fill-rule:nonzero;fill:rgb(100%,100%,100%);fill-opacity:1;" d="M 9.988281 5.289062 C 10.359375 5.289062 10.65625 5.589844 10.65625 5.960938 C 10.65625 6.332031 10.359375 6.632812 9.988281 6.632812 C 9.617188 6.632812 9.316406 6.332031 9.316406 5.960938 C 9.316406 5.589844 9.617188 5.289062 9.988281 5.289062 Z M 9.988281 5.289062 "/>
<use xlink:href="#surface6" mask="url(#mask0)"/>
<use xlink:href="#surface9"/>
<use xlink:href="#surface12"/>
</g>
</svg>
