<?xml version="1.0" encoding="UTF-8"?>
<svg xmlns="http://www.w3.org/2000/svg" xmlns:xlink="http://www.w3.org/1999/xlink" width="24pt" height="24pt" viewBox="0 0 24 24" version="1.1">
<defs>
<clipPath id="clip1">
  <rect width="24" height="24"/>
</clipPath>
<g id="surface6" clip-path="url(#clip1)">
<path style=" stroke:none;fill-rule:evenodd;fill:rgb(100%,55.686275%,18.823529%);fill-opacity:1;" d="M 16.953125 4.484375 C 18.601562 4.484375 19.933594 5.820312 19.933594 7.464844 C 19.933594 9.113281 18.601562 10.449219 16.953125 10.449219 C 15.304688 10.449219 13.972656 9.113281 13.972656 7.464844 C 13.972656 5.820312 15.304688 4.484375 16.953125 4.484375 Z M 16.953125 4.484375 "/>
</g>
</defs>
<g id="surface1">
<path style=" stroke:none;fill-rule:evenodd;fill:rgb(100%,80.784314%,48.235294%);fill-opacity:1;" d="M 5.605469 1.421875 L 18.394531 1.421875 C 20.703125 1.421875 22.578125 3.296875 22.578125 5.605469 L 22.578125 18.394531 C 22.578125 20.703125 20.703125 22.574219 18.394531 22.574219 L 5.605469 22.574219 C 3.296875 22.574219 1.425781 20.703125 1.425781 18.394531 L 1.425781 5.605469 C 1.425781 3.296875 3.296875 1.421875 5.605469 1.421875 Z M 5.605469 1.421875 "/>
<path style=" stroke:none;fill-rule:evenodd;fill:rgb(100%,80.784314%,48.235294%);fill-opacity:1;" d="M 5.605469 1.421875 C 3.289062 1.421875 1.421875 3.289062 1.421875 5.605469 L 1.421875 13.640625 C 2.175781 13.484375 3.035156 13.261719 3.65625 13.1875 C 4.796875 13.050781 5.738281 13.042969 6.554688 13.125 C 7.375 13.203125 8.074219 13.371094 8.734375 13.59375 C 9.390625 13.8125 10.007812 14.085938 10.664062 14.371094 C 11.320312 14.65625 12.011719 14.957031 12.824219 15.234375 C 13.636719 15.511719 14.566406 15.769531 15.691406 15.960938 C 16.816406 16.15625 18.140625 16.289062 19.738281 16.324219 C 20.535156 16.339844 21.636719 16.246094 22.578125 16.210938 L 22.578125 5.605469 C 22.578125 3.289062 20.710938 1.421875 18.394531 1.421875 Z M 5.605469 1.421875 "/>
<use xlink:href="#surface6"/>
<path style=" stroke:none;fill-rule:evenodd;fill:rgb(52.54902%,62.352941%,79.607843%);fill-opacity:1;" d="M 14.488281 15.417969 C 10.800781 15.757812 7.980469 17.777344 3.660156 17.554688 C 2.777344 17.472656 2.046875 17.304688 1.421875 17.070312 L 1.421875 18.394531 C 1.421875 18.867188 1.546875 19.304688 1.691406 19.726562 C 2.394531 19.351562 3.09375 19.054688 3.785156 18.882812 C 4.570312 18.691406 5.347656 18.609375 6.132812 18.597656 C 7.699219 18.582031 9.289062 18.851562 10.960938 19.085938 C 11.800781 19.199219 12.65625 19.308594 13.546875 19.367188 C 14.433594 19.425781 15.351562 19.433594 16.308594 19.355469 C 17.265625 19.273438 18.261719 19.105469 19.304688 18.804688 C 20.347656 18.507812 21.433594 18.078125 22.578125 17.480469 C 19.226562 15.621094 16.699219 15.21875 14.488281 15.417969 Z M 14.488281 15.417969 "/>
<path style=" stroke:none;fill-rule:evenodd;fill:rgb(21.960784%,38.431373%,76.470588%);fill-opacity:1;" d="M 22.578125 17.480469 C 21.433594 18.078125 20.347656 18.507812 19.304688 18.804688 C 18.261719 19.105469 17.265625 19.273438 16.308594 19.355469 C 15.351562 19.433594 14.433594 19.425781 13.546875 19.367188 C 12.65625 19.308594 11.800781 19.199219 10.960938 19.085938 C 9.289062 18.851562 7.699219 18.582031 6.132812 18.597656 C 5.347656 18.609375 4.570312 18.691406 3.785156 18.882812 C 3.09375 19.054688 2.394531 19.351562 1.691406 19.726562 C 2.25 21.378906 3.761719 22.578125 5.605469 22.578125 L 18.394531 22.578125 C 20.710938 22.578125 22.578125 20.710938 22.578125 18.394531 Z M 22.578125 17.480469 "/>
</g>
</svg>
