<?xml version="1.0" encoding="UTF-8"?>
<svg xmlns="http://www.w3.org/2000/svg" xmlns:xlink="http://www.w3.org/1999/xlink" width="24pt" height="24pt" viewBox="0 0 24 24" version="1.1">
<g id="surface1">
<path style=" stroke:none;fill-rule:evenodd;fill:rgb(4.313725%,25.882353%,38.823529%);fill-opacity:1;" d="M 5.605469 1.421875 L 18.394531 1.421875 C 20.703125 1.421875 22.578125 3.296875 22.578125 5.605469 L 22.578125 18.394531 C 22.578125 20.703125 20.703125 22.578125 18.394531 22.578125 L 5.605469 22.578125 C 3.296875 22.578125 1.421875 20.703125 1.421875 18.394531 L 1.421875 5.605469 C 1.421875 3.296875 3.296875 1.421875 5.605469 1.421875 Z M 5.605469 1.421875 "/>
<path style=" stroke:none;fill-rule:nonzero;fill:rgb(100%,100%,100%);fill-opacity:1;" d="M 8.246094 19.167969 C 8.238281 18.839844 8.226562 18.015625 8.226562 17.332031 L 8.226562 16.09375 L 8.152344 16.09375 C 8.109375 16.09375 7.96875 16.066406 7.839844 16.039062 C 6.875 15.804688 6.109375 15 5.925781 14.027344 C 5.886719 13.816406 5.882812 13.523438 5.890625 11.699219 C 5.898438 9.414062 5.890625 9.523438 6.074219 9.085938 C 6.335938 8.453125 6.875 7.917969 7.5 7.675781 C 7.960938 7.496094 7.765625 7.503906 12.097656 7.511719 L 16.039062 7.519531 L 16.246094 7.582031 C 17.210938 7.882812 17.910156 8.660156 18.074219 9.621094 C 18.113281 9.839844 18.117188 10.171875 18.109375 11.917969 C 18.101562 13.925781 18.101562 13.964844 18.039062 14.1875 C 17.902344 14.683594 17.570312 15.203125 17.203125 15.507812 C 16.875 15.777344 16.589844 15.921875 16.144531 16.042969 C 15.933594 16.101562 15.867188 16.105469 14.128906 16.117188 L 12.332031 16.125 L 11.726562 16.667969 C 11.394531 16.964844 10.523438 17.746094 9.792969 18.398438 C 9.0625 19.054688 8.417969 19.628906 8.363281 19.675781 L 8.265625 19.765625 Z M 8.246094 19.167969 "/>
</g>
</svg>
