<?xml version="1.0" encoding="UTF-8"?>
<svg xmlns="http://www.w3.org/2000/svg" xmlns:xlink="http://www.w3.org/1999/xlink" width="24pt" height="24pt" viewBox="0 0 24 24" version="1.1">
<g id="surface1">
<path style=" stroke:none;fill-rule:evenodd;fill:rgb(96.862745%,39.215686%,39.215686%);fill-opacity:1;" d="M 5.605469 1.421875 L 18.394531 1.421875 C 20.703125 1.421875 22.578125 3.296875 22.578125 5.605469 L 22.578125 18.394531 C 22.578125 20.703125 20.703125 22.578125 18.394531 22.578125 L 5.605469 22.578125 C 3.296875 22.578125 1.421875 20.703125 1.421875 18.394531 L 1.421875 5.605469 C 1.421875 3.296875 3.296875 1.421875 5.605469 1.421875 Z M 5.605469 1.421875 "/>
<path style=" stroke:none;fill-rule:nonzero;fill:rgb(100%,100%,100%);fill-opacity:1;" d="M 12 4.875 C 10.34375 4.875 9 6.21875 9 7.875 C 9 9.53125 10.34375 10.875 12 10.875 C 13.65625 10.875 15 9.53125 15 7.875 C 15 6.21875 13.65625 4.875 12 4.875 Z M 12 4.875 "/>
<path style=" stroke:none;fill-rule:nonzero;fill:rgb(100%,100%,100%);fill-opacity:1;" d="M 12 12.375 C 6.75 12.378906 6.75 15.699219 6.75 15.699219 L 6.75 17.046875 C 6.75 17.046875 7.71875 19.125 12 19.125 C 16.28125 19.125 17.25 17.046875 17.25 17.046875 L 17.25 15.699219 C 17.25 15.699219 17.25 12.371094 12 12.375 Z M 12 12.375 "/>
</g>
</svg>
