<?xml version="1.0" encoding="UTF-8"?>
<svg xmlns="http://www.w3.org/2000/svg" xmlns:xlink="http://www.w3.org/1999/xlink" width="24pt" height="24pt" viewBox="0 0 24 24" version="1.1">
<g id="surface1">
<path style=" stroke:none;fill-rule:evenodd;fill:rgb(9.019608%,52.156863%,15.686275%);fill-opacity:1;" d="M 5.605469 1.421875 L 18.394531 1.421875 C 20.703125 1.421875 22.578125 3.296875 22.578125 5.605469 L 22.578125 18.394531 C 22.578125 20.703125 20.703125 22.578125 18.394531 22.578125 L 5.605469 22.578125 C 3.296875 22.578125 1.421875 20.703125 1.421875 18.394531 L 1.421875 5.605469 C 1.421875 3.296875 3.296875 1.421875 5.605469 1.421875 Z M 5.605469 1.421875 "/>
<path style=" stroke:none;fill-rule:nonzero;fill:rgb(100%,100%,100%);fill-opacity:1;" d="M 12 5.261719 C 13.679688 5.261719 15.039062 6.691406 15.039062 8.453125 C 15.039062 10.214844 13.679688 11.644531 12 11.644531 C 10.320312 11.644531 8.960938 10.214844 8.960938 8.453125 C 8.960938 6.691406 10.320312 5.261719 12 5.261719 Z M 12 5.261719 "/>
<path style=" stroke:none;fill-rule:nonzero;fill:rgb(100%,100%,100%);fill-opacity:1;" d="M 12 13.417969 C 18.082031 13.414062 18.082031 17.675781 18.082031 17.675781 L 18.082031 18.738281 L 5.917969 18.738281 L 5.917969 17.675781 C 5.917969 17.675781 5.917969 13.421875 12 13.417969 Z M 12 13.417969 "/>
<path style=" stroke:none;fill-rule:nonzero;fill:rgb(0%,32.941176%,0%);fill-opacity:1;" d="M 19.691406 12.300781 C 19.691406 10.878906 18.539062 9.726562 17.117188 9.726562 C 15.695312 9.726562 14.539062 10.878906 14.539062 12.300781 C 14.542969 13.347656 15.179688 14.292969 16.148438 14.6875 L 16.148438 16.164062 L 15.183594 16.164062 L 15.183594 17.773438 L 16.148438 17.773438 L 16.148438 18.738281 L 18.082031 18.738281 L 18.082031 14.6875 C 19.054688 14.292969 19.691406 13.347656 19.691406 12.300781 Z M 18.082031 12.300781 C 18.082031 12.835938 17.648438 13.265625 17.117188 13.265625 C 16.582031 13.265625 16.148438 12.835938 16.148438 12.300781 C 16.148438 11.765625 16.582031 11.335938 17.117188 11.335938 C 17.648438 11.335938 18.082031 11.765625 18.082031 12.300781 Z M 18.082031 12.300781 "/>
</g>
</svg>
