<?xml version="1.0" encoding="UTF-8"?>
<svg xmlns="http://www.w3.org/2000/svg" xmlns:xlink="http://www.w3.org/1999/xlink" width="24pt" height="24pt" viewBox="0 0 24 24" version="1.1">
<g id="surface1">
<path style=" stroke:none;fill-rule:evenodd;fill:rgb(80%,80%,80%);fill-opacity:1;" d="M 5.605469 1.421875 L 18.394531 1.421875 C 20.703125 1.421875 22.578125 3.296875 22.578125 5.605469 L 22.578125 18.394531 C 22.578125 20.703125 20.703125 22.578125 18.394531 22.578125 L 5.605469 22.578125 C 3.296875 22.578125 1.421875 20.703125 1.421875 18.394531 L 1.421875 5.605469 C 1.421875 3.296875 3.296875 1.421875 5.605469 1.421875 Z M 5.605469 1.421875 "/>
<path style=" stroke:none;fill-rule:nonzero;fill:rgb(83.529412%,29.411765%,23.921569%);fill-opacity:1;" d="M 5.714844 6.617188 C 5.28125 6.617188 4.921875 6.925781 4.839844 7.328125 C 4.824219 7.445312 4.824219 7.539062 4.824219 7.539062 L 4.824219 16.488281 C 4.824219 16.980469 5.21875 17.390625 5.714844 17.382812 L 6.875 17.382812 L 6.875 7.539062 C 6.875 7.476562 6.867188 7.421875 6.855469 7.375 C 6.796875 7.117188 6.492188 6.828125 6.183594 6.617188 Z M 5.714844 6.617188 "/>
<path style=" stroke:none;fill-rule:nonzero;fill:rgb(83.529412%,29.411765%,23.921569%);fill-opacity:1;" d="M 17.972656 6.617188 C 17.546875 6.738281 17.117188 7.109375 17.125 7.511719 L 17.125 17.382812 L 18.261719 17.382812 C 18.777344 17.382812 19.175781 16.984375 19.175781 16.5 L 19.175781 7.503906 C 19.175781 7.011719 18.765625 6.617188 18.28125 6.617188 Z M 17.972656 6.617188 "/>
<path style=" stroke:none;fill-rule:evenodd;fill:rgb(83.529412%,29.411765%,23.921569%);fill-opacity:1;" d="M 18.175781 6.617188 C 17.945312 6.613281 17.71875 6.679688 17.535156 6.820312 L 12 10.976562 L 6.460938 6.820312 C 5.425781 6.03125 4.207031 7.730469 5.230469 8.460938 L 11.382812 13.078125 C 11.75 13.351562 12.25 13.351562 12.613281 13.078125 L 18.457031 8.695312 L 18.765625 8.460938 C 19.527344 7.917969 19.164062 6.628906 18.175781 6.617188 Z M 18.175781 6.617188 "/>
</g>
</svg>
