<?xml version="1.0" encoding="UTF-8"?>
<svg xmlns="http://www.w3.org/2000/svg" xmlns:xlink="http://www.w3.org/1999/xlink" width="24pt" height="24pt" viewBox="0 0 24 24" version="1.1">
<defs>
<filter id="alpha" filterUnits="objectBoundingBox" x="0%" y="0%" width="100%" height="100%">
  <feColorMatrix type="matrix" in="SourceGraphic" values="0 0 0 0 1 0 0 0 0 1 0 0 0 0 1 0 0 0 1 0"/>
</filter>
<mask id="mask0">
  <g filter="url(#alpha)">
<rect x="0" y="0" width="24" height="24" style="fill:rgb(0%,0%,0%);fill-opacity:0.988235;stroke:none;"/>
  </g>
</mask>
<clipPath id="clip1">
  <rect width="24" height="24"/>
</clipPath>
<g id="surface6" clip-path="url(#clip1)">
<path style=" stroke:none;fill-rule:evenodd;fill:rgb(30.980392%,30.980392%,30.980392%);fill-opacity:1;" d="M 5.605469 1.421875 L 18.394531 1.421875 C 20.703125 1.421875 22.578125 3.296875 22.578125 5.605469 L 22.578125 18.394531 C 22.578125 20.703125 20.703125 22.578125 18.394531 22.578125 L 5.605469 22.578125 C 3.296875 22.578125 1.421875 20.703125 1.421875 18.394531 L 1.421875 5.605469 C 1.421875 3.296875 3.296875 1.421875 5.605469 1.421875 Z M 5.605469 1.421875 "/>
</g>
</defs>
<g id="surface1">
<use xlink:href="#surface6" mask="url(#mask0)"/>
<path style=" stroke:none;fill-rule:nonzero;fill:rgb(50.588235%,100%,52.156863%);fill-opacity:1;" d="M 4.769531 3.75 L 8.144531 3.75 C 8.457031 3.75 8.707031 4 8.707031 4.3125 L 8.707031 7.6875 C 8.707031 8 8.457031 8.25 8.144531 8.25 L 4.769531 8.25 C 4.460938 8.25 4.207031 8 4.207031 7.6875 L 4.207031 4.3125 C 4.207031 4 4.460938 3.75 4.769531 3.75 Z M 4.769531 3.75 "/>
<path style=" stroke:none;fill-rule:nonzero;fill:rgb(50.588235%,100%,52.156863%);fill-opacity:1;" d="M 10.769531 3.75 L 14.144531 3.75 C 14.457031 3.75 14.707031 4 14.707031 4.3125 L 14.707031 7.6875 C 14.707031 8 14.457031 8.25 14.144531 8.25 L 10.769531 8.25 C 10.460938 8.25 10.207031 8 10.207031 7.6875 L 10.207031 4.3125 C 10.207031 4 10.460938 3.75 10.769531 3.75 Z M 10.769531 3.75 "/>
<path style=" stroke:none;fill-rule:nonzero;fill:rgb(50.588235%,100%,52.156863%);fill-opacity:1;" d="M 4.769531 9.75 L 8.144531 9.75 C 8.457031 9.75 8.707031 10 8.707031 10.3125 L 8.707031 13.6875 C 8.707031 14 8.457031 14.25 8.144531 14.25 L 4.769531 14.25 C 4.460938 14.25 4.207031 14 4.207031 13.6875 L 4.207031 10.3125 C 4.207031 10 4.460938 9.75 4.769531 9.75 Z M 4.769531 9.75 "/>
<path style=" stroke:none;fill-rule:nonzero;fill:rgb(50.588235%,100%,52.156863%);fill-opacity:1;" d="M 10.769531 9.75 L 14.144531 9.75 C 14.457031 9.75 14.707031 10 14.707031 10.3125 L 14.707031 13.6875 C 14.707031 14 14.457031 14.25 14.144531 14.25 L 10.769531 14.25 C 10.460938 14.25 10.207031 14 10.207031 13.6875 L 10.207031 10.3125 C 10.207031 10 10.460938 9.75 10.769531 9.75 Z M 10.769531 9.75 "/>
<path style=" stroke:none;fill-rule:nonzero;fill:rgb(50.588235%,100%,52.156863%);fill-opacity:1;" d="M 4.769531 15.75 L 8.144531 15.75 C 8.457031 15.75 8.707031 16 8.707031 16.3125 L 8.707031 19.6875 C 8.707031 20 8.457031 20.25 8.144531 20.25 L 4.769531 20.25 C 4.460938 20.25 4.207031 20 4.207031 19.6875 L 4.207031 16.3125 C 4.207031 16 4.460938 15.75 4.769531 15.75 Z M 4.769531 15.75 "/>
</g>
</svg>
