<?xml version="1.0" encoding="UTF-8"?>
<svg xmlns="http://www.w3.org/2000/svg" xmlns:xlink="http://www.w3.org/1999/xlink" width="24pt" height="24pt" viewBox="0 0 24 24" version="1.1">
<g id="surface1">
<path style=" stroke:none;fill-rule:evenodd;fill:rgb(29.411765%,68.235294%,30.980392%);fill-opacity:1;" d="M 5.605469 1.421875 L 18.394531 1.421875 C 20.703125 1.421875 22.578125 3.296875 22.578125 5.605469 L 22.578125 18.394531 C 22.578125 20.703125 20.703125 22.578125 18.394531 22.578125 L 5.605469 22.578125 C 3.296875 22.578125 1.421875 20.703125 1.421875 18.394531 L 1.421875 5.605469 C 1.421875 3.296875 3.296875 1.421875 5.605469 1.421875 Z M 5.605469 1.421875 "/>
<path style=" stroke:none;fill-rule:nonzero;fill:rgb(69.803922%,100%,63.921569%);fill-opacity:1;" d="M 6.375 7.3125 L 6.375 16.6875 L 17.625 16.6875 L 17.625 7.3125 Z M 7.3125 8.25 L 11.0625 8.25 L 11.0625 10.125 L 7.3125 10.125 Z M 11.996094 8.25 L 16.664062 8.25 L 16.664062 10.125 L 11.996094 10.125 Z M 7.316406 11.0625 L 11.066406 11.0625 L 11.066406 12.9375 L 7.316406 12.9375 Z M 12 11.0625 L 16.667969 11.0625 L 16.667969 12.9375 L 12 12.9375 Z M 7.316406 13.875 L 11.066406 13.875 L 11.066406 15.75 L 7.316406 15.75 Z M 12 13.875 L 16.667969 13.875 L 16.667969 15.75 L 12 15.75 Z M 12 13.875 "/>
</g>
</svg>
