<?xml version="1.0" encoding="UTF-8"?>
<svg xmlns="http://www.w3.org/2000/svg" xmlns:xlink="http://www.w3.org/1999/xlink" width="24pt" height="24pt" viewBox="0 0 24 24" version="1.1">
<defs>
<clipPath id="clip1">
  <rect width="24" height="24"/>
</clipPath>
<g id="surface6" clip-path="url(#clip1)">
<path style=" stroke:none;fill-rule:nonzero;fill:rgb(32.156863%,56.078431%,96.078431%);fill-opacity:1;" d="M 8.851562 11.738281 L 8.851562 12.261719 L 14.625 12.261719 L 14.625 11.738281 Z M 8.851562 13.3125 L 8.851562 13.835938 L 14.625 13.835938 L 14.625 13.3125 Z M 8.851562 14.886719 L 8.851562 15.414062 L 14.625 15.414062 L 14.625 14.886719 Z M 8.851562 16.460938 L 8.851562 16.988281 L 13.050781 16.988281 L 13.050781 16.460938 Z M 8.851562 16.460938 "/>
</g>
</defs>
<g id="surface1">
<path style=" stroke:none;fill-rule:evenodd;fill:rgb(32.156863%,56.078431%,96.078431%);fill-opacity:1;" d="M 5.605469 1.421875 L 18.394531 1.421875 C 20.703125 1.421875 22.578125 3.296875 22.578125 5.605469 L 22.578125 18.394531 C 22.578125 20.703125 20.703125 22.578125 18.394531 22.578125 L 5.605469 22.578125 C 3.296875 22.578125 1.421875 20.703125 1.421875 18.394531 L 1.421875 5.605469 C 1.421875 3.296875 3.296875 1.421875 5.605469 1.421875 Z M 5.605469 1.421875 "/>
<path style=" stroke:none;fill-rule:nonzero;fill:rgb(100%,100%,100%);fill-opacity:1;" d="M 7.40625 5.4375 C 7.042969 5.4375 6.75 5.730469 6.75 6.09375 L 6.75 17.90625 C 6.75 18.269531 7.042969 18.5625 7.40625 18.5625 L 16.59375 18.5625 C 16.957031 18.5625 17.25 18.269531 17.25 17.90625 L 17.25 9.636719 L 13.640625 9.046875 L 13.050781 5.4375 Z M 7.40625 5.4375 "/>
<path style=" stroke:none;fill-rule:nonzero;fill:rgb(64.705882%,77.254902%,97.647059%);fill-opacity:1;" d="M 13.050781 5.4375 L 13.050781 8.9375 C 13.050781 9.324219 13.363281 9.636719 13.75 9.636719 L 17.25 9.636719 Z M 13.050781 5.4375 "/>
<use xlink:href="#surface6"/>
</g>
</svg>
