<?xml version="1.0" encoding="UTF-8"?>
<svg xmlns="http://www.w3.org/2000/svg" xmlns:xlink="http://www.w3.org/1999/xlink" width="24pt" height="24pt" viewBox="0 0 24 24" version="1.1">
<g id="surface1">
<path style=" stroke:none;fill-rule:evenodd;fill:rgb(59.215686%,30.980392%,64.313725%);fill-opacity:1;" d="M 5.605469 1.421875 L 18.394531 1.421875 C 20.703125 1.421875 22.578125 3.296875 22.578125 5.605469 L 22.578125 18.394531 C 22.578125 20.703125 20.703125 22.578125 18.394531 22.578125 L 5.605469 22.578125 C 3.296875 22.578125 1.421875 20.703125 1.421875 18.394531 L 1.421875 5.605469 C 1.421875 3.296875 3.296875 1.421875 5.605469 1.421875 Z M 5.605469 1.421875 "/>
<path style=" stroke:none;fill-rule:nonzero;fill:rgb(30.196078%,30.196078%,30.196078%);fill-opacity:1;" d="M 11.785156 4.171875 C 11.625 4.175781 11.460938 4.1875 11.296875 4.203125 C 8.71875 4.488281 6.839844 6.613281 7.019531 8.988281 L 6.414062 9.054688 L 6.761719 12.179688 L 8.773438 11.957031 L 8.425781 8.832031 L 7.683594 8.914062 C 7.542969 6.882812 9.15625 5.066406 11.367188 4.820312 C 13.574219 4.578125 15.554688 5.992188 15.867188 8.007812 L 15.210938 8.078125 L 15.554688 11.199219 L 17.5 10.984375 L 17.152344 7.863281 L 16.53125 7.933594 C 16.199219 5.734375 14.160156 4.132812 11.785156 4.171875 Z M 11.785156 4.171875 "/>
<path style=" stroke:none;fill-rule:nonzero;fill:rgb(94.901961%,94.901961%,94.901961%);fill-opacity:1;" d="M 11.488281 5.867188 C 11.214844 5.878906 10.976562 6.023438 10.789062 6.238281 C 10.597656 6.453125 10.449219 6.742188 10.324219 7.078125 C 10.074219 7.75 9.917969 9.1875 9.832031 10.09375 C 9.75 11.003906 9.734375 11.378906 9.773438 12.164062 C 9.8125 12.945312 9.886719 13.554688 10.046875 13.894531 C 10.191406 14.191406 10.351562 14.53125 10.425781 14.839844 C 10.496094 15.144531 10.480469 15.390625 10.300781 15.589844 C 10.117188 15.785156 9.71875 15.964844 8.953125 16.007812 C 8.183594 16.046875 7.066406 15.730469 5.476562 15.433594 C 5.21875 15.386719 5.007812 15.382812 4.820312 15.445312 C 4.636719 15.507812 4.488281 15.644531 4.402344 15.816406 C 4.222656 16.160156 4.207031 17.417969 4.183594 18.074219 C 4.175781 18.289062 4.253906 18.492188 4.390625 18.65625 C 4.527344 18.820312 4.71875 18.957031 4.957031 19.078125 C 5.429688 19.316406 6.097656 19.484375 6.921875 19.609375 C 8.578125 19.851562 10.875 19.890625 13.480469 19.738281 L 13.488281 19.738281 C 14.445312 19.660156 15.964844 19.605469 17.277344 19.269531 C 17.929688 19.105469 18.535156 18.871094 18.996094 18.511719 C 19.460938 18.152344 19.777344 17.65625 19.808594 17.019531 C 19.835938 16.429688 19.804688 15.535156 19.6875 15.25 C 19.570312 14.964844 19.316406 14.8125 19.054688 14.808594 C 18.53125 14.796875 17.917969 15.082031 17.121094 15.269531 C 16.203125 15.484375 15.558594 15.394531 15.117188 15.359375 C 14.679688 15.328125 14.457031 15.363281 14.324219 15.191406 C 14.1875 15.015625 14.125 14.757812 14.097656 14.425781 C 14.070312 14.097656 14.070312 13.710938 14.027344 13.300781 C 13.945312 12.511719 13.789062 11.230469 13.433594 9.589844 C 13.257812 8.765625 13.03125 7.433594 12.730469 6.855469 C 12.578125 6.5625 12.410156 6.316406 12.203125 6.140625 C 12 5.964844 11.753906 5.859375 11.488281 5.867188 Z M 11.488281 5.867188 "/>
<path style=" stroke:none;fill-rule:nonzero;fill:rgb(100%,100%,100%);fill-opacity:1;" d="M 10.875 10.417969 C 10.828125 11.625 10.460938 12.726562 9.914062 13.308594 C 9.367188 13.890625 8.726562 13.855469 8.234375 13.222656 C 7.742188 12.589844 7.476562 11.457031 7.539062 10.25 C 7.585938 9.046875 7.953125 7.941406 8.5 7.359375 C 9.046875 6.78125 9.691406 6.8125 10.179688 7.445312 C 10.671875 8.078125 10.9375 9.214844 10.875 10.417969 Z M 10.875 10.417969 "/>
<path style=" stroke:none;fill-rule:nonzero;fill:rgb(30.196078%,30.196078%,30.196078%);fill-opacity:1;" d="M 10.320312 10.921875 C 10.277344 11.539062 9.867188 12.027344 9.40625 12.011719 C 8.945312 11.996094 8.609375 11.484375 8.652344 10.867188 C 8.695312 10.25 9.105469 9.761719 9.566406 9.777344 C 10.027344 9.789062 10.363281 10.304688 10.320312 10.921875 Z M 10.320312 10.921875 "/>
<path style=" stroke:none;fill-rule:nonzero;fill:rgb(100%,100%,100%);fill-opacity:1;" d="M 15.875 10.15625 C 16.078125 12.003906 15.382812 13.582031 14.324219 13.679688 C 13.261719 13.777344 12.238281 12.359375 12.035156 10.511719 C 11.832031 8.664062 12.523438 7.085938 13.585938 6.988281 C 14.644531 6.890625 15.671875 8.308594 15.875 10.15625 Z M 15.875 10.15625 "/>
<path style=" stroke:none;fill-rule:nonzero;fill:rgb(30.196078%,30.196078%,30.196078%);fill-opacity:1;" d="M 14.761719 10.96875 C 14.640625 11.582031 14.179688 12.042969 13.734375 12.003906 C 13.289062 11.960938 13.027344 11.433594 13.144531 10.820312 C 13.222656 10.417969 13.449219 10.0625 13.738281 9.886719 C 14.03125 9.710938 14.339844 9.738281 14.550781 9.960938 C 14.761719 10.1875 14.84375 10.570312 14.761719 10.96875 Z M 14.761719 10.96875 "/>
</g>
</svg>
