<?xml version="1.0" encoding="UTF-8"?>
<svg xmlns="http://www.w3.org/2000/svg" xmlns:xlink="http://www.w3.org/1999/xlink" width="24pt" height="24pt" viewBox="0 0 24 24" version="1.1">
<g id="surface1">
<path style=" stroke:none;fill-rule:evenodd;fill:rgb(60%,60%,60%);fill-opacity:1;" d="M 5.605469 1.421875 L 18.394531 1.421875 C 20.703125 1.421875 22.578125 3.296875 22.578125 5.605469 L 22.578125 18.394531 C 22.578125 20.703125 20.703125 22.578125 18.394531 22.578125 L 5.605469 22.578125 C 3.296875 22.578125 1.421875 20.703125 1.421875 18.394531 L 1.421875 5.605469 C 1.421875 3.296875 3.296875 1.421875 5.605469 1.421875 Z M 5.605469 1.421875 "/>
<path style=" stroke:none;fill-rule:nonzero;fill:rgb(14.117647%,54.117647%,99.215686%);fill-opacity:1;" d="M 9.058594 19.882812 C 8.953125 19.722656 8.757812 19.378906 8.625 19.113281 C 8.347656 18.546875 8.234375 18.527344 7.628906 18.953125 C 6.867188 19.484375 6.578125 19.339844 6.808594 18.542969 C 6.886719 18.277344 6.902344 18.019531 6.84375 17.964844 C 6.789062 17.910156 6.4375 17.976562 6.0625 18.109375 C 5.210938 18.417969 4.953125 18.3125 5.25 17.765625 C 5.363281 17.554688 5.425781 17.351562 5.382812 17.3125 C 5.34375 17.273438 5.066406 17.324219 4.765625 17.421875 C 3.730469 17.769531 3.589844 17.589844 4.25 16.761719 C 4.472656 16.484375 4.652344 16.152344 4.65625 16.019531 C 4.65625 15.886719 4.839844 15.582031 5.066406 15.339844 C 5.574219 14.789062 6.144531 13.730469 6.140625 13.34375 C 4.839844 11.445312 5.425781 10.558594 6.277344 8.929688 C 6.5 8.460938 6.796875 7.535156 7.070312 7.289062 C 8.230469 5.789062 10.480469 5.832031 11.699219 7.269531 C 12.066406 7.496094 12.699219 8.796875 12.820312 9.265625 C 14.324219 11.070312 12.492188 12.453125 12.695312 13.417969 C 12.804688 13.914062 13.320312 14.78125 13.847656 15.351562 C 14.0625 15.585938 14.242188 15.910156 14.242188 16.070312 C 14.242188 16.230469 14.394531 16.550781 14.578125 16.78125 C 15.140625 17.484375 14.984375 17.707031 14.132812 17.421875 C 13.476562 17.203125 13.382812 17.265625 13.644531 17.753906 C 13.828125 18.089844 13.824219 18.132812 13.625 18.203125 C 13.5 18.25 13.105469 18.199219 12.75 18.089844 C 12.390625 17.980469 12.066406 17.917969 12.03125 17.953125 C 11.996094 17.988281 12 18.300781 12.042969 18.644531 C 12.109375 19.191406 12.089844 19.273438 11.878906 19.273438 C 11.746094 19.273438 11.4375 19.128906 11.195312 18.953125 C 10.949219 18.777344 10.6875 18.632812 10.609375 18.632812 C 10.53125 18.632812 10.28125 18.976562 10.058594 19.402344 C 9.621094 20.222656 9.371094 20.34375 9.058594 19.882812 Z M 9.058594 19.882812 "/>
<path style=" stroke:none;fill-rule:nonzero;fill:rgb(81.960784%,61.960784%,0.392157%);fill-opacity:1;" d="M 6.761719 5.023438 C 6.761719 5.023438 7.15625 7.386719 9.402344 7.925781 C 9.402344 7.925781 9.589844 6.277344 8.960938 5.707031 C 8.332031 5.140625 6.761719 5.023438 6.761719 5.023438 Z M 6.761719 5.023438 "/>
<path style=" stroke:none;fill-rule:nonzero;fill:rgb(81.960784%,61.960784%,0.392157%);fill-opacity:1;" d="M 12 4.976562 C 12 4.976562 11.648438 7.308594 9.402344 7.925781 C 9.402344 7.925781 9.191406 6.28125 9.8125 5.699219 C 10.433594 5.121094 12 4.976562 12 4.976562 Z M 12 4.976562 "/>
<path style=" stroke:none;fill-rule:nonzero;fill:rgb(99.607843%,80.392157%,21.960784%);fill-opacity:1;" d="M 9.410156 3.847656 C 9.410156 3.847656 7.160156 5.941406 9.402344 7.925781 C 11.535156 5.859375 9.410156 3.847656 9.410156 3.847656 Z M 9.410156 3.847656 "/>
<path style=" stroke:none;fill-rule:nonzero;fill:rgb(99.607843%,80.392157%,21.960784%);fill-opacity:1;" d="M 8.214844 10.691406 C 8.214844 11.734375 7.367188 12.582031 6.324219 12.582031 C 5.277344 12.582031 4.429688 11.734375 4.429688 10.691406 C 4.429688 9.644531 5.277344 8.796875 6.324219 8.796875 C 7.367188 8.796875 8.214844 9.644531 8.214844 10.691406 Z M 8.214844 10.691406 "/>
<path style=" stroke:none;fill-rule:nonzero;fill:rgb(32.54902%,32.54902%,32.54902%);fill-opacity:1;" d="M 6.324219 9.527344 C 5.679688 9.527344 5.160156 10.046875 5.160156 10.691406 C 5.160156 11.332031 5.679688 11.855469 6.324219 11.855469 C 6.964844 11.855469 7.488281 11.332031 7.488281 10.691406 C 7.488281 10.046875 6.964844 9.527344 6.324219 9.527344 Z M 6.324219 10.300781 C 6.539062 10.300781 6.710938 10.476562 6.710938 10.691406 C 6.710938 10.90625 6.539062 11.078125 6.324219 11.078125 C 6.109375 11.078125 5.933594 10.90625 5.933594 10.691406 C 5.933594 10.476562 6.109375 10.300781 6.324219 10.300781 Z M 6.324219 10.300781 "/>
<path style=" stroke:none;fill-rule:nonzero;fill:rgb(99.607843%,80.392157%,21.960784%);fill-opacity:1;" d="M 14.621094 10.691406 C 14.621094 11.734375 13.773438 12.582031 12.726562 12.582031 C 11.683594 12.582031 10.835938 11.734375 10.835938 10.691406 C 10.835938 9.644531 11.683594 8.796875 12.726562 8.796875 C 13.773438 8.796875 14.621094 9.644531 14.621094 10.691406 Z M 14.621094 10.691406 "/>
<path style=" stroke:none;fill-rule:nonzero;fill:rgb(32.54902%,32.54902%,32.54902%);fill-opacity:1;" d="M 12.726562 9.527344 C 12.085938 9.527344 11.5625 10.046875 11.5625 10.691406 C 11.5625 11.332031 12.085938 11.855469 12.726562 11.855469 C 13.371094 11.855469 13.890625 11.332031 13.890625 10.691406 C 13.890625 10.046875 13.371094 9.527344 12.726562 9.527344 Z M 12.726562 10.300781 C 12.941406 10.300781 13.117188 10.476562 13.117188 10.691406 C 13.117188 10.90625 12.941406 11.078125 12.726562 11.078125 C 12.511719 11.078125 12.339844 10.90625 12.339844 10.691406 C 12.339844 10.476562 12.511719 10.300781 12.726562 10.300781 Z M 12.726562 10.300781 "/>
<path style=" stroke:none;fill-rule:nonzero;fill:rgb(99.607843%,80.392157%,21.960784%);fill-opacity:1;" d="M 6.761719 12.035156 C 6.761719 12.035156 7.695312 11.125 9.328125 11.125 C 10.960938 11.125 12 12.234375 12 12.234375 C 12 12.234375 11.964844 12.875 11.582031 13.074219 C 11.203125 13.277344 10.160156 12.136719 9.1875 12.136719 C 8.21875 12.136719 7.210938 12.941406 7.210938 12.941406 Z M 6.761719 12.035156 "/>
<path style=" stroke:none;fill-rule:nonzero;fill:rgb(32.54902%,32.54902%,32.54902%);fill-opacity:1;" d="M 9.347656 11.679688 C 8.628906 11.679688 7.9375 11.839844 7.414062 12.15625 L 6.835938 12.503906 L 7.355469 13.492188 C 7.6875 14.125 8.117188 14.714844 8.558594 15.132812 C 8.933594 15.492188 9.339844 15.785156 9.457031 15.785156 C 9.816406 15.785156 11.078125 14.410156 11.570312 13.488281 C 11.824219 13.015625 11.976562 12.660156 11.90625 12.699219 C 11.835938 12.742188 11.726562 12.644531 11.664062 12.480469 C 11.589844 12.300781 11.34375 12.113281 11.015625 11.988281 C 10.484375 11.785156 9.90625 11.683594 9.347656 11.679688 Z M 9.347656 11.679688 "/>
<path style=" stroke:none;fill-rule:nonzero;fill:rgb(94.901961%,94.901961%,94.901961%);fill-opacity:1;" d="M 18.25 9.128906 L 17.105469 9.128906 L 16.800781 10.214844 L 17.945312 10.214844 Z M 17.761719 6.761719 L 17.34375 8.285156 L 18.488281 8.285156 L 18.910156 6.761719 L 19.867188 6.761719 L 19.449219 8.285156 L 20.152344 8.285156 L 20.152344 9.128906 L 19.21875 9.128906 L 18.917969 10.214844 L 20.152344 10.214844 L 20.152344 11.066406 L 18.691406 11.066406 L 18.277344 12.582031 L 17.316406 12.582031 L 17.734375 11.066406 L 16.589844 11.066406 L 16.171875 12.582031 L 15.207031 12.582031 L 15.621094 11.066406 L 14.910156 11.066406 L 14.910156 10.214844 L 15.835938 10.214844 L 16.136719 9.128906 L 14.910156 9.128906 L 14.910156 8.285156 L 16.378906 8.285156 L 16.792969 6.761719 Z M 17.761719 6.761719 "/>
</g>
</svg>
