<?xml version="1.0" encoding="UTF-8"?>
<svg xmlns="http://www.w3.org/2000/svg" xmlns:xlink="http://www.w3.org/1999/xlink" width="24pt" height="24pt" viewBox="0 0 24 24" version="1.1">
<g id="surface1">
<path style=" stroke:none;fill-rule:evenodd;fill:rgb(46.27451%,35.294118%,30.196078%);fill-opacity:1;" d="M 5.605469 1.421875 L 18.394531 1.421875 C 20.703125 1.421875 22.578125 3.296875 22.578125 5.605469 L 22.578125 18.394531 C 22.578125 20.703125 20.703125 22.578125 18.394531 22.578125 L 5.605469 22.578125 C 3.296875 22.578125 1.421875 20.703125 1.421875 18.394531 L 1.421875 5.605469 C 1.421875 3.296875 3.296875 1.421875 5.605469 1.421875 Z M 5.605469 1.421875 "/>
<path style=" stroke:none;fill-rule:evenodd;fill:rgb(46.27451%,35.294118%,30.196078%);fill-opacity:1;" d="M 12 1.425781 L 12 4.394531 L 2.871094 4.394531 L 2.871094 2.492188 C 2 3.257812 1.425781 4.347656 1.425781 5.605469 L 1.425781 18.394531 C 1.425781 20.710938 3.289062 22.578125 5.605469 22.574219 L 18.394531 22.574219 C 20.710938 22.578125 22.578125 20.710938 22.574219 18.394531 L 22.574219 5.605469 C 22.578125 3.289062 20.710938 1.425781 18.394531 1.425781 Z M 12 1.425781 "/>
<path style=" stroke:none;fill-rule:evenodd;fill:rgb(28.627451%,56.078431%,70.588235%);fill-opacity:1;" d="M 9.71875 1.425781 L 9.71875 4.394531 L 12 4.394531 L 12 1.425781 Z M 9.71875 1.425781 "/>
<path style=" stroke:none;fill-rule:evenodd;fill:rgb(31.372549%,70.588235%,28.627451%);fill-opacity:1;" d="M 7.4375 1.425781 L 7.4375 4.394531 L 9.71875 4.394531 L 9.71875 1.425781 Z M 7.4375 1.425781 "/>
<path style=" stroke:none;fill-rule:evenodd;fill:rgb(94.509804%,63.529412%,29.019608%);fill-opacity:1;" d="M 5.152344 1.515625 L 5.152344 4.394531 L 7.4375 4.394531 L 7.4375 1.425781 L 5.605469 1.425781 C 5.445312 1.425781 5.308594 1.496094 5.152344 1.515625 Z M 5.152344 1.515625 "/>
<path style=" stroke:none;fill-rule:evenodd;fill:rgb(88.235294%,35.294118%,35.294118%);fill-opacity:1;" d="M 2.871094 2.492188 L 2.871094 4.394531 L 5.152344 4.394531 L 5.152344 1.515625 C 4.28125 1.613281 3.496094 1.945312 2.871094 2.492188 Z M 2.871094 2.492188 "/>
<path style=" stroke:none;fill-rule:nonzero;fill:rgb(21.960784%,21.960784%,21.960784%);fill-opacity:1;" d="M 19.609375 2.871094 C 20.449219 2.871094 21.128906 3.550781 21.128906 4.390625 C 21.128906 5.234375 20.449219 5.914062 19.609375 5.914062 C 18.765625 5.914062 18.085938 5.234375 18.085938 4.390625 C 18.085938 3.550781 18.765625 2.871094 19.609375 2.871094 Z M 19.609375 2.871094 "/>
<path style=" stroke:none;fill-rule:nonzero;fill:rgb(60.784314%,60.784314%,60.784314%);fill-opacity:1;" d="M 12 5.914062 C 15.359375 5.914062 18.085938 8.640625 18.085938 12 C 18.085938 15.359375 15.359375 18.085938 12 18.085938 C 8.640625 18.085938 5.914062 15.359375 5.914062 12 C 5.914062 8.640625 8.640625 5.914062 12 5.914062 Z M 12 5.914062 "/>
<path style=" stroke:none;fill-rule:nonzero;fill:rgb(76.862745%,76.862745%,76.862745%);fill-opacity:1;" d="M 12 8.195312 C 9.898438 8.195312 8.195312 9.898438 8.195312 12 C 8.195312 14.101562 9.898438 15.804688 12 15.804688 C 14.101562 15.804688 15.804688 14.101562 15.804688 12 C 15.804688 9.898438 14.101562 8.195312 12 8.195312 Z M 12 8.195312 "/>
</g>
</svg>
