<?xml version="1.0" encoding="UTF-8"?>
<svg xmlns="http://www.w3.org/2000/svg" xmlns:xlink="http://www.w3.org/1999/xlink" width="24pt" height="24pt" viewBox="0 0 24 24" version="1.1">
<g id="surface1">
<path style=" stroke:none;fill-rule:evenodd;fill:rgb(33.333333%,39.215686%,56.078431%);fill-opacity:1;" d="M 5.605469 1.421875 L 18.394531 1.421875 C 20.703125 1.421875 22.578125 3.296875 22.578125 5.605469 L 22.578125 18.394531 C 22.578125 20.703125 20.703125 22.578125 18.394531 22.578125 L 5.605469 22.578125 C 3.296875 22.578125 1.421875 20.703125 1.421875 18.394531 L 1.421875 5.605469 C 1.421875 3.296875 3.296875 1.421875 5.605469 1.421875 Z M 5.605469 1.421875 "/>
<path style=" stroke:none;fill-rule:evenodd;fill:rgb(100%,100%,100%);fill-opacity:1;" d="M 5.421875 5.25 C 8.335938 8.570312 8.722656 12 8.566406 14.25 C 8.433594 16.222656 7.21875 16.960938 6.988281 17.054688 C 6.503906 17.246094 5.367188 17.539062 3.75 16.5 C 3.75 17.710938 4.789062 18.75 6.601562 18.75 C 8.414062 18.75 9.894531 17.296875 10.195312 15.65625 C 11.242188 7.203125 9.253906 6.011719 9.253906 6.011719 C 9.253906 6.011719 7.433594 5.25 5.421875 5.25 Z M 11.25 5.25 C 11.78125 7.492188 15.75 8.378906 15.75 9.445312 C 15.75 10.511719 12.707031 10.695312 12.75 12.421875 C 12.792969 14.8125 16.632812 17.976562 20.25 18.75 C 18.660156 16.910156 14.648438 12.902344 15.972656 11.871094 C 20.734375 8.632812 16.367188 5.984375 11.25 5.25 Z M 11.25 5.25 "/>
</g>
</svg>
