<?xml version="1.0" encoding="UTF-8"?>
<svg xmlns="http://www.w3.org/2000/svg" xmlns:xlink="http://www.w3.org/1999/xlink" width="24pt" height="24pt" viewBox="0 0 24 24" version="1.1">
<g id="surface1">
<path style=" stroke:none;fill-rule:evenodd;fill:rgb(37.254902%,73.333333%,12.54902%);fill-opacity:1;" d="M 5.605469 1.421875 L 18.394531 1.421875 C 20.703125 1.421875 22.578125 3.296875 22.578125 5.605469 L 22.578125 18.394531 C 22.578125 20.703125 20.703125 22.578125 18.394531 22.578125 L 5.605469 22.578125 C 3.296875 22.578125 1.421875 20.703125 1.421875 18.394531 L 1.421875 5.605469 C 1.421875 3.296875 3.296875 1.421875 5.605469 1.421875 Z M 5.605469 1.421875 "/>
<path style=" stroke:none;fill-rule:nonzero;fill:rgb(100%,100%,100%);fill-opacity:1;" d="M 17.285156 5.800781 L 10.09375 7.457031 C 9.082031 7.585938 9.121094 8.621094 9.121094 8.621094 L 9.121094 13.046875 C 8.886719 12.980469 8.644531 12.945312 8.398438 12.945312 C 6.941406 12.945312 5.757812 14.125 5.757812 15.585938 C 5.757812 17.042969 6.941406 18.226562 8.398438 18.226562 C 9.765625 18.222656 10.902344 17.183594 11.027344 15.824219 L 11.039062 15.824219 L 11.039062 9.179688 L 16.320312 7.921875 L 16.320312 11.605469 C 16.085938 11.539062 15.84375 11.503906 15.601562 11.503906 C 14.140625 11.503906 12.960938 12.6875 12.960938 14.144531 C 12.960938 15.601562 14.140625 16.785156 15.601562 16.785156 C 16.964844 16.785156 18.105469 15.742188 18.230469 14.382812 L 18.242188 14.382812 L 18.242188 6.703125 C 18.242188 6.703125 18.253906 5.59375 17.285156 5.800781 Z M 17.285156 5.800781 "/>
</g>
</svg>
