<?xml version="1.0" encoding="UTF-8"?>
<svg xmlns="http://www.w3.org/2000/svg" xmlns:xlink="http://www.w3.org/1999/xlink" width="24pt" height="24pt" viewBox="0 0 24 24" version="1.1">
<g id="surface1">
<path style=" stroke:none;fill-rule:evenodd;fill:rgb(92.54902%,92.54902%,92.54902%);fill-opacity:1;" d="M 5.605469 1.421875 L 18.394531 1.421875 C 20.703125 1.421875 22.578125 3.296875 22.578125 5.605469 L 22.578125 18.394531 C 22.578125 20.703125 20.703125 22.578125 18.394531 22.578125 L 5.605469 22.578125 C 3.296875 22.578125 1.421875 20.703125 1.421875 18.394531 L 1.421875 5.605469 C 1.421875 3.296875 3.296875 1.421875 5.605469 1.421875 Z M 5.605469 1.421875 "/>
<path style=" stroke:none;fill-rule:nonzero;fill:rgb(76.078431%,20.784314%,16.470588%);fill-opacity:1;" d="M 11.421875 16.320312 C 11.421875 18.390625 9.746094 20.066406 7.679688 20.066406 C 5.609375 20.066406 3.933594 18.390625 3.933594 16.320312 C 3.933594 14.253906 5.609375 12.578125 7.679688 12.578125 C 9.746094 12.578125 11.421875 14.253906 11.421875 16.320312 Z M 11.421875 16.320312 "/>
<path style=" stroke:none;fill-rule:nonzero;fill:rgb(90.196078%,47.843137%,45.098039%);fill-opacity:1;" d="M 10.269531 16.320312 C 10.269531 17.753906 9.109375 18.914062 7.679688 18.914062 C 6.246094 18.914062 5.085938 17.753906 5.085938 16.320312 C 5.085938 14.890625 6.246094 13.730469 7.679688 13.730469 C 9.109375 13.730469 10.269531 14.890625 10.269531 16.320312 Z M 10.269531 16.320312 "/>
<path style=" stroke:none;fill-rule:nonzero;fill:rgb(27.45098%,63.529412%,28.627451%);fill-opacity:1;" d="M 16.035156 7.679688 C 16.035156 9.746094 14.355469 11.421875 12.289062 11.421875 C 10.21875 11.421875 8.542969 9.746094 8.542969 7.679688 C 8.542969 5.609375 10.21875 3.933594 12.289062 3.933594 C 14.355469 3.933594 16.035156 5.609375 16.035156 7.679688 Z M 16.035156 7.679688 "/>
<path style=" stroke:none;fill-rule:nonzero;fill:rgb(48.235294%,87.058824%,49.803922%);fill-opacity:1;" d="M 14.882812 7.679688 C 14.882812 9.109375 13.71875 10.269531 12.289062 10.269531 C 10.855469 10.269531 9.695312 9.109375 9.695312 7.679688 C 9.695312 6.246094 10.855469 5.085938 12.289062 5.085938 C 13.71875 5.085938 14.882812 6.246094 14.882812 7.679688 Z M 14.882812 7.679688 "/>
<path style=" stroke:none;fill-rule:nonzero;fill:rgb(55.686275%,32.54902%,67.058824%);fill-opacity:1;" d="M 20.066406 16.320312 C 20.066406 18.390625 18.390625 20.066406 16.320312 20.066406 C 14.253906 20.066406 12.578125 18.390625 12.578125 16.320312 C 12.578125 14.253906 14.253906 12.578125 16.320312 12.578125 C 18.390625 12.578125 20.066406 14.253906 20.066406 16.320312 Z M 20.066406 16.320312 "/>
<path style=" stroke:none;fill-rule:nonzero;fill:rgb(72.941176%,58.823529%,80%);fill-opacity:1;" d="M 18.914062 16.320312 C 18.914062 17.753906 17.753906 18.914062 16.320312 18.914062 C 14.890625 18.914062 13.730469 17.753906 13.730469 16.320312 C 13.730469 14.890625 14.890625 13.730469 16.320312 13.730469 C 17.753906 13.730469 18.914062 14.890625 18.914062 16.320312 Z M 18.914062 16.320312 "/>
</g>
</svg>
