<?xml version="1.0" encoding="UTF-8"?>
<svg xmlns="http://www.w3.org/2000/svg" xmlns:xlink="http://www.w3.org/1999/xlink" width="24pt" height="24pt" viewBox="0 0 24 24" version="1.1">
<defs>
<clipPath id="clip1">
  <rect width="24" height="24"/>
</clipPath>
<g id="surface6" clip-path="url(#clip1)">
<path style=" stroke:none;fill-rule:nonzero;fill:rgb(100%,71.372549%,40.784314%);fill-opacity:1;" d="M 6 6 C 4.757812 6 3.75 7.007812 3.75 8.25 C 3.75 9.492188 4.757812 10.5 6 10.5 C 6.53125 10.5 7.019531 10.316406 7.40625 10.007812 L 9.144531 11.085938 C 9.046875 11.382812 9 11.691406 9 12 C 9 12.308594 9.050781 12.617188 9.144531 12.914062 L 7.40625 13.992188 C 7.019531 13.683594 6.53125 13.5 6 13.5 C 4.757812 13.5 3.75 14.507812 3.75 15.75 C 3.75 16.992188 4.757812 18 6 18 C 7.242188 18 8.25 16.992188 8.25 15.75 C 8.25 15.578125 8.21875 15.421875 8.179688 15.257812 L 9.933594 14.167969 C 10.488281 14.699219 11.230469 15 12 15 C 12.769531 15 13.511719 14.703125 14.070312 14.167969 L 15.820312 15.257812 C 15.78125 15.417969 15.75 15.578125 15.75 15.75 C 15.75 16.992188 16.757812 18 18 18 C 19.242188 18 20.25 16.992188 20.25 15.75 C 20.25 14.507812 19.242188 13.5 18 13.5 C 17.46875 13.5 16.980469 13.683594 16.59375 13.992188 L 14.855469 12.914062 C 14.953125 12.617188 15 12.308594 15 12 C 15 11.691406 14.949219 11.382812 14.855469 11.089844 L 16.59375 10.007812 C 16.980469 10.316406 17.46875 10.5 18 10.5 C 19.242188 10.5 20.25 9.492188 20.25 8.25 C 20.25 7.007812 19.242188 6 18 6 C 16.757812 6 15.75 7.007812 15.75 8.25 C 15.75 8.421875 15.785156 8.578125 15.820312 8.742188 L 14.066406 9.832031 C 13.511719 9.300781 12.769531 9 12 9 C 11.230469 9 10.488281 9.296875 9.929688 9.832031 L 8.179688 8.742188 C 8.21875 8.582031 8.25 8.421875 8.25 8.25 C 8.25 7.007812 7.242188 6 6 6 Z M 6 6 "/>
</g>
</defs>
<g id="surface1">
<path style=" stroke:none;fill-rule:evenodd;fill:rgb(87.058824%,33.333333%,29.803922%);fill-opacity:1;" d="M 5.605469 1.421875 L 18.394531 1.421875 C 20.703125 1.421875 22.578125 3.296875 22.578125 5.605469 L 22.578125 18.394531 C 22.578125 20.703125 20.703125 22.578125 18.394531 22.578125 L 5.605469 22.578125 C 3.296875 22.578125 1.421875 20.703125 1.421875 18.394531 L 1.421875 5.605469 C 1.421875 3.296875 3.296875 1.421875 5.605469 1.421875 Z M 5.605469 1.421875 "/>
<use xlink:href="#surface6"/>
</g>
</svg>
