<?xml version="1.0" encoding="UTF-8"?>
<svg xmlns="http://www.w3.org/2000/svg" xmlns:xlink="http://www.w3.org/1999/xlink" width="24pt" height="24pt" viewBox="0 0 24 24" version="1.1">
<g id="surface1">
<path style=" stroke:none;fill-rule:evenodd;fill:rgb(35.686275%,35.686275%,35.686275%);fill-opacity:1;" d="M 5.605469 1.421875 L 18.394531 1.421875 C 20.703125 1.421875 22.578125 3.296875 22.578125 5.605469 L 22.578125 18.394531 C 22.578125 20.703125 20.703125 22.578125 18.394531 22.578125 L 5.605469 22.578125 C 3.296875 22.578125 1.421875 20.703125 1.421875 18.394531 L 1.421875 5.605469 C 1.421875 3.296875 3.296875 1.421875 5.605469 1.421875 Z M 5.605469 1.421875 "/>
<path style=" stroke:none;fill-rule:evenodd;fill:rgb(35.686275%,35.686275%,35.686275%);fill-opacity:1;" d="M 5.453125 1.453125 C 3.210938 1.539062 1.425781 3.34375 1.425781 5.605469 L 1.425781 18.394531 C 1.425781 20.710938 3.289062 22.574219 5.605469 22.574219 L 18.394531 22.574219 C 20.710938 22.574219 22.578125 20.710938 22.578125 18.394531 L 22.578125 5.605469 C 22.578125 3.289062 20.710938 1.425781 18.394531 1.425781 L 8.453125 1.425781 L 8.453125 2.597656 C 8.453125 2.804688 8.367188 2.992188 8.234375 3.125 C 8.097656 3.261719 7.910156 3.347656 7.703125 3.347656 L 6.203125 3.347656 C 5.996094 3.347656 5.804688 3.261719 5.671875 3.125 C 5.535156 2.992188 5.453125 2.804688 5.453125 2.597656 Z M 5.453125 1.453125 "/>
<path style=" stroke:none;fill-rule:evenodd;fill:rgb(21.568627%,21.568627%,21.568627%);fill-opacity:1;" d="M 5.453125 1.453125 L 5.453125 2.597656 C 5.453125 2.804688 5.535156 2.992188 5.671875 3.125 C 5.804688 3.261719 5.996094 3.347656 6.203125 3.347656 L 7.703125 3.347656 C 7.910156 3.347656 8.097656 3.261719 8.234375 3.125 C 8.367188 2.992188 8.453125 2.804688 8.453125 2.597656 L 8.453125 1.425781 L 5.605469 1.425781 C 5.550781 1.425781 5.503906 1.453125 5.453125 1.453125 Z M 5.453125 1.453125 "/>
<path style=" stroke:none;fill-rule:nonzero;fill:rgb(21.568627%,21.568627%,21.568627%);fill-opacity:1;" d="M 20.144531 5.472656 C 20.144531 5.886719 19.808594 6.222656 19.394531 6.222656 C 18.980469 6.222656 18.644531 5.886719 18.644531 5.472656 C 18.644531 5.058594 18.980469 4.722656 19.394531 4.722656 C 19.808594 4.722656 20.144531 5.058594 20.144531 5.472656 Z M 20.144531 5.472656 "/>
<path style=" stroke:none;fill-rule:nonzero;fill:rgb(21.568627%,21.568627%,21.568627%);fill-opacity:1;" d="M 18 12 C 18 15.3125 15.3125 18 12 18 C 8.6875 18 6 15.3125 6 12 C 6 8.6875 8.6875 6 12 6 C 15.3125 6 18 8.6875 18 12 Z M 18 12 "/>
<path style=" stroke:none;fill-rule:nonzero;fill:rgb(0%,58.431373%,52.941176%);fill-opacity:1;" d="M 16.5 12 C 16.5 9.515625 14.484375 7.5 12 7.5 C 9.515625 7.5 7.5 9.515625 7.5 12 C 7.5 14.484375 9.515625 16.5 12 16.5 C 14.484375 16.5 16.5 14.484375 16.5 12 Z M 16.5 12 "/>
<path style=" stroke:none;fill-rule:nonzero;fill:rgb(40%,74.901961%,71.764706%);fill-opacity:1;" d="M 15 12 C 15 13.65625 13.65625 15 12 15 C 10.34375 15 9 13.65625 9 12 C 9 10.34375 10.34375 9 12 9 C 13.65625 9 15 10.34375 15 12 Z M 15 12 "/>
</g>
</svg>
