<?xml version="1.0" encoding="UTF-8"?>
<svg xmlns="http://www.w3.org/2000/svg" xmlns:xlink="http://www.w3.org/1999/xlink" width="24pt" height="24pt" viewBox="0 0 24 24" version="1.1">
<g id="surface1">
<path style=" stroke:none;fill-rule:evenodd;fill:rgb(46.27451%,54.901961%,35.294118%);fill-opacity:1;" d="M 5.605469 1.421875 L 18.394531 1.421875 C 20.703125 1.421875 22.578125 3.296875 22.578125 5.605469 L 22.578125 18.394531 C 22.578125 20.703125 20.703125 22.578125 18.394531 22.578125 L 5.605469 22.578125 C 3.296875 22.578125 1.421875 20.703125 1.421875 18.394531 L 1.421875 5.605469 C 1.421875 3.296875 3.296875 1.421875 5.605469 1.421875 Z M 5.605469 1.421875 "/>
<path style=" stroke:none;fill-rule:nonzero;fill:rgb(100%,100%,50.196078%);fill-opacity:1;" d="M 7.5 18 L 16.5 18 L 16.5 20.25 L 7.5 20.25 Z M 7.5 18 "/>
<path style=" stroke:none;fill-rule:nonzero;fill:rgb(100%,100%,50.196078%);fill-opacity:1;" d="M 15 15 C 15 15.828125 14.328125 16.5 13.5 16.5 C 12.671875 16.5 12 15.828125 12 15 C 12 14.171875 12.671875 13.5 13.5 13.5 C 14.328125 13.5 15 14.171875 15 15 Z M 15 15 "/>
<path style=" stroke:none;fill-rule:nonzero;fill:rgb(100%,100%,50.196078%);fill-opacity:1;" d="M 10.5 3.75 L 13.5 3.75 L 13.5 6.75 L 10.5 6.75 Z M 10.5 3.75 "/>
<path style=" stroke:none;fill-rule:nonzero;fill:rgb(100%,100%,50.196078%);fill-opacity:1;" d="M 14.25 3.75 L 17.25 3.75 L 17.25 6.75 L 14.25 6.75 Z M 14.25 3.75 "/>
<path style=" stroke:none;fill-rule:nonzero;fill:rgb(100%,100%,50.196078%);fill-opacity:1;" d="M 18 3.75 L 21 3.75 L 21 6.75 L 18 6.75 Z M 18 3.75 "/>
<path style=" stroke:none;fill-rule:nonzero;fill:rgb(100%,100%,50.196078%);fill-opacity:1;" d="M 3 7.5 L 6 7.5 L 6 10.5 L 3 10.5 Z M 3 7.5 "/>
<path style=" stroke:none;fill-rule:nonzero;fill:rgb(100%,100%,50.196078%);fill-opacity:1;" d="M 10.5 7.5 L 13.5 7.5 L 13.5 10.5 L 10.5 10.5 Z M 10.5 7.5 "/>
<path style=" stroke:none;fill-rule:nonzero;fill:rgb(100%,100%,50.196078%);fill-opacity:1;" d="M 14.25 7.5 L 17.25 7.5 L 17.25 10.5 L 14.25 10.5 Z M 14.25 7.5 "/>
</g>
</svg>
