<?xml version="1.0" encoding="UTF-8"?>
<svg xmlns="http://www.w3.org/2000/svg" xmlns:xlink="http://www.w3.org/1999/xlink" width="24pt" height="24pt" viewBox="0 0 24 24" version="1.1">
<g id="surface1">
<path style=" stroke:none;fill-rule:evenodd;fill:rgb(23.137255%,43.921569%,62.352941%);fill-opacity:1;" d="M 5.605469 1.421875 L 18.394531 1.421875 C 20.703125 1.421875 22.578125 3.296875 22.578125 5.605469 L 22.578125 18.394531 C 22.578125 20.703125 20.703125 22.578125 18.394531 22.578125 L 5.605469 22.578125 C 3.296875 22.578125 1.421875 20.703125 1.421875 18.394531 L 1.421875 5.605469 C 1.421875 3.296875 3.296875 1.421875 5.605469 1.421875 Z M 5.605469 1.421875 "/>
<path style=" stroke:none;fill-rule:nonzero;fill:rgb(100%,100%,100%);fill-opacity:1;" d="M 11.25 6.75 C 11.25 8.820312 9.570312 10.5 7.5 10.5 C 5.429688 10.5 3.75 8.820312 3.75 6.75 C 3.75 4.679688 5.429688 3 7.5 3 C 9.570312 3 11.25 4.679688 11.25 6.75 Z M 11.25 6.75 "/>
<path style=" stroke:none;fill-rule:nonzero;fill:rgb(100%,40.392157%,33.72549%);fill-opacity:1;" d="M 20.25 6.75 C 20.25 8.820312 18.570312 10.5 16.5 10.5 C 14.429688 10.5 12.75 8.820312 12.75 6.75 C 12.75 4.679688 14.429688 3 16.5 3 C 18.570312 3 20.25 4.679688 20.25 6.75 Z M 20.25 6.75 "/>
<path style=" stroke:none;fill-rule:nonzero;fill:rgb(30.196078%,30.196078%,30.196078%);fill-opacity:1;" d="M 11.25 17.25 C 11.25 19.320312 9.570312 21 7.5 21 C 5.429688 21 3.75 19.320312 3.75 17.25 C 3.75 15.179688 5.429688 13.5 7.5 13.5 C 9.570312 13.5 11.25 15.179688 11.25 17.25 Z M 11.25 17.25 "/>
<path style=" stroke:none;fill-rule:nonzero;fill:rgb(100%,40.392157%,33.72549%);fill-opacity:1;" d="M 20.25 17.25 C 20.25 19.320312 18.570312 21 16.5 21 C 14.429688 21 12.75 19.320312 12.75 17.25 C 12.75 15.179688 14.429688 13.5 16.5 13.5 C 18.570312 13.5 20.25 15.179688 20.25 17.25 Z M 20.25 17.25 "/>
</g>
</svg>
