<?xml version="1.0" encoding="UTF-8"?>
<svg xmlns="http://www.w3.org/2000/svg" xmlns:xlink="http://www.w3.org/1999/xlink" width="24pt" height="24pt" viewBox="0 0 24 24" version="1.1">
<defs>
<filter id="alpha" filterUnits="objectBoundingBox" x="0%" y="0%" width="100%" height="100%">
  <feColorMatrix type="matrix" in="SourceGraphic" values="0 0 0 0 1 0 0 0 0 1 0 0 0 0 1 0 0 0 1 0"/>
</filter>
<mask id="mask0">
  <g filter="url(#alpha)">
<rect x="0" y="0" width="24" height="24" style="fill:rgb(0%,0%,0%);fill-opacity:0.976471;stroke:none;"/>
  </g>
</mask>
<clipPath id="clip1">
  <rect width="24" height="24"/>
</clipPath>
<g id="surface6" clip-path="url(#clip1)">
<path style=" stroke:none;fill-rule:evenodd;fill:rgb(58.823529%,77.254902%,1.176471%);fill-opacity:1;" d="M 22.554688 18.996094 L 22.007812 17.605469 C 22.007812 17.605469 20.277344 19.410156 20.277344 19.234375 C 20.277344 19.054688 19.90625 17.605469 19.90625 17.605469 L 18.480469 19.363281 L 17.800781 18.308594 L 16.070312 19.453125 L 15.425781 18.003906 L 14.304688 19.671875 L 12.777344 18.003906 L 11.691406 19.761719 L 10.808594 17.914062 L 9.925781 19.71875 L 8.566406 17.871094 L 7.957031 19.9375 L 6.972656 18.046875 L 6.257812 19.234375 L 4.597656 17.695312 C 4.597656 17.695312 4.15625 19.234375 4.085938 19.804688 C 4.054688 20.089844 3.730469 19.386719 3.417969 18.613281 C 3.101562 17.835938 2.796875 16.992188 2.796875 16.992188 C 2.796875 16.992188 2.171875 18.457031 1.742188 19.46875 C 2.226562 21.242188 3.777344 22.566406 5.707031 22.566406 L 18.496094 22.566406 C 20.597656 22.566406 22.25 21.007812 22.554688 18.996094 Z M 22.554688 18.996094 "/>
</g>
<mask id="mask1">
  <g filter="url(#alpha)">
<rect x="0" y="0" width="24" height="24" style="fill:rgb(0%,0%,0%);fill-opacity:0.976471;stroke:none;"/>
  </g>
</mask>
<clipPath id="clip2">
  <rect width="24" height="24"/>
</clipPath>
<g id="surface9" clip-path="url(#clip2)">
<path style=" stroke:none;fill-rule:evenodd;fill:rgb(67.843137%,85.882353%,12.156863%);fill-opacity:1;" d="M 22.589844 17.660156 C 22.113281 18.417969 21.730469 19.324219 21.425781 20.359375 C 21.507812 18.699219 21.695312 17.089844 21.871094 15.472656 C 21.503906 16.871094 21.164062 18.269531 20.867188 19.65625 C 20.785156 19.25 20.6875 18.878906 20.59375 18.5 C 20.675781 17.664062 20.804688 16.960938 21.003906 16.507812 C 20.855469 16.757812 20.722656 17.039062 20.597656 17.332031 C 20.644531 16.90625 20.683594 16.472656 20.730469 16.042969 C 20.597656 16.554688 20.46875 17.0625 20.34375 17.574219 C 20.214844 17.164062 20.074219 16.78125 19.910156 16.445312 C 20.050781 16.835938 20.140625 17.425781 20.210938 18.09375 C 20.082031 18.628906 19.964844 19.160156 19.847656 19.691406 C 19.738281 19.273438 19.613281 18.855469 19.496094 18.4375 C 19.59375 17.367188 19.707031 16.304688 19.824219 15.242188 C 19.621094 16.011719 19.429688 16.777344 19.25 17.542969 C 19.050781 16.875 18.851562 16.203125 18.640625 15.535156 C 18.714844 16.105469 18.792969 16.675781 18.867188 17.246094 C 18.832031 17.171875 18.800781 17.085938 18.769531 17.015625 C 18.824219 17.171875 18.863281 17.402344 18.910156 17.605469 C 18.949219 17.921875 18.984375 18.238281 19.019531 18.554688 C 19.003906 18.621094 18.988281 18.683594 18.972656 18.75 C 18.84375 18.421875 18.703125 18.105469 18.550781 17.828125 C 18.691406 18.167969 18.789062 18.648438 18.871094 19.199219 C 18.855469 19.273438 18.832031 19.351562 18.816406 19.425781 C 18.574219 18.191406 18.28125 17.066406 17.863281 16.214844 C 18.175781 17.078125 18.289062 18.746094 18.300781 20.8125 C 18.164062 20.308594 18.023438 19.816406 17.851562 19.378906 C 17.753906 19.046875 17.667969 18.714844 17.566406 18.382812 C 17.683594 18.070312 17.796875 17.753906 17.945312 17.433594 C 17.800781 17.675781 17.644531 17.910156 17.492188 18.144531 C 17.410156 17.875 17.339844 17.609375 17.257812 17.339844 C 17.296875 17.667969 17.339844 17.992188 17.386719 18.316406 C 17.273438 18.488281 17.160156 18.664062 17.050781 18.839844 C 16.886719 18.390625 16.707031 17.964844 16.503906 17.597656 C 16.660156 17.980469 16.773438 18.523438 16.859375 19.171875 C 16.785156 19.300781 16.707031 19.429688 16.640625 19.5625 C 16.460938 19.722656 16.300781 19.933594 16.148438 20.164062 C 16.042969 20.070312 15.933594 19.980469 15.820312 19.902344 C 15.800781 19.910156 15.785156 19.929688 15.765625 19.941406 C 15.75 19.921875 15.734375 19.902344 15.71875 19.882812 C 15.820312 19.167969 15.941406 18.503906 16.113281 17.980469 C 15.859375 18.421875 15.636719 18.941406 15.441406 19.511719 C 15.289062 19.214844 15.121094 18.933594 14.941406 18.664062 C 14.953125 18.628906 14.960938 18.582031 14.972656 18.550781 C 14.957031 18.578125 14.941406 18.613281 14.925781 18.640625 C 14.621094 18.183594 14.289062 17.753906 13.910156 17.386719 C 13.972656 17.492188 14 17.65625 14.054688 17.773438 C 14.058594 17.765625 14.0625 17.757812 14.066406 17.75 C 14.0625 17.757812 14.0625 17.769531 14.058594 17.78125 C 14.273438 18.230469 14.46875 18.707031 14.617188 19.261719 C 14.605469 19.289062 14.59375 19.316406 14.582031 19.34375 C 14.515625 19.402344 14.457031 19.46875 14.398438 19.539062 C 14.25 19.101562 14.09375 18.679688 13.945312 18.246094 C 13.984375 18.09375 14.015625 17.921875 14.058594 17.78125 C 14.058594 17.777344 14.054688 17.773438 14.054688 17.773438 C 13.996094 17.875 13.945312 17.992188 13.890625 18.097656 C 13.882812 18.074219 13.875 18.050781 13.867188 18.023438 C 13.875 18.054688 13.878906 18.082031 13.886719 18.113281 C 13.769531 18.34375 13.660156 18.59375 13.558594 18.855469 C 13.546875 18.132812 13.550781 17.476562 13.679688 17.039062 C 13.359375 17.699219 13.257812 18.765625 13.117188 19.707031 C 12.984375 19.339844 12.847656 18.976562 12.722656 18.59375 C 12.839844 19.054688 12.941406 19.503906 13.027344 19.953125 C 12.902344 20.125 12.789062 20.320312 12.691406 20.535156 C 12.609375 20.167969 12.519531 19.820312 12.417969 19.503906 C 12.402344 18.75 12.40625 18.058594 12.539062 17.609375 C 12.378906 17.9375 12.273438 18.371094 12.1875 18.839844 C 12.0625 18.496094 11.9375 18.152344 11.820312 17.796875 C 11.941406 18.277344 12.046875 18.75 12.132812 19.21875 C 12.078125 19.585938 12.019531 19.960938 11.964844 20.320312 C 11.84375 20.0625 11.703125 19.816406 11.523438 19.507812 C 11.507812 18.40625 11.453125 17.414062 11.632812 16.808594 C 11.414062 17.257812 11.304688 17.902344 11.207031 18.566406 C 11.140625 18.214844 11.066406 17.871094 10.964844 17.566406 C 10.992188 17.507812 11.011719 17.445312 11.039062 17.386719 C 11.003906 17.429688 10.976562 17.476562 10.945312 17.519531 C 10.882812 17.347656 10.816406 17.179688 10.734375 17.039062 C 10.792969 17.210938 10.832031 17.414062 10.855469 17.636719 C 10.726562 17.804688 10.59375 17.96875 10.476562 18.152344 C 10.488281 18.109375 10.496094 18.070312 10.507812 18.023438 C 10.472656 18.121094 10.429688 18.207031 10.394531 18.300781 C 10.136719 18.71875 9.90625 19.179688 9.703125 19.671875 C 9.628906 19.546875 9.542969 19.386719 9.449219 19.222656 C 9.574219 18.757812 9.71875 18.324219 9.898438 17.957031 C 9.664062 18.230469 9.453125 18.539062 9.253906 18.867188 C 9.246094 18.847656 9.238281 18.84375 9.230469 18.824219 C 9.238281 18.84375 9.242188 18.855469 9.25 18.875 C 9.097656 19.125 8.949219 19.386719 8.8125 19.664062 C 8.703125 19.386719 8.570312 19.136719 8.441406 18.886719 C 8.589844 18.242188 8.757812 17.640625 8.992188 17.15625 C 8.691406 17.511719 8.425781 17.921875 8.179688 18.363281 C 8.171875 18.347656 8.167969 18.332031 8.160156 18.316406 C 8.195312 17.992188 8.230469 17.667969 8.265625 17.339844 C 8.195312 17.609375 8.136719 17.875 8.066406 18.144531 C 7.941406 17.910156 7.8125 17.675781 7.691406 17.433594 C 7.800781 17.710938 7.882812 17.984375 7.96875 18.257812 C 7.910156 18.167969 7.859375 18.066406 7.800781 17.980469 C 7.867188 18.148438 7.910156 18.359375 7.96875 18.550781 C 7.9375 18.679688 7.910156 18.808594 7.878906 18.9375 C 7.742188 19.226562 7.613281 19.523438 7.492188 19.839844 C 7.339844 19.511719 7.183594 19.191406 7.019531 18.886719 C 7.054688 18.5625 7.089844 18.234375 7.125 17.910156 C 7.054688 18.179688 6.996094 18.445312 6.929688 18.714844 C 6.890625 18.644531 6.855469 18.570312 6.816406 18.5 C 6.90625 17.507812 7.011719 16.519531 7.121094 15.535156 C 6.851562 16.558594 6.601562 17.578125 6.367188 18.597656 C 6.28125 18.429688 6.203125 18.25 6.113281 18.085938 C 6.148438 17.761719 6.183594 17.433594 6.222656 17.109375 C 6.152344 17.378906 6.09375 17.644531 6.023438 17.914062 C 5.957031 17.792969 5.894531 17.667969 5.828125 17.546875 C 5.882812 17.066406 5.925781 16.582031 5.976562 16.101562 C 5.875 16.492188 5.78125 16.882812 5.683594 17.273438 C 5.671875 17.25 5.660156 17.226562 5.648438 17.203125 C 5.660156 17.234375 5.667969 17.265625 5.675781 17.296875 C 5.648438 17.410156 5.617188 17.519531 5.589844 17.632812 C 5.460938 17.226562 5.320312 16.839844 5.15625 16.507812 C 5.300781 16.894531 5.390625 17.488281 5.460938 18.160156 C 5.285156 18.871094 5.121094 19.578125 4.972656 20.285156 C 4.886719 19.863281 4.789062 19.480469 4.691406 19.089844 C 4.71875 18.734375 4.757812 18.382812 4.792969 18.03125 C 4.820312 17.96875 4.835938 17.882812 4.863281 17.828125 C 4.84375 17.859375 4.824219 17.898438 4.804688 17.933594 C 4.890625 17.054688 4.976562 16.175781 5.074219 15.304688 C 4.832031 16.21875 4.609375 17.132812 4.394531 18.042969 C 4.28125 17.695312 4.15625 17.363281 4.015625 17.074219 C 4.140625 17.417969 4.226562 17.921875 4.292969 18.488281 C 4.285156 18.523438 4.277344 18.554688 4.269531 18.589844 C 4.121094 18.1875 3.960938 17.804688 3.773438 17.46875 C 3.941406 17.875 4.050781 18.492188 4.132812 19.195312 C 4.125 19.222656 4.121094 19.253906 4.113281 19.285156 C 4.09375 19.332031 4.074219 19.386719 4.054688 19.4375 C 3.835938 18.324219 3.566406 17.3125 3.207031 16.5 C 3.214844 16.484375 3.21875 16.460938 3.226562 16.445312 C 3.21875 16.460938 3.210938 16.476562 3.203125 16.492188 C 3.171875 16.421875 3.144531 16.34375 3.109375 16.277344 C 3.136719 16.347656 3.152344 16.464844 3.175781 16.546875 C 2.835938 17.148438 2.578125 17.894531 2.347656 18.695312 C 2.167969 18.160156 1.964844 17.664062 1.726562 17.238281 C 1.929688 17.734375 2.058594 18.503906 2.140625 19.425781 C 2.121094 19.507812 2.097656 19.574219 2.078125 19.65625 C 1.886719 18.921875 1.652344 18.179688 1.433594 17.445312 C 1.101562 20.960938 3.332031 22.691406 6.101562 22.5625 C 7.75 22.609375 12.429688 22.566406 14.347656 22.566406 C 14.382812 22.175781 14.414062 21.757812 14.453125 21.382812 C 14.496094 21.78125 14.519531 22.171875 14.546875 22.566406 L 16.757812 22.566406 L 16.917969 22.445312 C 16.9375 22.484375 16.957031 22.527344 16.976562 22.566406 L 18.40625 22.566406 C 20.058594 22.566406 21.5 21.683594 22.179688 20.199219 C 22.195312 19.992188 22.160156 19.703125 22.179688 19.511719 C 22.261719 18.785156 22.414062 18.265625 22.585938 17.8125 Z M 5.8125 17.703125 C 5.863281 17.855469 5.917969 18.003906 5.964844 18.15625 C 5.925781 18.308594 5.890625 18.460938 5.855469 18.613281 C 5.820312 18.480469 5.792969 18.34375 5.761719 18.21875 C 5.777344 18.046875 5.796875 17.875 5.8125 17.703125 Z M 10.863281 17.808594 C 10.914062 18.535156 10.851562 19.464844 10.871094 20.464844 C 10.839844 20.570312 10.808594 20.671875 10.773438 20.761719 C 10.648438 20.523438 10.492188 20.277344 10.308594 19.9375 C 10.445312 19.144531 10.625 18.421875 10.863281 17.808594 Z M 13.929688 18.308594 C 14.046875 18.792969 14.144531 19.273438 14.226562 19.742188 C 14.027344 20.015625 13.84375 20.328125 13.660156 20.632812 C 13.867188 20.453125 14.070312 20.234375 14.273438 20.054688 C 14.28125 20.078125 14.28125 20.097656 14.285156 20.121094 C 14.078125 20.738281 13.902344 21.421875 13.746094 22.164062 C 13.699219 21.769531 13.625 21.421875 13.546875 21.09375 C 13.558594 20.839844 13.566406 20.589844 13.570312 20.339844 C 13.65625 19.578125 13.78125 18.90625 13.929688 18.308594 Z M 6.070312 18.476562 C 6.136719 18.707031 6.1875 18.929688 6.242188 19.15625 C 6.199219 19.34375 6.152344 19.53125 6.113281 19.714844 C 6.082031 19.546875 6.039062 19.398438 6 19.234375 C 6.027344 18.984375 6.042969 18.726562 6.070312 18.476562 Z M 17.4375 18.707031 C 17.488281 19.097656 17.535156 19.492188 17.585938 19.886719 C 17.484375 19.777344 17.382812 19.671875 17.273438 19.578125 C 17.257812 19.519531 17.242188 19.457031 17.226562 19.402344 C 17.292969 19.171875 17.355469 18.941406 17.4375 18.707031 Z M 6.792969 18.722656 C 6.816406 18.800781 6.84375 18.878906 6.867188 18.953125 C 6.835938 19.082031 6.808594 19.207031 6.777344 19.335938 C 6.765625 19.34375 6.753906 19.351562 6.742188 19.359375 C 6.738281 19.355469 6.738281 19.351562 6.734375 19.34375 C 6.75 19.136719 6.773438 18.929688 6.789062 18.722656 Z M 6.972656 19.277344 C 6.992188 19.34375 7.007812 19.410156 7.027344 19.476562 C 7.003906 19.464844 6.980469 19.453125 6.960938 19.4375 C 6.964844 19.386719 6.96875 19.332031 6.972656 19.277344 Z M 9.410156 19.394531 C 9.46875 19.578125 9.542969 19.777344 9.582031 19.941406 C 9.449219 20.28125 9.332031 20.632812 9.21875 21 C 9.195312 20.890625 9.164062 20.796875 9.136719 20.691406 C 9.214844 20.234375 9.308594 19.804688 9.410156 19.394531 Z M 8.253906 19.742188 C 8.308594 20.027344 8.363281 20.304688 8.40625 20.613281 C 8.289062 20.921875 8.175781 21.242188 8.074219 21.570312 C 8.058594 21.496094 8.039062 21.433594 8.023438 21.359375 C 8.046875 21.140625 8.082031 20.933594 8.109375 20.71875 C 8.171875 20.769531 8.226562 20.820312 8.289062 20.863281 C 8.234375 20.789062 8.175781 20.71875 8.121094 20.644531 C 8.164062 20.339844 8.203125 20.03125 8.253906 19.742188 Z M 14.742188 19.753906 L 14.746094 19.753906 C 14.746094 19.753906 14.746094 19.757812 14.75 19.757812 C 14.824219 20.097656 14.890625 20.457031 14.953125 20.820312 C 14.902344 20.90625 14.847656 20.988281 14.796875 21.078125 C 14.742188 20.777344 14.679688 20.492188 14.609375 20.234375 C 14.628906 20.085938 14.648438 19.925781 14.671875 19.789062 C 14.695312 19.777344 14.71875 19.761719 14.742188 19.753906 Z M 11.527344 19.847656 C 11.648438 20.269531 11.738281 20.660156 11.78125 21.011719 C 11.675781 20.789062 11.589844 20.527344 11.519531 20.226562 C 11.523438 20.101562 11.527344 19.972656 11.527344 19.847656 Z M 6.984375 19.980469 C 7.050781 20 7.109375 20.035156 7.171875 20.0625 C 7.207031 20.203125 7.238281 20.34375 7.269531 20.484375 C 7.238281 20.582031 7.199219 20.671875 7.171875 20.773438 C 7.117188 20.492188 7.050781 20.234375 6.972656 19.992188 C 6.976562 19.988281 6.980469 19.984375 6.984375 19.980469 Z M 10.285156 20.089844 C 10.410156 20.476562 10.511719 20.839844 10.570312 21.152344 C 10.492188 21.257812 10.402344 21.332031 10.296875 21.375 C 10.253906 21.148438 10.214844 21.015625 10.171875 20.851562 C 10.210938 20.597656 10.242188 20.335938 10.285156 20.089844 Z M 16.332031 20.273438 C 16.324219 20.289062 16.320312 20.308594 16.316406 20.324219 C 16.308594 20.316406 16.300781 20.3125 16.296875 20.304688 C 16.308594 20.292969 16.320312 20.285156 16.332031 20.273438 Z M 16.96875 20.394531 C 16.984375 20.640625 16.992188 20.910156 17.003906 21.175781 C 16.953125 21.105469 16.898438 21.042969 16.851562 20.972656 C 16.886719 20.78125 16.929688 20.589844 16.96875 20.394531 Z M 14.992188 21.023438 C 14.996094 21.050781 14.996094 21.074219 15 21.097656 C 14.964844 21.265625 14.921875 21.421875 14.886719 21.59375 C 14.867188 21.449219 14.839844 21.332031 14.816406 21.195312 C 14.875 21.136719 14.933594 21.082031 14.992188 21.027344 Z M 17.671875 21.125 C 17.6875 21.152344 17.707031 21.175781 17.722656 21.203125 C 17.730469 21.296875 17.742188 21.390625 17.75 21.484375 C 17.722656 21.363281 17.699219 21.242188 17.671875 21.125 Z M 12.421875 21.300781 C 12.421875 21.308594 12.421875 21.316406 12.421875 21.324219 C 12.421875 21.328125 12.421875 21.328125 12.421875 21.332031 C 12.421875 21.324219 12.421875 21.3125 12.421875 21.300781 Z M 12.421875 21.300781 "/>
</g>
<mask id="mask2">
  <g filter="url(#alpha)">
<rect x="0" y="0" width="24" height="24" style="fill:rgb(0%,0%,0%);fill-opacity:0.976471;stroke:none;"/>
  </g>
</mask>
<clipPath id="clip3">
  <rect width="24" height="24"/>
</clipPath>
<g id="surface12" clip-path="url(#clip3)">
<path style=" stroke:none;fill-rule:evenodd;fill:rgb(45.098039%,62.745098%,4.705882%);fill-opacity:1;" d="M 2.667969 15.761719 C 2.878906 17.726562 3.054688 19.710938 3.082031 21.757812 C 3.425781 21.992188 3.777344 22.1875 4.183594 22.316406 C 4.175781 21.109375 4.183594 19.980469 4.246094 19.0625 C 4.3125 18.054688 4.425781 17.257812 4.613281 16.738281 C 4.199219 17.589844 3.910156 18.71875 3.667969 19.957031 C 3.371094 18.566406 3.03125 17.164062 2.667969 15.761719 Z M 17.300781 15.824219 C 17.539062 18.035156 17.800781 20.234375 17.769531 22.566406 L 18.457031 22.566406 C 18.585938 22.566406 18.707031 22.5625 18.832031 22.550781 C 18.820312 21.28125 18.816406 20.0625 18.878906 19.097656 C 18.949219 18.105469 19.0625 17.3125 19.25 16.796875 C 18.835938 17.652344 18.542969 18.777344 18.300781 20.015625 C 18.003906 18.625 17.664062 17.226562 17.300781 15.824219 Z M 10.792969 17.335938 C 10.949219 17.863281 10.929688 18.671875 10.917969 19.601562 C 10.902344 20.519531 10.894531 21.558594 11.058594 22.566406 L 12.582031 22.566406 C 12.601562 22.074219 12.621094 21.621094 12.695312 21.121094 C 12.773438 20.609375 12.914062 20.050781 13.175781 19.355469 C 12.902344 19.914062 12.710938 20.171875 12.550781 20.480469 C 12.390625 20.789062 12.261719 21.148438 12.121094 21.910156 C 11.890625 21.820312 11.734375 21.570312 11.617188 21.226562 C 11.496094 20.882812 11.417969 20.445312 11.347656 19.976562 C 11.210938 19.039062 11.109375 17.984375 10.792969 17.335938 Z M 16.164062 17.632812 C 16.199219 17.960938 16.234375 18.289062 16.269531 18.613281 C 15.847656 19.398438 15.433594 20.195312 15.222656 21.308594 C 15.003906 20.582031 14.746094 19.90625 14.449219 19.296875 C 14.148438 18.6875 13.804688 18.144531 13.410156 17.679688 C 13.703125 18.28125 13.910156 19.039062 14.074219 19.882812 C 14.234375 20.714844 14.347656 21.632812 14.453125 22.566406 L 17.3125 22.566406 C 17.050781 21.277344 16.746094 19.980469 16.417969 18.683594 C 16.515625 18.367188 16.609375 18.046875 16.730469 17.726562 C 16.613281 17.972656 16.484375 18.207031 16.359375 18.441406 C 16.292969 18.171875 16.234375 17.902344 16.164062 17.632812 Z M 20.621094 17.761719 C 20.285156 18.375 20.011719 19.117188 19.78125 19.941406 C 19.570312 20.703125 19.402344 21.625 19.242188 22.492188 C 19.539062 22.4375 19.847656 22.351562 20.117188 22.238281 C 20.132812 21.3125 20.15625 20.429688 20.230469 19.710938 C 20.3125 18.882812 20.4375 18.214844 20.621094 17.761719 Z M 5.964844 18.125 C 5.648438 18.695312 5.394531 19.382812 5.171875 20.144531 C 4.972656 20.84375 4.777344 21.652344 4.625 22.445312 C 4.898438 22.5 5.175781 22.566406 5.464844 22.566406 L 6.257812 22.566406 C 6.46875 22.136719 6.667969 21.683594 6.894531 21.285156 C 7.125 20.867188 7.386719 20.511719 7.710938 20.285156 C 8.085938 20.402344 8.425781 20.855469 8.78125 21.167969 C 8.414062 20.546875 8.0625 19.890625 7.542969 19.632812 C 7.097656 19.933594 6.738281 20.367188 6.40625 20.847656 C 6.078125 21.324219 5.773438 21.847656 5.445312 22.332031 C 5.480469 20.441406 5.628906 18.945312 5.964844 18.125 Z M 8.378906 18.277344 C 8.726562 19.34375 8.898438 20.90625 9.03125 22.566406 L 9.949219 22.566406 C 10.054688 21.191406 10.234375 19.789062 10.609375 18.320312 C 10.242188 19.445312 9.789062 20.375 9.597656 21.898438 C 9.300781 20.445312 8.910156 19.203125 8.378906 18.277344 Z M 8.378906 18.277344 "/>
</g>
<mask id="mask3">
  <g filter="url(#alpha)">
<rect x="0" y="0" width="24" height="24" style="fill:rgb(0%,0%,0%);fill-opacity:0.976471;stroke:none;"/>
  </g>
</mask>
<clipPath id="clip4">
  <rect width="24" height="24"/>
</clipPath>
<g id="surface15" clip-path="url(#clip4)">
<path style=" stroke:none;fill-rule:evenodd;fill:rgb(30.196078%,51.372549%,1.568627%);fill-opacity:1;" d="M 5.496094 17.167969 C 5.09375 18.296875 4.714844 19.417969 4.386719 20.535156 C 4.117188 19.542969 3.792969 18.636719 3.332031 17.953125 C 3.535156 18.363281 3.667969 19 3.742188 19.796875 C 3.800781 20.449219 3.773438 21.320312 3.769531 22.152344 C 4.132812 22.335938 4.570312 22.445312 4.984375 22.515625 C 4.972656 20.699219 5.238281 18.894531 5.496094 17.167969 Z M 19.617188 17.902344 C 19.824219 18.320312 19.953125 18.960938 20.027344 19.765625 C 20.089844 20.464844 20.125 21.339844 20.117188 22.238281 C 20.433594 22.105469 20.710938 21.925781 20.980469 21.71875 C 20.859375 21.160156 20.695312 20.523438 20.539062 20.011719 C 20.296875 19.203125 20.003906 18.480469 19.617188 17.902344 Z M 12.738281 18.382812 C 12.390625 18.90625 12.277344 19.75 12.121094 20.503906 C 12.046875 20.878906 11.957031 21.230469 11.828125 21.507812 C 11.695312 21.785156 11.519531 21.988281 11.265625 22.058594 C 11.105469 21.445312 10.960938 21.160156 10.785156 20.910156 C 10.605469 20.664062 10.390625 20.457031 10.085938 20.007812 C 10.386719 20.578125 10.542969 21.015625 10.625 21.417969 C 10.707031 21.808594 10.726562 22.164062 10.746094 22.566406 L 12.445312 22.566406 C 12.625 21.761719 12.621094 20.933594 12.605469 20.199219 C 12.585938 19.453125 12.566406 18.804688 12.738281 18.382812 Z M 6.765625 18.625 C 6.6875 18.839844 6.621094 19.054688 6.542969 19.273438 C 6.402344 19.082031 6.261719 18.894531 6.132812 18.699219 C 6.265625 18.957031 6.371094 19.210938 6.480469 19.464844 C 6.121094 20.492188 5.757812 21.539062 5.472656 22.558594 C 5.523438 22.5625 5.597656 22.566406 5.648438 22.566406 L 8.671875 22.566406 C 8.789062 21.820312 8.914062 21.089844 9.089844 20.425781 C 9.269531 19.75 9.503906 19.144531 9.828125 18.660156 C 9.386719 19.035156 9.007812 19.46875 8.675781 19.960938 C 8.339844 20.449219 8.058594 20.988281 7.8125 21.574219 C 7.578125 20.679688 7.113281 20.042969 6.644531 19.410156 C 6.683594 19.148438 6.726562 18.886719 6.765625 18.625 Z M 1.804688 18.726562 C 2.011719 19.089844 2.148438 19.625 2.242188 20.289062 C 2.257812 20.410156 2.261719 20.847656 2.273438 20.980469 C 2.507812 21.320312 2.757812 21.503906 3.082031 21.757812 C 2.96875 21.375 2.871094 20.824219 2.734375 20.472656 C 2.480469 19.8125 2.179688 19.21875 1.804688 18.726562 Z M 18.113281 19.015625 C 18.300781 19.347656 18.433594 19.8125 18.527344 20.382812 C 18.617188 20.957031 18.671875 21.636719 18.691406 22.394531 C 18.324219 22.007812 17.988281 21.589844 17.621094 21.203125 C 17.253906 20.820312 16.851562 20.472656 16.359375 20.230469 C 15.78125 20.4375 15.386719 20.964844 14.976562 21.460938 C 15.375 21.210938 15.753906 20.84375 16.171875 20.75 C 16.53125 20.933594 16.816406 21.21875 17.074219 21.550781 C 17.320312 21.867188 17.539062 22.226562 17.769531 22.566406 L 18.4375 22.566406 C 18.828125 22.566406 19.230469 22.523438 19.589844 22.425781 C 19.425781 21.828125 19.203125 21.164062 18.992188 20.636719 C 18.75 20.027344 18.464844 19.476562 18.113281 19.015625 Z M 15.425781 19.140625 C 14.835938 19.882812 14.402344 20.882812 14.070312 22.050781 C 13.855469 20.824219 13.351562 20.078125 12.945312 19.175781 C 13.355469 20.347656 13.558594 21.46875 13.679688 22.566406 L 14.703125 22.566406 C 14.851562 21.238281 15.042969 19.992188 15.425781 19.140625 Z M 15.425781 19.140625 "/>
</g>
<clipPath id="clip5">
  <rect width="24" height="24"/>
</clipPath>
<g id="surface18" clip-path="url(#clip5)">
<path style=" stroke:none;fill-rule:evenodd;fill:rgb(100%,100%,100%);fill-opacity:1;" d="M 17.1875 4.035156 C 18.832031 4.035156 20.167969 5.371094 20.167969 7.015625 C 20.167969 8.664062 18.832031 10 17.1875 10 C 15.539062 10 14.203125 8.664062 14.203125 7.015625 C 14.203125 5.371094 15.539062 4.035156 17.1875 4.035156 Z M 17.1875 4.035156 "/>
</g>
</defs>
<g id="surface1">
<path style=" stroke:none;fill-rule:evenodd;fill:rgb(24.313725%,36.470588%,61.960784%);fill-opacity:1;" d="M 5.625 1.414062 L 18.417969 1.414062 C 20.726562 1.414062 22.597656 3.285156 22.597656 5.597656 L 22.597656 18.386719 C 22.597656 20.695312 20.726562 22.566406 18.417969 22.566406 L 5.625 22.566406 C 3.316406 22.566406 1.445312 20.695312 1.445312 18.386719 L 1.445312 5.597656 C 1.445312 3.285156 3.316406 1.414062 5.625 1.414062 Z M 5.625 1.414062 "/>
<use xlink:href="#surface6" mask="url(#mask0)"/>
<use xlink:href="#surface9" mask="url(#mask1)"/>
<use xlink:href="#surface12" mask="url(#mask2)"/>
<use xlink:href="#surface15" mask="url(#mask3)"/>
<path style=" stroke:none;fill-rule:nonzero;fill:rgb(45.098039%,62.745098%,4.705882%);fill-opacity:1;" d="M 5.609375 18.230469 C 5.957031 19.3125 6.125 20.886719 6.257812 22.566406 L 7.144531 22.566406 C 7.253906 21.175781 7.433594 19.761719 7.804688 18.277344 C 7.441406 19.402344 6.996094 20.332031 6.808594 21.855469 C 6.515625 20.402344 6.132812 19.160156 5.609375 18.230469 Z M 5.609375 18.230469 "/>
<use xlink:href="#surface18"/>
</g>
</svg>
