<?xml version="1.0" encoding="UTF-8"?>
<svg xmlns="http://www.w3.org/2000/svg" xmlns:xlink="http://www.w3.org/1999/xlink" width="24pt" height="24pt" viewBox="0 0 24 24" version="1.1">
<defs>
<clipPath id="clip1">
  <rect width="24" height="24"/>
</clipPath>
<g id="surface6" clip-path="url(#clip1)">
<path style=" stroke:none;fill-rule:nonzero;fill:rgb(100%,100%,100%);fill-opacity:1;" d="M 10.242188 3.886719 C 10.121094 3.992188 10.089844 4.15625 10.089844 4.347656 C 10.089844 4.699219 10.214844 5.132812 10.273438 5.296875 C 10.273438 5.296875 10.367188 7.195312 10.398438 7.414062 C 10.121094 7.441406 9.628906 7.46875 9.445312 7.523438 L 9.199219 7.523438 C 8.675781 7.550781 8.183594 7.574219 7.96875 7.765625 L 7.875 7.847656 L 7.96875 7.957031 C 8.121094 8.117188 8.183594 8.582031 8.246094 9.070312 C 8.398438 10.074219 8.582031 11.320312 9.503906 11.808594 L 9.691406 11.890625 L 9.691406 11.699219 C 9.691406 11.699219 9.722656 11.621094 9.722656 11.511719 C 9.722656 11.429688 9.691406 11.292969 9.660156 11.105469 C 9.90625 11.132812 10.429688 11.183594 10.613281 11.183594 C 10.644531 11.402344 11.445312 20.25 11.445312 20.25 L 11.75 20.25 C 11.75 20.25 12.089844 11.511719 12.089844 11.238281 C 12.304688 11.238281 13.257812 11.265625 13.535156 11.292969 C 13.476562 11.457031 13.230469 12.136719 13.230469 12.136719 L 13.660156 11.78125 C 13.78125 11.703125 16.460938 9.558594 16.089844 8.144531 C 15.96875 7.683594 15.535156 7.359375 14.828125 7.195312 L 14.765625 7.195312 C 14.367188 7.195312 13.136719 7.222656 12.214844 7.277344 C 12.242188 6.574219 12.242188 6.191406 12.242188 6.003906 L 12.242188 5.757812 C 12.242188 5.621094 12.398438 5.433594 12.519531 5.296875 C 12.644531 5.132812 12.796875 5 12.796875 4.835938 C 12.796875 4.78125 12.765625 4.726562 12.738281 4.671875 C 12.550781 4.429688 11.199219 3.804688 10.613281 3.75 C 10.429688 3.777344 10.304688 3.804688 10.246094 3.886719 Z M 10.273438 8.335938 L 10.429688 8.335938 C 10.429688 8.582031 10.519531 10.289062 10.550781 10.535156 C 10.304688 10.507812 9.722656 10.453125 9.535156 10.453125 C 9.445312 10.101562 9.414062 9.71875 9.382812 9.339844 C 9.351562 9.015625 9.320312 8.6875 9.257812 8.390625 C 9.535156 8.390625 10.273438 8.335938 10.273438 8.335938 Z M 12.152344 9.175781 C 12.152344 9.175781 12.183594 8.527344 12.183594 8.308594 C 12.582031 8.363281 13.105469 8.390625 13.597656 8.390625 L 14.152344 8.390625 C 14.152344 8.5 14.121094 8.632812 14.121094 8.632812 C 14.058594 9.230469 13.96875 9.9375 13.691406 10.644531 C 13.503906 10.644531 12.367188 10.589844 12.121094 10.5625 C 12.121094 10.371094 12.152344 9.175781 12.152344 9.175781 Z M 12.152344 9.175781 "/>
</g>
</defs>
<g id="surface1">
<path style=" stroke:none;fill-rule:evenodd;fill:rgb(76.078431%,20.784314%,16.470588%);fill-opacity:1;" d="M 5.605469 1.421875 L 18.394531 1.421875 C 20.703125 1.421875 22.578125 3.296875 22.578125 5.605469 L 22.578125 18.394531 C 22.578125 20.703125 20.703125 22.578125 18.394531 22.578125 L 5.605469 22.578125 C 3.296875 22.578125 1.421875 20.703125 1.421875 18.394531 L 1.421875 5.605469 C 1.421875 3.296875 3.296875 1.421875 5.605469 1.421875 Z M 5.605469 1.421875 "/>
<use xlink:href="#surface6"/>
</g>
</svg>
