<?xml version="1.0" encoding="UTF-8"?>
<svg xmlns="http://www.w3.org/2000/svg" xmlns:xlink="http://www.w3.org/1999/xlink" width="24pt" height="24pt" viewBox="0 0 24 24" version="1.1">
<g id="surface1">
<path style=" stroke:none;fill-rule:evenodd;fill:rgb(88.627451%,81.960784%,26.666667%);fill-opacity:1;" d="M 5.605469 1.421875 L 18.394531 1.421875 C 20.703125 1.421875 22.578125 3.296875 22.578125 5.605469 L 22.578125 18.394531 C 22.578125 20.703125 20.703125 22.578125 18.394531 22.578125 L 5.605469 22.578125 C 3.296875 22.578125 1.421875 20.703125 1.421875 18.394531 L 1.421875 5.605469 C 1.421875 3.296875 3.296875 1.421875 5.605469 1.421875 Z M 5.605469 1.421875 "/>
<path style=" stroke:none;fill-rule:nonzero;fill:rgb(47.45098%,44.313725%,19.215686%);fill-opacity:1;" d="M 5.476562 1.421875 L 6.628906 1.421875 L 6.628906 7.777344 L 5.476562 7.777344 Z M 5.476562 1.421875 "/>
<path style=" stroke:none;fill-rule:nonzero;fill:rgb(47.45098%,44.313725%,19.215686%);fill-opacity:1;" d="M 14.140625 1.421875 L 15.296875 1.421875 L 15.296875 6.046875 L 14.140625 6.046875 Z M 14.140625 1.421875 "/>
<path style=" stroke:none;fill-rule:nonzero;fill:rgb(47.45098%,44.313725%,19.215686%);fill-opacity:1;" d="M 7.207031 1.421875 L 8.363281 1.421875 L 8.363281 4.3125 L 7.207031 4.3125 Z M 7.207031 1.421875 "/>
<path style=" stroke:none;fill-rule:nonzero;fill:rgb(47.45098%,44.313725%,19.215686%);fill-opacity:1;" d="M 4.320312 8.933594 L 4.320312 13.558594 L 7.785156 13.558594 L 7.785156 8.933594 Z M 5.476562 10.089844 L 6.628906 10.089844 L 6.628906 12.402344 L 5.476562 12.402344 Z M 5.476562 10.089844 "/>
<path style=" stroke:none;fill-rule:nonzero;fill:rgb(47.45098%,44.313725%,19.215686%);fill-opacity:1;" d="M 8.941406 1.421875 L 10.097656 1.421875 L 10.097656 4.3125 L 8.941406 4.3125 Z M 8.941406 1.421875 "/>
<path style=" stroke:none;fill-rule:nonzero;fill:rgb(47.45098%,44.313725%,19.215686%);fill-opacity:1;" d="M 10.675781 1.421875 L 11.832031 1.421875 L 11.832031 4.3125 L 10.675781 4.3125 Z M 10.675781 1.421875 "/>
<path style=" stroke:none;fill-rule:nonzero;fill:rgb(47.45098%,44.313725%,19.215686%);fill-opacity:1;" d="M 12.410156 1.421875 L 13.5625 1.421875 L 13.5625 4.3125 L 12.410156 4.3125 Z M 12.410156 1.421875 "/>
<path style=" stroke:none;fill-rule:nonzero;fill:rgb(47.45098%,44.313725%,19.215686%);fill-opacity:1;" d="M 15.875 1.421875 L 17.03125 1.421875 L 17.03125 4.3125 L 15.875 4.3125 Z M 15.875 1.421875 "/>
<path style=" stroke:none;fill-rule:nonzero;fill:rgb(47.45098%,44.313725%,19.215686%);fill-opacity:1;" d="M 17.609375 1.421875 L 18.765625 1.421875 L 18.765625 4.3125 L 17.609375 4.3125 Z M 17.609375 1.421875 "/>
</g>
</svg>
