<?xml version="1.0" encoding="UTF-8"?>
<svg xmlns="http://www.w3.org/2000/svg" xmlns:xlink="http://www.w3.org/1999/xlink" width="24pt" height="24pt" viewBox="0 0 24 24" version="1.1">
<defs>
<linearGradient id="linear0" gradientUnits="userSpaceOnUse" x1="0" y1="24" x2="0" y2="19" gradientTransform="matrix(0.68844,0,0,0.75,-3.76125,-6.375)">
<stop offset="0" style="stop-color:rgb(28.235294%,28.235294%,28.235294%);stop-opacity:1;"/>
<stop offset="0.494" style="stop-color:rgb(31.372549%,31.372549%,31.372549%);stop-opacity:1;"/>
<stop offset="1" style="stop-color:rgb(28.235294%,28.235294%,28.235294%);stop-opacity:1;"/>
</linearGradient>
</defs>
<g id="surface1">
<path style=" stroke:none;fill-rule:evenodd;fill:rgb(80%,80%,80%);fill-opacity:1;" d="M 5.605469 1.421875 L 18.394531 1.421875 C 20.703125 1.421875 22.578125 3.296875 22.578125 5.605469 L 22.578125 18.394531 C 22.578125 20.703125 20.703125 22.578125 18.394531 22.578125 L 5.605469 22.578125 C 3.296875 22.578125 1.421875 20.703125 1.421875 18.394531 L 1.421875 5.605469 C 1.421875 3.296875 3.296875 1.421875 5.605469 1.421875 Z M 5.605469 1.421875 "/>
<path style=" stroke:none;fill-rule:evenodd;fill:url(#linear0);" d="M 4.867188 7.875 C 4.664062 7.875 4.5 8.042969 4.5 8.25 L 4.5 11.25 C 4.5 11.457031 4.664062 11.625 4.867188 11.625 L 16.890625 11.625 C 17.625 11.625 18.210938 11.046875 18.257812 10.3125 C 18.535156 10.296875 18.75 10.050781 18.75 9.75 C 18.75 9.449219 18.535156 9.203125 18.257812 9.1875 C 18.210938 8.453125 17.625 7.875 16.890625 7.875 Z M 4.867188 7.875 "/>
<path style=" stroke:none;fill-rule:nonzero;fill:rgb(55.294118%,41.568627%,24.313725%);fill-opacity:1;" d="M 9 11.625 L 9 13.125 L 16.5 13.125 L 19.5 16.125 L 19.5 15.375 L 16.5 11.625 Z M 9 11.625 "/>
<path style=" stroke:none;fill-rule:nonzero;fill:rgb(70.980392%,54.117647%,33.333333%);fill-opacity:1;" d="M 10.5 11.625 C 9.257812 11.625 8.25 12.632812 8.25 13.875 C 8.25 15.117188 9.257812 16.125 10.5 16.125 C 11.742188 16.125 12.75 15.117188 12.75 13.875 C 12.75 12.632812 11.742188 11.625 10.5 11.625 Z M 10.726562 12.089844 C 11.042969 12.132812 11.347656 12.257812 11.601562 12.453125 L 10.726562 13.332031 L 10.726562 12.089844 M 10.273438 12.089844 L 10.273438 13.332031 L 9.398438 12.453125 C 9.652344 12.257812 9.957031 12.132812 10.273438 12.089844 M 11.921875 12.773438 C 12.117188 13.027344 12.242188 13.332031 12.285156 13.648438 L 11.042969 13.648438 Z M 9.082031 12.773438 L 9.957031 13.648438 L 8.714844 13.648438 C 8.757812 13.332031 8.882812 13.027344 9.082031 12.773438 M 8.71875 14.101562 L 9.957031 14.101562 L 9.078125 14.976562 C 8.882812 14.722656 8.757812 14.421875 8.71875 14.101562 M 11.042969 14.101562 L 12.285156 14.101562 C 12.242188 14.421875 12.117188 14.722656 11.921875 14.976562 L 11.042969 14.101562 M 10.273438 14.417969 L 10.273438 15.660156 C 9.957031 15.621094 9.652344 15.496094 9.398438 15.296875 L 10.273438 14.417969 M 10.726562 14.417969 L 11.601562 15.296875 C 11.347656 15.496094 11.042969 15.617188 10.726562 15.660156 Z M 10.726562 14.417969 "/>
</g>
</svg>
