<?xml version="1.0" encoding="UTF-8"?>
<svg xmlns="http://www.w3.org/2000/svg" xmlns:xlink="http://www.w3.org/1999/xlink" width="24pt" height="24pt" viewBox="0 0 24 24" version="1.1">
<g id="surface1">
<path style=" stroke:none;fill-rule:evenodd;fill:rgb(100%,34.117647%,13.333333%);fill-opacity:1;" d="M 22.574219 9.167969 L 22.574219 5.605469 C 22.574219 3.289062 20.710938 1.421875 18.394531 1.421875 L 14.832031 1.421875 Z M 22.574219 9.167969 "/>
<path style=" stroke:none;fill-rule:evenodd;fill:rgb(100%,34.117647%,13.333333%);fill-opacity:1;" d="M 13.582031 1.425781 L 5.605469 1.425781 C 3.289062 1.425781 1.421875 3.289062 1.421875 5.605469 L 1.421875 18.394531 C 1.421875 20.710938 3.289062 22.578125 5.605469 22.578125 L 18.394531 22.578125 C 20.710938 22.578125 22.574219 20.710938 22.574219 18.394531 L 22.574219 10.417969 Z M 13.582031 1.425781 "/>
<path style=" stroke:none;fill-rule:evenodd;fill:rgb(100%,100%,100%);fill-opacity:1;" d="M 13.582031 1.425781 L 22.574219 10.417969 L 22.574219 9.167969 L 14.832031 1.425781 Z M 13.582031 1.425781 "/>
<path style=" stroke:none;fill-rule:nonzero;fill:rgb(100%,100%,100%);fill-opacity:1;" d="M 8.042969 9.648438 C 7.136719 9.648438 6.296875 10.132812 5.839844 10.917969 C 5.386719 11.707031 5.386719 12.675781 5.839844 13.460938 C 6.175781 14.042969 6.730469 14.46875 7.378906 14.640625 C 7.449219 14.660156 7.519531 14.675781 7.589844 14.691406 C 7.640625 14.699219 7.6875 14.707031 7.738281 14.714844 C 7.757812 14.71875 7.78125 14.71875 7.804688 14.722656 C 8.339844 14.78125 8.878906 14.667969 9.34375 14.398438 C 10.132812 13.945312 10.617188 13.105469 10.617188 12.195312 L 8.042969 12.195312 Z M 8.042969 9.648438 "/>
<path style=" stroke:none;fill-rule:nonzero;fill:rgb(100%,100%,100%);fill-opacity:1;" d="M 12.453125 10.238281 L 18.007812 10.238281 C 18.277344 10.238281 18.496094 10.457031 18.496094 10.726562 C 18.496094 11 18.277344 11.21875 18.007812 11.21875 L 12.453125 11.21875 C 12.183594 11.21875 11.964844 11 11.964844 10.726562 C 11.964844 10.457031 12.183594 10.238281 12.453125 10.238281 Z M 12.453125 10.238281 "/>
<path style=" stroke:none;fill-rule:nonzero;fill:rgb(100%,100%,100%);fill-opacity:1;" d="M 12.453125 13.175781 L 18.007812 13.175781 C 18.277344 13.175781 18.496094 13.398438 18.496094 13.667969 C 18.496094 13.9375 18.277344 14.15625 18.007812 14.15625 L 12.453125 14.15625 C 12.183594 14.15625 11.964844 13.9375 11.964844 13.667969 C 11.964844 13.398438 12.183594 13.175781 12.453125 13.175781 Z M 12.453125 13.175781 "/>
<path style=" stroke:none;fill-rule:nonzero;fill:rgb(100%,100%,100%);fill-opacity:1;" d="M 6.574219 16.117188 L 15.398438 16.117188 C 15.667969 16.117188 15.890625 16.335938 15.890625 16.605469 C 15.890625 16.878906 15.667969 17.097656 15.398438 17.097656 L 6.574219 17.097656 C 6.304688 17.097656 6.085938 16.878906 6.085938 16.605469 C 6.085938 16.335938 6.304688 16.117188 6.574219 16.117188 Z M 6.574219 16.117188 "/>
</g>
</svg>
