<?xml version="1.0" encoding="UTF-8"?>
<svg xmlns="http://www.w3.org/2000/svg" xmlns:xlink="http://www.w3.org/1999/xlink" width="24pt" height="24pt" viewBox="0 0 24 24" version="1.1">
<g id="surface1">
<path style=" stroke:none;fill-rule:evenodd;fill:rgb(97.254902%,70.588235%,9.019608%);fill-opacity:1;" d="M 2.648438 21.351562 L 21.355469 2.644531 C 20.597656 1.890625 19.554688 1.421875 18.394531 1.421875 L 5.605469 1.421875 C 3.289062 1.421875 1.421875 3.289062 1.421875 5.605469 L 1.421875 18.394531 C 1.421875 19.554688 1.890625 20.597656 2.648438 21.351562 Z M 2.648438 21.351562 "/>
<path style=" stroke:none;fill-rule:evenodd;fill:rgb(80%,80%,80%);fill-opacity:1;" d="M 12.96875 22.574219 L 12.96875 16.402344 L 11.253906 16.402344 L 11.253906 22.574219 Z M 12.96875 22.574219 "/>
<path style=" stroke:none;fill-rule:evenodd;fill:rgb(40%,17.254902%,56.078431%);fill-opacity:1;" d="M 11.757812 12.242188 L 2.648438 21.351562 L 2.648438 21.355469 C 3.402344 22.109375 4.449219 22.578125 5.605469 22.578125 L 11.253906 22.578125 L 11.253906 16.402344 L 12.96875 16.402344 L 12.96875 22.578125 L 18.394531 22.578125 C 19.429688 22.578125 20.339844 22.164062 21.066406 21.550781 Z M 11.757812 12.242188 "/>
<path style=" stroke:none;fill-rule:evenodd;fill:rgb(0.784314%,65.882353%,84.705882%);fill-opacity:1;" d="M 11.757812 12.242188 L 21.066406 21.550781 C 21.972656 20.785156 22.578125 19.679688 22.578125 18.394531 L 22.578125 5.605469 C 22.578125 4.449219 22.109375 3.402344 21.355469 2.644531 Z M 11.757812 12.242188 "/>
<path style=" stroke:none;fill-rule:evenodd;fill:rgb(28.627451%,38.431373%,12.54902%);fill-opacity:1;" d="M 18.078125 12.207031 C 18.078125 15.503906 15.40625 18.175781 12.109375 18.175781 C 8.8125 18.175781 6.140625 15.503906 6.140625 12.207031 C 6.140625 8.910156 8.8125 6.238281 12.109375 6.238281 C 15.40625 6.238281 18.078125 8.910156 18.078125 12.207031 Z M 18.078125 12.207031 "/>
<path style=" stroke:none;fill-rule:evenodd;fill:rgb(57.254902%,77.647059%,25.882353%);fill-opacity:1;" d="M 7.273438 5.105469 C 7.144531 5.105469 7.027344 5.175781 6.960938 5.285156 C 6.894531 5.394531 6.894531 5.535156 6.957031 5.648438 L 7.816406 7.257812 C 6.429688 8.460938 5.609375 10.195312 5.558594 12.03125 L 18.664062 12.03125 C 18.609375 10.195312 17.789062 8.464844 16.402344 7.261719 L 17.265625 5.648438 C 17.328125 5.535156 17.324219 5.394531 17.261719 5.285156 C 17.195312 5.175781 17.074219 5.105469 16.945312 5.105469 C 16.808594 5.105469 16.683594 5.179688 16.621094 5.300781 L 15.816406 6.808594 C 14.726562 6.058594 13.433594 5.652344 12.109375 5.648438 C 10.785156 5.648438 9.492188 6.050781 8.402344 6.800781 L 7.601562 5.300781 C 7.539062 5.179688 7.410156 5.105469 7.273438 5.105469 Z M 5.566406 12.679688 C 5.816406 16.109375 8.671875 18.765625 12.109375 18.769531 C 15.546875 18.765625 18.398438 16.109375 18.644531 12.679688 Z M 5.566406 12.679688 "/>
<path style=" stroke:none;fill-rule:evenodd;fill:rgb(100%,100%,100%);fill-opacity:1;" d="M 10.558594 9.609375 C 10.558594 10.179688 10.097656 10.640625 9.523438 10.640625 C 8.953125 10.640625 8.492188 10.179688 8.492188 9.609375 C 8.492188 9.035156 8.953125 8.574219 9.523438 8.574219 C 10.097656 8.574219 10.558594 9.035156 10.558594 9.609375 Z M 10.558594 9.609375 "/>
<path style=" stroke:none;fill-rule:evenodd;fill:rgb(100%,100%,100%);fill-opacity:1;" d="M 15.730469 9.609375 C 15.730469 10.179688 15.265625 10.640625 14.695312 10.640625 C 14.125 10.640625 13.660156 10.179688 13.660156 9.609375 C 13.660156 9.035156 14.125 8.574219 14.695312 8.574219 C 15.265625 8.574219 15.730469 9.035156 15.730469 9.609375 Z M 15.730469 9.609375 "/>
</g>
</svg>
