<?xml version="1.0" encoding="UTF-8"?>
<svg xmlns="http://www.w3.org/2000/svg" xmlns:xlink="http://www.w3.org/1999/xlink" width="24pt" height="24pt" viewBox="0 0 24 24" version="1.1">
<g id="surface1">
<path style=" stroke:none;fill-rule:evenodd;fill:rgb(100%,100%,100%);fill-opacity:1;" d="M 5.605469 1.421875 L 18.394531 1.421875 C 20.703125 1.421875 22.578125 3.296875 22.578125 5.605469 L 22.578125 18.394531 C 22.578125 20.703125 20.703125 22.578125 18.394531 22.578125 L 5.605469 22.578125 C 3.296875 22.578125 1.421875 20.703125 1.421875 18.394531 L 1.421875 5.605469 C 1.421875 3.296875 3.296875 1.421875 5.605469 1.421875 Z M 5.605469 1.421875 "/>
<path style=" stroke:none;fill-rule:evenodd;fill:rgb(30.980392%,30.980392%,30.980392%);fill-opacity:1;" d="M 21.355469 2.648438 L 2.644531 21.355469 C 3.402344 22.109375 4.445312 22.574219 5.605469 22.574219 L 18.394531 22.574219 C 20.710938 22.578125 22.574219 20.710938 22.574219 18.394531 L 22.574219 5.605469 C 22.578125 4.445312 22.109375 3.402344 21.355469 2.648438 Z M 21.355469 2.648438 "/>
<path style=" stroke:none;fill-rule:evenodd;fill:rgb(44.705882%,44.705882%,44.705882%);fill-opacity:1;" d="M 21.355469 2.644531 C 20.597656 1.890625 19.554688 1.425781 18.394531 1.425781 L 5.605469 1.425781 C 3.289062 1.425781 1.421875 3.289062 1.421875 5.605469 L 1.421875 18.394531 C 1.421875 19.554688 1.890625 20.597656 2.644531 21.355469 L 21.355469 2.648438 C 21.355469 2.648438 21.355469 2.644531 21.355469 2.644531 Z M 21.355469 2.644531 "/>
<path style=" stroke:none;fill-rule:nonzero;fill:rgb(94.901961%,94.901961%,94.901961%);fill-opacity:1;" d="M 6.171875 17.828125 L 11.273438 11.269531 L 11.960938 11.960938 L 12.730469 12.726562 Z M 6.171875 17.828125 "/>
<path style=" stroke:none;fill-rule:nonzero;fill:rgb(95.294118%,25.882353%,20.784314%);fill-opacity:1;" d="M 17.828125 6.171875 L 11.273438 11.273438 L 12.730469 12.730469 Z M 17.828125 6.171875 "/>
</g>
</svg>
