<?xml version="1.0" encoding="UTF-8"?>
<svg xmlns="http://www.w3.org/2000/svg" xmlns:xlink="http://www.w3.org/1999/xlink" width="24pt" height="24pt" viewBox="0 0 24 24" version="1.1">
<g id="surface1">
<path style=" stroke:none;fill-rule:evenodd;fill:rgb(58.823529%,38.039216%,16.078431%);fill-opacity:1;" d="M 5.605469 1.421875 L 18.394531 1.421875 C 20.703125 1.421875 22.578125 3.296875 22.578125 5.605469 L 22.578125 18.394531 C 22.578125 20.703125 20.703125 22.578125 18.394531 22.578125 L 5.605469 22.578125 C 3.296875 22.578125 1.421875 20.703125 1.421875 18.394531 L 1.421875 5.605469 C 1.421875 3.296875 3.296875 1.421875 5.605469 1.421875 Z M 5.605469 1.421875 "/>
<path style=" stroke:none;fill-rule:nonzero;fill:rgb(97.254902%,73.333333%,53.333333%);fill-opacity:1;" d="M 6.554688 8 C 4.496094 8 2.828125 9.667969 2.828125 11.726562 C 2.828125 13.785156 4.496094 15.453125 6.554688 15.453125 C 8.613281 15.453125 10.28125 13.785156 10.28125 11.726562 C 10.28125 9.667969 8.613281 8 6.554688 8 Z M 6.554688 8 "/>
<path style=" stroke:none;fill-rule:nonzero;fill:rgb(70.196078%,45.098039%,24.705882%);fill-opacity:1;" d="M 6.554688 9.71875 C 5.445312 9.71875 4.546875 10.617188 4.546875 11.726562 C 4.546875 12.835938 5.445312 13.734375 6.554688 13.734375 C 7.660156 13.734375 8.558594 12.835938 8.558594 11.726562 C 8.558594 10.617188 7.660156 9.71875 6.554688 9.71875 Z M 6.554688 9.71875 "/>
<path style=" stroke:none;fill-rule:nonzero;fill:rgb(97.254902%,73.333333%,53.333333%);fill-opacity:1;" d="M 17.445312 8 C 15.386719 8 13.71875 9.667969 13.71875 11.726562 C 13.71875 13.785156 15.386719 15.453125 17.445312 15.453125 C 19.503906 15.453125 21.171875 13.785156 21.171875 11.726562 C 21.171875 9.667969 19.503906 8 17.445312 8 Z M 17.445312 8 "/>
<path style=" stroke:none;fill-rule:nonzero;fill:rgb(70.196078%,45.098039%,24.705882%);fill-opacity:1;" d="M 17.445312 9.71875 C 16.339844 9.71875 15.441406 10.617188 15.441406 11.726562 C 15.441406 12.835938 16.339844 13.734375 17.445312 13.734375 C 18.554688 13.734375 19.453125 12.835938 19.453125 11.726562 C 19.453125 10.617188 18.554688 9.71875 17.445312 9.71875 Z M 17.445312 9.71875 "/>
<path style=" stroke:none;fill-rule:nonzero;fill:rgb(96.078431%,61.568627%,33.72549%);fill-opacity:1;" d="M 12 6.28125 C 12.160156 6.28125 12.324219 6.289062 12.484375 6.300781 C 12.324219 6.289062 12.160156 6.28125 12 6.28125 Z M 12 6.28125 C 9.683594 6.28125 7.554688 7.554688 6.453125 9.59375 C 7.554688 7.554688 9.683594 6.28125 12 6.28125 Z M 12.785156 6.335938 C 12.898438 6.351562 13.007812 6.363281 13.117188 6.382812 C 13.007812 6.363281 12.898438 6.351562 12.785156 6.335938 Z M 13.371094 6.441406 C 13.496094 6.464844 13.617188 6.496094 13.738281 6.527344 C 13.617188 6.496094 13.496094 6.464844 13.371094 6.441406 Z M 13.957031 6.601562 C 14.085938 6.640625 14.210938 6.683594 14.335938 6.730469 C 14.210938 6.683594 14.085938 6.640625 13.957031 6.601562 Z M 14.515625 6.8125 C 14.652344 6.871094 14.785156 6.933594 14.917969 7 C 14.785156 6.933594 14.652344 6.871094 14.515625 6.8125 Z M 15.035156 7.066406 C 15.179688 7.144531 15.324219 7.230469 15.460938 7.320312 C 15.324219 7.230469 15.179688 7.144531 15.035156 7.066406 Z M 15.570312 7.394531 C 15.707031 7.488281 15.84375 7.589844 15.972656 7.695312 C 15.84375 7.589844 15.707031 7.488281 15.570312 7.394531 Z M 16.046875 7.757812 C 16.183594 7.871094 16.316406 7.992188 16.445312 8.117188 C 16.316406 7.992188 16.183594 7.871094 16.046875 7.757812 Z M 16.5 8.175781 C 16.628906 8.308594 16.753906 8.445312 16.871094 8.585938 C 16.753906 8.445312 16.628906 8.308594 16.5 8.175781 Z M 8.847656 8.507812 C 7.917969 8.507812 7.039062 8.914062 6.4375 9.625 C 5.949219 10.535156 5.695312 11.554688 5.691406 12.585938 C 5.691406 16.070312 8.515625 18.894531 12 18.894531 C 15.484375 18.894531 18.308594 16.070312 18.308594 12.585938 C 18.304688 11.558594 18.054688 10.546875 17.570312 9.640625 C 16.972656 8.921875 16.085938 8.507812 15.152344 8.507812 C 13.410156 8.507812 12 9.917969 12 11.660156 C 12 11.722656 12.003906 11.785156 12.007812 11.84375 L 11.992188 11.84375 C 11.996094 11.785156 12 11.722656 12 11.660156 C 12 9.917969 10.589844 8.507812 8.847656 8.507812 Z M 17.570312 9.640625 C 17.476562 9.457031 17.371094 9.28125 17.253906 9.105469 C 17.371094 9.28125 17.476562 9.457031 17.570312 9.640625 Z M 16.902344 8.628906 C 17.027344 8.78125 17.140625 8.9375 17.25 9.097656 C 17.140625 8.9375 17.027344 8.78125 16.902344 8.628906 Z M 16.902344 8.628906 "/>
<path style=" stroke:none;fill-rule:nonzero;fill:rgb(70.196078%,45.098039%,24.705882%);fill-opacity:1;" d="M 12 6.28125 C 9.671875 6.28125 7.53125 7.566406 6.4375 9.625 C 7.039062 8.914062 7.917969 8.507812 8.847656 8.507812 C 10.589844 8.507812 12 9.917969 12 11.660156 C 12 9.917969 13.410156 8.507812 15.152344 8.507812 C 16.089844 8.507812 16.972656 8.921875 17.570312 9.640625 C 16.480469 7.574219 14.335938 6.28125 12 6.28125 Z M 12 11.660156 C 12 11.722656 11.996094 11.785156 11.992188 11.84375 L 12.007812 11.84375 C 12.003906 11.785156 12 11.722656 12 11.660156 Z M 12 11.660156 "/>
<path style=" stroke:none;fill-rule:nonzero;fill:rgb(24.705882%,24.705882%,24.705882%);fill-opacity:1;" d="M 10.851562 12.585938 C 10.851562 13.222656 10.339844 13.734375 9.707031 13.734375 C 9.074219 13.734375 8.558594 13.222656 8.558594 12.585938 C 8.558594 11.953125 9.074219 11.441406 9.707031 11.441406 C 10.339844 11.441406 10.851562 11.953125 10.851562 12.585938 Z M 10.851562 12.585938 "/>
<path style=" stroke:none;fill-rule:nonzero;fill:rgb(24.705882%,24.705882%,24.705882%);fill-opacity:1;" d="M 15.441406 12.585938 C 15.441406 13.222656 14.925781 13.734375 14.292969 13.734375 C 13.660156 13.734375 13.148438 13.222656 13.148438 12.585938 C 13.148438 11.953125 13.660156 11.441406 14.292969 11.441406 C 14.925781 11.441406 15.441406 11.953125 15.441406 12.585938 Z M 15.441406 12.585938 "/>
<path style=" stroke:none;fill-rule:nonzero;fill:rgb(24.705882%,24.705882%,24.705882%);fill-opacity:1;" d="M 9.140625 15.449219 C 8.894531 15.445312 8.675781 15.59375 8.589844 15.820312 C 8.503906 16.050781 8.574219 16.304688 8.761719 16.460938 C 8.761719 16.460938 10.183594 17.746094 12 17.746094 C 13.816406 17.746094 15.242188 16.460938 15.242188 16.460938 C 15.398438 16.328125 15.472656 16.121094 15.4375 15.917969 C 15.398438 15.714844 15.253906 15.546875 15.058594 15.480469 C 14.863281 15.414062 14.648438 15.457031 14.492188 15.59375 C 14.492188 15.59375 13.242188 16.601562 12 16.601562 C 10.757812 16.601562 9.507812 15.59375 9.507812 15.59375 C 9.40625 15.503906 9.273438 15.453125 9.140625 15.449219 Z M 9.140625 15.449219 "/>
</g>
</svg>
