<?xml version="1.0" encoding="UTF-8"?>
<svg xmlns="http://www.w3.org/2000/svg" xmlns:xlink="http://www.w3.org/1999/xlink" width="24pt" height="24pt" viewBox="0 0 24 24" version="1.1">
<g id="surface1">
<path style=" stroke:none;fill-rule:evenodd;fill:rgb(20%,30.196078%,36.078431%);fill-opacity:1;" d="M 22.660156 11.582031 L 1.351562 11.582031 L 1.351562 18.398438 C 1.351562 20.734375 3.230469 22.609375 5.5625 22.609375 L 18.449219 22.609375 C 20.78125 22.609375 22.660156 20.734375 22.660156 18.398438 Z M 22.660156 11.582031 "/>
<path style=" stroke:none;fill-rule:evenodd;fill:rgb(81.568627%,49.411765%,20.392157%);fill-opacity:1;" d="M 22.660156 7.613281 L 1.351562 7.613281 L 1.351562 11.582031 L 22.660156 11.582031 Z M 22.660156 7.613281 "/>
<path style=" stroke:none;fill-rule:evenodd;fill:rgb(50.196078%,50.196078%,50.196078%);fill-opacity:1;" d="M 5.5625 1.304688 C 3.230469 1.304688 1.351562 3.183594 1.351562 5.515625 L 1.351562 7.613281 L 22.660156 7.613281 L 22.660156 5.515625 C 22.660156 3.183594 20.78125 1.304688 18.449219 1.304688 Z M 5.5625 1.304688 "/>
<path style=" stroke:none;fill-rule:evenodd;fill:rgb(91.764706%,67.843137%,26.27451%);fill-opacity:1;" d="M 22.660156 10.992188 L 1.351562 10.992188 L 1.351562 18.496094 C 1.351562 20.828125 3.230469 22.707031 5.5625 22.707031 L 18.445312 22.707031 C 20.777344 22.707031 22.660156 20.828125 22.660156 18.496094 Z M 22.660156 10.992188 "/>
<path style=" stroke:none;fill-rule:evenodd;fill:rgb(79.607843%,49.803922%,17.254902%);fill-opacity:1;" d="M 6.761719 13.519531 C 6.761719 13.949219 6.417969 14.292969 5.988281 14.292969 C 5.5625 14.292969 5.214844 13.949219 5.214844 13.519531 C 5.214844 13.09375 5.5625 12.746094 5.988281 12.746094 C 6.417969 12.746094 6.761719 13.09375 6.761719 13.519531 Z M 6.761719 13.519531 "/>
<path style=" stroke:none;fill-rule:evenodd;fill:rgb(79.607843%,49.803922%,17.254902%);fill-opacity:1;" d="M 19.167969 13.53125 C 19.167969 13.960938 18.820312 14.308594 18.390625 14.308594 C 17.964844 14.308594 17.617188 13.960938 17.617188 13.53125 C 17.617188 13.105469 17.964844 12.757812 18.390625 12.757812 C 18.820312 12.757812 19.167969 13.105469 19.167969 13.53125 Z M 19.167969 13.53125 "/>
<path style=" stroke:none;fill-rule:nonzero;fill:rgb(100%,100%,100%);fill-opacity:1;" d="M 6.035156 13.34375 C 5.90625 13.34375 5.78125 13.394531 5.691406 13.488281 C 5.601562 13.582031 5.558594 13.710938 5.566406 13.839844 C 5.871094 18.488281 9.082031 20.746094 12.253906 20.632812 C 15.429688 20.519531 18.574219 18.078125 18.800781 13.835938 C 18.816406 13.667969 18.738281 13.507812 18.597656 13.414062 C 18.457031 13.324219 18.277344 13.3125 18.128906 13.390625 C 17.980469 13.46875 17.886719 13.621094 17.882812 13.785156 C 17.679688 17.605469 14.957031 19.617188 12.222656 19.714844 C 9.492188 19.8125 6.761719 18.039062 6.484375 13.78125 C 6.472656 13.539062 6.277344 13.347656 6.035156 13.34375 Z M 6.035156 13.34375 "/>
</g>
</svg>
