<?xml version="1.0" encoding="UTF-8"?>
<svg xmlns="http://www.w3.org/2000/svg" xmlns:xlink="http://www.w3.org/1999/xlink" width="24pt" height="24pt" viewBox="0 0 24 24" version="1.1">
<g id="surface1">
<path style=" stroke:none;fill-rule:evenodd;fill:rgb(80%,80%,80%);fill-opacity:1;" d="M 5.605469 1.421875 L 18.394531 1.421875 C 20.703125 1.421875 22.578125 3.296875 22.578125 5.605469 L 22.578125 18.394531 C 22.578125 20.703125 20.703125 22.578125 18.394531 22.578125 L 5.605469 22.578125 C 3.296875 22.578125 1.421875 20.703125 1.421875 18.394531 L 1.421875 5.605469 C 1.421875 3.296875 3.296875 1.421875 5.605469 1.421875 Z M 5.605469 1.421875 "/>
<path style=" stroke:none;fill-rule:evenodd;fill:rgb(30.196078%,30.196078%,30.196078%);fill-opacity:1;" d="M 6.75 4.875 L 17.25 4.875 L 17.25 10.875 L 6.75 10.875 Z M 6.75 4.875 "/>
<path style=" stroke:none;fill-rule:nonzero;fill:rgb(30.980392%,30.980392%,30.980392%);fill-opacity:1;" d="M 7.351562 13.875 C 7.058594 13.875 6.824219 14.109375 6.824219 14.398438 L 6.824219 15.449219 L 5.773438 15.449219 C 5.484375 15.449219 5.25 15.683594 5.25 15.976562 L 5.25 17.023438 C 5.25 17.316406 5.484375 17.550781 5.773438 17.550781 L 6.824219 17.550781 L 6.824219 18.601562 C 6.824219 18.890625 7.058594 19.125 7.351562 19.125 L 8.398438 19.125 C 8.691406 19.125 8.925781 18.890625 8.925781 18.601562 L 8.925781 17.550781 L 9.976562 17.550781 C 10.265625 17.550781 10.5 17.316406 10.5 17.023438 L 10.5 15.976562 C 10.5 15.683594 10.265625 15.449219 9.976562 15.449219 L 8.925781 15.449219 L 8.925781 14.398438 C 8.925781 14.109375 8.691406 13.875 8.398438 13.875 Z M 7.351562 13.875 "/>
<path style=" stroke:none;fill-rule:nonzero;fill:rgb(93.72549%,33.72549%,27.45098%);fill-opacity:1;" d="M 18.75 15 C 18.75 15.621094 18.246094 16.125 17.625 16.125 C 17.003906 16.125 16.5 15.621094 16.5 15 C 16.5 14.378906 17.003906 13.875 17.625 13.875 C 18.246094 13.875 18.75 14.378906 18.75 15 Z M 18.75 15 "/>
<path style=" stroke:none;fill-rule:nonzero;fill:rgb(93.72549%,33.72549%,27.45098%);fill-opacity:1;" d="M 15.75 15 C 15.75 15.621094 15.246094 16.125 14.625 16.125 C 14.003906 16.125 13.5 15.621094 13.5 15 C 13.5 14.378906 14.003906 13.875 14.625 13.875 C 15.246094 13.875 15.75 14.378906 15.75 15 Z M 15.75 15 "/>
<path style=" stroke:none;fill-rule:nonzero;fill:rgb(92.156863%,57.254902%,0%);fill-opacity:1;" d="M 18.75 18 C 18.75 18.621094 18.246094 19.125 17.625 19.125 C 17.003906 19.125 16.5 18.621094 16.5 18 C 16.5 17.378906 17.003906 16.875 17.625 16.875 C 18.246094 16.875 18.75 17.378906 18.75 18 Z M 18.75 18 "/>
<path style=" stroke:none;fill-rule:nonzero;fill:rgb(92.156863%,57.254902%,0%);fill-opacity:1;" d="M 15.75 18 C 15.75 18.621094 15.246094 19.125 14.625 19.125 C 14.003906 19.125 13.5 18.621094 13.5 18 C 13.5 17.378906 14.003906 16.875 14.625 16.875 C 15.246094 16.875 15.75 17.378906 15.75 18 Z M 15.75 18 "/>
</g>
</svg>
