<?xml version="1.0" encoding="UTF-8"?>
<svg xmlns="http://www.w3.org/2000/svg" xmlns:xlink="http://www.w3.org/1999/xlink" width="24pt" height="24pt" viewBox="0 0 24 24" version="1.1">
<g id="surface1">
<path style=" stroke:none;fill-rule:evenodd;fill:rgb(37.254902%,48.627451%,54.117647%);fill-opacity:1;" d="M 5.605469 1.421875 L 18.394531 1.421875 C 20.703125 1.421875 22.578125 3.296875 22.578125 5.605469 L 22.578125 18.394531 C 22.578125 20.703125 20.703125 22.578125 18.394531 22.578125 L 5.605469 22.578125 C 3.296875 22.578125 1.421875 20.703125 1.421875 18.394531 L 1.421875 5.605469 C 1.421875 3.296875 3.296875 1.421875 5.605469 1.421875 Z M 5.605469 1.421875 "/>
<path style=" stroke:none;fill-rule:nonzero;fill:rgb(44.705882%,85.882353%,66.27451%);fill-opacity:1;" d="M 6.835938 8.0625 C 6.835938 8.550781 6.4375 8.945312 5.953125 8.945312 C 5.464844 8.945312 5.066406 8.550781 5.066406 8.0625 C 5.066406 7.574219 5.464844 7.179688 5.953125 7.179688 C 6.4375 7.179688 6.835938 7.574219 6.835938 8.0625 Z M 6.835938 8.0625 "/>
<path style=" stroke:none;fill-rule:nonzero;fill:rgb(80%,80%,80%);fill-opacity:1;" d="M 9.78125 8.0625 C 9.78125 8.550781 9.386719 8.945312 8.898438 8.945312 C 8.410156 8.945312 8.015625 8.550781 8.015625 8.0625 C 8.015625 7.574219 8.410156 7.179688 8.898438 7.179688 C 9.386719 7.179688 9.78125 7.574219 9.78125 8.0625 Z M 9.78125 8.0625 "/>
<path style=" stroke:none;fill-rule:nonzero;fill:rgb(80%,80%,80%);fill-opacity:1;" d="M 12.726562 8.0625 C 12.726562 8.550781 12.332031 8.945312 11.84375 8.945312 C 11.355469 8.945312 10.960938 8.550781 10.960938 8.0625 C 10.960938 7.574219 11.355469 7.179688 11.84375 7.179688 C 12.332031 7.179688 12.726562 7.574219 12.726562 8.0625 Z M 12.726562 8.0625 "/>
<path style=" stroke:none;fill-rule:nonzero;fill:rgb(80%,80%,80%);fill-opacity:1;" d="M 15.675781 8.0625 C 15.675781 8.550781 15.277344 8.945312 14.789062 8.945312 C 14.300781 8.945312 13.90625 8.550781 13.90625 8.0625 C 13.90625 7.574219 14.300781 7.179688 14.789062 7.179688 C 15.277344 7.179688 15.675781 7.574219 15.675781 8.0625 Z M 15.675781 8.0625 "/>
<path style=" stroke:none;fill-rule:nonzero;fill:rgb(44.705882%,85.882353%,66.27451%);fill-opacity:1;" d="M 18.621094 8.0625 C 18.621094 8.550781 18.226562 8.945312 17.738281 8.945312 C 17.25 8.945312 16.851562 8.550781 16.851562 8.0625 C 16.851562 7.574219 17.25 7.179688 17.738281 7.179688 C 18.226562 7.179688 18.621094 7.574219 18.621094 8.0625 Z M 18.621094 8.0625 "/>
<path style=" stroke:none;fill-rule:nonzero;fill:rgb(80%,80%,80%);fill-opacity:1;" d="M 8.601562 11.597656 C 8.601562 12.085938 8.207031 12.480469 7.71875 12.480469 C 7.230469 12.480469 6.835938 12.085938 6.835938 11.597656 C 6.835938 11.109375 7.230469 10.714844 7.71875 10.714844 C 8.207031 10.714844 8.601562 11.109375 8.601562 11.597656 Z M 8.601562 11.597656 "/>
<path style=" stroke:none;fill-rule:nonzero;fill:rgb(80%,80%,80%);fill-opacity:1;" d="M 11.550781 11.597656 C 11.550781 12.085938 11.152344 12.480469 10.664062 12.480469 C 10.175781 12.480469 9.78125 12.085938 9.78125 11.597656 C 9.78125 11.109375 10.175781 10.714844 10.664062 10.714844 C 11.152344 10.714844 11.550781 11.109375 11.550781 11.597656 Z M 11.550781 11.597656 "/>
<path style=" stroke:none;fill-rule:nonzero;fill:rgb(80%,80%,80%);fill-opacity:1;" d="M 17.441406 11.597656 C 17.441406 12.085938 17.046875 12.480469 16.558594 12.480469 C 16.070312 12.480469 15.675781 12.085938 15.675781 11.597656 C 15.675781 11.109375 16.070312 10.714844 16.558594 10.714844 C 17.046875 10.714844 17.441406 11.109375 17.441406 11.597656 Z M 17.441406 11.597656 "/>
<path style=" stroke:none;fill-rule:nonzero;fill:rgb(80%,80%,80%);fill-opacity:1;" d="M 6.414062 14.25 L 10.601562 14.25 C 10.695312 14.25 10.769531 14.449219 10.769531 14.691406 L 10.769531 15.574219 C 10.769531 15.820312 10.695312 16.019531 10.601562 16.019531 L 6.414062 16.019531 C 6.320312 16.019531 6.246094 15.820312 6.246094 15.574219 L 6.246094 14.691406 C 6.246094 14.449219 6.320312 14.25 6.414062 14.25 Z M 6.414062 14.25 "/>
<path style=" stroke:none;fill-rule:nonzero;fill:rgb(37.254902%,48.627451%,54.117647%);fill-opacity:1;" d="M 18.316406 10.085938 C 17.339844 9.109375 15.769531 9.113281 14.792969 10.085938 L 13.910156 10.972656 L 13.617188 11.265625 L 11.953125 12.925781 L 11.664062 13.21875 L 10.738281 14.140625 C 9.765625 15.117188 9.761719 16.6875 10.738281 17.664062 L 11.433594 18.355469 L 11.710938 18.636719 L 12.40625 19.328125 C 12.527344 19.449219 12.660156 19.558594 12.796875 19.648438 C 13.765625 20.289062 15.074219 20.183594 15.925781 19.328125 L 19.980469 15.273438 C 20.957031 14.300781 20.957031 12.726562 19.980469 11.753906 L 19.289062 11.058594 L 19.007812 10.78125 Z M 18.316406 10.085938 "/>
<path style=" stroke:none;fill-rule:nonzero;fill:rgb(80%,80%,80%);fill-opacity:1;" d="M 11.457031 14.402344 C 10.644531 15.21875 10.644531 16.53125 11.457031 17.34375 L 12.851562 18.734375 C 13.664062 19.550781 14.976562 19.550781 15.789062 18.734375 L 18.164062 16.363281 C 17.367188 15.910156 16.585938 15.335938 15.863281 14.632812 C 15.03125 13.816406 14.363281 12.921875 13.859375 12 Z M 11.457031 14.402344 "/>
<path style=" stroke:none;fill-rule:nonzero;fill:rgb(44.705882%,85.882353%,66.27451%);fill-opacity:1;" d="M 14.105469 11.753906 C 14.542969 12.574219 15.121094 13.382812 15.832031 14.125 L 18.363281 11.59375 L 17.785156 11.015625 C 16.972656 10.199219 15.660156 10.199219 14.84375 11.015625 Z M 14.105469 11.753906 "/>
<path style=" stroke:none;fill-rule:nonzero;fill:rgb(80%,80%,80%);fill-opacity:1;" d="M 16.066406 14.363281 C 16.078125 14.371094 16.085938 14.382812 16.097656 14.394531 C 16.824219 15.101562 17.605469 15.679688 18.40625 16.121094 L 19.179688 15.347656 C 19.992188 14.535156 19.992188 13.222656 19.179688 12.40625 L 18.601562 11.828125 Z M 16.066406 14.363281 "/>
</g>
</svg>
