<?xml version="1.0" encoding="UTF-8"?>
<svg xmlns="http://www.w3.org/2000/svg" xmlns:xlink="http://www.w3.org/1999/xlink" width="24pt" height="24pt" viewBox="0 0 24 24" version="1.1">
<g id="surface1">
<path style=" stroke:none;fill-rule:evenodd;fill:rgb(92.156863%,92.156863%,92.156863%);fill-opacity:1;" d="M 5.296875 6.539062 C 5.21875 6.621094 5.113281 6.679688 5.042969 6.761719 C 4.71875 7.136719 4.410156 7.578125 4.167969 8.058594 C 3.929688 8.535156 3.757812 9.046875 3.714844 9.570312 C 3.667969 10.09375 3.707031 10.605469 3.828125 11.09375 C 3.949219 11.585938 4.152344 12.054688 4.433594 12.492188 C 3.84375 12.1875 3.378906 12.019531 3.039062 11.484375 C 2.949219 11.414062 2.980469 11.6875 2.996094 11.941406 C 3.117188 13.0625 3.320312 14.164062 3.65625 15.226562 L 3.640625 15.222656 C 3.652344 15.238281 3.679688 15.515625 3.832031 15.960938 C 3.980469 16.40625 4.253906 17.027344 4.757812 17.734375 C 5.109375 18.242188 5.519531 18.738281 5.964844 19.179688 C 6.410156 19.621094 6.890625 20.003906 7.382812 20.292969 C 7.671875 20.464844 7.910156 20.777344 8.21875 20.828125 C 7.609375 20.835938 6.984375 20.664062 6.375 20.367188 C 5.769531 20.074219 5.175781 19.648438 4.625 19.148438 C 4.074219 18.652344 3.570312 18.078125 3.132812 17.476562 C 2.695312 16.875 2.332031 16.25 2.066406 15.648438 C 1.796875 14.984375 1.574219 14.308594 1.421875 13.609375 L 1.421875 18.394531 C 1.421875 20.710938 3.289062 22.578125 5.605469 22.574219 L 18.394531 22.574219 C 20.710938 22.578125 22.574219 20.710938 22.574219 18.394531 L 22.574219 12.101562 C 22.589844 13.152344 22.433594 14.253906 22.0625 15.328125 C 21.683594 16.4375 21.097656 17.519531 20.308594 18.480469 C 20.300781 18.492188 20.285156 18.507812 20.277344 18.519531 C 20.214844 18.601562 20.15625 18.683594 20.089844 18.761719 C 19.988281 18.890625 19.816406 19.050781 19.71875 19.164062 C 18.96875 20.015625 18.253906 20.40625 18.253906 20.40625 C 17.8125 20.730469 17.359375 20.925781 16.839844 21.089844 C 16.320312 21.253906 15.738281 21.390625 15.039062 21.585938 C 15.800781 21.128906 16.863281 19.625 16.550781 20.066406 C 16.550781 20.066406 16.140625 20.484375 15.460938 20.878906 C 15.121094 21.078125 14.714844 21.273438 14.261719 21.410156 C 13.804688 21.542969 13.300781 21.621094 12.765625 21.585938 C 13.167969 21.410156 13.660156 21.113281 14.179688 20.6875 C 14.703125 20.261719 15.253906 19.710938 15.777344 19.023438 C 16.300781 18.335938 16.792969 17.515625 17.195312 16.554688 C 17.59375 15.59375 17.90625 14.496094 18.070312 13.25 C 17.617188 13.679688 17.054688 13.871094 16.601562 13.953125 C 16.148438 14.035156 15.804688 14.011719 15.796875 14.007812 C 15.796875 14.007812 15.792969 14.007812 15.792969 14.007812 C 15.792969 14.007812 15.796875 14.007812 15.796875 14.007812 C 16.175781 13.523438 16.394531 12.964844 16.503906 12.367188 C 16.609375 11.773438 16.601562 11.132812 16.527344 10.496094 C 16.40625 9.523438 16.035156 8.527344 15.5 7.675781 L 15.503906 7.675781 C 15.316406 7.382812 14.890625 6.980469 14.652344 6.734375 C 14.140625 6.964844 13.609375 7.226562 13.078125 7.4375 C 12.546875 7.644531 12.015625 7.792969 11.496094 7.792969 C 10.953125 7.792969 10.480469 7.613281 10.035156 7.496094 C 9.589844 7.378906 9.175781 7.320312 8.753906 7.5625 C 8.113281 7.859375 7.589844 8.285156 6.941406 8.566406 C 6.65625 8.703125 6.332031 8.855469 6.0625 9.050781 C 5.789062 9.25 5.574219 9.496094 5.5 9.832031 C 5.265625 9.574219 5.195312 9.253906 5.207031 8.925781 C 5.21875 8.597656 5.316406 8.261719 5.414062 7.96875 C 5.507812 7.925781 5.386719 7.503906 5.394531 7.300781 C 5.363281 7.054688 5.328125 6.796875 5.296875 6.539062 Z M 5.296875 6.539062 "/>
<path style=" stroke:none;fill-rule:nonzero;fill:rgb(21.568627%,32.54902%,53.72549%);fill-opacity:1;" d="M 4.753906 17.734375 C 5.675781 19.058594 6.863281 20.617188 8.21875 20.828125 C 7.691406 20.519531 6.363281 19.320312 5.949219 17.039062 C 6.386719 17.902344 8.378906 19.046875 8.976562 19.3125 C 8.679688 19.035156 7.539062 17.371094 7.460938 16.394531 L 3.640625 15.21875 C 3.664062 15.257812 3.75 16.320312 4.753906 17.734375 Z M 4.753906 17.734375 "/>
<path style=" stroke:none;fill-rule:nonzero;fill:rgb(73.72549%,73.72549%,73.72549%);fill-opacity:1;" d="M 18.363281 9.082031 L 11.472656 6.664062 L 4.089844 7.15625 L 2.203125 9.507812 C 2.539062 11.683594 2.332031 14.035156 3.5 15.933594 L 16.550781 20.070312 L 18.351562 15.050781 Z M 18.363281 9.082031 "/>
<path style=" stroke:none;fill-rule:nonzero;fill:rgb(92.156863%,92.156863%,92.156863%);fill-opacity:1;" d="M 18.363281 8.324219 L 11.472656 5.90625 L 4.089844 6.398438 L 2.203125 8.75 C 2.539062 10.925781 2.332031 13.277344 3.5 15.175781 L 16.550781 19.3125 L 18.351562 14.292969 Z M 18.363281 8.324219 "/>
<path style=" stroke:none;fill-rule:nonzero;fill:rgb(73.72549%,73.72549%,73.72549%);fill-opacity:1;" d="M 17.800781 10.40625 L 16.777344 7.046875 L 4.277344 6.921875 L 4.207031 7.007812 L 4.089844 7.15625 L 8.820312 13.851562 Z M 17.800781 10.40625 "/>
<path style=" stroke:none;fill-rule:nonzero;fill:rgb(96.862745%,96.862745%,96.862745%);fill-opacity:1;" d="M 17.800781 9.648438 L 16.777344 6.289062 L 4.277344 6.164062 L 4.207031 6.25 L 4.089844 6.398438 L 8.820312 13.09375 Z M 17.800781 9.648438 "/>
<path style=" stroke:none;fill-rule:evenodd;fill:rgb(34.901961%,58.823529%,82.352941%);fill-opacity:1;" d="M 7.675781 1.425781 C 7.644531 1.457031 7.601562 1.476562 7.570312 1.511719 C 7.007812 2.15625 6.578125 2.96875 6.226562 3.679688 C 5.96875 4.128906 5.703125 4.664062 5.484375 5.089844 C 5.269531 5.425781 5.226562 5.796875 5.246094 6.171875 C 5.265625 6.550781 5.351562 6.933594 5.394531 7.300781 C 5.386719 7.503906 5.507812 7.925781 5.414062 7.96875 C 5.316406 8.261719 5.21875 8.597656 5.207031 8.925781 C 5.195312 9.253906 5.265625 9.574219 5.5 9.832031 C 5.574219 9.496094 5.789062 9.25 6.0625 9.050781 C 6.332031 8.855469 6.65625 8.703125 6.941406 8.566406 C 7.589844 8.285156 8.113281 7.859375 8.753906 7.5625 C 9.175781 7.320312 9.589844 7.378906 10.035156 7.496094 C 10.480469 7.613281 10.953125 7.792969 11.496094 7.792969 C 12.015625 7.792969 12.546875 7.644531 13.078125 7.4375 C 13.609375 7.226562 14.140625 6.964844 14.652344 6.734375 C 14.890625 6.980469 15.316406 7.382812 15.503906 7.675781 L 15.5 7.675781 C 16.035156 8.527344 16.40625 9.523438 16.527344 10.496094 C 16.601562 11.136719 16.609375 11.773438 16.503906 12.371094 C 16.394531 12.964844 16.175781 13.527344 15.796875 14.007812 C 15.796875 14.007812 15.792969 14.011719 15.792969 14.011719 C 15.792969 14.011719 15.796875 14.011719 15.796875 14.011719 C 15.804688 14.011719 16.148438 14.035156 16.601562 13.953125 C 17.054688 13.871094 17.617188 13.679688 18.070312 13.25 C 17.90625 14.496094 17.59375 15.59375 17.195312 16.554688 C 16.792969 17.515625 16.300781 18.335938 15.777344 19.023438 C 15.253906 19.710938 14.703125 20.261719 14.179688 20.6875 C 13.660156 21.113281 13.167969 21.410156 12.765625 21.585938 C 13.300781 21.621094 13.804688 21.542969 14.261719 21.410156 C 14.714844 21.273438 15.121094 21.078125 15.460938 20.878906 C 16.140625 20.484375 16.550781 20.070312 16.550781 20.070312 C 16.863281 19.625 15.800781 21.128906 15.039062 21.585938 C 15.738281 21.390625 16.320312 21.253906 16.839844 21.089844 C 17.359375 20.925781 17.8125 20.730469 18.253906 20.40625 C 18.253906 20.40625 18.96875 20.015625 19.71875 19.164062 C 19.816406 19.050781 19.988281 18.890625 20.089844 18.761719 C 20.15625 18.683594 20.214844 18.601562 20.277344 18.519531 C 20.285156 18.507812 20.300781 18.492188 20.308594 18.480469 C 21.097656 17.519531 21.683594 16.4375 22.0625 15.328125 C 22.433594 14.253906 22.589844 13.152344 22.574219 12.101562 L 22.574219 5.605469 C 22.574219 3.289062 20.710938 1.421875 18.394531 1.421875 L 8.652344 1.421875 Z M 7.675781 1.425781 "/>
<path style=" stroke:none;fill-rule:nonzero;fill:rgb(25.882353%,44.313725%,63.921569%);fill-opacity:1;" d="M 6.183594 7.949219 C 8.707031 7.875 7.121094 6.3125 10.492188 3.402344 C 7.746094 4.824219 5.132812 4.824219 6.1875 7.949219 Z M 6.183594 7.949219 "/>
<path style=" stroke:none;fill-rule:evenodd;fill:rgb(25.882353%,44.313725%,63.921569%);fill-opacity:1;" d="M 5.605469 1.425781 C 3.289062 1.425781 1.421875 3.289062 1.421875 5.605469 L 1.421875 13.609375 C 1.574219 14.308594 1.796875 14.984375 2.066406 15.648438 C 2.332031 16.25 2.695312 16.875 3.132812 17.476562 C 3.570312 18.078125 4.074219 18.652344 4.625 19.148438 C 5.175781 19.648438 5.769531 20.074219 6.375 20.367188 C 6.984375 20.664062 7.609375 20.835938 8.21875 20.828125 C 7.910156 20.777344 7.671875 20.464844 7.382812 20.292969 C 6.890625 20.003906 6.410156 19.621094 5.964844 19.179688 C 5.519531 18.738281 5.109375 18.242188 4.757812 17.734375 C 4.253906 17.027344 3.980469 16.40625 3.832031 15.960938 C 3.679688 15.515625 3.652344 15.238281 3.640625 15.222656 L 3.65625 15.226562 C 3.320312 14.164062 3.117188 13.0625 2.996094 11.941406 C 2.980469 11.6875 2.949219 11.414062 3.039062 11.484375 C 3.378906 12.019531 3.84375 12.1875 4.433594 12.492188 C 4.152344 12.054688 3.949219 11.585938 3.828125 11.09375 C 3.707031 10.605469 3.667969 10.09375 3.714844 9.570312 C 3.757812 9.046875 3.929688 8.535156 4.167969 8.058594 C 4.410156 7.578125 4.71875 7.136719 5.042969 6.761719 C 5.113281 6.679688 5.21875 6.621094 5.296875 6.539062 C 5.277344 6.414062 5.253906 6.296875 5.246094 6.171875 C 5.226562 5.796875 5.269531 5.425781 5.484375 5.089844 C 5.703125 4.664062 5.96875 4.128906 6.226562 3.679688 C 6.273438 3.585938 6.351562 3.488281 6.402344 3.390625 C 6.726562 2.757812 7.082031 2.070312 7.570312 1.511719 C 7.601562 1.476562 7.644531 1.457031 7.675781 1.425781 Z M 5.605469 1.425781 "/>
<path style=" stroke:none;fill-rule:nonzero;fill:rgb(100%,100%,100%);fill-opacity:1;" d="M 8.074219 6.675781 C 7.832031 7.117188 7.265625 7.296875 6.953125 7.128906 C 6.632812 6.964844 6.636719 6.40625 6.882812 5.964844 C 7.121094 5.523438 8.175781 5.71875 8.179688 5.71875 C 8.1875 5.71875 8.316406 6.234375 8.074219 6.675781 Z M 8.074219 6.675781 "/>
<path style=" stroke:none;fill-rule:nonzero;fill:rgb(36.078431%,37.254902%,37.647059%);fill-opacity:1;" d="M 6.636719 8.695312 C 6.636719 8.695312 6.773438 8.5625 6.703125 8.324219 C 5.855469 8.601562 5.4375 7.792969 5.441406 7.792969 C 5.445312 7.792969 4.804688 9.464844 5.566406 10.222656 C 5.632812 9.597656 6.605469 8.726562 6.609375 8.726562 "/>
</g>
</svg>
