<?xml version="1.0" encoding="UTF-8"?>
<svg xmlns="http://www.w3.org/2000/svg" xmlns:xlink="http://www.w3.org/1999/xlink" width="24pt" height="24pt" viewBox="0 0 24 24" version="1.1">
<g id="surface1">
<path style=" stroke:none;fill-rule:evenodd;fill:rgb(87.058824%,33.333333%,29.803922%);fill-opacity:1;" d="M 5.605469 1.421875 L 18.394531 1.421875 C 20.703125 1.421875 22.578125 3.296875 22.578125 5.605469 L 22.578125 18.394531 C 22.578125 20.703125 20.703125 22.578125 18.394531 22.578125 L 5.605469 22.578125 C 3.296875 22.578125 1.421875 20.703125 1.421875 18.394531 L 1.421875 5.605469 C 1.421875 3.296875 3.296875 1.421875 5.605469 1.421875 Z M 5.605469 1.421875 "/>
<path style=" stroke:none;fill-rule:nonzero;fill:rgb(100%,100%,100%);fill-opacity:1;" d="M 7.105469 5.621094 C 6.496094 5.640625 6.015625 6.140625 6.015625 6.746094 L 6.015625 11.820312 C 5.996094 11.941406 5.996094 12.066406 6.015625 12.1875 L 6.015625 17.246094 C 6.011719 17.652344 6.222656 18.03125 6.574219 18.234375 C 6.925781 18.441406 7.355469 18.441406 7.707031 18.234375 C 8.058594 18.03125 8.269531 17.652344 8.265625 17.246094 L 8.265625 13.074219 C 9.050781 13.089844 10.1875 13.148438 12.144531 12.921875 C 13.421875 12.773438 14.707031 12.539062 15.800781 12.082031 C 16.34375 11.851562 16.851562 11.566406 17.269531 11.132812 C 17.691406 10.699219 18.003906 10.058594 18 9.378906 C 17.996094 8.703125 17.675781 8.070312 17.253906 7.640625 C 16.835938 7.207031 16.328125 6.921875 15.78125 6.691406 C 14.691406 6.230469 13.402344 5.992188 12.132812 5.839844 C 9.589844 5.535156 7.105469 5.621094 7.105469 5.621094 Z M 8.265625 7.917969 C 9.011719 7.910156 10.085938 7.863281 11.867188 8.074219 C 13.027344 8.214844 14.167969 8.453125 14.90625 8.761719 C 15.273438 8.917969 15.53125 9.09375 15.644531 9.210938 C 15.757812 9.328125 15.75 9.335938 15.75 9.398438 C 15.75 9.457031 15.761719 9.453125 15.652344 9.566406 C 15.546875 9.679688 15.292969 9.851562 14.925781 10.007812 C 14.195312 10.316406 13.050781 10.550781 11.886719 10.683594 C 10.097656 10.890625 9.011719 10.839844 8.265625 10.828125 Z M 8.265625 7.917969 "/>
</g>
</svg>
