<?xml version="1.0" encoding="UTF-8"?>
<svg xmlns="http://www.w3.org/2000/svg" xmlns:xlink="http://www.w3.org/1999/xlink" width="24pt" height="24pt" viewBox="0 0 24 24" version="1.1">
<g id="surface1">
<path style=" stroke:none;fill-rule:evenodd;fill:rgb(24.313725%,31.372549%,70.588235%);fill-opacity:1;" d="M 5.605469 1.421875 L 18.394531 1.421875 C 20.703125 1.421875 22.578125 3.296875 22.578125 5.605469 L 22.578125 18.394531 C 22.578125 20.703125 20.703125 22.578125 18.394531 22.578125 L 5.605469 22.578125 C 3.296875 22.578125 1.421875 20.703125 1.421875 18.394531 L 1.421875 5.605469 C 1.421875 3.296875 3.296875 1.421875 5.605469 1.421875 Z M 5.605469 1.421875 "/>
<path style=" stroke:none;fill-rule:nonzero;fill:rgb(57.254902%,68.235294%,100%);fill-opacity:1;" d="M 18.375 7.125 C 18.375 8.574219 17.199219 9.75 15.75 9.75 C 14.300781 9.75 13.125 8.574219 13.125 7.125 C 13.125 5.675781 14.300781 4.5 15.75 4.5 C 17.199219 4.5 18.375 5.675781 18.375 7.125 Z M 18.375 7.125 "/>
<path style=" stroke:none;fill-rule:nonzero;fill:rgb(57.254902%,68.235294%,100%);fill-opacity:1;" d="M 15.75 11.25 C 14.300781 11.25 13.125 12.402344 13.125 13.828125 C 13.125 13.847656 13.125 13.867188 13.128906 13.886719 L 13.125 13.886719 L 13.125 19.5 L 18.375 19.5 L 18.375 13.855469 C 18.375 13.847656 18.375 13.839844 18.375 13.828125 C 18.375 12.40625 17.199219 11.25 15.75 11.25 Z M 15.75 11.25 "/>
<path style=" stroke:none;fill-rule:nonzero;fill:rgb(57.254902%,68.235294%,100%);fill-opacity:1;" d="M 13.125 7.125 C 13.125 8.367188 12.117188 9.375 10.875 9.375 C 9.632812 9.375 8.625 8.367188 8.625 7.125 C 8.625 5.882812 9.632812 4.875 10.875 4.875 C 12.117188 4.875 13.125 5.882812 13.125 7.125 Z M 13.125 7.125 "/>
<path style=" stroke:none;fill-rule:nonzero;fill:rgb(57.254902%,68.235294%,100%);fill-opacity:1;" d="M 10.875 10.5 C 9.632812 10.5 8.625 11.550781 8.625 12.84375 C 8.625 12.859375 8.625 12.878906 8.625 12.894531 L 8.625 18 L 13.125 18 L 13.125 12.871094 C 13.125 12.859375 13.125 12.851562 13.125 12.84375 C 13.125 11.550781 12.117188 10.5 10.875 10.5 Z M 10.875 10.5 "/>
<path style=" stroke:none;fill-rule:nonzero;fill:rgb(57.254902%,68.235294%,100%);fill-opacity:1;" d="M 8.625 7.125 C 8.625 7.953125 7.953125 8.625 7.125 8.625 C 6.296875 8.625 5.625 7.953125 5.625 7.125 C 5.625 6.296875 6.296875 5.625 7.125 5.625 C 7.953125 5.625 8.625 6.296875 8.625 7.125 Z M 8.625 7.125 "/>
<path style=" stroke:none;fill-rule:nonzero;fill:rgb(57.254902%,68.235294%,100%);fill-opacity:1;" d="M 7.125 9.75 C 6.296875 9.75 5.625 10.484375 5.625 11.390625 C 5.625 11.402344 5.625 11.414062 5.625 11.425781 L 5.625 15 L 8.625 15 L 8.625 11.410156 C 8.625 11.402344 8.625 11.398438 8.625 11.390625 C 8.625 10.484375 7.953125 9.75 7.125 9.75 Z M 7.125 9.75 "/>
</g>
</svg>
