<?xml version="1.0" encoding="UTF-8"?>
<svg xmlns="http://www.w3.org/2000/svg" xmlns:xlink="http://www.w3.org/1999/xlink" width="24pt" height="24pt" viewBox="0 0 24 24" version="1.1">
<g id="surface1">
<path style=" stroke:none;fill-rule:evenodd;fill:rgb(100%,39.215686%,39.215686%);fill-opacity:1;" d="M 5.605469 1.421875 L 18.394531 1.421875 C 20.703125 1.421875 22.578125 3.296875 22.578125 5.605469 L 22.578125 18.394531 C 22.578125 20.703125 20.703125 22.578125 18.394531 22.578125 L 5.605469 22.578125 C 3.296875 22.578125 1.421875 20.703125 1.421875 18.394531 L 1.421875 5.605469 C 1.421875 3.296875 3.296875 1.421875 5.605469 1.421875 Z M 5.605469 1.421875 "/>
<path style=" stroke:none;fill-rule:nonzero;fill:rgb(100%,100%,100%);fill-opacity:1;" d="M 6.375 4.875 L 6.375 13.875 L 8.625 13.875 L 8.625 7.875 C 10.117188 7.875 11.382812 7.953125 12.058594 8.292969 C 12.730469 8.632812 13.128906 9.082031 13.125 10.871094 L 14.25 10.875 L 13.125 10.875 L 13.125 14.625 L 10.875 14.625 L 14.25 19.125 L 17.625 14.625 L 15.375 14.625 L 15.375 10.878906 C 15.375 10.875 15.375 10.875 15.375 10.875 C 15.378906 8.601562 14.464844 6.992188 13.074219 6.285156 C 11.679688 5.582031 10.128906 5.625 8.625 5.625 L 8.625 4.875 Z M 6.375 4.875 "/>
</g>
</svg>
