<?xml version="1.0" encoding="UTF-8"?>
<svg xmlns="http://www.w3.org/2000/svg" xmlns:xlink="http://www.w3.org/1999/xlink" width="24pt" height="24pt" viewBox="0 0 24 24" version="1.1">
<g id="surface1">
<path style=" stroke:none;fill-rule:evenodd;fill:rgb(30.980392%,30.980392%,30.980392%);fill-opacity:1;" d="M 5.605469 1.421875 L 18.394531 1.421875 C 20.703125 1.421875 22.578125 3.296875 22.578125 5.605469 L 22.578125 18.394531 C 22.578125 20.703125 20.703125 22.578125 18.394531 22.578125 L 5.605469 22.578125 C 3.296875 22.578125 1.421875 20.703125 1.421875 18.394531 L 1.421875 5.605469 C 1.421875 3.296875 3.296875 1.421875 5.605469 1.421875 Z M 5.605469 1.421875 "/>
<path style=" stroke:none;fill-rule:nonzero;fill:rgb(71.764706%,71.764706%,71.764706%);fill-opacity:1;" d="M 9.839844 4.5 C 9.796875 4.503906 9.75 4.515625 9.707031 4.546875 C 9.664062 4.578125 9.625 4.632812 9.617188 4.683594 C 9.601562 4.78125 9.621094 4.828125 9.660156 4.910156 C 9.847656 5.257812 10.03125 5.527344 10.101562 5.730469 C 10.226562 6.015625 10.226562 6.28125 10.191406 6.460938 L 9.96875 7.554688 C 8.855469 7.820312 7.78125 8.089844 6.707031 8.46875 C 6.496094 8.535156 6.335938 8.605469 6.175781 8.695312 C 6.164062 8.691406 6.148438 8.691406 6.132812 8.695312 C 6.078125 8.730469 6.074219 8.78125 6.042969 8.832031 C 6.03125 8.855469 6.003906 8.886719 6 8.921875 C 5.996094 8.957031 6.011719 9.019531 6.042969 9.058594 C 6.140625 9.195312 6.265625 9.25 6.441406 9.332031 C 6.617188 9.417969 6.820312 9.503906 6.972656 9.5625 C 7.71875 9.84375 8.679688 10.070312 9.441406 10.152344 C 9.238281 11.109375 9.039062 12.050781 8.734375 12.980469 C 8.660156 13.207031 8.566406 13.441406 8.472656 13.664062 C 8.191406 14.300781 7.839844 14.882812 7.5 15.441406 C 7.140625 15.964844 6.835938 16.472656 6.441406 16.945312 C 6.367188 17.027344 6.25 17.09375 6.175781 17.175781 C 6.140625 17.214844 6.113281 17.277344 6.089844 17.3125 C 6.074219 17.328125 6.054688 17.335938 6.042969 17.355469 C 6.035156 17.378906 6.039062 17.386719 6.042969 17.449219 C 6.042969 17.460938 6.042969 17.476562 6.042969 17.492188 C 6.054688 17.511719 6.070312 17.527344 6.089844 17.539062 C 6.101562 17.558594 6.113281 17.574219 6.132812 17.585938 C 6.148438 17.585938 6.164062 17.585938 6.175781 17.585938 C 6.253906 17.597656 6.320312 17.5625 6.398438 17.539062 C 6.472656 17.515625 6.527344 17.492188 6.617188 17.449219 C 6.800781 17.359375 7.035156 17.257812 7.234375 17.128906 C 7.523438 16.941406 7.730469 16.75 7.898438 16.628906 C 8.1875 16.40625 8.84375 15.777344 9.175781 15.351562 C 9.5625 14.898438 9.96875 14.414062 10.277344 13.800781 C 10.285156 13.789062 10.273438 13.765625 10.277344 13.753906 C 10.300781 13.71875 10.421875 13.476562 10.457031 13.390625 C 10.523438 13.21875 10.566406 13.050781 10.585938 12.980469 L 11.558594 9.925781 L 14.953125 9.105469 C 14.871094 9.839844 14.777344 10.554688 14.691406 11.292969 C 14.625 11.902344 14.578125 12.148438 14.511719 12.796875 C 14.511719 12.816406 14.515625 12.824219 14.511719 12.84375 C 14.476562 13.042969 14.367188 13.609375 14.335938 13.753906 C 14.113281 14.886719 13.871094 15.914062 13.367188 16.808594 C 13.246094 16.984375 13.105469 17.167969 12.96875 17.3125 C 12.832031 17.242188 12.636719 17.144531 12.351562 17.128906 C 12.347656 17.128906 12.320312 17.128906 12.308594 17.128906 C 12.292969 17.125 12.277344 17.125 12.265625 17.128906 C 12.261719 17.128906 12.21875 17.171875 12.21875 17.175781 C 12.203125 17.1875 12.1875 17.203125 12.175781 17.21875 C 12.15625 17.324219 12.191406 17.402344 12.21875 17.492188 C 12.25 17.582031 12.273438 17.683594 12.308594 17.765625 C 12.5625 18.363281 12.863281 18.878906 13.144531 19.40625 C 13.15625 19.425781 13.171875 19.441406 13.191406 19.453125 C 13.203125 19.472656 13.214844 19.488281 13.234375 19.5 C 13.25 19.5 13.265625 19.5 13.277344 19.5 C 13.292969 19.5 13.308594 19.5 13.324219 19.5 C 13.339844 19.488281 13.355469 19.472656 13.367188 19.453125 C 13.789062 19.039062 14.289062 18.371094 14.644531 17.8125 C 15.351562 16.722656 15.945312 15.5 16.367188 14.121094 C 16.429688 13.90625 16.480469 13.6875 16.542969 13.4375 L 17.867188 8.195312 C 17.921875 7.960938 17.988281 7.703125 18 7.507812 C 18 7.496094 18 7.480469 18 7.464844 C 17.972656 7.398438 17.910156 7.363281 17.867188 7.328125 C 17.820312 7.292969 17.789062 7.265625 17.734375 7.234375 C 17.621094 7.175781 17.46875 7.105469 17.335938 7.050781 C 16.703125 6.832031 16.011719 6.632812 15.265625 6.460938 C 15.183594 6.421875 15.128906 6.410156 15.042969 6.414062 C 14.957031 6.417969 14.832031 6.441406 14.734375 6.460938 C 14.542969 6.496094 14.347656 6.566406 14.207031 6.597656 L 12.441406 7.007812 C 12.515625 6.765625 12.636719 6.40625 12.53125 5.957031 C 12.378906 5.449219 11.992188 5.152344 11.558594 5 C 11.191406 4.871094 10.832031 4.757812 10.457031 4.636719 C 10.394531 4.617188 10.117188 4.515625 9.839844 4.5 Z M 9.839844 4.5 "/>
</g>
</svg>
