<?xml version="1.0" encoding="UTF-8"?>
<svg xmlns="http://www.w3.org/2000/svg" xmlns:xlink="http://www.w3.org/1999/xlink" width="24pt" height="24pt" viewBox="0 0 24 24" version="1.1">
<g id="surface1">
<path style=" stroke:none;fill-rule:evenodd;fill:rgb(80%,80%,80%);fill-opacity:1;" d="M 5.605469 1.421875 L 18.394531 1.421875 C 20.703125 1.421875 22.578125 3.296875 22.578125 5.605469 L 22.578125 18.394531 C 22.578125 20.703125 20.703125 22.578125 18.394531 22.578125 L 5.605469 22.578125 C 3.296875 22.578125 1.421875 20.703125 1.421875 18.394531 L 1.421875 5.605469 C 1.421875 3.296875 3.296875 1.421875 5.605469 1.421875 Z M 5.605469 1.421875 "/>
<path style=" stroke:none;fill-rule:nonzero;fill:rgb(29.019608%,38.039216%,80%);fill-opacity:1;" d="M 3.730469 7.566406 C 3.40625 7.574219 3.113281 7.753906 2.964844 8.039062 C 2.816406 8.324219 2.832031 8.671875 3.011719 8.9375 C 3.191406 9.207031 3.503906 9.355469 3.824219 9.328125 C 6.664062 9.175781 7.949219 10.171875 9.019531 11.542969 C 10.085938 12.914062 10.730469 14.738281 12.082031 16 C 13.171875 17.019531 14.746094 17.644531 16.277344 18.082031 C 17.808594 18.515625 19.269531 18.734375 20.242188 18.734375 C 20.558594 18.738281 20.855469 18.574219 21.015625 18.296875 C 21.175781 18.023438 21.175781 17.683594 21.015625 17.410156 C 20.855469 17.132812 20.558594 16.96875 20.242188 16.972656 C 19.566406 16.972656 18.144531 16.777344 16.761719 16.386719 C 15.375 15.992188 13.988281 15.367188 13.285156 14.710938 C 12.417969 13.902344 11.695312 12.105469 10.410156 10.457031 C 9.125 8.808594 7.0625 7.386719 3.730469 7.566406 Z M 3.730469 7.566406 "/>
<path style=" stroke:none;fill-rule:nonzero;fill:rgb(90.980392%,26.27451%,26.27451%);fill-opacity:1;" d="M 14.714844 5.277344 C 13.84375 5.1875 13.175781 5.644531 12.777344 6.03125 C 12.574219 6.222656 12.425781 6.410156 12.320312 6.554688 C 12.269531 6.628906 12.226562 6.691406 12.195312 6.738281 C 12.191406 6.75 12.1875 6.753906 12.179688 6.765625 L 11.601562 7.488281 C 11.433594 7.695312 11.363281 7.964844 11.417969 8.226562 C 11.46875 8.484375 11.636719 8.707031 11.871094 8.832031 C 11.761719 8.988281 11.644531 9.136719 11.585938 9.402344 C 11.324219 10.535156 11.855469 11.539062 12.503906 12.226562 C 12.96875 12.726562 13.539062 12.960938 14.058594 13.148438 C 14.320312 13.242188 14.566406 13.3125 14.785156 13.363281 C 15 13.414062 15.109375 13.460938 15.429688 13.4375 C 16.363281 13.371094 17.109375 13.082031 17.65625 12.636719 C 18.199219 12.195312 18.511719 11.644531 18.75 11.152344 C 19.242188 10.148438 18.941406 9.152344 18.71875 8.441406 C 18.714844 8.421875 18.707031 8.40625 18.703125 8.390625 C 17.972656 6.46875 16.210938 5.453125 14.726562 5.277344 C 14.722656 5.277344 14.71875 5.277344 14.714844 5.277344 Z M 14.53125 7.03125 C 15.304688 7.125 16.582031 7.835938 17.039062 8.992188 C 17.21875 9.582031 17.277344 10.152344 17.164062 10.382812 C 16.96875 10.785156 16.785156 11.070312 16.539062 11.269531 C 16.296875 11.46875 15.964844 11.628906 15.300781 11.679688 C 15.484375 11.664062 15.320312 11.675781 15.179688 11.644531 C 15.039062 11.613281 14.851562 11.558594 14.660156 11.488281 C 14.273438 11.351562 13.871094 11.109375 13.789062 11.019531 C 13.457031 10.667969 13.246094 10.054688 13.304688 9.796875 C 13.25 10.035156 13.359375 9.761719 13.550781 9.609375 C 13.742188 9.457031 13.929688 9.347656 13.929688 9.347656 C 14.246094 9.164062 14.417969 8.804688 14.359375 8.441406 C 14.300781 8.078125 14.027344 7.789062 13.667969 7.71875 C 13.6875 7.679688 13.710938 7.640625 13.726562 7.597656 C 13.722656 7.605469 13.71875 7.617188 13.71875 7.621094 C 13.703125 7.652344 13.699219 7.660156 13.695312 7.667969 C 13.691406 7.675781 13.691406 7.675781 13.6875 7.679688 C 13.699219 7.664062 13.71875 7.628906 13.75 7.589844 C 13.804688 7.511719 13.894531 7.402344 13.996094 7.304688 C 14.199219 7.109375 14.390625 7.019531 14.53125 7.03125 Z M 13.792969 7.292969 C 13.792969 7.292969 13.792969 7.304688 13.792969 7.304688 C 13.792969 7.300781 13.792969 7.296875 13.792969 7.292969 Z M 13.757812 7.511719 C 13.757812 7.511719 13.757812 7.519531 13.757812 7.519531 C 13.757812 7.519531 13.75 7.539062 13.746094 7.550781 C 13.75 7.535156 13.753906 7.523438 13.757812 7.511719 Z M 13.757812 7.511719 "/>
</g>
</svg>
