<?xml version="1.0" encoding="UTF-8"?>
<svg xmlns="http://www.w3.org/2000/svg" xmlns:xlink="http://www.w3.org/1999/xlink" width="24pt" height="24pt" viewBox="0 0 24 24" version="1.1">
<g id="surface1">
<path style=" stroke:none;fill-rule:evenodd;fill:rgb(90.196078%,90.196078%,90.196078%);fill-opacity:1;" d="M 17.433594 1.425781 L 8.039062 1.425781 L 17.433594 14.839844 Z M 17.433594 1.425781 "/>
<path style=" stroke:none;fill-rule:evenodd;fill:rgb(41.960784%,65.098039%,24.705882%);fill-opacity:1;" d="M 17.433594 1.425781 L 17.433594 14.839844 L 21.667969 20.886719 C 22.203125 20.1875 22.578125 19.351562 22.574219 18.394531 L 22.574219 5.605469 C 22.578125 3.289062 20.710938 1.421875 18.394531 1.421875 Z M 17.433594 1.425781 "/>
<path style=" stroke:none;fill-rule:evenodd;fill:rgb(90.196078%,90.196078%,90.196078%);fill-opacity:1;" d="M 6.570312 22.574219 L 15.960938 22.574219 L 6.570312 9.160156 Z M 6.570312 22.574219 "/>
<path style=" stroke:none;fill-rule:evenodd;fill:rgb(25.882353%,68.627451%,90.196078%);fill-opacity:1;" d="M 6.570312 22.574219 L 6.570312 9.160156 L 2.332031 3.109375 C 1.796875 3.8125 1.425781 4.648438 1.425781 5.605469 L 1.425781 18.394531 C 1.425781 20.710938 3.289062 22.578125 5.605469 22.574219 Z M 6.570312 22.574219 "/>
<path style=" stroke:none;fill-rule:evenodd;fill:rgb(58.823529%,79.215686%,41.960784%);fill-opacity:1;" d="M 2.332031 3.109375 L 15.960938 22.574219 L 18.394531 22.574219 C 19.757812 22.578125 20.90625 21.890625 21.667969 20.886719 L 8.039062 1.425781 L 5.605469 1.425781 C 4.242188 1.425781 3.09375 2.109375 2.332031 3.109375 Z M 2.332031 3.109375 "/>
</g>
</svg>
