<?xml version="1.0" encoding="UTF-8"?>
<svg xmlns="http://www.w3.org/2000/svg" xmlns:xlink="http://www.w3.org/1999/xlink" width="24pt" height="24pt" viewBox="0 0 24 24" version="1.1">
<g id="surface1">
<path style=" stroke:none;fill-rule:evenodd;fill:rgb(99.215686%,73.333333%,15.686275%);fill-opacity:1;" d="M 5.605469 1.421875 L 18.394531 1.421875 C 20.703125 1.421875 22.578125 3.296875 22.578125 5.605469 L 22.578125 18.394531 C 22.578125 20.703125 20.703125 22.578125 18.394531 22.578125 L 5.605469 22.578125 C 3.296875 22.578125 1.421875 20.703125 1.421875 18.394531 L 1.421875 5.605469 C 1.421875 3.296875 3.296875 1.421875 5.605469 1.421875 Z M 5.605469 1.421875 "/>
<path style=" stroke:none;fill-rule:nonzero;fill:rgb(100%,100%,100%);fill-opacity:1;" d="M 18.261719 13.136719 C 18.261719 16.597656 15.457031 19.398438 12 19.398438 C 8.542969 19.398438 5.738281 16.597656 5.738281 13.136719 C 5.738281 9.679688 8.542969 6.875 12 6.875 C 15.457031 6.875 18.261719 9.679688 18.261719 13.136719 Z M 18.261719 13.136719 "/>
<path style=" stroke:none;fill-rule:nonzero;fill:rgb(30.980392%,30.980392%,30.980392%);fill-opacity:1;" d="M 12 4.601562 C 10.230469 4.601562 8.617188 5.136719 7.425781 6.042969 C 6.234375 6.945312 5.738281 8.238281 5.738281 9.675781 L 5.738281 10.292969 C 4.554688 10.875 3.460938 12.308594 3.460938 14.105469 C 3.460938 16.398438 5.148438 18.261719 6.875 18.261719 L 6.875 9.675781 C 6.875 8.597656 7.101562 7.722656 8.085938 6.976562 C 9.066406 6.230469 10.457031 5.738281 12 5.738281 C 13.542969 5.738281 14.933594 6.230469 15.914062 6.976562 C 16.898438 7.722656 17.125 8.597656 17.125 9.675781 L 17.125 18.261719 C 18.851562 18.261719 20.539062 16.398438 20.539062 14.101562 C 20.539062 12.308594 19.445312 10.875 18.261719 10.292969 L 18.261719 9.675781 C 18.261719 8.238281 17.765625 6.945312 16.574219 6.042969 C 15.382812 5.136719 13.769531 4.601562 12 4.601562 Z M 9.152344 10.292969 C 8.523438 10.292969 8.015625 10.800781 8.015625 11.429688 C 8.015625 12.058594 8.523438 12.570312 9.152344 12.570312 C 9.78125 12.570312 10.292969 12.058594 10.292969 11.429688 C 10.292969 10.800781 9.78125 10.292969 9.152344 10.292969 Z M 14.847656 10.292969 C 14.21875 10.292969 13.707031 10.800781 13.707031 11.429688 C 13.707031 12.058594 14.21875 12.570312 14.847656 12.570312 C 15.476562 12.570312 15.984375 12.058594 15.984375 11.429688 C 15.984375 10.800781 15.476562 10.292969 14.847656 10.292969 Z M 14.277344 15.414062 L 9.722656 15.425781 C 9.722656 16.683594 10.742188 17.691406 12 17.691406 C 13.257812 17.691406 14.277344 16.671875 14.277344 15.414062 Z M 14.277344 15.414062 "/>
</g>
</svg>
