<?xml version="1.0" encoding="UTF-8"?>
<svg xmlns="http://www.w3.org/2000/svg" xmlns:xlink="http://www.w3.org/1999/xlink" width="24pt" height="24pt" viewBox="0 0 24 24" version="1.1">
<defs>
<clipPath id="clip1">
  <rect width="24" height="24"/>
</clipPath>
<g id="surface6" clip-path="url(#clip1)">
<path style=" stroke:none;fill-rule:nonzero;fill:rgb(100%,100%,100%);fill-opacity:1;" d="M 10.535156 4.84375 C 10.382812 4.859375 10.25 4.984375 10.222656 5.132812 L 9.921875 6.667969 C 9.378906 6.878906 8.867188 7.167969 8.421875 7.527344 L 6.933594 7.023438 C 6.78125 6.972656 6.59375 7.039062 6.511719 7.179688 L 5.078125 9.664062 C 4.996094 9.804688 5.03125 10.003906 5.15625 10.109375 L 6.34375 11.148438 C 6.300781 11.429688 6.273438 11.710938 6.273438 12 C 6.273438 12.289062 6.300781 12.570312 6.34375 12.851562 L 5.15625 13.890625 C 5.03125 13.996094 4.996094 14.195312 5.078125 14.335938 L 6.511719 16.820312 C 6.59375 16.960938 6.78125 17.03125 6.933594 16.976562 L 8.421875 16.472656 C 8.867188 16.832031 9.378906 17.121094 9.921875 17.332031 L 10.222656 18.867188 C 10.253906 19.027344 10.40625 19.152344 10.570312 19.15625 L 13.429688 19.15625 C 13.59375 19.15625 13.746094 19.027344 13.777344 18.867188 L 14.078125 17.332031 C 14.621094 17.121094 15.132812 16.832031 15.578125 16.472656 L 17.066406 16.976562 C 17.21875 17.03125 17.40625 16.960938 17.488281 16.820312 L 18.921875 14.335938 C 19.003906 14.195312 18.96875 13.996094 18.84375 13.890625 L 17.65625 12.851562 C 17.699219 12.570312 17.726562 12.289062 17.726562 12 C 17.726562 11.710938 17.699219 11.429688 17.65625 11.148438 L 18.84375 10.109375 C 18.96875 10.003906 19.003906 9.804688 18.921875 9.664062 L 17.488281 7.179688 C 17.40625 7.039062 17.21875 6.972656 17.066406 7.023438 L 15.578125 7.527344 C 15.128906 7.167969 14.621094 6.878906 14.078125 6.667969 L 13.777344 5.132812 C 13.746094 4.972656 13.59375 4.847656 13.429688 4.84375 L 10.570312 4.84375 C 10.558594 4.84375 10.546875 4.84375 10.535156 4.84375 Z M 10.535156 4.84375 "/>
</g>
<clipPath id="clip2">
  <rect width="24" height="24"/>
</clipPath>
<g id="surface9" clip-path="url(#clip2)">
<path style=" stroke:none;fill-rule:nonzero;fill:rgb(37.254902%,48.627451%,54.117647%);fill-opacity:1;" d="M 12 8.933594 C 13.695312 8.933594 15.066406 10.304688 15.066406 12 C 15.066406 13.695312 13.695312 15.066406 12 15.066406 C 10.304688 15.066406 8.933594 13.695312 8.933594 12 C 8.933594 10.304688 10.304688 8.933594 12 8.933594 Z M 12 8.933594 "/>
</g>
</defs>
<g id="surface1">
<path style=" stroke:none;fill-rule:evenodd;fill:rgb(37.254902%,48.627451%,54.117647%);fill-opacity:1;" d="M 5.605469 1.421875 L 18.394531 1.421875 C 20.703125 1.421875 22.578125 3.296875 22.578125 5.605469 L 22.578125 18.394531 C 22.578125 20.703125 20.703125 22.578125 18.394531 22.578125 L 5.605469 22.578125 C 3.296875 22.578125 1.421875 20.703125 1.421875 18.394531 L 1.421875 5.605469 C 1.421875 3.296875 3.296875 1.421875 5.605469 1.421875 Z M 5.605469 1.421875 "/>
<use xlink:href="#surface6"/>
<use xlink:href="#surface9"/>
</g>
</svg>
