<?xml version="1.0" encoding="UTF-8"?>
<svg xmlns="http://www.w3.org/2000/svg" xmlns:xlink="http://www.w3.org/1999/xlink" width="24pt" height="24pt" viewBox="0 0 24 24" version="1.1">
<g id="surface1">
<path style=" stroke:none;fill-rule:evenodd;fill:rgb(55.686275%,55.686275%,55.686275%);fill-opacity:1;" d="M 1.421875 8.261719 L 1.421875 18.394531 C 1.421875 20.710938 3.289062 22.578125 5.605469 22.578125 L 18.394531 22.578125 C 20.710938 22.578125 22.574219 20.710938 22.574219 18.394531 L 22.574219 8.261719 Z M 1.421875 8.261719 "/>
<path style=" stroke:none;fill-rule:evenodd;fill:rgb(20%,20%,20%);fill-opacity:1;" d="M 1.421875 8.261719 L 22.574219 8.261719 L 22.574219 5.605469 C 22.574219 3.289062 20.710938 1.421875 18.394531 1.421875 L 5.605469 1.421875 C 3.289062 1.421875 1.421875 3.289062 1.421875 5.605469 Z M 1.421875 8.261719 "/>
<path style=" stroke:none;fill-rule:nonzero;fill:rgb(94.901961%,37.647059%,33.72549%);fill-opacity:1;" d="M 16.0625 3.023438 L 17.964844 3.023438 C 18.507812 3.023438 18.945312 3.460938 18.945312 4 L 18.945312 5.902344 C 18.945312 6.445312 18.507812 6.882812 17.964844 6.882812 L 16.0625 6.882812 C 15.523438 6.882812 15.085938 6.445312 15.085938 5.902344 L 15.085938 4 C 15.085938 3.460938 15.523438 3.023438 16.0625 3.023438 Z M 16.0625 3.023438 "/>
<path style=" stroke:none;fill-rule:nonzero;fill:rgb(94.901961%,97.647059%,94.117647%);fill-opacity:1;" d="M 17.835938 4.128906 C 17.742188 4.035156 17.585938 4.035156 17.492188 4.128906 L 17.015625 4.605469 L 16.539062 4.128906 C 16.445312 4.035156 16.289062 4.035156 16.191406 4.128906 C 16.097656 4.226562 16.097656 4.382812 16.191406 4.476562 L 16.667969 4.953125 L 16.191406 5.429688 C 16.097656 5.523438 16.097656 5.679688 16.191406 5.773438 C 16.289062 5.871094 16.445312 5.871094 16.539062 5.773438 L 17.015625 5.300781 L 17.492188 5.773438 C 17.585938 5.871094 17.742188 5.871094 17.835938 5.773438 C 17.933594 5.679688 17.933594 5.523438 17.835938 5.429688 L 17.363281 4.953125 L 17.835938 4.476562 C 17.933594 4.382812 17.933594 4.226562 17.835938 4.128906 Z M 17.835938 4.128906 "/>
<path style=" stroke:none;fill-rule:nonzero;fill:rgb(51.764706%,74.509804%,23.137255%);fill-opacity:1;" d="M 11.046875 3.023438 L 12.953125 3.023438 C 13.492188 3.023438 13.929688 3.460938 13.929688 4 L 13.929688 5.902344 C 13.929688 6.445312 13.492188 6.882812 12.953125 6.882812 L 11.046875 6.882812 C 10.507812 6.882812 10.070312 6.445312 10.070312 5.902344 L 10.070312 4 C 10.070312 3.460938 10.507812 3.023438 11.046875 3.023438 Z M 11.046875 3.023438 "/>
<path style=" stroke:none;fill-rule:nonzero;fill:rgb(100%,100%,100%);fill-opacity:1;" d="M 12.496094 5.847656 L 11.105469 4.460938 L 11.105469 5.574219 C 11.105469 5.726562 11.226562 5.847656 11.378906 5.847656 Z M 12.496094 5.847656 "/>
<path style=" stroke:none;fill-rule:nonzero;fill:rgb(100%,100%,100%);fill-opacity:1;" d="M 12.8125 4.140625 C 12.765625 4.089844 12.695312 4.058594 12.621094 4.058594 L 11.488281 4.058594 L 12.894531 5.457031 L 12.894531 4.332031 C 12.894531 4.257812 12.863281 4.1875 12.8125 4.140625 Z M 12.8125 4.140625 "/>
<path style=" stroke:none;fill-rule:nonzero;fill:rgb(98.823529%,78.039216%,2.745098%);fill-opacity:1;" d="M 6.035156 3.023438 L 7.9375 3.023438 C 8.476562 3.023438 8.914062 3.460938 8.914062 4 L 8.914062 5.902344 C 8.914062 6.445312 8.476562 6.882812 7.9375 6.882812 L 6.035156 6.882812 C 5.492188 6.882812 5.054688 6.445312 5.054688 5.902344 L 5.054688 4 C 5.054688 3.460938 5.492188 3.023438 6.035156 3.023438 Z M 6.035156 3.023438 "/>
<path style=" stroke:none;fill-rule:nonzero;fill:rgb(100%,100%,100%);fill-opacity:1;" d="M 7.480469 5.847656 L 6.089844 4.460938 L 6.089844 5.574219 C 6.089844 5.726562 6.210938 5.847656 6.363281 5.847656 Z M 7.480469 5.847656 "/>
</g>
</svg>
