<?xml version="1.0" encoding="UTF-8"?>
<svg xmlns="http://www.w3.org/2000/svg" xmlns:xlink="http://www.w3.org/1999/xlink" width="24pt" height="24pt" viewBox="0 0 24 24" version="1.1">
<g id="surface1">
<path style=" stroke:none;fill-rule:evenodd;fill:rgb(37.254902%,48.627451%,54.117647%);fill-opacity:1;" d="M 5.605469 1.421875 L 18.394531 1.421875 C 20.703125 1.421875 22.578125 3.296875 22.578125 5.605469 L 22.578125 18.394531 C 22.578125 20.703125 20.703125 22.578125 18.394531 22.578125 L 5.605469 22.578125 C 3.296875 22.578125 1.421875 20.703125 1.421875 18.394531 L 1.421875 5.605469 C 1.421875 3.296875 3.296875 1.421875 5.605469 1.421875 Z M 5.605469 1.421875 "/>
<path style=" stroke:none;fill-rule:nonzero;fill:rgb(94.901961%,94.901961%,94.901961%);fill-opacity:1;" d="M 11.324219 19.269531 C 9.96875 19.117188 8.667969 18.539062 7.648438 17.640625 C 6.59375 16.710938 5.84375 15.417969 5.535156 13.992188 C 5.457031 13.644531 5.445312 13.46875 5.445312 12.679688 C 5.445312 11.878906 5.453125 11.71875 5.535156 11.347656 C 5.8125 10.050781 6.386719 8.972656 7.300781 8.035156 C 8.164062 7.148438 9.210938 6.542969 10.433594 6.226562 L 10.90625 6.105469 L 10.917969 5.820312 L 10.929688 5.53125 L 9.421875 5.53125 L 9.421875 5.34375 C 9.421875 4.492188 10.113281 3.683594 10.988281 3.511719 C 11.148438 3.480469 11.554688 3.472656 12.195312 3.480469 C 13.097656 3.496094 13.179688 3.503906 13.402344 3.589844 C 13.710938 3.710938 14.019531 3.917969 14.199219 4.121094 C 14.46875 4.433594 14.6875 5.003906 14.6875 5.398438 L 14.6875 5.53125 L 13.222656 5.53125 L 13.222656 6.117188 L 13.53125 6.1875 C 14.285156 6.355469 15.121094 6.726562 15.835938 7.210938 C 16.351562 7.558594 17.101562 8.292969 17.472656 8.820312 C 17.792969 9.273438 18.210938 10.09375 18.371094 10.589844 C 18.792969 11.90625 18.792969 13.429688 18.367188 14.734375 C 17.839844 16.351562 16.660156 17.738281 15.125 18.550781 C 13.992188 19.152344 12.601562 19.414062 11.324219 19.269531 Z M 11.527344 17.285156 C 11.542969 16.9375 11.5625 16.8125 11.617188 16.726562 C 11.820312 16.421875 12.300781 16.429688 12.484375 16.742188 C 12.535156 16.824219 12.550781 16.953125 12.550781 17.289062 C 12.550781 17.796875 12.511719 17.765625 13.023438 17.667969 C 13.667969 17.546875 14.4375 17.214844 15.003906 16.816406 C 15.167969 16.699219 15.464844 16.445312 15.660156 16.246094 C 17.375 14.523438 17.636719 11.863281 16.289062 9.839844 C 15.546875 8.722656 14.398438 7.953125 13.054688 7.664062 C 12.527344 7.550781 11.585938 7.542969 11.105469 7.648438 C 9.574219 7.984375 8.359375 8.851562 7.621094 10.148438 C 7.332031 10.65625 7.066406 11.4375 6.996094 11.976562 L 6.976562 12.144531 L 7.390625 12.144531 C 7.980469 12.144531 8.160156 12.246094 8.214844 12.609375 C 8.246094 12.804688 8.136719 13.011719 7.953125 13.105469 C 7.851562 13.160156 7.71875 13.175781 7.394531 13.175781 C 7.160156 13.175781 6.96875 13.183594 6.96875 13.191406 C 6.96875 13.199219 6.996094 13.355469 7.027344 13.539062 C 7.410156 15.617188 9.019531 17.261719 11.070312 17.667969 C 11.546875 17.761719 11.507812 17.792969 11.527344 17.285156 Z M 17.210938 7.601562 L 16.308594 6.695312 L 16.800781 6.214844 C 17.320312 5.714844 17.433594 5.648438 17.6875 5.710938 C 17.757812 5.726562 18.046875 5.984375 18.460938 6.398438 L 19.125 7.058594 L 19.125 7.488281 L 18.617188 7.996094 L 18.113281 8.503906 Z M 17.210938 7.601562 "/>
<path style=" stroke:none;fill-rule:nonzero;fill:rgb(44.705882%,85.882353%,66.27451%);fill-opacity:1;" d="M 12.101562 10.269531 L 12.101562 7.894531 L 12.3125 7.894531 C 12.636719 7.894531 13.234375 8.003906 13.625 8.136719 C 15.289062 8.691406 16.539062 10.132812 16.832031 11.832031 C 16.867188 12.023438 16.894531 12.285156 16.894531 12.414062 L 16.894531 12.648438 L 12.101562 12.648438 Z M 12.101562 10.269531 "/>
</g>
</svg>
