<?xml version="1.0" encoding="UTF-8"?>
<svg xmlns="http://www.w3.org/2000/svg" xmlns:xlink="http://www.w3.org/1999/xlink" width="24pt" height="24pt" viewBox="0 0 24 24" version="1.1">
<g id="surface1">
<path style=" stroke:none;fill-rule:evenodd;fill:rgb(87.45098%,74.509804%,34.117647%);fill-opacity:1;" d="M 20.417969 2.015625 C 20.335938 2.222656 20.25 2.425781 20.15625 2.628906 C 20.003906 2.941406 19.832031 3.25 19.648438 3.546875 C 19.464844 3.84375 19.265625 4.132812 19.054688 4.410156 C 18.839844 4.6875 18.613281 4.953125 18.371094 5.207031 C 18.132812 5.464844 17.878906 5.707031 17.613281 5.9375 C 17.351562 6.164062 17.074219 6.382812 16.789062 6.582031 C 16.503906 6.785156 16.207031 6.972656 15.902344 7.148438 C 15.597656 7.320312 15.285156 7.476562 14.964844 7.621094 C 14.644531 7.761719 14.316406 7.886719 13.980469 7.996094 C 13.648438 8.105469 13.308594 8.199219 12.964844 8.273438 C 12.734375 8.324219 12.496094 8.367188 12.257812 8.40625 C 12.316406 8.75 12.355469 9.097656 12.378906 9.445312 C 12.390625 9.652344 12.398438 9.859375 12.398438 10.070312 C 12.398438 10.417969 12.382812 10.765625 12.34375 11.113281 C 12.3125 11.460938 12.257812 11.808594 12.1875 12.148438 C 12.117188 12.492188 12.03125 12.832031 11.929688 13.164062 C 11.824219 13.5 11.703125 13.828125 11.566406 14.148438 C 11.429688 14.472656 11.277344 14.785156 11.109375 15.09375 C 10.941406 15.398438 10.757812 15.695312 10.558594 15.984375 C 10.359375 16.273438 10.148438 16.550781 9.921875 16.820312 C 9.695312 17.085938 9.457031 17.339844 9.203125 17.585938 C 8.953125 17.828125 8.6875 18.058594 8.414062 18.277344 C 8.136719 18.492188 7.851562 18.695312 7.558594 18.882812 C 7.261719 19.074219 6.957031 19.246094 6.644531 19.40625 C 6.332031 19.5625 6.011719 19.707031 5.683594 19.832031 C 5.355469 19.960938 5.023438 20.070312 4.683594 20.164062 C 4.347656 20.257812 4.003906 20.332031 3.65625 20.390625 C 3.3125 20.449219 2.964844 20.492188 2.613281 20.515625 C 2.441406 20.527344 2.269531 20.535156 2.097656 20.539062 C 2.832031 21.734375 4.09375 22.578125 5.605469 22.578125 L 18.394531 22.578125 C 20.710938 22.578125 22.574219 20.710938 22.574219 18.394531 L 22.574219 5.605469 C 22.574219 4.039062 21.6875 2.734375 20.417969 2.015625 Z M 20.417969 2.015625 "/>
<path style=" stroke:none;fill-rule:evenodd;fill:rgb(52.156863%,52.156863%,52.156863%);fill-opacity:1;" d="M 5.605469 1.421875 C 3.289062 1.421875 1.421875 3.289062 1.421875 5.605469 L 1.421875 18.394531 C 1.421875 19.199219 1.707031 19.902344 2.097656 20.539062 C 2.269531 20.535156 2.441406 20.527344 2.613281 20.515625 C 2.964844 20.492188 3.3125 20.449219 3.65625 20.390625 C 4.003906 20.332031 4.347656 20.257812 4.683594 20.164062 C 5.023438 20.070312 5.355469 19.960938 5.683594 19.832031 C 6.011719 19.707031 6.332031 19.5625 6.644531 19.40625 C 6.957031 19.246094 7.261719 19.074219 7.558594 18.882812 C 7.851562 18.695312 8.136719 18.492188 8.414062 18.277344 C 8.6875 18.058594 8.953125 17.828125 9.203125 17.585938 C 9.457031 17.339844 9.695312 17.085938 9.921875 16.820312 C 10.148438 16.550781 10.359375 16.273438 10.558594 15.984375 C 10.757812 15.695312 10.941406 15.398438 11.109375 15.09375 C 11.277344 14.785156 11.429688 14.472656 11.566406 14.148438 C 11.703125 13.828125 11.824219 13.5 11.929688 13.164062 C 12.03125 12.832031 12.117188 12.492188 12.1875 12.148438 C 12.257812 11.808594 12.3125 11.460938 12.34375 11.113281 C 12.382812 10.765625 12.398438 10.417969 12.398438 10.070312 C 12.398438 9.859375 12.390625 9.652344 12.378906 9.445312 C 12.355469 9.097656 12.316406 8.75 12.257812 8.40625 C 12.496094 8.367188 12.734375 8.324219 12.96875 8.273438 C 13.308594 8.199219 13.648438 8.105469 13.980469 7.996094 C 14.316406 7.886719 14.644531 7.761719 14.964844 7.621094 C 15.285156 7.476562 15.597656 7.320312 15.902344 7.148438 C 16.207031 6.972656 16.503906 6.785156 16.789062 6.582031 C 17.074219 6.382812 17.351562 6.164062 17.613281 5.9375 C 17.878906 5.707031 18.132812 5.464844 18.371094 5.207031 C 18.613281 4.953125 18.839844 4.6875 19.054688 4.410156 C 19.265625 4.132812 19.464844 3.84375 19.648438 3.546875 C 19.832031 3.25 20.003906 2.941406 20.15625 2.628906 C 20.25 2.425781 20.335938 2.222656 20.417969 2.015625 C 19.8125 1.671875 19.144531 1.421875 18.394531 1.421875 Z M 5.605469 1.421875 "/>
</g>
</svg>
