<?xml version="1.0" encoding="UTF-8"?>
<svg xmlns="http://www.w3.org/2000/svg" xmlns:xlink="http://www.w3.org/1999/xlink" width="24pt" height="24pt" viewBox="0 0 24 24" version="1.1">
<g id="surface1">
<path style=" stroke:none;fill-rule:evenodd;fill:rgb(51.372549%,65.490196%,90.196078%);fill-opacity:1;" d="M 14.355469 1.425781 L 5.605469 1.425781 C 3.289062 1.425781 1.425781 3.289062 1.425781 5.605469 L 1.425781 18.394531 C 1.425781 20.710938 3.289062 22.574219 5.605469 22.574219 L 18.394531 22.574219 C 20.710938 22.578125 22.574219 20.710938 22.574219 18.394531 L 22.574219 5.605469 C 22.578125 3.289062 20.710938 1.425781 18.394531 1.425781 L 15.765625 1.425781 C 15.429688 1.785156 15.042969 2.152344 14.773438 2.503906 C 14.289062 3.132812 13.90625 3.746094 13.597656 4.359375 C 12.976562 5.582031 12.644531 6.78125 12.394531 8 L 11.367188 7.789062 C 11.625 6.523438 11.996094 5.21875 12.675781 3.886719 C 13.011719 3.222656 13.429688 2.550781 13.945312 1.871094 C 14.058594 1.722656 14.230469 1.570312 14.355469 1.425781 Z M 14.355469 1.425781 "/>
<path style=" stroke:none;fill-rule:evenodd;fill:rgb(0%,21.960784%,43.921569%);fill-opacity:1;" d="M 14.355469 1.425781 C 14.230469 1.570312 14.058594 1.722656 13.945312 1.871094 C 13.429688 2.550781 13.011719 3.222656 12.675781 3.886719 C 11.996094 5.21875 11.625 6.523438 11.367188 7.789062 L 12.394531 8 C 12.644531 6.78125 12.976562 5.582031 13.597656 4.359375 C 13.90625 3.746094 14.289062 3.132812 14.773438 2.503906 C 15.042969 2.152344 15.429688 1.785156 15.765625 1.425781 Z M 14.355469 1.425781 "/>
<path style=" stroke:none;fill-rule:evenodd;fill:rgb(51.372549%,65.490196%,90.196078%);fill-opacity:1;" d="M 19.730469 22.308594 L 18.480469 20.742188 C 17.15625 19.078125 17.101562 19.019531 16.933594 19.050781 C 16.34375 19.148438 15.777344 19.152344 15.414062 19.050781 C 14.957031 18.929688 14.441406 18.605469 14.136719 18.257812 C 13.890625 17.972656 13.597656 17.40625 13.542969 17.109375 L 13.503906 16.917969 L 10.441406 16.917969 L 10.3125 17.3125 C 10.113281 17.917969 9.773438 18.386719 9.320312 18.695312 C 8.867188 19.003906 8.300781 19.15625 7.648438 19.125 L 7.109375 19.101562 L 5.628906 20.8125 C 4.851562 21.714844 4.519531 22.105469 4.269531 22.308594 C 4.695312 22.453125 5.128906 22.574219 5.605469 22.574219 L 18.394531 22.574219 C 18.867188 22.578125 19.304688 22.453125 19.730469 22.308594 Z M 19.730469 22.308594 "/>
<path style=" stroke:none;fill-rule:evenodd;fill:rgb(0%,38.039216%,67.45098%);fill-opacity:1;" d="M 22.574219 16.644531 C 22.566406 16.601562 22.554688 16.554688 22.542969 16.511719 C 22.464844 16.171875 22.121094 14.714844 21.78125 13.269531 C 21.289062 11.183594 21.117188 10.546875 20.945312 10.175781 C 20.742188 9.738281 20.476562 9.335938 20.15625 8.980469 C 19.835938 8.621094 19.457031 8.304688 19.027344 8.03125 C 18.164062 7.484375 17.089844 7.109375 15.820312 6.925781 C 15.070312 6.8125 8.769531 6.816406 8.148438 6.925781 C 7.167969 7.097656 6.40625 7.3125 5.761719 7.605469 C 5.117188 7.898438 4.589844 8.273438 4.085938 8.773438 C 3.578125 9.28125 3.460938 9.433594 3.226562 9.914062 C 2.9375 10.496094 2.914062 10.589844 1.875 14.816406 C 1.734375 15.398438 1.582031 16.015625 1.425781 16.667969 L 1.425781 18.394531 C 1.425781 20.238281 2.621094 21.75 4.269531 22.308594 C 4.519531 22.105469 4.851562 21.714844 5.628906 20.8125 L 7.109375 19.101562 L 7.648438 19.125 C 8.300781 19.15625 8.867188 19.003906 9.320312 18.695312 C 9.773438 18.386719 10.113281 17.917969 10.3125 17.3125 L 10.441406 16.917969 L 13.503906 16.917969 L 13.542969 17.109375 C 13.597656 17.40625 13.890625 17.972656 14.136719 18.257812 C 14.441406 18.605469 14.957031 18.929688 15.414062 19.050781 C 15.777344 19.152344 16.34375 19.148438 16.933594 19.050781 C 17.101562 19.019531 17.15625 19.078125 18.480469 20.742188 L 19.730469 22.308594 C 21.378906 21.75 22.578125 20.238281 22.574219 18.394531 Z M 16.917969 9.113281 C 17.203125 9.304688 17.296875 9.625 17.167969 9.960938 C 17.082031 10.183594 16.921875 10.335938 16.726562 10.402344 C 16.535156 10.464844 16.3125 10.445312 16.109375 10.324219 C 15.894531 10.191406 15.773438 9.988281 15.753906 9.777344 C 15.734375 9.5625 15.8125 9.339844 16 9.167969 C 16.261719 8.929688 16.613281 8.90625 16.917969 9.113281 Z M 6.75 9.328125 L 8.269531 9.328125 L 8.269531 10.785156 L 9.011719 10.800781 L 9.757812 10.816406 L 9.773438 11.5625 L 9.792969 12.308594 L 8.269531 12.308594 L 8.269531 13.824219 L 6.75 13.824219 L 6.75 12.308594 L 5.289062 12.308594 L 5.289062 10.789062 L 6.75 10.789062 Z M 11.246094 14.527344 L 12.765625 14.527344 L 12.765625 15.34375 L 11.246094 15.34375 Z M 8.082031 15.320312 C 8.421875 15.378906 8.734375 15.589844 8.902344 15.941406 C 9.019531 16.179688 9.042969 16.425781 9 16.644531 C 8.957031 16.867188 8.84375 17.070312 8.683594 17.226562 C 8.527344 17.382812 8.328125 17.496094 8.105469 17.535156 C 7.882812 17.578125 7.640625 17.554688 7.402344 17.4375 C 7.054688 17.265625 6.84375 16.949219 6.785156 16.613281 C 6.730469 16.273438 6.828125 15.90625 7.101562 15.632812 C 7.375 15.359375 7.742188 15.261719 8.082031 15.320312 Z M 8.082031 15.320312 "/>
<path style=" stroke:none;fill-rule:evenodd;fill:rgb(90.196078%,90.196078%,90.196078%);fill-opacity:1;" d="M 15.851562 15.335938 C 15.539062 15.410156 15.261719 15.617188 15.105469 15.941406 C 14.964844 16.230469 14.957031 16.539062 15.054688 16.808594 C 15.152344 17.078125 15.359375 17.3125 15.65625 17.453125 C 15.992188 17.613281 16.363281 17.578125 16.664062 17.402344 C 16.964844 17.222656 17.191406 16.910156 17.242188 16.515625 C 17.28125 16.226562 17.054688 15.703125 16.816406 15.535156 C 16.511719 15.324219 16.164062 15.261719 15.851562 15.335938 Z M 15.851562 15.335938 "/>
<path style=" stroke:none;fill-rule:evenodd;fill:rgb(90.196078%,90.196078%,90.196078%);fill-opacity:1;" d="M 15.851562 15.335938 C 16.164062 15.261719 16.511719 15.324219 16.816406 15.535156 C 17.054688 15.703125 17.28125 16.226562 17.242188 16.515625 C 17.191406 16.910156 16.964844 17.222656 16.664062 17.402344 C 16.363281 17.578125 15.992188 17.613281 15.65625 17.453125 C 15.359375 17.3125 15.152344 17.078125 15.054688 16.808594 C 14.957031 16.539062 14.964844 16.230469 15.105469 15.941406 C 15.261719 15.617188 15.539062 15.410156 15.851562 15.335938 Z M 15.851562 15.335938 "/>
<path style=" stroke:none;fill-rule:evenodd;fill:rgb(90.196078%,90.196078%,90.196078%);fill-opacity:1;" d="M 8.082031 15.320312 C 7.742188 15.261719 7.375 15.359375 7.101562 15.632812 C 6.828125 15.90625 6.730469 16.273438 6.785156 16.613281 C 6.84375 16.949219 7.054688 17.265625 7.402344 17.4375 C 7.640625 17.554688 7.882812 17.578125 8.105469 17.535156 C 8.328125 17.496094 8.527344 17.382812 8.683594 17.226562 C 8.84375 17.070312 8.957031 16.867188 9 16.644531 C 9.042969 16.425781 9.019531 16.179688 8.902344 15.941406 C 8.734375 15.589844 8.421875 15.378906 8.082031 15.320312 Z M 8.082031 15.320312 "/>
<path style=" stroke:none;fill-rule:evenodd;fill:rgb(90.196078%,90.196078%,90.196078%);fill-opacity:1;" d="M 11.246094 14.527344 L 11.246094 15.34375 L 12.765625 15.34375 L 12.765625 14.527344 Z M 11.246094 14.527344 "/>
<path style=" stroke:none;fill-rule:evenodd;fill:rgb(90.196078%,90.196078%,90.196078%);fill-opacity:1;" d="M 16.367188 11.976562 C 16.0625 12.015625 15.851562 12.226562 15.78125 12.480469 C 15.707031 12.734375 15.769531 13.027344 16.007812 13.238281 C 16.210938 13.414062 16.476562 13.460938 16.703125 13.398438 C 16.933594 13.332031 17.128906 13.160156 17.199219 12.90625 C 17.273438 12.632812 17.207031 12.378906 17.054688 12.207031 C 16.898438 12.03125 16.652344 11.9375 16.367188 11.976562 Z M 16.367188 11.976562 "/>
<path style=" stroke:none;fill-rule:evenodd;fill:rgb(90.196078%,90.196078%,90.196078%);fill-opacity:1;" d="M 16.367188 11.976562 C 16.652344 11.9375 16.898438 12.03125 17.054688 12.207031 C 17.207031 12.378906 17.273438 12.632812 17.199219 12.90625 C 17.128906 13.160156 16.933594 13.332031 16.703125 13.398438 C 16.476562 13.460938 16.210938 13.414062 16.007812 13.238281 C 15.769531 13.027344 15.707031 12.734375 15.78125 12.480469 C 15.851562 12.226562 16.0625 12.015625 16.367188 11.976562 Z M 16.367188 11.976562 "/>
<path style=" stroke:none;fill-rule:evenodd;fill:rgb(90.196078%,90.196078%,90.196078%);fill-opacity:1;" d="M 15.316406 10.546875 C 15.011719 10.390625 14.734375 10.441406 14.476562 10.699219 C 14.308594 10.867188 14.28125 10.933594 14.28125 11.183594 C 14.28125 11.519531 14.425781 11.75 14.714844 11.875 C 14.960938 11.980469 15.023438 11.976562 15.308594 11.835938 C 15.589844 11.703125 15.730469 11.449219 15.730469 11.199219 C 15.734375 10.945312 15.597656 10.6875 15.316406 10.546875 Z M 15.316406 10.546875 "/>
<path style=" stroke:none;fill-rule:evenodd;fill:rgb(90.196078%,90.196078%,90.196078%);fill-opacity:1;" d="M 15.316406 10.546875 C 15.597656 10.6875 15.734375 10.945312 15.730469 11.199219 C 15.730469 11.449219 15.589844 11.703125 15.308594 11.835938 C 15.023438 11.976562 14.960938 11.980469 14.714844 11.875 C 14.425781 11.75 14.28125 11.519531 14.28125 11.183594 C 14.28125 10.933594 14.308594 10.867188 14.476562 10.699219 C 14.734375 10.441406 15.011719 10.390625 15.316406 10.546875 Z M 15.316406 10.546875 "/>
<path style=" stroke:none;fill-rule:evenodd;fill:rgb(90.196078%,90.196078%,90.196078%);fill-opacity:1;" d="M 18.269531 10.519531 C 17.980469 10.394531 17.695312 10.460938 17.453125 10.699219 C 17.285156 10.867188 17.261719 10.933594 17.261719 11.183594 C 17.261719 11.519531 17.402344 11.75 17.691406 11.875 C 17.925781 11.976562 18.039062 11.976562 18.28125 11.871094 C 18.570312 11.753906 18.710938 11.472656 18.707031 11.195312 C 18.707031 10.917969 18.558594 10.636719 18.269531 10.519531 Z M 18.269531 10.519531 "/>
<path style=" stroke:none;fill-rule:evenodd;fill:rgb(90.196078%,90.196078%,90.196078%);fill-opacity:1;" d="M 18.269531 10.519531 C 18.558594 10.636719 18.707031 10.917969 18.707031 11.195312 C 18.710938 11.472656 18.570312 11.753906 18.28125 11.871094 C 18.039062 11.976562 17.925781 11.976562 17.691406 11.875 C 17.402344 11.75 17.261719 11.519531 17.261719 11.183594 C 17.261719 10.933594 17.285156 10.867188 17.453125 10.699219 C 17.695312 10.460938 17.980469 10.394531 18.269531 10.519531 Z M 18.269531 10.519531 "/>
<path style=" stroke:none;fill-rule:evenodd;fill:rgb(90.196078%,90.196078%,90.196078%);fill-opacity:1;" d="M 6.75 9.328125 L 6.75 10.789062 L 5.289062 10.789062 L 5.289062 12.308594 L 6.75 12.308594 L 6.75 13.824219 L 8.269531 13.824219 L 8.269531 12.308594 L 9.792969 12.308594 L 9.773438 11.5625 L 9.757812 10.816406 L 9.011719 10.800781 L 8.269531 10.785156 L 8.269531 9.328125 Z M 6.75 9.328125 "/>
<path style=" stroke:none;fill-rule:evenodd;fill:rgb(90.196078%,90.196078%,90.196078%);fill-opacity:1;" d="M 16.917969 9.113281 C 16.613281 8.90625 16.261719 8.929688 16 9.167969 C 15.8125 9.339844 15.734375 9.5625 15.753906 9.777344 C 15.773438 9.988281 15.894531 10.191406 16.109375 10.324219 C 16.3125 10.445312 16.535156 10.464844 16.726562 10.402344 C 16.921875 10.335938 17.082031 10.183594 17.167969 9.960938 C 17.296875 9.625 17.203125 9.304688 16.917969 9.113281 Z M 16.917969 9.113281 "/>
</g>
</svg>
