<?xml version="1.0" encoding="UTF-8"?>
<svg xmlns="http://www.w3.org/2000/svg" xmlns:xlink="http://www.w3.org/1999/xlink" width="24pt" height="24pt" viewBox="0 0 24 24" version="1.1">
<defs>
<radialGradient id="radial0" gradientUnits="userSpaceOnUse" cx="198.31" cy="109.06" fx="143.62" fy="122.04" r="63.508" gradientTransform="matrix(0.0550018,-0.00477241,0.00567483,0.0741919,4.456642,2.00609)">
<stop offset="0" style="stop-color:rgb(11.372549%,6.666667%,0%);stop-opacity:0.666667;"/>
<stop offset="0.527" style="stop-color:rgb(30.980392%,20.392157%,4.705882%);stop-opacity:0.301961;"/>
<stop offset="1" style="stop-color:rgb(23.921569%,18.823529%,0.392157%);stop-opacity:0;"/>
</radialGradient>
</defs>
<g id="surface1">
<path style=" stroke:none;fill-rule:evenodd;fill:rgb(56.078431%,43.921569%,30.980392%);fill-opacity:1;" d="M 5.605469 1.421875 L 18.394531 1.421875 C 20.703125 1.421875 22.578125 3.296875 22.578125 5.605469 L 22.578125 18.394531 C 22.578125 20.703125 20.703125 22.578125 18.394531 22.578125 L 5.605469 22.578125 C 3.296875 22.578125 1.421875 20.703125 1.421875 18.394531 L 1.421875 5.605469 C 1.421875 3.296875 3.296875 1.421875 5.605469 1.421875 Z M 5.605469 1.421875 "/>
<path style=" stroke:none;fill-rule:nonzero;fill:rgb(77.647059%,68.235294%,56.862745%);fill-opacity:1;" d="M 12.777344 7.925781 L 13.164062 11.601562 C 13.164062 11.601562 10.597656 11.289062 9.671875 11.96875 C 8.800781 12.613281 8.507812 14.910156 8.507812 14.910156 L 7.34375 14.910156 C 7.34375 14.910156 7.414062 12.292969 8.117188 11.234375 C 9.152344 9.679688 12.777344 7.925781 12.777344 7.925781 Z M 12.777344 7.925781 "/>
<path style=" stroke:none;fill-rule:nonzero;fill:rgb(81.960784%,74.117647%,64.705882%);fill-opacity:1;" d="M 19.359375 8.386719 C 18.671875 5.714844 16.511719 3.992188 14.539062 4.542969 C 12.566406 5.09375 11.523438 7.710938 12.210938 10.382812 C 12.898438 13.058594 15.054688 14.777344 17.027344 14.226562 C 19.003906 13.675781 20.046875 11.0625 19.359375 8.386719 Z M 19.359375 8.386719 "/>
<path style=" stroke:none;fill-rule:evenodd;fill:url(#radial0);" d="M 13.042969 5.335938 C 12.117188 6.265625 11.988281 8.882812 13.097656 11.601562 C 14.199219 14.28125 17.539062 14.023438 18.367188 13.074219 C 19.207031 12.164062 20.386719 9.882812 18.21875 6.621094 C 16.058594 3.4375 14 4.398438 13.042969 5.335938 Z M 13.042969 5.335938 "/>
<path style=" stroke:none;fill-rule:nonzero;fill:rgb(4.313725%,4.313725%,4.313725%);fill-opacity:1;" d="M 6.949219 13.746094 L 11.8125 13.746094 C 12.238281 13.746094 12.582031 13.878906 12.582031 14.039062 C 12.582031 14.199219 12.238281 14.328125 11.8125 14.328125 L 6.949219 14.328125 C 6.523438 14.328125 6.179688 14.199219 6.179688 14.039062 C 6.179688 13.878906 6.523438 13.746094 6.949219 13.746094 Z M 6.949219 13.746094 "/>
<path style=" stroke:none;fill-rule:nonzero;fill:rgb(77.647059%,68.235294%,56.862745%);fill-opacity:1;" d="M 5.191406 14.328125 L 13.566406 14.328125 C 13.988281 14.328125 14.328125 14.621094 14.328125 14.984375 L 14.328125 18.914062 C 14.328125 19.277344 13.988281 19.570312 13.566406 19.570312 L 5.191406 19.570312 C 4.769531 19.570312 4.429688 19.277344 4.429688 18.914062 L 4.429688 14.984375 C 4.429688 14.621094 4.769531 14.328125 5.191406 14.328125 Z M 5.191406 14.328125 "/>
<path style=" stroke:none;fill-rule:nonzero;fill:rgb(77.647059%,56.862745%,56.862745%);fill-opacity:1;" d="M 6.671875 14.910156 L 12.089844 14.910156 C 12.363281 14.910156 12.582031 15.140625 12.582031 15.421875 L 12.582031 18.476562 C 12.582031 18.757812 12.363281 18.984375 12.089844 18.984375 L 6.671875 18.984375 C 6.398438 18.984375 6.179688 18.757812 6.179688 18.476562 L 6.179688 15.421875 C 6.179688 15.140625 6.398438 14.910156 6.671875 14.910156 Z M 6.671875 14.910156 "/>
</g>
</svg>
