<?xml version="1.0" encoding="UTF-8"?>
<svg xmlns="http://www.w3.org/2000/svg" xmlns:xlink="http://www.w3.org/1999/xlink" width="24pt" height="24pt" viewBox="0 0 24 24" version="1.1">
<defs>
<clipPath id="clip1">
  <rect width="24" height="24"/>
</clipPath>
<g id="surface6" clip-path="url(#clip1)">
<path style=" stroke:none;fill-rule:nonzero;fill:rgb(33.333333%,80%,59.607843%);fill-opacity:1;" d="M 21.367188 16.617188 C 21.367188 19.101562 19.351562 21.117188 16.867188 21.117188 C 14.382812 21.117188 12.367188 19.101562 12.367188 16.617188 C 12.367188 14.128906 14.382812 12.117188 16.867188 12.117188 C 19.351562 12.117188 21.367188 14.128906 21.367188 16.617188 Z M 21.367188 16.617188 "/>
</g>
<clipPath id="clip2">
  <rect width="24" height="24"/>
</clipPath>
<g id="surface9" clip-path="url(#clip2)">
<path style=" stroke:none;fill-rule:nonzero;fill:rgb(100%,100%,100%);fill-opacity:1;" d="M 16.300781 14.363281 L 16.25 14.957031 C 16.058594 15.027344 15.882812 15.128906 15.726562 15.257812 L 15.183594 15.003906 L 14.617188 15.976562 L 15.109375 16.316406 C 15.09375 16.414062 15.082031 16.515625 15.082031 16.613281 C 15.082031 16.714844 15.09375 16.816406 15.109375 16.914062 L 14.617188 17.253906 L 15.183594 18.226562 L 15.726562 17.972656 C 15.882812 18.101562 16.058594 18.203125 16.25 18.273438 L 16.300781 18.867188 L 17.433594 18.867188 L 17.484375 18.273438 C 17.675781 18.203125 17.851562 18.101562 18.007812 17.972656 L 18.550781 18.226562 L 19.117188 17.253906 L 18.625 16.914062 C 18.640625 16.816406 18.648438 16.714844 18.652344 16.617188 C 18.652344 16.515625 18.640625 16.414062 18.625 16.316406 L 19.117188 15.976562 L 18.550781 15.003906 L 18.007812 15.257812 C 17.851562 15.128906 17.675781 15.027344 17.484375 14.960938 L 17.433594 14.367188 L 16.300781 14.367188 Z M 16.867188 15.972656 C 17.226562 15.972656 17.515625 16.261719 17.515625 16.613281 C 17.515625 16.96875 17.226562 17.257812 16.867188 17.257812 C 16.507812 17.257812 16.21875 16.96875 16.21875 16.613281 C 16.21875 16.261719 16.507812 15.972656 16.867188 15.972656 Z M 16.867188 15.972656 "/>
</g>
</defs>
<g id="surface1">
<path style=" stroke:none;fill-rule:evenodd;fill:rgb(76.862745%,76.862745%,76.862745%);fill-opacity:1;" d="M 5.605469 1.421875 L 18.394531 1.421875 C 20.703125 1.421875 22.578125 3.296875 22.578125 5.605469 L 22.578125 18.394531 C 22.578125 20.703125 20.703125 22.578125 18.394531 22.578125 L 5.605469 22.578125 C 3.296875 22.578125 1.421875 20.703125 1.421875 18.394531 L 1.421875 5.605469 C 1.421875 3.296875 3.296875 1.421875 5.605469 1.421875 Z M 5.605469 1.421875 "/>
<path style=" stroke:none;fill-rule:nonzero;fill:rgb(24.705882%,24.705882%,24.705882%);fill-opacity:1;" d="M 18.75 12 C 18.75 15.726562 15.726562 18.75 12 18.75 C 8.273438 18.75 5.25 15.726562 5.25 12 C 5.25 8.273438 8.273438 5.25 12 5.25 C 15.726562 5.25 18.75 8.273438 18.75 12 Z M 18.75 12 "/>
<path style=" stroke:none;fill-rule:nonzero;fill:rgb(72.941176%,9.019608%,30.588235%);fill-opacity:1;" d="M 17.25 12 C 17.25 9.101562 14.898438 6.75 12 6.75 C 9.101562 6.75 6.75 9.101562 6.75 12 C 6.75 14.898438 9.101562 17.25 12 17.25 C 14.898438 17.25 17.25 14.898438 17.25 12 Z M 17.25 12 "/>
<path style=" stroke:none;fill-rule:nonzero;fill:rgb(83.921569%,45.490196%,58.431373%);fill-opacity:1;" d="M 15 12 C 15 13.65625 13.65625 15 12 15 C 10.34375 15 9 13.65625 9 12 C 9 10.34375 10.34375 9 12 9 C 13.65625 9 15 10.34375 15 12 Z M 15 12 "/>
<use xlink:href="#surface6"/>
<use xlink:href="#surface9"/>
</g>
</svg>
