<?xml version="1.0" encoding="UTF-8"?>
<svg xmlns="http://www.w3.org/2000/svg" xmlns:xlink="http://www.w3.org/1999/xlink" width="24pt" height="24pt" viewBox="0 0 24 24" version="1.1">
<defs>
<clipPath id="clip1">
  <rect width="24" height="24"/>
</clipPath>
<g id="surface6" clip-path="url(#clip1)">
<path style=" stroke:none;fill-rule:nonzero;fill:rgb(100%,100%,100%);fill-opacity:1;" d="M 12.011719 6 C 13.328125 6.003906 14.660156 6.394531 15.703125 7.175781 C 16.433594 7.984375 15.039062 8.851562 14.410156 8.0625 C 12.519531 6.964844 9.851562 7.351562 8.429688 8.992188 C 7.671875 9.808594 7.246094 10.898438 7.25 11.988281 L 8.5 11.988281 C 7.832031 12.949219 7.167969 13.910156 6.5 14.871094 L 4.5 11.988281 L 5.75 11.988281 C 5.710938 9.382812 7.664062 6.902344 10.285156 6.226562 C 10.847656 6.078125 11.429688 5.996094 12.011719 6 Z M 17.5 9.121094 C 18.167969 10.082031 18.832031 11.042969 19.5 12 L 18.25 12 C 18.285156 14.640625 16.28125 17.148438 13.613281 17.789062 C 11.8125 18.273438 9.777344 17.917969 8.296875 16.816406 C 7.542969 15.992188 8.957031 15.132812 9.589844 15.929688 C 11.421875 16.996094 13.988281 16.65625 15.4375 15.132812 C 16.273438 14.304688 16.757812 13.15625 16.75 12 L 15.5 12 Z M 17.5 9.121094 "/>
</g>
<clipPath id="clip2">
  <rect width="24" height="24"/>
</clipPath>
<g id="surface9" clip-path="url(#clip2)">
<path style=" stroke:none;fill-rule:nonzero;fill:rgb(95.294118%,25.882353%,20.784314%);fill-opacity:1;" d="M 21.285156 16.53125 C 21.285156 19.015625 19.269531 21.03125 16.785156 21.03125 C 14.296875 21.03125 12.285156 19.015625 12.285156 16.53125 C 12.285156 14.046875 14.296875 12.03125 16.785156 12.03125 C 19.269531 12.03125 21.285156 14.046875 21.285156 16.53125 Z M 21.285156 16.53125 "/>
</g>
</defs>
<g id="surface1">
<path style=" stroke:none;fill-rule:evenodd;fill:rgb(50.588235%,83.529412%,27.843137%);fill-opacity:1;" d="M 5.605469 1.421875 L 18.394531 1.421875 C 20.703125 1.421875 22.578125 3.296875 22.578125 5.605469 L 22.578125 18.394531 C 22.578125 20.703125 20.703125 22.578125 18.394531 22.578125 L 5.605469 22.578125 C 3.296875 22.578125 1.421875 20.703125 1.421875 18.394531 L 1.421875 5.605469 C 1.421875 3.296875 3.296875 1.421875 5.605469 1.421875 Z M 5.605469 1.421875 "/>
<use xlink:href="#surface6"/>
<use xlink:href="#surface9"/>
<path style=" stroke:none;fill-rule:nonzero;fill:rgb(100%,100%,100%);fill-opacity:1;" d="M 14.28125 14.84375 L 17.796875 14.84375 C 18.046875 14.84375 18.046875 15.085938 18.046875 15.085938 L 18.046875 17.976562 C 18.046875 18.21875 17.796875 18.21875 17.796875 18.21875 L 14.28125 18.21875 C 14.28125 18.21875 14.03125 18.21875 14.03125 17.976562 L 14.03125 15.085938 C 14.03125 15.085938 14.03125 14.84375 14.28125 14.84375 Z M 14.28125 14.84375 "/>
<path style=" stroke:none;fill-rule:nonzero;fill:rgb(100%,100%,100%);fill-opacity:1;" d="M 19.65625 15.125 L 19.65625 17.65625 L 17.96875 16.335938 Z M 19.65625 15.125 "/>
</g>
</svg>
