<?xml version="1.0" encoding="UTF-8"?>
<svg xmlns="http://www.w3.org/2000/svg" xmlns:xlink="http://www.w3.org/1999/xlink" width="24pt" height="24pt" viewBox="0 0 24 24" version="1.1">
<g id="surface1">
<path style=" stroke:none;fill-rule:evenodd;fill:rgb(0%,49.411765%,100%);fill-opacity:1;" d="M 5.605469 1.421875 L 18.394531 1.421875 C 20.703125 1.421875 22.578125 3.296875 22.578125 5.605469 L 22.578125 18.394531 C 22.578125 20.703125 20.703125 22.578125 18.394531 22.578125 L 5.605469 22.578125 C 3.296875 22.578125 1.421875 20.703125 1.421875 18.394531 L 1.421875 5.605469 C 1.421875 3.296875 3.296875 1.421875 5.605469 1.421875 Z M 5.605469 1.421875 "/>
<path style=" stroke:none;fill-rule:nonzero;fill:rgb(94.901961%,94.901961%,94.901961%);fill-opacity:1;" d="M 11.835938 5.410156 C 11.144531 5.410156 10.453125 5.449219 9.804688 5.539062 C 8.839844 5.667969 7.949219 5.894531 7.136719 6.242188 C 6.210938 6.625 5.542969 7.167969 5.316406 7.753906 C 5.183594 8.097656 5.21875 8.097656 5.210938 8.152344 C 5.203125 8.207031 5.199219 8.238281 5.195312 8.269531 C 5.164062 8.523438 5.175781 8.773438 5.179688 9.015625 C 5.632812 11.453125 6.640625 14.285156 7.996094 15.980469 C 8.402344 16.472656 8.714844 16.796875 9.265625 17.226562 C 9.800781 17.648438 10.332031 17.972656 10.992188 18.292969 C 11.0625 18.328125 11.128906 18.355469 11.1875 18.382812 C 11.214844 18.398438 11.238281 18.410156 11.273438 18.421875 C 11.289062 18.429688 11.308594 18.4375 11.347656 18.453125 C 11.367188 18.460938 11.386719 18.472656 11.441406 18.488281 C 11.46875 18.5 11.503906 18.511719 11.570312 18.527344 C 11.605469 18.539062 11.714844 18.558594 11.714844 18.558594 C 11.714844 18.558594 12.050781 18.589844 12.050781 18.589844 C 12.054688 18.589844 12.394531 18.5625 12.472656 18.542969 C 12.546875 18.527344 12.589844 18.511719 12.625 18.5 C 12.695312 18.480469 12.730469 18.464844 12.757812 18.453125 C 12.8125 18.433594 12.839844 18.417969 12.867188 18.40625 C 12.917969 18.382812 12.957031 18.367188 13 18.34375 C 13.089844 18.300781 13.1875 18.253906 13.292969 18.199219 C 13.996094 17.894531 14.621094 17.351562 15.1875 16.929688 C 15.335938 16.796875 15.445312 16.683594 15.613281 16.515625 C 17.589844 14.492188 18.460938 11.855469 18.808594 9.015625 C 18.871094 8.527344 18.746094 8.007812 18.675781 7.753906 C 18.476562 7.136719 18.039062 6.878906 17.554688 6.589844 C 17.339844 6.46875 17.109375 6.351562 16.851562 6.242188 C 16.042969 5.894531 15.148438 5.667969 14.1875 5.539062 C 13.484375 5.441406 12.726562 5.402344 11.976562 5.410156 C 11.929688 5.410156 11.882812 5.410156 11.835938 5.410156 Z M 11.835938 5.410156 "/>
<path style=" stroke:none;fill-rule:nonzero;fill:rgb(0%,52.941176%,85.882353%);fill-opacity:1;" d="M 11.84375 7.292969 C 11.226562 7.292969 10.605469 7.332031 10.0625 7.402344 C 9.238281 7.515625 8.496094 7.707031 7.886719 7.972656 C 7.542969 8.117188 7.105469 8.367188 7.082031 8.421875 C 7.074219 8.441406 7.0625 8.605469 7.058594 8.789062 C 7.105469 9.167969 7.160156 9.535156 7.226562 9.894531 C 7.257812 10.117188 7.347656 10.566406 7.433594 10.917969 C 7.5625 11.410156 7.640625 11.578125 7.847656 11.78125 C 7.972656 11.90625 8.066406 11.972656 8.253906 12.0625 C 8.523438 12.199219 8.839844 12.285156 9.417969 12.386719 C 9.773438 12.449219 10.109375 12.527344 10.390625 12.621094 C 12.175781 13.191406 13.746094 14.484375 13.824219 15.4375 C 13.828125 15.503906 13.835938 15.566406 13.839844 15.578125 C 13.851562 15.613281 13.964844 15.511719 14.269531 15.199219 C 15.875 13.558594 16.621094 11.398438 16.941406 8.789062 C 16.9375 8.605469 16.925781 8.441406 16.917969 8.421875 C 16.894531 8.367188 16.457031 8.117188 16.113281 7.972656 C 15.503906 7.707031 14.761719 7.515625 13.9375 7.402344 C 13.347656 7.324219 12.664062 7.285156 12 7.292969 C 11.949219 7.292969 11.894531 7.292969 11.84375 7.292969 Z M 8.847656 12.996094 C 8.738281 12.992188 8.652344 13 8.605469 13.011719 C 8.566406 13.027344 8.507812 13.0625 8.472656 13.09375 C 8.386719 13.179688 8.402344 13.253906 8.546875 13.496094 C 8.8125 13.9375 9.136719 14.402344 9.453125 14.777344 C 9.644531 15.011719 10.222656 15.582031 10.429688 15.746094 C 10.898438 16.109375 11.21875 16.308594 11.816406 16.597656 C 11.941406 16.65625 12.050781 16.707031 12.054688 16.707031 C 12.082031 16.707031 12.75 16.363281 12.921875 16.265625 C 13.214844 16.089844 13.441406 15.933594 13.5 15.867188 C 13.53125 15.832031 13.574219 15.765625 13.597656 15.714844 C 13.679688 15.535156 13.644531 15.296875 13.5 15.054688 C 13.003906 14.214844 11.417969 13.375 9.785156 13.089844 C 9.445312 13.03125 9.085938 12.996094 8.847656 12.996094 Z M 8.847656 12.996094 "/>
<path style=" stroke:none;fill-rule:nonzero;fill:rgb(90.196078%,90.196078%,90.196078%);fill-opacity:1;" d="M 9.960938 7.300781 C 9.960938 8.910156 8.65625 10.210938 7.050781 10.210938 C 5.441406 10.210938 4.136719 8.910156 4.136719 7.300781 C 4.136719 5.691406 5.441406 4.390625 7.050781 4.390625 C 8.65625 4.390625 9.960938 5.691406 9.960938 7.300781 Z M 9.960938 7.300781 "/>
<path style=" stroke:none;fill-rule:nonzero;fill:rgb(30.980392%,30.980392%,30.980392%);fill-opacity:1;" d="M 8.796875 7.300781 C 8.796875 8.265625 8.011719 9.046875 7.050781 9.046875 C 6.085938 9.046875 5.300781 8.265625 5.300781 7.300781 C 5.300781 6.335938 6.085938 5.554688 7.050781 5.554688 C 8.011719 5.554688 8.796875 6.335938 8.796875 7.300781 Z M 8.796875 7.300781 "/>
</g>
</svg>
