<?xml version="1.0" encoding="UTF-8"?>
<svg xmlns="http://www.w3.org/2000/svg" xmlns:xlink="http://www.w3.org/1999/xlink" width="24pt" height="24pt" viewBox="0 0 24 24" version="1.1">
<g id="surface1">
<path style=" stroke:none;fill-rule:evenodd;fill:rgb(0%,49.411765%,100%);fill-opacity:1;" d="M 5.605469 1.421875 L 18.394531 1.421875 C 20.703125 1.421875 22.578125 3.296875 22.578125 5.605469 L 22.578125 18.394531 C 22.578125 20.703125 20.703125 22.578125 18.394531 22.578125 L 5.605469 22.578125 C 3.296875 22.578125 1.421875 20.703125 1.421875 18.394531 L 1.421875 5.605469 C 1.421875 3.296875 3.296875 1.421875 5.605469 1.421875 Z M 5.605469 1.421875 "/>
<path style=" stroke:none;fill-rule:nonzero;fill:rgb(100%,100%,100%);fill-opacity:1;" d="M 11.78125 20.382812 C 11.671875 20.304688 11.519531 20.199219 11.449219 20.148438 L 11.320312 20.058594 L 11.320312 18.949219 C 11.320312 18.339844 11.308594 17.832031 11.296875 17.824219 C 11.273438 17.808594 11.28125 17.808594 10.582031 18.226562 L 10.09375 18.519531 L 9.804688 18.335938 L 9.519531 18.148438 L 9.519531 17.332031 L 9.8125 17.164062 C 9.972656 17.074219 10.230469 16.925781 10.378906 16.839844 C 10.726562 16.640625 10.765625 16.617188 11.066406 16.445312 L 11.320312 16.300781 L 11.320312 15.570312 C 11.320312 15.058594 11.308594 14.835938 11.289062 14.835938 C 11.273438 14.835938 11.117188 14.925781 10.941406 15.03125 C 10.765625 15.140625 10.574219 15.257812 10.515625 15.292969 C 10.453125 15.328125 10.296875 15.421875 10.160156 15.503906 L 9.914062 15.652344 L 9.90625 14.910156 C 9.902344 14.503906 9.890625 14.160156 9.875 14.144531 C 9.859375 14.128906 9.816406 14.140625 9.761719 14.175781 C 9.710938 14.203125 9.398438 14.367188 9.0625 14.535156 L 8.457031 14.84375 L 8.441406 17 L 8.167969 17.199219 C 8.019531 17.308594 7.886719 17.398438 7.875 17.398438 C 7.867188 17.398438 7.75 17.316406 7.625 17.214844 L 7.390625 17.035156 L 7.390625 16.332031 C 7.390625 15.898438 7.382812 15.625 7.367188 15.625 C 7.351562 15.625 7.226562 15.691406 7.085938 15.773438 C 6.945312 15.851562 6.617188 16.039062 6.355469 16.1875 C 5.726562 16.539062 5.679688 16.5625 5.542969 16.644531 L 5.421875 16.710938 L 5.28125 16.664062 C 5.207031 16.636719 5.007812 16.558594 4.84375 16.492188 L 4.542969 16.371094 L 4.527344 15.496094 L 4.601562 15.441406 C 4.644531 15.410156 4.746094 15.351562 4.828125 15.304688 C 4.910156 15.261719 5.113281 15.148438 5.277344 15.054688 C 5.445312 14.960938 5.628906 14.855469 5.6875 14.820312 C 5.785156 14.765625 6.199219 14.53125 6.421875 14.402344 C 6.464844 14.375 6.507812 14.34375 6.511719 14.332031 C 6.515625 14.316406 6.285156 14.195312 5.996094 14.058594 C 5.707031 13.925781 5.421875 13.789062 5.363281 13.753906 L 5.25 13.695312 L 5.25 12.867188 L 5.617188 12.664062 C 5.828125 12.546875 6 12.46875 6.023438 12.476562 C 6.0625 12.492188 6.550781 12.777344 7.324219 13.242188 C 7.503906 13.347656 7.699219 13.464844 7.761719 13.496094 L 7.875 13.558594 L 8.492188 13.195312 C 8.832031 12.996094 9.109375 12.824219 9.109375 12.8125 C 9.109375 12.792969 8.613281 12.496094 8.082031 12.195312 C 7.941406 12.113281 7.828125 12.042969 7.828125 12.03125 C 7.828125 12.023438 7.917969 11.960938 8.027344 11.894531 C 8.132812 11.832031 8.328125 11.710938 8.457031 11.632812 C 8.582031 11.550781 8.765625 11.4375 8.863281 11.378906 C 8.960938 11.320312 9.042969 11.261719 9.046875 11.246094 C 9.054688 11.21875 8.960938 11.160156 8.34375 10.8125 C 8.125 10.691406 7.914062 10.570312 7.882812 10.546875 C 7.8125 10.5 7.78125 10.511719 7.390625 10.746094 C 7.324219 10.785156 7.152344 10.886719 7.011719 10.96875 C 6.867188 11.050781 6.582031 11.21875 6.375 11.34375 C 6.164062 11.464844 5.980469 11.5625 5.960938 11.5625 C 5.941406 11.5625 5.769531 11.488281 5.582031 11.398438 L 5.238281 11.234375 L 5.242188 10.835938 L 5.25 10.4375 L 5.378906 10.363281 C 5.449219 10.320312 5.558594 10.257812 5.625 10.222656 C 6.296875 9.84375 6.492188 9.726562 6.484375 9.703125 C 6.480469 9.691406 6.367188 9.621094 6.230469 9.546875 C 6.097656 9.476562 5.902344 9.371094 5.796875 9.316406 C 5.691406 9.257812 5.507812 9.160156 5.386719 9.09375 C 5.269531 9.03125 5.027344 8.898438 4.855469 8.804688 L 4.542969 8.632812 L 4.542969 7.738281 L 4.957031 7.546875 L 5.375 7.355469 L 5.519531 7.433594 C 5.597656 7.476562 5.9375 7.664062 6.273438 7.851562 C 7.09375 8.304688 7.324219 8.429688 7.363281 8.429688 C 7.382812 8.429688 7.390625 8.222656 7.390625 7.738281 L 7.390625 7.046875 L 7.46875 6.980469 C 7.507812 6.941406 7.625 6.84375 7.726562 6.765625 L 7.914062 6.625 L 8.011719 6.6875 C 8.070312 6.71875 8.222656 6.8125 8.355469 6.894531 L 8.597656 7.046875 L 8.558594 9.234375 L 8.664062 9.289062 C 8.820312 9.375 9.304688 9.652344 9.601562 9.824219 C 9.742188 9.910156 9.867188 9.972656 9.878906 9.964844 C 9.890625 9.957031 9.902344 9.613281 9.902344 9.199219 C 9.902344 8.496094 9.902344 8.449219 9.949219 8.46875 C 9.972656 8.476562 10.230469 8.613281 10.515625 8.769531 C 11.125 9.101562 11.25 9.164062 11.289062 9.164062 C 11.308594 9.164062 11.316406 8.921875 11.316406 8.429688 L 11.316406 7.699219 L 11.066406 7.554688 C 10.925781 7.476562 10.777344 7.390625 10.730469 7.363281 C 10.6875 7.339844 10.519531 7.242188 10.363281 7.152344 C 10.207031 7.058594 9.953125 6.914062 9.796875 6.828125 L 9.519531 6.671875 L 9.519531 5.851562 L 9.804688 5.667969 L 10.089844 5.480469 L 10.582031 5.773438 C 11.277344 6.195312 11.273438 6.191406 11.296875 6.175781 C 11.308594 6.167969 11.320312 5.664062 11.320312 5.050781 L 11.320312 3.941406 L 11.449219 3.851562 C 11.519531 3.804688 11.671875 3.695312 11.789062 3.617188 L 12 3.46875 L 12.339844 3.707031 L 12.679688 3.941406 L 12.679688 5.050781 C 12.679688 5.664062 12.691406 6.167969 12.707031 6.175781 C 12.71875 6.183594 12.796875 6.15625 12.875 6.113281 C 12.957031 6.070312 13.167969 5.960938 13.351562 5.867188 C 13.53125 5.773438 13.765625 5.648438 13.875 5.585938 L 14.070312 5.480469 L 14.820312 5.886719 L 14.828125 6.253906 L 14.835938 6.625 L 13.757812 7.164062 L 12.683594 7.703125 L 12.683594 8.433594 C 12.683594 8.953125 12.691406 9.164062 12.710938 9.164062 C 12.730469 9.164062 12.910156 9.070312 13.113281 8.957031 C 13.320312 8.839844 13.554688 8.710938 13.636719 8.664062 C 13.71875 8.621094 13.855469 8.542969 13.9375 8.492188 L 14.085938 8.40625 L 14.09375 9.160156 C 14.097656 9.574219 14.105469 9.929688 14.113281 9.949219 C 14.121094 9.976562 14.335938 9.878906 14.835938 9.625 L 15.542969 9.261719 L 15.542969 6.933594 L 15.800781 6.78125 L 16.054688 6.628906 L 16.609375 6.933594 L 16.609375 7.667969 C 16.609375 8.179688 16.617188 8.402344 16.636719 8.402344 C 16.664062 8.402344 17.320312 8.066406 17.386719 8.019531 C 17.398438 8.007812 17.527344 7.9375 17.671875 7.863281 C 17.8125 7.789062 18.039062 7.667969 18.175781 7.597656 C 18.3125 7.527344 18.480469 7.433594 18.550781 7.394531 L 18.683594 7.324219 L 18.824219 7.402344 C 18.902344 7.445312 19.082031 7.546875 19.21875 7.628906 L 19.472656 7.777344 L 19.457031 8.597656 L 19.265625 8.707031 C 19.160156 8.769531 19.039062 8.839844 18.992188 8.863281 C 18.949219 8.890625 18.777344 8.988281 18.613281 9.082031 C 18.445312 9.175781 18.25 9.289062 18.175781 9.332031 C 18.101562 9.375 17.925781 9.472656 17.789062 9.550781 C 17.648438 9.628906 17.535156 9.699219 17.535156 9.707031 C 17.535156 9.714844 17.691406 9.808594 17.878906 9.914062 C 18.066406 10.019531 18.304688 10.152344 18.402344 10.207031 C 18.503906 10.265625 18.625 10.332031 18.671875 10.351562 L 18.761719 10.390625 L 18.761719 11.207031 L 18.484375 11.347656 C 18.332031 11.425781 18.183594 11.503906 18.15625 11.519531 C 18.117188 11.542969 18.089844 11.539062 18.03125 11.503906 C 17.992188 11.480469 17.851562 11.398438 17.726562 11.324219 C 17.597656 11.25 17.308594 11.082031 17.085938 10.953125 C 16.1875 10.425781 16.210938 10.4375 16.140625 10.476562 C 16.078125 10.507812 15.59375 10.820312 15.144531 11.121094 C 14.878906 11.296875 14.851562 11.246094 15.382812 11.578125 C 16.039062 11.992188 16.148438 12.0625 16.125 12.085938 C 16.113281 12.09375 15.894531 12.222656 15.640625 12.371094 C 14.960938 12.757812 14.855469 12.824219 14.882812 12.847656 C 14.894531 12.859375 15.195312 13.015625 15.550781 13.199219 L 16.199219 13.53125 L 16.519531 13.355469 C 16.695312 13.257812 17.019531 13.082031 17.234375 12.964844 C 17.453125 12.84375 17.738281 12.6875 17.867188 12.617188 L 18.105469 12.488281 L 18.433594 12.699219 L 18.761719 12.90625 L 18.761719 13.660156 L 18.644531 13.726562 C 18.582031 13.761719 18.324219 13.90625 18.074219 14.046875 C 17.824219 14.1875 17.621094 14.316406 17.625 14.332031 C 17.632812 14.359375 18.144531 14.675781 18.832031 15.085938 C 19.011719 15.195312 19.226562 15.328125 19.3125 15.386719 L 19.472656 15.492188 L 19.472656 16.328125 L 19.257812 16.417969 C 19.144531 16.46875 18.949219 16.550781 18.832031 16.601562 C 18.710938 16.652344 18.59375 16.695312 18.570312 16.699219 C 18.539062 16.699219 17.03125 15.886719 16.734375 15.707031 C 16.6875 15.679688 16.640625 15.652344 16.628906 15.652344 C 16.617188 15.652344 16.609375 15.972656 16.609375 16.359375 L 16.609375 17.0625 L 16.359375 17.246094 C 16.074219 17.460938 16.117188 17.460938 15.769531 17.222656 L 15.546875 17.070312 L 15.53125 14.90625 L 15.460938 14.871094 C 15.425781 14.851562 15.203125 14.734375 14.972656 14.609375 C 14.21875 14.199219 14.132812 14.15625 14.117188 14.175781 C 14.105469 14.183594 14.097656 14.507812 14.097656 14.898438 L 14.097656 15.605469 L 14.035156 15.5625 C 13.996094 15.539062 13.902344 15.484375 13.824219 15.441406 C 13.742188 15.398438 13.628906 15.332031 13.566406 15.300781 C 13.089844 15.027344 12.738281 14.835938 12.710938 14.835938 C 12.691406 14.835938 12.683594 15.050781 12.683594 15.570312 L 12.683594 16.300781 L 12.933594 16.445312 C 13.230469 16.617188 13.269531 16.636719 13.617188 16.835938 C 13.761719 16.921875 14 17.058594 14.148438 17.140625 C 14.292969 17.226562 14.429688 17.308594 14.449219 17.324219 C 14.472656 17.34375 14.480469 17.460938 14.476562 17.789062 L 14.46875 18.222656 L 13.90625 18.519531 L 13.316406 18.167969 C 12.992188 17.972656 12.714844 17.816406 12.703125 17.824219 C 12.691406 17.832031 12.679688 18.335938 12.679688 18.949219 L 12.679688 20.058594 L 12.550781 20.148438 C 12.089844 20.472656 12 20.535156 11.992188 20.53125 C 11.988281 20.53125 11.894531 20.464844 11.78125 20.382812 Z M 12.84375 12.804688 C 12.914062 12.667969 13.035156 12.441406 13.113281 12.300781 L 13.253906 12.039062 L 13.023438 11.605469 C 12.894531 11.363281 12.765625 11.117188 12.730469 11.054688 L 12.671875 10.9375 L 12.082031 10.929688 C 11.757812 10.925781 11.472656 10.925781 11.445312 10.933594 C 11.421875 10.9375 11.371094 10.992188 11.335938 11.054688 C 11.300781 11.117188 11.164062 11.355469 11.035156 11.582031 C 10.90625 11.808594 10.800781 12.007812 10.800781 12.027344 C 10.800781 12.058594 11.105469 12.554688 11.371094 12.960938 L 11.4375 13.066406 L 12.078125 13.058594 L 12.714844 13.050781 Z M 12.84375 12.804688 "/>
</g>
</svg>
