<?xml version="1.0" encoding="UTF-8"?>
<svg xmlns="http://www.w3.org/2000/svg" xmlns:xlink="http://www.w3.org/1999/xlink" width="24pt" height="24pt" viewBox="0 0 24 24" version="1.1">
<g id="surface1">
<path style=" stroke:none;fill-rule:evenodd;fill:rgb(45.882353%,66.666667%,85.882353%);fill-opacity:1;" d="M 5.605469 1.421875 L 18.394531 1.421875 C 20.703125 1.421875 22.578125 3.296875 22.578125 5.605469 L 22.578125 18.394531 C 22.578125 20.703125 20.703125 22.578125 18.394531 22.578125 L 5.605469 22.578125 C 3.296875 22.578125 1.421875 20.703125 1.421875 18.394531 L 1.421875 5.605469 C 1.421875 3.296875 3.296875 1.421875 5.605469 1.421875 Z M 5.605469 1.421875 "/>
<path style=" stroke:none;fill-rule:nonzero;fill:rgb(100%,100%,100%);fill-opacity:1;" d="M 9.375 12.75 L 11.589844 12.75 C 12.34375 13.019531 14 15.503906 14.902344 17.25 L 16.101562 17.25 C 16.875 17.25 17.625 17.25 17.625 16.5 C 17.625 15.75 16.875 15.75 16.101562 15.75 L 15.867188 15.75 C 15.109375 14.542969 14.441406 13.414062 13.597656 12.675781 C 14.910156 11.957031 15.375 11.261719 15.375 10.125 C 15.375 8.234375 13.921875 6.75 11.582031 6.75 L 7.5625 6.75 C 7.125 6.75 6.375 6.75 6.375 7.5 C 6.375 8.25 7.125 8.25 7.875 8.25 L 7.875 15.75 L 7.5625 15.75 C 7.125 15.75 6.375 15.75 6.375 16.5 C 6.375 17.25 7.125 17.25 7.5625 17.25 L 10.265625 17.25 C 10.875 17.25 11.625 17.25 11.625 16.5 C 11.625 15.75 10.875 15.75 10.265625 15.75 L 9.375 15.75 Z M 9.375 11.25 L 9.375 8.25 L 11.652344 8.25 C 13.125 8.25 13.875 9 13.875 9.902344 C 13.875 11.25 12.714844 11.25 11.003906 11.25 Z M 9.375 11.25 "/>
</g>
</svg>
