<?xml version="1.0" encoding="UTF-8"?>
<svg xmlns="http://www.w3.org/2000/svg" xmlns:xlink="http://www.w3.org/1999/xlink" width="24pt" height="24pt" viewBox="0 0 24 24" version="1.1">
<g id="surface1">
<path style=" stroke:none;fill-rule:evenodd;fill:rgb(22.745098%,40.784314%,71.372549%);fill-opacity:1;" d="M 5.605469 1.421875 L 18.394531 1.421875 C 20.703125 1.421875 22.578125 3.296875 22.578125 5.605469 L 22.578125 18.394531 C 22.578125 20.703125 20.703125 22.578125 18.394531 22.578125 L 5.605469 22.578125 C 3.296875 22.578125 1.421875 20.703125 1.421875 18.394531 L 1.421875 5.605469 C 1.421875 3.296875 3.296875 1.421875 5.605469 1.421875 Z M 5.605469 1.421875 "/>
<path style=" stroke:none;fill-rule:evenodd;fill:rgb(34.901961%,35.294118%,99.215686%);fill-opacity:1;" d="M 18.316406 13.507812 C 18.503906 13.570312 18.871094 13.789062 19.039062 13.828125 C 20.921875 14.28125 21.898438 14.34375 22.574219 14.3125 L 22.574219 13.027344 C 22.363281 12.960938 22.203125 12.871094 21.90625 12.847656 C 21.378906 12.804688 20.710938 12.847656 19.890625 13.042969 C 19.402344 13.160156 18.800781 13.320312 18.316406 13.507812 Z M 18.316406 13.507812 "/>
<path style=" stroke:none;fill-rule:evenodd;fill:rgb(28.235294%,50.980392%,89.019608%);fill-opacity:1;" d="M 1.421875 13.566406 L 1.421875 18.394531 C 1.421875 20.710938 3.289062 22.578125 5.605469 22.578125 L 18.394531 22.578125 C 20.710938 22.578125 22.574219 20.710938 22.574219 18.394531 L 22.574219 14.3125 C 21.898438 14.34375 20.921875 14.28125 19.039062 13.828125 C 18.871094 13.789062 18.503906 13.570312 18.316406 13.507812 C 17.234375 13.921875 16.277344 14.46875 15.246094 14.921875 C 14.5 15.246094 13.769531 15.527344 13.070312 15.675781 C 12.371094 15.824219 11.699219 15.839844 11.0625 15.644531 C 10.167969 15.371094 9.058594 14.734375 7.988281 14.164062 C 7.589844 14.214844 7.203125 14.300781 6.796875 14.308594 C 6.050781 14.328125 5.285156 14.261719 4.515625 14.078125 C 2.878906 13.6875 2.023438 13.558594 1.421875 13.566406 Z M 1.421875 13.566406 "/>
<path style=" stroke:none;fill-rule:evenodd;fill:rgb(34.901961%,35.294118%,99.215686%);fill-opacity:1;" d="M 1.421875 13.566406 C 2.023438 13.558594 2.878906 13.6875 4.515625 14.078125 C 5.285156 14.261719 6.050781 14.328125 6.796875 14.308594 C 7.203125 14.300781 7.589844 14.214844 7.988281 14.164062 C 7.542969 13.921875 7.140625 13.78125 6.703125 13.542969 C 5.960938 13.132812 5.253906 12.75 4.640625 12.460938 C 4.023438 12.171875 3.5 11.980469 3.128906 11.960938 C 2.679688 11.9375 2.269531 12.027344 1.910156 12.167969 C 1.71875 12.246094 1.585938 12.34375 1.421875 12.4375 Z M 1.421875 13.566406 "/>
<path style=" stroke:none;fill-rule:evenodd;fill:rgb(61.568627%,51.372549%,75.294118%);fill-opacity:1;" d="M 22.574219 11.226562 C 22.226562 11.238281 21.890625 11.222656 21.484375 11.359375 C 20.917969 11.546875 19.71875 11.867188 18.3125 12.132812 C 16.910156 12.398438 15.304688 12.605469 13.925781 12.570312 C 13.042969 12.511719 12.207031 12.292969 11.398438 12 C 10.589844 11.710938 9.804688 11.339844 9.023438 10.980469 C 8.246094 10.621094 7.46875 10.269531 6.671875 10.007812 C 5.875 9.746094 5.058594 9.578125 4.199219 9.582031 C 3.710938 9.585938 3.207031 9.730469 2.6875 9.9375 C 2.28125 10.097656 1.851562 10.308594 1.421875 10.507812 L 1.421875 12.4375 C 1.585938 12.34375 1.71875 12.246094 1.910156 12.167969 C 2.269531 12.027344 2.679688 11.9375 3.128906 11.960938 C 3.5 11.980469 4.023438 12.171875 4.640625 12.460938 C 5.253906 12.75 5.960938 13.132812 6.703125 13.542969 C 8.183594 14.355469 9.796875 15.253906 11.0625 15.644531 C 11.699219 15.839844 12.371094 15.824219 13.070312 15.675781 C 13.769531 15.527344 14.5 15.246094 15.246094 14.921875 C 16.742188 14.265625 18.3125 13.421875 19.890625 13.042969 C 20.710938 12.847656 21.378906 12.804688 21.90625 12.847656 C 22.203125 12.871094 22.363281 12.960938 22.574219 13.027344 Z M 22.574219 11.226562 "/>
<path style=" stroke:none;fill-rule:evenodd;fill:rgb(46.666667%,40.392157%,75.294118%);fill-opacity:1;" d="M 22.574219 10.40625 C 21.78125 10.621094 20.753906 10.910156 19.5 11.199219 C 18.074219 11.523438 16.511719 11.8125 15.15625 11.875 C 13.949219 11.8125 12.816406 11.570312 11.710938 11.285156 C 10.609375 11 9.527344 10.679688 8.417969 10.460938 C 8.175781 10.414062 7.90625 10.453125 7.660156 10.417969 C 8.117188 10.601562 8.574219 10.773438 9.023438 10.980469 C 9.804688 11.339844 10.589844 11.710938 11.398438 12 C 12.207031 12.292969 13.042969 12.511719 13.925781 12.570312 C 15.304688 12.605469 16.910156 12.398438 18.3125 12.132812 C 19.71875 11.867188 20.917969 11.546875 21.484375 11.359375 C 21.890625 11.222656 22.226562 11.238281 22.574219 11.226562 Z M 22.574219 10.40625 "/>
<path style=" stroke:none;fill-rule:evenodd;fill:rgb(22.745098%,40.784314%,71.372549%);fill-opacity:1;" d="M 5.605469 1.421875 C 3.289062 1.421875 1.421875 3.289062 1.421875 5.605469 L 1.421875 10.507812 C 1.851562 10.308594 2.28125 10.097656 2.6875 9.9375 C 3.207031 9.730469 3.710938 9.585938 4.199219 9.582031 C 5.058594 9.578125 5.875 9.746094 6.671875 10.007812 C 7.007812 10.117188 7.332031 10.28125 7.660156 10.417969 C 7.90625 10.453125 8.175781 10.414062 8.417969 10.460938 C 9.527344 10.679688 10.609375 11 11.714844 11.285156 C 12.816406 11.570312 13.949219 11.8125 15.15625 11.875 C 16.511719 11.8125 18.078125 11.523438 19.5 11.199219 C 20.753906 10.910156 21.78125 10.621094 22.578125 10.40625 L 22.578125 5.605469 C 22.578125 3.289062 20.710938 1.421875 18.394531 1.421875 Z M 5.605469 1.421875 "/>
<path style=" stroke:none;fill-rule:nonzero;fill:rgb(31.372549%,74.509804%,93.333333%);fill-opacity:1;" d="M 16.367188 4.855469 C 15.441406 4.808594 14.53125 5.339844 13.992188 6.082031 C 13.347656 6.980469 13.007812 8.226562 12.726562 9.253906 C 12.726562 9.253906 12.726562 9.253906 12.726562 9.257812 C 12.339844 10.699219 11.679688 12.0625 10.855469 13.308594 C 9.140625 15.878906 6.910156 18.113281 4.015625 19.246094 C 3.996094 19.25 3.980469 19.261719 3.964844 19.277344 L 3.847656 19.382812 C 3.738281 19.488281 3.824219 19.671875 3.972656 19.65625 C 6.003906 19.417969 7.3125 17.90625 8.808594 16.703125 C 10.015625 16.585938 11.398438 16.511719 12.5625 16.199219 C 12.566406 16.199219 12.566406 16.199219 12.566406 16.199219 C 14.203125 15.738281 15.976562 15.011719 17.09375 13.632812 C 18.207031 12.269531 18.394531 10.367188 17.988281 8.722656 C 17.847656 8.0625 17.28125 7.390625 16.5625 7.246094 C 16.542969 7.179688 16.527344 7.113281 16.507812 7.042969 C 16.664062 6.875 17.164062 6.691406 17.320312 6.464844 C 17.492188 6.21875 17.613281 5.722656 17.523438 5.382812 C 17.519531 5.363281 17.511719 5.347656 17.5 5.332031 C 17.3125 5.058594 16.679688 4.855469 16.367188 4.855469 Z M 16.367188 4.855469 "/>
</g>
</svg>
