<?xml version="1.0" encoding="UTF-8"?>
<svg xmlns="http://www.w3.org/2000/svg" xmlns:xlink="http://www.w3.org/1999/xlink" width="24pt" height="24pt" viewBox="0 0 24 24" version="1.1">
<g id="surface1">
<path style=" stroke:none;fill-rule:evenodd;fill:rgb(43.921569%,29.411765%,56.862745%);fill-opacity:1;" d="M 5.605469 1.421875 L 18.394531 1.421875 C 20.703125 1.421875 22.578125 3.296875 22.578125 5.605469 L 22.578125 18.394531 C 22.578125 20.703125 20.703125 22.578125 18.394531 22.578125 L 5.605469 22.578125 C 3.296875 22.578125 1.421875 20.703125 1.421875 18.394531 L 1.421875 5.605469 C 1.421875 3.296875 3.296875 1.421875 5.605469 1.421875 Z M 5.605469 1.421875 "/>
<path style=" stroke:none;fill-rule:nonzero;fill:rgb(29.803922%,54.117647%,29.803922%);fill-opacity:1;" d="M 5.25 12 L 7.5 12 L 7.5 14.25 L 5.25 14.25 Z M 5.25 12 "/>
<path style=" stroke:none;fill-rule:nonzero;fill:rgb(89.411765%,36.862745%,36.862745%);fill-opacity:1;" d="M 7.5 12 L 9.75 12 L 9.75 14.25 L 7.5 14.25 Z M 7.5 12 "/>
<path style=" stroke:none;fill-rule:nonzero;fill:rgb(43.921569%,47.45098%,100%);fill-opacity:1;" d="M 9.75 12 L 12 12 L 12 14.25 L 9.75 14.25 Z M 9.75 12 "/>
<path style=" stroke:none;fill-rule:nonzero;fill:rgb(80.392157%,80.392157%,80.392157%);fill-opacity:1;" d="M 12 12 L 14.25 12 L 14.25 14.25 L 12 14.25 Z M 12 12 "/>
<path style=" stroke:none;fill-rule:nonzero;fill:rgb(100%,74.117647%,10.196078%);fill-opacity:1;" d="M 14.25 12 L 16.5 12 L 16.5 14.25 L 14.25 14.25 Z M 14.25 12 "/>
<path style=" stroke:none;fill-rule:nonzero;fill:rgb(95.294118%,95.294118%,95.294118%);fill-opacity:1;" d="M 16.5 12 L 18.75 12 L 18.75 14.25 L 16.5 14.25 Z M 16.5 12 "/>
<path style=" stroke:none;fill-rule:nonzero;fill:rgb(43.921569%,47.45098%,100%);fill-opacity:1;" d="M 5.25 9.75 L 7.5 9.75 L 7.5 12 L 5.25 12 Z M 5.25 9.75 "/>
<path style=" stroke:none;fill-rule:nonzero;fill:rgb(95.294118%,95.294118%,95.294118%);fill-opacity:1;" d="M 7.5 9.75 L 9.75 9.75 L 9.75 12 L 7.5 12 Z M 7.5 9.75 "/>
<path style=" stroke:none;fill-rule:nonzero;fill:rgb(29.803922%,54.117647%,29.803922%);fill-opacity:1;" d="M 9.75 9.75 L 12 9.75 L 12 12 L 9.75 12 Z M 9.75 9.75 "/>
<path style=" stroke:none;fill-rule:nonzero;fill:rgb(95.294118%,95.294118%,95.294118%);fill-opacity:1;" d="M 12 9.75 L 14.25 9.75 L 14.25 12 L 12 12 Z M 12 9.75 "/>
<path style=" stroke:none;fill-rule:nonzero;fill:rgb(80.392157%,80.392157%,80.392157%);fill-opacity:1;" d="M 14.25 9.75 L 16.5 9.75 L 16.5 12 L 14.25 12 Z M 14.25 9.75 "/>
<path style=" stroke:none;fill-rule:nonzero;fill:rgb(43.921569%,47.45098%,100%);fill-opacity:1;" d="M 16.5 9.75 L 18.75 9.75 L 18.75 12 L 16.5 12 Z M 16.5 9.75 "/>
<path style=" stroke:none;fill-rule:nonzero;fill:rgb(95.294118%,95.294118%,95.294118%);fill-opacity:1;" d="M 5.25 7.5 L 7.5 7.5 L 7.5 9.75 L 5.25 9.75 Z M 5.25 7.5 "/>
<path style=" stroke:none;fill-rule:nonzero;fill:rgb(100%,93.333333%,20.784314%);fill-opacity:1;" d="M 7.5 7.5 L 9.75 7.5 L 9.75 9.75 L 7.5 9.75 Z M 7.5 7.5 "/>
<path style=" stroke:none;fill-rule:nonzero;fill:rgb(100%,74.117647%,10.196078%);fill-opacity:1;" d="M 9.75 7.5 L 12 7.5 L 12 9.75 L 9.75 9.75 Z M 9.75 7.5 "/>
<path style=" stroke:none;fill-rule:nonzero;fill:rgb(85.882353%,37.254902%,90.980392%);fill-opacity:1;" d="M 12 7.5 L 14.25 7.5 L 14.25 9.75 L 12 9.75 Z M 12 7.5 "/>
<path style=" stroke:none;fill-rule:nonzero;fill:rgb(100%,93.333333%,20.784314%);fill-opacity:1;" d="M 14.25 7.5 L 16.5 7.5 L 16.5 9.75 L 14.25 9.75 Z M 14.25 7.5 "/>
<path style=" stroke:none;fill-rule:nonzero;fill:rgb(100%,74.117647%,10.196078%);fill-opacity:1;" d="M 7.5 14.25 L 9.75 14.25 L 9.75 16.5 L 7.5 16.5 Z M 7.5 14.25 "/>
<path style=" stroke:none;fill-rule:nonzero;fill:rgb(85.882353%,37.254902%,90.980392%);fill-opacity:1;" d="M 9.75 14.25 L 12 14.25 L 12 16.5 L 9.75 16.5 Z M 9.75 14.25 "/>
<path style=" stroke:none;fill-rule:nonzero;fill:rgb(89.411765%,36.862745%,36.862745%);fill-opacity:1;" d="M 12 14.25 L 14.25 14.25 L 14.25 16.5 L 12 16.5 Z M 12 14.25 "/>
<path style=" stroke:none;fill-rule:nonzero;fill:rgb(100%,93.333333%,20.784314%);fill-opacity:1;" d="M 14.25 14.25 L 16.5 14.25 L 16.5 16.5 L 14.25 16.5 Z M 14.25 14.25 "/>
<path style=" stroke:none;fill-rule:nonzero;fill:rgb(89.411765%,36.862745%,36.862745%);fill-opacity:1;" d="M 16.5 14.25 L 18.75 14.25 L 18.75 16.5 L 16.5 16.5 Z M 16.5 14.25 "/>
<path style=" stroke:none;fill-rule:nonzero;fill:rgb(43.921569%,47.45098%,100%);fill-opacity:1;" d="M 9.75 16.5 L 12 16.5 L 12 18.75 L 9.75 18.75 Z M 9.75 16.5 "/>
<path style=" stroke:none;fill-rule:nonzero;fill:rgb(95.294118%,95.294118%,95.294118%);fill-opacity:1;" d="M 12 16.5 L 14.25 16.5 L 14.25 18.75 L 12 18.75 Z M 12 16.5 "/>
<path style=" stroke:none;fill-rule:nonzero;fill:rgb(29.803922%,54.117647%,29.803922%);fill-opacity:1;" d="M 14.25 16.5 L 16.5 16.5 L 16.5 18.75 L 14.25 18.75 Z M 14.25 16.5 "/>
<path style=" stroke:none;fill-rule:nonzero;fill:rgb(85.882353%,37.254902%,90.980392%);fill-opacity:1;" d="M 16.5 16.5 L 18.75 16.5 L 18.75 18.75 L 16.5 18.75 Z M 16.5 16.5 "/>
<path style=" stroke:none;fill-rule:nonzero;fill:rgb(100%,74.117647%,10.196078%);fill-opacity:1;" d="M 5.25 5.25 L 7.5 5.25 L 7.5 7.5 L 5.25 7.5 Z M 5.25 5.25 "/>
<path style=" stroke:none;fill-rule:nonzero;fill:rgb(89.411765%,36.862745%,36.862745%);fill-opacity:1;" d="M 7.5 5.25 L 9.75 5.25 L 9.75 7.5 L 7.5 7.5 Z M 7.5 5.25 "/>
<path style=" stroke:none;fill-rule:nonzero;fill:rgb(100%,93.333333%,20.784314%);fill-opacity:1;" d="M 9.75 5.25 L 12 5.25 L 12 7.5 L 9.75 7.5 Z M 9.75 5.25 "/>
<path style=" stroke:none;fill-rule:nonzero;fill:rgb(43.921569%,47.45098%,100%);fill-opacity:1;" d="M 12 5.25 L 14.25 5.25 L 14.25 7.5 L 12 7.5 Z M 12 5.25 "/>
</g>
</svg>
