<?xml version="1.0" encoding="UTF-8"?>
<svg xmlns="http://www.w3.org/2000/svg" xmlns:xlink="http://www.w3.org/1999/xlink" width="24pt" height="24pt" viewBox="0 0 24 24" version="1.1">
<g id="surface1">
<path style=" stroke:none;fill-rule:evenodd;fill:rgb(0.784314%,58.039216%,60%);fill-opacity:1;" d="M 5.605469 1.421875 L 18.394531 1.421875 C 20.703125 1.421875 22.578125 3.296875 22.578125 5.605469 L 22.578125 18.394531 C 22.578125 20.703125 20.703125 22.578125 18.394531 22.578125 L 5.605469 22.578125 C 3.296875 22.578125 1.421875 20.703125 1.421875 18.394531 L 1.421875 5.605469 C 1.421875 3.296875 3.296875 1.421875 5.605469 1.421875 Z M 5.605469 1.421875 "/>
<path style=" stroke:none;fill-rule:nonzero;fill:rgb(100%,100%,100%);fill-opacity:1;" d="M 9.222656 4.941406 L 7.277344 6.066406 L 8.714844 8.558594 C 8.113281 9.203125 7.714844 10.007812 7.566406 10.875 L 4.5 10.875 L 4.5 13.125 L 7.761719 13.125 C 8.011719 13.832031 8.433594 14.460938 8.988281 14.964844 L 7.277344 17.933594 L 9.222656 19.058594 L 10.988281 16.003906 C 11.320312 16.082031 11.660156 16.125 12 16.125 C 12.339844 16.121094 12.679688 16.082031 13.011719 16.003906 L 14.777344 19.058594 L 16.722656 17.933594 L 15.011719 14.964844 C 15.566406 14.460938 15.988281 13.832031 16.238281 13.125 L 19.5 13.125 L 19.5 10.875 L 16.433594 10.875 C 16.289062 10.007812 15.890625 9.199219 15.285156 8.554688 L 16.722656 6.066406 L 14.777344 4.941406 L 13.386719 7.347656 C 12.9375 7.199219 12.472656 7.125 12 7.125 C 11.527344 7.125 11.0625 7.203125 10.613281 7.347656 Z M 12 8.625 C 13.65625 8.625 15 9.96875 15 11.625 C 15 13.28125 13.65625 14.625 12 14.625 C 10.34375 14.625 9 13.28125 9 11.625 C 9 9.96875 10.34375 8.625 12 8.625 Z M 12 8.625 "/>
</g>
</svg>
