<?xml version="1.0" encoding="UTF-8"?>
<svg xmlns="http://www.w3.org/2000/svg" xmlns:xlink="http://www.w3.org/1999/xlink" width="24pt" height="24pt" viewBox="0 0 24 24" version="1.1">
<g id="surface1">
<path style=" stroke:none;fill-rule:evenodd;fill:rgb(57.254902%,57.254902%,57.254902%);fill-opacity:1;" d="M 5.605469 1.421875 L 18.394531 1.421875 C 20.703125 1.421875 22.578125 3.296875 22.578125 5.605469 L 22.578125 18.394531 C 22.578125 20.703125 20.703125 22.578125 18.394531 22.578125 L 5.605469 22.578125 C 3.296875 22.578125 1.421875 20.703125 1.421875 18.394531 L 1.421875 5.605469 C 1.421875 3.296875 3.296875 1.421875 5.605469 1.421875 Z M 5.605469 1.421875 "/>
<path style=" stroke:none;fill-rule:nonzero;fill:rgb(30.980392%,30.980392%,30.980392%);fill-opacity:1;" d="M 19.992188 14.445312 L 19.992188 9.554688 C 19.992188 7.75 18.5625 6.292969 16.796875 6.292969 L 7.203125 6.292969 C 5.4375 6.292969 4.007812 7.75 4.007812 9.554688 L 4.007812 14.445312 C 4.007812 16.25 5.4375 17.707031 7.203125 17.707031 L 16.796875 17.707031 C 18.5625 17.707031 19.992188 16.25 19.992188 14.445312 Z M 19.992188 14.445312 "/>
<path style=" stroke:none;fill-rule:nonzero;fill:rgb(28.235294%,66.666667%,83.529412%);fill-opacity:1;" d="M 17.707031 13.46875 L 17.707031 10.53125 C 17.707031 9.449219 16.691406 8.574219 15.425781 8.574219 L 8.574219 8.574219 C 7.308594 8.574219 6.292969 9.449219 6.292969 10.53125 L 6.292969 13.46875 C 6.292969 14.550781 7.308594 15.425781 8.574219 15.425781 L 10 15.425781 L 12 14.285156 L 14 15.425781 L 15.425781 15.425781 C 16.691406 15.425781 17.707031 14.550781 17.707031 13.46875 Z M 17.707031 13.46875 "/>
<path style=" stroke:none;fill-rule:nonzero;fill:rgb(57.254902%,57.254902%,57.254902%);fill-opacity:1;" d="M 5.148438 10.644531 L 5.148438 12.785156 C 5.148438 12.980469 4.957031 13.140625 4.722656 13.140625 L 3.863281 13.140625 C 3.628906 13.140625 3.4375 12.980469 3.4375 12.785156 L 3.4375 10.644531 C 3.4375 10.445312 3.628906 10.289062 3.863281 10.289062 L 4.722656 10.289062 C 4.957031 10.289062 5.148438 10.445312 5.148438 10.644531 Z M 5.148438 10.644531 "/>
<path style=" stroke:none;fill-rule:nonzero;fill:rgb(57.254902%,57.254902%,57.254902%);fill-opacity:1;" d="M 20.5625 10.644531 L 20.5625 12.785156 C 20.5625 12.980469 20.371094 13.140625 20.136719 13.140625 L 19.277344 13.140625 C 19.042969 13.140625 18.851562 12.980469 18.851562 12.785156 L 18.851562 10.644531 C 18.851562 10.445312 19.042969 10.289062 19.277344 10.289062 L 20.136719 10.289062 C 20.371094 10.289062 20.5625 10.445312 20.5625 10.644531 Z M 20.5625 10.644531 "/>
</g>
</svg>
