<?xml version="1.0" encoding="UTF-8"?>
<svg xmlns="http://www.w3.org/2000/svg" xmlns:xlink="http://www.w3.org/1999/xlink" width="24pt" height="24pt" viewBox="0 0 24 24" version="1.1">
<g id="surface1">
<path style=" stroke:none;fill-rule:evenodd;fill:rgb(1.960784%,1.960784%,1.960784%);fill-opacity:0.2;" d="M 5.605469 1.421875 L 18.394531 1.421875 C 20.703125 1.421875 22.578125 3.296875 22.578125 5.605469 L 22.578125 18.394531 C 22.578125 20.703125 20.703125 22.578125 18.394531 22.578125 L 5.605469 22.578125 C 3.296875 22.578125 1.421875 20.703125 1.421875 18.394531 L 1.421875 5.605469 C 1.421875 3.296875 3.296875 1.421875 5.605469 1.421875 Z M 5.605469 1.421875 "/>
<path style=" stroke:none;fill-rule:nonzero;fill:rgb(40.392157%,25.882353%,55.294118%);fill-opacity:1;" d="M 12 3.882812 C 11.574219 3.882812 11.148438 4.042969 10.832031 4.359375 L 4.359375 10.832031 C 3.726562 11.46875 3.726562 12.53125 4.363281 13.167969 L 10.832031 19.636719 C 11.46875 20.273438 12.53125 20.273438 13.167969 19.640625 L 19.640625 13.167969 C 20.273438 12.53125 20.273438 11.46875 19.640625 10.832031 L 13.167969 4.359375 C 12.851562 4.042969 12.425781 3.882812 12 3.882812 Z M 12 3.882812 "/>
<path style=" stroke:none;fill-rule:nonzero;fill:rgb(54.509804%,57.647059%,100%);fill-opacity:1;" d="M 12.539062 11.777344 L 12.539062 11.8125 C 13.945312 11.992188 14.707031 12.660156 14.707031 13.816406 C 14.707031 14.597656 14.4375 15.210938 13.898438 15.660156 C 13.359375 16.105469 12.578125 16.328125 11.5625 16.328125 C 10.617188 16.328125 9.859375 16.175781 9.292969 15.875 L 9.292969 14.894531 C 10.011719 15.261719 10.761719 15.445312 11.539062 15.445312 C 12.917969 15.445312 13.609375 14.890625 13.609375 13.78125 C 13.609375 12.792969 12.867188 12.296875 11.378906 12.296875 L 10.917969 12.296875 L 10.917969 11.460938 L 11.378906 11.460938 C 12.003906 11.460938 12.324219 11.28125 12.667969 10.988281 C 13.011719 10.699219 13.183594 10.3125 13.183594 9.832031 C 13.183594 9.441406 13.050781 9.128906 12.785156 8.902344 C 12.519531 8.675781 12.164062 8.558594 11.71875 8.558594 C 11.027344 8.558594 10.515625 8.789062 9.867188 9.253906 L 9.328125 8.535156 C 10.058594 7.960938 10.75 7.671875 11.71875 7.671875 C 12.523438 7.671875 13.035156 7.863281 13.484375 8.242188 C 13.9375 8.621094 14.164062 9.128906 14.164062 9.761719 C 14.164062 10.292969 14.109375 10.734375 13.792969 11.09375 C 13.472656 11.449219 13.128906 11.679688 12.535156 11.777344 Z M 12.539062 11.777344 "/>
</g>
</svg>
