<?xml version="1.0" encoding="UTF-8"?>
<svg xmlns="http://www.w3.org/2000/svg" xmlns:xlink="http://www.w3.org/1999/xlink" width="24pt" height="24pt" viewBox="0 0 24 24" version="1.1">
<g id="surface1">
<path style=" stroke:none;fill-rule:evenodd;fill:rgb(96.862745%,59.215686%,20.784314%);fill-opacity:1;" d="M 5.605469 1.421875 L 18.394531 1.421875 C 20.703125 1.421875 22.578125 3.296875 22.578125 5.605469 L 22.578125 18.394531 C 22.578125 20.703125 20.703125 22.578125 18.394531 22.578125 L 5.605469 22.578125 C 3.296875 22.578125 1.421875 20.703125 1.421875 18.394531 L 1.421875 5.605469 C 1.421875 3.296875 3.296875 1.421875 5.605469 1.421875 Z M 5.605469 1.421875 "/>
<path style=" stroke:none;fill-rule:nonzero;fill:rgb(24.705882%,24.705882%,24.705882%);fill-opacity:1;" d="M 12.011719 6.003906 C 11.429688 6 10.847656 6.082031 10.285156 6.230469 C 7.664062 6.90625 5.960938 9.386719 6 11.996094 L 4.5 11.996094 L 6.75 15.003906 L 9 11.996094 L 7.5 11.996094 C 7.496094 10.902344 7.671875 9.816406 8.429688 9 C 9.75 7.503906 12.371094 6.894531 14.261719 7.992188 C 14.890625 8.78125 16.285156 7.914062 15.550781 7.105469 C 14.511719 6.328125 13.328125 6.007812 12.011719 6.003906 Z M 17.25 8.996094 L 15 12.003906 L 16.5 12.003906 C 16.503906 13.097656 16.328125 14.1875 15.570312 15 C 14.148438 16.644531 11.628906 17.105469 9.738281 16.007812 C 9.109375 15.21875 7.714844 16.082031 8.449219 16.894531 C 9.488281 17.671875 10.671875 17.992188 11.988281 17.996094 L 11.988281 17.992188 C 12.574219 18 13.152344 17.917969 13.714844 17.769531 C 16.335938 17.09375 18.039062 14.613281 18 12.003906 L 19.5 12.003906 Z M 17.25 8.996094 "/>
</g>
</svg>
