<?xml version="1.0" encoding="UTF-8"?>
<svg xmlns="http://www.w3.org/2000/svg" xmlns:xlink="http://www.w3.org/1999/xlink" width="24pt" height="24pt" viewBox="0 0 24 24" version="1.1">
<g id="surface1">
<path style=" stroke:none;fill-rule:evenodd;fill:rgb(25.490196%,64.705882%,78.039216%);fill-opacity:1;" d="M 5.605469 1.421875 L 18.394531 1.421875 C 20.703125 1.421875 22.578125 3.296875 22.578125 5.605469 L 22.578125 18.394531 C 22.578125 20.703125 20.703125 22.578125 18.394531 22.578125 L 5.605469 22.578125 C 3.296875 22.578125 1.421875 20.703125 1.421875 18.394531 L 1.421875 5.605469 C 1.421875 3.296875 3.296875 1.421875 5.605469 1.421875 Z M 5.605469 1.421875 "/>
<path style=" stroke:none;fill-rule:nonzero;fill:rgb(100%,100%,100%);fill-opacity:1;" d="M 18.75 12 C 18.75 8.273438 15.726562 5.25 12 5.25 C 8.273438 5.25 5.25 8.273438 5.25 12 C 5.25 15.726562 8.273438 18.75 12 18.75 C 15.726562 18.75 18.75 15.726562 18.75 12 Z M 17.25 12 C 17.25 14.898438 14.898438 17.25 12 17.25 C 9.101562 17.25 6.75 14.898438 6.75 12 C 6.75 9.101562 9.101562 6.75 12 6.75 C 14.898438 6.75 17.25 9.101562 17.25 12 Z M 15 12 C 15 11.585938 14.664062 11.25 14.25 11.25 L 9.75 11.25 C 9.335938 11.25 9 11.585938 9 12 C 9 12.414062 9.335938 12.75 9.75 12.75 L 14.25 12.75 C 14.664062 12.75 15 12.414062 15 12 Z M 15 12 "/>
</g>
</svg>
