<?xml version="1.0" encoding="UTF-8"?>
<svg xmlns="http://www.w3.org/2000/svg" xmlns:xlink="http://www.w3.org/1999/xlink" width="24pt" height="24pt" viewBox="0 0 24 24" version="1.1">
<g id="surface1">
<path style=" stroke:none;fill-rule:evenodd;fill:rgb(51.764706%,37.647059%,21.568627%);fill-opacity:1;" d="M 5.605469 1.421875 L 18.394531 1.421875 C 20.703125 1.421875 22.578125 3.296875 22.578125 5.605469 L 22.578125 18.394531 C 22.578125 20.703125 20.703125 22.578125 18.394531 22.578125 L 5.605469 22.578125 C 3.296875 22.578125 1.421875 20.703125 1.421875 18.394531 L 1.421875 5.605469 C 1.421875 3.296875 3.296875 1.421875 5.605469 1.421875 Z M 5.605469 1.421875 "/>
<path style=" stroke:none;fill-rule:nonzero;fill:rgb(64.705882%,47.45098%,34.901961%);fill-opacity:1;" d="M 11.796875 11.234375 C 11.550781 11.375 11.269531 11.449219 10.984375 11.449219 C 10.957031 11.449219 10.925781 11.441406 10.898438 11.441406 L 10.898438 14.511719 L 10.195312 13.730469 C 10.058594 13.914062 9.839844 14.019531 9.613281 14.019531 C 9.613281 14.074219 9.605469 14.125 9.59375 14.179688 L 10.898438 15.605469 L 10.898438 17.933594 C 9.992188 18.222656 9.796875 18.910156 9.796875 19.714844 L 14.203125 19.714844 C 14.203125 18.910156 14.007812 18.222656 13.101562 17.933594 L 13.101562 17.175781 L 14.433594 15.886719 C 14.402344 15.800781 14.386719 15.710938 14.386719 15.621094 C 14.386719 15.480469 14.421875 15.347656 14.488281 15.226562 C 14.484375 15.222656 14.484375 15.222656 14.484375 15.21875 C 14.453125 15.222656 14.417969 15.226562 14.386719 15.226562 C 14.28125 15.226562 14.175781 15.203125 14.078125 15.152344 L 13.101562 16.082031 L 13.101562 11.367188 C 12.945312 11.414062 12.78125 11.449219 12.609375 11.449219 C 12.324219 11.449219 12.042969 11.375 11.796875 11.234375 Z M 11.796875 11.234375 "/>
<path style=" stroke:none;fill-rule:nonzero;fill:rgb(10.980392%,55.294118%,26.27451%);fill-opacity:1;" d="M 11.796875 4.285156 C 11.367188 4.285156 10.953125 4.457031 10.648438 4.753906 C 10.496094 4.707031 10.332031 4.683594 10.171875 4.683594 C 9.277344 4.683594 8.546875 5.398438 8.546875 6.277344 C 8.550781 6.652344 8.683594 7.015625 8.933594 7.300781 C 8.441406 7.585938 8.144531 8.105469 8.144531 8.664062 C 8.144531 9.40625 8.667969 10.046875 9.40625 10.214844 C 9.574219 10.9375 10.230469 11.449219 10.984375 11.449219 C 11.269531 11.449219 11.550781 11.375 11.796875 11.234375 C 12.042969 11.375 12.324219 11.449219 12.609375 11.449219 C 13.195312 11.449219 13.734375 11.140625 14.023438 10.640625 C 14.835938 10.542969 15.449219 9.867188 15.453125 9.0625 C 15.449219 9.015625 15.449219 8.96875 15.445312 8.925781 C 15.710938 8.632812 15.855469 8.257812 15.855469 7.867188 C 15.855469 7.125 15.332031 6.484375 14.59375 6.316406 C 14.441406 5.664062 13.886719 5.175781 13.207031 5.09375 C 12.921875 4.59375 12.382812 4.285156 11.796875 4.285156 Z M 8.878906 12.550781 C 8.683594 12.550781 8.496094 12.628906 8.359375 12.765625 C 8.21875 12.902344 8.144531 13.089844 8.144531 13.285156 C 8.144531 13.414062 8.175781 13.542969 8.242188 13.652344 C 8.175781 13.765625 8.144531 13.890625 8.144531 14.019531 C 8.144531 14.214844 8.21875 14.402344 8.359375 14.539062 C 8.496094 14.675781 8.683594 14.753906 8.878906 14.753906 C 9.285156 14.753906 9.613281 14.425781 9.613281 14.019531 C 10.019531 14.019531 10.347656 13.691406 10.347656 13.285156 C 10.347656 13.089844 10.269531 12.902344 10.132812 12.765625 C 9.992188 12.628906 9.808594 12.550781 9.613281 12.550781 C 9.484375 12.550781 9.355469 12.585938 9.246094 12.648438 C 9.132812 12.585938 9.007812 12.550781 8.878906 12.550781 Z M 14.386719 13.652344 C 13.980469 13.652344 13.652344 14.003906 13.652344 14.441406 C 13.652344 14.875 13.980469 15.226562 14.386719 15.226562 C 14.417969 15.226562 14.453125 15.222656 14.484375 15.21875 C 14.484375 15.222656 14.484375 15.222656 14.488281 15.226562 C 14.421875 15.347656 14.386719 15.480469 14.386719 15.621094 C 14.386719 16.054688 14.714844 16.40625 15.121094 16.40625 C 15.527344 16.40625 15.855469 16.054688 15.855469 15.621094 C 15.855469 15.484375 15.824219 15.347656 15.757812 15.226562 C 15.824219 15.109375 15.855469 14.972656 15.855469 14.832031 C 15.855469 14.398438 15.527344 14.046875 15.121094 14.046875 C 15.089844 14.046875 15.058594 14.050781 15.027344 14.054688 C 14.898438 13.808594 14.652344 13.652344 14.386719 13.652344 Z M 14.386719 13.652344 "/>
</g>
</svg>
