<?xml version="1.0" encoding="UTF-8"?>
<svg xmlns="http://www.w3.org/2000/svg" xmlns:xlink="http://www.w3.org/1999/xlink" width="24pt" height="24pt" viewBox="0 0 24 24" version="1.1">
<g id="surface1">
<path style=" stroke:none;fill-rule:evenodd;fill:rgb(99.607843%,75.294118%,2.352941%);fill-opacity:1;" d="M 5.605469 1.421875 L 18.394531 1.421875 C 20.703125 1.421875 22.578125 3.296875 22.578125 5.605469 L 22.578125 18.394531 C 22.578125 20.703125 20.703125 22.578125 18.394531 22.578125 L 5.605469 22.578125 C 3.296875 22.578125 1.421875 20.703125 1.421875 18.394531 L 1.421875 5.605469 C 1.421875 3.296875 3.296875 1.421875 5.605469 1.421875 Z M 5.605469 1.421875 "/>
<path style=" stroke:none;fill-rule:nonzero;fill:rgb(100%,100%,100%);fill-opacity:1;" d="M 12 6.421875 L 8.8125 11.734375 L 4.5625 6.421875 L 5.09375 17.578125 L 18.90625 17.578125 L 19.4375 6.421875 L 15.1875 11.734375 Z M 12 6.421875 "/>
<path style=" stroke:none;fill-rule:nonzero;fill:rgb(90.980392%,17.647059%,17.647059%);fill-opacity:1;" d="M 16.25 13.859375 L 17.046875 12.796875 L 17.84375 13.859375 L 17.046875 14.921875 Z M 16.25 13.859375 "/>
<path style=" stroke:none;fill-rule:nonzero;fill:rgb(90.980392%,17.647059%,17.647059%);fill-opacity:1;" d="M 10.9375 13.753906 L 12 12.160156 L 13.0625 13.753906 L 12 15.347656 Z M 10.9375 13.753906 "/>
<path style=" stroke:none;fill-rule:nonzero;fill:rgb(90.980392%,17.647059%,17.647059%);fill-opacity:1;" d="M 6.160156 13.859375 L 6.957031 12.796875 L 7.753906 13.859375 L 6.957031 14.921875 Z M 6.160156 13.859375 "/>
</g>
</svg>
