<?xml version="1.0" encoding="UTF-8"?>
<svg xmlns="http://www.w3.org/2000/svg" xmlns:xlink="http://www.w3.org/1999/xlink" width="24pt" height="24pt" viewBox="0 0 24 24" version="1.1">
<g id="surface1">
<path style=" stroke:none;fill-rule:evenodd;fill:rgb(55.686275%,55.686275%,55.686275%);fill-opacity:1;" d="M 5.605469 1.421875 L 18.394531 1.421875 C 20.703125 1.421875 22.578125 3.296875 22.578125 5.605469 L 22.578125 18.394531 C 22.578125 20.703125 20.703125 22.578125 18.394531 22.578125 L 5.605469 22.578125 C 3.296875 22.578125 1.421875 20.703125 1.421875 18.394531 L 1.421875 5.605469 C 1.421875 3.296875 3.296875 1.421875 5.605469 1.421875 Z M 5.605469 1.421875 "/>
<path style=" stroke:none;fill-rule:nonzero;fill:rgb(30.196078%,30.196078%,30.196078%);fill-opacity:1;" d="M 4.460938 15.15625 L 10.421875 15.15625 C 10.90625 15.15625 11.296875 15.546875 11.296875 16.03125 L 11.296875 18.488281 C 11.296875 18.972656 10.90625 19.363281 10.421875 19.363281 L 4.460938 19.363281 C 3.976562 19.363281 3.582031 18.972656 3.582031 18.488281 L 3.582031 16.03125 C 3.582031 15.546875 3.976562 15.15625 4.460938 15.15625 Z M 4.460938 15.15625 "/>
<path style=" stroke:none;fill-rule:nonzero;fill:rgb(30.196078%,30.196078%,30.196078%);fill-opacity:1;" d="M 13.578125 15.15625 L 19.539062 15.15625 C 20.023438 15.15625 20.417969 15.546875 20.417969 16.03125 L 20.417969 18.488281 C 20.417969 18.972656 20.023438 19.363281 19.539062 19.363281 L 13.578125 19.363281 C 13.09375 19.363281 12.703125 18.972656 12.703125 18.488281 L 12.703125 16.03125 C 12.703125 15.546875 13.09375 15.15625 13.578125 15.15625 Z M 13.578125 15.15625 "/>
<path style=" stroke:none;fill-rule:nonzero;fill:rgb(30.196078%,30.196078%,30.196078%);fill-opacity:1;" d="M 17.609375 4.636719 L 20.417969 4.636719 L 20.417969 5.335938 L 17.609375 5.335938 Z M 17.609375 4.636719 "/>
<path style=" stroke:none;fill-rule:nonzero;fill:rgb(30.196078%,30.196078%,30.196078%);fill-opacity:1;" d="M 17.609375 6.039062 L 20.417969 6.039062 L 20.417969 6.738281 L 17.609375 6.738281 Z M 17.609375 6.039062 "/>
<path style=" stroke:none;fill-rule:nonzero;fill:rgb(30.196078%,30.196078%,30.196078%);fill-opacity:1;" d="M 17.609375 7.441406 L 20.417969 7.441406 L 20.417969 8.140625 L 17.609375 8.140625 Z M 17.609375 7.441406 "/>
<path style=" stroke:none;fill-rule:nonzero;fill:rgb(30.196078%,30.196078%,30.196078%);fill-opacity:1;" d="M 17.609375 8.84375 L 20.417969 8.84375 L 20.417969 9.546875 L 17.609375 9.546875 Z M 17.609375 8.84375 "/>
<path style=" stroke:none;fill-rule:nonzero;fill:rgb(30.196078%,30.196078%,30.196078%);fill-opacity:1;" d="M 17.609375 10.246094 L 20.417969 10.246094 L 20.417969 10.949219 L 17.609375 10.949219 Z M 17.609375 10.246094 "/>
<path style=" stroke:none;fill-rule:nonzero;fill:rgb(30.196078%,30.196078%,30.196078%);fill-opacity:1;" d="M 17.609375 11.648438 L 20.417969 11.648438 L 20.417969 12.351562 L 17.609375 12.351562 Z M 17.609375 11.648438 "/>
</g>
</svg>
