<?xml version="1.0" encoding="UTF-8"?>
<svg xmlns="http://www.w3.org/2000/svg" xmlns:xlink="http://www.w3.org/1999/xlink" width="24pt" height="24pt" viewBox="0 0 24 24" version="1.1">
<g id="surface1">
<path style=" stroke:none;fill-rule:evenodd;fill:rgb(99.607843%,80.392157%,21.960784%);fill-opacity:1;" d="M 5.605469 1.421875 L 18.394531 1.421875 C 20.703125 1.421875 22.578125 3.296875 22.578125 5.605469 L 22.578125 18.394531 C 22.578125 20.703125 20.703125 22.578125 18.394531 22.578125 L 5.605469 22.578125 C 3.296875 22.578125 1.421875 20.703125 1.421875 18.394531 L 1.421875 5.605469 C 1.421875 3.296875 3.296875 1.421875 5.605469 1.421875 Z M 5.605469 1.421875 "/>
<path style=" stroke:none;fill-rule:nonzero;fill:rgb(100%,100%,100%);fill-opacity:1;" d="M 4.871094 4.007812 C 5.441406 4.796875 5.734375 5.636719 4.871094 6.863281 C 4.777344 7.933594 5.152344 8.554688 6.4375 8.535156 C 6.738281 8.511719 7.222656 8.453125 7.472656 8.214844 C 7.875 7.722656 7.71875 7.464844 7.554688 7.433594 C 7.382812 7.378906 6.96875 7.636719 7.367188 7.828125 C 7.449219 8.171875 6.492188 8.136719 6.316406 7.847656 C 5.648438 6.65625 7.421875 5.796875 9.4375 6.578125 C 9.851562 9.828125 10.320312 13.976562 9.8125 17.847656 C 9.480469 18.617188 9.125 19.078125 8.292969 19.421875 L 8.292969 19.992188 C 9.4375 19.421875 12.292969 19.421875 14.003906 19.421875 L 14.003906 18.851562 C 13.265625 18.71875 12.679688 18.03125 12.59375 17.34375 C 12.304688 13.503906 12.09375 10.691406 12.863281 6.863281 L 15.699219 6.863281 C 16.050781 6.871094 16.199219 7.164062 16.289062 8.003906 L 17.429688 8.003906 C 17.03125 7.050781 16.859375 6.292969 16.859375 5.148438 C 12.59375 5.808594 9.480469 5.222656 4.871094 4.007812 Z M 16.652344 13.140625 C 16.4375 13.144531 16.222656 13.164062 16.015625 13.199219 C 15.613281 13.273438 15.105469 13.496094 15 13.890625 C 14.910156 14.253906 14.886719 14.75 15.503906 14.894531 L 15.714844 14.855469 L 15.714844 14.285156 C 16.0625 13.578125 16.859375 13.535156 17.335938 14.0625 C 17.925781 15.132812 17.164062 16.382812 16.613281 17.179688 C 16.074219 18.074219 15.316406 18.230469 14.574219 18.851562 L 14.574219 19.421875 C 14.574219 19.421875 17.109375 19.578125 18 19.992188 C 18.125 19.476562 19.359375 18.472656 19.109375 17.976562 C 18.773438 17.546875 18 17.707031 18 18.28125 L 18.5 18.269531 C 18.589844 18.074219 18.542969 18.039062 18.664062 18.15625 C 18.734375 18.503906 18.367188 18.679688 18.128906 18.789062 C 17.429688 18.851562 16.285156 18.851562 16.28125 18.820312 C 17.828125 17.28125 19.839844 15.394531 18.476562 13.8125 C 17.953125 13.320312 17.296875 13.140625 16.652344 13.140625 Z M 16.652344 13.140625 "/>
</g>
</svg>
