<?xml version="1.0" encoding="UTF-8"?>
<svg xmlns="http://www.w3.org/2000/svg" xmlns:xlink="http://www.w3.org/1999/xlink" width="24pt" height="24pt" viewBox="0 0 24 24" version="1.1">
<defs>
<filter id="alpha" filterUnits="objectBoundingBox" x="0%" y="0%" width="100%" height="100%">
  <feColorMatrix type="matrix" in="SourceGraphic" values="0 0 0 0 1 0 0 0 0 1 0 0 0 0 1 0 0 0 1 0"/>
</filter>
<mask id="mask0">
  <g filter="url(#alpha)">
<rect x="0" y="0" width="24" height="24" style="fill:rgb(0%,0%,0%);fill-opacity:0.501961;stroke:none;"/>
  </g>
</mask>
<clipPath id="clip1">
  <rect width="24" height="24"/>
</clipPath>
<g id="surface6" clip-path="url(#clip1)">
<path style=" stroke:none;fill-rule:nonzero;fill:rgb(100%,100%,100%);fill-opacity:1;" d="M 11 10.003906 L 13 10.003906 C 13.996094 10.003906 13.996094 11 13.996094 11 L 13.996094 14.996094 L 13 14.996094 L 13 13.496094 L 11 13.496094 L 11 14.996094 L 10.003906 14.996094 L 10.003906 11 C 10.003906 10.003906 11 10.003906 11 10.003906 Z M 11 11 L 11 12.5 L 13 12.5 L 13 11 Z M 11 11 "/>
</g>
</defs>
<g id="surface1">
<path style=" stroke:none;fill-rule:evenodd;fill:rgb(80%,80%,80%);fill-opacity:1;" d="M 5.605469 1.421875 L 18.394531 1.421875 C 20.703125 1.421875 22.578125 3.296875 22.578125 5.605469 L 22.578125 18.394531 C 22.578125 20.703125 20.703125 22.578125 18.394531 22.578125 L 5.605469 22.578125 C 3.296875 22.578125 1.421875 20.703125 1.421875 18.394531 L 1.421875 5.605469 C 1.421875 3.296875 3.296875 1.421875 5.605469 1.421875 Z M 5.605469 1.421875 "/>
<path style=" stroke:none;fill-rule:nonzero;fill:rgb(40%,40%,40%);fill-opacity:1;" d="M 12 7.007812 C 10.0625 7.007812 8.410156 8.160156 7.699219 9.789062 C 5.894531 10.046875 4.511719 11.539062 4.511719 13.363281 C 4.511719 15.367188 6.1875 16.992188 8.253906 16.992188 L 16.210938 16.992188 C 18.023438 16.992188 19.488281 15.570312 19.488281 13.816406 C 19.488281 12.183594 18.222656 10.847656 16.59375 10.667969 C 16.167969 8.585938 14.273438 7.007812 12 7.007812 Z M 12 7.007812 "/>
<use xlink:href="#surface6" mask="url(#mask0)"/>
</g>
</svg>
