<?xml version="1.0" encoding="UTF-8"?>
<svg xmlns="http://www.w3.org/2000/svg" xmlns:xlink="http://www.w3.org/1999/xlink" width="24pt" height="24pt" viewBox="0 0 24 24" version="1.1">
<g id="surface1">
<path style=" stroke:none;fill-rule:evenodd;fill:rgb(87.45098%,83.137255%,82.745098%);fill-opacity:1;" d="M 5.605469 1.421875 L 18.394531 1.421875 C 20.703125 1.421875 22.578125 3.296875 22.578125 5.605469 L 22.578125 18.394531 C 22.578125 20.703125 20.703125 22.578125 18.394531 22.578125 L 5.605469 22.578125 C 3.296875 22.578125 1.421875 20.703125 1.421875 18.394531 L 1.421875 5.605469 C 1.421875 3.296875 3.296875 1.421875 5.605469 1.421875 Z M 5.605469 1.421875 "/>
<path style=" stroke:none;fill-rule:nonzero;fill:rgb(50.588235%,20%,32.156863%);fill-opacity:1;" d="M 10.152344 19.878906 C 10.078125 19.855469 9.28125 19.53125 7.945312 18.980469 C 7.625 18.847656 7.34375 18.722656 7.324219 18.703125 C 7.304688 18.683594 7.445312 18.304688 7.636719 17.855469 L 7.980469 17.042969 L 7.832031 16.933594 C 7.75 16.871094 7.464844 16.597656 7.203125 16.328125 L 6.722656 15.832031 L 5.925781 16.167969 C 5.484375 16.351562 5.109375 16.488281 5.089844 16.46875 C 5.042969 16.425781 4.355469 14.773438 4.355469 14.707031 C 4.355469 14.671875 5.203125 14.652344 6.621094 14.652344 L 8.890625 14.652344 L 9.183594 14.921875 C 9.59375 15.296875 10.1875 15.632812 10.703125 15.777344 C 11.316406 15.953125 12.289062 15.953125 12.882812 15.78125 C 14.261719 15.386719 15.296875 14.332031 15.664062 12.953125 C 15.808594 12.40625 15.800781 11.433594 15.640625 10.929688 C 15.21875 9.574219 14.273438 8.636719 12.898438 8.207031 C 12.34375 8.03125 11.304688 8.035156 10.738281 8.210938 C 10.152344 8.394531 9.566406 8.71875 9.179688 9.074219 L 8.835938 9.386719 L 6.589844 9.386719 C 4.472656 9.386719 4.347656 9.382812 4.378906 9.296875 C 4.601562 8.6875 5.089844 7.582031 5.136719 7.582031 C 5.171875 7.582031 5.542969 7.722656 5.960938 7.898438 C 6.375 8.074219 6.730469 8.214844 6.75 8.207031 C 6.769531 8.199219 6.90625 8.054688 7.058594 7.886719 C 7.210938 7.71875 7.472656 7.457031 7.640625 7.304688 C 7.808594 7.152344 7.953125 7 7.960938 6.964844 C 7.972656 6.933594 7.832031 6.5625 7.65625 6.140625 C 7.476562 5.722656 7.351562 5.363281 7.375 5.339844 C 7.441406 5.273438 10.171875 4.171875 10.226562 4.191406 C 10.253906 4.199219 10.421875 4.554688 10.601562 4.976562 L 10.929688 5.746094 L 12.699219 5.746094 L 13.035156 4.960938 C 13.429688 4.039062 13.285156 4.089844 14.328125 4.523438 C 16.042969 5.230469 16.296875 5.34375 16.289062 5.386719 C 16.28125 5.414062 16.136719 5.777344 15.960938 6.191406 L 15.644531 6.949219 L 16.28125 7.585938 L 16.917969 8.21875 L 17.679688 7.898438 C 18.101562 7.722656 18.46875 7.578125 18.503906 7.578125 C 18.535156 7.578125 18.582031 7.632812 18.613281 7.699219 C 19.203125 9.089844 19.726562 10.421875 19.691406 10.457031 C 19.667969 10.480469 19.300781 10.644531 18.875 10.816406 C 18.246094 11.074219 18.109375 11.148438 18.121094 11.230469 C 18.128906 11.285156 18.140625 11.679688 18.144531 12.113281 L 18.152344 12.894531 L 18.941406 13.222656 C 19.375 13.402344 19.730469 13.574219 19.730469 13.597656 C 19.730469 13.625 19.605469 13.933594 19.457031 14.289062 C 19.308594 14.644531 19.09375 15.179688 18.984375 15.472656 C 18.746094 16.105469 18.570312 16.515625 18.542969 16.515625 C 18.53125 16.515625 18.183594 16.375 17.773438 16.199219 C 17.363281 16.027344 16.992188 15.878906 16.949219 15.867188 C 16.910156 15.859375 16.753906 15.996094 16.605469 16.171875 C 16.457031 16.347656 16.191406 16.609375 16.015625 16.753906 C 15.835938 16.902344 15.691406 17.039062 15.6875 17.058594 C 15.6875 17.082031 15.828125 17.433594 16.003906 17.847656 C 16.179688 18.257812 16.324219 18.621094 16.324219 18.65625 C 16.324219 18.695312 16.003906 18.851562 15.617188 19.011719 C 15.230469 19.167969 14.617188 19.421875 14.25 19.574219 C 13.882812 19.726562 13.535156 19.867188 13.472656 19.886719 C 13.367188 19.921875 13.332031 19.863281 13.078125 19.242188 C 12.644531 18.183594 12.808594 18.304688 11.808594 18.300781 L 10.953125 18.296875 L 10.902344 18.429688 C 10.769531 18.789062 10.3125 19.835938 10.273438 19.871094 C 10.253906 19.890625 10.199219 19.894531 10.152344 19.878906 Z M 10.152344 19.878906 "/>
<path style=" stroke:none;fill-rule:evenodd;fill:rgb(81.960784%,75.294118%,74.901961%);fill-opacity:1;" d="M 1.421875 14.703125 L 11.84375 14.703125 C 12.21875 14.703125 12.574219 14.628906 12.898438 14.492188 C 13.222656 14.355469 13.511719 14.15625 13.757812 13.914062 C 14 13.667969 14.199219 13.378906 14.335938 13.054688 C 14.472656 12.730469 14.546875 12.375 14.546875 12 C 14.546875 11.625 14.472656 11.269531 14.335938 10.945312 C 14.199219 10.621094 14 10.332031 13.757812 10.085938 C 13.511719 9.84375 13.222656 9.648438 12.898438 9.511719 C 12.574219 9.375 12.21875 9.296875 11.84375 9.296875 L 1.421875 9.296875 Z M 1.421875 14.703125 "/>
<path style=" stroke:none;fill-rule:nonzero;fill:rgb(21.568627%,21.568627%,21.568627%);fill-opacity:1;" d="M 13.671875 12 C 13.671875 12.921875 12.921875 13.671875 12 13.671875 C 11.078125 13.671875 10.328125 12.921875 10.328125 12 C 10.328125 11.078125 11.078125 10.328125 12 10.328125 C 12.921875 10.328125 13.671875 11.078125 13.671875 12 Z M 13.671875 12 "/>
<path style=" stroke:none;fill-rule:nonzero;fill:rgb(100%,52.54902%,0%);fill-opacity:1;" d="M 13.21875 12 C 13.21875 12.671875 12.671875 13.21875 12 13.21875 C 11.328125 13.21875 10.78125 12.671875 10.78125 12 C 10.78125 11.328125 11.328125 10.78125 12 10.78125 C 12.671875 10.78125 13.21875 11.328125 13.21875 12 Z M 13.21875 12 "/>
<path style=" stroke:none;fill-rule:nonzero;fill:rgb(50.588235%,20%,32.156863%);fill-opacity:1;" d="M 3.011719 13.773438 C 2.921875 13.683594 2.921875 10.320312 3.011719 10.230469 C 3.054688 10.1875 3.3125 10.167969 3.824219 10.167969 C 4.339844 10.167969 4.597656 10.1875 4.640625 10.230469 C 4.679688 10.273438 4.703125 10.480469 4.703125 10.816406 L 4.703125 11.335938 L 4.171875 11.335938 L 4.171875 10.699219 L 3.425781 10.699219 L 3.425781 13.304688 L 4.171875 13.304688 L 4.171875 12.613281 L 4.703125 12.613281 L 4.703125 13.136719 C 4.703125 13.847656 4.71875 13.835938 3.792969 13.835938 C 3.304688 13.835938 3.054688 13.816406 3.011719 13.773438 Z M 5.269531 13.738281 C 5.195312 13.65625 5.179688 13.546875 5.195312 13.140625 L 5.210938 12.640625 L 5.460938 12.625 L 5.714844 12.609375 L 5.714844 13.304688 L 6.40625 13.304688 L 6.40625 12.699219 L 5.792969 12.078125 L 5.183594 11.460938 L 5.183594 10.902344 C 5.183594 10.152344 5.164062 10.167969 6.09375 10.167969 C 6.578125 10.167969 6.832031 10.1875 6.875 10.230469 C 6.914062 10.269531 6.9375 10.476562 6.9375 10.789062 L 6.9375 11.285156 L 6.40625 11.285156 L 6.40625 10.699219 L 5.714844 10.699219 L 5.714844 11.269531 L 6.324219 11.855469 L 6.9375 12.441406 L 6.9375 13.050781 C 6.9375 13.859375 6.960938 13.835938 6.050781 13.835938 C 5.441406 13.835938 5.347656 13.824219 5.269531 13.738281 Z M 7.503906 13.738281 C 7.425781 13.652344 7.417969 13.453125 7.417969 11.992188 C 7.417969 10.460938 7.421875 10.335938 7.515625 10.253906 C 7.59375 10.183594 7.738281 10.167969 8.355469 10.167969 C 8.863281 10.167969 9.117188 10.1875 9.160156 10.230469 C 9.203125 10.273438 9.226562 10.480469 9.226562 10.816406 L 9.226562 11.335938 L 8.691406 11.335938 L 8.691406 10.699219 L 7.949219 10.699219 L 7.949219 13.304688 L 8.691406 13.304688 L 8.691406 12.613281 L 9.226562 12.613281 L 9.226562 13.136719 C 9.226562 13.847656 9.238281 13.835938 8.3125 13.835938 C 7.683594 13.835938 7.582031 13.824219 7.503906 13.738281 Z M 7.503906 13.738281 "/>
</g>
</svg>
