<?xml version="1.0" encoding="UTF-8"?>
<svg xmlns="http://www.w3.org/2000/svg" xmlns:xlink="http://www.w3.org/1999/xlink" width="24pt" height="24pt" viewBox="0 0 24 24" version="1.1">
<g id="surface1">
<path style=" stroke:none;fill-rule:evenodd;fill:rgb(29.803922%,34.901961%,41.176471%);fill-opacity:1;" d="M 5.605469 1.421875 L 18.394531 1.421875 C 20.703125 1.421875 22.578125 3.296875 22.578125 5.605469 L 22.578125 18.394531 C 22.578125 20.703125 20.703125 22.578125 18.394531 22.578125 L 5.605469 22.578125 C 3.296875 22.578125 1.421875 20.703125 1.421875 18.394531 L 1.421875 5.605469 C 1.421875 3.296875 3.296875 1.421875 5.605469 1.421875 Z M 5.605469 1.421875 "/>
<path style=" stroke:none;fill-rule:nonzero;fill:rgb(100%,100%,100%);fill-opacity:1;" d="M 13.15625 12 L 15.578125 7.695312 L 16.730469 12 L 15.578125 16.304688 Z M 11.976562 12.949219 L 14.398438 17.003906 L 10.179688 15.890625 L 7.132812 12.949219 Z M 14.398438 6.996094 L 11.976562 11.523438 L 7.132812 11.523438 L 10.179688 8.109375 Z M 17.855469 10.5 L 16.375 4.875 L 10.863281 6.390625 L 10.046875 7.871094 L 8.390625 7.859375 L 4.355469 12 L 8.390625 16.144531 L 10.046875 16.128906 L 10.863281 17.609375 L 16.378906 19.125 L 17.855469 13.5 L 17.105469 12 "/>
</g>
</svg>
