<?xml version="1.0" encoding="UTF-8"?>
<svg xmlns="http://www.w3.org/2000/svg" xmlns:xlink="http://www.w3.org/1999/xlink" width="24pt" height="24pt" viewBox="0 0 24 24" version="1.1">
<g id="surface1">
<path style=" stroke:none;fill-rule:evenodd;fill:rgb(55.686275%,55.686275%,55.686275%);fill-opacity:1;" d="M 5.605469 1.421875 L 18.394531 1.421875 C 20.703125 1.421875 22.578125 3.296875 22.578125 5.605469 L 22.578125 18.394531 C 22.578125 20.703125 20.703125 22.578125 18.394531 22.578125 L 5.605469 22.578125 C 3.296875 22.578125 1.421875 20.703125 1.421875 18.394531 L 1.421875 5.605469 C 1.421875 3.296875 3.296875 1.421875 5.605469 1.421875 Z M 5.605469 1.421875 "/>
<path style=" stroke:none;fill-rule:nonzero;fill:rgb(27.843137%,27.843137%,27.843137%);fill-opacity:1;" d="M 6.820312 5.546875 C 5.460938 5.546875 4.363281 6.644531 4.363281 8.003906 L 4.363281 14.519531 C 4.363281 15.882812 5.460938 16.976562 6.820312 16.976562 L 8.148438 16.976562 C 8.261719 17.8125 8.964844 18.453125 9.828125 18.453125 L 14.171875 18.453125 C 15.035156 18.453125 15.738281 17.8125 15.851562 16.976562 L 17.179688 16.976562 C 18.539062 16.976562 19.636719 15.882812 19.636719 14.519531 L 19.636719 8.003906 C 19.636719 6.644531 18.539062 5.546875 17.179688 5.546875 Z M 6.820312 5.546875 "/>
<path style=" stroke:none;fill-rule:nonzero;fill:rgb(13.72549%,13.72549%,13.72549%);fill-opacity:1;" d="M 6.914062 6.269531 L 17.085938 6.269531 C 18.117188 6.269531 18.949219 7.070312 18.949219 8.058594 L 18.949219 14.46875 C 18.949219 15.457031 18.117188 16.253906 17.085938 16.253906 L 6.914062 16.253906 C 5.882812 16.253906 5.050781 15.457031 5.050781 14.46875 L 5.050781 8.058594 C 5.050781 7.070312 5.882812 6.269531 6.914062 6.269531 Z M 6.914062 6.269531 "/>
<path style=" stroke:none;fill-rule:nonzero;fill:rgb(75.294118%,79.215686%,20%);fill-opacity:1;" d="M 14.476562 9.023438 C 13.859375 9.023438 13.359375 9.523438 13.359375 10.140625 C 13.359375 10.757812 13.859375 11.257812 14.476562 11.257812 C 15.089844 11.257812 15.589844 10.757812 15.589844 10.140625 C 15.589844 9.523438 15.089844 9.023438 14.476562 9.023438 Z M 14.476562 9.023438 "/>
<path style=" stroke:none;fill-rule:nonzero;fill:rgb(75.294118%,79.215686%,20%);fill-opacity:1;" d="M 9.550781 12.667969 C 8.320312 12.667969 7.09375 13.558594 7.09375 15.820312 L 7.09375 16.238281 L 16.910156 16.238281 C 16.910156 16.238281 16.09375 13.558594 14.867188 13.558594 C 13.640625 13.558594 13.640625 14.898438 12.820312 14.898438 C 12.003906 14.898438 10.777344 12.667969 9.550781 12.667969 Z M 9.550781 12.667969 "/>
</g>
</svg>
