<?xml version="1.0" encoding="UTF-8"?>
<svg xmlns="http://www.w3.org/2000/svg" xmlns:xlink="http://www.w3.org/1999/xlink" width="24pt" height="24pt" viewBox="0 0 24 24" version="1.1">
<g id="surface1">
<path style=" stroke:none;fill-rule:evenodd;fill:rgb(27.843137%,58.431373%,81.960784%);fill-opacity:1;" d="M 5.605469 1.421875 L 18.394531 1.421875 C 20.703125 1.421875 22.578125 3.296875 22.578125 5.605469 L 22.578125 18.394531 C 22.578125 20.703125 20.703125 22.578125 18.394531 22.578125 L 5.605469 22.578125 C 3.296875 22.578125 1.421875 20.703125 1.421875 18.394531 L 1.421875 5.605469 C 1.421875 3.296875 3.296875 1.421875 5.605469 1.421875 Z M 5.605469 1.421875 "/>
<path style=" stroke:none;fill-rule:nonzero;fill:rgb(100%,100%,100%);fill-opacity:1;" d="M 12 4.5 C 7.859375 4.5 4.5 7.859375 4.5 12 C 4.5 16.140625 7.859375 19.5 12 19.5 C 16.140625 19.5 19.5 16.140625 19.5 12 C 19.5 7.859375 16.140625 4.5 12 4.5 Z M 11.296875 5.996094 C 11.378906 5.988281 11.484375 6 11.566406 5.996094 C 11.574219 6.035156 11.507812 6.175781 11.414062 6.378906 C 10.820312 7.671875 10.785156 9.1875 11.335938 10 C 11.4375 10.144531 11.527344 10.285156 11.527344 10.304688 C 11.527344 10.320312 11.417969 10.339844 11.296875 10.339844 C 11.011719 10.339844 10.742188 10.167969 10.191406 9.730469 C 9.949219 9.539062 9.628906 9.375 9.507812 9.351562 C 9.3125 9.3125 9.261719 9.328125 9.011719 9.578125 C 8.777344 9.8125 8.707031 9.941406 8.707031 10.152344 C 8.707031 10.960938 9.667969 11.601562 11.453125 11.980469 C 13.875 12.496094 14.472656 12.957031 14.539062 14.230469 C 14.621094 15.828125 13.773438 17.03125 11.910156 17.964844 C 11.6875 18.078125 11.546875 18.121094 11.453125 18.15625 C 11.410156 18.152344 11.378906 18.160156 11.335938 18.15625 C 11.320312 18.105469 11.296875 17.992188 11.296875 17.777344 C 11.296875 16.925781 10.964844 16.050781 10.460938 15.5625 C 10.324219 15.433594 9.945312 15.15625 9.621094 14.953125 C 9.296875 14.753906 8.96875 14.519531 8.898438 14.421875 C 8.777344 14.257812 8.769531 14.15625 8.859375 13.851562 C 9.03125 13.292969 9.230469 12.980469 9.621094 12.628906 C 9.828125 12.445312 10.035156 12.289062 10.078125 12.285156 C 10.125 12.285156 9.816406 12.191406 9.355469 12.09375 C 8.894531 12 8.21875 11.800781 7.867188 11.675781 C 7.230469 11.445312 6.367188 10.960938 6.039062 10.609375 C 6.023438 10.59375 6.011719 10.582031 6 10.570312 C 6.472656 8.695312 7.792969 7.15625 9.546875 6.417969 C 9.910156 6.261719 10.289062 6.15625 10.6875 6.074219 C 10.886719 6.03125 11.09375 6.015625 11.296875 5.996094 Z M 17.015625 8.855469 C 17.160156 8.945312 17.703125 10.113281 17.855469 10.6875 C 18.054688 11.421875 18.042969 12.699219 17.855469 13.429688 C 17.785156 13.707031 17.695312 13.96875 17.664062 14 C 17.632812 14.035156 17.523438 13.847656 17.394531 13.621094 C 17.269531 13.394531 16.863281 12.914062 16.523438 12.554688 C 15.542969 11.519531 15.386719 10.980469 15.796875 10.152344 C 16.003906 9.734375 16.90625 8.785156 17.015625 8.855469 Z M 17.015625 8.855469 "/>
</g>
</svg>
