<?xml version="1.0" encoding="UTF-8"?>
<svg xmlns="http://www.w3.org/2000/svg" xmlns:xlink="http://www.w3.org/1999/xlink" width="24pt" height="24pt" viewBox="0 0 24 24" version="1.1">
<g id="surface1">
<path style=" stroke:none;fill-rule:evenodd;fill:rgb(30.980392%,30.980392%,30.980392%);fill-opacity:1;" d="M 18.625 1.46875 L 18.625 12.335938 C 18.625 12.804688 18.847656 13.179688 19.128906 13.179688 L 20.160156 13.179688 C 20.4375 13.179688 20.660156 12.804688 20.660156 12.335938 L 20.660156 2.179688 C 20.0625 1.78125 19.386719 1.511719 18.625 1.46875 Z M 18.625 1.46875 "/>
<path style=" stroke:none;fill-rule:evenodd;fill:rgb(30.980392%,30.980392%,30.980392%);fill-opacity:1;" d="M 15.566406 1.425781 L 15.566406 12.335938 C 15.566406 12.804688 15.792969 13.179688 16.070312 13.179688 L 17.101562 13.179688 C 17.382812 13.179688 17.605469 12.804688 17.605469 12.335938 L 17.605469 1.425781 Z M 15.566406 1.425781 "/>
<path style=" stroke:none;fill-rule:evenodd;fill:rgb(30.980392%,30.980392%,30.980392%);fill-opacity:1;" d="M 12.511719 1.425781 L 12.511719 12.335938 C 12.511719 12.804688 12.734375 13.179688 13.011719 13.179688 L 14.042969 13.179688 C 14.324219 13.179688 14.546875 12.804688 14.546875 12.335938 L 14.546875 1.425781 Z M 12.511719 1.425781 "/>
<path style=" stroke:none;fill-rule:evenodd;fill:rgb(30.980392%,30.980392%,30.980392%);fill-opacity:1;" d="M 6.394531 1.425781 L 6.394531 12.335938 C 6.394531 12.804688 6.617188 13.179688 6.898438 13.179688 L 7.929688 13.179688 C 8.207031 13.179688 8.433594 12.804688 8.433594 12.335938 L 8.433594 1.425781 Z M 6.394531 1.425781 "/>
<path style=" stroke:none;fill-rule:evenodd;fill:rgb(84.705882%,84.705882%,84.705882%);fill-opacity:1;" d="M 19.644531 13.179688 L 19.644531 22.324219 C 21.335938 21.789062 22.578125 20.269531 22.574219 18.394531 L 22.574219 5.605469 C 22.578125 4.144531 21.789062 2.925781 20.660156 2.179688 L 20.660156 12.335938 C 20.660156 12.804688 20.4375 13.179688 20.160156 13.179688 Z M 19.644531 13.179688 "/>
<path style=" stroke:none;fill-rule:evenodd;fill:rgb(94.117647%,94.117647%,94.117647%);fill-opacity:1;" d="M 16.585938 13.179688 L 16.585938 22.574219 L 18.394531 22.574219 C 18.839844 22.578125 19.242188 22.453125 19.644531 22.324219 L 19.644531 13.179688 L 19.128906 13.179688 C 18.847656 13.179688 18.625 12.804688 18.625 12.335938 L 18.625 1.46875 C 18.542969 1.464844 18.476562 1.425781 18.394531 1.425781 L 17.605469 1.425781 L 17.605469 12.335938 C 17.605469 12.804688 17.382812 13.179688 17.101562 13.179688 Z M 16.585938 13.179688 "/>
<path style=" stroke:none;fill-rule:evenodd;fill:rgb(84.705882%,84.705882%,84.705882%);fill-opacity:1;" d="M 13.527344 13.179688 L 13.527344 22.574219 L 16.585938 22.574219 L 16.585938 13.179688 L 16.070312 13.179688 C 15.792969 13.179688 15.566406 12.804688 15.566406 12.335938 L 15.566406 1.425781 L 14.546875 1.425781 L 14.546875 12.335938 C 14.546875 12.804688 14.324219 13.179688 14.042969 13.179688 Z M 13.527344 13.179688 "/>
<path style=" stroke:none;fill-rule:evenodd;fill:rgb(94.117647%,94.117647%,94.117647%);fill-opacity:1;" d="M 10.472656 1.425781 L 10.472656 22.574219 L 13.527344 22.574219 L 13.527344 13.179688 L 13.011719 13.179688 C 12.734375 13.179688 12.511719 12.804688 12.511719 12.335938 L 12.511719 1.425781 Z M 10.472656 1.425781 "/>
<path style=" stroke:none;fill-rule:evenodd;fill:rgb(84.705882%,84.705882%,84.705882%);fill-opacity:1;" d="M 7.414062 13.179688 L 7.414062 22.574219 L 10.472656 22.574219 L 10.472656 1.425781 L 8.433594 1.425781 L 8.433594 12.335938 C 8.433594 12.804688 8.207031 13.179688 7.929688 13.179688 Z M 7.414062 13.179688 "/>
<path style=" stroke:none;fill-rule:evenodd;fill:rgb(94.117647%,94.117647%,94.117647%);fill-opacity:1;" d="M 4.355469 13.179688 L 4.355469 22.324219 C 4.757812 22.453125 5.160156 22.574219 5.605469 22.574219 L 7.414062 22.574219 L 7.414062 13.179688 L 6.898438 13.179688 C 6.617188 13.179688 6.394531 12.804688 6.394531 12.335938 L 6.394531 1.425781 L 5.605469 1.425781 C 5.523438 1.425781 5.457031 1.464844 5.375 1.46875 L 5.375 12.335938 C 5.375 12.804688 5.152344 13.179688 4.871094 13.179688 Z M 4.355469 13.179688 "/>
<path style=" stroke:none;fill-rule:evenodd;fill:rgb(84.705882%,84.705882%,84.705882%);fill-opacity:1;" d="M 4.355469 22.324219 L 4.355469 13.179688 L 3.84375 13.179688 C 3.5625 13.179688 3.335938 12.804688 3.335938 12.335938 L 3.335938 2.179688 C 2.210938 2.929688 1.425781 4.144531 1.425781 5.605469 L 1.425781 18.394531 C 1.425781 20.269531 2.664062 21.789062 4.355469 22.324219 Z M 4.355469 22.324219 "/>
<path style=" stroke:none;fill-rule:evenodd;fill:rgb(30.980392%,30.980392%,30.980392%);fill-opacity:1;" d="M 3.335938 2.179688 L 3.335938 12.335938 C 3.335938 12.804688 3.5625 13.179688 3.84375 13.179688 L 4.871094 13.179688 C 5.152344 13.179688 5.375 12.804688 5.375 12.335938 L 5.375 1.46875 C 4.609375 1.511719 3.9375 1.785156 3.335938 2.179688 Z M 3.335938 2.179688 "/>
</g>
</svg>
