<?xml version="1.0" encoding="UTF-8"?>
<svg xmlns="http://www.w3.org/2000/svg" xmlns:xlink="http://www.w3.org/1999/xlink" width="24pt" height="24pt" viewBox="0 0 24 24" version="1.1">
<defs>
<clipPath id="clip1">
  <rect width="24" height="24"/>
</clipPath>
<g id="surface6" clip-path="url(#clip1)">
<path style=" stroke:none;fill-rule:nonzero;fill:rgb(30.196078%,30.196078%,30.196078%);fill-opacity:1;" d="M 14.335938 7.125 C 13.800781 7.125 13.171875 7.125 12.78125 7.128906 L 12.746094 7.15625 L 12.746094 7.433594 C 12.746094 7.46875 12.757812 7.492188 12.785156 7.511719 C 12.816406 7.535156 12.84375 7.546875 12.875 7.546875 L 13 7.5625 C 13.316406 7.574219 13.464844 7.660156 13.511719 7.714844 C 13.585938 7.808594 13.621094 7.914062 13.4375 8.324219 L 12.339844 10.570312 L 11.347656 8.488281 C 11.023438 7.820312 10.945312 7.613281 11.433594 7.574219 L 11.628906 7.546875 C 11.722656 7.546875 11.769531 7.515625 11.769531 7.449219 L 11.769531 7.15625 L 11.699219 7.128906 C 11.699219 7.128906 9.851562 7.132812 9.023438 7.132812 L 8.984375 7.160156 L 8.984375 7.453125 C 8.984375 7.519531 9.050781 7.535156 9.179688 7.554688 C 9.636719 7.613281 9.628906 7.664062 10.082031 8.589844 C 10.148438 8.726562 10.347656 9.144531 10.347656 9.144531 L 11.382812 11.230469 C 11.382812 11.230469 11.605469 11.738281 11.683594 11.917969 L 10.183594 14.992188 L 10.097656 14.96875 C 10.097656 14.96875 7.765625 9.917969 7.089844 8.230469 C 7.019531 8.054688 6.988281 7.925781 6.988281 7.84375 C 6.988281 7.675781 7.136719 7.582031 7.441406 7.570312 L 7.792969 7.554688 C 7.886719 7.554688 7.933594 7.515625 7.933594 7.4375 L 7.933594 7.164062 L 7.898438 7.132812 C 7.898438 7.132812 5.105469 7.128906 4.53125 7.132812 L 4.5 7.164062 L 4.5 7.453125 C 4.5 7.503906 4.5625 7.539062 4.691406 7.554688 C 5.046875 7.574219 5.28125 7.632812 5.394531 7.726562 C 5.503906 7.828125 5.625 8.074219 5.78125 8.457031 C 6.628906 10.550781 8.429688 14.28125 9.308594 16.40625 C 9.558594 16.988281 9.875 17.078125 10.261719 16.390625 C 10.675781 15.597656 11.402344 14.070312 11.992188 12.820312 C 12 12.699219 12 12.933594 12.105469 12.859375 C 12.65625 14.105469 13.320312 15.601562 13.6875 16.382812 C 13.976562 16.988281 14.296875 17.046875 14.628906 16.398438 C 15.492188 14.425781 18.019531 8.496094 18.019531 8.496094 C 18.128906 8.207031 18.28125 7.984375 18.476562 7.820312 C 18.667969 7.660156 18.96875 7.566406 19.375 7.550781 C 19.460938 7.550781 19.5 7.511719 19.5 7.4375 L 19.5 7.15625 L 19.46875 7.125 L 16.367188 7.125 L 16.332031 7.15625 L 16.332031 7.4375 C 16.332031 7.46875 16.34375 7.492188 16.375 7.515625 C 16.402344 7.535156 16.429688 7.550781 16.460938 7.550781 L 16.722656 7.5625 C 17.039062 7.574219 17.125 7.640625 17.25 7.75 C 17.371094 7.863281 17.386719 8.054688 17.292969 8.324219 L 14.546875 15.011719 L 14.441406 14.980469 L 12.699219 11.324219 C 12.699219 11.320312 12.738281 11.234375 12.738281 11.234375 L 14.164062 8.496094 C 14.332031 8.207031 14.492188 7.949219 14.574219 7.828125 C 14.722656 7.609375 14.804688 7.570312 15.210938 7.550781 C 15.292969 7.550781 15.335938 7.511719 15.335938 7.4375 L 15.335938 7.160156 L 15.304688 7.128906 C 15.304688 7.128906 14.867188 7.125 14.335938 7.125 Z M 14.335938 7.125 "/>
</g>
</defs>
<g id="surface1">
<path style=" stroke:none;fill-rule:evenodd;fill:rgb(80%,80%,80%);fill-opacity:1;" d="M 5.605469 1.421875 L 18.394531 1.421875 C 20.703125 1.421875 22.578125 3.296875 22.578125 5.605469 L 22.578125 18.394531 C 22.578125 20.703125 20.703125 22.578125 18.394531 22.578125 L 5.605469 22.578125 C 3.296875 22.578125 1.421875 20.703125 1.421875 18.394531 L 1.421875 5.605469 C 1.421875 3.296875 3.296875 1.421875 5.605469 1.421875 Z M 5.605469 1.421875 "/>
<use xlink:href="#surface6"/>
</g>
</svg>
