<?xml version="1.0" encoding="UTF-8"?>
<svg xmlns="http://www.w3.org/2000/svg" xmlns:xlink="http://www.w3.org/1999/xlink" width="24pt" height="24pt" viewBox="0 0 24 24" version="1.1">
<g id="surface1">
<path style=" stroke:none;fill-rule:evenodd;fill:rgb(62.745098%,0%,18.431373%);fill-opacity:1;" d="M 7.28125 22.574219 L 12 12 L 1.425781 7.28125 L 1.425781 18.394531 C 1.425781 20.710938 3.289062 22.578125 5.605469 22.574219 Z M 7.28125 22.574219 "/>
<path style=" stroke:none;fill-rule:evenodd;fill:rgb(76.470588%,15.686275%,22.745098%);fill-opacity:1;" d="M 22.574219 16.71875 L 12 12 L 7.28125 22.574219 L 18.394531 22.574219 C 20.710938 22.578125 22.578125 20.710938 22.574219 18.394531 Z M 22.574219 16.71875 "/>
<path style=" stroke:none;fill-rule:evenodd;fill:rgb(62.745098%,0%,18.431373%);fill-opacity:1;" d="M 16.71875 1.425781 L 12 12 L 22.574219 16.71875 L 22.574219 5.605469 C 22.578125 3.289062 20.710938 1.425781 18.394531 1.425781 Z M 16.71875 1.425781 "/>
<path style=" stroke:none;fill-rule:evenodd;fill:rgb(76.470588%,15.686275%,22.745098%);fill-opacity:1;" d="M 1.425781 7.28125 L 12 12 L 16.71875 1.425781 L 5.605469 1.425781 C 3.289062 1.425781 1.421875 3.289062 1.421875 5.605469 Z M 1.425781 7.28125 "/>
<path style=" stroke:none;fill-rule:nonzero;fill:rgb(100%,100%,100%);fill-opacity:1;" d="M 9.25 19.683594 C 9.28125 19.648438 9.386719 19.578125 9.488281 19.527344 C 9.660156 19.4375 9.6875 19.429688 10.085938 19.394531 C 10.597656 19.351562 11 19.273438 11.179688 19.1875 C 11.449219 19.058594 11.613281 18.828125 11.699219 18.4375 C 11.738281 18.265625 11.746094 18.070312 11.753906 17.238281 C 11.765625 16.214844 11.726562 14.78125 11.683594 14.558594 C 11.636719 14.324219 11.597656 14.277344 11.183594 13.96875 C 10.734375 13.636719 10.195312 13.117188 9.953125 12.789062 C 9.519531 12.195312 9.277344 11.589844 9.15625 10.785156 C 9.121094 10.566406 9.109375 10.332031 9.109375 9.894531 C 9.109375 8.910156 9.199219 8.277344 9.625 6.292969 C 9.777344 5.574219 9.820312 5.421875 9.90625 5.328125 L 9.957031 5.269531 L 14.03125 5.269531 L 14.085938 5.328125 C 14.164062 5.410156 14.203125 5.554688 14.378906 6.371094 C 14.863281 8.605469 14.976562 9.71875 14.828125 10.785156 C 14.644531 12.125 14.019531 13.085938 12.699219 14.046875 C 12.539062 14.164062 12.390625 14.292969 12.371094 14.332031 C 12.304688 14.460938 12.277344 14.6875 12.253906 15.285156 C 12.21875 16.144531 12.21875 17.925781 12.25 18.195312 C 12.328125 18.796875 12.5 19.070312 12.890625 19.222656 C 13.058594 19.289062 13.417969 19.351562 13.910156 19.394531 C 14.277344 19.429688 14.324219 19.441406 14.492188 19.523438 C 14.59375 19.574219 14.703125 19.644531 14.738281 19.679688 L 14.800781 19.746094 L 9.1875 19.746094 Z M 9.25 19.683594 "/>
<path style=" stroke:none;fill-rule:nonzero;fill:rgb(73.333333%,0%,18.431373%);fill-opacity:1;" d="M 9.496094 10.257812 C 9.355469 14.167969 14.214844 15.15625 14.574219 10.261719 C 13.453125 11.882812 10.722656 8.753906 9.496094 10.257812 Z M 9.496094 10.257812 "/>
<path style=" stroke:none;fill-rule:nonzero;fill:rgb(98.039216%,38.431373%,34.117647%);fill-opacity:1;" d="M 20.472656 16.511719 C 20.472656 18.582031 18.792969 20.261719 16.722656 20.261719 C 14.652344 20.261719 12.972656 18.582031 12.972656 16.511719 C 12.972656 14.441406 14.652344 12.761719 16.722656 12.761719 C 18.792969 12.761719 20.472656 14.441406 20.472656 16.511719 Z M 20.472656 16.511719 "/>
<path style=" stroke:none;fill-rule:nonzero;fill:rgb(100%,100%,100%);fill-opacity:1;" d="M 16.722656 18.054688 L 15.273438 18.855469 L 15.550781 17.160156 L 14.378906 15.957031 L 16 15.710938 L 16.722656 14.167969 L 17.449219 15.710938 L 19.066406 15.957031 L 17.894531 17.160156 L 18.171875 18.855469 Z M 16.722656 18.054688 "/>
</g>
</svg>
