<?xml version="1.0" encoding="UTF-8"?>
<svg xmlns="http://www.w3.org/2000/svg" xmlns:xlink="http://www.w3.org/1999/xlink" width="24pt" height="24pt" viewBox="0 0 24 24" version="1.1">
<g id="surface1">
<path style="fill:none;stroke-width:0.914724;stroke-linecap:butt;stroke-linejoin:miter;stroke:rgb(100%,100%,100%);stroke-opacity:1;stroke-miterlimit:4.5;" d="M 23.869792 8.432292 C 23.885417 11.520833 23.927083 13.963542 23.927083 16.536458 C 23.927083 20.958333 20.34375 24.541667 15.921875 24.541667 C 11.5 24.541667 7.911458 20.958333 7.911458 16.536458 C 7.911458 12.109375 11.5 8.526042 15.989583 8.515625 C 19.041667 8.369792 21.90625 8.416667 23.869792 8.432292 Z M 23.869792 8.432292 " transform="matrix(0.75,0,0,0.75,0,0)"/>
<path style=" stroke:none;fill-rule:evenodd;fill:rgb(0%,49.411765%,100%);fill-opacity:1;" d="M 5.605469 1.421875 L 18.394531 1.421875 C 20.703125 1.421875 22.578125 3.296875 22.578125 5.605469 L 22.578125 18.394531 C 22.578125 20.703125 20.703125 22.578125 18.394531 22.578125 L 5.605469 22.578125 C 3.296875 22.578125 1.421875 20.703125 1.421875 18.394531 L 1.421875 5.605469 C 1.421875 3.296875 3.296875 1.421875 5.605469 1.421875 Z M 5.605469 1.421875 "/>
<path style=" stroke:none;fill-rule:evenodd;fill:rgb(0%,49.411765%,100%);fill-opacity:1;" d="M 6.914062 22.578125 L 18.394531 22.578125 C 20.710938 22.578125 22.578125 20.710938 22.578125 18.394531 L 22.578125 5.605469 C 22.578125 3.289062 20.710938 1.425781 18.394531 1.425781 L 6.914062 1.425781 Z M 6.914062 22.578125 "/>
<path style=" stroke:none;fill-rule:evenodd;fill:rgb(0%,36.862745%,63.921569%);fill-opacity:1;" d="M 6.914062 22.578125 L 6.914062 1.425781 L 5.605469 1.425781 C 3.289062 1.425781 1.425781 3.289062 1.425781 5.605469 L 1.425781 18.394531 C 1.425781 20.710938 3.289062 22.578125 5.605469 22.578125 Z M 6.914062 22.578125 "/>
<path style=" stroke:none;fill-rule:nonzero;fill:rgb(100%,100%,100%);fill-opacity:1;" d="M 14.742188 6.539062 C 14.011719 6.539062 13.410156 7.140625 13.410156 7.871094 C 13.410156 8.59375 13.992188 9.203125 14.726562 9.203125 C 15.460938 9.203125 16.074219 8.601562 16.074219 7.871094 C 16.074219 7.140625 15.472656 6.539062 14.742188 6.539062 Z M 15.917969 9.96875 L 15.363281 10 L 12.253906 10.183594 L 12.253906 11.800781 L 13.488281 11.800781 C 13.539062 11.800781 13.546875 11.804688 13.578125 11.808594 C 13.566406 11.800781 13.5625 11.777344 13.5625 11.972656 L 13.5625 15.855469 C 13.5625 15.917969 13.558594 15.917969 13.558594 15.949219 C 13.550781 15.9375 13.421875 15.980469 13.042969 15.980469 L 12.421875 15.980469 L 12.421875 17.53125 L 17.074219 17.53125 L 17.074219 15.980469 L 16.453125 15.980469 C 16.066406 15.980469 15.933594 15.9375 15.925781 15.949219 C 15.925781 15.917969 15.917969 15.914062 15.917969 15.855469 Z M 15.917969 9.96875 "/>
</g>
</svg>
