<?xml version="1.0" encoding="UTF-8"?>
<svg xmlns="http://www.w3.org/2000/svg" xmlns:xlink="http://www.w3.org/1999/xlink" width="24pt" height="24pt" viewBox="0 0 24 24" version="1.1">
<g id="surface1">
<path style=" stroke:none;fill-rule:evenodd;fill:rgb(30.980392%,30.980392%,30.980392%);fill-opacity:1;" d="M 5.605469 1.421875 L 18.394531 1.421875 C 20.703125 1.421875 22.578125 3.296875 22.578125 5.605469 L 22.578125 18.394531 C 22.578125 20.703125 20.703125 22.578125 18.394531 22.578125 L 5.605469 22.578125 C 3.296875 22.578125 1.421875 20.703125 1.421875 18.394531 L 1.421875 5.605469 C 1.421875 3.296875 3.296875 1.421875 5.605469 1.421875 Z M 5.605469 1.421875 "/>
<path style=" stroke:none;fill-rule:nonzero;fill:rgb(93.333333%,30.980392%,27.843137%);fill-opacity:1;" d="M 15.386719 7.714844 C 15.070312 7.730469 14.714844 7.804688 14.316406 7.921875 L 13.972656 7.710938 L 7.394531 11.65625 C 8.398438 11.273438 9.238281 11.089844 9.75 11.050781 L 8.050781 12.972656 L 9.371094 12.25 C 8.832031 13.757812 8.195312 15.167969 6.738281 15.8125 C 6.730469 15.832031 6.726562 15.855469 6.722656 15.875 C 7.832031 17.117188 9.335938 18 11.050781 18.238281 L 11.988281 19.535156 L 12.023438 19.523438 L 12.949219 18.238281 C 14.753906 17.984375 16.335938 17.023438 17.457031 15.671875 C 17.402344 15.660156 17.34375 15.648438 17.261719 15.652344 C 15.183594 15.667969 13.515625 15.332031 13.316406 13.0625 C 13.261719 12.773438 13.214844 10.925781 16.277344 10.011719 C 15.96875 9.8125 14.941406 9.800781 14.210938 9.796875 C 14.179688 9.527344 14.242188 8.5 16.605469 8.367188 C 16.234375 8.011719 15.921875 7.6875 15.386719 7.714844 Z M 13.414062 8.511719 C 13.566406 8.574219 13.585938 8.667969 13.613281 8.765625 C 13.351562 8.816406 12.976562 8.9375 12.875 8.800781 C 12.828125 8.753906 13.152344 8.582031 13.417969 8.515625 Z M 13.414062 8.511719 "/>
<path style=" stroke:none;fill-rule:nonzero;fill:rgb(18.823529%,60.784314%,90.980392%);fill-opacity:1;" d="M 8.402344 4.421875 C 5.476562 5.738281 3.449219 8.601562 3.449219 11.929688 C 3.449219 16.503906 7.277344 20.210938 12 20.210938 C 16.722656 20.210938 20.550781 16.503906 20.550781 11.929688 C 20.550781 8.640625 18.574219 5.804688 15.707031 4.476562 L 15.617188 4.5625 C 17.878906 5.789062 19.238281 8.132812 19.238281 10.824219 C 19.238281 14.4375 16.539062 17.738281 12.949219 18.238281 L 12 19.550781 L 11.050781 18.238281 C 7.460938 17.738281 4.761719 14.4375 4.761719 10.824219 C 4.761719 8.101562 6.152344 5.742188 8.453125 4.523438 C 8.441406 4.492188 8.417969 4.457031 8.402344 4.421875 "/>
</g>
</svg>
