<?xml version="1.0" encoding="UTF-8"?>
<svg xmlns="http://www.w3.org/2000/svg" xmlns:xlink="http://www.w3.org/1999/xlink" width="24pt" height="24pt" viewBox="0 0 24 24" version="1.1">
<g id="surface1">
<path style=" stroke:none;fill-rule:evenodd;fill:rgb(91.372549%,65.882353%,29.019608%);fill-opacity:1;" d="M 5.605469 1.421875 L 18.394531 1.421875 C 20.703125 1.421875 22.578125 3.296875 22.578125 5.605469 L 22.578125 18.394531 C 22.578125 20.703125 20.703125 22.578125 18.394531 22.578125 L 5.605469 22.578125 C 3.296875 22.578125 1.421875 20.703125 1.421875 18.394531 L 1.421875 5.605469 C 1.421875 3.296875 3.296875 1.421875 5.605469 1.421875 Z M 5.605469 1.421875 "/>
<path style=" stroke:none;fill-rule:nonzero;fill:rgb(64.313725%,46.27451%,20.392157%);fill-opacity:1;" d="M 6 5.25 C 5.375 5.25 4.875 5.75 4.875 6.375 L 4.875 17.625 C 4.875 18.25 5.375 18.75 6 18.75 C 6.625 18.75 7.125 18.25 7.125 17.625 L 7.125 6.375 C 7.125 5.75 6.625 5.25 6 5.25 Z M 6 5.25 "/>
<path style=" stroke:none;fill-rule:nonzero;fill:rgb(100%,100%,100%);fill-opacity:1;" d="M 7.875 9.375 C 7.875 10.410156 7.035156 11.25 6 11.25 C 4.964844 11.25 4.125 10.410156 4.125 9.375 C 4.125 8.339844 4.964844 7.5 6 7.5 C 7.035156 7.5 7.875 8.339844 7.875 9.375 Z M 7.875 9.375 "/>
<path style=" stroke:none;fill-rule:nonzero;fill:rgb(64.313725%,46.27451%,20.392157%);fill-opacity:1;" d="M 18 5.25 C 17.375 5.25 16.875 5.75 16.875 6.375 L 16.875 17.625 C 16.875 18.25 17.375 18.75 18 18.75 C 18.625 18.75 19.125 18.25 19.125 17.625 L 19.125 6.375 C 19.125 5.75 18.625 5.25 18 5.25 Z M 18 5.25 "/>
<path style=" stroke:none;fill-rule:nonzero;fill:rgb(100%,100%,100%);fill-opacity:1;" d="M 19.875 11.625 C 19.875 12.660156 19.035156 13.5 18 13.5 C 16.964844 13.5 16.125 12.660156 16.125 11.625 C 16.125 10.589844 16.964844 9.75 18 9.75 C 19.035156 9.75 19.875 10.589844 19.875 11.625 Z M 19.875 11.625 "/>
<path style=" stroke:none;fill-rule:nonzero;fill:rgb(64.313725%,46.27451%,20.392157%);fill-opacity:1;" d="M 12 5.25 C 11.375 5.25 10.875 5.75 10.875 6.375 L 10.875 17.625 C 10.875 18.25 11.375 18.75 12 18.75 C 12.625 18.75 13.125 18.25 13.125 17.625 L 13.125 6.375 C 13.125 5.75 12.625 5.25 12 5.25 Z M 12 5.25 "/>
<path style=" stroke:none;fill-rule:nonzero;fill:rgb(100%,100%,100%);fill-opacity:1;" d="M 13.875 14.625 C 13.875 15.660156 13.035156 16.5 12 16.5 C 10.964844 16.5 10.125 15.660156 10.125 14.625 C 10.125 13.589844 10.964844 12.75 12 12.75 C 13.035156 12.75 13.875 13.589844 13.875 14.625 Z M 13.875 14.625 "/>
</g>
</svg>
