<?xml version="1.0" encoding="UTF-8"?>
<svg xmlns="http://www.w3.org/2000/svg" xmlns:xlink="http://www.w3.org/1999/xlink" width="24pt" height="24pt" viewBox="0 0 24 24" version="1.1">
<g id="surface1">
<path style=" stroke:none;fill-rule:evenodd;fill:rgb(85.098039%,16.078431%,16.078431%);fill-opacity:1;" d="M 5.605469 1.421875 L 18.394531 1.421875 C 20.703125 1.421875 22.578125 3.296875 22.578125 5.605469 L 22.578125 18.394531 C 22.578125 20.703125 20.703125 22.578125 18.394531 22.578125 L 5.605469 22.578125 C 3.296875 22.578125 1.421875 20.703125 1.421875 18.394531 L 1.421875 5.605469 C 1.421875 3.296875 3.296875 1.421875 5.605469 1.421875 Z M 5.605469 1.421875 "/>
<path style="fill:none;stroke-width:2;stroke-linecap:round;stroke-linejoin:round;stroke:rgb(100%,53.72549%,36.862745%);stroke-opacity:1;stroke-miterlimit:4;" d="M 6.015604 12.897866 L 13.71352 12.897866 L 6.71352 22.002033 L 14.416645 22.002033 " transform="matrix(0.75,0,0,0.75,0.0000159334,-0.00543104)"/>
<path style="fill:none;stroke-width:2;stroke-linecap:round;stroke-linejoin:round;stroke:rgb(100%,53.72549%,36.862745%);stroke-opacity:1;stroke-miterlimit:4;" d="M 16.999979 22.002033 L 16.999979 10.002033 L 21.499979 17.002033 L 25.999979 10.002033 L 25.999979 21.986408 " transform="matrix(0.75,0,0,0.75,0.0000159334,-0.00543104)"/>
</g>
</svg>
