<?xml version="1.0" encoding="UTF-8"?>
<svg xmlns="http://www.w3.org/2000/svg" xmlns:xlink="http://www.w3.org/1999/xlink" width="24pt" height="24pt" viewBox="0 0 24 24" version="1.1">
<g id="surface1">
<path style=" stroke:none;fill-rule:evenodd;fill:rgb(92.54902%,54.117647%,16.862745%);fill-opacity:1;" d="M 5.605469 1.421875 L 18.394531 1.421875 C 20.703125 1.421875 22.578125 3.296875 22.578125 5.605469 L 22.578125 18.394531 C 22.578125 20.703125 20.703125 22.578125 18.394531 22.578125 L 5.605469 22.578125 C 3.296875 22.578125 1.421875 20.703125 1.421875 18.394531 L 1.421875 5.605469 C 1.421875 3.296875 3.296875 1.421875 5.605469 1.421875 Z M 5.605469 1.421875 "/>
<path style=" stroke:none;fill-rule:nonzero;fill:rgb(68.627451%,68.627451%,69.411765%);fill-opacity:1;" d="M 9.972656 11.445312 L 14.027344 11.445312 L 14.027344 17.480469 L 12 19.554688 L 9.972656 17.480469 Z M 9.972656 11.445312 "/>
<path style=" stroke:none;fill-rule:nonzero;fill:rgb(80%,80%,80%);fill-opacity:1;" d="M 9.972656 11.445312 L 12 11.445312 L 12 19.554688 L 9.972656 17.480469 Z M 9.972656 11.445312 "/>
<path style=" stroke:none;fill-rule:nonzero;fill:rgb(90.196078%,90.196078%,90.196078%);fill-opacity:1;" d="M 17.066406 10.6875 C 17.066406 11.386719 16.417969 11.953125 15.621094 11.953125 L 8.378906 11.953125 C 7.582031 11.953125 6.933594 11.386719 6.933594 10.6875 C 6.933594 9.988281 7.582031 9.421875 8.378906 9.421875 L 15.621094 9.421875 C 16.417969 9.421875 17.066406 9.988281 17.066406 10.6875 Z M 17.066406 10.6875 "/>
<path style=" stroke:none;fill-rule:nonzero;fill:rgb(81.960784%,21.960784%,3.137255%);fill-opacity:1;" d="M 10.480469 5.878906 L 13.519531 5.878906 L 13.519531 9.425781 L 10.480469 9.425781 Z M 10.480469 5.878906 "/>
<path style=" stroke:none;fill-rule:nonzero;fill:rgb(90.196078%,90.196078%,90.196078%);fill-opacity:1;" d="M 10.308594 5.359375 L 13.6875 5.359375 C 14.152344 5.359375 14.53125 5.703125 14.53125 6.121094 C 14.53125 6.542969 14.152344 6.882812 13.6875 6.882812 L 10.308594 6.882812 C 9.84375 6.882812 9.464844 6.542969 9.464844 6.121094 C 9.464844 5.703125 9.84375 5.359375 10.308594 5.359375 Z M 10.308594 5.359375 "/>
</g>
</svg>
