<?xml version="1.0" encoding="UTF-8"?>
<svg xmlns="http://www.w3.org/2000/svg" xmlns:xlink="http://www.w3.org/1999/xlink" width="24pt" height="24pt" viewBox="0 0 24 24" version="1.1">
<g id="surface1">
<path style=" stroke:none;fill-rule:evenodd;fill:rgb(42.745098%,89.803922%,53.333333%);fill-opacity:1;" d="M 5.605469 1.421875 L 18.394531 1.421875 C 20.703125 1.421875 22.578125 3.296875 22.578125 5.605469 L 22.578125 18.394531 C 22.578125 20.703125 20.703125 22.578125 18.394531 22.578125 L 5.605469 22.578125 C 3.296875 22.578125 1.421875 20.703125 1.421875 18.394531 L 1.421875 5.605469 C 1.421875 3.296875 3.296875 1.421875 5.605469 1.421875 Z M 5.605469 1.421875 "/>
<path style=" stroke:none;fill-rule:nonzero;fill:rgb(0%,58.823529%,53.333333%);fill-opacity:1;" d="M 4.957031 5.539062 L 4.957031 17.726562 C 4.957031 18.832031 6.066406 18.832031 6.066406 18.832031 L 20.464844 18.832031 Z M 7.726562 11.5625 L 12.980469 16.0625 L 7.726562 16.0625 Z M 7.726562 11.5625 "/>
<path style=" stroke:none;fill-rule:evenodd;fill:rgb(63.529412%,63.529412%,63.529412%);fill-opacity:1;" d="M 11.636719 10.523438 C 11.925781 10.535156 12.191406 10.695312 12.332031 10.953125 L 16.484375 18.429688 L 16.589844 20.496094 L 15.03125 19.238281 L 11.605469 13.066406 L 11.605469 10.527344 C 11.613281 10.527344 11.625 10.523438 11.636719 10.523438 Z M 11.636719 10.523438 "/>
<path style=" stroke:none;fill-rule:nonzero;fill:rgb(80%,80%,80%);fill-opacity:1;" d="M 11.574219 10.523438 C 11.28125 10.535156 11.019531 10.695312 10.878906 10.953125 L 6.722656 18.429688 L 6.621094 20.496094 L 8.175781 19.238281 L 8.761719 18.1875 C 9.648438 18.609375 10.621094 18.832031 11.605469 18.832031 C 15.273438 18.832031 18.25 15.855469 18.25 12.1875 L 16.589844 12.1875 C 16.589844 14.9375 14.355469 17.171875 11.605469 17.171875 C 10.902344 17.167969 10.210938 17.015625 9.570312 16.726562 L 11.605469 13.066406 L 11.605469 10.527344 C 11.59375 10.527344 11.582031 10.523438 11.574219 10.523438 Z M 11.574219 10.523438 "/>
<path style=" stroke:none;fill-rule:nonzero;fill:rgb(30.980392%,30.980392%,30.980392%);fill-opacity:1;" d="M 10.496094 7.203125 L 10.496094 8.863281 L 9.941406 8.863281 C 8.835938 8.863281 8.835938 9.96875 8.835938 9.96875 L 8.835938 12.738281 C 8.835938 12.738281 10.21875 14.125 10.773438 14.679688 C 11.269531 15.066406 12.097656 15.097656 12.527344 14.585938 L 14.375 12.738281 L 14.375 9.96875 C 14.375 9.96875 14.375 8.863281 13.265625 8.863281 L 12.710938 8.863281 L 12.710938 7.203125 Z M 10.496094 7.203125 "/>
<path style=" stroke:none;fill-rule:nonzero;fill:rgb(100%,100%,100%);fill-opacity:1;" d="M 12.710938 11.078125 C 12.710938 11.691406 12.214844 12.1875 11.605469 12.1875 C 10.992188 12.1875 10.496094 11.691406 10.496094 11.078125 C 10.496094 10.464844 10.992188 9.96875 11.605469 9.96875 C 12.214844 9.96875 12.710938 10.464844 12.710938 11.078125 Z M 12.710938 11.078125 "/>
</g>
</svg>
