<?xml version="1.0" encoding="UTF-8"?>
<svg xmlns="http://www.w3.org/2000/svg" xmlns:xlink="http://www.w3.org/1999/xlink" width="24pt" height="24pt" viewBox="0 0 24 24" version="1.1">
<g id="surface1">
<path style=" stroke:none;fill-rule:evenodd;fill:rgb(29.803922%,45.882353%,56.470588%);fill-opacity:1;" d="M 5.605469 1.421875 L 18.394531 1.421875 C 20.703125 1.421875 22.578125 3.296875 22.578125 5.605469 L 22.578125 18.394531 C 22.578125 20.703125 20.703125 22.578125 18.394531 22.578125 L 5.605469 22.578125 C 3.296875 22.578125 1.421875 20.703125 1.421875 18.394531 L 1.421875 5.605469 C 1.421875 3.296875 3.296875 1.421875 5.605469 1.421875 Z M 5.605469 1.421875 "/>
<path style="fill-rule:nonzero;fill:rgb(37.254902%,30.196078%,21.568627%);fill-opacity:1;stroke-width:1;stroke-linecap:butt;stroke-linejoin:miter;stroke:rgb(37.254902%,30.196078%,21.568627%);stroke-opacity:1;stroke-miterlimit:4;" d="M -450.497619 76.261629 L -449.402754 87.786532 L -443.064057 95.911588 C -425.776704 98.274193 -428.485056 90.091512 -431.020534 82.02408 C -426.871569 50.272974 -317.615494 -42.156743 -268.980406 -92.059571 L -285.345768 -108.424932 Z M -450.497619 76.261629 " transform="matrix(0.067788,0,0,0.067788,34.940673,13.197565)"/>
<path style="fill-rule:nonzero;fill:rgb(50.196078%,40.392157%,28.627451%);fill-opacity:1;stroke-width:1;stroke-linecap:butt;stroke-linejoin:miter;stroke:rgb(50.196078%,40.392157%,28.627451%);stroke-opacity:1;stroke-miterlimit:4;" d="M -450.497619 76.261629 L -285.345768 -108.424932 L -296.87067 -119.89221 L -387.341154 -29.421726 C -382.500695 -20.317053 -384.920925 -9.829392 -395.581459 2.271756 L -451.534861 65.716343 Z M -450.497619 76.261629 " transform="matrix(0.067788,0,0,0.067788,34.940673,13.197565)"/>
<path style=" stroke:none;fill-rule:nonzero;fill:rgb(0%,0%,0%);fill-opacity:1;" d="M 15.894531 6.003906 C 15.53125 5.621094 15.199219 5.265625 14.859375 4.976562 C 15.007812 5.132812 15.160156 5.292969 15.316406 5.457031 C 15.488281 5.628906 15.667969 5.804688 15.863281 5.976562 C 15.871094 5.984375 15.886719 5.992188 15.894531 6.003906 Z M 15.894531 6.003906 "/>
<path style="fill-rule:nonzero;fill:rgb(77.647059%,77.254902%,79.215686%);fill-opacity:1;stroke-width:0.090384;stroke-linecap:butt;stroke-linejoin:miter;stroke:rgb(77.647059%,77.254902%,79.215686%);stroke-opacity:1;stroke-miterlimit:4;" d="M 24.822917 15.53125 L 23.890625 14.614583 C 23.838542 14.677083 23.786458 14.744792 23.734375 14.802083 C 23.552083 14.989583 23.359375 15.161458 23.166667 15.322917 C 22.973958 15.484375 22.776042 15.635417 22.578125 15.770833 C 22.380208 15.90625 22.182292 16.03125 21.984375 16.145833 C 21.786458 16.260417 21.588542 16.364583 21.395833 16.458333 C 21.015625 16.645833 20.651042 16.796875 20.333333 16.911458 C 20.302083 16.921875 20.28125 16.927083 20.25 16.9375 C 20.270833 17.338542 20.229167 17.744792 20.098958 18.161458 C 20.3125 18.109375 23.005208 17.541667 24.822917 15.53125 Z M 24.822917 15.53125 " transform="matrix(0.75,0,0,0.75,0,0)"/>
<path style="fill-rule:nonzero;fill:rgb(87.843137%,87.843137%,88.627451%);fill-opacity:1;stroke-width:0.090384;stroke-linecap:butt;stroke-linejoin:miter;stroke:rgb(87.843137%,87.843137%,88.627451%);stroke-opacity:1;stroke-miterlimit:4;" d="M 25.526042 10.572917 C 25.520833 10.671875 25.526042 10.776042 25.515625 10.869792 C 25.489583 11.213542 25.432292 11.541667 25.359375 11.848958 C 25.286458 12.15625 25.192708 12.447917 25.083333 12.723958 C 24.973958 13 24.848958 13.260417 24.708333 13.505208 C 24.567708 13.75 24.416667 13.979167 24.25 14.197917 C 24.140625 14.34375 24.015625 14.479167 23.890625 14.614583 L 24.822917 15.53125 C 25.833333 14.411458 26.578125 12.859375 26.479167 10.692708 C 26.140625 10.671875 25.828125 10.625 25.526042 10.572917 Z M 25.526042 10.572917 " transform="matrix(0.75,0,0,0.75,0,0)"/>
<path style=" stroke:none;fill-rule:nonzero;fill:rgb(0%,0%,0%);fill-opacity:1;" d="M 11.558594 7.804688 C 11.90625 8.132812 12.199219 8.421875 12.511719 8.726562 C 12.507812 8.722656 12.503906 8.71875 12.5 8.714844 C 12.222656 8.429688 11.878906 8.109375 11.558594 7.804688 Z M 11.558594 7.804688 "/>
<path style="fill-rule:nonzero;fill:rgb(100%,31.372549%,13.72549%);fill-opacity:1;stroke-width:0.090384;stroke-linecap:butt;stroke-linejoin:miter;stroke:rgb(100%,31.372549%,13.72549%);stroke-opacity:1;stroke-miterlimit:4;" d="M 23.875 14.635417 C 24.005208 14.489583 24.135417 14.354167 24.25 14.197917 C 24.416667 13.979167 24.567708 13.75 24.708333 13.505208 C 24.848958 13.260417 24.973958 13 25.083333 12.723958 C 25.192708 12.447917 25.286458 12.15625 25.359375 11.848958 C 25.432292 11.541667 25.489583 11.213542 25.515625 10.869792 C 25.526042 10.776042 25.520833 10.671875 25.526042 10.572917 C 23.453125 10.192708 22.213542 9.067708 21.192708 8.005208 C 21.182292 7.989583 21.161458 7.979167 21.151042 7.96875 C 20.890625 7.739583 20.651042 7.505208 20.421875 7.276042 C 20.213542 7.057292 20.010417 6.84375 19.8125 6.635417 C 19.703125 6.536458 19.588542 6.427083 19.46875 6.34375 L 17.46875 8.348958 Z M 23.875 14.635417 " transform="matrix(0.75,0,0,0.75,0,0)"/>
<path style="fill-rule:nonzero;fill:rgb(80.392157%,16.470588%,0%);fill-opacity:1;stroke-width:0.090384;stroke-linecap:butt;stroke-linejoin:miter;stroke:rgb(80.392157%,16.470588%,0%);stroke-opacity:1;stroke-miterlimit:4;" d="M 23.875 14.635417 L 17.46875 8.348958 L 15.411458 10.40625 C 15.838542 10.8125 16.296875 11.239583 16.666667 11.619792 C 16.671875 11.625 16.677083 11.630208 16.682292 11.635417 C 18.692708 13.567708 20.151042 15.223958 20.25 16.9375 C 20.28125 16.927083 20.302083 16.921875 20.333333 16.911458 C 20.651042 16.796875 21.015625 16.645833 21.395833 16.458333 C 21.588542 16.364583 21.786458 16.260417 21.984375 16.145833 C 22.182292 16.03125 22.380208 15.90625 22.578125 15.770833 C 22.776042 15.635417 22.973958 15.484375 23.166667 15.322917 C 23.359375 15.161458 23.552083 14.989583 23.734375 14.802083 C 23.78125 14.75 23.828125 14.6875 23.875 14.635417 Z M 23.875 14.635417 " transform="matrix(0.75,0,0,0.75,0,0)"/>
</g>
</svg>
