<?xml version="1.0" encoding="UTF-8"?>
<svg xmlns="http://www.w3.org/2000/svg" xmlns:xlink="http://www.w3.org/1999/xlink" width="24pt" height="24pt" viewBox="0 0 24 24" version="1.1">
<g id="surface1">
<path style=" stroke:none;fill-rule:evenodd;fill:rgb(23.529412%,54.901961%,97.254902%);fill-opacity:1;" d="M 5.605469 1.421875 L 18.394531 1.421875 C 20.703125 1.421875 22.578125 3.296875 22.578125 5.605469 L 22.578125 18.394531 C 22.578125 20.703125 20.703125 22.578125 18.394531 22.578125 L 5.605469 22.578125 C 3.296875 22.578125 1.421875 20.703125 1.421875 18.394531 L 1.421875 5.605469 C 1.421875 3.296875 3.296875 1.421875 5.605469 1.421875 Z M 5.605469 1.421875 "/>
<path style=" stroke:none;fill-rule:nonzero;fill:rgb(100%,100%,100%);fill-opacity:1;" d="M 13.160156 4.742188 C 12 4.742188 10.839844 4.742188 10.839844 5.90625 L 10.839844 12.996094 C 10.554688 12.914062 10.261719 12.871094 9.96875 12.871094 C 8.203125 12.871094 6.777344 14.300781 6.777344 16.0625 C 6.777344 17.828125 8.203125 19.257812 9.96875 19.257812 C 11.683594 19.253906 13.097656 17.894531 13.160156 16.179688 C 13.175781 13.992188 13.160156 11.777344 13.160156 9.582031 C 13.160156 6.484375 16.644531 10.546875 17.222656 11.128906 C 17.222656 9.582031 17.222656 4.742188 13.160156 4.742188 Z M 13.160156 4.742188 "/>
</g>
</svg>
