<?xml version="1.0" encoding="UTF-8"?>
<svg xmlns="http://www.w3.org/2000/svg" xmlns:xlink="http://www.w3.org/1999/xlink" width="24pt" height="24pt" viewBox="0 0 24 24" version="1.1">
<g id="surface1">
<path style=" stroke:none;fill-rule:evenodd;fill:rgb(30.980392%,30.980392%,30.980392%);fill-opacity:1;" d="M 5.605469 1.421875 L 18.394531 1.421875 C 20.703125 1.421875 22.578125 3.296875 22.578125 5.605469 L 22.578125 18.394531 C 22.578125 20.703125 20.703125 22.578125 18.394531 22.578125 L 5.605469 22.578125 C 3.296875 22.578125 1.421875 20.703125 1.421875 18.394531 L 1.421875 5.605469 C 1.421875 3.296875 3.296875 1.421875 5.605469 1.421875 Z M 5.605469 1.421875 "/>
<path style=" stroke:none;fill-rule:nonzero;fill:rgb(100%,38.823529%,38.823529%);fill-opacity:1;" d="M 4.6875 3.75 L 10.3125 3.75 C 10.832031 3.75 11.25 4.152344 11.25 4.648438 L 11.25 7.351562 C 11.25 7.847656 10.832031 8.25 10.3125 8.25 L 4.6875 8.25 C 4.167969 8.25 3.75 7.847656 3.75 7.351562 L 3.75 4.648438 C 3.75 4.152344 4.167969 3.75 4.6875 3.75 Z M 4.6875 3.75 "/>
<path style=" stroke:none;fill-rule:nonzero;fill:rgb(100%,38.823529%,38.823529%);fill-opacity:1;" d="M 13.6875 3.75 L 19.3125 3.75 C 19.832031 3.75 20.25 4.152344 20.25 4.648438 L 20.25 7.351562 C 20.25 7.847656 19.832031 8.25 19.3125 8.25 L 13.6875 8.25 C 13.167969 8.25 12.75 7.847656 12.75 7.351562 L 12.75 4.648438 C 12.75 4.152344 13.167969 3.75 13.6875 3.75 Z M 13.6875 3.75 "/>
<path style=" stroke:none;fill-rule:nonzero;fill:rgb(100%,38.823529%,38.823529%);fill-opacity:1;" d="M 9.1875 9.75 L 14.8125 9.75 C 15.332031 9.75 15.75 10.152344 15.75 10.648438 L 15.75 13.351562 C 15.75 13.847656 15.332031 14.25 14.8125 14.25 L 9.1875 14.25 C 8.667969 14.25 8.25 13.847656 8.25 13.351562 L 8.25 10.648438 C 8.25 10.152344 8.667969 9.75 9.1875 9.75 Z M 9.1875 9.75 "/>
<path style=" stroke:none;fill-rule:nonzero;fill:rgb(100%,38.823529%,38.823529%);fill-opacity:1;" d="M 17.625 9.75 L 19.875 9.75 C 20.082031 9.75 20.25 9.917969 20.25 10.125 L 20.25 13.875 C 20.25 14.082031 20.082031 14.25 19.875 14.25 L 17.625 14.25 C 17.417969 14.25 17.25 14.082031 17.25 13.875 L 17.25 10.125 C 17.25 9.917969 17.417969 9.75 17.625 9.75 Z M 17.625 9.75 "/>
<path style=" stroke:none;fill-rule:nonzero;fill:rgb(100%,38.823529%,38.823529%);fill-opacity:1;" d="M 4.6875 15.75 L 10.3125 15.75 C 10.832031 15.75 11.25 16.152344 11.25 16.648438 L 11.25 19.351562 C 11.25 19.847656 10.832031 20.25 10.3125 20.25 L 4.6875 20.25 C 4.167969 20.25 3.75 19.847656 3.75 19.351562 L 3.75 16.648438 C 3.75 16.152344 4.167969 15.75 4.6875 15.75 Z M 4.6875 15.75 "/>
<path style=" stroke:none;fill-rule:nonzero;fill:rgb(100%,38.823529%,38.823529%);fill-opacity:1;" d="M 13.6875 15.75 L 19.3125 15.75 C 19.832031 15.75 20.25 16.152344 20.25 16.648438 L 20.25 19.351562 C 20.25 19.847656 19.832031 20.25 19.3125 20.25 L 13.6875 20.25 C 13.167969 20.25 12.75 19.847656 12.75 19.351562 L 12.75 16.648438 C 12.75 16.152344 13.167969 15.75 13.6875 15.75 Z M 13.6875 15.75 "/>
</g>
</svg>
