<?xml version="1.0" encoding="UTF-8"?>
<svg xmlns="http://www.w3.org/2000/svg" xmlns:xlink="http://www.w3.org/1999/xlink" width="24pt" height="24pt" viewBox="0 0 24 24" version="1.1">
<g id="surface1">
<path style=" stroke:none;fill-rule:evenodd;fill:rgb(30.980392%,30.980392%,30.980392%);fill-opacity:1;" d="M 22.574219 13.089844 L 16.476562 13.089844 L 14.285156 18.011719 C 14.28125 18.023438 14.277344 18.035156 14.269531 18.046875 C 14.253906 18.078125 14.234375 18.113281 14.214844 18.144531 C 14.195312 18.175781 14.175781 18.207031 14.152344 18.234375 C 14.128906 18.265625 14.105469 18.292969 14.078125 18.320312 C 14.054688 18.347656 14.027344 18.375 14 18.398438 C 13.972656 18.425781 13.941406 18.449219 13.910156 18.46875 C 13.882812 18.492188 13.847656 18.511719 13.816406 18.53125 C 13.785156 18.550781 13.75 18.566406 13.714844 18.582031 C 13.679688 18.597656 13.648438 18.609375 13.609375 18.621094 C 13.574219 18.632812 13.539062 18.644531 13.503906 18.652344 C 13.464844 18.660156 13.429688 18.667969 13.390625 18.671875 C 13.355469 18.675781 13.316406 18.679688 13.28125 18.679688 C 13.242188 18.679688 13.203125 18.679688 13.167969 18.675781 C 13.128906 18.671875 13.09375 18.667969 13.054688 18.664062 C 13.019531 18.65625 12.984375 18.644531 12.945312 18.636719 C 12.910156 18.625 12.875 18.613281 12.839844 18.597656 C 12.804688 18.585938 12.769531 18.570312 12.738281 18.554688 C 12.703125 18.535156 12.671875 18.515625 12.640625 18.496094 C 12.609375 18.476562 12.578125 18.453125 12.550781 18.429688 C 12.519531 18.40625 12.492188 18.378906 12.464844 18.355469 C 12.4375 18.328125 12.414062 18.300781 12.390625 18.273438 C 12.367188 18.242188 12.34375 18.214844 12.320312 18.183594 C 12.300781 18.152344 12.28125 18.117188 12.265625 18.085938 C 12.246094 18.050781 12.230469 18.019531 12.21875 17.984375 C 12.203125 17.949219 12.191406 17.914062 12.179688 17.878906 C 12.167969 17.84375 12.160156 17.804688 12.152344 17.769531 L 10.660156 10.097656 L 9.625 12.421875 C 9.617188 12.441406 9.609375 12.457031 9.601562 12.476562 C 9.582031 12.507812 9.5625 12.542969 9.542969 12.574219 C 9.523438 12.605469 9.503906 12.636719 9.480469 12.667969 C 9.457031 12.695312 9.429688 12.722656 9.40625 12.75 C 9.378906 12.777344 9.351562 12.800781 9.324219 12.828125 C 9.292969 12.851562 9.265625 12.875 9.234375 12.894531 C 9.203125 12.917969 9.167969 12.9375 9.136719 12.953125 C 9.101562 12.972656 9.070312 12.988281 9.035156 13.003906 C 9 13.015625 8.964844 13.03125 8.929688 13.042969 C 8.894531 13.050781 8.859375 13.0625 8.820312 13.070312 C 8.785156 13.078125 8.746094 13.082031 8.710938 13.085938 C 8.671875 13.089844 8.636719 13.089844 8.597656 13.089844 L 1.449219 13.089844 C 1.441406 13.089844 1.433594 13.089844 1.425781 13.089844 L 1.425781 18.394531 C 1.425781 20.710938 3.289062 22.578125 5.605469 22.578125 L 18.394531 22.578125 C 20.710938 22.578125 22.578125 20.710938 22.578125 18.394531 Z M 22.574219 13.089844 "/>
<path style=" stroke:none;fill-rule:evenodd;fill:rgb(39.607843%,62.352941%,100%);fill-opacity:1;" d="M 22.574219 10.839844 L 15.742188 10.839844 C 15.707031 10.839844 15.667969 10.84375 15.632812 10.847656 C 15.59375 10.851562 15.558594 10.855469 15.519531 10.863281 C 15.484375 10.871094 15.449219 10.878906 15.410156 10.890625 C 15.375 10.902344 15.339844 10.914062 15.304688 10.929688 C 15.273438 10.945312 15.238281 10.960938 15.203125 10.980469 C 15.171875 10.996094 15.140625 11.015625 15.109375 11.039062 C 15.078125 11.058594 15.046875 11.082031 15.019531 11.105469 C 14.992188 11.128906 14.964844 11.15625 14.9375 11.183594 C 14.910156 11.210938 14.886719 11.238281 14.863281 11.265625 C 14.839844 11.296875 14.816406 11.328125 14.796875 11.359375 C 14.777344 11.390625 14.757812 11.421875 14.742188 11.453125 C 14.730469 11.472656 14.722656 11.488281 14.714844 11.507812 L 13.679688 13.835938 L 12.1875 6.164062 C 12.183594 6.128906 12.171875 6.089844 12.164062 6.054688 C 12.152344 6.019531 12.140625 5.984375 12.125 5.949219 C 12.109375 5.914062 12.09375 5.878906 12.078125 5.847656 C 12.058594 5.816406 12.039062 5.78125 12.015625 5.75 C 11.996094 5.71875 11.972656 5.691406 11.949219 5.660156 C 11.925781 5.632812 11.902344 5.605469 11.875 5.578125 C 11.847656 5.550781 11.820312 5.527344 11.789062 5.503906 C 11.761719 5.480469 11.730469 5.457031 11.699219 5.4375 C 11.667969 5.417969 11.636719 5.398438 11.601562 5.378906 C 11.570312 5.363281 11.535156 5.347656 11.5 5.332031 C 11.464844 5.320312 11.429688 5.308594 11.394531 5.296875 C 11.355469 5.285156 11.320312 5.277344 11.285156 5.273438 C 11.246094 5.265625 11.210938 5.261719 11.171875 5.257812 C 11.136719 5.253906 11.097656 5.253906 11.058594 5.253906 C 11.023438 5.253906 10.984375 5.257812 10.945312 5.261719 C 10.910156 5.265625 10.875 5.273438 10.835938 5.28125 C 10.800781 5.289062 10.765625 5.300781 10.730469 5.3125 C 10.691406 5.324219 10.65625 5.335938 10.625 5.351562 C 10.589844 5.367188 10.554688 5.386719 10.523438 5.402344 C 10.492188 5.421875 10.457031 5.441406 10.429688 5.464844 C 10.398438 5.484375 10.367188 5.507812 10.339844 5.535156 C 10.3125 5.558594 10.285156 5.585938 10.261719 5.613281 C 10.234375 5.640625 10.210938 5.667969 10.1875 5.699219 C 10.164062 5.726562 10.144531 5.757812 10.125 5.792969 C 10.105469 5.824219 10.085938 5.855469 10.070312 5.890625 C 10.066406 5.898438 10.0625 5.910156 10.054688 5.921875 L 7.867188 10.839844 L 1.449219 10.839844 C 1.441406 10.839844 1.433594 10.84375 1.425781 10.84375 L 1.425781 13.089844 C 1.433594 13.089844 1.441406 13.089844 1.449219 13.089844 L 8.597656 13.089844 C 8.636719 13.089844 8.671875 13.089844 8.710938 13.085938 C 8.746094 13.082031 8.785156 13.078125 8.820312 13.070312 C 8.859375 13.0625 8.894531 13.050781 8.929688 13.042969 C 8.964844 13.03125 9 13.015625 9.035156 13.003906 C 9.070312 12.988281 9.101562 12.972656 9.136719 12.953125 C 9.167969 12.9375 9.203125 12.917969 9.234375 12.894531 C 9.265625 12.875 9.292969 12.851562 9.324219 12.828125 C 9.351562 12.800781 9.378906 12.777344 9.40625 12.75 C 9.429688 12.722656 9.457031 12.695312 9.480469 12.667969 C 9.503906 12.636719 9.523438 12.605469 9.542969 12.574219 C 9.5625 12.542969 9.582031 12.511719 9.601562 12.476562 C 9.609375 12.457031 9.617188 12.441406 9.625 12.421875 L 10.660156 10.097656 L 12.152344 17.769531 C 12.160156 17.804688 12.167969 17.84375 12.179688 17.878906 C 12.191406 17.914062 12.203125 17.949219 12.21875 17.984375 C 12.230469 18.019531 12.246094 18.050781 12.265625 18.085938 C 12.28125 18.117188 12.300781 18.152344 12.324219 18.183594 C 12.34375 18.214844 12.367188 18.242188 12.390625 18.273438 C 12.414062 18.300781 12.4375 18.328125 12.464844 18.355469 C 12.492188 18.378906 12.519531 18.40625 12.550781 18.429688 C 12.578125 18.453125 12.609375 18.476562 12.640625 18.496094 C 12.671875 18.515625 12.703125 18.535156 12.738281 18.554688 C 12.769531 18.570312 12.804688 18.585938 12.839844 18.597656 C 12.875 18.613281 12.910156 18.625 12.945312 18.636719 C 12.984375 18.644531 13.019531 18.65625 13.054688 18.664062 C 13.09375 18.667969 13.128906 18.671875 13.167969 18.675781 C 13.203125 18.679688 13.242188 18.679688 13.28125 18.679688 C 13.316406 18.679688 13.355469 18.675781 13.390625 18.671875 C 13.429688 18.667969 13.464844 18.660156 13.503906 18.652344 C 13.539062 18.644531 13.574219 18.632812 13.609375 18.621094 C 13.648438 18.609375 13.679688 18.597656 13.714844 18.582031 C 13.75 18.566406 13.785156 18.550781 13.816406 18.53125 C 13.847656 18.511719 13.882812 18.492188 13.910156 18.46875 C 13.941406 18.449219 13.972656 18.425781 14 18.398438 C 14.027344 18.375 14.054688 18.347656 14.078125 18.324219 C 14.105469 18.292969 14.128906 18.265625 14.152344 18.234375 C 14.175781 18.207031 14.195312 18.175781 14.214844 18.144531 C 14.234375 18.113281 14.253906 18.078125 14.269531 18.046875 C 14.277344 18.035156 14.28125 18.023438 14.285156 18.011719 L 16.476562 13.089844 L 22.578125 13.089844 Z M 22.574219 10.839844 "/>
<path style=" stroke:none;fill-rule:evenodd;fill:rgb(30.980392%,30.980392%,30.980392%);fill-opacity:1;" d="M 5.605469 1.421875 C 3.289062 1.421875 1.421875 3.289062 1.421875 5.605469 L 1.421875 10.84375 C 1.433594 10.84375 1.441406 10.839844 1.449219 10.839844 L 7.867188 10.839844 L 10.054688 5.921875 C 10.0625 5.910156 10.066406 5.898438 10.070312 5.890625 C 10.085938 5.855469 10.105469 5.824219 10.125 5.792969 C 10.144531 5.757812 10.164062 5.726562 10.1875 5.699219 C 10.210938 5.667969 10.234375 5.640625 10.257812 5.613281 C 10.285156 5.585938 10.3125 5.558594 10.339844 5.535156 C 10.367188 5.507812 10.398438 5.484375 10.429688 5.464844 C 10.457031 5.441406 10.492188 5.421875 10.523438 5.402344 C 10.554688 5.386719 10.589844 5.367188 10.621094 5.351562 C 10.65625 5.335938 10.691406 5.324219 10.726562 5.3125 C 10.765625 5.300781 10.800781 5.289062 10.835938 5.28125 C 10.875 5.273438 10.910156 5.265625 10.945312 5.261719 C 10.984375 5.257812 11.023438 5.253906 11.058594 5.253906 C 11.097656 5.253906 11.136719 5.253906 11.171875 5.257812 C 11.210938 5.261719 11.246094 5.265625 11.285156 5.273438 C 11.320312 5.277344 11.355469 5.285156 11.394531 5.296875 C 11.429688 5.308594 11.464844 5.320312 11.5 5.332031 C 11.535156 5.347656 11.570312 5.363281 11.601562 5.378906 C 11.636719 5.398438 11.667969 5.417969 11.699219 5.4375 C 11.730469 5.457031 11.761719 5.480469 11.789062 5.503906 C 11.820312 5.527344 11.847656 5.550781 11.875 5.578125 C 11.902344 5.605469 11.925781 5.632812 11.949219 5.660156 C 11.972656 5.691406 11.996094 5.71875 12.015625 5.75 C 12.039062 5.78125 12.058594 5.8125 12.074219 5.847656 C 12.09375 5.878906 12.109375 5.914062 12.125 5.949219 C 12.140625 5.984375 12.152344 6.019531 12.164062 6.054688 C 12.171875 6.089844 12.183594 6.125 12.1875 6.164062 L 13.679688 13.835938 L 14.714844 11.507812 C 14.722656 11.488281 14.730469 11.472656 14.742188 11.453125 C 14.757812 11.421875 14.777344 11.390625 14.796875 11.359375 C 14.816406 11.328125 14.839844 11.296875 14.863281 11.265625 C 14.886719 11.238281 14.910156 11.210938 14.9375 11.183594 C 14.964844 11.15625 14.992188 11.128906 15.019531 11.105469 C 15.046875 11.082031 15.078125 11.058594 15.109375 11.039062 C 15.140625 11.015625 15.171875 10.996094 15.203125 10.980469 C 15.238281 10.960938 15.273438 10.945312 15.304688 10.929688 C 15.339844 10.914062 15.375 10.902344 15.410156 10.890625 C 15.449219 10.878906 15.484375 10.871094 15.519531 10.863281 C 15.558594 10.855469 15.59375 10.851562 15.632812 10.847656 C 15.667969 10.84375 15.707031 10.839844 15.742188 10.839844 L 22.574219 10.839844 L 22.574219 5.605469 C 22.574219 3.289062 20.710938 1.421875 18.394531 1.421875 Z M 5.605469 1.421875 "/>
</g>
</svg>
