<?xml version="1.0" encoding="UTF-8"?>
<svg xmlns="http://www.w3.org/2000/svg" xmlns:xlink="http://www.w3.org/1999/xlink" width="24pt" height="24pt" viewBox="0 0 24 24" version="1.1">
<g id="surface1">
<path style=" stroke:none;fill-rule:evenodd;fill:rgb(60.784314%,80%,43.137255%);fill-opacity:1;" d="M 5.605469 1.421875 L 18.394531 1.421875 C 20.703125 1.421875 22.578125 3.296875 22.578125 5.605469 L 22.578125 18.394531 C 22.578125 20.703125 20.703125 22.578125 18.394531 22.578125 L 5.605469 22.578125 C 3.296875 22.578125 1.421875 20.703125 1.421875 18.394531 L 1.421875 5.605469 C 1.421875 3.296875 3.296875 1.421875 5.605469 1.421875 Z M 5.605469 1.421875 "/>
<path style=" stroke:none;fill-rule:nonzero;fill:rgb(100%,100%,100%);fill-opacity:1;" d="M 15.824219 5.457031 C 16.863281 5.457031 17.859375 5.882812 18.578125 6.636719 C 18.597656 6.652344 18.613281 6.667969 18.632812 6.6875 C 19.03125 7.085938 19.261719 7.46875 19.363281 7.839844 C 19.546875 8.292969 19.644531 8.773438 19.648438 9.261719 C 19.648438 11.371094 17.933594 13.085938 15.824219 13.085938 C 15.300781 13.082031 14.78125 12.972656 14.300781 12.761719 C 14.261719 12.746094 14.21875 12.726562 14.179688 12.710938 C 14.132812 12.6875 14.082031 12.660156 14.035156 12.636719 C 14.011719 12.625 13.992188 12.617188 13.972656 12.605469 C 10.097656 17.851562 4.351562 18.5625 4.351562 18.5625 L 12.214844 10.535156 C 12.125 10.335938 12.082031 10.148438 12.066406 9.972656 C 12.023438 9.738281 12 9.5 12 9.261719 C 12 7.152344 13.710938 5.441406 15.824219 5.441406 Z M 15.824219 5.457031 "/>
<path style=" stroke:none;fill-rule:nonzero;fill:rgb(28.235294%,53.72549%,29.019608%);fill-opacity:1;" d="M 8.175781 5.457031 C 7.136719 5.457031 6.140625 5.882812 5.421875 6.636719 C 5.402344 6.652344 5.386719 6.667969 5.367188 6.6875 C 4.96875 7.085938 4.738281 7.46875 4.636719 7.839844 C 4.453125 8.292969 4.355469 8.773438 4.351562 9.261719 C 4.351562 11.371094 6.066406 13.085938 8.175781 13.085938 C 8.699219 13.082031 9.21875 12.972656 9.699219 12.761719 C 9.738281 12.746094 9.78125 12.726562 9.820312 12.710938 C 9.867188 12.6875 9.917969 12.660156 9.964844 12.636719 C 9.988281 12.625 10.007812 12.617188 10.027344 12.605469 C 13.902344 17.851562 19.648438 18.5625 19.648438 18.5625 L 11.785156 10.535156 C 11.875 10.335938 11.917969 10.148438 11.933594 9.972656 C 11.976562 9.738281 12 9.5 12 9.261719 C 12 7.152344 10.289062 5.4375 8.175781 5.4375 Z M 8.175781 5.457031 "/>
<path style=" stroke:none;fill-rule:nonzero;fill:rgb(60.784314%,80%,43.137255%);fill-opacity:1;" d="M 9.816406 9.28125 C 9.816406 10.183594 9.082031 10.917969 8.175781 10.917969 C 7.269531 10.917969 6.539062 10.183594 6.539062 9.28125 C 6.539062 8.375 7.269531 7.640625 8.175781 7.640625 C 9.082031 7.640625 9.816406 8.375 9.816406 9.28125 Z M 9.816406 9.28125 "/>
<path style=" stroke:none;fill-rule:nonzero;fill:rgb(97.647059%,97.647059%,97.647059%);fill-opacity:1;" d="M 12.546875 12.558594 C 12.546875 12.859375 12.300781 13.105469 12 13.105469 C 11.699219 13.105469 11.453125 12.859375 11.453125 12.558594 C 11.453125 12.257812 11.699219 12.011719 12 12.011719 C 12.300781 12.011719 12.546875 12.257812 12.546875 12.558594 Z M 12.546875 12.558594 "/>
<path style=" stroke:none;fill-rule:nonzero;fill:rgb(60.784314%,80%,43.137255%);fill-opacity:1;" d="M 17.460938 9.28125 C 17.460938 10.183594 16.730469 10.917969 15.824219 10.917969 C 14.917969 10.917969 14.183594 10.183594 14.183594 9.28125 C 14.183594 8.375 14.917969 7.640625 15.824219 7.640625 C 16.730469 7.640625 17.460938 8.375 17.460938 9.28125 Z M 17.460938 9.28125 "/>
</g>
</svg>
