<?xml version="1.0" encoding="UTF-8"?>
<svg xmlns="http://www.w3.org/2000/svg" xmlns:xlink="http://www.w3.org/1999/xlink" width="24pt" height="24pt" viewBox="0 0 24 24" version="1.1">
<g id="surface1">
<path style=" stroke:none;fill-rule:evenodd;fill:rgb(34.901961%,65.490196%,81.960784%);fill-opacity:1;" d="M 5.605469 1.421875 L 18.394531 1.421875 C 20.703125 1.421875 22.578125 3.296875 22.578125 5.605469 L 22.578125 18.394531 C 22.578125 20.703125 20.703125 22.578125 18.394531 22.578125 L 5.605469 22.578125 C 3.296875 22.578125 1.421875 20.703125 1.421875 18.394531 L 1.421875 5.605469 C 1.421875 3.296875 3.296875 1.421875 5.605469 1.421875 Z M 5.605469 1.421875 "/>
<path style=" stroke:none;fill-rule:nonzero;fill:rgb(100%,100%,100%);fill-opacity:1;" d="M 4.125 7.125 L 4.125 9.375 L 12.160156 9.375 C 12.753906 9.375 13.125 9.695312 13.125 10.195312 L 13.125 13.804688 C 13.125 14.304688 12.753906 14.617188 12.160156 14.625 L 6.386719 14.625 L 6.386719 10.316406 L 4.125 10.316406 L 4.125 16.875 L 13.765625 16.875 C 14.65625 16.875 15.375 16.152344 15.375 15.25 L 15.375 8.75 C 15.375 7.851562 14.65625 7.125 13.765625 7.125 Z M 4.125 7.125 "/>
<path style=" stroke:none;fill-rule:nonzero;fill:rgb(100%,100%,100%);fill-opacity:1;" d="M 17.625 7.125 L 17.625 9.375 L 19.875 9.375 L 19.875 7.125 Z M 17.625 10.125 L 17.625 16.875 L 19.875 16.875 L 19.875 10.125 Z M 17.625 10.125 "/>
</g>
</svg>
