<?xml version="1.0" encoding="UTF-8"?>
<svg xmlns="http://www.w3.org/2000/svg" xmlns:xlink="http://www.w3.org/1999/xlink" width="24pt" height="24pt" viewBox="0 0 24 24" version="1.1">
<g id="surface1">
<path style=" stroke:none;fill-rule:evenodd;fill:rgb(54.117647%,29.411765%,17.254902%);fill-opacity:1;" d="M 5.605469 1.421875 L 18.394531 1.421875 C 20.703125 1.421875 22.578125 3.296875 22.578125 5.605469 L 22.578125 18.394531 C 22.578125 20.703125 20.703125 22.578125 18.394531 22.578125 L 5.605469 22.578125 C 3.296875 22.578125 1.421875 20.703125 1.421875 18.394531 L 1.421875 5.605469 C 1.421875 3.296875 3.296875 1.421875 5.605469 1.421875 Z M 5.605469 1.421875 "/>
<path style=" stroke:none;fill-rule:nonzero;fill:rgb(98.431373%,71.372549%,29.019608%);fill-opacity:1;" d="M 7.289062 20.917969 C 7.300781 20.886719 7.335938 20.679688 7.363281 20.457031 C 7.539062 19.121094 7.527344 18.265625 7.875 17.695312 C 7.9375 17.59375 8.121094 17.359375 8.28125 17.179688 C 8.4375 17 8.566406 16.890625 8.566406 16.867188 C 8.566406 16.839844 8.523438 16.835938 8.417969 16.851562 C 7.929688 16.929688 7.632812 16.839844 7.5 16.613281 C 7.429688 16.492188 7.507812 16.644531 7.5 13.710938 C 7.488281 10.335938 7.523438 10.660156 7.835938 10.503906 C 8.058594 10.390625 8.335938 10.214844 8.582031 10.175781 C 9.003906 10.109375 9.289062 10.421875 9.496094 10.828125 C 9.554688 10.9375 9.617188 11.023438 9.640625 11.015625 C 9.707031 10.992188 9.71875 7.953125 9.65625 7.953125 C 9.628906 7.953125 9.578125 8.027344 9.542969 8.117188 C 9.457031 8.34375 9.25 8.867188 9.007812 8.976562 C 8.75 9.089844 7.933594 9.378906 7.765625 9.378906 C 7.695312 9.378906 7.523438 9.359375 7.5 9.335938 C 7.46875 9.304688 7.5 8.769531 7.5 7.144531 C 7.5 5.964844 7.484375 4.753906 7.5 4.730469 C 7.632812 4.527344 9.6875 4.441406 10.398438 4.597656 C 10.542969 4.632812 10.785156 4.71875 10.941406 4.789062 C 11.339844 4.980469 11.589844 5.332031 11.863281 5.847656 C 11.878906 5.878906 11.914062 5.902344 11.9375 5.902344 C 11.980469 5.902344 11.988281 5.8125 11.996094 4.6875 C 12.003906 3.941406 12 3.074219 11.988281 3.03125 C 11.988281 3.03125 11.601562 3.539062 11.550781 3.640625 L 11.441406 3.734375 L 10.773438 3.71875 C 10.402344 3.714844 8.792969 3.722656 7.464844 3.71875 C 6.140625 3.71875 4.578125 3.738281 4.546875 3.753906 C 4.425781 3.796875 4.546875 3.871094 4.84375 4.035156 C 5.359375 4.3125 5.84375 4.539062 5.96875 5.007812 C 6.042969 5.28125 6.039062 9.164062 5.964844 9.472656 C 5.894531 9.773438 5.652344 9.996094 5.429688 10.234375 C 5.320312 10.351562 5.234375 10.457031 5.234375 10.472656 C 5.234375 10.492188 5.324219 10.589844 5.429688 10.695312 C 5.644531 10.902344 5.925781 11.15625 5.976562 11.367188 C 6.027344 11.570312 6.066406 17.457031 6.019531 17.785156 C 5.972656 18.105469 5.765625 18.246094 5.496094 18.53125 C 5.246094 18.796875 5.246094 18.796875 5.628906 18.941406 C 5.941406 19.058594 6.53125 19.328125 6.652344 19.503906 C 6.773438 19.691406 6.9375 20.039062 7.070312 20.519531 C 7.128906 20.738281 7.1875 20.929688 7.195312 20.945312 C 7.222656 20.988281 7.269531 20.972656 7.289062 20.917969 Z M 7.289062 20.917969 "/>
<path style=" stroke:none;fill-rule:nonzero;fill:rgb(98.431373%,71.372549%,29.019608%);fill-opacity:1;" d="M 13.539062 4.46875 C 13.503906 4.492188 13.496094 4.792969 13.503906 5.765625 C 13.515625 7.175781 13.464844 6.722656 13.757812 6.351562 C 14.160156 5.835938 14.695312 5.972656 14.921875 5.945312 C 15.503906 5.933594 15.644531 5.9375 15.699219 5.992188 C 15.753906 6.050781 15.808594 6.699219 15.761719 7.992188 L 15.761719 9.734375 C 15.761719 9.734375 15.359375 10.050781 15.140625 10.265625 C 15.066406 10.347656 15.007812 10.433594 15.007812 10.460938 C 15.007812 10.484375 15.0625 10.566406 15.125 10.640625 C 15.289062 10.933594 15.742188 11.1875 15.742188 11.1875 L 15.753906 14.191406 C 15.761719 17.472656 15.761719 17.269531 15.683594 17.335938 C 15.683594 17.335938 15.148438 17.898438 15 17.96875 C 15.769531 18.222656 16.078125 18.429688 16.402344 19.132812 C 16.457031 19.304688 16.46875 19.46875 16.5 19.46875 C 16.53125 19.46875 16.542969 19.304688 16.597656 19.132812 C 16.921875 18.429688 17.230469 18.222656 18 17.96875 C 17.851562 17.898438 17.3125 17.335938 17.3125 17.335938 C 17.238281 17.269531 17.238281 17.472656 17.246094 14.191406 L 17.257812 11.1875 C 17.257812 11.1875 17.710938 10.933594 17.875 10.640625 C 17.9375 10.566406 17.992188 10.484375 17.992188 10.460938 C 17.992188 10.433594 17.933594 10.347656 17.859375 10.265625 C 17.640625 10.050781 17.238281 9.734375 17.238281 9.734375 L 17.238281 7.992188 C 17.191406 6.699219 17.246094 6.050781 17.300781 5.992188 C 17.355469 5.9375 17.496094 5.933594 18.074219 5.945312 C 18.304688 5.972656 18.839844 5.835938 19.242188 6.351562 C 19.535156 6.722656 19.484375 7.175781 19.496094 5.765625 C 19.503906 4.792969 19.496094 4.492188 19.460938 4.46875 C 19.328125 4.675781 19.03125 5.207031 19.03125 5.207031 C 18.972656 5.238281 17.933594 5.21875 16.5 5.21875 C 15.066406 5.21875 14.023438 5.238281 13.96875 5.207031 C 13.96875 5.207031 13.671875 4.675781 13.539062 4.46875 Z M 13.539062 4.46875 "/>
</g>
</svg>
