<?xml version="1.0" encoding="UTF-8"?>
<svg xmlns="http://www.w3.org/2000/svg" xmlns:xlink="http://www.w3.org/1999/xlink" width="24pt" height="24pt" viewBox="0 0 24 24" version="1.1">
<g id="surface1">
<path style=" stroke:none;fill-rule:evenodd;fill:rgb(93.333333%,53.333333%,15.294118%);fill-opacity:1;" d="M 5.605469 1.421875 L 18.394531 1.421875 C 20.703125 1.421875 22.578125 3.296875 22.578125 5.605469 L 22.578125 18.394531 C 22.578125 20.703125 20.703125 22.578125 18.394531 22.578125 L 5.605469 22.578125 C 3.296875 22.578125 1.421875 20.703125 1.421875 18.394531 L 1.421875 5.605469 C 1.421875 3.296875 3.296875 1.421875 5.605469 1.421875 Z M 5.605469 1.421875 "/>
<path style=" stroke:none;fill-rule:nonzero;fill:rgb(100%,100%,100%);fill-opacity:1;" d="M 10.421875 7.003906 C 8.96875 7.003906 7.792969 8.179688 7.792969 9.632812 L 7.792969 11.210938 L 7.265625 11.210938 C 5.8125 11.210938 4.636719 12.386719 4.636719 13.839844 L 4.636719 14.367188 C 4.636719 15.820312 5.8125 16.996094 7.265625 16.996094 L 16.734375 16.996094 C 18.1875 16.996094 19.363281 15.820312 19.363281 14.367188 L 19.363281 11.210938 C 19.363281 9.757812 18.1875 8.582031 16.734375 8.582031 L 16.511719 8.582031 C 16.09375 7.621094 15.148438 7.003906 14.105469 7.003906 Z M 10.421875 7.003906 "/>
<path style=" stroke:none;fill-rule:nonzero;fill:rgb(93.333333%,53.333333%,15.294118%);fill-opacity:1;" d="M 10.421875 9.632812 L 10.421875 11.738281 L 16.207031 11.738281 L 16.207031 13.839844 L 7.265625 13.839844 L 7.265625 14.367188 L 16.734375 14.367188 L 16.734375 11.210938 L 10.949219 11.210938 L 10.949219 10.160156 L 14.105469 10.160156 L 14.105469 9.632812 Z M 10.421875 9.632812 "/>
</g>
</svg>
