<?xml version="1.0" encoding="UTF-8"?>
<svg xmlns="http://www.w3.org/2000/svg" xmlns:xlink="http://www.w3.org/1999/xlink" width="24pt" height="24pt" viewBox="0 0 24 24" version="1.1">
<g id="surface1">
<path style=" stroke:none;fill-rule:evenodd;fill:rgb(20.392157%,39.607843%,64.313725%);fill-opacity:1;" d="M 5.605469 1.421875 L 18.394531 1.421875 C 20.703125 1.421875 22.578125 3.296875 22.578125 5.605469 L 22.578125 18.394531 C 22.578125 20.703125 20.703125 22.578125 18.394531 22.578125 L 5.605469 22.578125 C 3.296875 22.578125 1.421875 20.703125 1.421875 18.394531 L 1.421875 5.605469 C 1.421875 3.296875 3.296875 1.421875 5.605469 1.421875 Z M 5.605469 1.421875 "/>
<path style=" stroke:none;fill-rule:evenodd;fill:rgb(100%,100%,100%);fill-opacity:1;" d="M 6.375 9.375 C 6.375 9.375 6.015625 9.367188 5.644531 9.554688 C 5.273438 9.742188 4.875 10.1875 4.875 10.875 L 5.625 10.875 C 5.625 10.125 6.375 10.125 6.375 10.125 C 6.375 10.125 7.125 10.125 7.125 10.875 C 7.125 11.15625 7.03125 11.367188 6.851562 11.59375 C 6.675781 11.820312 6.417969 12.039062 6.136719 12.273438 C 5.855469 12.507812 5.550781 12.757812 5.304688 13.070312 C 5.0625 13.382812 4.875 13.78125 4.875 14.25 L 4.875 14.625 L 7.875 14.625 L 7.875 13.875 L 5.695312 13.875 C 5.738281 13.757812 5.808594 13.644531 5.898438 13.53125 C 6.074219 13.308594 6.332031 13.085938 6.613281 12.851562 C 6.894531 12.617188 7.199219 12.371094 7.445312 12.054688 C 7.6875 11.742188 7.875 11.34375 7.875 10.875 C 7.875 10.1875 7.476562 9.742188 7.105469 9.554688 C 6.734375 9.371094 6.375 9.375 6.375 9.375 Z M 6.375 9.375 "/>
<path style=" stroke:none;fill-rule:nonzero;fill:rgb(100%,100%,100%);fill-opacity:1;" d="M 10.125 9.375 C 9.300781 9.375 8.625 10.050781 8.625 10.875 L 8.625 13.125 C 8.625 13.949219 9.300781 14.625 10.125 14.625 C 10.949219 14.625 11.625 13.949219 11.625 13.125 L 11.625 10.875 C 11.625 10.050781 10.949219 9.375 10.125 9.375 Z M 10.125 10.125 C 10.546875 10.125 10.875 10.453125 10.875 10.875 L 10.875 13.125 C 10.875 13.546875 10.546875 13.875 10.125 13.875 C 9.703125 13.875 9.375 13.546875 9.375 13.125 L 9.375 10.875 C 9.375 10.453125 9.703125 10.125 10.125 10.125 Z M 10.125 10.125 "/>
<path style=" stroke:none;fill-rule:evenodd;fill:rgb(100%,100%,100%);fill-opacity:1;" d="M 13.125 9.375 L 13.125 11.625 L 14.625 11.625 L 14.625 9.375 L 15.375 9.375 L 15.375 14.625 L 14.625 14.625 L 14.625 12.375 L 12.375 12.375 L 12.375 9.375 L 13.125 9.375 "/>
<path style=" stroke:none;fill-rule:nonzero;fill:rgb(100%,100%,100%);fill-opacity:1;" d="M 17.625 9.375 C 16.800781 9.375 16.125 10.050781 16.125 10.875 C 16.125 11.324219 16.328125 11.722656 16.644531 12 C 16.328125 12.277344 16.125 12.675781 16.125 13.125 C 16.125 13.949219 16.800781 14.625 17.625 14.625 C 18.449219 14.625 19.125 13.949219 19.125 13.125 C 19.125 12.675781 18.921875 12.277344 18.605469 12 C 18.921875 11.722656 19.125 11.324219 19.125 10.875 C 19.125 10.050781 18.449219 9.375 17.625 9.375 Z M 17.625 10.125 C 18.046875 10.125 18.375 10.453125 18.375 10.875 C 18.375 11.296875 18.046875 11.625 17.625 11.625 C 17.203125 11.625 16.875 11.296875 16.875 10.875 C 16.875 10.453125 17.203125 10.125 17.625 10.125 Z M 17.625 12.375 C 18.046875 12.375 18.375 12.703125 18.375 13.125 C 18.375 13.546875 18.046875 13.875 17.625 13.875 C 17.203125 13.875 16.875 13.546875 16.875 13.125 C 16.875 12.703125 17.203125 12.375 17.625 12.375 Z M 17.625 12.375 "/>
</g>
</svg>
