<?xml version="1.0" encoding="UTF-8"?>
<svg xmlns="http://www.w3.org/2000/svg" xmlns:xlink="http://www.w3.org/1999/xlink" width="24pt" height="24pt" viewBox="0 0 24 24" version="1.1">
<defs>
<filter id="alpha" filterUnits="objectBoundingBox" x="0%" y="0%" width="100%" height="100%">
  <feColorMatrix type="matrix" in="SourceGraphic" values="0 0 0 0 1 0 0 0 0 1 0 0 0 0 1 0 0 0 1 0"/>
</filter>
<mask id="mask0">
  <g filter="url(#alpha)">
<rect x="0" y="0" width="24" height="24" style="fill:rgb(0%,0%,0%);fill-opacity:0.701961;stroke:none;"/>
  </g>
</mask>
<clipPath id="clip1">
  <rect width="24" height="24"/>
</clipPath>
<g id="surface6" clip-path="url(#clip1)">
<path style=" stroke:none;fill-rule:nonzero;fill:rgb(56.470588%,56.470588%,56.470588%);fill-opacity:1;" d="M 10.773438 6.351562 C 10.640625 6.351562 10.539062 6.457031 10.539062 6.585938 C 10.539062 6.71875 10.640625 6.824219 10.773438 6.824219 C 10.902344 6.824219 11.007812 6.71875 11.007812 6.585938 C 11.007812 6.457031 10.902344 6.351562 10.773438 6.351562 Z M 11.714844 6.351562 C 11.582031 6.351562 11.476562 6.457031 11.476562 6.585938 C 11.476562 6.71875 11.582031 6.824219 11.714844 6.824219 C 11.84375 6.824219 11.949219 6.71875 11.949219 6.585938 C 11.949219 6.457031 11.84375 6.351562 11.714844 6.351562 Z M 12.65625 6.351562 C 12.523438 6.351562 12.417969 6.457031 12.417969 6.585938 C 12.417969 6.71875 12.523438 6.824219 12.65625 6.824219 C 12.785156 6.824219 12.890625 6.71875 12.890625 6.585938 C 12.890625 6.457031 12.785156 6.351562 12.65625 6.351562 Z M 13.597656 6.351562 C 13.464844 6.351562 13.359375 6.457031 13.359375 6.585938 C 13.359375 6.71875 13.464844 6.824219 13.597656 6.824219 C 13.726562 6.824219 13.832031 6.71875 13.832031 6.585938 C 13.832031 6.457031 13.726562 6.351562 13.597656 6.351562 Z M 10.035156 6.464844 C 9.902344 6.554688 9.78125 6.652344 9.667969 6.753906 C 9.710938 6.796875 9.769531 6.824219 9.832031 6.824219 C 9.960938 6.824219 10.066406 6.71875 10.066406 6.585938 C 10.066406 6.542969 10.054688 6.503906 10.035156 6.464844 Z M 9.832031 7.292969 C 9.703125 7.292969 9.597656 7.398438 9.597656 7.527344 C 9.597656 7.660156 9.703125 7.765625 9.832031 7.765625 C 9.960938 7.765625 10.066406 7.660156 10.066406 7.527344 C 10.066406 7.398438 9.960938 7.292969 9.832031 7.292969 Z M 10.773438 7.292969 C 10.640625 7.292969 10.539062 7.398438 10.539062 7.527344 C 10.539062 7.660156 10.640625 7.765625 10.773438 7.765625 C 10.902344 7.765625 11.007812 7.660156 11.007812 7.527344 C 11.007812 7.398438 10.902344 7.292969 10.773438 7.292969 Z M 11.714844 7.292969 C 11.582031 7.292969 11.476562 7.398438 11.476562 7.527344 C 11.476562 7.660156 11.582031 7.765625 11.714844 7.765625 C 11.84375 7.765625 11.949219 7.660156 11.949219 7.527344 C 11.949219 7.398438 11.84375 7.292969 11.714844 7.292969 Z M 12.65625 7.292969 C 12.523438 7.292969 12.417969 7.398438 12.417969 7.527344 C 12.417969 7.660156 12.523438 7.765625 12.65625 7.765625 C 12.785156 7.765625 12.890625 7.660156 12.890625 7.527344 C 12.890625 7.398438 12.785156 7.292969 12.65625 7.292969 Z M 13.597656 7.292969 C 13.464844 7.292969 13.359375 7.398438 13.359375 7.527344 C 13.359375 7.660156 13.464844 7.765625 13.597656 7.765625 C 13.726562 7.765625 13.832031 7.660156 13.832031 7.527344 C 13.832031 7.398438 13.726562 7.292969 13.597656 7.292969 Z M 14.539062 7.292969 C 14.40625 7.292969 14.300781 7.398438 14.300781 7.527344 C 14.300781 7.660156 14.40625 7.765625 14.539062 7.765625 C 14.667969 7.765625 14.773438 7.660156 14.773438 7.527344 C 14.773438 7.398438 14.667969 7.292969 14.539062 7.292969 Z M 9.105469 7.433594 C 9.042969 7.539062 8.980469 7.648438 8.929688 7.761719 C 9.042969 7.742188 9.125 7.644531 9.125 7.527344 C 9.125 7.496094 9.117188 7.464844 9.105469 7.433594 Z M 8.890625 8.234375 C 8.839844 8.234375 8.789062 8.25 8.75 8.28125 C 8.722656 8.382812 8.703125 8.484375 8.6875 8.589844 C 8.730469 8.660156 8.808594 8.707031 8.890625 8.707031 C 9.019531 8.707031 9.125 8.601562 9.125 8.46875 C 9.125 8.339844 9.019531 8.234375 8.890625 8.234375 Z M 9.832031 8.234375 C 9.703125 8.234375 9.597656 8.339844 9.597656 8.46875 C 9.597656 8.601562 9.703125 8.707031 9.832031 8.707031 C 9.960938 8.707031 10.066406 8.601562 10.066406 8.46875 C 10.066406 8.339844 9.960938 8.234375 9.832031 8.234375 Z M 10.773438 8.234375 C 10.640625 8.234375 10.539062 8.339844 10.539062 8.46875 C 10.539062 8.601562 10.640625 8.707031 10.773438 8.707031 C 10.902344 8.707031 11.007812 8.601562 11.007812 8.46875 C 11.007812 8.339844 10.902344 8.234375 10.773438 8.234375 Z M 11.714844 8.234375 C 11.582031 8.234375 11.476562 8.339844 11.476562 8.46875 C 11.476562 8.601562 11.582031 8.707031 11.714844 8.707031 C 11.84375 8.707031 11.949219 8.601562 11.949219 8.46875 C 11.949219 8.339844 11.84375 8.234375 11.714844 8.234375 Z M 12.65625 8.234375 C 12.523438 8.234375 12.417969 8.339844 12.417969 8.46875 C 12.417969 8.601562 12.523438 8.707031 12.65625 8.707031 C 12.785156 8.707031 12.890625 8.601562 12.890625 8.46875 C 12.890625 8.339844 12.785156 8.234375 12.65625 8.234375 Z M 13.597656 8.234375 C 13.464844 8.234375 13.359375 8.339844 13.359375 8.46875 C 13.359375 8.601562 13.464844 8.707031 13.597656 8.707031 C 13.726562 8.707031 13.832031 8.601562 13.832031 8.46875 C 13.832031 8.339844 13.726562 8.234375 13.597656 8.234375 Z M 14.539062 8.234375 C 14.40625 8.234375 14.300781 8.339844 14.300781 8.46875 C 14.300781 8.601562 14.40625 8.707031 14.539062 8.707031 C 14.667969 8.707031 14.773438 8.601562 14.773438 8.46875 C 14.773438 8.339844 14.667969 8.234375 14.539062 8.234375 Z M 8.890625 9.175781 C 8.761719 9.175781 8.65625 9.28125 8.65625 9.410156 C 8.65625 9.542969 8.761719 9.648438 8.890625 9.648438 C 9.019531 9.648438 9.125 9.542969 9.125 9.410156 C 9.125 9.28125 9.019531 9.175781 8.890625 9.175781 Z M 9.832031 9.175781 C 9.703125 9.175781 9.597656 9.28125 9.597656 9.410156 C 9.597656 9.542969 9.703125 9.648438 9.832031 9.648438 C 9.960938 9.648438 10.066406 9.542969 10.066406 9.410156 C 10.066406 9.28125 9.960938 9.175781 9.832031 9.175781 Z M 10.773438 9.175781 C 10.640625 9.175781 10.539062 9.28125 10.539062 9.410156 C 10.539062 9.542969 10.640625 9.648438 10.773438 9.648438 C 10.902344 9.648438 11.007812 9.542969 11.007812 9.410156 C 11.007812 9.28125 10.902344 9.175781 10.773438 9.175781 Z M 11.714844 9.175781 C 11.582031 9.175781 11.476562 9.28125 11.476562 9.410156 C 11.476562 9.542969 11.582031 9.648438 11.714844 9.648438 C 11.84375 9.648438 11.949219 9.542969 11.949219 9.410156 C 11.949219 9.28125 11.84375 9.175781 11.714844 9.175781 Z M 12.65625 9.175781 C 12.523438 9.175781 12.417969 9.28125 12.417969 9.410156 C 12.417969 9.542969 12.523438 9.648438 12.65625 9.648438 C 12.785156 9.648438 12.890625 9.542969 12.890625 9.410156 C 12.890625 9.28125 12.785156 9.175781 12.65625 9.175781 Z M 13.597656 9.175781 C 13.464844 9.175781 13.359375 9.28125 13.359375 9.410156 C 13.359375 9.542969 13.464844 9.648438 13.597656 9.648438 C 13.726562 9.648438 13.832031 9.542969 13.832031 9.410156 C 13.832031 9.28125 13.726562 9.175781 13.597656 9.175781 Z M 14.539062 9.175781 C 14.40625 9.175781 14.300781 9.28125 14.300781 9.410156 C 14.300781 9.542969 14.40625 9.648438 14.539062 9.648438 C 14.667969 9.648438 14.773438 9.542969 14.773438 9.410156 C 14.773438 9.28125 14.667969 9.175781 14.539062 9.175781 Z M 8.890625 10.117188 C 8.773438 10.117188 8.671875 10.207031 8.65625 10.324219 C 8.65625 10.351562 8.660156 10.378906 8.660156 10.410156 C 8.6875 10.515625 8.78125 10.585938 8.890625 10.589844 C 9.019531 10.589844 9.125 10.484375 9.125 10.351562 C 9.125 10.222656 9.019531 10.117188 8.890625 10.117188 Z M 9.832031 10.117188 C 9.703125 10.117188 9.597656 10.222656 9.597656 10.351562 C 9.597656 10.484375 9.703125 10.589844 9.832031 10.589844 C 9.960938 10.589844 10.066406 10.484375 10.066406 10.351562 C 10.066406 10.222656 9.960938 10.117188 9.832031 10.117188 Z M 10.773438 10.117188 C 10.640625 10.117188 10.539062 10.222656 10.539062 10.351562 C 10.539062 10.484375 10.640625 10.589844 10.773438 10.589844 C 10.902344 10.589844 11.007812 10.484375 11.007812 10.351562 C 11.007812 10.222656 10.902344 10.117188 10.773438 10.117188 Z M 11.714844 10.117188 C 11.582031 10.117188 11.476562 10.222656 11.476562 10.351562 C 11.476562 10.484375 11.582031 10.589844 11.714844 10.589844 C 11.84375 10.589844 11.949219 10.484375 11.949219 10.351562 C 11.949219 10.222656 11.84375 10.117188 11.714844 10.117188 Z M 12.65625 10.117188 C 12.523438 10.117188 12.417969 10.222656 12.417969 10.351562 C 12.417969 10.484375 12.523438 10.589844 12.65625 10.589844 C 12.785156 10.589844 12.890625 10.484375 12.890625 10.351562 C 12.890625 10.222656 12.785156 10.117188 12.65625 10.117188 Z M 13.597656 10.117188 C 13.464844 10.117188 13.359375 10.222656 13.359375 10.351562 C 13.359375 10.484375 13.464844 10.589844 13.597656 10.589844 C 13.726562 10.589844 13.832031 10.484375 13.832031 10.351562 C 13.832031 10.222656 13.726562 10.117188 13.597656 10.117188 Z M 14.539062 10.117188 C 14.40625 10.117188 14.300781 10.222656 14.300781 10.351562 C 14.300781 10.484375 14.40625 10.589844 14.539062 10.589844 C 14.667969 10.589844 14.773438 10.484375 14.773438 10.351562 C 14.773438 10.222656 14.667969 10.117188 14.539062 10.117188 Z M 8.890625 11.058594 C 8.847656 11.058594 8.804688 11.070312 8.769531 11.089844 C 8.8125 11.242188 8.863281 11.386719 8.925781 11.527344 C 9.039062 11.507812 9.125 11.410156 9.125 11.292969 C 9.125 11.164062 9.019531 11.058594 8.890625 11.058594 Z M 9.832031 11.058594 C 9.703125 11.058594 9.597656 11.164062 9.597656 11.292969 C 9.597656 11.425781 9.703125 11.53125 9.832031 11.53125 C 9.960938 11.53125 10.066406 11.425781 10.066406 11.292969 C 10.066406 11.164062 9.960938 11.058594 9.832031 11.058594 Z M 10.773438 11.058594 C 10.640625 11.058594 10.539062 11.164062 10.539062 11.292969 C 10.539062 11.425781 10.640625 11.53125 10.773438 11.53125 C 10.902344 11.53125 11.007812 11.425781 11.007812 11.292969 C 11.007812 11.164062 10.902344 11.058594 10.773438 11.058594 Z M 11.714844 11.058594 C 11.582031 11.058594 11.476562 11.164062 11.476562 11.292969 C 11.476562 11.425781 11.582031 11.53125 11.714844 11.53125 C 11.84375 11.53125 11.949219 11.425781 11.949219 11.292969 C 11.949219 11.164062 11.84375 11.058594 11.714844 11.058594 Z M 12.65625 11.058594 C 12.523438 11.058594 12.417969 11.164062 12.417969 11.292969 C 12.417969 11.425781 12.523438 11.53125 12.65625 11.53125 C 12.785156 11.53125 12.890625 11.425781 12.890625 11.292969 C 12.890625 11.164062 12.785156 11.058594 12.65625 11.058594 Z M 13.597656 11.058594 C 13.464844 11.058594 13.359375 11.164062 13.359375 11.292969 C 13.359375 11.425781 13.464844 11.53125 13.597656 11.53125 C 13.726562 11.53125 13.832031 11.425781 13.832031 11.292969 C 13.832031 11.164062 13.726562 11.058594 13.597656 11.058594 Z M 14.539062 11.058594 C 14.40625 11.058594 14.300781 11.164062 14.300781 11.292969 C 14.300781 11.425781 14.40625 11.53125 14.539062 11.53125 C 14.667969 11.53125 14.773438 11.425781 14.773438 11.292969 C 14.773438 11.164062 14.667969 11.058594 14.539062 11.058594 Z M 9.832031 12 C 9.703125 12 9.597656 12.105469 9.597656 12.234375 C 9.597656 12.367188 9.703125 12.46875 9.832031 12.46875 C 9.960938 12.46875 10.066406 12.367188 10.066406 12.234375 C 10.066406 12.105469 9.960938 12 9.832031 12 Z M 10.773438 12 C 10.640625 12 10.539062 12.105469 10.539062 12.234375 C 10.539062 12.367188 10.640625 12.46875 10.773438 12.46875 C 10.902344 12.46875 11.007812 12.367188 11.007812 12.234375 C 11.007812 12.105469 10.902344 12 10.773438 12 Z M 11.714844 12 C 11.582031 12 11.476562 12.105469 11.476562 12.234375 C 11.476562 12.367188 11.582031 12.46875 11.714844 12.46875 C 11.84375 12.46875 11.949219 12.367188 11.949219 12.234375 C 11.949219 12.105469 11.84375 12 11.714844 12 Z M 12.65625 12 C 12.523438 12 12.417969 12.105469 12.417969 12.234375 C 12.417969 12.367188 12.523438 12.46875 12.65625 12.46875 C 12.785156 12.46875 12.890625 12.367188 12.890625 12.234375 C 12.890625 12.105469 12.785156 12 12.65625 12 Z M 13.597656 12 C 13.464844 12 13.359375 12.105469 13.359375 12.234375 C 13.359375 12.367188 13.464844 12.46875 13.597656 12.46875 C 13.726562 12.46875 13.832031 12.367188 13.832031 12.234375 C 13.832031 12.105469 13.726562 12 13.597656 12 Z M 14.539062 12 C 14.40625 12 14.300781 12.105469 14.300781 12.234375 C 14.300781 12.296875 14.328125 12.355469 14.371094 12.402344 C 14.480469 12.289062 14.582031 12.171875 14.671875 12.042969 C 14.632812 12.015625 14.585938 12 14.539062 12 Z M 10.773438 12.941406 C 10.667969 12.941406 10.574219 13.011719 10.546875 13.113281 C 10.6875 13.175781 10.832031 13.230469 10.984375 13.277344 C 11 13.246094 11.007812 13.210938 11.007812 13.175781 C 11.007812 13.046875 10.902344 12.941406 10.773438 12.941406 Z M 11.714844 12.941406 C 11.582031 12.941406 11.476562 13.046875 11.476562 13.175781 C 11.476562 13.273438 11.539062 13.359375 11.628906 13.394531 C 11.675781 13.402344 11.726562 13.402344 11.777344 13.402344 C 11.878906 13.375 11.949219 13.28125 11.949219 13.175781 C 11.949219 13.046875 11.84375 12.941406 11.714844 12.941406 Z M 12.65625 12.941406 C 12.523438 12.941406 12.417969 13.046875 12.417969 13.175781 C 12.417969 13.25 12.453125 13.320312 12.511719 13.363281 C 12.628906 13.34375 12.746094 13.320312 12.863281 13.289062 C 12.878906 13.253906 12.890625 13.214844 12.890625 13.175781 C 12.890625 13.046875 12.785156 12.941406 12.65625 12.941406 Z M 13.597656 12.941406 C 13.496094 12.941406 13.40625 13.007812 13.371094 13.101562 C 13.472656 13.058594 13.570312 13.007812 13.664062 12.953125 C 13.644531 12.945312 13.621094 12.941406 13.597656 12.941406 Z M 13.597656 12.941406 "/>
</g>
</defs>
<g id="surface1">
<path style=" stroke:none;fill-rule:evenodd;fill:rgb(56.470588%,56.470588%,56.470588%);fill-opacity:1;" d="M 5.605469 1.421875 L 18.394531 1.421875 C 20.703125 1.421875 22.578125 3.296875 22.578125 5.605469 L 22.578125 18.394531 C 22.578125 20.703125 20.703125 22.578125 18.394531 22.578125 L 5.605469 22.578125 C 3.296875 22.578125 1.421875 20.703125 1.421875 18.394531 L 1.421875 5.605469 C 1.421875 3.296875 3.296875 1.421875 5.605469 1.421875 Z M 5.605469 1.421875 "/>
<path style=" stroke:none;fill-rule:nonzero;fill:rgb(30.980392%,30.980392%,30.980392%);fill-opacity:1;" d="M 15.765625 18.117188 L 15.765625 17.175781 L 8.234375 17.175781 L 8.234375 18.117188 Z M 15.765625 18.117188 "/>
<path style=" stroke:none;fill-rule:nonzero;fill:rgb(30.980392%,30.980392%,30.980392%);fill-opacity:1;" d="M 11.53125 17.175781 L 12.46875 17.175781 L 12.46875 14.824219 L 11.53125 14.824219 Z M 11.53125 17.175781 "/>
<path style=" stroke:none;fill-rule:nonzero;fill:rgb(30.980392%,30.980392%,30.980392%);fill-opacity:1;" d="M 7.292969 10.589844 L 7.292969 11.371094 C 7.292969 13.546875 9.390625 15.292969 12 15.292969 C 14.609375 15.292969 16.707031 13.546875 16.707031 11.371094 L 16.707031 10.589844 L 15.765625 10.589844 L 15.765625 11.214844 C 15.765625 12.953125 14.085938 14.351562 12 14.351562 C 9.914062 14.351562 8.234375 12.953125 8.234375 11.214844 L 8.234375 10.589844 Z M 7.292969 10.589844 "/>
<path style=" stroke:none;fill-rule:nonzero;fill:rgb(100%,100%,100%);fill-opacity:1;" d="M 15.292969 10.273438 L 15.292969 9.019531 C 15.292969 7.285156 13.820312 5.882812 12 5.882812 C 10.179688 5.882812 8.707031 7.285156 8.707031 9.019531 L 8.707031 10.273438 C 8.707031 12.007812 10.179688 13.410156 12 13.410156 C 13.820312 13.410156 15.292969 12.007812 15.292969 10.273438 Z M 15.292969 10.273438 "/>
<use xlink:href="#surface6" mask="url(#mask0)"/>
</g>
</svg>
