<?xml version="1.0" encoding="UTF-8"?>
<svg xmlns="http://www.w3.org/2000/svg" xmlns:xlink="http://www.w3.org/1999/xlink" width="24pt" height="24pt" viewBox="0 0 24 24" version="1.1">
<g id="surface1">
<path style=" stroke:none;fill-rule:evenodd;fill:rgb(48.235294%,35.294118%,71.764706%);fill-opacity:1;" d="M 5.605469 1.421875 L 18.394531 1.421875 C 20.703125 1.421875 22.578125 3.296875 22.578125 5.605469 L 22.578125 18.394531 C 22.578125 20.703125 20.703125 22.578125 18.394531 22.578125 L 5.605469 22.578125 C 3.296875 22.578125 1.421875 20.703125 1.421875 18.394531 L 1.421875 5.605469 C 1.421875 3.296875 3.296875 1.421875 5.605469 1.421875 Z M 5.605469 1.421875 "/>
<path style=" stroke:none;fill-rule:evenodd;fill:rgb(100%,100%,100%);fill-opacity:1;" d="M 6 4.125 L 5.25 7.125 L 5.25 18.375 L 8.25 18.375 L 8.25 19.875 L 9.75 19.875 L 11.25 18.375 L 13.5 18.375 L 18.75 13.125 L 18.75 4.125 Z M 7.5 4.875 L 18 4.875 L 18 12.75 L 16.125 14.625 L 12 14.625 L 9.75 16.875 L 9.75 14.625 L 7.5 14.625 Z M 10.5 7.125 L 10.5 11.625 L 12 11.625 L 12 7.125 Z M 14.25 7.125 L 14.25 11.625 L 15.75 11.625 L 15.75 7.125 Z M 14.25 7.125 "/>
</g>
</svg>
