<?xml version="1.0" encoding="UTF-8"?>
<svg xmlns="http://www.w3.org/2000/svg" xmlns:xlink="http://www.w3.org/1999/xlink" width="24pt" height="24pt" viewBox="0 0 24 24" version="1.1">
<defs>
<clipPath id="clip1">
  <rect width="24" height="24"/>
</clipPath>
<g id="surface6" clip-path="url(#clip1)">
<path style=" stroke:none;fill-rule:nonzero;fill:rgb(100%,100%,100%);fill-opacity:1;" d="M 12.011719 5.25 C 13.433594 5.253906 14.875 5.695312 16 6.570312 C 16.789062 7.484375 15.28125 8.457031 14.605469 7.570312 C 12.5625 6.335938 9.679688 6.769531 8.140625 8.617188 C 7.324219 9.535156 6.863281 10.757812 6.867188 11.988281 L 8.21875 11.988281 C 7.5 13.070312 6.777344 14.148438 6.058594 15.226562 C 5.339844 14.148438 4.617188 13.070312 3.898438 11.988281 L 5.25 11.988281 C 5.207031 9.054688 7.316406 6.261719 10.148438 5.503906 C 10.757812 5.335938 11.382812 5.242188 12.011719 5.25 Z M 17.941406 8.761719 C 18.660156 9.839844 19.382812 10.921875 20.101562 12 L 18.75 12 C 18.789062 14.96875 16.625 17.792969 13.742188 18.511719 C 11.796875 19.054688 9.597656 18.660156 8 17.417969 C 7.183594 16.488281 8.710938 15.523438 9.398438 16.421875 C 11.378906 17.621094 14.148438 17.238281 15.710938 15.523438 C 16.617188 14.59375 17.136719 13.300781 17.128906 12 L 15.78125 12 C 16.5 10.921875 17.222656 9.839844 17.941406 8.761719 Z M 17.941406 8.761719 "/>
</g>
</defs>
<g id="surface1">
<path style=" stroke:none;fill-rule:evenodd;fill:rgb(100%,54.117647%,0%);fill-opacity:1;" d="M 5.605469 1.421875 L 18.394531 1.421875 C 20.703125 1.421875 22.578125 3.296875 22.578125 5.605469 L 22.578125 18.394531 C 22.578125 20.703125 20.703125 22.578125 18.394531 22.578125 L 5.605469 22.578125 C 3.296875 22.578125 1.421875 20.703125 1.421875 18.394531 L 1.421875 5.605469 C 1.421875 3.296875 3.296875 1.421875 5.605469 1.421875 Z M 5.605469 1.421875 "/>
<use xlink:href="#surface6"/>
</g>
</svg>
