<?xml version="1.0" encoding="UTF-8"?>
<svg xmlns="http://www.w3.org/2000/svg" xmlns:xlink="http://www.w3.org/1999/xlink" width="24pt" height="24pt" viewBox="0 0 24 24" version="1.1">
<g id="surface1">
<path style=" stroke:none;fill-rule:evenodd;fill:rgb(71.764706%,71.764706%,71.764706%);fill-opacity:1;" d="M 5.1875 22.492188 L 5.1875 5.722656 L 1.421875 5.722656 L 1.421875 18.394531 C 1.421875 20.5625 3.078125 22.273438 5.1875 22.492188 Z M 5.1875 22.492188 "/>
<path style=" stroke:none;fill-rule:evenodd;fill:rgb(25.490196%,61.568627%,27.058824%);fill-opacity:1;" d="M 5.605469 1.425781 C 3.289062 1.425781 1.421875 3.289062 1.421875 5.605469 L 1.421875 5.722656 L 5.1875 5.722656 L 5.1875 22.492188 C 5.332031 22.507812 5.457031 22.578125 5.605469 22.578125 L 18.394531 22.578125 C 20.710938 22.578125 22.574219 20.710938 22.574219 18.394531 L 22.574219 5.605469 C 22.574219 3.289062 20.710938 1.425781 18.394531 1.425781 Z M 5.605469 1.425781 "/>
<path style=" stroke:none;fill-rule:nonzero;fill:rgb(97.254902%,76.862745%,30.588235%);fill-opacity:1;" d="M 8.710938 19 L 10.5 19 L 10.5 22.578125 L 8.710938 22.578125 Z M 8.710938 19 "/>
<path style=" stroke:none;fill-rule:nonzero;fill:rgb(97.254902%,76.862745%,30.588235%);fill-opacity:1;" d="M 11.390625 19 L 13.179688 19 L 13.179688 22.578125 L 11.390625 22.578125 Z M 11.390625 19 "/>
<path style=" stroke:none;fill-rule:nonzero;fill:rgb(97.254902%,76.862745%,30.588235%);fill-opacity:1;" d="M 14.074219 19 L 15.863281 19 L 15.863281 22.578125 L 14.074219 22.578125 Z M 14.074219 19 "/>
<path style=" stroke:none;fill-rule:nonzero;fill:rgb(97.254902%,76.862745%,30.588235%);fill-opacity:1;" d="M 16.753906 19 L 18.542969 19 L 18.542969 22.578125 L 16.753906 22.578125 Z M 16.753906 19 "/>
<path style=" stroke:none;fill-rule:nonzero;fill:rgb(71.764706%,71.764706%,71.764706%);fill-opacity:1;" d="M 11.535156 7.53125 L 12.429688 7.53125 L 12.429688 9.320312 L 11.535156 9.320312 Z M 11.535156 7.53125 "/>
<path style=" stroke:none;fill-rule:nonzero;fill:rgb(71.764706%,71.764706%,71.764706%);fill-opacity:1;" d="M 14.214844 7.53125 L 15.109375 7.53125 L 15.109375 9.320312 L 14.214844 9.320312 Z M 14.214844 7.53125 "/>
<path style=" stroke:none;fill-rule:nonzero;fill:rgb(71.764706%,71.764706%,71.764706%);fill-opacity:1;" d="M 11.535156 14.679688 L 12.429688 14.679688 L 12.429688 16.46875 L 11.535156 16.46875 Z M 11.535156 14.679688 "/>
<path style=" stroke:none;fill-rule:nonzero;fill:rgb(71.764706%,71.764706%,71.764706%);fill-opacity:1;" d="M 14.214844 14.679688 L 15.109375 14.679688 L 15.109375 16.46875 L 14.214844 16.46875 Z M 14.214844 14.679688 "/>
<path style=" stroke:none;fill-rule:nonzero;fill:rgb(71.764706%,71.764706%,71.764706%);fill-opacity:1;" d="M 17.792969 10.210938 L 17.792969 11.105469 L 16.003906 11.105469 L 16.003906 10.210938 Z M 17.792969 10.210938 "/>
<path style=" stroke:none;fill-rule:nonzero;fill:rgb(71.764706%,71.764706%,71.764706%);fill-opacity:1;" d="M 17.792969 12.894531 L 17.792969 13.789062 L 16.003906 13.789062 L 16.003906 12.894531 Z M 17.792969 12.894531 "/>
<path style=" stroke:none;fill-rule:nonzero;fill:rgb(71.764706%,71.764706%,71.764706%);fill-opacity:1;" d="M 10.640625 10.210938 L 10.640625 11.105469 L 8.851562 11.105469 L 8.851562 10.210938 Z M 10.640625 10.210938 "/>
<path style=" stroke:none;fill-rule:nonzero;fill:rgb(71.764706%,71.764706%,71.764706%);fill-opacity:1;" d="M 10.640625 12.894531 L 10.640625 13.789062 L 8.851562 13.789062 L 8.851562 12.894531 Z M 10.640625 12.894531 "/>
<path style=" stroke:none;fill-rule:nonzero;fill:rgb(30.588235%,30.588235%,30.588235%);fill-opacity:1;" d="M 11.714844 9.320312 L 14.929688 9.320312 C 15.523438 9.320312 16.003906 9.796875 16.003906 10.390625 L 16.003906 13.609375 C 16.003906 14.203125 15.523438 14.679688 14.929688 14.679688 L 11.714844 14.679688 C 11.121094 14.679688 10.640625 14.203125 10.640625 13.609375 L 10.640625 10.390625 C 10.640625 9.796875 11.121094 9.320312 11.714844 9.320312 Z M 11.714844 9.320312 "/>
</g>
</svg>
