<?xml version="1.0" encoding="UTF-8"?>
<svg xmlns="http://www.w3.org/2000/svg" xmlns:xlink="http://www.w3.org/1999/xlink" width="24pt" height="24pt" viewBox="0 0 24 24" version="1.1">
<g id="surface1">
<path style=" stroke:none;fill-rule:evenodd;fill:rgb(39.607843%,45.098039%,76.470588%);fill-opacity:1;" d="M 5.605469 1.421875 L 18.394531 1.421875 C 20.703125 1.421875 22.578125 3.296875 22.578125 5.605469 L 22.578125 18.394531 C 22.578125 20.703125 20.703125 22.578125 18.394531 22.578125 L 5.605469 22.578125 C 3.296875 22.578125 1.421875 20.703125 1.421875 18.394531 L 1.421875 5.605469 C 1.421875 3.296875 3.296875 1.421875 5.605469 1.421875 Z M 5.605469 1.421875 "/>
<path style=" stroke:none;fill-rule:nonzero;fill:rgb(94.901961%,94.901961%,94.901961%);fill-opacity:1;" d="M 18.089844 12.914062 C 18.089844 9.214844 15.09375 6.214844 11.390625 6.214844 C 7.691406 6.214844 4.691406 9.214844 4.691406 12.914062 C 4.691406 16.613281 7.691406 19.613281 11.390625 19.613281 C 15.09375 19.613281 18.089844 16.613281 18.089844 12.914062 Z M 18.089844 12.914062 "/>
<path style=" stroke:none;fill-rule:evenodd;fill:rgb(61.568627%,72.54902%,100%);fill-opacity:1;" d="M 16.039062 4.386719 C 16.035156 4.386719 16.03125 4.390625 16.027344 4.390625 C 15.996094 4.394531 15.964844 4.402344 15.929688 4.414062 C 15.902344 4.425781 15.875 4.4375 15.851562 4.460938 C 15.824219 4.484375 15.796875 4.515625 15.773438 4.554688 C 15.765625 4.5625 15.761719 4.574219 15.753906 4.585938 C 15.734375 4.625 15.714844 4.671875 15.695312 4.730469 C 15.695312 4.734375 15.695312 4.734375 15.695312 4.738281 C 15.648438 4.523438 15.183594 4.574219 15.183594 4.574219 C 15.183594 4.574219 15.222656 4.601562 15.261719 4.640625 C 15.277344 4.65625 15.296875 4.679688 15.3125 4.699219 C 15.3125 4.699219 15.3125 4.703125 15.3125 4.703125 C 15.324219 4.722656 15.332031 4.746094 15.332031 4.765625 C 15.253906 4.777344 15.175781 4.789062 15.097656 4.804688 C 15.082031 4.765625 15.082031 4.710938 15.085938 4.648438 C 15.089844 4.589844 15.097656 4.523438 15.085938 4.472656 C 15.050781 4.523438 15.027344 4.585938 15.011719 4.648438 C 14.992188 4.710938 14.984375 4.777344 14.976562 4.835938 C 14.960938 4.839844 14.945312 4.84375 14.929688 4.847656 C 14.871094 4.867188 14.808594 4.882812 14.753906 4.90625 C 14.710938 4.835938 14.664062 4.777344 14.617188 4.71875 C 14.566406 4.660156 14.511719 4.609375 14.453125 4.566406 C 14.445312 4.558594 14.433594 4.546875 14.421875 4.539062 C 14.367188 4.5 14.304688 4.46875 14.242188 4.445312 C 14.238281 4.445312 14.238281 4.441406 14.234375 4.441406 C 14.167969 4.417969 14.097656 4.410156 14.027344 4.40625 C 14.019531 4.40625 14.015625 4.40625 14.007812 4.40625 C 13.996094 4.40625 13.984375 4.410156 13.972656 4.410156 C 13.917969 4.414062 13.859375 4.421875 13.800781 4.441406 C 13.78125 4.445312 13.761719 4.449219 13.742188 4.457031 C 13.664062 4.484375 13.585938 4.519531 13.503906 4.570312 C 13.214844 4.753906 13.078125 5.046875 13.039062 5.371094 C 12.195312 5.546875 11.246094 5.699219 10.410156 5.703125 C 10.398438 5.703125 10.386719 5.703125 10.378906 5.703125 C 9.476562 5.703125 8.746094 5.96875 8.207031 6.457031 C 8.054688 6.597656 7.914062 6.753906 7.792969 6.929688 C 7.734375 7.015625 7.675781 7.109375 7.625 7.203125 C 7.597656 7.253906 7.574219 7.304688 7.546875 7.355469 C 7.523438 7.40625 7.5 7.453125 7.476562 7.503906 C 7.433594 7.609375 7.390625 7.71875 7.355469 7.828125 C 7.320312 7.941406 7.289062 8.058594 7.261719 8.175781 C 7.238281 8.269531 7.222656 8.363281 7.207031 8.460938 C 7.203125 8.488281 7.195312 8.519531 7.191406 8.546875 C 7.171875 8.675781 7.15625 8.804688 7.148438 8.941406 C 7.136719 9.078125 7.132812 9.214844 7.128906 9.355469 C 7.128906 9.636719 7.128906 9.894531 7.136719 10.125 C 7.136719 10.128906 7.136719 10.128906 7.136719 10.128906 C 7.144531 10.359375 7.15625 10.566406 7.171875 10.75 C 7.171875 10.75 7.171875 10.753906 7.171875 10.753906 C 7.1875 10.9375 7.207031 11.101562 7.230469 11.246094 C 7.25 11.390625 7.277344 11.511719 7.304688 11.621094 C 7.304688 11.621094 7.300781 11.621094 7.304688 11.621094 C 7.328125 11.730469 7.359375 11.820312 7.386719 11.894531 C 7.414062 11.96875 7.445312 12.03125 7.476562 12.078125 C 7.476562 12.078125 7.476562 12.082031 7.476562 12.082031 C 7.503906 12.128906 7.535156 12.164062 7.566406 12.191406 C 7.59375 12.21875 7.621094 12.238281 7.648438 12.246094 C 7.820312 12.308594 7.769531 12.230469 7.742188 12.195312 C 7.734375 12.1875 7.726562 12.171875 7.722656 12.167969 L 7.800781 12.214844 L 7.878906 12.265625 L 7.878906 12.167969 L 7.949219 12.179688 L 8.011719 12.1875 L 8.089844 12.03125 L 8.261719 12.03125 C 8.261719 12.03125 8.332031 11.988281 8.371094 11.875 C 8.375 11.863281 8.378906 11.855469 8.382812 11.84375 C 8.382812 11.84375 8.382812 11.839844 8.382812 11.839844 C 8.394531 11.792969 8.402344 11.734375 8.398438 11.660156 C 8.382812 11.441406 8.476562 11.351562 8.457031 11.207031 C 8.453125 11.160156 8.433594 11.105469 8.398438 11.035156 C 8.320312 10.902344 8.242188 10.253906 8.214844 9.601562 C 8.214844 9.589844 8.214844 9.582031 8.214844 9.574219 C 8.203125 9.242188 8.203125 8.914062 8.230469 8.648438 C 8.253906 8.386719 8.300781 8.191406 8.378906 8.125 C 8.453125 8.0625 8.570312 7.976562 8.714844 7.886719 C 8.855469 7.792969 9.027344 7.691406 9.210938 7.59375 C 9.484375 7.445312 9.789062 7.308594 10.078125 7.21875 C 10.171875 7.191406 10.265625 7.164062 10.359375 7.148438 C 10.632812 7.097656 10.875 7.039062 11.164062 7 C 11.355469 6.976562 11.566406 6.960938 11.820312 6.960938 C 11.824219 6.960938 11.832031 6.964844 11.839844 6.964844 C 12.214844 6.96875 12.675781 7.015625 13.300781 7.128906 C 13.304688 7.242188 13.3125 7.375 13.328125 7.539062 C 13.328125 7.539062 13.328125 7.542969 13.328125 7.542969 C 13.378906 7.992188 13.476562 8.25 13.613281 8.484375 C 13.753906 8.722656 13.925781 8.9375 14.125 9.289062 C 14.125 9.289062 14.125 9.289062 14.125 9.292969 C 14.1875 9.398438 14.25 9.5 14.316406 9.585938 C 14.382812 9.671875 14.453125 9.75 14.527344 9.8125 C 14.601562 9.878906 14.675781 9.933594 14.753906 9.976562 C 14.753906 9.976562 14.753906 9.976562 14.757812 9.976562 C 14.835938 10.019531 14.914062 10.050781 15 10.074219 C 15.339844 10.160156 15.722656 10.078125 16.144531 9.839844 C 16.492188 9.632812 16.746094 9.539062 16.980469 9.402344 C 17.039062 9.367188 17.097656 9.332031 17.15625 9.292969 C 17.210938 9.25 17.269531 9.203125 17.328125 9.152344 C 17.386719 9.097656 17.445312 9.039062 17.503906 8.96875 C 17.566406 8.898438 17.628906 8.820312 17.695312 8.730469 C 17.710938 8.707031 17.714844 8.695312 17.730469 8.671875 C 17.8125 8.554688 17.886719 8.449219 17.933594 8.363281 C 18.0625 8.269531 18.1875 8.171875 18.308594 8.09375 C 18.601562 7.894531 18.921875 7.585938 19.117188 7.234375 C 19.214844 7.058594 19.28125 6.871094 19.300781 6.683594 C 19.304688 6.636719 19.308594 6.589844 19.304688 6.542969 C 19.300781 6.398438 19.265625 6.257812 19.191406 6.117188 C 19.148438 6.035156 19.101562 5.964844 19.050781 5.90625 C 19.03125 5.886719 19.015625 5.871094 19 5.855469 C 18.964844 5.820312 18.925781 5.785156 18.886719 5.757812 C 18.867188 5.742188 18.84375 5.730469 18.820312 5.71875 C 18.785156 5.695312 18.746094 5.679688 18.707031 5.664062 C 18.683594 5.65625 18.660156 5.648438 18.636719 5.644531 C 18.589844 5.632812 18.542969 5.628906 18.496094 5.628906 C 18.480469 5.625 18.464844 5.625 18.449219 5.625 C 18.382812 5.628906 18.316406 5.636719 18.253906 5.652344 C 18.25 5.652344 18.25 5.652344 18.246094 5.652344 C 18.246094 5.65625 18.246094 5.652344 18.246094 5.652344 C 18.117188 5.6875 17.984375 5.75 17.855469 5.832031 C 17.855469 5.832031 17.855469 5.832031 17.855469 5.828125 C 17.816406 5.777344 17.777344 5.730469 17.738281 5.683594 C 17.730469 5.671875 17.71875 5.65625 17.710938 5.644531 C 17.730469 5.605469 17.75 5.554688 17.769531 5.496094 C 17.785156 5.441406 17.796875 5.378906 17.796875 5.324219 C 17.71875 5.414062 17.699219 5.628906 17.578125 5.503906 C 17.5625 5.488281 17.550781 5.472656 17.546875 5.460938 C 17.542969 5.449219 17.542969 5.4375 17.546875 5.425781 C 17.546875 5.417969 17.558594 5.414062 17.566406 5.40625 C 17.609375 5.367188 17.703125 5.355469 17.703125 5.355469 C 17.703125 5.355469 17.558594 5.242188 17.441406 5.238281 C 17.421875 5.238281 17.40625 5.238281 17.386719 5.246094 C 17.371094 5.25 17.355469 5.261719 17.34375 5.273438 C 17.390625 5.097656 17.34375 5 17.285156 4.949219 C 17.226562 4.898438 17.152344 4.894531 17.152344 4.894531 C 17.152344 4.894531 17.207031 4.953125 17.230469 5.019531 C 17.230469 5.027344 17.238281 5.03125 17.238281 5.039062 C 17.242188 5.066406 17.242188 5.089844 17.230469 5.117188 C 17.226562 5.132812 17.210938 5.144531 17.195312 5.15625 C 17.191406 5.160156 17.183594 5.160156 17.179688 5.164062 C 17.167969 5.167969 17.15625 5.171875 17.140625 5.175781 C 17.109375 5.15625 17.078125 5.136719 17.046875 5.117188 C 17.03125 5.113281 17.023438 5.105469 17.007812 5.097656 C 17 5.070312 16.996094 5.03125 17.007812 4.984375 C 17.011719 4.984375 17.007812 4.980469 17.007812 4.980469 C 16.933594 4.953125 16.875 4.976562 16.835938 5.011719 C 16.800781 4.996094 16.769531 4.984375 16.734375 4.96875 L 16.761719 4.828125 L 16.792969 4.65625 L 16.625 4.925781 C 16.601562 4.917969 16.574219 4.90625 16.550781 4.898438 C 16.542969 4.816406 16.515625 4.726562 16.429688 4.671875 C 16.398438 4.652344 16.367188 4.636719 16.324219 4.628906 C 16.292969 4.738281 16.238281 4.789062 16.175781 4.800781 C 16.152344 4.796875 16.128906 4.792969 16.109375 4.789062 C 16.085938 4.785156 16.066406 4.78125 16.042969 4.78125 C 16.011719 4.761719 15.988281 4.742188 15.96875 4.714844 C 15.953125 4.6875 15.945312 4.660156 15.945312 4.628906 C 15.949219 4.59375 15.96875 4.5625 15.992188 4.535156 C 16.066406 4.453125 16.203125 4.417969 16.203125 4.417969 C 16.203125 4.417969 16.179688 4.40625 16.140625 4.398438 C 16.113281 4.390625 16.078125 4.386719 16.039062 4.386719 Z M 8.667969 13.515625 L 8.667969 13.730469 L 8.515625 13.632812 L 8.515625 13.75 L 8.339844 13.652344 L 8.378906 13.75 L 8.226562 13.671875 L 8.246094 13.867188 L 8.089844 13.710938 L 8.148438 13.984375 L 7.996094 13.90625 L 8.128906 14.257812 L 7.9375 14.003906 L 8.070312 14.355469 L 7.957031 14.277344 L 8.109375 14.589844 L 7.976562 14.472656 L 8.128906 14.6875 L 7.996094 14.609375 C 7.996094 14.609375 8.6875 15.9375 9.839844 16.699219 C 10.128906 16.886719 10.449219 17.105469 10.808594 17.324219 C 11.167969 17.539062 11.566406 17.75 12.011719 17.929688 C 12.5625 18.152344 13.183594 18.320312 13.890625 18.375 C 14.03125 18.386719 14.171875 18.394531 14.320312 18.394531 C 14.617188 18.398438 14.925781 18.378906 15.246094 18.339844 C 15.566406 18.296875 15.847656 18.214844 16.09375 18.101562 C 16.335938 17.992188 16.542969 17.847656 16.71875 17.6875 C 16.980469 17.449219 17.175781 17.164062 17.316406 16.875 C 17.746094 16.003906 17.707031 15.078125 17.707031 15.078125 C 16.988281 16.726562 16.34375 17.253906 15.25 16.953125 C 15.152344 16.925781 15.046875 16.886719 14.9375 16.847656 C 14.773438 16.785156 14.601562 16.710938 14.417969 16.621094 C 12.363281 15.59375 9.398438 13.808594 9.398438 13.808594 L 9.378906 13.945312 L 9.089844 13.691406 L 9.089844 13.769531 L 8.957031 13.632812 L 8.9375 13.75 L 8.800781 13.554688 L 8.800781 13.710938 Z M 8.667969 13.515625 "/>
</g>
</svg>
