<?xml version="1.0" encoding="UTF-8"?>
<svg xmlns="http://www.w3.org/2000/svg" xmlns:xlink="http://www.w3.org/1999/xlink" width="24pt" height="24pt" viewBox="0 0 24 24" version="1.1">
<g id="surface1">
<path style=" stroke:none;fill-rule:evenodd;fill:rgb(78.039216%,29.019608%,70.588235%);fill-opacity:1;" d="M 5.605469 1.425781 L 18.394531 1.425781 C 20.703125 1.425781 22.578125 3.296875 22.578125 5.605469 L 22.578125 18.398438 C 22.578125 20.707031 20.703125 22.578125 18.394531 22.578125 L 5.605469 22.578125 C 3.296875 22.578125 1.421875 20.707031 1.421875 18.398438 L 1.421875 5.605469 C 1.421875 3.296875 3.296875 1.425781 5.605469 1.425781 Z M 5.605469 1.425781 "/>
<path style=" stroke:none;fill-rule:evenodd;fill:rgb(50.196078%,50.196078%,50.196078%);fill-opacity:1;" d="M 6.8125 22.578125 L 18.394531 22.578125 C 20.710938 22.578125 22.578125 20.710938 22.578125 18.394531 L 22.578125 5.605469 C 22.578125 3.289062 20.710938 1.425781 18.394531 1.425781 L 6.8125 1.425781 Z M 6.8125 22.578125 "/>
<path style=" stroke:none;fill-rule:evenodd;fill:rgb(30.196078%,30.196078%,30.196078%);fill-opacity:1;" d="M 6.8125 22.578125 L 6.8125 1.425781 L 5.605469 1.425781 C 3.289062 1.425781 1.425781 3.289062 1.425781 5.605469 L 1.425781 18.394531 C 1.425781 20.710938 3.289062 22.578125 5.605469 22.578125 Z M 6.8125 22.578125 "/>
<path style=" stroke:none;fill-rule:nonzero;fill:rgb(39.607843%,84.313725%,49.019608%);fill-opacity:1;" d="M 10.09375 14.8125 L 10.09375 16.9375 L 12.21875 16.9375 L 17.582031 11.574219 L 15.457031 9.449219 Z M 19.460938 9.703125 C 19.683594 9.476562 19.683594 9.121094 19.460938 8.898438 L 18.132812 7.570312 C 17.910156 7.347656 17.554688 7.347656 17.332031 7.570312 L 16.222656 8.6875 L 18.34375 10.8125 Z M 19.460938 9.703125 "/>
</g>
</svg>
