<?xml version="1.0" encoding="UTF-8"?>
<svg xmlns="http://www.w3.org/2000/svg" xmlns:xlink="http://www.w3.org/1999/xlink" width="24pt" height="24pt" viewBox="0 0 24 24" version="1.1">
<g id="surface1">
<path style=" stroke:none;fill-rule:evenodd;fill:rgb(49.411765%,52.54902%,52.941176%);fill-opacity:1;" d="M 5.605469 1.421875 L 18.394531 1.421875 C 20.703125 1.421875 22.578125 3.296875 22.578125 5.605469 L 22.578125 18.394531 C 22.578125 20.703125 20.703125 22.578125 18.394531 22.578125 L 5.605469 22.578125 C 3.296875 22.578125 1.421875 20.703125 1.421875 18.394531 L 1.421875 5.605469 C 1.421875 3.296875 3.296875 1.421875 5.605469 1.421875 Z M 5.605469 1.421875 "/>
<path style=" stroke:none;fill-rule:nonzero;fill:rgb(57.254902%,90.588235%,38.823529%);fill-opacity:1;" d="M 6.402344 17.597656 L 8.378906 17.597656 C 8.925781 17.597656 9.367188 18.039062 9.367188 18.585938 C 9.367188 19.132812 8.925781 19.574219 8.378906 19.574219 L 6.402344 19.574219 C 5.855469 19.574219 5.414062 19.132812 5.414062 18.585938 C 5.414062 18.039062 5.855469 17.597656 6.402344 17.597656 Z M 6.402344 17.597656 "/>
<path style=" stroke:none;fill-rule:nonzero;fill:rgb(90.588235%,38.823529%,38.823529%);fill-opacity:1;" d="M 15.621094 17.597656 L 17.597656 17.597656 C 18.144531 17.597656 18.585938 18.039062 18.585938 18.585938 C 18.585938 19.132812 18.144531 19.574219 17.597656 19.574219 L 15.621094 19.574219 C 15.074219 19.574219 14.632812 19.132812 14.632812 18.585938 C 14.632812 18.039062 15.074219 17.597656 15.621094 17.597656 Z M 15.621094 17.597656 "/>
<path style=" stroke:none;fill-rule:nonzero;fill:rgb(100%,100%,100%);fill-opacity:1;" d="M 12.875 4.425781 L 11.023438 4.597656 L 11.023438 11.808594 L 12.855469 11.546875 L 12.855469 8.472656 L 15.316406 11.882812 L 17.246094 11.304688 L 14.726562 8.023438 L 17.269531 4.929688 L 15.296875 4.503906 L 12.855469 7.597656 L 12.875 4.429688 Z M 8.675781 6.1875 C 8.65625 6.191406 8.632812 6.195312 8.617188 6.207031 L 7.890625 6.898438 C 7.859375 6.925781 7.855469 6.96875 7.878906 7.003906 L 8.730469 8.332031 C 8.578125 8.574219 8.457031 8.832031 8.371094 9.105469 L 6.808594 9.410156 C 6.761719 9.417969 6.730469 9.457031 6.730469 9.5 L 6.730469 10.472656 C 6.730469 10.515625 6.765625 10.550781 6.808594 10.558594 L 8.320312 10.90625 C 8.402344 11.222656 8.527344 11.527344 8.695312 11.800781 L 7.816406 13.066406 C 7.789062 13.101562 7.796875 13.148438 7.828125 13.179688 L 8.554688 13.867188 C 8.585938 13.894531 8.632812 13.898438 8.667969 13.878906 L 10.046875 13.089844 C 10.316406 13.234375 10.609375 13.355469 10.917969 13.433594 L 11.238281 14.890625 C 11.246094 14.933594 11.28125 14.964844 11.328125 14.964844 L 12.355469 14.964844 C 12.398438 14.964844 12.4375 14.9375 12.445312 14.894531 L 12.828125 13.429688 C 13.144531 13.347656 13.445312 13.230469 13.71875 13.074219 L 15.078125 13.917969 C 15.113281 13.9375 15.164062 13.933594 15.195312 13.90625 L 15.917969 13.214844 C 15.949219 13.1875 15.957031 13.144531 15.933594 13.109375 L 15.441406 12.335938 L 15.277344 12.386719 C 15.253906 12.394531 15.230469 12.382812 15.214844 12.363281 C 15.214844 12.363281 14.902344 11.929688 14.496094 11.363281 C 14.007812 12.265625 13.015625 12.882812 11.871094 12.882812 C 10.242188 12.882812 8.921875 11.636719 8.921875 10.097656 C 8.921875 8.964844 9.640625 7.992188 10.664062 7.554688 L 10.664062 6.835938 C 10.476562 6.898438 10.296875 6.972656 10.125 7.0625 C 10.125 7.0625 10.125 7.058594 10.125 7.058594 L 8.738281 6.199219 C 8.71875 6.1875 8.699219 6.183594 8.679688 6.1875 Z M 8.675781 6.1875 "/>
</g>
</svg>
