<?xml version="1.0" encoding="UTF-8"?>
<svg xmlns="http://www.w3.org/2000/svg" xmlns:xlink="http://www.w3.org/1999/xlink" width="24pt" height="24pt" viewBox="0 0 24 24" version="1.1">
<g id="surface1">
<path style=" stroke:none;fill-rule:evenodd;fill:rgb(60%,60%,60%);fill-opacity:1;" d="M 5.605469 1.421875 L 18.394531 1.421875 C 20.703125 1.421875 22.578125 3.296875 22.578125 5.605469 L 22.578125 18.394531 C 22.578125 20.703125 20.703125 22.578125 18.394531 22.578125 L 5.605469 22.578125 C 3.296875 22.578125 1.421875 20.703125 1.421875 18.394531 L 1.421875 5.605469 C 1.421875 3.296875 3.296875 1.421875 5.605469 1.421875 Z M 5.605469 1.421875 "/>
<path style=" stroke:none;fill-rule:nonzero;fill:rgb(94.901961%,21.568627%,21.568627%);fill-opacity:1;" d="M 16.5 3 C 13.601562 3 11.25 5.351562 11.25 8.25 C 11.25 11.148438 13.601562 13.5 16.5 13.5 C 19.398438 13.5 21.75 11.148438 21.75 8.25 C 21.75 5.351562 19.398438 3 16.5 3 Z M 16.5 3 "/>
<path style=" stroke:none;fill-rule:nonzero;fill:rgb(21.568627%,62.745098%,94.901961%);fill-opacity:1;" d="M 7.5 10.5 C 4.601562 10.5 2.25 12.851562 2.25 15.75 C 2.25 18.648438 4.601562 21 7.5 21 C 10.398438 21 12.75 18.648438 12.75 15.75 C 12.75 12.851562 10.398438 10.5 7.5 10.5 Z M 7.5 10.5 "/>
</g>
</svg>
