<?xml version="1.0" encoding="UTF-8"?>
<svg xmlns="http://www.w3.org/2000/svg" xmlns:xlink="http://www.w3.org/1999/xlink" width="24pt" height="24pt" viewBox="0 0 24 24" version="1.1">
<g id="surface1">
<path style=" stroke:none;fill-rule:evenodd;fill:rgb(55.686275%,55.686275%,55.686275%);fill-opacity:1;" d="M 5.605469 1.421875 L 18.394531 1.421875 C 20.703125 1.421875 22.578125 3.296875 22.578125 5.605469 L 22.578125 18.394531 C 22.578125 20.703125 20.703125 22.578125 18.394531 22.578125 L 5.605469 22.578125 C 3.296875 22.578125 1.421875 20.703125 1.421875 18.394531 L 1.421875 5.605469 C 1.421875 3.296875 3.296875 1.421875 5.605469 1.421875 Z M 5.605469 1.421875 "/>
<path style=" stroke:none;fill-rule:nonzero;fill:rgb(40%,40%,40%);fill-opacity:1;" d="M 14.269531 8.046875 C 11.078125 8.046875 8.488281 10.636719 8.488281 13.832031 L 8.488281 19.613281 L 14.269531 19.613281 C 17.464844 19.613281 20.054688 17.023438 20.054688 13.832031 C 20.054688 10.636719 17.464844 8.046875 14.269531 8.046875 Z M 14.269531 10.527344 C 16.097656 10.527344 17.574219 12.007812 17.574219 13.832031 C 17.574219 15.65625 16.097656 17.136719 14.269531 17.136719 C 12.445312 17.136719 10.964844 15.65625 10.964844 13.832031 C 10.964844 12.007812 12.445312 10.527344 14.269531 10.527344 Z M 14.269531 10.527344 "/>
<path style=" stroke:none;fill-rule:nonzero;fill:rgb(55.686275%,55.686275%,55.686275%);fill-opacity:1;" d="M 14.078125 10.015625 C 14.078125 8.140625 12.464844 6.625 10.476562 6.625 C 8.484375 6.625 6.871094 8.140625 6.871094 10.015625 C 6.871094 11.890625 8.484375 13.40625 10.476562 13.40625 C 12.464844 13.40625 14.078125 11.890625 14.078125 10.015625 Z M 14.078125 10.015625 "/>
<path style=" stroke:none;fill-rule:nonzero;fill:rgb(20%,20%,20%);fill-opacity:1;" d="M 10.394531 4.367188 C 7.199219 4.367188 4.609375 6.957031 4.609375 10.152344 L 4.609375 15.933594 L 10.394531 15.933594 C 13.585938 15.933594 16.175781 13.34375 16.175781 10.152344 C 16.175781 6.957031 13.585938 4.367188 10.394531 4.367188 Z M 10.394531 6.847656 C 12.21875 6.847656 13.699219 8.328125 13.699219 10.152344 C 13.699219 11.976562 12.21875 13.457031 10.394531 13.457031 C 8.570312 13.457031 7.089844 11.976562 7.089844 10.152344 C 7.089844 8.328125 8.570312 6.847656 10.394531 6.847656 Z M 10.394531 6.847656 "/>
</g>
</svg>
