<?xml version="1.0" encoding="UTF-8"?>
<svg xmlns="http://www.w3.org/2000/svg" xmlns:xlink="http://www.w3.org/1999/xlink" width="24pt" height="24pt" viewBox="0 0 24 24" version="1.1">
<g id="surface1">
<path style=" stroke:none;fill-rule:evenodd;fill:rgb(66.27451%,28.627451%,7.058824%);fill-opacity:1;" d="M 5.605469 1.421875 L 18.394531 1.421875 C 20.703125 1.421875 22.578125 3.296875 22.578125 5.605469 L 22.578125 18.394531 C 22.578125 20.703125 20.703125 22.578125 18.394531 22.578125 L 5.605469 22.578125 C 3.296875 22.578125 1.421875 20.703125 1.421875 18.394531 L 1.421875 5.605469 C 1.421875 3.296875 3.296875 1.421875 5.605469 1.421875 Z M 5.605469 1.421875 "/>
<path style=" stroke:none;fill-rule:nonzero;fill:rgb(92.941176%,64.313725%,34.509804%);fill-opacity:1;" d="M 10.5 12.375 L 13.5 12.375 L 12.75 19.875 L 11.25 19.875 Z M 10.5 12.375 "/>
<path style=" stroke:none;fill-rule:nonzero;fill:rgb(92.941176%,64.313725%,34.509804%);fill-opacity:1;" d="M 12 4.125 C 9.515625 4.125 7.5 6.140625 7.5 8.625 C 7.5 11.109375 9.515625 13.125 12 13.125 C 14.484375 13.125 16.5 11.109375 16.5 8.625 C 16.5 6.140625 14.484375 4.125 12 4.125 Z M 12 4.875 C 13.65625 4.875 15 6.21875 15 7.875 C 15 9.53125 13.65625 10.875 12 10.875 C 10.34375 10.875 9 9.53125 9 7.875 C 9 6.21875 10.34375 4.875 12 4.875 Z M 12 4.875 "/>
<path style=" stroke:none;fill-rule:nonzero;fill:rgb(96.078431%,38.039216%,38.039216%);fill-opacity:1;" d="M 15 13.125 L 15 14.625 L 9 14.625 L 9 13.125 Z M 15 13.125 "/>
</g>
</svg>
