<?xml version="1.0" encoding="UTF-8"?>
<svg xmlns="http://www.w3.org/2000/svg" xmlns:xlink="http://www.w3.org/1999/xlink" width="24pt" height="24pt" viewBox="0 0 24 24" version="1.1">
<g id="surface1">
<path style=" stroke:none;fill-rule:evenodd;fill:rgb(46.27451%,61.960784%,86.27451%);fill-opacity:1;" d="M 5.605469 1.421875 L 18.394531 1.421875 C 20.703125 1.421875 22.578125 3.296875 22.578125 5.605469 L 22.578125 18.394531 C 22.578125 20.703125 20.703125 22.578125 18.394531 22.578125 L 5.605469 22.578125 C 3.296875 22.578125 1.421875 20.703125 1.421875 18.394531 L 1.421875 5.605469 C 1.421875 3.296875 3.296875 1.421875 5.605469 1.421875 Z M 5.605469 1.421875 "/>
<path style=" stroke:none;fill-rule:nonzero;fill:rgb(19.215686%,19.215686%,19.215686%);fill-opacity:1;" d="M 12.511719 5.625 C 12.429688 5.625 12.445312 5.941406 12.53125 6.011719 C 12.625 6.09375 12.765625 6.375 12.808594 6.566406 L 12.839844 6.71875 L 12.578125 6.777344 C 11.953125 6.910156 11.832031 7.339844 12.234375 7.992188 C 12.375 8.222656 12.375 8.226562 12.347656 8.722656 C 12.328125 9.097656 12.339844 9.285156 12.390625 9.464844 C 12.472656 9.742188 12.695312 9.996094 12.933594 10.078125 C 13.195312 10.164062 13.902344 10.125 14.164062 10.003906 C 14.453125 9.871094 14.828125 9.480469 14.933594 9.203125 C 15.054688 8.875 15.007812 8.421875 14.8125 8.027344 C 14.625 7.644531 14.132812 7.128906 13.789062 6.953125 C 13.609375 6.859375 13.523438 6.78125 13.464844 6.644531 C 13.375 6.457031 12.601562 5.625 12.511719 5.625 Z M 8.03125 7.125 C 8.019531 7.125 8.007812 7.128906 8 7.136719 C 7.90625 7.230469 7.832031 7.722656 7.839844 8.183594 C 7.847656 8.621094 7.835938 8.710938 7.75 8.855469 C 7.464844 9.335938 7.414062 10.222656 7.648438 10.722656 C 7.851562 11.167969 8.195312 11.4375 8.710938 11.566406 C 9.074219 11.65625 9.320312 11.644531 9.660156 11.519531 C 10.597656 11.175781 10.761719 10.507812 10.089844 9.75 C 9.816406 9.445312 9.6875 9.195312 9.6875 8.96875 C 9.6875 8.695312 9.585938 8.425781 9.417969 8.242188 C 9.265625 8.078125 9.253906 8.078125 8.964844 8.101562 C 8.800781 8.117188 8.605469 8.144531 8.535156 8.160156 C 8.414062 8.191406 8.394531 8.175781 8.308594 7.984375 C 8.257812 7.871094 8.214844 7.675781 8.214844 7.554688 C 8.214844 7.367188 8.105469 7.132812 8.03125 7.125 Z M 17.558594 7.875 C 17.441406 7.851562 17.40625 8.128906 17.5 8.324219 C 17.542969 8.417969 17.574219 8.574219 17.566406 8.671875 L 17.550781 8.851562 L 17.296875 8.855469 C 17.101562 8.859375 17.007812 8.890625 16.871094 8.996094 C 16.710938 9.117188 16.46875 9.527344 16.464844 9.679688 C 16.464844 9.714844 16.316406 10.039062 16.136719 10.402344 C 15.953125 10.761719 15.789062 11.132812 15.769531 11.222656 C 15.667969 11.691406 15.953125 12.042969 16.632812 12.289062 C 16.921875 12.394531 17.222656 12.402344 17.550781 12.316406 C 18.082031 12.171875 18.421875 11.90625 18.628906 11.46875 C 18.738281 11.238281 18.75 11.144531 18.75 10.722656 C 18.746094 10.179688 18.644531 9.835938 18.367188 9.445312 C 18.277344 9.324219 18.171875 9.085938 18.128906 8.917969 C 18.042969 8.570312 17.671875 7.898438 17.558594 7.875 Z M 5.308594 11.625 C 5.296875 11.625 5.289062 11.625 5.28125 11.632812 C 5.183594 11.738281 5.332031 12.757812 5.480469 13 C 5.515625 13.0625 5.566406 13.265625 5.59375 13.453125 C 5.722656 14.3125 6.320312 15.109375 6.996094 15.332031 C 7.230469 15.410156 7.730469 15.378906 8.054688 15.273438 C 8.324219 15.1875 8.414062 15.125 8.617188 14.898438 C 9.039062 14.425781 9.113281 13.957031 8.832031 13.578125 C 8.757812 13.476562 8.53125 13.289062 8.324219 13.160156 C 8.121094 13.03125 7.765625 12.796875 7.539062 12.632812 C 6.867188 12.160156 6.796875 12.117188 6.609375 12.0625 C 6.375 11.992188 6.136719 12.066406 5.941406 12.269531 L 5.789062 12.429688 L 5.691406 12.261719 C 5.640625 12.167969 5.59375 12.042969 5.59375 11.988281 C 5.59375 11.882812 5.394531 11.644531 5.308594 11.625 Z M 13.878906 12.375 C 13.582031 12.375 13.242188 12.421875 12.847656 12.519531 C 11.738281 12.785156 11.214844 13.105469 10.976562 13.65625 C 10.871094 13.894531 10.863281 13.976562 10.890625 14.433594 C 10.921875 14.898438 10.914062 14.964844 10.804688 15.199219 C 10.695312 15.433594 10.566406 15.566406 9.980469 16.058594 C 9.792969 16.214844 9.777344 16.253906 9.753906 16.539062 C 9.734375 16.808594 9.753906 16.894531 9.890625 17.179688 C 10.179688 17.792969 10.699219 18.203125 11.347656 18.328125 C 11.65625 18.390625 11.859375 18.390625 12.386719 18.332031 C 14.441406 18.101562 16.804688 17.363281 17.480469 16.734375 C 17.832031 16.40625 17.972656 16.105469 17.996094 15.625 C 18.042969 14.707031 17.628906 14.15625 16.890625 14.15625 C 16.316406 14.152344 15.734375 13.816406 15.496094 13.347656 C 15.320312 13.003906 14.964844 12.65625 14.628906 12.511719 C 14.421875 12.417969 14.171875 12.375 13.878906 12.375 Z M 13.878906 12.375 "/>
</g>
</svg>
