<?xml version="1.0" encoding="UTF-8"?>
<svg xmlns="http://www.w3.org/2000/svg" xmlns:xlink="http://www.w3.org/1999/xlink" width="24pt" height="24pt" viewBox="0 0 24 24" version="1.1">
<g id="surface1">
<path style=" stroke:none;fill-rule:evenodd;fill:rgb(90.980392%,11.372549%,38.431373%);fill-opacity:1;" d="M 22.574219 9.167969 L 22.574219 5.605469 C 22.574219 3.289062 20.710938 1.421875 18.394531 1.421875 L 14.832031 1.421875 Z M 22.574219 9.167969 "/>
<path style=" stroke:none;fill-rule:evenodd;fill:rgb(90.980392%,11.372549%,38.431373%);fill-opacity:1;" d="M 13.582031 1.425781 L 5.605469 1.425781 C 3.289062 1.425781 1.421875 3.289062 1.421875 5.605469 L 1.421875 18.394531 C 1.421875 20.710938 3.289062 22.578125 5.605469 22.578125 L 18.394531 22.578125 C 20.710938 22.578125 22.574219 20.710938 22.574219 18.394531 L 22.574219 10.417969 Z M 13.582031 1.425781 "/>
<path style=" stroke:none;fill-rule:evenodd;fill:rgb(100%,100%,100%);fill-opacity:1;" d="M 13.582031 1.425781 L 22.574219 10.417969 L 22.574219 9.167969 L 14.832031 1.425781 Z M 13.582031 1.425781 "/>
<path style=" stroke:none;fill-rule:nonzero;fill:rgb(100%,100%,100%);fill-opacity:1;" d="M 12.070312 7.132812 C 9.578125 7.132812 7.453125 7.808594 6.570312 8.761719 C 6.496094 8.839844 6.429688 8.921875 6.375 9.003906 C 6.320312 9.085938 6.277344 9.164062 6.238281 9.25 C 6.230469 9.273438 6.222656 9.300781 6.214844 9.324219 C 6.195312 9.378906 6.171875 9.4375 6.160156 9.492188 C 6.140625 9.574219 6.132812 9.65625 6.132812 9.738281 C 6.132812 9.820312 6.144531 9.90625 6.160156 9.988281 C 6.179688 10.070312 6.207031 10.152344 6.242188 10.234375 C 6.28125 10.316406 6.324219 10.394531 6.378906 10.476562 C 6.433594 10.554688 6.496094 10.636719 6.570312 10.710938 C 7.476562 11.695312 9.652344 12.339844 12.070312 12.339844 C 14.488281 12.339844 16.664062 11.695312 17.570312 10.710938 C 17.570312 10.710938 17.570312 10.710938 17.574219 10.710938 C 17.632812 10.644531 17.6875 10.578125 17.734375 10.507812 C 17.742188 10.496094 17.753906 10.484375 17.761719 10.46875 C 17.800781 10.414062 17.832031 10.355469 17.859375 10.296875 C 17.875 10.269531 17.890625 10.242188 17.902344 10.214844 C 17.921875 10.167969 17.9375 10.117188 17.953125 10.070312 C 17.964844 10.03125 17.976562 9.996094 17.984375 9.957031 C 18 9.882812 18.007812 9.808594 18.007812 9.738281 C 18.007812 9.648438 17.996094 9.5625 17.976562 9.476562 C 17.921875 9.222656 17.78125 8.984375 17.574219 8.757812 C 16.691406 7.804688 14.5625 7.132812 12.070312 7.132812 Z M 6.570312 12.011719 C 6.28125 12.324219 6.132812 12.65625 6.132812 12.988281 C 6.132812 14.425781 8.792969 15.589844 12.070312 15.589844 C 15.351562 15.589844 18.007812 14.425781 18.007812 12.988281 C 18.007812 12.652344 17.859375 12.324219 17.570312 12.011719 C 16.664062 12.996094 14.488281 13.640625 12.070312 13.640625 C 9.652344 13.640625 7.476562 12.996094 6.570312 12.011719 Z M 6.570312 15.265625 C 6.28125 15.574219 6.132812 15.90625 6.132812 16.242188 C 6.132812 17.679688 8.789062 18.84375 12.070312 18.84375 C 15.351562 18.84375 18.007812 17.679688 18.007812 16.242188 C 18.007812 15.90625 17.859375 15.574219 17.570312 15.265625 C 16.664062 16.25 14.488281 16.890625 12.070312 16.894531 C 9.652344 16.890625 7.476562 16.25 6.570312 15.265625 Z M 6.570312 15.265625 "/>
</g>
</svg>
