<?xml version="1.0" encoding="UTF-8"?>
<svg xmlns="http://www.w3.org/2000/svg" xmlns:xlink="http://www.w3.org/1999/xlink" width="24pt" height="24pt" viewBox="0 0 24 24" version="1.1">
<defs>
<clipPath id="clip1">
  <rect width="24" height="24"/>
</clipPath>
<g id="surface6" clip-path="url(#clip1)">
<path style="fill-rule:nonzero;fill:rgb(100%,100%,100%);fill-opacity:1;stroke-width:0.3;stroke-linecap:butt;stroke-linejoin:miter;stroke:rgb(100%,100%,100%);stroke-opacity:1;stroke-miterlimit:4;" d="M 12.286458 13.192708 L 24.489583 13.192708 L 24.489583 14.364583 L 13.239583 14.364583 L 11.010417 25.026042 L 10.640625 26.671875 L 9.90625 25.171875 L 7.5625 20.484375 L 8.588542 19.96875 L 10.166667 23.15625 L 12.182292 13.666667 Z M 15.109375 15.536458 L 16.28125 15.536458 L 18.625 19.270833 L 20.96875 15.536458 L 22.140625 15.536458 L 19.213542 20.223958 L 22.140625 24.916667 L 20.96875 24.916667 L 18.625 21.177083 L 16.28125 24.916667 L 15.109375 24.916667 L 18.041667 20.223958 Z M 15.109375 15.536458 " transform="matrix(0.75,0,0,0.75,0,0)"/>
</g>
</defs>
<g id="surface1">
<path style=" stroke:none;fill-rule:evenodd;fill:rgb(70.196078%,70.196078%,70.196078%);fill-opacity:1;" d="M 22.574219 9.167969 L 22.574219 5.605469 C 22.574219 3.289062 20.710938 1.421875 18.394531 1.421875 L 14.832031 1.421875 Z M 22.574219 9.167969 "/>
<path style=" stroke:none;fill-rule:evenodd;fill:rgb(70.196078%,70.196078%,70.196078%);fill-opacity:1;" d="M 13.582031 1.425781 L 5.605469 1.425781 C 3.289062 1.425781 1.421875 3.289062 1.421875 5.605469 L 1.421875 18.394531 C 1.421875 20.710938 3.289062 22.578125 5.605469 22.578125 L 18.394531 22.578125 C 20.710938 22.578125 22.574219 20.710938 22.574219 18.394531 L 22.574219 10.417969 Z M 13.582031 1.425781 "/>
<path style=" stroke:none;fill-rule:evenodd;fill:rgb(100%,100%,100%);fill-opacity:1;" d="M 13.582031 1.425781 L 22.574219 10.417969 L 22.574219 9.167969 L 14.832031 1.425781 Z M 13.582031 1.425781 "/>
<use xlink:href="#surface6"/>
</g>
</svg>
