<?xml version="1.0" encoding="UTF-8"?>
<svg xmlns="http://www.w3.org/2000/svg" xmlns:xlink="http://www.w3.org/1999/xlink" width="24pt" height="24pt" viewBox="0 0 24 24" version="1.1">
<g id="surface1">
<path style=" stroke:none;fill-rule:evenodd;fill:rgb(55.686275%,55.686275%,55.686275%);fill-opacity:1;" d="M 5.605469 1.421875 L 18.394531 1.421875 C 20.703125 1.421875 22.578125 3.296875 22.578125 5.605469 L 22.578125 18.394531 C 22.578125 20.703125 20.703125 22.578125 18.394531 22.578125 L 5.605469 22.578125 C 3.296875 22.578125 1.421875 20.703125 1.421875 18.394531 L 1.421875 5.605469 C 1.421875 3.296875 3.296875 1.421875 5.605469 1.421875 Z M 5.605469 1.421875 "/>
<path style=" stroke:none;fill-rule:nonzero;fill:rgb(27.843137%,27.843137%,27.843137%);fill-opacity:1;" d="M 6.6875 6.132812 L 17.3125 6.132812 C 18.707031 6.132812 19.835938 7.261719 19.835938 8.65625 L 19.835938 15.34375 C 19.835938 16.738281 18.707031 17.867188 17.3125 17.867188 L 6.6875 17.867188 C 5.292969 17.867188 4.164062 16.738281 4.164062 15.34375 L 4.164062 8.65625 C 4.164062 7.261719 5.292969 6.132812 6.6875 6.132812 Z M 6.6875 6.132812 "/>
<path style=" stroke:none;fill-rule:nonzero;fill:rgb(11.372549%,51.372549%,68.627451%);fill-opacity:1;" d="M 6.777344 6.875 L 17.222656 6.875 C 18.277344 6.875 19.132812 7.699219 19.132812 8.710938 L 19.132812 15.289062 C 19.132812 16.300781 18.277344 17.125 17.222656 17.125 L 6.777344 17.125 C 5.722656 17.125 4.867188 16.300781 4.867188 15.289062 L 4.867188 8.710938 C 4.867188 7.699219 5.722656 6.875 6.777344 6.875 Z M 6.777344 6.875 "/>
<path style=" stroke:none;fill-rule:nonzero;fill:rgb(94.117647%,97.647059%,99.215686%);fill-opacity:1;" d="M 17.132812 10.003906 C 17.132812 11.105469 16.238281 12 15.136719 12 C 14.035156 12 13.140625 11.105469 13.140625 10.003906 C 13.140625 8.902344 14.035156 8.007812 15.136719 8.007812 C 16.238281 8.007812 17.132812 8.902344 17.132812 10.003906 Z M 17.132812 10.003906 "/>
<path style=" stroke:none;fill-rule:nonzero;fill:rgb(76.862745%,90.588235%,96.078431%);fill-opacity:1;" d="M 9.71875 12.285156 C 9.71875 13.074219 9.082031 13.710938 8.292969 13.710938 C 7.507812 13.710938 6.867188 13.074219 6.867188 12.285156 C 6.867188 11.496094 7.507812 10.859375 8.292969 10.859375 C 9.082031 10.859375 9.71875 11.496094 9.71875 12.285156 Z M 9.71875 12.285156 "/>
<path style=" stroke:none;fill-rule:nonzero;fill:rgb(65.098039%,85.490196%,94.117647%);fill-opacity:1;" d="M 14.28125 14.851562 C 14.28125 15.480469 13.769531 15.992188 13.140625 15.992188 C 12.511719 15.992188 12 15.480469 12 14.851562 C 12 14.222656 12.511719 13.710938 13.140625 13.710938 C 13.769531 13.710938 14.28125 14.222656 14.28125 14.851562 Z M 14.28125 14.851562 "/>
<path style=" stroke:none;fill-rule:nonzero;fill:rgb(76.862745%,90.588235%,96.078431%);fill-opacity:1;" d="M 12 10.003906 C 12 10.476562 11.617188 10.859375 11.144531 10.859375 C 10.671875 10.859375 10.289062 10.476562 10.289062 10.003906 C 10.289062 9.53125 10.671875 9.148438 11.144531 9.148438 C 11.617188 9.148438 12 9.53125 12 10.003906 Z M 12 10.003906 "/>
<path style=" stroke:none;fill-rule:nonzero;fill:rgb(82.745098%,92.941176%,97.254902%);fill-opacity:1;" d="M 16.925781 14.101562 C 16.925781 14.515625 16.589844 14.851562 16.175781 14.851562 C 15.761719 14.851562 15.425781 14.515625 15.425781 14.101562 C 15.425781 13.683594 15.761719 13.351562 16.175781 13.351562 C 16.589844 13.351562 16.925781 13.683594 16.925781 14.101562 Z M 16.925781 14.101562 "/>
</g>
</svg>
