<?xml version="1.0" encoding="UTF-8"?>
<svg xmlns="http://www.w3.org/2000/svg" xmlns:xlink="http://www.w3.org/1999/xlink" width="24pt" height="24pt" viewBox="0 0 24 24" version="1.1">
<defs>
<clipPath id="clip1">
  <rect width="24" height="24"/>
</clipPath>
<g id="surface6" clip-path="url(#clip1)">
<path style=" stroke:none;fill-rule:nonzero;fill:rgb(14.509804%,77.647059%,37.254902%);fill-opacity:1;" d="M 3.839844 18.265625 L 3.847656 12.003906 L 3.839844 8.859375 L 6.566406 7.300781 L 12.007812 4.164062 L 17.449219 7.300781 L 20.160156 8.859375 L 20.160156 18.265625 L 17.441406 19.835938 L 14.71875 18.265625 L 14.726562 15.140625 L 17.441406 13.5625 L 17.441406 10.429688 L 14.726562 8.867188 L 12.007812 7.300781 L 9.289062 8.867188 L 6.558594 10.429688 L 6.558594 13.5625 L 9.28125 15.132812 L 9.28125 18.265625 L 6.558594 19.832031 Z M 3.839844 18.265625 "/>
</g>
</defs>
<g id="surface1">
<path style=" stroke:none;fill-rule:evenodd;fill:rgb(30.196078%,30.196078%,30.196078%);fill-opacity:1;" d="M 5.605469 1.421875 L 18.394531 1.421875 C 20.703125 1.421875 22.578125 3.296875 22.578125 5.605469 L 22.578125 18.394531 C 22.578125 20.703125 20.703125 22.578125 18.394531 22.578125 L 5.605469 22.578125 C 3.296875 22.578125 1.421875 20.703125 1.421875 18.394531 L 1.421875 5.605469 C 1.421875 3.296875 3.296875 1.421875 5.605469 1.421875 Z M 5.605469 1.421875 "/>
<use xlink:href="#surface6"/>
</g>
</svg>
