<?xml version="1.0" encoding="UTF-8"?>
<svg xmlns="http://www.w3.org/2000/svg" xmlns:xlink="http://www.w3.org/1999/xlink" width="24pt" height="24pt" viewBox="0 0 24 24" version="1.1">
<g id="surface1">
<path style=" stroke:none;fill-rule:evenodd;fill:rgb(100%,54.117647%,0%);fill-opacity:1;" d="M 5.605469 1.421875 L 18.394531 1.421875 C 20.703125 1.421875 22.578125 3.296875 22.578125 5.605469 L 22.578125 18.394531 C 22.578125 20.703125 20.703125 22.578125 18.394531 22.578125 L 5.605469 22.578125 C 3.296875 22.578125 1.421875 20.703125 1.421875 18.394531 L 1.421875 5.605469 C 1.421875 3.296875 3.296875 1.421875 5.605469 1.421875 Z M 5.605469 1.421875 "/>
<path style=" stroke:none;fill-rule:nonzero;fill:rgb(100%,100%,100%);fill-opacity:1;" d="M 7.773438 17.425781 C 6.933594 16.15625 6.242188 15.09375 6.242188 15.066406 C 6.242188 15.023438 6.753906 14.773438 8.71875 13.871094 C 10.085938 13.246094 11.21875 12.734375 11.238281 12.730469 C 11.257812 12.730469 11.277344 12.757812 11.277344 12.789062 C 11.277344 12.824219 11.140625 13.347656 10.972656 13.953125 C 10.757812 14.734375 10.679688 15.066406 10.699219 15.09375 C 10.75 15.152344 11.21875 15.3125 11.542969 15.378906 C 11.988281 15.46875 12.65625 15.507812 13.074219 15.472656 C 14.351562 15.363281 15.703125 14.761719 16.933594 13.753906 C 17.316406 13.4375 17.335938 13.421875 17.347656 13.4375 C 17.371094 13.460938 17.097656 14.089844 16.945312 14.375 C 16.675781 14.863281 16.429688 15.222656 16.050781 15.667969 C 15.097656 16.78125 13.890625 17.453125 12.425781 17.679688 C 12.019531 17.742188 11.023438 17.75 10.589844 17.695312 C 10.441406 17.675781 10.25 17.648438 10.164062 17.640625 L 10.007812 17.621094 L 9.851562 18.152344 C 9.535156 19.195312 9.367188 19.710938 9.335938 19.722656 C 9.320312 19.726562 8.617188 18.695312 7.773438 17.425781 Z M 12.65625 11.277344 C 12.71875 11.0625 13.285156 8.992188 13.285156 8.976562 C 13.285156 8.898438 12.59375 8.679688 12.105469 8.605469 C 11.65625 8.535156 10.8125 8.535156 10.425781 8.605469 C 9.214844 8.816406 7.96875 9.4375 6.832031 10.386719 C 6.691406 10.503906 6.566406 10.601562 6.550781 10.601562 C 6.507812 10.601562 6.527344 10.539062 6.667969 10.210938 C 7 9.429688 7.472656 8.71875 8.089844 8.085938 C 9.046875 7.097656 10.117188 6.546875 11.503906 6.320312 C 11.96875 6.246094 12.9375 6.246094 13.507812 6.324219 C 13.738281 6.351562 13.9375 6.371094 13.945312 6.359375 C 13.957031 6.347656 14.105469 5.886719 14.277344 5.332031 C 14.449219 4.777344 14.601562 4.308594 14.621094 4.292969 C 14.644531 4.269531 14.671875 4.273438 14.710938 4.316406 C 14.828125 4.4375 17.757812 8.894531 17.757812 8.953125 C 17.757812 8.984375 17.742188 9.023438 17.71875 9.042969 C 17.699219 9.058594 16.851562 9.449219 15.839844 9.910156 C 14.828125 10.371094 13.71875 10.878906 13.378906 11.039062 C 12.746094 11.335938 12.628906 11.375 12.65625 11.277344 Z M 12.65625 11.277344 "/>
</g>
</svg>
