<?xml version="1.0" encoding="UTF-8"?>
<svg xmlns="http://www.w3.org/2000/svg" xmlns:xlink="http://www.w3.org/1999/xlink" width="24pt" height="24pt" viewBox="0 0 24 24" version="1.1">
<g id="surface1">
<path style=" stroke:none;fill-rule:evenodd;fill:rgb(76.078431%,24.705882%,17.254902%);fill-opacity:1;" d="M 5.648438 1.5 L 18.351562 1.5 C 20.640625 1.5 22.5 3.359375 22.5 5.648438 L 22.5 18.351562 C 22.5 20.640625 20.640625 22.5 18.351562 22.5 L 5.648438 22.5 C 3.359375 22.5 1.5 20.640625 1.5 18.351562 L 1.5 5.648438 C 1.5 3.359375 3.359375 1.5 5.648438 1.5 Z M 5.648438 1.5 "/>
<path style=" stroke:none;fill-rule:nonzero;fill:rgb(60.784314%,12.54902%,5.098039%);fill-opacity:1;" d="M 12 3.855469 C 16.496094 3.855469 20.144531 7.503906 20.144531 12 C 20.144531 16.496094 16.496094 20.144531 12 20.144531 C 7.503906 20.144531 3.855469 16.496094 3.855469 12 C 3.855469 7.503906 7.503906 3.855469 12 3.855469 Z M 12 3.855469 "/>
<path style=" stroke:none;fill-rule:nonzero;fill:rgb(89.803922%,45.490196%,32.156863%);fill-opacity:1;" d="M 12 3.855469 C 10.972656 3.855469 9.996094 4.050781 9.089844 4.394531 C 9.027344 4.457031 8.941406 4.503906 8.875 4.496094 C 8.863281 4.496094 8.851562 4.492188 8.84375 4.484375 C 8.402344 4.671875 7.976562 4.902344 7.574219 5.160156 C 7.628906 5.242188 7.644531 5.339844 7.539062 5.386719 C 7.519531 5.394531 7.292969 5.414062 7.214844 5.414062 C 6.074219 6.242188 5.160156 7.355469 4.578125 8.652344 C 4.585938 8.652344 4.59375 8.648438 4.601562 8.648438 C 4.691406 8.648438 4.820312 8.671875 4.90625 8.691406 C 4.984375 8.707031 5.046875 8.757812 5.113281 8.761719 C 5.308594 8.777344 5.355469 8.628906 5.511719 8.546875 C 5.671875 8.566406 5.78125 8.515625 5.929688 8.53125 C 6.03125 8.546875 6.101562 8.652344 6.179688 8.65625 C 6.246094 8.664062 6.304688 8.597656 6.367188 8.605469 C 6.429688 8.617188 6.535156 8.75 6.542969 8.824219 C 6.558594 8.917969 6.476562 9.003906 6.503906 9.105469 C 6.601562 9.207031 6.78125 9.226562 6.917969 9.285156 C 7.011719 9.210938 6.933594 9.070312 6.917969 8.960938 C 6.917969 8.914062 6.925781 8.867188 6.917969 8.824219 C 6.910156 8.75 6.878906 8.683594 6.878906 8.617188 C 6.878906 8.320312 7.117188 8.179688 7.316406 8.066406 C 7.402344 8.011719 7.46875 7.921875 7.546875 7.886719 C 7.652344 7.832031 7.730469 7.820312 7.820312 7.769531 C 7.976562 7.683594 8.109375 7.609375 8.234375 7.507812 C 8.292969 7.375 8.242188 7.195312 8.246094 7.0625 C 8.300781 7.023438 8.351562 7.078125 8.414062 7.070312 C 8.507812 7.050781 8.515625 6.917969 8.570312 6.863281 C 8.601562 6.832031 8.6875 6.8125 8.726562 6.78125 C 8.824219 6.703125 8.851562 6.59375 8.9375 6.558594 C 8.96875 6.550781 9.035156 6.550781 9.082031 6.539062 C 9.144531 6.523438 9.230469 6.449219 9.332031 6.414062 C 9.398438 6.390625 9.550781 6.386719 9.570312 6.363281 C 9.601562 6.328125 9.570312 6.242188 9.582031 6.195312 C 9.632812 5.960938 9.988281 5.910156 10.199219 5.832031 C 10.34375 5.773438 10.496094 5.671875 10.65625 5.703125 C 10.628906 5.816406 10.476562 5.777344 10.503906 5.914062 C 10.535156 6.101562 10.789062 5.859375 10.855469 5.832031 C 10.984375 5.777344 11.203125 5.742188 11.367188 5.683594 C 11.515625 5.628906 11.78125 5.550781 11.640625 5.382812 C 11.527344 5.375 11.46875 5.515625 11.367188 5.558594 C 11.300781 5.570312 11.316406 5.5 11.253906 5.496094 C 11.199219 5.488281 11.167969 5.546875 11.109375 5.535156 C 11.050781 5.527344 10.972656 5.4375 10.960938 5.371094 C 10.941406 5.195312 11.109375 5.125 11.179688 4.992188 C 11.132812 4.835938 10.917969 4.960938 10.785156 4.898438 C 10.796875 4.808594 10.894531 4.742188 11.003906 4.722656 C 11.09375 4.707031 11.292969 4.714844 11.347656 4.761719 C 11.378906 4.792969 11.351562 4.855469 11.398438 4.898438 C 11.453125 4.949219 11.519531 4.945312 11.589844 4.929688 C 11.613281 4.8125 11.433594 4.84375 11.453125 4.761719 C 11.59375 4.671875 11.824219 4.746094 11.996094 4.722656 C 12.09375 4.707031 12.199219 4.636719 12.289062 4.585938 C 12.371094 4.539062 12.480469 4.457031 12.570312 4.535156 C 12.59375 4.621094 12.492188 4.648438 12.445312 4.691406 C 12.285156 4.832031 12.121094 4.996094 11.996094 5.160156 C 12.074219 5.234375 12.210938 5.199219 12.339844 5.210938 C 12.390625 5.21875 12.453125 5.234375 12.507812 5.242188 C 12.570312 5.253906 12.636719 5.25 12.683594 5.265625 C 12.773438 5.289062 12.796875 5.382812 12.882812 5.382812 C 13.027344 5.382812 13.027344 5.226562 12.945312 5.128906 C 12.972656 5.027344 13.011719 4.980469 12.976562 4.910156 C 12.914062 4.78125 12.675781 4.902344 12.664062 4.742188 C 12.65625 4.640625 12.753906 4.644531 12.789062 4.566406 C 12.773438 4.363281 12.953125 4.347656 12.9375 4.171875 C 12.925781 4.09375 12.863281 4.09375 12.808594 4.023438 C 12.785156 3.988281 12.769531 3.921875 12.738281 3.890625 C 12.496094 3.871094 12.25 3.855469 12 3.855469 Z M 7.796875 5.5 C 7.847656 5.507812 7.90625 5.558594 7.964844 5.5625 C 8.019531 5.566406 8.066406 5.535156 8.101562 5.542969 C 8.1875 5.566406 8.226562 5.695312 8.140625 5.761719 C 8.074219 5.769531 8.046875 5.734375 7.996094 5.742188 C 7.855469 5.761719 7.800781 6.042969 7.695312 6.03125 C 7.59375 6.023438 7.539062 5.78125 7.640625 5.710938 C 7.648438 5.644531 7.597656 5.632812 7.597656 5.570312 C 7.628906 5.535156 7.714844 5.492188 7.796875 5.5 Z M 7.328125 5.53125 C 7.355469 5.535156 7.378906 5.542969 7.390625 5.550781 C 7.378906 5.664062 7.289062 5.65625 7.203125 5.710938 C 7.054688 5.796875 6.96875 5.933594 6.921875 6.125 C 6.910156 6.183594 6.761719 6.328125 6.691406 6.3125 C 6.527344 6.28125 6.734375 5.976562 6.773438 5.929688 C 6.816406 5.878906 6.871094 5.832031 6.921875 5.769531 C 6.96875 5.714844 7 5.636719 7.046875 5.605469 C 7.097656 5.570312 7.238281 5.527344 7.328125 5.53125 Z M 8.5625 5.910156 C 8.617188 5.910156 8.664062 5.917969 8.683594 5.9375 C 8.652344 6.078125 8.355469 6.039062 8.246094 5.992188 C 8.253906 5.9375 8.332031 5.925781 8.402344 5.917969 C 8.449219 5.917969 8.507812 5.90625 8.5625 5.910156 Z M 7.890625 6.160156 C 7.921875 6.160156 7.957031 6.167969 7.996094 6.179688 C 7.898438 6.261719 7.796875 6.304688 7.628906 6.355469 C 7.554688 6.382812 7.414062 6.414062 7.398438 6.324219 C 7.382812 6.214844 7.515625 6.242188 7.589844 6.230469 C 7.683594 6.21875 7.78125 6.164062 7.890625 6.160156 Z M 18.257812 6.78125 C 18.246094 6.8125 18.238281 6.839844 18.238281 6.867188 C 18.246094 6.917969 18.296875 6.964844 18.3125 7.035156 C 18.320312 7.070312 18.296875 7.148438 18.3125 7.183594 C 18.363281 7.277344 18.496094 7.207031 18.589844 7.214844 C 18.480469 7.066406 18.375 6.917969 18.257812 6.78125 Z M 18.792969 7.5 C 18.777344 7.570312 18.726562 7.664062 18.6875 7.722656 C 18.597656 7.863281 18.472656 7.871094 18.34375 7.941406 C 18.234375 8.003906 18.1875 8.109375 18.121094 8.214844 C 18.054688 8.332031 18.011719 8.402344 18.039062 8.570312 C 17.945312 8.753906 17.804688 8.867188 17.613281 8.957031 C 17.554688 8.984375 17.476562 8.992188 17.425781 9.027344 C 17.382812 9.058594 17.359375 9.140625 17.300781 9.203125 C 17.226562 9.289062 17.152344 9.320312 17.113281 9.382812 C 17.082031 9.433594 17.070312 9.527344 17.035156 9.59375 C 16.992188 9.679688 16.898438 9.726562 16.839844 9.8125 C 16.8125 9.855469 16.796875 9.9375 16.765625 9.992188 C 16.699219 10.109375 16.585938 10.199219 16.601562 10.304688 C 16.609375 10.40625 16.726562 10.421875 16.734375 10.511719 C 16.738281 10.5625 16.699219 10.59375 16.703125 10.648438 C 16.707031 10.726562 16.761719 10.785156 16.765625 10.847656 C 16.78125 11.003906 16.714844 11.0625 16.683594 11.171875 C 16.667969 11.21875 16.675781 11.277344 16.660156 11.316406 C 16.636719 11.394531 16.53125 11.464844 16.527344 11.554688 C 16.527344 11.621094 16.59375 11.675781 16.601562 11.765625 C 16.601562 11.828125 16.570312 11.894531 16.578125 11.953125 C 16.601562 12.066406 16.804688 12.199219 16.890625 12.285156 C 17.011719 12.40625 17.164062 12.496094 17.214844 12.621094 C 17.257812 12.726562 17.257812 12.863281 17.339844 12.945312 C 17.402344 13.003906 17.503906 13.039062 17.582031 13.101562 C 17.65625 13.160156 17.730469 13.207031 17.808594 13.265625 C 17.9375 13.367188 18.128906 13.5625 18.332031 13.546875 C 18.4375 13.539062 18.546875 13.457031 18.664062 13.433594 C 18.789062 13.410156 18.949219 13.402344 19.074219 13.414062 C 19.167969 13.425781 19.269531 13.480469 19.367188 13.476562 C 19.472656 13.46875 19.589844 13.390625 19.710938 13.339844 C 19.804688 13.296875 19.925781 13.25 20.054688 13.21875 C 20.109375 12.820312 20.144531 12.414062 20.144531 12 C 20.144531 10.332031 19.644531 8.785156 18.792969 7.5 Z M 5.320312 10.234375 C 5.148438 10.246094 5.035156 10.253906 4.9375 10.296875 C 4.710938 10.398438 4.753906 10.703125 4.53125 10.777344 C 4.449219 10.804688 4.34375 10.804688 4.257812 10.820312 C 4.183594 10.832031 4.09375 10.875 4.015625 10.871094 C 3.996094 10.871094 3.964844 10.855469 3.9375 10.847656 C 3.917969 10.992188 3.902344 11.136719 3.890625 11.28125 C 4.105469 11.324219 4.214844 11.605469 4.40625 11.699219 C 4.457031 11.726562 4.523438 11.730469 4.59375 11.742188 C 4.648438 11.753906 4.6875 11.777344 4.738281 11.796875 C 4.847656 11.832031 4.984375 11.828125 5.074219 11.867188 C 5.207031 11.925781 5.304688 12.179688 5.417969 12.242188 C 5.425781 12.3125 5.402344 12.402344 5.425781 12.453125 C 5.480469 12.523438 5.558594 12.507812 5.648438 12.558594 C 5.753906 12.617188 5.785156 12.761719 5.886719 12.808594 C 5.925781 12.824219 6.007812 12.820312 6.066406 12.835938 C 6.203125 12.882812 6.25 13.042969 6.367188 13.003906 C 6.445312 12.984375 6.4375 12.902344 6.453125 12.828125 C 6.503906 12.773438 6.558594 12.683594 6.640625 12.683594 C 6.769531 12.675781 6.78125 12.816406 6.828125 12.945312 C 6.855469 13.011719 6.925781 13.074219 6.941406 13.152344 C 6.976562 13.28125 6.957031 13.671875 6.933594 13.746094 C 6.898438 13.84375 6.769531 13.882812 6.691406 13.988281 C 6.652344 14.039062 6.636719 14.109375 6.605469 14.144531 C 6.554688 14.207031 6.480469 14.222656 6.441406 14.28125 C 6.421875 14.3125 6.398438 14.382812 6.378906 14.425781 C 6.3125 14.558594 6.230469 14.652344 6.285156 14.8125 C 6.304688 14.878906 6.410156 14.921875 6.410156 15 C 6.410156 15.089844 6.214844 15.171875 6.199219 15.269531 C 6.191406 15.347656 6.261719 15.476562 6.285156 15.574219 C 6.300781 15.648438 6.4375 15.691406 6.480469 15.742188 C 6.554688 15.824219 6.613281 15.941406 6.679688 16.042969 C 6.8125 16.25 6.917969 16.496094 7.046875 16.691406 C 7.113281 16.796875 7.207031 16.890625 7.253906 16.996094 C 7.277344 17.050781 7.277344 17.113281 7.296875 17.164062 C 7.371094 17.332031 7.699219 17.507812 7.871094 17.589844 C 7.949219 17.628906 8.039062 17.640625 8.109375 17.683594 C 8.222656 17.746094 8.441406 17.910156 8.496094 18.007812 C 8.546875 18.09375 8.578125 18.304688 8.601562 18.445312 C 8.632812 18.628906 8.601562 18.769531 8.613281 18.96875 C 8.621094 19.078125 8.652344 19.183594 8.652344 19.292969 C 8.652344 19.328125 8.636719 19.355469 8.632812 19.394531 C 8.632812 19.402344 8.636719 19.40625 8.636719 19.414062 C 9.660156 19.878906 10.796875 20.144531 12 20.144531 C 12.21875 20.144531 12.433594 20.132812 12.644531 20.117188 C 12.652344 20.101562 12.660156 20.082031 12.675781 20.066406 C 12.722656 20.003906 12.769531 19.949219 12.800781 19.890625 C 12.828125 19.699219 12.722656 19.566406 12.769531 19.398438 C 12.816406 19.214844 13.078125 19.097656 13.257812 19.015625 C 13.320312 18.984375 13.386719 18.9375 13.433594 18.917969 C 13.5625 18.875 13.71875 18.898438 13.832031 18.855469 C 14.03125 18.789062 14.050781 18.574219 14.144531 18.398438 C 14.191406 18.3125 14.253906 18.230469 14.261719 18.167969 C 14.265625 18.113281 14.242188 18.0625 14.25 18 C 14.261719 17.9375 14.316406 17.882812 14.332031 17.8125 C 14.355469 17.722656 14.367188 17.589844 14.367188 17.488281 C 14.367188 17.40625 14.328125 17.335938 14.324219 17.257812 C 14.3125 16.988281 14.421875 16.960938 14.519531 16.8125 C 14.574219 16.738281 14.589844 16.652344 14.625 16.601562 C 14.796875 16.351562 15.085938 16.230469 15.0625 15.851562 C 15.058594 15.726562 14.980469 15.441406 14.886719 15.402344 C 14.832031 15.378906 14.710938 15.398438 14.636719 15.371094 C 14.390625 15.277344 14.246094 14.972656 13.988281 14.953125 C 13.933594 14.945312 13.886719 14.976562 13.824219 14.972656 C 13.722656 14.96875 13.570312 14.902344 13.457031 14.890625 C 13.386719 14.882812 13.289062 14.910156 13.25 14.890625 C 13.179688 14.859375 13.175781 14.738281 13.121094 14.703125 C 13.082031 14.671875 12.996094 14.664062 12.9375 14.640625 C 12.832031 14.601562 12.75 14.554688 12.632812 14.546875 C 12.59375 14.542969 12.550781 14.5625 12.507812 14.558594 C 12.441406 14.546875 12.390625 14.46875 12.328125 14.429688 C 12.253906 14.382812 12.183594 14.363281 12.152344 14.296875 C 12.21875 14.070312 12.03125 14.007812 11.984375 13.878906 C 11.964844 13.816406 11.972656 13.746094 11.953125 13.691406 C 11.925781 13.613281 11.851562 13.566406 11.765625 13.503906 C 11.613281 13.386719 11.480469 13.277344 11.261719 13.25 C 11.171875 13.238281 11.074219 13.28125 10.960938 13.273438 C 10.839844 13.265625 10.6875 13.160156 10.597656 13.054688 C 10.507812 12.953125 10.464844 12.859375 10.386719 12.816406 C 10.3125 12.769531 10.21875 12.769531 10.167969 12.722656 C 10.144531 12.699219 10.148438 12.664062 10.125 12.617188 C 10.089844 12.539062 10.027344 12.496094 10.074219 12.40625 C 9.992188 12.363281 9.988281 12.484375 9.894531 12.46875 C 9.816406 12.355469 9.746094 12.300781 9.5625 12.332031 C 9.480469 12.347656 9.429688 12.453125 9.332031 12.457031 C 9.25 12.464844 9.191406 12.371094 9.082031 12.355469 C 9 12.34375 8.910156 12.375 8.851562 12.363281 C 8.761719 12.347656 8.738281 12.273438 8.652344 12.21875 C 8.59375 12.179688 8.476562 12.113281 8.445312 12.113281 C 8.339844 12.121094 8.265625 12.339844 8.121094 12.261719 C 8.050781 12.171875 8.234375 12.125 8.152344 12.042969 C 8.089844 11.976562 8.035156 12.070312 7.984375 12.105469 C 7.925781 12.144531 7.875 12.183594 7.808594 12.210938 C 7.667969 12.261719 7.574219 12.234375 7.464844 12.292969 C 7.359375 12.347656 7.355469 12.433594 7.296875 12.542969 C 7.246094 12.632812 7.140625 12.757812 7.066406 12.761719 C 6.980469 12.769531 6.894531 12.640625 6.816406 12.609375 C 6.578125 12.503906 6.460938 12.699219 6.261719 12.699219 C 6.078125 12.707031 5.816406 12.402344 5.824219 12.230469 C 5.824219 12.125 5.886719 11.964844 5.898438 11.835938 C 5.910156 11.730469 5.980469 11.667969 5.980469 11.570312 C 5.984375 11.445312 5.8125 11.347656 5.730469 11.332031 C 5.535156 11.296875 5.265625 11.410156 5.042969 11.324219 C 5 11.25 5.089844 11.199219 5.113281 11.132812 C 5.128906 11.09375 5.121094 11.039062 5.136719 11 C 5.160156 10.933594 5.230469 10.878906 5.261719 10.8125 C 5.285156 10.757812 5.289062 10.679688 5.3125 10.613281 C 5.339844 10.535156 5.390625 10.488281 5.394531 10.433594 C 5.402344 10.363281 5.378906 10.28125 5.324219 10.238281 Z M 8.113281 12.445312 C 8.183594 12.453125 8.195312 12.597656 8.121094 12.609375 C 8.042969 12.625 8.003906 12.488281 8.082031 12.453125 C 8.089844 12.445312 8.105469 12.445312 8.113281 12.449219 Z M 8.113281 12.445312 "/>
</g>
</svg>
