<?xml version="1.0" encoding="UTF-8"?>
<svg xmlns="http://www.w3.org/2000/svg" xmlns:xlink="http://www.w3.org/1999/xlink" width="24pt" height="24pt" viewBox="0 0 24 24" version="1.1">
<g id="surface1">
<path style=" stroke:none;fill-rule:evenodd;fill:rgb(15.686275%,40.392157%,67.058824%);fill-opacity:1;" d="M 12 1.421875 L 5.605469 1.421875 C 3.289062 1.425781 1.421875 3.289062 1.421875 5.605469 L 1.421875 18.394531 C 1.421875 20.710938 3.289062 22.578125 5.605469 22.578125 L 12 22.578125 Z M 12 1.421875 "/>
<path style=" stroke:none;fill-rule:evenodd;fill:rgb(46.666667%,69.411765%,89.019608%);fill-opacity:1;" d="M 12 1.421875 L 12 22.578125 L 18.394531 22.578125 C 20.710938 22.574219 22.574219 20.710938 22.574219 18.394531 L 22.574219 5.605469 C 22.574219 3.289062 20.710938 1.421875 18.394531 1.421875 Z M 12 1.421875 "/>
<path style=" stroke:none;fill-rule:nonzero;fill:rgb(75.294118%,75.294118%,75.294118%);fill-opacity:1;" d="M 7.433594 5.820312 C 3.042969 12.015625 7.863281 17.226562 11.875 18.226562 C 17.835938 16.640625 19.5625 10.0625 16.316406 5.820312 C 14.566406 6.734375 13.140625 6.632812 11.96875 5.773438 C 10.429688 6.894531 8.929688 6.421875 7.433594 5.820312 Z M 7.433594 5.820312 "/>
<path style=" stroke:none;fill-rule:nonzero;fill:rgb(11.764706%,19.215686%,31.764706%);fill-opacity:1;" d="M 11.9375 9.175781 C 10.992188 9.175781 10.226562 9.941406 10.226562 10.882812 C 10.226562 11.492188 10.550781 12.054688 11.078125 12.359375 L 11.078125 13.964844 C 11.078125 14.441406 11.460938 14.824219 11.9375 14.824219 C 12.414062 14.824219 12.796875 14.441406 12.796875 13.964844 L 12.796875 12.359375 C 13.320312 12.054688 13.644531 11.492188 13.648438 10.882812 C 13.644531 9.941406 12.882812 9.175781 11.9375 9.175781 Z M 11.9375 9.175781 "/>
</g>
</svg>
