<?xml version="1.0" encoding="UTF-8"?>
<svg xmlns="http://www.w3.org/2000/svg" xmlns:xlink="http://www.w3.org/1999/xlink" width="24pt" height="24pt" viewBox="0 0 24 24" version="1.1">
<g id="surface1">
<path style=" stroke:none;fill-rule:evenodd;fill:rgb(100%,100%,100%);fill-opacity:1;" d="M 5.605469 1.421875 L 18.394531 1.421875 C 20.703125 1.421875 22.578125 3.296875 22.578125 5.605469 L 22.578125 18.394531 C 22.578125 20.703125 20.703125 22.578125 18.394531 22.578125 L 5.605469 22.578125 C 3.296875 22.578125 1.421875 20.703125 1.421875 18.394531 L 1.421875 5.605469 C 1.421875 3.296875 3.296875 1.421875 5.605469 1.421875 Z M 5.605469 1.421875 "/>
<path style=" stroke:none;fill-rule:nonzero;fill:rgb(80%,80%,80%);fill-opacity:1;" d="M 12 2.921875 L 12 6.8125 C 14.148438 6.8125 15.890625 9.136719 15.890625 12 C 15.890625 14.863281 14.148438 17.1875 12 17.1875 C 10.925781 17.1875 10.054688 18.058594 10.054688 19.132812 C 10.054688 20.207031 10.925781 21.078125 12 21.078125 C 12.054688 21.074219 12.109375 21.074219 12.164062 21.066406 C 17.117188 20.980469 21.078125 16.972656 21.078125 12 C 21.078125 6.972656 17.027344 2.921875 12 2.921875 Z M 12 2.921875 "/>
<path style=" stroke:none;fill-rule:nonzero;fill:rgb(90.588235%,29.803922%,23.529412%);fill-opacity:1;" d="M 12 2.921875 C 11.945312 2.925781 11.890625 2.925781 11.835938 2.933594 C 6.882812 3.019531 2.921875 7.027344 2.921875 12 C 2.921875 16.960938 6.867188 20.960938 11.804688 21.066406 C 10.8125 20.964844 10.054688 20.128906 10.054688 19.132812 C 10.054688 18.058594 10.925781 17.1875 12 17.1875 C 9.851562 17.1875 8.109375 14.863281 8.109375 12 C 8.109375 9.136719 9.851562 6.8125 12 6.8125 C 13.074219 6.8125 13.945312 5.941406 13.945312 4.867188 C 13.945312 3.792969 13.074219 2.921875 12 2.921875 Z M 12 2.921875 "/>
</g>
</svg>
