<?xml version="1.0" encoding="UTF-8"?>
<svg xmlns="http://www.w3.org/2000/svg" xmlns:xlink="http://www.w3.org/1999/xlink" width="24pt" height="24pt" viewBox="0 0 24 24" version="1.1">
<g id="surface1">
<path style=" stroke:none;fill-rule:evenodd;fill:rgb(30.588235%,56.862745%,85.098039%);fill-opacity:1;" d="M 5.605469 1.421875 L 18.394531 1.421875 C 20.703125 1.421875 22.578125 3.296875 22.578125 5.605469 L 22.578125 18.394531 C 22.578125 20.703125 20.703125 22.578125 18.394531 22.578125 L 5.605469 22.578125 C 3.296875 22.578125 1.421875 20.703125 1.421875 18.394531 L 1.421875 5.605469 C 1.421875 3.296875 3.296875 1.421875 5.605469 1.421875 Z M 5.605469 1.421875 "/>
<path style=" stroke:none;fill-rule:evenodd;fill:rgb(30.588235%,56.862745%,85.098039%);fill-opacity:1;" d="M 11.984375 11.785156 L 11.828125 11.976562 L 11.8125 12.214844 L 12.152344 12.1875 L 12.1875 11.945312 Z M 11.984375 11.785156 "/>
<path style=" stroke:none;fill-rule:evenodd;fill:rgb(30.588235%,56.862745%,85.098039%);fill-opacity:1;" d="M 12.273438 11.6875 L 12.085938 11.695312 L 11.988281 11.945312 L 11.511719 11.945312 L 11.511719 12.191406 L 11.625 12.191406 C 11.625 12.191406 11.632812 12.242188 11.640625 12.3125 L 11.933594 12.285156 L 12.113281 12.171875 L 12.160156 11.945312 L 12.394531 11.925781 L 12.488281 11.734375 L 12.273438 11.691406 Z M 12.273438 11.6875 "/>
<path style=" stroke:none;fill-rule:evenodd;fill:rgb(51.372549%,69.803922%,89.411765%);fill-opacity:1;" d="M 15.15625 17.789062 L 15.261719 17.203125 L 14.917969 17.109375 L 14.917969 14.277344 C 14.917969 14.277344 13.957031 13.546875 13.902344 13.546875 C 13.84375 13.546875 13.390625 13.425781 13.390625 13.425781 L 13.296875 12.890625 L 12.042969 11.324219 L 12.167969 10.761719 L 12.210938 9.839844 L 13.074219 9.234375 L 12.953125 8.203125 L 11.6875 8.109375 L 10.699219 6.980469 L 10 6.789062 L 9.546875 6.703125 L 9.601562 6.292969 L 9.023438 6.210938 L 9.023438 6.445312 L 8.738281 6.375 L 8.738281 13.609375 C 8.738281 15.925781 10.605469 17.789062 12.921875 17.789062 Z M 15.15625 17.789062 "/>
<path style=" stroke:none;fill-rule:evenodd;fill:rgb(51.372549%,69.803922%,89.411765%);fill-opacity:1;" d="M 12.179688 1.421875 L 12.203125 1.980469 L 12.832031 2.367188 L 12.808594 2.945312 L 12.203125 3.148438 L 12.242188 3.34375 L 12.972656 3.671875 L 12.957031 4.070312 L 12.746094 4.085938 C 12.746094 4.082031 12.742188 4.078125 12.742188 4.078125 L 11.824219 3.792969 L 11.789062 3.5 L 12.054688 3.316406 L 12.054688 3.046875 L 11.765625 2.972656 L 11.695312 3.222656 L 11.1875 3.300781 L 11.136719 3.285156 L 11.136719 3.308594 L 10.960938 3.335938 L 10.816406 3.046875 L 10.652344 2.972656 L 10.289062 2.972656 L 10.128906 3.109375 L 10.128906 3.40625 L 10.4375 3.511719 L 10.742188 3.554688 L 10.671875 3.582031 L 10.394531 3.894531 L 10.269531 3.738281 L 10 3.667969 L 9.269531 4.355469 L 9.363281 4.433594 L 8.28125 5.035156 L 7.265625 6.089844 L 7.195312 6.5625 L 6.175781 7.234375 L 5.667969 7.738281 L 5.726562 8.757812 L 5.023438 8.429688 L 5.03125 7.835938 L 3.078125 7.835938 L 2.066406 8.347656 L 1.625 9.15625 L 1.453125 9.796875 L 1.738281 10.417969 L 2.535156 10.515625 L 3.800781 9.671875 L 3.910156 10.089844 L 3.523438 10.820312 L 4.488281 10.984375 L 4.582031 12.46875 L 5.902344 12.695312 L 6.742188 11.726562 L 7.761719 11.929688 L 8.117188 12.429688 L 9.09375 12.371094 L 9.121094 12.082031 L 9.660156 12.34375 L 10.261719 13.289062 L 11.308594 13.304688 L 11.695312 13.976562 L 11.746094 14.800781 L 12.90625 15.242188 L 14.359375 15.253906 L 14.789062 15.957031 L 15.433594 16.164062 L 15.3125 16.742188 L 14.601562 17.640625 L 14.394531 19.628906 L 13.757812 20.132812 L 12.808594 20.105469 L 12.492188 20.65625 L 12.726562 21.6875 L 12.03125 22.578125 L 18.359375 22.578125 C 20.679688 22.578125 22.546875 20.710938 22.546875 18.394531 L 22.546875 13.6875 L 22.128906 13.644531 L 21.746094 13.257812 L 21.042969 13.257812 L 20.683594 13.589844 L 19.445312 13.589844 L 19.40625 13.699219 L 18.714844 13.699219 L 17.136719 11.898438 L 17.148438 10.5 L 17.410156 10.402344 L 17.507812 9.867188 L 17.136719 9.867188 L 16.984375 9.304688 L 18.8125 7.984375 L 18.8125 7.050781 L 19.707031 6.554688 L 20.070312 6.589844 L 20.804688 6.589844 L 21.382812 6.28125 L 22.546875 6.191406 L 22.546875 5.605469 C 22.546875 5.328125 22.441406 5.089844 22.390625 4.828125 L 21.945312 4.738281 L 21.132812 5.789062 L 20.976562 6.203125 L 20.457031 6.246094 L 19.691406 6.253906 L 19.234375 6.039062 L 19.097656 5.128906 L 19.261719 4.695312 L 20.042969 4.527344 L 20.894531 4.695312 L 20.996094 4.226562 L 20.636719 4.140625 L 20.757812 3.40625 L 21.617188 3.273438 L 21.683594 3.179688 C 21.628906 3.105469 21.585938 3.019531 21.523438 2.945312 L 21.398438 3.097656 L 20.757812 3.15625 L 20.28125 3.15625 L 20.332031 2.585938 L 20.734375 2.503906 L 20.699219 2.234375 L 20.328125 2.003906 L 20.066406 1.824219 L 20.066406 1.800781 C 19.542969 1.566406 18.972656 1.421875 18.359375 1.421875 Z M 19.949219 1.960938 L 20.265625 2.097656 L 20.238281 2.457031 L 19.558594 2.9375 L 19.171875 2.9375 L 19.171875 2.59375 L 19.175781 2.59375 L 19.503906 2.066406 Z M 11.269531 3.96875 L 11.484375 4.011719 L 11.390625 4.203125 L 11.15625 4.222656 L 11.109375 4.449219 L 10.929688 4.5625 L 10.636719 4.589844 C 10.628906 4.519531 10.621094 4.46875 10.621094 4.46875 L 10.507812 4.46875 L 10.507812 4.222656 L 10.984375 4.222656 L 11.082031 3.972656 Z M 10.011719 4.222656 L 10.21875 4.386719 L 10.183594 4.625 L 9.839844 4.65625 L 9.859375 4.414062 Z M 10.011719 4.222656 "/>
<path style=" stroke:none;fill-rule:evenodd;fill:rgb(30.588235%,56.862745%,85.098039%);fill-opacity:1;" d="M 11.832031 11.996094 L 11.832031 12.003906 L 12.148438 12.003906 L 12.167969 11.996094 Z M 11.832031 11.996094 "/>
<path style=" stroke:none;fill-rule:evenodd;fill:rgb(51.372549%,69.803922%,89.411765%);fill-opacity:1;" d="M 10.546875 11.222656 L 10.609375 11.457031 L 11.019531 11.726562 L 11.847656 11.839844 L 11.847656 12.777344 L 12.226562 12.714844 L 12.578125 11.980469 L 13.453125 11.703125 L 13.453125 11.222656 Z M 10.546875 11.222656 "/>
<path style=" stroke:none;fill-rule:nonzero;fill:rgb(20%,20%,20%);fill-opacity:1;" d="M 8.929688 5.253906 C 5.136719 5.394531 4.679688 7.242188 5.753906 9.761719 C 6.082031 10.523438 7.121094 10.457031 6.539062 9.683594 C 4.089844 2.054688 20.367188 9.027344 17.097656 13.558594 C 16.175781 14.582031 14.714844 14.855469 13.542969 14.335938 C 13.007812 14.101562 12.035156 14.40625 12.820312 14.847656 C 14.414062 15.746094 18.191406 15.234375 18.644531 13.097656 C 19.769531 7.78125 11.667969 5.152344 8.933594 5.253906 M 14.082031 9.136719 C 11.839844 11.589844 9.640625 16.671875 8.4375 17.875 C 7.789062 18.523438 6.882812 17.335938 6.613281 17.707031 C 6.117188 18.382812 7.125 18.738281 8.148438 18.75 C 10.554688 18.792969 15.039062 8.289062 14.082031 9.136719 Z M 14.082031 9.136719 "/>
</g>
</svg>
