<?xml version="1.0" encoding="UTF-8"?>
<svg xmlns="http://www.w3.org/2000/svg" xmlns:xlink="http://www.w3.org/1999/xlink" width="24pt" height="24pt" viewBox="0 0 24 24" version="1.1">
<defs>
<clipPath id="clip1">
  <rect width="24" height="24"/>
</clipPath>
<g id="surface6" clip-path="url(#clip1)">
<path style=" stroke:none;fill-rule:nonzero;fill:rgb(100%,100%,100%);fill-opacity:1;" d="M 12 6 C 8.6875 6 6 8.6875 6 12 C 6 15.3125 8.6875 18 12 18 L 15.75 18 C 15.75 18 16.453125 18 16.5 17.25 C 16.5 16.5 15.75 16.5 15.75 16.5 L 12 16.5 C 9.515625 16.5 7.5 14.484375 7.5 12 C 7.5 9.515625 9.515625 7.5 12 7.5 C 14.484375 7.5 16.5 9.515625 16.5 12 L 16.5 12.75 C 16.5 13.164062 16.164062 13.5 15.75 13.5 C 15.335938 13.5 15 13.164062 15 12.75 L 15 12 C 15 10.34375 13.65625 9 12 9 C 10.34375 9 9 10.34375 9 12 C 9 13.65625 10.34375 15 12 15 C 12.785156 15 13.492188 14.691406 14.027344 14.199219 C 14.453125 14.707031 15.085938 15 15.75 15 C 16.992188 15 18 13.992188 18 12.75 L 18 12 C 18 8.6875 15.3125 6 12 6 Z M 12 10.5 C 12.828125 10.5 13.5 11.171875 13.5 12 C 13.5 12.828125 12.828125 13.5 12 13.5 C 11.171875 13.5 10.5 12.828125 10.5 12 C 10.5 11.171875 11.171875 10.5 12 10.5 Z M 12 10.5 "/>
</g>
</defs>
<g id="surface1">
<path style=" stroke:none;fill-rule:evenodd;fill:rgb(21.568627%,85.882353%,67.843137%);fill-opacity:1;" d="M 5.605469 1.421875 L 18.394531 1.421875 C 20.703125 1.421875 22.578125 3.296875 22.578125 5.605469 L 22.578125 18.394531 C 22.578125 20.703125 20.703125 22.578125 18.394531 22.578125 L 5.605469 22.578125 C 3.296875 22.578125 1.421875 20.703125 1.421875 18.394531 L 1.421875 5.605469 C 1.421875 3.296875 3.296875 1.421875 5.605469 1.421875 Z M 5.605469 1.421875 "/>
<use xlink:href="#surface6"/>
</g>
</svg>
