<?xml version="1.0" encoding="UTF-8"?>
<svg xmlns="http://www.w3.org/2000/svg" xmlns:xlink="http://www.w3.org/1999/xlink" width="24pt" height="24pt" viewBox="0 0 24 24" version="1.1">
<g id="surface1">
<path style=" stroke:none;fill-rule:evenodd;fill:rgb(24.313725%,31.372549%,70.588235%);fill-opacity:1;" d="M 5.605469 1.421875 L 18.394531 1.421875 C 20.703125 1.421875 22.578125 3.296875 22.578125 5.605469 L 22.578125 18.394531 C 22.578125 20.703125 20.703125 22.578125 18.394531 22.578125 L 5.605469 22.578125 C 3.296875 22.578125 1.421875 20.703125 1.421875 18.394531 L 1.421875 5.605469 C 1.421875 3.296875 3.296875 1.421875 5.605469 1.421875 Z M 5.605469 1.421875 "/>
<path style=" stroke:none;fill-rule:nonzero;fill:rgb(100%,100%,100%);fill-opacity:1;" d="M 12 5.25 C 11.171875 5.25 10.5 5.921875 10.5 6.75 C 10.5 7.578125 11.171875 8.25 12 8.25 C 12.828125 8.25 13.5 7.578125 13.5 6.75 C 13.5 5.921875 12.828125 5.25 12 5.25 Z M 6.75 9 L 6.75 9.75 L 10.5 9.75 L 10.5 18.75 L 11.25 18.75 L 11.25 14.25 L 12.75 14.25 L 12.75 18.75 L 13.5 18.75 L 13.5 9.75 L 17.25 9.75 L 17.25 9 Z M 6.75 9 "/>
</g>
</svg>
