<?xml version="1.0" encoding="UTF-8"?>
<svg xmlns="http://www.w3.org/2000/svg" xmlns:xlink="http://www.w3.org/1999/xlink" width="24pt" height="24pt" viewBox="0 0 24 24" version="1.1">
<g id="surface1">
<path style=" stroke:none;fill-rule:evenodd;fill:rgb(99.607843%,80.392157%,21.960784%);fill-opacity:1;" d="M 5.605469 1.421875 L 18.394531 1.421875 C 20.703125 1.421875 22.578125 3.296875 22.578125 5.605469 L 22.578125 18.394531 C 22.578125 20.703125 20.703125 22.578125 18.394531 22.578125 L 5.605469 22.578125 C 3.296875 22.578125 1.421875 20.703125 1.421875 18.394531 L 1.421875 5.605469 C 1.421875 3.296875 3.296875 1.421875 5.605469 1.421875 Z M 5.605469 1.421875 "/>
<path style=" stroke:none;fill-rule:nonzero;fill:rgb(24.705882%,24.705882%,24.705882%);fill-opacity:1;" d="M 9.75 8.25 C 9.75 9.078125 9.078125 9.75 8.25 9.75 C 7.421875 9.75 6.75 9.078125 6.75 8.25 C 6.75 7.421875 7.421875 6.75 8.25 6.75 C 9.078125 6.75 9.75 7.421875 9.75 8.25 Z M 9.75 8.25 "/>
<path style=" stroke:none;fill-rule:nonzero;fill:rgb(24.705882%,24.705882%,24.705882%);fill-opacity:1;" d="M 17.25 8.25 C 17.25 9.078125 16.578125 9.75 15.75 9.75 C 14.921875 9.75 14.25 9.078125 14.25 8.25 C 14.25 7.421875 14.921875 6.75 15.75 6.75 C 16.578125 6.75 17.25 7.421875 17.25 8.25 Z M 17.25 8.25 "/>
<path style=" stroke:none;fill-rule:nonzero;fill:rgb(24.705882%,24.705882%,24.705882%);fill-opacity:1;" d="M 8.003906 14.480469 C 8.828125 16.191406 10.351562 17.25 12 17.25 C 13.648438 17.246094 15.167969 16.191406 15.992188 14.480469 L 15.429688 14.480469 C 14.558594 15.652344 13.308594 16.324219 12 16.328125 C 10.691406 16.324219 9.441406 15.652344 8.566406 14.480469 Z M 8.003906 14.480469 "/>
</g>
</svg>
