<?xml version="1.0" encoding="UTF-8"?>
<svg xmlns="http://www.w3.org/2000/svg" xmlns:xlink="http://www.w3.org/1999/xlink" width="24pt" height="24pt" viewBox="0 0 24 24" version="1.1">
<g id="surface1">
<path style=" stroke:none;fill-rule:evenodd;fill:rgb(40%,40%,40%);fill-opacity:1;" d="M 5.605469 1.421875 L 18.394531 1.421875 C 20.703125 1.421875 22.578125 3.296875 22.578125 5.605469 L 22.578125 18.394531 C 22.578125 20.703125 20.703125 22.578125 18.394531 22.578125 L 5.605469 22.578125 C 3.296875 22.578125 1.421875 20.703125 1.421875 18.394531 L 1.421875 5.605469 C 1.421875 3.296875 3.296875 1.421875 5.605469 1.421875 Z M 5.605469 1.421875 "/>
<path style=" stroke:none;fill-rule:nonzero;fill:rgb(93.333333%,50.588235%,22.745098%);fill-opacity:1;" d="M 17.324219 17.324219 C 15.914062 18.738281 13.996094 19.53125 12 19.53125 L 12 12 Z M 17.324219 17.324219 "/>
<path style=" stroke:none;fill-rule:nonzero;fill:rgb(100%,100%,100%);fill-opacity:1;" d="M 12 19.53125 C 10.003906 19.53125 8.085938 18.738281 6.675781 17.324219 C 5.261719 15.914062 4.46875 13.996094 4.46875 12 L 12 12 Z M 12 19.53125 "/>
<path style=" stroke:none;fill-rule:nonzero;fill:rgb(98.039216%,83.921569%,18.431373%);fill-opacity:1;" d="M 4.46875 12 C 4.46875 10.003906 5.261719 8.085938 6.675781 6.675781 L 12 12 Z M 4.46875 12 "/>
<path style=" stroke:none;fill-rule:nonzero;fill:rgb(59.215686%,80.392157%,47.058824%);fill-opacity:1;" d="M 6.675781 6.675781 C 9.617188 3.734375 14.382812 3.734375 17.324219 6.675781 C 20.265625 9.617188 20.265625 14.382812 17.324219 17.324219 Z M 6.675781 6.675781 "/>
<path style=" stroke:none;fill-rule:nonzero;fill:rgb(35.294118%,63.137255%,25.882353%);fill-opacity:1;" d="M 14.488281 12 C 14.488281 13.375 13.375 14.488281 12 14.488281 C 10.625 14.488281 9.511719 13.375 9.511719 12 C 9.511719 10.625 10.625 9.511719 12 9.511719 C 13.375 9.511719 14.488281 10.625 14.488281 12 Z M 14.488281 12 "/>
</g>
</svg>
