<?xml version="1.0" encoding="UTF-8"?>
<svg xmlns="http://www.w3.org/2000/svg" xmlns:xlink="http://www.w3.org/1999/xlink" width="24pt" height="24pt" viewBox="0 0 24 24" version="1.1">
<g id="surface1">
<path style=" stroke:none;fill-rule:evenodd;fill:rgb(12.54902%,58.431373%,94.901961%);fill-opacity:1;" d="M 5.605469 1.421875 L 18.394531 1.421875 C 20.703125 1.421875 22.578125 3.296875 22.578125 5.605469 L 22.578125 18.394531 C 22.578125 20.703125 20.703125 22.578125 18.394531 22.578125 L 5.605469 22.578125 C 3.296875 22.578125 1.421875 20.703125 1.421875 18.394531 L 1.421875 5.605469 C 1.421875 3.296875 3.296875 1.421875 5.605469 1.421875 Z M 5.605469 1.421875 "/>
<path style=" stroke:none;fill-rule:nonzero;fill:rgb(100%,100%,100%);fill-opacity:1;" d="M 7.433594 19.800781 C 5.226562 19.066406 4.519531 17.050781 6.121094 16.054688 C 6.660156 15.722656 7.789062 15.726562 8.519531 16.0625 C 8.816406 16.199219 9.101562 16.269531 9.15625 16.210938 C 9.289062 16.078125 9.535156 14.726562 10.117188 10.9375 C 10.617188 7.671875 10.695312 6.550781 10.46875 5.878906 C 10.363281 5.582031 10.367188 5.441406 10.480469 5.304688 C 10.855469 4.84375 14.140625 4.125 15.859375 4.125 C 17.273438 4.125 18.042969 4.527344 18.542969 5.527344 C 19.394531 7.230469 17.535156 10.15625 14.347656 12.128906 L 14.011719 12.335938 L 14.273438 12.859375 C 14.78125 13.882812 15.8125 15.390625 16.433594 16.015625 C 16.777344 16.359375 17.0625 16.707031 17.0625 16.785156 C 17.0625 16.871094 16.832031 16.925781 16.472656 16.925781 C 15.316406 16.925781 14.125 16.0625 12.527344 14.070312 C 12.28125 13.765625 12.050781 13.542969 12.019531 13.578125 C 11.984375 13.613281 11.789062 14.507812 11.585938 15.5625 C 11.113281 18.007812 10.699219 18.929688 9.828125 19.46875 C 9.367188 19.753906 9.066406 19.84375 8.484375 19.871094 C 8.074219 19.886719 7.601562 19.855469 7.433594 19.800781 Z M 13.953125 9.773438 C 14.890625 9.097656 15.695312 8.300781 16.195312 7.558594 C 16.515625 7.085938 16.644531 6.988281 16.859375 7.042969 C 17.042969 7.09375 17.011719 7.050781 16.757812 6.898438 C 16.128906 6.519531 13.398438 6.710938 13.058594 7.15625 C 12.925781 7.328125 12.429688 10.488281 12.515625 10.625 C 12.578125 10.734375 12.839844 10.582031 13.953125 9.773438 Z M 13.953125 9.773438 "/>
</g>
</svg>
