<?xml version="1.0" encoding="UTF-8"?>
<svg xmlns="http://www.w3.org/2000/svg" xmlns:xlink="http://www.w3.org/1999/xlink" width="24pt" height="24pt" viewBox="0 0 24 24" version="1.1">
<defs>
<filter id="alpha" filterUnits="objectBoundingBox" x="0%" y="0%" width="100%" height="100%">
  <feColorMatrix type="matrix" in="SourceGraphic" values="0 0 0 0 1 0 0 0 0 1 0 0 0 0 1 0 0 0 1 0"/>
</filter>
<mask id="mask0">
  <g filter="url(#alpha)">
<rect x="0" y="0" width="24" height="24" style="fill:rgb(0%,0%,0%);fill-opacity:0.988235;stroke:none;"/>
  </g>
</mask>
<clipPath id="clip1">
  <rect width="24" height="24"/>
</clipPath>
<g id="surface6" clip-path="url(#clip1)">
<path style="fill:none;stroke-width:0.109435;stroke-linecap:round;stroke-linejoin:bevel;stroke:rgb(100%,100%,100%);stroke-opacity:0.552941;stroke-miterlimit:4;" d="M 16.217109 7.206612 C 20.867398 7.310087 24.714233 10.937799 25.347257 15.442005 " transform="matrix(0.641761,0,0,0.641761,1.709675,1.785232)"/>
</g>
</defs>
<g id="surface1">
<path style=" stroke:none;fill-rule:evenodd;fill:rgb(0%,49.411765%,100%);fill-opacity:1;" d="M 5.605469 1.421875 L 18.394531 1.421875 C 20.703125 1.421875 22.578125 3.296875 22.578125 5.605469 L 22.578125 18.394531 C 22.578125 20.703125 20.703125 22.578125 18.394531 22.578125 L 5.605469 22.578125 C 3.296875 22.578125 1.421875 20.703125 1.421875 18.394531 L 1.421875 5.605469 C 1.421875 3.296875 3.296875 1.421875 5.605469 1.421875 Z M 5.605469 1.421875 "/>
<path style=" stroke:none;fill-rule:nonzero;fill:rgb(32.156863%,65.882353%,91.764706%);fill-opacity:1;" d="M 11.691406 18.507812 C 10.367188 18.449219 9.109375 17.960938 8.074219 17.097656 C 7.902344 16.953125 7.589844 16.644531 7.429688 16.464844 C 6.789062 15.738281 6.332031 14.867188 6.101562 13.933594 C 5.941406 13.285156 5.886719 12.640625 5.941406 11.96875 C 5.953125 11.800781 5.980469 11.585938 5.988281 11.578125 C 5.992188 11.574219 6.027344 11.582031 6.0625 11.589844 C 6.101562 11.601562 6.179688 11.609375 6.242188 11.609375 L 6.347656 11.609375 L 6.457031 11.71875 L 6.566406 11.824219 L 6.777344 11.824219 L 6.78125 12.226562 L 6.785156 12.625 L 6.785156 12.226562 L 6.789062 11.824219 L 7.003906 11.933594 C 7.214844 12.039062 7.222656 12.046875 7.324219 12.148438 L 7.425781 12.25 L 7.867188 12.25 L 7.964844 12.359375 L 8.066406 12.46875 L 8.511719 12.46875 L 8.511719 12.679688 L 8.398438 12.796875 L 8.285156 12.910156 L 8.179688 13.226562 L 8.074219 13.546875 L 8.183594 13.769531 L 8.296875 13.988281 L 8.710938 14.410156 L 9.152344 14.410156 L 9.152344 14.84375 L 9.589844 15.71875 L 9.589844 16.152344 L 9.695312 16.363281 C 9.78125 16.535156 9.820312 16.628906 9.90625 16.894531 L 10.015625 17.214844 L 10.125 17.328125 L 10.238281 17.4375 L 10.675781 17.4375 L 10.5625 17.328125 C 10.457031 17.21875 10.449219 17.210938 10.347656 17.003906 L 10.242188 16.789062 L 10.347656 16.46875 L 10.457031 16.144531 L 10.671875 16.039062 L 10.886719 15.929688 L 10.886719 15.28125 L 11.324219 15.0625 L 11.324219 14.628906 L 11.753906 14.410156 L 11.863281 14.085938 L 11.96875 13.761719 L 11.863281 13.542969 L 11.753906 13.328125 L 11.53125 13.214844 C 11.3125 13.105469 11.304688 13.101562 11.203125 12.996094 L 11.101562 12.894531 L 10.886719 12.894531 L 10.78125 12.679688 L 10.671875 12.464844 L 10.457031 12.355469 L 10.246094 12.25 L 9.804688 12.25 L 9.59375 12.460938 L 9.484375 12.246094 L 9.378906 12.03125 L 8.941406 12.03125 L 8.722656 12.25 L 8.292969 12.25 L 8.292969 12.027344 L 8.074219 11.808594 L 8.074219 11.597656 L 7.863281 11.597656 L 7.757812 11.699219 C 7.703125 11.757812 7.652344 11.804688 7.648438 11.804688 C 7.648438 11.804688 7.597656 11.710938 7.542969 11.597656 L 7.4375 11.390625 L 7.65625 11.171875 L 8.28125 11.171875 L 8.5 11.28125 L 8.722656 11.390625 L 9.164062 10.949219 L 9.375 10.097656 L 9.59375 9.878906 L 9.8125 9.65625 L 10.449219 9.65625 L 10.449219 9.445312 C 10.449219 9.328125 10.453125 9.230469 10.453125 9.230469 C 10.457031 9.230469 10.601562 9.28125 10.78125 9.339844 L 11.101562 9.449219 L 11.535156 9.015625 L 11.324219 9.015625 L 11.210938 8.789062 C 11.097656 8.566406 11.09375 8.558594 10.992188 8.460938 L 10.890625 8.359375 L 10.453125 8.578125 L 9.585938 8.578125 L 9.476562 8.792969 L 9.371094 9.007812 L 9.160156 8.796875 L 8.949219 8.796875 L 8.949219 8.363281 L 9.265625 8.257812 L 9.585938 8.152344 L 9.6875 8.257812 C 9.746094 8.3125 9.800781 8.359375 9.808594 8.359375 C 9.816406 8.359375 9.964844 8.3125 10.136719 8.257812 L 10.445312 8.152344 L 10.667969 8.152344 C 10.789062 8.152344 10.886719 8.148438 10.886719 8.148438 C 10.886719 8.144531 10.839844 8.046875 10.78125 7.933594 C 10.679688 7.726562 10.675781 7.71875 10.566406 7.609375 L 10.457031 7.5 L 10.019531 7.5 L 9.914062 7.605469 C 9.808594 7.710938 9.804688 7.714844 9.589844 7.820312 L 9.371094 7.929688 L 9.261719 7.816406 C 9.152344 7.710938 9.140625 7.703125 8.949219 7.605469 L 8.746094 7.503906 L 8.636719 7.5 L 8.527344 7.492188 L 8.632812 7.425781 C 9.472656 6.867188 10.425781 6.535156 11.460938 6.441406 C 11.667969 6.421875 12.226562 6.421875 12.4375 6.441406 C 13.5 6.535156 14.464844 6.867188 15.304688 7.433594 L 15.414062 7.503906 L 15.417969 7.824219 L 15.421875 8.148438 L 15.527344 8.253906 C 15.632812 8.359375 15.636719 8.363281 15.851562 8.46875 L 16.066406 8.578125 L 15.960938 8.6875 L 15.851562 8.796875 L 15.414062 8.796875 L 15.203125 9.007812 L 15.203125 9.433594 L 15.097656 9.328125 L 14.992188 9.21875 L 14.554688 9.21875 L 14.335938 9.65625 L 14.554688 10.09375 L 14.992188 10.09375 L 15.09375 9.988281 C 15.195312 9.886719 15.203125 9.882812 15.421875 9.773438 C 15.640625 9.660156 15.648438 9.65625 15.75 9.554688 L 15.851562 9.449219 L 15.957031 9.660156 L 16.0625 9.867188 L 16.0625 10.085938 L 16.285156 10.308594 L 16.722656 10.089844 L 16.507812 9.875 L 16.292969 9.664062 L 16.398438 9.554688 L 16.507812 9.449219 L 16.9375 9.878906 L 16.9375 10.09375 L 17.148438 10.09375 L 17.367188 10.3125 L 17.613281 10.3125 L 17.636719 10.378906 C 17.683594 10.496094 17.730469 10.636719 17.769531 10.777344 C 17.792969 10.851562 17.8125 10.921875 17.816406 10.933594 C 17.820312 10.953125 17.804688 10.953125 17.597656 10.953125 L 17.371094 10.953125 L 17.15625 10.84375 L 16.9375 10.734375 L 16.714844 10.847656 C 16.5 10.953125 16.492188 10.957031 16.386719 11.0625 L 16.28125 11.164062 L 16.074219 11.0625 C 15.871094 10.960938 15.867188 10.957031 15.757812 10.847656 L 15.644531 10.734375 L 14.984375 10.734375 L 14.765625 10.84375 L 14.550781 10.953125 L 14.117188 10.953125 L 14.011719 11.058594 L 13.90625 11.167969 L 13.90625 11.820312 L 13.6875 12.039062 L 13.6875 12.679688 L 13.90625 13.335938 L 14.117188 13.441406 L 14.332031 13.546875 L 14.777344 13.546875 L 15.214844 13.328125 L 15.628906 13.328125 L 15.847656 13.4375 L 16.0625 13.546875 L 16.0625 13.972656 L 16.175781 14.191406 L 16.285156 14.414062 L 16.066406 14.628906 L 15.851562 14.84375 L 16.066406 15.277344 L 16.28125 15.707031 L 16.28125 16.136719 L 16.417969 16.269531 L 16.550781 16.40625 L 16.523438 16.4375 C 16.25 16.734375 16.070312 16.910156 15.832031 17.109375 C 14.90625 17.878906 13.792969 18.351562 12.597656 18.476562 C 12.445312 18.492188 11.988281 18.519531 11.921875 18.515625 C 11.90625 18.515625 11.800781 18.511719 11.691406 18.507812 Z M 6.796875 12.84375 C 6.792969 12.835938 6.789062 12.839844 6.789062 12.851562 C 6.789062 12.863281 6.792969 12.871094 6.796875 12.867188 C 6.800781 12.863281 6.800781 12.855469 6.796875 12.84375 Z M 10.785156 10.203125 L 10.894531 10.09375 L 10.777344 9.980469 L 10.664062 9.867188 L 10.882812 10.09375 L 10.773438 10.199219 L 10.667969 10.304688 L 10.558594 10.195312 L 10.445312 10.085938 L 10.554688 10.199219 C 10.613281 10.261719 10.664062 10.3125 10.667969 10.3125 C 10.671875 10.3125 10.722656 10.261719 10.785156 10.203125 Z M 11.21875 9.984375 L 11.324219 9.878906 L 11.316406 9.652344 L 11.3125 9.765625 L 11.3125 9.882812 L 11.207031 9.984375 L 11.105469 10.085938 L 10.996094 9.976562 L 10.886719 9.871094 L 10.886719 9.761719 L 10.882812 9.652344 L 10.878906 9.757812 L 10.875 9.867188 L 10.988281 9.980469 C 11.046875 10.042969 11.101562 10.09375 11.105469 10.09375 C 11.109375 10.09375 11.160156 10.042969 11.21875 9.984375 Z M 14.238281 8.90625 L 14.347656 8.796875 L 14.234375 8.683594 L 14.117188 8.570312 L 14.335938 8.796875 L 14.125 9.007812 L 14.019531 8.90625 L 13.917969 8.800781 L 13.914062 8.6875 L 13.914062 8.570312 L 13.910156 8.6875 L 13.90625 8.800781 L 14.011719 8.90625 C 14.070312 8.964844 14.121094 9.015625 14.125 9.015625 C 14.128906 9.015625 14.179688 8.964844 14.238281 8.90625 Z M 14.796875 8.945312 C 14.804688 8.925781 14.8125 8.910156 14.808594 8.910156 C 14.804688 8.910156 14.792969 8.925781 14.785156 8.945312 C 14.773438 8.964844 14.769531 8.980469 14.773438 8.980469 C 14.773438 8.980469 14.785156 8.964844 14.796875 8.945312 Z M 14.863281 8.820312 C 14.875 8.800781 14.878906 8.785156 14.875 8.785156 C 14.875 8.785156 14.863281 8.800781 14.851562 8.820312 C 14.84375 8.835938 14.839844 8.851562 14.839844 8.851562 C 14.84375 8.851562 14.855469 8.835938 14.863281 8.820312 Z M 14.457031 8.6875 L 14.347656 8.578125 L 14.558594 8.367188 L 14.765625 8.472656 C 14.878906 8.53125 14.976562 8.578125 14.980469 8.578125 C 14.988281 8.578125 14.894531 8.527344 14.773438 8.46875 L 14.558594 8.359375 L 14.445312 8.46875 L 14.335938 8.578125 L 14.445312 8.6875 C 14.503906 8.746094 14.558594 8.796875 14.558594 8.796875 C 14.5625 8.796875 14.515625 8.746094 14.457031 8.6875 Z M 14.929688 8.703125 C 14.941406 8.679688 14.949219 8.65625 14.945312 8.65625 C 14.941406 8.65625 14.929688 8.679688 14.917969 8.703125 C 14.902344 8.730469 14.894531 8.75 14.898438 8.75 C 14.902344 8.75 14.914062 8.730469 14.929688 8.703125 Z M 14.984375 8.59375 C 14.980469 8.589844 14.972656 8.597656 14.96875 8.609375 C 14.960938 8.625 14.964844 8.625 14.976562 8.613281 C 14.984375 8.605469 14.988281 8.597656 14.984375 8.59375 Z M 14.984375 8.59375 "/>
<path style="fill:none;stroke-width:1.069;stroke-linecap:butt;stroke-linejoin:miter;stroke:rgb(100%,100%,100%);stroke-opacity:1;stroke-miterlimit:4.5;" d="M 25.408124 6.04404 C 25.024658 9.33698 25.170741 12.526445 25.35943 15.691563 C 25.383777 15.977641 25.402038 16.288066 25.402038 16.598491 C 25.402038 21.796588 21.183909 26.014716 15.985812 26.014716 C 10.787715 26.014716 6.569586 21.796588 6.569586 16.598491 C 6.569586 11.394307 10.787715 7.182265 16.071027 7.170092 C 19.333533 7.054443 22.626473 6.914448 25.408124 6.04404 Z M 25.408124 6.04404 " transform="matrix(0.641761,0,0,0.641761,1.709675,1.785232)"/>
<path style="fill:none;stroke-width:0.10965;stroke-linecap:butt;stroke-linejoin:miter;stroke:rgb(100%,100%,100%);stroke-opacity:0.74902;stroke-miterlimit:4;" d="M 6.624367 15.253316 C 9.673837 6.579675 23.70383 8.09528 25.335083 15.703736 " transform="matrix(0.641761,0,0,0.641761,1.709675,1.785232)"/>
<path style="fill:none;stroke-width:1.069;stroke-linecap:butt;stroke-linejoin:miter;stroke:rgb(100%,100%,100%);stroke-opacity:0.988235;stroke-miterlimit:4.5;" d="M 9.351238 23.318279 C 12.674612 24.365203 21.01348 17.420204 23.429926 10.852585 C 25.268129 5.85535 25.109873 6.713584 25.408124 6.04404 " transform="matrix(0.641761,0,0,0.641761,1.709675,1.785232)"/>
<path style="fill:none;stroke-width:0.10965;stroke-linecap:butt;stroke-linejoin:miter;stroke:rgb(100%,100%,100%);stroke-opacity:0.647059;stroke-dasharray:0.657899,0.657899;stroke-miterlimit:4;" d="M 8.943425 22.916553 C 8.772995 19.617526 12.023328 15.709823 15.784949 12.696874 C 22.802989 7.07879 25.94376 6.177949 25.408124 6.04404 " transform="matrix(0.641761,0,0,0.641761,1.709675,1.785232)"/>
<path style="fill:none;stroke-width:0.10965;stroke-linecap:butt;stroke-linejoin:miter;stroke:rgb(100%,100%,100%);stroke-opacity:0.647059;stroke-dasharray:0.657899,0.657899;stroke-miterlimit:4;" d="M 15.352788 26.020803 C 26.735039 24.894752 26.217664 10.858671 18.931806 7.736161 " transform="matrix(0.641761,0,0,0.641761,1.709675,1.785232)"/>
<path style="fill:none;stroke-width:0.10965;stroke-linecap:butt;stroke-linejoin:miter;stroke:rgb(100%,100%,100%);stroke-opacity:0.647059;stroke-dasharray:0.657899,0.657899;stroke-miterlimit:4;" d="M 10.105997 9.221331 C 13.928485 9.014381 25.11596 18.041054 22.46213 23.379147 " transform="matrix(0.641761,0,0,0.641761,1.709675,1.785232)"/>
<path style="fill:none;stroke-width:0.10965;stroke-linecap:butt;stroke-linejoin:miter;stroke:rgb(100%,100%,100%);stroke-opacity:0.619608;stroke-miterlimit:4;" d="M 9.004292 10.237821 C 7.732159 15.606348 19.449181 25.752986 22.46213 23.379147 " transform="matrix(0.641761,0,0,0.641761,1.709675,1.785232)"/>
<path style="fill:none;stroke-width:0.10965;stroke-linecap:butt;stroke-linejoin:miter;stroke:rgb(100%,100%,100%);stroke-opacity:0.647059;stroke-dasharray:0.657899,0.657899;stroke-miterlimit:4;" d="M 6.691322 18.053228 C 9.25385 25.077355 23.46036 26.477311 25.35943 16.945436 " transform="matrix(0.641761,0,0,0.641761,1.709675,1.785232)"/>
<use xlink:href="#surface6" mask="url(#mask0)"/>
<path style=" stroke:none;fill-rule:nonzero;fill:rgb(100%,100%,100%);fill-opacity:1;" d="M 7.710938 16.75 C 14.804688 15.214844 15.878906 10.125 18.015625 5.664062 C 17.964844 9.933594 18.492188 15.113281 16.550781 16.40625 C 12.597656 19.746094 10.054688 18.566406 7.710938 16.75 Z M 7.710938 16.75 "/>
<path style=" stroke:none;fill-rule:nonzero;fill:rgb(71.764706%,71.764706%,71.764706%);fill-opacity:1;" d="M 19.859375 20.855469 L 14.132812 20.855469 L 14.132812 17.992188 L 19.859375 17.992188 Z M 19.859375 20.855469 "/>
<path style=" stroke:none;fill-rule:nonzero;fill:rgb(60%,60%,60%);fill-opacity:1;" d="M 20.601562 18.28125 L 13.390625 18.28125 C 13.167969 18.28125 12.988281 18.097656 12.988281 17.875 L 12.988281 13.820312 C 12.988281 13.59375 13.167969 13.414062 13.390625 13.414062 L 20.601562 13.414062 C 20.824219 13.414062 21.003906 13.59375 21.003906 13.820312 L 21.003906 17.875 C 21.003906 18.097656 20.824219 18.28125 20.601562 18.28125 Z M 20.601562 18.28125 "/>
<path style=" stroke:none;fill-rule:nonzero;fill:rgb(50.196078%,50.196078%,50.196078%);fill-opacity:1;" d="M 19.285156 17.136719 L 14.707031 17.136719 L 14.707031 16.5625 L 19.285156 16.5625 Z M 19.285156 17.136719 "/>
<path style=" stroke:none;fill-rule:nonzero;fill:rgb(50.196078%,50.196078%,50.196078%);fill-opacity:1;" d="M 18.714844 15.988281 L 15.28125 15.988281 L 15.28125 15.417969 L 18.714844 15.417969 Z M 18.714844 15.988281 "/>
<path style=" stroke:none;fill-rule:nonzero;fill:rgb(50.196078%,50.196078%,50.196078%);fill-opacity:1;" d="M 18.140625 14.84375 L 15.851562 14.84375 L 15.851562 14.273438 L 18.140625 14.273438 Z M 18.140625 14.84375 "/>
<path style=" stroke:none;fill-rule:nonzero;fill:rgb(50.196078%,50.196078%,50.196078%);fill-opacity:1;" d="M 19.285156 20.285156 L 17.855469 20.285156 L 17.855469 19.425781 L 19.285156 19.425781 Z M 19.285156 20.285156 "/>
<path style=" stroke:none;fill-rule:nonzero;fill:rgb(50.196078%,50.196078%,50.196078%);fill-opacity:1;" d="M 16.136719 20.285156 L 14.707031 20.285156 L 14.707031 19.425781 L 16.136719 19.425781 Z M 16.136719 20.285156 "/>
</g>
</svg>
