<?xml version="1.0" encoding="UTF-8"?>
<svg xmlns="http://www.w3.org/2000/svg" xmlns:xlink="http://www.w3.org/1999/xlink" width="24pt" height="24pt" viewBox="0 0 24 24" version="1.1">
<g id="surface1">
<path style=" stroke:none;fill-rule:evenodd;fill:rgb(17.647059%,61.176471%,94.901961%);fill-opacity:1;" d="M 5.605469 1.421875 L 18.394531 1.421875 C 20.703125 1.421875 22.578125 3.296875 22.578125 5.605469 L 22.578125 18.394531 C 22.578125 20.703125 20.703125 22.578125 18.394531 22.578125 L 5.605469 22.578125 C 3.296875 22.578125 1.421875 20.703125 1.421875 18.394531 L 1.421875 5.605469 C 1.421875 3.296875 3.296875 1.421875 5.605469 1.421875 Z M 5.605469 1.421875 "/>
<path style=" stroke:none;fill-rule:nonzero;fill:rgb(100%,100%,100%);fill-opacity:1;" d="M 8.753906 5.355469 C 6.628906 5.355469 4.90625 7.078125 4.90625 9.203125 C 4.90625 9.859375 5.074219 10.496094 5.363281 11.039062 C 5.265625 11.496094 5.214844 11.960938 5.214844 12.449219 C 5.214844 16.195312 8.253906 19.230469 12.003906 19.230469 C 12.488281 19.230469 12.957031 19.179688 13.414062 19.085938 C 13.957031 19.378906 14.585938 19.542969 15.246094 19.542969 C 17.371094 19.542969 19.09375 17.820312 19.09375 15.695312 C 19.09375 15.035156 18.925781 14.402344 18.632812 13.859375 C 18.730469 13.402344 18.78125 12.933594 18.78125 12.449219 C 18.78125 8.707031 15.742188 5.667969 11.996094 5.667969 C 11.511719 5.667969 11.042969 5.714844 10.585938 5.816406 C 10.042969 5.523438 9.40625 5.355469 8.75 5.355469 "/>
<path style=" stroke:none;fill-rule:nonzero;fill:rgb(17.647059%,61.176471%,94.901961%);fill-opacity:1;" d="M 12.128906 8.496094 C 14.128906 8.496094 15.160156 9.554688 15.160156 10.171875 C 15.160156 10.796875 14.863281 10.886719 14.371094 10.886719 C 13.417969 10.886719 13.808594 9.738281 12.023438 9.738281 C 11.429688 9.738281 10.691406 10.007812 10.691406 10.699219 C 10.691406 11.253906 11.347656 11.460938 12.5 11.746094 C 14.242188 12.210938 15.546875 12.675781 15.546875 14.273438 C 15.546875 15.824219 14.285156 16.601562 12.285156 16.601562 C 10.285156 16.601562 9.007812 15.40625 9.007812 14.785156 C 9.007812 14.167969 9.242188 14.011719 9.730469 14.011719 C 10.6875 14.011719 10.558594 15.316406 12.34375 15.316406 C 12.9375 15.316406 13.8125 15.046875 13.8125 14.351562 C 13.8125 13.800781 13.769531 13.605469 12.5 13.265625 C 11.148438 13.082031 8.960938 12.640625 8.960938 10.953125 C 8.960938 9.402344 10.132812 8.496094 12.128906 8.496094 "/>
</g>
</svg>
