<?xml version="1.0" encoding="UTF-8"?>
<svg xmlns="http://www.w3.org/2000/svg" xmlns:xlink="http://www.w3.org/1999/xlink" width="24pt" height="24pt" viewBox="0 0 24 24" version="1.1">
<g id="surface1">
<path style=" stroke:none;fill-rule:evenodd;fill:rgb(35.294118%,61.960784%,5.098039%);fill-opacity:1;" d="M 5.605469 1.421875 L 18.394531 1.421875 C 20.703125 1.421875 22.578125 3.296875 22.578125 5.605469 L 22.578125 18.394531 C 22.578125 20.703125 20.703125 22.578125 18.394531 22.578125 L 5.605469 22.578125 C 3.296875 22.578125 1.421875 20.703125 1.421875 18.394531 L 1.421875 5.605469 C 1.421875 3.296875 3.296875 1.421875 5.605469 1.421875 Z M 5.605469 1.421875 "/>
<path style=" stroke:none;fill-rule:nonzero;fill:rgb(68.235294%,94.901961%,37.647059%);fill-opacity:1;" d="M 12 4.5 C 7.84375 4.5 4.5 7.84375 4.5 12 C 4.5 16.15625 7.84375 19.5 12 19.5 C 16.15625 19.5 19.5 16.15625 19.5 12 L 17.25 12 C 17.25 14.898438 14.898438 17.25 12 17.25 C 9.101562 17.25 6.75 14.898438 6.75 12 C 6.75 9.101562 9.101562 6.75 12 6.75 Z M 12 4.5 "/>
<path style=" stroke:none;fill-rule:nonzero;fill:rgb(100%,60.392157%,10.588235%);fill-opacity:1;" d="M 12 4.5 L 12 6.75 C 14.898438 6.75 17.25 9.101562 17.25 12 L 19.5 12 C 19.5 7.84375 16.15625 4.5 12 4.5 Z M 12 4.5 "/>
</g>
</svg>
