<?xml version="1.0" encoding="UTF-8"?>
<svg xmlns="http://www.w3.org/2000/svg" xmlns:xlink="http://www.w3.org/1999/xlink" width="24pt" height="24pt" viewBox="0 0 24 24" version="1.1">
<defs>
<filter id="alpha" filterUnits="objectBoundingBox" x="0%" y="0%" width="100%" height="100%">
  <feColorMatrix type="matrix" in="SourceGraphic" values="0 0 0 0 1 0 0 0 0 1 0 0 0 0 1 0 0 0 1 0"/>
</filter>
<mask id="mask0">
  <g filter="url(#alpha)">
<rect x="0" y="0" width="24" height="24" style="fill:rgb(0%,0%,0%);fill-opacity:0.2;stroke:none;"/>
  </g>
</mask>
<clipPath id="clip1">
  <rect width="24" height="24"/>
</clipPath>
<g id="surface6" clip-path="url(#clip1)">
<path style=" stroke:none;fill-rule:nonzero;fill:rgb(0%,0%,0%);fill-opacity:1;" d="M 14.296875 10.929688 C 14.953125 10.941406 15.90625 10.929688 15.988281 10.929688 C 16.253906 10.738281 16.441406 10.003906 15.972656 9.277344 C 15.453125 8.46875 14.617188 8.816406 14.28125 9.429688 C 13.992188 10.117188 14.1875 10.570312 14.296875 10.925781 "/>
</g>
<mask id="mask1">
  <g filter="url(#alpha)">
<rect x="0" y="0" width="24" height="24" style="fill:rgb(0%,0%,0%);fill-opacity:0.2;stroke:none;"/>
  </g>
</mask>
<clipPath id="clip2">
  <rect width="24" height="24"/>
</clipPath>
<g id="surface9" clip-path="url(#clip2)">
<path style=" stroke:none;fill-rule:nonzero;fill:rgb(0%,0%,0%);fill-opacity:1;" d="M 7.214844 11.132812 L 7.214844 11.152344 C 7.207031 11.175781 7.207031 11.203125 7.214844 11.230469 C 7.222656 11.261719 7.242188 11.285156 7.261719 11.3125 C 7.34375 11.398438 7.464844 11.453125 7.585938 11.464844 C 7.710938 11.476562 8.105469 11.449219 8.21875 11.398438 C 8.316406 11.351562 8.398438 11.285156 8.496094 11.238281 C 8.589844 11.191406 8.691406 11.167969 8.800781 11.164062 C 8.957031 11.15625 9.109375 11.191406 9.269531 11.175781 C 9.347656 11.171875 9.421875 11.148438 9.484375 11.109375 C 9.515625 11.089844 9.546875 11.0625 9.566406 11.035156 C 9.585938 11.003906 9.601562 10.972656 9.601562 10.933594 C 9.605469 10.890625 9.59375 10.851562 9.574219 10.8125 C 9.554688 10.773438 9.523438 10.738281 9.492188 10.710938 C 9.421875 10.652344 9.339844 10.609375 9.257812 10.5625 C 9.21875 10.535156 9.171875 10.507812 9.121094 10.492188 C 9.058594 10.476562 8.992188 10.488281 8.929688 10.480469 C 8.859375 10.472656 8.796875 10.449219 8.730469 10.433594 C 8.601562 10.398438 8.457031 10.394531 8.320312 10.417969 C 8.1875 10.4375 8.058594 10.488281 7.941406 10.554688 C 7.832031 10.617188 7.460938 10.699219 7.410156 10.808594 C 7.402344 10.828125 7.394531 10.851562 7.382812 10.875 C 7.34375 10.96875 7.285156 11.054688 7.214844 11.132812 "/>
</g>
</defs>
<g id="surface1">
<path style=" stroke:none;fill-rule:evenodd;fill:rgb(62.352941%,21.960784%,18.823529%);fill-opacity:1;" d="M 5.605469 1.421875 L 18.394531 1.421875 C 20.703125 1.421875 22.578125 3.296875 22.578125 5.605469 L 22.578125 18.394531 C 22.578125 20.703125 20.703125 22.578125 18.394531 22.578125 L 5.605469 22.578125 C 3.296875 22.578125 1.421875 20.703125 1.421875 18.394531 L 1.421875 5.605469 C 1.421875 3.296875 3.296875 1.421875 5.605469 1.421875 Z M 5.605469 1.421875 "/>
<path style=" stroke:none;fill-rule:nonzero;fill:rgb(90.980392%,26.27451%,26.27451%);fill-opacity:1;" d="M 12 4.542969 C 9.773438 4.605469 7.28125 4.949219 5.359375 5.441406 C 4.835938 5.578125 4.640625 5.652344 4.542969 5.796875 L 4.542969 18.75 C 4.542969 19.214844 7.339844 19.445312 7.792969 19.457031 C 8.273438 19.445312 10.402344 19.214844 10.402344 18.75 L 10.402344 17.324219 L 13.597656 17.324219 L 13.597656 18.75 C 13.597656 19.214844 15.726562 19.445312 16.207031 19.457031 C 16.660156 19.445312 19.457031 19.214844 19.457031 18.75 L 19.457031 5.796875 C 19.359375 5.652344 19.164062 5.578125 18.640625 5.441406 C 16.71875 4.949219 14.226562 4.605469 12 4.542969 Z M 12 4.542969 "/>
<path style=" stroke:none;fill-rule:nonzero;fill:rgb(18.431373%,18.431373%,18.431373%);fill-opacity:1;" d="M 7.753906 10.667969 C 8.398438 10.605469 8.398438 10.597656 9.546875 10.5 C 9.671875 10.136719 9.785156 9.921875 9.332031 9.246094 C 8.832031 8.492188 8.027344 8.816406 7.703125 9.386719 C 7.425781 10.023438 7.5 10.425781 7.753906 10.667969 M 7.753906 10.667969 "/>
<path style=" stroke:none;fill-rule:nonzero;fill:rgb(100%,100%,100%);fill-opacity:1;" d="M 8.804688 9.550781 C 8.804688 9.695312 8.6875 9.816406 8.539062 9.816406 C 8.390625 9.816406 8.273438 9.695312 8.273438 9.550781 C 8.273438 9.40625 8.390625 9.285156 8.539062 9.285156 C 8.6875 9.285156 8.804688 9.40625 8.804688 9.550781 M 8.804688 9.550781 "/>
<use xlink:href="#surface6" mask="url(#mask0)"/>
<path style=" stroke:none;fill-rule:nonzero;fill:rgb(18.431373%,18.431373%,18.431373%);fill-opacity:1;" d="M 14.296875 10.398438 C 14.953125 10.410156 15.90625 10.394531 15.988281 10.394531 C 16.253906 10.207031 16.441406 9.46875 15.972656 8.746094 C 15.453125 7.9375 14.617188 8.285156 14.28125 8.894531 C 13.992188 9.582031 14.1875 10.035156 14.296875 10.394531 "/>
<path style=" stroke:none;fill-rule:nonzero;fill:rgb(100%,100%,100%);fill-opacity:1;" d="M 15.195312 9.070312 C 15.195312 9.21875 15.074219 9.335938 14.929688 9.335938 C 14.78125 9.335938 14.664062 9.21875 14.664062 9.070312 C 14.664062 8.925781 14.78125 8.804688 14.929688 8.804688 C 15.074219 8.804688 15.195312 8.925781 15.195312 9.070312 M 15.195312 9.070312 "/>
<path style=" stroke:none;fill-rule:nonzero;fill:rgb(18.431373%,18.431373%,18.431373%);fill-opacity:1;" d="M 7.738281 11.636719 C 10.570312 11.457031 13.40625 11.367188 16.261719 11.636719 C 15.789062 14.570312 14.070312 14.605469 12.355469 14.652344 C 10.425781 14.777344 8.082031 13.890625 7.738281 11.636719 M 7.738281 11.636719 "/>
<path style=" stroke:none;fill-rule:nonzero;fill:rgb(100%,100%,100%);fill-opacity:1;" d="M 8.273438 12.585938 C 8.308594 12.75 8.214844 12.917969 8.371094 13.023438 C 9.328125 13.660156 11.128906 14.105469 12.347656 14.128906 C 13.964844 14.136719 15.238281 13.84375 15.671875 13.289062 C 15.769531 13.164062 15.707031 12.753906 15.714844 12.574219 L 14.804688 12.550781 L 15.714844 12.46875 L 15.714844 12.035156 L 11.46875 12.035156 L 11.464844 12.53125 L 10.40625 12.53125 L 10.398438 12 L 8.273438 12 L 8.277344 12.511719 L 8.976562 12.535156 "/>
<use xlink:href="#surface9" mask="url(#mask1)"/>
<path style=" stroke:none;fill-rule:nonzero;fill:rgb(80.392157%,36.470588%,50.980392%);fill-opacity:1;" d="M 7.214844 10.597656 L 7.214844 10.617188 C 7.207031 10.644531 7.207031 10.671875 7.214844 10.695312 C 7.222656 10.726562 7.242188 10.753906 7.261719 10.777344 C 7.34375 10.867188 7.464844 10.917969 7.585938 10.933594 C 7.710938 10.945312 8.105469 10.917969 8.21875 10.863281 C 8.316406 10.816406 8.398438 10.753906 8.496094 10.703125 C 8.589844 10.660156 8.691406 10.636719 8.800781 10.628906 C 8.957031 10.625 9.109375 10.660156 9.269531 10.644531 C 9.347656 10.636719 9.421875 10.617188 9.484375 10.578125 C 9.515625 10.554688 9.546875 10.53125 9.566406 10.503906 C 9.585938 10.46875 9.601562 10.4375 9.601562 10.402344 C 9.605469 10.359375 9.59375 10.316406 9.574219 10.28125 C 9.554688 10.242188 9.523438 10.207031 9.492188 10.179688 C 9.421875 10.121094 9.339844 10.078125 9.257812 10.027344 C 9.21875 10.003906 9.171875 9.972656 9.121094 9.960938 C 9.058594 9.945312 8.992188 9.953125 8.929688 9.945312 C 8.859375 9.941406 8.796875 9.914062 8.730469 9.898438 C 8.601562 9.863281 8.457031 9.863281 8.320312 9.882812 C 8.1875 9.90625 8.058594 9.957031 7.941406 10.023438 C 7.832031 10.085938 7.460938 10.167969 7.410156 10.277344 C 7.402344 10.296875 7.394531 10.320312 7.382812 10.339844 C 7.34375 10.433594 7.285156 10.523438 7.214844 10.597656 "/>
<path style=" stroke:none;fill-rule:nonzero;fill:rgb(90.196078%,90.196078%,90.196078%);fill-opacity:1;" d="M 8.695312 5.539062 L 9.320312 5.117188 C 9.433594 5.039062 9.589844 5.082031 9.660156 5.195312 L 10.003906 5.878906 L 11.078125 7.480469 C 11.15625 7.59375 10.921875 7.828125 10.808594 7.898438 L 10.289062 8.234375 C 10.175781 8.308594 10.019531 8.269531 9.949219 8.152344 L 9.300781 6.933594 L 8.527344 5.871094 C 8.449219 5.761719 8.582031 5.617188 8.695312 5.539062 Z M 8.695312 5.539062 "/>
<path style=" stroke:none;fill-rule:nonzero;fill:rgb(93.72549%,93.72549%,93.72549%);fill-opacity:1;" d="M 10.933594 5.253906 L 11.417969 5.828125 C 11.503906 5.929688 11.472656 6.085938 11.363281 6.164062 L 10.695312 6.554688 L 9.15625 7.742188 C 9.046875 7.824219 8.789062 7.613281 8.707031 7.507812 L 8.320312 7.03125 C 8.238281 6.925781 8.265625 6.773438 8.375 6.695312 L 9.5625 5.960938 L 10.582031 5.117188 C 10.6875 5.03125 10.84375 5.148438 10.933594 5.253906 Z M 10.933594 5.253906 "/>
</g>
</svg>
