<?xml version="1.0" encoding="UTF-8"?>
<svg xmlns="http://www.w3.org/2000/svg" xmlns:xlink="http://www.w3.org/1999/xlink" width="24pt" height="24pt" viewBox="0 0 24 24" version="1.1">
<g id="surface1">
<path style=" stroke:none;fill-rule:evenodd;fill:rgb(38.039216%,41.960784%,86.666667%);fill-opacity:1;" d="M 5.605469 1.421875 L 18.394531 1.421875 C 20.703125 1.421875 22.578125 3.296875 22.578125 5.605469 L 22.578125 18.394531 C 22.578125 20.703125 20.703125 22.578125 18.394531 22.578125 L 5.605469 22.578125 C 3.296875 22.578125 1.421875 20.703125 1.421875 18.394531 L 1.421875 5.605469 C 1.421875 3.296875 3.296875 1.421875 5.605469 1.421875 Z M 5.605469 1.421875 "/>
<path style=" stroke:none;fill-rule:nonzero;fill:rgb(0%,0%,0%);fill-opacity:0.501961;" d="M 9.75 15 L 14.25 15 L 14.25 19.5 L 9.75 19.5 Z M 9.75 9.75 L 14.25 9.75 L 14.25 14.25 L 9.75 14.25 Z M 9.75 4.5 L 14.25 4.5 L 14.25 9 L 9.75 9 Z M 4.5 4.5 L 9 4.5 L 9 9 L 4.5 9 Z M 15 4.5 L 19.5 4.5 L 19.5 9 L 15 9 Z M 15 4.5 "/>
</g>
</svg>
