<?xml version="1.0" encoding="UTF-8"?>
<svg xmlns="http://www.w3.org/2000/svg" xmlns:xlink="http://www.w3.org/1999/xlink" width="24pt" height="24pt" viewBox="0 0 24 24" version="1.1">
<g id="surface1">
<path style=" stroke:none;fill-rule:evenodd;fill:rgb(90.196078%,90.196078%,90.196078%);fill-opacity:1;" d="M 5.605469 1.421875 L 18.394531 1.421875 C 20.703125 1.421875 22.578125 3.296875 22.578125 5.605469 L 22.578125 18.394531 C 22.578125 20.703125 20.703125 22.578125 18.394531 22.578125 L 5.605469 22.578125 C 3.296875 22.578125 1.421875 20.703125 1.421875 18.394531 L 1.421875 5.605469 C 1.421875 3.296875 3.296875 1.421875 5.605469 1.421875 Z M 5.605469 1.421875 "/>
<path style=" stroke:none;fill-rule:nonzero;fill:rgb(31.372549%,58.431373%,67.058824%);fill-opacity:1;" d="M 11.988281 4.167969 C 10.484375 4.167969 9.191406 5.5625 9.191406 7.300781 C 9.191406 11.214844 6.953125 11.609375 6.953125 14.351562 C 6.953125 17.378906 9.207031 19.832031 11.988281 19.832031 C 14.769531 19.832031 17.023438 17.378906 17.023438 14.351562 C 17.023438 11.609375 14.785156 11.214844 14.785156 7.300781 C 14.785156 5.5625 13.492188 4.167969 11.988281 4.167969 Z M 11.988281 4.167969 "/>
<path style=" stroke:none;fill-rule:nonzero;fill:rgb(100%,100%,100%);fill-opacity:1;" d="M 11.988281 8.644531 C 10.988281 8.644531 10.308594 9.492188 10.308594 10.546875 C 10.308594 12.921875 8.632812 13.160156 8.632812 14.824219 C 8.632812 16.664062 10.132812 18.15625 11.988281 18.15625 C 13.84375 18.15625 15.347656 16.664062 15.347656 14.824219 C 15.347656 13.160156 13.667969 12.921875 13.667969 10.546875 C 13.667969 9.492188 12.988281 8.644531 11.988281 8.644531 Z M 11.988281 8.644531 "/>
<path style=" stroke:none;fill-rule:nonzero;fill:rgb(91.764706%,69.411765%,3.137255%);fill-opacity:1;" d="M 9.480469 19.820312 C 9.3125 19.796875 9.164062 19.746094 8.835938 19.605469 C 8.351562 19.394531 8.125 19.324219 7.234375 19.121094 C 6.789062 19.019531 6.625 18.976562 6.238281 18.851562 C 6.097656 18.804688 5.910156 18.75 5.824219 18.722656 C 5.582031 18.65625 5.519531 18.628906 5.433594 18.558594 C 5.3125 18.464844 5.257812 18.320312 5.277344 18.15625 C 5.292969 18.054688 5.328125 17.953125 5.429688 17.746094 C 5.5625 17.464844 5.894531 17.363281 5.914062 17.089844 C 5.925781 16.925781 5.917969 16.746094 5.875 16.367188 C 5.851562 16.140625 5.84375 16.058594 5.84375 15.917969 C 5.84375 15.761719 5.847656 15.871094 5.863281 15.808594 C 5.921875 15.589844 5.96875 15.460938 6.179688 15.40625 C 6.242188 15.390625 6.113281 15.386719 6.402344 15.382812 C 6.582031 15.375 6.683594 15.371094 6.707031 15.367188 C 6.832031 15.335938 6.921875 15.289062 7.007812 15.210938 C 7.085938 15.132812 7.140625 14.71875 7.246094 14.535156 C 7.410156 14.246094 7.730469 14.25 7.992188 14.238281 C 8.066406 14.253906 8.09375 14.265625 8.175781 14.3125 C 8.257812 14.359375 8.28125 14.378906 8.351562 14.453125 C 8.53125 14.644531 8.617188 14.761719 9.019531 15.375 C 9.339844 15.859375 9.4375 16.011719 9.566406 16.238281 C 9.707031 16.488281 9.960938 16.882812 10.054688 17.003906 C 10.070312 17.023438 10.164062 17.148438 10.269531 17.277344 C 10.371094 17.410156 10.464844 17.53125 10.476562 17.550781 C 10.671875 17.820312 10.808594 18.128906 10.855469 18.441406 C 10.871094 18.546875 10.871094 18.566406 10.863281 18.6875 C 10.851562 18.847656 10.84375 18.914062 10.824219 18.949219 C 10.816406 18.960938 10.804688 19 10.792969 19.03125 C 10.644531 19.441406 10.273438 19.753906 9.847656 19.824219 C 9.757812 19.835938 9.578125 19.835938 9.480469 19.824219 Z M 9.480469 19.820312 "/>
<path style=" stroke:none;fill-rule:nonzero;fill:rgb(91.764706%,69.411765%,3.137255%);fill-opacity:1;" d="M 16.023438 19.636719 C 16.152344 19.546875 16.253906 19.445312 16.46875 19.195312 C 16.785156 18.828125 16.777344 18.679688 17.429688 18.152344 C 17.757812 17.890625 17.875 17.789062 18.140625 17.53125 C 18.238281 17.4375 18.371094 17.3125 18.433594 17.257812 C 18.605469 17.101562 18.644531 17.054688 18.6875 16.964844 C 18.75 16.839844 18.734375 16.699219 18.648438 16.578125 C 18.597656 16.496094 18.523438 16.433594 18.355469 16.304688 C 18.128906 16.132812 18.0625 15.984375 17.933594 15.769531 C 17.855469 15.640625 17.957031 15.324219 17.832031 15 C 17.757812 14.808594 17.730469 14.738281 17.671875 14.625 C 17.605469 14.496094 17.59375 14.476562 17.554688 14.433594 C 17.414062 14.28125 17.257812 14.226562 17.058594 14.269531 C 17 14.28125 16.96875 14.296875 16.726562 14.40625 C 16.574219 14.476562 16.441406 14.539062 16.417969 14.542969 C 16.304688 14.570312 16.210938 14.570312 16.105469 14.535156 C 16.007812 14.507812 15.929688 14.710938 15.765625 14.605469 C 15.652344 14.53125 15.53125 14.4375 15.445312 14.414062 C 15.328125 14.382812 15.328125 14.382812 15.214844 14.394531 C 15.105469 14.40625 15.027344 14.4375 14.941406 14.507812 C 14.886719 14.550781 14.867188 14.566406 14.820312 14.640625 C 14.773438 14.710938 14.761719 14.734375 14.734375 14.828125 C 14.664062 15.054688 14.640625 15.183594 14.558594 15.84375 C 14.496094 16.367188 14.480469 16.53125 14.464844 16.765625 C 14.453125 17.023438 14.40625 17.449219 14.378906 17.585938 C 14.375 17.605469 14.34375 17.746094 14.3125 17.894531 C 14.28125 18.042969 14.253906 18.179688 14.253906 18.199219 C 14.207031 18.496094 14.222656 18.804688 14.308594 19.074219 C 14.339844 19.167969 14.347656 19.183594 14.40625 19.28125 C 14.480469 19.402344 14.519531 19.453125 14.546875 19.472656 C 14.558594 19.480469 14.585938 19.503906 14.609375 19.527344 C 14.902344 19.800781 15.335938 19.898438 15.71875 19.785156 C 15.800781 19.757812 15.949219 19.683594 16.023438 19.632812 Z M 16.023438 19.636719 "/>
<path style=" stroke:none;fill-rule:nonzero;fill:rgb(100%,100%,100%);fill-opacity:1;" d="M 11.988281 6.964844 C 11.988281 7.582031 11.488281 8.082031 10.871094 8.082031 C 10.25 8.082031 9.75 7.582031 9.75 6.964844 C 9.75 6.347656 10.25 5.84375 10.871094 5.84375 C 11.488281 5.84375 11.988281 6.347656 11.988281 6.964844 Z M 11.988281 6.964844 "/>
<path style=" stroke:none;fill-rule:nonzero;fill:rgb(19.607843%,19.607843%,19.607843%);fill-opacity:1;" d="M 11.429688 6.964844 C 11.429688 7.273438 11.179688 7.523438 10.871094 7.523438 C 10.558594 7.523438 10.308594 7.273438 10.308594 6.964844 C 10.308594 6.65625 10.558594 6.40625 10.871094 6.40625 C 11.179688 6.40625 11.429688 6.65625 11.429688 6.964844 Z M 11.429688 6.964844 "/>
<path style=" stroke:none;fill-rule:nonzero;fill:rgb(96.862745%,49.019608%,0%);fill-opacity:1;" d="M 13.667969 8.363281 C 13.667969 9.445312 12.914062 10.320312 11.988281 10.320312 C 11.0625 10.320312 10.308594 9.445312 10.308594 8.363281 Z M 13.667969 8.363281 "/>
<path style=" stroke:none;fill-rule:nonzero;fill:rgb(100%,100%,100%);fill-opacity:1;" d="M 14.226562 6.964844 C 14.226562 7.582031 13.726562 8.082031 13.109375 8.082031 C 12.488281 8.082031 11.988281 7.582031 11.988281 6.964844 C 11.988281 6.347656 12.488281 5.84375 13.109375 5.84375 C 13.726562 5.84375 14.226562 6.347656 14.226562 6.964844 Z M 14.226562 6.964844 "/>
<path style=" stroke:none;fill-rule:nonzero;fill:rgb(19.607843%,19.607843%,19.607843%);fill-opacity:1;" d="M 13.667969 6.964844 C 13.667969 7.273438 13.417969 7.523438 13.109375 7.523438 C 12.796875 7.523438 12.546875 7.273438 12.546875 6.964844 C 12.546875 6.65625 12.796875 6.40625 13.109375 6.40625 C 13.417969 6.40625 13.667969 6.65625 13.667969 6.964844 Z M 13.667969 6.964844 "/>
<path style=" stroke:none;fill-rule:nonzero;fill:rgb(91.764706%,69.411765%,3.137255%);fill-opacity:1;" d="M 13.667969 8.457031 C 13.667969 8.644531 12.914062 9.761719 11.988281 9.761719 C 11.0625 9.761719 10.308594 8.644531 10.308594 8.457031 C 10.308594 7.941406 11.0625 7.523438 11.988281 7.523438 C 12.914062 7.523438 13.667969 7.941406 13.667969 8.457031 Z M 13.667969 8.457031 "/>
<path style=" stroke:none;fill-rule:nonzero;fill:rgb(31.372549%,58.431373%,67.058824%);fill-opacity:1;" d="M 16.15625 15.945312 C 15.511719 15.945312 15.507812 15.410156 15.378906 14.777344 C 15.238281 14.074219 15.144531 13.667969 16.265625 13.609375 C 17.238281 13.292969 17.386719 15.90625 16.15625 15.945312 Z M 16.15625 15.945312 "/>
</g>
</svg>
