<?xml version="1.0" encoding="UTF-8"?>
<svg xmlns="http://www.w3.org/2000/svg" xmlns:xlink="http://www.w3.org/1999/xlink" width="24pt" height="24pt" viewBox="0 0 24 24" version="1.1">
<g id="surface1">
<path style=" stroke:none;fill-rule:evenodd;fill:rgb(90.196078%,90.196078%,90.196078%);fill-opacity:1;" d="M 5.605469 1.421875 L 18.394531 1.421875 C 20.703125 1.421875 22.578125 3.296875 22.578125 5.605469 L 22.578125 18.394531 C 22.578125 20.703125 20.703125 22.578125 18.394531 22.578125 L 5.605469 22.578125 C 3.296875 22.578125 1.421875 20.703125 1.421875 18.394531 L 1.421875 5.605469 C 1.421875 3.296875 3.296875 1.421875 5.605469 1.421875 Z M 5.605469 1.421875 "/>
<path style=" stroke:none;fill-rule:nonzero;fill:rgb(59.607843%,60%,61.960784%);fill-opacity:1;" d="M 13.070312 19.679688 C 13.75 19.605469 14.199219 19.511719 14.753906 19.332031 C 16.15625 18.875 17.253906 18.070312 17.996094 16.960938 C 18.488281 16.230469 18.773438 15.457031 18.929688 14.46875 C 18.96875 14.210938 19.015625 12.882812 18.984375 12.882812 C 18.976562 12.882812 18.953125 12.933594 18.9375 12.992188 C 18.886719 13.191406 18.65625 13.734375 18.484375 14.074219 C 18.171875 14.691406 17.839844 15.144531 17.375 15.59375 C 17.0625 15.894531 16.875 16.042969 16.53125 16.253906 C 15.496094 16.898438 14.128906 17.199219 12.617188 17.113281 C 11.601562 17.058594 10.832031 16.867188 10.121094 16.492188 C 9.992188 16.421875 9.878906 16.367188 9.871094 16.367188 C 9.851562 16.367188 9.964844 16.742188 10.054688 16.972656 C 10.410156 17.867188 11.144531 18.761719 11.960938 19.296875 C 12.199219 19.449219 12.671875 19.71875 12.710938 19.71875 C 12.722656 19.71875 12.886719 19.703125 13.070312 19.679688 Z M 13.070312 19.679688 "/>
<path style=" stroke:none;fill-rule:nonzero;fill:rgb(11.372549%,59.215686%,84.705882%);fill-opacity:1;" d="M 11.945312 19.726562 C 11.945312 19.714844 11.839844 19.636719 11.710938 19.554688 C 11.316406 19.292969 10.804688 18.8125 10.472656 18.390625 C 9.921875 17.691406 9.597656 16.972656 9.4375 16.09375 C 9.382812 15.785156 9.382812 15.773438 9.382812 12.527344 L 9.382812 9.269531 L 8.515625 9.269531 L 8.511719 10.878906 L 8.503906 12.484375 L 7.628906 12.484375 L 7.628906 10.574219 L 7.195312 10.566406 L 6.765625 10.558594 L 6.75 11.425781 L 5.886719 11.425781 L 5.871094 6.652344 L 5.578125 6.644531 C 5.414062 6.640625 5.21875 6.644531 5.144531 6.652344 L 5.007812 6.667969 L 5.015625 10.441406 C 5.023438 14.535156 5.015625 14.265625 5.167969 14.984375 C 5.394531 16.074219 5.992188 17.144531 6.804688 17.910156 C 7.019531 18.117188 7.609375 18.585938 7.648438 18.585938 C 7.65625 18.585938 7.714844 18.617188 7.777344 18.660156 C 7.835938 18.703125 8.007812 18.800781 8.15625 18.878906 C 8.992188 19.316406 10 19.601562 11.046875 19.691406 C 11.222656 19.707031 11.410156 19.722656 11.457031 19.730469 C 11.644531 19.746094 11.949219 19.746094 11.945312 19.726562 Z M 7.613281 9.257812 L 7.613281 8.832031 L 6.761719 8.832031 L 6.761719 9.683594 L 7.613281 9.683594 Z M 8.492188 7.96875 L 8.492188 7.542969 L 7.640625 7.542969 L 7.640625 8.394531 L 8.492188 8.394531 Z M 9.371094 7.277344 C 9.371094 7.261719 9.375 7.066406 9.375 6.847656 L 9.378906 6.445312 L 8.949219 6.4375 L 8.515625 6.433594 L 8.515625 7.3125 L 8.941406 7.3125 C 9.265625 7.3125 9.367188 7.304688 9.371094 7.277344 Z M 7.613281 6.445312 L 7.613281 6.019531 L 6.761719 6.019531 L 6.761719 6.871094 L 7.613281 6.871094 Z M 8.492188 5.570312 L 8.492188 5.144531 L 7.640625 5.144531 L 7.640625 5.996094 L 8.492188 5.996094 Z M 5.855469 4.691406 L 5.859375 4.265625 L 5.007812 4.265625 L 5.007812 4.691406 C 5.007812 5.191406 4.953125 5.136719 5.484375 5.125 L 5.847656 5.117188 Z M 5.855469 4.691406 "/>
<path style=" stroke:none;fill-rule:nonzero;fill:rgb(1.960784%,1.960784%,2.745098%);fill-opacity:1;" d="M 15.070312 16.503906 C 15.601562 16.359375 16.128906 16.113281 16.578125 15.796875 C 17.367188 15.242188 17.980469 14.429688 18.410156 13.378906 C 18.523438 13.101562 18.632812 12.761719 18.878906 11.957031 L 18.992188 11.585938 L 18.992188 4.257812 L 18.558594 4.277344 C 16.949219 4.34375 15.929688 4.640625 15.320312 5.21875 C 15.066406 5.460938 14.894531 5.726562 14.789062 6.046875 C 14.640625 6.496094 14.648438 6.140625 14.632812 11.21875 C 14.613281 16.097656 14.617188 15.886719 14.515625 16.539062 L 14.496094 16.648438 L 14.660156 16.609375 C 14.75 16.585938 14.933594 16.539062 15.070312 16.503906 Z M 15.070312 16.503906 "/>
</g>
</svg>
