<?xml version="1.0" encoding="UTF-8"?>
<svg xmlns="http://www.w3.org/2000/svg" xmlns:xlink="http://www.w3.org/1999/xlink" width="24pt" height="24pt" viewBox="0 0 24 24" version="1.1">
<g id="surface1">
<path style=" stroke:none;fill-rule:evenodd;fill:rgb(30.980392%,30.980392%,30.980392%);fill-opacity:1;" d="M 5.605469 1.421875 L 18.394531 1.421875 C 20.703125 1.421875 22.578125 3.296875 22.578125 5.605469 L 22.578125 18.394531 C 22.578125 20.703125 20.703125 22.578125 18.394531 22.578125 L 5.605469 22.578125 C 3.296875 22.578125 1.421875 20.703125 1.421875 18.394531 L 1.421875 5.605469 C 1.421875 3.296875 3.296875 1.421875 5.605469 1.421875 Z M 5.605469 1.421875 "/>
<path style=" stroke:none;fill-rule:nonzero;fill:rgb(100%,100%,100%);fill-opacity:1;" d="M 12 4.460938 C 9.824219 4.460938 8.375 5.96875 8.375 8.175781 L 8.375 10.488281 L 6.851562 10.488281 C 6.851562 10.488281 6.199219 10.492188 6.199219 11.246094 L 6.199219 18.785156 C 6.199219 19.539062 6.851562 19.539062 6.851562 19.539062 L 17.148438 19.539062 C 17.148438 19.539062 17.800781 19.539062 17.800781 18.785156 L 17.800781 11.246094 C 17.800781 10.492188 17.148438 10.488281 17.148438 10.488281 L 15.625 10.496094 L 15.621094 8.152344 C 15.625 5.96875 14.175781 4.460938 12 4.460938 Z M 12 4.460938 "/>
<path style=" stroke:none;fill-rule:nonzero;fill:rgb(30.980392%,30.980392%,30.980392%);fill-opacity:1;" d="M 12 6.199219 C 13.28125 6.199219 14.320312 7.21875 14.320312 8.5 C 14.320312 10.046875 12.675781 11.980469 12.289062 12 C 12.289062 12 12.453125 10.820312 12 10.820312 C 10.71875 10.820312 9.679688 9.78125 9.679688 8.5 C 9.679688 7.21875 10.71875 6.199219 12 6.199219 Z M 12 6.199219 "/>
<path style=" stroke:none;fill-rule:nonzero;fill:rgb(30.980392%,30.980392%,30.980392%);fill-opacity:1;" d="M 12 13.160156 C 12.71875 13.160156 13.304688 13.746094 13.304688 14.464844 C 13.304688 15.074219 12.882812 15.585938 12.316406 15.726562 L 12.433594 15.726562 C 12.871094 15.726562 13.136719 16.125 13.398438 16.476562 C 13.640625 16.804688 13.738281 17.257812 13.738281 17.425781 L 13.738281 17.726562 C 13.738281 17.734375 13.738281 17.742188 13.738281 17.753906 C 13.738281 18.097656 13.457031 18.378906 13.109375 18.378906 L 10.890625 18.378906 C 10.542969 18.378906 10.261719 18.097656 10.261719 17.75 C 10.261719 17.742188 10.261719 17.734375 10.261719 17.722656 C 10.261719 17.722656 10.261719 17.574219 10.261719 17.425781 C 10.261719 17.257812 10.335938 16.792969 10.570312 16.460938 C 10.816406 16.105469 11.128906 15.726562 11.566406 15.726562 L 11.683594 15.726562 C 11.117188 15.585938 10.695312 15.074219 10.695312 14.464844 C 10.695312 13.742188 11.28125 13.160156 12 13.160156 Z M 12 13.160156 "/>
</g>
</svg>
