<?xml version="1.0" encoding="UTF-8"?>
<svg xmlns="http://www.w3.org/2000/svg" xmlns:xlink="http://www.w3.org/1999/xlink" width="24pt" height="24pt" viewBox="0 0 24 24" version="1.1">
<g id="surface1">
<path style=" stroke:none;fill-rule:evenodd;fill:rgb(80%,80%,80%);fill-opacity:1;" d="M 5.605469 1.421875 L 18.394531 1.421875 C 20.703125 1.421875 22.578125 3.296875 22.578125 5.605469 L 22.578125 18.394531 C 22.578125 20.703125 20.703125 22.578125 18.394531 22.578125 L 5.605469 22.578125 C 3.296875 22.578125 1.421875 20.703125 1.421875 18.394531 L 1.421875 5.605469 C 1.421875 3.296875 3.296875 1.421875 5.605469 1.421875 Z M 5.605469 1.421875 "/>
<path style=" stroke:none;fill-rule:nonzero;fill:rgb(93.72549%,22.352941%,22.352941%);fill-opacity:1;" d="M 6.75 6.75 C 5.917969 6.75 5.25 7.417969 5.25 8.25 L 12 12 L 18.75 8.25 C 18.75 7.417969 18.082031 6.75 17.25 6.75 Z M 6.75 7.5 L 17.25 7.5 C 17.535156 7.5 17.726562 7.667969 17.855469 7.886719 L 12 11.140625 L 6.144531 7.886719 C 6.273438 7.667969 6.464844 7.5 6.75 7.5 Z M 5.25 9 L 5.25 15.75 C 5.25 16.582031 5.917969 17.25 6.75 17.25 L 17.25 17.25 C 18.082031 17.25 18.75 16.582031 18.75 15.75 L 18.75 9 L 12 12.75 Z M 6 10.277344 L 11.636719 13.40625 C 11.863281 13.53125 12.136719 13.53125 12.363281 13.40625 L 18 10.277344 L 18 15.75 C 18 16.179688 17.679688 16.5 17.25 16.5 L 6.75 16.5 C 6.320312 16.5 6 16.179688 6 15.75 Z M 6 10.277344 "/>
</g>
</svg>
