<?xml version="1.0" encoding="UTF-8"?>
<svg xmlns="http://www.w3.org/2000/svg" xmlns:xlink="http://www.w3.org/1999/xlink" width="24pt" height="24pt" viewBox="0 0 24 24" version="1.1">
<g id="surface1">
<path style=" stroke:none;fill-rule:evenodd;fill:rgb(92.54902%,92.54902%,92.54902%);fill-opacity:1;" d="M 12.710938 1.425781 L 12.710938 9.289062 C 12.710938 9.496094 12.878906 9.664062 13.085938 9.664062 L 22.578125 9.664062 L 22.578125 5.605469 C 22.578125 3.289062 20.710938 1.425781 18.394531 1.425781 Z M 12.710938 1.425781 "/>
<path style=" stroke:none;fill-rule:evenodd;fill:rgb(29.019608%,70.196078%,89.411765%);fill-opacity:1;" d="M 18.394531 22.578125 C 20.710938 22.578125 22.578125 20.710938 22.578125 18.394531 L 22.578125 9.664062 L 13.085938 9.664062 C 12.878906 9.664062 12.710938 9.496094 12.710938 9.289062 L 12.710938 1.425781 L 5.605469 1.425781 C 3.289062 1.425781 1.425781 3.289062 1.425781 5.605469 L 1.425781 18.394531 C 1.425781 20.710938 3.289062 22.578125 5.605469 22.578125 Z M 18.394531 22.578125 "/>
</g>
</svg>
