<?xml version="1.0" encoding="UTF-8"?>
<svg xmlns="http://www.w3.org/2000/svg" xmlns:xlink="http://www.w3.org/1999/xlink" width="36pt" height="36pt" viewBox="0 0 36 36" version="1.1">
<g id="surface1">
<path style=" stroke:none;fill-rule:evenodd;fill:rgb(90.196078%,90.196078%,90.196078%);fill-opacity:1;" d="M 8.40625 2.136719 L 27.59375 2.136719 C 31.054688 2.136719 33.863281 4.945312 33.863281 8.40625 L 33.863281 27.59375 C 33.863281 31.054688 31.054688 33.863281 27.59375 33.863281 L 8.40625 33.863281 C 4.945312 33.863281 2.136719 31.054688 2.136719 27.59375 L 2.136719 8.40625 C 2.136719 4.945312 4.945312 2.136719 8.40625 2.136719 Z M 8.40625 2.136719 "/>
<path style=" stroke:none;fill-rule:nonzero;fill:rgb(30.980392%,30.980392%,30.980392%);fill-opacity:1;" d="M 17.222656 30.160156 C 17.144531 30.082031 17.082031 29.972656 17.082031 29.910156 C 17.082031 29.832031 17.046875 29.816406 16.957031 29.855469 C 16.886719 29.882812 16.554688 29.921875 16.214844 29.9375 L 15.597656 29.964844 L 15.488281 29.753906 C 15.386719 29.566406 15.355469 29.550781 15.191406 29.609375 C 14.75 29.773438 14.308594 29.644531 14.308594 29.351562 C 14.308594 29.171875 14.308594 29.171875 13.855469 29.21875 C 13.59375 29.246094 13.320312 29.234375 13.210938 29.195312 C 13.050781 29.132812 13.023438 29.089844 13.042969 28.898438 L 13.066406 28.675781 L 12.632812 28.640625 C 12.121094 28.597656 11.945312 28.488281 12.007812 28.25 C 12.046875 28.101562 12.027344 28.085938 11.808594 28.085938 C 11.515625 28.082031 11.332031 27.953125 11.261719 27.695312 C 11.214844 27.535156 11.171875 27.503906 11.019531 27.519531 C 10.730469 27.554688 10.574219 27.265625 10.589844 26.726562 C 10.601562 26.292969 10.570312 26.21875 10.421875 26.363281 C 10.378906 26.40625 10.269531 26.429688 10.175781 26.417969 C 9.960938 26.386719 9.914062 26.046875 10.070312 25.667969 C 10.195312 25.363281 10.167969 25.316406 9.90625 25.367188 C 9.5625 25.433594 9.480469 25.191406 9.65625 24.636719 C 9.703125 24.492188 9.691406 24.476562 9.574219 24.523438 C 9.289062 24.636719 9.226562 24.605469 9.203125 24.34375 C 9.191406 24.183594 9.238281 23.980469 9.328125 23.804688 C 9.484375 23.515625 9.476562 23.5 9.207031 23.523438 C 8.949219 23.542969 8.9375 23.34375 9.179688 22.964844 C 9.304688 22.773438 9.402344 22.59375 9.402344 22.5625 C 9.402344 22.535156 9.324219 22.476562 9.226562 22.433594 C 9 22.332031 9 22.179688 9.234375 21.855469 C 9.429688 21.582031 9.414062 21.453125 9.183594 21.453125 C 8.886719 21.453125 8.921875 21.074219 9.257812 20.664062 C 9.425781 20.457031 9.460938 20.359375 9.429688 20.183594 C 9.40625 20.0625 9.328125 19.914062 9.253906 19.851562 C 9.179688 19.789062 9.117188 19.675781 9.117188 19.605469 C 9.117188 19.464844 9.40625 19.171875 9.671875 19.039062 C 9.859375 18.945312 9.871094 18.8125 9.714844 18.582031 C 9.609375 18.421875 9.609375 18.398438 9.71875 18.234375 C 9.785156 18.136719 9.941406 18.011719 10.070312 17.949219 C 10.199219 17.890625 10.363281 17.75 10.429688 17.636719 C 10.550781 17.441406 10.546875 17.425781 10.425781 17.292969 C 10.222656 17.078125 10.40625 16.832031 10.894531 16.667969 C 11.402344 16.503906 11.53125 16.382812 11.40625 16.191406 C 11.230469 15.914062 11.410156 15.738281 11.996094 15.609375 C 12.308594 15.542969 12.390625 15.453125 12.34375 15.226562 C 12.308594 15.058594 12.332031 15.015625 12.496094 14.941406 C 12.667969 14.867188 12.683594 14.828125 12.644531 14.613281 C 12.539062 14.003906 12.519531 13.65625 12.582031 13.617188 C 12.621094 13.59375 12.753906 13.613281 12.875 13.65625 C 12.996094 13.703125 13.113281 13.722656 13.132812 13.699219 C 13.15625 13.679688 13.136719 13.425781 13.09375 13.136719 C 13.046875 12.84375 13.035156 12.5 13.058594 12.363281 C 13.101562 12.140625 13.125 12.121094 13.351562 12.121094 C 13.636719 12.121094 13.628906 12.15625 13.492188 11.53125 C 13.355469 10.90625 13.359375 10.832031 13.519531 10.675781 C 13.777344 10.425781 13.820312 9.792969 13.636719 8.867188 C 13.488281 8.109375 13.523438 7.695312 13.738281 7.695312 C 13.8125 7.695312 13.933594 7.773438 14.011719 7.871094 C 14.171875 8.066406 14.273438 8.089844 14.335938 7.933594 C 14.417969 7.730469 14.378906 7.554688 14.175781 7.160156 C 13.945312 6.71875 13.738281 6.097656 13.738281 5.851562 C 13.738281 5.605469 13.902344 5.65625 14.328125 6.035156 C 14.726562 6.390625 15.058594 6.921875 15.265625 7.539062 C 15.460938 8.125 15.582031 8.023438 15.625 7.242188 C 15.65625 6.710938 15.6875 6.589844 15.804688 6.589844 C 15.9375 6.589844 16.085938 7.015625 16.234375 7.808594 C 16.367188 8.523438 16.378906 8.769531 16.335938 9.710938 C 16.308594 10.308594 16.308594 10.867188 16.335938 10.953125 L 16.390625 11.113281 L 16.554688 10.910156 L 16.714844 10.710938 L 16.765625 10.90625 C 16.792969 11.015625 16.800781 11.589844 16.78125 12.183594 C 16.761719 12.773438 16.757812 13.300781 16.777344 13.347656 C 16.859375 13.566406 17.25 13.351562 17.304688 13.0625 C 17.355469 12.796875 17.542969 12.769531 17.867188 12.980469 C 18.035156 13.085938 18.269531 13.199219 18.390625 13.234375 C 18.574219 13.285156 18.628906 13.273438 18.730469 13.140625 C 18.839844 12.996094 18.867188 12.992188 19.085938 13.078125 C 19.53125 13.253906 19.609375 13.226562 19.585938 12.90625 C 19.574219 12.71875 19.605469 12.589844 19.675781 12.535156 C 19.738281 12.484375 19.785156 12.328125 19.789062 12.164062 C 19.789062 12.007812 19.816406 11.816406 19.847656 11.746094 C 19.882812 11.65625 19.816406 11.378906 19.664062 10.949219 C 19.273438 9.863281 19.378906 9.171875 19.855469 9.667969 C 20.089844 9.910156 20.210938 9.886719 20.210938 9.605469 C 20.210938 9.453125 20.058594 9.082031 19.78125 8.558594 C 19.207031 7.464844 19.210938 7.191406 19.796875 7.550781 C 20.203125 7.800781 20.59375 8.25 20.957031 8.882812 C 21.351562 9.574219 21.453125 9.585938 21.398438 8.929688 C 21.335938 8.078125 21.570312 7.925781 21.914062 8.59375 C 22.253906 9.246094 22.34375 9.699219 22.417969 11.152344 C 22.457031 11.894531 22.519531 12.527344 22.554688 12.5625 C 22.59375 12.597656 22.667969 12.523438 22.742188 12.371094 C 22.984375 11.882812 23.101562 12.164062 23.164062 13.363281 C 23.21875 14.371094 23.214844 14.351562 23.449219 14.246094 C 23.617188 14.171875 23.652344 14.183594 23.773438 14.324219 C 23.847656 14.414062 23.90625 14.570312 23.90625 14.675781 C 23.90625 14.972656 24.082031 15.074219 24.332031 14.929688 C 24.515625 14.828125 24.546875 14.824219 24.644531 14.921875 C 24.703125 14.980469 24.773438 15.144531 24.796875 15.285156 C 24.863281 15.679688 24.957031 15.851562 25.105469 15.851562 C 25.289062 15.851562 25.386719 15.984375 25.4375 16.3125 C 25.507812 16.730469 25.574219 16.808594 25.742188 16.660156 C 26.050781 16.386719 26.257812 16.734375 26.078125 17.226562 C 26.019531 17.394531 25.96875 17.542969 25.96875 17.558594 C 25.96875 17.574219 26.113281 17.566406 26.289062 17.542969 C 26.589844 17.5 26.609375 17.507812 26.609375 17.652344 C 26.609375 17.742188 26.558594 17.863281 26.5 17.925781 C 26.335938 18.105469 26.433594 18.480469 26.648438 18.480469 C 26.746094 18.480469 26.851562 18.539062 26.894531 18.621094 C 26.957031 18.734375 26.9375 18.824219 26.789062 19.078125 C 26.5625 19.472656 26.566406 19.488281 26.796875 19.597656 C 27.058594 19.722656 27.070312 19.808594 26.859375 20.054688 C 26.640625 20.304688 26.632812 20.386719 26.820312 20.433594 C 26.980469 20.476562 27.015625 20.75 26.878906 20.882812 C 26.816406 20.945312 26.828125 20.996094 26.925781 21.105469 C 27.035156 21.222656 27.042969 21.273438 26.976562 21.417969 C 26.929688 21.515625 26.8125 21.628906 26.714844 21.671875 C 26.511719 21.761719 26.488281 21.878906 26.644531 22.007812 C 26.730469 22.074219 26.746094 22.167969 26.707031 22.414062 C 26.652344 22.777344 26.574219 22.902344 26.390625 22.902344 C 26.191406 22.902344 26.167969 23.007812 26.324219 23.199219 C 26.570312 23.5 26.445312 23.765625 26.132812 23.609375 C 25.96875 23.527344 25.824219 23.574219 25.824219 23.707031 C 25.824219 23.765625 25.910156 23.949219 26.007812 24.117188 C 26.234375 24.488281 26.21875 24.726562 25.96875 24.757812 C 25.691406 24.792969 25.652344 24.878906 25.816406 25.101562 C 26.011719 25.367188 26.015625 25.644531 25.824219 25.703125 C 25.644531 25.757812 25.644531 25.90625 25.832031 26.160156 C 26.011719 26.402344 25.984375 26.59375 25.773438 26.625 C 25.574219 26.652344 25.570312 26.714844 25.761719 26.882812 C 26.039062 27.128906 26.074219 27.265625 25.890625 27.398438 C 25.746094 27.507812 25.734375 27.542969 25.8125 27.703125 C 26 28.101562 25.867188 28.496094 25.597656 28.355469 C 25.433594 28.269531 25.445312 28.257812 25.339844 28.617188 C 25.277344 28.835938 25.207031 28.921875 25.046875 28.972656 C 24.917969 29.019531 24.832031 29.101562 24.820312 29.199219 C 24.78125 29.433594 24.585938 29.523438 24.421875 29.378906 C 24.230469 29.214844 24.210938 29.226562 24.15625 29.539062 C 24.109375 29.804688 23.964844 30.023438 23.835938 30.023438 C 23.800781 30.023438 23.707031 29.941406 23.628906 29.84375 C 23.460938 29.636719 23.289062 29.660156 23.253906 29.890625 C 23.242188 29.972656 23.175781 30.078125 23.105469 30.121094 C 23.003906 30.183594 22.949219 30.160156 22.808594 29.988281 L 22.636719 29.78125 L 22.433594 29.972656 C 22.207031 30.179688 22.003906 30.214844 21.941406 30.058594 C 21.882812 29.910156 21.789062 29.925781 21.546875 30.125 C 21.433594 30.21875 21.289062 30.296875 21.234375 30.296875 C 21.175781 30.296875 21.101562 30.21875 21.0625 30.125 C 21.027344 30.03125 20.984375 29.953125 20.96875 29.953125 C 20.953125 29.953125 20.753906 30.03125 20.527344 30.128906 C 20.046875 30.335938 19.777344 30.328125 19.675781 30.105469 C 19.628906 30.003906 19.570312 29.964844 19.5 29.996094 C 18.960938 30.222656 18.785156 30.261719 18.644531 30.175781 C 18.527344 30.105469 18.421875 30.109375 18.082031 30.191406 C 17.535156 30.332031 17.394531 30.324219 17.222656 30.160156 Z M 17.222656 30.160156 "/>
<path style=" stroke:none;fill-rule:nonzero;fill:rgb(57.254902%,57.254902%,57.254902%);fill-opacity:1;" d="M 20.019531 22.933594 C 19.925781 22.929688 19.832031 22.941406 19.734375 22.957031 C 18.949219 23.113281 18.011719 23.683594 17.511719 24.316406 C 17.140625 24.78125 16.9375 25.324219 16.886719 25.980469 L 16.851562 26.46875 L 17.226562 26.863281 C 17.855469 27.535156 18.515625 27.746094 19.855469 27.714844 C 20.453125 27.699219 20.660156 27.664062 20.894531 27.546875 C 21.292969 27.347656 21.464844 27.117188 21.5625 26.652344 C 21.667969 26.160156 21.613281 24.585938 21.476562 24.105469 C 21.273438 23.40625 20.671875 22.9375 20.019531 22.933594 Z M 20.738281 24.5625 C 20.894531 24.5625 20.921875 24.589844 20.921875 24.773438 C 20.921875 24.925781 20.882812 25 20.785156 25.023438 C 20.660156 25.054688 20.65625 25.074219 20.75 25.292969 C 20.871094 25.574219 20.878906 26.285156 20.765625 26.53125 C 20.605469 26.867188 20.027344 27.035156 19.535156 26.886719 C 19.191406 26.785156 19.074219 26.589844 19.074219 26.121094 C 19.070312 25.285156 19.84375 24.5625 20.738281 24.5625 Z M 20.738281 24.5625 "/>
<path style=" stroke:none;fill-rule:nonzero;fill:rgb(100%,100%,100%);fill-opacity:1;" d="M 20.234375 26.488281 C 20.726562 26.269531 20.644531 25.320312 20.132812 25.320312 C 19.886719 25.320312 19.5 25.753906 19.5 26.023438 C 19.5 26.289062 19.546875 26.371094 19.746094 26.484375 C 19.929688 26.582031 20.019531 26.585938 20.234375 26.488281 Z M 20.234375 26.488281 "/>
<path style=" stroke:none;fill-rule:nonzero;fill:rgb(57.254902%,57.254902%,57.254902%);fill-opacity:1;" d="M 24.921875 27.160156 C 25.121094 27.011719 25.207031 26.355469 25.167969 25.21875 C 25.128906 24.136719 25.035156 23.699219 24.808594 23.566406 C 24.703125 23.503906 24.648438 23.523438 24.511719 23.691406 C 24.265625 23.988281 23.84375 25.117188 23.835938 25.507812 C 23.835938 25.550781 23.929688 25.496094 24.042969 25.386719 C 24.191406 25.242188 24.320312 25.183594 24.488281 25.183594 C 24.703125 25.183594 24.738281 25.214844 24.890625 25.539062 C 25.085938 25.945312 25.078125 26.496094 24.875 26.691406 C 24.632812 26.925781 23.894531 26.753906 23.8125 26.445312 C 23.796875 26.378906 23.792969 26.429688 23.804688 26.554688 C 23.835938 26.847656 23.941406 26.972656 24.296875 27.128906 C 24.636719 27.277344 24.753906 27.285156 24.921875 27.160156 Z M 24.921875 27.160156 "/>
<path style=" stroke:none;fill-rule:nonzero;fill:rgb(100%,100%,100%);fill-opacity:1;" d="M 24.648438 26.386719 C 24.808594 26.234375 24.785156 25.980469 24.59375 25.765625 C 24.382812 25.527344 24.148438 25.582031 24.0625 25.898438 C 23.96875 26.234375 24.089844 26.496094 24.335938 26.496094 C 24.445312 26.496094 24.585938 26.449219 24.648438 26.386719 Z M 24.648438 26.386719 "/>
</g>
</svg>
