<?xml version="1.0" encoding="UTF-8"?>
<svg xmlns="http://www.w3.org/2000/svg" xmlns:xlink="http://www.w3.org/1999/xlink" width="36pt" height="36pt" viewBox="0 0 36 36" version="1.1">
<g id="surface1">
<path style=" stroke:none;fill-rule:evenodd;fill:rgb(80%,80%,80%);fill-opacity:1;" d="M 8.40625 2.136719 L 27.59375 2.136719 C 31.054688 2.136719 33.863281 4.945312 33.863281 8.40625 L 33.863281 27.59375 C 33.863281 31.054688 31.054688 33.863281 27.59375 33.863281 L 8.40625 33.863281 C 4.945312 33.863281 2.136719 31.054688 2.136719 27.59375 L 2.136719 8.40625 C 2.136719 4.945312 4.945312 2.136719 8.40625 2.136719 Z M 8.40625 2.136719 "/>
<path style=" stroke:none;fill-rule:evenodd;fill:rgb(80%,80%,80%);fill-opacity:1;" d="M 7.8125 33.746094 C 7.449219 33.671875 7.089844 33.578125 6.738281 33.46875 C 6.734375 33.46875 6.734375 33.46875 6.734375 33.46875 C 6.375 33.359375 6.019531 33.230469 5.671875 33.082031 C 5.5 33.003906 5.332031 32.921875 5.164062 32.835938 C 5.957031 33.328125 6.832031 33.648438 7.8125 33.746094 Z M 7.8125 33.746094 "/>
<path style=" stroke:none;fill-rule:evenodd;fill:rgb(80%,80%,80%);fill-opacity:1;" d="M 8.589844 33.863281 C 8.34375 33.835938 8.101562 33.800781 7.859375 33.753906 C 8.046875 33.773438 8.210938 33.863281 8.40625 33.863281 Z M 8.589844 33.863281 "/>
<path style=" stroke:none;fill-rule:evenodd;fill:rgb(80%,80%,80%);fill-opacity:1;" d="M 14.636719 12.273438 C 14.601562 12.632812 14.585938 12.996094 14.585938 13.359375 C 14.585938 13.628906 14.59375 13.894531 14.613281 14.160156 C 14.640625 14.539062 14.6875 14.914062 14.75 15.285156 C 14.816406 15.660156 14.898438 16.027344 15 16.390625 C 15.097656 16.753906 15.21875 17.113281 15.355469 17.464844 C 15.492188 17.820312 15.644531 18.164062 15.816406 18.5 C 15.988281 18.835938 16.175781 19.164062 16.378906 19.484375 C 16.585938 19.800781 16.804688 20.109375 17.039062 20.402344 C 17.273438 20.699219 17.523438 20.984375 17.785156 21.253906 C 17.789062 21.253906 17.789062 21.253906 17.789062 21.253906 C 18.050781 21.527344 18.328125 21.785156 18.617188 22.027344 C 18.90625 22.269531 19.207031 22.5 19.519531 22.714844 C 19.832031 22.925781 20.152344 23.125 20.484375 23.304688 C 20.769531 23.457031 21.0625 23.597656 21.363281 23.726562 C 21.398438 23.367188 21.414062 23.003906 21.417969 22.644531 C 21.417969 22.375 21.40625 22.109375 21.386719 21.839844 C 21.363281 21.464844 21.316406 21.089844 21.25 20.71875 C 21.25 20.71875 21.25 20.714844 21.25 20.714844 C 21.1875 20.34375 21.105469 19.976562 21.003906 19.609375 C 20.902344 19.246094 20.78125 18.886719 20.644531 18.535156 C 20.507812 18.183594 20.355469 17.839844 20.183594 17.503906 C 20.183594 17.503906 20.183594 17.503906 20.183594 17.5 C 20.011719 17.164062 19.824219 16.835938 19.621094 16.519531 C 19.414062 16.203125 19.195312 15.894531 18.960938 15.597656 C 18.726562 15.300781 18.476562 15.019531 18.214844 14.75 C 18.214844 14.746094 18.214844 14.746094 18.214844 14.746094 C 17.949219 14.476562 17.671875 14.21875 17.386719 13.976562 C 17.382812 13.972656 17.382812 13.972656 17.382812 13.972656 C 17.09375 13.730469 16.792969 13.5 16.480469 13.289062 C 16.171875 13.074219 15.847656 12.878906 15.515625 12.699219 C 15.230469 12.542969 14.9375 12.402344 14.636719 12.273438 Z M 14.636719 12.273438 "/>
<path style=" stroke:none;fill-rule:evenodd;fill:rgb(80%,80%,80%);fill-opacity:1;" d="M 10.203125 11.316406 C 10.164062 11.316406 10.121094 11.3125 10.082031 11.3125 C 9.816406 11.3125 9.546875 11.320312 9.28125 11.335938 C 8.90625 11.367188 8.53125 11.410156 8.160156 11.476562 C 7.785156 11.539062 7.417969 11.625 7.054688 11.722656 C 6.6875 11.824219 6.328125 11.945312 5.976562 12.082031 C 5.625 12.21875 5.28125 12.371094 4.945312 12.542969 C 4.605469 12.714844 4.28125 12.902344 3.960938 13.105469 C 3.644531 13.3125 3.335938 13.53125 3.039062 13.765625 C 2.742188 14 2.460938 14.25 2.1875 14.511719 C 2.167969 14.53125 2.152344 14.550781 2.136719 14.566406 L 2.136719 27.59375 C 2.136719 29.851562 3.382812 31.730469 5.164062 32.835938 C 5.332031 32.921875 5.5 33.003906 5.671875 33.082031 C 6.019531 33.230469 6.375 33.359375 6.734375 33.46875 C 6.734375 33.46875 6.734375 33.46875 6.738281 33.46875 C 7.089844 33.578125 7.449219 33.671875 7.8125 33.746094 C 7.828125 33.746094 7.839844 33.753906 7.859375 33.753906 C 8.101562 33.800781 8.34375 33.835938 8.589844 33.863281 L 11.570312 33.863281 C 11.714844 33.847656 11.863281 33.832031 12.011719 33.8125 C 12.382812 33.746094 12.75 33.664062 13.117188 33.5625 C 13.480469 33.460938 13.839844 33.34375 14.191406 33.203125 C 14.542969 33.066406 14.886719 32.914062 15.226562 32.742188 C 15.5625 32.570312 15.890625 32.382812 16.207031 32.179688 C 16.523438 31.976562 16.832031 31.753906 17.128906 31.519531 C 17.128906 31.519531 17.128906 31.519531 17.128906 31.515625 C 17.425781 31.285156 17.707031 31.035156 17.980469 30.773438 C 18.25 30.507812 18.507812 30.234375 18.75 29.945312 C 18.75 29.945312 18.75 29.941406 18.75 29.941406 C 18.996094 29.652344 19.222656 29.351562 19.4375 29.042969 C 19.648438 28.730469 19.84375 28.410156 20.023438 28.082031 C 19.582031 27.90625 19.144531 27.714844 18.722656 27.5 C 18.25 27.257812 17.789062 26.996094 17.34375 26.710938 C 16.898438 26.425781 16.46875 26.117188 16.054688 25.789062 C 15.640625 25.457031 15.242188 25.109375 14.863281 24.742188 C 14.484375 24.371094 14.121094 23.984375 13.78125 23.578125 C 13.441406 23.175781 13.121094 22.753906 12.820312 22.316406 C 12.523438 21.878906 12.246094 21.429688 11.992188 20.964844 C 11.738281 20.5 11.507812 20.023438 11.300781 19.539062 C 11.097656 19.050781 10.914062 18.550781 10.757812 18.046875 C 10.601562 17.539062 10.472656 17.027344 10.367188 16.511719 C 10.261719 15.992188 10.183594 15.46875 10.128906 14.941406 C 10.078125 14.414062 10.050781 13.886719 10.050781 13.355469 C 10.050781 12.984375 10.0625 12.609375 10.089844 12.238281 C 10.117188 11.929688 10.15625 11.625 10.203125 11.316406 Z M 10.203125 11.316406 "/>
<path style=" stroke:none;fill-rule:evenodd;fill:rgb(48.235294%,76.862745%,31.372549%);fill-opacity:1;" d="M 10.203125 11.316406 C 10.15625 11.625 10.117188 11.929688 10.089844 12.238281 C 10.0625 12.609375 10.050781 12.984375 10.050781 13.355469 C 10.050781 13.886719 10.078125 14.414062 10.128906 14.941406 C 10.183594 15.46875 10.261719 15.992188 10.367188 16.511719 C 10.472656 17.027344 10.601562 17.539062 10.757812 18.046875 C 10.914062 18.550781 11.097656 19.050781 11.300781 19.539062 C 11.507812 20.023438 11.738281 20.5 11.992188 20.964844 C 12.246094 21.429688 12.523438 21.878906 12.820312 22.316406 C 13.121094 22.753906 13.441406 23.175781 13.78125 23.578125 C 14.121094 23.984375 14.484375 24.371094 14.863281 24.742188 C 15.242188 25.109375 15.640625 25.457031 16.054688 25.789062 C 16.46875 26.117188 16.898438 26.425781 17.34375 26.710938 C 17.789062 26.996094 18.25 27.257812 18.71875 27.5 C 19.144531 27.714844 19.582031 27.90625 20.023438 28.082031 C 20.023438 28.082031 20.027344 28.078125 20.027344 28.078125 C 20.027344 28.074219 20.027344 28.074219 20.027344 28.074219 C 20.210938 27.742188 20.375 27.402344 20.523438 27.058594 C 20.523438 27.054688 20.523438 27.054688 20.523438 27.054688 C 20.667969 26.707031 20.796875 26.351562 20.910156 25.992188 C 21.019531 25.632812 21.113281 25.265625 21.191406 24.894531 C 21.265625 24.523438 21.320312 24.148438 21.359375 23.773438 C 21.359375 23.757812 21.359375 23.742188 21.363281 23.726562 C 21.0625 23.597656 20.769531 23.457031 20.484375 23.304688 C 20.152344 23.125 19.832031 22.925781 19.519531 22.714844 C 19.207031 22.5 18.90625 22.269531 18.617188 22.027344 C 18.328125 21.785156 18.050781 21.527344 17.789062 21.253906 C 17.789062 21.253906 17.789062 21.253906 17.785156 21.253906 C 17.523438 20.984375 17.273438 20.699219 17.039062 20.402344 C 16.804688 20.109375 16.585938 19.800781 16.378906 19.484375 C 16.175781 19.164062 15.988281 18.835938 15.816406 18.5 C 15.644531 18.164062 15.492188 17.820312 15.355469 17.464844 C 15.21875 17.113281 15.097656 16.753906 15 16.390625 C 14.898438 16.027344 14.816406 15.660156 14.75 15.285156 C 14.6875 14.914062 14.640625 14.539062 14.613281 14.160156 C 14.59375 13.894531 14.585938 13.628906 14.585938 13.359375 C 14.585938 12.996094 14.601562 12.632812 14.636719 12.273438 C 14.589844 12.25 14.542969 12.226562 14.496094 12.207031 C 14.496094 12.203125 14.496094 12.203125 14.496094 12.203125 C 14.148438 12.058594 13.792969 11.929688 13.433594 11.816406 C 13.070312 11.703125 12.707031 11.609375 12.335938 11.535156 C 11.964844 11.460938 11.589844 11.402344 11.214844 11.367188 C 11.214844 11.367188 11.214844 11.363281 11.214844 11.363281 C 10.878906 11.332031 10.539062 11.320312 10.203125 11.316406 Z M 10.203125 11.316406 "/>
<path style=" stroke:none;fill-rule:evenodd;fill:rgb(19.215686%,54.509804%,81.176471%);fill-opacity:1;" d="M 21.28125 33.863281 C 21.34375 33.808594 21.40625 33.75 21.464844 33.695312 C 21.835938 33.316406 22.183594 32.917969 22.511719 32.503906 C 22.839844 32.089844 23.148438 31.660156 23.433594 31.214844 C 23.71875 30.769531 23.984375 30.308594 24.226562 29.839844 C 24.464844 29.367188 24.679688 28.882812 24.871094 28.390625 C 25.0625 27.898438 25.230469 27.394531 25.371094 26.886719 C 25.511719 26.375 25.628906 25.859375 25.71875 25.339844 C 25.808594 24.816406 25.871094 24.292969 25.910156 23.761719 C 25.9375 23.390625 25.949219 23.015625 25.949219 22.640625 C 25.949219 22.113281 25.921875 21.585938 25.871094 21.058594 C 25.816406 20.53125 25.738281 20.007812 25.632812 19.488281 C 25.527344 18.972656 25.398438 18.460938 25.242188 17.953125 C 25.085938 17.449219 24.902344 16.949219 24.695312 16.460938 C 24.492188 15.976562 24.261719 15.5 24.007812 15.035156 C 23.753906 14.570312 23.476562 14.121094 23.179688 13.683594 C 22.878906 13.246094 22.558594 12.824219 22.21875 12.421875 C 21.878906 12.015625 21.515625 11.628906 21.136719 11.257812 C 20.757812 10.890625 20.359375 10.542969 19.945312 10.214844 C 19.53125 9.882812 19.101562 9.574219 18.65625 9.289062 C 18.210938 9.003906 17.75 8.742188 17.28125 8.5 C 16.808594 8.261719 16.324219 8.042969 15.832031 7.851562 C 15.339844 7.660156 14.839844 7.496094 14.328125 7.355469 C 13.816406 7.210938 13.300781 7.097656 12.78125 7.007812 C 12.257812 6.917969 11.734375 6.851562 11.207031 6.816406 C 10.832031 6.789062 10.457031 6.773438 10.082031 6.773438 C 9.554688 6.773438 9.027344 6.800781 8.5 6.855469 C 7.972656 6.90625 7.449219 6.984375 6.933594 7.089844 C 6.414062 7.195312 5.898438 7.328125 5.394531 7.484375 C 4.890625 7.640625 4.390625 7.824219 3.90625 8.027344 C 3.417969 8.234375 2.941406 8.464844 2.476562 8.71875 C 2.363281 8.785156 2.25 8.855469 2.136719 8.925781 L 2.136719 14.566406 C 2.152344 14.550781 2.167969 14.53125 2.1875 14.511719 C 2.460938 14.25 2.742188 14 3.039062 13.765625 C 3.335938 13.53125 3.644531 13.3125 3.960938 13.105469 C 4.28125 12.902344 4.605469 12.714844 4.945312 12.542969 C 5.28125 12.371094 5.625 12.21875 5.976562 12.082031 C 6.328125 11.945312 6.6875 11.824219 7.054688 11.726562 C 7.417969 11.625 7.785156 11.539062 8.160156 11.476562 C 8.53125 11.410156 8.90625 11.367188 9.28125 11.335938 C 9.546875 11.320312 9.816406 11.3125 10.082031 11.3125 C 10.460938 11.308594 10.839844 11.328125 11.214844 11.363281 C 11.214844 11.363281 11.214844 11.367188 11.214844 11.367188 C 11.589844 11.402344 11.964844 11.460938 12.335938 11.535156 C 12.707031 11.609375 13.070312 11.703125 13.433594 11.816406 C 13.792969 11.929688 14.148438 12.058594 14.496094 12.203125 C 14.496094 12.203125 14.496094 12.203125 14.496094 12.207031 C 14.84375 12.351562 15.1875 12.515625 15.515625 12.699219 C 15.847656 12.878906 16.171875 13.074219 16.480469 13.289062 C 16.792969 13.5 17.09375 13.730469 17.382812 13.972656 C 17.386719 13.972656 17.386719 13.972656 17.382812 13.976562 C 17.671875 14.21875 17.949219 14.476562 18.214844 14.746094 C 18.214844 14.746094 18.214844 14.746094 18.214844 14.75 C 18.476562 15.019531 18.726562 15.300781 18.960938 15.597656 C 19.195312 15.894531 19.414062 16.203125 19.621094 16.519531 C 19.824219 16.835938 20.011719 17.164062 20.183594 17.5 C 20.183594 17.503906 20.183594 17.503906 20.183594 17.503906 C 20.355469 17.839844 20.507812 18.183594 20.644531 18.535156 C 20.78125 18.886719 20.902344 19.246094 21.003906 19.609375 C 21.105469 19.976562 21.1875 20.34375 21.25 20.714844 C 21.253906 20.714844 21.253906 20.71875 21.25 20.71875 C 21.316406 21.089844 21.363281 21.464844 21.386719 21.839844 C 21.40625 22.109375 21.417969 22.375 21.417969 22.644531 C 21.417969 23.019531 21.398438 23.398438 21.359375 23.773438 C 21.320312 24.148438 21.265625 24.523438 21.191406 24.894531 C 21.113281 25.265625 21.019531 25.632812 20.910156 25.992188 C 20.796875 26.351562 20.667969 26.707031 20.523438 27.054688 C 20.523438 27.054688 20.523438 27.054688 20.523438 27.058594 C 20.375 27.402344 20.210938 27.742188 20.027344 28.074219 C 20.027344 28.074219 20.027344 28.074219 20.027344 28.078125 C 19.847656 28.40625 19.648438 28.730469 19.4375 29.042969 C 19.222656 29.351562 18.996094 29.652344 18.75 29.941406 C 18.75 29.941406 18.75 29.945312 18.75 29.945312 C 18.507812 30.234375 18.25 30.507812 17.980469 30.773438 C 17.707031 31.035156 17.425781 31.285156 17.128906 31.515625 C 17.128906 31.519531 17.128906 31.519531 17.128906 31.519531 C 16.832031 31.753906 16.523438 31.976562 16.207031 32.179688 C 15.890625 32.382812 15.5625 32.570312 15.226562 32.742188 C 14.886719 32.914062 14.542969 33.066406 14.191406 33.203125 C 14.191406 33.203125 14.191406 33.203125 14.191406 33.207031 C 13.839844 33.34375 13.480469 33.460938 13.117188 33.5625 C 12.75 33.664062 12.382812 33.746094 12.011719 33.8125 C 11.863281 33.832031 11.714844 33.847656 11.570312 33.863281 Z M 21.28125 33.863281 "/>
<path style=" stroke:none;fill-rule:evenodd;fill:rgb(80%,80%,80%);fill-opacity:1;" d="M 29.023438 2.421875 C 29.132812 2.449219 29.242188 2.476562 29.347656 2.507812 C 29.710938 2.617188 30.066406 2.75 30.414062 2.894531 C 30.441406 2.910156 30.46875 2.921875 30.496094 2.933594 C 30.035156 2.691406 29.542969 2.546875 29.023438 2.421875 Z M 29.023438 2.421875 "/>
<path style=" stroke:none;fill-rule:evenodd;fill:rgb(80%,80%,80%);fill-opacity:1;" d="M 25.800781 24.65625 C 25.867188 24.660156 25.933594 24.664062 26 24.667969 C 26.269531 24.667969 26.535156 24.65625 26.800781 24.636719 C 27.179688 24.609375 27.554688 24.566406 27.925781 24.5 C 28.300781 24.4375 28.667969 24.355469 29.03125 24.253906 C 29.394531 24.152344 29.753906 24.03125 30.105469 23.894531 C 30.460938 23.757812 30.804688 23.605469 31.140625 23.433594 C 31.476562 23.261719 31.804688 23.074219 32.125 22.871094 C 32.441406 22.664062 32.75 22.445312 33.042969 22.210938 C 33.328125 21.984375 33.601562 21.742188 33.863281 21.492188 L 33.863281 8.40625 C 33.863281 6 32.476562 3.988281 30.496094 2.9375 C 30.46875 2.921875 30.441406 2.910156 30.414062 2.894531 C 30.066406 2.75 29.710938 2.617188 29.347656 2.507812 C 29.242188 2.476562 29.132812 2.449219 29.023438 2.421875 C 28.550781 2.3125 28.101562 2.136719 27.59375 2.136719 L 24.324219 2.136719 C 24.242188 2.144531 24.160156 2.15625 24.074219 2.167969 C 23.703125 2.230469 23.335938 2.3125 22.96875 2.414062 C 22.605469 2.515625 22.246094 2.632812 21.894531 2.769531 C 21.542969 2.90625 21.195312 3.0625 20.859375 3.234375 C 20.523438 3.40625 20.195312 3.59375 19.878906 3.796875 C 19.878906 3.796875 19.878906 3.796875 19.875 3.796875 C 19.558594 4 19.25 4.222656 18.957031 4.457031 C 18.660156 4.691406 18.375 4.941406 18.105469 5.203125 C 18.105469 5.203125 18.105469 5.203125 18.101562 5.207031 C 17.832031 5.46875 17.574219 5.746094 17.332031 6.035156 C 17.089844 6.324219 16.859375 6.621094 16.644531 6.933594 C 16.433594 7.246094 16.234375 7.566406 16.054688 7.898438 C 16.054688 7.898438 16.054688 7.902344 16.054688 7.902344 C 16.046875 7.914062 16.042969 7.929688 16.035156 7.941406 C 16.457031 8.109375 16.871094 8.296875 17.28125 8.5 C 17.75 8.742188 18.210938 9.003906 18.65625 9.289062 C 19.101562 9.574219 19.53125 9.882812 19.945312 10.210938 C 20.359375 10.542969 20.757812 10.890625 21.136719 11.257812 C 21.515625 11.628906 21.878906 12.015625 22.21875 12.421875 C 22.558594 12.824219 22.878906 13.246094 23.179688 13.683594 C 23.476562 14.121094 23.753906 14.570312 24.007812 15.035156 C 24.261719 15.5 24.492188 15.976562 24.695312 16.460938 C 24.902344 16.949219 25.085938 17.449219 25.242188 17.953125 C 25.398438 18.460938 25.527344 18.972656 25.632812 19.488281 C 25.738281 20.007812 25.816406 20.53125 25.871094 21.058594 C 25.921875 21.585938 25.949219 22.113281 25.949219 22.640625 C 25.949219 23.015625 25.9375 23.390625 25.910156 23.761719 C 25.882812 24.0625 25.847656 24.359375 25.800781 24.65625 Z M 25.800781 24.65625 "/>
<path style=" stroke:none;fill-rule:evenodd;fill:rgb(80%,80%,80%);fill-opacity:1;" d="M 24.546875 29.121094 C 24.445312 29.363281 24.335938 29.601562 24.226562 29.839844 C 23.984375 30.308594 23.71875 30.769531 23.433594 31.214844 C 23.148438 31.660156 22.839844 32.089844 22.511719 32.503906 C 22.183594 32.917969 21.835938 33.316406 21.464844 33.695312 C 21.40625 33.75 21.34375 33.808594 21.28125 33.863281 L 27.59375 33.863281 C 31.066406 33.863281 33.863281 31.066406 33.863281 27.59375 L 33.863281 27.097656 C 33.777344 27.152344 33.695312 27.207031 33.605469 27.257812 C 33.144531 27.511719 32.667969 27.742188 32.179688 27.945312 C 31.691406 28.152344 31.195312 28.335938 30.6875 28.492188 C 30.183594 28.648438 29.671875 28.777344 29.152344 28.882812 C 28.632812 28.988281 28.109375 29.066406 27.585938 29.121094 C 27.058594 29.171875 26.53125 29.199219 26 29.199219 C 25.625 29.199219 25.25 29.1875 24.878906 29.160156 C 24.765625 29.148438 24.65625 29.132812 24.546875 29.121094 Z M 24.546875 29.121094 "/>
<path style=" stroke:none;fill-rule:evenodd;fill:rgb(48.235294%,76.862745%,31.372549%);fill-opacity:1;" d="M 24.546875 29.121094 C 24.65625 29.132812 24.765625 29.148438 24.878906 29.160156 C 25.25 29.1875 25.625 29.199219 26 29.199219 C 26.53125 29.199219 27.058594 29.171875 27.585938 29.121094 C 28.109375 29.066406 28.632812 28.988281 29.152344 28.882812 C 29.671875 28.777344 30.183594 28.648438 30.6875 28.492188 C 31.195312 28.335938 31.691406 28.152344 32.179688 27.945312 C 32.667969 27.742188 33.144531 27.511719 33.605469 27.257812 C 33.695312 27.207031 33.777344 27.152344 33.863281 27.097656 L 33.863281 21.492188 C 33.601562 21.742188 33.328125 21.984375 33.042969 22.210938 C 32.75 22.445312 32.441406 22.664062 32.125 22.867188 C 31.804688 23.074219 31.476562 23.261719 31.140625 23.433594 C 30.804688 23.605469 30.460938 23.757812 30.105469 23.894531 C 29.753906 24.03125 29.394531 24.152344 29.03125 24.253906 C 28.667969 24.355469 28.300781 24.4375 27.925781 24.5 C 27.554688 24.566406 27.179688 24.609375 26.800781 24.636719 C 26.535156 24.65625 26.269531 24.667969 26 24.667969 C 25.933594 24.664062 25.867188 24.660156 25.800781 24.65625 C 25.78125 24.882812 25.75 25.113281 25.71875 25.339844 C 25.628906 25.859375 25.511719 26.375 25.371094 26.886719 C 25.230469 27.394531 25.0625 27.898438 24.871094 28.390625 C 24.769531 28.636719 24.660156 28.878906 24.546875 29.121094 Z M 24.546875 29.121094 "/>
<path style=" stroke:none;fill-rule:evenodd;fill:rgb(80%,80%,80%);fill-opacity:1;" d="M 14.773438 2.136719 L 8.40625 2.136719 C 4.933594 2.136719 2.136719 4.933594 2.136719 8.40625 L 2.136719 8.925781 C 2.25 8.855469 2.363281 8.785156 2.476562 8.71875 C 2.941406 8.464844 3.417969 8.234375 3.90625 8.027344 C 4.390625 7.824219 4.890625 7.640625 5.394531 7.484375 C 5.898438 7.328125 6.414062 7.195312 6.933594 7.089844 C 7.449219 6.984375 7.972656 6.90625 8.5 6.855469 C 9.027344 6.800781 9.554688 6.773438 10.082031 6.773438 C 10.457031 6.773438 10.832031 6.789062 11.207031 6.816406 C 11.316406 6.828125 11.425781 6.839844 11.539062 6.855469 C 11.640625 6.613281 11.746094 6.375 11.859375 6.136719 C 12.097656 5.664062 12.363281 5.207031 12.648438 4.761719 C 12.933594 4.316406 13.242188 3.886719 13.570312 3.472656 C 13.898438 3.058594 14.25 2.660156 14.617188 2.277344 C 14.667969 2.230469 14.71875 2.183594 14.773438 2.136719 Z M 14.773438 2.136719 "/>
<path style=" stroke:none;fill-rule:evenodd;fill:rgb(48.235294%,76.862745%,31.372549%);fill-opacity:1;" d="M 14.773438 2.136719 C 14.71875 2.183594 14.667969 2.230469 14.617188 2.277344 C 14.25 2.660156 13.898438 3.058594 13.570312 3.472656 C 13.242188 3.886719 12.933594 4.316406 12.648438 4.761719 C 12.363281 5.207031 12.097656 5.664062 11.859375 6.136719 C 11.746094 6.375 11.640625 6.613281 11.539062 6.855469 C 11.953125 6.890625 12.367188 6.941406 12.777344 7.007812 C 13.300781 7.097656 13.816406 7.210938 14.328125 7.355469 C 14.839844 7.496094 15.339844 7.660156 15.832031 7.851562 C 15.902344 7.882812 15.96875 7.914062 16.035156 7.941406 C 16.042969 7.929688 16.046875 7.914062 16.054688 7.902344 C 16.054688 7.902344 16.054688 7.898438 16.054688 7.898438 C 16.234375 7.566406 16.433594 7.246094 16.644531 6.933594 C 16.859375 6.621094 17.089844 6.324219 17.332031 6.035156 C 17.574219 5.746094 17.832031 5.46875 18.101562 5.207031 C 18.105469 5.203125 18.105469 5.203125 18.105469 5.203125 C 18.375 4.941406 18.660156 4.691406 18.957031 4.457031 C 19.25 4.222656 19.558594 4 19.875 3.796875 C 19.878906 3.796875 19.878906 3.796875 19.878906 3.796875 C 20.195312 3.59375 20.523438 3.40625 20.859375 3.234375 C 21.195312 3.0625 21.542969 2.90625 21.894531 2.769531 C 22.246094 2.632812 22.605469 2.515625 22.96875 2.414062 C 23.335938 2.3125 23.703125 2.230469 24.074219 2.167969 C 24.160156 2.15625 24.242188 2.144531 24.324219 2.136719 Z M 14.773438 2.136719 "/>
</g>
</svg>
