<?xml version="1.0" encoding="UTF-8"?>
<svg xmlns="http://www.w3.org/2000/svg" xmlns:xlink="http://www.w3.org/1999/xlink" width="36pt" height="36pt" viewBox="0 0 36 36" version="1.1">
<g id="surface1">
<path style=" stroke:none;fill-rule:evenodd;fill:rgb(80%,80%,80%);fill-opacity:1;" d="M 8.40625 2.136719 L 27.59375 2.136719 C 31.054688 2.136719 33.863281 4.945312 33.863281 8.40625 L 33.863281 27.59375 C 33.863281 31.054688 31.054688 33.863281 27.59375 33.863281 L 8.40625 33.863281 C 4.945312 33.863281 2.136719 31.054688 2.136719 27.59375 L 2.136719 8.40625 C 2.136719 4.945312 4.945312 2.136719 8.40625 2.136719 Z M 8.40625 2.136719 "/>
<path style=" stroke:none;fill-rule:nonzero;fill:rgb(30.196078%,30.196078%,30.196078%);fill-opacity:1;" d="M 12.375 7.875 L 12.375 12.375 L 7.875 12.375 L 7.875 14.625 L 12.375 14.625 L 12.375 21.375 L 7.875 21.375 L 7.875 23.625 L 12.375 23.625 L 12.375 28.125 L 24.75 19.125 L 28.125 19.125 L 28.125 16.875 L 24.75 16.875 Z M 13.5 13.5 L 18 13.5 L 18 15.75 L 13.5 15.75 Z M 14.625 19.125 L 16.875 19.125 L 16.875 20.25 L 18 20.25 L 18 22.5 L 16.875 22.5 L 16.875 23.625 L 14.625 23.625 L 14.625 22.5 L 13.5 22.5 L 13.5 20.25 L 14.625 20.25 Z M 14.625 19.125 "/>
</g>
</svg>
