<?xml version="1.0" encoding="UTF-8"?>
<svg xmlns="http://www.w3.org/2000/svg" xmlns:xlink="http://www.w3.org/1999/xlink" width="36pt" height="36pt" viewBox="0 0 36 36" version="1.1">
<g id="surface1">
<path style=" stroke:none;fill-rule:evenodd;fill:rgb(0.784314%,52.54902%,76.078431%);fill-opacity:1;" d="M 8.40625 2.136719 L 27.59375 2.136719 C 31.054688 2.136719 33.863281 4.945312 33.863281 8.40625 L 33.863281 27.59375 C 33.863281 31.054688 31.054688 33.863281 27.59375 33.863281 L 8.40625 33.863281 C 4.945312 33.863281 2.136719 31.054688 2.136719 27.59375 L 2.136719 8.40625 C 2.136719 4.945312 4.945312 2.136719 8.40625 2.136719 Z M 8.40625 2.136719 "/>
<path style=" stroke:none;fill-rule:nonzero;fill:rgb(97.647059%,97.647059%,97.647059%);fill-opacity:1;" d="M 30.917969 26.246094 C 30.660156 24.964844 30.191406 24.078125 29.105469 23.585938 C 29.09375 18.285156 27.554688 12.398438 22.625 9.652344 C 23.019531 9.480469 24.292969 9.21875 24.6875 9.144531 C 24.980469 9.089844 25.226562 8.910156 25.339844 8.65625 C 25.457031 8.40625 25.433594 8.117188 25.269531 7.886719 C 25.117188 7.667969 24.023438 7.140625 22.492188 6.953125 C 20.777344 6.875 19.851562 6.875 17.609375 7.328125 C 16.417969 7.734375 15.84375 7.789062 15.171875 7.855469 C 14.605469 7.910156 13.960938 7.972656 12.9375 8.238281 C 9.988281 8.992188 8.601562 10.191406 7.816406 10.980469 C 7.203125 11.59375 6.863281 12.84375 6.894531 13.355469 C 6.75 13.429688 6.765625 13.441406 6.601562 13.527344 C 5.523438 14.09375 5.148438 14.363281 5.0625 14.816406 C 5 15.152344 5.113281 15.371094 5.390625 15.671875 C 5.835938 16.089844 6.089844 16.128906 6.789062 16.128906 C 7.894531 15.957031 8.808594 15.597656 9.9375 15.25 C 10.605469 15.1875 11.179688 15.300781 12.1875 15.5 C 13.496094 15.804688 14.890625 16.144531 16.050781 16.128906 C 16.277344 16.554688 16.648438 17.34375 17.25 18.066406 C 18.816406 19.945312 20.648438 19.832031 20.835938 19.832031 C 21.171875 19.835938 21.441406 19.847656 21.597656 19.566406 C 21.753906 19.289062 21.726562 18.957031 21.527344 18.703125 C 21.363281 18.496094 20.773438 18.167969 20.613281 17.320312 C 20.566406 17.078125 20.585938 16.871094 20.589844 16.679688 C 22.675781 17.289062 25.898438 19.15625 26.320312 21.183594 L 26.335938 22.644531 C 26.328125 22.644531 26.339844 22.644531 26.335938 22.644531 C 26.238281 22.640625 26.035156 22.636719 25.886719 22.636719 C 25.507812 22.636719 25.097656 22.675781 24.632812 22.75 C 23.121094 22.992188 22.054688 23.882812 21.953125 23.996094 C 21.953125 23.996094 21.660156 24.230469 21.832031 24.527344 C 22 24.824219 22.332031 24.996094 22.695312 24.96875 L 22.714844 24.96875 C 25.023438 25.292969 28.144531 26.746094 29.09375 28.601562 C 29.242188 28.898438 29.5625 29.085938 29.914062 29.085938 C 29.9375 29.085938 29.960938 29.085938 29.984375 29.082031 C 30.359375 29.054688 30.679688 28.820312 30.785156 28.484375 C 30.8125 28.398438 31.046875 27.339844 30.917969 26.246094 Z M 30.917969 26.246094 "/>
<path style=" stroke:none;fill-rule:nonzero;fill:rgb(0.784314%,52.54902%,76.078431%);fill-opacity:1;" d="M 10.597656 12.429688 C 10.597656 12.941406 10.183594 13.355469 9.671875 13.355469 C 9.160156 13.355469 8.746094 12.941406 8.746094 12.429688 C 8.746094 11.917969 9.160156 11.503906 9.671875 11.503906 C 10.183594 11.503906 10.597656 11.917969 10.597656 12.429688 Z M 10.597656 12.429688 "/>
</g>
</svg>
