<?xml version="1.0" encoding="UTF-8"?>
<svg xmlns="http://www.w3.org/2000/svg" xmlns:xlink="http://www.w3.org/1999/xlink" width="36pt" height="36pt" viewBox="0 0 36 36" version="1.1">
<defs>
<clipPath id="clip1">
  <rect width="36" height="36"/>
</clipPath>
<g id="surface6" clip-path="url(#clip1)">
<path style=" stroke:none;fill-rule:nonzero;fill:rgb(83.921569%,20.784314%,18.431373%);fill-opacity:1;" d="M 12.9375 12.375 C 11.074219 12.375 9.5625 13.886719 9.5625 15.75 C 9.5625 17.613281 11.074219 19.125 12.9375 19.125 C 14.800781 19.125 16.3125 17.613281 16.3125 15.75 L 12.9375 15.75 Z M 18.5625 12.375 L 18.5625 14.625 L 26.4375 14.625 L 26.4375 12.375 Z M 18.5625 16.875 L 18.5625 19.125 L 26.4375 19.125 L 26.4375 16.875 Z M 9.5625 21.375 L 9.5625 23.625 L 23.0625 23.625 L 23.0625 21.375 Z M 9.5625 21.375 "/>
</g>
</defs>
<g id="surface1">
<path style=" stroke:none;fill-rule:evenodd;fill:rgb(96.078431%,51.764706%,20.784314%);fill-opacity:1;" d="M 8.40625 2.136719 L 27.59375 2.136719 C 31.054688 2.136719 33.863281 4.945312 33.863281 8.40625 L 33.863281 27.59375 C 33.863281 31.054688 31.054688 33.863281 27.59375 33.863281 L 8.40625 33.863281 C 4.945312 33.863281 2.136719 31.054688 2.136719 27.59375 L 2.136719 8.40625 C 2.136719 4.945312 4.945312 2.136719 8.40625 2.136719 Z M 8.40625 2.136719 "/>
<use xlink:href="#surface6"/>
</g>
</svg>
