<?xml version="1.0" encoding="UTF-8"?>
<svg xmlns="http://www.w3.org/2000/svg" xmlns:xlink="http://www.w3.org/1999/xlink" width="36pt" height="36pt" viewBox="0 0 36 36" version="1.1">
<g id="surface1">
<path style=" stroke:none;fill-rule:evenodd;fill:rgb(30.980392%,30.980392%,30.980392%);fill-opacity:1;" d="M 8.40625 2.136719 L 27.59375 2.136719 C 31.054688 2.136719 33.863281 4.945312 33.863281 8.40625 L 33.863281 27.59375 C 33.863281 31.054688 31.054688 33.863281 27.59375 33.863281 L 8.40625 33.863281 C 4.945312 33.863281 2.136719 31.054688 2.136719 27.59375 L 2.136719 8.40625 C 2.136719 4.945312 4.945312 2.136719 8.40625 2.136719 Z M 8.40625 2.136719 "/>
<path style=" stroke:none;fill-rule:nonzero;fill:rgb(80%,80%,80%);fill-opacity:1;" d="M 18 8.847656 L 24.40625 8.847656 C 24.40625 8.847656 20.300781 9.722656 19.832031 11.246094 C 19.476562 12.390625 21.90625 13.335938 21.660156 14.511719 C 21.367188 15.921875 18.292969 15.9375 18 17.347656 C 17.722656 18.679688 20.976562 19.707031 20.746094 21.050781 C 20.503906 22.46875 17.109375 22.664062 17.085938 24.101562 C 17.058594 25.488281 20.746094 27.152344 20.746094 27.152344 L 11.59375 27.152344 Z M 18 8.847656 "/>
<path style=" stroke:none;fill-rule:nonzero;fill:rgb(59.607843%,59.607843%,59.607843%);fill-opacity:1;" d="M 7.015625 7.015625 L 7.015625 9.761719 L 9.761719 9.761719 L 9.761719 7.015625 Z M 26.238281 7.015625 L 26.238281 9.761719 L 28.984375 9.761719 L 28.984375 7.015625 Z M 7.015625 13.425781 L 7.015625 16.167969 L 9.761719 16.167969 L 9.761719 13.425781 Z M 26.238281 13.425781 L 26.238281 16.167969 L 28.984375 16.167969 L 28.984375 13.425781 Z M 7.015625 19.832031 L 7.015625 22.574219 L 9.761719 22.574219 L 9.761719 19.832031 Z M 26.238281 19.832031 L 26.238281 22.574219 L 28.984375 22.574219 L 28.984375 19.832031 Z M 7.015625 26.238281 L 7.015625 28.984375 L 9.761719 28.984375 L 9.761719 26.238281 Z M 26.238281 26.238281 L 26.238281 28.984375 L 28.984375 28.984375 L 28.984375 26.238281 Z M 26.238281 26.238281 "/>
</g>
</svg>
