<?xml version="1.0" encoding="UTF-8"?>
<svg xmlns="http://www.w3.org/2000/svg" xmlns:xlink="http://www.w3.org/1999/xlink" width="36pt" height="36pt" viewBox="0 0 36 36" version="1.1">
<defs>
<g>
<symbol overflow="visible" id="glyph0-0">
<path style="stroke:none;" d="M 0.5 1.765625 L 0.5 -7.046875 L 5.5 -7.046875 L 5.5 1.765625 Z M 1.0625 1.21875 L 4.9375 1.21875 L 4.9375 -6.484375 L 1.0625 -6.484375 Z M 1.0625 1.21875 "/>
</symbol>
<symbol overflow="visible" id="glyph0-1">
<path style="stroke:none;" d="M 5.953125 -1.046875 L 5.953125 -3 L 4.34375 -3 L 4.34375 -3.8125 L 6.921875 -3.8125 L 6.921875 -0.671875 C 6.546875 -0.410156 6.128906 -0.207031 5.671875 -0.0625 C 5.210938 0.0703125 4.722656 0.140625 4.203125 0.140625 C 3.054688 0.140625 2.160156 -0.191406 1.515625 -0.859375 C 0.878906 -1.523438 0.5625 -2.453125 0.5625 -3.640625 C 0.5625 -4.828125 0.878906 -5.753906 1.515625 -6.421875 C 2.160156 -7.085938 3.054688 -7.421875 4.203125 -7.421875 C 4.671875 -7.421875 5.117188 -7.363281 5.546875 -7.25 C 5.984375 -7.132812 6.378906 -6.960938 6.734375 -6.734375 L 6.734375 -5.671875 C 6.367188 -5.984375 5.984375 -6.21875 5.578125 -6.375 C 5.171875 -6.53125 4.738281 -6.609375 4.28125 -6.609375 C 3.382812 -6.609375 2.710938 -6.359375 2.265625 -5.859375 C 1.828125 -5.367188 1.609375 -4.628906 1.609375 -3.640625 C 1.609375 -2.648438 1.828125 -1.90625 2.265625 -1.40625 C 2.710938 -0.914062 3.382812 -0.671875 4.28125 -0.671875 C 4.632812 -0.671875 4.945312 -0.695312 5.21875 -0.75 C 5.488281 -0.8125 5.734375 -0.910156 5.953125 -1.046875 Z M 5.953125 -1.046875 "/>
</symbol>
</g>
</defs>
<g id="surface1">
<path style=" stroke:none;fill-rule:evenodd;fill:rgb(29.411765%,68.235294%,30.980392%);fill-opacity:1;" d="M 8.40625 2.136719 L 27.59375 2.136719 C 31.054688 2.136719 33.863281 4.945312 33.863281 8.40625 L 33.863281 27.59375 C 33.863281 31.054688 31.054688 33.863281 27.59375 33.863281 L 8.40625 33.863281 C 4.945312 33.863281 2.136719 31.054688 2.136719 27.59375 L 2.136719 8.40625 C 2.136719 4.945312 4.945312 2.136719 8.40625 2.136719 Z M 8.40625 2.136719 "/>
<path style=" stroke:none;fill-rule:nonzero;fill:rgb(100%,100%,100%);fill-opacity:1;" d="M 27.335938 27.597656 C 27.03125 27.496094 26.695312 27.292969 26.503906 27.085938 C 26.394531 26.96875 26.304688 26.855469 26.304688 26.835938 C 26.304688 26.816406 26.59375 26.636719 26.949219 26.4375 C 27.304688 26.238281 27.648438 26.042969 27.710938 26.007812 C 27.773438 25.972656 28.121094 25.773438 28.484375 25.566406 L 29.144531 25.1875 L 29.242188 25.398438 C 29.382812 25.695312 29.375 26.246094 29.226562 26.636719 C 29.097656 26.984375 28.816406 27.277344 28.417969 27.480469 C 28.152344 27.617188 27.578125 27.679688 27.335938 27.597656 Z M 25.878906 26.082031 C 25.71875 25.816406 25.164062 24.851562 24.996094 24.550781 C 24.914062 24.40625 24.703125 24.046875 24.527344 23.746094 C 24.054688 22.953125 23.808594 22.492188 23.839844 22.460938 C 23.855469 22.445312 24.355469 22.152344 24.957031 21.808594 C 25.554688 21.460938 26.179688 21.101562 26.34375 21.003906 L 26.644531 20.824219 L 26.953125 21.351562 C 27.125 21.644531 27.375 22.074219 27.511719 22.3125 C 27.644531 22.546875 27.890625 22.972656 28.054688 23.257812 C 28.757812 24.476562 28.835938 24.621094 28.789062 24.664062 C 28.75 24.703125 28.074219 25.097656 27.394531 25.480469 C 27.285156 25.542969 26.929688 25.746094 26.609375 25.933594 C 26.285156 26.117188 26.015625 26.269531 26.003906 26.269531 C 25.996094 26.269531 25.9375 26.1875 25.878906 26.082031 Z M 21.144531 22.070312 C 18.882812 21.929688 16.941406 20.667969 15.765625 18.582031 C 15.574219 18.238281 15.292969 17.484375 15.15625 16.945312 C 14.972656 16.207031 14.972656 14.714844 15.160156 13.964844 C 15.484375 12.660156 16.046875 11.660156 16.972656 10.746094 C 17.9375 9.792969 18.96875 9.234375 20.273438 8.964844 C 23.691406 8.25 27.03125 10.242188 28.023438 13.585938 C 28.707031 15.894531 28.066406 18.429688 26.363281 20.132812 C 25.160156 21.332031 23.753906 21.964844 22 22.09375 C 21.890625 22.101562 21.503906 22.089844 21.144531 22.070312 Z M 23.03125 20.839844 C 26.0625 20.070312 27.878906 16.886719 26.984375 13.910156 C 26.46875 12.199219 25.269531 10.902344 23.613281 10.265625 C 22.175781 9.710938 20.34375 9.828125 19.027344 10.554688 C 18.472656 10.863281 18.207031 11.066406 17.753906 11.515625 C 17.105469 12.164062 16.789062 12.632812 16.480469 13.40625 C 15.648438 15.5 16.171875 17.898438 17.796875 19.453125 C 19.234375 20.824219 21.121094 21.324219 23.03125 20.839844 Z M 23.03125 20.839844 "/>
<g style="fill:rgb(77.647059%,98.431373%,81.176471%);fill-opacity:1;">
  <use xlink:href="#glyph0-1" x="17.378906" y="18.89978"/>
</g>
<path style=" stroke:none;fill-rule:nonzero;fill:rgb(77.647059%,98.431373%,81.176471%);fill-opacity:1;" d="M 6.921875 15.808594 C 6.566406 15.585938 6.570312 14.835938 6.929688 14.617188 C 7.039062 14.554688 7.644531 14.539062 10.191406 14.539062 L 13.320312 14.539062 L 13.292969 14.671875 C 13.28125 14.742188 13.246094 15.015625 13.222656 15.273438 C 13.199219 15.53125 13.171875 15.777344 13.164062 15.816406 C 13.140625 15.929688 7.101562 15.917969 6.921875 15.808594 Z M 6.878906 12.707031 C 6.757812 12.621094 6.65625 12.351562 6.65625 12.097656 C 6.65625 11.929688 6.6875 11.835938 6.796875 11.679688 L 6.9375 11.480469 L 10.617188 11.480469 C 12.640625 11.480469 14.296875 11.5 14.296875 11.519531 C 14.296875 11.542969 14.214844 11.734375 14.113281 11.949219 C 14.015625 12.160156 13.902344 12.433594 13.859375 12.554688 L 13.789062 12.773438 L 10.378906 12.769531 C 8.171875 12.769531 6.933594 12.746094 6.878906 12.707031 Z M 6.917969 9.660156 C 6.769531 9.574219 6.65625 9.3125 6.65625 9.042969 C 6.65625 8.730469 6.828125 8.457031 7.058594 8.402344 C 7.28125 8.351562 17.417969 8.355469 17.417969 8.410156 C 17.417969 8.433594 17.28125 8.515625 17.121094 8.589844 C 16.773438 8.746094 16.210938 9.144531 15.855469 9.480469 L 15.605469 9.71875 L 11.304688 9.714844 C 8.941406 9.710938 6.96875 9.6875 6.917969 9.660156 Z M 6.917969 9.660156 "/>
</g>
</svg>
