<?xml version="1.0" encoding="UTF-8"?>
<svg xmlns="http://www.w3.org/2000/svg" xmlns:xlink="http://www.w3.org/1999/xlink" width="36pt" height="36pt" viewBox="0 0 36 36" version="1.1">
<g id="surface1">
<path style=" stroke:none;fill-rule:evenodd;fill:rgb(0.784314%,52.54902%,76.078431%);fill-opacity:1;" d="M 8.40625 2.136719 L 27.59375 2.136719 C 31.054688 2.136719 33.863281 4.945312 33.863281 8.40625 L 33.863281 27.59375 C 33.863281 31.054688 31.054688 33.863281 27.59375 33.863281 L 8.40625 33.863281 C 4.945312 33.863281 2.136719 31.054688 2.136719 27.59375 L 2.136719 8.40625 C 2.136719 4.945312 4.945312 2.136719 8.40625 2.136719 Z M 8.40625 2.136719 "/>
<path style=" stroke:none;fill-rule:nonzero;fill:rgb(79.215686%,90.980392%,100%);fill-opacity:1;" d="M 18.09375 14.058594 C 16.652344 14.023438 15.308594 14.777344 14.589844 16.027344 C 13.503906 17.910156 14.148438 20.316406 16.03125 21.40625 C 17.914062 22.492188 20.324219 21.847656 21.410156 19.964844 C 22.496094 18.078125 21.851562 15.671875 19.96875 14.585938 C 19.398438 14.253906 18.75 14.074219 18.09375 14.058594 Z M 17.921875 16.308594 C 18.242188 16.292969 18.5625 16.371094 18.84375 16.53125 C 19.652344 17 19.925781 18.03125 19.460938 18.839844 C 18.996094 19.644531 17.964844 19.921875 17.15625 19.457031 C 16.347656 18.988281 16.074219 17.957031 16.539062 17.152344 C 16.824219 16.652344 17.347656 16.335938 17.921875 16.308594 Z M 17.921875 16.308594 "/>
<path style=" stroke:none;fill-rule:nonzero;fill:rgb(44.313725%,75.686275%,100%);fill-opacity:1;" d="M 20.386719 13.222656 L 25.160156 8.449219 L 26.351562 12.027344 L 22.773438 15.609375 Z M 20.386719 13.222656 "/>
<path style=" stroke:none;fill-rule:nonzero;fill:rgb(44.313725%,75.686275%,100%);fill-opacity:1;" d="M 9.648438 9.640625 C 5.035156 14.253906 5.035156 21.734375 9.648438 26.347656 C 14.261719 30.960938 21.738281 30.960938 26.351562 26.347656 C 30.964844 21.734375 30.964844 14.253906 26.351562 9.640625 C 25.949219 9.246094 25.519531 8.878906 25.0625 8.542969 L 22.644531 10.960938 C 23.121094 11.273438 23.5625 11.628906 23.964844 12.027344 C 27.261719 15.324219 27.261719 20.664062 23.964844 23.960938 C 20.671875 27.253906 15.328125 27.253906 12.035156 23.960938 C 8.738281 20.664062 8.738281 15.324219 12.035156 12.027344 C 13.910156 10.15625 16.558594 9.273438 19.183594 9.648438 L 21.957031 6.878906 C 17.664062 5.347656 12.875 6.425781 9.648438 9.640625 Z M 9.648438 9.640625 "/>
</g>
</svg>
