<?xml version="1.0" encoding="UTF-8"?>
<svg xmlns="http://www.w3.org/2000/svg" xmlns:xlink="http://www.w3.org/1999/xlink" width="36pt" height="36pt" viewBox="0 0 36 36" version="1.1">
<g id="surface1">
<path style=" stroke:none;fill-rule:evenodd;fill:rgb(83.529412%,27.843137%,27.843137%);fill-opacity:1;" d="M 8.40625 2.136719 L 27.59375 2.136719 C 31.054688 2.136719 33.863281 4.945312 33.863281 8.40625 L 33.863281 27.59375 C 33.863281 31.054688 31.054688 33.863281 27.59375 33.863281 L 8.40625 33.863281 C 4.945312 33.863281 2.136719 31.054688 2.136719 27.59375 L 2.136719 8.40625 C 2.136719 4.945312 4.945312 2.136719 8.40625 2.136719 Z M 8.40625 2.136719 "/>
<path style=" stroke:none;fill-rule:nonzero;fill:rgb(100%,67.843137%,52.941176%);fill-opacity:1;" d="M 18.019531 9.007812 C 17.144531 9 16.273438 9.125 15.429688 9.347656 C 11.496094 10.359375 8.941406 14.082031 9 17.992188 L 6.75 17.992188 L 10.125 22.507812 L 13.5 17.992188 L 11.25 17.992188 C 11.242188 16.355469 11.507812 14.722656 12.644531 13.5 C 14.625 11.257812 18.554688 10.339844 21.390625 11.988281 C 22.335938 13.175781 24.425781 11.871094 23.328125 10.65625 C 21.765625 9.488281 19.992188 9.011719 18.019531 9.007812 Z M 25.875 13.492188 L 22.5 18.007812 L 24.75 18.007812 C 24.757812 19.644531 24.492188 21.277344 23.355469 22.5 C 21.222656 24.964844 17.445312 25.660156 14.605469 24.011719 C 13.664062 22.828125 11.574219 24.125 12.671875 25.339844 C 14.234375 26.507812 16.007812 26.988281 17.980469 26.992188 L 17.984375 26.992188 C 18.859375 27 19.726562 26.875 20.570312 26.652344 C 24.503906 25.640625 27.058594 21.917969 27 18.007812 L 29.25 18.007812 Z M 25.875 13.492188 "/>
</g>
</svg>
