<?xml version="1.0" encoding="UTF-8"?>
<svg xmlns="http://www.w3.org/2000/svg" xmlns:xlink="http://www.w3.org/1999/xlink" width="36pt" height="36pt" viewBox="0 0 36 36" version="1.1">
<g id="surface1">
<path style=" stroke:none;fill-rule:evenodd;fill:rgb(41.960784%,40%,29.803922%);fill-opacity:1;" d="M 8.40625 2.136719 L 27.59375 2.136719 C 31.054688 2.136719 33.863281 4.945312 33.863281 8.40625 L 33.863281 27.59375 C 33.863281 31.054688 31.054688 33.863281 27.59375 33.863281 L 8.40625 33.863281 C 4.945312 33.863281 2.136719 31.054688 2.136719 27.59375 L 2.136719 8.40625 C 2.136719 4.945312 4.945312 2.136719 8.40625 2.136719 Z M 8.40625 2.136719 "/>
<path style=" stroke:none;fill-rule:nonzero;fill:rgb(100%,100%,100%);fill-opacity:0.792157;" d="M 7.3125 12.375 L 10.277344 12.375 L 10.277344 16.480469 L 14.550781 12.375 L 17.992188 12.375 L 12.457031 17.703125 L 18.5625 23.625 L 14.851562 23.625 L 10.277344 19.195312 L 10.277344 23.625 L 7.3125 23.625 Z M 7.3125 12.375 "/>
<path style=" stroke:none;fill-rule:nonzero;fill:rgb(100%,100%,100%);fill-opacity:0.792157;" d="M 28.6875 22.609375 C 27.929688 22.945312 27.144531 23.199219 26.332031 23.371094 C 25.519531 23.539062 24.675781 23.625 23.8125 23.625 C 21.851562 23.625 20.300781 23.121094 19.15625 22.113281 C 18.011719 21.101562 17.4375 19.730469 17.4375 18.003906 C 17.4375 16.253906 18.019531 14.878906 19.1875 13.878906 C 20.351562 12.875 21.949219 12.375 23.976562 12.375 C 24.757812 12.375 25.507812 12.441406 26.222656 12.578125 C 26.941406 12.714844 27.617188 12.914062 28.253906 13.179688 L 28.253906 15.425781 C 27.597656 15.082031 26.945312 14.824219 26.292969 14.65625 C 25.644531 14.484375 24.996094 14.402344 24.347656 14.402344 C 23.136719 14.402344 22.207031 14.714844 21.550781 15.339844 C 20.898438 15.957031 20.574219 16.847656 20.574219 18.003906 C 20.574219 19.152344 20.886719 20.035156 21.519531 20.660156 C 22.148438 21.285156 23.042969 21.597656 24.203125 21.597656 C 24.519531 21.597656 24.8125 21.582031 25.078125 21.546875 C 25.351562 21.507812 25.597656 21.449219 25.8125 21.375 L 25.8125 19.265625 L 23.960938 19.265625 L 23.960938 17.394531 L 28.6875 17.394531 Z M 28.6875 22.609375 "/>
</g>
</svg>
