<?xml version="1.0" encoding="UTF-8"?>
<svg xmlns="http://www.w3.org/2000/svg" xmlns:xlink="http://www.w3.org/1999/xlink" width="36pt" height="36pt" viewBox="0 0 36 36" version="1.1">
<g id="surface1">
<path style=" stroke:none;fill-rule:evenodd;fill:rgb(100%,85.882353%,46.27451%);fill-opacity:1;" d="M 8.40625 2.136719 L 27.59375 2.136719 C 31.054688 2.136719 33.863281 4.945312 33.863281 8.40625 L 33.863281 27.59375 C 33.863281 31.054688 31.054688 33.863281 27.59375 33.863281 L 8.40625 33.863281 C 4.945312 33.863281 2.136719 31.054688 2.136719 27.59375 L 2.136719 8.40625 C 2.136719 4.945312 4.945312 2.136719 8.40625 2.136719 Z M 8.40625 2.136719 "/>
<path style=" stroke:none;fill-rule:evenodd;fill:rgb(97.647059%,97.647059%,97.647059%);fill-opacity:1;" d="M 21.515625 8.507812 L 12.261719 8.507812 C 10.179688 8.507812 8.507812 10.179688 8.507812 12.257812 L 8.507812 23.738281 C 8.507812 25.820312 10.179688 27.492188 12.261719 27.492188 L 23.742188 27.492188 C 25.820312 27.492188 27.492188 25.820312 27.492188 23.738281 L 27.492188 14.484375 Z M 21.515625 8.507812 "/>
<path style=" stroke:none;fill-rule:evenodd;fill:rgb(70.196078%,70.196078%,70.196078%);fill-opacity:0.32549;" d="M 27.492188 14.484375 L 21.515625 8.507812 L 21.515625 10.730469 C 21.515625 12.808594 23.191406 14.484375 25.269531 14.484375 Z M 27.492188 14.484375 "/>
<path style=" stroke:none;fill-rule:nonzero;fill:rgb(70.196078%,70.196078%,70.196078%);fill-opacity:0.498039;" d="M 13.195312 15.703125 L 13.195312 16.5625 L 22.679688 16.5625 L 22.679688 15.703125 Z M 13.195312 18.289062 L 13.195312 19.148438 L 22.679688 19.148438 L 22.679688 18.289062 Z M 13.195312 20.875 L 13.195312 21.734375 L 22.679688 21.734375 L 22.679688 20.875 Z M 13.195312 23.460938 L 13.195312 24.320312 L 20.09375 24.320312 L 20.09375 23.460938 Z M 13.195312 23.460938 "/>
<path style=" stroke:none;fill-rule:nonzero;fill:rgb(73.333333%,35.686275%,31.764706%);fill-opacity:1;" d="M 23.25 25.554688 L 23.09375 25.648438 L 25.183594 29.269531 L 25.722656 27.253906 L 27.707031 27.785156 L 25.695312 24.300781 C 25.644531 24.316406 25.609375 24.351562 25.5625 24.363281 C 25.214844 24.4375 25.035156 24.585938 24.863281 24.945312 C 24.609375 25.480469 24.394531 25.566406 23.351562 25.550781 C 23.320312 25.546875 23.285156 25.554688 23.25 25.554688 Z M 23.25 25.554688 "/>
<path style=" stroke:none;fill-rule:nonzero;fill:rgb(73.333333%,35.686275%,31.764706%);fill-opacity:1;" d="M 20.09375 24.320312 L 18.285156 27.449219 L 20.300781 26.910156 L 20.835938 28.898438 L 22.746094 25.582031 C 22.40625 25.597656 22.035156 25.605469 21.800781 25.644531 C 21.308594 25.726562 21.097656 25.6875 20.898438 25.488281 C 20.753906 25.34375 20.632812 25.089844 20.632812 24.925781 C 20.632812 24.769531 20.386719 24.535156 20.09375 24.320312 Z M 20.09375 24.320312 "/>
<path style=" stroke:none;fill-rule:nonzero;fill:rgb(90.196078%,45.098039%,39.607843%);fill-opacity:1;" d="M 21.144531 25.007812 C 21.015625 24.882812 20.914062 24.664062 20.914062 24.519531 C 20.914062 24.359375 20.695312 24.117188 20.367188 23.910156 C 19.914062 23.625 19.816406 23.488281 19.8125 23.121094 C 19.8125 22.875 19.722656 22.523438 19.613281 22.335938 C 19.191406 21.59375 19.472656 20.839844 20.300781 20.492188 C 20.59375 20.371094 20.859375 20.109375 21.03125 19.777344 C 21.804688 18.261719 22.976562 18.058594 24.046875 19.246094 C 24.300781 19.527344 24.6875 19.820312 24.90625 19.894531 C 25.375 20.058594 25.710938 20.628906 25.710938 21.265625 C 25.710938 21.515625 25.835938 21.902344 25.984375 22.128906 C 26.320312 22.636719 26.335938 23.320312 26.019531 23.597656 C 25.886719 23.714844 25.574219 23.855469 25.324219 23.90625 C 24.988281 23.980469 24.8125 24.125 24.648438 24.476562 C 24.398438 24.992188 24.1875 25.078125 23.175781 25.0625 C 22.796875 25.054688 22.238281 25.09375 21.929688 25.144531 C 21.5 25.214844 21.316406 25.183594 21.144531 25.007812 Z M 21.144531 25.007812 "/>
<path style=" stroke:none;fill-rule:nonzero;fill:rgb(100%,100%,100%);fill-opacity:1;" d="M 24.851562 22.0625 C 24.851562 23.167969 23.960938 24.058594 22.855469 24.058594 C 21.753906 24.058594 20.859375 23.167969 20.859375 22.0625 C 20.859375 20.960938 21.753906 20.066406 22.855469 20.066406 C 23.960938 20.066406 24.851562 20.960938 24.851562 22.0625 Z M 24.851562 22.0625 "/>
<path style=" stroke:none;fill-rule:nonzero;fill:rgb(73.333333%,35.686275%,31.764706%);fill-opacity:1;" d="M 24.46875 22.0625 C 24.46875 22.953125 23.746094 23.675781 22.855469 23.675781 C 21.964844 23.675781 21.246094 22.953125 21.246094 22.0625 C 21.246094 21.171875 21.964844 20.453125 22.855469 20.453125 C 23.746094 20.453125 24.46875 21.171875 24.46875 22.0625 Z M 24.46875 22.0625 "/>
</g>
</svg>
