<?xml version="1.0" encoding="UTF-8"?>
<svg xmlns="http://www.w3.org/2000/svg" xmlns:xlink="http://www.w3.org/1999/xlink" width="36pt" height="36pt" viewBox="0 0 36 36" version="1.1">
<g id="surface1">
<path style=" stroke:none;fill-rule:evenodd;fill:rgb(54.117647%,10.980392%,7.45098%);fill-opacity:1;" d="M 2.136719 12.523438 L 2.136719 27.589844 C 2.136719 31.066406 4.933594 33.863281 8.410156 33.863281 L 27.59375 33.863281 C 31.066406 33.863281 33.863281 31.066406 33.863281 27.589844 L 33.863281 8.40625 C 33.863281 8.046875 33.71875 7.738281 33.664062 7.394531 C 31.664062 7.285156 29.609375 7.160156 27.480469 6.671875 C 26.132812 6.363281 24.792969 5.964844 23.496094 5.445312 C 22.199219 4.929688 20.945312 4.296875 19.773438 3.523438 C 20.570312 4.691406 21.171875 5.863281 21.617188 7.019531 C 22.0625 8.175781 22.351562 9.316406 22.523438 10.417969 C 22.691406 11.523438 22.738281 12.59375 22.703125 13.609375 C 22.664062 14.625 22.542969 15.585938 22.371094 16.472656 C 22.027344 18.25 21.484375 19.734375 21.03125 20.773438 C 20.574219 21.816406 20.203125 22.414062 20.203125 22.414062 C 20.203125 22.414062 18.980469 21.199219 17.609375 19.179688 C 16.925781 18.167969 16.203125 16.953125 15.582031 15.585938 C 14.957031 14.21875 14.429688 12.703125 14.136719 11.082031 C 13.671875 8.5 13.644531 6.476562 13.84375 4.898438 C 13.359375 5.664062 12.691406 6.464844 11.78125 7.277344 C 10.871094 8.089844 9.714844 8.90625 8.242188 9.691406 C 5.867188 10.964844 3.90625 11.820312 2.136719 12.523438 Z M 2.136719 12.523438 "/>
<path style=" stroke:none;fill-rule:evenodd;fill:rgb(31.372549%,70.196078%,26.666667%);fill-opacity:1;" d="M 2.136719 12.523438 C 3.90625 11.820312 5.867188 10.964844 8.242188 9.691406 C 9.714844 8.90625 10.871094 8.089844 11.78125 7.277344 C 12.691406 6.464844 13.359375 5.664062 13.84375 4.898438 C 13.644531 6.476562 13.671875 8.5 14.136719 11.082031 C 14.429688 12.703125 14.957031 14.21875 15.582031 15.585938 C 16.203125 16.953125 16.925781 18.167969 17.609375 19.179688 C 18.980469 21.199219 20.203125 22.414062 20.203125 22.414062 C 20.203125 22.414062 20.574219 21.816406 21.03125 20.773438 C 21.484375 19.734375 22.027344 18.25 22.371094 16.472656 C 22.542969 15.585938 22.664062 14.625 22.703125 13.609375 C 22.738281 12.59375 22.691406 11.523438 22.523438 10.417969 C 22.351562 9.316406 22.0625 8.175781 21.617188 7.019531 C 21.171875 5.863281 20.570312 4.691406 19.773438 3.523438 C 20.945312 4.296875 22.199219 4.929688 23.496094 5.445312 C 24.792969 5.964844 26.132812 6.363281 27.480469 6.671875 C 29.609375 7.160156 31.664062 7.285156 33.664062 7.394531 C 33.164062 4.425781 30.707031 2.136719 27.59375 2.136719 L 8.410156 2.136719 C 4.933594 2.136719 2.136719 4.933594 2.136719 8.40625 Z M 2.136719 12.523438 "/>
</g>
</svg>
