<?xml version="1.0" encoding="UTF-8"?>
<svg xmlns="http://www.w3.org/2000/svg" xmlns:xlink="http://www.w3.org/1999/xlink" width="36pt" height="36pt" viewBox="0 0 36 36" version="1.1">
<g id="surface1">
<path style=" stroke:none;fill-rule:evenodd;fill:rgb(30.980392%,30.980392%,30.980392%);fill-opacity:1;" d="M 8.40625 2.136719 L 27.59375 2.136719 C 31.054688 2.136719 33.863281 4.945312 33.863281 8.40625 L 33.863281 27.59375 C 33.863281 31.054688 31.054688 33.863281 27.59375 33.863281 L 8.40625 33.863281 C 4.945312 33.863281 2.136719 31.054688 2.136719 27.59375 L 2.136719 8.40625 C 2.136719 4.945312 4.945312 2.136719 8.40625 2.136719 Z M 8.40625 2.136719 "/>
<path style=" stroke:none;fill-rule:nonzero;fill:rgb(100%,100%,100%);fill-opacity:1;" d="M 18 7.339844 C 12.078125 7.339844 7.339844 12.078125 7.339844 18 C 7.339844 23.921875 12.078125 28.660156 18 28.660156 C 18.949219 28.660156 19.777344 27.828125 19.777344 26.882812 C 19.777344 26.410156 19.65625 26.054688 19.304688 25.699219 C 19.066406 25.34375 18.828125 24.988281 18.828125 24.515625 C 18.828125 23.566406 19.660156 22.738281 20.605469 22.738281 L 22.738281 22.738281 C 26.054688 22.738281 28.660156 20.132812 28.660156 16.816406 C 28.660156 11.605469 23.921875 7.339844 18 7.339844 Z M 18 7.339844 "/>
<path style=" stroke:none;fill-rule:nonzero;fill:rgb(94.509804%,64.313725%,26.27451%);fill-opacity:1;" d="M 10.621094 18 C 9.746094 18 8.980469 17.234375 8.980469 16.359375 C 8.980469 15.484375 9.746094 14.71875 10.621094 14.71875 C 11.496094 14.71875 12.261719 15.484375 12.261719 16.359375 C 12.261719 17.234375 11.496094 18 10.621094 18 Z M 10.621094 18 "/>
<path style=" stroke:none;fill-rule:nonzero;fill:rgb(24.705882%,56.470588%,86.27451%);fill-opacity:1;" d="M 14.71875 13.082031 C 13.847656 13.082031 13.082031 12.316406 13.082031 11.441406 C 13.082031 10.566406 13.847656 9.800781 14.71875 9.800781 C 15.59375 9.800781 16.359375 10.566406 16.359375 11.441406 C 16.359375 12.316406 15.59375 13.082031 14.71875 13.082031 Z M 14.71875 13.082031 "/>
<path style=" stroke:none;fill-rule:nonzero;fill:rgb(33.72549%,66.27451%,7.45098%);fill-opacity:1;" d="M 20.460938 13.082031 C 19.585938 13.082031 18.820312 12.316406 18.820312 11.441406 C 18.820312 10.566406 19.585938 9.800781 20.460938 9.800781 C 21.335938 9.800781 22.101562 10.566406 22.101562 11.441406 C 22.101562 12.316406 21.335938 13.082031 20.460938 13.082031 Z M 20.460938 13.082031 "/>
<path style=" stroke:none;fill-rule:nonzero;fill:rgb(95.294118%,35.686275%,35.686275%);fill-opacity:1;" d="M 24.558594 18 C 23.683594 18 22.917969 17.234375 22.917969 16.359375 C 22.917969 15.484375 23.683594 14.71875 24.558594 14.71875 C 25.433594 14.71875 26.199219 15.484375 26.199219 16.359375 C 26.199219 17.234375 25.433594 18 24.558594 18 Z M 24.558594 18 "/>
</g>
</svg>
