<?xml version="1.0" encoding="UTF-8"?>
<svg xmlns="http://www.w3.org/2000/svg" xmlns:xlink="http://www.w3.org/1999/xlink" width="36pt" height="36pt" viewBox="0 0 36 36" version="1.1">
<g id="surface1">
<path style=" stroke:none;fill-rule:evenodd;fill:rgb(55.686275%,55.686275%,55.686275%);fill-opacity:1;" d="M 8.40625 2.136719 L 27.59375 2.136719 C 31.054688 2.136719 33.863281 4.945312 33.863281 8.40625 L 33.863281 27.59375 C 33.863281 31.054688 31.054688 33.863281 27.59375 33.863281 L 8.40625 33.863281 C 4.945312 33.863281 2.136719 31.054688 2.136719 27.59375 L 2.136719 8.40625 C 2.136719 4.945312 4.945312 2.136719 8.40625 2.136719 Z M 8.40625 2.136719 "/>
<path style=" stroke:none;fill-rule:nonzero;fill:rgb(27.843137%,27.843137%,27.843137%);fill-opacity:1;" d="M 10.027344 9.203125 L 25.972656 9.203125 C 28.058594 9.203125 29.753906 10.894531 29.753906 12.984375 L 29.753906 23.015625 C 29.753906 25.105469 28.058594 26.796875 25.972656 26.796875 L 10.027344 26.796875 C 7.941406 26.796875 6.246094 25.105469 6.246094 23.015625 L 6.246094 12.984375 C 6.246094 10.894531 7.941406 9.203125 10.027344 9.203125 Z M 10.027344 9.203125 "/>
<path style=" stroke:none;fill-rule:nonzero;fill:rgb(11.372549%,51.372549%,68.627451%);fill-opacity:1;" d="M 10.167969 10.316406 L 25.832031 10.316406 C 27.414062 10.316406 28.699219 11.546875 28.699219 13.066406 L 28.699219 22.933594 C 28.699219 24.453125 27.414062 25.683594 25.832031 25.683594 L 10.167969 25.683594 C 8.585938 25.683594 7.300781 24.453125 7.300781 22.933594 L 7.300781 13.066406 C 7.300781 11.546875 8.585938 10.316406 10.167969 10.316406 Z M 10.167969 10.316406 "/>
<path style=" stroke:none;fill-rule:nonzero;fill:rgb(94.117647%,97.647059%,99.215686%);fill-opacity:1;" d="M 25.699219 15.007812 C 25.699219 16.660156 24.355469 18 22.703125 18 C 21.050781 18 19.710938 16.660156 19.710938 15.007812 C 19.710938 13.351562 21.050781 12.011719 22.703125 12.011719 C 24.355469 12.011719 25.699219 13.351562 25.699219 15.007812 Z M 25.699219 15.007812 "/>
<path style=" stroke:none;fill-rule:nonzero;fill:rgb(76.862745%,90.588235%,96.078431%);fill-opacity:1;" d="M 14.578125 18.425781 C 14.578125 19.609375 13.621094 20.566406 12.441406 20.566406 C 11.261719 20.566406 10.300781 19.609375 10.300781 18.425781 C 10.300781 17.246094 11.261719 16.289062 12.441406 16.289062 C 13.621094 16.289062 14.578125 17.246094 14.578125 18.425781 Z M 14.578125 18.425781 "/>
<path style=" stroke:none;fill-rule:nonzero;fill:rgb(65.098039%,85.490196%,94.117647%);fill-opacity:1;" d="M 21.421875 22.277344 C 21.421875 23.222656 20.65625 23.988281 19.710938 23.988281 C 18.765625 23.988281 18 23.222656 18 22.277344 C 18 21.332031 18.765625 20.566406 19.710938 20.566406 C 20.65625 20.566406 21.421875 21.332031 21.421875 22.277344 Z M 21.421875 22.277344 "/>
<path style=" stroke:none;fill-rule:nonzero;fill:rgb(76.862745%,90.588235%,96.078431%);fill-opacity:1;" d="M 18 15.007812 C 18 15.714844 17.425781 16.289062 16.71875 16.289062 C 16.007812 16.289062 15.433594 15.714844 15.433594 15.007812 C 15.433594 14.296875 16.007812 13.722656 16.71875 13.722656 C 17.425781 13.722656 18 14.296875 18 15.007812 Z M 18 15.007812 "/>
<path style=" stroke:none;fill-rule:nonzero;fill:rgb(82.745098%,92.941176%,97.254902%);fill-opacity:1;" d="M 25.390625 21.148438 C 25.390625 21.769531 24.886719 22.273438 24.265625 22.273438 C 23.644531 22.273438 23.140625 21.769531 23.140625 21.148438 C 23.140625 20.527344 23.644531 20.023438 24.265625 20.023438 C 24.886719 20.023438 25.390625 20.527344 25.390625 21.148438 Z M 25.390625 21.148438 "/>
</g>
</svg>
