<?xml version="1.0" encoding="UTF-8"?>
<svg xmlns="http://www.w3.org/2000/svg" xmlns:xlink="http://www.w3.org/1999/xlink" width="36pt" height="36pt" viewBox="0 0 36 36" version="1.1">
<g id="surface1">
<path style=" stroke:none;fill-rule:evenodd;fill:rgb(83.921569%,40.784314%,16.078431%);fill-opacity:1;" d="M 8.40625 2.136719 L 27.59375 2.136719 C 31.054688 2.136719 33.863281 4.945312 33.863281 8.40625 L 33.863281 27.59375 C 33.863281 31.054688 31.054688 33.863281 27.59375 33.863281 L 8.40625 33.863281 C 4.945312 33.863281 2.136719 31.054688 2.136719 27.59375 L 2.136719 8.40625 C 2.136719 4.945312 4.945312 2.136719 8.40625 2.136719 Z M 8.40625 2.136719 "/>
<path style="fill:none;stroke-width:3;stroke-linecap:round;stroke-linejoin:round;stroke:rgb(97.254902%,74.901961%,58.039216%);stroke-opacity:1;stroke-miterlimit:4;" d="M 13.499925 22.500265 L 13.499925 15.281515 C 13.499925 15.281515 13.999925 13.500265 15.999925 13.500265 C 17.999925 13.500265 18.499925 15.281515 18.499925 15.281515 L 18.499925 22.500265 M 8.499925 22.500265 L 8.499925 15.281515 C 8.499925 15.281515 8.999925 13.500265 10.999925 13.500265 C 13.999925 13.500265 13.499925 15.281515 13.499925 15.281515 L 13.499925 22.500265 " transform="matrix(1.125,0,0,1.125,-1.124916,0.550483)"/>
<path style=" stroke:none;fill-rule:nonzero;fill:rgb(100%,100%,100%);fill-opacity:1;" d="M 29.25 12.925781 C 29.25 13.546875 28.746094 14.050781 28.125 14.050781 L 21.375 14.050781 C 20.753906 14.050781 20.25 13.546875 20.25 12.925781 C 20.25 12.304688 20.753906 11.800781 21.375 11.800781 L 28.125 11.800781 C 28.746094 11.800781 29.25 12.304688 29.25 12.925781 Z M 29.25 12.925781 "/>
<path style=" stroke:none;fill-rule:nonzero;fill:rgb(100%,100%,100%);fill-opacity:1;" d="M 24.75 17.425781 C 24.128906 17.425781 23.625 16.921875 23.625 16.300781 L 23.625 9.550781 C 23.625 8.929688 24.128906 8.425781 24.75 8.425781 C 25.371094 8.425781 25.875 8.929688 25.875 9.550781 L 25.875 16.300781 C 25.875 16.921875 25.371094 17.425781 24.75 17.425781 Z M 24.75 17.425781 "/>
</g>
</svg>
