<?xml version="1.0" encoding="UTF-8"?>
<svg xmlns="http://www.w3.org/2000/svg" xmlns:xlink="http://www.w3.org/1999/xlink" width="36pt" height="36pt" viewBox="0 0 36 36" version="1.1">
<g id="surface1">
<path style=" stroke:none;fill-rule:evenodd;fill:rgb(50.196078%,0%,0%);fill-opacity:1;" d="M 8.40625 2.136719 L 27.59375 2.136719 C 31.054688 2.136719 33.863281 4.945312 33.863281 8.40625 L 33.863281 27.59375 C 33.863281 31.054688 31.054688 33.863281 27.59375 33.863281 L 8.40625 33.863281 C 4.945312 33.863281 2.136719 31.054688 2.136719 27.59375 L 2.136719 8.40625 C 2.136719 4.945312 4.945312 2.136719 8.40625 2.136719 Z M 8.40625 2.136719 "/>
<path style=" stroke:none;fill-rule:nonzero;fill:rgb(100%,100%,100%);fill-opacity:1;" d="M 17.710938 27.167969 C 17.40625 27.082031 17.230469 26.941406 16.46875 26.167969 C 13.5 23.148438 11.574219 20.382812 10.835938 18.082031 C 10.574219 17.261719 10.480469 16.511719 10.546875 15.730469 C 10.625 14.765625 10.839844 13.953125 11.222656 13.136719 C 12.363281 10.699219 14.644531 9.085938 17.3125 8.828125 C 19.835938 8.582031 22.382812 9.699219 23.933594 11.738281 C 24.8125 12.890625 25.320312 14.210938 25.453125 15.683594 C 25.628906 17.675781 24.757812 19.910156 22.753906 22.601562 C 21.886719 23.761719 21.078125 24.679688 19.726562 26.035156 C 18.90625 26.863281 18.78125 26.972656 18.5625 27.074219 C 18.28125 27.207031 17.964844 27.242188 17.710938 27.167969 Z M 18.632812 18.632812 C 19.199219 18.515625 19.660156 18.269531 20.109375 17.847656 C 20.441406 17.535156 20.671875 17.210938 20.835938 16.832031 C 21.023438 16.390625 21.074219 16.125 21.074219 15.609375 C 21.074219 15.097656 21.023438 14.832031 20.832031 14.386719 C 20.453125 13.488281 19.597656 12.789062 18.640625 12.589844 C 18.285156 12.519531 17.714844 12.519531 17.359375 12.589844 C 15.894531 12.890625 14.828125 14.28125 14.917969 15.773438 C 14.96875 16.589844 15.292969 17.285156 15.890625 17.847656 C 16.332031 18.261719 16.792969 18.511719 17.34375 18.628906 C 17.667969 18.699219 18.300781 18.699219 18.632812 18.632812 Z M 18.632812 18.632812 "/>
</g>
</svg>
