<?xml version="1.0" encoding="UTF-8"?>
<svg xmlns="http://www.w3.org/2000/svg" xmlns:xlink="http://www.w3.org/1999/xlink" width="36pt" height="36pt" viewBox="0 0 36 36" version="1.1">
<g id="surface1">
<path style=" stroke:none;fill-rule:evenodd;fill:rgb(91.372549%,78.823529%,35.686275%);fill-opacity:1;" d="M 8.40625 2.136719 L 27.59375 2.136719 C 31.054688 2.136719 33.863281 4.945312 33.863281 8.40625 L 33.863281 27.59375 C 33.863281 31.054688 31.054688 33.863281 27.59375 33.863281 L 8.40625 33.863281 C 4.945312 33.863281 2.136719 31.054688 2.136719 27.59375 L 2.136719 8.40625 C 2.136719 4.945312 4.945312 2.136719 8.40625 2.136719 Z M 8.40625 2.136719 "/>
<path style=" stroke:none;fill-rule:nonzero;fill:rgb(100%,100%,100%);fill-opacity:1;" d="M 18 7.078125 C 11.933594 7.078125 7.078125 11.933594 7.078125 18 C 7.078125 24.066406 11.933594 28.921875 18 28.921875 C 18.972656 28.921875 19.820312 28.074219 19.820312 27.101562 C 19.820312 26.617188 19.699219 26.253906 19.335938 25.890625 C 19.09375 25.523438 18.851562 25.160156 18.851562 24.675781 C 18.851562 23.703125 19.699219 22.855469 20.671875 22.855469 L 22.855469 22.855469 C 26.253906 22.855469 28.921875 20.183594 28.921875 16.785156 C 28.921875 11.445312 24.066406 7.078125 18 7.078125 Z M 18 7.078125 "/>
<path style=" stroke:none;fill-rule:nonzero;fill:rgb(99.215686%,55.686275%,3.137255%);fill-opacity:1;" d="M 10.4375 18 C 9.542969 18 8.757812 17.214844 8.757812 16.320312 C 8.757812 15.421875 9.542969 14.640625 10.4375 14.640625 C 11.335938 14.640625 12.117188 15.421875 12.117188 16.320312 C 12.117188 17.214844 11.335938 18 10.4375 18 Z M 10.4375 18 "/>
<path style=" stroke:none;fill-rule:nonzero;fill:rgb(24.705882%,56.470588%,86.27451%);fill-opacity:1;" d="M 14.640625 12.957031 C 13.742188 12.957031 12.957031 12.175781 12.957031 11.277344 C 12.957031 10.382812 13.742188 9.597656 14.640625 9.597656 C 15.535156 9.597656 16.320312 10.382812 16.320312 11.277344 C 16.320312 12.175781 15.535156 12.957031 14.640625 12.957031 Z M 14.640625 12.957031 "/>
<path style=" stroke:none;fill-rule:nonzero;fill:rgb(33.72549%,66.27451%,7.45098%);fill-opacity:1;" d="M 20.519531 12.957031 C 19.625 12.957031 18.839844 12.175781 18.839844 11.277344 C 18.839844 10.382812 19.625 9.597656 20.519531 9.597656 C 21.417969 9.597656 22.199219 10.382812 22.199219 11.277344 C 22.199219 12.175781 21.417969 12.957031 20.519531 12.957031 Z M 20.519531 12.957031 "/>
<path style=" stroke:none;fill-rule:nonzero;fill:rgb(95.294118%,35.686275%,35.686275%);fill-opacity:1;" d="M 24.722656 18 C 23.824219 18 23.042969 17.214844 23.042969 16.320312 C 23.042969 15.421875 23.824219 14.640625 24.722656 14.640625 C 25.617188 14.640625 26.402344 15.421875 26.402344 16.320312 C 26.402344 17.214844 25.617188 18 24.722656 18 Z M 24.722656 18 "/>
</g>
</svg>
