<?xml version="1.0" encoding="UTF-8"?>
<svg xmlns="http://www.w3.org/2000/svg" xmlns:xlink="http://www.w3.org/1999/xlink" width="36pt" height="36pt" viewBox="0 0 36 36" version="1.1">
<g id="surface1">
<path style=" stroke:none;fill-rule:evenodd;fill:rgb(13.333333%,33.72549%,43.921569%);fill-opacity:1;" d="M 8.40625 2.136719 L 27.59375 2.136719 C 31.054688 2.136719 33.863281 4.945312 33.863281 8.40625 L 33.863281 27.59375 C 33.863281 31.054688 31.054688 33.863281 27.59375 33.863281 L 8.40625 33.863281 C 4.945312 33.863281 2.136719 31.054688 2.136719 27.59375 L 2.136719 8.40625 C 2.136719 4.945312 4.945312 2.136719 8.40625 2.136719 Z M 8.40625 2.136719 "/>
<path style=" stroke:none;fill-rule:nonzero;fill:rgb(37.254902%,48.627451%,54.117647%);fill-opacity:1;" d="M 6.980469 13.539062 L 7.066406 17.351562 C 7.15625 17.957031 7.660156 19.054688 8.429688 19.917969 C 9.496094 21.117188 11.0625 21.875 12.808594 21.875 L 23.171875 21.875 L 27.058594 27.003906 C 29 29.570312 31.191406 27.457031 30.945312 25.722656 L 30.296875 13.539062 Z M 6.980469 13.539062 "/>
<path style=" stroke:none;fill-rule:nonzero;fill:rgb(49.803922%,58.823529%,63.137255%);fill-opacity:1;" d="M 11.554688 7.800781 L 24.492188 7.800781 C 27.71875 7.800781 30.3125 10.351562 30.3125 13.515625 C 30.3125 14.964844 29.769531 16.285156 28.867188 17.292969 C 27.800781 18.480469 26.238281 19.226562 24.492188 19.226562 L 14.140625 19.226562 L 8.964844 26.84375 C 7.007812 29.421875 4.675781 27.933594 5.085938 25.574219 L 5.730469 13.515625 C 5.902344 10.355469 8.328125 7.800781 11.554688 7.800781 Z M 11.554688 7.800781 "/>
<path style=" stroke:none;fill-rule:nonzero;fill:rgb(87.45098%,89.803922%,90.980392%);fill-opacity:1;" d="M 14.308594 12.4375 L 14.308594 14.292969 L 8.746094 14.292969 L 8.746094 12.4375 Z M 14.308594 12.4375 "/>
<path style=" stroke:none;fill-rule:nonzero;fill:rgb(87.45098%,89.803922%,90.980392%);fill-opacity:1;" d="M 23.578125 13.363281 C 23.578125 13.875 23.164062 14.292969 22.652344 14.292969 C 22.140625 14.292969 21.722656 13.875 21.722656 13.363281 C 21.722656 12.851562 22.140625 12.4375 22.652344 12.4375 C 23.164062 12.4375 23.578125 12.851562 23.578125 13.363281 Z M 23.578125 13.363281 "/>
<path style=" stroke:none;fill-rule:nonzero;fill:rgb(87.45098%,89.803922%,90.980392%);fill-opacity:1;" d="M 27.285156 13.363281 C 27.285156 13.875 26.871094 14.292969 26.359375 14.292969 C 25.847656 14.292969 25.433594 13.875 25.433594 13.363281 C 25.433594 12.851562 25.847656 12.4375 26.359375 12.4375 C 26.871094 12.4375 27.285156 12.851562 27.285156 13.363281 Z M 27.285156 13.363281 "/>
<path style=" stroke:none;fill-rule:nonzero;fill:rgb(87.45098%,89.803922%,90.980392%);fill-opacity:1;" d="M 24.503906 12.4375 C 23.992188 12.4375 23.578125 12.023438 23.578125 11.511719 C 23.578125 11 23.992188 10.582031 24.503906 10.582031 C 25.019531 10.582031 25.433594 11 25.433594 11.511719 C 25.433594 12.023438 25.019531 12.4375 24.503906 12.4375 Z M 24.503906 12.4375 "/>
<path style=" stroke:none;fill-rule:nonzero;fill:rgb(87.45098%,89.803922%,90.980392%);fill-opacity:1;" d="M 24.503906 16.144531 C 23.992188 16.144531 23.578125 15.730469 23.578125 15.21875 C 23.578125 14.707031 23.992188 14.292969 24.503906 14.292969 C 25.019531 14.292969 25.433594 14.707031 25.433594 15.21875 C 25.433594 15.730469 25.019531 16.144531 24.503906 16.144531 Z M 24.503906 16.144531 "/>
<path style=" stroke:none;fill-rule:nonzero;fill:rgb(87.45098%,89.803922%,90.980392%);fill-opacity:1;" d="M 12.453125 16.144531 L 10.601562 16.144531 L 10.601562 10.582031 L 12.453125 10.582031 Z M 12.453125 16.144531 "/>
</g>
</svg>
