<?xml version="1.0" encoding="UTF-8"?>
<svg xmlns="http://www.w3.org/2000/svg" xmlns:xlink="http://www.w3.org/1999/xlink" width="36pt" height="36pt" viewBox="0 0 36 36" version="1.1">
<g id="surface1">
<path style=" stroke:none;fill-rule:evenodd;fill:rgb(30.980392%,30.980392%,30.980392%);fill-opacity:1;" d="M 8.40625 2.136719 L 27.59375 2.136719 C 31.054688 2.136719 33.863281 4.945312 33.863281 8.40625 L 33.863281 27.59375 C 33.863281 31.054688 31.054688 33.863281 27.59375 33.863281 L 8.40625 33.863281 C 4.945312 33.863281 2.136719 31.054688 2.136719 27.59375 L 2.136719 8.40625 C 2.136719 4.945312 4.945312 2.136719 8.40625 2.136719 Z M 8.40625 2.136719 "/>
<path style=" stroke:none;fill-rule:nonzero;fill:rgb(100%,100%,100%);fill-opacity:1;" d="M 30.078125 5.921875 L 27.058594 5.921875 L 27.058594 8.941406 L 30.078125 8.941406 Z M 30.078125 27.058594 L 27.058594 27.058594 L 27.058594 30.078125 L 30.078125 30.078125 Z M 23.03125 5.921875 L 20.011719 5.921875 L 20.011719 8.941406 L 23.03125 8.941406 Z M 23.03125 27.058594 L 20.011719 27.058594 L 20.011719 30.078125 L 23.03125 30.078125 Z M 15.988281 5.921875 L 12.96875 5.921875 L 12.96875 8.941406 L 15.988281 8.941406 Z M 15.988281 27.058594 L 12.96875 27.058594 L 12.96875 30.078125 L 15.988281 30.078125 Z M 8.941406 5.921875 L 5.921875 5.921875 L 5.921875 8.941406 L 8.941406 8.941406 Z M 8.941406 27.058594 L 5.921875 27.058594 L 5.921875 30.078125 L 8.941406 30.078125 Z M 8.941406 27.058594 "/>
<path style=" stroke:none;fill-rule:nonzero;fill:rgb(74.509804%,100%,29.803922%);fill-opacity:1;" d="M 16.992188 19.007812 C 15.800781 20.933594 13.164062 21.589844 11.097656 20.480469 C 9.035156 19.367188 8.328125 16.90625 9.519531 14.980469 Z M 16.992188 19.007812 "/>
<path style=" stroke:none;fill-rule:nonzero;fill:rgb(17.254902%,17.254902%,17.254902%);fill-opacity:1;" d="M 12.863281 16.78125 C 12.691406 17.964844 13.039062 19.386719 13.9375 20.953125 C 13.941406 20.949219 13.945312 20.949219 13.945312 20.949219 C 13.464844 19.828125 13.535156 18.558594 13.972656 17.382812 Z M 12.863281 16.78125 "/>
<path style=" stroke:none;fill-rule:nonzero;fill:rgb(74.509804%,100%,29.803922%);fill-opacity:1;" d="M 19.007812 19.007812 C 20.199219 20.933594 22.835938 21.59375 24.902344 20.480469 C 26.964844 19.367188 27.671875 16.90625 26.480469 14.980469 Z M 19.007812 19.007812 "/>
<path style=" stroke:none;fill-rule:nonzero;fill:rgb(17.254902%,17.254902%,17.254902%);fill-opacity:1;" d="M 23.136719 16.78125 L 22.027344 17.382812 C 22.464844 18.558594 22.535156 19.828125 22.054688 20.949219 C 22.054688 20.949219 22.058594 20.949219 22.0625 20.953125 C 22.960938 19.386719 23.308594 17.964844 23.136719 16.78125 Z M 23.136719 16.78125 "/>
</g>
</svg>
