<?xml version="1.0" encoding="UTF-8"?>
<svg xmlns="http://www.w3.org/2000/svg" xmlns:xlink="http://www.w3.org/1999/xlink" width="36pt" height="36pt" viewBox="0 0 36 36" version="1.1">
<g id="surface1">
<path style=" stroke:none;fill-rule:evenodd;fill:rgb(37.254902%,48.627451%,54.117647%);fill-opacity:1;" d="M 8.40625 2.136719 L 27.59375 2.136719 C 31.054688 2.136719 33.863281 4.945312 33.863281 8.40625 L 33.863281 27.59375 C 33.863281 31.054688 31.054688 33.863281 27.59375 33.863281 L 8.40625 33.863281 C 4.945312 33.863281 2.136719 31.054688 2.136719 27.59375 L 2.136719 8.40625 C 2.136719 4.945312 4.945312 2.136719 8.40625 2.136719 Z M 8.40625 2.136719 "/>
<path style=" stroke:none;fill-rule:nonzero;fill:rgb(94.901961%,94.901961%,94.901961%);fill-opacity:1;" d="M 16.984375 28.902344 C 14.957031 28.671875 13.003906 27.808594 11.476562 26.460938 C 9.890625 25.066406 8.765625 23.125 8.300781 20.988281 C 8.1875 20.46875 8.167969 20.203125 8.167969 19.019531 C 8.164062 17.816406 8.179688 17.578125 8.300781 17.019531 C 8.71875 15.074219 9.578125 13.460938 10.949219 12.050781 C 12.242188 10.722656 13.816406 9.816406 15.648438 9.339844 L 16.359375 9.15625 L 16.378906 8.726562 L 16.394531 8.300781 L 14.132812 8.300781 L 14.132812 8.015625 C 14.132812 6.738281 15.171875 5.523438 16.484375 5.269531 C 16.722656 5.222656 17.332031 5.207031 18.296875 5.222656 C 19.644531 5.246094 19.773438 5.257812 20.101562 5.386719 C 20.570312 5.566406 21.03125 5.875 21.300781 6.183594 C 21.703125 6.648438 22.035156 7.507812 22.035156 8.101562 L 22.035156 8.300781 L 19.835938 8.300781 L 19.835938 9.179688 L 20.296875 9.28125 C 21.429688 9.53125 22.679688 10.085938 23.757812 10.816406 C 24.53125 11.339844 25.648438 12.441406 26.207031 13.230469 C 26.691406 13.914062 27.3125 15.140625 27.554688 15.882812 C 28.191406 17.855469 28.1875 20.144531 27.550781 22.097656 C 26.757812 24.527344 24.992188 26.609375 22.6875 27.828125 C 20.988281 28.726562 18.902344 29.121094 16.984375 28.902344 Z M 17.292969 25.925781 C 17.3125 25.40625 17.34375 25.21875 17.429688 25.089844 C 17.730469 24.632812 18.453125 24.644531 18.730469 25.109375 C 18.804688 25.238281 18.824219 25.429688 18.824219 25.933594 C 18.824219 26.695312 18.765625 26.648438 19.535156 26.5 C 20.5 26.316406 21.65625 25.820312 22.507812 25.222656 C 22.753906 25.050781 23.195312 24.667969 23.492188 24.367188 C 26.0625 21.78125 26.453125 17.796875 24.433594 14.761719 C 23.320312 13.085938 21.601562 11.929688 19.582031 11.496094 C 18.792969 11.328125 17.378906 11.316406 16.660156 11.472656 C 14.359375 11.972656 12.539062 13.277344 11.429688 15.222656 C 10.996094 15.984375 10.597656 17.15625 10.496094 17.964844 L 10.460938 18.21875 L 11.085938 18.21875 C 11.96875 18.21875 12.242188 18.371094 12.324219 18.914062 C 12.367188 19.207031 12.203125 19.519531 11.929688 19.660156 C 11.773438 19.738281 11.582031 19.761719 11.089844 19.761719 C 10.738281 19.761719 10.453125 19.773438 10.453125 19.785156 C 10.453125 19.796875 10.492188 20.03125 10.542969 20.304688 C 11.117188 23.425781 13.527344 25.890625 16.605469 26.5 C 17.320312 26.644531 17.261719 26.691406 17.292969 25.925781 Z M 25.816406 11.402344 L 24.460938 10.042969 L 25.203125 9.324219 C 25.980469 8.570312 26.152344 8.472656 26.53125 8.5625 C 26.636719 8.589844 27.066406 8.976562 27.691406 9.597656 L 28.6875 10.589844 L 28.6875 11.230469 L 27.929688 11.992188 L 27.171875 12.757812 Z M 25.816406 11.402344 "/>
<path style=" stroke:none;fill-rule:nonzero;fill:rgb(44.705882%,85.882353%,66.27451%);fill-opacity:1;" d="M 18.15625 15.40625 L 18.15625 11.84375 L 18.46875 11.84375 C 18.953125 11.84375 19.851562 12.007812 20.441406 12.203125 C 22.933594 13.039062 24.804688 15.199219 25.25 17.75 C 25.300781 18.035156 25.34375 18.429688 25.34375 18.621094 L 25.34375 18.96875 L 18.15625 18.96875 Z M 18.15625 15.40625 "/>
</g>
</svg>
