<?xml version="1.0" encoding="UTF-8"?>
<svg xmlns="http://www.w3.org/2000/svg" xmlns:xlink="http://www.w3.org/1999/xlink" width="36pt" height="36pt" viewBox="0 0 36 36" version="1.1">
<g id="surface1">
<path style=" stroke:none;fill-rule:evenodd;fill:rgb(55.686275%,55.686275%,55.686275%);fill-opacity:1;" d="M 2.136719 12.390625 L 2.136719 27.59375 C 2.136719 31.066406 4.933594 33.863281 8.40625 33.863281 L 27.59375 33.863281 C 31.066406 33.863281 33.863281 31.066406 33.863281 27.59375 L 33.863281 12.390625 Z M 2.136719 12.390625 "/>
<path style=" stroke:none;fill-rule:evenodd;fill:rgb(20%,20%,20%);fill-opacity:1;" d="M 2.136719 12.390625 L 33.863281 12.390625 L 33.863281 8.410156 C 33.863281 4.933594 31.066406 2.136719 27.59375 2.136719 L 8.40625 2.136719 C 4.933594 2.136719 2.136719 4.933594 2.136719 8.410156 Z M 2.136719 12.390625 "/>
<path style=" stroke:none;fill-rule:nonzero;fill:rgb(94.901961%,37.647059%,33.72549%);fill-opacity:1;" d="M 24.09375 4.535156 L 26.949219 4.535156 C 27.757812 4.535156 28.417969 5.191406 28.417969 6.003906 L 28.417969 8.855469 C 28.417969 9.667969 27.757812 10.324219 26.949219 10.324219 L 24.09375 10.324219 C 23.285156 10.324219 22.628906 9.667969 22.628906 8.855469 L 22.628906 6.003906 C 22.628906 5.191406 23.285156 4.535156 24.09375 4.535156 Z M 24.09375 4.535156 "/>
<path style=" stroke:none;fill-rule:nonzero;fill:rgb(94.901961%,97.647059%,94.117647%);fill-opacity:1;" d="M 26.753906 6.195312 C 26.613281 6.050781 26.378906 6.050781 26.234375 6.195312 L 25.523438 6.910156 L 24.808594 6.195312 C 24.664062 6.050781 24.433594 6.050781 24.289062 6.195312 C 24.144531 6.339844 24.144531 6.570312 24.289062 6.714844 L 25.003906 7.429688 L 24.289062 8.144531 C 24.144531 8.285156 24.144531 8.519531 24.289062 8.664062 C 24.433594 8.804688 24.664062 8.804688 24.808594 8.664062 L 25.523438 7.949219 L 26.234375 8.664062 C 26.378906 8.804688 26.613281 8.804688 26.753906 8.664062 C 26.898438 8.519531 26.898438 8.285156 26.753906 8.144531 L 26.042969 7.429688 L 26.753906 6.714844 C 26.898438 6.570312 26.898438 6.339844 26.753906 6.195312 Z M 26.753906 6.195312 "/>
<path style=" stroke:none;fill-rule:nonzero;fill:rgb(51.764706%,74.509804%,23.137255%);fill-opacity:1;" d="M 16.574219 4.535156 L 19.425781 4.535156 C 20.238281 4.535156 20.894531 5.191406 20.894531 6.003906 L 20.894531 8.855469 C 20.894531 9.667969 20.238281 10.324219 19.425781 10.324219 L 16.574219 10.324219 C 15.761719 10.324219 15.105469 9.667969 15.105469 8.855469 L 15.105469 6.003906 C 15.105469 5.191406 15.761719 4.535156 16.574219 4.535156 Z M 16.574219 4.535156 "/>
<path style=" stroke:none;fill-rule:nonzero;fill:rgb(100%,100%,100%);fill-opacity:1;" d="M 18.746094 8.769531 L 16.660156 6.691406 L 16.660156 8.363281 C 16.660156 8.585938 16.839844 8.769531 17.066406 8.769531 Z M 18.746094 8.769531 "/>
<path style=" stroke:none;fill-rule:nonzero;fill:rgb(100%,100%,100%);fill-opacity:1;" d="M 19.222656 6.207031 C 19.148438 6.132812 19.046875 6.089844 18.933594 6.089844 L 17.234375 6.089844 L 19.339844 8.1875 L 19.339844 6.496094 C 19.339844 6.382812 19.296875 6.28125 19.222656 6.207031 Z M 19.222656 6.207031 "/>
<path style=" stroke:none;fill-rule:nonzero;fill:rgb(98.823529%,78.039216%,2.745098%);fill-opacity:1;" d="M 9.050781 4.535156 L 11.90625 4.535156 C 12.714844 4.535156 13.371094 5.191406 13.371094 6.003906 L 13.371094 8.855469 C 13.371094 9.667969 12.714844 10.324219 11.90625 10.324219 L 9.050781 10.324219 C 8.242188 10.324219 7.582031 9.667969 7.582031 8.855469 L 7.582031 6.003906 C 7.582031 5.191406 8.242188 4.535156 9.050781 4.535156 Z M 9.050781 4.535156 "/>
<path style=" stroke:none;fill-rule:nonzero;fill:rgb(100%,100%,100%);fill-opacity:1;" d="M 11.222656 8.769531 L 9.136719 6.691406 L 9.136719 8.363281 C 9.136719 8.585938 9.320312 8.769531 9.546875 8.769531 Z M 11.222656 8.769531 "/>
</g>
</svg>
