<?xml version="1.0" encoding="UTF-8"?>
<svg xmlns="http://www.w3.org/2000/svg" xmlns:xlink="http://www.w3.org/1999/xlink" width="36pt" height="36pt" viewBox="0 0 36 36" version="1.1">
<g id="surface1">
<path style=" stroke:none;fill-rule:evenodd;fill:rgb(0.784314%,52.54902%,76.078431%);fill-opacity:1;" d="M 8.40625 2.136719 L 27.59375 2.136719 C 31.054688 2.136719 33.863281 4.945312 33.863281 8.40625 L 33.863281 27.59375 C 33.863281 31.054688 31.054688 33.863281 27.59375 33.863281 L 8.40625 33.863281 C 4.945312 33.863281 2.136719 31.054688 2.136719 27.59375 L 2.136719 8.40625 C 2.136719 4.945312 4.945312 2.136719 8.40625 2.136719 Z M 8.40625 2.136719 "/>
<path style=" stroke:none;fill-rule:nonzero;fill:rgb(100%,100%,100%);fill-opacity:1;" d="M 18 9 C 13.03125 9 9 13.03125 9 18 C 9 22.96875 13.03125 27 18 27 C 20.0625 27 22.0625 26.289062 23.664062 24.992188 C 22.824219 25.566406 21.828125 25.875 20.8125 25.875 C 18.015625 25.875 15.75 23.609375 15.75 20.8125 C 15.75 18.015625 18.015625 15.75 20.8125 15.75 C 23.609375 15.75 25.875 18.015625 25.875 20.8125 C 25.875 21.804688 25.582031 22.773438 25.035156 23.597656 C 26.304688 22.007812 26.996094 20.035156 27 18 C 27 13.03125 22.96875 9 18 9 Z M 18 9 "/>
</g>
</svg>
