<?xml version="1.0" encoding="UTF-8"?>
<svg xmlns="http://www.w3.org/2000/svg" xmlns:xlink="http://www.w3.org/1999/xlink" width="36pt" height="36pt" viewBox="0 0 36 36" version="1.1">
<g id="surface1">
<path style=" stroke:none;fill-rule:evenodd;fill:rgb(94.509804%,82.352941%,47.843137%);fill-opacity:1;" d="M 8.40625 2.136719 L 27.59375 2.136719 C 31.054688 2.136719 33.863281 4.945312 33.863281 8.40625 L 33.863281 27.59375 C 33.863281 31.054688 31.054688 33.863281 27.59375 33.863281 L 8.40625 33.863281 C 4.945312 33.863281 2.136719 31.054688 2.136719 27.59375 L 2.136719 8.40625 C 2.136719 4.945312 4.945312 2.136719 8.40625 2.136719 Z M 8.40625 2.136719 "/>
<path style="fill:none;stroke-width:6;stroke-linecap:round;stroke-linejoin:round;stroke:rgb(27.058824%,27.058824%,27.058824%);stroke-opacity:1;stroke-miterlimit:4;" d="M 8.998966 14 C 8.998966 7.701389 13.200355 9 22.998966 9 " transform="matrix(1.125,0,0,1.125,-0.0222744,0)"/>
<path style="fill:none;stroke-width:6;stroke-linecap:round;stroke-linejoin:round;stroke:rgb(27.058824%,27.058824%,27.058824%);stroke-opacity:1;stroke-miterlimit:4;" d="M 23.040633 18 C 23.040633 24.298611 18.839244 23 9.040633 23 " transform="matrix(1.125,0,0,1.125,-0.0222744,0)"/>
</g>
</svg>
