<?xml version="1.0" encoding="UTF-8"?>
<svg xmlns="http://www.w3.org/2000/svg" xmlns:xlink="http://www.w3.org/1999/xlink" width="36pt" height="36pt" viewBox="0 0 36 36" version="1.1">
<g id="surface1">
<path style=" stroke:none;fill-rule:evenodd;fill:rgb(35.294118%,61.960784%,5.098039%);fill-opacity:1;" d="M 8.40625 2.136719 L 27.59375 2.136719 C 31.054688 2.136719 33.863281 4.945312 33.863281 8.40625 L 33.863281 27.59375 C 33.863281 31.054688 31.054688 33.863281 27.59375 33.863281 L 8.40625 33.863281 C 4.945312 33.863281 2.136719 31.054688 2.136719 27.59375 L 2.136719 8.40625 C 2.136719 4.945312 4.945312 2.136719 8.40625 2.136719 Z M 8.40625 2.136719 "/>
<path style=" stroke:none;fill-rule:nonzero;fill:rgb(68.235294%,94.901961%,37.647059%);fill-opacity:1;" d="M 18 6.75 C 11.765625 6.75 6.75 11.765625 6.75 18 C 6.75 24.234375 11.765625 29.25 18 29.25 C 24.234375 29.25 29.25 24.234375 29.25 18 L 25.875 18 C 25.875 22.347656 22.347656 25.875 18 25.875 C 13.652344 25.875 10.125 22.347656 10.125 18 C 10.125 13.652344 13.652344 10.125 18 10.125 Z M 18 6.75 "/>
<path style=" stroke:none;fill-rule:nonzero;fill:rgb(100%,60.392157%,10.588235%);fill-opacity:1;" d="M 18 6.75 L 18 10.125 C 22.347656 10.125 25.875 13.652344 25.875 18 L 29.25 18 C 29.25 11.765625 24.234375 6.75 18 6.75 Z M 18 6.75 "/>
</g>
</svg>
