<?xml version="1.0" encoding="UTF-8"?>
<svg xmlns="http://www.w3.org/2000/svg" xmlns:xlink="http://www.w3.org/1999/xlink" width="36pt" height="36pt" viewBox="0 0 36 36" version="1.1">
<g id="surface1">
<path style=" stroke:none;fill-rule:evenodd;fill:rgb(43.137255%,66.666667%,21.176471%);fill-opacity:1;" d="M 8.40625 2.136719 L 27.59375 2.136719 C 31.054688 2.136719 33.863281 4.945312 33.863281 8.40625 L 33.863281 27.59375 C 33.863281 31.054688 31.054688 33.863281 27.59375 33.863281 L 8.40625 33.863281 C 4.945312 33.863281 2.136719 31.054688 2.136719 27.59375 L 2.136719 8.40625 C 2.136719 4.945312 4.945312 2.136719 8.40625 2.136719 Z M 8.40625 2.136719 "/>
<path style=" stroke:none;fill-rule:nonzero;fill:rgb(100%,100%,100%);fill-opacity:1;" d="M 17.597656 5.402344 C 12.765625 5.402344 10.003906 7.378906 8.203125 9.609375 C 9.582031 9.988281 10.546875 10.304688 10.859375 10.40625 C 10.863281 10.195312 10.898438 8.316406 10.898438 8.316406 L 10.921875 8.257812 L 10.992188 8.234375 C 11.417969 8.296875 20.476562 9.636719 24.292969 11.859375 C 24.765625 12.136719 24.996094 12.425781 25.289062 12.726562 C 26.34375 13.816406 27.746094 18.355469 27.894531 19.292969 L 27.835938 19.390625 C 27.78125 19.410156 27.644531 19.503906 27.472656 19.621094 C 26.582031 20.246094 24.5 21.703125 21.832031 21.464844 C 19.433594 21.25 16.300781 19.875 12.523438 17.386719 C 12.691406 17.777344 13.476562 19.644531 13.605469 19.957031 L 13.660156 20.019531 C 14.207031 20.304688 19.457031 22.980469 22.058594 22.925781 C 24.160156 22.882812 26.402344 21.855469 27.300781 21.320312 L 27.585938 21.265625 C 27.667969 21.328125 27.652344 21.449219 27.628906 21.5625 C 27.574219 21.820312 27.453125 22.289062 27.367188 22.511719 L 27.296875 22.691406 C 27.191406 22.964844 27.09375 23.226562 26.902344 23.382812 C 26.375 23.863281 25.527344 24.246094 24.203125 24.824219 C 22.15625 25.71875 18.84375 26.28125 15.761719 26.261719 C 14.660156 26.238281 13.59375 26.117188 12.65625 26.007812 C 10.699219 25.785156 9.113281 25.605469 8.164062 26.34375 C 10.46875 28.953125 13.84375 30.601562 17.601562 30.601562 C 24.558594 30.601562 30.207031 24.960938 30.207031 18 C 30.207031 11.042969 24.558594 5.398438 17.601562 5.398438 L 17.597656 5.398438 Z M 20.929688 12.070312 C 19.964844 12.085938 19.054688 12.445312 18.347656 13.109375 C 17.589844 13.8125 17.152344 14.773438 17.113281 15.808594 C 17.046875 17.941406 18.726562 19.742188 20.859375 19.820312 C 21.898438 19.855469 22.882812 19.484375 23.636719 18.777344 C 24.394531 18.070312 24.828125 17.117188 24.867188 16.082031 C 24.9375 13.945312 23.261719 12.148438 21.121094 12.070312 C 21.058594 12.066406 20.992188 12.070312 20.929688 12.070312 Z M 20.824219 13.210938 C 20.914062 13.207031 21 13.207031 21.089844 13.210938 C 22.582031 13.265625 23.753906 14.515625 23.703125 16.007812 C 23.679688 16.726562 23.375 17.398438 22.847656 17.894531 C 22.316406 18.382812 21.632812 18.636719 20.90625 18.617188 C 19.417969 18.558594 18.25 17.304688 18.300781 15.816406 C 18.320312 15.09375 18.632812 14.425781 19.15625 13.933594 C 19.617188 13.503906 20.203125 13.25 20.824219 13.210938 Z M 21.535156 14.566406 C 20.871094 14.566406 20.335938 14.925781 20.335938 15.367188 C 20.335938 15.808594 20.871094 16.171875 21.535156 16.171875 C 22.199219 16.171875 22.730469 15.808594 22.730469 15.367188 C 22.730469 14.925781 22.199219 14.566406 21.535156 14.566406 Z M 21.535156 14.566406 "/>
</g>
</svg>
