<?xml version="1.0" encoding="UTF-8"?>
<svg xmlns="http://www.w3.org/2000/svg" xmlns:xlink="http://www.w3.org/1999/xlink" width="36pt" height="36pt" viewBox="0 0 36 36" version="1.1">
<g id="surface1">
<path style=" stroke:none;fill-rule:evenodd;fill:rgb(27.843137%,52.156863%,88.627451%);fill-opacity:1;" d="M 18 18 L 1.371094 18 L 1.371094 28.054688 C 1.371094 31.699219 4.300781 34.628906 7.945312 34.628906 L 18 34.628906 Z M 18 18 "/>
<path style=" stroke:none;fill-rule:evenodd;fill:rgb(46.666667%,88.627451%,27.843137%);fill-opacity:1;" d="M 18 18 L 18 34.628906 L 28.054688 34.628906 C 31.699219 34.628906 34.628906 31.699219 34.628906 28.054688 L 34.628906 18 Z M 18 18 "/>
<path style=" stroke:none;fill-rule:evenodd;fill:rgb(94.901961%,68.235294%,21.568627%);fill-opacity:1;" d="M 7.945312 1.371094 C 4.300781 1.371094 1.371094 4.300781 1.371094 7.945312 L 1.371094 18 L 18 18 L 18 1.371094 Z M 7.945312 1.371094 "/>
<path style=" stroke:none;fill-rule:evenodd;fill:rgb(27.843137%,52.156863%,88.627451%);fill-opacity:1;" d="M 18 1.371094 L 18 18 L 34.628906 18 L 34.628906 7.945312 C 34.628906 4.300781 31.699219 1.371094 28.054688 1.371094 Z M 18 1.371094 "/>
<path style=" stroke:none;fill-rule:nonzero;fill:rgb(24.705882%,24.705882%,24.705882%);fill-opacity:1;" d="M 10.253906 4.628906 L 11.992188 8.332031 L 15.878906 8.925781 L 13.066406 11.808594 L 13.730469 15.878906 L 10.253906 13.957031 L 6.777344 15.878906 L 7.441406 11.808594 L 4.628906 8.925781 L 8.515625 8.332031 Z M 10.253906 4.628906 "/>
<path style=" stroke:none;fill-rule:nonzero;fill:rgb(24.705882%,24.705882%,24.705882%);fill-opacity:1;" d="M 31.628906 10.253906 C 31.628906 13.359375 29.109375 15.878906 26.003906 15.878906 C 22.894531 15.878906 20.378906 13.359375 20.378906 10.253906 C 20.378906 7.144531 22.894531 4.628906 26.003906 4.628906 C 29.109375 4.628906 31.628906 7.144531 31.628906 10.253906 Z M 31.628906 10.253906 "/>
<path style=" stroke:none;fill-rule:nonzero;fill:rgb(24.705882%,24.705882%,24.705882%);fill-opacity:1;" d="M 20.378906 20.378906 L 31.628906 20.378906 L 31.628906 31.628906 L 20.378906 31.628906 Z M 20.378906 20.378906 "/>
<path style=" stroke:none;fill-rule:nonzero;fill:rgb(24.705882%,24.705882%,24.705882%);fill-opacity:1;" d="M 15.878906 26.003906 C 15.878906 29.109375 13.359375 31.628906 10.253906 31.628906 C 7.144531 31.628906 4.628906 29.109375 4.628906 26.003906 C 4.628906 22.894531 7.144531 20.378906 10.253906 20.378906 C 13.359375 20.378906 15.878906 22.894531 15.878906 26.003906 Z M 15.878906 26.003906 "/>
</g>
</svg>
