<?xml version="1.0" encoding="UTF-8"?>
<svg xmlns="http://www.w3.org/2000/svg" xmlns:xlink="http://www.w3.org/1999/xlink" width="36pt" height="36pt" viewBox="0 0 36 36" version="1.1">
<g id="surface1">
<path style=" stroke:none;fill-rule:evenodd;fill:rgb(50.196078%,73.333333%,69.803922%);fill-opacity:1;" d="M 8.40625 2.136719 L 27.59375 2.136719 C 31.054688 2.136719 33.863281 4.945312 33.863281 8.40625 L 33.863281 27.59375 C 33.863281 31.054688 31.054688 33.863281 27.59375 33.863281 L 8.40625 33.863281 C 4.945312 33.863281 2.136719 31.054688 2.136719 27.59375 L 2.136719 8.40625 C 2.136719 4.945312 4.945312 2.136719 8.40625 2.136719 Z M 8.40625 2.136719 "/>
<path style=" stroke:none;fill-rule:nonzero;fill:rgb(61.960784%,83.529412%,79.215686%);fill-opacity:1;" d="M 18.03125 6.011719 C 17.796875 6.003906 17.570312 6.0625 17.371094 6.175781 L 7.925781 11.550781 C 7.535156 11.773438 7.296875 12.183594 7.296875 12.625 L 7.296875 23.375 C 7.296875 23.816406 7.535156 24.226562 7.925781 24.449219 L 17.371094 29.824219 C 17.761719 30.042969 18.238281 30.042969 18.628906 29.824219 L 28.074219 24.449219 C 28.464844 24.226562 28.703125 23.816406 28.703125 23.375 L 28.703125 12.625 C 28.703125 12.183594 28.464844 11.773438 28.074219 11.550781 L 18.628906 6.175781 C 18.445312 6.074219 18.242188 6.015625 18.03125 6.011719 Z M 18.03125 6.011719 "/>
<path style=" stroke:none;fill-rule:nonzero;fill:rgb(100%,81.960784%,42.745098%);fill-opacity:1;" d="M 18.429688 15.429688 C 18.429688 17.324219 16.894531 18.855469 15.003906 18.855469 C 13.109375 18.855469 11.578125 17.324219 11.578125 15.429688 C 11.578125 13.539062 13.109375 12.003906 15.003906 12.003906 C 16.894531 12.003906 18.429688 13.539062 18.429688 15.429688 Z M 18.429688 15.429688 "/>
<path style=" stroke:none;fill-rule:nonzero;fill:rgb(90.980392%,95.294118%,94.901961%);fill-opacity:1;" d="M 18.855469 14.574219 C 17.566406 14.574219 16.359375 15.222656 15.648438 16.300781 C 15.574219 16.292969 15.503906 16.289062 15.429688 16.289062 C 13.300781 16.289062 11.578125 18.011719 11.578125 20.140625 C 11.578125 22.269531 13.300781 23.996094 15.429688 23.996094 L 22.710938 23.996094 C 24.128906 23.996094 25.277344 22.84375 25.277344 21.425781 C 25.277344 20.007812 24.128906 18.855469 22.710938 18.855469 C 22.699219 18.855469 22.691406 18.855469 22.683594 18.859375 C 22.699219 18.714844 22.710938 18.570312 22.710938 18.429688 C 22.710938 16.300781 20.984375 14.574219 18.855469 14.574219 Z M 18.855469 14.574219 "/>
</g>
</svg>
