<?xml version="1.0" encoding="UTF-8"?>
<svg xmlns="http://www.w3.org/2000/svg" xmlns:xlink="http://www.w3.org/1999/xlink" width="36pt" height="36pt" viewBox="0 0 36 36" version="1.1">
<g id="surface1">
<path style=" stroke:none;fill-rule:evenodd;fill:rgb(44.705882%,65.490196%,80.784314%);fill-opacity:1;" d="M 8.40625 2.136719 L 27.59375 2.136719 C 31.054688 2.136719 33.863281 4.945312 33.863281 8.40625 L 33.863281 27.59375 C 33.863281 31.054688 31.054688 33.863281 27.59375 33.863281 L 8.40625 33.863281 C 4.945312 33.863281 2.136719 31.054688 2.136719 27.59375 L 2.136719 8.40625 C 2.136719 4.945312 4.945312 2.136719 8.40625 2.136719 Z M 8.40625 2.136719 "/>
<path style=" stroke:none;fill-rule:nonzero;fill:rgb(100%,79.215686%,40.784314%);fill-opacity:1;" d="M 27 9 C 27 9 24.300781 8.925781 21.601562 10.273438 C 20.777344 10.648438 19.878906 11.25 19.128906 12 C 17.917969 13.210938 16.035156 15.441406 14.550781 17.246094 L 11.257812 17.246094 L 9.757812 19.496094 L 12.300781 20.183594 C 12.308594 20.273438 12.332031 20.402344 12.402344 20.574219 L 12.007812 21.441406 C 12.007812 21.441406 11.859375 21.742188 12.984375 22.941406 C 14.183594 24.140625 14.558594 23.992188 14.558594 23.992188 L 15.488281 23.570312 C 15.628906 23.613281 15.730469 23.628906 15.800781 23.628906 L 16.507812 26.238281 L 18.753906 24.742188 L 18.753906 21.347656 C 20.570312 19.878906 22.800781 18.035156 24.003906 16.871094 C 24.75 16.121094 25.351562 15.222656 25.800781 14.398438 C 27.074219 11.699219 27 9 27 9 Z M 27 9 "/>
<path style=" stroke:none;fill-rule:nonzero;fill:rgb(100%,100%,100%);fill-opacity:1;" d="M 21.75 15.746094 C 20.925781 15.746094 20.253906 15.070312 20.253906 14.246094 C 20.253906 13.421875 20.925781 12.746094 21.75 12.746094 C 22.578125 12.746094 23.25 13.421875 23.25 14.246094 C 23.25 15.070312 22.574219 15.746094 21.75 15.746094 Z M 21.75 15.746094 "/>
<path style=" stroke:none;fill-rule:nonzero;fill:rgb(100%,79.215686%,40.784314%);fill-opacity:1;" d="M 13.882812 24.742188 C 14.03125 24.816406 14.105469 24.890625 14.257812 24.964844 C 14.105469 25.117188 13.957031 25.339844 13.804688 25.492188 C 12.082031 27.214844 9.007812 26.992188 9.007812 26.992188 C 9.007812 26.992188 8.785156 23.917969 10.507812 22.195312 C 10.660156 22.042969 10.882812 21.894531 11.03125 21.742188 C 11.109375 21.894531 11.183594 21.96875 11.257812 22.117188 C 10.132812 23.542969 10.285156 25.714844 10.285156 25.714844 C 10.285156 25.714844 12.457031 25.867188 13.882812 24.742188 Z M 13.882812 24.742188 "/>
</g>
</svg>
