<?xml version="1.0" encoding="UTF-8"?>
<svg xmlns="http://www.w3.org/2000/svg" xmlns:xlink="http://www.w3.org/1999/xlink" width="36pt" height="36pt" viewBox="0 0 36 36" version="1.1">
<g id="surface1">
<path style=" stroke:none;fill-rule:evenodd;fill:rgb(0%,51.372549%,40%);fill-opacity:1;" d="M 8.40625 2.136719 L 27.59375 2.136719 C 31.054688 2.136719 33.863281 4.945312 33.863281 8.40625 L 33.863281 27.59375 C 33.863281 31.054688 31.054688 33.863281 27.59375 33.863281 L 8.40625 33.863281 C 4.945312 33.863281 2.136719 31.054688 2.136719 27.59375 L 2.136719 8.40625 C 2.136719 4.945312 4.945312 2.136719 8.40625 2.136719 Z M 8.40625 2.136719 "/>
<path style=" stroke:none;fill-rule:nonzero;fill:rgb(72.941176%,86.27451%,52.54902%);fill-opacity:1;" d="M 14.324219 5.070312 C 13.914062 5.105469 13.761719 5.167969 13.605469 5.367188 C 13.441406 5.578125 13.300781 5.625 12.695312 5.683594 C 12.234375 5.726562 11.910156 5.808594 11.789062 5.917969 C 11.550781 6.128906 11.324219 6.644531 11.324219 6.976562 C 11.324219 7.214844 11.347656 7.226562 11.710938 7.167969 C 11.925781 7.132812 12.257812 7.160156 12.457031 7.226562 C 12.75 7.320312 12.796875 7.371094 12.703125 7.484375 C 12.636719 7.566406 12.40625 7.542969 12.15625 7.542969 C 11.652344 7.542969 11.597656 7.683594 11.949219 8.09375 L 12.175781 8.355469 L 12.566406 8.148438 C 13.007812 7.910156 13.320312 7.964844 13.632812 8.140625 C 13.75 8.207031 14.285156 8.289062 14.820312 8.316406 C 15.734375 8.367188 15.492188 8.390625 15.710938 8.644531 C 15.855469 8.8125 16.050781 9.046875 16.050781 9.238281 C 16.046875 9.882812 15.597656 11.027344 14.257812 12.621094 C 13.582031 13.425781 13.445312 14.902344 13.445312 15.292969 C 13.445312 15.410156 13.402344 15.535156 13.351562 15.566406 C 13.253906 15.625 13.191406 15.253906 13.101562 14.039062 C 13.007812 12.832031 12.78125 12.15625 12.261719 11.621094 C 11.957031 11.304688 11.675781 11.117188 11.390625 11.042969 C 10.894531 10.910156 10.867188 10.808594 11.269531 10.640625 C 11.433594 10.574219 11.566406 10.480469 11.566406 10.433594 C 11.566406 10.3125 11.113281 10.214844 10.824219 10.269531 C 10.523438 10.328125 10.515625 10.273438 10.785156 9.988281 C 11.3125 9.421875 10.414062 9.554688 9.476562 10.175781 C 8.636719 10.738281 8.125 11.3125 8.046875 11.726562 C 8 11.992188 7.839844 12.21875 7.488281 12.542969 C 6.835938 13.148438 6.6875 13.453125 6.769531 14.011719 C 6.894531 14.832031 6.988281 14.898438 7.371094 14.445312 C 7.609375 14.160156 8.164062 13.863281 8.265625 13.964844 C 8.363281 14.066406 8.109375 14.421875 7.808594 14.597656 C 7.429688 14.820312 7.433594 14.980469 7.820312 15.113281 C 8.1875 15.242188 8.257812 15.207031 8.464844 14.796875 C 8.703125 14.324219 8.988281 14.054688 9.382812 13.925781 C 9.578125 13.863281 9.945312 13.617188 10.203125 13.378906 C 10.457031 13.144531 10.714844 12.949219 10.773438 12.949219 C 10.976562 12.949219 11.355469 13.421875 11.453125 13.804688 C 11.511719 14.015625 11.605469 14.851562 11.664062 15.664062 C 11.847656 18.167969 12.101562 18.519531 13.011719 20.503906 C 13.304688 21.140625 13.542969 21.726562 13.542969 21.804688 C 13.542969 21.910156 12.777344 21.960938 12.199219 22.011719 C 10.828125 22.132812 10.25 22.597656 10.152344 23.671875 C 10.113281 24.058594 10.148438 24.285156 10.28125 24.535156 C 10.554688 25.054688 10.71875 25.046875 10.644531 24.515625 C 10.582031 24.058594 10.746094 23.769531 10.871094 24.117188 C 10.960938 24.371094 11.3125 24.738281 11.464844 24.738281 C 11.621094 24.738281 11.625 24.726562 11.5 24.398438 C 11.390625 24.117188 11.457031 24.085938 11.734375 24.296875 C 12 24.496094 12.085938 24.398438 12.019531 23.980469 C 11.914062 23.320312 12.964844 22.746094 14.21875 23.121094 C 14.824219 23.300781 14.992188 23.316406 15.261719 23.21875 C 15.773438 23.035156 16.503906 23.078125 16.835938 23.359375 C 17.171875 23.640625 16.898438 24.382812 16.664062 24.71875 C 16.425781 25.058594 16.050781 25.203125 15.117188 25.320312 C 14.640625 25.375 14.148438 25.492188 14.019531 25.578125 C 13.765625 25.746094 13.558594 26.125 13.558594 26.425781 C 13.558594 26.6875 13.675781 26.667969 13.933594 26.371094 C 14.054688 26.234375 14.238281 26.125 14.347656 26.125 C 14.59375 26.125 14.597656 26.179688 14.347656 26.492188 C 14.171875 26.71875 14.070312 27.3125 14.207031 27.3125 C 14.238281 27.3125 14.410156 27.15625 14.589844 26.964844 C 14.769531 26.777344 15.011719 26.621094 15.125 26.621094 C 15.371094 26.621094 15.386719 26.695312 15.1875 26.960938 C 15.035156 27.15625 14.980469 27.808594 15.113281 27.804688 C 15.15625 27.800781 15.277344 27.65625 15.386719 27.484375 C 15.574219 27.1875 15.808594 27.035156 16.589844 26.703125 C 16.761719 26.628906 17.421875 26.023438 18.054688 25.351562 C 19.1875 24.15625 19.171875 24.128906 19.140625 23.71875 L 19.109375 23.304688 L 20.253906 23.183594 C 21.269531 22.824219 21.808594 22.792969 22.402344 23.101562 C 23.183594 23.507812 23.925781 24.210938 23.816406 24.875 C 23.738281 25.359375 23.472656 26.285156 22.792969 26.351562 C 21.183594 26.320312 18.9375 27.351562 19.191406 28.855469 C 19.402344 29.863281 20.707031 30.53125 22.019531 30.832031 C 22.433594 30.925781 22.980469 30.957031 23.675781 30.925781 C 25.410156 30.851562 26.519531 30.761719 27.449219 29.808594 C 27.789062 29.457031 28.226562 28.625 28.386719 28.21875 L 29.25 28.6875 L 29.25 26.421875 L 27 27.410156 L 28.179688 28.089844 C 28.039062 28.207031 27.859375 28.488281 27.652344 28.699219 C 26.738281 29.644531 26.113281 29.640625 24.972656 29.796875 C 24.035156 29.921875 23.007812 29.789062 22.367188 29.507812 C 21.84375 29.273438 21.4375 28.773438 21.4375 28.402344 C 21.4375 28.050781 21.855469 27.730469 22.363281 27.714844 C 23.726562 27.667969 23.980469 27.542969 23.980469 27.542969 C 24.964844 27.242188 25.894531 25.535156 25.894531 24.460938 C 25.894531 24.183594 25.9375 23.847656 25.992188 23.710938 C 26.070312 23.503906 26.023438 23.328125 25.746094 22.746094 C 25.515625 22.261719 25.425781 22.183594 25.46875 22.019531 C 25.515625 21.824219 25.425781 21.675781 24.949219 21.195312 C 24.433594 20.671875 24.382812 20.425781 24.488281 20.25 C 24.554688 20.144531 24.613281 20.035156 24.613281 20.007812 C 24.613281 19.980469 24.355469 19.828125 24.042969 19.671875 C 23.730469 19.511719 23.363281 19.292969 23.230469 19.183594 C 23.019531 19.015625 23.003906 18.964844 23.121094 18.824219 C 23.195312 18.734375 23.230469 18.636719 23.199219 18.605469 C 23.167969 18.574219 22.792969 18.484375 22.371094 18.402344 C 21.421875 18.222656 21.273438 18.144531 21.234375 17.804688 C 21.214844 17.652344 21.167969 17.535156 21.125 17.539062 C 21.082031 17.542969 20.609375 17.628906 20.074219 17.726562 C 19.019531 17.921875 18.78125 17.894531 18.78125 17.582031 C 18.78125 17.328125 18.78125 17.324219 18.121094 17.679688 C 17.046875 18.253906 16.171875 17.902344 16.441406 16.996094 C 16.507812 16.769531 16.695312 16.394531 16.851562 16.164062 C 17.480469 15.25 18.679688 14.957031 20.882812 14.855469 C 22.113281 14.800781 22.664062 14.746094 23.027344 14.582031 C 23.59375 14.324219 24.902344 13.421875 25.144531 12.964844 C 25.25 12.773438 25.367188 12.613281 25.410156 12.613281 C 25.617188 12.613281 25.882812 12.191406 25.882812 11.863281 C 25.882812 11.421875 26.085938 11.453125 26.207031 11.917969 C 26.324219 12.375 26.527344 12.148438 26.515625 11.570312 C 26.503906 11.078125 26.578125 11.023438 26.800781 11.351562 C 27.039062 11.710938 27.117188 11.472656 26.980469 10.804688 C 26.847656 10.164062 25.992188 8.601562 25.636719 8.148438 C 25.523438 8.007812 24.632812 7.867188 24.480469 7.835938 C 24.273438 7.789062 24 7.617188 23.699219 7.121094 C 23.472656 6.746094 23.183594 6.398438 23.019531 6.3125 C 22.765625 6.179688 22.691406 6.183594 22.304688 6.332031 C 21.832031 6.511719 21.789062 6.585938 22.035156 6.789062 C 22.230469 6.953125 22.5625 7.707031 22.5625 7.988281 C 22.5625 8.1875 22.558594 8.1875 22.355469 8.007812 C 22.242188 7.902344 21.925781 7.664062 21.84375 7.472656 C 21.707031 7.136719 21.691406 7.132812 21.558594 7.3125 C 21.308594 7.652344 21.375 8.121094 21.714844 8.363281 C 22.042969 8.597656 22.339844 9.113281 22.453125 9.644531 C 22.492188 9.835938 22.609375 10.132812 22.710938 10.300781 C 23.097656 10.9375 23.023438 12.421875 22.429688 12.707031 C 22.222656 12.804688 21.554688 12.890625 20.53125 12.957031 C 18.175781 13.105469 17.105469 13.410156 15.976562 14.519531 C 15.433594 15.050781 15.398438 15.070312 15.464844 14.800781 C 15.566406 14.371094 15.609375 13.792969 16.585938 12.515625 C 17.839844 10.875 18 10.480469 18 9.304688 C 17.996094 8.300781 17.539062 7.15625 16.472656 6.292969 C 16.253906 6.140625 16.097656 5.976562 16.128906 5.929688 C 16.15625 5.878906 16.359375 5.839844 16.578125 5.839844 C 17.042969 5.839844 17.050781 5.6875 16.605469 5.425781 C 16.230469 5.210938 14.996094 5.015625 14.324219 5.070312 Z M 14.324219 5.070312 "/>
</g>
</svg>
