<?xml version="1.0" encoding="UTF-8"?>
<svg xmlns="http://www.w3.org/2000/svg" xmlns:xlink="http://www.w3.org/1999/xlink" width="36pt" height="36pt" viewBox="0 0 36 36" version="1.1">
<g id="surface1">
<path style=" stroke:none;fill-rule:evenodd;fill:rgb(76.078431%,20.784314%,16.470588%);fill-opacity:1;" d="M 8.40625 2.136719 L 27.59375 2.136719 C 31.054688 2.136719 33.863281 4.945312 33.863281 8.40625 L 33.863281 27.59375 C 33.863281 31.054688 31.054688 33.863281 27.59375 33.863281 L 8.40625 33.863281 C 4.945312 33.863281 2.136719 31.054688 2.136719 27.59375 L 2.136719 8.40625 C 2.136719 4.945312 4.945312 2.136719 8.40625 2.136719 Z M 8.40625 2.136719 "/>
<path style=" stroke:none;fill-rule:nonzero;fill:rgb(100%,100%,100%);fill-opacity:1;" d="M 18.65625 21.324219 C 24.484375 18.011719 24.359375 18.082031 24.359375 18.015625 C 24.359375 17.953125 14.160156 12.09375 14.109375 12.128906 C 14.078125 12.148438 14.070312 23.824219 14.101562 23.863281 C 14.117188 23.875 14.152344 23.875 14.183594 23.863281 C 14.210938 23.851562 16.226562 22.707031 18.65625 21.324219 Z M 18.65625 21.324219 "/>
</g>
</svg>
