<?xml version="1.0" encoding="UTF-8"?>
<svg xmlns="http://www.w3.org/2000/svg" xmlns:xlink="http://www.w3.org/1999/xlink" width="36pt" height="36pt" viewBox="0 0 36 36" version="1.1">
<g id="surface1">
<path style=" stroke:none;fill-rule:evenodd;fill:rgb(17.254902%,66.666667%,77.647059%);fill-opacity:1;" d="M 8.40625 2.136719 L 27.59375 2.136719 C 31.054688 2.136719 33.863281 4.945312 33.863281 8.40625 L 33.863281 27.59375 C 33.863281 31.054688 31.054688 33.863281 27.59375 33.863281 L 8.40625 33.863281 C 4.945312 33.863281 2.136719 31.054688 2.136719 27.59375 L 2.136719 8.40625 C 2.136719 4.945312 4.945312 2.136719 8.40625 2.136719 Z M 8.40625 2.136719 "/>
<path style=" stroke:none;fill-rule:nonzero;fill:rgb(43.137255%,43.137255%,43.137255%);fill-opacity:1;" d="M 7.535156 13.539062 L 7.535156 18 C 7.535156 18.992188 7.457031 20.695312 8.109375 21.488281 C 9.195312 23.308594 11.519531 27.242188 12.410156 29.042969 C 12.703125 29.582031 13.347656 29.722656 14.164062 29.722656 L 21.835938 29.722656 C 22.652344 29.722656 23.296875 29.582031 23.589844 29.042969 C 24.480469 27.242188 26.804688 23.308594 27.890625 21.488281 C 28.542969 20.695312 28.464844 18.992188 28.464844 18 L 28.464844 13.539062 C 28.464844 9.792969 23.8125 6.277344 18 6.277344 C 12.1875 6.277344 7.535156 9.792969 7.535156 13.539062 Z M 7.535156 13.539062 "/>
<path style=" stroke:none;fill-rule:nonzero;fill:rgb(34.509804%,34.509804%,34.509804%);fill-opacity:1;" d="M 8.996094 17.980469 C 8.320312 17.984375 7.640625 17.996094 7.535156 18.011719 L 7.535156 18.585938 C 7.535156 19.578125 7.457031 20.695312 8.109375 21.488281 C 9.191406 23.308594 11.519531 27.242188 12.410156 29.042969 C 12.703125 29.582031 13.347656 29.722656 14.164062 29.722656 L 21.835938 29.722656 C 22.652344 29.722656 23.296875 29.582031 23.589844 29.042969 C 24.480469 27.242188 26.808594 23.308594 27.890625 21.488281 C 28.542969 20.695312 28.464844 19.578125 28.464844 18.585938 L 28.464844 18.011719 C 28.34375 18.011719 25.914062 17.996094 25.808594 18 C 23.441406 17.980469 23.542969 18.824219 22.570312 20.34375 C 21.65625 21.921875 21.652344 23.886719 21.195312 25.035156 C 20.554688 22.820312 20.90625 18.417969 18 18.417969 C 15.09375 18.417969 15.445312 22.820312 14.804688 25.035156 C 14.347656 23.886719 14.59375 21.921875 13.683594 20.34375 C 13.050781 19.273438 12.003906 18.070312 10.617188 17.980469 C 10.523438 17.976562 9.675781 17.976562 8.996094 17.980469 Z M 8.996094 17.980469 "/>
<path style=" stroke:none;fill-rule:nonzero;fill:rgb(29.411765%,29.411765%,29.411765%);fill-opacity:1;" d="M 14.164062 29.722656 L 21.835938 29.722656 L 21.195312 25.035156 C 20.554688 22.820312 20.90625 18.585938 18 18.585938 C 15.09375 18.585938 15.445312 22.820312 14.804688 25.035156 Z M 14.164062 29.722656 "/>
<path style=" stroke:none;fill-rule:nonzero;fill:rgb(47.843137%,76.862745%,92.156863%);fill-opacity:1;" d="M 10.042969 16.324219 L 10.042969 18 C 11.777344 17.730469 12.628906 19.128906 13.347656 20.34375 C 14.261719 21.921875 14.347656 23.972656 14.804688 25.117188 C 15.445312 22.90625 15.09375 18.835938 18 18.835938 C 20.90625 18.835938 20.554688 22.90625 21.195312 25.117188 C 21.652344 23.972656 21.738281 21.921875 22.652344 20.34375 C 23.691406 18.722656 24.109375 18 25.957031 18 L 25.957031 16.324219 Z M 10.042969 16.324219 "/>
</g>
</svg>
