<?xml version="1.0" encoding="UTF-8"?>
<svg xmlns="http://www.w3.org/2000/svg" xmlns:xlink="http://www.w3.org/1999/xlink" width="48pt" height="48pt" viewBox="0 0 48 48" version="1.1">
<g id="surface1">
<path style=" stroke:none;fill-rule:evenodd;fill:rgb(78.431373%,53.72549%,21.568627%);fill-opacity:1;" d="M 11.210938 2.847656 L 36.789062 2.847656 C 41.410156 2.847656 45.152344 6.589844 45.152344 11.210938 L 45.152344 36.789062 C 45.152344 41.410156 41.410156 45.152344 36.789062 45.152344 L 11.210938 45.152344 C 6.589844 45.152344 2.847656 41.410156 2.847656 36.789062 L 2.847656 11.210938 C 2.847656 6.589844 6.589844 2.847656 11.210938 2.847656 Z M 11.210938 2.847656 "/>
<path style=" stroke:none;fill-rule:nonzero;fill:rgb(86.666667%,76.862745%,31.372549%);fill-opacity:1;" d="M 25.5 7.578125 L 25.5 22.5 L 40.417969 22.5 C 39.691406 14.582031 33.417969 8.304688 25.5 7.578125 Z M 22.5 7.582031 C 14.582031 8.308594 8.304688 14.582031 7.578125 22.5 L 22.5 22.5 Z M 7.582031 25.5 C 8.308594 33.417969 14.582031 39.695312 22.5 40.421875 L 22.5 25.5 Z M 25.5 25.5 L 25.5 40.417969 C 33.417969 39.691406 39.695312 33.417969 40.421875 25.5 Z M 25.5 25.5 "/>
</g>
</svg>
