<?xml version="1.0" encoding="UTF-8"?>
<svg xmlns="http://www.w3.org/2000/svg" xmlns:xlink="http://www.w3.org/1999/xlink" width="48pt" height="48pt" viewBox="0 0 48 48" version="1.1">
<defs>
<clipPath id="clip1">
  <rect width="48" height="48"/>
</clipPath>
<g id="surface6" clip-path="url(#clip1)">
<path style=" stroke:none;fill-rule:nonzero;fill:rgb(100%,100%,100%);fill-opacity:1;" d="M 17.023438 33.292969 C 15.617188 33.292969 14.640625 33.449219 14.097656 33.761719 C 13.554688 34.074219 13.285156 34.609375 13.285156 35.363281 C 13.285156 35.964844 13.488281 36.445312 13.890625 36.800781 C 14.300781 37.152344 14.855469 37.328125 15.558594 37.328125 C 16.523438 37.328125 17.296875 36.996094 17.878906 36.332031 C 18.464844 35.664062 18.757812 34.773438 18.757812 33.667969 L 18.757812 33.292969 L 17.023438 33.292969 M 20.5 32.589844 L 20.5 38.476562 L 18.757812 38.476562 L 18.757812 36.910156 C 18.363281 37.539062 17.863281 38.003906 17.273438 38.304688 C 16.679688 38.597656 15.953125 38.746094 15.09375 38.746094 C 14.007812 38.746094 13.144531 38.453125 12.5 37.863281 C 11.863281 37.265625 11.542969 36.46875 11.542969 35.476562 C 11.542969 34.316406 11.941406 33.441406 12.738281 32.851562 C 13.539062 32.261719 14.730469 31.964844 16.316406 31.964844 L 18.757812 31.964844 L 18.757812 31.800781 C 18.757812 31.019531 18.492188 30.417969 17.964844 29.996094 C 17.4375 29.566406 16.699219 29.351562 15.746094 29.351562 C 15.140625 29.351562 14.550781 29.421875 13.976562 29.5625 C 13.402344 29.703125 12.851562 29.914062 12.320312 30.199219 L 12.320312 28.632812 C 12.957031 28.390625 13.574219 28.214844 14.175781 28.097656 C 14.777344 27.976562 15.359375 27.914062 15.925781 27.914062 C 17.460938 27.914062 18.605469 28.300781 19.363281 29.074219 C 20.121094 29.847656 20.5 31.019531 20.5 32.59375 M 14.632812 23.390625 L 17.300781 26.835938 L 15.851562 26.835938 L 12.765625 23.390625 L 14.632812 23.390625 "/>
</g>
</defs>
<g id="surface1">
<path style=" stroke:none;fill-rule:evenodd;fill:rgb(0%,77.254902%,92.54902%);fill-opacity:1;" d="M 28.144531 45.152344 L 28.144531 22.96875 C 28.144531 22.386719 27.910156 21.867188 27.53125 21.488281 C 27.152344 21.105469 26.628906 20.871094 26.046875 20.871094 L 3.671875 20.871094 C 3.351562 20.871094 3.121094 21.085938 2.847656 21.214844 L 2.847656 36.789062 C 2.847656 41.421875 6.578125 45.152344 11.210938 45.152344 Z M 28.144531 45.152344 "/>
<path style=" stroke:none;fill-rule:evenodd;fill:rgb(76.078431%,76.078431%,76.078431%);fill-opacity:1;" d="M 28.144531 25.296875 L 28.144531 45.152344 L 36.789062 45.152344 C 41.425781 45.152344 45.152344 41.421875 45.152344 36.789062 L 45.152344 25.285156 C 45.144531 25.285156 45.136719 25.296875 45.128906 25.296875 Z M 28.144531 25.296875 "/>
<path style=" stroke:none;fill-rule:evenodd;fill:rgb(76.078431%,76.078431%,76.078431%);fill-opacity:1;" d="M 23 2.847656 L 11.210938 2.847656 C 6.578125 2.847656 2.847656 6.574219 2.847656 11.210938 L 2.847656 21.214844 C 3.121094 21.085938 3.351562 20.871094 3.671875 20.871094 L 22.90625 20.871094 L 22.90625 3.074219 C 22.90625 2.984375 22.988281 2.933594 23 2.847656 Z M 23 2.847656 "/>
<path style=" stroke:none;fill-rule:evenodd;fill:rgb(84.705882%,85.490196%,86.27451%);fill-opacity:1;" d="M 23 2.847656 C 22.988281 2.933594 22.90625 2.984375 22.90625 3.074219 L 22.90625 20.871094 L 26.046875 20.871094 C 26.628906 20.871094 27.152344 21.105469 27.53125 21.488281 C 27.910156 21.867188 28.144531 22.386719 28.144531 22.96875 L 28.144531 25.296875 L 45.128906 25.296875 C 45.136719 25.296875 45.144531 25.285156 45.152344 25.285156 L 45.152344 11.207031 C 45.152344 6.574219 41.425781 2.847656 36.792969 2.847656 Z M 23 2.847656 "/>
<path style=" stroke:none;fill-rule:nonzero;fill:rgb(61.568627%,61.568627%,61.568627%);fill-opacity:1;" d="M 38.714844 14.222656 L 38.714844 15.011719 L 31.292969 15.011719 C 31.363281 16.125 31.695312 16.972656 32.292969 17.554688 C 32.894531 18.136719 33.730469 18.425781 34.800781 18.425781 C 35.421875 18.425781 36.019531 18.347656 36.601562 18.195312 C 37.183594 18.046875 37.761719 17.816406 38.335938 17.511719 L 38.335938 19.039062 C 37.757812 19.285156 37.164062 19.472656 36.554688 19.601562 C 35.949219 19.730469 35.332031 19.792969 34.703125 19.792969 C 33.136719 19.792969 31.894531 19.335938 30.976562 18.425781 C 30.0625 17.511719 29.605469 16.277344 29.605469 14.722656 C 29.605469 13.113281 30.039062 11.839844 30.90625 10.898438 C 31.777344 9.949219 32.949219 9.476562 34.421875 9.476562 C 35.746094 9.476562 36.789062 9.902344 37.554688 10.757812 C 38.328125 11.605469 38.714844 12.761719 38.714844 14.222656 M 37.097656 13.75 C 37.085938 12.867188 36.839844 12.160156 36.355469 11.632812 C 35.875 11.109375 35.238281 10.84375 34.441406 10.84375 C 33.539062 10.84375 32.816406 11.097656 32.273438 11.609375 C 31.734375 12.117188 31.425781 12.832031 31.34375 13.757812 L 37.097656 13.75 M 35.152344 5.921875 L 36.933594 5.921875 L 36.933594 7.695312 L 35.152344 7.695312 L 35.152344 5.921875 M 31.722656 5.921875 L 33.503906 5.921875 L 33.503906 7.695312 L 31.722656 7.695312 L 31.722656 5.921875 "/>
<use xlink:href="#surface6"/>
</g>
</svg>
