<?xml version="1.0" encoding="UTF-8"?>
<svg xmlns="http://www.w3.org/2000/svg" xmlns:xlink="http://www.w3.org/1999/xlink" width="48pt" height="48pt" viewBox="0 0 48 48" version="1.1">
<g id="surface1">
<path style=" stroke:none;fill-rule:evenodd;fill:rgb(30.980392%,30.980392%,30.980392%);fill-opacity:1;" d="M 11.210938 2.847656 L 36.789062 2.847656 C 41.410156 2.847656 45.152344 6.589844 45.152344 11.210938 L 45.152344 36.789062 C 45.152344 41.410156 41.410156 45.152344 36.789062 45.152344 L 11.210938 45.152344 C 6.589844 45.152344 2.847656 41.410156 2.847656 36.789062 L 2.847656 11.210938 C 2.847656 6.589844 6.589844 2.847656 11.210938 2.847656 Z M 11.210938 2.847656 "/>
<path style=" stroke:none;fill-rule:nonzero;fill:rgb(100%,38.823529%,38.823529%);fill-opacity:1;" d="M 10.5625 30.722656 L 15.394531 30.722656 C 16.546875 30.722656 17.480469 31.601562 17.480469 32.683594 L 17.480469 37.765625 C 17.480469 38.847656 16.546875 39.722656 15.394531 39.722656 L 10.5625 39.722656 C 9.414062 39.722656 8.480469 38.847656 8.480469 37.765625 L 8.480469 32.683594 C 8.480469 31.601562 9.414062 30.722656 10.5625 30.722656 Z M 10.5625 30.722656 "/>
<path style=" stroke:none;fill-rule:nonzero;fill:rgb(100%,38.823529%,38.823529%);fill-opacity:1;" d="M 10.5625 17.222656 L 15.394531 17.222656 C 16.546875 17.222656 17.480469 18.101562 17.480469 19.183594 L 17.480469 24.265625 C 17.480469 25.347656 16.546875 26.222656 15.394531 26.222656 L 10.5625 26.222656 C 9.414062 26.222656 8.480469 25.347656 8.480469 24.265625 L 8.480469 19.183594 C 8.480469 18.101562 9.414062 17.222656 10.5625 17.222656 Z M 10.5625 17.222656 "/>
<path style=" stroke:none;fill-rule:nonzero;fill:rgb(100%,38.823529%,38.823529%);fill-opacity:1;" d="M 24.0625 30.722656 L 28.894531 30.722656 C 30.046875 30.722656 30.980469 31.601562 30.980469 32.683594 L 30.980469 37.765625 C 30.980469 38.847656 30.046875 39.722656 28.894531 39.722656 L 24.0625 39.722656 C 22.914062 39.722656 21.980469 38.847656 21.980469 37.765625 L 21.980469 32.683594 C 21.980469 31.601562 22.914062 30.722656 24.0625 30.722656 Z M 24.0625 30.722656 "/>
<path style=" stroke:none;fill-rule:nonzero;fill:rgb(100%,38.823529%,38.823529%);fill-opacity:1;" d="M 24.0625 17.222656 L 28.894531 17.222656 C 30.046875 17.222656 30.980469 18.101562 30.980469 19.183594 L 30.980469 24.265625 C 30.980469 25.347656 30.046875 26.222656 28.894531 26.222656 L 24.0625 26.222656 C 22.914062 26.222656 21.980469 25.347656 21.980469 24.265625 L 21.980469 19.183594 C 21.980469 18.101562 22.914062 17.222656 24.0625 17.222656 Z M 24.0625 17.222656 "/>
</g>
</svg>
