<?xml version="1.0" encoding="UTF-8"?>
<svg xmlns="http://www.w3.org/2000/svg" xmlns:xlink="http://www.w3.org/1999/xlink" width="48pt" height="48pt" viewBox="0 0 48 48" version="1.1">
<g id="surface1">
<path style=" stroke:none;fill-rule:evenodd;fill:rgb(80%,80%,80%);fill-opacity:1;" d="M 24.285156 2.847656 L 11.210938 2.847656 C 6.574219 2.847656 2.847656 6.574219 2.847656 11.210938 L 2.847656 36.792969 C 2.847656 41.425781 6.574219 45.152344 11.210938 45.152344 L 24.285156 45.152344 Z M 24.285156 2.847656 "/>
<path style=" stroke:none;fill-rule:evenodd;fill:rgb(72.156863%,72.156863%,72.156863%);fill-opacity:1;" d="M 24.285156 2.847656 L 24.285156 45.152344 L 36.789062 45.152344 C 41.425781 45.152344 45.152344 41.425781 45.152344 36.792969 L 45.152344 11.210938 C 45.152344 6.574219 41.425781 2.847656 36.789062 2.847656 Z M 24.285156 2.847656 "/>
<path style=" stroke:none;fill-rule:evenodd;fill:rgb(80%,0%,0%);fill-opacity:1;" d="M 18.285156 2.847656 L 18.285156 19.347656 L 21.285156 17.847656 L 24.285156 19.347656 L 24.285156 2.847656 Z M 18.285156 2.847656 "/>
</g>
</svg>
