<?xml version="1.0" encoding="UTF-8"?>
<svg xmlns="http://www.w3.org/2000/svg" xmlns:xlink="http://www.w3.org/1999/xlink" width="48pt" height="48pt" viewBox="0 0 48 48" version="1.1">
<g id="surface1">
<path style=" stroke:none;fill-rule:evenodd;fill:rgb(76.078431%,20.784314%,16.470588%);fill-opacity:1;" d="M 11.210938 2.847656 L 36.789062 2.847656 C 41.410156 2.847656 45.152344 6.589844 45.152344 11.210938 L 45.152344 36.789062 C 45.152344 41.410156 41.410156 45.152344 36.789062 45.152344 L 11.210938 45.152344 C 6.589844 45.152344 2.847656 41.410156 2.847656 36.789062 L 2.847656 11.210938 C 2.847656 6.589844 6.589844 2.847656 11.210938 2.847656 Z M 11.210938 2.847656 "/>
<path style=" stroke:none;fill-rule:nonzero;fill:rgb(100%,100%,100%);fill-opacity:1;" d="M 24 9.101562 L 9.101562 38.898438 L 14.421875 38.898438 L 14.421875 36.769531 L 15.488281 36.769531 L 15.488281 38.898438 L 17.613281 38.898438 L 17.613281 34.640625 L 18.679688 34.640625 L 18.679688 38.898438 L 20.808594 38.898438 L 20.808594 30.386719 L 21.871094 30.386719 L 21.871094 38.898438 L 24 38.898438 L 24 32.511719 L 25.0625 32.511719 L 25.0625 38.898438 L 27.191406 38.898438 L 27.191406 34.640625 L 28.257812 34.640625 L 28.257812 38.898438 L 30.386719 38.898438 L 30.386719 36.769531 L 31.449219 36.769531 L 31.449219 38.898438 L 33.578125 38.898438 L 33.578125 37.835938 L 34.640625 37.835938 L 34.640625 38.898438 L 38.898438 38.898438 Z M 24 9.101562 "/>
</g>
</svg>
