<?xml version="1.0" encoding="UTF-8"?>
<svg xmlns="http://www.w3.org/2000/svg" xmlns:xlink="http://www.w3.org/1999/xlink" width="48pt" height="48pt" viewBox="0 0 48 48" version="1.1">
<g id="surface1">
<path style=" stroke:none;fill-rule:evenodd;fill:rgb(22.745098%,65.882353%,78.431373%);fill-opacity:1;" d="M 11.210938 2.847656 L 36.789062 2.847656 C 41.410156 2.847656 45.152344 6.589844 45.152344 11.210938 L 45.152344 36.789062 C 45.152344 41.410156 41.410156 45.152344 36.789062 45.152344 L 11.210938 45.152344 C 6.589844 45.152344 2.847656 41.410156 2.847656 36.789062 L 2.847656 11.210938 C 2.847656 6.589844 6.589844 2.847656 11.210938 2.847656 Z M 11.210938 2.847656 "/>
<path style=" stroke:none;fill-rule:nonzero;fill:rgb(100%,100%,100%);fill-opacity:1;" d="M 24 13.472656 C 19.914062 13.472656 16.433594 15.902344 14.933594 19.335938 C 11.128906 19.882812 8.210938 23.027344 8.210938 26.871094 C 8.210938 31.097656 11.746094 34.527344 16.105469 34.527344 L 32.882812 34.527344 C 36.695312 34.527344 39.789062 31.527344 39.789062 27.828125 C 39.789062 24.390625 37.121094 21.570312 33.683594 21.191406 C 32.785156 16.800781 28.789062 13.472656 24 13.472656 Z M 24 13.472656 "/>
<path style="fill:none;stroke-width:3;stroke-linecap:round;stroke-linejoin:round;stroke:rgb(70.588235%,92.941176%,45.490196%);stroke-opacity:1;stroke-miterlimit:4;" d="M 6.499195 9.501598 L 11.000944 23.50044 L 16 13.498616 L 20.999056 23.50044 L 25.500805 9.501598 " transform="matrix(1.052542,0,0,1.052542,7.159322,7.159322)"/>
</g>
</svg>
