<?xml version="1.0" encoding="UTF-8"?>
<svg xmlns="http://www.w3.org/2000/svg" xmlns:xlink="http://www.w3.org/1999/xlink" width="48pt" height="48pt" viewBox="0 0 48 48" version="1.1">
<defs>
<clipPath id="clip1">
  <rect width="48" height="48"/>
</clipPath>
<g id="surface6" clip-path="url(#clip1)">
<path style=" stroke:none;fill-rule:nonzero;fill:rgb(100%,54.509804%,100%);fill-opacity:1;" d="M 22.210938 19.585938 L 27.207031 24.582031 C 27.929688 25.304688 29.101562 25.304688 29.824219 24.582031 C 30.546875 23.859375 30.546875 22.6875 29.824219 21.964844 L 24.828125 16.96875 C 21.253906 13.394531 15.476562 13.335938 11.824219 16.789062 C 11.789062 16.816406 11.757812 16.847656 11.726562 16.878906 C 11.710938 16.894531 11.695312 16.910156 11.679688 16.925781 C 11.664062 16.941406 11.648438 16.953125 11.632812 16.96875 C 11.601562 17 11.574219 17.035156 11.542969 17.066406 C 8.089844 20.71875 8.152344 26.496094 11.726562 30.070312 L 16.722656 35.066406 C 17.445312 35.789062 18.613281 35.789062 19.335938 35.066406 C 20.058594 34.34375 20.058594 33.175781 19.335938 32.453125 L 14.339844 27.457031 C 12.160156 25.277344 12.144531 21.738281 14.296875 19.539062 C 16.496094 17.390625 20.03125 17.40625 22.210938 19.585938 Z M 22.210938 19.585938 "/>
<path style=" stroke:none;fill-rule:nonzero;fill:rgb(100%,54.509804%,100%);fill-opacity:1;" d="M 28.664062 12.933594 C 27.941406 13.65625 27.941406 14.824219 28.664062 15.546875 L 33.660156 20.542969 C 35.839844 22.722656 35.851562 26.261719 33.703125 28.460938 C 31.503906 30.609375 27.96875 30.59375 25.789062 28.414062 L 20.792969 23.417969 C 20.070312 22.695312 18.898438 22.695312 18.175781 23.417969 C 17.453125 24.140625 17.453125 25.3125 18.175781 26.035156 L 23.171875 31.03125 C 26.746094 34.605469 32.523438 34.664062 36.175781 31.210938 C 36.207031 31.183594 36.242188 31.15625 36.273438 31.125 C 36.289062 31.109375 36.304688 31.09375 36.320312 31.078125 C 36.335938 31.0625 36.351562 31.046875 36.367188 31.03125 C 36.398438 31 36.425781 30.964844 36.453125 30.933594 C 39.910156 27.28125 39.851562 21.503906 36.273438 17.929688 L 31.277344 12.933594 C 30.558594 12.210938 29.382812 12.210938 28.664062 12.933594 Z M 28.664062 12.933594 "/>
</g>
</defs>
<g id="surface1">
<path style=" stroke:none;fill-rule:evenodd;fill:rgb(91.372549%,11.764706%,38.823529%);fill-opacity:1;" d="M 11.210938 2.847656 L 36.789062 2.847656 C 41.410156 2.847656 45.152344 6.589844 45.152344 11.210938 L 45.152344 36.789062 C 45.152344 41.410156 41.410156 45.152344 36.789062 45.152344 L 11.210938 45.152344 C 6.589844 45.152344 2.847656 41.410156 2.847656 36.789062 L 2.847656 11.210938 C 2.847656 6.589844 6.589844 2.847656 11.210938 2.847656 Z M 11.210938 2.847656 "/>
<use xlink:href="#surface6"/>
</g>
</svg>
