<?xml version="1.0" encoding="UTF-8"?>
<svg xmlns="http://www.w3.org/2000/svg" xmlns:xlink="http://www.w3.org/1999/xlink" width="48pt" height="48pt" viewBox="0 0 48 48" version="1.1">
<defs>
<filter id="alpha" filterUnits="objectBoundingBox" x="0%" y="0%" width="100%" height="100%">
  <feColorMatrix type="matrix" in="SourceGraphic" values="0 0 0 0 1 0 0 0 0 1 0 0 0 0 1 0 0 0 1 0"/>
</filter>
<mask id="mask0">
  <g filter="url(#alpha)">
<rect x="0" y="0" width="48" height="48" style="fill:rgb(0%,0%,0%);fill-opacity:0.2;stroke:none;"/>
  </g>
</mask>
<clipPath id="clip1">
  <rect width="48" height="48"/>
</clipPath>
<g id="surface6" clip-path="url(#clip1)">
<path style=" stroke:none;fill-rule:nonzero;fill:rgb(100%,100%,100%);fill-opacity:1;" d="M 20.035156 31.570312 L 20.277344 32.648438 L 27.722656 32.648438 L 27.964844 31.570312 Z M 20.519531 33.730469 L 20.761719 34.8125 L 27.238281 34.8125 L 27.480469 33.730469 Z M 21.003906 35.894531 L 21.171875 36.648438 C 21.199219 36.765625 21.242188 36.867188 21.28125 36.976562 L 26.71875 36.976562 C 26.757812 36.867188 26.800781 36.765625 26.828125 36.648438 L 26.996094 35.894531 Z M 21.003906 35.894531 "/>
</g>
</defs>
<g id="surface1">
<path style=" stroke:none;fill-rule:evenodd;fill:rgb(96.078431%,67.058824%,20.784314%);fill-opacity:1;" d="M 11.210938 2.847656 L 36.789062 2.847656 C 41.410156 2.847656 45.152344 6.589844 45.152344 11.210938 L 45.152344 36.789062 C 45.152344 41.410156 41.410156 45.152344 36.789062 45.152344 L 11.210938 45.152344 C 6.589844 45.152344 2.847656 41.410156 2.847656 36.789062 L 2.847656 11.210938 C 2.847656 6.589844 6.589844 2.847656 11.210938 2.847656 Z M 11.210938 2.847656 "/>
<path style=" stroke:none;fill-rule:nonzero;fill:rgb(100%,100%,100%);fill-opacity:1;" d="M 24 9.945312 C 18.925781 9.945312 14.808594 14.066406 14.808594 19.152344 C 14.789062 21.910156 17.226562 24.320312 18.34375 26.945312 C 18.84375 28.117188 19.757812 30.488281 19.757812 30.488281 L 28.242188 30.488281 C 28.242188 30.488281 29.15625 28.113281 29.65625 26.945312 C 30.773438 24.320312 33.140625 21.878906 33.191406 19.152344 C 33.191406 14.066406 29.074219 9.945312 24 9.945312 Z M 24 9.945312 "/>
<path style=" stroke:none;fill-rule:nonzero;fill:rgb(26.27451%,26.27451%,26.27451%);fill-opacity:1;" d="M 28.242188 30.488281 L 26.828125 36.652344 C 26.652344 37.410156 26.195312 38.054688 25.414062 38.054688 L 22.585938 38.054688 C 21.804688 38.054688 21.335938 37.410156 21.171875 36.652344 L 19.757812 30.488281 Z M 28.242188 30.488281 "/>
<use xlink:href="#surface6" mask="url(#mask0)"/>
<path style=" stroke:none;fill-rule:evenodd;fill:rgb(96.078431%,67.058824%,20.784314%);fill-opacity:1;" d="M 25.621094 12.105469 L 20.214844 20.757812 L 23.460938 20.757812 L 23.460938 27.242188 L 28.867188 18.59375 L 25.621094 18.59375 Z M 25.621094 12.105469 "/>
</g>
</svg>
