<?xml version="1.0" encoding="UTF-8"?>
<svg xmlns="http://www.w3.org/2000/svg" xmlns:xlink="http://www.w3.org/1999/xlink" width="48pt" height="48pt" viewBox="0 0 48 48" version="1.1">
<g id="surface1">
<path style=" stroke:none;fill-rule:evenodd;fill:rgb(78.039216%,15.686275%,15.686275%);fill-opacity:1;" d="M 11.210938 2.847656 L 36.789062 2.847656 C 41.410156 2.847656 45.152344 6.589844 45.152344 11.210938 L 45.152344 36.789062 C 45.152344 41.410156 41.410156 45.152344 36.789062 45.152344 L 11.210938 45.152344 C 6.589844 45.152344 2.847656 41.410156 2.847656 36.789062 L 2.847656 11.210938 C 2.847656 6.589844 6.589844 2.847656 11.210938 2.847656 Z M 11.210938 2.847656 "/>
<path style="fill:none;stroke-width:3;stroke-linecap:round;stroke-linejoin:round;stroke:rgb(12.156863%,44.313725%,12.156863%);stroke-opacity:1;stroke-miterlimit:4;" d="M 21.501588 19.501172 C 21.501588 19.501172 18.735135 15.026129 18.498507 12.499784 C 18.213162 9.441026 20.499401 3.500982 20.499401 3.500982 " transform="matrix(1.122545,0,0,1.122545,6.039276,6.050458)"/>
<path style="fill:none;stroke-width:3;stroke-linecap:round;stroke-linejoin:round;stroke:rgb(14.117647%,51.764706%,14.117647%);stroke-opacity:1;stroke-miterlimit:4;" d="M 10.498412 21.498585 C 10.498412 21.498585 10.661964 13.742078 12.499306 10.49889 C 14.249653 7.419254 20.499401 3.500982 20.499401 3.500982 " transform="matrix(1.122545,0,0,1.122545,6.039276,6.050458)"/>
<path style=" stroke:none;fill-rule:nonzero;fill:rgb(100%,100%,100%);fill-opacity:1;" d="M 38.59375 28.5 C 38.59375 32.839844 35.074219 36.359375 30.734375 36.359375 C 26.394531 36.359375 22.878906 32.839844 22.878906 28.5 C 22.878906 24.160156 26.394531 20.644531 30.734375 20.644531 C 35.074219 20.644531 38.59375 24.160156 38.59375 28.5 Z M 38.59375 28.5 "/>
<path style=" stroke:none;fill-rule:nonzero;fill:rgb(100%,21.568627%,21.568627%);fill-opacity:1;" d="M 25.121094 31.867188 C 25.121094 36.207031 21.605469 39.726562 17.265625 39.726562 C 12.925781 39.726562 9.40625 36.207031 9.40625 31.867188 C 9.40625 27.527344 12.925781 24.011719 17.265625 24.011719 C 21.605469 24.011719 25.121094 27.527344 25.121094 31.867188 Z M 25.121094 31.867188 "/>
</g>
</svg>
