<?xml version="1.0" encoding="UTF-8"?>
<svg xmlns="http://www.w3.org/2000/svg" xmlns:xlink="http://www.w3.org/1999/xlink" width="48pt" height="48pt" viewBox="0 0 48 48" version="1.1">
<g id="surface1">
<path style=" stroke:none;fill-rule:evenodd;fill:rgb(80%,80%,80%);fill-opacity:1;" d="M 11.210938 2.847656 L 36.789062 2.847656 C 41.410156 2.847656 45.152344 6.589844 45.152344 11.210938 L 45.152344 36.789062 C 45.152344 41.410156 41.410156 45.152344 36.789062 45.152344 L 11.210938 45.152344 C 6.589844 45.152344 2.847656 41.410156 2.847656 36.789062 L 2.847656 11.210938 C 2.847656 6.589844 6.589844 2.847656 11.210938 2.847656 Z M 11.210938 2.847656 "/>
<path style=" stroke:none;fill-rule:evenodd;fill:rgb(80%,80%,80%);fill-opacity:1;" d="M 10.414062 44.996094 C 9.933594 44.894531 9.453125 44.769531 8.980469 44.625 C 8.5 44.476562 8.023438 44.304688 7.5625 44.109375 C 7.335938 44.003906 7.109375 43.894531 6.886719 43.78125 C 7.945312 44.433594 9.109375 44.867188 10.414062 44.996094 Z M 10.414062 44.996094 "/>
<path style=" stroke:none;fill-rule:evenodd;fill:rgb(80%,80%,80%);fill-opacity:1;" d="M 11.453125 45.152344 C 11.125 45.113281 10.800781 45.066406 10.476562 45.003906 C 10.730469 45.027344 10.949219 45.152344 11.207031 45.152344 Z M 11.453125 45.152344 "/>
<path style=" stroke:none;fill-rule:evenodd;fill:rgb(80%,80%,80%);fill-opacity:1;" d="M 19.519531 16.363281 C 19.472656 16.847656 19.449219 17.328125 19.449219 17.8125 C 19.449219 18.167969 19.460938 18.527344 19.484375 18.882812 C 19.519531 19.382812 19.582031 19.886719 19.667969 20.382812 C 19.753906 20.878906 19.863281 21.371094 19.996094 21.855469 C 20.132812 22.339844 20.289062 22.820312 20.472656 23.289062 C 20.65625 23.757812 20.863281 24.21875 21.089844 24.667969 C 21.320312 25.117188 21.570312 25.554688 21.839844 25.976562 C 22.113281 26.402344 22.40625 26.8125 22.71875 27.207031 C 23.03125 27.597656 23.363281 27.976562 23.714844 28.339844 C 23.71875 28.339844 23.71875 28.339844 23.71875 28.339844 C 24.070312 28.699219 24.4375 29.046875 24.824219 29.371094 C 25.207031 29.695312 25.609375 30 26.023438 30.285156 C 26.441406 30.566406 26.871094 30.832031 27.3125 31.074219 C 27.695312 31.277344 28.085938 31.464844 28.480469 31.636719 C 28.53125 31.15625 28.554688 30.671875 28.554688 30.191406 C 28.554688 29.832031 28.542969 29.476562 28.519531 29.121094 C 28.480469 28.621094 28.421875 28.121094 28.335938 27.625 C 28.335938 27.625 28.335938 27.621094 28.335938 27.621094 C 28.25 27.125 28.140625 26.632812 28.003906 26.148438 C 27.871094 25.664062 27.710938 25.183594 27.527344 24.714844 C 27.34375 24.246094 27.140625 23.785156 26.910156 23.339844 C 26.910156 23.335938 26.910156 23.335938 26.910156 23.335938 C 26.683594 22.886719 26.433594 22.449219 26.160156 22.027344 C 25.886719 21.601562 25.59375 21.191406 25.28125 20.796875 C 24.96875 20.402344 24.636719 20.023438 24.285156 19.664062 C 24.285156 19.664062 24.285156 19.664062 24.285156 19.660156 C 23.933594 19.300781 23.566406 18.957031 23.179688 18.632812 C 23.179688 18.632812 23.179688 18.632812 23.179688 18.628906 C 22.792969 18.304688 22.390625 18.003906 21.976562 17.71875 C 21.558594 17.433594 21.132812 17.171875 20.691406 16.929688 C 20.308594 16.726562 19.917969 16.535156 19.519531 16.363281 Z M 19.519531 16.363281 "/>
<path style=" stroke:none;fill-rule:evenodd;fill:rgb(80%,80%,80%);fill-opacity:1;" d="M 13.601562 15.089844 C 13.550781 15.085938 13.496094 15.085938 13.445312 15.082031 C 13.085938 15.082031 12.730469 15.09375 12.375 15.117188 C 11.875 15.152344 11.375 15.214844 10.878906 15.300781 C 10.382812 15.386719 9.890625 15.496094 9.402344 15.632812 C 8.917969 15.765625 8.4375 15.925781 7.96875 16.105469 C 7.5 16.289062 7.039062 16.496094 6.589844 16.726562 C 6.144531 16.953125 5.707031 17.203125 5.28125 17.476562 C 4.859375 17.746094 4.445312 18.042969 4.050781 18.355469 C 3.65625 18.667969 3.277344 19 2.917969 19.351562 C 2.917969 19.351562 2.917969 19.351562 2.914062 19.351562 C 2.890625 19.375 2.871094 19.398438 2.847656 19.425781 L 2.847656 36.792969 C 2.847656 39.804688 4.511719 42.308594 6.886719 43.78125 C 7.109375 43.894531 7.335938 44.003906 7.5625 44.109375 C 8.023438 44.304688 8.5 44.476562 8.980469 44.625 C 9.453125 44.769531 9.933594 44.894531 10.414062 44.996094 C 10.4375 44.996094 10.457031 45.003906 10.476562 45.003906 C 10.800781 45.066406 11.125 45.113281 11.453125 45.152344 L 15.425781 45.152344 C 15.621094 45.132812 15.816406 45.109375 16.011719 45.082031 C 16.511719 44.996094 17 44.886719 17.488281 44.75 C 17.972656 44.617188 18.449219 44.457031 18.917969 44.273438 C 18.917969 44.273438 18.917969 44.273438 18.917969 44.269531 C 19.390625 44.089844 19.851562 43.886719 20.300781 43.660156 C 20.300781 43.65625 20.300781 43.65625 20.300781 43.65625 C 20.75 43.425781 21.1875 43.175781 21.609375 42.90625 C 22.03125 42.632812 22.441406 42.339844 22.835938 42.027344 C 22.835938 42.023438 22.835938 42.023438 22.835938 42.023438 C 23.230469 41.710938 23.613281 41.378906 23.972656 41.03125 C 24.335938 40.679688 24.679688 40.3125 25.003906 39.925781 C 25.003906 39.925781 25.003906 39.921875 25.003906 39.921875 C 25.328125 39.539062 25.632812 39.136719 25.917969 38.722656 C 26.199219 38.308594 26.457031 37.882812 26.699219 37.445312 C 26.109375 37.210938 25.527344 36.949219 24.960938 36.664062 C 24.332031 36.34375 23.71875 35.996094 23.125 35.613281 C 22.53125 35.230469 21.957031 34.820312 21.402344 34.382812 C 20.851562 33.945312 20.320312 33.480469 19.816406 32.988281 C 19.308594 32.496094 18.828125 31.980469 18.375 31.4375 C 17.921875 30.898438 17.492188 30.339844 17.09375 29.757812 C 16.695312 29.175781 16.328125 28.570312 15.988281 27.953125 C 15.652344 27.335938 15.34375 26.699219 15.070312 26.050781 C 14.796875 25.398438 14.550781 24.734375 14.34375 24.0625 C 14.136719 23.386719 13.960938 22.703125 13.824219 22.011719 C 13.683594 21.320312 13.578125 20.625 13.503906 19.921875 C 13.433594 19.21875 13.398438 18.515625 13.402344 17.808594 C 13.398438 17.3125 13.417969 16.8125 13.453125 16.316406 C 13.492188 15.90625 13.539062 15.496094 13.601562 15.089844 Z M 13.601562 15.089844 "/>
<path style=" stroke:none;fill-rule:evenodd;fill:rgb(48.235294%,76.862745%,31.372549%);fill-opacity:1;" d="M 13.601562 15.089844 C 13.539062 15.496094 13.492188 15.90625 13.453125 16.316406 C 13.417969 16.8125 13.398438 17.3125 13.402344 17.808594 C 13.398438 18.515625 13.433594 19.21875 13.503906 19.921875 C 13.578125 20.625 13.683594 21.320312 13.824219 22.011719 C 13.960938 22.703125 14.136719 23.386719 14.34375 24.0625 C 14.550781 24.734375 14.796875 25.398438 15.070312 26.050781 C 15.34375 26.699219 15.652344 27.335938 15.988281 27.953125 C 16.328125 28.570312 16.695312 29.175781 17.09375 29.757812 C 17.492188 30.339844 17.921875 30.898438 18.375 31.4375 C 18.828125 31.980469 19.308594 32.496094 19.816406 32.988281 C 20.320312 33.480469 20.851562 33.945312 21.402344 34.382812 C 21.957031 34.820312 22.53125 35.230469 23.125 35.613281 C 23.71875 35.996094 24.332031 36.34375 24.960938 36.664062 C 25.527344 36.949219 26.109375 37.210938 26.699219 37.445312 C 26.699219 37.441406 26.703125 37.4375 26.703125 37.433594 C 26.945312 36.992188 27.167969 36.539062 27.363281 36.074219 C 27.558594 35.609375 27.730469 35.136719 27.878906 34.65625 C 28.027344 34.175781 28.152344 33.6875 28.253906 33.191406 C 28.355469 32.699219 28.429688 32.199219 28.480469 31.699219 C 28.480469 31.699219 28.480469 31.695312 28.480469 31.695312 C 28.480469 31.675781 28.480469 31.65625 28.480469 31.636719 C 28.085938 31.464844 27.695312 31.277344 27.3125 31.074219 C 26.871094 30.832031 26.441406 30.566406 26.023438 30.285156 C 25.609375 30 25.207031 29.695312 24.824219 29.371094 C 24.4375 29.046875 24.070312 28.699219 23.71875 28.339844 C 23.71875 28.339844 23.71875 28.339844 23.714844 28.339844 C 23.363281 27.976562 23.03125 27.597656 22.71875 27.207031 C 22.40625 26.8125 22.113281 26.402344 21.839844 25.976562 C 21.570312 25.554688 21.320312 25.117188 21.089844 24.667969 C 20.863281 24.21875 20.65625 23.757812 20.472656 23.289062 C 20.289062 22.820312 20.132812 22.339844 19.996094 21.855469 C 19.863281 21.371094 19.753906 20.878906 19.667969 20.382812 C 19.582031 19.886719 19.519531 19.382812 19.484375 18.882812 C 19.460938 18.527344 19.449219 18.167969 19.449219 17.8125 C 19.449219 17.328125 19.472656 16.847656 19.519531 16.363281 C 19.457031 16.335938 19.394531 16.304688 19.332031 16.273438 C 19.328125 16.273438 19.328125 16.273438 19.328125 16.269531 C 18.863281 16.074219 18.390625 15.902344 17.910156 15.753906 C 17.429688 15.605469 16.941406 15.480469 16.449219 15.378906 C 15.953125 15.277344 15.453125 15.203125 14.953125 15.15625 C 14.953125 15.15625 14.953125 15.152344 14.953125 15.152344 C 14.503906 15.113281 14.054688 15.089844 13.601562 15.089844 Z M 13.601562 15.089844 "/>
<path style=" stroke:none;fill-rule:evenodd;fill:rgb(19.215686%,54.509804%,81.176471%);fill-opacity:1;" d="M 28.378906 45.152344 C 28.457031 45.078125 28.539062 45.003906 28.621094 44.925781 C 29.113281 44.421875 29.578125 43.890625 30.019531 43.339844 C 30.457031 42.785156 30.863281 42.210938 31.246094 41.621094 C 31.628906 41.027344 31.980469 40.414062 32.300781 39.785156 C 32.617188 39.15625 32.90625 38.511719 33.160156 37.855469 C 33.417969 37.195312 33.640625 36.527344 33.828125 35.847656 C 34.019531 35.167969 34.171875 34.480469 34.292969 33.785156 C 34.410156 33.089844 34.496094 32.386719 34.546875 31.683594 C 34.582031 31.1875 34.601562 30.6875 34.597656 30.1875 C 34.597656 29.484375 34.5625 28.777344 34.496094 28.078125 C 34.421875 27.375 34.316406 26.679688 34.175781 25.988281 C 34.039062 25.296875 33.863281 24.613281 33.65625 23.9375 C 33.449219 23.265625 33.203125 22.601562 32.929688 21.949219 C 32.65625 21.300781 32.347656 20.664062 32.011719 20.046875 C 31.671875 19.429688 31.304688 18.824219 30.90625 18.242188 C 30.507812 17.660156 30.078125 17.101562 29.625 16.5625 C 29.171875 16.019531 28.691406 15.503906 28.183594 15.011719 C 27.679688 14.519531 27.148438 14.054688 26.597656 13.617188 C 26.042969 13.179688 25.46875 12.769531 24.875 12.386719 C 24.28125 12.003906 23.667969 11.65625 23.039062 11.335938 C 22.410156 11.015625 21.769531 10.726562 21.113281 10.472656 C 20.453125 10.214844 19.785156 9.992188 19.105469 9.804688 C 18.425781 9.617188 17.734375 9.460938 17.039062 9.34375 C 16.34375 9.222656 15.644531 9.136719 14.941406 9.089844 C 14.441406 9.050781 13.945312 9.03125 13.445312 9.03125 C 12.738281 9.03125 12.035156 9.070312 11.332031 9.140625 C 10.632812 9.210938 9.933594 9.316406 9.242188 9.453125 C 8.550781 9.59375 7.867188 9.769531 7.191406 9.980469 C 6.519531 10.1875 5.855469 10.429688 5.207031 10.707031 C 4.554688 10.980469 3.921875 11.285156 3.300781 11.625 C 3.148438 11.714844 2.996094 11.808594 2.847656 11.902344 L 2.847656 19.425781 C 2.871094 19.398438 2.890625 19.375 2.914062 19.351562 C 2.917969 19.351562 2.917969 19.351562 2.917969 19.351562 C 3.277344 19 3.65625 18.667969 4.050781 18.355469 C 4.445312 18.042969 4.859375 17.746094 5.28125 17.476562 C 5.707031 17.203125 6.144531 16.953125 6.589844 16.726562 C 7.039062 16.496094 7.5 16.289062 7.96875 16.105469 C 8.4375 15.925781 8.917969 15.765625 9.402344 15.632812 C 9.890625 15.496094 10.382812 15.386719 10.878906 15.300781 C 11.375 15.214844 11.875 15.152344 12.375 15.117188 C 12.730469 15.09375 13.085938 15.082031 13.445312 15.082031 C 13.949219 15.082031 14.453125 15.105469 14.953125 15.152344 C 14.953125 15.152344 14.953125 15.15625 14.953125 15.15625 C 15.453125 15.203125 15.953125 15.277344 16.449219 15.378906 C 16.941406 15.480469 17.429688 15.605469 17.910156 15.753906 C 18.390625 15.902344 18.863281 16.074219 19.328125 16.269531 C 19.328125 16.273438 19.328125 16.273438 19.332031 16.273438 C 19.792969 16.46875 20.246094 16.6875 20.691406 16.929688 C 21.132812 17.171875 21.558594 17.433594 21.976562 17.71875 C 22.390625 18.003906 22.792969 18.304688 23.179688 18.628906 C 23.179688 18.632812 23.179688 18.632812 23.179688 18.632812 C 23.566406 18.957031 23.933594 19.300781 24.285156 19.660156 C 24.285156 19.664062 24.285156 19.664062 24.285156 19.664062 C 24.636719 20.023438 24.96875 20.402344 25.28125 20.796875 C 25.59375 21.191406 25.886719 21.601562 26.160156 22.027344 C 26.433594 22.449219 26.683594 22.886719 26.910156 23.335938 C 26.910156 23.335938 26.910156 23.335938 26.910156 23.339844 C 27.140625 23.785156 27.34375 24.246094 27.527344 24.714844 C 27.710938 25.183594 27.871094 25.664062 28.003906 26.148438 C 28.140625 26.632812 28.25 27.125 28.335938 27.621094 C 28.335938 27.621094 28.335938 27.625 28.335938 27.625 C 28.421875 28.121094 28.480469 28.621094 28.519531 29.121094 C 28.542969 29.476562 28.554688 29.832031 28.554688 30.191406 C 28.554688 30.691406 28.53125 31.195312 28.480469 31.695312 C 28.480469 31.695312 28.480469 31.699219 28.480469 31.699219 C 28.429688 32.199219 28.355469 32.699219 28.253906 33.191406 C 28.152344 33.6875 28.027344 34.175781 27.878906 34.65625 C 27.730469 35.136719 27.558594 35.609375 27.363281 36.074219 C 27.167969 36.539062 26.945312 36.992188 26.703125 37.433594 C 26.464844 37.878906 26.199219 38.304688 25.917969 38.722656 C 25.632812 39.136719 25.328125 39.539062 25.003906 39.921875 C 25.003906 39.921875 25.003906 39.925781 25.003906 39.925781 C 24.679688 40.3125 24.335938 40.679688 23.972656 41.03125 C 23.613281 41.378906 23.230469 41.710938 22.835938 42.023438 C 22.835938 42.023438 22.835938 42.023438 22.835938 42.027344 C 22.441406 42.339844 22.03125 42.632812 21.609375 42.90625 C 21.1875 43.175781 20.75 43.425781 20.300781 43.65625 C 20.300781 43.65625 20.300781 43.65625 20.300781 43.660156 C 19.851562 43.886719 19.390625 44.089844 18.917969 44.269531 C 18.917969 44.273438 18.917969 44.273438 18.917969 44.273438 C 18.449219 44.457031 17.972656 44.617188 17.488281 44.75 C 17 44.886719 16.511719 44.996094 16.011719 45.082031 C 15.816406 45.109375 15.621094 45.132812 15.425781 45.152344 Z M 28.378906 45.152344 "/>
<path style=" stroke:none;fill-rule:evenodd;fill:rgb(80%,80%,80%);fill-opacity:1;" d="M 38.699219 3.230469 C 38.84375 3.265625 38.988281 3.304688 39.132812 3.34375 C 39.613281 3.492188 40.085938 3.664062 40.550781 3.863281 C 40.550781 3.859375 40.550781 3.859375 40.550781 3.863281 C 40.589844 3.878906 40.625 3.894531 40.660156 3.914062 C 40.046875 3.585938 39.390625 3.398438 38.699219 3.230469 Z M 38.699219 3.230469 "/>
<path style=" stroke:none;fill-rule:evenodd;fill:rgb(80%,80%,80%);fill-opacity:1;" d="M 34.402344 32.875 C 34.492188 32.878906 34.578125 32.882812 34.667969 32.886719 C 35.023438 32.886719 35.378906 32.875 35.738281 32.851562 C 36.238281 32.816406 36.738281 32.753906 37.238281 32.667969 C 37.734375 32.582031 38.222656 32.472656 38.710938 32.339844 C 39.195312 32.203125 39.671875 32.042969 40.144531 31.859375 C 40.613281 31.679688 41.074219 31.472656 41.523438 31.246094 C 41.972656 31.015625 42.410156 30.765625 42.832031 30.492188 C 43.253906 30.21875 43.664062 29.925781 44.058594 29.613281 C 44.4375 29.3125 44.804688 28.992188 45.152344 28.65625 L 45.152344 11.207031 C 45.152344 8 43.300781 5.316406 40.660156 3.914062 C 40.625 3.894531 40.589844 3.878906 40.550781 3.863281 C 40.085938 3.664062 39.613281 3.492188 39.132812 3.34375 C 38.988281 3.304688 38.84375 3.265625 38.699219 3.230469 C 38.066406 3.082031 37.46875 2.847656 36.792969 2.847656 L 32.433594 2.847656 C 32.324219 2.859375 32.210938 2.875 32.101562 2.886719 C 31.605469 2.972656 31.113281 3.085938 30.628906 3.21875 C 30.625 3.21875 30.625 3.21875 30.625 3.21875 C 30.140625 3.355469 29.660156 3.511719 29.191406 3.695312 C 28.722656 3.878906 28.261719 4.082031 27.816406 4.3125 C 27.367188 4.539062 26.929688 4.789062 26.503906 5.0625 C 26.078125 5.335938 25.667969 5.628906 25.273438 5.941406 C 24.878906 6.253906 24.5 6.585938 24.140625 6.9375 C 24.140625 6.9375 24.140625 6.941406 24.136719 6.941406 C 23.777344 7.292969 23.433594 7.660156 23.109375 8.042969 C 22.785156 8.429688 22.480469 8.832031 22.195312 9.246094 C 21.910156 9.660156 21.648438 10.089844 21.40625 10.53125 C 21.40625 10.535156 21.40625 10.535156 21.40625 10.535156 C 21.398438 10.554688 21.390625 10.570312 21.378906 10.589844 C 21.945312 10.816406 22.496094 11.0625 23.039062 11.335938 C 23.667969 11.65625 24.28125 12.003906 24.875 12.386719 C 25.46875 12.769531 26.042969 13.179688 26.597656 13.617188 C 27.148438 14.054688 27.679688 14.519531 28.183594 15.011719 C 28.691406 15.503906 29.171875 16.019531 29.625 16.5625 C 30.078125 17.101562 30.507812 17.660156 30.90625 18.242188 C 31.304688 18.824219 31.671875 19.429688 32.011719 20.046875 C 32.347656 20.664062 32.65625 21.300781 32.929688 21.949219 C 33.203125 22.601562 33.449219 23.265625 33.65625 23.9375 C 33.863281 24.613281 34.039062 25.296875 34.175781 25.988281 C 34.316406 26.679688 34.421875 27.375 34.496094 28.078125 C 34.5625 28.777344 34.597656 29.484375 34.597656 30.1875 C 34.601562 30.6875 34.582031 31.1875 34.546875 31.683594 C 34.511719 32.082031 34.460938 32.480469 34.402344 32.875 Z M 34.402344 32.875 "/>
<path style=" stroke:none;fill-rule:evenodd;fill:rgb(80%,80%,80%);fill-opacity:1;" d="M 32.726562 38.828125 C 32.59375 39.148438 32.449219 39.46875 32.300781 39.785156 C 31.980469 40.414062 31.628906 41.027344 31.246094 41.621094 C 30.863281 42.210938 30.457031 42.785156 30.019531 43.339844 C 29.578125 43.890625 29.113281 44.421875 28.621094 44.925781 C 28.539062 45.003906 28.457031 45.078125 28.378906 45.152344 L 36.792969 45.152344 C 41.425781 45.152344 45.152344 41.425781 45.152344 36.792969 L 45.152344 36.132812 C 45.039062 36.203125 44.925781 36.273438 44.808594 36.34375 C 44.191406 36.679688 43.554688 36.988281 42.90625 37.261719 C 42.253906 37.539062 41.59375 37.78125 40.917969 37.988281 C 40.246094 38.195312 39.558594 38.371094 38.867188 38.511719 C 38.175781 38.652344 37.480469 38.757812 36.777344 38.828125 C 36.078125 38.898438 35.371094 38.933594 34.667969 38.933594 C 34.167969 38.933594 33.667969 38.914062 33.167969 38.878906 C 33.023438 38.863281 32.875 38.847656 32.726562 38.828125 Z M 32.726562 38.828125 "/>
<path style=" stroke:none;fill-rule:evenodd;fill:rgb(48.235294%,76.862745%,31.372549%);fill-opacity:1;" d="M 32.726562 38.828125 C 32.875 38.847656 33.023438 38.863281 33.167969 38.878906 C 33.667969 38.914062 34.167969 38.933594 34.667969 38.933594 C 35.371094 38.933594 36.078125 38.898438 36.777344 38.828125 C 37.480469 38.757812 38.175781 38.652344 38.867188 38.511719 C 39.558594 38.371094 40.246094 38.195312 40.917969 37.988281 C 41.59375 37.78125 42.253906 37.539062 42.90625 37.261719 C 43.554688 36.988281 44.191406 36.679688 44.808594 36.34375 C 44.925781 36.273438 45.039062 36.203125 45.152344 36.132812 L 45.152344 28.65625 C 44.804688 28.992188 44.4375 29.3125 44.058594 29.613281 C 43.664062 29.925781 43.253906 30.21875 42.832031 30.492188 C 42.410156 30.765625 41.972656 31.015625 41.523438 31.246094 C 41.074219 31.472656 40.613281 31.679688 40.144531 31.859375 C 39.671875 32.042969 39.195312 32.203125 38.710938 32.339844 C 38.222656 32.472656 37.734375 32.582031 37.238281 32.667969 C 36.738281 32.753906 36.238281 32.816406 35.738281 32.851562 C 35.378906 32.875 35.023438 32.886719 34.667969 32.886719 C 34.578125 32.882812 34.492188 32.878906 34.402344 32.875 C 34.371094 33.179688 34.335938 33.480469 34.292969 33.785156 C 34.171875 34.480469 34.019531 35.167969 33.828125 35.847656 C 33.640625 36.527344 33.417969 37.195312 33.160156 37.855469 C 33.023438 38.183594 32.878906 38.507812 32.726562 38.828125 Z M 32.726562 38.828125 "/>
<path style=" stroke:none;fill-rule:evenodd;fill:rgb(80%,80%,80%);fill-opacity:1;" d="M 19.695312 2.847656 L 11.207031 2.847656 C 6.574219 2.847656 2.847656 6.574219 2.847656 11.207031 L 2.847656 11.902344 C 2.996094 11.808594 3.148438 11.714844 3.300781 11.625 C 3.921875 11.285156 4.554688 10.980469 5.207031 10.707031 C 5.855469 10.429688 6.519531 10.1875 7.191406 9.980469 C 7.867188 9.769531 8.550781 9.59375 9.242188 9.453125 C 9.933594 9.316406 10.632812 9.210938 11.332031 9.140625 C 12.035156 9.070312 12.738281 9.03125 13.445312 9.03125 C 13.945312 9.03125 14.441406 9.050781 14.941406 9.089844 C 15.089844 9.105469 15.238281 9.121094 15.382812 9.140625 C 15.519531 8.816406 15.660156 8.5 15.8125 8.183594 C 16.132812 7.554688 16.484375 6.941406 16.867188 6.347656 C 17.246094 5.753906 17.65625 5.179688 18.09375 4.628906 C 18.53125 4.074219 19 3.542969 19.492188 3.039062 C 19.558594 2.972656 19.628906 2.910156 19.695312 2.847656 Z M 19.695312 2.847656 "/>
<path style=" stroke:none;fill-rule:evenodd;fill:rgb(48.235294%,76.862745%,31.372549%);fill-opacity:1;" d="M 19.695312 2.847656 C 19.628906 2.910156 19.558594 2.972656 19.492188 3.039062 C 19 3.542969 18.53125 4.074219 18.09375 4.628906 C 17.65625 5.179688 17.246094 5.753906 16.867188 6.347656 C 16.484375 6.941406 16.132812 7.554688 15.8125 8.183594 C 15.660156 8.5 15.519531 8.816406 15.382812 9.140625 C 15.9375 9.1875 16.488281 9.253906 17.039062 9.34375 C 17.734375 9.460938 18.425781 9.617188 19.105469 9.804688 C 19.785156 9.992188 20.453125 10.214844 21.113281 10.472656 C 21.203125 10.511719 21.292969 10.550781 21.378906 10.589844 C 21.390625 10.570312 21.398438 10.554688 21.40625 10.535156 C 21.40625 10.535156 21.40625 10.535156 21.40625 10.53125 C 21.648438 10.089844 21.910156 9.660156 22.195312 9.246094 C 22.480469 8.832031 22.785156 8.429688 23.109375 8.042969 C 23.433594 7.660156 23.777344 7.292969 24.136719 6.941406 C 24.136719 6.9375 24.140625 6.9375 24.140625 6.9375 C 24.5 6.585938 24.878906 6.253906 25.273438 5.941406 C 25.667969 5.628906 26.078125 5.335938 26.503906 5.0625 C 26.929688 4.789062 27.367188 4.539062 27.816406 4.3125 C 28.261719 4.082031 28.722656 3.878906 29.191406 3.695312 C 29.660156 3.511719 30.140625 3.355469 30.625 3.21875 C 30.625 3.21875 30.625 3.21875 30.628906 3.21875 C 31.113281 3.085938 31.605469 2.972656 32.101562 2.886719 C 32.210938 2.875 32.324219 2.859375 32.433594 2.847656 Z M 19.695312 2.847656 "/>
</g>
</svg>
