<?xml version="1.0" encoding="UTF-8"?>
<svg xmlns="http://www.w3.org/2000/svg" xmlns:xlink="http://www.w3.org/1999/xlink" width="48pt" height="48pt" viewBox="0 0 48 48" version="1.1">
<g id="surface1">
<path style=" stroke:none;fill-rule:evenodd;fill:rgb(20%,61.176471%,20%);fill-opacity:1;" d="M 42.191406 43.054688 L 17.089844 33.359375 L 5.601562 42.917969 C 7.085938 44.273438 9.027344 45.152344 11.207031 45.152344 L 36.789062 45.152344 C 38.882812 45.152344 40.726562 44.3125 42.191406 43.054688 Z M 42.191406 43.054688 "/>
<path style=" stroke:none;fill-rule:evenodd;fill:rgb(80%,80%,80%);fill-opacity:1;" d="M 44.886719 37.917969 C 44.949219 37.527344 45.152344 37.199219 45.152344 36.789062 L 45.152344 11.210938 C 45.152344 6.574219 41.425781 2.847656 36.789062 2.847656 L 25.179688 2.847656 Z M 44.886719 37.917969 "/>
<path style=" stroke:none;fill-rule:evenodd;fill:rgb(100%,100%,100%);fill-opacity:1;" d="M 17.109375 33.367188 L 29.511719 38.15625 L 27.824219 24.464844 Z M 17.109375 33.367188 "/>
<path style=" stroke:none;fill-rule:evenodd;fill:rgb(80%,80%,80%);fill-opacity:1;" d="M 25.117188 2.847656 L 11.207031 2.847656 C 6.574219 2.847656 2.847656 6.574219 2.847656 11.210938 L 2.847656 36.789062 C 2.847656 38.558594 3.542969 40.066406 4.484375 41.402344 Z M 25.117188 2.847656 "/>
<path style=" stroke:none;fill-rule:evenodd;fill:rgb(29.019608%,52.54902%,84.705882%);fill-opacity:1;" d="M 25.117188 2.847656 L 4.484375 41.402344 C 4.847656 41.917969 5.136719 42.492188 5.601562 42.917969 L 17.089844 33.359375 L 17.109375 33.367188 L 27.824219 24.464844 L 25.152344 2.847656 Z M 25.117188 2.847656 "/>
<path style=" stroke:none;fill-rule:evenodd;fill:rgb(86.666667%,23.529412%,23.921569%);fill-opacity:1;" d="M 25.152344 2.847656 L 29.511719 38.15625 L 42.191406 43.054688 C 43.683594 41.769531 44.582031 39.949219 44.886719 37.917969 L 25.179688 2.847656 Z M 25.152344 2.847656 "/>
</g>
</svg>
