<?xml version="1.0" encoding="UTF-8"?>
<svg xmlns="http://www.w3.org/2000/svg" xmlns:xlink="http://www.w3.org/1999/xlink" width="48pt" height="48pt" viewBox="0 0 48 48" version="1.1">
<g id="surface1">
<path style=" stroke:none;fill-rule:evenodd;fill:rgb(80%,80%,80%);fill-opacity:1;" d="M 11.210938 2.847656 L 36.789062 2.847656 C 41.410156 2.847656 45.152344 6.589844 45.152344 11.210938 L 45.152344 36.789062 C 45.152344 41.410156 41.410156 45.152344 36.789062 45.152344 L 11.210938 45.152344 C 6.589844 45.152344 2.847656 41.410156 2.847656 36.789062 L 2.847656 11.210938 C 2.847656 6.589844 6.589844 2.847656 11.210938 2.847656 Z M 11.210938 2.847656 "/>
<path style=" stroke:none;fill-rule:nonzero;fill:rgb(30.196078%,30.196078%,30.196078%);fill-opacity:1;" d="M 16.5 10.5 L 16.5 16.5 L 10.5 16.5 L 10.5 19.5 L 16.5 19.5 L 16.5 28.5 L 10.5 28.5 L 10.5 31.5 L 16.5 31.5 L 16.5 37.5 L 33 25.5 L 37.5 25.5 L 37.5 22.5 L 33 22.5 Z M 18 18 L 24 18 L 24 21 L 18 21 Z M 19.5 25.5 L 22.5 25.5 L 22.5 27 L 24 27 L 24 30 L 22.5 30 L 22.5 31.5 L 19.5 31.5 L 19.5 30 L 18 30 L 18 27 L 19.5 27 Z M 19.5 25.5 "/>
</g>
</svg>
