<?xml version="1.0" encoding="UTF-8"?>
<svg xmlns="http://www.w3.org/2000/svg" xmlns:xlink="http://www.w3.org/1999/xlink" width="48pt" height="48pt" viewBox="0 0 48 48" version="1.1">
<defs>
<filter id="alpha" filterUnits="objectBoundingBox" x="0%" y="0%" width="100%" height="100%">
  <feColorMatrix type="matrix" in="SourceGraphic" values="0 0 0 0 1 0 0 0 0 1 0 0 0 0 1 0 0 0 1 0"/>
</filter>
<mask id="mask0">
  <g filter="url(#alpha)">
<rect x="0" y="0" width="48" height="48" style="fill:rgb(0%,0%,0%);fill-opacity:0.988235;stroke:none;"/>
  </g>
</mask>
<clipPath id="clip1">
  <rect width="48" height="48"/>
</clipPath>
<g id="surface6" clip-path="url(#clip1)">
<path style=" stroke:none;fill-rule:nonzero;fill:rgb(40%,33.333333%,89.411765%);fill-opacity:1;" d="M 37.554688 45 C 38.417969 44.917969 39.285156 44.824219 40.050781 44.5 C 41.054688 44.078125 41.953125 43.464844 42.710938 42.707031 C 43.464844 41.953125 44.078125 41.054688 44.5 40.050781 C 44.824219 39.285156 44.917969 38.417969 45 37.550781 L 45 24 L 24 24 L 24 45 Z M 37.554688 45 "/>
</g>
</defs>
<g id="surface1">
<path style=" stroke:none;fill-rule:nonzero;fill:rgb(81.176471%,30.980392%,54.901961%);fill-opacity:1;" d="M 45 10.453125 C 44.917969 9.585938 44.820312 8.71875 44.496094 7.949219 C 44.074219 6.945312 43.460938 6.046875 42.707031 5.289062 C 41.949219 4.535156 41.050781 3.921875 40.050781 3.5 C 39.28125 3.175781 38.414062 3.082031 37.550781 3 L 24 3 L 24 24 L 45 24 Z M 45 10.453125 "/>
<path style=" stroke:none;fill-rule:nonzero;fill:rgb(12.941176%,84.313725%,53.72549%);fill-opacity:1;" d="M 10.449219 3 C 9.582031 3.082031 8.714844 3.175781 7.949219 3.5 C 6.945312 3.921875 6.046875 4.535156 5.292969 5.292969 C 4.535156 6.046875 3.921875 6.945312 3.5 7.949219 C 3.175781 8.714844 3.082031 9.582031 3 10.449219 L 3 24 L 24 24 L 24 3 Z M 10.449219 3 "/>
<use xlink:href="#surface6" mask="url(#mask0)"/>
<path style=" stroke:none;fill-rule:nonzero;fill:rgb(12.54902%,52.54902%,90.588235%);fill-opacity:1;" d="M 3 37.546875 C 3.082031 38.414062 3.179688 39.28125 3.503906 40.050781 C 3.925781 41.054688 4.539062 41.953125 5.292969 42.710938 C 6.050781 43.464844 6.949219 44.078125 7.949219 44.5 C 8.71875 44.824219 9.585938 44.917969 10.449219 45 L 24 45 L 24 24 L 3 24 Z M 3 37.546875 "/>
<path style=" stroke:none;fill-rule:evenodd;fill:rgb(24.705882%,24.705882%,24.705882%);fill-opacity:1;" d="M 14.285156 7.933594 L 33.714844 7.933594 C 37.222656 7.933594 40.066406 10.777344 40.066406 14.285156 L 40.066406 33.714844 C 40.066406 37.222656 37.222656 40.066406 33.714844 40.066406 L 14.285156 40.066406 C 10.777344 40.066406 7.933594 37.222656 7.933594 33.714844 L 7.933594 14.285156 C 7.933594 10.777344 10.777344 7.933594 14.285156 7.933594 Z M 14.285156 7.933594 "/>
<path style="fill:none;stroke-width:2;stroke-linecap:round;stroke-linejoin:miter;stroke:rgb(100%,100%,100%);stroke-opacity:1;stroke-miterlimit:4;" d="M -29.645059 21.645108 L -21.644487 21.645108 " transform="matrix(1.271393,0,0,1.271393,53.424908,5.390709)"/>
<path style="fill:none;stroke-width:2;stroke-linecap:round;stroke-linejoin:bevel;stroke:rgb(100%,100%,100%);stroke-opacity:1;stroke-miterlimit:4;" d="M -29.629697 15.650824 C -29.629697 15.650824 -25.586397 16.001079 -25.629411 11.650537 C -25.672425 7.299996 -29.629697 7.650251 -29.629697 7.650251 M -29.645059 15.644679 L -29.645059 7.644106 " transform="matrix(1.271393,0,0,1.271393,53.424908,5.390709)"/>
<path style="fill:none;stroke-width:2;stroke-linecap:round;stroke-linejoin:bevel;stroke:rgb(100%,100%,100%);stroke-opacity:1;stroke-miterlimit:4;" d="M -18.642736 12.642928 L -16.642593 12.642928 M -17.644201 12.642928 C -17.644201 12.642928 -17.152614 15.644679 -19.644344 15.644679 C -21.644487 15.644679 -21.644487 13.644536 -21.644487 11.644392 C -21.644487 9.644249 -21.644487 7.644106 -19.644344 7.644106 C -17.644201 7.644106 -17.650345 8.642642 -17.650345 8.642642 " transform="matrix(1.271393,0,0,1.271393,53.424908,5.390709)"/>
</g>
</svg>
