<?xml version="1.0" encoding="UTF-8"?>
<svg xmlns="http://www.w3.org/2000/svg" xmlns:xlink="http://www.w3.org/1999/xlink" width="48pt" height="48pt" viewBox="0 0 48 48" version="1.1">
<g id="surface1">
<path style=" stroke:none;fill-rule:evenodd;fill:rgb(80%,80%,80%);fill-opacity:1;" d="M 11.210938 2.847656 C 6.578125 2.847656 2.847656 6.578125 2.847656 11.210938 L 2.847656 36.789062 C 2.847656 40.742188 5.621094 43.886719 9.296875 44.769531 L 9.296875 27.796875 C 9.296875 25.570312 9.664062 23.445312 10.355469 21.515625 C 11.042969 19.585938 12.054688 17.84375 13.347656 16.386719 C 14.640625 14.925781 16.210938 13.746094 18.015625 12.929688 C 19.820312 12.113281 21.855469 11.660156 24.085938 11.660156 C 26.3125 11.660156 28.351562 12.113281 30.15625 12.929688 C 31.960938 13.746094 33.53125 14.925781 34.824219 16.386719 C 36.113281 17.84375 37.128906 19.585938 37.820312 21.515625 C 38.507812 23.445312 38.875 25.570312 38.875 27.796875 L 38.875 44.734375 C 42.464844 43.792969 45.152344 40.683594 45.152344 36.789062 L 45.152344 11.210938 C 45.152344 6.578125 41.425781 2.847656 36.792969 2.847656 Z M 11.210938 2.847656 "/>
<path style=" stroke:none;fill-rule:nonzero;fill:rgb(42.745098%,29.803922%,25.490196%);fill-opacity:1;" d="M 21.398438 19.054688 C 21.398438 22.398438 18.6875 25.105469 15.347656 25.105469 C 12.003906 25.105469 9.296875 22.398438 9.296875 19.054688 C 9.296875 15.714844 12.003906 13.003906 15.347656 13.003906 C 18.6875 13.003906 21.398438 15.714844 21.398438 19.054688 Z M 21.398438 19.054688 "/>
<path style=" stroke:none;fill-rule:nonzero;fill:rgb(42.745098%,29.803922%,25.490196%);fill-opacity:1;" d="M 38.875 19.054688 C 38.875 22.398438 36.167969 25.105469 32.824219 25.105469 C 29.484375 25.105469 26.773438 22.398438 26.773438 19.054688 C 26.773438 15.714844 29.484375 13.003906 32.824219 13.003906 C 36.167969 13.003906 38.875 15.714844 38.875 19.054688 Z M 38.875 19.054688 "/>
<path style=" stroke:none;fill-rule:evenodd;fill:rgb(63.137255%,53.333333%,49.803922%);fill-opacity:1;" d="M 38.875 44.734375 L 38.875 27.796875 C 38.875 25.570312 38.507812 23.445312 37.820312 21.515625 C 37.128906 19.585938 36.113281 17.84375 34.824219 16.386719 C 33.53125 14.925781 31.960938 13.746094 30.15625 12.929688 C 28.351562 12.113281 26.3125 11.660156 24.085938 11.660156 C 21.855469 11.660156 19.820312 12.113281 18.015625 12.929688 C 16.210938 13.746094 14.640625 14.925781 13.347656 16.386719 C 12.054688 17.84375 11.042969 19.585938 10.355469 21.515625 C 9.664062 23.445312 9.296875 25.570312 9.296875 27.796875 L 9.296875 44.769531 C 9.929688 44.921875 10.53125 45.152344 11.210938 45.152344 L 36.792969 45.152344 C 37.53125 45.152344 38.195312 44.914062 38.875 44.734375 Z M 38.875 44.734375 "/>
<path style=" stroke:none;fill-rule:nonzero;fill:rgb(100%,100%,100%);fill-opacity:1;" d="M 20.050781 31.828125 L 24.085938 31.828125 L 24.085938 37.207031 L 20.050781 37.207031 Z M 20.050781 31.828125 "/>
<path style=" stroke:none;fill-rule:nonzero;fill:rgb(94.901961%,94.901961%,94.901961%);fill-opacity:1;" d="M 24.085938 31.15625 L 28.121094 31.15625 L 28.121094 37.207031 L 24.085938 37.207031 Z M 24.085938 31.15625 "/>
<path style=" stroke:none;fill-rule:nonzero;fill:rgb(42.745098%,29.803922%,25.490196%);fill-opacity:1;" d="M 20.1875 27.59375 C 18.332031 27.539062 17.363281 30.644531 17.363281 32.5 C 17.363281 34.359375 18.867188 35.863281 20.722656 35.863281 C 22.4375 35.863281 24.0625 34.371094 24.0625 34.371094 L 24.109375 34.371094 C 24.109375 34.371094 25.738281 35.859375 27.449219 35.863281 C 29.304688 35.863281 30.808594 34.359375 30.808594 32.5 C 30.808594 30.644531 29.898438 27.890625 28.042969 27.832031 Z M 20.1875 27.59375 "/>
<path style=" stroke:none;fill-rule:nonzero;fill:rgb(24.313725%,15.294118%,13.72549%);fill-opacity:1;" d="M 27.953125 27.460938 C 28.347656 29.199219 25.757812 31.15625 24.085938 31.15625 C 22.414062 31.15625 19.738281 29.21875 20.136719 27.460938 C 20.441406 26.113281 22.414062 26.199219 24.085938 26.199219 C 25.757812 26.199219 27.652344 26.136719 27.953125 27.460938 Z M 27.953125 27.460938 "/>
<path style=" stroke:none;fill-rule:nonzero;fill:rgb(99.607843%,99.607843%,99.607843%);fill-opacity:1;" d="M 20.054688 23.046875 C 20.054688 24.902344 18.550781 26.40625 16.695312 26.40625 C 14.839844 26.40625 13.332031 24.902344 13.332031 23.046875 C 13.332031 21.191406 14.839844 19.683594 16.695312 19.683594 C 18.550781 19.683594 20.054688 21.191406 20.054688 23.046875 Z M 20.054688 23.046875 "/>
<path style=" stroke:none;fill-rule:nonzero;fill:rgb(20%,20%,20%);fill-opacity:1;" d="M 14.679688 22.371094 C 14.679688 23.113281 15.28125 23.714844 16.023438 23.714844 C 16.765625 23.714844 17.367188 23.113281 17.367188 22.371094 C 17.367188 21.628906 16.765625 21.023438 16.023438 21.023438 C 15.28125 21.023438 14.679688 21.628906 14.679688 22.371094 Z M 14.679688 22.371094 "/>
<path style=" stroke:none;fill-rule:nonzero;fill:rgb(99.607843%,99.607843%,99.607843%);fill-opacity:1;" d="M 34.847656 23.046875 C 34.847656 24.902344 33.339844 26.40625 31.484375 26.40625 C 29.628906 26.40625 28.125 24.902344 28.125 23.046875 C 28.125 21.191406 29.628906 19.683594 31.484375 19.683594 C 33.339844 19.683594 34.847656 21.191406 34.847656 23.046875 Z M 34.847656 23.046875 "/>
<path style=" stroke:none;fill-rule:nonzero;fill:rgb(20%,20%,20%);fill-opacity:1;" d="M 29.46875 22.371094 C 29.46875 23.113281 30.070312 23.714844 30.8125 23.714844 C 31.554688 23.714844 32.15625 23.113281 32.15625 22.371094 C 32.15625 21.628906 31.554688 21.023438 30.8125 21.023438 C 30.070312 21.023438 29.46875 21.628906 29.46875 22.371094 Z M 29.46875 22.371094 "/>
</g>
</svg>
