<?xml version="1.0" encoding="UTF-8"?>
<svg xmlns="http://www.w3.org/2000/svg" xmlns:xlink="http://www.w3.org/1999/xlink" width="48pt" height="48pt" viewBox="0 0 48 48" version="1.1">
<g id="surface1">
<path style=" stroke:none;fill-rule:evenodd;fill:rgb(92.54902%,92.54902%,92.54902%);fill-opacity:1;" d="M 11.210938 2.847656 L 36.789062 2.847656 C 41.410156 2.847656 45.152344 6.589844 45.152344 11.210938 L 45.152344 36.789062 C 45.152344 41.410156 41.410156 45.152344 36.789062 45.152344 L 11.210938 45.152344 C 6.589844 45.152344 2.847656 41.410156 2.847656 36.789062 L 2.847656 11.210938 C 2.847656 6.589844 6.589844 2.847656 11.210938 2.847656 Z M 11.210938 2.847656 "/>
<path style=" stroke:none;fill-rule:nonzero;fill:rgb(70.196078%,70.196078%,70.196078%);fill-opacity:1;" d="M 10.382812 10.894531 L 37.617188 10.894531 L 37.617188 15.890625 L 10.382812 15.890625 Z M 10.382812 10.894531 "/>
<path style=" stroke:none;fill-rule:nonzero;fill:rgb(70.196078%,70.196078%,70.196078%);fill-opacity:1;" d="M 10.382812 18.304688 L 37.617188 18.304688 L 37.617188 23.304688 L 10.382812 23.304688 Z M 10.382812 18.304688 "/>
<path style=" stroke:none;fill-rule:nonzero;fill:rgb(70.196078%,70.196078%,70.196078%);fill-opacity:1;" d="M 10.382812 25.71875 L 37.617188 25.71875 L 37.617188 30.714844 L 10.382812 30.714844 Z M 10.382812 25.71875 "/>
<path style=" stroke:none;fill-rule:nonzero;fill:rgb(70.196078%,70.196078%,70.196078%);fill-opacity:1;" d="M 10.382812 33.128906 L 37.617188 33.128906 L 37.617188 38.128906 L 10.382812 38.128906 Z M 10.382812 33.128906 "/>
<path style=" stroke:none;fill-rule:nonzero;fill:rgb(100%,93.333333%,66.666667%);fill-opacity:1;" d="M 23.441406 31.375 L 31.90625 17.027344 C 34.570312 15.4375 39.492188 16.394531 39.464844 21.375 L 31.046875 36.039062 L 23.804688 39.75 Z M 23.441406 31.375 "/>
<path style=" stroke:none;fill-rule:nonzero;fill:rgb(18.823529%,1.960784%,1.176471%);fill-opacity:1;" d="M 23.683594 36.941406 L 23.804688 39.75 L 26.316406 38.460938 Z M 23.683594 36.941406 "/>
<path style=" stroke:none;fill-rule:nonzero;fill:rgb(100%,90.196078%,50.588235%);fill-opacity:1;" d="M 28.742188 34.464844 L 25.703125 38.109375 L 26.300781 38.453125 L 31.046875 36.039062 L 31.140625 35.863281 Z M 28.742188 34.464844 "/>
<path style=" stroke:none;fill-rule:nonzero;fill:rgb(20%,20%,20%);fill-opacity:1;" d="M 38.460938 23.121094 L 30.882812 18.765625 L 23.441406 31.375 L 31.144531 35.867188 Z M 38.460938 23.121094 "/>
<path style=" stroke:none;fill-rule:nonzero;fill:rgb(89.019608%,88.627451%,85.882353%);fill-opacity:1;" d="M 39.460938 21.367188 L 31.925781 17.019531 C 31.917969 17.023438 31.910156 17.027344 31.90625 17.027344 L 30.882812 18.761719 L 38.460938 23.121094 L 39.464844 21.375 C 39.464844 21.371094 39.460938 21.371094 39.460938 21.367188 Z M 39.460938 21.367188 "/>
<path style=" stroke:none;fill-rule:nonzero;fill:rgb(100%,0%,0%);fill-opacity:1;" d="M 34.214844 16.335938 C 33.386719 16.390625 32.585938 16.628906 31.925781 17.019531 L 39.460938 21.367188 C 39.480469 17.640625 36.71875 16.167969 34.214844 16.335938 Z M 34.214844 16.335938 "/>
<path style=" stroke:none;fill-rule:nonzero;fill:rgb(10.196078%,10.196078%,10.196078%);fill-opacity:1;" d="M 35.988281 21.699219 L 28.742188 34.464844 L 31.144531 35.867188 L 38.460938 23.121094 Z M 35.988281 21.699219 "/>
<path style=" stroke:none;fill-rule:nonzero;fill:rgb(20%,20%,20%);fill-opacity:1;" d="M 33.234375 20.117188 L 25.90625 32.8125 L 28.742188 34.464844 L 35.988281 21.699219 Z M 33.234375 20.117188 "/>
<path style=" stroke:none;fill-rule:nonzero;fill:rgb(80%,80%,80%);fill-opacity:1;" d="M 32.902344 19.925781 L 25.574219 32.617188 L 25.90625 32.8125 L 33.234375 20.117188 Z M 32.902344 19.925781 "/>
</g>
</svg>
