<?xml version="1.0" encoding="UTF-8"?>
<svg xmlns="http://www.w3.org/2000/svg" xmlns:xlink="http://www.w3.org/1999/xlink" width="48pt" height="48pt" viewBox="0 0 48 48" version="1.1">
<g id="surface1">
<path style=" stroke:none;fill-rule:evenodd;fill:rgb(0%,32.941176%,100%);fill-opacity:1;" d="M 11.207031 2.847656 C 6.574219 2.847656 2.847656 6.574219 2.847656 11.207031 L 2.847656 24.582031 L 45.152344 24.582031 L 45.152344 11.207031 C 45.152344 6.574219 41.425781 2.847656 36.789062 2.847656 Z M 11.207031 2.847656 "/>
<path style=" stroke:none;fill-rule:nonzero;fill:rgb(90.196078%,90.196078%,90.196078%);fill-opacity:1;" d="M 10.660156 10.195312 L 37.347656 10.195312 L 37.347656 26.179688 L 10.660156 26.179688 Z M 10.660156 10.195312 "/>
<path style=" stroke:none;fill-rule:nonzero;fill:rgb(50.196078%,50.196078%,50.196078%);fill-opacity:1;" d="M 13.332031 16.589844 L 20 16.589844 L 20 21.386719 L 13.332031 21.386719 Z M 13.332031 16.589844 "/>
<path style=" stroke:none;fill-rule:nonzero;fill:rgb(50.196078%,50.196078%,50.196078%);fill-opacity:1;" d="M 28.007812 16.589844 L 34.675781 16.589844 L 34.675781 21.386719 L 28.007812 21.386719 Z M 28.007812 16.589844 "/>
<path style=" stroke:none;fill-rule:evenodd;fill:rgb(30.196078%,30.196078%,30.196078%);fill-opacity:1;" d="M 45.152344 24.582031 L 2.847656 24.582031 L 2.847656 36.789062 C 2.847656 41.425781 6.574219 45.152344 11.207031 45.152344 L 36.789062 45.152344 C 41.425781 45.152344 45.152344 41.425781 45.152344 36.789062 Z M 45.152344 24.582031 "/>
<path style=" stroke:none;fill-rule:nonzero;fill:rgb(50.196078%,50.196078%,50.196078%);fill-opacity:1;" d="M 12.8125 30.976562 L 35.195312 30.976562 C 36.078125 30.976562 36.792969 31.691406 36.792969 32.574219 C 36.792969 33.457031 36.078125 34.175781 35.195312 34.175781 L 12.8125 34.175781 C 11.929688 34.175781 11.214844 33.457031 11.214844 32.574219 C 11.214844 31.691406 11.929688 30.976562 12.8125 30.976562 Z M 12.8125 30.976562 "/>
<path style=" stroke:none;fill-rule:nonzero;fill:rgb(50.196078%,50.196078%,50.196078%);fill-opacity:1;" d="M 16.011719 37.371094 L 31.996094 37.371094 C 32.878906 37.371094 33.59375 38.085938 33.59375 38.96875 C 33.59375 39.851562 32.878906 40.570312 31.996094 40.570312 L 16.011719 40.570312 C 15.128906 40.570312 14.414062 39.851562 14.414062 38.96875 C 14.414062 38.085938 15.128906 37.371094 16.011719 37.371094 Z M 16.011719 37.371094 "/>
</g>
</svg>
