<?xml version="1.0" encoding="UTF-8"?>
<svg xmlns="http://www.w3.org/2000/svg" xmlns:xlink="http://www.w3.org/1999/xlink" width="48pt" height="48pt" viewBox="0 0 48 48" version="1.1">
<g id="surface1">
<path style=" stroke:none;fill-rule:evenodd;fill:rgb(91.372549%,68.235294%,33.333333%);fill-opacity:1;" d="M 11.210938 2.847656 L 36.789062 2.847656 C 41.410156 2.847656 45.152344 6.589844 45.152344 11.210938 L 45.152344 36.789062 C 45.152344 41.410156 41.410156 45.152344 36.789062 45.152344 L 11.210938 45.152344 C 6.589844 45.152344 2.847656 41.410156 2.847656 36.789062 L 2.847656 11.210938 C 2.847656 6.589844 6.589844 2.847656 11.210938 2.847656 Z M 11.210938 2.847656 "/>
<path style=" stroke:none;fill-rule:nonzero;fill:rgb(100%,100%,100%);fill-opacity:1;" d="M 21.261719 14.25 C 21.261719 14.25 18.292969 14.183594 15.148438 16.496094 C 12 18.808594 10.5 23.59375 10.5 30.488281 C 10.5 30.488281 13.835938 33.597656 18.664062 33.75 C 18.664062 33.75 19.472656 32.796875 20.128906 31.976562 C 17.355469 31.15625 16.304688 28.699219 16.304688 28.699219 C 18.859375 30.128906 20.597656 30.726562 23.25 30.75 C 25.902344 30.726562 29.140625 30.128906 31.695312 28.699219 C 31.695312 28.699219 30.644531 31.15625 27.871094 31.976562 C 28.527344 32.796875 29.335938 33.75 29.335938 33.75 C 34.164062 33.597656 37.5 30.488281 37.5 30.488281 C 37.5 23.59375 36 18.808594 32.851562 16.496094 C 29.707031 14.183594 26.734375 14.25 26.734375 14.25 L 26.515625 14.507812 C 30.449219 15.609375 32.242188 18.066406 32.242188 18.066406 C 32.242188 18.066406 31.761719 17.808594 30.953125 17.464844 C 28.5 16.285156 25.5 15.75 23.25 15.75 C 21 15.75 19.5 16.285156 17.046875 17.464844 C 16.238281 17.808594 15.757812 18.066406 15.757812 18.066406 C 15.757812 18.066406 17.550781 15.609375 21.484375 14.507812 Z M 20.25 23.25 C 21.507812 23.25 22.523438 24.253906 22.5 25.5 C 22.5 26.746094 21.507812 27.75 20.25 27.75 C 19.015625 27.75 18 26.746094 18 25.5 C 18 24.253906 18.992188 23.25 20.25 23.25 Z M 27.75 23.25 C 29.007812 23.25 30 24.253906 30 25.5 C 30 26.746094 28.984375 27.75 27.75 27.75 C 26.492188 27.75 25.5 26.746094 25.5 25.5 C 25.476562 24.253906 26.492188 23.25 27.75 23.25 Z M 27.75 23.25 "/>
</g>
</svg>
