<?xml version="1.0" encoding="UTF-8"?>
<svg xmlns="http://www.w3.org/2000/svg" xmlns:xlink="http://www.w3.org/1999/xlink" width="48pt" height="48pt" viewBox="0 0 48 48" version="1.1">
<g id="surface1">
<path style=" stroke:none;fill-rule:evenodd;fill:rgb(38.039216%,69.019608%,86.666667%);fill-opacity:1;" d="M 11.210938 2.847656 L 36.789062 2.847656 C 41.410156 2.847656 45.152344 6.589844 45.152344 11.210938 L 45.152344 36.789062 C 45.152344 41.410156 41.410156 45.152344 36.789062 45.152344 L 11.210938 45.152344 C 6.589844 45.152344 2.847656 41.410156 2.847656 36.789062 L 2.847656 11.210938 C 2.847656 6.589844 6.589844 2.847656 11.210938 2.847656 Z M 11.210938 2.847656 "/>
<path style=" stroke:none;fill-rule:evenodd;fill:rgb(90.980392%,59.607843%,0%);fill-opacity:1;" d="M 31.039062 45.152344 L 36.792969 45.152344 C 41.425781 45.152344 45.152344 41.425781 45.152344 36.792969 L 45.152344 11.207031 C 45.152344 6.574219 41.425781 2.847656 36.792969 2.847656 L 31.039062 2.847656 Z M 31.039062 45.152344 "/>
<path style=" stroke:none;fill-rule:evenodd;fill:rgb(74.117647%,10.980392%,10.980392%);fill-opacity:1;" d="M 16.960938 2.847656 L 11.207031 2.847656 C 6.574219 2.847656 2.847656 6.574219 2.847656 11.207031 L 2.847656 36.792969 C 2.847656 41.425781 6.574219 45.152344 11.207031 45.152344 L 16.960938 45.152344 Z M 16.960938 2.847656 "/>
<path style=" stroke:none;fill-rule:evenodd;fill:rgb(89.803922%,89.803922%,89.803922%);fill-opacity:1;" d="M 6.953125 7.332031 L 12.75 7.332031 C 13.476562 7.332031 14.066406 7.921875 14.066406 8.648438 L 14.066406 27.097656 C 14.066406 27.824219 13.476562 28.414062 12.75 28.414062 L 6.953125 28.414062 C 6.222656 28.414062 5.632812 27.824219 5.632812 27.097656 L 5.632812 8.648438 C 5.632812 7.921875 6.222656 7.332031 6.953125 7.332031 Z M 6.953125 7.332031 "/>
<path style=" stroke:none;fill-rule:evenodd;fill:rgb(89.803922%,89.803922%,89.803922%);fill-opacity:1;" d="M 13.472656 37.042969 C 13.472656 39.046875 11.851562 40.667969 9.851562 40.667969 C 7.847656 40.667969 6.226562 39.046875 6.226562 37.042969 C 6.226562 35.042969 7.847656 33.421875 9.851562 33.421875 C 11.851562 33.421875 13.472656 35.042969 13.472656 37.042969 Z M 13.472656 37.042969 "/>
<path style=" stroke:none;fill-rule:evenodd;fill:rgb(34.509804%,34.509804%,34.509804%);fill-opacity:1;" d="M 12.304688 37.042969 C 12.304688 38.398438 11.207031 39.496094 9.851562 39.496094 C 8.496094 39.496094 7.398438 38.398438 7.398438 37.042969 C 7.398438 35.6875 8.496094 34.589844 9.851562 34.589844 C 11.207031 34.589844 12.304688 35.6875 12.304688 37.042969 Z M 12.304688 37.042969 "/>
<path style=" stroke:none;fill-rule:evenodd;fill:rgb(34.509804%,34.509804%,34.509804%);fill-opacity:1;" d="M 8.164062 8.96875 L 11.535156 8.96875 C 12.046875 8.96875 12.460938 9.382812 12.460938 9.890625 L 12.460938 11.492188 C 12.460938 12.003906 12.046875 12.414062 11.535156 12.414062 L 8.164062 12.414062 C 7.65625 12.414062 7.242188 12.003906 7.242188 11.492188 L 7.242188 9.890625 C 7.242188 9.382812 7.65625 8.96875 8.164062 8.96875 Z M 8.164062 8.96875 "/>
<path style=" stroke:none;fill-rule:evenodd;fill:rgb(34.509804%,34.509804%,34.509804%);fill-opacity:1;" d="M 7.601562 21.164062 L 12.097656 21.164062 C 12.296875 21.164062 12.460938 21.328125 12.460938 21.527344 L 12.460938 22.15625 C 12.460938 22.355469 12.296875 22.515625 12.097656 22.515625 L 7.601562 22.515625 C 7.402344 22.515625 7.242188 22.355469 7.242188 22.15625 L 7.242188 21.527344 C 7.242188 21.328125 7.402344 21.164062 7.601562 21.164062 Z M 7.601562 21.164062 "/>
<path style=" stroke:none;fill-rule:evenodd;fill:rgb(34.509804%,34.509804%,34.509804%);fill-opacity:1;" d="M 7.601562 23.332031 L 12.097656 23.332031 C 12.296875 23.332031 12.460938 23.492188 12.460938 23.695312 L 12.460938 24.320312 C 12.460938 24.519531 12.296875 24.683594 12.097656 24.683594 L 7.601562 24.683594 C 7.402344 24.683594 7.242188 24.519531 7.242188 24.320312 L 7.242188 23.695312 C 7.242188 23.492188 7.402344 23.332031 7.601562 23.332031 Z M 7.601562 23.332031 "/>
<path style=" stroke:none;fill-rule:evenodd;fill:rgb(34.509804%,34.509804%,34.509804%);fill-opacity:1;" d="M 7.601562 25.429688 L 12.097656 25.429688 C 12.296875 25.429688 12.460938 25.589844 12.460938 25.789062 L 12.460938 26.417969 C 12.460938 26.617188 12.296875 26.777344 12.097656 26.777344 L 7.601562 26.777344 C 7.402344 26.777344 7.242188 26.617188 7.242188 26.417969 L 7.242188 25.789062 C 7.242188 25.589844 7.402344 25.429688 7.601562 25.429688 Z M 7.601562 25.429688 "/>
<path style=" stroke:none;fill-rule:evenodd;fill:rgb(89.803922%,89.803922%,89.803922%);fill-opacity:1;" d="M 21.101562 7.332031 L 26.898438 7.332031 C 27.625 7.332031 28.214844 7.921875 28.214844 8.648438 L 28.214844 27.097656 C 28.214844 27.824219 27.625 28.414062 26.898438 28.414062 L 21.101562 28.414062 C 20.375 28.414062 19.785156 27.824219 19.785156 27.097656 L 19.785156 8.648438 C 19.785156 7.921875 20.375 7.332031 21.101562 7.332031 Z M 21.101562 7.332031 "/>
<path style=" stroke:none;fill-rule:evenodd;fill:rgb(89.803922%,89.803922%,89.803922%);fill-opacity:1;" d="M 27.625 37.042969 C 27.625 39.046875 26 40.667969 24 40.667969 C 22 40.667969 20.375 39.046875 20.375 37.042969 C 20.375 35.042969 22 33.421875 24 33.421875 C 26 33.421875 27.625 35.042969 27.625 37.042969 Z M 27.625 37.042969 "/>
<path style=" stroke:none;fill-rule:evenodd;fill:rgb(34.509804%,34.509804%,34.509804%);fill-opacity:1;" d="M 26.453125 37.042969 C 26.453125 38.398438 25.355469 39.496094 24 39.496094 C 22.644531 39.496094 21.546875 38.398438 21.546875 37.042969 C 21.546875 35.6875 22.644531 34.589844 24 34.589844 C 25.355469 34.589844 26.453125 35.6875 26.453125 37.042969 Z M 26.453125 37.042969 "/>
<path style=" stroke:none;fill-rule:evenodd;fill:rgb(34.509804%,34.509804%,34.509804%);fill-opacity:1;" d="M 22.3125 8.96875 L 25.6875 8.96875 C 26.195312 8.96875 26.609375 9.382812 26.609375 9.890625 L 26.609375 11.492188 C 26.609375 12.003906 26.195312 12.414062 25.6875 12.414062 L 22.3125 12.414062 C 21.804688 12.414062 21.390625 12.003906 21.390625 11.492188 L 21.390625 9.890625 C 21.390625 9.382812 21.804688 8.96875 22.3125 8.96875 Z M 22.3125 8.96875 "/>
<path style=" stroke:none;fill-rule:evenodd;fill:rgb(34.509804%,34.509804%,34.509804%);fill-opacity:1;" d="M 21.753906 21.164062 L 26.246094 21.164062 C 26.445312 21.164062 26.609375 21.328125 26.609375 21.527344 L 26.609375 22.15625 C 26.609375 22.355469 26.445312 22.515625 26.246094 22.515625 L 21.753906 22.515625 C 21.554688 22.515625 21.390625 22.355469 21.390625 22.15625 L 21.390625 21.527344 C 21.390625 21.328125 21.554688 21.164062 21.753906 21.164062 Z M 21.753906 21.164062 "/>
<path style=" stroke:none;fill-rule:evenodd;fill:rgb(34.509804%,34.509804%,34.509804%);fill-opacity:1;" d="M 21.753906 23.332031 L 26.246094 23.332031 C 26.445312 23.332031 26.609375 23.492188 26.609375 23.695312 L 26.609375 24.320312 C 26.609375 24.519531 26.445312 24.683594 26.246094 24.683594 L 21.753906 24.683594 C 21.554688 24.683594 21.390625 24.519531 21.390625 24.320312 L 21.390625 23.695312 C 21.390625 23.492188 21.554688 23.332031 21.753906 23.332031 Z M 21.753906 23.332031 "/>
<path style=" stroke:none;fill-rule:evenodd;fill:rgb(34.509804%,34.509804%,34.509804%);fill-opacity:1;" d="M 21.753906 25.429688 L 26.246094 25.429688 C 26.445312 25.429688 26.609375 25.589844 26.609375 25.789062 L 26.609375 26.417969 C 26.609375 26.617188 26.445312 26.777344 26.246094 26.777344 L 21.753906 26.777344 C 21.554688 26.777344 21.390625 26.617188 21.390625 26.417969 L 21.390625 25.789062 C 21.390625 25.589844 21.554688 25.429688 21.753906 25.429688 Z M 21.753906 25.429688 "/>
<path style=" stroke:none;fill-rule:evenodd;fill:rgb(89.803922%,89.803922%,89.803922%);fill-opacity:1;" d="M 35.25 7.332031 L 41.046875 7.332031 C 41.777344 7.332031 42.367188 7.921875 42.367188 8.648438 L 42.367188 27.097656 C 42.367188 27.824219 41.777344 28.414062 41.046875 28.414062 L 35.25 28.414062 C 34.523438 28.414062 33.933594 27.824219 33.933594 27.097656 L 33.933594 8.648438 C 33.933594 7.921875 34.523438 7.332031 35.25 7.332031 Z M 35.25 7.332031 "/>
<path style=" stroke:none;fill-rule:evenodd;fill:rgb(89.803922%,89.803922%,89.803922%);fill-opacity:1;" d="M 41.773438 37.042969 C 41.773438 39.046875 40.152344 40.667969 38.148438 40.667969 C 36.148438 40.667969 34.527344 39.046875 34.527344 37.042969 C 34.527344 35.042969 36.148438 33.421875 38.148438 33.421875 C 40.152344 33.421875 41.773438 35.042969 41.773438 37.042969 Z M 41.773438 37.042969 "/>
<path style=" stroke:none;fill-rule:evenodd;fill:rgb(34.509804%,34.509804%,34.509804%);fill-opacity:1;" d="M 40.601562 37.042969 C 40.601562 38.398438 39.503906 39.496094 38.148438 39.496094 C 36.792969 39.496094 35.695312 38.398438 35.695312 37.042969 C 35.695312 35.6875 36.792969 34.589844 38.148438 34.589844 C 39.503906 34.589844 40.601562 35.6875 40.601562 37.042969 Z M 40.601562 37.042969 "/>
<path style=" stroke:none;fill-rule:evenodd;fill:rgb(34.509804%,34.509804%,34.509804%);fill-opacity:1;" d="M 36.464844 8.96875 L 39.835938 8.96875 C 40.34375 8.96875 40.757812 9.382812 40.757812 9.890625 L 40.757812 11.492188 C 40.757812 12.003906 40.34375 12.414062 39.835938 12.414062 L 36.464844 12.414062 C 35.953125 12.414062 35.539062 12.003906 35.539062 11.492188 L 35.539062 9.890625 C 35.539062 9.382812 35.953125 8.96875 36.464844 8.96875 Z M 36.464844 8.96875 "/>
<path style=" stroke:none;fill-rule:evenodd;fill:rgb(34.509804%,34.509804%,34.509804%);fill-opacity:1;" d="M 35.902344 21.164062 L 40.398438 21.164062 C 40.597656 21.164062 40.757812 21.328125 40.757812 21.527344 L 40.757812 22.15625 C 40.757812 22.355469 40.597656 22.515625 40.398438 22.515625 L 35.902344 22.515625 C 35.703125 22.515625 35.539062 22.355469 35.539062 22.15625 L 35.539062 21.527344 C 35.539062 21.328125 35.703125 21.164062 35.902344 21.164062 Z M 35.902344 21.164062 "/>
<path style=" stroke:none;fill-rule:evenodd;fill:rgb(34.509804%,34.509804%,34.509804%);fill-opacity:1;" d="M 35.902344 23.332031 L 40.398438 23.332031 C 40.597656 23.332031 40.757812 23.492188 40.757812 23.695312 L 40.757812 24.320312 C 40.757812 24.519531 40.597656 24.683594 40.398438 24.683594 L 35.902344 24.683594 C 35.703125 24.683594 35.539062 24.519531 35.539062 24.320312 L 35.539062 23.695312 C 35.539062 23.492188 35.703125 23.332031 35.902344 23.332031 Z M 35.902344 23.332031 "/>
<path style=" stroke:none;fill-rule:evenodd;fill:rgb(34.509804%,34.509804%,34.509804%);fill-opacity:1;" d="M 35.902344 25.429688 L 40.398438 25.429688 C 40.597656 25.429688 40.757812 25.589844 40.757812 25.789062 L 40.757812 26.417969 C 40.757812 26.617188 40.597656 26.777344 40.398438 26.777344 L 35.902344 26.777344 C 35.703125 26.777344 35.539062 26.617188 35.539062 26.417969 L 35.539062 25.789062 C 35.539062 25.589844 35.703125 25.429688 35.902344 25.429688 Z M 35.902344 25.429688 "/>
</g>
</svg>
