<?xml version="1.0" encoding="UTF-8"?>
<svg xmlns="http://www.w3.org/2000/svg" xmlns:xlink="http://www.w3.org/1999/xlink" width="48pt" height="48pt" viewBox="0 0 48 48" version="1.1">
<g id="surface1">
<path style=" stroke:none;fill-rule:evenodd;fill:rgb(53.333333%,2.745098%,8.627451%);fill-opacity:1;" d="M 11.210938 2.847656 L 36.789062 2.847656 C 41.410156 2.847656 45.152344 6.589844 45.152344 11.210938 L 45.152344 36.789062 C 45.152344 41.410156 41.410156 45.152344 36.789062 45.152344 L 11.210938 45.152344 C 6.589844 45.152344 2.847656 41.410156 2.847656 36.789062 L 2.847656 11.210938 C 2.847656 6.589844 6.589844 2.847656 11.210938 2.847656 Z M 11.210938 2.847656 "/>
<path style=" stroke:none;fill-rule:nonzero;fill:rgb(93.333333%,11.764706%,7.843137%);fill-opacity:1;" d="M 26.914062 9.285156 C 22.300781 12.257812 16.734375 18.789062 16.6875 19.261719 C 16.128906 18.90625 13.492188 18.21875 10.695312 17.9375 C 12.589844 19.265625 13.445312 22.167969 12.945312 23.785156 C 9.605469 34.527344 18.898438 38.839844 24.277344 38.519531 C 29.660156 38.199219 39.492188 35.859375 36.867188 22.519531 C 36.347656 23.660156 34.683594 24.167969 34.066406 22.882812 C 30.164062 14.734375 24.742188 18.863281 26.914062 9.285156 Z M 26.914062 9.285156 "/>
<path style=" stroke:none;fill-rule:nonzero;fill:rgb(95.294118%,56.470588%,9.803922%);fill-opacity:1;" d="M 25.691406 12.0625 C 23.464844 14.109375 21.292969 17.285156 21.34375 19.039062 C 21.375 20.054688 21.347656 25.050781 21.050781 24.273438 C 19.160156 22.273438 16.984375 20.605469 14.1875 19.679688 C 16.082031 21.011719 16.605469 22.542969 16.097656 24.160156 C 12.625 35.21875 18.328125 38.378906 24.53125 38.492188 C 25.003906 38.503906 38.550781 37.816406 34.75 25.691406 C 35.050781 28.511719 31.53125 29.992188 31.394531 28.238281 C 30.726562 19.457031 22.605469 21.296875 25.691406 12.0625 Z M 25.691406 12.0625 "/>
<path style=" stroke:none;fill-rule:nonzero;fill:rgb(95.294118%,70.196078%,14.901961%);fill-opacity:1;" d="M 23.941406 38.40625 C 18.8125 37.859375 17.753906 33.828125 20.019531 29.933594 C 21.003906 28.238281 22.777344 26.6875 23.5 25.015625 C 24.5 22.714844 23.859375 20.328125 22.164062 17.621094 C 31.957031 26.542969 34.019531 38.53125 23.941406 38.40625 Z M 23.941406 38.40625 "/>
<path style=" stroke:none;fill-rule:nonzero;fill:rgb(100%,100%,49.411765%);fill-opacity:1;" d="M 25.136719 38.410156 C 28.175781 37.714844 28.800781 35.25 27.460938 33.105469 C 26.875 32.171875 25.824219 31.382812 25.398438 30.445312 C 24.804688 29.152344 25.183594 27.695312 26.1875 25.96875 C 20.390625 31.964844 19.167969 39.214844 25.136719 38.410156 Z M 25.136719 38.410156 "/>
</g>
</svg>
