<?xml version="1.0" encoding="UTF-8"?>
<svg xmlns="http://www.w3.org/2000/svg" xmlns:xlink="http://www.w3.org/1999/xlink" width="48pt" height="48pt" viewBox="0 0 48 48" version="1.1">
<g id="surface1">
<path style=" stroke:none;fill-rule:evenodd;fill:rgb(49.411765%,76.078431%,25.882353%);fill-opacity:1;" d="M 11.210938 2.847656 L 36.789062 2.847656 C 41.410156 2.847656 45.152344 6.589844 45.152344 11.210938 L 45.152344 36.789062 C 45.152344 41.410156 41.410156 45.152344 36.789062 45.152344 L 11.210938 45.152344 C 6.589844 45.152344 2.847656 41.410156 2.847656 36.789062 L 2.847656 11.210938 C 2.847656 6.589844 6.589844 2.847656 11.210938 2.847656 Z M 11.210938 2.847656 "/>
<path style=" stroke:none;fill-rule:nonzero;fill:rgb(75.294118%,100%,53.333333%);fill-opacity:1;" d="M 34.480469 37.972656 L 34.480469 22.835938 L 39.136719 22.835938 L 39.136719 10.378906 C 39.136719 9.539062 38.460938 8.863281 37.621094 8.863281 L 10.378906 8.863281 C 9.539062 8.863281 8.863281 9.539062 8.863281 10.378906 L 8.863281 22.835938 L 13.519531 22.835938 L 13.519531 37.972656 C 13.519531 38.8125 13.847656 39.136719 14.683594 39.136719 L 33.316406 39.136719 C 34.152344 39.136719 34.480469 38.8125 34.480469 37.972656 Z M 34.480469 37.972656 "/>
</g>
</svg>
