<?xml version="1.0" encoding="UTF-8"?>
<svg xmlns="http://www.w3.org/2000/svg" xmlns:xlink="http://www.w3.org/1999/xlink" width="48pt" height="48pt" viewBox="0 0 48 48" version="1.1">
<defs>
<clipPath id="clip1">
  <rect width="48" height="48"/>
</clipPath>
<g id="surface6" clip-path="url(#clip1)">
<path style=" stroke:none;fill-rule:nonzero;fill:rgb(100%,100%,100%);fill-opacity:1;" d="M 15.804688 36.289062 C 15.804688 36.289062 17.414062 36.757812 19.558594 37.023438 C 20.425781 37.132812 23.726562 37.507812 26.257812 37.5 C 26.257812 37.5 29.339844 37.503906 31.042969 37.261719 C 32.824219 37.007812 33.832031 36.6875 34.390625 36.042969 C 34.40625 35.886719 34.664062 35.386719 33.972656 34.90625 C 32.203125 33.671875 29.914062 33.332031 25.472656 32.277344 C 20.558594 31.042969 19.089844 29.859375 18.355469 29.003906 C 17.660156 28.144531 18.488281 26.363281 22.445312 25.488281 C 24.449219 25 31.914062 24.914062 31.914062 24.914062 C 29.773438 23.210938 25.753906 20.167969 24.929688 19.519531 C 24.210938 18.953125 23.046875 18.082031 22.925781 17.300781 C 22.753906 16.542969 23.949219 16.179688 24.582031 16.136719 C 26.617188 15.996094 29.394531 16.234375 31.867188 16.726562 C 33.109375 16.972656 33.324219 16.9375 33.324219 16.9375 C 35.09375 17.019531 36.46875 16.09375 36.398438 14.144531 C 36.386719 12.164062 34.40625 10.578125 32.214844 10.507812 C 30.152344 10.441406 25.070312 10.800781 25.070312 10.800781 C 30.996094 12.023438 31.964844 12.335938 32.273438 13.046875 C 32.457031 13.46875 31.96875 13.886719 30.335938 13.808594 C 28.558594 13.71875 24.917969 13.289062 24.917969 13.289062 C 21.449219 12.753906 19.035156 12.25 17.980469 13.625 C 17.292969 14.523438 18.082031 15.617188 18.390625 16.261719 C 19.765625 18.664062 22.144531 20.3125 23.652344 21.472656 C 24.222656 21.90625 25.957031 22.875 25.957031 22.875 C 20.566406 21.402344 16.269531 22.230469 13.546875 23.660156 C 10.417969 25.515625 10.953125 28.640625 15.917969 31.5625 C 18.851562 33.289062 20.3125 34.121094 25.117188 34.710938 C 27.925781 35.15625 28.34375 35.339844 28.320312 35.574219 C 28.292969 35.902344 25 36.027344 24.09375 36.089844 C 21.789062 36.25 15.835938 36.289062 15.804688 36.289062 Z M 15.804688 36.289062 "/>
</g>
</defs>
<g id="surface1">
<path style=" stroke:none;fill-rule:evenodd;fill:rgb(45.882353%,44.705882%,72.156863%);fill-opacity:0.992157;" d="M 11.210938 2.847656 L 36.789062 2.847656 C 41.410156 2.847656 45.152344 6.589844 45.152344 11.210938 L 45.152344 36.789062 C 45.152344 41.410156 41.410156 45.152344 36.789062 45.152344 L 11.210938 45.152344 C 6.589844 45.152344 2.847656 41.410156 2.847656 36.789062 L 2.847656 11.210938 C 2.847656 6.589844 6.589844 2.847656 11.210938 2.847656 Z M 11.210938 2.847656 "/>
<use xlink:href="#surface6"/>
</g>
</svg>
