<?xml version="1.0" encoding="UTF-8"?>
<svg xmlns="http://www.w3.org/2000/svg" xmlns:xlink="http://www.w3.org/1999/xlink" width="48pt" height="48pt" viewBox="0 0 48 48" version="1.1">
<g id="surface1">
<path style=" stroke:none;fill-rule:evenodd;fill:rgb(79.607843%,65.098039%,2.352941%);fill-opacity:1;" d="M 11.210938 2.847656 L 36.789062 2.847656 C 41.410156 2.847656 45.152344 6.589844 45.152344 11.210938 L 45.152344 36.789062 C 45.152344 41.410156 41.410156 45.152344 36.789062 45.152344 L 11.210938 45.152344 C 6.589844 45.152344 2.847656 41.410156 2.847656 36.789062 L 2.847656 11.210938 C 2.847656 6.589844 6.589844 2.847656 11.210938 2.847656 Z M 11.210938 2.847656 "/>
<path style=" stroke:none;fill-rule:nonzero;fill:rgb(79.607843%,65.098039%,2.352941%);fill-opacity:1;" d="M 43.871094 24 C 43.871094 34.976562 34.976562 43.871094 24 43.871094 C 13.023438 43.871094 4.128906 34.976562 4.128906 24 C 4.128906 13.023438 13.023438 4.128906 24 4.128906 C 34.976562 4.128906 43.871094 13.023438 43.871094 24 Z M 43.871094 24 "/>
<path style=" stroke:none;fill-rule:nonzero;fill:rgb(89.411765%,83.137255%,52.941176%);fill-opacity:1;" d="M 41.03125 24 C 41.03125 33.40625 33.40625 41.03125 24 41.03125 C 14.59375 41.03125 6.96875 33.40625 6.96875 24 C 6.96875 14.59375 14.59375 6.96875 24 6.96875 C 33.40625 6.96875 41.03125 14.59375 41.03125 24 Z M 41.03125 24 "/>
<path style=" stroke:none;fill-rule:nonzero;fill:rgb(53.72549%,49.803922%,31.764706%);fill-opacity:1;" d="M 22.390625 7.058594 C 20.242188 7.257812 18.148438 7.863281 16.226562 8.847656 C 16.3125 9.117188 16.210938 9.425781 15.898438 9.699219 C 15.6875 9.882812 15.511719 10.167969 15.511719 10.335938 C 15.511719 10.847656 15.976562 11.628906 16.34375 11.746094 C 16.832031 11.894531 16.667969 12.417969 16.039062 12.707031 C 15.746094 12.839844 15.390625 13.226562 15.242188 13.5625 C 15.09375 13.898438 14.878906 14.230469 14.761719 14.300781 C 14.644531 14.371094 14.546875 14.632812 14.546875 14.886719 C 14.546875 15.238281 14.710938 15.410156 15.242188 15.625 C 15.621094 15.777344 16.074219 15.886719 16.25 15.871094 C 17.265625 15.773438 17.335938 16.363281 16.449219 17.519531 C 15.980469 18.132812 15.753906 18.285156 15.429688 18.210938 C 15.132812 18.136719 14.96875 18.222656 14.832031 18.519531 C 14.691406 18.832031 14.453125 18.941406 13.824219 18.984375 C 13.203125 19.027344 12.925781 19.152344 12.691406 19.492188 C 12.523438 19.738281 12.277344 19.941406 12.148438 19.941406 C 12.015625 19.941406 11.710938 20.109375 11.464844 20.3125 C 10.96875 20.722656 10.773438 20.765625 10.597656 20.496094 C 10.367188 20.136719 9.871094 20.316406 9.128906 21.027344 C 8.472656 21.65625 8.394531 21.824219 8.492188 22.367188 C 8.667969 23.335938 9.195312 24.195312 9.792969 24.492188 C 10.316406 24.753906 10.328125 24.785156 10.011719 25.117188 C 9.828125 25.3125 9.515625 25.519531 9.316406 25.578125 C 8.738281 25.753906 9.0625 25.976562 10.09375 26.105469 C 11.144531 26.238281 11.472656 26.621094 10.980469 27.140625 C 10.707031 27.433594 10.722656 27.488281 11.160156 27.761719 C 12.023438 28.300781 12.707031 27.972656 11.898438 27.40625 C 11.378906 27.042969 11.742188 26.894531 12.503906 27.160156 C 13.113281 27.367188 13.230469 27.355469 13.589844 27.046875 C 14.328125 26.40625 15.128906 27.351562 14.453125 28.0625 C 14.027344 28.515625 14.15625 29.0625 14.710938 29.140625 C 14.957031 29.171875 15.464844 29.402344 15.84375 29.648438 C 16.222656 29.894531 16.632812 30.09375 16.757812 30.09375 C 16.882812 30.09375 17.234375 30.34375 17.539062 30.648438 C 18.15625 31.265625 18.5 31.34375 18.671875 30.910156 C 18.882812 30.386719 18.800781 30.117188 18.234375 29.5 C 17.785156 29.011719 17.054688 27.707031 17.054688 27.394531 C 17.054688 27.203125 17.796875 27.367188 18.214844 27.648438 C 18.472656 27.828125 18.894531 28.054688 19.148438 28.160156 C 19.417969 28.269531 19.699219 28.613281 19.828125 28.992188 C 20.027344 29.582031 20.109375 29.632812 20.816406 29.632812 L 21.585938 29.632812 L 21.703125 31.019531 C 21.84375 32.683594 21.976562 33.019531 22.546875 33.15625 C 22.96875 33.257812 23.417969 33.910156 23.417969 34.417969 C 23.417969 34.554688 23.113281 34.886719 22.746094 35.15625 C 22.289062 35.492188 22.089844 35.777344 22.121094 36.054688 C 22.160156 36.402344 22.078125 36.457031 21.585938 36.421875 C 21.269531 36.398438 20.71875 36.507812 20.363281 36.667969 C 19.941406 36.855469 19.488281 36.917969 19.0625 36.839844 C 18.570312 36.753906 18.40625 36.789062 18.40625 36.980469 C 18.40625 37.121094 18.234375 37.382812 18.023438 37.566406 C 17.503906 38.015625 17.71875 38.253906 18.515625 38.109375 C 19.007812 38.023438 19.199219 38.0625 19.285156 38.273438 C 19.46875 38.726562 19.007812 39.375 18.582031 39.265625 C 18.308594 39.199219 18.179688 39.292969 18.097656 39.609375 C 18.066406 39.722656 18.015625 39.820312 17.949219 39.902344 C 18.824219 40.242188 19.726562 40.507812 20.644531 40.699219 C 20.558594 40.535156 20.464844 40.386719 20.367188 40.320312 C 19.929688 40.011719 20.222656 39.207031 20.828125 39.0625 C 21.441406 38.914062 21.347656 38.511719 20.675781 38.4375 C 20.089844 38.371094 19.464844 37.777344 19.660156 37.472656 C 19.792969 37.269531 20.355469 37.296875 21.488281 37.566406 C 22.003906 37.6875 22.351562 37.445312 23.539062 36.144531 C 24.226562 35.390625 24.757812 35.078125 25.335938 35.078125 C 25.558594 35.078125 26.347656 34.875 27.09375 34.625 C 28.496094 34.15625 29.046875 34.171875 28.996094 34.6875 C 28.886719 35.753906 29.574219 35.71875 30.695312 34.597656 C 31.160156 34.132812 31.589844 33.796875 31.644531 33.847656 C 31.855469 34.054688 31.472656 35.054688 31.023438 35.457031 C 30.453125 35.96875 30.425781 36.292969 30.925781 36.550781 C 31.199219 36.691406 31.316406 36.976562 31.359375 37.617188 L 31.417969 38.492188 L 32.128906 38.492188 C 32.378906 38.492188 32.585938 38.527344 32.753906 38.589844 C 37.714844 35.613281 40.820312 30.316406 41.007812 24.535156 C 40.746094 23.976562 40.765625 23.640625 41.007812 23.261719 C 40.988281 22.941406 40.964844 22.625 40.929688 22.308594 C 40.773438 22.300781 40.617188 22.292969 40.433594 22.300781 C 39.574219 22.335938 38.839844 21.996094 38.839844 21.566406 C 38.839844 21.476562 38.535156 21.101562 38.164062 20.734375 C 37.742188 20.316406 37.523438 19.949219 37.589844 19.757812 C 37.644531 19.585938 37.523438 19.304688 37.300781 19.113281 C 37.089844 18.929688 36.914062 18.632812 36.914062 18.453125 C 36.914062 18.167969 36.730469 18.132812 35.417969 18.164062 L 33.925781 18.199219 L 33.949219 19.671875 C 33.996094 22.25 34.378906 22.921875 35.5625 22.488281 C 36.105469 22.289062 37.4375 22.441406 37.816406 22.742188 C 37.957031 22.847656 38.152344 23.246094 38.257812 23.621094 C 38.363281 23.992188 38.753906 24.640625 39.128906 25.058594 C 39.882812 25.902344 39.941406 26.230469 39.507812 27.222656 C 39.128906 28.089844 38.722656 27.988281 38.804688 27.050781 L 38.863281 26.351562 L 38.226562 26.472656 C 37.871094 26.539062 37.429688 26.800781 37.230469 27.058594 C 36.949219 27.425781 36.816406 27.476562 36.605469 27.308594 C 36.457031 27.191406 36.335938 26.945312 36.335938 26.761719 C 36.335938 26.578125 36.152344 26.371094 35.933594 26.304688 C 35.710938 26.238281 35.40625 25.902344 35.257812 25.558594 C 35.015625 25.011719 35.023438 24.84375 35.300781 24.179688 C 35.582031 23.503906 35.585938 23.390625 35.324219 23.140625 C 35.085938 22.914062 34.964844 22.90625 34.652344 23.09375 C 34.335938 23.28125 34.1875 23.269531 33.8125 23.015625 C 33.5625 22.847656 33.125 22.710938 32.84375 22.710938 C 32.269531 22.710938 32.09375 22.429688 32.09375 21.507812 C 32.09375 20.652344 31.585938 20.34375 30.371094 20.453125 C 29.53125 20.53125 29.34375 20.476562 28.667969 19.953125 C 28.246094 19.628906 27.582031 18.851562 27.191406 18.226562 C 26.800781 17.597656 26.378906 16.941406 26.253906 16.765625 C 26.078125 16.515625 26.121094 16.273438 26.46875 15.589844 L 26.90625 14.730469 L 25.980469 14.855469 C 24.335938 15.078125 24.003906 15.289062 24.710938 15.671875 C 24.984375 15.816406 25 15.894531 24.785156 16.140625 C 24.644531 16.300781 24.578125 16.554688 24.640625 16.703125 C 24.699219 16.855469 24.625 17.207031 24.472656 17.492188 C 24.316406 17.773438 24.1875 18.167969 24.183594 18.375 C 24.167969 19.007812 23.082031 19.511719 21.871094 19.445312 C 20.035156 19.34375 19.886719 19.371094 19.234375 19.976562 C 18.421875 20.734375 18.316406 21.085938 18.695312 21.789062 C 19.0625 22.46875 19.714844 22.742188 20.84375 22.683594 C 21.851562 22.632812 21.96875 22.722656 21.734375 23.390625 C 21.539062 23.957031 20.878906 24.175781 20.433594 23.820312 C 20.089844 23.546875 18.902344 23.761719 18.539062 24.160156 C 18.386719 24.328125 18.160156 24.765625 18.035156 25.132812 C 17.824219 25.769531 17.761719 25.808594 16.808594 25.902344 C 15.855469 25.992188 15.761719 25.964844 15.078125 25.332031 C 14.316406 24.628906 14.1875 24.089844 14.554688 23.164062 C 14.71875 22.753906 14.839844 22.6875 15.273438 22.765625 C 16.136719 22.921875 16.476562 22.625 16.476562 21.703125 C 16.476562 21.253906 16.390625 20.835938 16.285156 20.773438 C 16.179688 20.710938 16.09375 20.472656 16.09375 20.246094 C 16.09375 20.019531 15.984375 19.726562 15.851562 19.597656 C 15.65625 19.410156 15.6875 19.308594 15.996094 19.089844 C 16.207031 18.941406 16.554688 18.839844 16.765625 18.867188 C 16.976562 18.894531 17.566406 18.800781 18.070312 18.664062 C 18.800781 18.46875 19.015625 18.316406 19.113281 17.933594 C 19.300781 17.203125 19.757812 16.621094 20.140625 16.621094 C 20.746094 16.621094 20.757812 15.195312 20.171875 13.125 C 20.085938 12.820312 19.84375 12.625 19.421875 12.519531 C 19.078125 12.433594 18.707031 12.203125 18.59375 12 C 18.484375 11.800781 18.277344 11.636719 18.140625 11.636719 C 18 11.636719 17.730469 11.46875 17.539062 11.265625 C 17.34375 11.0625 16.945312 10.898438 16.640625 10.898438 C 15.921875 10.898438 15.910156 10.402344 16.621094 10.140625 C 17.375 9.863281 18.550781 10.226562 18.832031 10.824219 C 19.21875 11.632812 19.644531 11.292969 19.78125 10.074219 C 19.953125 8.5625 20.472656 8.128906 22.117188 8.128906 L 23.296875 8.128906 L 22.777344 7.609375 C 22.617188 7.449219 22.484375 7.25 22.390625 7.058594 Z M 28.515625 7.59375 C 28.480469 7.625 28.449219 7.648438 28.417969 7.683594 C 28.023438 8.085938 27.835938 8.144531 27.226562 8.050781 C 26.160156 7.886719 26.296875 8.316406 27.476562 8.835938 C 28.113281 9.113281 28.523438 9.433594 28.664062 9.757812 C 29.335938 11.316406 29.800781 12.15625 30.03125 12.242188 C 30.503906 12.414062 30.785156 12.070312 30.886719 11.183594 C 31.007812 10.164062 31.351562 9.949219 31.96875 10.503906 C 32.210938 10.722656 32.546875 10.898438 32.714844 10.898438 C 33.246094 10.898438 33.636719 11.109375 33.636719 11.398438 C 33.636719 11.546875 33.8125 11.910156 34.035156 12.207031 C 34.355469 12.640625 34.574219 12.742188 35.179688 12.742188 C 35.917969 12.742188 36.371094 12.882812 37.296875 13.394531 C 37.3125 13.402344 37.328125 13.40625 37.34375 13.414062 C 35.089844 10.585938 32 8.546875 28.515625 7.59375 Z M 6.96875 23.925781 C 6.96875 23.953125 6.96875 23.976562 6.96875 24 C 6.972656 25.097656 7.082031 26.195312 7.300781 27.273438 C 7.917969 27.523438 8.085938 27.425781 8.152344 26.851562 C 8.183594 26.550781 8.339844 26.214844 8.496094 26.097656 C 8.742188 25.917969 8.695312 25.828125 8.199219 25.488281 C 7.875 25.265625 7.554688 24.882812 7.492188 24.632812 C 7.425781 24.390625 7.214844 24.125 6.96875 23.925781 Z M 12.332031 29.558594 C 12.171875 29.542969 11.980469 29.625 11.765625 29.832031 C 11.316406 30.261719 11.386719 31.128906 11.894531 31.46875 C 12.480469 31.863281 12.707031 31.75 12.78125 31.023438 C 12.871094 30.132812 12.679688 29.59375 12.332031 29.558594 Z M 15.222656 32.132812 C 15.046875 32.136719 14.855469 32.261719 14.664062 32.523438 C 14.460938 32.804688 14.40625 33.160156 14.484375 33.707031 C 14.578125 34.375 14.539062 34.519531 14.1875 34.699219 C 13.738281 34.929688 13.640625 35.613281 14.011719 35.964844 C 14.375 36.316406 14.726562 36.222656 14.851562 35.742188 C 15.03125 35.058594 16.03125 34.980469 16.71875 35.59375 C 17.007812 35.855469 17.25 35.988281 17.25 35.886719 C 17.25 35.789062 16.945312 35.421875 16.574219 35.078125 C 16.003906 34.550781 15.898438 34.324219 15.898438 33.644531 C 15.898438 32.6875 15.605469 32.121094 15.222656 32.132812 Z M 10.476562 34.332031 C 10.601562 34.5 10.734375 34.664062 10.871094 34.828125 C 10.753906 34.648438 10.621094 34.476562 10.476562 34.332031 Z M 16.214844 36.945312 C 16.128906 36.976562 16.09375 37.085938 16.09375 37.273438 C 16.09375 37.464844 15.96875 37.667969 15.820312 37.722656 C 15.621094 37.796875 15.574219 38.027344 15.652344 38.578125 C 15.664062 38.679688 15.671875 38.765625 15.675781 38.851562 C 15.910156 38.976562 16.144531 39.097656 16.382812 39.214844 C 16.371094 38.917969 16.425781 38.570312 16.578125 38.136719 C 16.839844 37.398438 16.851562 37.214844 16.636719 37.085938 C 16.4375 36.964844 16.300781 36.917969 16.214844 36.945312 Z M 16.214844 36.945312 "/>
<path style=" stroke:none;fill-rule:nonzero;fill:rgb(79.607843%,65.098039%,2.352941%);fill-opacity:1;" d="M 43.839844 23.058594 C 42.792969 23.628906 34.011719 28.257812 24 28.257812 C 14.011719 28.257812 5.253906 23.65625 4.175781 23.070312 C 4.152344 23.378906 4.136719 23.6875 4.128906 24 C 4.136719 25.34375 4.277344 26.679688 4.554688 27.996094 C 8.417969 29.757812 15.75 32.515625 24 32.515625 C 32.269531 32.515625 39.609375 29.746094 43.46875 27.984375 C 43.734375 26.671875 43.871094 25.339844 43.871094 24 C 43.867188 23.6875 43.855469 23.375 43.839844 23.058594 Z M 43.839844 23.058594 "/>
<path style=" stroke:none;fill-rule:evenodd;fill:rgb(30.980392%,30.980392%,30.980392%);fill-opacity:1;" d="M 42.878906 34.089844 C 42.878906 39.0625 38.851562 43.089844 33.878906 43.089844 C 28.910156 43.089844 24.878906 39.0625 24.878906 34.089844 C 24.878906 29.121094 28.910156 25.089844 33.878906 25.089844 C 38.851562 25.089844 42.878906 29.121094 42.878906 34.089844 Z M 42.878906 34.089844 "/>
<path style=" stroke:none;fill-rule:nonzero;fill:rgb(100%,100%,100%);fill-opacity:1;" d="M 32.753906 29.589844 L 32.65625 30.777344 C 32.277344 30.914062 31.929688 31.117188 31.621094 31.375 L 30.542969 30.867188 L 29.417969 32.816406 L 30.398438 33.496094 C 30.363281 33.691406 30.34375 33.890625 30.34375 34.089844 C 30.34375 34.292969 30.359375 34.492188 30.394531 34.691406 L 29.417969 35.367188 L 30.542969 37.316406 L 31.617188 36.808594 C 31.929688 37.066406 32.277344 37.265625 32.65625 37.402344 L 32.753906 38.589844 L 35.003906 38.589844 L 35.101562 37.40625 C 35.480469 37.265625 35.828125 37.066406 36.136719 36.808594 L 37.214844 37.316406 L 38.339844 35.367188 L 37.359375 34.6875 C 37.394531 34.492188 37.414062 34.292969 37.414062 34.089844 C 37.414062 33.890625 37.398438 33.691406 37.363281 33.492188 L 38.339844 32.816406 L 37.214844 30.867188 L 36.140625 31.375 C 35.832031 31.117188 35.480469 30.917969 35.101562 30.777344 L 35.003906 29.589844 Z M 33.878906 32.804688 C 34.589844 32.804688 35.164062 33.382812 35.164062 34.089844 C 35.164062 34.800781 34.589844 35.378906 33.878906 35.378906 C 33.167969 35.378906 32.59375 34.800781 32.59375 34.089844 C 32.59375 33.382812 33.167969 32.804688 33.878906 32.804688 Z M 33.878906 32.804688 "/>
</g>
</svg>
