<?xml version="1.0" encoding="UTF-8"?>
<svg xmlns="http://www.w3.org/2000/svg" xmlns:xlink="http://www.w3.org/1999/xlink" width="48pt" height="48pt" viewBox="0 0 48 48" version="1.1">
<g id="surface1">
<path style=" stroke:none;fill-rule:evenodd;fill:rgb(54.117647%,29.411765%,17.254902%);fill-opacity:1;" d="M 11.210938 2.847656 L 36.789062 2.847656 C 41.410156 2.847656 45.152344 6.589844 45.152344 11.210938 L 45.152344 36.789062 C 45.152344 41.410156 41.410156 45.152344 36.789062 45.152344 L 11.210938 45.152344 C 6.589844 45.152344 2.847656 41.410156 2.847656 36.789062 L 2.847656 11.210938 C 2.847656 6.589844 6.589844 2.847656 11.210938 2.847656 Z M 11.210938 2.847656 "/>
<path style=" stroke:none;fill-rule:nonzero;fill:rgb(98.431373%,71.372549%,29.019608%);fill-opacity:1;" d="M 14.582031 41.832031 C 14.601562 41.773438 14.671875 41.359375 14.730469 40.914062 C 15.082031 38.246094 15.054688 36.535156 15.75 35.394531 C 15.878906 35.183594 16.242188 34.71875 16.558594 34.359375 C 16.875 34.003906 17.136719 33.78125 17.136719 33.734375 C 17.136719 33.679688 17.042969 33.671875 16.839844 33.703125 C 15.859375 33.859375 15.269531 33.683594 15 33.222656 C 14.859375 32.984375 15.019531 33.292969 15 27.417969 C 14.976562 20.667969 15.050781 21.316406 15.667969 21.007812 C 16.117188 20.78125 16.675781 20.433594 17.167969 20.351562 C 18.007812 20.21875 18.578125 20.84375 18.992188 21.65625 C 19.109375 21.875 19.238281 22.042969 19.285156 22.03125 C 19.417969 21.984375 19.441406 15.910156 19.308594 15.910156 C 19.257812 15.910156 19.15625 16.054688 19.085938 16.234375 C 18.914062 16.6875 18.503906 17.734375 18.011719 17.949219 C 17.5 18.179688 15.867188 18.753906 15.527344 18.753906 C 15.390625 18.753906 15.046875 18.71875 15 18.671875 C 14.9375 18.609375 15 17.542969 15 14.292969 C 15 11.929688 14.96875 9.507812 15 9.460938 C 15.261719 9.050781 19.375 8.882812 20.796875 9.199219 C 21.085938 9.261719 21.574219 9.433594 21.878906 9.582031 C 22.679688 9.960938 23.179688 10.667969 23.726562 11.699219 C 23.757812 11.753906 23.824219 11.800781 23.878906 11.800781 C 23.960938 11.800781 23.976562 11.625 23.996094 9.371094 C 24.003906 7.886719 23.996094 6.148438 23.972656 6.058594 C 23.972656 6.058594 23.203125 7.082031 23.101562 7.28125 L 22.882812 7.464844 L 21.542969 7.441406 C 20.808594 7.429688 17.585938 7.441406 14.933594 7.4375 C 12.28125 7.4375 9.15625 7.480469 9.089844 7.503906 C 8.855469 7.59375 9.089844 7.742188 9.6875 8.066406 C 10.722656 8.628906 11.6875 9.078125 11.9375 10.011719 C 12.085938 10.5625 12.078125 18.324219 11.933594 18.945312 C 11.789062 19.550781 11.308594 19.988281 10.855469 20.472656 C 10.644531 20.699219 10.472656 20.914062 10.472656 20.949219 C 10.472656 20.980469 10.644531 21.179688 10.859375 21.390625 C 11.285156 21.808594 11.847656 22.3125 11.953125 22.738281 C 12.054688 23.140625 12.136719 34.917969 12.039062 35.566406 C 11.945312 36.214844 11.53125 36.492188 10.992188 37.0625 C 10.492188 37.59375 10.492188 37.59375 11.261719 37.882812 C 11.886719 38.121094 13.0625 38.652344 13.300781 39.011719 C 13.550781 39.382812 13.875 40.078125 14.140625 41.042969 C 14.261719 41.480469 14.371094 41.863281 14.390625 41.890625 C 14.441406 41.976562 14.535156 41.949219 14.582031 41.832031 Z M 14.582031 41.832031 "/>
<path style=" stroke:none;fill-rule:nonzero;fill:rgb(98.431373%,71.372549%,29.019608%);fill-opacity:1;" d="M 27.078125 8.941406 C 27.003906 8.984375 26.992188 9.589844 27.003906 11.53125 C 27.027344 14.355469 26.933594 13.441406 27.511719 12.703125 C 28.320312 11.671875 29.394531 11.941406 29.847656 11.894531 C 31.007812 11.863281 31.289062 11.878906 31.398438 11.988281 C 31.507812 12.097656 31.617188 13.398438 31.519531 15.984375 L 31.519531 19.464844 C 31.519531 19.464844 30.71875 20.101562 30.285156 20.53125 C 30.136719 20.691406 30.015625 20.867188 30.015625 20.917969 C 30.015625 20.96875 30.121094 21.132812 30.25 21.28125 C 30.582031 21.867188 31.480469 22.371094 31.480469 22.371094 L 31.503906 28.382812 C 31.527344 34.945312 31.523438 34.542969 31.371094 34.671875 C 31.371094 34.671875 30.292969 35.796875 30 35.941406 C 31.539062 36.445312 32.15625 36.855469 32.804688 38.261719 C 32.914062 38.609375 32.941406 38.941406 33 38.941406 C 33.058594 38.941406 33.085938 38.609375 33.191406 38.261719 C 33.84375 36.855469 34.457031 36.445312 36 35.941406 C 35.707031 35.796875 34.628906 34.671875 34.628906 34.671875 C 34.476562 34.542969 34.472656 34.945312 34.492188 28.382812 L 34.515625 22.371094 C 34.515625 22.371094 35.417969 21.867188 35.746094 21.28125 C 35.878906 21.132812 35.984375 20.96875 35.984375 20.917969 C 35.984375 20.867188 35.863281 20.691406 35.714844 20.53125 C 35.277344 20.101562 34.480469 19.464844 34.480469 19.464844 L 34.480469 15.984375 C 34.382812 13.398438 34.488281 12.097656 34.601562 11.988281 C 34.710938 11.878906 34.992188 11.863281 36.152344 11.894531 C 36.605469 11.941406 37.679688 11.671875 38.488281 12.703125 C 39.066406 13.441406 38.972656 14.355469 38.992188 11.53125 C 39.007812 9.589844 38.996094 8.984375 38.921875 8.941406 C 38.652344 9.355469 38.0625 10.417969 38.0625 10.417969 C 37.949219 10.472656 35.867188 10.4375 33 10.441406 C 30.132812 10.4375 28.050781 10.472656 27.9375 10.417969 C 27.9375 10.417969 27.347656 9.355469 27.078125 8.941406 Z M 27.078125 8.941406 "/>
</g>
</svg>
