<?xml version="1.0" encoding="UTF-8"?>
<svg xmlns="http://www.w3.org/2000/svg" xmlns:xlink="http://www.w3.org/1999/xlink" width="48pt" height="48pt" viewBox="0 0 48 48" version="1.1">
<g id="surface1">
<path style=" stroke:none;fill-rule:evenodd;fill:rgb(4.313725%,25.882353%,38.823529%);fill-opacity:1;" d="M 11.210938 2.847656 L 36.789062 2.847656 C 41.410156 2.847656 45.152344 6.589844 45.152344 11.210938 L 45.152344 36.789062 C 45.152344 41.410156 41.410156 45.152344 36.789062 45.152344 L 11.210938 45.152344 C 6.589844 45.152344 2.847656 41.410156 2.847656 36.789062 L 2.847656 11.210938 C 2.847656 6.589844 6.589844 2.847656 11.210938 2.847656 Z M 11.210938 2.847656 "/>
<path style=" stroke:none;fill-rule:nonzero;fill:rgb(100%,100%,100%);fill-opacity:1;" d="M 16.492188 38.335938 C 16.472656 37.679688 16.457031 36.027344 16.457031 34.664062 L 16.457031 32.1875 L 16.300781 32.1875 C 16.214844 32.1875 15.933594 32.136719 15.675781 32.074219 C 13.75 31.613281 12.21875 30.003906 11.855469 28.054688 C 11.773438 27.628906 11.765625 27.046875 11.78125 23.394531 C 11.800781 18.824219 11.785156 19.050781 12.144531 18.175781 C 12.667969 16.90625 13.753906 15.832031 15.003906 15.347656 C 15.917969 14.992188 15.53125 15.003906 24.199219 15.023438 L 32.078125 15.039062 L 32.492188 15.167969 C 34.421875 15.765625 35.816406 17.316406 36.148438 19.242188 C 36.226562 19.675781 36.234375 20.339844 36.21875 23.835938 C 36.203125 27.851562 36.199219 27.929688 36.078125 28.375 C 35.800781 29.363281 35.144531 30.40625 34.402344 31.011719 C 33.75 31.550781 33.179688 31.839844 32.292969 32.089844 C 31.867188 32.207031 31.730469 32.210938 28.261719 32.230469 L 24.667969 32.25 L 23.457031 33.335938 C 22.789062 33.933594 21.050781 35.492188 19.585938 36.800781 C 18.125 38.109375 16.839844 39.257812 16.730469 39.355469 L 16.53125 39.53125 Z M 16.492188 38.335938 "/>
</g>
</svg>
