<?xml version="1.0" encoding="UTF-8"?>
<svg xmlns="http://www.w3.org/2000/svg" xmlns:xlink="http://www.w3.org/1999/xlink" width="48pt" height="48pt" viewBox="0 0 48 48" version="1.1">
<g id="surface1">
<path style=" stroke:none;fill-rule:evenodd;fill:rgb(43.137255%,43.137255%,43.137255%);fill-opacity:1;" d="M 11.210938 2.847656 L 36.789062 2.847656 C 41.410156 2.847656 45.152344 6.589844 45.152344 11.210938 L 45.152344 36.789062 C 45.152344 41.410156 41.410156 45.152344 36.789062 45.152344 L 11.210938 45.152344 C 6.589844 45.152344 2.847656 41.410156 2.847656 36.789062 L 2.847656 11.210938 C 2.847656 6.589844 6.589844 2.847656 11.210938 2.847656 Z M 11.210938 2.847656 "/>
<path style=" stroke:none;fill-rule:nonzero;fill:rgb(100%,100%,100%);fill-opacity:1;" d="M 35.761719 16.128906 C 33.121094 10.65625 25.46875 9.742188 18.671875 14.089844 C 11.871094 18.4375 8.5 26.398438 11.140625 31.871094 C 13.777344 37.34375 21.429688 38.257812 28.226562 33.910156 C 35.027344 29.5625 38.398438 21.601562 35.761719 16.128906 Z M 35.761719 16.128906 "/>
<path style=" stroke:none;fill-rule:nonzero;fill:rgb(24.313725%,24.313725%,24.313725%);fill-opacity:1;" d="M 26.75 12.996094 C 26.75 10.867188 25.027344 9.144531 22.898438 9.144531 C 20.773438 9.144531 19.046875 10.867188 19.046875 12.996094 C 19.046875 15.121094 20.773438 16.847656 22.898438 16.847656 C 25.027344 16.847656 26.75 15.121094 26.75 12.996094 Z M 26.75 12.996094 "/>
<path style=" stroke:none;fill-rule:nonzero;fill:rgb(40%,40%,100%);fill-opacity:1;" d="M 25.652344 12.996094 C 25.652344 11.476562 24.417969 10.246094 22.898438 10.246094 C 21.378906 10.246094 20.148438 11.476562 20.148438 12.996094 C 20.148438 14.515625 21.378906 15.746094 22.898438 15.746094 C 24.417969 15.746094 25.652344 14.515625 25.652344 12.996094 Z M 25.652344 12.996094 "/>
<path style=" stroke:none;fill-rule:nonzero;fill:rgb(24.313725%,24.313725%,24.313725%);fill-opacity:1;" d="M 39.957031 20.699219 C 39.957031 18.570312 38.230469 16.847656 36.105469 16.847656 C 33.976562 16.847656 32.253906 18.570312 32.253906 20.699219 C 32.253906 22.824219 33.976562 24.550781 36.105469 24.550781 C 38.230469 24.550781 39.957031 22.824219 39.957031 20.699219 Z M 39.957031 20.699219 "/>
<path style=" stroke:none;fill-rule:nonzero;fill:rgb(40%,40%,100%);fill-opacity:1;" d="M 38.855469 20.699219 C 38.855469 19.179688 37.625 17.949219 36.105469 17.949219 C 34.585938 17.949219 33.355469 19.179688 33.355469 20.699219 C 33.355469 22.21875 34.585938 23.449219 36.105469 23.449219 C 37.625 23.449219 38.855469 22.21875 38.855469 20.699219 Z M 38.855469 20.699219 "/>
<path style=" stroke:none;fill-rule:nonzero;fill:rgb(24.313725%,24.313725%,24.313725%);fill-opacity:1;" d="M 15.746094 22.898438 C 15.746094 20.773438 14.023438 19.046875 11.894531 19.046875 C 9.769531 19.046875 8.042969 20.773438 8.042969 22.898438 C 8.042969 25.027344 9.769531 26.75 11.894531 26.75 C 14.023438 26.75 15.746094 25.027344 15.746094 22.898438 Z M 15.746094 22.898438 "/>
<path style=" stroke:none;fill-rule:nonzero;fill:rgb(40%,40%,100%);fill-opacity:1;" d="M 14.644531 22.898438 C 14.644531 21.378906 13.414062 20.148438 11.894531 20.148438 C 10.375 20.148438 9.144531 21.378906 9.144531 22.898438 C 9.144531 24.417969 10.375 25.652344 11.894531 25.652344 C 13.414062 25.652344 14.644531 24.417969 14.644531 22.898438 Z M 14.644531 22.898438 "/>
<path style=" stroke:none;fill-rule:nonzero;fill:rgb(24.313725%,24.313725%,24.313725%);fill-opacity:1;" d="M 19.046875 35.003906 C 19.046875 32.878906 17.324219 31.152344 15.195312 31.152344 C 13.070312 31.152344 11.34375 32.878906 11.34375 35.003906 C 11.34375 37.132812 13.070312 38.855469 15.195312 38.855469 C 17.324219 38.855469 19.046875 37.132812 19.046875 35.003906 Z M 19.046875 35.003906 "/>
<path style=" stroke:none;fill-rule:nonzero;fill:rgb(40%,40%,100%);fill-opacity:1;" d="M 17.949219 35.003906 C 17.949219 33.484375 16.714844 32.253906 15.195312 32.253906 C 13.675781 32.253906 12.445312 33.484375 12.445312 35.003906 C 12.445312 36.523438 13.675781 37.753906 15.195312 37.753906 C 16.714844 37.753906 17.949219 36.523438 17.949219 35.003906 Z M 17.949219 35.003906 "/>
<path style=" stroke:none;fill-rule:nonzero;fill:rgb(24.313725%,24.313725%,24.313725%);fill-opacity:1;" d="M 33.355469 32.804688 C 33.355469 30.675781 31.628906 28.953125 29.503906 28.953125 C 27.375 28.953125 25.652344 30.675781 25.652344 32.804688 C 25.652344 34.929688 27.375 36.65625 29.503906 36.65625 C 31.628906 36.65625 33.355469 34.929688 33.355469 32.804688 Z M 33.355469 32.804688 "/>
<path style=" stroke:none;fill-rule:nonzero;fill:rgb(40%,40%,100%);fill-opacity:1;" d="M 32.253906 32.804688 C 32.253906 31.285156 31.023438 30.050781 29.503906 30.050781 C 27.984375 30.050781 26.75 31.285156 26.75 32.804688 C 26.75 34.324219 27.984375 35.554688 29.503906 35.554688 C 31.023438 35.554688 32.253906 34.324219 32.253906 32.804688 Z M 32.253906 32.804688 "/>
</g>
</svg>
