<?xml version="1.0" encoding="UTF-8"?>
<svg xmlns="http://www.w3.org/2000/svg" xmlns:xlink="http://www.w3.org/1999/xlink" width="48pt" height="48pt" viewBox="0 0 48 48" version="1.1">
<defs>
<filter id="alpha" filterUnits="objectBoundingBox" x="0%" y="0%" width="100%" height="100%">
  <feColorMatrix type="matrix" in="SourceGraphic" values="0 0 0 0 1 0 0 0 0 1 0 0 0 0 1 0 0 0 1 0"/>
</filter>
<mask id="mask0">
  <g filter="url(#alpha)">
<rect x="0" y="0" width="48" height="48" style="fill:rgb(0%,0%,0%);fill-opacity:0.101961;stroke:none;"/>
  </g>
</mask>
<clipPath id="clip1">
  <rect width="48" height="48"/>
</clipPath>
<g id="surface6" clip-path="url(#clip1)">
<path style=" stroke:none;fill-rule:evenodd;fill:rgb(0%,0%,0%);fill-opacity:1;" d="M 22.007812 21.632812 C 22.371094 19.535156 21.414062 17.613281 19.871094 17.335938 C 18.328125 17.058594 16.78125 18.53125 16.421875 20.625 C 16.058594 22.722656 17.015625 24.644531 18.558594 24.921875 C 20.101562 25.203125 21.648438 23.726562 22.007812 21.632812 Z M 22.007812 21.632812 "/>
</g>
<mask id="mask1">
  <g filter="url(#alpha)">
<rect x="0" y="0" width="48" height="48" style="fill:rgb(0%,0%,0%);fill-opacity:0.101961;stroke:none;"/>
  </g>
</mask>
<clipPath id="clip2">
  <rect width="48" height="48"/>
</clipPath>
<g id="surface9" clip-path="url(#clip2)">
<path style=" stroke:none;fill-rule:evenodd;fill:rgb(0%,0%,0%);fill-opacity:1;" d="M 31.578125 20.628906 C 31.214844 18.53125 29.667969 17.058594 28.125 17.335938 C 26.582031 17.609375 25.625 19.535156 25.992188 21.628906 C 26.355469 23.726562 27.898438 25.199219 29.441406 24.925781 C 30.984375 24.648438 31.941406 22.726562 31.578125 20.628906 Z M 31.578125 20.628906 "/>
</g>
</defs>
<g id="surface1">
<path style=" stroke:none;fill-rule:evenodd;fill:rgb(24.705882%,24.705882%,24.705882%);fill-opacity:1;" d="M 11.210938 2.847656 L 36.789062 2.847656 C 41.410156 2.847656 45.152344 6.589844 45.152344 11.210938 L 45.152344 36.789062 C 45.152344 41.410156 41.410156 45.152344 36.789062 45.152344 L 11.210938 45.152344 C 6.589844 45.152344 2.847656 41.410156 2.847656 36.789062 L 2.847656 11.210938 C 2.847656 6.589844 6.589844 2.847656 11.210938 2.847656 Z M 11.210938 2.847656 "/>
<path style=" stroke:none;fill-rule:nonzero;fill:rgb(80%,80%,80%);fill-opacity:1;" d="M 25.109375 37.347656 C 31.035156 37.035156 35.621094 36.03125 37.398438 35.484375 C 34.449219 34.53125 34.527344 30.699219 35.628906 28.699219 Z M 25.109375 37.347656 "/>
<use xlink:href="#surface6" mask="url(#mask0)"/>
<use xlink:href="#surface9" mask="url(#mask1)"/>
<path style=" stroke:none;fill-rule:evenodd;fill:rgb(80%,80%,80%);fill-opacity:1;" d="M 36.441406 24 C 36.441406 16.601562 30.871094 10.601562 24 10.601562 C 17.128906 10.601562 11.558594 16.601562 11.558594 24 C 11.558594 31.398438 17.128906 37.398438 24 37.398438 C 30.871094 37.398438 36.441406 31.398438 36.441406 24 Z M 36.441406 24 "/>
<path style=" stroke:none;fill-rule:evenodd;fill:rgb(80%,80%,80%);fill-opacity:1;" d="M 38.355469 19.214844 C 38.355469 20.800781 37.070312 22.085938 35.484375 22.085938 C 33.898438 22.085938 32.613281 20.800781 32.613281 19.214844 C 32.613281 17.628906 33.898438 16.34375 35.484375 16.34375 C 37.070312 16.34375 38.355469 17.628906 38.355469 19.214844 Z M 38.355469 19.214844 "/>
<path style=" stroke:none;fill-rule:evenodd;fill:rgb(80%,80%,80%);fill-opacity:1;" d="M 15.386719 19.214844 C 15.386719 20.800781 14.101562 22.085938 12.515625 22.085938 C 10.929688 22.085938 9.644531 20.800781 9.644531 19.214844 C 9.644531 17.628906 10.929688 16.34375 12.515625 16.34375 C 14.101562 16.34375 15.386719 17.628906 15.386719 19.214844 Z M 15.386719 19.214844 "/>
<path style=" stroke:none;fill-rule:evenodd;fill:rgb(24.705882%,24.705882%,24.705882%);fill-opacity:1;" d="M 22.011719 20.675781 C 22.371094 18.578125 21.414062 16.65625 19.871094 16.378906 C 18.328125 16.101562 16.785156 17.574219 16.421875 19.671875 C 16.058594 21.765625 17.015625 23.691406 18.558594 23.96875 C 20.101562 24.246094 21.648438 22.769531 22.011719 20.675781 Z M 22.011719 20.675781 "/>
<path style=" stroke:none;fill-rule:evenodd;fill:rgb(24.705882%,24.705882%,24.705882%);fill-opacity:1;" d="M 31.578125 19.671875 C 31.214844 17.578125 29.667969 16.101562 28.125 16.378906 C 26.582031 16.652344 25.625 18.578125 25.992188 20.671875 C 26.355469 22.769531 27.898438 24.242188 29.441406 23.96875 C 30.984375 23.691406 31.941406 21.769531 31.578125 19.671875 Z M 31.578125 19.671875 "/>
</g>
</svg>
