<?xml version="1.0" encoding="UTF-8"?>
<svg xmlns="http://www.w3.org/2000/svg" xmlns:xlink="http://www.w3.org/1999/xlink" width="48pt" height="48pt" viewBox="0 0 48 48" version="1.1">
<g id="surface1">
<path style=" stroke:none;fill-rule:evenodd;fill:rgb(93.333333%,53.333333%,15.294118%);fill-opacity:1;" d="M 11.210938 2.847656 L 36.789062 2.847656 C 41.410156 2.847656 45.152344 6.589844 45.152344 11.210938 L 45.152344 36.789062 C 45.152344 41.410156 41.410156 45.152344 36.789062 45.152344 L 11.210938 45.152344 C 6.589844 45.152344 2.847656 41.410156 2.847656 36.789062 L 2.847656 11.210938 C 2.847656 6.589844 6.589844 2.847656 11.210938 2.847656 Z M 11.210938 2.847656 "/>
<path style=" stroke:none;fill-rule:nonzero;fill:rgb(100%,100%,100%);fill-opacity:1;" d="M 20.84375 14.003906 C 17.9375 14.003906 15.582031 16.359375 15.582031 19.265625 L 15.582031 22.421875 L 14.53125 22.421875 C 11.625 22.421875 9.269531 24.777344 9.269531 27.683594 L 9.269531 28.734375 C 9.269531 31.640625 11.625 33.996094 14.53125 33.996094 L 33.46875 33.996094 C 36.375 33.996094 38.730469 31.640625 38.730469 28.734375 L 38.730469 22.421875 C 38.730469 19.515625 36.375 17.160156 33.46875 17.160156 L 33.027344 17.160156 C 32.191406 15.246094 30.300781 14.007812 28.207031 14.003906 Z M 20.84375 14.003906 "/>
<path style=" stroke:none;fill-rule:nonzero;fill:rgb(93.333333%,53.333333%,15.294118%);fill-opacity:1;" d="M 20.84375 19.265625 L 20.84375 23.472656 L 32.417969 23.472656 L 32.417969 27.683594 L 14.53125 27.683594 L 14.53125 28.734375 L 33.46875 28.734375 L 33.46875 22.421875 L 21.894531 22.421875 L 21.894531 20.316406 L 28.207031 20.316406 L 28.207031 19.265625 Z M 20.84375 19.265625 "/>
</g>
</svg>
