<?xml version="1.0" encoding="UTF-8"?>
<svg xmlns="http://www.w3.org/2000/svg" xmlns:xlink="http://www.w3.org/1999/xlink" width="48pt" height="48pt" viewBox="0 0 48 48" version="1.1">
<g id="surface1">
<path style=" stroke:none;fill-rule:evenodd;fill:rgb(94.901961%,68.235294%,21.568627%);fill-opacity:1;" d="M 24 24 L 1.828125 24 L 1.828125 37.40625 C 1.828125 42.265625 5.734375 46.171875 10.59375 46.171875 L 24 46.171875 Z M 24 24 "/>
<path style=" stroke:none;fill-rule:evenodd;fill:rgb(100%,100%,100%);fill-opacity:1;" d="M 24 24 L 24 46.171875 L 37.40625 46.171875 C 42.265625 46.171875 46.171875 42.265625 46.171875 37.40625 L 46.171875 24 Z M 24 24 "/>
<path style=" stroke:none;fill-rule:evenodd;fill:rgb(100%,100%,100%);fill-opacity:1;" d="M 10.59375 1.828125 C 5.734375 1.828125 1.828125 5.734375 1.828125 10.59375 L 1.828125 24 L 24 24 L 24 1.828125 Z M 10.59375 1.828125 "/>
<path style=" stroke:none;fill-rule:evenodd;fill:rgb(95.686275%,75.686275%,39.607843%);fill-opacity:1;" d="M 24 1.828125 L 24 24 L 46.171875 24 L 46.171875 10.59375 C 46.171875 5.734375 42.265625 1.828125 37.40625 1.828125 Z M 24 1.828125 "/>
<path style=" stroke:none;fill-rule:nonzero;fill:rgb(38.039216%,57.254902%,96.078431%);fill-opacity:1;" d="M 30.425781 28.820312 L 40.066406 28.820312 C 40.957031 28.820312 41.675781 29.539062 41.675781 30.429688 L 41.675781 40.070312 C 41.675781 40.957031 40.957031 41.675781 40.066406 41.675781 L 30.425781 41.675781 C 29.539062 41.675781 28.820312 40.957031 28.820312 40.070312 L 28.820312 30.429688 C 28.820312 29.539062 29.539062 28.820312 30.425781 28.820312 Z M 30.425781 28.820312 "/>
<path style=" stroke:none;fill-rule:nonzero;fill:rgb(21.568627%,45.882353%,94.901961%);fill-opacity:1;" d="M 7.929688 6.324219 L 17.574219 6.324219 C 18.460938 6.324219 19.179688 7.046875 19.179688 7.933594 L 19.179688 17.574219 C 19.179688 18.460938 18.460938 19.179688 17.574219 19.179688 L 7.929688 19.179688 C 7.042969 19.179688 6.324219 18.460938 6.324219 17.574219 L 6.324219 7.933594 C 6.324219 7.046875 7.042969 6.324219 7.929688 6.324219 Z M 7.929688 6.324219 "/>
</g>
</svg>
