<?xml version="1.0" encoding="UTF-8"?>
<svg xmlns="http://www.w3.org/2000/svg" xmlns:xlink="http://www.w3.org/1999/xlink" width="48pt" height="48pt" viewBox="0 0 48 48" version="1.1">
<g id="surface1">
<path style=" stroke:none;fill-rule:evenodd;fill:rgb(45.490196%,81.960784%,34.901961%);fill-opacity:1;" d="M 11.210938 2.847656 L 36.789062 2.847656 C 41.410156 2.847656 45.152344 6.589844 45.152344 11.210938 L 45.152344 36.789062 C 45.152344 41.410156 41.410156 45.152344 36.789062 45.152344 L 11.210938 45.152344 C 6.589844 45.152344 2.847656 41.410156 2.847656 36.789062 L 2.847656 11.210938 C 2.847656 6.589844 6.589844 2.847656 11.210938 2.847656 Z M 11.210938 2.847656 "/>
<path style=" stroke:none;fill-rule:nonzero;fill:rgb(100%,100%,100%);fill-opacity:1;" d="M 12.050781 9.078125 L 12.050781 10.578125 L 11.300781 10.578125 C 10.054688 10.578125 9.050781 11.578125 9.050781 12.828125 C 9.050781 14.074219 10.054688 15.078125 11.300781 15.078125 L 12.050781 15.078125 L 12.050781 16.578125 L 9.1875 16.578125 C 9.496094 17.449219 10.320312 18.078125 11.300781 18.078125 L 12.050781 18.078125 L 12.050781 19.578125 L 13.550781 19.578125 L 13.550781 18.078125 L 14.300781 18.078125 C 15.546875 18.078125 16.550781 17.074219 16.550781 15.828125 C 16.550781 14.578125 15.546875 13.578125 14.300781 13.578125 L 13.550781 13.578125 L 13.550781 12.078125 L 16.414062 12.078125 C 16.105469 11.203125 15.28125 10.578125 14.300781 10.578125 L 13.550781 10.578125 L 13.550781 9.078125 Z M 11.300781 12.078125 L 12.050781 12.078125 L 12.050781 13.578125 L 11.300781 13.578125 C 10.886719 13.578125 10.550781 13.242188 10.550781 12.828125 C 10.550781 12.410156 10.886719 12.078125 11.300781 12.078125 Z M 13.550781 15.078125 L 14.300781 15.078125 C 14.714844 15.078125 15.050781 15.410156 15.050781 15.828125 C 15.050781 16.242188 14.714844 16.597656 14.300781 16.578125 L 13.550781 16.578125 Z M 19.550781 18.078125 L 19.550781 19.578125 L 28.550781 19.578125 L 28.550781 18.078125 Z M 19.550781 18.078125 "/>
</g>
</svg>
