<?xml version="1.0" encoding="UTF-8"?>
<svg xmlns="http://www.w3.org/2000/svg" xmlns:xlink="http://www.w3.org/1999/xlink" width="48pt" height="48pt" viewBox="0 0 48 48" version="1.1">
<defs>
<clipPath id="clip1">
  <rect width="48" height="48"/>
</clipPath>
<g id="surface6" clip-path="url(#clip1)">
<path style=" stroke:none;fill-rule:nonzero;fill:rgb(100%,100%,100%);fill-opacity:1;" d="M 20.410156 21.210938 L 20.753906 23.261719 L 17.449219 25.082031 L 17.449219 33.96875 C 17.449219 35.109375 17.261719 35.90625 16.878906 36.363281 C 16.5 36.816406 15.855469 37.046875 14.945312 37.046875 C 13.878906 37.046875 12.894531 36.933594 11.980469 36.703125 L 11.527344 34.3125 C 12.511719 34.617188 13.539062 34.765625 14.601562 34.765625 C 14.980469 34.765625 15.171875 34.3125 15.171875 33.398438 L 15.171875 26.222656 C 13.957031 26.753906 12.664062 27.285156 11.296875 27.816406 L 10.5 25.425781 C 12.171875 24.816406 13.726562 24.207031 15.171875 23.601562 L 15.171875 17.792969 L 11.410156 17.792969 L 11.410156 15.625 L 15.171875 15.625 L 15.171875 10.84375 L 17.449219 10.84375 L 17.449219 15.625 L 20.640625 15.625 L 20.640625 17.792969 L 17.449219 17.792969 L 17.449219 22.691406 C 18.4375 22.160156 19.425781 21.664062 20.410156 21.207031 M 31.804688 10.839844 L 34.308594 11.523438 C 33.476562 13.195312 32.640625 14.675781 31.804688 15.96875 L 36.589844 15.96875 L 36.589844 18.132812 L 33.398438 18.132812 L 33.398438 24.285156 L 37.5 24.285156 L 37.5 26.449219 L 33.398438 26.449219 L 33.398438 37.042969 L 31.121094 37.042969 L 31.121094 26.449219 L 26.109375 26.449219 C 25.574219 31.308594 23.753906 34.878906 20.640625 37.160156 L 19.042969 35.449219 C 21.703125 33.476562 23.257812 30.476562 23.714844 26.449219 L 20.183594 26.449219 L 20.183594 24.285156 L 23.941406 24.285156 C 24.019531 23.675781 24.058594 23.03125 24.058594 22.347656 L 24.058594 18.132812 L 21.09375 18.132812 L 21.09375 15.96875 L 29.410156 15.96875 C 30.324219 14.375 31.121094 12.664062 31.804688 10.84375 M 31.121094 24.285156 L 31.121094 18.132812 L 26.335938 18.132812 L 26.335938 22.691406 C 26.335938 23.222656 26.296875 23.753906 26.222656 24.285156 L 31.121094 24.285156 M 24.96875 11.183594 C 25.878906 12.246094 26.5625 13.425781 27.019531 14.714844 L 24.625 15.511719 C 24.171875 14.144531 23.523438 12.929688 22.6875 11.867188 L 24.96875 11.183594 "/>
</g>
</defs>
<g id="surface1">
<path style=" stroke:none;fill-rule:evenodd;fill:rgb(12.54902%,58.431373%,94.901961%);fill-opacity:1;" d="M 11.210938 2.847656 L 36.789062 2.847656 C 41.410156 2.847656 45.152344 6.589844 45.152344 11.210938 L 45.152344 36.789062 C 45.152344 41.410156 41.410156 45.152344 36.789062 45.152344 L 11.210938 45.152344 C 6.589844 45.152344 2.847656 41.410156 2.847656 36.789062 L 2.847656 11.210938 C 2.847656 6.589844 6.589844 2.847656 11.210938 2.847656 Z M 11.210938 2.847656 "/>
<use xlink:href="#surface6"/>
</g>
</svg>
