<?xml version="1.0" encoding="UTF-8"?>
<svg xmlns="http://www.w3.org/2000/svg" xmlns:xlink="http://www.w3.org/1999/xlink" width="48pt" height="48pt" viewBox="0 0 48 48" version="1.1">
<g id="surface1">
<path style=" stroke:none;fill-rule:evenodd;fill:rgb(0.784314%,52.54902%,76.078431%);fill-opacity:1;" d="M 11.210938 2.847656 L 36.789062 2.847656 C 41.410156 2.847656 45.152344 6.589844 45.152344 11.210938 L 45.152344 36.789062 C 45.152344 41.410156 41.410156 45.152344 36.789062 45.152344 L 11.210938 45.152344 C 6.589844 45.152344 2.847656 41.410156 2.847656 36.789062 L 2.847656 11.210938 C 2.847656 6.589844 6.589844 2.847656 11.210938 2.847656 Z M 11.210938 2.847656 "/>
<path style=" stroke:none;fill-rule:nonzero;fill:rgb(80%,80%,80%);fill-opacity:1;" d="M 38.285156 24 C 38.285156 16.109375 31.886719 9.714844 23.996094 9.714844 C 16.105469 9.714844 9.710938 16.109375 9.710938 24 C 9.710938 31.890625 16.105469 38.285156 23.996094 38.285156 C 31.886719 38.285156 38.285156 31.890625 38.285156 24 Z M 38.285156 24 "/>
<path style=" stroke:none;fill-rule:nonzero;fill:rgb(94.901961%,94.901961%,94.901961%);fill-opacity:1;" d="M 22.652344 15.84375 C 20.570312 15.78125 18.566406 16.210938 16.71875 16.644531 C 13.992188 17.285156 9.511719 19.273438 9.511719 19.273438 C 8.429688 19.742188 8.414062 21.277344 9.484375 21.769531 C 11.023438 22.558594 13.359375 22.890625 13.683594 24.667969 C 14.164062 27.289062 11.410156 29.6875 9.953125 32.105469 C 9.078125 33.496094 10.9375 34.96875 12.078125 33.789062 C 12.078125 33.789062 19.140625 27.234375 28.359375 26.988281 C 30.074219 26.941406 32.359375 27.703125 34.144531 28.527344 C 35.929688 29.355469 37.203125 29.980469 37.203125 29.980469 C 38.332031 30.71875 39.726562 29.230469 39.195312 27.988281 C 36.550781 21.8125 31.078125 16.730469 23.558594 15.902344 L 23.546875 15.898438 C 23.246094 15.871094 22.949219 15.851562 22.652344 15.84375 Z M 22.652344 15.84375 "/>
</g>
</svg>
