<?xml version="1.0" encoding="UTF-8"?>
<svg xmlns="http://www.w3.org/2000/svg" xmlns:xlink="http://www.w3.org/1999/xlink" width="48pt" height="48pt" viewBox="0 0 48 48" version="1.1">
<g id="surface1">
<path style=" stroke:none;fill-rule:evenodd;fill:rgb(98.039216%,36.078431%,36.078431%);fill-opacity:1;" d="M 11.210938 2.847656 L 36.789062 2.847656 C 41.410156 2.847656 45.152344 6.589844 45.152344 11.210938 L 45.152344 36.789062 C 45.152344 41.410156 41.410156 45.152344 36.789062 45.152344 L 11.210938 45.152344 C 6.589844 45.152344 2.847656 41.410156 2.847656 36.789062 L 2.847656 11.210938 C 2.847656 6.589844 6.589844 2.847656 11.210938 2.847656 Z M 11.210938 2.847656 "/>
<path style=" stroke:none;fill-rule:nonzero;fill:rgb(100%,75.294118%,100%);fill-opacity:1;" d="M 16.289062 12.007812 C 16.125 11.996094 15.957031 12 15.789062 12.011719 C 12.328125 12.230469 8.539062 16.621094 6.816406 22.40625 C 4.859375 28.976562 6.230469 35.015625 9.882812 35.894531 C 12.199219 36.449219 14.992188 34.78125 17.25 31.5 L 30.75 31.5 C 33.007812 34.777344 35.800781 36.445312 38.117188 35.894531 C 41.769531 35.019531 43.144531 28.980469 41.1875 22.40625 C 39.230469 15.835938 34.683594 11.226562 31.03125 12.105469 C 29.335938 12.519531 28.054688 14.09375 27.457031 16.5 L 20.539062 16.5 C 19.941406 14.09375 18.660156 12.519531 16.964844 12.105469 C 16.746094 12.054688 16.519531 12.019531 16.289062 12.007812 Z M 20.921875 19.5 L 26.921875 19.5 L 26.921875 24 L 28.421875 24 L 23.921875 28.5 L 19.421875 24 L 20.921875 24 Z M 20.921875 19.5 "/>
</g>
</svg>
