<?xml version="1.0" encoding="UTF-8"?>
<svg xmlns="http://www.w3.org/2000/svg" xmlns:xlink="http://www.w3.org/1999/xlink" width="48pt" height="48pt" viewBox="0 0 48 48" version="1.1">
<g id="surface1">
<path style=" stroke:none;fill-rule:evenodd;fill:rgb(0.784314%,52.54902%,76.078431%);fill-opacity:1;" d="M 11.210938 2.847656 L 36.789062 2.847656 C 41.410156 2.847656 45.152344 6.589844 45.152344 11.210938 L 45.152344 36.789062 C 45.152344 41.410156 41.410156 45.152344 36.789062 45.152344 L 11.210938 45.152344 C 6.589844 45.152344 2.847656 41.410156 2.847656 36.789062 L 2.847656 11.210938 C 2.847656 6.589844 6.589844 2.847656 11.210938 2.847656 Z M 11.210938 2.847656 "/>
<path style=" stroke:none;fill-rule:nonzero;fill:rgb(54.117647%,86.666667%,100%);fill-opacity:1;" d="M 12 12 L 16.5 12 L 16.5 36 L 12 36 Z M 12 12 "/>
<path style=" stroke:none;fill-rule:nonzero;fill:rgb(54.117647%,86.666667%,100%);fill-opacity:1;" d="M 27 12 L 31.5 12 L 31.5 36 L 27 36 Z M 27 12 "/>
<path style=" stroke:none;fill-rule:nonzero;fill:rgb(54.117647%,86.666667%,100%);fill-opacity:1;" d="M 36 12 L 36 16.5 L 22.5 16.5 L 22.5 12 Z M 36 12 "/>
</g>
</svg>
