<?xml version="1.0" encoding="UTF-8"?>
<svg xmlns="http://www.w3.org/2000/svg" xmlns:xlink="http://www.w3.org/1999/xlink" width="48pt" height="48pt" viewBox="0 0 48 48" version="1.1">
<defs>
<clipPath id="clip1">
  <rect width="48" height="48"/>
</clipPath>
<g id="surface6" clip-path="url(#clip1)">
<path style=" stroke:none;fill-rule:nonzero;fill:rgb(100%,78.823529%,12.941176%);fill-opacity:1;" d="M 42.070312 33.398438 C 42.070312 38.371094 38.042969 42.398438 33.070312 42.398438 C 28.101562 42.398438 24.070312 38.371094 24.070312 33.398438 C 24.070312 28.429688 28.101562 24.398438 33.070312 24.398438 C 38.042969 24.398438 42.070312 28.429688 42.070312 33.398438 Z M 42.070312 33.398438 "/>
</g>
</defs>
<g id="surface1">
<path style=" stroke:none;fill-rule:evenodd;fill:rgb(21.568627%,62.745098%,94.901961%);fill-opacity:1;" d="M 11.210938 2.847656 L 36.789062 2.847656 C 41.410156 2.847656 45.152344 6.589844 45.152344 11.210938 L 45.152344 36.789062 C 45.152344 41.410156 41.410156 45.152344 36.789062 45.152344 L 11.210938 45.152344 C 6.589844 45.152344 2.847656 41.410156 2.847656 36.789062 L 2.847656 11.210938 C 2.847656 6.589844 6.589844 2.847656 11.210938 2.847656 Z M 11.210938 2.847656 "/>
<path style=" stroke:none;fill-rule:nonzero;fill:rgb(63.529412%,95.686275%,41.568627%);fill-opacity:1;" d="M 16.289062 8.15625 C 15.839844 8.375 15.402344 8.609375 14.976562 8.863281 L 15.148438 8.863281 L 15.234375 9.144531 L 14.988281 9.375 L 16.046875 9.402344 L 16.207031 9.785156 L 15.015625 9.742188 L 14.957031 9.449219 L 14.265625 9.296875 C 14.023438 9.460938 13.785156 9.628906 13.554688 9.804688 L 13.96875 9.804688 L 13.96875 10.082031 L 13.785156 10.324219 L 12.917969 10.324219 L 12.917969 10.289062 C 10.511719 12.257812 8.699219 14.851562 7.679688 17.785156 L 7.769531 17.832031 L 7.769531 19.234375 L 8.472656 20.4375 L 9.046875 20.527344 L 9.121094 20.113281 L 8.445312 19.070312 L 8.3125 18.050781 L 8.707031 18.050781 L 8.875 19.097656 L 9.855469 20.527344 L 9.601562 20.988281 L 10.222656 21.941406 L 11.769531 22.324219 L 11.769531 22.074219 L 12.382812 22.164062 L 12.328125 22.601562 L 12.8125 22.691406 L 13.5625 22.898438 L 14.617188 24.105469 L 15.972656 24.207031 L 16.101562 25.3125 L 15.179688 25.960938 L 15.136719 26.949219 L 15.003906 27.550781 L 16.339844 29.230469 L 16.441406 29.804688 C 16.441406 29.804688 16.925781 29.9375 16.988281 29.9375 C 17.046875 29.9375 18.074219 30.71875 18.074219 30.71875 L 18.074219 33.753906 L 18.441406 33.855469 L 18.191406 35.257812 L 18.808594 36.082031 L 18.695312 37.46875 L 19.511719 38.90625 L 20.550781 39.8125 C 20.570312 39.816406 20.589844 39.820312 20.605469 39.824219 L 21.613281 39.84375 L 21.714844 39.503906 L 20.941406 38.851562 L 20.984375 38.523438 L 21.125 38.128906 L 21.152344 37.722656 L 20.628906 37.707031 L 20.367188 37.375 L 20.800781 36.957031 L 20.859375 36.640625 L 20.375 36.5 L 20.402344 36.207031 L 21.09375 36.101562 L 22.144531 35.597656 L 22.5 34.949219 L 23.601562 33.535156 L 23.351562 32.429688 L 23.6875 31.839844 L 24.703125 31.871094 L 25.386719 31.328125 L 25.605469 29.195312 L 26.363281 28.230469 L 26.496094 27.609375 L 25.804688 27.390625 L 25.347656 26.640625 L 23.789062 26.625 L 22.554688 26.152344 L 22.5 25.269531 L 22.085938 24.546875 L 20.96875 24.53125 L 20.324219 23.515625 L 19.75 23.238281 L 19.71875 23.546875 L 18.675781 23.605469 L 18.292969 23.074219 L 17.207031 22.851562 L 16.308594 23.890625 L 14.902344 23.652344 L 14.796875 22.058594 L 13.769531 21.882812 L 14.179688 21.101562 L 14.0625 20.652344 L 12.710938 21.558594 L 11.859375 21.457031 L 11.554688 20.789062 L 11.742188 20.101562 L 12.210938 19.234375 L 13.289062 18.6875 L 15.375 18.6875 L 15.371094 19.324219 L 16.121094 19.671875 L 16.0625 18.582031 L 16.601562 18.039062 L 17.691406 17.320312 L 17.769531 16.816406 L 18.855469 15.679688 L 20.011719 15.039062 L 19.910156 14.953125 L 20.691406 14.214844 L 20.980469 14.292969 L 21.113281 14.457031 L 21.410156 14.125 L 21.480469 14.09375 L 21.15625 14.046875 L 20.824219 13.9375 L 20.824219 13.617188 L 21 13.476562 L 21.386719 13.476562 L 21.5625 13.554688 L 21.714844 13.863281 L 21.90625 13.835938 L 21.90625 13.808594 L 21.957031 13.824219 L 22.5 13.742188 L 22.578125 13.476562 L 22.886719 13.554688 L 22.886719 13.84375 L 22.601562 14.039062 L 22.644531 14.355469 L 23.625 14.660156 C 23.625 14.660156 23.625 14.664062 23.628906 14.671875 L 23.855469 14.652344 L 23.867188 14.226562 L 23.089844 13.871094 L 23.042969 13.667969 L 23.691406 13.445312 L 23.71875 12.824219 L 23.042969 12.414062 L 23 11.367188 L 22.074219 11.824219 L 21.734375 11.824219 L 21.824219 11.027344 L 20.566406 10.730469 L 20.042969 11.125 L 20.042969 12.328125 L 19.105469 12.628906 L 18.730469 13.414062 L 18.320312 13.480469 L 18.320312 12.472656 L 17.4375 12.351562 L 17 12.066406 L 16.820312 11.414062 L 18.398438 10.488281 L 19.167969 10.253906 L 19.246094 10.773438 L 19.675781 10.75 L 19.710938 10.492188 L 20.160156 10.425781 L 20.167969 10.335938 L 19.972656 10.253906 L 19.929688 9.976562 L 20.480469 9.929688 L 20.816406 9.582031 L 20.832031 9.558594 L 20.835938 9.558594 L 20.941406 9.453125 L 22.101562 9.304688 L 22.613281 9.746094 L 21.265625 10.460938 L 22.980469 10.867188 L 23.203125 10.292969 L 23.953125 10.292969 L 24.214844 9.792969 L 23.6875 9.660156 L 23.6875 9.027344 L 22.027344 8.289062 L 20.882812 8.421875 L 20.234375 8.761719 L 20.277344 9.585938 L 19.601562 9.484375 L 19.5 9.027344 L 20.144531 8.4375 L 18.96875 8.378906 L 18.632812 8.480469 L 18.484375 8.878906 L 18.925781 8.953125 L 18.839844 9.394531 L 18.089844 9.4375 L 17.972656 9.734375 L 16.886719 9.765625 C 16.886719 9.765625 16.855469 9.144531 16.8125 9.144531 C 16.769531 9.144531 17.664062 9.128906 17.664062 9.128906 L 18.308594 8.496094 L 17.957031 8.320312 L 17.488281 8.777344 L 16.707031 8.730469 L 16.292969 8.160156 Z M 34.496094 10.59375 L 33.964844 10.804688 L 33.621094 11.175781 L 33.699219 11.613281 L 34.121094 11.671875 L 34.375 12.308594 L 35.101562 12.015625 L 35.21875 12.863281 L 35 12.863281 L 34.40625 12.777344 L 33.742188 12.886719 L 33.105469 13.792969 L 32.1875 13.9375 L 32.054688 14.722656 L 32.441406 14.8125 L 32.332031 15.320312 L 31.421875 15.136719 L 30.589844 15.320312 L 30.410156 15.78125 L 30.554688 16.757812 L 31.046875 16.988281 L 31.867188 16.984375 L 32.417969 16.933594 L 32.589844 16.492188 L 33.453125 15.363281 L 34.027344 15.480469 L 34.585938 14.972656 L 34.691406 15.371094 L 36.074219 16.304688 L 35.902344 16.53125 L 35.28125 16.5 L 35.519531 16.835938 L 35.902344 16.921875 L 36.351562 16.734375 L 36.339844 16.191406 L 36.542969 16.09375 L 36.382812 15.921875 L 35.460938 15.40625 L 35.21875 14.722656 L 35.984375 14.722656 L 36.226562 14.964844 L 36.886719 15.535156 L 36.914062 16.226562 L 37.597656 16.953125 L 37.855469 15.957031 L 38.328125 15.695312 L 38.414062 16.511719 L 38.878906 17.019531 L 39.09375 17.019531 C 38.472656 15.484375 37.632812 14.050781 36.597656 12.765625 L 35.484375 12.753906 L 35.410156 12.503906 L 36.070312 12.164062 C 35.582031 11.605469 35.054688 11.082031 34.496094 10.59375 Z M 13.953125 10.765625 C 13.988281 10.765625 13.953125 11.152344 13.953125 11.152344 L 13.082031 11.207031 L 12.917969 11.011719 L 13.535156 10.832031 C 13.535156 10.832031 13.921875 10.765625 13.953125 10.765625 Z M 15.011719 12.644531 L 15.433594 12.746094 L 15.289062 13.308594 L 14.835938 13.453125 L 14.550781 12.863281 Z M 16.160156 13.980469 L 16.855469 13.980469 L 16.855469 14.191406 L 17.007812 14.191406 L 17.007812 14.554688 L 15.949219 14.554688 L 15.554688 14.445312 L 15.652344 14.191406 Z M 17.195312 14.136719 L 17.558594 14.46875 L 17.195312 14.554688 Z M 17.996094 14.644531 L 18.265625 14.8125 L 18.046875 14.992188 L 17.835938 14.8125 Z M 15.960938 14.699219 L 16.546875 14.699219 L 15.796875 15.75 L 15.488281 15.582031 L 15.554688 15.140625 Z M 16.898438 14.699219 L 17.492188 14.699219 L 17.492188 15.054688 L 17.230469 15.222656 L 16.898438 15.285156 Z M 17.636719 15.085938 L 17.683594 15.085938 L 18.355469 15.285156 L 18.355469 15.628906 L 17.792969 15.628906 L 17.636719 15.40625 Z M 17.359375 15.40625 L 17.359375 15.75 L 17.109375 16.003906 L 16.546875 16.003906 L 16.632812 15.617188 L 16.898438 15.597656 L 16.953125 15.464844 Z M 34.84375 16.867188 L 32.859375 17.019531 L 32.246094 17.351562 L 31.457031 17.351562 L 31.070312 17.3125 L 30.113281 17.84375 L 30.113281 18.847656 L 28.15625 20.261719 L 28.320312 20.863281 L 28.71875 20.863281 L 28.613281 21.4375 L 28.335938 21.542969 L 28.320312 23.042969 L 30.011719 24.972656 L 30.746094 24.972656 L 30.789062 24.855469 L 32.113281 24.855469 L 32.492188 24.503906 L 33.246094 24.503906 L 33.65625 24.914062 L 34.773438 25.03125 L 34.625 26.523438 L 35.867188 28.714844 L 35.210938 29.96875 L 35.257812 30.558594 L 35.769531 31.070312 L 35.769531 32.488281 L 36.445312 33.398438 L 36.445312 34.019531 C 38.949219 31.007812 40.320312 27.214844 40.320312 23.296875 C 40.316406 21.671875 40.078125 20.058594 39.609375 18.5 L 38.773438 18.5 L 37.914062 17.859375 L 37.007812 17.949219 L 37.007812 18.5 L 36.722656 18.5 L 36.414062 18.28125 L 34.847656 17.878906 L 34.847656 16.867188 Z M 34.84375 16.867188 "/>
<use xlink:href="#surface6"/>
<path style=" stroke:none;fill-rule:nonzero;fill:rgb(18.039216%,18.039216%,18.039216%);fill-opacity:1;" d="M 33.050781 37.898438 L 29.695312 33.398438 L 31.945312 33.398438 L 31.945312 28.898438 L 34.195312 28.898438 L 34.195312 33.398438 L 36.445312 33.398438 Z M 33.050781 37.898438 "/>
</g>
</svg>
