<?xml version="1.0" encoding="UTF-8"?>
<svg xmlns="http://www.w3.org/2000/svg" xmlns:xlink="http://www.w3.org/1999/xlink" width="48pt" height="48pt" viewBox="0 0 48 48" version="1.1">
<g id="surface1">
<path style=" stroke:none;fill-rule:evenodd;fill:rgb(49.411765%,52.54902%,52.941176%);fill-opacity:1;" d="M 11.210938 2.847656 L 36.789062 2.847656 C 41.410156 2.847656 45.152344 6.589844 45.152344 11.210938 L 45.152344 36.789062 C 45.152344 41.410156 41.410156 45.152344 36.789062 45.152344 L 11.210938 45.152344 C 6.589844 45.152344 2.847656 41.410156 2.847656 36.789062 L 2.847656 11.210938 C 2.847656 6.589844 6.589844 2.847656 11.210938 2.847656 Z M 11.210938 2.847656 "/>
<path style=" stroke:none;fill-rule:nonzero;fill:rgb(57.254902%,90.588235%,38.823529%);fill-opacity:1;" d="M 12.804688 35.195312 L 16.757812 35.195312 C 17.851562 35.195312 18.730469 36.074219 18.730469 37.167969 C 18.730469 38.265625 17.851562 39.144531 16.757812 39.144531 L 12.804688 39.144531 C 11.710938 39.144531 10.832031 38.265625 10.832031 37.167969 C 10.832031 36.074219 11.710938 35.195312 12.804688 35.195312 Z M 12.804688 35.195312 "/>
<path style=" stroke:none;fill-rule:nonzero;fill:rgb(90.588235%,38.823529%,38.823529%);fill-opacity:1;" d="M 31.242188 35.195312 L 35.195312 35.195312 C 36.289062 35.195312 37.167969 36.074219 37.167969 37.167969 C 37.167969 38.265625 36.289062 39.144531 35.195312 39.144531 L 31.242188 39.144531 C 30.148438 39.144531 29.269531 38.265625 29.269531 37.167969 C 29.269531 36.074219 30.148438 35.195312 31.242188 35.195312 Z M 31.242188 35.195312 "/>
<path style=" stroke:none;fill-rule:nonzero;fill:rgb(100%,100%,100%);fill-opacity:1;" d="M 25.746094 8.855469 L 22.046875 9.191406 L 22.046875 23.617188 L 25.707031 23.09375 L 25.707031 16.945312 L 30.636719 23.769531 L 34.496094 22.609375 L 29.449219 16.046875 L 34.535156 9.859375 L 30.597656 9.003906 L 25.707031 15.195312 Z M 17.355469 12.371094 C 17.3125 12.378906 17.269531 12.386719 17.238281 12.417969 L 15.78125 13.792969 C 15.71875 13.851562 15.710938 13.941406 15.757812 14.011719 L 17.457031 16.667969 C 17.15625 17.148438 16.910156 17.664062 16.738281 18.207031 L 13.613281 18.824219 C 13.527344 18.839844 13.464844 18.917969 13.464844 19 L 13.464844 20.949219 C 13.464844 21.03125 13.53125 21.101562 13.613281 21.121094 L 16.644531 21.816406 C 16.804688 22.449219 17.054688 23.050781 17.386719 23.605469 L 15.632812 26.132812 C 15.582031 26.203125 15.589844 26.296875 15.65625 26.355469 L 17.109375 27.734375 C 17.171875 27.792969 17.265625 27.800781 17.339844 27.757812 L 20.09375 26.175781 C 20.632812 26.472656 21.214844 26.707031 21.832031 26.867188 L 22.472656 29.785156 C 22.492188 29.867188 22.566406 29.925781 22.65625 29.925781 L 24.710938 29.925781 C 24.796875 29.925781 24.875 29.871094 24.894531 29.792969 L 25.652344 26.859375 C 26.289062 26.699219 26.886719 26.457031 27.441406 26.148438 L 30.152344 27.832031 C 30.230469 27.878906 30.328125 27.871094 30.390625 27.808594 L 31.839844 26.433594 C 31.902344 26.375 31.914062 26.285156 31.871094 26.214844 L 30.882812 24.675781 L 30.558594 24.773438 C 30.511719 24.785156 30.457031 24.765625 30.429688 24.726562 C 30.429688 24.726562 29.804688 23.859375 28.992188 22.730469 C 28.015625 24.535156 26.027344 25.765625 23.738281 25.765625 C 20.484375 25.765625 17.847656 23.269531 17.847656 20.191406 C 17.847656 17.929688 19.277344 15.984375 21.328125 15.113281 L 21.328125 13.675781 C 20.953125 13.796875 20.59375 13.949219 20.25 14.125 C 20.25 14.125 20.253906 14.117188 20.25 14.117188 L 17.476562 12.398438 C 17.4375 12.375 17.398438 12.371094 17.355469 12.375 Z M 17.355469 12.371094 "/>
</g>
</svg>
