<?xml version="1.0" encoding="UTF-8"?>
<svg xmlns="http://www.w3.org/2000/svg" xmlns:xlink="http://www.w3.org/1999/xlink" width="48pt" height="48pt" viewBox="0 0 48 48" version="1.1">
<g id="surface1">
<path style=" stroke:none;fill-rule:evenodd;fill:rgb(95.686275%,70.588235%,0%);fill-opacity:1;" d="M 11.210938 2.847656 L 36.789062 2.847656 C 41.410156 2.847656 45.152344 6.589844 45.152344 11.210938 L 45.152344 36.789062 C 45.152344 41.410156 41.410156 45.152344 36.789062 45.152344 L 11.210938 45.152344 C 6.589844 45.152344 2.847656 41.410156 2.847656 36.789062 L 2.847656 11.210938 C 2.847656 6.589844 6.589844 2.847656 11.210938 2.847656 Z M 11.210938 2.847656 "/>
<path style=" stroke:none;fill-rule:nonzero;fill:rgb(100%,100%,100%);fill-opacity:1;" d="M 24 9 C 18.199219 9 13.5 13.699219 13.5 19.5 C 13.5 22.441406 14.71875 25.09375 16.667969 27 L 16.5 27 L 16.5 37.5 L 19.5 37.5 L 19.5 39 L 28.5 39 L 28.5 37.5 L 31.5 37.5 L 31.5 27 L 31.328125 27 C 33.277344 25.09375 34.5 22.445312 34.5 19.5 C 34.5 13.699219 29.800781 9 24 9 Z M 24 12 C 28.140625 12 31.5 15.359375 31.5 19.5 C 31.5 21.78125 30.484375 23.824219 28.878906 25.199219 C 27.566406 26.320312 25.863281 27 24 27 C 22.175781 27 20.503906 26.347656 19.203125 25.265625 C 17.550781 23.890625 16.5 21.816406 16.5 19.5 C 16.5 15.359375 19.859375 12 24 12 Z M 19.5 30 L 28.5 30 L 28.5 31.5 L 19.5 31.5 Z M 19.5 34.5 L 28.5 34.5 L 28.5 36 L 19.5 36 Z M 19.5 34.5 "/>
</g>
</svg>
