<?xml version="1.0" encoding="UTF-8"?>
<svg xmlns="http://www.w3.org/2000/svg" xmlns:xlink="http://www.w3.org/1999/xlink" width="48pt" height="48pt" viewBox="0 0 48 48" version="1.1">
<g id="surface1">
<path style=" stroke:none;fill-rule:evenodd;fill:rgb(30.980392%,45.882353%,87.058824%);fill-opacity:1;" d="M 11.210938 2.847656 L 36.789062 2.847656 C 41.410156 2.847656 45.152344 6.589844 45.152344 11.210938 L 45.152344 36.789062 C 45.152344 41.410156 41.410156 45.152344 36.789062 45.152344 L 11.210938 45.152344 C 6.589844 45.152344 2.847656 41.410156 2.847656 36.789062 L 2.847656 11.210938 C 2.847656 6.589844 6.589844 2.847656 11.210938 2.847656 Z M 11.210938 2.847656 "/>
<path style=" stroke:none;fill-rule:nonzero;fill:rgb(100%,100%,100%);fill-opacity:1;" d="M 25.40625 15.023438 C 23.0625 12.683594 18.789062 13.15625 15.859375 16.085938 C 12.933594 19.015625 12.457031 23.289062 14.800781 25.632812 C 17.144531 27.976562 21.417969 27.5 24.347656 24.570312 C 27.273438 21.640625 27.75 17.367188 25.40625 15.023438 Z M 24.347656 16.085938 C 25.519531 17.257812 25.519531 19.15625 24.347656 20.328125 C 23.175781 21.5 21.273438 21.5 20.101562 20.328125 C 21.273438 21.5 21.273438 23.398438 20.101562 24.570312 C 18.933594 25.742188 17.03125 25.742188 15.859375 24.570312 C 14.6875 23.398438 14.6875 21.5 15.859375 20.328125 C 17.03125 19.15625 18.933594 19.15625 20.101562 20.328125 C 18.933594 19.15625 18.933594 17.257812 20.101562 16.085938 C 21.273438 14.914062 23.175781 14.914062 24.347656 16.085938 Z M 24.347656 16.085938 "/>
<path style=" stroke:none;fill-rule:nonzero;fill:rgb(100%,100%,100%);fill-opacity:1;" d="M 24.742188 22.847656 L 33.496094 31.597656 C 34.300781 32.402344 34.476562 33.53125 33.890625 34.117188 C 33.304688 34.703125 32.179688 34.523438 31.371094 33.71875 L 22.621094 24.96875 C 21.816406 24.164062 21.640625 23.035156 22.226562 22.449219 C 22.808594 21.863281 23.9375 22.042969 24.742188 22.847656 Z M 24.742188 22.847656 "/>
<path style=" stroke:none;fill-rule:nonzero;fill:rgb(100%,100%,100%);fill-opacity:1;" d="M 32.167969 26.027344 L 34.554688 28.414062 C 34.773438 28.636719 34.714844 29.050781 34.421875 29.34375 C 34.128906 29.636719 33.714844 29.695312 33.496094 29.476562 L 31.109375 27.089844 C 30.886719 26.871094 30.949219 26.453125 31.242188 26.160156 C 31.535156 25.867188 31.949219 25.808594 32.167969 26.027344 Z M 32.167969 26.027344 "/>
<path style=" stroke:none;fill-rule:nonzero;fill:rgb(100%,100%,100%);fill-opacity:1;" d="M 32.898438 28.746094 L 30.113281 31.53125 C 29.855469 31.789062 29.410156 31.757812 29.117188 31.464844 C 28.824219 31.171875 28.796875 30.726562 29.054688 30.472656 L 31.835938 27.6875 C 32.09375 27.429688 32.539062 27.460938 32.832031 27.753906 C 33.125 28.046875 33.152344 28.492188 32.898438 28.746094 Z M 32.898438 28.746094 "/>
</g>
</svg>
