<?xml version="1.0" encoding="UTF-8"?>
<svg xmlns="http://www.w3.org/2000/svg" xmlns:xlink="http://www.w3.org/1999/xlink" width="48pt" height="48pt" viewBox="0 0 48 48" version="1.1">
<g id="surface1">
<path style=" stroke:none;fill-rule:evenodd;fill:rgb(23.137255%,43.921569%,62.352941%);fill-opacity:1;" d="M 11.210938 2.847656 L 36.789062 2.847656 C 41.410156 2.847656 45.152344 6.589844 45.152344 11.210938 L 45.152344 36.789062 C 45.152344 41.410156 41.410156 45.152344 36.789062 45.152344 L 11.210938 45.152344 C 6.589844 45.152344 2.847656 41.410156 2.847656 36.789062 L 2.847656 11.210938 C 2.847656 6.589844 6.589844 2.847656 11.210938 2.847656 Z M 11.210938 2.847656 "/>
<path style=" stroke:none;fill-rule:nonzero;fill:rgb(100%,100%,100%);fill-opacity:1;" d="M 22.5 13.5 C 22.5 17.640625 19.140625 21 15 21 C 10.859375 21 7.5 17.640625 7.5 13.5 C 7.5 9.359375 10.859375 6 15 6 C 19.140625 6 22.5 9.359375 22.5 13.5 Z M 22.5 13.5 "/>
<path style=" stroke:none;fill-rule:nonzero;fill:rgb(100%,40.392157%,33.72549%);fill-opacity:1;" d="M 40.5 13.5 C 40.5 17.640625 37.140625 21 33 21 C 28.859375 21 25.5 17.640625 25.5 13.5 C 25.5 9.359375 28.859375 6 33 6 C 37.140625 6 40.5 9.359375 40.5 13.5 Z M 40.5 13.5 "/>
<path style=" stroke:none;fill-rule:nonzero;fill:rgb(30.196078%,30.196078%,30.196078%);fill-opacity:1;" d="M 22.5 34.5 C 22.5 38.640625 19.140625 42 15 42 C 10.859375 42 7.5 38.640625 7.5 34.5 C 7.5 30.359375 10.859375 27 15 27 C 19.140625 27 22.5 30.359375 22.5 34.5 Z M 22.5 34.5 "/>
<path style=" stroke:none;fill-rule:nonzero;fill:rgb(100%,40.392157%,33.72549%);fill-opacity:1;" d="M 40.5 34.5 C 40.5 38.640625 37.140625 42 33 42 C 28.859375 42 25.5 38.640625 25.5 34.5 C 25.5 30.359375 28.859375 27 33 27 C 37.140625 27 40.5 30.359375 40.5 34.5 Z M 40.5 34.5 "/>
</g>
</svg>
