<?xml version="1.0" encoding="UTF-8"?>
<svg xmlns="http://www.w3.org/2000/svg" xmlns:xlink="http://www.w3.org/1999/xlink" width="48pt" height="48pt" viewBox="0 0 48 48" version="1.1">
<g id="surface1">
<path style=" stroke:none;fill-rule:evenodd;fill:rgb(35.686275%,35.686275%,35.686275%);fill-opacity:1;" d="M 11.210938 2.847656 L 36.789062 2.847656 C 41.410156 2.847656 45.152344 6.589844 45.152344 11.210938 L 45.152344 36.789062 C 45.152344 41.410156 41.410156 45.152344 36.789062 45.152344 L 11.210938 45.152344 C 6.589844 45.152344 2.847656 41.410156 2.847656 36.789062 L 2.847656 11.210938 C 2.847656 6.589844 6.589844 2.847656 11.210938 2.847656 Z M 11.210938 2.847656 "/>
<path style=" stroke:none;fill-rule:evenodd;fill:rgb(100%,66.666667%,15.686275%);fill-opacity:1;" d="M 10.902344 2.910156 C 6.421875 3.078125 2.847656 6.683594 2.847656 11.210938 L 2.847656 36.789062 C 2.847656 41.425781 6.574219 45.152344 11.207031 45.152344 L 36.789062 45.152344 C 41.421875 45.152344 45.152344 41.425781 45.152344 36.789062 L 45.152344 11.210938 C 45.152344 6.574219 41.421875 2.847656 36.789062 2.847656 L 16.902344 2.847656 L 16.902344 5.191406 C 16.902344 5.605469 16.734375 5.980469 16.464844 6.253906 C 16.195312 6.523438 15.820312 6.691406 15.402344 6.691406 L 12.402344 6.691406 C 11.988281 6.691406 11.613281 6.523438 11.339844 6.253906 C 11.070312 5.980469 10.902344 5.605469 10.902344 5.191406 Z M 10.902344 2.910156 "/>
<path style=" stroke:none;fill-rule:evenodd;fill:rgb(21.568627%,21.568627%,21.568627%);fill-opacity:1;" d="M 10.902344 2.910156 L 10.902344 5.191406 C 10.902344 5.605469 11.070312 5.980469 11.339844 6.253906 C 11.613281 6.523438 11.988281 6.691406 12.402344 6.691406 L 15.402344 6.691406 C 15.820312 6.691406 16.195312 6.523438 16.464844 6.253906 C 16.734375 5.980469 16.902344 5.605469 16.902344 5.191406 L 16.902344 2.847656 L 11.207031 2.847656 C 11.101562 2.847656 11.011719 2.90625 10.902344 2.910156 Z M 10.902344 2.910156 "/>
<path style=" stroke:none;fill-rule:nonzero;fill:rgb(21.568627%,21.568627%,21.568627%);fill-opacity:1;" d="M 40.292969 10.945312 C 40.292969 11.773438 39.621094 12.445312 38.792969 12.445312 C 37.964844 12.445312 37.292969 11.773438 37.292969 10.945312 C 37.292969 10.117188 37.964844 9.445312 38.792969 9.445312 C 39.621094 9.445312 40.292969 10.117188 40.292969 10.945312 Z M 40.292969 10.945312 "/>
<path style=" stroke:none;fill-rule:nonzero;fill:rgb(21.568627%,21.568627%,21.568627%);fill-opacity:1;" d="M 36 24 C 36 30.628906 30.628906 36 24 36 C 17.371094 36 12 30.628906 12 24 C 12 17.371094 17.371094 12 24 12 C 30.628906 12 36 17.371094 36 24 Z M 36 24 "/>
<path style=" stroke:none;fill-rule:nonzero;fill:rgb(81.568627%,54.117647%,0%);fill-opacity:1;" d="M 33 24 C 33 19.03125 28.96875 15 24 15 C 19.03125 15 15 19.03125 15 24 C 15 28.96875 19.03125 33 24 33 C 28.96875 33 33 28.96875 33 24 Z M 33 24 "/>
<path style=" stroke:none;fill-rule:nonzero;fill:rgb(100%,78.823529%,24.313725%);fill-opacity:1;" d="M 30 24 C 30 27.3125 27.3125 30 24 30 C 20.6875 30 18 27.3125 18 24 C 18 20.6875 20.6875 18 24 18 C 27.3125 18 30 20.6875 30 24 Z M 30 24 "/>
</g>
</svg>
