<?xml version="1.0" encoding="UTF-8"?>
<svg xmlns="http://www.w3.org/2000/svg" xmlns:xlink="http://www.w3.org/1999/xlink" width="48pt" height="48pt" viewBox="0 0 48 48" version="1.1">
<defs>
<filter id="alpha" filterUnits="objectBoundingBox" x="0%" y="0%" width="100%" height="100%">
  <feColorMatrix type="matrix" in="SourceGraphic" values="0 0 0 0 1 0 0 0 0 1 0 0 0 0 1 0 0 0 1 0"/>
</filter>
<mask id="mask0">
  <g filter="url(#alpha)">
<rect x="0" y="0" width="48" height="48" style="fill:rgb(0%,0%,0%);fill-opacity:0.976471;stroke:none;"/>
  </g>
</mask>
<clipPath id="clip1">
  <rect width="48" height="48"/>
</clipPath>
<g id="surface6" clip-path="url(#clip1)">
<path style=" stroke:none;fill-rule:evenodd;fill:rgb(58.823529%,77.254902%,1.176471%);fill-opacity:1;" d="M 45.113281 37.992188 L 44.019531 35.214844 C 44.019531 35.214844 40.554688 38.816406 40.554688 38.464844 C 40.554688 38.113281 39.808594 35.214844 39.808594 35.214844 L 36.957031 38.730469 L 35.597656 36.621094 L 32.140625 38.90625 L 30.851562 36.003906 L 28.609375 39.347656 L 25.554688 36.003906 L 23.382812 39.523438 L 21.617188 35.828125 L 19.851562 39.433594 L 17.136719 35.742188 L 15.914062 39.875 L 13.945312 36.09375 L 12.519531 38.464844 L 9.195312 35.390625 C 9.195312 35.390625 8.308594 38.46875 8.175781 39.609375 C 8.105469 40.183594 7.460938 38.773438 6.832031 37.222656 C 6.203125 35.671875 5.597656 33.984375 5.597656 33.984375 C 5.597656 33.984375 4.34375 36.914062 3.488281 38.941406 C 4.453125 42.488281 7.550781 45.136719 11.414062 45.136719 L 36.992188 45.136719 C 41.191406 45.136719 44.5 42.015625 45.113281 37.992188 Z M 45.113281 37.992188 "/>
</g>
<mask id="mask1">
  <g filter="url(#alpha)">
<rect x="0" y="0" width="48" height="48" style="fill:rgb(0%,0%,0%);fill-opacity:0.976471;stroke:none;"/>
  </g>
</mask>
<clipPath id="clip2">
  <rect width="48" height="48"/>
</clipPath>
<g id="surface9" clip-path="url(#clip2)">
<path style=" stroke:none;fill-rule:evenodd;fill:rgb(67.843137%,85.882353%,12.156863%);fill-opacity:1;" d="M 45.175781 35.320312 C 44.226562 36.835938 43.460938 38.648438 42.851562 40.71875 C 43.015625 37.402344 43.386719 34.179688 43.742188 30.945312 C 43.007812 33.746094 42.324219 36.535156 41.730469 39.3125 C 41.570312 38.496094 41.375 37.757812 41.1875 37.003906 C 41.355469 35.328125 41.609375 33.921875 42.007812 33.011719 C 41.710938 33.515625 41.445312 34.078125 41.199219 34.664062 C 41.292969 33.808594 41.367188 32.945312 41.460938 32.085938 C 41.195312 33.109375 40.941406 34.128906 40.6875 35.144531 C 40.429688 34.332031 40.148438 33.558594 39.820312 32.890625 C 40.101562 33.667969 40.285156 34.847656 40.425781 36.191406 C 40.164062 37.257812 39.929688 38.320312 39.691406 39.382812 C 39.476562 38.546875 39.230469 37.710938 38.996094 36.875 C 39.183594 34.734375 39.417969 32.609375 39.648438 30.488281 C 39.246094 32.023438 38.863281 33.558594 38.496094 35.085938 C 38.105469 33.75 37.699219 32.410156 37.277344 31.066406 C 37.425781 32.210938 37.582031 33.351562 37.730469 34.492188 C 37.664062 34.34375 37.605469 34.175781 37.535156 34.03125 C 37.648438 34.34375 37.726562 34.804688 37.816406 35.210938 C 37.894531 35.84375 37.964844 36.476562 38.035156 37.109375 C 38.007812 37.242188 37.976562 37.371094 37.945312 37.5 C 37.683594 36.84375 37.410156 36.214844 37.097656 35.65625 C 37.378906 36.335938 37.578125 37.296875 37.742188 38.398438 C 37.707031 38.546875 37.667969 38.699219 37.636719 38.851562 C 37.148438 36.382812 36.5625 34.136719 35.726562 32.433594 C 36.355469 34.15625 36.578125 37.492188 36.605469 41.625 C 36.332031 40.617188 36.042969 39.628906 35.703125 38.753906 C 35.507812 38.09375 35.332031 37.433594 35.128906 36.769531 C 35.367188 36.136719 35.59375 35.507812 35.890625 34.867188 C 35.601562 35.355469 35.289062 35.820312 34.984375 36.289062 C 34.816406 35.75 34.679688 35.21875 34.511719 34.683594 C 34.597656 35.332031 34.683594 35.984375 34.769531 36.632812 C 34.542969 36.980469 34.320312 37.328125 34.097656 37.683594 C 33.773438 36.777344 33.417969 35.933594 33.007812 35.195312 C 33.324219 35.960938 33.550781 37.046875 33.714844 38.347656 C 33.566406 38.601562 33.414062 38.859375 33.277344 39.125 C 32.917969 39.449219 32.601562 39.871094 32.300781 40.324219 C 32.089844 40.136719 31.871094 39.960938 31.636719 39.804688 C 31.597656 39.824219 31.566406 39.863281 31.53125 39.882812 C 31.496094 39.84375 31.46875 39.800781 31.4375 39.761719 C 31.640625 38.335938 31.882812 37.007812 32.226562 35.960938 C 31.71875 36.84375 31.277344 37.878906 30.886719 39.023438 C 30.574219 38.433594 30.242188 37.863281 29.886719 37.328125 C 29.90625 37.257812 29.921875 37.167969 29.945312 37.097656 C 29.910156 37.15625 29.882812 37.222656 29.851562 37.28125 C 29.242188 36.367188 28.582031 35.507812 27.824219 34.777344 C 27.949219 34.988281 28 35.3125 28.109375 35.542969 C 28.117188 35.53125 28.125 35.515625 28.132812 35.5 C 28.128906 35.519531 28.125 35.542969 28.117188 35.5625 C 28.546875 36.464844 28.941406 37.417969 29.230469 38.527344 C 29.207031 38.578125 29.183594 38.632812 29.160156 38.6875 C 29.035156 38.804688 28.917969 38.941406 28.796875 39.078125 C 28.5 38.199219 28.1875 37.359375 27.886719 36.492188 C 27.964844 36.1875 28.03125 35.84375 28.117188 35.5625 C 28.117188 35.554688 28.113281 35.550781 28.109375 35.542969 C 27.996094 35.75 27.894531 35.980469 27.785156 36.195312 C 27.765625 36.148438 27.75 36.101562 27.730469 36.050781 C 27.746094 36.109375 27.753906 36.167969 27.769531 36.226562 C 27.539062 36.691406 27.320312 37.1875 27.117188 37.710938 C 27.09375 36.265625 27.101562 34.949219 27.359375 34.082031 C 26.722656 35.394531 26.515625 37.527344 26.230469 39.410156 C 25.96875 38.675781 25.699219 37.953125 25.445312 37.191406 C 25.683594 38.105469 25.882812 39.011719 26.054688 39.902344 C 25.804688 40.25 25.578125 40.640625 25.378906 41.070312 C 25.21875 40.335938 25.039062 39.644531 24.835938 39.007812 C 24.808594 37.496094 24.808594 36.117188 25.078125 35.21875 C 24.757812 35.878906 24.542969 36.746094 24.378906 37.683594 C 24.128906 36.992188 23.875 36.308594 23.640625 35.589844 C 23.886719 36.550781 24.09375 37.5 24.265625 38.433594 C 24.152344 39.175781 24.042969 39.917969 23.933594 40.636719 C 23.691406 40.128906 23.402344 39.632812 23.050781 39.015625 C 23.019531 36.8125 22.90625 34.828125 23.265625 33.617188 C 22.832031 34.515625 22.609375 35.808594 22.414062 37.132812 C 22.28125 36.425781 22.132812 35.742188 21.929688 35.136719 C 21.980469 35.019531 22.023438 34.890625 22.082031 34.777344 C 22.011719 34.855469 21.957031 34.957031 21.886719 35.039062 C 21.765625 34.695312 21.628906 34.363281 21.464844 34.082031 C 21.589844 34.425781 21.664062 34.828125 21.710938 35.277344 C 21.453125 35.609375 21.1875 35.941406 20.949219 36.308594 C 20.976562 36.222656 20.988281 36.136719 21.015625 36.050781 C 20.941406 36.238281 20.863281 36.417969 20.785156 36.601562 C 20.273438 37.4375 19.8125 38.355469 19.402344 39.34375 C 19.253906 39.097656 19.082031 38.773438 18.898438 38.445312 C 19.152344 37.511719 19.4375 36.652344 19.796875 35.914062 C 19.328125 36.460938 18.910156 37.082031 18.507812 37.730469 C 18.492188 37.699219 18.480469 37.6875 18.460938 37.648438 C 18.476562 37.691406 18.484375 37.714844 18.496094 37.753906 C 18.191406 38.253906 17.894531 38.769531 17.628906 39.324219 C 17.402344 38.773438 17.140625 38.273438 16.882812 37.769531 C 17.179688 36.484375 17.515625 35.277344 17.988281 34.316406 C 17.378906 35.023438 16.855469 35.847656 16.363281 36.722656 C 16.347656 36.695312 16.332031 36.664062 16.316406 36.632812 C 16.390625 35.984375 16.464844 35.332031 16.535156 34.683594 C 16.394531 35.21875 16.273438 35.75 16.136719 36.289062 C 15.882812 35.820312 15.625 35.355469 15.386719 34.867188 C 15.597656 35.421875 15.765625 35.96875 15.933594 36.511719 C 15.820312 36.332031 15.71875 36.128906 15.601562 35.960938 C 15.730469 36.292969 15.824219 36.722656 15.9375 37.097656 C 15.871094 37.359375 15.820312 37.617188 15.753906 37.875 C 15.480469 38.453125 15.222656 39.050781 14.984375 39.675781 C 14.679688 39.023438 14.367188 38.382812 14.035156 37.773438 C 14.109375 37.125 14.179688 36.46875 14.253906 35.820312 C 14.113281 36.355469 13.996094 36.890625 13.855469 37.425781 C 13.78125 37.285156 13.707031 37.140625 13.632812 36.996094 C 13.816406 35.011719 14.027344 33.039062 14.242188 31.066406 C 13.703125 33.117188 13.203125 35.160156 12.734375 37.195312 C 12.5625 36.859375 12.40625 36.5 12.226562 36.171875 C 12.300781 35.523438 12.371094 34.871094 12.441406 34.21875 C 12.300781 34.757812 12.183594 35.292969 12.046875 35.828125 C 11.914062 35.585938 11.785156 35.335938 11.65625 35.09375 C 11.761719 34.132812 11.851562 33.167969 11.957031 32.207031 C 11.75 32.988281 11.5625 33.765625 11.367188 34.542969 C 11.34375 34.496094 11.316406 34.453125 11.292969 34.402344 C 11.316406 34.464844 11.332031 34.53125 11.355469 34.589844 C 11.296875 34.816406 11.238281 35.042969 11.183594 35.269531 C 10.921875 34.453125 10.640625 33.679688 10.316406 33.011719 C 10.597656 33.789062 10.777344 34.976562 10.917969 36.324219 C 10.574219 37.742188 10.246094 39.15625 9.941406 40.566406 C 9.777344 39.726562 9.574219 38.960938 9.378906 38.183594 C 9.433594 37.46875 9.515625 36.769531 9.585938 36.058594 C 9.636719 35.933594 9.671875 35.765625 9.730469 35.65625 C 9.683594 35.71875 9.648438 35.800781 9.605469 35.867188 C 9.777344 34.109375 9.953125 32.355469 10.144531 30.605469 C 9.667969 32.4375 9.21875 34.261719 8.792969 36.082031 C 8.558594 35.390625 8.3125 34.726562 8.03125 34.148438 C 8.277344 34.835938 8.453125 35.84375 8.589844 36.976562 C 8.574219 37.046875 8.558594 37.113281 8.542969 37.179688 C 8.242188 36.371094 7.917969 35.609375 7.546875 34.9375 C 7.882812 35.75 8.097656 36.980469 8.265625 38.386719 C 8.253906 38.449219 8.238281 38.507812 8.226562 38.566406 C 8.1875 38.667969 8.152344 38.773438 8.113281 38.875 C 7.667969 36.648438 7.132812 34.621094 6.414062 33.003906 C 6.425781 32.96875 6.4375 32.925781 6.449219 32.890625 C 6.433594 32.921875 6.421875 32.957031 6.40625 32.984375 C 6.34375 32.84375 6.289062 32.6875 6.222656 32.550781 C 6.273438 32.695312 6.300781 32.929688 6.347656 33.09375 C 5.671875 34.292969 5.15625 35.789062 4.699219 37.390625 C 4.335938 36.316406 3.929688 35.328125 3.453125 34.472656 C 3.863281 35.464844 4.117188 37.003906 4.28125 38.855469 C 4.242188 39.015625 4.191406 39.148438 4.152344 39.3125 C 3.773438 37.84375 3.304688 36.363281 2.871094 34.886719 C 2.207031 41.921875 6.664062 45.378906 12.199219 45.128906 C 15.5 45.21875 24.855469 45.136719 28.699219 45.136719 C 28.769531 44.347656 28.824219 43.515625 28.90625 42.765625 C 28.992188 43.5625 29.035156 44.347656 29.097656 45.136719 L 33.519531 45.136719 L 33.835938 44.890625 C 33.875 44.972656 33.910156 45.054688 33.953125 45.136719 L 36.8125 45.136719 C 40.117188 45.136719 42.996094 43.367188 44.359375 40.398438 C 44.390625 39.984375 44.316406 39.402344 44.359375 39.023438 C 44.523438 37.574219 44.828125 36.53125 45.175781 35.625 Z M 11.628906 35.410156 C 11.722656 35.707031 11.835938 36.011719 11.925781 36.308594 C 11.847656 36.613281 11.785156 36.917969 11.707031 37.222656 C 11.644531 36.964844 11.585938 36.6875 11.519531 36.4375 C 11.554688 36.09375 11.589844 35.75 11.628906 35.410156 Z M 21.726562 35.621094 C 21.828125 37.066406 21.707031 38.929688 21.738281 40.925781 C 21.679688 41.136719 21.617188 41.34375 21.546875 41.527344 C 21.300781 41.046875 20.984375 40.550781 20.613281 39.875 C 20.894531 38.285156 21.25 36.839844 21.726562 35.621094 Z M 27.859375 36.621094 C 28.09375 37.585938 28.289062 38.542969 28.449219 39.488281 C 28.054688 40.027344 27.691406 40.652344 27.324219 41.261719 C 27.734375 40.910156 28.140625 40.472656 28.550781 40.109375 C 28.558594 40.152344 28.566406 40.199219 28.574219 40.242188 C 28.15625 41.476562 27.800781 42.84375 27.496094 44.328125 C 27.394531 43.539062 27.253906 42.839844 27.09375 42.1875 C 27.121094 41.675781 27.132812 41.175781 27.136719 40.679688 C 27.316406 39.15625 27.5625 37.816406 27.859375 36.617188 Z M 12.140625 36.957031 C 12.273438 37.414062 12.375 37.863281 12.484375 38.3125 C 12.402344 38.683594 12.308594 39.058594 12.230469 39.433594 C 12.160156 39.09375 12.074219 38.796875 12.003906 38.46875 C 12.054688 37.964844 12.085938 37.457031 12.140625 36.957031 Z M 34.875 37.417969 C 34.980469 38.199219 35.074219 38.984375 35.167969 39.773438 C 34.96875 39.554688 34.765625 39.34375 34.550781 39.152344 C 34.515625 39.039062 34.484375 38.917969 34.449219 38.804688 C 34.585938 38.34375 34.714844 37.882812 34.875 37.417969 Z M 13.582031 37.449219 C 13.628906 37.601562 13.6875 37.753906 13.734375 37.90625 C 13.667969 38.164062 13.617188 38.417969 13.554688 38.671875 C 13.527344 38.6875 13.507812 38.707031 13.484375 38.71875 C 13.480469 38.710938 13.472656 38.699219 13.46875 38.691406 C 13.503906 38.273438 13.546875 37.863281 13.582031 37.449219 Z M 13.949219 38.554688 C 13.988281 38.691406 14.015625 38.820312 14.054688 38.957031 C 14.011719 38.929688 13.964844 38.902344 13.917969 38.878906 C 13.929688 38.769531 13.9375 38.664062 13.949219 38.554688 Z M 18.824219 38.792969 C 18.9375 39.15625 19.085938 39.558594 19.167969 39.882812 C 18.902344 40.5625 18.660156 41.265625 18.433594 42.003906 C 18.390625 41.78125 18.324219 41.59375 18.277344 41.382812 C 18.429688 40.464844 18.617188 39.609375 18.824219 38.792969 Z M 16.507812 39.484375 C 16.613281 40.058594 16.726562 40.613281 16.8125 41.230469 C 16.574219 41.847656 16.351562 42.480469 16.148438 43.144531 C 16.121094 42.992188 16.074219 42.863281 16.042969 42.71875 C 16.097656 42.28125 16.164062 41.871094 16.222656 41.441406 C 16.339844 41.535156 16.457031 41.640625 16.578125 41.726562 C 16.46875 41.574219 16.355469 41.4375 16.246094 41.289062 C 16.332031 40.683594 16.40625 40.0625 16.507812 39.484375 Z M 29.488281 39.503906 L 29.492188 39.503906 C 29.492188 39.507812 29.492188 39.511719 29.496094 39.515625 C 29.648438 40.199219 29.785156 40.914062 29.910156 41.644531 C 29.800781 41.8125 29.695312 41.980469 29.589844 42.152344 C 29.480469 41.558594 29.359375 40.984375 29.214844 40.464844 C 29.261719 40.175781 29.296875 39.855469 29.347656 39.578125 C 29.394531 39.558594 29.441406 39.519531 29.488281 39.503906 Z M 23.054688 39.691406 C 23.300781 40.539062 23.476562 41.324219 23.5625 42.023438 C 23.351562 41.578125 23.179688 41.050781 23.042969 40.457031 C 23.046875 40.203125 23.054688 39.941406 23.054688 39.691406 Z M 13.972656 39.964844 C 14.101562 39.996094 14.222656 40.070312 14.347656 40.125 C 14.414062 40.40625 14.476562 40.6875 14.539062 40.964844 C 14.472656 41.164062 14.402344 41.34375 14.339844 41.542969 C 14.234375 40.984375 14.097656 40.46875 13.945312 39.980469 C 13.957031 39.976562 13.960938 39.96875 13.972656 39.964844 Z M 20.566406 40.179688 C 20.824219 40.957031 21.027344 41.679688 21.144531 42.308594 C 20.984375 42.511719 20.804688 42.667969 20.59375 42.746094 C 20.507812 42.296875 20.429688 42.03125 20.347656 41.703125 C 20.417969 41.191406 20.484375 40.671875 20.566406 40.179688 Z M 32.664062 40.546875 C 32.652344 40.582031 32.640625 40.617188 32.632812 40.648438 C 32.617188 40.636719 32.605469 40.625 32.589844 40.609375 C 32.613281 40.585938 32.640625 40.570312 32.664062 40.546875 Z M 33.941406 40.789062 C 33.96875 41.28125 33.984375 41.820312 34.003906 42.351562 C 33.90625 42.210938 33.800781 42.082031 33.699219 41.945312 C 33.769531 41.5625 33.855469 41.175781 33.941406 40.789062 Z M 29.984375 42.050781 C 29.992188 42.101562 29.996094 42.148438 30.003906 42.199219 C 29.925781 42.527344 29.84375 42.84375 29.773438 43.1875 C 29.738281 42.894531 29.675781 42.660156 29.632812 42.390625 C 29.75 42.273438 29.863281 42.167969 29.984375 42.050781 Z M 35.347656 42.246094 C 35.378906 42.304688 35.414062 42.351562 35.445312 42.40625 C 35.460938 42.597656 35.480469 42.78125 35.496094 42.96875 C 35.445312 42.730469 35.398438 42.484375 35.347656 42.246094 Z M 24.84375 42.605469 C 24.84375 42.621094 24.84375 42.632812 24.847656 42.648438 C 24.84375 42.652344 24.84375 42.660156 24.84375 42.667969 C 24.84375 42.644531 24.84375 42.625 24.84375 42.605469 Z M 24.84375 42.605469 "/>
</g>
<mask id="mask2">
  <g filter="url(#alpha)">
<rect x="0" y="0" width="48" height="48" style="fill:rgb(0%,0%,0%);fill-opacity:0.976471;stroke:none;"/>
  </g>
</mask>
<clipPath id="clip3">
  <rect width="48" height="48"/>
</clipPath>
<g id="surface12" clip-path="url(#clip3)">
<path style=" stroke:none;fill-rule:evenodd;fill:rgb(45.098039%,62.745098%,4.705882%);fill-opacity:1;" d="M 5.335938 31.523438 C 5.761719 35.453125 6.109375 39.417969 6.164062 43.519531 C 6.847656 43.988281 7.554688 44.375 8.367188 44.628906 C 8.347656 42.222656 8.367188 39.964844 8.488281 38.121094 C 8.621094 36.113281 8.855469 34.511719 9.226562 33.476562 C 8.398438 35.183594 7.820312 37.4375 7.335938 39.914062 C 6.746094 37.128906 6.0625 34.332031 5.335938 31.523438 Z M 34.605469 31.644531 C 35.078125 36.066406 35.601562 40.464844 35.542969 45.136719 L 36.917969 45.136719 C 37.167969 45.136719 37.417969 45.121094 37.664062 45.101562 C 37.640625 42.5625 37.632812 40.121094 37.761719 38.199219 C 37.894531 36.207031 38.125 34.625 38.496094 33.597656 C 37.667969 35.304688 37.085938 37.554688 36.601562 40.03125 C 36.011719 37.25 35.328125 34.453125 34.605469 31.644531 Z M 21.589844 34.667969 C 21.902344 35.726562 21.863281 37.34375 21.832031 39.207031 C 21.800781 41.042969 21.789062 43.121094 22.121094 45.136719 L 25.164062 45.136719 C 25.203125 44.152344 25.238281 43.242188 25.390625 42.246094 C 25.550781 41.21875 25.828125 40.097656 26.351562 38.707031 C 25.804688 39.832031 25.421875 40.34375 25.101562 40.960938 C 24.785156 41.578125 24.527344 42.296875 24.238281 43.820312 C 23.78125 43.640625 23.46875 43.144531 23.230469 42.457031 C 22.996094 41.765625 22.835938 40.890625 22.699219 39.953125 C 22.421875 38.078125 22.214844 35.96875 21.589844 34.667969 Z M 32.328125 35.269531 C 32.398438 35.921875 32.46875 36.578125 32.542969 37.230469 C 31.695312 38.800781 30.863281 40.386719 30.445312 42.613281 C 30.003906 41.160156 29.492188 39.8125 28.894531 38.59375 C 28.296875 37.375 27.613281 36.289062 26.824219 35.363281 C 27.40625 36.566406 27.824219 38.078125 28.148438 39.769531 C 28.46875 41.429688 28.695312 43.265625 28.902344 45.136719 L 34.621094 45.136719 C 34.101562 42.558594 33.492188 39.964844 32.839844 37.363281 C 33.03125 36.730469 33.21875 36.097656 33.464844 35.453125 C 33.226562 35.941406 32.972656 36.410156 32.71875 36.878906 C 32.582031 36.34375 32.464844 35.808594 32.328125 35.269531 Z M 41.242188 35.523438 C 40.570312 36.75 40.027344 38.230469 39.566406 39.878906 C 39.136719 41.40625 38.808594 43.25 38.484375 44.984375 C 39.078125 44.871094 39.695312 44.707031 40.238281 44.480469 C 40.265625 42.628906 40.316406 40.859375 40.457031 39.421875 C 40.621094 37.765625 40.871094 36.433594 41.242188 35.523438 Z M 11.925781 36.246094 C 11.296875 37.390625 10.785156 38.765625 10.347656 40.289062 C 9.945312 41.6875 9.558594 43.308594 9.25 44.890625 C 9.792969 44.996094 10.355469 45.136719 10.929688 45.136719 L 12.515625 45.136719 C 12.9375 44.273438 13.335938 43.367188 13.789062 42.566406 C 14.253906 41.738281 14.769531 41.019531 15.417969 40.570312 C 16.171875 40.800781 16.851562 41.714844 17.5625 42.332031 C 16.828125 41.09375 16.121094 39.785156 15.082031 39.265625 C 14.191406 39.871094 13.476562 40.734375 12.8125 41.695312 C 12.152344 42.652344 11.546875 43.699219 10.890625 44.660156 C 10.964844 40.882812 11.257812 37.890625 11.925781 36.246094 Z M 16.761719 36.550781 C 17.453125 38.6875 17.796875 41.808594 18.0625 45.136719 L 19.894531 45.136719 C 20.113281 42.382812 20.472656 39.578125 21.21875 36.644531 C 20.484375 38.890625 19.578125 40.75 19.191406 43.800781 C 18.597656 40.894531 17.820312 38.40625 16.761719 36.550781 Z M 16.761719 36.550781 "/>
</g>
<mask id="mask3">
  <g filter="url(#alpha)">
<rect x="0" y="0" width="48" height="48" style="fill:rgb(0%,0%,0%);fill-opacity:0.976471;stroke:none;"/>
  </g>
</mask>
<clipPath id="clip4">
  <rect width="48" height="48"/>
</clipPath>
<g id="surface15" clip-path="url(#clip4)">
<path style=" stroke:none;fill-rule:evenodd;fill:rgb(30.196078%,51.372549%,1.568627%);fill-opacity:1;" d="M 10.992188 34.335938 C 10.183594 36.589844 9.429688 38.835938 8.773438 41.074219 C 8.234375 39.085938 7.582031 37.273438 6.664062 35.90625 C 7.074219 36.730469 7.332031 38 7.480469 39.597656 C 7.601562 40.898438 7.542969 42.644531 7.539062 44.308594 C 8.265625 44.667969 9.140625 44.894531 9.96875 45.03125 C 9.941406 41.398438 10.476562 37.789062 10.992188 34.335938 Z M 39.234375 35.808594 C 39.648438 36.640625 39.90625 37.921875 40.054688 39.535156 C 40.179688 40.925781 40.25 42.679688 40.238281 44.480469 C 40.867188 44.207031 41.425781 43.847656 41.964844 43.4375 C 41.714844 42.316406 41.386719 41.046875 41.078125 40.023438 C 40.59375 38.410156 40.003906 36.957031 39.234375 35.808594 Z M 25.476562 36.761719 C 24.78125 37.808594 24.550781 39.503906 24.246094 41.007812 C 24.089844 41.761719 23.914062 42.464844 23.652344 43.019531 C 23.390625 43.570312 23.039062 43.972656 22.527344 44.117188 C 22.207031 42.890625 21.925781 42.316406 21.570312 41.824219 C 21.214844 41.328125 20.785156 40.914062 20.175781 40.011719 C 20.773438 41.152344 21.082031 42.03125 21.253906 42.839844 C 21.417969 43.617188 21.453125 44.328125 21.492188 45.136719 L 24.890625 45.136719 C 25.25 43.523438 25.242188 41.867188 25.207031 40.402344 C 25.175781 38.910156 25.132812 37.613281 25.476562 36.761719 Z M 13.527344 37.25 C 13.371094 37.683594 13.238281 38.113281 13.089844 38.542969 C 12.808594 38.167969 12.527344 37.792969 12.261719 37.398438 C 12.535156 37.917969 12.742188 38.421875 12.960938 38.929688 C 12.242188 40.988281 11.515625 43.078125 10.945312 45.117188 C 11.046875 45.121094 11.191406 45.136719 11.296875 45.136719 L 17.34375 45.136719 C 17.578125 43.644531 17.828125 42.179688 18.179688 40.851562 C 18.539062 39.5 19.007812 38.289062 19.652344 37.324219 C 18.773438 38.066406 18.011719 38.941406 17.347656 39.917969 C 16.683594 40.894531 16.113281 41.980469 15.621094 43.148438 C 15.15625 41.359375 14.230469 40.082031 13.289062 38.824219 C 13.371094 38.296875 13.449219 37.773438 13.527344 37.25 Z M 3.609375 37.453125 C 4.019531 38.183594 4.300781 39.25 4.480469 40.574219 C 4.515625 40.820312 4.523438 41.695312 4.550781 41.957031 C 5.019531 42.636719 5.519531 43.003906 6.164062 43.519531 C 5.9375 42.75 5.742188 41.648438 5.472656 40.945312 C 4.960938 39.625 4.355469 38.4375 3.609375 37.453125 Z M 36.230469 38.035156 C 36.601562 38.695312 36.867188 39.621094 37.054688 40.769531 C 37.238281 41.914062 37.339844 43.273438 37.382812 44.789062 C 36.648438 44.015625 35.976562 43.175781 35.242188 42.410156 C 34.507812 41.640625 33.707031 40.945312 32.71875 40.460938 C 31.558594 40.875 30.773438 41.925781 29.953125 42.921875 C 30.746094 42.425781 31.507812 41.691406 32.34375 41.503906 C 33.0625 41.863281 33.632812 42.4375 34.148438 43.101562 C 34.644531 43.734375 35.082031 44.449219 35.542969 45.136719 L 36.878906 45.136719 C 37.65625 45.136719 38.464844 45.046875 39.179688 44.847656 C 38.851562 43.65625 38.40625 42.328125 37.984375 41.273438 C 37.496094 40.050781 36.929688 38.953125 36.230469 38.035156 Z M 30.851562 38.277344 C 29.671875 39.769531 28.804688 41.765625 28.144531 44.097656 C 27.714844 41.648438 26.707031 40.15625 25.886719 38.351562 C 26.714844 40.695312 27.117188 42.9375 27.359375 45.136719 L 29.402344 45.136719 C 29.703125 42.480469 30.082031 39.984375 30.851562 38.277344 Z M 30.851562 38.277344 "/>
</g>
<clipPath id="clip5">
  <rect width="48" height="48"/>
</clipPath>
<g id="surface18" clip-path="url(#clip5)">
<path style=" stroke:none;fill-rule:evenodd;fill:rgb(100%,100%,100%);fill-opacity:1;" d="M 34.371094 8.070312 C 37.667969 8.070312 40.335938 10.738281 40.335938 14.035156 C 40.335938 17.328125 37.667969 19.996094 34.371094 19.996094 C 31.078125 19.996094 28.410156 17.328125 28.410156 14.035156 C 28.410156 10.738281 31.078125 8.070312 34.371094 8.070312 Z M 34.371094 8.070312 "/>
</g>
</defs>
<g id="surface1">
<path style=" stroke:none;fill-rule:evenodd;fill:rgb(24.313725%,36.470588%,61.960784%);fill-opacity:1;" d="M 11.253906 2.828125 L 36.832031 2.828125 C 41.449219 2.828125 45.195312 6.574219 45.195312 11.191406 L 45.195312 36.773438 C 45.195312 41.390625 41.449219 45.132812 36.832031 45.132812 L 11.253906 45.132812 C 6.632812 45.132812 2.890625 41.390625 2.890625 36.773438 L 2.890625 11.191406 C 2.890625 6.574219 6.632812 2.828125 11.253906 2.828125 Z M 11.253906 2.828125 "/>
<use xlink:href="#surface6" mask="url(#mask0)"/>
<use xlink:href="#surface9" mask="url(#mask1)"/>
<use xlink:href="#surface12" mask="url(#mask2)"/>
<use xlink:href="#surface15" mask="url(#mask3)"/>
<path style=" stroke:none;fill-rule:nonzero;fill:rgb(45.098039%,62.745098%,4.705882%);fill-opacity:1;" d="M 11.222656 36.464844 C 11.910156 38.621094 12.25 41.769531 12.515625 45.136719 L 14.292969 45.136719 C 14.503906 42.355469 14.867188 39.519531 15.609375 36.554688 C 14.886719 38.800781 13.996094 40.660156 13.613281 43.710938 C 13.03125 40.804688 12.265625 38.320312 11.222656 36.464844 Z M 11.222656 36.464844 "/>
<use xlink:href="#surface18"/>
</g>
</svg>
