<?xml version="1.0" encoding="UTF-8"?>
<svg xmlns="http://www.w3.org/2000/svg" xmlns:xlink="http://www.w3.org/1999/xlink" width="48pt" height="48pt" viewBox="0 0 48 48" version="1.1">
<g id="surface1">
<path style=" stroke:none;fill-rule:evenodd;fill:rgb(0%,72.156863%,54.117647%);fill-opacity:1;" d="M 11.210938 2.847656 L 36.789062 2.847656 C 41.410156 2.847656 45.152344 6.589844 45.152344 11.210938 L 45.152344 36.789062 C 45.152344 41.410156 41.410156 45.152344 36.789062 45.152344 L 11.210938 45.152344 C 6.589844 45.152344 2.847656 41.410156 2.847656 36.789062 L 2.847656 11.210938 C 2.847656 6.589844 6.589844 2.847656 11.210938 2.847656 Z M 11.210938 2.847656 "/>
<path style=" stroke:none;fill-rule:nonzero;fill:rgb(100%,96.862745%,38.823529%);fill-opacity:1;" d="M 24 7.5 C 14.886719 7.5 7.5 14.886719 7.5 24 C 7.5 33.113281 14.886719 40.5 24 40.5 C 33.113281 40.5 40.5 33.113281 40.5 24 C 40.5 14.886719 33.113281 7.5 24 7.5 Z M 21 10.5 L 27 10.5 L 24 22.5 Z M 16.578125 12.335938 L 19.757812 17.636719 L 22.941406 22.941406 L 17.636719 19.757812 L 12.332031 16.578125 L 14.453125 14.453125 Z M 31.421875 12.335938 L 33.546875 14.453125 L 35.667969 16.578125 L 30.363281 19.757812 L 25.058594 22.941406 L 28.242188 17.636719 Z M 10.5 21.035156 L 22.5 24.035156 L 10.5 27.035156 Z M 37.5 21.035156 L 37.5 27.035156 L 25.5 24.035156 Z M 22.941406 25.09375 L 19.757812 30.398438 L 16.578125 35.699219 L 12.335938 31.457031 L 17.636719 28.277344 Z M 25.0625 25.09375 L 30.363281 28.277344 L 35.667969 31.457031 L 31.425781 35.699219 L 28.242188 30.398438 Z M 24 25.542969 L 27 37.542969 L 21 37.542969 Z M 24 25.542969 "/>
</g>
</svg>
