<?xml version="1.0" encoding="UTF-8"?>
<svg xmlns="http://www.w3.org/2000/svg" xmlns:xlink="http://www.w3.org/1999/xlink" width="48pt" height="48pt" viewBox="0 0 48 48" version="1.1">
<defs>
<clipPath id="clip1">
  <rect width="48" height="48"/>
</clipPath>
<g id="surface6" clip-path="url(#clip1)">
<path style=" stroke:none;fill-rule:nonzero;fill:rgb(100%,100%,100%);fill-opacity:1;" d="M 12.933594 37.78125 L 12.933594 35.921875 L 27.6875 35.921875 L 27.6875 37.78125 Z M 12.933594 32.207031 L 12.933594 30.347656 L 35.066406 30.347656 L 35.066406 32.207031 Z M 12.933594 26.632812 L 12.933594 24.773438 L 35.066406 24.773438 L 35.066406 26.632812 Z M 12.933594 21.058594 L 12.933594 19.199219 L 35.066406 19.199219 L 35.066406 21.058594 Z M 12.933594 21.058594 "/>
</g>
</defs>
<g id="surface1">
<path style=" stroke:none;fill-rule:evenodd;fill:rgb(18.823529%,45.490196%,100%);fill-opacity:1;" d="M 45.152344 18.332031 L 45.152344 11.207031 C 45.152344 6.574219 41.425781 2.847656 36.789062 2.847656 L 29.664062 2.847656 Z M 45.152344 18.332031 "/>
<path style=" stroke:none;fill-rule:evenodd;fill:rgb(18.823529%,45.490196%,100%);fill-opacity:1;" d="M 27.167969 2.847656 L 11.210938 2.847656 C 6.578125 2.847656 2.847656 6.574219 2.847656 11.207031 L 2.847656 36.789062 C 2.847656 41.421875 6.578125 45.152344 11.210938 45.152344 L 36.789062 45.152344 C 41.425781 45.152344 45.152344 41.421875 45.152344 36.789062 L 45.152344 20.832031 Z M 27.167969 2.847656 "/>
<path style=" stroke:none;fill-rule:evenodd;fill:rgb(100%,100%,100%);fill-opacity:1;" d="M 27.167969 2.847656 L 45.152344 20.832031 L 45.152344 18.332031 L 29.664062 2.847656 Z M 27.167969 2.847656 "/>
<use xlink:href="#surface6"/>
</g>
</svg>
