<?xml version="1.0" encoding="UTF-8"?>
<svg xmlns="http://www.w3.org/2000/svg" xmlns:xlink="http://www.w3.org/1999/xlink" width="48pt" height="48pt" viewBox="0 0 48 48" version="1.1">
<g id="surface1">
<path style=" stroke:none;fill-rule:evenodd;fill:rgb(96.078431%,57.647059%,20.784314%);fill-opacity:1;" d="M 11.210938 2.847656 L 36.789062 2.847656 C 41.410156 2.847656 45.152344 6.589844 45.152344 11.210938 L 45.152344 36.789062 C 45.152344 41.410156 41.410156 45.152344 36.789062 45.152344 L 11.210938 45.152344 C 6.589844 45.152344 2.847656 41.410156 2.847656 36.789062 L 2.847656 11.210938 C 2.847656 6.589844 6.589844 2.847656 11.210938 2.847656 Z M 11.210938 2.847656 "/>
<path style=" stroke:none;fill-rule:nonzero;fill:rgb(100%,100%,100%);fill-opacity:1;" d="M 14.101562 12 C 12.273438 12 10.460938 13.460938 10.5 15.273438 L 10.5 30 L 7.5 30 L 7.5 36 L 40.5 36 L 40.5 30 L 37.5 30 L 37.5 15.273438 C 37.5 13.460938 35.726562 12 33.898438 12 Z M 15.75 15 L 32.25 15 C 33.46875 15 34.5 16.246094 34.5 17.457031 L 34.5 28.363281 C 34.5 28.761719 34.582031 30.210938 33.597656 30 L 14.402344 30 C 13.417969 29.945312 13.5 28.761719 13.5 28.363281 L 13.5 17.457031 C 13.5 16.246094 14.53125 15 15.75 15 Z M 15.75 15 "/>
</g>
</svg>
