<?xml version="1.0" encoding="UTF-8"?>
<svg xmlns="http://www.w3.org/2000/svg" xmlns:xlink="http://www.w3.org/1999/xlink" width="48pt" height="48pt" viewBox="0 0 48 48" version="1.1">
<defs>
<clipPath id="clip1">
  <rect width="48" height="48"/>
</clipPath>
<g id="surface6" clip-path="url(#clip1)">
<path style=" stroke:none;fill-rule:nonzero;fill:rgb(14.509804%,77.647059%,37.254902%);fill-opacity:1;" d="M 7.679688 36.53125 L 7.695312 24.007812 L 7.679688 17.722656 L 13.136719 14.601562 L 24.015625 8.332031 L 34.898438 14.601562 L 40.320312 17.722656 L 40.320312 36.53125 L 34.882812 39.667969 L 29.441406 36.53125 L 29.457031 30.277344 L 34.882812 27.128906 L 34.882812 20.855469 L 29.457031 17.738281 L 24.015625 14.601562 L 18.574219 17.738281 L 13.117188 20.855469 L 13.117188 27.128906 L 18.558594 30.261719 L 18.558594 36.535156 L 13.117188 39.667969 Z M 7.679688 36.53125 "/>
</g>
</defs>
<g id="surface1">
<path style=" stroke:none;fill-rule:evenodd;fill:rgb(30.196078%,30.196078%,30.196078%);fill-opacity:1;" d="M 11.210938 2.847656 L 36.789062 2.847656 C 41.410156 2.847656 45.152344 6.589844 45.152344 11.210938 L 45.152344 36.789062 C 45.152344 41.410156 41.410156 45.152344 36.789062 45.152344 L 11.210938 45.152344 C 6.589844 45.152344 2.847656 41.410156 2.847656 36.789062 L 2.847656 11.210938 C 2.847656 6.589844 6.589844 2.847656 11.210938 2.847656 Z M 11.210938 2.847656 "/>
<use xlink:href="#surface6"/>
</g>
</svg>
