<?xml version="1.0" encoding="UTF-8"?>
<svg xmlns="http://www.w3.org/2000/svg" xmlns:xlink="http://www.w3.org/1999/xlink" width="48pt" height="48pt" viewBox="0 0 48 48" version="1.1">
<g id="surface1">
<path style=" stroke:none;fill-rule:evenodd;fill:rgb(60%,60%,60%);fill-opacity:1;" d="M 43.09375 42.136719 C 42.648438 42.246094 42.089844 42.386719 42.089844 42.386719 L 5.867188 42.386719 C 5.699219 42.386719 5.277344 42.242188 4.941406 42.1875 C 6.472656 43.96875 8.667969 45.152344 11.210938 45.152344 L 36.789062 45.152344 C 39.355469 45.152344 41.5625 43.945312 43.09375 42.136719 Z M 43.09375 42.136719 "/>
<path style=" stroke:none;fill-rule:evenodd;fill:rgb(0%,30.196078%,73.333333%);fill-opacity:1;" d="M 45.105469 37.023438 L 45.105469 20.957031 C 45.105469 20.265625 44.773438 19.65625 44.261719 19.273438 L 44.273438 19.261719 L 23.976562 4.355469 C 23.976562 4.355469 3.6875 19.28125 3.808594 19.1875 L 3.808594 19.183594 C 3.765625 19.210938 3.726562 19.246094 3.683594 19.277344 L 3.660156 19.292969 L 3.660156 19.296875 C 3.167969 19.683594 2.847656 20.28125 2.847656 20.957031 L 2.847656 36.792969 C 2.847656 38.878906 3.683594 40.726562 4.941406 42.1875 C 5.277344 42.242188 5.699219 42.386719 5.867188 42.386719 L 42.089844 42.386719 C 42.089844 42.386719 42.648438 42.246094 43.09375 42.136719 C 44.277344 40.738281 45.050781 38.992188 45.105469 37.023438 Z M 45.105469 37.023438 "/>
<path style=" stroke:none;fill-rule:evenodd;fill:rgb(60%,60%,60%);fill-opacity:1;" d="M 11.210938 2.847656 C 6.578125 2.847656 2.847656 6.578125 2.847656 11.210938 L 2.847656 20.957031 C 2.847656 20.28125 3.167969 19.683594 3.660156 19.296875 L 3.660156 19.292969 L 3.683594 19.277344 C 3.726562 19.246094 3.765625 19.210938 3.808594 19.183594 L 3.808594 19.1875 C 3.6875 19.28125 23.976562 4.351562 23.976562 4.351562 L 44.273438 19.257812 L 44.261719 19.269531 C 44.773438 19.65625 45.105469 20.265625 45.105469 20.957031 L 45.105469 37.023438 C 45.109375 36.941406 45.152344 36.875 45.152344 36.789062 L 45.152344 11.210938 C 45.152344 6.578125 41.421875 2.847656 36.789062 2.847656 Z M 11.210938 2.847656 "/>
<path style=" stroke:none;fill-rule:nonzero;fill:rgb(92.156863%,92.156863%,92.156863%);fill-opacity:1;" d="M 9.640625 8.878906 L 38.316406 8.878906 C 39.566406 8.878906 40.578125 9.894531 40.578125 11.140625 L 40.578125 33.785156 C 40.578125 35.035156 39.566406 36.046875 38.316406 36.046875 L 9.640625 36.046875 C 8.390625 36.046875 7.375 35.035156 7.375 33.785156 L 7.375 11.140625 C 7.375 9.894531 8.390625 8.878906 9.640625 8.878906 Z M 9.640625 8.878906 "/>
<path style=" stroke:none;fill-rule:evenodd;fill:rgb(0%,49.411765%,100%);fill-opacity:1;" d="M 45.105469 37.023438 L 45.105469 20.957031 L 10.394531 44.988281 C 10.675781 45.015625 10.921875 45.152344 11.210938 45.152344 L 36.789062 45.152344 C 41.339844 45.152344 44.976562 41.539062 45.105469 37.023438 Z M 45.105469 37.023438 "/>
<path style=" stroke:none;fill-rule:evenodd;fill:rgb(0%,63.529412%,100%);fill-opacity:1;" d="M 23.976562 35.585938 L 2.847656 20.957031 L 2.847656 36.792969 C 2.847656 41.132812 6.167969 44.558594 10.394531 44.988281 Z M 23.976562 35.585938 "/>
<path style=" stroke:none;fill-rule:nonzero;fill:rgb(36.078431%,48.627451%,85.490196%);fill-opacity:1;" d="M 31.101562 23.378906 L 23.640625 23.367188 L 16.898438 23.378906 L 20.644531 18.742188 L 24 14.539062 L 27.714844 19.1875 Z M 31.101562 23.378906 "/>
<path style=" stroke:none;fill-rule:nonzero;fill:rgb(36.078431%,48.627451%,85.490196%);fill-opacity:1;" d="M 21.660156 20.652344 L 26.339844 20.652344 L 26.339844 27.671875 L 21.660156 27.671875 Z M 21.660156 20.652344 "/>
</g>
</svg>
