<?xml version="1.0" encoding="UTF-8"?>
<svg xmlns="http://www.w3.org/2000/svg" xmlns:xlink="http://www.w3.org/1999/xlink" width="48pt" height="48pt" viewBox="0 0 48 48" version="1.1">
<defs>
<filter id="alpha" filterUnits="objectBoundingBox" x="0%" y="0%" width="100%" height="100%">
  <feColorMatrix type="matrix" in="SourceGraphic" values="0 0 0 0 1 0 0 0 0 1 0 0 0 0 1 0 0 0 1 0"/>
</filter>
<mask id="mask0">
  <g filter="url(#alpha)">
<rect x="0" y="0" width="48" height="48" style="fill:rgb(0%,0%,0%);fill-opacity:0.101961;stroke:none;"/>
  </g>
</mask>
<clipPath id="clip1">
  <rect width="48" height="48"/>
</clipPath>
<g id="surface6" clip-path="url(#clip1)">
<path style=" stroke:none;fill-rule:nonzero;fill:rgb(100%,100%,100%);fill-opacity:1;" d="M 15.023438 10.539062 C 10.675781 13.4375 7.824219 18.382812 7.824219 24.019531 L 20.777344 24.019531 C 20.777344 22.707031 21.5625 21.582031 22.6875 21.074219 Z M 15.023438 10.539062 "/>
</g>
<mask id="mask1">
  <g filter="url(#alpha)">
<rect x="0" y="0" width="48" height="48" style="fill:rgb(0%,0%,0%);fill-opacity:0.101961;stroke:none;"/>
  </g>
</mask>
<clipPath id="clip2">
  <rect width="48" height="48"/>
</clipPath>
<g id="surface9" clip-path="url(#clip2)">
<path style=" stroke:none;fill-rule:nonzero;fill:rgb(100%,100%,100%);fill-opacity:1;" d="M 32.976562 37.460938 C 37.324219 34.5625 40.175781 29.617188 40.175781 23.980469 L 27.222656 23.980469 C 27.222656 25.292969 26.4375 26.417969 25.3125 26.925781 Z M 32.976562 37.460938 "/>
</g>
<linearGradient id="linear0" gradientUnits="userSpaceOnUse" x1="409.57001" y1="540.79999" x2="409.57001" y2="506.79999" gradientTransform="matrix(0.127022,0,0,-0.127022,-27.896065,90.531951)">
<stop offset="0" style="stop-color:rgb(16.470588%,17.254902%,18.431373%);stop-opacity:1;"/>
<stop offset="1" style="stop-color:rgb(25.882353%,27.45098%,28.627451%);stop-opacity:1;"/>
</linearGradient>
</defs>
<g id="surface1">
<path style=" stroke:none;fill-rule:evenodd;fill:rgb(99.607843%,72.54902%,14.509804%);fill-opacity:1;" d="M 11.210938 2.847656 L 36.789062 2.847656 C 41.410156 2.847656 45.152344 6.589844 45.152344 11.210938 L 45.152344 36.789062 C 45.152344 41.410156 41.410156 45.152344 36.789062 45.152344 L 11.210938 45.152344 C 6.589844 45.152344 2.847656 41.410156 2.847656 36.789062 L 2.847656 11.210938 C 2.847656 6.589844 6.589844 2.847656 11.210938 2.847656 Z M 11.210938 2.847656 "/>
<path style=" stroke:none;fill-rule:nonzero;fill:rgb(30.980392%,30.980392%,30.980392%);fill-opacity:1;" d="M 40.195312 24 C 40.195312 32.945312 32.945312 40.195312 24 40.195312 C 15.054688 40.195312 7.804688 32.945312 7.804688 24 C 7.804688 15.054688 15.054688 7.804688 24 7.804688 C 32.945312 7.804688 40.195312 15.054688 40.195312 24 Z M 40.195312 24 "/>
<use xlink:href="#surface6" mask="url(#mask0)"/>
<use xlink:href="#surface9" mask="url(#mask1)"/>
<path style=" stroke:none;fill-rule:nonzero;fill:rgb(99.607843%,72.54902%,14.509804%);fill-opacity:1;" d="M 24 17.523438 C 27.578125 17.523438 30.476562 20.421875 30.476562 24 C 30.476562 27.578125 27.578125 30.476562 24 30.476562 C 20.421875 30.476562 17.523438 27.578125 17.523438 24 C 17.523438 20.421875 20.421875 17.523438 24 17.523438 Z M 24 17.523438 "/>
<path style=" stroke:none;fill-rule:nonzero;fill:url(#linear0);" d="M 24 26.160156 C 25.191406 26.160156 26.160156 25.191406 26.160156 24 C 26.160156 22.808594 25.191406 21.839844 24 21.839844 C 22.808594 21.839844 21.839844 22.808594 21.839844 24 C 21.839844 25.191406 22.808594 26.160156 24 26.160156 Z M 24 26.160156 "/>
</g>
</svg>
