<?xml version="1.0" encoding="UTF-8"?>
<svg xmlns="http://www.w3.org/2000/svg" xmlns:xlink="http://www.w3.org/1999/xlink" width="48pt" height="48pt" viewBox="0 0 48 48" version="1.1">
<g id="surface1">
<path style=" stroke:none;fill-rule:evenodd;fill:rgb(0.784314%,52.54902%,76.078431%);fill-opacity:1;" d="M 11.210938 2.847656 L 36.789062 2.847656 C 41.410156 2.847656 45.152344 6.589844 45.152344 11.210938 L 45.152344 36.789062 C 45.152344 41.410156 41.410156 45.152344 36.789062 45.152344 L 11.210938 45.152344 C 6.589844 45.152344 2.847656 41.410156 2.847656 36.789062 L 2.847656 11.210938 C 2.847656 6.589844 6.589844 2.847656 11.210938 2.847656 Z M 11.210938 2.847656 "/>
<path style=" stroke:none;fill-rule:nonzero;fill:rgb(100%,100%,100%);fill-opacity:1;" d="M 19.035156 7.324219 C 13.535156 7.324219 9.109375 11.914062 9.109375 17.617188 L 9.109375 23.238281 C 9.109375 23.417969 9.128906 23.589844 9.136719 23.765625 C 9.226562 27.742188 9.75 34.472656 12.285156 37.355469 C 14.835938 40.257812 20.785156 40.675781 23.1875 40.675781 C 27.457031 40.675781 29.359375 39.003906 29.359375 39.003906 L 29.359375 36.257812 C 29.359375 36.257812 26.785156 37.15625 23.742188 37.101562 C 21.652344 37.066406 19.863281 36.519531 18.964844 35.164062 C 18.640625 34.675781 18.664062 34.195312 18.566406 33.503906 C 18.722656 33.511719 18.875 33.53125 19.035156 33.53125 L 28.964844 33.53125 C 34.464844 33.53125 38.890625 28.9375 38.890625 23.238281 L 38.890625 17.617188 C 38.890625 11.914062 34.464844 7.324219 28.964844 7.324219 Z M 19.035156 7.324219 "/>
<path style=" stroke:none;fill-rule:nonzero;fill:rgb(0.784314%,52.54902%,76.078431%);fill-opacity:1;" d="M 19.832031 17.449219 C 19.832031 18.433594 19.03125 19.234375 18.042969 19.234375 C 17.058594 19.234375 16.257812 18.433594 16.257812 17.449219 C 16.257812 16.460938 17.058594 15.660156 18.042969 15.660156 C 19.03125 15.660156 19.832031 16.460938 19.832031 17.449219 Z M 19.832031 17.449219 "/>
</g>
</svg>
