<?xml version="1.0" encoding="UTF-8"?>
<svg xmlns="http://www.w3.org/2000/svg" xmlns:xlink="http://www.w3.org/1999/xlink" width="48pt" height="48pt" viewBox="0 0 48 48" version="1.1">
<g id="surface1">
<path style=" stroke:none;fill-rule:evenodd;fill:rgb(30.980392%,30.980392%,30.980392%);fill-opacity:1;" d="M 11.210938 2.847656 L 36.789062 2.847656 C 41.410156 2.847656 45.152344 6.589844 45.152344 11.210938 L 45.152344 36.789062 C 45.152344 41.410156 41.410156 45.152344 36.789062 45.152344 L 11.210938 45.152344 C 6.589844 45.152344 2.847656 41.410156 2.847656 36.789062 L 2.847656 11.210938 C 2.847656 6.589844 6.589844 2.847656 11.210938 2.847656 Z M 11.210938 2.847656 "/>
<path style=" stroke:none;fill-rule:nonzero;fill:rgb(100%,100%,100%);fill-opacity:1;" d="M 21.75 6.75 L 21.75 14.25 L 26.25 14.25 L 26.25 6.75 Z M 21.75 20.25 L 21.75 27.75 L 26.25 27.75 L 26.25 20.25 Z M 21.75 33.75 L 21.75 41.25 L 26.25 41.25 L 26.25 33.75 Z M 21.75 33.75 "/>
<path style=" stroke:none;fill-rule:evenodd;fill:rgb(24.705882%,54.901961%,90.196078%);fill-opacity:1;" d="M 43.125 33.691406 C 43.125 38.664062 39.09375 42.691406 34.125 42.691406 C 29.15625 42.691406 25.125 38.664062 25.125 33.691406 C 25.125 28.722656 29.15625 24.691406 34.125 24.691406 C 39.09375 24.691406 43.125 28.722656 43.125 33.691406 Z M 43.125 33.691406 "/>
<path style=" stroke:none;fill-rule:nonzero;fill:rgb(100%,100%,100%);fill-opacity:1;" d="M 33 25.816406 L 33 28.183594 C 30.792969 28.636719 29.070312 30.359375 28.617188 32.566406 L 26.25 32.566406 L 26.25 34.816406 L 28.613281 34.816406 C 29.066406 37.023438 30.792969 38.75 33 39.199219 L 33 41.566406 L 35.25 41.566406 L 35.25 39.203125 C 37.457031 38.75 39.179688 37.027344 39.632812 34.816406 L 42 34.816406 L 42 32.566406 L 39.636719 32.566406 C 39.183594 30.359375 37.457031 28.636719 35.25 28.1875 L 35.25 25.816406 Z M 34.125 31.441406 C 35.367188 31.441406 36.375 32.449219 36.375 33.691406 C 36.375 34.9375 35.367188 35.941406 34.125 35.941406 C 32.882812 35.941406 31.875 34.9375 31.875 33.691406 C 31.875 32.449219 32.882812 31.441406 34.125 31.441406 Z M 34.125 31.441406 "/>
</g>
</svg>
