<?xml version="1.0" encoding="UTF-8"?>
<svg xmlns="http://www.w3.org/2000/svg" xmlns:xlink="http://www.w3.org/1999/xlink" width="48pt" height="48pt" viewBox="0 0 48 48" version="1.1">
<g id="surface1">
<path style=" stroke:none;fill-rule:evenodd;fill:rgb(13.333333%,33.72549%,43.921569%);fill-opacity:1;" d="M 11.210938 2.847656 L 36.789062 2.847656 C 41.410156 2.847656 45.152344 6.589844 45.152344 11.210938 L 45.152344 36.789062 C 45.152344 41.410156 41.410156 45.152344 36.789062 45.152344 L 11.210938 45.152344 C 6.589844 45.152344 2.847656 41.410156 2.847656 36.789062 L 2.847656 11.210938 C 2.847656 6.589844 6.589844 2.847656 11.210938 2.847656 Z M 11.210938 2.847656 "/>
<path style=" stroke:none;fill-rule:nonzero;fill:rgb(37.254902%,48.627451%,54.117647%);fill-opacity:1;" d="M 9.308594 18.050781 L 9.425781 23.132812 C 9.539062 23.941406 10.214844 25.40625 11.238281 26.558594 C 12.660156 28.160156 14.746094 29.167969 17.078125 29.167969 L 30.894531 29.167969 L 36.078125 36.007812 C 38.667969 39.425781 41.585938 36.609375 41.257812 34.296875 L 40.394531 18.050781 Z M 9.308594 18.050781 "/>
<path style=" stroke:none;fill-rule:nonzero;fill:rgb(49.803922%,58.823529%,63.137255%);fill-opacity:1;" d="M 15.40625 10.402344 L 32.65625 10.402344 C 36.957031 10.402344 40.417969 13.800781 40.417969 18.019531 C 40.417969 19.953125 39.691406 21.714844 38.488281 23.054688 C 37.070312 24.640625 34.984375 25.636719 32.65625 25.636719 L 18.855469 25.636719 L 11.953125 35.792969 C 9.34375 39.230469 6.234375 37.246094 6.78125 34.101562 L 7.640625 18.019531 C 7.867188 13.804688 11.105469 10.402344 15.40625 10.402344 Z M 15.40625 10.402344 "/>
<path style=" stroke:none;fill-rule:nonzero;fill:rgb(87.45098%,89.803922%,90.980392%);fill-opacity:1;" d="M 19.078125 16.582031 L 19.078125 19.054688 L 11.660156 19.054688 L 11.660156 16.582031 Z M 19.078125 16.582031 "/>
<path style=" stroke:none;fill-rule:nonzero;fill:rgb(87.45098%,89.803922%,90.980392%);fill-opacity:1;" d="M 31.4375 17.820312 C 31.4375 18.5 30.886719 19.054688 30.203125 19.054688 C 29.519531 19.054688 28.964844 18.5 28.964844 17.820312 C 28.964844 17.136719 29.519531 16.582031 30.203125 16.582031 C 30.886719 16.582031 31.4375 17.136719 31.4375 17.820312 Z M 31.4375 17.820312 "/>
<path style=" stroke:none;fill-rule:nonzero;fill:rgb(87.45098%,89.803922%,90.980392%);fill-opacity:1;" d="M 36.382812 17.820312 C 36.382812 18.5 35.828125 19.054688 35.148438 19.054688 C 34.464844 19.054688 33.910156 18.5 33.910156 17.820312 C 33.910156 17.136719 34.464844 16.582031 35.148438 16.582031 C 35.828125 16.582031 36.382812 17.136719 36.382812 17.820312 Z M 36.382812 17.820312 "/>
<path style=" stroke:none;fill-rule:nonzero;fill:rgb(87.45098%,89.803922%,90.980392%);fill-opacity:1;" d="M 32.675781 16.582031 C 31.992188 16.582031 31.4375 16.03125 31.4375 15.347656 C 31.4375 14.664062 31.992188 14.109375 32.675781 14.109375 C 33.355469 14.109375 33.910156 14.664062 33.910156 15.347656 C 33.910156 16.03125 33.355469 16.582031 32.675781 16.582031 Z M 32.675781 16.582031 "/>
<path style=" stroke:none;fill-rule:nonzero;fill:rgb(87.45098%,89.803922%,90.980392%);fill-opacity:1;" d="M 32.675781 21.527344 C 31.992188 21.527344 31.4375 20.972656 31.4375 20.292969 C 31.4375 19.609375 31.992188 19.054688 32.675781 19.054688 C 33.355469 19.054688 33.910156 19.609375 33.910156 20.292969 C 33.910156 20.972656 33.355469 21.527344 32.675781 21.527344 Z M 32.675781 21.527344 "/>
<path style=" stroke:none;fill-rule:nonzero;fill:rgb(87.45098%,89.803922%,90.980392%);fill-opacity:1;" d="M 16.605469 21.527344 L 14.132812 21.527344 L 14.132812 14.109375 L 16.605469 14.109375 Z M 16.605469 21.527344 "/>
</g>
</svg>
