<?xml version="1.0" encoding="UTF-8"?>
<svg xmlns="http://www.w3.org/2000/svg" xmlns:xlink="http://www.w3.org/1999/xlink" width="48pt" height="48pt" viewBox="0 0 48 48" version="1.1">
<defs>
<clipPath id="clip1">
  <rect width="48" height="48"/>
</clipPath>
<g id="surface6" clip-path="url(#clip1)">
<path style=" stroke:none;fill-rule:nonzero;fill:rgb(100%,100%,100%);fill-opacity:1;" d="M 24 12 C 17.371094 12 12 17.371094 12 24 C 12 30.628906 17.371094 36 24 36 L 31.5 36 C 31.5 36 32.90625 36 33 34.5 C 33 33 31.5 33 31.5 33 L 24 33 C 19.03125 33 15 28.972656 15 24 C 15 19.03125 19.03125 15 24 15 C 28.96875 15 33 19.03125 33 24 L 33 25.5 C 33 26.328125 32.328125 27 31.5 27 C 30.671875 27 30 26.328125 30 25.5 L 30 24 C 30 20.6875 27.3125 18 24 18 C 20.6875 18 18 20.6875 18 24 C 18 27.3125 20.6875 30 24 30 C 25.570312 30 26.984375 29.382812 28.054688 28.398438 C 28.910156 29.414062 30.171875 30 31.5 30 C 33.984375 30 36 27.984375 36 25.5 L 36 24 C 36 17.371094 30.628906 12 24 12 Z M 24 21 C 25.65625 21 27 22.34375 27 24 C 27 25.65625 25.65625 27 24 27 C 22.34375 27 21 25.65625 21 24 C 21 22.34375 22.34375 21 24 21 Z M 24 21 "/>
</g>
</defs>
<g id="surface1">
<path style=" stroke:none;fill-rule:evenodd;fill:rgb(21.568627%,85.882353%,67.843137%);fill-opacity:1;" d="M 11.210938 2.847656 L 36.789062 2.847656 C 41.410156 2.847656 45.152344 6.589844 45.152344 11.210938 L 45.152344 36.789062 C 45.152344 41.410156 41.410156 45.152344 36.789062 45.152344 L 11.210938 45.152344 C 6.589844 45.152344 2.847656 41.410156 2.847656 36.789062 L 2.847656 11.210938 C 2.847656 6.589844 6.589844 2.847656 11.210938 2.847656 Z M 11.210938 2.847656 "/>
<use xlink:href="#surface6"/>
</g>
</svg>
