<?xml version="1.0" encoding="UTF-8"?>
<svg xmlns="http://www.w3.org/2000/svg" xmlns:xlink="http://www.w3.org/1999/xlink" width="48pt" height="48pt" viewBox="0 0 48 48" version="1.1">
<defs>
<clipPath id="clip1">
  <rect width="48" height="48"/>
</clipPath>
<g id="surface6" clip-path="url(#clip1)">
<path style=" stroke:none;fill-rule:nonzero;fill:rgb(100%,100%,100%);fill-opacity:1;" d="M 21.070312 9.6875 C 20.765625 9.722656 20.5 9.96875 20.441406 10.269531 L 19.839844 13.332031 C 18.757812 13.757812 17.738281 14.339844 16.84375 15.054688 L 13.871094 14.046875 C 13.558594 13.941406 13.1875 14.078125 13.019531 14.363281 L 10.15625 19.328125 C 9.996094 19.613281 10.0625 20.007812 10.3125 20.222656 L 12.683594 22.300781 C 12.601562 22.859375 12.550781 23.417969 12.550781 24 C 12.550781 24.582031 12.601562 25.140625 12.683594 25.699219 L 10.3125 27.777344 C 10.0625 27.992188 9.996094 28.390625 10.15625 28.675781 L 13.019531 33.636719 C 13.1875 33.921875 13.558594 34.058594 13.871094 33.953125 L 16.84375 32.945312 C 17.738281 33.660156 18.757812 34.242188 19.839844 34.667969 L 20.441406 37.730469 C 20.503906 38.050781 20.8125 38.308594 21.136719 38.3125 L 26.863281 38.3125 C 27.1875 38.308594 27.496094 38.050781 27.558594 37.730469 L 28.160156 34.667969 C 29.242188 34.242188 30.261719 33.660156 31.15625 32.945312 L 34.128906 33.953125 C 34.441406 34.058594 34.816406 33.921875 34.980469 33.636719 L 37.84375 28.675781 C 38.003906 28.390625 37.9375 27.992188 37.6875 27.777344 L 35.316406 25.699219 C 35.398438 25.140625 35.449219 24.582031 35.449219 24 C 35.449219 23.417969 35.398438 22.859375 35.316406 22.300781 L 37.6875 20.222656 C 37.9375 20.007812 38.003906 19.613281 37.84375 19.328125 L 34.980469 14.363281 C 34.8125 14.078125 34.441406 13.941406 34.128906 14.046875 L 31.15625 15.054688 C 30.261719 14.339844 29.242188 13.757812 28.160156 13.332031 L 27.558594 10.269531 C 27.496094 9.949219 27.1875 9.691406 26.863281 9.6875 L 21.136719 9.6875 C 21.117188 9.6875 21.09375 9.6875 21.070312 9.6875 Z M 24 17.863281 C 27.386719 17.863281 30.136719 20.613281 30.136719 24 C 30.136719 27.386719 27.386719 30.136719 24 30.136719 C 20.613281 30.136719 17.863281 27.386719 17.863281 24 C 17.863281 20.613281 20.613281 17.863281 24 17.863281 Z M 24 17.863281 "/>
</g>
</defs>
<g id="surface1">
<path style=" stroke:none;fill-rule:evenodd;fill:rgb(24.705882%,38.039216%,43.921569%);fill-opacity:1;" d="M 11.210938 2.847656 L 36.789062 2.847656 C 41.410156 2.847656 45.152344 6.589844 45.152344 11.210938 L 45.152344 36.789062 C 45.152344 41.410156 41.410156 45.152344 36.789062 45.152344 L 11.210938 45.152344 C 6.589844 45.152344 2.847656 41.410156 2.847656 36.789062 L 2.847656 11.210938 C 2.847656 6.589844 6.589844 2.847656 11.210938 2.847656 Z M 11.210938 2.847656 "/>
<use xlink:href="#surface6"/>
</g>
</svg>
