<?xml version="1.0" encoding="UTF-8"?>
<svg xmlns="http://www.w3.org/2000/svg" xmlns:xlink="http://www.w3.org/1999/xlink" width="48pt" height="48pt" viewBox="0 0 48 48" version="1.1">
<g id="surface1">
<path style=" stroke:none;fill-rule:evenodd;fill:rgb(55.686275%,55.686275%,55.686275%);fill-opacity:1;" d="M 11.210938 2.847656 L 36.789062 2.847656 C 41.410156 2.847656 45.152344 6.589844 45.152344 11.210938 L 45.152344 36.789062 C 45.152344 41.410156 41.410156 45.152344 36.789062 45.152344 L 11.210938 45.152344 C 6.589844 45.152344 2.847656 41.410156 2.847656 36.789062 L 2.847656 11.210938 C 2.847656 6.589844 6.589844 2.847656 11.210938 2.847656 Z M 11.210938 2.847656 "/>
<path style=" stroke:none;fill-rule:nonzero;fill:rgb(27.843137%,27.843137%,27.843137%);fill-opacity:1;" d="M 13.644531 12.101562 C 10.917969 12.101562 8.726562 14.292969 8.726562 17.015625 L 8.726562 30.050781 C 8.726562 32.773438 10.917969 34.964844 13.644531 34.964844 L 16.292969 34.964844 C 16.519531 36.628906 17.925781 37.910156 19.65625 37.910156 L 28.34375 37.910156 C 30.074219 37.910156 31.480469 36.628906 31.707031 34.964844 L 34.355469 34.964844 C 37.082031 34.964844 39.273438 32.773438 39.273438 30.050781 L 39.273438 17.015625 C 39.273438 14.292969 37.082031 12.101562 34.355469 12.101562 Z M 13.644531 12.101562 "/>
<path style=" stroke:none;fill-rule:nonzero;fill:rgb(13.72549%,13.72549%,13.72549%);fill-opacity:1;" d="M 13.824219 13.546875 L 34.175781 13.546875 C 36.230469 13.546875 37.898438 15.148438 37.898438 17.121094 L 37.898438 29.945312 C 37.898438 31.917969 36.230469 33.515625 34.175781 33.515625 L 13.824219 33.515625 C 11.769531 33.515625 10.101562 31.917969 10.101562 29.945312 L 10.101562 17.121094 C 10.101562 15.148438 11.769531 13.546875 13.824219 13.546875 Z M 13.824219 13.546875 "/>
</g>
</svg>
