<?xml version="1.0" encoding="UTF-8"?>
<svg xmlns="http://www.w3.org/2000/svg" xmlns:xlink="http://www.w3.org/1999/xlink" width="48pt" height="48pt" viewBox="0 0 48 48" version="1.1">
<g id="surface1">
<path style=" stroke:none;fill-rule:evenodd;fill:rgb(0.784314%,52.54902%,76.078431%);fill-opacity:1;" d="M 11.210938 2.847656 L 36.789062 2.847656 C 41.410156 2.847656 45.152344 6.589844 45.152344 11.210938 L 45.152344 36.789062 C 45.152344 41.410156 41.410156 45.152344 36.789062 45.152344 L 11.210938 45.152344 C 6.589844 45.152344 2.847656 41.410156 2.847656 36.789062 L 2.847656 11.210938 C 2.847656 6.589844 6.589844 2.847656 11.210938 2.847656 Z M 11.210938 2.847656 "/>
<path style=" stroke:none;fill-rule:nonzero;fill:rgb(100%,100%,100%);fill-opacity:1;" d="M 24 12 C 17.371094 12 12 17.371094 12 24 C 12 30.628906 17.371094 36 24 36 C 26.75 36 29.414062 35.054688 31.550781 33.324219 C 30.429688 34.085938 29.105469 34.496094 27.75 34.5 C 24.023438 34.5 21 31.476562 21 27.75 C 21 24.023438 24.023438 21 27.75 21 C 31.476562 21 34.5 24.023438 34.5 27.75 C 34.5 29.070312 34.109375 30.363281 33.382812 31.464844 C 35.074219 29.34375 35.996094 26.710938 36 24 C 36 17.371094 30.628906 12 24 12 Z M 24 12 "/>
</g>
</svg>
