<?xml version="1.0" encoding="UTF-8"?>
<svg xmlns="http://www.w3.org/2000/svg" xmlns:xlink="http://www.w3.org/1999/xlink" width="48pt" height="48pt" viewBox="0 0 48 48" version="1.1">
<g id="surface1">
<path style=" stroke:none;fill-rule:evenodd;fill:rgb(76.470588%,39.607843%,56.862745%);fill-opacity:1;" d="M 11.210938 2.847656 L 36.789062 2.847656 C 41.410156 2.847656 45.152344 6.589844 45.152344 11.210938 L 45.152344 36.789062 C 45.152344 41.410156 41.410156 45.152344 36.789062 45.152344 L 11.210938 45.152344 C 6.589844 45.152344 2.847656 41.410156 2.847656 36.789062 L 2.847656 11.210938 C 2.847656 6.589844 6.589844 2.847656 11.210938 2.847656 Z M 11.210938 2.847656 "/>
<path style=" stroke:none;fill-rule:nonzero;fill:rgb(81.176471%,52.941176%,65.882353%);fill-opacity:1;" d="M 41.683594 19.261719 C 40.371094 14.363281 35.371094 11.476562 30.472656 12.789062 C 29.160156 7.890625 24.160156 5.003906 19.261719 6.316406 C 14.363281 7.628906 11.476562 12.628906 12.789062 17.527344 C 7.890625 18.839844 5.003906 23.839844 6.316406 28.738281 C 7.628906 33.636719 12.628906 36.523438 17.527344 35.210938 C 18.839844 40.109375 23.839844 42.996094 28.738281 41.683594 C 33.636719 40.371094 36.523438 35.371094 35.210938 30.472656 C 40.109375 29.160156 42.996094 24.160156 41.683594 19.261719 Z M 41.683594 19.261719 "/>
<path style=" stroke:none;fill-rule:nonzero;fill:rgb(88.627451%,71.764706%,79.607843%);fill-opacity:1;" d="M 27.140625 18.558594 C 25.714844 17.738281 23.941406 17.828125 22.605469 18.789062 C 20.964844 18.625 19.382812 19.433594 18.558594 20.859375 C 17.738281 22.285156 17.828125 24.058594 18.789062 25.394531 C 18.625 27.035156 19.433594 28.617188 20.859375 29.441406 C 22.285156 30.261719 24.058594 30.171875 25.394531 29.210938 C 27.035156 29.375 28.617188 28.566406 29.441406 27.140625 C 30.261719 25.714844 30.171875 23.941406 29.210938 22.605469 C 29.375 20.964844 28.566406 19.382812 27.140625 18.558594 Z M 27.140625 18.558594 "/>
</g>
</svg>
