<?xml version="1.0" encoding="UTF-8"?>
<svg xmlns="http://www.w3.org/2000/svg" xmlns:xlink="http://www.w3.org/1999/xlink" width="48pt" height="48pt" viewBox="0 0 48 48" version="1.1">
<g id="surface1">
<path style=" stroke:none;fill-rule:evenodd;fill:rgb(96.078431%,57.647059%,20.784314%);fill-opacity:1;" d="M 11.210938 2.847656 L 36.789062 2.847656 C 41.410156 2.847656 45.152344 6.589844 45.152344 11.210938 L 45.152344 36.789062 C 45.152344 41.410156 41.410156 45.152344 36.789062 45.152344 L 11.210938 45.152344 C 6.589844 45.152344 2.847656 41.410156 2.847656 36.789062 L 2.847656 11.210938 C 2.847656 6.589844 6.589844 2.847656 11.210938 2.847656 Z M 11.210938 2.847656 "/>
<path style=" stroke:none;fill-rule:nonzero;fill:rgb(100%,100%,100%);fill-opacity:1;" d="M 10.5 12.75 C 10.5 14.335938 11.171875 15 12.75 15 C 23.933594 15 33 24.066406 33 35.25 C 33 36.648438 33.761719 37.5 35.25 37.5 C 36.78125 37.5 37.5 36.605469 37.5 35.25 C 37.5 21.582031 26.417969 10.5 12.75 10.5 C 11.253906 10.5 10.5 11.226562 10.5 12.75 Z M 10.5 21.75 C 10.5 23.292969 11.128906 24 12.75 24 C 18.964844 24 24 29.035156 24 35.25 C 24 36.574219 24.761719 37.5 26.25 37.5 C 27.703125 37.5 28.5 36.691406 28.5 35.25 C 28.5 26.550781 21.449219 19.5 12.75 19.5 C 11.296875 19.5 10.5 20.140625 10.5 21.75 Z M 15 28.5 C 12.515625 28.5 10.5 30.515625 10.5 33 C 10.5 35.484375 12.515625 37.5 15 37.5 C 17.484375 37.5 19.5 35.484375 19.5 33 C 19.5 30.515625 17.484375 28.5 15 28.5 Z M 15 28.5 "/>
</g>
</svg>
