<?xml version="1.0" encoding="UTF-8"?>
<svg xmlns="http://www.w3.org/2000/svg" xmlns:xlink="http://www.w3.org/1999/xlink" width="48pt" height="48pt" viewBox="0 0 48 48" version="1.1">
<g id="surface1">
<path style=" stroke:none;fill-rule:evenodd;fill:rgb(60%,47.45098%,32.941176%);fill-opacity:1;" d="M 11.210938 2.847656 L 36.789062 2.847656 C 41.410156 2.847656 45.152344 6.589844 45.152344 11.210938 L 45.152344 36.789062 C 45.152344 41.410156 41.410156 45.152344 36.789062 45.152344 L 11.210938 45.152344 C 6.589844 45.152344 2.847656 41.410156 2.847656 36.789062 L 2.847656 11.210938 C 2.847656 6.589844 6.589844 2.847656 11.210938 2.847656 Z M 11.210938 2.847656 "/>
<path style=" stroke:none;fill-rule:evenodd;fill:rgb(0%,49.411765%,100%);fill-opacity:1;" d="M 29.441406 2.960938 C 29.4375 2.925781 29.429688 2.886719 29.414062 2.847656 L 29.019531 2.847656 C 29.117188 2.871094 29.214844 2.886719 29.3125 2.910156 C 29.359375 2.925781 29.394531 2.949219 29.445312 2.960938 Z M 29.441406 2.960938 "/>
<path style=" stroke:none;fill-rule:evenodd;fill:rgb(60%,47.45098%,32.941176%);fill-opacity:1;" d="M 11.027344 28.097656 C 10.925781 28.136719 10.839844 28.210938 10.738281 28.246094 C 10.183594 26.957031 9.367188 25.632812 8.566406 24.136719 C 7.765625 22.636719 6.988281 20.957031 6.5 18.960938 C 6.492188 18.917969 6.480469 18.882812 6.46875 18.839844 C 6.40625 18.582031 6.378906 18.332031 6.335938 18.078125 C 5.835938 18.582031 4.539062 20.214844 4.449219 20.152344 C 4.28125 20.035156 3.457031 16.796875 2.847656 14.914062 L 2.847656 36.792969 C 2.847656 41.425781 6.578125 45.152344 11.210938 45.152344 L 36.792969 45.152344 C 41.425781 45.152344 45.152344 41.425781 45.152344 36.792969 L 45.152344 15.34375 C 44.613281 16.988281 43.835938 20.046875 43.683594 20.152344 C 43.59375 20.214844 42.296875 18.582031 41.796875 18.078125 C 41.753906 18.332031 41.722656 18.582031 41.664062 18.839844 C 41.652344 18.882812 41.640625 18.917969 41.632812 18.960938 C 41.144531 20.957031 40.363281 22.636719 39.5625 24.136719 C 38.761719 25.632812 37.945312 26.957031 37.390625 28.246094 C 37.320312 28.222656 37.261719 28.167969 37.195312 28.144531 C 37.191406 28.4375 37.175781 28.734375 37.121094 28.894531 C 37.117188 28.894531 37.117188 28.894531 37.113281 28.890625 C 37.101562 28.929688 37.085938 28.96875 37.074219 29.003906 C 35.773438 32.769531 35.195312 35.621094 34.316406 37.738281 C 33.875 38.800781 33.363281 39.671875 32.644531 40.386719 C 31.929688 41.105469 31.011719 41.660156 29.765625 42.078125 C 27.761719 42.746094 26.140625 43.066406 24.066406 43.035156 C 21.988281 43.066406 20.371094 42.746094 18.367188 42.078125 C 17.121094 41.660156 16.203125 41.105469 15.488281 40.386719 C 14.769531 39.671875 14.257812 38.800781 13.816406 37.738281 C 12.9375 35.621094 12.355469 32.769531 11.058594 29.003906 C 11.042969 28.96875 11.023438 28.929688 11.011719 28.894531 C 10.929688 28.667969 10.96875 28.378906 11.027344 28.097656 Z M 11.027344 28.097656 "/>
<path style=" stroke:none;fill-rule:evenodd;fill:rgb(84.313725%,80.784314%,78.039216%);fill-opacity:1;" d="M 11.027344 28.097656 C 10.96875 28.378906 10.929688 28.667969 11.011719 28.894531 C 11.023438 28.929688 11.042969 28.96875 11.054688 29.003906 C 12.355469 32.769531 12.9375 35.621094 13.816406 37.742188 C 14.257812 38.800781 14.769531 39.671875 15.484375 40.390625 C 16.203125 41.105469 17.121094 41.660156 18.367188 42.078125 C 20.371094 42.746094 21.988281 43.066406 24.0625 43.039062 C 26.140625 43.066406 27.761719 42.746094 29.765625 42.078125 C 31.011719 41.660156 31.929688 41.105469 32.644531 40.390625 C 33.359375 39.671875 33.875 38.800781 34.316406 37.742188 C 35.195312 35.621094 35.773438 32.769531 37.074219 29.003906 C 37.085938 28.96875 37.101562 28.929688 37.113281 28.894531 C 37.117188 28.894531 37.117188 28.894531 37.117188 28.894531 C 37.175781 28.734375 37.191406 28.4375 37.195312 28.144531 C 35.703125 27.617188 34.253906 26.90625 32.921875 25.972656 C 31.535156 24.996094 30.265625 23.804688 29.195312 22.433594 C 28.128906 21.058594 27.253906 19.5 26.644531 17.777344 C 26.039062 16.054688 25.699219 14.164062 25.699219 12.136719 C 25.691406 10.613281 25.769531 8.910156 26 7.234375 C 26.214844 5.683594 26.613281 4.1875 27.167969 2.847656 L 20.964844 2.847656 C 21.519531 4.1875 21.914062 5.683594 22.128906 7.234375 C 22.363281 8.910156 22.4375 10.613281 22.433594 12.136719 C 22.433594 14.164062 22.09375 16.054688 21.484375 17.777344 C 20.878906 19.5 20.003906 21.058594 18.933594 22.433594 C 17.863281 23.804688 16.597656 24.996094 15.207031 25.972656 C 13.90625 26.886719 12.484375 27.574219 11.027344 28.097656 Z M 11.027344 28.097656 "/>
<path style=" stroke:none;fill-rule:evenodd;fill:rgb(87.058824%,54.901961%,29.019608%);fill-opacity:1;" d="M 27.167969 2.847656 C 26.613281 4.1875 26.214844 5.683594 26 7.234375 C 25.769531 8.910156 25.691406 10.613281 25.699219 12.132812 C 25.699219 14.164062 26.039062 16.054688 26.644531 17.777344 C 27.253906 19.5 28.128906 21.058594 29.195312 22.433594 C 30.265625 23.804688 31.535156 24.996094 32.921875 25.972656 C 34.3125 26.949219 35.824219 27.710938 37.386719 28.246094 C 37.945312 26.953125 38.761719 25.632812 39.5625 24.132812 C 40.363281 22.636719 41.144531 20.957031 41.628906 18.960938 C 41.640625 18.917969 41.652344 18.882812 41.664062 18.839844 C 41.722656 18.582031 41.753906 18.332031 41.796875 18.078125 C 40.597656 16.871094 39.394531 15.679688 37.257812 13.089844 C 34.238281 9.425781 31.292969 5.710938 31.292969 5.710938 C 31.292969 5.710938 30.1875 4.53125 29.5 3.179688 C 29.460938 3.105469 29.457031 3.035156 29.441406 2.960938 C 29.394531 2.949219 29.359375 2.925781 29.3125 2.910156 C 29.214844 2.886719 29.117188 2.871094 29.019531 2.847656 Z M 27.167969 2.847656 "/>
<path style=" stroke:none;fill-rule:evenodd;fill:rgb(0%,49.411765%,100%);fill-opacity:1;" d="M 19.113281 2.847656 L 18.714844 2.847656 C 18.699219 2.886719 18.691406 2.925781 18.6875 2.960938 C 18.734375 2.949219 18.773438 2.925781 18.820312 2.914062 C 18.917969 2.886719 19.015625 2.871094 19.113281 2.847656 Z M 19.113281 2.847656 "/>
<path style=" stroke:none;fill-rule:evenodd;fill:rgb(87.058824%,54.901961%,29.019608%);fill-opacity:1;" d="M 19.113281 2.847656 C 19.015625 2.871094 18.917969 2.886719 18.820312 2.914062 C 18.773438 2.925781 18.734375 2.949219 18.6875 2.960938 C 18.671875 3.035156 18.667969 3.105469 18.628906 3.179688 C 17.941406 4.53125 16.835938 5.710938 16.835938 5.710938 C 16.835938 5.710938 13.890625 9.425781 10.871094 13.089844 C 8.738281 15.679688 7.53125 16.871094 6.335938 18.078125 C 6.378906 18.332031 6.40625 18.582031 6.46875 18.839844 C 6.480469 18.882812 6.492188 18.917969 6.5 18.960938 C 6.988281 20.957031 7.765625 22.636719 8.566406 24.136719 C 9.367188 25.632812 10.183594 26.957031 10.738281 28.246094 C 12.304688 27.710938 13.820312 26.949219 15.207031 25.972656 C 16.597656 24.996094 17.863281 23.804688 18.933594 22.433594 C 20.003906 21.058594 20.878906 19.5 21.484375 17.777344 C 22.09375 16.054688 22.433594 14.164062 22.433594 12.136719 C 22.4375 10.613281 22.363281 8.910156 22.128906 7.234375 C 21.914062 5.683594 21.519531 4.1875 20.964844 2.847656 Z M 19.113281 2.847656 "/>
<path style=" stroke:none;fill-rule:evenodd;fill:rgb(52.54902%,32.156863%,16.862745%);fill-opacity:1;" d="M 2.847656 14.910156 C 3.457031 16.796875 4.28125 20.035156 4.449219 20.152344 C 4.753906 20.363281 7.851562 16.753906 10.871094 13.089844 C 13.890625 9.425781 16.835938 5.710938 16.835938 5.710938 C 16.835938 5.710938 17.941406 4.53125 18.628906 3.179688 C 18.6875 3.070312 18.664062 2.960938 18.714844 2.847656 L 11.210938 2.847656 C 6.578125 2.847656 2.847656 6.578125 2.847656 11.210938 Z M 2.847656 14.910156 "/>
<path style=" stroke:none;fill-rule:evenodd;fill:rgb(52.54902%,32.156863%,16.862745%);fill-opacity:1;" d="M 29.414062 2.847656 C 29.464844 2.960938 29.441406 3.070312 29.5 3.179688 C 30.1875 4.53125 31.292969 5.710938 31.292969 5.710938 C 31.292969 5.710938 34.238281 9.425781 37.257812 13.089844 C 40.28125 16.753906 43.375 20.363281 43.679688 20.152344 C 43.835938 20.046875 44.613281 16.988281 45.152344 15.34375 L 45.152344 11.210938 C 45.152344 6.578125 41.425781 2.847656 36.789062 2.847656 Z M 29.414062 2.847656 "/>
<path style=" stroke:none;fill-rule:nonzero;fill:rgb(24.705882%,24.705882%,24.705882%);fill-opacity:1;" d="M 22.867188 31.601562 C 21.722656 31.601562 20.796875 32.429688 20.796875 33.453125 C 20.796875 34.488281 22.925781 36.5 24.066406 36.5 C 25.203125 36.5 27.332031 34.488281 27.332031 33.453125 C 27.332031 32.429688 26.40625 31.601562 25.265625 31.601562 Z M 22.867188 31.601562 "/>
<path style=" stroke:none;fill-rule:nonzero;fill:rgb(24.705882%,24.705882%,24.705882%);fill-opacity:1;" d="M 17.53125 20.164062 C 17.53125 21.96875 16.066406 23.429688 14.261719 23.429688 C 12.457031 23.429688 10.992188 21.96875 10.992188 20.164062 C 10.992188 18.355469 12.457031 16.894531 14.261719 16.894531 C 16.066406 16.894531 17.53125 18.355469 17.53125 20.164062 Z M 17.53125 20.164062 "/>
<path style=" stroke:none;fill-rule:nonzero;fill:rgb(100%,100%,100%);fill-opacity:1;" d="M 14.261719 19.34375 C 14.261719 19.796875 13.894531 20.164062 13.445312 20.164062 C 12.992188 20.164062 12.628906 19.796875 12.628906 19.34375 C 12.628906 18.894531 12.992188 18.527344 13.445312 18.527344 C 13.894531 18.527344 14.261719 18.894531 14.261719 19.34375 Z M 14.261719 19.34375 "/>
<path style=" stroke:none;fill-rule:nonzero;fill:rgb(84.705882%,43.529412%,43.529412%);fill-opacity:1;" d="M 27.332031 40.703125 C 27.332031 41.992188 25.871094 43.039062 24.066406 43.039062 C 22.261719 43.039062 20.796875 41.992188 20.796875 40.703125 C 20.796875 40.425781 20.867188 40.160156 20.988281 39.914062 C 21.445312 39.011719 22.582031 39.515625 24 39.515625 C 25.414062 39.515625 26.683594 39.011719 27.140625 39.910156 C 27.265625 40.15625 27.332031 40.425781 27.332031 40.703125 Z M 27.332031 40.703125 "/>
<path style="fill:none;stroke-width:1;stroke-linecap:round;stroke-linejoin:round;stroke:rgb(47.45098%,26.27451%,10.588235%);stroke-opacity:1;stroke-miterlimit:4;" d="M -75.713541 26.158203 C -75.713541 26.158203 -74.75 26.694662 -73.846354 26.934245 C -73.286458 27.082682 -71.901041 26.155599 -71.901041 26.155599 C -71.901041 26.155599 -70.515625 27.082682 -69.955729 26.934245 C -69.052083 26.694662 -68.088541 26.158203 -68.088541 26.158203 " transform="matrix(1.5,0,0,1.5,131.917968,-0.28418)"/>
<path style=" stroke:none;fill-rule:nonzero;fill:rgb(24.705882%,24.705882%,24.705882%);fill-opacity:1;" d="M 30.601562 20.164062 C 30.601562 21.96875 32.066406 23.429688 33.871094 23.429688 C 35.675781 23.429688 37.136719 21.96875 37.136719 20.164062 C 37.136719 18.355469 35.675781 16.894531 33.871094 16.894531 C 32.066406 16.894531 30.601562 18.355469 30.601562 20.164062 Z M 30.601562 20.164062 "/>
<path style=" stroke:none;fill-rule:nonzero;fill:rgb(100%,100%,100%);fill-opacity:1;" d="M 32.234375 19.34375 C 32.234375 19.796875 32.601562 20.164062 33.050781 20.164062 C 33.503906 20.164062 33.871094 19.796875 33.871094 19.34375 C 33.871094 18.894531 33.503906 18.527344 33.050781 18.527344 C 32.601562 18.527344 32.234375 18.894531 32.234375 19.34375 Z M 32.234375 19.34375 "/>
</g>
</svg>
