<?xml version="1.0" encoding="UTF-8"?>
<svg xmlns="http://www.w3.org/2000/svg" xmlns:xlink="http://www.w3.org/1999/xlink" width="48pt" height="48pt" viewBox="0 0 48 48" version="1.1">
<g id="surface1">
<path style=" stroke:none;fill-rule:evenodd;fill:rgb(95.686275%,71.372549%,40.784314%);fill-opacity:1;" d="M 11.210938 2.847656 L 36.789062 2.847656 C 41.410156 2.847656 45.152344 6.589844 45.152344 11.210938 L 45.152344 36.789062 C 45.152344 41.410156 41.410156 45.152344 36.789062 45.152344 L 11.210938 45.152344 C 6.589844 45.152344 2.847656 41.410156 2.847656 36.789062 L 2.847656 11.210938 C 2.847656 6.589844 6.589844 2.847656 11.210938 2.847656 Z M 11.210938 2.847656 "/>
<path style=" stroke:none;fill-rule:nonzero;fill:rgb(100%,100%,100%);fill-opacity:1;" d="M 23.839844 6.894531 L 9.824219 11.914062 C 9.632812 11.984375 9.503906 12.167969 9.503906 12.375 C 9.503906 17.453125 10.828125 23.324219 13.136719 28.484375 C 15.007812 32.667969 18.375 38.25 23.78125 41.078125 C 23.851562 41.113281 23.925781 41.132812 24 41.132812 C 24.074219 41.132812 24.148438 41.113281 24.21875 41.078125 C 29.625 38.25 32.992188 32.667969 34.863281 28.484375 C 37.171875 23.324219 38.496094 17.453125 38.496094 12.375 C 38.496094 12.167969 38.367188 11.984375 38.175781 11.914062 L 24.160156 6.894531 C 24.054688 6.859375 23.945312 6.859375 23.839844 6.894531 Z M 23.914062 14.789062 C 23.96875 14.769531 24.03125 14.769531 24.085938 14.789062 L 31.730469 17.492188 L 31.734375 17.492188 C 31.839844 17.53125 31.90625 17.628906 31.90625 17.738281 C 31.90625 20.476562 31.1875 23.636719 29.925781 26.414062 C 28.90625 28.667969 27.070312 31.671875 24.121094 33.195312 C 24.082031 33.210938 24.042969 33.222656 24 33.222656 C 23.960938 33.222656 23.917969 33.214844 23.882812 33.195312 C 20.933594 31.671875 19.097656 28.667969 18.074219 26.414062 C 16.816406 23.636719 16.09375 20.476562 16.09375 17.738281 C 16.09375 17.628906 16.164062 17.53125 16.269531 17.492188 Z M 23.914062 14.789062 "/>
</g>
</svg>
