<?xml version="1.0" encoding="UTF-8"?>
<svg xmlns="http://www.w3.org/2000/svg" xmlns:xlink="http://www.w3.org/1999/xlink" width="48pt" height="48pt" viewBox="0 0 48 48" version="1.1">
<defs>
<clipPath id="clip1">
  <rect width="48" height="48"/>
</clipPath>
<g id="surface6" clip-path="url(#clip1)">
<path style=" stroke:none;fill-rule:nonzero;fill:rgb(100%,100%,100%);fill-opacity:1;" d="M 24.03125 8.136719 C 27.1875 8.144531 30.386719 9.183594 32.886719 11.242188 C 34.644531 13.382812 31.296875 15.675781 29.785156 13.589844 C 25.246094 10.683594 18.84375 11.707031 15.429688 16.050781 C 13.613281 18.207031 12.589844 21.082031 12.601562 23.972656 L 15.601562 23.972656 C 14 26.507812 12.398438 29.046875 10.800781 31.585938 L 6 23.972656 L 9 23.972656 C 8.90625 17.074219 13.59375 10.515625 19.886719 8.730469 C 21.238281 8.339844 22.628906 8.121094 24.03125 8.136719 Z M 37.199219 16.386719 C 38.800781 18.925781 40.398438 21.464844 42 24.003906 L 39 24.003906 C 39.085938 30.980469 34.277344 37.613281 27.871094 39.304688 C 23.550781 40.582031 18.664062 39.652344 15.113281 36.730469 C 13.300781 34.554688 16.695312 32.28125 18.21875 34.390625 C 22.617188 37.210938 28.777344 36.316406 32.246094 32.285156 C 34.257812 30.09375 35.414062 27.058594 35.398438 24.003906 L 32.398438 24.003906 Z M 37.199219 16.386719 "/>
</g>
<clipPath id="clip2">
  <rect width="48" height="48"/>
</clipPath>
<g id="surface9" clip-path="url(#clip2)">
<path style=" stroke:none;fill-rule:nonzero;fill:rgb(100%,100%,100%);fill-opacity:1;" d="M 22.117188 16.46875 L 21.949219 18.453125 C 21.320312 18.6875 20.738281 19.023438 20.222656 19.453125 L 18.417969 18.605469 L 16.535156 21.867188 L 18.171875 23.003906 C 18.113281 23.332031 18.085938 23.664062 18.082031 24 C 18.082031 24.335938 18.113281 24.671875 18.167969 25.003906 L 16.535156 26.136719 L 18.417969 29.398438 L 20.21875 28.550781 C 20.734375 28.976562 21.320312 29.3125 21.949219 29.542969 L 22.117188 31.53125 L 25.882812 31.53125 L 26.050781 29.546875 C 26.679688 29.316406 27.261719 28.976562 27.777344 28.546875 L 29.582031 29.398438 L 31.464844 26.136719 L 29.828125 25 C 29.886719 24.667969 29.914062 24.335938 29.917969 24 C 29.917969 23.664062 29.886719 23.328125 29.832031 22.996094 L 31.464844 21.863281 L 29.582031 18.605469 L 27.78125 19.449219 C 27.265625 19.023438 26.679688 18.6875 26.046875 18.457031 L 25.882812 16.46875 Z M 24 21.847656 C 25.1875 21.847656 26.152344 22.8125 26.152344 24 C 26.152344 25.1875 25.1875 26.152344 24 26.152344 C 22.8125 26.152344 21.847656 25.1875 21.847656 24 C 21.847656 22.8125 22.8125 21.847656 24 21.847656 Z M 24 21.847656 "/>
</g>
</defs>
<g id="surface1">
<path style=" stroke:none;fill-rule:evenodd;fill:rgb(36.470588%,70.588235%,24.313725%);fill-opacity:1;" d="M 11.210938 2.847656 L 36.789062 2.847656 C 41.410156 2.847656 45.152344 6.589844 45.152344 11.210938 L 45.152344 36.789062 C 45.152344 41.410156 41.410156 45.152344 36.789062 45.152344 L 11.210938 45.152344 C 6.589844 45.152344 2.847656 41.410156 2.847656 36.789062 L 2.847656 11.210938 C 2.847656 6.589844 6.589844 2.847656 11.210938 2.847656 Z M 11.210938 2.847656 "/>
<use xlink:href="#surface6"/>
<use xlink:href="#surface9"/>
</g>
</svg>
