<?xml version="1.0" encoding="UTF-8"?>
<svg xmlns="http://www.w3.org/2000/svg" xmlns:xlink="http://www.w3.org/1999/xlink" width="48pt" height="48pt" viewBox="0 0 48 48" version="1.1">
<defs>
<clipPath id="clip1">
  <rect width="48" height="48"/>
</clipPath>
<g id="surface6" clip-path="url(#clip1)">
<path style=" stroke:none;fill-rule:nonzero;fill:rgb(100%,100%,100%);fill-opacity:1;" d="M 17.898438 9.285156 C 17.683594 9.308594 17.492188 9.484375 17.453125 9.699219 L 17.027344 11.867188 C 16.257812 12.167969 15.539062 12.578125 14.90625 13.085938 L 12.800781 12.375 C 12.582031 12.296875 12.316406 12.394531 12.199219 12.59375 L 10.171875 16.109375 C 10.054688 16.3125 10.105469 16.59375 10.28125 16.742188 L 11.960938 18.214844 C 11.902344 18.609375 11.863281 19.007812 11.863281 19.417969 C 11.863281 19.832031 11.902344 20.226562 11.960938 20.621094 L 10.28125 22.09375 C 10.105469 22.246094 10.054688 22.527344 10.171875 22.726562 L 12.199219 26.242188 C 12.316406 26.441406 12.582031 26.539062 12.800781 26.464844 L 14.90625 25.753906 C 15.539062 26.257812 16.257812 26.671875 17.027344 26.972656 L 17.453125 29.140625 C 17.496094 29.367188 17.714844 29.550781 17.945312 29.550781 L 21.996094 29.550781 C 22.230469 29.550781 22.445312 29.367188 22.488281 29.140625 L 22.914062 26.972656 C 23.683594 26.671875 24.40625 26.257812 25.039062 25.753906 L 27.144531 26.464844 C 27.363281 26.539062 27.628906 26.441406 27.746094 26.242188 L 29.773438 22.726562 C 29.886719 22.527344 29.835938 22.246094 29.660156 22.09375 L 27.980469 20.621094 C 28.042969 20.226562 28.078125 19.832031 28.078125 19.417969 C 28.078125 19.007812 28.042969 18.609375 27.980469 18.214844 L 29.660156 16.742188 C 29.835938 16.59375 29.886719 16.3125 29.773438 16.109375 L 27.746094 12.59375 C 27.628906 12.394531 27.363281 12.296875 27.144531 12.375 L 25.039062 13.085938 C 24.402344 12.578125 23.683594 12.167969 22.917969 11.867188 L 22.488281 9.699219 C 22.445312 9.46875 22.230469 9.289062 21.996094 9.285156 L 17.945312 9.285156 C 17.929688 9.285156 17.914062 9.285156 17.898438 9.285156 Z M 17.898438 9.285156 "/>
</g>
<clipPath id="clip2">
  <rect width="48" height="48"/>
</clipPath>
<g id="surface9" clip-path="url(#clip2)">
<path style=" stroke:none;fill-rule:nonzero;fill:rgb(37.254902%,48.627451%,54.117647%);fill-opacity:1;" d="M 19.972656 15.078125 C 22.371094 15.078125 24.3125 17.019531 24.3125 19.417969 C 24.3125 21.816406 22.371094 23.761719 19.972656 23.761719 C 17.574219 23.761719 15.628906 21.816406 15.628906 19.417969 C 15.628906 17.019531 17.574219 15.078125 19.972656 15.078125 Z M 19.972656 15.078125 "/>
</g>
<clipPath id="clip3">
  <rect width="48" height="48"/>
</clipPath>
<g id="surface12" clip-path="url(#clip3)">
<path style=" stroke:none;fill-rule:nonzero;fill:rgb(100%,100%,100%);fill-opacity:1;" d="M 29.308594 24.144531 C 29.152344 24.160156 29.019531 24.285156 28.988281 24.4375 L 28.683594 26 C 28.128906 26.214844 27.613281 26.511719 27.15625 26.875 L 25.644531 26.363281 C 25.484375 26.308594 25.296875 26.378906 25.210938 26.523438 L 23.753906 29.050781 C 23.671875 29.195312 23.707031 29.394531 23.832031 29.503906 L 25.039062 30.5625 C 24.996094 30.847656 24.972656 31.132812 24.972656 31.429688 C 24.972656 31.722656 24.996094 32.011719 25.039062 32.292969 L 23.832031 33.351562 C 23.707031 33.460938 23.671875 33.664062 23.753906 33.808594 L 25.210938 36.335938 C 25.296875 36.480469 25.484375 36.550781 25.644531 36.496094 L 27.15625 35.980469 C 27.613281 36.347656 28.132812 36.644531 28.683594 36.859375 L 28.988281 38.417969 C 29.019531 38.582031 29.175781 38.710938 29.34375 38.714844 L 32.257812 38.714844 C 32.421875 38.710938 32.578125 38.582031 32.609375 38.417969 L 32.917969 36.859375 C 33.46875 36.644531 33.988281 36.347656 34.441406 35.980469 L 35.957031 36.496094 C 36.113281 36.550781 36.304688 36.480469 36.390625 36.335938 L 37.847656 33.808594 C 37.929688 33.664062 37.894531 33.460938 37.765625 33.351562 L 36.558594 32.292969 C 36.601562 32.011719 36.628906 31.722656 36.628906 31.429688 C 36.628906 31.132812 36.601562 30.847656 36.558594 30.5625 L 37.765625 29.503906 C 37.894531 29.394531 37.929688 29.195312 37.847656 29.050781 L 36.390625 26.523438 C 36.304688 26.378906 36.113281 26.308594 35.957031 26.363281 L 34.441406 26.875 C 33.988281 26.511719 33.46875 26.214844 32.917969 26 L 32.609375 24.4375 C 32.578125 24.277344 32.421875 24.144531 32.257812 24.144531 L 29.34375 24.144531 C 29.332031 24.144531 29.320312 24.144531 29.308594 24.144531 Z M 29.308594 24.144531 "/>
</g>
<clipPath id="clip4">
  <rect width="48" height="48"/>
</clipPath>
<g id="surface15" clip-path="url(#clip4)">
<path style=" stroke:none;fill-rule:nonzero;fill:rgb(37.254902%,48.627451%,54.117647%);fill-opacity:1;" d="M 30.800781 28.304688 C 32.523438 28.304688 33.921875 29.703125 33.921875 31.429688 C 33.921875 33.152344 32.523438 34.550781 30.800781 34.550781 C 29.074219 34.550781 27.679688 33.152344 27.679688 31.429688 C 27.679688 29.703125 29.074219 28.304688 30.800781 28.304688 Z M 30.800781 28.304688 "/>
</g>
</defs>
<g id="surface1">
<path style=" stroke:none;fill-rule:evenodd;fill:rgb(37.254902%,48.627451%,54.117647%);fill-opacity:1;" d="M 11.210938 2.847656 L 36.789062 2.847656 C 41.410156 2.847656 45.152344 6.589844 45.152344 11.210938 L 45.152344 36.789062 C 45.152344 41.410156 41.410156 45.152344 36.789062 45.152344 L 11.210938 45.152344 C 6.589844 45.152344 2.847656 41.410156 2.847656 36.789062 L 2.847656 11.210938 C 2.847656 6.589844 6.589844 2.847656 11.210938 2.847656 Z M 11.210938 2.847656 "/>
<use xlink:href="#surface6"/>
<use xlink:href="#surface9"/>
<use xlink:href="#surface12"/>
<use xlink:href="#surface15"/>
</g>
</svg>
