<?xml version="1.0" encoding="UTF-8"?>
<svg xmlns="http://www.w3.org/2000/svg" xmlns:xlink="http://www.w3.org/1999/xlink" width="48pt" height="48pt" viewBox="0 0 48 48" version="1.1">
<g id="surface1">
<path style=" stroke:none;fill-rule:evenodd;fill:rgb(21.176471%,73.333333%,58.039216%);fill-opacity:1;" d="M 11.210938 2.847656 L 36.789062 2.847656 C 41.410156 2.847656 45.152344 6.589844 45.152344 11.210938 L 45.152344 36.789062 C 45.152344 41.410156 41.410156 45.152344 36.789062 45.152344 L 11.210938 45.152344 C 6.589844 45.152344 2.847656 41.410156 2.847656 36.789062 L 2.847656 11.210938 C 2.847656 6.589844 6.589844 2.847656 11.210938 2.847656 Z M 11.210938 2.847656 "/>
<path style=" stroke:none;fill-rule:evenodd;fill:rgb(100%,100%,100%);fill-opacity:1;" d="M 19.5 12 C 18.503906 12 18 12.621094 18 13.390625 L 18 30 L 13.5 30 L 19.5 36 L 25.5 30 L 21 30 L 21 13.390625 C 21 12.621094 20.496094 12 19.5 12 Z M 28.5 12 L 22.5 18 L 27 18 L 27 34.609375 C 27 35.378906 27.503906 36 28.5 36 C 29.496094 36 30 35.378906 30 34.613281 L 30 18 L 34.5 18 Z M 28.5 12 "/>
</g>
</svg>
