<?xml version="1.0" encoding="UTF-8"?>
<svg xmlns="http://www.w3.org/2000/svg" xmlns:xlink="http://www.w3.org/1999/xlink" width="48pt" height="48pt" viewBox="0 0 48 48" version="1.1">
<g id="surface1">
<path style=" stroke:none;fill-rule:evenodd;fill:rgb(21.568627%,62.745098%,94.901961%);fill-opacity:1;" d="M 11.210938 2.847656 L 36.789062 2.847656 C 41.410156 2.847656 45.152344 6.589844 45.152344 11.210938 L 45.152344 36.789062 C 45.152344 41.410156 41.410156 45.152344 36.789062 45.152344 L 11.210938 45.152344 C 6.589844 45.152344 2.847656 41.410156 2.847656 36.789062 L 2.847656 11.210938 C 2.847656 6.589844 6.589844 2.847656 11.210938 2.847656 Z M 11.210938 2.847656 "/>
<path style=" stroke:none;fill-rule:nonzero;fill:rgb(100%,100%,100%);fill-opacity:1;" d="M 25.796875 33.578125 C 25.253906 33.25 24.90625 32.679688 23.398438 29.628906 C 22.5625 27.941406 21.769531 26.441406 21.632812 26.296875 C 21.480469 26.132812 20.21875 25.464844 18.339844 24.546875 C 14.628906 22.734375 14.25 22.445312 14.25 21.417969 C 14.25 20.941406 14.484375 20.480469 14.851562 20.242188 C 14.976562 20.160156 18.859375 18.773438 23.480469 17.15625 C 31.59375 14.316406 31.898438 14.21875 32.453125 14.253906 C 32.929688 14.285156 33.070312 14.332031 33.300781 14.550781 C 33.644531 14.882812 33.800781 15.339844 33.734375 15.828125 C 33.664062 16.351562 27.835938 32.8125 27.617188 33.105469 C 27.15625 33.726562 26.371094 33.929688 25.796875 33.578125 Z M 25.796875 33.578125 "/>
</g>
</svg>
