<?xml version="1.0" encoding="UTF-8"?>
<svg xmlns="http://www.w3.org/2000/svg" xmlns:xlink="http://www.w3.org/1999/xlink" width="48pt" height="48pt" viewBox="0 0 48 48" version="1.1">
<g id="surface1">
<path style=" stroke:none;fill-rule:evenodd;fill:rgb(60%,60%,60%);fill-opacity:1;" d="M 43.09375 42.136719 C 42.648438 42.246094 42.089844 42.386719 42.089844 42.386719 L 5.867188 42.386719 C 5.699219 42.386719 5.277344 42.242188 4.941406 42.1875 C 6.472656 43.96875 8.667969 45.152344 11.210938 45.152344 L 36.789062 45.152344 C 39.355469 45.152344 41.5625 43.945312 43.09375 42.136719 Z M 43.09375 42.136719 "/>
<path style=" stroke:none;fill-rule:evenodd;fill:rgb(65.098039%,65.098039%,65.098039%);fill-opacity:1;" d="M 45.105469 37.023438 L 45.105469 20.957031 C 45.105469 20.265625 44.773438 19.65625 44.261719 19.273438 L 44.273438 19.261719 L 23.976562 4.355469 C 23.976562 4.355469 3.6875 19.28125 3.808594 19.1875 L 3.808594 19.183594 C 3.765625 19.210938 3.726562 19.246094 3.683594 19.277344 L 3.660156 19.292969 L 3.660156 19.296875 C 3.167969 19.683594 2.847656 20.28125 2.847656 20.957031 L 2.847656 36.792969 C 2.847656 38.878906 3.683594 40.726562 4.941406 42.1875 C 5.277344 42.242188 5.699219 42.386719 5.867188 42.386719 L 42.089844 42.386719 C 42.089844 42.386719 42.648438 42.246094 43.09375 42.136719 C 44.277344 40.738281 45.050781 38.992188 45.105469 37.023438 Z M 45.105469 37.023438 "/>
<path style=" stroke:none;fill-rule:evenodd;fill:rgb(40%,40%,40%);fill-opacity:1;" d="M 11.210938 2.847656 C 6.578125 2.847656 2.847656 6.578125 2.847656 11.210938 L 2.847656 20.957031 C 2.847656 20.28125 3.167969 19.683594 3.660156 19.296875 L 3.660156 19.292969 L 3.683594 19.277344 C 3.726562 19.246094 3.765625 19.210938 3.808594 19.183594 L 3.808594 19.1875 C 3.6875 19.28125 23.976562 4.351562 23.976562 4.351562 L 44.273438 19.257812 L 44.261719 19.269531 C 44.773438 19.65625 45.105469 20.265625 45.105469 20.957031 L 45.105469 37.023438 C 45.109375 36.941406 45.152344 36.875 45.152344 36.789062 L 45.152344 11.210938 C 45.152344 6.578125 41.421875 2.847656 36.789062 2.847656 Z M 11.210938 2.847656 "/>
<path style=" stroke:none;fill-rule:nonzero;fill:rgb(19.215686%,68.627451%,88.235294%);fill-opacity:1;" d="M 9.640625 8.878906 L 38.316406 8.878906 C 39.566406 8.878906 40.582031 9.894531 40.582031 11.140625 L 40.582031 33.785156 C 40.582031 35.035156 39.566406 36.046875 38.316406 36.046875 L 9.640625 36.046875 C 8.390625 36.046875 7.375 35.035156 7.375 33.785156 L 7.375 11.140625 C 7.375 9.894531 8.390625 8.878906 9.640625 8.878906 Z M 9.640625 8.878906 "/>
<path style=" stroke:none;fill-rule:nonzero;fill:rgb(100%,100%,100%);fill-opacity:1;" d="M 23.976562 13.40625 C 19.808594 13.40625 16.429688 16.785156 16.429688 20.953125 C 16.429688 25.121094 19.808594 28.5 23.976562 28.5 L 29.261719 28.5 C 29.679688 28.5 30.015625 28.164062 30.015625 27.746094 C 30.015625 27.328125 29.679688 26.992188 29.261719 26.992188 L 23.976562 26.992188 C 20.644531 26.992188 17.941406 24.289062 17.941406 20.953125 C 17.941406 17.621094 20.644531 14.917969 23.976562 14.917969 C 27.3125 14.917969 30.015625 17.621094 30.015625 20.953125 L 30.015625 23.21875 C 30.015625 23.636719 29.679688 23.972656 29.261719 23.972656 C 28.84375 23.972656 28.503906 23.636719 28.503906 23.21875 L 28.503906 20.953125 C 28.503906 18.453125 26.480469 16.425781 23.976562 16.425781 C 21.476562 16.425781 19.449219 18.453125 19.449219 20.953125 C 19.449219 23.457031 21.476562 25.480469 23.976562 25.480469 C 25.1875 25.480469 26.34375 24.996094 27.195312 24.136719 C 27.546875 24.929688 28.335938 25.484375 29.261719 25.484375 C 30.515625 25.484375 31.523438 24.472656 31.523438 23.21875 L 31.523438 20.953125 C 31.523438 16.789062 28.144531 13.410156 23.976562 13.410156 Z M 23.976562 17.9375 C 25.644531 17.9375 26.996094 19.289062 26.996094 20.953125 C 26.996094 22.621094 25.644531 23.972656 23.976562 23.972656 C 22.3125 23.972656 20.960938 22.621094 20.960938 20.953125 C 20.960938 19.289062 22.3125 17.9375 23.976562 17.9375 Z M 23.976562 17.9375 "/>
<path style=" stroke:none;fill-rule:evenodd;fill:rgb(82.352941%,82.352941%,82.352941%);fill-opacity:1;" d="M 45.105469 37.023438 L 45.105469 20.957031 L 10.394531 44.988281 C 10.675781 45.015625 10.921875 45.152344 11.210938 45.152344 L 36.789062 45.152344 C 41.339844 45.152344 44.976562 41.539062 45.105469 37.023438 Z M 45.105469 37.023438 "/>
<path style=" stroke:none;fill-rule:evenodd;fill:rgb(74.509804%,74.509804%,74.509804%);fill-opacity:1;" d="M 23.976562 35.585938 L 2.847656 20.957031 L 2.847656 36.792969 C 2.847656 41.132812 6.167969 44.558594 10.394531 44.988281 Z M 23.976562 35.585938 "/>
</g>
</svg>
