<?xml version="1.0" encoding="UTF-8"?>
<svg xmlns="http://www.w3.org/2000/svg" xmlns:xlink="http://www.w3.org/1999/xlink" width="48pt" height="48pt" viewBox="0 0 48 48" version="1.1">
<defs>
<filter id="alpha" filterUnits="objectBoundingBox" x="0%" y="0%" width="100%" height="100%">
  <feColorMatrix type="matrix" in="SourceGraphic" values="0 0 0 0 1 0 0 0 0 1 0 0 0 0 1 0 0 0 1 0"/>
</filter>
<mask id="mask0">
  <g filter="url(#alpha)">
<rect x="0" y="0" width="48" height="48" style="fill:rgb(0%,0%,0%);fill-opacity:0.501961;stroke:none;"/>
  </g>
</mask>
<clipPath id="clip1">
  <rect width="48" height="48"/>
</clipPath>
<g id="surface6" clip-path="url(#clip1)">
<path style=" stroke:none;fill-rule:nonzero;fill:rgb(100%,100%,100%);fill-opacity:1;" d="M 22.003906 20.007812 L 25.996094 20.007812 C 27.992188 20.007812 27.992188 22.003906 27.992188 22.003906 L 27.992188 29.992188 L 25.996094 29.992188 L 25.996094 26.996094 L 22.003906 26.996094 L 22.003906 29.992188 L 20.007812 29.992188 L 20.007812 22.003906 C 20.007812 20.007812 22.003906 20.007812 22.003906 20.007812 Z M 22.003906 22.003906 L 22.003906 25 L 25.996094 25 L 25.996094 22.003906 Z M 22.003906 22.003906 "/>
</g>
</defs>
<g id="surface1">
<path style=" stroke:none;fill-rule:evenodd;fill:rgb(80%,80%,80%);fill-opacity:1;" d="M 11.210938 2.847656 L 36.789062 2.847656 C 41.410156 2.847656 45.152344 6.589844 45.152344 11.210938 L 45.152344 36.789062 C 45.152344 41.410156 41.410156 45.152344 36.789062 45.152344 L 11.210938 45.152344 C 6.589844 45.152344 2.847656 41.410156 2.847656 36.789062 L 2.847656 11.210938 C 2.847656 6.589844 6.589844 2.847656 11.210938 2.847656 Z M 11.210938 2.847656 "/>
<path style=" stroke:none;fill-rule:nonzero;fill:rgb(40%,40%,40%);fill-opacity:1;" d="M 24 14.015625 C 20.121094 14.015625 16.820312 16.316406 15.398438 19.574219 C 11.789062 20.09375 9.023438 23.078125 9.023438 26.722656 C 9.023438 30.734375 12.375 33.984375 16.511719 33.984375 L 32.425781 33.984375 C 36.042969 33.984375 38.976562 31.140625 38.976562 27.628906 C 38.976562 24.371094 36.449219 21.695312 33.183594 21.335938 C 32.335938 17.167969 28.542969 14.015625 24 14.015625 Z M 24 14.015625 "/>
<use xlink:href="#surface6" mask="url(#mask0)"/>
</g>
</svg>
