<?xml version="1.0" encoding="UTF-8"?>
<svg xmlns="http://www.w3.org/2000/svg" xmlns:xlink="http://www.w3.org/1999/xlink" width="48pt" height="48pt" viewBox="0 0 48 48" version="1.1">
<g id="surface1">
<path style=" stroke:none;fill-rule:evenodd;fill:rgb(80%,80%,80%);fill-opacity:1;" d="M 11.210938 2.847656 L 36.789062 2.847656 C 41.410156 2.847656 45.152344 6.589844 45.152344 11.210938 L 45.152344 36.789062 C 45.152344 41.410156 41.410156 45.152344 36.789062 45.152344 L 11.210938 45.152344 C 6.589844 45.152344 2.847656 41.410156 2.847656 36.789062 L 2.847656 11.210938 C 2.847656 6.589844 6.589844 2.847656 11.210938 2.847656 Z M 11.210938 2.847656 "/>
<path style=" stroke:none;fill-rule:nonzero;fill:rgb(76.078431%,20.784314%,16.470588%);fill-opacity:1;" d="M 34.191406 11.25 C 33.652344 11.25 33.101562 11.367188 32.664062 11.59375 C 32.023438 11.921875 31.375 12.621094 31.089844 13.296875 C 30.785156 14.015625 30.742188 15.28125 31 15.953125 C 31.105469 16.238281 31.292969 16.726562 31.414062 17.039062 C 31.6875 17.742188 31.785156 19.296875 31.613281 20.171875 C 31.417969 21.152344 30.816406 22.289062 30.109375 23 C 27.992188 25.140625 24.792969 25.179688 22.6875 23.085938 C 21.960938 22.367188 21.859375 22.195312 18.582031 16.210938 C 17.472656 14.179688 16.472656 12.480469 16.265625 12.261719 C 15.617188 11.554688 14.710938 11.304688 13.882812 11.300781 C 12.101562 11.269531 10.863281 12.695312 10.570312 14.226562 C 10.355469 15.453125 10.257812 15.242188 16.011719 25.738281 C 19.644531 32.363281 21.371094 35.417969 21.65625 35.714844 C 22.660156 36.78125 24.089844 37.042969 25.425781 36.410156 C 25.777344 36.246094 26.175781 35.945312 26.429688 35.660156 C 26.925781 35.09375 37.226562 16.386719 37.394531 15.746094 C 37.566406 15.070312 37.523438 14.113281 37.289062 13.449219 C 36.996094 12.625 36.1875 11.777344 35.390625 11.460938 C 35.03125 11.320312 34.613281 11.25 34.191406 11.25 Z M 34.191406 11.25 "/>
</g>
</svg>
