<?xml version="1.0" encoding="UTF-8"?>
<svg xmlns="http://www.w3.org/2000/svg" xmlns:xlink="http://www.w3.org/1999/xlink" width="48pt" height="48pt" viewBox="0 0 48 48" version="1.1">
<g id="surface1">
<path style=" stroke:none;fill-rule:evenodd;fill:rgb(38.039216%,51.764706%,65.098039%);fill-opacity:1;" d="M 11.210938 2.847656 L 36.789062 2.847656 C 41.410156 2.847656 45.152344 6.589844 45.152344 11.210938 L 45.152344 36.789062 C 45.152344 41.410156 41.410156 45.152344 36.789062 45.152344 L 11.210938 45.152344 C 6.589844 45.152344 2.847656 41.410156 2.847656 36.789062 L 2.847656 11.210938 C 2.847656 6.589844 6.589844 2.847656 11.210938 2.847656 Z M 11.210938 2.847656 "/>
<path style=" stroke:none;fill-rule:evenodd;fill:rgb(100%,100%,100%);fill-opacity:1;" d="M 23.644531 33.667969 L 25.617188 33.667969 C 25.617188 33.667969 26.214844 33.601562 26.519531 33.261719 C 26.796875 32.949219 26.789062 32.363281 26.789062 32.363281 C 26.789062 32.363281 26.75 29.621094 27.980469 29.21875 C 29.191406 28.820312 30.746094 31.867188 32.394531 33.039062 C 33.640625 33.925781 34.585938 33.730469 34.585938 33.730469 L 38.992188 33.667969 C 38.992188 33.667969 41.300781 33.519531 40.207031 31.644531 C 40.117188 31.488281 39.570312 30.253906 36.929688 27.714844 C 34.164062 25.0625 34.535156 25.488281 37.863281 20.894531 C 39.890625 18.097656 40.703125 16.386719 40.449219 15.65625 C 40.207031 14.960938 38.714844 15.144531 38.714844 15.144531 L 33.753906 15.175781 C 33.753906 15.175781 33.386719 15.125 33.113281 15.292969 C 32.847656 15.457031 32.675781 15.84375 32.675781 15.84375 C 32.675781 15.84375 31.890625 18.007812 30.84375 19.851562 C 28.632812 23.738281 27.75 23.941406 27.386719 23.699219 C 26.546875 23.136719 26.757812 21.441406 26.757812 20.234375 C 26.757812 16.46875 27.308594 14.898438 25.683594 14.492188 C 25.144531 14.359375 24.746094 14.269531 23.367188 14.253906 C 21.597656 14.234375 20.097656 14.261719 19.25 14.691406 C 18.6875 14.976562 18.25 15.617188 18.515625 15.652344 C 18.84375 15.695312 19.585938 15.859375 19.980469 16.414062 C 20.488281 17.132812 20.472656 18.738281 20.472656 18.738281 C 20.472656 18.738281 20.761719 23.171875 19.789062 23.722656 C 19.121094 24.101562 18.203125 23.332031 16.230469 19.804688 C 15.222656 18 14.460938 16.003906 14.460938 16.003906 C 14.460938 16.003906 14.3125 15.628906 14.050781 15.429688 C 13.734375 15.1875 13.289062 15.109375 13.289062 15.109375 L 8.574219 15.144531 C 8.574219 15.144531 7.867188 15.164062 7.609375 15.484375 C 7.375 15.765625 7.589844 16.351562 7.589844 16.351562 C 7.589844 16.351562 11.28125 25.296875 15.460938 29.804688 C 19.292969 33.941406 23.644531 33.667969 23.644531 33.667969 "/>
</g>
</svg>
