<?xml version="1.0" encoding="UTF-8"?>
<svg xmlns="http://www.w3.org/2000/svg" xmlns:xlink="http://www.w3.org/1999/xlink" width="48pt" height="48pt" viewBox="0 0 48 48" version="1.1">
<g id="surface1">
<path style=" stroke:none;fill-rule:evenodd;fill:rgb(27.843137%,67.843137%,36.470588%);fill-opacity:1;" d="M 11.210938 2.847656 L 36.789062 2.847656 C 41.410156 2.847656 45.152344 6.589844 45.152344 11.210938 L 45.152344 36.789062 C 45.152344 41.410156 41.410156 45.152344 36.789062 45.152344 L 11.210938 45.152344 C 6.589844 45.152344 2.847656 41.410156 2.847656 36.789062 L 2.847656 11.210938 C 2.847656 6.589844 6.589844 2.847656 11.210938 2.847656 Z M 11.210938 2.847656 "/>
<path style=" stroke:none;fill-rule:nonzero;fill:rgb(100%,100%,100%);fill-opacity:1;" d="M 24 10.117188 C 23.664062 10.117188 23.335938 10.136719 23.007812 10.160156 C 22.964844 10.160156 22.925781 10.164062 22.882812 10.167969 C 17.925781 10.558594 13.726562 13.535156 11.605469 17.757812 C 11.601562 17.757812 11.601562 17.757812 11.601562 17.757812 C 11.464844 18.03125 11.324219 18.304688 11.207031 18.585938 C 10.554688 20.054688 10.203125 21.613281 10.136719 23.242188 C 10.136719 23.296875 10.136719 23.347656 10.132812 23.402344 C 10.128906 23.558594 10.121094 23.710938 10.121094 23.867188 C 10.121094 23.914062 10.117188 23.957031 10.117188 24 C 10.117188 25.613281 10.40625 27.15625 10.90625 28.59375 C 11.109375 29.238281 11.34375 29.890625 11.625 30.550781 C 12.324219 32.195312 12.410156 32.644531 12.300781 34.015625 C 12.222656 34.972656 11.964844 35.949219 11.640625 36.5 C 11.34375 36.996094 11.109375 37.511719 11.109375 37.640625 C 11.109375 38.046875 13.449219 37.90625 15.519531 37.375 C 17.945312 36.753906 18.160156 36.753906 20.148438 37.378906 C 21.058594 37.664062 22.097656 37.820312 23.269531 37.863281 C 23.316406 37.863281 23.367188 37.863281 23.417969 37.867188 C 23.578125 37.871094 23.730469 37.882812 23.898438 37.882812 C 23.910156 37.882812 23.921875 37.878906 23.9375 37.878906 C 23.957031 37.878906 23.976562 37.882812 24 37.882812 C 24.386719 37.882812 24.769531 37.863281 25.148438 37.832031 C 28.582031 37.585938 31.335938 36.316406 33.816406 33.839844 C 35.863281 31.800781 37.128906 29.28125 37.628906 26.644531 C 37.675781 26.402344 37.714844 26.160156 37.746094 25.914062 C 37.765625 25.765625 37.789062 25.613281 37.804688 25.464844 C 37.835938 25.140625 37.859375 24.8125 37.867188 24.480469 C 37.871094 24.398438 37.875 24.316406 37.875 24.230469 C 37.878906 24.15625 37.882812 24.078125 37.882812 24 C 37.882812 16.4375 31.894531 10.332031 24.382812 10.128906 C 24.324219 10.128906 24.265625 10.125 24.207031 10.125 C 24.136719 10.125 24.070312 10.121094 24 10.121094 Z M 24 10.117188 "/>
<path style=" stroke:none;fill-rule:nonzero;fill:rgb(27.843137%,67.843137%,36.470588%);fill-opacity:1;" d="M 25.984375 24 C 25.984375 25.09375 25.09375 25.984375 24 25.984375 C 22.90625 25.984375 22.015625 25.09375 22.015625 24 C 22.015625 22.90625 22.90625 22.015625 24 22.015625 C 25.09375 22.015625 25.984375 22.90625 25.984375 24 Z M 25.984375 24 "/>
<path style=" stroke:none;fill-rule:nonzero;fill:rgb(27.843137%,67.843137%,36.470588%);fill-opacity:1;" d="M 18.050781 24 C 18.050781 25.09375 17.164062 25.984375 16.066406 25.984375 C 14.972656 25.984375 14.085938 25.09375 14.085938 24 C 14.085938 22.90625 14.972656 22.015625 16.066406 22.015625 C 17.164062 22.015625 18.050781 22.90625 18.050781 24 Z M 18.050781 24 "/>
<path style=" stroke:none;fill-rule:nonzero;fill:rgb(27.843137%,67.843137%,36.470588%);fill-opacity:1;" d="M 33.914062 24 C 33.914062 25.09375 33.027344 25.984375 31.933594 25.984375 C 30.835938 25.984375 29.949219 25.09375 29.949219 24 C 29.949219 22.90625 30.835938 22.015625 31.933594 22.015625 C 33.027344 22.015625 33.914062 22.90625 33.914062 24 Z M 33.914062 24 "/>
</g>
</svg>
