<?xml version="1.0" encoding="UTF-8"?>
<svg xmlns="http://www.w3.org/2000/svg" xmlns:xlink="http://www.w3.org/1999/xlink" width="48pt" height="48pt" viewBox="0 0 48 48" version="1.1">
<g id="surface1">
<path style=" stroke:none;fill-rule:evenodd;fill:rgb(71.764706%,71.764706%,71.764706%);fill-opacity:1;" d="M 10.375 44.984375 L 10.375 11.445312 L 2.847656 11.445312 L 2.847656 36.789062 C 2.847656 41.128906 6.15625 44.550781 10.375 44.984375 Z M 10.375 44.984375 "/>
<path style=" stroke:none;fill-rule:evenodd;fill:rgb(57.254902%,0%,0%);fill-opacity:1;" d="M 11.207031 2.847656 C 6.574219 2.847656 2.847656 6.578125 2.847656 11.210938 L 2.847656 11.445312 L 10.375 11.445312 L 10.375 44.984375 C 10.664062 45.015625 10.914062 45.152344 11.207031 45.152344 L 36.789062 45.152344 C 41.421875 45.152344 45.152344 41.425781 45.152344 36.789062 L 45.152344 11.210938 C 45.152344 6.578125 41.421875 2.847656 36.789062 2.847656 Z M 11.207031 2.847656 "/>
<path style=" stroke:none;fill-rule:nonzero;fill:rgb(97.254902%,76.862745%,30.588235%);fill-opacity:1;" d="M 17.421875 38 L 20.996094 38 L 20.996094 45.152344 L 17.421875 45.152344 Z M 17.421875 38 "/>
<path style=" stroke:none;fill-rule:nonzero;fill:rgb(97.254902%,76.862745%,30.588235%);fill-opacity:1;" d="M 22.785156 38 L 26.359375 38 L 26.359375 45.152344 L 22.785156 45.152344 Z M 22.785156 38 "/>
<path style=" stroke:none;fill-rule:nonzero;fill:rgb(97.254902%,76.862745%,30.588235%);fill-opacity:1;" d="M 28.148438 38 L 31.722656 38 L 31.722656 45.152344 L 28.148438 45.152344 Z M 28.148438 38 "/>
<path style=" stroke:none;fill-rule:nonzero;fill:rgb(97.254902%,76.862745%,30.588235%);fill-opacity:1;" d="M 33.511719 38 L 37.085938 38 L 37.085938 45.152344 L 33.511719 45.152344 Z M 33.511719 38 "/>
<path style=" stroke:none;fill-rule:nonzero;fill:rgb(71.764706%,71.764706%,71.764706%);fill-opacity:1;" d="M 27.933594 8.558594 C 26.210938 8.578125 24.496094 8.648438 24.496094 8.761719 C 24.496094 8.867188 24.726562 9.441406 25.007812 10.03125 C 26.097656 12.335938 26.859375 15.261719 26.859375 17.132812 C 26.859375 17.957031 26.828125 18.023438 26.492188 17.972656 C 26.203125 17.929688 26.039062 17.652344 25.675781 16.574219 C 24.972656 14.476562 23.75 12.203125 22.367188 10.421875 C 20.984375 8.640625 21.425781 8.527344 18.585938 11.363281 C 16.890625 13.050781 16.148438 13.902344 16.285156 13.992188 C 16.398438 14.0625 17.023438 14.328125 17.671875 14.578125 C 18.320312 14.828125 19.214844 15.246094 19.660156 15.507812 C 20.105469 15.769531 20.511719 15.980469 20.5625 15.980469 C 20.773438 15.980469 23.277344 17.851562 23.816406 18.414062 C 24.269531 18.886719 24.351562 19.0625 24.191406 19.222656 C 23.964844 19.449219 24.019531 19.46875 21.503906 18.355469 C 20.644531 17.976562 19.242188 17.519531 18.386719 17.335938 C 16.683594 16.96875 14.046875 16.640625 13.84375 16.765625 C 13.691406 16.863281 13.664062 23.628906 13.816406 23.785156 C 13.875 23.839844 14.285156 23.703125 14.734375 23.480469 C 17.058594 22.300781 20.351562 21.375 22.222656 21.375 C 22.9375 21.375 23.152344 21.4375 23.152344 21.628906 C 23.152344 22.074219 23.089844 22.117188 21.886719 22.519531 C 20.429688 23.011719 18.980469 23.695312 17.476562 24.605469 C 16.03125 25.476562 14.21875 26.902344 14.21875 27.164062 C 14.21875 27.273438 15.308594 28.453125 16.644531 29.785156 L 19.070312 32.207031 L 19.410156 31.441406 C 19.59375 31.019531 19.804688 30.5 19.871094 30.28125 C 20.257812 29.066406 22.296875 25.847656 23.558594 24.472656 C 24.113281 23.867188 24.171875 23.84375 24.433594 24.105469 C 24.695312 24.367188 24.691406 24.425781 24.332031 25.027344 C 23.226562 26.890625 22.238281 30.308594 22.035156 32.988281 L 21.921875 34.523438 L 25.484375 34.523438 C 27.445312 34.523438 29.050781 34.472656 29.050781 34.410156 C 29.050781 34.351562 28.792969 33.765625 28.476562 33.109375 C 27.457031 30.980469 26.832031 28.71875 26.597656 26.304688 C 26.492188 25.238281 26.515625 25.082031 26.753906 25.082031 C 26.90625 25.082031 27.078125 25.078125 27.140625 25.074219 C 27.203125 25.066406 27.496094 25.730469 27.789062 26.550781 C 28.457031 28.410156 29.191406 29.867188 30.277344 31.488281 C 31.375 33.125 32.113281 34.011719 32.386719 34.011719 C 32.671875 34.019531 37.34375 29.324219 37.234375 29.144531 C 37.1875 29.070312 36.789062 28.875 36.347656 28.707031 C 34.140625 27.878906 31.648438 26.414062 29.933594 24.941406 C 29.105469 24.226562 29.070312 24.164062 29.328125 23.878906 C 29.59375 23.585938 29.640625 23.59375 30.546875 24.066406 C 32.863281 25.269531 35.371094 25.960938 38.261719 26.199219 L 39.667969 26.308594 L 39.667969 22.746094 C 39.667969 20.785156 39.628906 19.183594 39.582031 19.183594 C 39.53125 19.183594 39.054688 19.402344 38.527344 19.667969 C 36.375 20.75 32.820312 21.710938 30.980469 21.710938 C 30.3125 21.710938 30.230469 21.671875 30.234375 21.332031 C 30.238281 21.011719 30.425781 20.890625 31.457031 20.550781 C 33.726562 19.804688 36.257812 18.460938 37.8125 17.171875 C 38.230469 16.824219 38.746094 16.453125 38.953125 16.339844 C 39.160156 16.230469 39.332031 16.050781 39.332031 15.945312 C 39.332031 15.738281 34.621094 10.925781 34.421875 10.925781 C 34.355469 10.925781 34.136719 11.363281 33.941406 11.894531 C 33.128906 14.085938 30.914062 17.6875 29.691406 18.8125 C 29.3125 19.160156 29.246094 19.171875 29.042969 18.929688 C 28.855469 18.699219 28.914062 18.464844 29.421875 17.363281 C 30.441406 15.164062 30.558594 14.835938 30.90625 13.234375 C 31.253906 11.632812 31.582031 8.914062 31.457031 8.691406 C 31.398438 8.582031 29.660156 8.542969 27.933594 8.558594 Z M 26.691406 19 C 28.09375 19 29.230469 20.136719 29.230469 21.539062 C 29.234375 22.941406 28.097656 24.082031 26.691406 24.082031 C 26.019531 24.082031 25.371094 23.816406 24.894531 23.335938 C 24.417969 22.859375 24.148438 22.214844 24.148438 21.539062 C 24.148438 20.136719 25.289062 19 26.691406 19 Z M 26.691406 19 "/>
</g>
</svg>
