<?xml version="1.0" encoding="UTF-8"?>
<svg xmlns="http://www.w3.org/2000/svg" xmlns:xlink="http://www.w3.org/1999/xlink" width="48pt" height="48pt" viewBox="0 0 48 48" version="1.1">
<defs>
<filter id="alpha" filterUnits="objectBoundingBox" x="0%" y="0%" width="100%" height="100%">
  <feColorMatrix type="matrix" in="SourceGraphic" values="0 0 0 0 1 0 0 0 0 1 0 0 0 0 1 0 0 0 1 0"/>
</filter>
<mask id="mask0">
  <g filter="url(#alpha)">
<rect x="0" y="0" width="48" height="48" style="fill:rgb(0%,0%,0%);fill-opacity:0.988235;stroke:none;"/>
  </g>
</mask>
<clipPath id="clip1">
  <rect width="48" height="48"/>
</clipPath>
<g id="surface6" clip-path="url(#clip1)">
<path style=" stroke:none;fill-rule:nonzero;fill:rgb(41.176471%,41.176471%,57.254902%);fill-opacity:1;" d="M 7.5 37.167969 L 28.5 37.167969 C 29.328125 37.167969 30 37.839844 30 38.667969 C 30 39.496094 29.328125 40.167969 28.5 40.167969 L 7.5 40.167969 C 6.671875 40.167969 6 39.496094 6 38.667969 C 6 37.839844 6.671875 37.167969 7.5 37.167969 Z M 7.5 37.167969 "/>
</g>
</defs>
<g id="surface1">
<path style=" stroke:none;fill-rule:evenodd;fill:rgb(80%,80%,80%);fill-opacity:1;" d="M 45.152344 32.949219 L 2.847656 32.949219 L 2.847656 36.792969 C 2.847656 41.425781 6.578125 45.152344 11.210938 45.152344 L 36.789062 45.152344 C 41.425781 45.152344 45.152344 41.425781 45.152344 36.792969 Z M 45.152344 32.949219 "/>
<path style=" stroke:none;fill-rule:evenodd;fill:rgb(41.176471%,41.176471%,57.254902%);fill-opacity:1;" d="M 11.210938 2.847656 C 6.578125 2.847656 2.847656 6.578125 2.847656 11.210938 L 2.847656 32.949219 L 45.152344 32.949219 L 45.152344 11.210938 C 45.152344 6.578125 41.425781 2.847656 36.789062 2.847656 Z M 11.210938 2.847656 "/>
<path style=" stroke:none;fill-rule:nonzero;fill:rgb(100%,100%,100%);fill-opacity:1;" d="M 19.171875 12.328125 C 18.804688 12.328125 18.507812 12.628906 18.507812 12.996094 L 18.507812 26.660156 C 18.507812 27.167969 19.050781 27.488281 19.492188 27.246094 L 31.996094 20.414062 C 32.457031 20.160156 32.457031 19.496094 31.996094 19.242188 L 20.742188 13.09375 L 19.492188 12.414062 C 19.394531 12.359375 19.285156 12.332031 19.171875 12.332031 Z M 19.171875 12.328125 "/>
<path style=" stroke:none;fill-rule:nonzero;fill:rgb(60%,60%,60%);fill-opacity:1;" d="M 31.5 37.167969 L 40.5 37.167969 C 41.328125 37.167969 42 37.839844 42 38.667969 C 42 39.496094 41.328125 40.167969 40.5 40.167969 L 31.5 40.167969 C 30.671875 40.167969 30 39.496094 30 38.667969 C 30 37.839844 30.671875 37.167969 31.5 37.167969 Z M 31.5 37.167969 "/>
<use xlink:href="#surface6" mask="url(#mask0)"/>
<path style=" stroke:none;fill-rule:nonzero;fill:rgb(100%,100%,100%);fill-opacity:1;" d="M 33 38.667969 C 33 40.328125 31.65625 41.667969 30 41.667969 C 28.34375 41.667969 27 40.328125 27 38.667969 C 27 37.011719 28.34375 35.667969 30 35.667969 C 31.65625 35.667969 33 37.011719 33 38.667969 Z M 33 38.667969 "/>
</g>
</svg>
