<?xml version="1.0" encoding="UTF-8"?>
<svg xmlns="http://www.w3.org/2000/svg" xmlns:xlink="http://www.w3.org/1999/xlink" width="48pt" height="48pt" viewBox="0 0 48 48" version="1.1">
<g id="surface1">
<path style=" stroke:none;fill-rule:evenodd;fill:rgb(92.54902%,92.54902%,92.54902%);fill-opacity:1;" d="M 11.210938 2.847656 L 36.789062 2.847656 C 41.410156 2.847656 45.152344 6.589844 45.152344 11.210938 L 45.152344 36.789062 C 45.152344 41.410156 41.410156 45.152344 36.789062 45.152344 L 11.210938 45.152344 C 6.589844 45.152344 2.847656 41.410156 2.847656 36.789062 L 2.847656 11.210938 C 2.847656 6.589844 6.589844 2.847656 11.210938 2.847656 Z M 11.210938 2.847656 "/>
<path style=" stroke:none;fill-rule:nonzero;fill:rgb(83.921569%,67.45098%,7.058824%);fill-opacity:1;" d="M 16.15625 28.472656 L 16.15625 19.527344 L 23.824219 15.054688 L 31.488281 19.527344 L 31.488281 28.472656 L 23.824219 32.945312 Z M 16.15625 28.472656 "/>
<path style=" stroke:none;fill-rule:nonzero;fill:rgb(56.078431%,71.372549%,20.784314%);fill-opacity:1;" d="M 25.101562 6.109375 L 25.101562 13.449219 L 32.765625 17.609375 L 39.15625 13.777344 Z M 25.101562 6.109375 "/>
<path style=" stroke:none;fill-rule:nonzero;fill:rgb(21.960784%,58.431373%,74.117647%);fill-opacity:1;" d="M 22.542969 6.109375 L 22.542969 13.449219 L 14.878906 17.609375 L 8.488281 13.777344 Z M 22.542969 6.109375 "/>
<path style=" stroke:none;fill-rule:nonzero;fill:rgb(81.960784%,54.901961%,23.137255%);fill-opacity:1;" d="M 40.398438 15.660156 L 34.046875 19.332031 L 34.273438 28.050781 L 40.789062 31.667969 Z M 40.398438 15.660156 "/>
<path style=" stroke:none;fill-rule:nonzero;fill:rgb(22.352941%,25.490196%,74.901961%);fill-opacity:1;" d="M 7.597656 15.660156 L 13.957031 19.332031 L 13.726562 28.050781 L 7.210938 31.667969 Z M 7.597656 15.660156 "/>
<path style=" stroke:none;fill-rule:nonzero;fill:rgb(62.745098%,17.254902%,20.784314%);fill-opacity:1;" d="M 25.101562 41.890625 L 25.101562 34.550781 L 32.765625 30.390625 L 39.15625 34.222656 Z M 25.101562 41.890625 "/>
<path style=" stroke:none;fill-rule:nonzero;fill:rgb(73.333333%,22.745098%,51.764706%);fill-opacity:1;" d="M 22.542969 41.890625 L 22.542969 34.550781 L 14.878906 30.390625 L 8.488281 34.222656 Z M 22.542969 41.890625 "/>
</g>
</svg>
