<?xml version="1.0" encoding="UTF-8"?>
<svg xmlns="http://www.w3.org/2000/svg" xmlns:xlink="http://www.w3.org/1999/xlink" width="48pt" height="48pt" viewBox="0 0 48 48" version="1.1">
<g id="surface1">
<path style=" stroke:none;fill-rule:evenodd;fill:rgb(35.686275%,35.686275%,35.686275%);fill-opacity:1;" d="M 11.210938 2.847656 L 36.789062 2.847656 C 41.410156 2.847656 45.152344 6.589844 45.152344 11.210938 L 45.152344 36.789062 C 45.152344 41.410156 41.410156 45.152344 36.789062 45.152344 L 11.210938 45.152344 C 6.589844 45.152344 2.847656 41.410156 2.847656 36.789062 L 2.847656 11.210938 C 2.847656 6.589844 6.589844 2.847656 11.210938 2.847656 Z M 11.210938 2.847656 "/>
<path style=" stroke:none;fill-rule:nonzero;fill:rgb(20%,20%,20%);fill-opacity:0.603922;" d="M 24 12.75 C 31.457031 12.75 37.5 18.792969 37.5 26.25 C 37.5 33.707031 31.457031 39.75 24 39.75 C 16.542969 39.75 10.5 33.707031 10.5 26.25 C 10.5 18.792969 16.542969 12.75 24 12.75 Z M 24 12.75 "/>
<path style=" stroke:none;fill-rule:nonzero;fill:rgb(99.607843%,75.294118%,2.352941%);fill-opacity:1;" d="M 24 15.75 C 18.199219 15.75 13.5 20.449219 13.5 26.25 C 13.5 32.050781 18.199219 36.75 24 36.75 C 29.800781 36.75 34.5 32.050781 34.5 26.25 C 34.5 20.449219 29.800781 15.75 24 15.75 Z M 24 15.75 "/>
<path style=" stroke:none;fill-rule:nonzero;fill:rgb(24.705882%,24.705882%,24.705882%);fill-opacity:1;" d="M 24 21.75 C 21.515625 21.75 19.5 23.765625 19.5 26.25 C 19.5 28.734375 21.515625 30.75 24 30.75 C 26.484375 30.75 28.5 28.734375 28.5 26.25 C 28.5 23.765625 26.484375 21.75 24 21.75 Z M 24 21.75 "/>
<path style=" stroke:none;fill-rule:nonzero;fill:rgb(20%,20%,20%);fill-opacity:0.603922;" d="M 15 11.25 C 14.171875 11.25 13.5 10.578125 13.5 9.75 C 13.5 8.921875 14.171875 8.25 15 8.25 C 15.828125 8.25 16.5 8.921875 16.5 9.75 C 16.5 10.578125 15.828125 11.25 15 11.25 Z M 15 11.25 "/>
<path style=" stroke:none;fill-rule:nonzero;fill:rgb(20%,20%,20%);fill-opacity:0.603922;" d="M 33 11.25 C 32.171875 11.25 31.5 10.578125 31.5 9.75 C 31.5 8.921875 32.171875 8.25 33 8.25 C 33.828125 8.25 34.5 8.921875 34.5 9.75 C 34.5 10.578125 33.828125 11.25 33 11.25 Z M 33 11.25 "/>
</g>
</svg>
