<?xml version="1.0" encoding="UTF-8"?>
<svg xmlns="http://www.w3.org/2000/svg" xmlns:xlink="http://www.w3.org/1999/xlink" width="48pt" height="48pt" viewBox="0 0 48 48" version="1.1">
<g id="surface1">
<path style=" stroke:none;fill-rule:evenodd;fill:rgb(76.862745%,25.490196%,10.196078%);fill-opacity:1;" d="M 11.210938 2.847656 L 36.789062 2.847656 C 41.410156 2.847656 45.152344 6.589844 45.152344 11.207031 L 45.152344 36.789062 C 45.152344 41.40625 41.410156 45.152344 36.789062 45.152344 L 11.210938 45.152344 C 6.589844 45.152344 2.847656 41.40625 2.847656 36.789062 L 2.847656 11.207031 C 2.847656 6.589844 6.589844 2.847656 11.210938 2.847656 Z M 11.210938 2.847656 "/>
<path style=" stroke:none;fill-rule:evenodd;fill:rgb(30.980392%,30.980392%,30.980392%);fill-opacity:1;" d="M 13.625 45.152344 L 13.625 2.847656 L 11.207031 2.847656 C 6.574219 2.847656 2.847656 6.578125 2.847656 11.210938 L 2.847656 36.789062 C 2.847656 41.421875 6.574219 45.152344 11.207031 45.152344 Z M 13.625 45.152344 "/>
<path style="fill:none;stroke-width:2;stroke-linecap:round;stroke-linejoin:round;stroke:rgb(100%,100%,100%);stroke-opacity:1;stroke-miterlimit:4;" d="M -31.104441 -5.316899 L -20.104441 -5.316899 L -31.104441 8.683101 L -20.104441 8.683101 " transform="matrix(1.5,0,0,1.5,66.789474,21.787848)"/>
</g>
</svg>
