<?xml version="1.0" encoding="UTF-8"?>
<svg xmlns="http://www.w3.org/2000/svg" xmlns:xlink="http://www.w3.org/1999/xlink" width="24pt" height="24pt" viewBox="0 0 24 24" version="1.1">
<g id="surface1">
<path style=" stroke:none;fill-rule:evenodd;fill:rgb(99.607843%,80.392157%,21.960784%);fill-opacity:1;" d="M 5.605469 1.421875 L 18.394531 1.421875 C 20.703125 1.421875 22.578125 3.296875 22.578125 5.605469 L 22.578125 18.394531 C 22.578125 20.703125 20.703125 22.578125 18.394531 22.578125 L 5.605469 22.578125 C 3.296875 22.578125 1.421875 20.703125 1.421875 18.394531 L 1.421875 5.605469 C 1.421875 3.296875 3.296875 1.421875 5.605469 1.421875 Z M 5.605469 1.421875 "/>
<path style="fill:none;stroke-width:4;stroke-linecap:round;stroke-linejoin:round;stroke:rgb(100%,100%,100%);stroke-opacity:1;stroke-miterlimit:4;" d="M 8.00181 25.995146 L 19.966695 25.995146 C 19.966695 25.995146 26.000395 26.346624 26.000395 21.001234 C 26.000395 15.655845 19.966695 16.014645 19.966695 16.014645 L 11.414072 16.014645 C 11.414072 16.014645 4.999605 16.366123 4.999605 11.020733 C 4.999605 5.675343 11.414072 6.034144 11.414072 6.034144 L 22.99819 6.034144 " transform="matrix(0.533462,0,0,0.533462,3.731338,3.464607)"/>
<path style="fill:none;stroke-width:4;stroke-linecap:round;stroke-linejoin:round;stroke:rgb(100%,100%,100%);stroke-opacity:1;stroke-miterlimit:4;" d="M 15.997927 3.002649 L 15.997927 28.997351 " transform="matrix(0.533462,0,0,0.533462,3.731338,3.464607)"/>
</g>
</svg>
