<?xml version="1.0" encoding="UTF-8"?>
<svg xmlns="http://www.w3.org/2000/svg" xmlns:xlink="http://www.w3.org/1999/xlink" width="24pt" height="24pt" viewBox="0 0 24 24" version="1.1">
<g id="surface1">
<path style=" stroke:none;fill-rule:evenodd;fill:rgb(30.980392%,30.980392%,30.980392%);fill-opacity:1;" d="M 5.605469 1.421875 L 18.394531 1.421875 C 20.703125 1.421875 22.578125 3.296875 22.578125 5.605469 L 22.578125 18.394531 C 22.578125 20.703125 20.703125 22.578125 18.394531 22.578125 L 5.605469 22.578125 C 3.296875 22.578125 1.421875 20.703125 1.421875 18.394531 L 1.421875 5.605469 C 1.421875 3.296875 3.296875 1.421875 5.605469 1.421875 Z M 5.605469 1.421875 "/>
<path style=" stroke:none;fill-rule:nonzero;fill:rgb(100%,38.823529%,38.823529%);fill-opacity:1;" d="M 5.28125 15.363281 L 7.695312 15.363281 C 8.273438 15.363281 8.738281 15.800781 8.738281 16.339844 L 8.738281 18.882812 C 8.738281 19.425781 8.273438 19.863281 7.695312 19.863281 L 5.28125 19.863281 C 4.707031 19.863281 4.238281 19.425781 4.238281 18.882812 L 4.238281 16.339844 C 4.238281 15.800781 4.707031 15.363281 5.28125 15.363281 Z M 5.28125 15.363281 "/>
<path style=" stroke:none;fill-rule:nonzero;fill:rgb(100%,38.823529%,38.823529%);fill-opacity:1;" d="M 5.28125 8.613281 L 7.695312 8.613281 C 8.273438 8.613281 8.738281 9.050781 8.738281 9.589844 L 8.738281 12.132812 C 8.738281 12.675781 8.273438 13.113281 7.695312 13.113281 L 5.28125 13.113281 C 4.707031 13.113281 4.238281 12.675781 4.238281 12.132812 L 4.238281 9.589844 C 4.238281 9.050781 4.707031 8.613281 5.28125 8.613281 Z M 5.28125 8.613281 "/>
<path style=" stroke:none;fill-rule:nonzero;fill:rgb(100%,38.823529%,38.823529%);fill-opacity:1;" d="M 12.03125 15.363281 L 14.445312 15.363281 C 15.023438 15.363281 15.488281 15.800781 15.488281 16.339844 L 15.488281 18.882812 C 15.488281 19.425781 15.023438 19.863281 14.445312 19.863281 L 12.03125 19.863281 C 11.457031 19.863281 10.988281 19.425781 10.988281 18.882812 L 10.988281 16.339844 C 10.988281 15.800781 11.457031 15.363281 12.03125 15.363281 Z M 12.03125 15.363281 "/>
<path style=" stroke:none;fill-rule:nonzero;fill:rgb(100%,38.823529%,38.823529%);fill-opacity:1;" d="M 12.03125 8.613281 L 14.445312 8.613281 C 15.023438 8.613281 15.488281 9.050781 15.488281 9.589844 L 15.488281 12.132812 C 15.488281 12.675781 15.023438 13.113281 14.445312 13.113281 L 12.03125 13.113281 C 11.457031 13.113281 10.988281 12.675781 10.988281 12.132812 L 10.988281 9.589844 C 10.988281 9.050781 11.457031 8.613281 12.03125 8.613281 Z M 12.03125 8.613281 "/>
</g>
</svg>
