<?xml version="1.0" encoding="UTF-8"?>
<svg xmlns="http://www.w3.org/2000/svg" xmlns:xlink="http://www.w3.org/1999/xlink" width="24pt" height="24pt" viewBox="0 0 24 24" version="1.1">
<defs>
<clipPath id="clip1">
  <rect width="24" height="24"/>
</clipPath>
<g id="surface6" clip-path="url(#clip1)">
<path style=" stroke:none;fill-rule:evenodd;fill:rgb(80%,36.862745%,33.333333%);fill-opacity:1;" d="M 20.429688 16.578125 C 20.429688 18.648438 18.75 20.328125 16.679688 20.328125 C 14.605469 20.328125 12.929688 18.648438 12.929688 16.578125 C 12.929688 14.503906 14.605469 12.828125 16.679688 12.828125 C 18.75 12.828125 20.429688 14.503906 20.429688 16.578125 Z M 20.429688 16.578125 "/>
</g>
<clipPath id="clip2">
  <rect width="24" height="24"/>
</clipPath>
<g id="surface9" clip-path="url(#clip2)">
<path style=" stroke:none;fill-rule:nonzero;fill:rgb(100%,100%,100%);fill-opacity:1;" d="M 16.210938 14.703125 L 16.167969 15.195312 C 16.011719 15.253906 15.867188 15.335938 15.738281 15.445312 L 15.289062 15.234375 L 14.820312 16.042969 L 15.226562 16.328125 C 15.210938 16.410156 15.207031 16.492188 15.203125 16.578125 C 15.203125 16.660156 15.210938 16.742188 15.226562 16.824219 L 14.820312 17.109375 L 15.289062 17.917969 L 15.734375 17.707031 C 15.863281 17.816406 16.011719 17.898438 16.167969 17.957031 L 16.210938 18.453125 L 17.148438 18.453125 L 17.1875 17.957031 C 17.34375 17.898438 17.492188 17.816406 17.617188 17.707031 L 18.066406 17.917969 L 18.535156 17.109375 L 18.128906 16.824219 C 18.144531 16.742188 18.152344 16.660156 18.152344 16.578125 C 18.152344 16.492188 18.144531 16.410156 18.128906 16.328125 L 18.535156 16.042969 L 18.066406 15.234375 L 17.621094 15.445312 C 17.492188 15.335938 17.34375 15.253906 17.1875 15.195312 L 17.148438 14.703125 Z M 16.679688 16.039062 C 16.972656 16.039062 17.214844 16.28125 17.214844 16.578125 C 17.214844 16.871094 16.972656 17.113281 16.679688 17.113281 C 16.382812 17.113281 16.140625 16.871094 16.140625 16.578125 C 16.140625 16.28125 16.382812 16.039062 16.679688 16.039062 Z M 16.679688 16.039062 "/>
</g>
</defs>
<g id="surface1">
<path style=" stroke:none;fill-rule:evenodd;fill:rgb(11.372549%,65.098039%,90.980392%);fill-opacity:1;" d="M 5.605469 1.421875 L 18.394531 1.421875 C 20.703125 1.421875 22.578125 3.296875 22.578125 5.605469 L 22.578125 18.394531 C 22.578125 20.703125 20.703125 22.578125 18.394531 22.578125 L 5.605469 22.578125 C 3.296875 22.578125 1.421875 20.703125 1.421875 18.394531 L 1.421875 5.605469 C 1.421875 3.296875 3.296875 1.421875 5.605469 1.421875 Z M 5.605469 1.421875 "/>
<use xlink:href="#surface6"/>
<use xlink:href="#surface9"/>
<path style=" stroke:none;fill-rule:nonzero;fill:rgb(7.843137%,45.882353%,63.921569%);fill-opacity:1;" d="M 6.144531 12.964844 C 6.433594 13.167969 6.699219 13.410156 6.945312 13.699219 L 6.511719 14.234375 C 6.246094 13.898438 5.96875 13.621094 5.679688 13.398438 L 6.144531 12.964844 M 6.144531 15.066406 C 6.410156 15.265625 6.667969 15.488281 6.910156 15.734375 L 6.476562 16.300781 C 6.234375 15.988281 5.96875 15.722656 5.679688 15.5 L 6.144531 15.066406 M 6.277344 17.367188 L 6.8125 17.730469 C 6.546875 18.640625 6.15625 19.519531 5.644531 20.363281 L 5.078125 19.929688 C 5.589844 19.109375 5.988281 18.253906 6.277344 17.363281 M 7.84375 12.699219 L 8.476562 12.832031 C 8.433594 13.054688 8.367188 13.265625 8.277344 13.464844 L 10.878906 13.464844 L 10.878906 14.066406 L 8.011719 14.066406 L 7.710938 14.566406 C 7.621094 14.742188 7.476562 14.933594 7.277344 15.132812 L 6.878906 14.664062 C 7.300781 14.15625 7.621094 13.5 7.84375 12.699219 M 7.679688 14.765625 L 10.746094 14.765625 C 10.746094 15.453125 10.734375 16.097656 10.710938 16.699219 L 11.144531 16.699219 L 11.144531 17.296875 L 10.679688 17.296875 C 10.632812 17.765625 10.601562 18.21875 10.578125 18.664062 L 11.078125 18.664062 L 11.078125 19.230469 L 10.511719 19.230469 C 10.421875 20.007812 10.109375 20.398438 9.578125 20.398438 C 9.445312 20.398438 9.253906 20.375 9.011719 20.332031 L 8.910156 19.765625 C 9.199219 19.808594 9.421875 19.832031 9.578125 19.832031 C 9.734375 19.832031 9.832031 19.632812 9.878906 19.230469 L 7.277344 19.230469 C 7.367188 18.632812 7.445312 17.988281 7.511719 17.296875 L 7.042969 17.296875 L 7.042969 16.699219 L 7.578125 16.699219 C 7.621094 16.078125 7.65625 15.433594 7.679688 14.765625 M 8.179688 16.699219 L 10.078125 16.699219 C 10.101562 16.230469 10.109375 15.777344 10.109375 15.332031 L 8.277344 15.332031 C 8.253906 15.820312 8.222656 16.277344 8.179688 16.699219 M 9.011719 15.5 C 9.257812 15.65625 9.480469 15.832031 9.679688 16.03125 L 9.277344 16.53125 C 9.078125 16.308594 8.859375 16.109375 8.613281 15.933594 L 9.011719 15.5 M 9.945312 18.664062 C 9.992188 18.199219 10.023438 17.742188 10.046875 17.300781 L 8.148438 17.300781 C 8.101562 17.789062 8.046875 18.242188 7.980469 18.664062 L 9.945312 18.664062 M 8.914062 17.464844 C 9.179688 17.621094 9.425781 17.800781 9.648438 18 L 9.214844 18.5 C 8.992188 18.253906 8.757812 18.042969 8.511719 17.867188 L 8.914062 17.464844 M 5.414062 13.5 L 5.414062 18.730469 L 4.8125 18.730469 L 4.8125 18.164062 L 4.246094 18.164062 L 4.246094 19.03125 L 3.648438 19.03125 L 3.648438 13.5 L 5.414062 13.5 M 4.246094 17.597656 L 4.8125 17.597656 L 4.8125 14.066406 L 4.246094 14.066406 L 4.246094 17.597656 "/>
<path style=" stroke:none;fill-rule:nonzero;fill:rgb(100%,100%,100%);fill-opacity:1;" d="M 16.039062 8.113281 L 16.230469 7.402344 C 16.441406 6.636719 16.644531 5.738281 16.832031 4.925781 L 16.878906 4.925781 C 17.078125 5.726562 17.292969 6.636719 17.503906 7.402344 L 17.683594 8.113281 L 16.039062 8.113281 M 18.511719 11.300781 L 20.351562 11.300781 L 17.941406 3.601562 L 15.851562 3.601562 L 13.445312 11.300781 L 15.214844 11.300781 L 15.6875 9.46875 L 18.039062 9.46875 L 18.511719 11.300781 "/>
</g>
</svg>
