<?xml version="1.0" encoding="UTF-8"?>
<svg xmlns="http://www.w3.org/2000/svg" xmlns:xlink="http://www.w3.org/1999/xlink" width="24pt" height="24pt" viewBox="0 0 24 24" version="1.1">
<g id="surface1">
<path style=" stroke:none;fill-rule:evenodd;fill:rgb(30.980392%,30.980392%,30.980392%);fill-opacity:1;" d="M 5.605469 1.425781 C 3.289062 1.425781 1.425781 3.289062 1.425781 5.605469 L 1.425781 9.640625 C 1.507812 9.441406 1.464844 9.433594 1.574219 9.230469 C 1.867188 8.695312 2.253906 8.164062 2.757812 7.765625 C 3.011719 7.5625 3.289062 7.398438 3.605469 7.28125 C 3.917969 7.164062 4.261719 7.097656 4.640625 7.097656 C 5.125 7.097656 5.523438 7.246094 5.863281 7.5 C 6.207031 7.757812 6.488281 8.125 6.730469 8.566406 C 7.214844 9.449219 7.542969 10.625 7.875 11.800781 C 8.207031 12.976562 8.546875 14.15625 9.050781 15.042969 C 9.304688 15.484375 9.605469 15.855469 9.960938 16.117188 C 10.320312 16.378906 10.742188 16.527344 11.246094 16.535156 C 11.875 16.539062 12.472656 16.347656 13.058594 16.054688 C 13.644531 15.757812 14.21875 15.367188 14.792969 14.96875 C 15.371094 14.574219 15.949219 14.179688 16.542969 13.882812 C 17.140625 13.585938 17.753906 13.386719 18.402344 13.386719 C 19.695312 13.386719 20.796875 13.699219 21.574219 14.011719 C 22.207031 14.265625 22.441406 14.433594 22.574219 14.519531 L 22.574219 5.605469 C 22.574219 3.289062 20.710938 1.421875 18.394531 1.421875 Z M 5.605469 1.425781 "/>
<path style=" stroke:none;fill-rule:nonzero;fill:rgb(0%,0%,0%);fill-opacity:0.254902;" d="M 1.425781 14.070312 L 22.574219 14.070312 L 22.574219 15.570312 L 1.425781 15.570312 Z M 1.425781 14.070312 "/>
<path style=" stroke:none;fill-rule:nonzero;fill:rgb(0%,0%,0%);fill-opacity:0.254902;" d="M 1.425781 4.632812 L 22.574219 4.632812 L 22.574219 6.132812 L 1.425781 6.132812 Z M 1.425781 4.632812 "/>
<path style=" stroke:none;fill-rule:nonzero;fill:rgb(0%,0%,0%);fill-opacity:0.254902;" d="M 1.425781 10.632812 L 22.574219 10.632812 L 22.574219 12.132812 L 1.425781 12.132812 Z M 1.425781 10.632812 "/>
<path style=" stroke:none;fill-rule:nonzero;fill:rgb(0%,0%,0%);fill-opacity:0.254902;" d="M 1.425781 7.632812 L 22.574219 7.632812 L 22.574219 9.132812 L 1.425781 9.132812 Z M 1.425781 7.632812 "/>
<path style=" stroke:none;fill-rule:evenodd;fill:rgb(27.843137%,85.490196%,44.705882%);fill-opacity:1;" d="M 22.574219 14.519531 C 22.441406 14.433594 22.207031 14.265625 21.574219 14.011719 C 20.796875 13.699219 19.695312 13.386719 18.402344 13.386719 C 17.753906 13.386719 17.140625 13.585938 16.542969 13.882812 C 15.949219 14.179688 15.371094 14.574219 14.792969 14.96875 C 14.21875 15.367188 13.644531 15.757812 13.058594 16.054688 C 12.472656 16.347656 11.875 16.539062 11.246094 16.535156 C 10.742188 16.527344 10.320312 16.378906 9.960938 16.117188 C 9.605469 15.855469 9.304688 15.484375 9.050781 15.042969 C 8.546875 14.15625 8.207031 12.976562 7.875 11.800781 C 7.542969 10.625 7.214844 9.449219 6.730469 8.566406 C 6.488281 8.125 6.207031 7.757812 5.863281 7.5 C 5.523438 7.246094 5.125 7.097656 4.640625 7.097656 C 4.261719 7.097656 3.917969 7.164062 3.605469 7.28125 C 3.289062 7.398438 3.011719 7.5625 2.757812 7.765625 C 2.253906 8.164062 1.867188 8.695312 1.574219 9.230469 C 1.464844 9.433594 1.507812 9.441406 1.425781 9.640625 L 1.425781 18.394531 C 1.425781 20.710938 3.289062 22.574219 5.605469 22.574219 L 18.394531 22.574219 C 20.710938 22.574219 22.574219 20.710938 22.574219 18.394531 Z M 22.574219 14.519531 "/>
<path style=" stroke:none;fill-rule:nonzero;fill:rgb(50.196078%,50.196078%,50.196078%);fill-opacity:1;" d="M 5.125 4.105469 C 8.828125 4.105469 7.59375 13.066406 11.472656 13.105469 C 13.882812 13.128906 15.859375 10.105469 18.347656 10.105469 C 20.835938 10.105469 22.574219 11.292969 22.574219 11.292969 L 22.574219 12.042969 C 22.574219 12.042969 20.835938 10.855469 18.347656 10.855469 C 15.859375 10.855469 13.882812 13.878906 11.472656 13.855469 C 7.59375 13.816406 8.828125 4.855469 5.125 4.855469 C 2.207031 4.855469 1.425781 8.917969 1.425781 8.917969 L 1.425781 8.167969 C 1.425781 8.167969 2.207031 4.105469 5.125 4.105469 Z M 5.125 4.105469 "/>
</g>
</svg>
