<?xml version="1.0" encoding="UTF-8"?>
<svg xmlns="http://www.w3.org/2000/svg" xmlns:xlink="http://www.w3.org/1999/xlink" width="24pt" height="24pt" viewBox="0 0 24 24" version="1.1">
<g id="surface1">
<path style=" stroke:none;fill-rule:evenodd;fill:rgb(65.098039%,21.176471%,61.960784%);fill-opacity:1;" d="M 5.605469 1.421875 L 18.394531 1.421875 C 20.703125 1.421875 22.578125 3.296875 22.578125 5.605469 L 22.578125 18.394531 C 22.578125 20.703125 20.703125 22.578125 18.394531 22.578125 L 5.605469 22.578125 C 3.296875 22.578125 1.421875 20.703125 1.421875 18.394531 L 1.421875 5.605469 C 1.421875 3.296875 3.296875 1.421875 5.605469 1.421875 Z M 5.605469 1.421875 "/>
<path style=" stroke:none;fill-rule:nonzero;fill:rgb(100%,100%,100%);fill-opacity:1;" d="M 9.234375 7.5 C 9.109375 7.496094 8.988281 7.550781 8.898438 7.644531 C 8.808594 7.738281 8.757812 7.867188 8.757812 8 L 8.757812 16 C 8.757812 16.179688 8.847656 16.34375 8.992188 16.433594 C 9.136719 16.523438 9.316406 16.523438 9.460938 16.433594 L 16.023438 12.433594 C 16.167969 12.34375 16.257812 12.179688 16.257812 12 C 16.257812 11.820312 16.167969 11.65625 16.023438 11.566406 L 9.460938 7.566406 C 9.390625 7.523438 9.316406 7.5 9.238281 7.5 Z M 9.234375 7.5 "/>
</g>
</svg>
