<?xml version="1.0" encoding="UTF-8"?>
<svg xmlns="http://www.w3.org/2000/svg" xmlns:xlink="http://www.w3.org/1999/xlink" width="24pt" height="24pt" viewBox="0 0 24 24" version="1.1">
<g id="surface1">
<path style=" stroke:none;fill-rule:evenodd;fill:rgb(80%,80%,80%);fill-opacity:1;" d="M 22.574219 16.476562 L 1.421875 16.476562 L 1.421875 18.394531 C 1.421875 20.710938 3.289062 22.574219 5.605469 22.574219 L 18.394531 22.574219 C 20.710938 22.574219 22.574219 20.710938 22.574219 18.394531 Z M 22.574219 16.476562 "/>
<path style=" stroke:none;fill-rule:evenodd;fill:rgb(76.078431%,20.784314%,16.470588%);fill-opacity:1;" d="M 5.605469 1.425781 C 3.289062 1.425781 1.421875 3.289062 1.421875 5.605469 L 1.421875 16.476562 L 22.574219 16.476562 L 22.574219 5.605469 C 22.574219 3.289062 20.710938 1.425781 18.394531 1.425781 Z M 5.605469 1.425781 "/>
<path style=" stroke:none;fill-rule:nonzero;fill:rgb(100%,100%,100%);fill-opacity:1;" d="M 9.585938 6.164062 C 9.402344 6.164062 9.253906 6.3125 9.253906 6.5 L 9.253906 13.332031 C 9.253906 13.585938 9.523438 13.746094 9.746094 13.625 L 15.996094 10.207031 C 16.226562 10.082031 16.226562 9.75 15.996094 9.621094 L 10.371094 6.546875 L 9.746094 6.207031 C 9.695312 6.179688 9.640625 6.164062 9.585938 6.164062 Z M 9.585938 6.164062 "/>
<path style=" stroke:none;fill-rule:nonzero;fill:rgb(60%,60%,60%);fill-opacity:1;" d="M 15.75 18.582031 L 20.25 18.582031 C 20.664062 18.582031 21 18.917969 21 19.332031 C 21 19.75 20.664062 20.082031 20.25 20.082031 L 15.75 20.082031 C 15.335938 20.082031 15 19.75 15 19.332031 C 15 18.917969 15.335938 18.582031 15.75 18.582031 Z M 15.75 18.582031 "/>
<path style=" stroke:none;fill-rule:nonzero;fill:rgb(76.078431%,20.784314%,16.470588%);fill-opacity:1;" d="M 3.75 18.582031 L 14.25 18.582031 C 14.664062 18.582031 15 18.917969 15 19.332031 C 15 19.75 14.664062 20.082031 14.25 20.082031 L 3.75 20.082031 C 3.335938 20.082031 3 19.75 3 19.332031 C 3 18.917969 3.335938 18.582031 3.75 18.582031 Z M 3.75 18.582031 "/>
<path style=" stroke:none;fill-rule:nonzero;fill:rgb(100%,100%,100%);fill-opacity:1;" d="M 16.5 19.335938 C 16.5 20.164062 15.828125 20.835938 15 20.835938 C 14.171875 20.835938 13.5 20.164062 13.5 19.335938 C 13.5 18.507812 14.171875 17.835938 15 17.835938 C 15.828125 17.835938 16.5 18.507812 16.5 19.335938 Z M 16.5 19.335938 "/>
</g>
</svg>
