<?xml version="1.0" encoding="UTF-8"?>
<svg xmlns="http://www.w3.org/2000/svg" xmlns:xlink="http://www.w3.org/1999/xlink" width="24pt" height="24pt" viewBox="0 0 24 24" version="1.1">
<g id="surface1">
<path style=" stroke:none;fill-rule:evenodd;fill:rgb(90.196078%,90.196078%,90.196078%);fill-opacity:1;" d="M 5.605469 1.421875 L 18.394531 1.421875 C 20.703125 1.421875 22.578125 3.296875 22.578125 5.605469 L 22.578125 18.394531 C 22.578125 20.703125 20.703125 22.578125 18.394531 22.578125 L 5.605469 22.578125 C 3.296875 22.578125 1.421875 20.703125 1.421875 18.394531 L 1.421875 5.605469 C 1.421875 3.296875 3.296875 1.421875 5.605469 1.421875 Z M 5.605469 1.421875 "/>
<path style=" stroke:none;fill-rule:nonzero;fill:rgb(30.980392%,30.980392%,30.980392%);fill-opacity:1;" d="M 11.480469 20.105469 C 11.429688 20.054688 11.386719 19.980469 11.386719 19.941406 C 11.386719 19.886719 11.363281 19.875 11.304688 19.902344 C 11.257812 19.921875 11.035156 19.945312 10.8125 19.957031 L 10.398438 19.976562 L 10.324219 19.835938 C 10.257812 19.710938 10.234375 19.699219 10.128906 19.738281 C 9.832031 19.847656 9.539062 19.761719 9.539062 19.570312 C 9.539062 19.449219 9.539062 19.449219 9.234375 19.480469 C 9.0625 19.496094 8.878906 19.488281 8.804688 19.460938 C 8.699219 19.421875 8.683594 19.390625 8.695312 19.265625 L 8.710938 19.117188 L 8.421875 19.09375 C 8.082031 19.066406 7.964844 18.992188 8.003906 18.835938 C 8.03125 18.734375 8.015625 18.722656 7.875 18.722656 C 7.675781 18.722656 7.554688 18.632812 7.507812 18.464844 C 7.476562 18.355469 7.449219 18.335938 7.347656 18.347656 C 7.152344 18.371094 7.050781 18.179688 7.058594 17.816406 C 7.070312 17.527344 7.046875 17.480469 6.949219 17.578125 C 6.917969 17.605469 6.84375 17.621094 6.785156 17.609375 C 6.640625 17.589844 6.609375 17.367188 6.714844 17.113281 C 6.796875 16.910156 6.777344 16.875 6.605469 16.910156 C 6.375 16.953125 6.320312 16.792969 6.4375 16.425781 C 6.46875 16.328125 6.460938 16.316406 6.382812 16.347656 C 6.195312 16.421875 6.152344 16.402344 6.136719 16.226562 C 6.128906 16.125 6.160156 15.988281 6.21875 15.871094 C 6.320312 15.675781 6.316406 15.667969 6.136719 15.679688 C 5.964844 15.695312 5.960938 15.5625 6.121094 15.308594 C 6.203125 15.183594 6.269531 15.0625 6.269531 15.042969 C 6.269531 15.023438 6.214844 14.984375 6.152344 14.953125 C 6 14.886719 6 14.789062 6.15625 14.570312 C 6.285156 14.386719 6.273438 14.300781 6.121094 14.300781 C 5.925781 14.300781 5.949219 14.046875 6.171875 13.773438 C 6.285156 13.636719 6.308594 13.570312 6.285156 13.457031 C 6.269531 13.375 6.21875 13.277344 6.167969 13.234375 C 6.121094 13.191406 6.078125 13.117188 6.078125 13.070312 C 6.078125 12.976562 6.269531 12.78125 6.445312 12.691406 C 6.574219 12.628906 6.582031 12.542969 6.476562 12.386719 C 6.40625 12.28125 6.40625 12.265625 6.480469 12.15625 C 6.523438 12.09375 6.628906 12.007812 6.714844 11.964844 C 6.800781 11.925781 6.910156 11.832031 6.953125 11.757812 C 7.03125 11.628906 7.03125 11.617188 6.949219 11.53125 C 6.816406 11.382812 6.9375 11.21875 7.261719 11.113281 C 7.601562 11 7.6875 10.921875 7.605469 10.796875 C 7.484375 10.609375 7.605469 10.492188 8 10.40625 C 8.207031 10.363281 8.257812 10.304688 8.226562 10.152344 C 8.207031 10.039062 8.222656 10.007812 8.328125 9.960938 C 8.445312 9.910156 8.457031 9.886719 8.429688 9.742188 C 8.359375 9.335938 8.347656 9.105469 8.390625 9.078125 C 8.414062 9.0625 8.5 9.074219 8.582031 9.105469 C 8.664062 9.132812 8.742188 9.148438 8.757812 9.132812 C 8.769531 9.121094 8.757812 8.949219 8.730469 8.757812 C 8.699219 8.5625 8.6875 8.332031 8.707031 8.242188 C 8.734375 8.09375 8.75 8.078125 8.902344 8.078125 C 9.089844 8.078125 9.085938 8.105469 8.996094 7.6875 C 8.902344 7.269531 8.90625 7.222656 9.011719 7.117188 C 9.183594 6.949219 9.210938 6.527344 9.089844 5.910156 C 8.992188 5.40625 9.015625 5.132812 9.160156 5.132812 C 9.207031 5.132812 9.289062 5.183594 9.339844 5.246094 C 9.449219 5.378906 9.515625 5.390625 9.558594 5.289062 C 9.613281 5.152344 9.585938 5.035156 9.449219 4.773438 C 9.296875 4.480469 9.160156 4.066406 9.160156 3.902344 C 9.160156 3.738281 9.269531 3.769531 9.550781 4.023438 C 9.820312 4.261719 10.039062 4.613281 10.175781 5.027344 C 10.308594 5.417969 10.386719 5.351562 10.417969 4.828125 C 10.4375 4.472656 10.460938 4.394531 10.535156 4.394531 C 10.625 4.394531 10.722656 4.675781 10.824219 5.207031 C 10.910156 5.683594 10.917969 5.847656 10.890625 6.476562 C 10.871094 6.871094 10.871094 7.246094 10.890625 7.300781 L 10.925781 7.40625 L 11.144531 7.140625 L 11.179688 7.273438 C 11.195312 7.34375 11.199219 7.726562 11.1875 8.121094 C 11.175781 8.515625 11.171875 8.867188 11.183594 8.898438 C 11.238281 9.042969 11.5 8.902344 11.535156 8.707031 C 11.570312 8.53125 11.695312 8.511719 11.910156 8.652344 C 12.023438 8.722656 12.179688 8.800781 12.257812 8.824219 C 12.382812 8.855469 12.417969 8.847656 12.488281 8.761719 C 12.5625 8.664062 12.578125 8.660156 12.722656 8.71875 C 13.019531 8.835938 13.070312 8.820312 13.058594 8.605469 C 13.050781 8.480469 13.070312 8.394531 13.117188 8.355469 C 13.160156 8.324219 13.191406 8.21875 13.191406 8.109375 C 13.195312 8.003906 13.210938 7.878906 13.230469 7.828125 C 13.253906 7.773438 13.210938 7.585938 13.109375 7.300781 C 12.851562 6.574219 12.917969 6.113281 13.234375 6.445312 C 13.394531 6.605469 13.472656 6.59375 13.472656 6.402344 C 13.472656 6.300781 13.371094 6.054688 13.1875 5.707031 C 12.804688 4.976562 12.804688 4.792969 13.199219 5.035156 C 13.46875 5.203125 13.730469 5.5 13.972656 5.921875 C 14.234375 6.382812 14.300781 6.390625 14.265625 5.953125 C 14.222656 5.386719 14.378906 5.285156 14.609375 5.730469 C 14.835938 6.164062 14.894531 6.464844 14.945312 7.433594 C 14.972656 7.929688 15.011719 8.351562 15.035156 8.375 C 15.0625 8.398438 15.113281 8.347656 15.164062 8.246094 C 15.320312 7.921875 15.402344 8.109375 15.445312 8.910156 C 15.480469 9.578125 15.476562 9.570312 15.632812 9.5 C 15.746094 9.449219 15.769531 9.453125 15.847656 9.550781 C 15.898438 9.609375 15.9375 9.714844 15.9375 9.785156 C 15.9375 9.980469 16.054688 10.050781 16.222656 9.953125 C 16.34375 9.882812 16.363281 9.882812 16.429688 9.949219 C 16.46875 9.988281 16.515625 10.09375 16.53125 10.191406 C 16.574219 10.453125 16.636719 10.570312 16.738281 10.570312 C 16.859375 10.570312 16.921875 10.65625 16.960938 10.875 C 17.003906 11.152344 17.050781 11.203125 17.160156 11.105469 C 17.367188 10.925781 17.503906 11.15625 17.386719 11.484375 C 17.34375 11.59375 17.3125 11.695312 17.3125 11.707031 C 17.3125 11.71875 17.40625 11.710938 17.527344 11.695312 C 17.726562 11.664062 17.738281 11.671875 17.738281 11.769531 C 17.738281 11.828125 17.707031 11.910156 17.667969 11.953125 C 17.554688 12.070312 17.625 12.320312 17.765625 12.320312 C 17.828125 12.320312 17.898438 12.359375 17.929688 12.414062 C 17.972656 12.488281 17.957031 12.550781 17.859375 12.71875 C 17.710938 12.980469 17.710938 12.992188 17.867188 13.066406 C 18.039062 13.148438 18.046875 13.207031 17.90625 13.367188 C 17.761719 13.535156 17.753906 13.589844 17.882812 13.625 C 17.988281 13.648438 18.011719 13.832031 17.921875 13.921875 C 17.878906 13.964844 17.882812 14 17.953125 14.070312 C 18.023438 14.148438 18.027344 14.183594 17.984375 14.277344 C 17.953125 14.34375 17.875 14.417969 17.808594 14.449219 C 17.675781 14.507812 17.660156 14.585938 17.765625 14.671875 C 17.820312 14.714844 17.828125 14.78125 17.804688 14.941406 C 17.769531 15.183594 17.714844 15.269531 17.59375 15.269531 C 17.460938 15.269531 17.445312 15.339844 17.550781 15.464844 C 17.710938 15.667969 17.628906 15.84375 17.421875 15.738281 C 17.3125 15.683594 17.21875 15.714844 17.21875 15.804688 C 17.21875 15.84375 17.273438 15.964844 17.339844 16.078125 C 17.488281 16.324219 17.480469 16.484375 17.3125 16.503906 C 17.128906 16.53125 17.101562 16.585938 17.210938 16.734375 C 17.339844 16.914062 17.34375 17.097656 17.21875 17.136719 C 17.097656 17.171875 17.097656 17.269531 17.222656 17.4375 C 17.339844 17.601562 17.324219 17.730469 17.179688 17.75 C 17.050781 17.765625 17.046875 17.808594 17.175781 17.921875 C 17.359375 18.085938 17.382812 18.175781 17.261719 18.265625 C 17.164062 18.339844 17.15625 18.359375 17.207031 18.46875 C 17.332031 18.734375 17.246094 18.996094 17.0625 18.902344 C 16.957031 18.847656 16.964844 18.835938 16.894531 19.078125 C 16.851562 19.222656 16.804688 19.28125 16.699219 19.316406 C 16.613281 19.34375 16.554688 19.402344 16.546875 19.464844 C 16.523438 19.621094 16.390625 19.683594 16.28125 19.585938 C 16.15625 19.476562 16.140625 19.484375 16.101562 19.695312 C 16.074219 19.871094 15.976562 20.015625 15.890625 20.015625 C 15.867188 20.015625 15.804688 19.960938 15.753906 19.894531 C 15.640625 19.757812 15.527344 19.773438 15.503906 19.925781 C 15.496094 19.984375 15.449219 20.050781 15.402344 20.078125 C 15.335938 20.121094 15.300781 20.105469 15.207031 19.992188 L 15.09375 19.855469 L 14.957031 19.980469 C 14.804688 20.121094 14.667969 20.144531 14.628906 20.039062 C 14.589844 19.941406 14.527344 19.953125 14.363281 20.085938 C 14.289062 20.148438 14.195312 20.199219 14.15625 20.199219 C 14.117188 20.199219 14.066406 20.148438 14.042969 20.082031 C 14.015625 20.019531 13.988281 19.96875 13.976562 19.96875 C 13.96875 19.96875 13.835938 20.019531 13.683594 20.085938 C 13.363281 20.222656 13.183594 20.21875 13.117188 20.070312 C 13.085938 20.003906 13.046875 19.976562 13 19.996094 C 12.640625 20.148438 12.523438 20.171875 12.429688 20.117188 C 12.351562 20.070312 12.28125 20.070312 12.054688 20.128906 C 11.691406 20.222656 11.597656 20.21875 11.484375 20.105469 Z M 11.480469 20.105469 "/>
<path style=" stroke:none;fill-rule:nonzero;fill:rgb(57.254902%,57.254902%,57.254902%);fill-opacity:1;" d="M 13.34375 15.289062 C 13.28125 15.289062 13.21875 15.292969 13.15625 15.304688 C 12.632812 15.410156 12.007812 15.789062 11.671875 16.210938 C 11.425781 16.519531 11.292969 16.882812 11.257812 17.320312 L 11.234375 17.644531 L 11.484375 17.910156 C 11.902344 18.355469 12.34375 18.5 13.238281 18.476562 C 13.632812 18.464844 13.773438 18.445312 13.929688 18.363281 C 14.195312 18.230469 14.308594 18.078125 14.375 17.769531 C 14.445312 17.441406 14.410156 16.390625 14.316406 16.070312 C 14.183594 15.605469 13.78125 15.292969 13.34375 15.289062 Z M 13.824219 16.375 C 13.929688 16.375 13.945312 16.394531 13.945312 16.515625 C 13.945312 16.617188 13.921875 16.664062 13.855469 16.683594 C 13.773438 16.703125 13.769531 16.71875 13.832031 16.859375 C 13.914062 17.050781 13.921875 17.523438 13.84375 17.6875 C 13.738281 17.914062 13.351562 18.023438 13.023438 17.925781 C 12.796875 17.855469 12.714844 17.726562 12.714844 17.414062 C 12.714844 16.855469 13.226562 16.375 13.824219 16.375 Z M 13.824219 16.375 "/>
<path style=" stroke:none;fill-rule:nonzero;fill:rgb(100%,100%,100%);fill-opacity:1;" d="M 13.488281 17.660156 C 13.816406 17.515625 13.761719 16.882812 13.421875 16.882812 C 13.257812 16.882812 13 17.167969 13 17.347656 C 13 17.523438 13.03125 17.582031 13.164062 17.65625 C 13.285156 17.722656 13.347656 17.722656 13.488281 17.660156 Z M 13.488281 17.660156 "/>
<path style=" stroke:none;fill-rule:nonzero;fill:rgb(57.254902%,57.254902%,57.254902%);fill-opacity:1;" d="M 16.613281 18.105469 C 16.75 18.007812 16.804688 17.570312 16.777344 16.8125 C 16.753906 16.089844 16.691406 15.800781 16.539062 15.710938 C 16.46875 15.667969 16.433594 15.683594 16.34375 15.792969 C 16.175781 15.992188 15.898438 16.742188 15.890625 17.003906 C 15.890625 17.035156 15.953125 16.996094 16.027344 16.925781 C 16.125 16.828125 16.214844 16.789062 16.324219 16.789062 C 16.46875 16.789062 16.492188 16.808594 16.59375 17.027344 C 16.722656 17.296875 16.71875 17.664062 16.582031 17.792969 C 16.421875 17.949219 15.929688 17.835938 15.875 17.632812 C 15.863281 17.585938 15.863281 17.617188 15.871094 17.703125 C 15.890625 17.898438 15.960938 17.980469 16.199219 18.085938 C 16.421875 18.183594 16.5 18.1875 16.613281 18.105469 Z M 16.613281 18.105469 "/>
<path style=" stroke:none;fill-rule:nonzero;fill:rgb(100%,100%,100%);fill-opacity:1;" d="M 16.433594 17.59375 C 16.539062 17.488281 16.523438 17.320312 16.398438 17.175781 C 16.253906 17.015625 16.097656 17.054688 16.039062 17.265625 C 15.980469 17.488281 16.058594 17.664062 16.222656 17.664062 C 16.296875 17.664062 16.390625 17.632812 16.433594 17.59375 Z M 16.433594 17.59375 "/>
</g>
</svg>
