<?xml version="1.0" encoding="UTF-8"?>
<svg xmlns="http://www.w3.org/2000/svg" xmlns:xlink="http://www.w3.org/1999/xlink" width="24pt" height="24pt" viewBox="0 0 24 24" version="1.1">
<defs>
<filter id="alpha" filterUnits="objectBoundingBox" x="0%" y="0%" width="100%" height="100%">
  <feColorMatrix type="matrix" in="SourceGraphic" values="0 0 0 0 1 0 0 0 0 1 0 0 0 0 1 0 0 0 1 0"/>
</filter>
<mask id="mask0">
  <g filter="url(#alpha)">
<rect x="0" y="0" width="24" height="24" style="fill:rgb(0%,0%,0%);fill-opacity:0.988235;stroke:none;"/>
  </g>
</mask>
<clipPath id="clip1">
  <rect width="24" height="24"/>
</clipPath>
<g id="surface6" clip-path="url(#clip1)">
<path style=" stroke:none;fill-rule:evenodd;fill:rgb(67.843137%,49.803922%,65.882353%);fill-opacity:1;" d="M 22.339844 4.402344 C 21.539062 5.507812 20.726562 6.492188 19.910156 7.25 C 18.992188 8.101562 18.066406 8.757812 17.136719 9.265625 C 16.207031 9.773438 15.273438 10.132812 14.34375 10.390625 C 13.414062 10.644531 12.484375 10.800781 11.5625 10.902344 C 9.71875 11.105469 7.898438 11.089844 6.140625 11.238281 C 5.261719 11.3125 4.398438 11.429688 3.558594 11.632812 C 2.828125 11.808594 2.125 12.09375 1.429688 12.429688 L 1.429688 18.394531 C 1.429688 20.710938 3.292969 22.578125 5.609375 22.578125 L 18.398438 22.578125 C 20.714844 22.578125 22.582031 20.710938 22.582031 18.394531 L 22.582031 5.605469 C 22.582031 5.179688 22.457031 4.792969 22.339844 4.402344 Z M 22.339844 4.402344 "/>
</g>
<mask id="mask1">
  <g filter="url(#alpha)">
<rect x="0" y="0" width="24" height="24" style="fill:rgb(0%,0%,0%);fill-opacity:0.988235;stroke:none;"/>
  </g>
</mask>
<clipPath id="clip2">
  <rect width="24" height="24"/>
</clipPath>
<g id="surface9" clip-path="url(#clip2)">
<path style=" stroke:none;fill-rule:evenodd;fill:rgb(75.686275%,61.960784%,74.117647%);fill-opacity:1;" d="M 5.609375 1.421875 C 3.292969 1.421875 1.429688 3.289062 1.429688 5.605469 L 1.429688 12.429688 C 2.125 12.09375 2.828125 11.808594 3.558594 11.632812 C 4.398438 11.429688 5.261719 11.3125 6.140625 11.238281 C 7.898438 11.089844 9.71875 11.105469 11.5625 10.902344 C 12.484375 10.800781 13.414062 10.644531 14.34375 10.390625 C 15.273438 10.132812 16.207031 9.773438 17.136719 9.265625 C 18.066406 8.757812 18.992188 8.101562 19.910156 7.25 C 20.726562 6.492188 21.539062 5.507812 22.339844 4.402344 C 21.820312 2.6875 20.289062 1.421875 18.398438 1.421875 Z M 5.609375 1.421875 "/>
</g>
</defs>
<g id="surface1">
<use xlink:href="#surface6" mask="url(#mask0)"/>
<use xlink:href="#surface9" mask="url(#mask1)"/>
<path style=" stroke:none;fill-rule:nonzero;fill:rgb(75.294118%,61.568627%,74.117647%);fill-opacity:1;" d="M 1.421875 13.894531 L 1.457031 17.167969 C 7.042969 20.929688 12.054688 19.726562 16.882812 16.914062 C 17.320312 18.550781 16.738281 11.738281 16.738281 11.738281 C 11.503906 13.828125 6.367188 14.867188 1.421875 13.894531 Z M 1.421875 13.894531 "/>
<path style="fill-rule:nonzero;fill:rgb(93.333333%,93.333333%,92.54902%);fill-opacity:1;stroke-width:0.6;stroke-linecap:butt;stroke-linejoin:miter;stroke:rgb(33.333333%,34.117647%,32.54902%);stroke-opacity:1;stroke-miterlimit:4;" d="M -32.71773 13.279622 L -32.665646 17.112956 C -25.21773 22.128581 -18.535438 20.524414 -12.103146 16.779622 L -12.295855 10.399414 C -19.269813 13.185872 -26.118771 14.571289 -32.71773 13.279622 Z M -32.71773 13.279622 " transform="matrix(0.75,0,0,0.75,26.182828,4.762939)"/>
<path style=" stroke:none;fill-rule:nonzero;fill:rgb(70.980392%,71.372549%,69.803922%);fill-opacity:1;" d="M 3.585938 15.1875 L 3.480469 18.351562 L 4.199219 15.261719 Z M 3.585938 15.1875 "/>
<path style=" stroke:none;fill-rule:nonzero;fill:rgb(70.980392%,71.372549%,69.803922%);fill-opacity:1;" d="M 9.304688 14.9375 L 10.453125 19.429688 L 10.203125 14.828125 Z M 9.304688 14.9375 "/>
<path style=" stroke:none;fill-rule:nonzero;fill:rgb(70.980392%,71.372549%,69.803922%);fill-opacity:1;" d="M 6.320312 15.261719 L 6.5 19.503906 L 6.96875 15.1875 Z M 6.320312 15.261719 "/>
<path style=" stroke:none;fill-rule:nonzero;fill:rgb(18.039216%,20.392157%,21.176471%);fill-opacity:1;" d="M 1.4375 8.277344 C 3.28125 7.777344 4.875 7.804688 6.296875 8.1875 C 5.914062 7.894531 3.886719 6.34375 1.4375 7.859375 Z M 1.4375 8.277344 "/>
<path style=" stroke:none;fill-rule:nonzero;fill:rgb(18.039216%,20.392157%,21.176471%);fill-opacity:1;" d="M 10.597656 7.765625 C 12.832031 6.5 14.6875 6.429688 16.449219 6.652344 C 15.96875 6.378906 13.105469 4.402344 10.597656 7.765625 Z M 10.597656 7.765625 "/>
<path style="fill-rule:nonzero;fill:rgb(33.333333%,34.117647%,32.54902%);fill-opacity:1;stroke-width:0.940727;stroke-linecap:butt;stroke-linejoin:miter;stroke:rgb(33.333333%,34.117647%,32.54902%);stroke-opacity:1;stroke-miterlimit:4;" d="M 76.105654 28.62391 L 75.051569 30.49071 C 73.464314 33.985605 86.934533 33.655089 85.273737 30.539675 L 84.207396 28.097534 Z M 76.105654 28.62391 " transform="matrix(0.637401,0,0,0.638208,-34.771575,0.1695)"/>
<path style="fill-rule:nonzero;fill:rgb(95.294118%,95.294118%,95.294118%);fill-opacity:1;stroke-width:0.705545;stroke-linecap:round;stroke-linejoin:bevel;stroke:rgb(33.333333%,34.117647%,32.54902%);stroke-opacity:1;stroke-miterlimit:4;" d="M 88.000874 22.607305 C 88.000874 27.008057 84.434147 30.576399 80.033957 30.576399 C 75.633767 30.576399 72.067039 27.008057 72.067039 22.607305 C 72.067039 18.212674 75.633767 14.644331 80.033957 14.644331 C 84.434147 14.644331 88.000874 18.212674 88.000874 22.607305 Z M 88.000874 22.607305 " transform="matrix(0.637401,0,0,0.638208,-34.771575,0.1695)"/>
<path style="fill-rule:nonzero;fill:rgb(60.784314%,61.176471%,60.392157%);fill-opacity:1;stroke-width:0.705545;stroke-linecap:round;stroke-linejoin:bevel;stroke:rgb(18.039216%,20.392157%,21.176471%);stroke-opacity:1;stroke-miterlimit:4;" d="M 83.796793 22.607305 C 83.796793 24.688328 82.111484 26.371509 80.033957 26.371509 C 77.95643 26.371509 76.27112 24.688328 76.27112 22.607305 C 76.27112 20.532403 77.95643 18.849222 80.033957 18.849222 C 82.111484 18.849222 83.796793 20.532403 83.796793 22.607305 Z M 83.796793 22.607305 " transform="matrix(0.637401,0,0,0.638208,-34.771575,0.1695)"/>
<path style=" stroke:none;fill-rule:nonzero;fill:rgb(30.588235%,60.392157%,2.352941%);fill-opacity:1;" d="M 13.855469 12.195312 C 13.855469 12.472656 13.632812 12.695312 13.359375 12.695312 C 13.085938 12.695312 12.863281 12.472656 12.863281 12.195312 C 12.863281 11.921875 13.085938 11.699219 13.359375 11.699219 C 13.632812 11.699219 13.855469 11.921875 13.855469 12.195312 Z M 13.855469 12.195312 "/>
<path style=" stroke:none;fill-rule:nonzero;fill:rgb(33.333333%,34.117647%,32.54902%);fill-opacity:1;" d="M 17.96875 14.597656 C 17.96875 15.554688 17.195312 16.332031 16.242188 16.332031 C 15.289062 16.332031 14.511719 15.554688 14.511719 14.597656 C 14.511719 13.644531 15.289062 12.867188 16.242188 12.867188 C 17.195312 12.867188 17.96875 13.644531 17.96875 14.597656 Z M 17.96875 14.597656 "/>
<path style=" stroke:none;fill-rule:nonzero;fill:rgb(87.843137%,87.843137%,87.45098%);fill-opacity:1;" d="M 16.207031 13.894531 C 16.207031 13.652344 16.015625 13.453125 15.785156 13.453125 C 15.550781 13.453125 15.363281 13.652344 15.363281 13.894531 C 15.363281 14.140625 15.550781 14.335938 15.785156 14.335938 C 16.015625 14.335938 16.207031 14.140625 16.207031 13.894531 Z M 16.207031 13.894531 "/>
<path style="fill-rule:nonzero;fill:rgb(33.333333%,34.117647%,32.54902%);fill-opacity:1;stroke-width:0.940727;stroke-linecap:round;stroke-linejoin:bevel;stroke:rgb(33.333333%,34.117647%,32.54902%);stroke-opacity:1;stroke-miterlimit:4;" d="M 82.742709 14.864675 C 82.742709 14.387264 81.541543 14.001662 80.052342 14.001662 C 78.563141 14.001662 77.355847 14.387264 77.355847 14.864675 C 77.355847 15.342086 78.563141 15.727687 80.052342 15.727687 C 81.541543 15.727687 82.742709 15.342086 82.742709 14.864675 Z M 82.742709 14.864675 " transform="matrix(0.637401,0,0,0.638208,-34.771575,0.1695)"/>
</g>
</svg>
