<?xml version="1.0" encoding="UTF-8"?>
<svg xmlns="http://www.w3.org/2000/svg" xmlns:xlink="http://www.w3.org/1999/xlink" width="24pt" height="24pt" viewBox="0 0 24 24" version="1.1">
<g id="surface1">
<path style=" stroke:none;fill-rule:evenodd;fill:rgb(83.137255%,29.019608%,29.019608%);fill-opacity:1;" d="M 5.605469 1.421875 L 18.394531 1.421875 C 20.703125 1.421875 22.578125 3.296875 22.578125 5.605469 L 22.578125 18.394531 C 22.578125 20.703125 20.703125 22.578125 18.394531 22.578125 L 5.605469 22.578125 C 3.296875 22.578125 1.421875 20.703125 1.421875 18.394531 L 1.421875 5.605469 C 1.421875 3.296875 3.296875 1.421875 5.605469 1.421875 Z M 5.605469 1.421875 "/>
<path style=" stroke:none;fill-rule:nonzero;fill:rgb(100%,100%,100%);fill-opacity:1;" d="M 12 4.5 C 9.617188 4.503906 7.378906 5.636719 5.96875 7.554688 L 8.28125 11.558594 C 8.285156 11.523438 8.289062 11.488281 8.292969 11.453125 C 8.3125 11.328125 8.335938 11.207031 8.367188 11.085938 C 8.398438 10.964844 8.433594 10.84375 8.476562 10.726562 C 8.515625 10.625 8.554688 10.527344 8.601562 10.429688 C 8.609375 10.40625 8.621094 10.382812 8.632812 10.359375 C 8.671875 10.277344 8.71875 10.191406 8.765625 10.113281 C 8.78125 10.085938 8.796875 10.058594 8.8125 10.035156 C 8.863281 9.949219 8.921875 9.863281 8.984375 9.78125 C 8.996094 9.761719 9.007812 9.746094 9.019531 9.730469 C 9.078125 9.652344 9.140625 9.578125 9.207031 9.507812 C 9.226562 9.484375 9.246094 9.460938 9.265625 9.4375 C 9.324219 9.378906 9.378906 9.320312 9.441406 9.265625 C 9.476562 9.230469 9.511719 9.199219 9.546875 9.164062 C 9.597656 9.125 9.648438 9.082031 9.703125 9.042969 C 9.75 9.003906 9.796875 8.96875 9.847656 8.929688 C 9.898438 8.894531 9.953125 8.863281 10.007812 8.828125 C 10.046875 8.800781 10.085938 8.777344 10.125 8.753906 C 10.140625 8.746094 10.15625 8.738281 10.171875 8.730469 C 10.199219 8.714844 10.230469 8.699219 10.257812 8.683594 C 10.320312 8.648438 10.382812 8.621094 10.445312 8.589844 C 10.507812 8.5625 10.566406 8.535156 10.628906 8.511719 C 10.683594 8.492188 10.734375 8.472656 10.785156 8.457031 C 10.851562 8.433594 10.917969 8.414062 10.984375 8.394531 C 11.042969 8.378906 11.101562 8.363281 11.160156 8.351562 C 11.21875 8.335938 11.28125 8.324219 11.34375 8.3125 C 11.402344 8.300781 11.464844 8.292969 11.523438 8.285156 C 11.589844 8.277344 11.65625 8.269531 11.71875 8.265625 C 11.777344 8.261719 11.835938 8.257812 11.890625 8.257812 C 11.929688 8.253906 11.964844 8.25 12 8.25 L 18.484375 8.25 C 17.144531 5.933594 14.675781 4.503906 12 4.5 Z M 5.507812 8.257812 C 4.851562 9.394531 4.503906 10.683594 4.5 12 C 4.5 16.140625 7.859375 19.5 12 19.5 C 13.03125 19.496094 14.054688 19.28125 15 18.863281 L 15 14.25 C 14.984375 14.265625 14.972656 14.285156 14.957031 14.300781 C 14.925781 14.339844 14.894531 14.378906 14.859375 14.417969 C 14.8125 14.476562 14.765625 14.53125 14.714844 14.582031 C 14.679688 14.621094 14.640625 14.660156 14.601562 14.695312 C 14.546875 14.746094 14.496094 14.796875 14.441406 14.84375 C 14.398438 14.878906 14.359375 14.910156 14.316406 14.945312 C 14.261719 14.988281 14.207031 15.027344 14.152344 15.070312 C 14.101562 15.105469 14.046875 15.136719 13.992188 15.171875 C 13.953125 15.199219 13.914062 15.222656 13.875 15.246094 C 13.859375 15.253906 13.84375 15.261719 13.828125 15.269531 C 13.800781 15.285156 13.769531 15.300781 13.742188 15.316406 C 13.679688 15.351562 13.617188 15.378906 13.554688 15.410156 C 13.492188 15.4375 13.433594 15.464844 13.371094 15.488281 C 13.316406 15.507812 13.265625 15.527344 13.214844 15.542969 C 13.148438 15.566406 13.082031 15.585938 13.015625 15.605469 C 12.957031 15.621094 12.898438 15.636719 12.839844 15.648438 C 12.78125 15.664062 12.71875 15.675781 12.65625 15.6875 C 12.597656 15.699219 12.535156 15.707031 12.476562 15.714844 C 12.410156 15.722656 12.34375 15.730469 12.28125 15.734375 C 12.222656 15.738281 12.164062 15.742188 12.109375 15.742188 C 12.074219 15.746094 12.035156 15.75 12 15.75 C 11.953125 15.75 11.910156 15.746094 11.863281 15.746094 C 11.84375 15.746094 11.820312 15.742188 11.800781 15.742188 C 11.71875 15.738281 11.636719 15.730469 11.554688 15.71875 C 11.507812 15.714844 11.464844 15.710938 11.417969 15.703125 C 11.34375 15.691406 11.265625 15.675781 11.1875 15.65625 C 11.144531 15.648438 11.097656 15.636719 11.050781 15.625 C 10.976562 15.605469 10.902344 15.582031 10.832031 15.558594 C 10.785156 15.542969 10.738281 15.527344 10.691406 15.511719 C 10.628906 15.488281 10.566406 15.460938 10.503906 15.433594 C 10.449219 15.410156 10.390625 15.382812 10.335938 15.359375 C 10.285156 15.332031 10.238281 15.304688 10.1875 15.277344 C 10.128906 15.246094 10.070312 15.210938 10.011719 15.175781 C 9.964844 15.144531 9.917969 15.113281 9.871094 15.082031 C 9.8125 15.039062 9.753906 15 9.699219 14.957031 C 9.660156 14.925781 9.621094 14.894531 9.582031 14.859375 C 9.523438 14.8125 9.46875 14.765625 9.417969 14.714844 C 9.378906 14.679688 9.339844 14.640625 9.304688 14.601562 C 9.253906 14.550781 9.203125 14.496094 9.15625 14.441406 C 9.121094 14.398438 9.089844 14.359375 9.054688 14.316406 C 9.011719 14.261719 8.972656 14.207031 8.929688 14.152344 C 8.894531 14.101562 8.863281 14.046875 8.828125 13.992188 C 8.800781 13.953125 8.777344 13.914062 8.753906 13.875 L 8.707031 13.796875 Z M 14.25 9 C 14.265625 9.015625 14.285156 9.027344 14.300781 9.042969 C 14.339844 9.074219 14.378906 9.105469 14.417969 9.140625 C 14.476562 9.1875 14.53125 9.234375 14.582031 9.285156 C 14.621094 9.320312 14.660156 9.359375 14.695312 9.398438 C 14.746094 9.453125 14.796875 9.503906 14.84375 9.558594 C 14.878906 9.601562 14.910156 9.640625 14.945312 9.6875 C 14.988281 9.738281 15.027344 9.792969 15.070312 9.847656 C 15.105469 9.898438 15.136719 9.953125 15.171875 10.007812 C 15.199219 10.046875 15.222656 10.085938 15.246094 10.125 C 15.253906 10.140625 15.261719 10.15625 15.269531 10.171875 C 15.285156 10.199219 15.300781 10.230469 15.316406 10.257812 C 15.351562 10.320312 15.378906 10.382812 15.410156 10.445312 C 15.4375 10.507812 15.460938 10.566406 15.488281 10.628906 C 15.507812 10.683594 15.527344 10.734375 15.542969 10.785156 C 15.566406 10.851562 15.585938 10.917969 15.605469 10.984375 C 15.621094 11.042969 15.636719 11.101562 15.648438 11.160156 C 15.664062 11.21875 15.675781 11.28125 15.6875 11.34375 C 15.699219 11.402344 15.707031 11.464844 15.714844 11.523438 C 15.722656 11.558594 15.726562 11.589844 15.730469 11.625 C 15.734375 11.65625 15.734375 11.6875 15.734375 11.71875 C 15.738281 11.777344 15.742188 11.835938 15.742188 11.890625 C 15.746094 11.925781 15.75 11.964844 15.75 12 L 15.75 18.484375 C 18.066406 17.144531 19.496094 14.675781 19.5 12 C 19.496094 10.96875 19.28125 9.945312 18.863281 9 Z M 14.25 9 "/>
</g>
</svg>
