<?xml version="1.0" encoding="UTF-8"?>
<svg xmlns="http://www.w3.org/2000/svg" xmlns:xlink="http://www.w3.org/1999/xlink" width="24pt" height="24pt" viewBox="0 0 24 24" version="1.1">
<g id="surface1">
<path style=" stroke:none;fill-rule:evenodd;fill:rgb(30.980392%,30.980392%,30.980392%);fill-opacity:1;" d="M 5.605469 1.421875 L 18.394531 1.421875 C 20.703125 1.421875 22.578125 3.296875 22.578125 5.605469 L 22.578125 18.394531 C 22.578125 20.703125 20.703125 22.578125 18.394531 22.578125 L 5.605469 22.578125 C 3.296875 22.578125 1.421875 20.703125 1.421875 18.394531 L 1.421875 5.605469 C 1.421875 3.296875 3.296875 1.421875 5.605469 1.421875 Z M 5.605469 1.421875 "/>
<path style=" stroke:none;fill-rule:nonzero;fill:rgb(24.705882%,67.45098%,82.352941%);fill-opacity:1;" d="M 16.464844 10.558594 L 16.425781 10.625 C 16.523438 11.050781 16.574219 11.488281 16.574219 11.925781 C 16.574219 12.246094 16.546875 12.5625 16.492188 12.878906 C 17.394531 13.195312 18 14.042969 18 15 C 18 16.242188 16.992188 17.25 15.75 17.25 C 15.191406 17.25 14.65625 17.042969 14.242188 16.667969 C 13.628906 17.144531 12.925781 17.5 12.175781 17.707031 L 12.171875 17.71875 C 13.019531 18.839844 14.34375 19.496094 15.75 19.5 C 18.234375 19.5 20.25 17.484375 20.25 15 C 20.25 12.792969 18.644531 10.910156 16.464844 10.558594 Z M 16.464844 10.558594 "/>
<path style=" stroke:none;fill-rule:nonzero;fill:rgb(88.235294%,38.431373%,38.431373%);fill-opacity:1;" d="M 7.511719 10.566406 C 5.34375 10.929688 3.753906 12.800781 3.75 15 C 3.75 17.484375 5.765625 19.5 8.25 19.5 C 9.65625 19.5 10.980469 18.839844 11.828125 17.722656 C 11.066406 17.519531 10.351562 17.171875 9.722656 16.695312 C 9.316406 17.050781 8.792969 17.25 8.25 17.25 C 7.007812 17.25 6 16.242188 6 15 C 6 14.074219 6.570312 13.242188 7.433594 12.902344 C 7.378906 12.582031 7.351562 12.253906 7.351562 11.925781 C 7.351562 11.46875 7.40625 11.011719 7.511719 10.566406 Z M 7.511719 10.566406 "/>
<path style=" stroke:none;fill-rule:nonzero;fill:rgb(41.176471%,85.882353%,24.313725%);fill-opacity:1;" d="M 12 4.5 C 9.515625 4.5 7.5 6.515625 7.5 9 C 7.503906 9.5 7.589844 9.996094 7.753906 10.46875 C 8.324219 9.894531 9.007812 9.441406 9.757812 9.140625 C 9.753906 9.09375 9.75 9.046875 9.75 9 C 9.75 7.757812 10.757812 6.75 12 6.75 C 13.242188 6.75 14.25 7.757812 14.25 9 C 14.25 9.046875 14.246094 9.09375 14.242188 9.140625 C 14.992188 9.441406 15.675781 9.894531 16.246094 10.464844 C 16.414062 9.996094 16.496094 9.5 16.5 9 C 16.5 6.515625 14.484375 4.5 12 4.5 Z M 12 4.5 "/>
<path style=" stroke:none;fill-rule:nonzero;fill:rgb(64.705882%,91.372549%,54.901961%);fill-opacity:1;" d="M 13.5 9 C 13.5 9.828125 12.828125 10.5 12 10.5 C 11.171875 10.5 10.5 9.828125 10.5 9 C 10.5 8.171875 11.171875 7.5 12 7.5 C 12.828125 7.5 13.5 8.171875 13.5 9 Z M 13.5 9 "/>
<path style=" stroke:none;fill-rule:nonzero;fill:rgb(92.156863%,58.431373%,58.431373%);fill-opacity:1;" d="M 9.75 15 C 9.75 15.828125 9.078125 16.5 8.25 16.5 C 7.421875 16.5 6.75 15.828125 6.75 15 C 6.75 14.171875 7.421875 13.5 8.25 13.5 C 9.078125 13.5 9.75 14.171875 9.75 15 Z M 9.75 15 "/>
<path style=" stroke:none;fill-rule:nonzero;fill:rgb(54.901961%,80.392157%,89.411765%);fill-opacity:1;" d="M 17.25 15 C 17.25 15.828125 16.578125 16.5 15.75 16.5 C 14.921875 16.5 14.25 15.828125 14.25 15 C 14.25 14.171875 14.921875 13.5 15.75 13.5 C 16.578125 13.5 17.25 14.171875 17.25 15 Z M 17.25 15 "/>
</g>
</svg>
