<?xml version="1.0" encoding="UTF-8"?>
<svg xmlns="http://www.w3.org/2000/svg" xmlns:xlink="http://www.w3.org/1999/xlink" width="24pt" height="24pt" viewBox="0 0 24 24" version="1.1">
<g id="surface1">
<path style=" stroke:none;fill-rule:evenodd;fill:rgb(27.45098%,73.72549%,91.764706%);fill-opacity:1;" d="M 5.605469 1.421875 L 18.394531 1.421875 C 20.703125 1.421875 22.578125 3.296875 22.578125 5.605469 L 22.578125 18.394531 C 22.578125 20.703125 20.703125 22.578125 18.394531 22.578125 L 5.605469 22.578125 C 3.296875 22.578125 1.421875 20.703125 1.421875 18.394531 L 1.421875 5.605469 C 1.421875 3.296875 3.296875 1.421875 5.605469 1.421875 Z M 5.605469 1.421875 "/>
<path style=" stroke:none;fill-rule:nonzero;fill:rgb(100%,100%,100%);fill-opacity:1;" d="M 13.148438 6.75 C 11.871094 6.75 10.761719 7.472656 10.214844 8.523438 C 9.859375 8.300781 9.4375 8.167969 8.984375 8.167969 C 7.714844 8.167969 6.6875 9.183594 6.6875 10.4375 C 6.6875 10.636719 6.71875 10.832031 6.765625 11.015625 C 5.851562 11.625 5.25 12.664062 5.25 13.84375 C 5.25 15.730469 6.789062 17.25 8.695312 17.25 L 15.304688 17.25 C 17.210938 17.25 18.75 15.730469 18.75 13.84375 C 18.75 12.339844 17.765625 11.066406 16.398438 10.617188 C 16.433594 10.421875 16.453125 10.21875 16.453125 10.011719 C 16.453125 8.210938 14.972656 6.75 13.148438 6.75 Z M 13.148438 6.75 "/>
</g>
</svg>
