<?xml version="1.0" encoding="UTF-8"?>
<svg xmlns="http://www.w3.org/2000/svg" xmlns:xlink="http://www.w3.org/1999/xlink" width="24pt" height="24pt" viewBox="0 0 24 24" version="1.1">
<g id="surface1">
<path style=" stroke:none;fill-rule:evenodd;fill:rgb(80%,80%,80%);fill-opacity:1;" d="M 5.605469 1.421875 L 18.394531 1.421875 C 20.703125 1.421875 22.578125 3.296875 22.578125 5.605469 L 22.578125 18.394531 C 22.578125 20.703125 20.703125 22.578125 18.394531 22.578125 L 5.605469 22.578125 C 3.296875 22.578125 1.421875 20.703125 1.421875 18.394531 L 1.421875 5.605469 C 1.421875 3.296875 3.296875 1.421875 5.605469 1.421875 Z M 5.605469 1.421875 "/>
<path style=" stroke:none;fill-rule:nonzero;fill:rgb(97.647059%,32.941176%,56.078431%);fill-opacity:1;" d="M 10.820312 12.769531 C 10.730469 12.671875 10.675781 12.550781 10.617188 12.433594 C 10.675781 12.640625 10.789062 12.816406 10.898438 13 L 10.820312 12.769531 M 10.820312 12.769531 C 10.730469 12.671875 10.675781 12.554688 10.617188 12.4375 C 10.675781 12.640625 10.789062 12.820312 10.898438 13 L 10.820312 12.769531 M 16.316406 10.972656 C 16.332031 11.359375 16.207031 11.546875 16.09375 11.875 L 15.894531 11.976562 C 15.726562 12.304688 15.910156 12.1875 15.789062 12.445312 C 15.53125 12.679688 15.007812 13.175781 14.839844 13.222656 C 14.71875 13.21875 14.921875 13.074219 14.949219 13.019531 C 14.605469 13.257812 14.671875 13.378906 14.144531 13.527344 L 14.128906 13.492188 C 12.828125 14.117188 11.015625 12.878906 11.039062 11.191406 C 11.027344 11.300781 11 11.273438 10.972656 11.316406 C 10.90625 10.449219 11.367188 9.578125 12.144531 9.222656 C 12.902344 8.839844 13.796875 8.996094 14.339844 9.511719 C 14.039062 9.113281 13.445312 8.691406 12.738281 8.730469 C 12.046875 8.742188 11.402344 9.1875 11.1875 9.671875 C 10.832031 9.898438 10.789062 10.546875 10.636719 10.667969 C 10.429688 12.21875 11.027344 12.890625 12.039062 13.679688 C 12.199219 13.789062 12.082031 13.804688 12.105469 13.890625 C 11.769531 13.730469 11.460938 13.488281 11.207031 13.191406 C 11.34375 13.390625 11.488281 13.585938 11.675781 13.738281 C 11.355469 13.628906 10.933594 12.957031 10.808594 12.929688 C 11.355469 13.925781 13.027344 14.675781 13.902344 14.304688 C 13.496094 14.320312 12.984375 14.3125 12.527344 14.140625 C 12.335938 14.039062 12.078125 13.832031 12.125 13.796875 C 13.316406 14.25 14.550781 14.136719 15.585938 13.296875 C 15.847656 13.085938 16.132812 12.734375 16.21875 12.726562 C 16.09375 12.917969 16.238281 12.820312 16.144531 12.988281 C 16.40625 12.558594 16.027344 12.8125 16.414062 12.246094 L 16.554688 12.445312 C 16.503906 12.089844 16.992188 11.65625 16.941406 11.089844 C 17.054688 10.917969 17.066406 11.277344 16.949219 11.671875 C 17.113281 11.234375 16.992188 11.164062 17.035156 10.800781 C 17.078125 10.921875 17.140625 11.050781 17.171875 11.179688 C 17.0625 10.753906 17.28125 10.464844 17.335938 10.214844 C 17.28125 10.191406 17.167969 10.402344 17.140625 9.902344 C 17.144531 9.683594 17.203125 9.785156 17.222656 9.734375 C 17.183594 9.707031 17.070312 9.539062 17.003906 9.21875 C 17.050781 9.144531 17.132812 9.414062 17.199219 9.425781 C 17.15625 9.171875 17.085938 8.976562 17.082031 8.78125 C 16.886719 8.367188 17.011719 8.835938 16.855469 8.605469 C 16.648438 7.949219 17.027344 8.453125 17.050781 8.15625 C 17.363281 8.617188 17.542969 9.328125 17.625 9.625 C 17.5625 9.265625 17.460938 8.914062 17.339844 8.578125 C 17.433594 8.617188 17.183594 7.835938 17.460938 8.351562 C 17.164062 7.25 16.199219 6.214844 15.308594 5.730469 C 15.414062 5.832031 15.554688 5.960938 15.503906 5.980469 C 15.0625 5.710938 15.140625 5.691406 15.074219 5.578125 C 14.714844 5.425781 14.691406 5.589844 14.453125 5.578125 C 13.773438 5.210938 13.640625 5.25 13.015625 5.019531 L 13.042969 5.15625 C 12.59375 5.003906 12.519531 5.210938 12.03125 5.15625 C 12.003906 5.132812 12.1875 5.070312 12.339844 5.046875 C 11.90625 5.105469 11.925781 4.960938 11.5 5.0625 C 11.605469 4.988281 11.714844 4.9375 11.828125 4.875 C 11.472656 4.898438 10.980469 5.085938 11.132812 4.914062 C 10.550781 5.175781 9.523438 5.546875 8.945312 6.097656 L 8.925781 5.972656 C 8.664062 6.296875 7.773438 6.941406 7.703125 7.359375 L 7.632812 7.375 C 7.492188 7.613281 7.40625 7.882812 7.296875 8.125 C 7.117188 8.4375 7.03125 8.246094 7.058594 8.292969 C 6.703125 9.027344 6.527344 9.640625 6.375 10.144531 C 6.484375 10.308594 6.378906 11.136719 6.417969 11.796875 C 6.242188 15.066406 8.671875 18.242188 11.332031 18.972656 C 11.722656 19.117188 12.300781 19.109375 12.792969 19.125 C 12.210938 18.957031 12.136719 19.035156 11.570312 18.835938 C 11.164062 18.636719 11.074219 18.414062 10.78125 18.160156 L 10.898438 18.363281 C 10.328125 18.160156 10.566406 18.113281 10.105469 17.964844 L 10.226562 17.800781 C 10.046875 17.785156 9.742188 17.484375 9.660156 17.316406 L 9.457031 17.324219 C 9.214844 17.023438 9.085938 16.804688 9.09375 16.632812 L 9.03125 16.75 C 8.957031 16.625 8.140625 15.613281 8.5625 15.847656 C 8.484375 15.773438 8.378906 15.730469 8.265625 15.519531 L 8.355469 15.417969 C 8.148438 15.152344 7.980469 14.808594 7.992188 14.695312 C 8.101562 14.84375 8.175781 14.875 8.25 14.898438 C 7.734375 13.601562 7.707031 14.828125 7.316406 13.578125 L 7.398438 13.570312 C 7.335938 13.472656 7.296875 13.367188 7.246094 13.265625 L 7.285156 12.902344 C 6.914062 12.464844 7.179688 11.046875 7.234375 10.269531 C 7.269531 9.953125 7.542969 9.617188 7.75 9.089844 L 7.625 9.066406 C 7.863281 8.640625 9 7.347656 9.527344 7.414062 C 9.78125 7.089844 9.476562 7.414062 9.425781 7.332031 C 9.984375 6.742188 10.160156 6.914062 10.539062 6.808594 C 10.945312 6.5625 10.1875 6.90625 10.382812 6.714844 C 11.085938 6.53125 10.878906 6.300781 11.800781 6.207031 C 11.894531 6.261719 11.574219 6.292969 11.492188 6.367188 C 12.082031 6.074219 13.351562 6.140625 14.175781 6.527344 C 15.132812 6.984375 16.207031 8.328125 16.25 9.59375 L 16.296875 9.605469 C 16.273438 10.109375 16.375 10.691406 16.199219 11.226562 L 16.316406 10.972656 "/>
</g>
</svg>
