<?xml version="1.0" encoding="UTF-8"?>
<svg xmlns="http://www.w3.org/2000/svg" xmlns:xlink="http://www.w3.org/1999/xlink" width="24pt" height="24pt" viewBox="0 0 24 24" version="1.1">
<g id="surface1">
<path style=" stroke:none;fill-rule:evenodd;fill:rgb(100%,100%,100%);fill-opacity:1;" d="M 12.078125 12.078125 C 11.183594 12.078125 10.34375 12.246094 9.558594 12.546875 C 8.769531 12.847656 8.035156 13.277344 7.355469 13.792969 C 6.671875 14.304688 6.042969 14.90625 5.46875 15.546875 C 4.894531 16.191406 4.378906 16.878906 3.914062 17.5625 C 3.152344 18.691406 2.640625 19.730469 2.1875 20.671875 C 2.933594 21.792969 4.148438 22.574219 5.605469 22.574219 L 6.1875 22.574219 C 6.335938 22.488281 6.535156 22.507812 6.675781 22.390625 C 7.171875 21.96875 7.617188 21.371094 8.097656 20.648438 C 8.578125 19.929688 9.09375 19.089844 9.726562 18.1875 C 10.363281 17.289062 11.117188 16.328125 12.078125 15.371094 C 12.078125 15.371094 12.542969 14.777344 13.257812 14.210938 C 13.613281 13.925781 14.035156 13.648438 14.492188 13.457031 C 14.945312 13.261719 15.441406 13.152344 15.941406 13.207031 C 15.535156 12.9375 14.890625 12.628906 14.183594 12.40625 C 13.480469 12.179688 12.714844 12.03125 12.078125 12.078125 Z M 12.078125 12.078125 "/>
<path style=" stroke:none;fill-rule:evenodd;fill:rgb(99.607843%,80.392157%,21.960784%);fill-opacity:1;" d="M 14.429688 12.515625 C 14.65625 12.597656 14.808594 12.691406 15.007812 12.78125 C 14.863281 12.714844 14.742188 12.605469 14.597656 12.546875 C 14.542969 12.527344 14.480469 12.535156 14.429688 12.515625 Z M 14.429688 12.515625 "/>
<path style=" stroke:none;fill-rule:evenodd;fill:rgb(30.980392%,30.980392%,30.980392%);fill-opacity:1;" d="M 17.964844 22.574219 C 17.816406 22.488281 17.617188 22.507812 17.480469 22.390625 C 16.980469 21.96875 16.535156 21.371094 16.054688 20.648438 C 15.574219 19.929688 15.058594 19.089844 14.425781 18.1875 C 13.792969 17.289062 13.035156 16.328125 12.078125 15.371094 C 11.117188 16.328125 10.363281 17.289062 9.726562 18.1875 C 9.09375 19.089844 8.578125 19.929688 8.097656 20.648438 C 7.617188 21.371094 7.171875 21.96875 6.675781 22.390625 C 6.535156 22.507812 6.335938 22.488281 6.1875 22.574219 Z M 17.964844 22.574219 "/>
<path style=" stroke:none;fill-rule:evenodd;fill:rgb(92.156863%,64.313725%,23.529412%);fill-opacity:1;" d="M 21.898438 20.546875 C 21.449219 19.628906 20.96875 18.648438 20.238281 17.5625 C 19.773438 16.878906 19.257812 16.191406 18.683594 15.546875 C 18.109375 14.90625 17.480469 14.304688 16.800781 13.792969 C 16.492188 13.558594 16.136719 13.421875 15.804688 13.230469 C 15.351562 13.210938 14.902344 13.28125 14.492188 13.457031 C 14.035156 13.648438 13.613281 13.925781 13.257812 14.210938 C 12.542969 14.777344 12.078125 15.371094 12.078125 15.371094 C 13.035156 16.328125 13.792969 17.289062 14.425781 18.1875 C 15.058594 19.089844 15.574219 19.929688 16.054688 20.648438 C 16.535156 21.371094 16.980469 21.96875 17.480469 22.390625 C 17.617188 22.507812 17.816406 22.488281 17.964844 22.574219 L 18.394531 22.574219 C 19.90625 22.574219 21.164062 21.742188 21.898438 20.546875 Z M 21.898438 20.546875 "/>
<path style=" stroke:none;fill-rule:evenodd;fill:rgb(30.980392%,30.980392%,30.980392%);fill-opacity:1;" d="M 21.945312 3.523438 C 21.492188 4.453125 20.992188 5.472656 20.238281 6.589844 C 19.773438 7.273438 19.257812 7.960938 18.683594 8.605469 C 18.109375 9.246094 17.480469 9.847656 16.800781 10.363281 C 16.117188 10.875 15.382812 11.304688 14.597656 11.605469 C 13.808594 11.90625 12.96875 12.078125 12.078125 12.078125 C 12.714844 12.03125 13.480469 12.179688 14.183594 12.40625 C 14.28125 12.4375 14.335938 12.484375 14.429688 12.515625 C 14.480469 12.535156 14.542969 12.527344 14.597656 12.546875 C 14.742188 12.605469 14.863281 12.714844 15.007812 12.78125 C 15.332031 12.925781 15.726562 13.0625 15.941406 13.207031 C 15.894531 13.203125 15.851562 13.234375 15.804688 13.230469 C 16.136719 13.421875 16.492188 13.558594 16.800781 13.792969 C 17.480469 14.304688 18.109375 14.90625 18.683594 15.546875 C 19.257812 16.191406 19.773438 16.878906 20.238281 17.5625 C 20.96875 18.648438 21.449219 19.628906 21.898438 20.546875 C 22.289062 19.910156 22.578125 19.199219 22.578125 18.394531 L 22.578125 5.605469 C 22.578125 4.832031 22.3125 4.144531 21.945312 3.523438 Z M 21.945312 3.523438 "/>
<path style=" stroke:none;fill-rule:evenodd;fill:rgb(30.980392%,30.980392%,30.980392%);fill-opacity:1;" d="M 12.078125 8.785156 C 13.035156 7.824219 13.792969 6.863281 14.425781 5.964844 C 15.058594 5.0625 15.574219 4.222656 16.054688 3.503906 C 16.535156 2.785156 16.980469 2.183594 17.480469 1.761719 C 17.734375 1.546875 18.074219 1.535156 18.367188 1.425781 L 5.785156 1.425781 C 6.082031 1.535156 6.421875 1.546875 6.675781 1.761719 C 7.171875 2.183594 7.617188 2.785156 8.097656 3.503906 C 8.578125 4.222656 9.09375 5.0625 9.726562 5.964844 C 10.363281 6.863281 11.117188 7.824219 12.078125 8.785156 Z M 12.078125 8.785156 "/>
<path style=" stroke:none;fill-rule:evenodd;fill:rgb(99.607843%,80.392157%,21.960784%);fill-opacity:1;" d="M 9.136719 11.367188 C 9.28125 11.433594 9.40625 11.546875 9.558594 11.605469 C 9.609375 11.625 9.671875 11.617188 9.722656 11.636719 C 9.496094 11.554688 9.339844 11.460938 9.136719 11.367188 Z M 9.136719 11.367188 "/>
<path style=" stroke:none;fill-rule:evenodd;fill:rgb(30.980392%,30.980392%,30.980392%);fill-opacity:1;" d="M 2.140625 3.398438 C 1.722656 4.046875 1.425781 4.777344 1.425781 5.605469 L 1.425781 18.394531 C 1.425781 19.253906 1.742188 20.007812 2.1875 20.671875 C 2.640625 19.730469 3.152344 18.691406 3.914062 17.5625 C 4.378906 16.878906 4.894531 16.191406 5.46875 15.546875 C 6.042969 14.90625 6.671875 14.304688 7.355469 13.792969 C 8.035156 13.277344 8.769531 12.847656 9.558594 12.546875 C 10.34375 12.246094 11.183594 12.078125 12.078125 12.078125 C 11.4375 12.121094 10.675781 11.972656 9.96875 11.75 C 9.871094 11.714844 9.820312 11.667969 9.722656 11.636719 C 9.671875 11.617188 9.609375 11.625 9.558594 11.605469 C 9.40625 11.546875 9.28125 11.433594 9.136719 11.367188 C 8.816406 11.222656 8.425781 11.085938 8.210938 10.945312 C 8.257812 10.949219 8.300781 10.917969 8.347656 10.921875 C 8.019531 10.730469 7.660156 10.59375 7.355469 10.363281 C 6.671875 9.847656 6.042969 9.246094 5.46875 8.605469 C 4.894531 7.960938 4.378906 7.273438 3.914062 6.589844 C 3.132812 5.429688 2.597656 4.351562 2.140625 3.398438 Z M 2.140625 3.398438 "/>
<path style=" stroke:none;fill-rule:evenodd;fill:rgb(33.72549%,54.901961%,74.901961%);fill-opacity:1;" d="M 2.140625 3.398438 C 2.597656 4.351562 3.132812 5.429688 3.914062 6.589844 C 4.378906 7.273438 4.894531 7.960938 5.46875 8.605469 C 6.042969 9.246094 6.671875 9.847656 7.355469 10.363281 C 7.660156 10.59375 8.019531 10.730469 8.347656 10.921875 C 8.800781 10.941406 9.25 10.871094 9.664062 10.695312 C 10.117188 10.503906 10.539062 10.226562 10.898438 9.945312 C 11.613281 9.375 12.078125 8.785156 12.078125 8.785156 C 11.117188 7.824219 10.363281 6.863281 9.726562 5.964844 C 9.09375 5.0625 8.578125 4.222656 8.097656 3.503906 C 7.617188 2.785156 7.171875 2.183594 6.675781 1.761719 C 6.421875 1.546875 6.082031 1.535156 5.785156 1.425781 L 5.605469 1.425781 C 4.121094 1.425781 2.878906 2.234375 2.140625 3.398438 Z M 2.140625 3.398438 "/>
<path style=" stroke:none;fill-rule:evenodd;fill:rgb(100%,100%,100%);fill-opacity:1;" d="M 18.367188 1.425781 C 18.074219 1.535156 17.734375 1.546875 17.480469 1.761719 C 16.980469 2.183594 16.535156 2.785156 16.054688 3.503906 C 15.574219 4.222656 15.058594 5.0625 14.425781 5.964844 C 13.792969 6.863281 13.035156 7.824219 12.078125 8.785156 C 12.078125 8.785156 11.613281 9.375 10.898438 9.945312 C 10.539062 10.226562 10.117188 10.503906 9.664062 10.695312 C 9.207031 10.890625 8.714844 11 8.210938 10.945312 C 8.617188 11.214844 9.265625 11.523438 9.96875 11.75 C 10.675781 11.972656 11.4375 12.121094 12.078125 12.078125 C 12.96875 12.078125 13.808594 11.90625 14.597656 11.605469 C 15.382812 11.304688 16.117188 10.875 16.800781 10.363281 C 17.480469 9.847656 18.109375 9.246094 18.683594 8.605469 C 19.257812 7.960938 19.773438 7.273438 20.238281 6.589844 C 20.992188 5.472656 21.492188 4.453125 21.945312 3.523438 C 21.222656 2.289062 19.9375 1.425781 18.394531 1.425781 Z M 18.367188 1.425781 "/>
</g>
</svg>
