<?xml version="1.0" encoding="UTF-8"?>
<svg xmlns="http://www.w3.org/2000/svg" xmlns:xlink="http://www.w3.org/1999/xlink" width="24pt" height="24pt" viewBox="0 0 24 24" version="1.1">
<defs>
<radialGradient id="radial0" gradientUnits="userSpaceOnUse" cx="24.391607" cy="16.559441" fx="24.391607" fy="16.559441" r="14.101694" gradientTransform="matrix(1.166555,0,0,1.166555,-16.454303,-7.317653)">
<stop offset="0" style="stop-color:rgb(33.72549%,34.117647%,16.862745%);stop-opacity:1;"/>
<stop offset="1" style="stop-color:rgb(10.196078%,10.980392%,5.490196%);stop-opacity:1;"/>
</radialGradient>
</defs>
<g id="surface1">
<path style=" stroke:none;fill-rule:evenodd;fill:rgb(33.72549%,34.117647%,16.862745%);fill-opacity:1;" d="M 5.605469 1.421875 L 18.394531 1.421875 C 20.703125 1.421875 22.574219 3.296875 22.574219 5.605469 L 22.574219 18.394531 C 22.574219 20.703125 20.703125 22.574219 18.394531 22.574219 L 5.605469 22.574219 C 3.296875 22.574219 1.421875 20.703125 1.421875 18.394531 L 1.421875 5.605469 C 1.421875 3.296875 3.296875 1.421875 5.605469 1.421875 Z M 5.605469 1.421875 "/>
<path style=" stroke:none;fill-rule:evenodd;fill:rgb(13.333333%,14.509804%,7.843137%);fill-opacity:1;" d="M 13.449219 22.578125 C 12.855469 22.320312 12.097656 22.097656 11.609375 21.820312 C 10.496094 21.183594 9.636719 20.492188 8.960938 19.773438 C 8.285156 19.054688 7.792969 18.304688 7.40625 17.546875 C 7.023438 16.789062 6.746094 16.023438 6.5 15.273438 C 6.253906 14.523438 6.039062 13.785156 5.78125 13.089844 C 5.523438 12.390625 5.222656 11.730469 4.804688 11.128906 C 4.382812 10.527344 3.847656 9.984375 3.113281 9.527344 C 2.679688 9.253906 2.007812 9.078125 1.425781 8.871094 L 1.425781 18.394531 C 1.425781 20.710938 3.289062 22.578125 5.605469 22.578125 Z M 13.449219 22.578125 "/>
<path style=" stroke:none;fill-rule:evenodd;fill:url(#radial0);" d="M 9.65625 1.425781 L 5.605469 1.425781 C 3.289062 1.425781 1.425781 3.289062 1.425781 5.605469 L 1.425781 8.871094 C 2.007812 9.078125 2.679688 9.253906 3.113281 9.527344 C 3.847656 9.984375 4.382812 10.527344 4.804688 11.128906 C 5.222656 11.730469 5.523438 12.390625 5.78125 13.089844 C 6.039062 13.785156 6.253906 14.523438 6.5 15.273438 C 6.746094 16.023438 7.023438 16.789062 7.40625 17.546875 C 7.792969 18.304688 8.285156 19.054688 8.960938 19.773438 C 9.636719 20.492188 10.496094 21.183594 11.609375 21.820312 C 12.097656 22.097656 12.855469 22.320312 13.449219 22.578125 L 18.394531 22.578125 C 20.710938 22.578125 22.578125 20.710938 22.578125 18.394531 L 22.578125 15.503906 C 22.082031 15.316406 21.480469 15.167969 21.101562 14.929688 C 20.371094 14.472656 19.832031 13.929688 19.414062 13.332031 C 18.992188 12.730469 18.691406 12.070312 18.433594 11.371094 C 18.179688 10.671875 17.964844 9.9375 17.71875 9.1875 C 17.472656 8.4375 17.195312 7.671875 16.808594 6.914062 C 16.421875 6.15625 15.929688 5.40625 15.253906 4.6875 C 14.578125 3.964844 13.71875 3.277344 12.605469 2.640625 C 11.820312 2.191406 10.722656 1.8125 9.65625 1.425781 Z M 9.65625 1.425781 "/>
<path style=" stroke:none;fill-rule:evenodd;fill:rgb(33.72549%,34.117647%,16.862745%);fill-opacity:1;" d="M 9.65625 1.425781 C 10.722656 1.8125 11.820312 2.191406 12.605469 2.640625 C 13.71875 3.277344 14.578125 3.964844 15.253906 4.6875 C 15.929688 5.40625 16.421875 6.15625 16.808594 6.914062 C 17.195312 7.671875 17.472656 8.4375 17.71875 9.1875 C 17.964844 9.9375 18.179688 10.671875 18.433594 11.371094 C 18.691406 12.070312 18.992188 12.730469 19.414062 13.332031 C 19.832031 13.929688 20.371094 14.472656 21.101562 14.929688 C 21.480469 15.167969 22.082031 15.316406 22.578125 15.503906 L 22.578125 5.605469 C 22.578125 3.289062 20.710938 1.425781 18.394531 1.425781 Z M 9.65625 1.425781 "/>
<path style=" stroke:none;fill-rule:nonzero;fill:rgb(100%,100%,100%);fill-opacity:1;" d="M 11.460938 18.628906 C 11.769531 18.480469 11.808594 18.398438 11.824219 17.898438 L 11.832031 17.480469 L 10.800781 17.480469 L 10.808594 17.789062 L 10.820312 18.09375 L 8.722656 18.09375 L 8.722656 16.320312 L 10.820312 16.320312 L 10.808594 16.613281 L 10.800781 16.910156 L 11.03125 16.890625 C 11.328125 16.863281 11.671875 16.695312 11.789062 16.523438 C 11.855469 16.425781 11.863281 16.378906 11.847656 16.253906 C 11.816406 16.027344 11.714844 15.894531 11.492188 15.785156 L 11.300781 15.6875 L 8.328125 15.6875 L 8.148438 15.769531 C 7.914062 15.875 7.742188 16.066406 7.714844 16.257812 C 7.703125 16.339844 7.699219 16.820312 7.703125 17.328125 C 7.714844 18.363281 7.71875 18.382812 7.980469 18.5625 C 8.226562 18.734375 8.316406 18.742188 9.847656 18.734375 L 11.265625 18.726562 Z M 15.832031 18.707031 C 16.03125 18.65625 16.238281 18.507812 16.308594 18.367188 C 16.355469 18.273438 16.367188 18.160156 16.367188 17.828125 C 16.367188 17.332031 16.332031 17.21875 16.132812 17.085938 C 15.882812 16.921875 15.707031 16.902344 14.429688 16.902344 L 13.261719 16.898438 L 13.261719 16.320312 L 14.816406 16.320312 C 16.355469 16.320312 16.367188 16.320312 16.367188 16.25 C 16.367188 16.144531 16.285156 15.96875 16.195312 15.890625 C 16.148438 15.847656 16.035156 15.789062 15.941406 15.753906 C 15.785156 15.691406 15.65625 15.6875 14.285156 15.6875 L 12.800781 15.6875 L 12.613281 15.78125 C 12.394531 15.886719 12.253906 16.078125 12.21875 16.308594 C 12.179688 16.558594 12.21875 17.039062 12.285156 17.167969 C 12.359375 17.308594 12.601562 17.464844 12.824219 17.511719 C 12.925781 17.535156 13.46875 17.546875 14.167969 17.546875 L 15.34375 17.546875 L 15.34375 18.09375 L 13.769531 18.09375 C 12.347656 18.09375 12.199219 18.101562 12.21875 18.148438 C 12.230469 18.179688 12.238281 18.222656 12.238281 18.25 C 12.238281 18.390625 12.574219 18.644531 12.84375 18.707031 C 13.03125 18.75 15.660156 18.75 15.832031 18.707031 Z M 15.832031 18.707031 "/>
<path style=" stroke:none;fill-rule:nonzero;fill:rgb(100%,100%,100%);fill-opacity:1;" d="M 12.136719 5.90625 C 9.066406 5.90625 6.570312 8.402344 6.570312 11.472656 C 6.570312 13.007812 7.195312 14.398438 8.203125 15.40625 L 9.113281 15.40625 C 7.933594 14.5 7.171875 13.078125 7.171875 11.472656 C 7.171875 8.726562 9.390625 6.503906 12.136719 6.503906 C 14.882812 6.503906 17.101562 8.726562 17.101562 11.472656 C 17.101562 13.078125 16.339844 14.5 15.15625 15.40625 L 16.070312 15.40625 C 17.078125 14.398438 17.703125 13.007812 17.703125 11.472656 C 17.703125 8.402344 15.207031 5.90625 12.136719 5.90625 Z M 12.136719 5.90625 "/>
<path style=" stroke:none;fill-rule:nonzero;fill:rgb(100%,100%,100%);fill-opacity:1;" d="M 13.695312 15.074219 C 13.796875 14.980469 13.773438 14.800781 13.628906 14.597656 C 13.503906 14.417969 13.503906 14.417969 13.414062 13.726562 C 13.324219 13.066406 13.316406 13.023438 13.191406 12.785156 C 13.105469 12.625 13.015625 12.503906 12.933594 12.445312 C 12.777344 12.328125 12.703125 12.128906 12.765625 12.007812 C 12.800781 11.9375 12.789062 11.910156 12.628906 11.707031 C 12.53125 11.582031 12.433594 11.460938 12.410156 11.4375 C 12.390625 11.414062 12.324219 11.332031 12.265625 11.25 C 12.191406 11.144531 12.140625 11.105469 12.101562 11.121094 C 12.058594 11.132812 12.042969 11.113281 12.03125 11.011719 C 12.023438 10.945312 12.003906 10.863281 11.992188 10.828125 C 11.96875 10.78125 11.980469 10.773438 12.050781 10.773438 C 12.164062 10.773438 12.203125 10.6875 12.203125 10.425781 L 12.203125 10.210938 L 12.460938 10.210938 C 12.601562 10.210938 12.765625 10.195312 12.828125 10.179688 C 12.976562 10.136719 13.121094 9.996094 13.195312 9.824219 C 13.261719 9.675781 13.320312 9.648438 13.394531 9.734375 C 13.417969 9.765625 13.476562 9.78125 13.539062 9.773438 C 13.628906 9.765625 13.640625 9.753906 13.648438 9.640625 C 13.65625 9.574219 13.671875 9.515625 13.683594 9.515625 C 13.695312 9.515625 13.773438 9.675781 13.855469 9.871094 C 13.996094 10.210938 14.007812 10.226562 14.097656 10.21875 C 14.148438 10.214844 14.199219 10.207031 14.210938 10.195312 C 14.21875 10.1875 14.171875 10.027344 14.101562 9.839844 C 14.03125 9.652344 13.96875 9.484375 13.960938 9.464844 C 13.957031 9.445312 14.015625 9.402344 14.09375 9.371094 C 14.203125 9.324219 14.246094 9.285156 14.269531 9.207031 L 14.300781 9.105469 L 14.679688 9.085938 C 14.886719 9.074219 15.0625 9.0625 15.066406 9.058594 C 15.070312 9.058594 15.074219 9.035156 15.074219 9.007812 C 15.074219 8.980469 15.035156 8.957031 14.96875 8.949219 C 14.863281 8.941406 14.859375 8.9375 14.851562 8.753906 C 14.851562 8.6875 14.734375 8.691406 14.679688 8.660156 C 14.679688 8.753906 14.671875 8.757812 14.546875 8.757812 C 14.453125 8.757812 14.414062 8.746094 14.414062 8.707031 C 14.414062 8.652344 14.359375 8.640625 14.34375 8.691406 C 14.335938 8.710938 14.261719 8.734375 14.175781 8.746094 L 14.019531 8.765625 L 14.019531 8.667969 C 14.019531 8.613281 14 8.558594 13.972656 8.550781 C 13.921875 8.53125 13.855469 8.585938 13.855469 8.648438 C 13.855469 8.683594 13.773438 8.691406 13.523438 8.691406 L 13.195312 8.691406 L 13.195312 8.59375 C 13.195312 8.503906 13.183594 8.496094 13.078125 8.496094 C 13 8.496094 12.960938 8.507812 12.960938 8.539062 C 12.960938 8.59375 12.890625 8.625 12.761719 8.625 C 12.703125 8.625 12.65625 8.648438 12.632812 8.691406 C 12.585938 8.777344 12.382812 8.789062 12.414062 8.703125 C 12.617188 8.179688 12.328125 7.6875 11.832031 7.699219 C 11.511719 7.703125 11.3125 7.980469 11.3125 8.417969 C 11.3125 8.648438 11.3125 8.652344 11.207031 8.695312 C 10.859375 8.839844 10.609375 9.394531 10.621094 9.992188 C 10.625 10.183594 10.605469 10.382812 10.570312 10.539062 C 10.53125 10.707031 10.507812 10.953125 10.503906 11.285156 C 10.496094 11.734375 10.488281 11.8125 10.382812 12.191406 C 10.285156 12.535156 10.21875 12.832031 10.136719 13.300781 C 10.132812 13.335938 10.042969 13.421875 9.941406 13.492188 C 9.742188 13.628906 9.609375 13.78125 9.503906 13.992188 L 9.4375 14.121094 L 9.558594 14.4375 C 9.707031 14.828125 9.707031 14.824219 9.847656 14.863281 C 9.9375 14.886719 9.996094 14.882812 10.078125 14.847656 L 10.191406 14.800781 L 10.191406 14.304688 L 10.320312 14.304688 C 10.609375 14.304688 10.828125 13.972656 11.113281 13.109375 C 11.371094 12.332031 11.449219 12.125 11.480469 12.125 C 11.496094 12.125 11.511719 12.140625 11.511719 12.160156 C 11.511719 12.175781 11.570312 12.285156 11.640625 12.402344 C 11.792969 12.644531 12.050781 12.894531 12.308594 13.0625 C 12.472656 13.164062 12.492188 13.191406 12.515625 13.320312 C 12.527344 13.398438 12.597656 13.640625 12.667969 13.859375 C 12.742188 14.074219 12.824219 14.371094 12.847656 14.511719 C 12.90625 14.839844 12.976562 14.933594 13.234375 15.042969 C 13.476562 15.140625 13.609375 15.148438 13.695312 15.074219 Z M 12.382812 9.441406 C 12.394531 9.367188 12.429688 9.285156 12.457031 9.261719 C 12.570312 9.175781 13.027344 9.234375 13.027344 9.335938 C 13.027344 9.382812 12.929688 9.417969 12.792969 9.417969 C 12.738281 9.417969 12.679688 9.449219 12.636719 9.5 C 12.59375 9.558594 12.542969 9.582031 12.464844 9.582031 L 12.359375 9.582031 Z M 12.382812 9.441406 "/>
</g>
</svg>
