<?xml version="1.0" encoding="UTF-8"?>
<svg xmlns="http://www.w3.org/2000/svg" xmlns:xlink="http://www.w3.org/1999/xlink" width="24pt" height="24pt" viewBox="0 0 24 24" version="1.1">
<g id="surface1">
<path style=" stroke:none;fill-rule:evenodd;fill:rgb(80%,80%,80%);fill-opacity:1;" d="M 5.605469 1.421875 L 18.394531 1.421875 C 20.703125 1.421875 22.578125 3.296875 22.578125 5.605469 L 22.578125 18.394531 C 22.578125 20.703125 20.703125 22.578125 18.394531 22.578125 L 5.605469 22.578125 C 3.296875 22.578125 1.421875 20.703125 1.421875 18.394531 L 1.421875 5.605469 C 1.421875 3.296875 3.296875 1.421875 5.605469 1.421875 Z M 5.605469 1.421875 "/>
<path style=" stroke:none;fill-rule:nonzero;fill:rgb(30.196078%,30.196078%,30.196078%);fill-opacity:1;" d="M 8.25 5.25 L 8.25 8.25 L 5.25 8.25 L 5.25 9.75 L 8.25 9.75 L 8.25 14.25 L 5.25 14.25 L 5.25 15.75 L 8.25 15.75 L 8.25 18.75 L 16.5 12.75 L 18.75 12.75 L 18.75 11.25 L 16.5 11.25 Z M 9 9 L 12 9 L 12 10.5 L 9 10.5 Z M 9.75 12.75 L 11.25 12.75 L 11.25 13.5 L 12 13.5 L 12 15 L 11.25 15 L 11.25 15.75 L 9.75 15.75 L 9.75 15 L 9 15 L 9 13.5 L 9.75 13.5 Z M 9.75 12.75 "/>
</g>
</svg>
