<?xml version="1.0" encoding="UTF-8"?>
<svg xmlns="http://www.w3.org/2000/svg" xmlns:xlink="http://www.w3.org/1999/xlink" width="24pt" height="24pt" viewBox="0 0 24 24" version="1.1">
<defs>
<filter id="alpha" filterUnits="objectBoundingBox" x="0%" y="0%" width="100%" height="100%">
  <feColorMatrix type="matrix" in="SourceGraphic" values="0 0 0 0 1 0 0 0 0 1 0 0 0 0 1 0 0 0 1 0"/>
</filter>
<mask id="mask0">
  <g filter="url(#alpha)">
<rect x="0" y="0" width="24" height="24" style="fill:rgb(0%,0%,0%);fill-opacity:0.988235;stroke:none;"/>
  </g>
</mask>
<clipPath id="clip1">
  <rect width="24" height="24"/>
</clipPath>
<g id="surface6" clip-path="url(#clip1)">
<path style=" stroke:none;fill-rule:nonzero;fill:rgb(40%,33.333333%,89.411765%);fill-opacity:1;" d="M 18.777344 22.5 C 19.210938 22.460938 19.640625 22.410156 20.027344 22.25 C 20.527344 22.039062 20.976562 21.730469 21.355469 21.355469 C 21.730469 20.976562 22.039062 20.527344 22.25 20.027344 C 22.410156 19.640625 22.460938 19.210938 22.5 18.777344 L 22.5 12 L 12 12 L 12 22.5 Z M 18.777344 22.5 "/>
</g>
</defs>
<g id="surface1">
<path style=" stroke:none;fill-rule:nonzero;fill:rgb(81.176471%,30.980392%,54.901961%);fill-opacity:1;" d="M 22.5 5.226562 C 22.460938 4.792969 22.410156 4.359375 22.25 3.972656 C 22.035156 3.472656 21.730469 3.023438 21.351562 2.644531 C 20.976562 2.269531 20.523438 1.960938 20.023438 1.75 C 19.640625 1.589844 19.207031 1.539062 18.773438 1.5 L 12 1.5 L 12 12 L 22.5 12 Z M 22.5 5.226562 "/>
<path style=" stroke:none;fill-rule:nonzero;fill:rgb(12.941176%,84.313725%,53.72549%);fill-opacity:1;" d="M 5.222656 1.5 C 4.789062 1.539062 4.359375 1.589844 3.972656 1.75 C 3.472656 1.960938 3.023438 2.269531 2.644531 2.644531 C 2.269531 3.023438 1.960938 3.472656 1.75 3.972656 C 1.589844 4.359375 1.539062 4.789062 1.5 5.222656 L 1.5 12 L 12 12 L 12 1.5 Z M 5.222656 1.5 "/>
<use xlink:href="#surface6" mask="url(#mask0)"/>
<path style=" stroke:none;fill-rule:nonzero;fill:rgb(12.54902%,52.54902%,90.588235%);fill-opacity:1;" d="M 1.5 18.773438 C 1.539062 19.207031 1.589844 19.640625 1.75 20.027344 C 1.964844 20.527344 2.269531 20.976562 2.648438 21.355469 C 3.023438 21.730469 3.476562 22.039062 3.976562 22.25 C 4.359375 22.410156 4.792969 22.460938 5.226562 22.5 L 12 22.5 L 12 12 L 1.5 12 Z M 1.5 18.773438 "/>
<path style=" stroke:none;fill-rule:evenodd;fill:rgb(24.705882%,24.705882%,24.705882%);fill-opacity:1;" d="M 7.140625 3.964844 L 16.859375 3.964844 C 18.613281 3.964844 20.035156 5.386719 20.035156 7.140625 L 20.035156 16.859375 C 20.035156 18.613281 18.613281 20.035156 16.859375 20.035156 L 7.140625 20.035156 C 5.386719 20.035156 3.964844 18.613281 3.964844 16.859375 L 3.964844 7.140625 C 3.964844 5.386719 5.386719 3.964844 7.140625 3.964844 Z M 7.140625 3.964844 "/>
<path style="fill:none;stroke-width:2;stroke-linecap:round;stroke-linejoin:miter;stroke:rgb(100%,100%,100%);stroke-opacity:1;stroke-miterlimit:4;" d="M -29.645059 21.642036 L -21.644487 21.642036 " transform="matrix(0.635697,0,0,0.635697,26.712454,2.695354)"/>
<path style="fill:none;stroke-width:2;stroke-linecap:round;stroke-linejoin:bevel;stroke:rgb(100%,100%,100%);stroke-opacity:1;stroke-miterlimit:4;" d="M -29.63277 15.650824 C -29.63277 15.650824 -25.583325 16.001079 -25.632484 11.650537 C -25.675497 7.299996 -29.63277 7.650251 -29.63277 7.650251 M -29.645059 15.644679 L -29.645059 7.644106 " transform="matrix(0.635697,0,0,0.635697,26.712454,2.695354)"/>
<path style="fill:none;stroke-width:2;stroke-linecap:round;stroke-linejoin:bevel;stroke:rgb(100%,100%,100%);stroke-opacity:1;stroke-miterlimit:4;" d="M -18.645808 12.646 L -16.642593 12.646 M -17.644201 12.646 C -17.644201 12.646 -17.152614 15.644679 -19.641271 15.644679 C -21.644487 15.644679 -21.644487 13.641463 -21.644487 11.644392 C -21.644487 9.641177 -21.644487 7.644106 -19.641271 7.644106 C -17.644201 7.644106 -17.650345 8.645714 -17.650345 8.645714 " transform="matrix(0.635697,0,0,0.635697,26.712454,2.695354)"/>
</g>
</svg>
