<?xml version="1.0" encoding="UTF-8"?>
<svg xmlns="http://www.w3.org/2000/svg" xmlns:xlink="http://www.w3.org/1999/xlink" width="24pt" height="24pt" viewBox="0 0 24 24" version="1.1">
<g id="surface1">
<path style=" stroke:none;fill-rule:evenodd;fill:rgb(100%,76.470588%,35.294118%);fill-opacity:1;" d="M 5.605469 1.421875 L 18.394531 1.421875 C 20.703125 1.421875 22.578125 3.296875 22.578125 5.605469 L 22.578125 18.394531 C 22.578125 20.703125 20.703125 22.578125 18.394531 22.578125 L 5.605469 22.578125 C 3.296875 22.578125 1.421875 20.703125 1.421875 18.394531 L 1.421875 5.605469 C 1.421875 3.296875 3.296875 1.421875 5.605469 1.421875 Z M 5.605469 1.421875 "/>
<path style=" stroke:none;fill-rule:nonzero;fill:rgb(100%,100%,100%);fill-opacity:1;" d="M 12.558594 4.328125 L 19.671875 11.441406 C 19.980469 11.75 19.980469 12.25 19.671875 12.558594 L 12.558594 19.671875 C 12.25 19.980469 11.75 19.980469 11.441406 19.671875 L 4.328125 12.558594 C 4.019531 12.25 4.019531 11.75 4.328125 11.441406 L 11.441406 4.328125 C 11.75 4.019531 12.25 4.019531 12.558594 4.328125 Z M 12.558594 4.328125 "/>
<path style=" stroke:none;fill-rule:nonzero;fill:rgb(18.039216%,18.039216%,18.039216%);fill-opacity:1;" d="M 12.304688 7.851562 L 12.304688 10.375 L 10.480469 12.191406 L 10.484375 12.199219 L 10.480469 12.199219 L 10.480469 16.148438 L 11.695312 16.148438 L 11.695312 12.519531 L 12.304688 11.894531 L 12.304688 16.148438 L 13.519531 16.148438 L 13.519531 7.851562 Z M 12.304688 7.851562 "/>
</g>
</svg>
