<?xml version="1.0" encoding="UTF-8"?>
<svg xmlns="http://www.w3.org/2000/svg" xmlns:xlink="http://www.w3.org/1999/xlink" width="24pt" height="24pt" viewBox="0 0 24 24" version="1.1">
<g id="surface1">
<path style=" stroke:none;fill-rule:evenodd;fill:rgb(55.686275%,55.686275%,55.686275%);fill-opacity:1;" d="M 5.605469 1.421875 L 18.394531 1.421875 C 20.703125 1.421875 22.578125 3.296875 22.578125 5.605469 L 22.578125 18.394531 C 22.578125 20.703125 20.703125 22.578125 18.394531 22.578125 L 5.605469 22.578125 C 3.296875 22.578125 1.421875 20.703125 1.421875 18.394531 L 1.421875 5.605469 C 1.421875 3.296875 3.296875 1.421875 5.605469 1.421875 Z M 5.605469 1.421875 "/>
<path style=" stroke:none;fill-rule:nonzero;fill:rgb(30.196078%,30.196078%,30.196078%);fill-opacity:1;" d="M 20.359375 4.703125 C 20.359375 5.296875 19.875 5.78125 19.28125 5.78125 C 18.683594 5.78125 18.203125 5.296875 18.203125 4.703125 C 18.203125 4.105469 18.683594 3.621094 19.28125 3.621094 C 19.875 3.621094 20.359375 4.105469 20.359375 4.703125 Z M 20.359375 4.703125 "/>
<path style=" stroke:none;fill-rule:nonzero;fill:rgb(30.196078%,30.196078%,30.196078%);fill-opacity:1;" d="M 5.761719 4.703125 C 5.761719 5.296875 5.277344 5.78125 4.683594 5.78125 C 4.085938 5.78125 3.605469 5.296875 3.605469 4.703125 C 3.605469 4.105469 4.085938 3.621094 4.683594 3.621094 C 5.277344 3.621094 5.761719 4.105469 5.761719 4.703125 Z M 5.761719 4.703125 "/>
<path style=" stroke:none;fill-rule:nonzero;fill:rgb(30.196078%,30.196078%,30.196078%);fill-opacity:1;" d="M 20.394531 19.296875 C 20.394531 19.894531 19.914062 20.378906 19.316406 20.378906 C 18.722656 20.378906 18.238281 19.894531 18.238281 19.296875 C 18.238281 18.703125 18.722656 18.21875 19.316406 18.21875 C 19.914062 18.21875 20.394531 18.703125 20.394531 19.296875 Z M 20.394531 19.296875 "/>
<path style=" stroke:none;fill-rule:nonzero;fill:rgb(30.196078%,30.196078%,30.196078%);fill-opacity:1;" d="M 5.796875 19.296875 C 5.796875 19.894531 5.316406 20.378906 4.71875 20.378906 C 4.125 20.378906 3.640625 19.894531 3.640625 19.296875 C 3.640625 18.703125 4.125 18.21875 4.71875 18.21875 C 5.316406 18.21875 5.796875 18.703125 5.796875 19.296875 Z M 5.796875 19.296875 "/>
<path style=" stroke:none;fill-rule:nonzero;fill:rgb(30.196078%,30.196078%,30.196078%);fill-opacity:1;" d="M 12 6.75 C 9.101562 6.75 6.75 9.101562 6.75 12 L 6.75 17.25 L 12 17.25 C 14.898438 17.25 17.25 14.898438 17.25 12 C 17.25 9.101562 14.898438 6.75 12 6.75 Z M 12 9 C 13.65625 9 15 10.34375 15 12 C 15 13.65625 13.65625 15 12 15 C 10.34375 15 9 13.65625 9 12 C 9 10.34375 10.34375 9 12 9 Z M 12 9 "/>
</g>
</svg>
