<?xml version="1.0" encoding="UTF-8"?>
<svg xmlns="http://www.w3.org/2000/svg" xmlns:xlink="http://www.w3.org/1999/xlink" width="24pt" height="24pt" viewBox="0 0 24 24" version="1.1">
<g id="surface1">
<path style=" stroke:none;fill-rule:evenodd;fill:rgb(71.764706%,40.392157%,15.686275%);fill-opacity:1;" d="M 5.605469 1.421875 L 18.394531 1.421875 C 20.703125 1.421875 22.578125 3.296875 22.578125 5.605469 L 22.578125 18.394531 C 22.578125 20.703125 20.703125 22.578125 18.394531 22.578125 L 5.605469 22.578125 C 3.296875 22.578125 1.421875 20.703125 1.421875 18.394531 L 1.421875 5.605469 C 1.421875 3.296875 3.296875 1.421875 5.605469 1.421875 Z M 5.605469 1.421875 "/>
<path style=" stroke:none;fill-rule:nonzero;fill:rgb(30.196078%,30.196078%,30.196078%);fill-opacity:1;" d="M 5.699219 3.789062 L 18.300781 3.789062 C 19.355469 3.789062 20.210938 4.644531 20.210938 5.699219 L 20.210938 18.300781 C 20.210938 19.355469 19.355469 20.210938 18.300781 20.210938 L 5.699219 20.210938 C 4.644531 20.210938 3.789062 19.355469 3.789062 18.300781 L 3.789062 5.699219 C 3.789062 4.644531 4.644531 3.789062 5.699219 3.789062 Z M 5.699219 3.789062 "/>
<path style=" stroke:none;fill-rule:nonzero;fill:rgb(80%,80%,80%);fill-opacity:1;" d="M 5.15625 5.84375 L 5.15625 6.527344 L 5.84375 6.527344 L 5.84375 10.632812 L 5.15625 10.632812 L 5.15625 11.316406 L 8.578125 11.316406 L 8.578125 10.632812 L 9.261719 10.632812 L 9.261719 6.527344 L 8.578125 6.527344 L 8.578125 5.84375 Z M 10.632812 5.84375 L 10.632812 6.527344 L 9.949219 6.527344 L 9.949219 10.632812 L 10.632812 10.632812 L 10.632812 11.316406 L 13.367188 11.316406 L 13.367188 10.632812 L 14.050781 10.632812 L 14.050781 6.527344 L 13.367188 6.527344 L 13.367188 5.84375 Z M 15.421875 5.84375 L 15.421875 6.527344 L 14.738281 6.527344 L 14.738281 7.894531 L 15.421875 7.894531 L 15.421875 8.578125 L 16.789062 8.578125 L 16.789062 9.261719 L 17.472656 9.261719 L 17.472656 10.632812 L 16.105469 10.632812 L 16.105469 9.261719 L 14.738281 9.261719 L 14.738281 10.632812 L 15.421875 10.632812 L 15.421875 11.316406 L 18.15625 11.316406 L 18.15625 10.632812 L 18.84375 10.632812 L 18.84375 9.261719 L 18.15625 9.261719 L 18.15625 8.578125 L 17.472656 8.578125 L 17.472656 7.894531 L 16.105469 7.894531 L 16.105469 6.527344 L 17.472656 6.527344 L 17.472656 7.894531 L 18.84375 7.894531 L 18.84375 6.527344 L 18.15625 6.527344 L 18.15625 5.84375 Z M 7.210938 6.527344 L 7.894531 6.527344 L 7.894531 10.632812 L 7.210938 10.632812 Z M 11.316406 6.527344 L 12.683594 6.527344 L 12.683594 10.632812 L 11.316406 10.632812 Z M 5.15625 12.683594 L 5.15625 13.367188 L 5.84375 13.367188 L 5.84375 17.472656 L 5.15625 17.472656 L 5.15625 18.15625 L 8.578125 18.15625 L 8.578125 17.472656 L 9.261719 17.472656 L 9.261719 15.421875 L 8.578125 15.421875 L 8.578125 14.738281 L 9.261719 14.738281 L 9.261719 13.367188 L 8.578125 13.367188 L 8.578125 12.683594 Z M 10.632812 12.683594 L 10.632812 13.367188 L 9.949219 13.367188 L 9.949219 17.472656 L 10.632812 17.472656 L 10.632812 18.15625 L 13.367188 18.15625 L 13.367188 17.472656 L 14.050781 17.472656 L 14.050781 13.367188 L 13.367188 13.367188 L 13.367188 12.683594 Z M 14.050781 12.683594 L 14.050781 13.367188 L 14.738281 13.367188 L 14.738281 14.738281 L 15.421875 14.738281 L 15.421875 16.105469 L 14.738281 16.105469 L 14.738281 17.472656 L 14.050781 17.472656 L 14.050781 18.15625 L 15.421875 18.15625 L 15.421875 17.472656 L 16.105469 17.472656 L 16.105469 16.789062 L 16.789062 16.789062 L 16.789062 17.472656 L 17.472656 17.472656 L 17.472656 18.15625 L 18.84375 18.15625 L 18.84375 17.472656 L 18.15625 17.472656 L 18.15625 16.105469 L 17.472656 16.105469 L 17.472656 14.738281 L 18.15625 14.738281 L 18.15625 13.367188 L 18.84375 13.367188 L 18.84375 12.683594 L 17.472656 12.683594 L 17.472656 13.367188 L 16.789062 13.367188 L 16.789062 14.050781 L 16.105469 14.050781 L 16.105469 13.367188 L 15.421875 13.367188 L 15.421875 12.683594 Z M 7.210938 13.367188 L 7.894531 13.367188 L 7.894531 14.738281 L 7.210938 14.738281 Z M 11.316406 13.367188 L 12.683594 13.367188 L 12.683594 17.472656 L 11.316406 17.472656 Z M 7.210938 15.421875 L 7.894531 15.421875 L 7.894531 17.472656 L 7.210938 17.472656 Z M 7.210938 15.421875 "/>
</g>
</svg>
