<?xml version="1.0" encoding="UTF-8"?>
<svg xmlns="http://www.w3.org/2000/svg" xmlns:xlink="http://www.w3.org/1999/xlink" width="24pt" height="24pt" viewBox="0 0 24 24" version="1.1">
<g id="surface1">
<path style=" stroke:none;fill-rule:evenodd;fill:rgb(41.176471%,61.568627%,22.352941%);fill-opacity:1;" d="M 5.605469 1.421875 L 18.394531 1.421875 C 20.703125 1.421875 22.578125 3.296875 22.578125 5.605469 L 22.578125 18.394531 C 22.578125 20.703125 20.703125 22.578125 18.394531 22.578125 L 5.605469 22.578125 C 3.296875 22.578125 1.421875 20.703125 1.421875 18.394531 L 1.421875 5.605469 C 1.421875 3.296875 3.296875 1.421875 5.605469 1.421875 Z M 5.605469 1.421875 "/>
<path style=" stroke:none;fill-rule:evenodd;fill:rgb(41.176471%,61.568627%,22.352941%);fill-opacity:1;" d="M 22.574219 11.273438 C 21.042969 10.976562 19.507812 10.691406 17.972656 10.550781 C 15.984375 10.367188 13.996094 10.308594 12.007812 10.347656 C 10.019531 10.382812 8.03125 10.511719 6.046875 10.710938 C 4.503906 10.867188 2.964844 11.089844 1.425781 11.3125 L 1.425781 18.394531 C 1.425781 20.710938 3.289062 22.574219 5.605469 22.574219 L 18.394531 22.574219 C 20.710938 22.578125 22.574219 20.710938 22.574219 18.394531 Z M 22.574219 11.273438 "/>
<path style=" stroke:none;fill-rule:evenodd;fill:rgb(56.470588%,74.509804%,40.392157%);fill-opacity:1;" d="M 5.605469 1.425781 C 3.289062 1.425781 1.425781 3.289062 1.425781 5.605469 L 1.425781 11.3125 C 2.964844 11.089844 4.503906 10.867188 6.046875 10.710938 C 8.03125 10.511719 10.019531 10.382812 12.007812 10.347656 C 13.996094 10.308594 15.984375 10.367188 17.972656 10.550781 C 19.507812 10.691406 21.042969 10.976562 22.574219 11.273438 L 22.574219 5.605469 C 22.578125 3.289062 20.710938 1.425781 18.394531 1.425781 Z M 5.605469 1.425781 "/>
<path style=" stroke:none;fill-rule:nonzero;fill:rgb(100%,100%,100%);fill-opacity:1;" d="M 11.964844 5.238281 C 19.929688 11.082031 15.949219 8.160156 11.964844 5.238281 Z M 8.523438 14.078125 C 8.75 13.984375 9.160156 13.703125 9.429688 13.460938 C 9.871094 13.0625 9.933594 13.039062 10.035156 13.222656 C 10.292969 13.679688 10.871094 14.230469 11.09375 14.230469 C 11.375 14.230469 12.816406 13.003906 12.816406 12.761719 C 12.816406 12.667969 12.671875 12.375 12.496094 12.109375 L 12.171875 11.625 C 12.035156 9.96875 12.296875 6.488281 11.640625 5.417969 C 10.804688 4.277344 9.40625 4.144531 8.558594 4.148438 C 6.324219 4.160156 5.109375 4.914062 4.667969 6.554688 C 4.523438 7.101562 4.613281 7.175781 5.519531 7.277344 C 5.902344 7.320312 6.332031 7.386719 6.480469 7.421875 C 6.707031 7.480469 6.777344 7.414062 6.972656 6.957031 C 7.121094 6.617188 7.328125 6.363281 7.550781 6.246094 C 7.960938 6.035156 8.644531 6.007812 8.984375 6.191406 C 9.277344 6.347656 9.546875 6.980469 9.546875 7.511719 L 9.546875 7.914062 L 8.878906 7.992188 C 7.742188 8.125 6.488281 8.40625 6.054688 8.628906 C 5.515625 8.90625 4.835938 9.59375 4.570312 10.128906 C 4.414062 10.441406 4.359375 10.828125 4.359375 11.546875 C 4.355469 12.390625 4.402344 12.617188 4.648438 13.054688 C 5.183594 13.996094 5.996094 14.382812 7.28125 14.304688 C 7.734375 14.277344 8.292969 14.175781 8.523438 14.078125 Z M 7.359375 12.300781 C 7 12.050781 6.824219 11.320312 6.980469 10.734375 C 7.183594 9.988281 8.109375 9.460938 9.242188 9.449219 L 9.574219 9.449219 L 9.527344 10.292969 C 9.5 10.796875 9.390625 11.324219 9.261719 11.589844 C 8.882812 12.371094 7.953125 12.71875 7.359375 12.300781 Z M 7.359375 12.300781 "/>
<path style=" stroke:none;fill-rule:evenodd;fill:rgb(100%,100%,100%);fill-opacity:1;" d="M 3.582031 15.816406 L 8.667969 15.816406 C 8.722656 15.816406 8.765625 15.847656 8.765625 15.882812 L 8.765625 16.785156 C 8.765625 16.824219 8.722656 16.851562 8.667969 16.851562 L 3.582031 16.851562 C 3.527344 16.851562 3.484375 16.824219 3.484375 16.785156 L 3.484375 15.882812 C 3.484375 15.847656 3.527344 15.816406 3.582031 15.816406 Z M 3.582031 15.816406 "/>
<path style=" stroke:none;fill-rule:evenodd;fill:rgb(100%,100%,100%);fill-opacity:1;" d="M 3.582031 17.378906 L 8.667969 17.378906 C 8.722656 17.378906 8.765625 17.410156 8.765625 17.445312 L 8.765625 18.347656 C 8.765625 18.386719 8.722656 18.414062 8.667969 18.414062 L 3.582031 18.414062 C 3.527344 18.414062 3.484375 18.386719 3.484375 18.347656 L 3.484375 17.445312 C 3.484375 17.410156 3.527344 17.378906 3.582031 17.378906 Z M 3.582031 17.378906 "/>
<path style=" stroke:none;fill-rule:evenodd;fill:rgb(100%,100%,100%);fill-opacity:1;" d="M 3.582031 19.007812 L 8.667969 19.007812 C 8.722656 19.007812 8.765625 19.039062 8.765625 19.074219 L 8.765625 19.976562 C 8.765625 20.011719 8.722656 20.042969 8.667969 20.042969 L 3.582031 20.042969 C 3.527344 20.042969 3.484375 20.011719 3.484375 19.976562 L 3.484375 19.074219 C 3.484375 19.039062 3.527344 19.007812 3.582031 19.007812 Z M 3.582031 19.007812 "/>
<path style=" stroke:none;fill-rule:evenodd;fill:rgb(100%,100%,100%);fill-opacity:1;" d="M 9.347656 17.378906 L 14.433594 17.378906 C 14.488281 17.378906 14.53125 17.410156 14.53125 17.445312 L 14.53125 18.347656 C 14.53125 18.386719 14.488281 18.414062 14.433594 18.414062 L 9.347656 18.414062 C 9.296875 18.414062 9.253906 18.386719 9.253906 18.347656 L 9.253906 17.445312 C 9.253906 17.410156 9.296875 17.378906 9.347656 17.378906 Z M 9.347656 17.378906 "/>
<path style=" stroke:none;fill-rule:evenodd;fill:rgb(100%,100%,100%);fill-opacity:1;" d="M 9.347656 19.007812 L 14.433594 19.007812 C 14.488281 19.007812 14.53125 19.039062 14.53125 19.074219 L 14.53125 19.976562 C 14.53125 20.011719 14.488281 20.042969 14.433594 20.042969 L 9.347656 20.042969 C 9.296875 20.042969 9.253906 20.011719 9.253906 19.976562 L 9.253906 19.074219 C 9.253906 19.039062 9.296875 19.007812 9.347656 19.007812 Z M 9.347656 19.007812 "/>
<path style=" stroke:none;fill-rule:evenodd;fill:rgb(100%,100%,100%);fill-opacity:1;" d="M 15.164062 15.816406 L 20.25 15.816406 C 20.300781 15.816406 20.347656 15.847656 20.347656 15.882812 L 20.347656 16.785156 C 20.347656 16.824219 20.300781 16.851562 20.25 16.851562 L 15.164062 16.851562 C 15.109375 16.851562 15.066406 16.824219 15.066406 16.785156 L 15.066406 15.882812 C 15.066406 15.847656 15.109375 15.816406 15.164062 15.816406 Z M 15.164062 15.816406 "/>
<path style=" stroke:none;fill-rule:evenodd;fill:rgb(100%,100%,100%);fill-opacity:1;" d="M 15.164062 17.378906 L 20.25 17.378906 C 20.300781 17.378906 20.347656 17.410156 20.347656 17.445312 L 20.347656 18.347656 C 20.347656 18.386719 20.300781 18.414062 20.25 18.414062 L 15.164062 18.414062 C 15.109375 18.414062 15.066406 18.386719 15.066406 18.347656 L 15.066406 17.445312 C 15.066406 17.410156 15.109375 17.378906 15.164062 17.378906 Z M 15.164062 17.378906 "/>
<path style=" stroke:none;fill-rule:evenodd;fill:rgb(100%,100%,100%);fill-opacity:1;" d="M 15.164062 19.007812 L 20.25 19.007812 C 20.300781 19.007812 20.347656 19.039062 20.347656 19.074219 L 20.347656 19.976562 C 20.347656 20.011719 20.300781 20.042969 20.25 20.042969 L 15.164062 20.042969 C 15.109375 20.042969 15.066406 20.011719 15.066406 19.976562 L 15.066406 19.074219 C 15.066406 19.039062 15.109375 19.007812 15.164062 19.007812 Z M 15.164062 19.007812 "/>
<path style=" stroke:none;fill-rule:evenodd;fill:rgb(100%,100%,100%);fill-opacity:1;" d="M 15.164062 14.246094 L 20.25 14.246094 C 20.300781 14.246094 20.347656 14.277344 20.347656 14.3125 L 20.347656 15.214844 C 20.347656 15.25 20.300781 15.28125 20.25 15.28125 L 15.164062 15.28125 C 15.109375 15.28125 15.066406 15.25 15.066406 15.214844 L 15.066406 14.3125 C 15.066406 14.277344 15.109375 14.246094 15.164062 14.246094 Z M 15.164062 14.246094 "/>
</g>
</svg>
