<?xml version="1.0" encoding="UTF-8"?>
<svg xmlns="http://www.w3.org/2000/svg" xmlns:xlink="http://www.w3.org/1999/xlink" width="24pt" height="24pt" viewBox="0 0 24 24" version="1.1">
<g id="surface1">
<path style=" stroke:none;fill-rule:evenodd;fill:rgb(41.176471%,77.254902%,38.039216%);fill-opacity:1;" d="M 5.605469 1.421875 L 18.394531 1.421875 C 20.703125 1.421875 22.578125 3.296875 22.578125 5.605469 L 22.578125 18.394531 C 22.578125 20.703125 20.703125 22.578125 18.394531 22.578125 L 5.605469 22.578125 C 3.296875 22.578125 1.421875 20.703125 1.421875 18.394531 L 1.421875 5.605469 C 1.421875 3.296875 3.296875 1.421875 5.605469 1.421875 Z M 5.605469 1.421875 "/>
<path style=" stroke:none;fill-rule:nonzero;fill:rgb(30.980392%,30.980392%,30.980392%);fill-opacity:1;" d="M 17.875 5.105469 L 9.878906 6.949219 C 8.753906 7.089844 8.796875 8.246094 8.796875 8.246094 L 8.796875 13.164062 C 8.535156 13.089844 8.265625 13.050781 7.996094 13.050781 C 6.375 13.050781 5.058594 14.363281 5.058594 15.988281 C 5.058594 17.609375 6.375 18.921875 7.996094 18.921875 C 9.511719 18.921875 10.78125 17.765625 10.917969 16.253906 L 10.933594 16.253906 L 10.933594 8.863281 L 16.804688 7.464844 L 16.804688 11.5625 C 16.546875 11.488281 16.277344 11.449219 16.003906 11.449219 C 14.382812 11.449219 13.066406 12.761719 13.066406 14.382812 C 13.066406 16.007812 14.382812 17.320312 16.003906 17.320312 C 17.523438 17.320312 18.789062 16.164062 18.929688 14.652344 L 18.941406 14.652344 L 18.941406 6.109375 C 18.941406 6.109375 18.957031 4.878906 17.875 5.105469 Z M 17.875 5.105469 "/>
<path style=" stroke:none;fill-rule:nonzero;fill:rgb(100%,100%,100%);fill-opacity:1;" d="M 21.0625 17.066406 C 21.0625 19.140625 19.382812 20.816406 17.3125 20.816406 C 15.238281 20.816406 13.5625 19.140625 13.5625 17.066406 C 13.5625 14.996094 15.238281 13.316406 17.3125 13.316406 C 19.382812 13.316406 21.0625 14.996094 21.0625 17.066406 Z M 21.0625 17.066406 "/>
<path style=" stroke:none;fill-rule:nonzero;fill:rgb(41.176471%,77.254902%,38.039216%);fill-opacity:1;" d="M 17.3125 16.128906 L 17.78125 16.128906 L 17.78125 18.941406 L 17.3125 18.941406 Z M 17.3125 16.128906 "/>
<path style=" stroke:none;fill-rule:nonzero;fill:rgb(41.176471%,77.254902%,38.039216%);fill-opacity:1;" d="M 18.25 15.191406 L 18.71875 15.191406 L 18.71875 18.941406 L 18.25 18.941406 Z M 18.25 15.191406 "/>
<path style=" stroke:none;fill-rule:nonzero;fill:rgb(41.176471%,77.254902%,38.039216%);fill-opacity:1;" d="M 16.375 17.066406 L 16.84375 17.066406 L 16.84375 18.941406 L 16.375 18.941406 Z M 16.375 17.066406 "/>
<path style=" stroke:none;fill-rule:nonzero;fill:rgb(41.176471%,77.254902%,38.039216%);fill-opacity:1;" d="M 15.4375 18.003906 L 15.90625 18.003906 L 15.90625 18.941406 L 15.4375 18.941406 Z M 15.4375 18.003906 "/>
</g>
</svg>
