<?xml version="1.0" encoding="UTF-8"?>
<svg xmlns="http://www.w3.org/2000/svg" xmlns:xlink="http://www.w3.org/1999/xlink" width="24pt" height="24pt" viewBox="0 0 24 24" version="1.1">
<g id="surface1">
<path style=" stroke:none;fill-rule:evenodd;fill:rgb(55.686275%,55.686275%,55.686275%);fill-opacity:1;" d="M 5.605469 1.421875 L 18.394531 1.421875 C 20.703125 1.421875 22.578125 3.296875 22.578125 5.605469 L 22.578125 18.394531 C 22.578125 20.703125 20.703125 22.578125 18.394531 22.578125 L 5.605469 22.578125 C 3.296875 22.578125 1.421875 20.703125 1.421875 18.394531 L 1.421875 5.605469 C 1.421875 3.296875 3.296875 1.421875 5.605469 1.421875 Z M 5.605469 1.421875 "/>
<path style=" stroke:none;fill-rule:evenodd;fill:rgb(55.686275%,55.686275%,55.686275%);fill-opacity:1;" d="M 5.605469 1.421875 C 3.289062 1.421875 1.421875 3.289062 1.421875 5.605469 L 1.421875 18.394531 C 1.421875 20.710938 3.289062 22.578125 5.605469 22.578125 L 12 22.578125 L 12 16.792969 C 12 16.210938 12.117188 15.660156 12.328125 15.160156 C 12.539062 14.660156 12.84375 14.210938 13.222656 13.832031 C 13.597656 13.453125 14.050781 13.148438 14.550781 12.9375 C 15.050781 12.726562 15.601562 12.609375 16.179688 12.609375 L 22.574219 12.609375 L 22.574219 5.605469 C 22.574219 3.289062 20.710938 1.421875 18.394531 1.421875 Z M 5.605469 1.421875 "/>
<path style=" stroke:none;fill-rule:nonzero;fill:rgb(30.196078%,30.196078%,30.196078%);fill-opacity:1;" d="M 20.359375 4.699219 C 20.359375 5.296875 19.875 5.78125 19.28125 5.78125 C 18.683594 5.78125 18.203125 5.296875 18.203125 4.699219 C 18.203125 4.105469 18.683594 3.621094 19.28125 3.621094 C 19.875 3.621094 20.359375 4.105469 20.359375 4.699219 Z M 20.359375 4.699219 "/>
<path style=" stroke:none;fill-rule:nonzero;fill:rgb(30.196078%,30.196078%,30.196078%);fill-opacity:1;" d="M 5.761719 4.699219 C 5.761719 5.296875 5.277344 5.78125 4.683594 5.78125 C 4.085938 5.78125 3.605469 5.296875 3.605469 4.699219 C 3.605469 4.105469 4.085938 3.621094 4.683594 3.621094 C 5.277344 3.621094 5.761719 4.105469 5.761719 4.699219 Z M 5.761719 4.699219 "/>
<path style=" stroke:none;fill-rule:nonzero;fill:rgb(30.196078%,30.196078%,30.196078%);fill-opacity:1;" d="M 20.394531 19.296875 C 20.394531 19.894531 19.914062 20.378906 19.316406 20.378906 C 18.722656 20.378906 18.238281 19.894531 18.238281 19.296875 C 18.238281 18.703125 18.722656 18.21875 19.316406 18.21875 C 19.914062 18.21875 20.394531 18.703125 20.394531 19.296875 Z M 20.394531 19.296875 "/>
<path style=" stroke:none;fill-rule:nonzero;fill:rgb(30.196078%,30.196078%,30.196078%);fill-opacity:1;" d="M 5.796875 19.296875 C 5.796875 19.894531 5.316406 20.378906 4.71875 20.378906 C 4.125 20.378906 3.640625 19.894531 3.640625 19.296875 C 3.640625 18.703125 4.125 18.21875 4.71875 18.21875 C 5.316406 18.21875 5.796875 18.703125 5.796875 19.296875 Z M 5.796875 19.296875 "/>
<path style=" stroke:none;fill-rule:nonzero;fill:rgb(30.196078%,30.196078%,30.196078%);fill-opacity:1;" d="M 12 6.75 C 9.101562 6.75 6.75 9.101562 6.75 12 L 6.75 17.25 L 12 17.25 C 14.898438 17.25 17.25 14.898438 17.25 12 C 17.25 9.101562 14.898438 6.75 12 6.75 Z M 12 9 C 13.65625 9 15 10.34375 15 12 C 15 13.65625 13.65625 15 12 15 C 10.34375 15 9 13.65625 9 12 C 9 10.34375 10.34375 9 12 9 Z M 12 9 "/>
<path style=" stroke:none;fill-rule:evenodd;fill:rgb(30.196078%,66.666667%,96.078431%);fill-opacity:1;" d="M 22.574219 12.609375 L 16.179688 12.609375 C 15.601562 12.609375 15.050781 12.726562 14.550781 12.9375 C 14.050781 13.148438 13.597656 13.453125 13.222656 13.832031 C 12.84375 14.210938 12.539062 14.660156 12.328125 15.160156 C 12.117188 15.660156 12 16.210938 12 16.792969 L 12 22.578125 L 18.394531 22.578125 C 20.710938 22.578125 22.574219 20.710938 22.574219 18.394531 Z M 22.574219 12.609375 "/>
<path style=" stroke:none;fill-rule:nonzero;fill:rgb(100%,100%,100%);fill-opacity:1;" d="M 17.679688 14.550781 C 17.457031 14.550781 17.234375 14.660156 17.089844 14.820312 C 16.949219 14.976562 16.863281 15.195312 16.863281 15.410156 C 16.863281 15.621094 16.949219 15.832031 17.089844 15.988281 L 17.09375 15.992188 C 17.238281 16.148438 17.460938 16.253906 17.679688 16.253906 C 17.902344 16.253906 18.136719 16.144531 18.285156 15.976562 L 18.289062 15.976562 L 18.289062 15.972656 C 18.429688 15.8125 18.507812 15.59375 18.507812 15.378906 C 18.507812 15.171875 18.421875 14.960938 18.28125 14.808594 C 18.128906 14.644531 17.898438 14.550781 17.679688 14.550781 Z M 17.089844 16.335938 C 16.945312 16.335938 16.808594 16.363281 16.644531 16.40625 C 16.476562 16.453125 16.296875 16.523438 16.097656 16.613281 L 15.929688 16.6875 L 15.691406 17.699219 L 16.292969 17.542969 C 16.324219 17.535156 16.382812 17.519531 16.460938 17.503906 C 16.507812 17.496094 16.523438 17.496094 16.550781 17.492188 C 16.546875 17.523438 16.546875 17.554688 16.535156 17.605469 L 16.535156 17.613281 C 16.519531 17.703125 16.503906 17.785156 16.484375 17.859375 L 16.113281 19.355469 C 16.089844 19.453125 16.070312 19.53125 16.058594 19.605469 C 16.046875 19.683594 16.042969 19.757812 16.042969 19.835938 C 16.042969 20.058594 16.128906 20.289062 16.285156 20.457031 L 16.289062 20.457031 C 16.46875 20.644531 16.730469 20.714844 16.980469 20.714844 C 17.121094 20.714844 17.257812 20.691406 17.40625 20.652344 L 17.410156 20.648438 C 17.566406 20.609375 17.746094 20.546875 17.96875 20.457031 L 18.152344 20.382812 L 18.40625 19.289062 L 17.753906 19.53125 C 17.753906 19.53125 17.707031 19.542969 17.636719 19.554688 C 17.5625 19.566406 17.511719 19.566406 17.5 19.566406 C 17.496094 19.566406 17.5 19.566406 17.496094 19.566406 C 17.496094 19.542969 17.5 19.511719 17.511719 19.457031 L 17.511719 19.453125 C 17.511719 19.449219 17.511719 19.449219 17.511719 19.449219 C 17.53125 19.367188 17.550781 19.285156 17.570312 19.203125 L 17.570312 19.199219 L 17.945312 17.703125 L 17.945312 17.699219 C 17.96875 17.613281 17.988281 17.527344 18 17.4375 C 18.007812 17.355469 18.015625 17.289062 18.015625 17.21875 C 18.015625 16.992188 17.941406 16.757812 17.78125 16.589844 C 17.597656 16.398438 17.34375 16.335938 17.089844 16.335938 Z M 16.59375 17.4375 L 16.605469 17.449219 C 16.582031 17.425781 16.601562 17.460938 16.59375 17.449219 C 16.582031 17.4375 16.613281 17.457031 16.59375 17.4375 Z M 16.59375 17.4375 "/>
</g>
</svg>
