<?xml version="1.0" encoding="UTF-8"?>
<svg xmlns="http://www.w3.org/2000/svg" xmlns:xlink="http://www.w3.org/1999/xlink" width="24pt" height="24pt" viewBox="0 0 24 24" version="1.1">
<defs>
<clipPath id="clip1">
  <rect width="24" height="24"/>
</clipPath>
<g id="surface6" clip-path="url(#clip1)">
<path style=" stroke:none;fill-rule:nonzero;fill:rgb(100%,100%,100%);fill-opacity:1;" d="M 7.984375 5.25 L 5.25 17.386719 L 7.472656 17.386719 L 8.765625 11.957031 L 14.832031 11.957031 L 9.148438 17.042969 L 10.632812 18.75 L 11.390625 18.359375 C 12.824219 17.621094 13.429688 18.054688 14.515625 18.355469 C 15.578125 18.648438 16.570312 18.964844 18.636719 17.773438 L 18.226562 15.671875 C 15.972656 17.273438 15.257812 15.84375 13.652344 15.785156 L 18.25 11.894531 L 18.75 9.820312 L 9.121094 9.820312 L 9.738281 7.328125 L 16.050781 7.328125 L 16.484375 5.25 Z M 7.984375 5.25 "/>
</g>
</defs>
<g id="surface1">
<path style=" stroke:none;fill-rule:evenodd;fill:rgb(85.098039%,34.901961%,31.764706%);fill-opacity:1;" d="M 5.605469 1.421875 L 18.394531 1.421875 C 20.703125 1.421875 22.578125 3.296875 22.578125 5.605469 L 22.578125 18.394531 C 22.578125 20.703125 20.703125 22.578125 18.394531 22.578125 L 5.605469 22.578125 C 3.296875 22.578125 1.421875 20.703125 1.421875 18.394531 L 1.421875 5.605469 C 1.421875 3.296875 3.296875 1.421875 5.605469 1.421875 Z M 5.605469 1.421875 "/>
<use xlink:href="#surface6"/>
</g>
</svg>
