<?xml version="1.0" encoding="UTF-8"?>
<svg xmlns="http://www.w3.org/2000/svg" xmlns:xlink="http://www.w3.org/1999/xlink" width="24pt" height="24pt" viewBox="0 0 24 24" version="1.1">
<g id="surface1">
<path style=" stroke:none;fill-rule:evenodd;fill:rgb(30.980392%,30.980392%,30.980392%);fill-opacity:1;" d="M 5.605469 1.421875 L 18.394531 1.421875 C 20.703125 1.421875 22.578125 3.296875 22.578125 5.605469 L 22.578125 18.394531 C 22.578125 20.703125 20.703125 22.578125 18.394531 22.578125 L 5.605469 22.578125 C 3.296875 22.578125 1.421875 20.703125 1.421875 18.394531 L 1.421875 5.605469 C 1.421875 3.296875 3.296875 1.421875 5.605469 1.421875 Z M 5.605469 1.421875 "/>
<path style=" stroke:none;fill-rule:evenodd;fill:rgb(100%,38.823529%,38.823529%);fill-opacity:1;" d="M 18.902344 22.558594 C 23.164062 15.058594 17.902344 10.738281 12.703125 9.621094 C 18.207031 13.1875 13.332031 20.210938 6.308594 22.570312 C 9.34375 22.554688 15.871094 22.597656 18.902344 22.558594 Z M 18.902344 22.558594 "/>
<path style=" stroke:none;fill-rule:evenodd;fill:rgb(100%,38.823529%,38.823529%);fill-opacity:1;" d="M 6.152344 1.4375 C -0.0742188 8.625 6.101562 13.261719 11.304688 14.378906 C 5.800781 10.8125 10.28125 4.144531 14.898438 1.429688 C 11.867188 1.445312 9.183594 1.402344 6.152344 1.441406 Z M 6.152344 1.4375 "/>
<path style=" stroke:none;fill-rule:nonzero;fill:rgb(100%,38.823529%,38.823529%);fill-opacity:1;" d="M 13.796875 13.808594 C 13.195312 14.414062 11.894531 14.089844 10.898438 13.09375 C 9.898438 12.09375 9.578125 10.792969 10.179688 10.191406 C 10.78125 9.585938 12.082031 9.910156 13.082031 10.90625 C 14.082031 11.90625 14.402344 13.207031 13.796875 13.808594 Z M 13.796875 13.808594 "/>
</g>
</svg>
