<?xml version="1.0" encoding="UTF-8"?>
<svg xmlns="http://www.w3.org/2000/svg" xmlns:xlink="http://www.w3.org/1999/xlink" width="24pt" height="24pt" viewBox="0 0 24 24" version="1.1">
<g id="surface1">
<path style=" stroke:none;fill-rule:evenodd;fill:rgb(80%,80%,80%);fill-opacity:1;" d="M 5.605469 1.421875 L 18.394531 1.421875 C 20.703125 1.421875 22.578125 3.296875 22.578125 5.605469 L 22.578125 18.394531 C 22.578125 20.703125 20.703125 22.578125 18.394531 22.578125 L 5.605469 22.578125 C 3.296875 22.578125 1.421875 20.703125 1.421875 18.394531 L 1.421875 5.605469 C 1.421875 3.296875 3.296875 1.421875 5.605469 1.421875 Z M 5.605469 1.421875 "/>
<path style=" stroke:none;fill-rule:nonzero;fill:rgb(94.509804%,34.901961%,56.470588%);fill-opacity:1;" d="M 16.125 6.75 C 13.226562 6.75 10.875 9.101562 10.875 12 C 10.875 14.898438 13.226562 17.25 16.125 17.25 C 19.023438 17.25 21.375 14.898438 21.375 12 C 21.375 9.101562 19.023438 6.75 16.125 6.75 Z M 6.375 8.25 C 4.304688 8.25 2.625 9.929688 2.625 12 C 2.625 14.070312 4.304688 15.75 6.375 15.75 C 8.445312 15.75 10.125 14.070312 10.125 12 C 10.125 9.929688 8.445312 8.25 6.375 8.25 Z M 16.125 8.25 C 18.195312 8.25 19.875 9.929688 19.875 12 C 19.875 14.070312 18.195312 15.75 16.125 15.75 C 14.054688 15.75 12.375 14.070312 12.375 12 C 12.375 9.929688 14.054688 8.25 16.125 8.25 Z M 6.375 9.75 C 7.617188 9.75 8.625 10.757812 8.625 12 C 8.625 13.242188 7.617188 14.25 6.375 14.25 C 5.132812 14.25 4.125 13.242188 4.125 12 C 4.125 10.757812 5.132812 9.75 6.375 9.75 Z M 6.375 9.75 "/>
</g>
</svg>
