<?xml version="1.0" encoding="UTF-8"?>
<svg xmlns="http://www.w3.org/2000/svg" xmlns:xlink="http://www.w3.org/1999/xlink" width="24pt" height="24pt" viewBox="0 0 24 24" version="1.1">
<g id="surface1">
<path style=" stroke:none;fill-rule:evenodd;fill:rgb(45.490196%,81.960784%,34.901961%);fill-opacity:1;" d="M 5.605469 1.421875 L 18.394531 1.421875 C 20.703125 1.421875 22.578125 3.296875 22.578125 5.605469 L 22.578125 18.394531 C 22.578125 20.703125 20.703125 22.578125 18.394531 22.578125 L 5.605469 22.578125 C 3.296875 22.578125 1.421875 20.703125 1.421875 18.394531 L 1.421875 5.605469 C 1.421875 3.296875 3.296875 1.421875 5.605469 1.421875 Z M 5.605469 1.421875 "/>
<path style=" stroke:none;fill-rule:nonzero;fill:rgb(100%,100%,100%);fill-opacity:1;" d="M 6.027344 4.539062 L 6.027344 5.289062 L 5.652344 5.289062 C 5.027344 5.289062 4.527344 5.789062 4.527344 6.414062 C 4.527344 7.035156 5.027344 7.539062 5.652344 7.539062 L 6.027344 7.539062 L 6.027344 8.289062 L 4.59375 8.289062 C 4.75 8.726562 5.160156 9.039062 5.652344 9.039062 L 6.027344 9.039062 L 6.027344 9.789062 L 6.777344 9.789062 L 6.777344 9.039062 L 7.152344 9.039062 C 7.773438 9.039062 8.277344 8.535156 8.277344 7.914062 C 8.277344 7.289062 7.773438 6.789062 7.152344 6.789062 L 6.777344 6.789062 L 6.777344 6.039062 L 8.207031 6.039062 C 8.050781 5.601562 7.640625 5.289062 7.152344 5.289062 L 6.777344 5.289062 L 6.777344 4.539062 Z M 5.652344 6.039062 L 6.027344 6.039062 L 6.027344 6.789062 L 5.652344 6.789062 C 5.441406 6.789062 5.277344 6.621094 5.277344 6.414062 C 5.277344 6.207031 5.441406 6.039062 5.652344 6.039062 Z M 6.777344 7.539062 L 7.152344 7.539062 C 7.359375 7.539062 7.527344 7.707031 7.527344 7.914062 C 7.527344 8.121094 7.359375 8.296875 7.152344 8.289062 L 6.777344 8.289062 Z M 9.777344 9.039062 L 9.777344 9.789062 L 14.277344 9.789062 L 14.277344 9.039062 Z M 9.777344 9.039062 "/>
<path style=" stroke:none;fill-rule:nonzero;fill:rgb(52.156863%,38.039216%,77.254902%);fill-opacity:1;" d="M 20.796875 16.613281 C 20.796875 19.101562 18.78125 21.113281 16.296875 21.113281 C 13.8125 21.113281 11.796875 19.101562 11.796875 16.613281 C 11.796875 14.128906 13.8125 12.113281 16.296875 12.113281 C 18.78125 12.113281 20.796875 14.128906 20.796875 16.613281 Z M 20.796875 16.613281 "/>
<path style=" stroke:none;fill-rule:nonzero;fill:rgb(100%,100%,100%);fill-opacity:1;" d="M 15.734375 14.363281 L 15.683594 14.957031 C 15.496094 15.027344 15.320312 15.128906 15.167969 15.257812 L 14.628906 15.003906 L 14.066406 15.976562 L 14.554688 16.316406 C 14.539062 16.414062 14.527344 16.515625 14.527344 16.613281 C 14.527344 16.714844 14.539062 16.816406 14.554688 16.914062 L 14.066406 17.253906 L 14.628906 18.226562 L 15.167969 17.972656 C 15.320312 18.101562 15.496094 18.203125 15.683594 18.269531 L 15.734375 18.863281 L 16.859375 18.863281 L 16.910156 18.273438 C 17.097656 18.203125 17.269531 18.101562 17.425781 17.972656 L 17.964844 18.226562 L 18.527344 17.253906 L 18.039062 16.914062 C 18.054688 16.8125 18.0625 16.714844 18.0625 16.613281 C 18.0625 16.515625 18.054688 16.414062 18.039062 16.316406 L 18.527344 15.976562 L 17.964844 15.003906 L 17.425781 15.253906 C 17.273438 15.128906 17.097656 15.027344 16.910156 14.957031 L 16.859375 14.363281 Z M 16.296875 15.972656 C 16.652344 15.972656 16.941406 16.257812 16.941406 16.613281 C 16.941406 16.96875 16.652344 17.257812 16.296875 17.257812 C 15.941406 17.257812 15.652344 16.96875 15.652344 16.613281 C 15.652344 16.257812 15.941406 15.972656 16.296875 15.972656 Z M 16.296875 15.972656 "/>
</g>
</svg>
