<?xml version="1.0" encoding="UTF-8"?>
<svg xmlns="http://www.w3.org/2000/svg" xmlns:xlink="http://www.w3.org/1999/xlink" width="24pt" height="24pt" viewBox="0 0 24 24" version="1.1">
<g id="surface1">
<path style=" stroke:none;fill-rule:evenodd;fill:rgb(35.686275%,35.686275%,35.686275%);fill-opacity:1;" d="M 1.421875 8.476562 L 1.421875 18.394531 C 1.421875 20.710938 3.289062 22.578125 5.605469 22.578125 L 18.394531 22.578125 C 20.710938 22.578125 22.578125 20.710938 22.578125 18.394531 L 22.578125 8.476562 Z M 1.421875 8.476562 "/>
<path style=" stroke:none;fill-rule:evenodd;fill:rgb(38.823529%,64.705882%,20.784314%);fill-opacity:1;" d="M 1.421875 8.476562 L 22.578125 8.476562 L 22.578125 5.605469 C 22.578125 3.289062 20.710938 1.421875 18.394531 1.421875 L 5.605469 1.421875 C 3.289062 1.421875 1.421875 3.289062 1.421875 5.605469 Z M 1.421875 8.476562 "/>
<path style=" stroke:none;fill-rule:nonzero;fill:rgb(80%,80%,81.176471%);fill-opacity:0.941176;" d="M 12 15.523438 C 12 18.007812 9.984375 20.023438 7.5 20.023438 C 5.015625 20.023438 3 18.007812 3 15.523438 C 3 13.039062 5.015625 11.023438 7.5 11.023438 C 9.984375 11.023438 12 13.039062 12 15.523438 Z M 12 15.523438 "/>
<path style=" stroke:none;fill-rule:nonzero;fill:rgb(35.686275%,35.686275%,35.686275%);fill-opacity:1;" d="M 9.75 15.523438 C 9.75 16.765625 8.742188 17.773438 7.5 17.773438 C 6.257812 17.773438 5.25 16.765625 5.25 15.523438 C 5.25 14.28125 6.257812 13.273438 7.5 13.273438 C 8.742188 13.273438 9.75 14.28125 9.75 15.523438 Z M 9.75 15.523438 "/>
<path style=" stroke:none;fill-rule:nonzero;fill:rgb(80%,80%,81.176471%);fill-opacity:0.941176;" d="M 21 15.523438 C 21 18.007812 18.984375 20.023438 16.5 20.023438 C 14.015625 20.023438 12 18.007812 12 15.523438 C 12 13.039062 14.015625 11.023438 16.5 11.023438 C 18.984375 11.023438 21 13.039062 21 15.523438 Z M 21 15.523438 "/>
<path style=" stroke:none;fill-rule:nonzero;fill:rgb(35.686275%,35.686275%,35.686275%);fill-opacity:1;" d="M 18.75 15.523438 C 18.75 16.765625 17.742188 17.773438 16.5 17.773438 C 15.257812 17.773438 14.25 16.765625 14.25 15.523438 C 14.25 14.28125 15.257812 13.273438 16.5 13.273438 C 17.742188 13.273438 18.75 14.28125 18.75 15.523438 Z M 18.75 15.523438 "/>
<path style=" stroke:none;fill-rule:nonzero;fill:rgb(35.686275%,35.686275%,35.686275%);fill-opacity:1;" d="M 6.75 5.035156 C 6.75 5.65625 6.246094 6.160156 5.625 6.160156 C 5.003906 6.160156 4.5 5.65625 4.5 5.035156 C 4.5 4.414062 5.003906 3.910156 5.625 3.910156 C 6.246094 3.910156 6.75 4.414062 6.75 5.035156 Z M 6.75 5.035156 "/>
<path style=" stroke:none;fill-rule:nonzero;fill:rgb(59.607843%,22.745098%,5.490196%);fill-opacity:1;" d="M 17.25 3.910156 L 19.5 3.910156 L 19.5 6.160156 L 17.25 6.160156 Z M 17.25 3.910156 "/>
<path style=" stroke:none;fill-rule:nonzero;fill:rgb(96.862745%,74.901961%,19.607843%);fill-opacity:1;" d="M 18 4.660156 L 18.75 4.660156 L 18.75 5.410156 L 18 5.410156 Z M 18 4.660156 "/>
<path style=" stroke:none;fill-rule:nonzero;fill:rgb(35.686275%,35.686275%,35.686275%);fill-opacity:1;" d="M 9.75 5.035156 C 9.75 5.65625 9.246094 6.160156 8.625 6.160156 C 8.003906 6.160156 7.5 5.65625 7.5 5.035156 C 7.5 4.414062 8.003906 3.910156 8.625 3.910156 C 9.246094 3.910156 9.75 4.414062 9.75 5.035156 Z M 9.75 5.035156 "/>
<path style=" stroke:none;fill-rule:nonzero;fill:rgb(35.686275%,35.686275%,35.686275%);fill-opacity:1;" d="M 12.75 5.035156 C 12.75 5.65625 12.246094 6.160156 11.625 6.160156 C 11.003906 6.160156 10.5 5.65625 10.5 5.035156 C 10.5 4.414062 11.003906 3.910156 11.625 3.910156 C 12.246094 3.910156 12.75 4.414062 12.75 5.035156 Z M 12.75 5.035156 "/>
</g>
</svg>
