<?xml version="1.0" encoding="UTF-8"?>
<svg xmlns="http://www.w3.org/2000/svg" xmlns:xlink="http://www.w3.org/1999/xlink" width="24pt" height="24pt" viewBox="0 0 24 24" version="1.1">
<g id="surface1">
<path style=" stroke:none;fill-rule:evenodd;fill:rgb(48.627451%,69.411765%,30.980392%);fill-opacity:1;" d="M 5.605469 1.421875 L 18.394531 1.421875 C 20.703125 1.421875 22.578125 3.296875 22.578125 5.605469 L 22.578125 18.394531 C 22.578125 20.703125 20.703125 22.578125 18.394531 22.578125 L 5.605469 22.578125 C 3.296875 22.578125 1.421875 20.703125 1.421875 18.394531 L 1.421875 5.605469 C 1.421875 3.296875 3.296875 1.421875 5.605469 1.421875 Z M 5.605469 1.421875 "/>
<path style=" stroke:none;fill-rule:nonzero;fill:rgb(18.039216%,18.039216%,18.039216%);fill-opacity:1;" d="M 17.25 9 C 16.675781 7.183594 14.71875 6.761719 13.136719 6.75 C 11.746094 6.75 10.722656 7.269531 10.070312 8.1875 C 9.421875 9.101562 9 10.035156 9 12.003906 C 9 13.957031 9.410156 14.945312 10.035156 15.867188 C 10.660156 16.785156 11.929688 17.242188 12.949219 17.246094 C 13.847656 17.25 14.855469 16.863281 15.75 16.5 L 15.75 13.558594 L 14.25 13.558594 L 14.25 12.75 L 18.75 12.75 L 18.75 17.25 C 16.78125 18.300781 14.710938 18.742188 12.652344 18.75 C 10.347656 18.75 8.539062 18.148438 7.21875 16.945312 C 5.90625 15.742188 5.25 14.097656 5.25 12.003906 C 5.25 9.90625 5.90625 8.257812 7.21875 7.054688 C 8.539062 5.851562 10.347656 5.25 12.652344 5.25 C 14.617188 5.3125 16.320312 5.714844 18 6.375 L 18 9 Z M 17.25 9 "/>
</g>
</svg>
