<?xml version="1.0" encoding="UTF-8"?>
<svg xmlns="http://www.w3.org/2000/svg" xmlns:xlink="http://www.w3.org/1999/xlink" width="24pt" height="24pt" viewBox="0 0 24 24" version="1.1">
<g id="surface1">
<path style=" stroke:none;fill-rule:evenodd;fill:rgb(100%,74.117647%,0%);fill-opacity:1;" d="M 5.605469 1.421875 L 18.394531 1.421875 C 20.703125 1.421875 22.578125 3.296875 22.578125 5.605469 L 22.578125 18.394531 C 22.578125 20.703125 20.703125 22.578125 18.394531 22.578125 L 5.605469 22.578125 C 3.296875 22.578125 1.421875 20.703125 1.421875 18.394531 L 1.421875 5.605469 C 1.421875 3.296875 3.296875 1.421875 5.605469 1.421875 Z M 5.605469 1.421875 "/>
<path style=" stroke:none;fill-rule:nonzero;fill:rgb(20%,20%,20%);fill-opacity:1;" d="M 19.570312 12 C 19.570312 16.179688 16.179688 19.570312 12 19.570312 C 7.820312 19.570312 4.429688 16.179688 4.429688 12 C 4.429688 7.820312 7.820312 4.429688 12 4.429688 C 16.179688 4.429688 19.570312 7.820312 19.570312 12 Z M 19.570312 12 "/>
<path style=" stroke:none;fill-rule:nonzero;fill:rgb(100%,100%,100%);fill-opacity:1;" d="M 18.8125 12 C 18.8125 15.761719 15.761719 18.8125 12 18.8125 C 8.238281 18.8125 5.1875 15.761719 5.1875 12 C 5.1875 8.238281 8.238281 5.1875 12 5.1875 C 15.761719 5.1875 18.8125 8.238281 18.8125 12 Z M 18.8125 12 "/>
<path style=" stroke:none;fill-rule:nonzero;fill:rgb(100%,42.745098%,0%);fill-opacity:1;" d="M 9.046875 6.933594 L 9.394531 8.394531 L 10.625 8.371094 L 11.273438 9.320312 L 8.46875 17.066406 L 10.949219 16.300781 L 12.550781 11.363281 L 15.125 15.375 L 17.09375 13.726562 L 16.234375 12.476562 L 15.539062 13.03125 L 11.550781 6.957031 Z M 9.046875 6.933594 "/>
</g>
</svg>
