<?xml version="1.0" encoding="UTF-8"?>
<svg xmlns="http://www.w3.org/2000/svg" xmlns:xlink="http://www.w3.org/1999/xlink" width="24pt" height="24pt" viewBox="0 0 24 24" version="1.1">
<defs>
<clipPath id="clip1">
  <rect width="24" height="24"/>
</clipPath>
<g id="surface6" clip-path="url(#clip1)">
<path style=" stroke:none;fill-rule:nonzero;fill:rgb(100%,100%,100%);fill-opacity:1;" d="M 14.339844 5.988281 C 14.203125 5.925781 14.023438 5.964844 13.925781 6.082031 L 12.890625 7.253906 C 12.316406 7.164062 11.730469 7.15625 11.164062 7.242188 L 10.132812 6.058594 C 10.027344 5.933594 9.828125 5.898438 9.6875 5.976562 L 7.199219 7.402344 C 7.058594 7.484375 6.988281 7.671875 7.042969 7.828125 L 7.542969 9.324219 C 7.367188 9.542969 7.203125 9.773438 7.054688 10.023438 C 6.910156 10.273438 6.789062 10.527344 6.683594 10.789062 L 5.136719 11.089844 C 4.976562 11.121094 4.847656 11.273438 4.84375 11.4375 L 4.828125 14.304688 C 4.828125 14.464844 4.957031 14.621094 5.117188 14.652344 L 6.65625 14.964844 C 6.859375 15.5 7.152344 16.007812 7.515625 16.464844 L 7.003906 17.941406 C 6.949219 18.09375 7.019531 18.28125 7.15625 18.367188 L 9.628906 19.808594 C 9.773438 19.890625 9.96875 19.855469 10.074219 19.734375 L 11.109375 18.5625 C 11.683594 18.652344 12.269531 18.65625 12.835938 18.574219 L 13.867188 19.757812 C 13.972656 19.882812 14.171875 19.917969 14.3125 19.835938 L 16.800781 18.414062 C 16.941406 18.332031 17.011719 18.144531 16.957031 17.988281 L 16.457031 16.492188 C 16.632812 16.273438 16.796875 16.042969 16.945312 15.792969 C 17.089844 15.542969 17.210938 15.285156 17.316406 15.023438 L 18.863281 14.722656 C 19.023438 14.695312 19.152344 14.542969 19.15625 14.378906 L 19.171875 11.511719 C 19.171875 11.347656 19.042969 11.195312 18.882812 11.160156 L 17.34375 10.847656 C 17.140625 10.3125 16.84375 9.804688 16.484375 9.347656 L 16.996094 7.875 C 17.050781 7.71875 16.980469 7.53125 16.84375 7.449219 L 14.371094 6.003906 C 14.359375 6 14.351562 5.992188 14.339844 5.988281 Z M 14.289062 8.984375 C 16.453125 10.25 17.1875 13.03125 15.921875 15.195312 C 14.660156 17.363281 11.878906 18.09375 9.710938 16.828125 C 7.546875 15.566406 6.8125 12.785156 8.078125 10.617188 C 9.339844 8.453125 12.121094 7.722656 14.289062 8.984375 Z M 14.289062 8.984375 "/>
</g>
</defs>
<g id="surface1">
<path style=" stroke:none;fill-rule:evenodd;fill:rgb(25.882353%,72.941176%,100%);fill-opacity:1;" d="M 5.605469 1.421875 L 18.394531 1.421875 C 20.703125 1.421875 22.578125 3.296875 22.578125 5.605469 L 22.578125 18.394531 C 22.578125 20.703125 20.703125 22.578125 18.394531 22.578125 L 5.605469 22.578125 C 3.296875 22.578125 1.421875 20.703125 1.421875 18.394531 L 1.421875 5.605469 C 1.421875 3.296875 3.296875 1.421875 5.605469 1.421875 Z M 5.605469 1.421875 "/>
<use xlink:href="#surface6"/>
<path style=" stroke:none;fill-rule:evenodd;fill:rgb(100%,100%,100%);fill-opacity:1;" d="M 13.320312 4.832031 C 13.320312 5.5625 12.730469 6.152344 12 6.152344 C 11.269531 6.152344 10.679688 5.5625 10.679688 4.832031 C 10.679688 4.101562 11.269531 3.511719 12 3.511719 C 12.730469 3.511719 13.320312 4.101562 13.320312 4.832031 Z M 13.320312 4.832031 "/>
<path style="fill:none;stroke-width:3.2;stroke-linecap:round;stroke-linejoin:miter;stroke:rgb(100%,100%,100%);stroke-opacity:1;stroke-miterlimit:4;" d="M 16 13.440814 L 16 20.383522 " transform="matrix(0.75,0,0,0.75,-0.000000075,0.224077)"/>
</g>
</svg>
