<?xml version="1.0" encoding="UTF-8"?>
<svg xmlns="http://www.w3.org/2000/svg" xmlns:xlink="http://www.w3.org/1999/xlink" width="24pt" height="24pt" viewBox="0 0 24 24" version="1.1">
<defs>
<clipPath id="clip1">
  <rect width="24" height="24"/>
</clipPath>
<g id="surface6" clip-path="url(#clip1)">
<path style=" stroke:none;fill-rule:nonzero;fill:rgb(100%,100%,100%);fill-opacity:1;" d="M 10.207031 10.605469 L 10.375 11.628906 L 8.726562 12.542969 L 8.726562 16.984375 C 8.726562 17.554688 8.628906 17.953125 8.441406 18.179688 C 8.25 18.410156 7.925781 18.523438 7.472656 18.523438 C 6.941406 18.523438 6.445312 18.464844 5.992188 18.351562 L 5.761719 17.15625 C 6.257812 17.308594 6.769531 17.382812 7.300781 17.382812 C 7.492188 17.382812 7.585938 17.15625 7.585938 16.699219 L 7.585938 13.113281 C 6.976562 13.378906 6.332031 13.644531 5.648438 13.910156 L 5.25 12.710938 C 6.085938 12.410156 6.863281 12.105469 7.585938 11.800781 L 7.585938 8.894531 L 5.707031 8.894531 L 5.707031 7.8125 L 7.585938 7.8125 L 7.585938 5.421875 L 8.726562 5.421875 L 8.726562 7.8125 L 10.320312 7.8125 L 10.320312 8.894531 L 8.726562 8.894531 L 8.726562 11.34375 C 9.21875 11.078125 9.710938 10.832031 10.207031 10.605469 M 15.902344 5.421875 L 17.15625 5.761719 C 16.738281 6.597656 16.320312 7.339844 15.902344 7.984375 L 18.292969 7.984375 L 18.292969 9.066406 L 16.699219 9.066406 L 16.699219 12.140625 L 18.75 12.140625 L 18.75 13.226562 L 16.699219 13.226562 L 16.699219 18.523438 L 15.558594 18.523438 L 15.558594 13.226562 L 13.054688 13.226562 C 12.789062 15.65625 11.875 17.441406 10.320312 18.578125 L 9.523438 17.726562 C 10.851562 16.738281 11.628906 15.238281 11.859375 13.226562 L 10.089844 13.226562 L 10.089844 12.140625 L 11.972656 12.140625 C 12.007812 11.839844 12.027344 11.515625 12.027344 11.175781 L 12.027344 9.066406 L 10.546875 9.066406 L 10.546875 7.984375 L 14.707031 7.984375 C 15.160156 7.1875 15.558594 6.332031 15.902344 5.421875 M 15.558594 12.140625 L 15.558594 9.066406 L 13.167969 9.066406 L 13.167969 11.34375 C 13.167969 11.609375 13.148438 11.875 13.109375 12.140625 L 15.558594 12.140625 M 12.484375 5.59375 C 12.941406 6.125 13.28125 6.710938 13.507812 7.359375 L 12.3125 7.757812 C 12.085938 7.074219 11.761719 6.464844 11.34375 5.933594 L 12.484375 5.59375 "/>
</g>
</defs>
<g id="surface1">
<path style=" stroke:none;fill-rule:evenodd;fill:rgb(12.54902%,58.431373%,94.901961%);fill-opacity:1;" d="M 5.605469 1.421875 L 18.394531 1.421875 C 20.703125 1.421875 22.578125 3.296875 22.578125 5.605469 L 22.578125 18.394531 C 22.578125 20.703125 20.703125 22.578125 18.394531 22.578125 L 5.605469 22.578125 C 3.296875 22.578125 1.421875 20.703125 1.421875 18.394531 L 1.421875 5.605469 C 1.421875 3.296875 3.296875 1.421875 5.605469 1.421875 Z M 5.605469 1.421875 "/>
<use xlink:href="#surface6"/>
</g>
</svg>
