<?xml version="1.0" encoding="UTF-8"?>
<svg xmlns="http://www.w3.org/2000/svg" xmlns:xlink="http://www.w3.org/1999/xlink" width="24pt" height="24pt" viewBox="0 0 24 24" version="1.1">
<g id="surface1">
<path style=" stroke:none;fill-rule:evenodd;fill:rgb(24.313725%,73.72549%,90.980392%);fill-opacity:1;" d="M 5.605469 1.421875 L 18.394531 1.421875 C 20.703125 1.421875 22.578125 3.296875 22.578125 5.605469 L 22.578125 18.394531 C 22.578125 20.703125 20.703125 22.578125 18.394531 22.578125 L 5.605469 22.578125 C 3.296875 22.578125 1.421875 20.703125 1.421875 18.394531 L 1.421875 5.605469 C 1.421875 3.296875 3.296875 1.421875 5.605469 1.421875 Z M 5.605469 1.421875 "/>
<path style=" stroke:none;fill-rule:evenodd;fill:rgb(24.313725%,73.72549%,90.980392%);fill-opacity:1;" d="M 5.605469 1.425781 C 3.289062 1.425781 1.425781 3.289062 1.425781 5.605469 L 1.425781 10.464844 C 1.523438 10.445312 1.636719 10.375 1.734375 10.359375 C 2.796875 10.199219 3.796875 10.230469 4.765625 10.398438 C 5.734375 10.566406 6.671875 10.871094 7.597656 11.253906 C 8.527344 11.636719 9.445312 12.097656 10.386719 12.574219 C 11.324219 13.054688 12.285156 13.554688 13.289062 14.011719 C 14.289062 14.472656 15.339844 14.890625 16.457031 15.214844 C 17.578125 15.539062 18.765625 15.765625 20.054688 15.832031 C 20.832031 15.875 21.722656 15.726562 22.574219 15.640625 L 22.574219 5.605469 C 22.578125 3.289062 20.710938 1.425781 18.394531 1.425781 Z M 5.605469 1.425781 "/>
<path style=" stroke:none;fill-rule:evenodd;fill:rgb(59.215686%,77.647059%,2.745098%);fill-opacity:1;" d="M 22.574219 15.640625 C 7.578125 16.785156 8.085938 7.71875 1.425781 7.820312 L 1.425781 18.394531 C 1.425781 20.710938 3.289062 22.574219 5.605469 22.574219 L 18.394531 22.574219 C 20.710938 22.578125 22.574219 20.710938 22.574219 18.394531 Z M 22.574219 15.640625 "/>
<path style=" stroke:none;fill-rule:nonzero;fill:rgb(90.196078%,90.196078%,90.196078%);fill-opacity:1;" d="M 19.585938 12 C 19.585938 16.191406 16.191406 19.585938 12 19.585938 C 7.808594 19.585938 4.414062 16.191406 4.414062 12 C 4.414062 7.808594 7.808594 4.414062 12 4.414062 C 16.191406 4.414062 19.585938 7.808594 19.585938 12 Z M 19.585938 12 "/>
<path style=" stroke:none;fill-rule:nonzero;fill:rgb(40%,40%,40%);fill-opacity:1;" d="M 15.34375 12 C 15.34375 13.847656 13.847656 15.34375 12 15.34375 C 10.152344 15.34375 8.65625 13.847656 8.65625 12 C 8.65625 10.152344 10.152344 8.65625 12 8.65625 C 13.847656 8.65625 15.34375 10.152344 15.34375 12 Z M 15.34375 12 "/>
<path style=" stroke:none;fill-rule:nonzero;fill:rgb(100%,99.607843%,89.411765%);fill-opacity:1;" d="M 14.410156 12 C 14.410156 13.332031 13.332031 14.410156 12 14.410156 C 10.667969 14.410156 9.589844 13.332031 9.589844 12 C 9.589844 10.667969 10.667969 9.589844 12 9.589844 C 13.332031 9.589844 14.410156 10.667969 14.410156 12 Z M 14.410156 12 "/>
<path style=" stroke:none;fill-rule:evenodd;fill:rgb(45.490196%,63.137255%,5.098039%);fill-opacity:1;" d="M 22.554688 13.992188 C 13.523438 12.527344 11.503906 20.074219 1.445312 18.175781 C 1.433594 18.175781 1.417969 18.171875 1.402344 18.171875 L 1.402344 18.390625 C 1.402344 20.707031 3.265625 22.570312 5.582031 22.570312 L 18.375 22.570312 C 20.691406 22.570312 22.554688 20.707031 22.554688 18.390625 Z M 22.554688 13.992188 "/>
</g>
</svg>
