<?xml version="1.0" encoding="UTF-8"?>
<svg xmlns="http://www.w3.org/2000/svg" xmlns:xlink="http://www.w3.org/1999/xlink" width="24pt" height="24pt" viewBox="0 0 24 24" version="1.1">
<g id="surface1">
<path style=" stroke:none;fill-rule:evenodd;fill:rgb(11.764706%,52.941176%,89.411765%);fill-opacity:1;" d="M 5.605469 1.421875 L 18.394531 1.421875 C 20.703125 1.421875 22.578125 3.296875 22.578125 5.605469 L 22.578125 18.394531 C 22.578125 20.703125 20.703125 22.578125 18.394531 22.578125 L 5.605469 22.578125 C 3.296875 22.578125 1.421875 20.703125 1.421875 18.394531 L 1.421875 5.605469 C 1.421875 3.296875 3.296875 1.421875 5.605469 1.421875 Z M 5.605469 1.421875 "/>
<path style="fill:none;stroke-width:2;stroke-linecap:square;stroke-linejoin:miter;stroke:rgb(100%,100%,100%);stroke-opacity:1;stroke-miterlimit:4;" d="M 13 18 C 13 13.583333 16.583333 10 21 10 " transform="matrix(0.75,0,0,0.75,0.375,-0.375)"/>
<path style="fill:none;stroke-width:2;stroke-linecap:square;stroke-linejoin:miter;stroke:rgb(100%,100%,100%);stroke-opacity:1;stroke-miterlimit:4;" d="M 17 18 C 17 15.791667 18.791667 14 21 14 " transform="matrix(0.75,0,0,0.75,0.375,-0.375)"/>
<path style="fill:none;stroke-width:2;stroke-linecap:square;stroke-linejoin:miter;stroke:rgb(100%,100%,100%);stroke-opacity:1;stroke-miterlimit:4;" d="M 9 18 C 9 11.375 14.375 6 21 6 " transform="matrix(0.75,0,0,0.75,0.375,-0.375)"/>
<path style=" stroke:none;fill-rule:nonzero;fill:rgb(100%,100%,100%);fill-opacity:1;" d="M 15.375 16.125 L 17.625 16.125 L 17.625 20.625 L 15.375 20.625 Z M 15.375 16.125 "/>
<path style=" stroke:none;fill-rule:nonzero;fill:rgb(100%,100%,100%);fill-opacity:1;" d="M 17.625 13.5 C 17.625 14.121094 17.121094 14.625 16.5 14.625 C 15.878906 14.625 15.375 14.121094 15.375 13.5 C 15.375 12.878906 15.878906 12.375 16.5 12.375 C 17.121094 12.375 17.625 12.878906 17.625 13.5 Z M 17.625 13.5 "/>
</g>
</svg>
