<?xml version="1.0" encoding="UTF-8"?>
<svg xmlns="http://www.w3.org/2000/svg" xmlns:xlink="http://www.w3.org/1999/xlink" width="24pt" height="24pt" viewBox="0 0 24 24" version="1.1">
<g id="surface1">
<path style=" stroke:none;fill-rule:evenodd;fill:rgb(80%,94.117647%,74.509804%);fill-opacity:1;" d="M 5.605469 1.421875 L 18.394531 1.421875 C 20.703125 1.421875 22.578125 3.296875 22.578125 5.605469 L 22.578125 18.394531 C 22.578125 20.703125 20.703125 22.578125 18.394531 22.578125 L 5.605469 22.578125 C 3.296875 22.578125 1.421875 20.703125 1.421875 18.394531 L 1.421875 5.605469 C 1.421875 3.296875 3.296875 1.421875 5.605469 1.421875 Z M 5.605469 1.421875 "/>
<path style=" stroke:none;fill-rule:nonzero;fill:rgb(29.411765%,68.235294%,30.980392%);fill-opacity:1;" d="M 9.371094 4.40625 C 8.886719 4.40625 8.496094 4.796875 8.496094 5.285156 L 8.496094 13.460938 C 8.496094 13.945312 8.886719 14.335938 9.371094 14.335938 L 17.546875 14.335938 C 18.035156 14.335938 18.425781 13.945312 18.425781 13.460938 L 18.425781 6.160156 L 20.175781 4.40625 Z M 9.371094 4.40625 "/>
<path style=" stroke:none;fill-rule:nonzero;fill:rgb(54.117647%,76.078431%,28.627451%);fill-opacity:1;" d="M 3.824219 9.664062 L 5.574219 11.414062 L 5.574219 18.714844 C 5.574219 19.203125 5.964844 19.59375 6.453125 19.59375 L 14.628906 19.59375 C 15.113281 19.59375 15.503906 19.203125 15.503906 18.714844 L 15.503906 10.539062 C 15.503906 10.054688 15.113281 9.664062 14.628906 9.664062 Z M 3.824219 9.664062 "/>
<path style=" stroke:none;fill-rule:evenodd;fill:rgb(100%,100%,100%);fill-opacity:1;" d="M 9.773438 11.761719 L 9.457031 13.453125 L 7.703125 13.453125 L 7.703125 14.019531 L 9.351562 14.019531 L 9.035156 15.710938 L 7.703125 15.710938 L 7.703125 16.273438 L 8.929688 16.273438 L 8.613281 17.96875 L 9.210938 17.96875 L 9.527344 16.273438 L 11.019531 16.273438 L 10.703125 17.96875 L 11.300781 17.96875 L 11.617188 16.273438 L 13.671875 16.273438 L 13.671875 15.710938 L 11.722656 15.710938 L 12.039062 14.019531 L 13.671875 14.019531 L 13.671875 13.453125 L 12.144531 13.453125 L 12.460938 11.761719 L 11.863281 11.761719 L 11.546875 13.453125 L 10.054688 13.453125 L 10.371094 11.761719 Z M 9.949219 14.019531 L 11.441406 14.019531 L 11.125 15.710938 L 9.632812 15.710938 Z M 9.949219 14.019531 "/>
</g>
</svg>
