<?xml version="1.0" encoding="UTF-8"?>
<svg xmlns="http://www.w3.org/2000/svg" xmlns:xlink="http://www.w3.org/1999/xlink" width="24pt" height="24pt" viewBox="0 0 24 24" version="1.1">
<g id="surface1">
<path style=" stroke:none;fill-rule:evenodd;fill:rgb(0.784314%,52.54902%,76.078431%);fill-opacity:1;" d="M 5.605469 1.421875 L 18.394531 1.421875 C 20.703125 1.421875 22.578125 3.296875 22.578125 5.605469 L 22.578125 18.394531 C 22.578125 20.703125 20.703125 22.578125 18.394531 22.578125 L 5.605469 22.578125 C 3.296875 22.578125 1.421875 20.703125 1.421875 18.394531 L 1.421875 5.605469 C 1.421875 3.296875 3.296875 1.421875 5.605469 1.421875 Z M 5.605469 1.421875 "/>
<path style=" stroke:none;fill-rule:nonzero;fill:rgb(54.117647%,86.666667%,100%);fill-opacity:1;" d="M 6 6 L 8.25 6 L 8.25 18 L 6 18 Z M 6 6 "/>
<path style=" stroke:none;fill-rule:nonzero;fill:rgb(54.117647%,86.666667%,100%);fill-opacity:1;" d="M 13.5 6 L 15.75 6 L 15.75 18 L 13.5 18 Z M 13.5 6 "/>
<path style=" stroke:none;fill-rule:nonzero;fill:rgb(54.117647%,86.666667%,100%);fill-opacity:1;" d="M 18 6 L 18 8.25 L 11.25 8.25 L 11.25 6 Z M 18 6 "/>
</g>
</svg>
