<?xml version="1.0" encoding="UTF-8"?>
<svg xmlns="http://www.w3.org/2000/svg" xmlns:xlink="http://www.w3.org/1999/xlink" width="24pt" height="24pt" viewBox="0 0 24 24" version="1.1">
<g id="surface1">
<path style=" stroke:none;fill-rule:evenodd;fill:rgb(99.607843%,80.392157%,21.960784%);fill-opacity:1;" d="M 5.605469 1.421875 L 18.394531 1.421875 C 20.703125 1.421875 22.578125 3.296875 22.578125 5.605469 L 22.578125 18.394531 C 22.578125 20.703125 20.703125 22.578125 18.394531 22.578125 L 5.605469 22.578125 C 3.296875 22.578125 1.421875 20.703125 1.421875 18.394531 L 1.421875 5.605469 C 1.421875 3.296875 3.296875 1.421875 5.605469 1.421875 Z M 5.605469 1.421875 "/>
<path style=" stroke:none;fill-rule:nonzero;fill:rgb(100%,100%,100%);fill-opacity:1;" d="M 12.203125 4.582031 C 8.09375 4.582031 4.785156 7.890625 4.785156 12 C 4.785156 16.109375 8.09375 19.417969 12.203125 19.417969 C 14.730469 19.417969 16.957031 18.167969 18.292969 16.25 L 12.203125 12 L 19.214844 9.554688 C 18.207031 6.652344 15.457031 4.582031 12.203125 4.582031 Z M 12.203125 4.582031 "/>
<path style=" stroke:none;fill-rule:nonzero;fill:rgb(24.705882%,24.705882%,24.705882%);fill-opacity:1;" d="M 13.917969 8.003906 C 13.917969 8.636719 13.40625 9.144531 12.777344 9.144531 C 12.144531 9.144531 11.632812 8.636719 11.632812 8.003906 C 11.632812 7.375 12.144531 6.863281 12.777344 6.863281 C 13.40625 6.863281 13.917969 7.375 13.917969 8.003906 Z M 13.917969 8.003906 "/>
</g>
</svg>
