<?xml version="1.0" encoding="UTF-8"?>
<svg xmlns="http://www.w3.org/2000/svg" xmlns:xlink="http://www.w3.org/1999/xlink" width="24pt" height="24pt" viewBox="0 0 24 24" version="1.1">
<g id="surface1">
<path style=" stroke:none;fill-rule:evenodd;fill:rgb(100%,85.882353%,46.27451%);fill-opacity:1;" d="M 5.605469 1.421875 L 18.394531 1.421875 C 20.703125 1.421875 22.578125 3.296875 22.578125 5.605469 L 22.578125 18.394531 C 22.578125 20.703125 20.703125 22.578125 18.394531 22.578125 L 5.605469 22.578125 C 3.296875 22.578125 1.421875 20.703125 1.421875 18.394531 L 1.421875 5.605469 C 1.421875 3.296875 3.296875 1.421875 5.605469 1.421875 Z M 5.605469 1.421875 "/>
<path style=" stroke:none;fill-rule:evenodd;fill:rgb(97.647059%,97.647059%,97.647059%);fill-opacity:1;" d="M 14.34375 5.671875 L 8.171875 5.671875 C 6.789062 5.671875 5.671875 6.785156 5.671875 8.171875 L 5.671875 15.828125 C 5.671875 17.210938 6.789062 18.328125 8.171875 18.328125 L 15.828125 18.328125 C 17.214844 18.328125 18.328125 17.210938 18.328125 15.828125 L 18.328125 9.65625 Z M 14.34375 5.671875 "/>
<path style=" stroke:none;fill-rule:evenodd;fill:rgb(70.196078%,70.196078%,70.196078%);fill-opacity:0.32549;" d="M 18.328125 9.65625 L 14.34375 5.671875 L 14.34375 7.152344 C 14.34375 8.539062 15.460938 9.65625 16.847656 9.65625 Z M 18.328125 9.65625 "/>
<path style=" stroke:none;fill-rule:nonzero;fill:rgb(70.196078%,70.196078%,70.196078%);fill-opacity:0.498039;" d="M 8.796875 10.46875 L 8.796875 11.042969 L 15.117188 11.042969 L 15.117188 10.46875 Z M 8.796875 12.191406 L 8.796875 12.765625 L 15.117188 12.765625 L 15.117188 12.191406 Z M 8.796875 13.914062 L 8.796875 14.492188 L 15.117188 14.492188 L 15.117188 13.914062 Z M 8.796875 15.640625 L 8.796875 16.214844 L 13.394531 16.214844 L 13.394531 15.640625 Z M 8.796875 15.640625 "/>
<path style=" stroke:none;fill-rule:nonzero;fill:rgb(73.333333%,35.686275%,31.764706%);fill-opacity:1;" d="M 15.5 17.035156 L 15.394531 17.097656 L 16.789062 19.515625 L 17.148438 18.167969 L 18.472656 18.523438 L 17.128906 16.203125 C 17.097656 16.210938 17.074219 16.234375 17.039062 16.242188 C 16.8125 16.289062 16.691406 16.390625 16.574219 16.628906 C 16.40625 16.988281 16.261719 17.042969 15.566406 17.03125 C 15.546875 17.03125 15.523438 17.035156 15.5 17.035156 Z M 15.5 17.035156 "/>
<path style=" stroke:none;fill-rule:nonzero;fill:rgb(73.333333%,35.686275%,31.764706%);fill-opacity:1;" d="M 13.394531 16.214844 L 12.191406 18.300781 L 13.535156 17.941406 L 13.890625 19.265625 L 15.164062 17.054688 C 14.9375 17.0625 14.691406 17.070312 14.535156 17.097656 C 14.207031 17.152344 14.066406 17.125 13.933594 16.992188 C 13.835938 16.898438 13.757812 16.726562 13.757812 16.617188 C 13.757812 16.511719 13.589844 16.355469 13.394531 16.214844 Z M 13.394531 16.214844 "/>
<path style=" stroke:none;fill-rule:nonzero;fill:rgb(90.196078%,45.098039%,39.607843%);fill-opacity:1;" d="M 14.09375 16.671875 C 14.011719 16.589844 13.945312 16.441406 13.945312 16.34375 C 13.945312 16.242188 13.796875 16.078125 13.578125 15.941406 C 13.277344 15.75 13.210938 15.65625 13.210938 15.414062 C 13.207031 15.25 13.148438 15.015625 13.074219 14.890625 C 12.792969 14.394531 12.980469 13.894531 13.53125 13.664062 C 13.730469 13.578125 13.90625 13.40625 14.019531 13.183594 C 14.539062 12.175781 15.316406 12.039062 16.03125 12.832031 C 16.199219 13.015625 16.457031 13.210938 16.605469 13.261719 C 16.917969 13.371094 17.140625 13.75 17.140625 14.175781 C 17.140625 14.34375 17.222656 14.601562 17.324219 14.753906 C 17.546875 15.089844 17.558594 15.546875 17.34375 15.734375 C 17.257812 15.808594 17.050781 15.902344 16.882812 15.9375 C 16.660156 15.984375 16.542969 16.082031 16.429688 16.316406 C 16.265625 16.664062 16.125 16.71875 15.449219 16.707031 C 15.199219 16.703125 14.824219 16.730469 14.621094 16.761719 C 14.335938 16.808594 14.210938 16.789062 14.09375 16.671875 Z M 14.09375 16.671875 "/>
<path style=" stroke:none;fill-rule:nonzero;fill:rgb(100%,100%,100%);fill-opacity:1;" d="M 16.570312 14.710938 C 16.570312 15.445312 15.972656 16.039062 15.238281 16.039062 C 14.503906 16.039062 13.90625 15.445312 13.90625 14.710938 C 13.90625 13.972656 14.503906 13.378906 15.238281 13.378906 C 15.972656 13.378906 16.570312 13.972656 16.570312 14.710938 Z M 16.570312 14.710938 "/>
<path style=" stroke:none;fill-rule:nonzero;fill:rgb(73.333333%,35.686275%,31.764706%);fill-opacity:1;" d="M 16.3125 14.710938 C 16.3125 15.300781 15.832031 15.785156 15.238281 15.785156 C 14.644531 15.785156 14.164062 15.300781 14.164062 14.710938 C 14.164062 14.117188 14.644531 13.636719 15.238281 13.636719 C 15.832031 13.636719 16.3125 14.117188 16.3125 14.710938 Z M 16.3125 14.710938 "/>
</g>
</svg>
