<?xml version="1.0" encoding="UTF-8"?>
<svg xmlns="http://www.w3.org/2000/svg" xmlns:xlink="http://www.w3.org/1999/xlink" width="24pt" height="24pt" viewBox="0 0 24 24" version="1.1">
<g id="surface1">
<path style=" stroke:none;fill-rule:evenodd;fill:rgb(30.588235%,65.490196%,11.764706%);fill-opacity:1;" d="M 5.605469 1.421875 L 18.394531 1.421875 C 20.703125 1.421875 22.578125 3.296875 22.578125 5.605469 L 22.578125 18.394531 C 22.578125 20.703125 20.703125 22.578125 18.394531 22.578125 L 5.605469 22.578125 C 3.296875 22.578125 1.421875 20.703125 1.421875 18.394531 L 1.421875 5.605469 C 1.421875 3.296875 3.296875 1.421875 5.605469 1.421875 Z M 5.605469 1.421875 "/>
<path style=" stroke:none;fill-rule:nonzero;fill:rgb(100%,100%,100%);fill-opacity:1;" d="M 12 5.726562 C 10.109375 5.726562 8.578125 7.257812 8.578125 9.148438 C 8.578125 11.039062 10.109375 12.570312 12 12.570312 C 13.890625 12.570312 15.421875 11.039062 15.421875 9.148438 C 15.421875 7.257812 13.890625 5.726562 12 5.726562 Z M 12 6.296875 C 12.945312 6.296875 13.710938 7.0625 13.710938 8.007812 C 13.710938 8.953125 12.945312 9.71875 12 9.71875 C 11.054688 9.71875 10.289062 8.953125 10.289062 8.007812 C 10.289062 7.0625 11.054688 6.296875 12 6.296875 Z M 12 6.296875 "/>
<path style=" stroke:none;fill-rule:nonzero;fill:rgb(100%,100%,100%);fill-opacity:1;" d="M 10.289062 11.429688 L 10.289062 17.09375 L 12 18.273438 L 13.710938 17.09375 L 13.710938 16.601562 L 14.28125 16.03125 L 13.710938 15.460938 L 13.710938 14.851562 L 14.851562 13.996094 L 13.710938 13.140625 L 13.710938 11.429688 Z M 10.859375 13.140625 L 11.429688 13.140625 L 11.429688 16.5625 L 10.859375 16.5625 Z M 10.859375 13.140625 "/>
</g>
</svg>
