<?xml version="1.0" encoding="UTF-8"?>
<svg xmlns="http://www.w3.org/2000/svg" xmlns:xlink="http://www.w3.org/1999/xlink" width="24pt" height="24pt" viewBox="0 0 24 24" version="1.1">
<g id="surface1">
<path style=" stroke:none;fill-rule:evenodd;fill:rgb(26.666667%,34.117647%,61.568627%);fill-opacity:1;" d="M 5.605469 1.421875 L 18.394531 1.421875 C 20.703125 1.421875 22.578125 3.296875 22.578125 5.605469 L 22.578125 18.394531 C 22.578125 20.703125 20.703125 22.578125 18.394531 22.578125 L 5.605469 22.578125 C 3.296875 22.578125 1.421875 20.703125 1.421875 18.394531 L 1.421875 5.605469 C 1.421875 3.296875 3.296875 1.421875 5.605469 1.421875 Z M 5.605469 1.421875 "/>
<path style=" stroke:none;fill-rule:nonzero;fill:rgb(100%,100%,100%);fill-opacity:1;" d="M 4.578125 6.242188 L 4.578125 17.769531 L 6.929688 17.769531 L 6.929688 15.210938 L 8.84375 12.941406 L 11.714844 17.769531 L 14.625 17.769531 L 10.277344 11.152344 L 14.316406 6.242188 L 11.671875 6.242188 L 6.929688 12.441406 L 6.929688 6.242188 Z M 16.425781 10.179688 L 16.425781 17.8125 L 19.167969 17.8125 L 19.167969 10.179688 Z M 16.425781 10.179688 "/>
<path style=" stroke:none;fill-rule:nonzero;fill:rgb(100%,54.509804%,0%);fill-opacity:1;" d="M 17.886719 9.230469 C 17.464844 9.230469 17.101562 9.082031 16.789062 8.789062 C 16.496094 8.496094 16.351562 8.140625 16.351562 7.722656 C 16.351562 7.28125 16.496094 6.917969 16.789062 6.625 C 17.082031 6.332031 17.449219 6.1875 17.886719 6.1875 C 18.324219 6.1875 18.691406 6.332031 18.984375 6.625 C 19.277344 6.917969 19.421875 7.28125 19.421875 7.722656 C 19.421875 8.140625 19.265625 8.496094 18.957031 8.789062 C 18.664062 9.082031 18.308594 9.230469 17.886719 9.230469 Z M 17.886719 9.230469 "/>
</g>
</svg>
