<?xml version="1.0" encoding="UTF-8"?>
<svg xmlns="http://www.w3.org/2000/svg" xmlns:xlink="http://www.w3.org/1999/xlink" width="24pt" height="24pt" viewBox="0 0 24 24" version="1.1">
<g id="surface1">
<path style=" stroke:none;fill-rule:evenodd;fill:rgb(0%,72.156863%,54.117647%);fill-opacity:1;" d="M 5.605469 1.421875 L 18.394531 1.421875 C 20.703125 1.421875 22.578125 3.296875 22.578125 5.605469 L 22.578125 18.394531 C 22.578125 20.703125 20.703125 22.578125 18.394531 22.578125 L 5.605469 22.578125 C 3.296875 22.578125 1.421875 20.703125 1.421875 18.394531 L 1.421875 5.605469 C 1.421875 3.296875 3.296875 1.421875 5.605469 1.421875 Z M 5.605469 1.421875 "/>
<path style=" stroke:none;fill-rule:nonzero;fill:rgb(100%,96.862745%,38.823529%);fill-opacity:1;" d="M 12 3.75 C 7.445312 3.75 3.75 7.445312 3.75 12 C 3.75 16.554688 7.445312 20.25 12 20.25 C 16.554688 20.25 20.25 16.554688 20.25 12 C 20.25 7.445312 16.554688 3.75 12 3.75 Z M 10.5 5.25 L 13.5 5.25 L 12 11.25 Z M 8.289062 6.167969 L 9.878906 8.816406 L 11.46875 11.46875 L 8.816406 9.878906 L 6.167969 8.289062 L 7.226562 7.226562 Z M 15.710938 6.167969 L 16.773438 7.226562 L 17.832031 8.289062 L 15.183594 9.878906 L 12.53125 11.46875 L 14.121094 8.816406 Z M 5.25 10.515625 L 11.25 12.015625 L 5.25 13.515625 Z M 18.75 10.515625 L 18.75 13.515625 L 12.75 12.015625 Z M 11.46875 12.546875 L 8.289062 17.851562 L 6.167969 15.730469 L 8.820312 14.136719 Z M 12.53125 12.546875 L 15.183594 14.136719 L 17.832031 15.730469 L 15.710938 17.851562 Z M 12 12.773438 L 13.5 18.773438 L 10.5 18.773438 Z M 12 12.773438 "/>
</g>
</svg>
