<?xml version="1.0" encoding="UTF-8"?>
<svg xmlns="http://www.w3.org/2000/svg" xmlns:xlink="http://www.w3.org/1999/xlink" width="24pt" height="24pt" viewBox="0 0 24 24" version="1.1">
<g id="surface1">
<path style=" stroke:none;fill-rule:evenodd;fill:rgb(56.078431%,15.294118%,7.45098%);fill-opacity:1;" d="M 5.605469 1.421875 L 18.394531 1.421875 C 20.703125 1.421875 22.578125 3.296875 22.578125 5.605469 L 22.578125 18.394531 C 22.578125 20.703125 20.703125 22.578125 18.394531 22.578125 L 5.605469 22.578125 C 3.296875 22.578125 1.421875 20.703125 1.421875 18.394531 L 1.421875 5.605469 C 1.421875 3.296875 3.296875 1.421875 5.605469 1.421875 Z M 5.605469 1.421875 "/>
<path style=" stroke:none;fill-rule:nonzero;fill:rgb(72.156863%,19.607843%,16.078431%);fill-opacity:1;" d="M 11.589844 8.1875 L 12.410156 8.1875 C 13.085938 8.1875 13.632812 8.699219 13.632812 9.332031 L 13.632812 18.476562 C 13.632812 19.109375 13.085938 19.621094 12.410156 19.621094 L 11.589844 19.621094 C 10.914062 19.621094 10.367188 19.109375 10.367188 18.476562 L 10.367188 9.332031 C 10.367188 8.699219 10.914062 8.1875 11.589844 8.1875 Z M 11.589844 8.1875 "/>
<path style=" stroke:none;fill-rule:nonzero;fill:rgb(83.529412%,29.803922%,25.490196%);fill-opacity:1;" d="M 11.105469 11.992188 C 9.304688 11.957031 8.574219 11.929688 8.128906 11.871094 C 7.800781 11.828125 7.640625 11.785156 7.457031 11.695312 C 7.160156 11.546875 6.972656 11.339844 6.835938 11.007812 C 6.714844 10.703125 6.664062 10.460938 6.617188 9.949219 C 6.566406 9.371094 6.5625 9.269531 6.558594 8.367188 C 6.550781 7.3125 6.5625 6.964844 6.636719 6.261719 C 6.671875 5.894531 6.726562 5.648438 6.828125 5.390625 C 6.921875 5.152344 7.007812 5.023438 7.160156 4.878906 C 7.355469 4.699219 7.566406 4.589844 7.835938 4.53125 C 8.238281 4.445312 10.050781 4.378906 12 4.378906 C 13.953125 4.378906 15.765625 4.445312 16.164062 4.53125 C 16.457031 4.59375 16.667969 4.710938 16.875 4.917969 C 17.039062 5.078125 17.125 5.226562 17.222656 5.527344 C 17.324219 5.835938 17.363281 6.109375 17.421875 6.917969 C 17.449219 7.304688 17.449219 9.070312 17.421875 9.457031 C 17.390625 9.90625 17.351562 10.304688 17.324219 10.449219 C 17.257812 10.816406 17.121094 11.160156 16.972656 11.355469 C 16.867188 11.492188 16.664062 11.652344 16.492188 11.734375 C 16.320312 11.8125 16.15625 11.855469 15.890625 11.878906 C 15.066406 11.960938 12.554688 12.019531 11.105469 11.992188 Z M 11.105469 11.992188 "/>
<path style="fill:none;stroke-width:1.377649;stroke-linecap:round;stroke-linejoin:round;stroke:rgb(99.607843%,99.607843%,99.607843%);stroke-opacity:1;stroke-miterlimit:4;" d="M 8.501849 11.501114 L 8.501849 6.49996 L 10.597024 8.501856 L 12.498467 6.49996 L 12.498467 11.501114 " transform="matrix(0.544406,0,0,0.544406,3.289514,3.28951)"/>
<path style="fill:none;stroke-width:1.377649;stroke-linecap:round;stroke-linejoin:round;stroke:rgb(99.607843%,99.607843%,99.607843%);stroke-opacity:1;stroke-miterlimit:4;" d="M 14.500364 11.501114 L 16.602714 6.49996 L 18.705064 11.501114 " transform="matrix(0.544406,0,0,0.544406,3.289514,3.28951)"/>
<path style="fill:none;stroke-width:1.377649;stroke-linecap:round;stroke-linejoin:round;stroke:rgb(99.607843%,99.607843%,99.607843%);stroke-opacity:1;stroke-miterlimit:4;" d="M 21.503414 11.501114 L 21.503414 6.49996 " transform="matrix(0.544406,0,0,0.544406,3.289514,3.28951)"/>
<path style="fill:none;stroke-width:1.377649;stroke-linecap:round;stroke-linejoin:round;stroke:rgb(99.607843%,99.607843%,99.607843%);stroke-opacity:1;stroke-miterlimit:4;" d="M 19.508693 6.49996 L 23.498136 6.49996 " transform="matrix(0.544406,0,0,0.544406,3.289514,3.28951)"/>
<path style="fill:none;stroke-width:1.377649;stroke-linecap:butt;stroke-linejoin:miter;stroke:rgb(99.607843%,99.607843%,99.607843%);stroke-opacity:1;stroke-miterlimit:4;" d="M 15.203539 10.496578 L 18.001889 10.496578 " transform="matrix(0.544406,0,0,0.544406,3.289514,3.28951)"/>
</g>
</svg>
