<?xml version="1.0" encoding="UTF-8"?>
<svg xmlns="http://www.w3.org/2000/svg" xmlns:xlink="http://www.w3.org/1999/xlink" width="24pt" height="24pt" viewBox="0 0 24 24" version="1.1">
<defs>
<filter id="alpha" filterUnits="objectBoundingBox" x="0%" y="0%" width="100%" height="100%">
  <feColorMatrix type="matrix" in="SourceGraphic" values="0 0 0 0 1 0 0 0 0 1 0 0 0 0 1 0 0 0 1 0"/>
</filter>
<mask id="mask0">
  <g filter="url(#alpha)">
<rect x="0" y="0" width="24" height="24" style="fill:rgb(0%,0%,0%);fill-opacity:0.101961;stroke:none;"/>
  </g>
</mask>
<clipPath id="clip1">
  <rect width="24" height="24"/>
</clipPath>
<g id="surface6" clip-path="url(#clip1)">
<path style=" stroke:none;fill-rule:nonzero;fill:rgb(100%,100%,100%);fill-opacity:1;" d="M 7.511719 5.269531 C 5.339844 6.71875 3.910156 9.191406 3.910156 12.007812 L 10.390625 12.007812 C 10.390625 11.351562 10.78125 10.792969 11.34375 10.539062 Z M 7.511719 5.269531 "/>
</g>
<mask id="mask1">
  <g filter="url(#alpha)">
<rect x="0" y="0" width="24" height="24" style="fill:rgb(0%,0%,0%);fill-opacity:0.101961;stroke:none;"/>
  </g>
</mask>
<clipPath id="clip2">
  <rect width="24" height="24"/>
</clipPath>
<g id="surface9" clip-path="url(#clip2)">
<path style=" stroke:none;fill-rule:nonzero;fill:rgb(100%,100%,100%);fill-opacity:1;" d="M 16.488281 18.730469 C 18.660156 17.28125 20.089844 14.808594 20.089844 11.992188 L 13.609375 11.992188 C 13.609375 12.648438 13.21875 13.207031 12.65625 13.460938 Z M 16.488281 18.730469 "/>
</g>
<linearGradient id="linear0" gradientUnits="userSpaceOnUse" x1="409.57001" y1="540.79999" x2="409.57001" y2="506.79999" gradientTransform="matrix(0.0635111,0,0,-0.0635111,-13.948033,45.265975)">
<stop offset="0" style="stop-color:rgb(16.470588%,17.254902%,18.431373%);stop-opacity:1;"/>
<stop offset="1" style="stop-color:rgb(25.882353%,27.45098%,28.627451%);stop-opacity:1;"/>
</linearGradient>
</defs>
<g id="surface1">
<path style=" stroke:none;fill-rule:evenodd;fill:rgb(99.607843%,72.54902%,14.509804%);fill-opacity:1;" d="M 5.605469 1.421875 L 18.394531 1.421875 C 20.703125 1.421875 22.578125 3.296875 22.578125 5.605469 L 22.578125 18.394531 C 22.578125 20.703125 20.703125 22.578125 18.394531 22.578125 L 5.605469 22.578125 C 3.296875 22.578125 1.421875 20.703125 1.421875 18.394531 L 1.421875 5.605469 C 1.421875 3.296875 3.296875 1.421875 5.605469 1.421875 Z M 5.605469 1.421875 "/>
<path style=" stroke:none;fill-rule:nonzero;fill:rgb(30.980392%,30.980392%,30.980392%);fill-opacity:1;" d="M 20.097656 12 C 20.097656 16.472656 16.472656 20.097656 12 20.097656 C 7.527344 20.097656 3.902344 16.472656 3.902344 12 C 3.902344 7.527344 7.527344 3.902344 12 3.902344 C 16.472656 3.902344 20.097656 7.527344 20.097656 12 Z M 20.097656 12 "/>
<use xlink:href="#surface6" mask="url(#mask0)"/>
<use xlink:href="#surface9" mask="url(#mask1)"/>
<path style=" stroke:none;fill-rule:nonzero;fill:rgb(99.607843%,72.54902%,14.509804%);fill-opacity:1;" d="M 12 8.761719 C 13.789062 8.761719 15.238281 10.210938 15.238281 12 C 15.238281 13.789062 13.789062 15.238281 12 15.238281 C 10.210938 15.238281 8.761719 13.789062 8.761719 12 C 8.761719 10.210938 10.210938 8.761719 12 8.761719 Z M 12 8.761719 "/>
<path style=" stroke:none;fill-rule:nonzero;fill:url(#linear0);" d="M 12 13.078125 C 12.597656 13.078125 13.078125 12.597656 13.078125 12 C 13.078125 11.402344 12.597656 10.921875 12 10.921875 C 11.402344 10.921875 10.921875 11.402344 10.921875 12 C 10.921875 12.597656 11.402344 13.078125 12 13.078125 Z M 12 13.078125 "/>
</g>
</svg>
