<?xml version="1.0" encoding="UTF-8"?>
<svg xmlns="http://www.w3.org/2000/svg" xmlns:xlink="http://www.w3.org/1999/xlink" width="24pt" height="24pt" viewBox="0 0 24 24" version="1.1">
<defs>
<filter id="alpha" filterUnits="objectBoundingBox" x="0%" y="0%" width="100%" height="100%">
  <feColorMatrix type="matrix" in="SourceGraphic" values="0 0 0 0 1 0 0 0 0 1 0 0 0 0 1 0 0 0 1 0"/>
</filter>
<mask id="mask0">
  <g filter="url(#alpha)">
<rect x="0" y="0" width="24" height="24" style="fill:rgb(0%,0%,0%);fill-opacity:0.976471;stroke:none;"/>
  </g>
</mask>
<radialGradient id="radial0" gradientUnits="userSpaceOnUse" cx="-12.409483" cy="2.821966" fx="-12.409483" fy="2.821966" r="14.101694" gradientTransform="matrix(-0.729329,-0.698562,0.688322,-0.718637,5.711602,1.271077)">
<stop offset="0" style="stop-color:rgb(100%,100%,100%);stop-opacity:1;"/>
<stop offset="1" style="stop-color:rgb(100%,100%,43.529412%);stop-opacity:0;"/>
</radialGradient>
<clipPath id="clip1">
  <rect width="24" height="24"/>
</clipPath>
<g id="surface6" clip-path="url(#clip1)">
<path style=" stroke:none;fill-rule:evenodd;fill:url(#radial0);" d="M 5.652344 1.414062 L 18.441406 1.414062 C 20.75 1.414062 22.621094 3.285156 22.621094 5.597656 L 22.621094 18.386719 C 22.621094 20.695312 20.75 22.566406 18.441406 22.566406 L 5.652344 22.566406 C 3.34375 22.566406 1.46875 20.695312 1.46875 18.386719 L 1.46875 5.597656 C 1.46875 3.285156 3.34375 1.414062 5.652344 1.414062 Z M 5.652344 1.414062 "/>
</g>
<mask id="mask1">
  <g filter="url(#alpha)">
<rect x="0" y="0" width="24" height="24" style="fill:rgb(0%,0%,0%);fill-opacity:0.976471;stroke:none;"/>
  </g>
</mask>
<clipPath id="clip2">
  <rect width="24" height="24"/>
</clipPath>
<g id="surface9" clip-path="url(#clip2)">
<path style=" stroke:none;fill-rule:evenodd;fill:rgb(58.823529%,77.254902%,1.176471%);fill-opacity:1;" d="M 22.53125 18.996094 L 21.984375 17.605469 C 21.984375 17.605469 20.253906 19.410156 20.253906 19.234375 C 20.253906 19.054688 19.878906 17.605469 19.878906 17.605469 L 18.453125 19.363281 L 17.773438 18.308594 L 16.042969 19.453125 L 15.398438 18.003906 L 14.277344 19.671875 L 12.75 18.003906 L 11.664062 19.761719 L 10.78125 17.914062 L 9.902344 19.71875 L 8.542969 17.871094 L 7.933594 19.9375 L 6.949219 18.046875 L 6.234375 19.234375 L 4.570312 17.695312 C 4.570312 17.695312 4.128906 19.234375 4.0625 19.804688 C 4.027344 20.089844 3.703125 19.386719 3.390625 18.613281 C 3.078125 17.835938 2.773438 16.992188 2.773438 16.992188 C 2.773438 16.992188 2.144531 18.457031 1.71875 19.46875 C 2.203125 21.242188 3.75 22.566406 5.683594 22.566406 L 18.472656 22.566406 C 20.570312 22.566406 22.226562 21.007812 22.53125 18.996094 Z M 22.53125 18.996094 "/>
</g>
<mask id="mask2">
  <g filter="url(#alpha)">
<rect x="0" y="0" width="24" height="24" style="fill:rgb(0%,0%,0%);fill-opacity:0.976471;stroke:none;"/>
  </g>
</mask>
<clipPath id="clip3">
  <rect width="24" height="24"/>
</clipPath>
<g id="surface12" clip-path="url(#clip3)">
<path style=" stroke:none;fill-rule:evenodd;fill:rgb(67.843137%,85.882353%,12.156863%);fill-opacity:1;" d="M 22.5625 17.660156 C 22.085938 18.417969 21.703125 19.324219 21.402344 20.359375 C 21.480469 18.699219 21.667969 17.089844 21.84375 15.472656 C 21.480469 16.871094 21.136719 18.269531 20.839844 19.65625 C 20.757812 19.25 20.660156 18.878906 20.566406 18.5 C 20.652344 17.664062 20.777344 16.960938 20.976562 16.507812 C 20.828125 16.757812 20.699219 17.039062 20.574219 17.332031 C 20.621094 16.90625 20.660156 16.472656 20.703125 16.042969 C 20.570312 16.554688 20.445312 17.0625 20.316406 17.574219 C 20.1875 17.164062 20.046875 16.78125 19.886719 16.445312 C 20.027344 16.835938 20.117188 17.425781 20.1875 18.09375 C 20.058594 18.628906 19.9375 19.160156 19.820312 19.691406 C 19.710938 19.273438 19.589844 18.855469 19.472656 18.4375 C 19.566406 17.367188 19.683594 16.304688 19.796875 15.242188 C 19.597656 16.011719 19.40625 16.777344 19.222656 17.542969 C 19.027344 16.875 18.824219 16.203125 18.613281 15.535156 C 18.6875 16.105469 18.765625 16.675781 18.839844 17.246094 C 18.808594 17.171875 18.777344 17.085938 18.742188 17.015625 C 18.796875 17.171875 18.839844 17.402344 18.882812 17.605469 C 18.921875 17.921875 18.957031 18.238281 18.992188 18.554688 C 18.976562 18.621094 18.960938 18.683594 18.949219 18.75 C 18.816406 18.421875 18.679688 18.105469 18.523438 17.828125 C 18.664062 18.167969 18.765625 18.648438 18.84375 19.199219 C 18.828125 19.273438 18.808594 19.351562 18.792969 19.425781 C 18.546875 18.191406 18.253906 17.066406 17.839844 16.214844 C 18.152344 17.078125 18.261719 18.746094 18.277344 20.8125 C 18.140625 20.308594 17.996094 19.816406 17.828125 19.378906 C 17.726562 19.046875 17.640625 18.714844 17.539062 18.382812 C 17.65625 18.070312 17.773438 17.753906 17.921875 17.433594 C 17.777344 17.675781 17.621094 17.910156 17.464844 18.144531 C 17.382812 17.875 17.316406 17.609375 17.230469 17.339844 C 17.273438 17.667969 17.316406 17.992188 17.359375 18.316406 C 17.246094 18.488281 17.132812 18.664062 17.023438 18.839844 C 16.863281 18.390625 16.683594 17.964844 16.476562 17.597656 C 16.636719 17.980469 16.75 18.523438 16.832031 19.171875 C 16.757812 19.300781 16.683594 19.429688 16.613281 19.5625 C 16.433594 19.722656 16.277344 19.933594 16.125 20.164062 C 16.019531 20.070312 15.910156 19.980469 15.792969 19.902344 C 15.773438 19.910156 15.757812 19.929688 15.738281 19.941406 C 15.722656 19.921875 15.707031 19.902344 15.691406 19.882812 C 15.796875 19.167969 15.914062 18.503906 16.089844 17.980469 C 15.832031 18.421875 15.613281 18.941406 15.417969 19.511719 C 15.261719 19.214844 15.09375 18.933594 14.917969 18.664062 C 14.929688 18.628906 14.9375 18.582031 14.945312 18.550781 C 14.929688 18.578125 14.914062 18.613281 14.898438 18.640625 C 14.59375 18.183594 14.265625 17.753906 13.886719 17.386719 C 13.949219 17.492188 13.972656 17.65625 14.03125 17.773438 C 14.035156 17.765625 14.039062 17.757812 14.042969 17.75 C 14.039062 17.757812 14.035156 17.769531 14.035156 17.78125 C 14.246094 18.230469 14.445312 18.707031 14.589844 19.261719 C 14.578125 19.289062 14.566406 19.316406 14.554688 19.34375 C 14.492188 19.402344 14.433594 19.46875 14.375 19.539062 C 14.226562 19.101562 14.070312 18.679688 13.917969 18.246094 C 13.957031 18.09375 13.992188 17.921875 14.035156 17.78125 C 14.03125 17.777344 14.03125 17.773438 14.03125 17.773438 C 13.972656 17.875 13.921875 17.992188 13.867188 18.097656 C 13.859375 18.074219 13.847656 18.050781 13.839844 18.023438 C 13.847656 18.054688 13.851562 18.082031 13.859375 18.113281 C 13.742188 18.34375 13.636719 18.59375 13.53125 18.855469 C 13.519531 18.132812 13.523438 17.476562 13.65625 17.039062 C 13.335938 17.699219 13.234375 18.765625 13.089844 19.707031 C 12.957031 19.339844 12.824219 18.976562 12.699219 18.59375 C 12.816406 19.054688 12.917969 19.503906 13 19.953125 C 12.878906 20.125 12.765625 20.320312 12.664062 20.535156 C 12.585938 20.167969 12.492188 19.820312 12.390625 19.503906 C 12.378906 18.75 12.378906 18.058594 12.511719 17.609375 C 12.351562 17.9375 12.246094 18.371094 12.164062 18.839844 C 12.039062 18.496094 11.914062 18.152344 11.792969 17.796875 C 11.917969 18.277344 12.019531 18.75 12.109375 19.21875 C 12.050781 19.585938 11.996094 19.960938 11.941406 20.320312 C 11.820312 20.0625 11.675781 19.816406 11.5 19.507812 C 11.484375 18.40625 11.429688 17.414062 11.609375 16.808594 C 11.390625 17.257812 11.277344 17.902344 11.183594 18.566406 C 11.113281 18.214844 11.042969 17.871094 10.9375 17.566406 C 10.964844 17.507812 10.988281 17.445312 11.015625 17.386719 C 10.980469 17.429688 10.953125 17.476562 10.917969 17.519531 C 10.855469 17.347656 10.789062 17.179688 10.707031 17.039062 C 10.769531 17.210938 10.808594 17.414062 10.832031 17.636719 C 10.699219 17.804688 10.566406 17.96875 10.449219 18.152344 C 10.460938 18.109375 10.46875 18.070312 10.484375 18.023438 C 10.445312 18.121094 10.40625 18.207031 10.367188 18.300781 C 10.109375 18.71875 9.882812 19.179688 9.675781 19.671875 C 9.601562 19.546875 9.515625 19.386719 9.425781 19.222656 C 9.550781 18.757812 9.695312 18.324219 9.875 17.957031 C 9.636719 18.230469 9.429688 18.539062 9.230469 18.867188 C 9.21875 18.847656 9.214844 18.84375 9.207031 18.824219 C 9.214844 18.84375 9.214844 18.855469 9.222656 18.875 C 9.070312 19.125 8.921875 19.386719 8.789062 19.664062 C 8.675781 19.386719 8.546875 19.136719 8.417969 18.886719 C 8.5625 18.242188 8.734375 17.640625 8.96875 17.15625 C 8.664062 17.511719 8.402344 17.921875 8.15625 18.363281 C 8.148438 18.347656 8.140625 18.332031 8.132812 18.316406 C 8.167969 17.992188 8.207031 17.667969 8.242188 17.339844 C 8.171875 17.609375 8.113281 17.875 8.042969 18.144531 C 7.914062 17.910156 7.789062 17.675781 7.667969 17.433594 C 7.773438 17.710938 7.855469 17.984375 7.941406 18.257812 C 7.886719 18.167969 7.832031 18.066406 7.773438 17.980469 C 7.839844 18.148438 7.886719 18.359375 7.941406 18.550781 C 7.910156 18.679688 7.882812 18.808594 7.851562 18.9375 C 7.714844 19.226562 7.585938 19.523438 7.46875 19.839844 C 7.316406 19.511719 7.160156 19.191406 6.992188 18.886719 C 7.027344 18.5625 7.066406 18.234375 7.101562 17.910156 C 7.03125 18.179688 6.972656 18.445312 6.902344 18.714844 C 6.863281 18.644531 6.828125 18.570312 6.789062 18.5 C 6.882812 17.507812 6.988281 16.519531 7.09375 15.535156 C 6.828125 16.558594 6.578125 17.578125 6.34375 18.597656 C 6.253906 18.429688 6.175781 18.25 6.089844 18.085938 C 6.125 17.761719 6.160156 17.433594 6.195312 17.109375 C 6.125 17.378906 6.066406 17.644531 5.996094 17.914062 C 5.933594 17.792969 5.867188 17.667969 5.804688 17.546875 C 5.855469 17.066406 5.898438 16.582031 5.953125 16.101562 C 5.851562 16.492188 5.757812 16.882812 5.65625 17.273438 C 5.644531 17.25 5.632812 17.226562 5.621094 17.203125 C 5.632812 17.234375 5.640625 17.265625 5.652344 17.296875 C 5.625 17.410156 5.59375 17.519531 5.566406 17.632812 C 5.433594 17.226562 5.296875 16.839844 5.132812 16.507812 C 5.273438 16.894531 5.363281 17.488281 5.433594 18.160156 C 5.261719 18.871094 5.097656 19.578125 4.945312 20.285156 C 4.863281 19.863281 4.761719 19.480469 4.664062 19.089844 C 4.691406 18.734375 4.734375 18.382812 4.765625 18.03125 C 4.792969 17.96875 4.8125 17.882812 4.839844 17.828125 C 4.816406 17.859375 4.800781 17.898438 4.777344 17.933594 C 4.863281 17.054688 4.953125 16.175781 5.046875 15.304688 C 4.808594 16.21875 4.582031 17.132812 4.371094 18.042969 C 4.253906 17.695312 4.132812 17.363281 3.988281 17.074219 C 4.113281 17.417969 4.199219 17.921875 4.269531 18.488281 C 4.261719 18.523438 4.253906 18.554688 4.246094 18.589844 C 4.09375 18.1875 3.933594 17.804688 3.746094 17.46875 C 3.914062 17.875 4.023438 18.492188 4.109375 19.195312 C 4.101562 19.222656 4.09375 19.253906 4.085938 19.285156 C 4.066406 19.332031 4.050781 19.386719 4.03125 19.4375 C 3.808594 18.324219 3.539062 17.3125 3.179688 16.5 C 3.1875 16.484375 3.191406 16.460938 3.199219 16.445312 C 3.191406 16.460938 3.1875 16.476562 3.179688 16.492188 C 3.148438 16.421875 3.117188 16.34375 3.085938 16.277344 C 3.113281 16.347656 3.125 16.464844 3.148438 16.546875 C 2.808594 17.148438 2.554688 17.894531 2.324219 18.695312 C 2.144531 18.160156 1.9375 17.664062 1.703125 17.238281 C 1.90625 17.734375 2.03125 18.503906 2.117188 19.425781 C 2.097656 19.507812 2.070312 19.574219 2.050781 19.65625 C 1.863281 18.921875 1.625 18.179688 1.410156 17.445312 C 1.078125 20.960938 3.308594 22.691406 6.074219 22.5625 C 7.722656 22.609375 12.402344 22.566406 14.324219 22.566406 C 14.359375 22.175781 14.386719 21.757812 14.429688 21.382812 C 14.472656 21.78125 14.492188 22.171875 14.523438 22.566406 L 16.734375 22.566406 L 16.890625 22.445312 C 16.910156 22.484375 16.929688 22.527344 16.949219 22.566406 L 18.382812 22.566406 C 20.03125 22.566406 21.472656 21.683594 22.152344 20.199219 C 22.167969 19.992188 22.132812 19.703125 22.15625 19.511719 C 22.238281 18.785156 22.386719 18.265625 22.5625 17.8125 Z M 5.789062 17.703125 C 5.835938 17.855469 5.890625 18.003906 5.9375 18.15625 C 5.898438 18.308594 5.867188 18.460938 5.828125 18.613281 C 5.796875 18.480469 5.769531 18.34375 5.734375 18.21875 C 5.753906 18.046875 5.769531 17.875 5.789062 17.703125 Z M 10.839844 17.808594 C 10.890625 18.535156 10.828125 19.464844 10.84375 20.464844 C 10.816406 20.570312 10.785156 20.671875 10.75 20.761719 C 10.625 20.523438 10.46875 20.277344 10.28125 19.9375 C 10.421875 19.144531 10.601562 18.421875 10.839844 17.808594 Z M 13.902344 18.308594 C 14.019531 18.792969 14.117188 19.273438 14.199219 19.742188 C 14 20.015625 13.820312 20.328125 13.636719 20.632812 C 13.84375 20.453125 14.042969 20.234375 14.25 20.054688 C 14.253906 20.078125 14.257812 20.097656 14.261719 20.121094 C 14.054688 20.738281 13.875 21.421875 13.722656 22.164062 C 13.671875 21.769531 13.601562 21.421875 13.519531 21.09375 C 13.535156 20.839844 13.542969 20.589844 13.542969 20.339844 C 13.632812 19.578125 13.753906 18.90625 13.902344 18.308594 Z M 6.042969 18.476562 C 6.109375 18.707031 6.160156 18.929688 6.214844 19.15625 C 6.175781 19.34375 6.128906 19.53125 6.089844 19.714844 C 6.054688 19.546875 6.011719 19.398438 5.976562 19.234375 C 6.003906 18.984375 6.015625 18.726562 6.042969 18.476562 Z M 17.410156 18.707031 C 17.464844 19.097656 17.511719 19.492188 17.558594 19.886719 C 17.460938 19.777344 17.359375 19.671875 17.25 19.578125 C 17.234375 19.519531 17.21875 19.457031 17.199219 19.402344 C 17.265625 19.171875 17.332031 18.941406 17.410156 18.707031 Z M 6.765625 18.722656 C 6.789062 18.800781 6.816406 18.878906 6.839844 18.953125 C 6.808594 19.082031 6.78125 19.207031 6.75 19.335938 C 6.738281 19.34375 6.726562 19.351562 6.714844 19.359375 C 6.714844 19.355469 6.710938 19.351562 6.710938 19.34375 C 6.726562 19.136719 6.746094 18.929688 6.765625 18.722656 Z M 6.949219 19.277344 C 6.96875 19.34375 6.984375 19.410156 7 19.476562 C 6.980469 19.464844 6.957031 19.453125 6.933594 19.4375 C 6.941406 19.386719 6.941406 19.332031 6.949219 19.277344 Z M 9.386719 19.394531 C 9.445312 19.578125 9.515625 19.777344 9.558594 19.941406 C 9.425781 20.28125 9.304688 20.632812 9.191406 21 C 9.171875 20.890625 9.136719 20.796875 9.113281 20.691406 C 9.1875 20.234375 9.28125 19.804688 9.386719 19.394531 Z M 8.230469 19.742188 C 8.28125 20.027344 8.335938 20.304688 8.378906 20.613281 C 8.261719 20.921875 8.152344 21.242188 8.046875 21.570312 C 8.035156 21.496094 8.011719 21.433594 7.996094 21.359375 C 8.023438 21.140625 8.054688 20.933594 8.085938 20.71875 C 8.144531 20.769531 8.203125 20.820312 8.261719 20.863281 C 8.207031 20.789062 8.152344 20.71875 8.097656 20.644531 C 8.140625 20.339844 8.179688 20.03125 8.230469 19.742188 Z M 14.71875 19.753906 C 14.71875 19.753906 14.71875 19.757812 14.722656 19.757812 C 14.800781 20.097656 14.867188 20.457031 14.929688 20.820312 C 14.875 20.90625 14.824219 20.988281 14.769531 21.078125 C 14.714844 20.777344 14.652344 20.492188 14.582031 20.234375 C 14.605469 20.085938 14.621094 19.925781 14.648438 19.789062 C 14.671875 19.777344 14.695312 19.761719 14.71875 19.753906 Z M 11.5 19.847656 C 11.625 20.269531 11.714844 20.660156 11.757812 21.011719 C 11.648438 20.789062 11.5625 20.527344 11.496094 20.226562 C 11.496094 20.101562 11.5 19.972656 11.5 19.847656 Z M 6.960938 19.980469 C 7.023438 20 7.085938 20.035156 7.148438 20.0625 C 7.179688 20.203125 7.214844 20.34375 7.242188 20.484375 C 7.210938 20.582031 7.175781 20.671875 7.144531 20.773438 C 7.09375 20.492188 7.023438 20.234375 6.949219 19.992188 C 6.953125 19.988281 6.957031 19.984375 6.960938 19.980469 Z M 10.257812 20.089844 C 10.386719 20.476562 10.488281 20.839844 10.546875 21.152344 C 10.46875 21.257812 10.378906 21.332031 10.269531 21.375 C 10.226562 21.148438 10.1875 21.015625 10.148438 20.851562 C 10.183594 20.597656 10.214844 20.335938 10.257812 20.089844 Z M 16.304688 20.273438 C 16.300781 20.289062 16.296875 20.308594 16.289062 20.324219 C 16.285156 20.316406 16.277344 20.3125 16.269531 20.304688 C 16.28125 20.292969 16.292969 20.285156 16.304688 20.273438 Z M 16.945312 20.394531 C 16.960938 20.640625 16.96875 20.910156 16.976562 21.175781 C 16.929688 21.105469 16.875 21.042969 16.824219 20.972656 C 16.859375 20.78125 16.902344 20.589844 16.945312 20.394531 Z M 14.964844 21.023438 C 14.96875 21.050781 14.972656 21.074219 14.976562 21.097656 C 14.9375 21.265625 14.898438 21.421875 14.863281 21.59375 C 14.84375 21.449219 14.8125 21.332031 14.789062 21.195312 C 14.847656 21.136719 14.90625 21.082031 14.964844 21.027344 Z M 17.648438 21.125 C 17.664062 21.152344 17.679688 21.175781 17.695312 21.203125 C 17.707031 21.296875 17.714844 21.390625 17.722656 21.484375 C 17.699219 21.363281 17.675781 21.242188 17.648438 21.125 Z M 12.394531 21.300781 C 12.398438 21.308594 12.398438 21.316406 12.398438 21.324219 C 12.398438 21.328125 12.398438 21.328125 12.394531 21.332031 C 12.398438 21.324219 12.394531 21.3125 12.394531 21.300781 Z M 12.394531 21.300781 "/>
</g>
<mask id="mask3">
  <g filter="url(#alpha)">
<rect x="0" y="0" width="24" height="24" style="fill:rgb(0%,0%,0%);fill-opacity:0.976471;stroke:none;"/>
  </g>
</mask>
<clipPath id="clip4">
  <rect width="24" height="24"/>
</clipPath>
<g id="surface15" clip-path="url(#clip4)">
<path style=" stroke:none;fill-rule:evenodd;fill:rgb(45.098039%,62.745098%,4.705882%);fill-opacity:1;" d="M 2.644531 15.761719 C 2.855469 17.726562 3.027344 19.710938 3.058594 21.757812 C 3.398438 21.992188 3.753906 22.1875 4.160156 22.316406 C 4.148438 21.109375 4.160156 19.980469 4.21875 19.0625 C 4.285156 18.054688 4.402344 17.257812 4.589844 16.738281 C 4.175781 17.589844 3.882812 18.71875 3.640625 19.957031 C 3.347656 18.566406 3.007812 17.164062 2.644531 15.761719 Z M 17.277344 15.824219 C 17.515625 18.035156 17.773438 20.234375 17.746094 22.566406 L 18.433594 22.566406 C 18.558594 22.566406 18.683594 22.5625 18.804688 22.550781 C 18.792969 21.28125 18.789062 20.0625 18.855469 19.097656 C 18.921875 18.105469 19.039062 17.3125 19.222656 16.796875 C 18.808594 17.652344 18.515625 18.777344 18.273438 20.015625 C 17.980469 18.625 17.640625 17.226562 17.277344 15.824219 Z M 10.769531 17.335938 C 10.925781 17.863281 10.90625 18.671875 10.890625 19.601562 C 10.875 20.519531 10.871094 21.558594 11.035156 22.566406 L 12.558594 22.566406 C 12.574219 22.074219 12.59375 21.621094 12.671875 21.121094 C 12.75 20.609375 12.886719 20.050781 13.152344 19.355469 C 12.878906 19.914062 12.6875 20.171875 12.527344 20.480469 C 12.367188 20.789062 12.238281 21.148438 12.09375 21.910156 C 11.867188 21.820312 11.707031 21.570312 11.589844 21.226562 C 11.472656 20.882812 11.394531 20.445312 11.324219 19.976562 C 11.183594 19.039062 11.082031 17.984375 10.769531 17.335938 Z M 16.136719 17.632812 C 16.171875 17.960938 16.210938 18.289062 16.246094 18.613281 C 15.824219 19.398438 15.40625 20.195312 15.199219 21.308594 C 14.976562 20.582031 14.722656 19.90625 14.421875 19.296875 C 14.125 18.6875 13.78125 18.144531 13.386719 17.679688 C 13.675781 18.28125 13.886719 19.039062 14.046875 19.882812 C 14.207031 20.714844 14.320312 21.632812 14.425781 22.566406 L 17.285156 22.566406 C 17.027344 21.277344 16.722656 19.980469 16.394531 18.683594 C 16.492188 18.367188 16.585938 18.046875 16.707031 17.726562 C 16.585938 17.972656 16.460938 18.207031 16.335938 18.441406 C 16.265625 18.171875 16.207031 17.902344 16.136719 17.632812 Z M 20.597656 17.761719 C 20.257812 18.375 19.988281 19.117188 19.757812 19.941406 C 19.542969 20.703125 19.378906 21.625 19.21875 22.492188 C 19.515625 22.4375 19.820312 22.351562 20.09375 22.238281 C 20.105469 21.3125 20.132812 20.429688 20.203125 19.710938 C 20.285156 18.882812 20.410156 18.214844 20.597656 17.761719 Z M 5.9375 18.125 C 5.625 18.695312 5.367188 19.382812 5.148438 20.144531 C 4.945312 20.84375 4.753906 21.652344 4.597656 22.445312 C 4.871094 22.5 5.152344 22.566406 5.441406 22.566406 L 6.234375 22.566406 C 6.441406 22.136719 6.644531 21.683594 6.867188 21.285156 C 7.101562 20.867188 7.359375 20.511719 7.683594 20.285156 C 8.058594 20.402344 8.402344 20.855469 8.757812 21.167969 C 8.386719 20.546875 8.035156 19.890625 7.515625 19.632812 C 7.070312 19.933594 6.710938 20.367188 6.382812 20.847656 C 6.050781 21.324219 5.75 21.847656 5.421875 22.332031 C 5.457031 20.441406 5.601562 18.945312 5.9375 18.125 Z M 8.355469 18.277344 C 8.703125 19.34375 8.871094 20.90625 9.007812 22.566406 L 9.921875 22.566406 C 10.03125 21.191406 10.210938 19.789062 10.585938 18.320312 C 10.214844 19.445312 9.761719 20.375 9.570312 21.898438 C 9.273438 20.445312 8.886719 19.203125 8.355469 18.277344 Z M 8.355469 18.277344 "/>
</g>
<mask id="mask4">
  <g filter="url(#alpha)">
<rect x="0" y="0" width="24" height="24" style="fill:rgb(0%,0%,0%);fill-opacity:0.976471;stroke:none;"/>
  </g>
</mask>
<clipPath id="clip5">
  <rect width="24" height="24"/>
</clipPath>
<g id="surface18" clip-path="url(#clip5)">
<path style=" stroke:none;fill-rule:evenodd;fill:rgb(30.196078%,51.372549%,1.568627%);fill-opacity:1;" d="M 5.472656 17.167969 C 5.066406 18.296875 4.6875 19.417969 4.359375 20.535156 C 4.09375 19.542969 3.765625 18.636719 3.304688 17.953125 C 3.511719 18.363281 3.640625 19 3.714844 19.796875 C 3.777344 20.449219 3.746094 21.320312 3.746094 22.152344 C 4.105469 22.335938 4.546875 22.445312 4.960938 22.515625 C 4.945312 20.699219 5.214844 18.894531 5.472656 17.167969 Z M 19.589844 17.902344 C 19.796875 18.320312 19.925781 18.960938 20 19.765625 C 20.066406 20.464844 20.097656 21.339844 20.09375 22.238281 C 20.410156 22.105469 20.6875 21.925781 20.957031 21.71875 C 20.832031 21.160156 20.667969 20.523438 20.515625 20.011719 C 20.269531 19.203125 19.976562 18.480469 19.589844 17.902344 Z M 12.714844 18.382812 C 12.363281 18.90625 12.25 19.75 12.097656 20.503906 C 12.019531 20.878906 11.933594 21.230469 11.800781 21.507812 C 11.667969 21.785156 11.492188 21.988281 11.238281 22.058594 C 11.078125 21.445312 10.9375 21.160156 10.757812 20.910156 C 10.582031 20.664062 10.367188 20.457031 10.0625 20.007812 C 10.363281 20.578125 10.515625 21.015625 10.601562 21.417969 C 10.683594 21.808594 10.699219 22.164062 10.722656 22.566406 L 12.421875 22.566406 C 12.601562 21.761719 12.59375 20.933594 12.578125 20.199219 C 12.5625 19.453125 12.539062 18.804688 12.714844 18.382812 Z M 6.738281 18.625 C 6.660156 18.839844 6.59375 19.054688 6.519531 19.273438 C 6.378906 19.082031 6.238281 18.894531 6.105469 18.699219 C 6.242188 18.957031 6.347656 19.210938 6.453125 19.464844 C 6.09375 20.492188 5.734375 21.539062 5.445312 22.558594 C 5.5 22.5625 5.570312 22.566406 5.625 22.566406 L 8.648438 22.566406 C 8.761719 21.820312 8.886719 21.089844 9.066406 20.425781 C 9.246094 19.75 9.476562 19.144531 9.800781 18.660156 C 9.363281 19.035156 8.980469 19.46875 8.648438 19.960938 C 8.316406 20.449219 8.03125 20.988281 7.785156 21.574219 C 7.550781 20.679688 7.089844 20.042969 6.621094 19.410156 C 6.660156 19.148438 6.699219 18.886719 6.738281 18.625 Z M 1.777344 18.726562 C 1.984375 19.089844 2.125 19.625 2.214844 20.289062 C 2.230469 20.410156 2.234375 20.847656 2.25 20.980469 C 2.484375 21.320312 2.734375 21.503906 3.058594 21.757812 C 2.941406 21.375 2.847656 20.824219 2.710938 20.472656 C 2.453125 19.8125 2.152344 19.21875 1.777344 18.726562 Z M 18.089844 19.015625 C 18.277344 19.347656 18.410156 19.8125 18.5 20.382812 C 18.59375 20.957031 18.644531 21.636719 18.664062 22.394531 C 18.300781 22.007812 17.964844 21.589844 17.597656 21.203125 C 17.226562 20.820312 16.828125 20.472656 16.332031 20.230469 C 15.753906 20.4375 15.363281 20.964844 14.953125 21.460938 C 15.347656 21.210938 15.730469 20.84375 16.148438 20.75 C 16.503906 20.933594 16.792969 21.21875 17.050781 21.550781 C 17.296875 21.867188 17.515625 22.226562 17.746094 22.566406 L 18.414062 22.566406 C 18.804688 22.566406 19.207031 22.523438 19.566406 22.425781 C 19.402344 21.828125 19.179688 21.164062 18.96875 20.636719 C 18.722656 20.027344 18.4375 19.476562 18.089844 19.015625 Z M 15.398438 19.140625 C 14.808594 19.882812 14.375 20.882812 14.046875 22.050781 C 13.832031 20.824219 13.328125 20.078125 12.917969 19.175781 C 13.332031 20.347656 13.53125 21.46875 13.652344 22.566406 L 14.675781 22.566406 C 14.824219 21.238281 15.015625 19.992188 15.398438 19.140625 Z M 15.398438 19.140625 "/>
</g>
<clipPath id="clip6">
  <rect width="24" height="24"/>
</clipPath>
<g id="surface21" clip-path="url(#clip6)">
<path style=" stroke:none;fill-rule:evenodd;fill:rgb(100%,99.607843%,89.411765%);fill-opacity:1;" d="M 16.480469 4.96875 C 18.128906 4.96875 19.464844 6.300781 19.464844 7.949219 C 19.464844 9.597656 18.128906 10.929688 16.480469 10.929688 C 14.835938 10.929688 13.5 9.597656 13.5 7.949219 C 13.5 6.300781 14.835938 4.96875 16.480469 4.96875 Z M 16.480469 4.96875 "/>
</g>
</defs>
<g id="surface1">
<path style=" stroke:none;fill-rule:evenodd;fill:rgb(67.058824%,81.960784%,12.941176%);fill-opacity:1;" d="M 5.605469 1.421875 L 18.394531 1.421875 C 20.703125 1.421875 22.578125 3.296875 22.578125 5.605469 L 22.578125 18.394531 C 22.578125 20.703125 20.703125 22.578125 18.394531 22.578125 L 5.605469 22.578125 C 3.296875 22.578125 1.421875 20.703125 1.421875 18.394531 L 1.421875 5.605469 C 1.421875 3.296875 3.296875 1.421875 5.605469 1.421875 Z M 5.605469 1.421875 "/>
<path style=" stroke:none;fill-rule:evenodd;fill:rgb(73.72549%,92.941176%,96.862745%);fill-opacity:1;" d="M 21.433594 21.222656 L 2.558594 21.222656 C 3.320312 22.042969 4.390625 22.566406 5.601562 22.566406 L 18.390625 22.566406 C 19.601562 22.566406 20.671875 22.042969 21.433594 21.222656 Z M 21.433594 21.222656 "/>
<path style=" stroke:none;fill-rule:evenodd;fill:rgb(59.215686%,77.647059%,2.745098%);fill-opacity:1;" d="M 22.53125 18.597656 L 22.53125 17.101562 C 21.75 16.269531 21.097656 15.472656 20.84375 15.402344 C 20.585938 15.335938 20.285156 15.4375 19.976562 15.632812 C 19.664062 15.824219 19.339844 16.105469 19.03125 16.402344 C 18.414062 16.996094 17.863281 17.640625 17.597656 17.707031 C 17.335938 17.769531 16.421875 17.710938 15.851562 17.539062 C 15.28125 17.363281 14.789062 17.144531 14.578125 17.078125 C 14.363281 17.015625 13.765625 16.777344 13.417969 16.621094 C 13.070312 16.464844 12.765625 16.316406 12.507812 16.238281 C 12.246094 16.160156 11.101562 15.882812 10.269531 15.714844 C 9.4375 15.546875 8.65625 15.402344 8.339844 15.402344 C 8.027344 15.390625 7.023438 15.496094 6.417969 15.617188 C 5.8125 15.738281 5.289062 15.859375 5 15.824219 C 4.714844 15.792969 3.789062 15.273438 3.171875 14.886719 C 2.859375 14.695312 2.558594 14.527344 2.265625 14.453125 C 1.972656 14.378906 1.695312 14.390625 1.4375 14.566406 C 1.433594 14.566406 1.425781 14.585938 1.417969 14.601562 L 1.417969 18.386719 C 1.417969 19.492188 1.863281 20.476562 2.558594 21.222656 L 21.433594 21.222656 C 22.082031 20.527344 22.476562 19.613281 22.53125 18.597656 Z M 22.53125 18.597656 "/>
<path style=" stroke:none;fill-rule:evenodd;fill:rgb(73.72549%,92.941176%,96.862745%);fill-opacity:1;" d="M 5.601562 1.414062 C 3.285156 1.414062 1.417969 3.277344 1.417969 5.59375 L 1.417969 14.601562 C 1.425781 14.585938 1.433594 14.566406 1.4375 14.566406 C 1.695312 14.390625 1.972656 14.378906 2.265625 14.453125 C 2.558594 14.527344 2.859375 14.695312 3.171875 14.886719 C 3.789062 15.273438 4.714844 15.792969 5 15.824219 C 5.289062 15.859375 5.8125 15.738281 6.417969 15.617188 C 7.023438 15.496094 8.027344 15.390625 8.339844 15.402344 C 8.65625 15.402344 9.4375 15.546875 10.269531 15.714844 C 11.101562 15.882812 12.246094 16.160156 12.507812 16.238281 C 12.765625 16.316406 13.070312 16.464844 13.417969 16.621094 C 13.765625 16.777344 14.363281 17.015625 14.578125 17.078125 C 14.789062 17.144531 15.28125 17.363281 15.851562 17.539062 C 16.421875 17.710938 17.335938 17.769531 17.597656 17.707031 C 17.863281 17.640625 18.414062 16.996094 19.03125 16.402344 C 19.339844 16.105469 19.664062 15.824219 19.976562 15.632812 C 20.285156 15.4375 20.585938 15.335938 20.84375 15.402344 C 21.097656 15.472656 21.75 16.269531 22.53125 17.101562 L 22.53125 18.597656 C 22.535156 18.523438 22.570312 18.460938 22.570312 18.386719 L 22.570312 5.59375 C 22.570312 3.277344 20.707031 1.414062 18.390625 1.414062 Z M 5.601562 1.414062 "/>
<use xlink:href="#surface6" mask="url(#mask0)"/>
<use xlink:href="#surface9" mask="url(#mask1)"/>
<use xlink:href="#surface12" mask="url(#mask2)"/>
<use xlink:href="#surface15" mask="url(#mask3)"/>
<use xlink:href="#surface18" mask="url(#mask4)"/>
<path style=" stroke:none;fill-rule:nonzero;fill:rgb(45.098039%,62.745098%,4.705882%);fill-opacity:1;" d="M 5.585938 18.230469 C 5.929688 19.3125 6.101562 20.886719 6.234375 22.566406 L 7.121094 22.566406 C 7.226562 21.175781 7.410156 19.761719 7.78125 18.277344 C 7.417969 19.402344 6.972656 20.332031 6.78125 21.855469 C 6.488281 20.402344 6.105469 19.160156 5.585938 18.230469 Z M 5.585938 18.230469 "/>
<use xlink:href="#surface21"/>
</g>
</svg>
