<?xml version="1.0" encoding="UTF-8"?>
<svg xmlns="http://www.w3.org/2000/svg" xmlns:xlink="http://www.w3.org/1999/xlink" width="24pt" height="24pt" viewBox="0 0 24 24" version="1.1">
<defs>
<clipPath id="clip1">
  <rect width="24" height="24"/>
</clipPath>
<g id="surface6" clip-path="url(#clip1)">
<path style=" stroke:none;fill-rule:nonzero;fill:rgb(99.607843%,59.215686%,0%);fill-opacity:1;" d="M 19.5 12 C 19.5 7.859375 16.140625 4.5 12 4.5 C 7.859375 4.5 4.5 7.859375 4.5 12 C 4.5 16.140625 7.859375 19.5 12 19.5 C 16.140625 19.5 19.5 16.140625 19.5 12 Z M 19.5 12 "/>
</g>
<clipPath id="clip2">
  <rect width="24" height="24"/>
</clipPath>
<g id="surface9" clip-path="url(#clip2)">
<path style=" stroke:none;fill-rule:nonzero;fill:rgb(100%,100%,100%);fill-opacity:1;" d="M 10.570312 8.828125 L 10.570312 12.78125 C 10.34375 12.648438 10.082031 12.578125 9.820312 12.578125 C 8.992188 12.578125 8.320312 13.25 8.320312 14.078125 C 8.320312 14.90625 8.992188 15.578125 9.820312 15.578125 C 10.648438 15.578125 11.320312 14.90625 11.320312 14.078125 L 11.320312 10.328125 L 14.320312 10.328125 L 14.320312 12.78125 C 14.09375 12.648438 13.832031 12.578125 13.570312 12.578125 C 12.742188 12.578125 12.070312 13.25 12.070312 14.078125 C 12.070312 14.90625 12.742188 15.578125 13.570312 15.578125 C 14.398438 15.578125 15.070312 14.90625 15.070312 14.078125 L 15.070312 8.828125 Z M 10.570312 8.828125 "/>
</g>
</defs>
<g id="surface1">
<path style=" stroke:none;fill-rule:evenodd;fill:rgb(100%,34.117647%,13.333333%);fill-opacity:1;" d="M 5.605469 1.421875 L 18.394531 1.421875 C 20.703125 1.421875 22.578125 3.296875 22.578125 5.605469 L 22.578125 18.394531 C 22.578125 20.703125 20.703125 22.578125 18.394531 22.578125 L 5.605469 22.578125 C 3.296875 22.578125 1.421875 20.703125 1.421875 18.394531 L 1.421875 5.605469 C 1.421875 3.296875 3.296875 1.421875 5.605469 1.421875 Z M 5.605469 1.421875 "/>
<use xlink:href="#surface6"/>
<use xlink:href="#surface9"/>
</g>
</svg>
