<?xml version="1.0" encoding="UTF-8"?>
<svg xmlns="http://www.w3.org/2000/svg" xmlns:xlink="http://www.w3.org/1999/xlink" width="24pt" height="24pt" viewBox="0 0 24 24" version="1.1">
<g id="surface1">
<path style=" stroke:none;fill-rule:evenodd;fill:rgb(100%,100%,100%);fill-opacity:1;" d="M 5.605469 1.421875 L 18.394531 1.421875 C 20.703125 1.421875 22.578125 3.296875 22.578125 5.605469 L 22.578125 18.394531 C 22.578125 20.703125 20.703125 22.578125 18.394531 22.578125 L 5.605469 22.578125 C 3.296875 22.578125 1.421875 20.703125 1.421875 18.394531 L 1.421875 5.605469 C 1.421875 3.296875 3.296875 1.421875 5.605469 1.421875 Z M 5.605469 1.421875 "/>
<path style=" stroke:none;fill-rule:nonzero;fill:rgb(90.588235%,29.803922%,23.529412%);fill-opacity:1;" d="M 12 3.738281 C 7.421875 3.738281 3.738281 7.421875 3.738281 12 C 3.738281 16.578125 7.421875 20.261719 12 20.261719 C 16.578125 20.261719 20.261719 16.578125 20.261719 12 C 20.261719 7.421875 16.578125 3.738281 12 3.738281 Z M 12 7.277344 C 13.957031 7.277344 15.542969 9.390625 15.542969 12 C 15.542969 14.609375 13.957031 16.722656 12 16.722656 C 10.042969 16.722656 8.457031 14.609375 8.457031 12 C 8.457031 9.390625 10.042969 7.277344 12 7.277344 Z M 12 7.277344 "/>
</g>
</svg>
