<?xml version="1.0" encoding="UTF-8"?>
<svg xmlns="http://www.w3.org/2000/svg" xmlns:xlink="http://www.w3.org/1999/xlink" width="24pt" height="24pt" viewBox="0 0 24 24" version="1.1">
<g id="surface1">
<path style=" stroke:none;fill-rule:evenodd;fill:rgb(12.54902%,59.215686%,98.431373%);fill-opacity:1;" d="M 5.605469 1.421875 L 18.394531 1.421875 C 20.703125 1.421875 22.578125 3.296875 22.578125 5.605469 L 22.578125 18.394531 C 22.578125 20.703125 20.703125 22.578125 18.394531 22.578125 L 5.605469 22.578125 C 3.296875 22.578125 1.421875 20.703125 1.421875 18.394531 L 1.421875 5.605469 C 1.421875 3.296875 3.296875 1.421875 5.605469 1.421875 Z M 5.605469 1.421875 "/>
<path style=" stroke:none;fill-rule:nonzero;fill:rgb(100%,100%,100%);fill-opacity:1;" d="M 13.960938 4.433594 L 10.039062 4.992188 L 10.039062 6.113281 L 8.132812 6.113281 C 4.992188 6.113281 4.992188 8.078125 4.992188 8.078125 L 4.992188 10.039062 L 10.039062 10.039062 C 10.039062 9.386719 10.398438 8.917969 11.046875 8.917969 C 11.695312 8.917969 11.980469 9.386719 11.980469 10.039062 L 12.019531 10.039062 L 5.0625 14.523438 L 4.992188 14.523438 L 4.992188 17.886719 L 10.039062 17.886719 L 10.039062 19.566406 L 13.960938 19.007812 L 13.960938 17.886719 L 19.007812 17.886719 L 19.007812 14.523438 L 12 14.523438 L 17.5625 10.984375 C 18.332031 10.429688 19.007812 10.039062 19.007812 8.46875 C 19.007812 8.46875 19.117188 6.113281 14.800781 6.113281 L 13.960938 6.113281 Z M 13.960938 4.433594 "/>
</g>
</svg>
