<?xml version="1.0" encoding="UTF-8"?>
<svg xmlns="http://www.w3.org/2000/svg" xmlns:xlink="http://www.w3.org/1999/xlink" width="24pt" height="24pt" viewBox="0 0 24 24" version="1.1">
<defs>
<clipPath id="clip1">
  <rect width="24" height="24"/>
</clipPath>
<g id="surface6" clip-path="url(#clip1)">
<path style=" stroke:none;fill-rule:evenodd;fill:rgb(100%,98.823529%,63.921569%);fill-opacity:1;" d="M 16.515625 5.964844 C 18.164062 5.964844 19.5 7.300781 19.5 8.945312 C 19.5 10.59375 18.164062 11.929688 16.515625 11.929688 C 14.871094 11.929688 13.535156 10.59375 13.535156 8.945312 C 13.535156 7.300781 14.871094 5.964844 16.515625 5.964844 Z M 16.515625 5.964844 "/>
</g>
</defs>
<g id="surface1">
<path style=" stroke:none;fill-rule:nonzero;fill:rgb(0%,0%,0%);fill-opacity:1;" d="M 22.574219 16.390625 C 21.796875 16.140625 21.144531 15.898438 20.890625 15.875 C 20.375 15.835938 19.695312 16 19.078125 16.179688 C 18.460938 16.359375 17.910156 16.554688 17.644531 16.574219 C 17.382812 16.59375 16.46875 16.578125 15.898438 16.523438 C 15.328125 16.472656 14.835938 16.40625 14.625 16.386719 C 14.410156 16.367188 13.8125 16.292969 13.464844 16.246094 C 13.117188 16.199219 12.8125 16.152344 12.554688 16.128906 C 12.292969 16.105469 11.148438 16.019531 10.316406 15.96875 C 9.480469 15.917969 8.699219 15.875 8.386719 15.875 C 8.074219 15.875 7.070312 15.90625 6.464844 15.941406 C 5.859375 15.976562 5.335938 16.015625 5.046875 16.003906 C 4.757812 15.996094 3.835938 15.835938 3.214844 15.71875 C 2.597656 15.601562 1.996094 15.515625 1.484375 15.621094 C 1.472656 15.625 1.4375 15.652344 1.425781 15.65625 L 1.425781 17.644531 L 22.578125 17.644531 Z M 22.574219 16.390625 "/>
<path style=" stroke:none;fill-rule:nonzero;fill:rgb(54.901961%,57.647059%,86.666667%);fill-opacity:1;" d="M 5.605469 1.472656 C 5.027344 1.472656 4.476562 1.589844 3.976562 1.800781 C 3.476562 2.011719 3.023438 2.316406 2.644531 2.695312 C 2.269531 3.074219 1.964844 3.523438 1.75 4.023438 C 1.539062 4.523438 1.421875 5.074219 1.421875 5.65625 L 1.421875 15.65625 C 1.4375 15.652344 1.472656 15.625 1.484375 15.621094 C 1.996094 15.515625 2.597656 15.601562 3.214844 15.71875 C 3.835938 15.835938 4.757812 15.996094 5.046875 16.003906 C 5.335938 16.015625 5.859375 15.976562 6.464844 15.941406 C 7.070312 15.90625 8.074219 15.875 8.386719 15.875 C 8.699219 15.875 9.480469 15.917969 10.316406 15.96875 C 11.148438 16.023438 12.292969 16.105469 12.554688 16.128906 C 12.8125 16.152344 13.117188 16.199219 13.464844 16.246094 C 13.8125 16.292969 14.410156 16.367188 14.625 16.386719 C 14.835938 16.40625 15.328125 16.472656 15.898438 16.523438 C 16.46875 16.578125 17.382812 16.59375 17.644531 16.574219 C 17.910156 16.554688 18.460938 16.359375 19.078125 16.179688 C 19.695312 16 20.375 15.835938 20.890625 15.875 C 21.144531 15.898438 21.796875 16.140625 22.574219 16.390625 L 22.574219 5.65625 C 22.574219 5.074219 22.460938 4.523438 22.25 4.023438 C 22.039062 3.523438 21.730469 3.074219 21.355469 2.695312 C 20.976562 2.316406 20.527344 2.011719 20.027344 1.800781 C 19.523438 1.589844 18.976562 1.472656 18.394531 1.472656 Z M 5.605469 1.472656 "/>
<use xlink:href="#surface6"/>
<path style=" stroke:none;fill-rule:nonzero;fill:rgb(31.764706%,51.764706%,69.019608%);fill-opacity:1;" d="M 1.425781 17.644531 L 1.425781 18.34375 C 1.425781 18.921875 1.539062 19.472656 1.753906 19.972656 C 1.964844 20.472656 2.269531 20.925781 2.644531 21.304688 C 3.023438 21.683594 3.476562 21.988281 3.976562 22.199219 C 4.476562 22.410156 5.027344 22.527344 5.605469 22.527344 L 18.394531 22.527344 C 18.976562 22.527344 19.523438 22.410156 20.027344 22.199219 C 20.527344 21.988281 20.976562 21.683594 21.355469 21.304688 C 21.730469 20.925781 22.039062 20.472656 22.25 19.972656 C 22.460938 19.472656 22.574219 18.921875 22.574219 18.34375 L 22.574219 17.644531 Z M 1.425781 17.644531 "/>
</g>
</svg>
