<?xml version="1.0" encoding="UTF-8"?>
<svg xmlns="http://www.w3.org/2000/svg" xmlns:xlink="http://www.w3.org/1999/xlink" width="24pt" height="24pt" viewBox="0 0 24 24" version="1.1">
<g id="surface1">
<path style=" stroke:none;fill-rule:evenodd;fill:rgb(60%,60%,60%);fill-opacity:1;" d="M 5.605469 1.421875 L 18.394531 1.421875 C 20.703125 1.421875 22.578125 3.296875 22.578125 5.605469 L 22.578125 18.394531 C 22.578125 20.703125 20.703125 22.578125 18.394531 22.578125 L 5.605469 22.578125 C 3.296875 22.578125 1.421875 20.703125 1.421875 18.394531 L 1.421875 5.605469 C 1.421875 3.296875 3.296875 1.421875 5.605469 1.421875 Z M 5.605469 1.421875 "/>
<path style=" stroke:none;fill-rule:nonzero;fill:rgb(40%,40%,40%);fill-opacity:1;" d="M 3.917969 17.71875 L 3.917969 10.1875 C 3.917969 10.035156 4.039062 9.910156 4.1875 9.910156 L 9.019531 9.910156 C 9.167969 9.910156 9.289062 10.035156 9.289062 10.1875 L 9.289062 17.71875 C 9.289062 17.871094 9.167969 17.996094 9.019531 17.996094 L 4.1875 17.996094 C 4.039062 17.996094 3.917969 17.871094 3.917969 17.71875 Z M 3.917969 17.71875 "/>
<path style=" stroke:none;fill-rule:nonzero;fill:rgb(40%,40%,40%);fill-opacity:1;" d="M 6.566406 5.996094 L 19.351562 5.996094 C 19.613281 5.996094 19.824219 6.21875 19.824219 6.488281 L 19.824219 15.261719 C 19.824219 15.53125 19.613281 15.753906 19.351562 15.753906 L 6.566406 15.753906 C 6.304688 15.753906 6.09375 15.53125 6.09375 15.261719 L 6.09375 6.488281 C 6.09375 6.21875 6.304688 5.996094 6.566406 5.996094 Z M 6.566406 5.996094 "/>
<path style=" stroke:none;fill-rule:nonzero;fill:rgb(100%,100%,100%);fill-opacity:1;" d="M 4.035156 18.273438 C 3.976562 18.246094 3.890625 18.171875 3.84375 18.109375 L 3.753906 17.996094 L 3.746094 14.027344 C 3.738281 10.125 3.738281 10.058594 3.804688 9.9375 C 3.839844 9.867188 3.914062 9.777344 3.972656 9.734375 L 4.078125 9.660156 L 6.585938 9.660156 C 9.082031 9.660156 9.09375 9.660156 9.1875 9.726562 C 9.238281 9.765625 9.308594 9.84375 9.351562 9.902344 L 9.421875 10.007812 L 9.421875 17.949219 L 9.351562 18.074219 C 9.308594 18.15625 9.234375 18.222656 9.148438 18.265625 C 9.019531 18.328125 8.949219 18.328125 6.578125 18.328125 C 4.390625 18.328125 4.132812 18.324219 4.035156 18.273438 Z M 6.679688 17.941406 C 6.695312 17.941406 6.738281 17.914062 6.773438 17.878906 C 6.925781 17.726562 6.800781 17.425781 6.582031 17.425781 C 6.378906 17.425781 6.246094 17.691406 6.367188 17.851562 C 6.417969 17.917969 6.546875 17.976562 6.609375 17.957031 C 6.632812 17.949219 6.664062 17.941406 6.679688 17.941406 Z M 8.96875 17.234375 C 8.992188 17.191406 9.003906 16.121094 9.003906 13.996094 C 9.003906 11.171875 8.996094 10.8125 8.953125 10.75 L 8.902344 10.675781 L 6.609375 10.675781 C 5.089844 10.675781 4.296875 10.6875 4.253906 10.710938 C 4.191406 10.742188 4.191406 10.8125 4.191406 13.980469 C 4.191406 16.457031 4.199219 17.226562 4.230469 17.257812 C 4.257812 17.285156 4.832031 17.296875 6.601562 17.296875 C 8.875 17.296875 8.9375 17.292969 8.96875 17.234375 Z M 7.195312 10.351562 C 7.230469 10.335938 7.257812 10.296875 7.257812 10.273438 C 7.257812 10.179688 7.132812 10.160156 6.570312 10.160156 C 6.097656 10.160156 5.996094 10.167969 5.953125 10.210938 C 5.925781 10.238281 5.902344 10.265625 5.902344 10.273438 C 5.902344 10.277344 5.925781 10.308594 5.953125 10.335938 C 5.996094 10.378906 6.097656 10.386719 6.570312 10.386719 C 6.898438 10.386719 7.160156 10.371094 7.195312 10.351562 Z M 10.183594 18.214844 C 10.148438 18.113281 10.164062 17.59375 10.207031 17.566406 C 10.226562 17.550781 10.582031 17.53125 10.988281 17.523438 L 11.730469 17.507812 L 11.746094 17.210938 C 11.757812 17.046875 11.777344 16.902344 11.789062 16.886719 C 11.804688 16.871094 12.394531 16.855469 13.097656 16.851562 C 14.175781 16.84375 14.390625 16.847656 14.445312 16.890625 C 14.496094 16.925781 14.511719 16.984375 14.523438 17.222656 L 14.539062 17.507812 L 15.519531 17.523438 C 16.339844 17.535156 16.5 17.546875 16.527344 17.585938 C 16.574219 17.660156 16.566406 18.179688 16.519531 18.226562 C 16.492188 18.253906 15.742188 18.265625 13.34375 18.265625 C 10.511719 18.265625 10.203125 18.261719 10.183594 18.214844 Z M 9.277344 16.167969 C 9.128906 16.078125 9.105469 15.964844 9.105469 15.300781 C 9.105469 14.621094 9.132812 14.511719 9.320312 14.433594 C 9.40625 14.398438 11.25 14.390625 15.074219 14.390625 L 19.660156 14.390625 L 19.660156 10.402344 C 19.660156 6.457031 19.660156 6.414062 19.59375 6.347656 C 19.53125 6.285156 19.488281 6.285156 13.027344 6.285156 L 6.527344 6.285156 L 6.464844 6.351562 C 6.40625 6.417969 6.402344 6.492188 6.394531 7.589844 C 6.390625 8.230469 6.390625 9.6875 6.386719 9.726562 C 6.386719 9.800781 6.480469 10.167969 6.105469 9.792969 L 5.824219 9.78125 L 5.8125 7.609375 C 5.808594 6.804688 5.816406 6.289062 5.835938 6.21875 C 5.882812 6.050781 6.085938 5.835938 6.273438 5.746094 L 6.4375 5.671875 L 13.007812 5.671875 C 20.328125 5.671875 19.757812 5.652344 20.007812 5.894531 C 20.074219 5.960938 20.160156 6.070312 20.191406 6.140625 C 20.253906 6.265625 20.257812 6.363281 20.257812 10.949219 L 20.257812 15.632812 L 20.1875 15.761719 C 20.097656 15.925781 19.96875 16.058594 19.804688 16.144531 L 19.675781 16.214844 L 15.058594 16.222656 C 10.558594 16.230469 9.375 16.230469 9.277344 16.167969 Z M 13.21875 15.460938 C 13.527344 15.273438 13.386719 14.808594 13.023438 14.808594 C 12.753906 14.808594 12.59375 15.089844 12.71875 15.34375 C 12.800781 15.511719 13.046875 15.566406 13.21875 15.460938 Z M 13.21875 15.460938 "/>
</g>
</svg>
