<?xml version="1.0" encoding="UTF-8"?>
<svg xmlns="http://www.w3.org/2000/svg" xmlns:xlink="http://www.w3.org/1999/xlink" width="24pt" height="24pt" viewBox="0 0 24 24" version="1.1">
<g id="surface1">
<path style=" stroke:none;fill-rule:evenodd;fill:rgb(37.254902%,48.627451%,54.117647%);fill-opacity:1;" d="M 5.605469 1.421875 L 18.394531 1.421875 C 20.703125 1.421875 22.578125 3.296875 22.578125 5.605469 L 22.578125 18.394531 C 22.578125 20.703125 20.703125 22.578125 18.394531 22.578125 L 5.605469 22.578125 C 3.296875 22.578125 1.421875 20.703125 1.421875 18.394531 L 1.421875 5.605469 C 1.421875 3.296875 3.296875 1.421875 5.605469 1.421875 Z M 5.605469 1.421875 "/>
<path style=" stroke:none;fill-rule:nonzero;fill:rgb(100%,100%,100%);fill-opacity:1;" d="M 12 4.636719 C 11.253906 5.375 10.539062 6.210938 9.785156 6.945312 L 6.945312 6.945312 L 6.945312 9.785156 C 6.210938 10.539062 5.375 11.253906 4.636719 12 C 5.375 12.746094 6.210938 13.488281 6.945312 14.246094 L 6.945312 17.054688 L 9.785156 17.054688 C 10.539062 17.789062 11.253906 18.625 12 19.363281 C 12.746094 18.625 13.488281 17.789062 14.246094 17.054688 L 17.054688 17.054688 L 17.054688 14.246094 C 17.789062 13.488281 18.625 12.746094 19.363281 12 C 18.625 11.253906 17.789062 10.539062 17.054688 9.785156 L 17.054688 6.945312 L 14.246094 6.945312 C 13.488281 6.210938 12.746094 5.375 12 4.636719 Z M 12 8.964844 C 10.324219 8.964844 8.964844 10.324219 8.964844 12 C 8.964844 13.675781 10.324219 15.035156 12 15.035156 Z M 12 8.964844 "/>
<path style=" stroke:none;fill-rule:nonzero;fill:rgb(37.254902%,48.627451%,54.117647%);fill-opacity:1;" d="M 12 7.734375 C 9.765625 7.734375 7.957031 9.546875 7.957031 11.777344 C 7.957031 14.011719 9.765625 15.824219 12 15.824219 Z M 12 7.734375 "/>
</g>
</svg>
