<?xml version="1.0" encoding="UTF-8"?>
<svg xmlns="http://www.w3.org/2000/svg" xmlns:xlink="http://www.w3.org/1999/xlink" width="24pt" height="24pt" viewBox="0 0 24 24" version="1.1">
<g id="surface1">
<path style=" stroke:none;fill-rule:evenodd;fill:rgb(40%,65.098039%,87.058824%);fill-opacity:1;" d="M 5.605469 1.421875 L 18.394531 1.421875 C 20.703125 1.421875 22.578125 3.296875 22.578125 5.605469 L 22.578125 18.394531 C 22.578125 20.703125 20.703125 22.578125 18.394531 22.578125 L 5.605469 22.578125 C 3.296875 22.578125 1.421875 20.703125 1.421875 18.394531 L 1.421875 5.605469 C 1.421875 3.296875 3.296875 1.421875 5.605469 1.421875 Z M 5.605469 1.421875 "/>
<path style=" stroke:none;fill-rule:nonzero;fill:rgb(100%,100%,100%);fill-opacity:1;" d="M 11.304688 7.140625 C 11.304688 9.058594 9.753906 10.613281 7.835938 10.613281 C 5.917969 10.613281 4.367188 9.058594 4.367188 7.140625 C 4.367188 5.226562 5.917969 3.671875 7.835938 3.671875 C 9.753906 3.671875 11.304688 5.226562 11.304688 7.140625 Z M 11.304688 7.140625 "/>
<path style=" stroke:none;fill-rule:nonzero;fill:rgb(30.196078%,30.196078%,30.196078%);fill-opacity:1;" d="M 11.304688 16.859375 C 11.304688 18.773438 9.753906 20.328125 7.835938 20.328125 C 5.917969 20.328125 4.367188 18.773438 4.367188 16.859375 C 4.367188 14.941406 5.917969 13.386719 7.835938 13.386719 C 9.753906 13.386719 11.304688 14.941406 11.304688 16.859375 Z M 11.304688 16.859375 "/>
<path style=" stroke:none;fill-rule:nonzero;fill:rgb(100%,100%,100%);fill-opacity:1;" d="M 19.632812 16.859375 C 19.632812 14.941406 18.082031 13.386719 16.164062 13.386719 C 14.246094 13.386719 12.695312 14.941406 12.695312 16.859375 C 12.695312 18.773438 14.246094 20.328125 16.164062 20.328125 C 18.082031 20.328125 19.632812 18.773438 19.632812 16.859375 Z M 19.632812 16.859375 "/>
<path style=" stroke:none;fill-rule:nonzero;fill:rgb(30.196078%,30.196078%,30.196078%);fill-opacity:1;" d="M 19.632812 7.140625 C 19.632812 5.226562 18.082031 3.671875 16.164062 3.671875 C 14.246094 3.671875 12.695312 5.226562 12.695312 7.140625 C 12.695312 9.058594 14.246094 10.613281 16.164062 10.613281 C 18.082031 10.613281 19.632812 9.058594 19.632812 7.140625 Z M 19.632812 7.140625 "/>
</g>
</svg>
