<?xml version="1.0" encoding="UTF-8"?>
<svg xmlns="http://www.w3.org/2000/svg" xmlns:xlink="http://www.w3.org/1999/xlink" width="24pt" height="24pt" viewBox="0 0 24 24" version="1.1">
<g id="surface1">
<path style=" stroke:none;fill-rule:evenodd;fill:rgb(35.686275%,35.686275%,35.686275%);fill-opacity:1;" d="M 5.605469 1.421875 L 18.394531 1.421875 C 20.703125 1.421875 22.578125 3.296875 22.578125 5.605469 L 22.578125 18.394531 C 22.578125 20.703125 20.703125 22.578125 18.394531 22.578125 L 5.605469 22.578125 C 3.296875 22.578125 1.421875 20.703125 1.421875 18.394531 L 1.421875 5.605469 C 1.421875 3.296875 3.296875 1.421875 5.605469 1.421875 Z M 5.605469 1.421875 "/>
<path style=" stroke:none;fill-rule:nonzero;fill:rgb(71.764706%,71.764706%,71.764706%);fill-opacity:1;" d="M 10.882812 6.417969 L 13.117188 6.417969 L 13.117188 11.441406 L 10.882812 11.441406 Z M 10.882812 6.417969 "/>
<path style=" stroke:none;fill-rule:nonzero;fill:rgb(100%,100%,100%);fill-opacity:1;" d="M 10.007812 10.882812 L 13.992188 10.882812 C 14.433594 10.882812 14.789062 11.214844 14.789062 11.628906 L 14.789062 19.070312 C 14.789062 19.484375 14.433594 19.816406 13.992188 19.816406 L 10.007812 19.816406 C 9.566406 19.816406 9.210938 19.484375 9.210938 19.070312 L 9.210938 11.628906 C 9.210938 11.214844 9.566406 10.882812 10.007812 10.882812 Z M 10.007812 10.882812 "/>
<path style=" stroke:none;fill-rule:nonzero;fill:rgb(71.764706%,71.764706%,71.764706%);fill-opacity:1;" d="M 12 4.183594 L 13.117188 4.742188 L 12.691406 6.417969 L 11.308594 6.417969 L 10.882812 4.742188 Z M 12 4.183594 "/>
<path style=" stroke:none;fill-rule:nonzero;fill:rgb(35.686275%,35.686275%,35.686275%);fill-opacity:1;" d="M 10.882812 9.488281 L 13.117188 9.488281 L 13.117188 9.765625 L 10.882812 9.765625 Z M 10.882812 9.488281 "/>
<path style=" stroke:none;fill-rule:nonzero;fill:rgb(35.686275%,35.686275%,35.686275%);fill-opacity:1;" d="M 10.882812 8.371094 L 13.117188 8.371094 L 13.117188 8.652344 L 10.882812 8.652344 Z M 10.882812 8.371094 "/>
</g>
</svg>
