<?xml version="1.0" encoding="UTF-8"?>
<svg xmlns="http://www.w3.org/2000/svg" xmlns:xlink="http://www.w3.org/1999/xlink" width="24pt" height="24pt" viewBox="0 0 24 24" version="1.1">
<g id="surface1">
<path style=" stroke:none;fill-rule:evenodd;fill:rgb(10.588235%,38.039216%,64.313725%);fill-opacity:1;" d="M 5.605469 1.421875 L 18.394531 1.421875 C 20.703125 1.421875 22.578125 3.296875 22.578125 5.605469 L 22.578125 18.394531 C 22.578125 20.703125 20.703125 22.578125 18.394531 22.578125 L 5.605469 22.578125 C 3.296875 22.578125 1.421875 20.703125 1.421875 18.394531 L 1.421875 5.605469 C 1.421875 3.296875 3.296875 1.421875 5.605469 1.421875 Z M 5.605469 1.421875 "/>
<path style=" stroke:none;fill-rule:nonzero;fill:rgb(90.196078%,90.196078%,90.196078%);fill-opacity:1;" d="M 12 3.566406 C 10.671875 3.566406 9.503906 4.117188 8.742188 4.984375 C 7.980469 5.851562 7.605469 6.992188 7.605469 8.164062 L 7.605469 15.085938 L 9.855469 15.085938 L 9.855469 8.164062 C 9.855469 7.46875 10.078125 6.871094 10.433594 6.46875 C 10.785156 6.066406 11.25 5.816406 12 5.816406 C 12.75 5.816406 13.214844 6.066406 13.566406 6.46875 C 13.921875 6.871094 14.144531 7.46875 14.144531 8.164062 L 14.144531 15.085938 L 16.394531 15.085938 L 16.394531 8.164062 C 16.394531 6.992188 16.019531 5.851562 15.257812 4.984375 C 14.496094 4.117188 13.328125 3.566406 12 3.566406 Z M 12 3.566406 "/>
<path style=" stroke:none;fill-rule:nonzero;fill:rgb(97.647059%,97.647059%,97.647059%);fill-opacity:1;" d="M 12 20.433594 L 6.488281 14.734375 C 5.527344 13.742188 5.210938 12.257812 5.675781 10.9375 C 6.140625 9.613281 7.304688 8.6875 8.660156 8.566406 C 10.015625 8.441406 11.320312 9.144531 12 10.363281 C 12.679688 9.144531 13.984375 8.441406 15.339844 8.566406 C 16.695312 8.6875 17.859375 9.613281 18.324219 10.9375 C 18.789062 12.257812 18.472656 13.742188 17.511719 14.734375 Z M 12 20.433594 "/>
<path style=" stroke:none;fill-rule:nonzero;fill:rgb(15.294118%,15.294118%,15.294118%);fill-opacity:1;" d="M 13.1875 13.304688 C 13.1875 12.648438 12.65625 12.117188 12 12.117188 C 11.34375 12.117188 10.8125 12.648438 10.8125 13.304688 C 10.8125 13.960938 11.34375 14.492188 12 14.492188 C 12.65625 14.492188 13.1875 13.960938 13.1875 13.304688 Z M 13.1875 13.304688 "/>
<path style=" stroke:none;fill-rule:nonzero;fill:rgb(15.294118%,15.294118%,15.294118%);fill-opacity:1;" d="M 11.960938 13.335938 L 10.8125 16.871094 L 13.1875 16.871094 L 12 13.335938 Z M 11.960938 13.335938 "/>
</g>
</svg>
