<?xml version="1.0" encoding="UTF-8"?>
<svg xmlns="http://www.w3.org/2000/svg" xmlns:xlink="http://www.w3.org/1999/xlink" width="24pt" height="24pt" viewBox="0 0 24 24" version="1.1">
<g id="surface1">
<path style=" stroke:none;fill-rule:evenodd;fill:rgb(29.803922%,38.823529%,41.960784%);fill-opacity:1;" d="M 5.605469 1.421875 L 18.394531 1.421875 C 20.703125 1.421875 22.578125 3.296875 22.578125 5.605469 L 22.578125 18.394531 C 22.578125 20.703125 20.703125 22.578125 18.394531 22.578125 L 5.605469 22.578125 C 3.296875 22.578125 1.421875 20.703125 1.421875 18.394531 L 1.421875 5.605469 C 1.421875 3.296875 3.296875 1.421875 5.605469 1.421875 Z M 5.605469 1.421875 "/>
<path style=" stroke:none;fill-rule:nonzero;fill:rgb(23.921569%,30.980392%,33.72549%);fill-opacity:1;" d="M 13.5 11.25 C 13.5 14.148438 11.148438 16.5 8.25 16.5 C 5.351562 16.5 3 14.148438 3 11.25 C 3 8.351562 5.351562 6 8.25 6 C 11.148438 6 13.5 8.351562 13.5 11.25 Z M 13.5 11.25 "/>
<path style=" stroke:none;fill-rule:nonzero;fill:rgb(93.333333%,34.509804%,34.509804%);fill-opacity:1;" d="M 4.539062 7.539062 C 4.359375 7.714844 4.199219 7.90625 4.050781 8.109375 L 5.667969 9.726562 C 4.972656 10.90625 5.164062 12.402344 6.128906 13.371094 C 7.097656 14.335938 8.59375 14.523438 9.769531 13.832031 L 11.390625 15.449219 C 11.59375 15.300781 11.785156 15.136719 11.960938 14.960938 C 12.140625 14.785156 12.300781 14.59375 12.453125 14.390625 L 10.832031 12.773438 C 11.527344 11.59375 11.335938 10.097656 10.371094 9.128906 C 9.402344 8.164062 7.90625 7.976562 6.730469 8.667969 L 5.109375 7.050781 C 4.90625 7.199219 4.714844 7.363281 4.539062 7.539062 Z M 4.539062 7.539062 "/>
<path style=" stroke:none;fill-rule:nonzero;fill:rgb(95.294118%,76.862745%,76.862745%);fill-opacity:1;" d="M 9.75 11.25 C 9.75 12.078125 9.078125 12.75 8.25 12.75 C 7.421875 12.75 6.75 12.078125 6.75 11.25 C 6.75 10.421875 7.421875 9.75 8.25 9.75 C 9.078125 9.75 9.75 10.421875 9.75 11.25 Z M 9.75 11.25 "/>
<path style=" stroke:none;fill-rule:nonzero;fill:rgb(23.921569%,30.980392%,33.72549%);fill-opacity:1;" d="M 15.75 6.75 L 20.25 6.75 C 20.664062 6.75 21 7.085938 21 7.5 C 21 7.914062 20.664062 8.25 20.25 8.25 L 15.75 8.25 C 15.335938 8.25 15 7.914062 15 7.5 C 15 7.085938 15.335938 6.75 15.75 6.75 Z M 15.75 6.75 "/>
<path style=" stroke:none;fill-rule:nonzero;fill:rgb(34.509804%,76.862745%,93.333333%);fill-opacity:1;" d="M 21 16.875 C 21 17.496094 20.496094 18 19.875 18 C 19.253906 18 18.75 17.496094 18.75 16.875 C 18.75 16.253906 19.253906 15.75 19.875 15.75 C 20.496094 15.75 21 16.253906 21 16.875 Z M 21 16.875 "/>
<path style=" stroke:none;fill-rule:nonzero;fill:rgb(34.509804%,76.862745%,93.333333%);fill-opacity:1;" d="M 18 16.875 C 18 17.496094 17.496094 18 16.875 18 C 16.253906 18 15.75 17.496094 15.75 16.875 C 15.75 16.253906 16.253906 15.75 16.875 15.75 C 17.496094 15.75 18 16.253906 18 16.875 Z M 18 16.875 "/>
<path style=" stroke:none;fill-rule:nonzero;fill:rgb(23.921569%,30.980392%,33.72549%);fill-opacity:1;" d="M 15.75 9 L 20.25 9 C 20.664062 9 21 9.335938 21 9.75 C 21 10.164062 20.664062 10.5 20.25 10.5 L 15.75 10.5 C 15.335938 10.5 15 10.164062 15 9.75 C 15 9.335938 15.335938 9 15.75 9 Z M 15.75 9 "/>
<path style=" stroke:none;fill-rule:nonzero;fill:rgb(23.921569%,30.980392%,33.72549%);fill-opacity:1;" d="M 15.75 11.25 L 20.25 11.25 C 20.664062 11.25 21 11.585938 21 12 C 21 12.414062 20.664062 12.75 20.25 12.75 L 15.75 12.75 C 15.335938 12.75 15 12.414062 15 12 C 15 11.585938 15.335938 11.25 15.75 11.25 Z M 15.75 11.25 "/>
<path style=" stroke:none;fill-rule:nonzero;fill:rgb(23.921569%,30.980392%,33.72549%);fill-opacity:1;" d="M 15.75 13.5 L 20.25 13.5 C 20.664062 13.5 21 13.835938 21 14.25 C 21 14.664062 20.664062 15 20.25 15 L 15.75 15 C 15.335938 15 15 14.664062 15 14.25 C 15 13.835938 15.335938 13.5 15.75 13.5 Z M 15.75 13.5 "/>
</g>
</svg>
