<?xml version="1.0" encoding="UTF-8"?>
<svg xmlns="http://www.w3.org/2000/svg" xmlns:xlink="http://www.w3.org/1999/xlink" width="24pt" height="24pt" viewBox="0 0 24 24" version="1.1">
<g id="surface1">
<path style=" stroke:none;fill-rule:evenodd;fill:rgb(79.215686%,63.137255%,49.019608%);fill-opacity:1;" d="M 5.605469 1.421875 L 18.394531 1.421875 C 20.703125 1.421875 22.578125 3.296875 22.578125 5.605469 L 22.578125 18.394531 C 22.578125 20.703125 20.703125 22.578125 18.394531 22.578125 L 5.605469 22.578125 C 3.296875 22.578125 1.421875 20.703125 1.421875 18.394531 L 1.421875 5.605469 C 1.421875 3.296875 3.296875 1.421875 5.605469 1.421875 Z M 5.605469 1.421875 "/>
<path style=" stroke:none;fill-rule:nonzero;fill:rgb(52.156863%,33.72549%,16.078431%);fill-opacity:1;" d="M 9.375 14.25 L 9.375 19.25 C 9.375 19.804688 9.710938 20.25 10.125 20.25 L 10.875 20.25 C 11.289062 20.25 11.625 19.804688 11.625 19.25 L 11.625 14.25 Z M 9.375 14.25 "/>
<path style=" stroke:none;fill-rule:nonzero;fill:rgb(80%,80%,80%);fill-opacity:1;" d="M 9.375 3.75 C 9.375 3.75 14.625 6.652344 14.625 14.25 L 9.375 14.25 Z M 9.375 3.75 "/>
<path style=" stroke:none;fill-rule:nonzero;fill:rgb(80%,80%,80%);fill-opacity:1;" d="M 10.875 16.125 C 10.875 16.332031 10.707031 16.5 10.5 16.5 C 10.292969 16.5 10.125 16.332031 10.125 16.125 C 10.125 15.917969 10.292969 15.75 10.5 15.75 C 10.707031 15.75 10.875 15.917969 10.875 16.125 Z M 10.875 16.125 "/>
<path style=" stroke:none;fill-rule:nonzero;fill:rgb(80%,80%,80%);fill-opacity:1;" d="M 10.875 18.375 C 10.875 18.582031 10.707031 18.75 10.5 18.75 C 10.292969 18.75 10.125 18.582031 10.125 18.375 C 10.125 18.167969 10.292969 18 10.5 18 C 10.707031 18 10.875 18.167969 10.875 18.375 Z M 10.875 18.375 "/>
<path style=" stroke:none;fill-rule:nonzero;fill:rgb(90.588235%,29.803922%,23.529412%);fill-opacity:1;" d="M 21.304688 16.699219 C 21.304688 19.1875 19.292969 21.199219 16.804688 21.199219 C 14.320312 21.199219 12.304688 19.1875 12.304688 16.699219 C 12.304688 14.214844 14.320312 12.199219 16.804688 12.199219 C 19.292969 12.199219 21.304688 14.214844 21.304688 16.699219 Z M 21.304688 16.699219 "/>
<path style=" stroke:none;fill-rule:evenodd;fill:rgb(65.098039%,93.72549%,30.196078%);fill-opacity:1;" d="M 15.804688 11.699219 L 15.804688 12.320312 C 14.503906 12.617188 13.402344 13.476562 12.796875 14.664062 C 13.136719 14.605469 13.835938 14.429688 14.890625 13.855469 C 15.308594 13.625 15.667969 13.421875 15.804688 13.199219 C 14.609375 14.699219 15.90625 14.921875 16.554688 15.699219 C 16.554688 15.699219 18.078125 14.699219 16.804688 13.199219 C 18.304688 13.929688 19.804688 13.699219 19.804688 13.699219 C 19.804688 13.699219 19.816406 13.554688 19.804688 13.351562 C 18.980469 12.613281 17.914062 12.203125 16.804688 12.199219 L 16.804688 11.699219 Z M 15.804688 11.699219 "/>
</g>
</svg>
