<?xml version="1.0" encoding="UTF-8"?>
<svg xmlns="http://www.w3.org/2000/svg" xmlns:xlink="http://www.w3.org/1999/xlink" width="24pt" height="24pt" viewBox="0 0 24 24" version="1.1">
<g id="surface1">
<path style=" stroke:none;fill-rule:evenodd;fill:rgb(21.960784%,45.098039%,56.078431%);fill-opacity:1;" d="M 5.605469 1.421875 L 18.394531 1.421875 C 20.703125 1.421875 22.578125 3.296875 22.578125 5.605469 L 22.578125 18.394531 C 22.578125 20.703125 20.703125 22.578125 18.394531 22.578125 L 5.605469 22.578125 C 3.296875 22.578125 1.421875 20.703125 1.421875 18.394531 L 1.421875 5.605469 C 1.421875 3.296875 3.296875 1.421875 5.605469 1.421875 Z M 5.605469 1.421875 "/>
<path style=" stroke:none;fill-rule:nonzero;fill:rgb(100%,100%,100%);fill-opacity:1;" d="M 12 4.136719 C 7.65625 4.136719 4.136719 7.65625 4.136719 12 C 4.136719 16.34375 7.65625 19.863281 12 19.863281 C 16.34375 19.863281 19.863281 16.34375 19.863281 12 C 19.863281 7.65625 16.34375 4.136719 12 4.136719 Z M 12 4.136719 "/>
<path style=" stroke:none;fill-rule:nonzero;fill:rgb(21.960784%,45.098039%,56.078431%);fill-opacity:1;" d="M 9.507812 9.613281 L 11.195312 9.613281 L 11.195312 17.09375 L 10.351562 18.054688 L 9.507812 17.09375 Z M 9.507812 9.613281 "/>
<path style=" stroke:none;fill-rule:nonzero;fill:rgb(21.960784%,45.098039%,56.078431%);fill-opacity:1;" d="M 9.816406 9.050781 C 9.5 9.054688 9.246094 9.058594 8.953125 9.128906 C 8.652344 9.195312 8.382812 9.253906 8.382812 9.628906 L 8.777344 9.816406 C 8.777344 9.816406 8.980469 9.664062 9.171875 9.628906 C 9.386719 9.59375 9.628906 9.714844 9.816406 9.835938 L 9.816406 10.003906 L 10.632812 10.003906 C 10.632812 10.003906 11.171875 9.570312 11.53125 9.628906 C 11.722656 9.664062 11.929688 9.816406 11.929688 9.816406 L 12.320312 9.628906 C 12.320312 9.253906 12.050781 9.195312 11.75 9.128906 C 11.375 9.042969 11.117188 9.054688 10.632812 9.050781 Z M 9.816406 9.050781 "/>
<path style=" stroke:none;fill-rule:nonzero;fill:rgb(21.960784%,45.098039%,56.078431%);fill-opacity:1;" d="M 10.632812 7.136719 L 10.632812 9.386719 L 10.070312 9.386719 L 10.070312 7.136719 Z M 10.632812 7.136719 "/>
<path style=" stroke:none;fill-rule:nonzero;fill:rgb(21.960784%,45.098039%,56.078431%);fill-opacity:1;" d="M 11.195312 6.796875 C 11.195312 7.109375 10.816406 7.359375 10.351562 7.359375 C 9.886719 7.359375 9.507812 7.109375 9.507812 6.796875 Z M 11.195312 6.796875 "/>
<path style=" stroke:none;fill-rule:nonzero;fill:rgb(21.960784%,45.098039%,56.078431%);fill-opacity:1;" d="M 9.507812 12.148438 L 10.351562 12.992188 L 9.507812 13.835938 L 8.664062 12.992188 Z M 9.507812 12.148438 "/>
<path style=" stroke:none;fill-rule:nonzero;fill:rgb(21.960784%,45.098039%,56.078431%);fill-opacity:1;" d="M 12.691406 9.050781 C 12.804688 9.21875 12.882812 9.429688 12.882812 9.628906 C 12.882812 9.785156 12.820312 9.929688 12.710938 10.035156 C 13.175781 10.359375 13.445312 10.941406 13.445312 11.515625 C 13.445312 12.582031 12.851562 12.675781 11.757812 12.988281 C 12.414062 14.59375 13.726562 16.015625 15.019531 16.75 C 16.125 17.417969 17.136719 17.886719 18.511719 18.054688 C 16.992188 16.199219 14.628906 15.382812 13.445312 13.550781 C 14.238281 13.136719 15.136719 12.777344 15.136719 11.410156 C 15.136719 10.300781 14.121094 9.050781 13.367188 9.050781 Z M 12.691406 9.050781 "/>
</g>
</svg>
