<?xml version="1.0" encoding="UTF-8"?>
<svg xmlns="http://www.w3.org/2000/svg" xmlns:xlink="http://www.w3.org/1999/xlink" width="24pt" height="24pt" viewBox="0 0 24 24" version="1.1">
<g id="surface1">
<path style=" stroke:none;fill-rule:evenodd;fill:rgb(72.156863%,45.490196%,14.509804%);fill-opacity:1;" d="M 5.605469 1.421875 L 18.394531 1.421875 C 20.703125 1.421875 22.578125 3.296875 22.578125 5.605469 L 22.578125 18.394531 C 22.578125 20.703125 20.703125 22.578125 18.394531 22.578125 L 5.605469 22.578125 C 3.296875 22.578125 1.421875 20.703125 1.421875 18.394531 L 1.421875 5.605469 C 1.421875 3.296875 3.296875 1.421875 5.605469 1.421875 Z M 5.605469 1.421875 "/>
<path style=" stroke:none;fill-rule:nonzero;fill:rgb(92.941176%,80%,36.078431%);fill-opacity:1;" d="M 7.898438 7.898438 C 5.996094 9.804688 5.996094 12.890625 7.898438 14.792969 C 9.804688 16.699219 12.890625 16.699219 14.792969 14.792969 C 16.699219 12.890625 16.699219 9.804688 14.792969 7.898438 C 12.890625 5.996094 9.804688 5.996094 7.898438 7.898438 Z M 9.492188 9.492188 C 10.515625 8.464844 12.179688 8.464844 13.203125 9.492188 C 14.230469 10.515625 14.230469 12.179688 13.203125 13.203125 C 12.179688 14.230469 10.515625 14.230469 9.492188 13.203125 C 8.464844 12.179688 8.464844 10.515625 9.492188 9.492188 Z M 9.492188 9.492188 "/>
<path style=" stroke:none;fill-rule:nonzero;fill:rgb(92.941176%,80%,36.078431%);fill-opacity:1;" d="M 13.46875 13.46875 C 13.90625 13.03125 14.597656 13.003906 15.007812 13.414062 L 17.234375 15.644531 C 17.644531 16.054688 17.621094 16.742188 17.179688 17.179688 C 16.742188 17.621094 16.054688 17.644531 15.644531 17.234375 L 13.414062 15.007812 C 13.003906 14.597656 13.03125 13.90625 13.46875 13.46875 Z M 13.46875 13.46875 "/>
</g>
</svg>
