<?xml version="1.0" encoding="UTF-8"?>
<svg xmlns="http://www.w3.org/2000/svg" xmlns:xlink="http://www.w3.org/1999/xlink" width="24pt" height="24pt" viewBox="0 0 24 24" version="1.1">
<defs>
<clipPath id="clip1">
  <rect width="24" height="24"/>
</clipPath>
<g id="surface6" clip-path="url(#clip1)">
<path style=" stroke:none;fill-rule:nonzero;fill:rgb(100%,66.27451%,17.254902%);fill-opacity:1;" d="M 8.625 7.875 L 8.625 8.625 L 10.875 8.625 L 10.875 9.375 L 7.875 9.375 L 7.875 11.625 L 7.125 11.625 L 7.125 9.375 L 6.375 9.375 L 6.375 14.625 L 7.125 14.625 L 7.125 12.375 L 7.875 12.375 L 7.875 14.625 L 9.375 16.125 L 14.25 16.125 L 15 15.375 L 16.125 15.375 L 16.125 16.125 L 16.875 16.125 L 17.625 15.375 L 17.625 10.875 L 16.875 10.125 L 16.125 10.125 L 16.125 10.875 L 15.46875 10.875 L 13.96875 9.375 L 11.625 9.375 L 11.625 8.625 L 13.875 8.625 L 13.875 7.875 Z M 8.625 10.125 L 13.5 10.125 L 15 11.625 L 16.875 11.625 L 16.875 14.625 L 14.625 14.625 L 13.875 15.375 L 9.84375 15.375 L 8.625 14.101562 Z M 8.625 10.125 "/>
</g>
<clipPath id="clip2">
  <rect width="24" height="24"/>
</clipPath>
<g id="surface9" clip-path="url(#clip2)">
<path style=" stroke:none;fill-rule:evenodd;fill:rgb(24.705882%,57.254902%,90.588235%);fill-opacity:1;" d="M 21.511719 17.03125 C 21.511719 19.515625 19.5 21.53125 17.011719 21.53125 C 14.527344 21.53125 12.511719 19.515625 12.511719 17.03125 C 12.511719 14.546875 14.527344 12.53125 17.011719 12.53125 C 19.5 12.53125 21.511719 14.546875 21.511719 17.03125 Z M 21.511719 17.03125 "/>
</g>
<clipPath id="clip3">
  <rect width="24" height="24"/>
</clipPath>
<g id="surface12" clip-path="url(#clip3)">
<path style=" stroke:none;fill-rule:nonzero;fill:rgb(100%,100%,100%);fill-opacity:1;" d="M 16.449219 14.78125 L 16.402344 15.375 C 16.214844 15.445312 16.039062 15.542969 15.882812 15.671875 L 15.34375 15.417969 L 14.78125 16.394531 L 15.273438 16.734375 C 15.253906 16.832031 15.246094 16.929688 15.246094 17.03125 C 15.246094 17.132812 15.253906 17.230469 15.269531 17.332031 L 14.78125 17.667969 L 15.34375 18.644531 L 15.882812 18.390625 C 16.039062 18.519531 16.210938 18.617188 16.402344 18.6875 L 16.449219 19.28125 L 17.574219 19.28125 L 17.625 18.6875 C 17.8125 18.617188 17.988281 18.519531 18.140625 18.390625 L 18.679688 18.644531 L 19.242188 17.667969 L 18.753906 17.328125 C 18.769531 17.230469 18.78125 17.132812 18.78125 17.03125 C 18.78125 16.929688 18.773438 16.832031 18.753906 16.730469 L 19.242188 16.394531 L 18.679688 15.417969 L 18.144531 15.671875 C 17.988281 15.542969 17.8125 15.445312 17.625 15.375 L 17.574219 14.78125 Z M 17.011719 16.386719 C 17.367188 16.386719 17.65625 16.675781 17.65625 17.03125 C 17.65625 17.386719 17.367188 17.675781 17.011719 17.675781 C 16.65625 17.675781 16.371094 17.386719 16.371094 17.03125 C 16.371094 16.675781 16.65625 16.386719 17.011719 16.386719 Z M 17.011719 16.386719 "/>
</g>
</defs>
<g id="surface1">
<path style=" stroke:none;fill-rule:evenodd;fill:rgb(30.980392%,30.980392%,30.980392%);fill-opacity:1;" d="M 5.605469 1.421875 L 18.394531 1.421875 C 20.703125 1.421875 22.578125 3.296875 22.578125 5.605469 L 22.578125 18.394531 C 22.578125 20.703125 20.703125 22.578125 18.394531 22.578125 L 5.605469 22.578125 C 3.296875 22.578125 1.421875 20.703125 1.421875 18.394531 L 1.421875 5.605469 C 1.421875 3.296875 3.296875 1.421875 5.605469 1.421875 Z M 5.605469 1.421875 "/>
<use xlink:href="#surface6"/>
<use xlink:href="#surface9"/>
<use xlink:href="#surface12"/>
</g>
</svg>
