<?xml version="1.0" encoding="UTF-8"?>
<svg xmlns="http://www.w3.org/2000/svg" xmlns:xlink="http://www.w3.org/1999/xlink" width="24pt" height="24pt" viewBox="0 0 24 24" version="1.1">
<g id="surface1">
<path style=" stroke:none;fill-rule:evenodd;fill:rgb(23.921569%,37.647059%,50.196078%);fill-opacity:1;" d="M 5.605469 1.421875 L 18.394531 1.421875 C 20.703125 1.421875 22.578125 3.296875 22.578125 5.605469 L 22.578125 18.394531 C 22.578125 20.703125 20.703125 22.578125 18.394531 22.578125 L 5.605469 22.578125 C 3.296875 22.578125 1.421875 20.703125 1.421875 18.394531 L 1.421875 5.605469 C 1.421875 3.296875 3.296875 1.421875 5.605469 1.421875 Z M 5.605469 1.421875 "/>
<path style=" stroke:none;fill-rule:evenodd;fill:rgb(47.843137%,60.784314%,73.333333%);fill-opacity:1;" d="M 11.058594 22.578125 L 11.058594 21.042969 L 13.152344 21.015625 C 13.609375 21.015625 14.046875 20.824219 14.371094 20.523438 C 14.699219 20.21875 14.910156 19.800781 14.910156 19.347656 L 14.910156 17.179688 L 15.832031 17.167969 C 16.269531 17.164062 16.582031 17.039062 16.734375 16.820312 C 16.886719 16.601562 16.882812 16.289062 16.679688 15.902344 L 14.921875 13.128906 L 14.910156 12.59375 L 14.910156 11.15625 C 14.910156 11.132812 14.910156 11.109375 14.910156 11.085938 C 14.917969 10.964844 14.917969 10.839844 14.917969 10.71875 C 14.917969 10.671875 14.910156 10.625 14.910156 10.578125 C 14.910156 10.527344 14.914062 10.480469 14.914062 10.429688 C 14.914062 9.363281 14.699219 8.351562 14.308594 7.429688 C 13.917969 6.503906 13.355469 5.675781 12.65625 4.976562 C 11.957031 4.28125 11.128906 3.714844 10.207031 3.324219 C 9.28125 2.933594 8.269531 2.71875 7.203125 2.71875 C 6.660156 2.71875 5.441406 2.707031 4.234375 2.75 C 3.480469 2.777344 3 2.890625 2.421875 2.980469 C 1.824219 3.703125 1.421875 4.59375 1.421875 5.605469 L 1.421875 18.394531 C 1.421875 20.710938 3.289062 22.574219 5.605469 22.574219 Z M 11.058594 22.578125 "/>
<path style=" stroke:none;fill-rule:evenodd;fill:rgb(23.921569%,37.647059%,50.196078%);fill-opacity:1;" d="M 5.605469 1.421875 C 4.300781 1.421875 3.1875 2.050781 2.421875 2.980469 C 3 2.890625 3.480469 2.777344 4.234375 2.75 C 5.441406 2.707031 6.660156 2.71875 7.203125 2.71875 C 8.269531 2.71875 9.28125 2.933594 10.207031 3.324219 C 11.128906 3.714844 11.957031 4.28125 12.65625 4.976562 C 13.355469 5.675781 13.917969 6.503906 14.308594 7.429688 C 14.699219 8.351562 14.914062 9.363281 14.914062 10.429688 C 14.914062 10.480469 14.910156 10.527344 14.910156 10.578125 C 14.910156 10.625 14.917969 10.671875 14.917969 10.71875 C 14.917969 10.839844 14.917969 10.964844 14.910156 11.085938 C 14.910156 11.109375 14.910156 11.132812 14.910156 11.15625 L 14.910156 12.59375 L 14.921875 13.128906 L 16.679688 15.902344 C 16.882812 16.289062 16.886719 16.601562 16.734375 16.820312 C 16.582031 17.039062 16.269531 17.164062 15.832031 17.167969 L 14.910156 17.179688 L 14.910156 19.347656 C 14.910156 19.800781 14.699219 20.21875 14.375 20.523438 C 14.046875 20.824219 13.609375 21.015625 13.152344 21.015625 L 11.058594 21.042969 L 11.058594 22.578125 L 18.394531 22.578125 C 20.710938 22.578125 22.574219 20.710938 22.574219 18.394531 L 22.574219 5.605469 C 22.574219 3.289062 20.710938 1.421875 18.394531 1.421875 Z M 5.605469 1.421875 "/>
<path style=" stroke:none;fill-rule:nonzero;fill:rgb(29.803922%,29.803922%,29.803922%);fill-opacity:1;" d="M 5.757812 2.71875 C 6.558594 2.71875 7.203125 3.367188 7.203125 4.164062 L 7.203125 7.054688 C 7.203125 7.855469 6.558594 8.5 5.757812 8.5 C 4.960938 8.5 4.3125 7.855469 4.3125 7.054688 L 4.3125 4.164062 C 4.3125 3.367188 4.960938 2.71875 5.757812 2.71875 Z M 5.757812 2.71875 "/>
<path style=" stroke:none;fill-rule:nonzero;fill:rgb(29.803922%,29.803922%,29.803922%);fill-opacity:1;" d="M 15.878906 18.621094 C 15.878906 19.417969 15.230469 20.066406 14.433594 20.066406 C 13.632812 20.066406 12.988281 19.417969 12.988281 18.621094 C 12.988281 17.824219 13.632812 17.175781 14.433594 17.175781 C 15.230469 17.175781 15.878906 17.824219 15.878906 18.621094 Z M 15.878906 18.621094 "/>
<path style="fill:none;stroke-width:1;stroke-linecap:butt;stroke-linejoin:miter;stroke:rgb(29.803922%,29.803922%,29.803922%);stroke-opacity:1;stroke-miterlimit:4;" d="M -35.785807 15.740234 L -24.218098 26.021484 " transform="matrix(0.75,0,0,0.75,32.597167,-0.89502)"/>
<path style=" stroke:none;fill-rule:nonzero;fill:rgb(29.803922%,100%,51.372549%);fill-opacity:1;" d="M 9.132812 10.910156 C 9.132812 12.773438 7.621094 14.285156 5.757812 14.285156 C 3.894531 14.285156 2.386719 12.773438 2.386719 10.910156 C 2.386719 9.046875 3.894531 7.539062 5.757812 7.539062 C 7.621094 7.539062 9.132812 9.046875 9.132812 10.910156 Z M 9.132812 10.910156 "/>
</g>
</svg>
