<?xml version="1.0" encoding="UTF-8"?>
<svg xmlns="http://www.w3.org/2000/svg" xmlns:xlink="http://www.w3.org/1999/xlink" width="24pt" height="24pt" viewBox="0 0 24 24" version="1.1">
<g id="surface1">
<path style=" stroke:none;fill-rule:evenodd;fill:rgb(50.980392%,51.372549%,84.313725%);fill-opacity:1;" d="M 5.605469 1.421875 L 18.394531 1.421875 C 20.703125 1.421875 22.578125 3.296875 22.578125 5.605469 L 22.578125 18.394531 C 22.578125 20.703125 20.703125 22.578125 18.394531 22.578125 L 5.605469 22.578125 C 3.296875 22.578125 1.421875 20.703125 1.421875 18.394531 L 1.421875 5.605469 C 1.421875 3.296875 3.296875 1.421875 5.605469 1.421875 Z M 5.605469 1.421875 "/>
<path style=" stroke:none;fill-rule:nonzero;fill:rgb(100%,100%,100%);fill-opacity:1;" d="M 2.25 6.375 L 2.25 8.625 L 3.75 8.625 L 3.75 15.375 L 6.75 15.375 L 6.75 8.625 L 8.25 8.625 L 8.25 6.375 Z M 2.25 6.375 "/>
<path style=" stroke:none;fill-rule:nonzero;fill:rgb(100%,100%,100%);fill-opacity:1;" d="M 18 6.375 L 15.75 6.375 L 17.539062 10.835938 L 15.75 15.375 L 18 15.375 L 18.75 13.125 L 19.5 15.375 L 21.75 15.375 L 19.957031 10.835938 L 21.75 6.375 L 19.5 6.375 L 18.75 8.625 Z M 18 6.375 "/>
<path style=" stroke:none;fill-rule:nonzero;fill:rgb(100%,100%,100%);fill-opacity:1;" d="M 9 8.625 L 9 17.625 L 15 17.625 L 15 15.375 L 11.25 15.375 L 11.25 13.875 L 15 13.875 L 15 12.375 L 11.25 12.375 L 11.25 10.875 L 15 10.875 L 15 8.625 Z M 9 8.625 "/>
</g>
</svg>
