<?xml version="1.0" encoding="UTF-8"?>
<svg xmlns="http://www.w3.org/2000/svg" xmlns:xlink="http://www.w3.org/1999/xlink" width="24pt" height="24pt" viewBox="0 0 24 24" version="1.1">
<g id="surface1">
<path style=" stroke:none;fill-rule:evenodd;fill:rgb(71.764706%,71.764706%,71.764706%);fill-opacity:1;" d="M 5.605469 1.421875 L 18.394531 1.421875 C 20.703125 1.421875 22.578125 3.296875 22.578125 5.605469 L 22.578125 18.394531 C 22.578125 20.703125 20.703125 22.578125 18.394531 22.578125 L 5.605469 22.578125 C 3.296875 22.578125 1.421875 20.703125 1.421875 18.394531 L 1.421875 5.605469 C 1.421875 3.296875 3.296875 1.421875 5.605469 1.421875 Z M 5.605469 1.421875 "/>
<path style=" stroke:none;fill-rule:nonzero;fill:rgb(30.196078%,30.196078%,30.196078%);fill-opacity:1;" d="M 12 5.25 C 10.753906 5.25 9.75 6.253906 9.75 7.5 L 9.75 12.003906 C 8.808594 12.710938 8.25 13.820312 8.25 15 C 8.25 17.070312 9.929688 18.75 12 18.75 C 14.070312 18.75 15.75 17.070312 15.75 15 C 15.75 13.820312 15.191406 12.710938 14.25 12.003906 L 14.25 7.5 C 14.25 6.253906 13.246094 5.25 12 5.25 Z M 12 6.75 C 12.441406 6.75 12.75 7.058594 12.75 7.5 L 12.75 12.753906 L 13.351562 13.207031 C 13.917969 13.628906 14.25 14.292969 14.25 15 C 14.25 16.261719 13.261719 17.25 12 17.25 C 10.738281 17.25 9.75 16.261719 9.75 15 C 9.753906 14.292969 10.082031 13.628906 10.648438 13.207031 L 11.25 12.753906 L 11.25 7.5 C 11.25 7.058594 11.558594 6.75 12 6.75 Z M 12 6.75 "/>
<path style=" stroke:none;fill-rule:nonzero;fill:rgb(96.862745%,37.254902%,37.254902%);fill-opacity:1;" d="M 11.25 9.75 L 11.25 12.753906 L 10.648438 13.207031 C 10.082031 13.628906 9.753906 14.292969 9.75 15 C 9.75 16.261719 10.738281 17.25 12 17.25 C 13.261719 17.25 14.25 16.261719 14.25 15 C 14.25 14.292969 13.917969 13.628906 13.351562 13.207031 L 12.75 12.753906 L 12.75 9.75 Z M 11.25 9.75 "/>
</g>
</svg>
