<?xml version="1.0" encoding="UTF-8"?>
<svg xmlns="http://www.w3.org/2000/svg" xmlns:xlink="http://www.w3.org/1999/xlink" width="24pt" height="24pt" viewBox="0 0 24 24" version="1.1">
<g id="surface1">
<path style=" stroke:none;fill-rule:evenodd;fill:rgb(90.588235%,29.803922%,23.529412%);fill-opacity:1;" d="M 5.605469 1.421875 L 18.394531 1.421875 C 20.703125 1.421875 22.578125 3.296875 22.578125 5.605469 L 22.578125 18.394531 C 22.578125 20.703125 20.703125 22.578125 18.394531 22.578125 L 5.605469 22.578125 C 3.296875 22.578125 1.421875 20.703125 1.421875 18.394531 L 1.421875 5.605469 C 1.421875 3.296875 3.296875 1.421875 5.605469 1.421875 Z M 5.605469 1.421875 "/>
<path style=" stroke:none;fill-rule:nonzero;fill:rgb(100%,100%,100%);fill-opacity:1;" d="M 12 4.5 C 16.140625 4.5 19.5 7.859375 19.5 12 C 19.5 14.015625 18.6875 15.945312 17.25 17.355469 L 17.25 8.5625 C 17.25 7.972656 16.714844 7.5 16.050781 7.5 L 15.449219 7.5 C 14.785156 7.5 14.25 7.972656 14.25 8.5625 L 14.25 10.90625 L 11.515625 9.371094 L 8.300781 7.570312 C 8.222656 7.527344 8.132812 7.5 8.046875 7.5 C 7.902344 7.496094 7.761719 7.550781 7.660156 7.648438 C 7.558594 7.746094 7.5 7.878906 7.5 8.015625 L 7.5 15.230469 C 7.5 15.417969 7.601562 15.585938 7.765625 15.679688 C 7.929688 15.773438 8.132812 15.773438 8.300781 15.679688 L 11.515625 13.875 L 14.25 12.34375 L 14.25 19.144531 C 13.523438 19.378906 12.765625 19.496094 12 19.5 C 7.859375 19.5 4.5 16.140625 4.5 12 C 4.5 7.859375 7.859375 4.5 12 4.5 Z M 12 4.5 "/>
</g>
</svg>
