<?xml version="1.0" encoding="UTF-8"?>
<svg xmlns="http://www.w3.org/2000/svg" xmlns:xlink="http://www.w3.org/1999/xlink" width="24pt" height="24pt" viewBox="0 0 24 24" version="1.1">
<g id="surface1">
<path style=" stroke:none;fill-rule:evenodd;fill:rgb(39.607843%,77.254902%,47.843137%);fill-opacity:1;" d="M 5.605469 1.421875 L 18.394531 1.421875 C 20.703125 1.421875 22.578125 3.296875 22.578125 5.605469 L 22.578125 18.394531 C 22.578125 20.703125 20.703125 22.578125 18.394531 22.578125 L 5.605469 22.578125 C 3.296875 22.578125 1.421875 20.703125 1.421875 18.394531 L 1.421875 5.605469 C 1.421875 3.296875 3.296875 1.421875 5.605469 1.421875 Z M 5.605469 1.421875 "/>
<path style=" stroke:none;fill-rule:nonzero;fill:rgb(17.647059%,35.294118%,21.568627%);fill-opacity:1;" d="M 12 4.164062 C 10.761719 4.164062 9.761719 5.164062 9.761719 6.402344 L 9.761719 9.015625 L 8.769531 8.027344 C 8.097656 7.355469 7.019531 7.355469 6.347656 8.027344 C 5.675781 8.695312 5.675781 9.777344 6.347656 10.449219 L 9.578125 13.679688 L 6.347656 16.90625 C 5.675781 17.578125 5.675781 18.660156 6.347656 19.332031 C 7.019531 20.003906 8.097656 20.003906 8.769531 19.332031 L 10.839844 17.261719 C 11.175781 17.46875 11.574219 17.59375 12 17.59375 C 12.425781 17.59375 12.824219 17.46875 13.160156 17.261719 L 15.230469 19.332031 C 15.902344 20.003906 16.980469 20.003906 17.652344 19.332031 C 18.324219 18.660156 18.324219 17.578125 17.652344 16.90625 L 14.421875 13.679688 L 17.652344 10.449219 C 18.324219 9.777344 18.324219 8.695312 17.652344 8.027344 C 16.980469 7.355469 15.902344 7.355469 15.230469 8.027344 L 14.238281 9.015625 L 14.238281 6.402344 C 14.238281 5.164062 13.238281 4.164062 12 4.164062 Z M 12 4.164062 "/>
<path style=" stroke:none;fill-rule:nonzero;fill:rgb(42.745098%,45.490196%,50.588235%);fill-opacity:1;" d="M 17.597656 13.398438 C 17.597656 10.152344 15.089844 7.523438 12 7.523438 C 8.910156 7.523438 6.402344 10.152344 6.402344 13.398438 C 6.402344 16.644531 8.910156 19.273438 12 19.273438 C 15.089844 19.273438 17.597656 16.644531 17.597656 13.398438 Z M 17.597656 13.398438 "/>
<path style=" stroke:none;fill-rule:nonzero;fill:rgb(76.862745%,76.862745%,76.862745%);fill-opacity:1;" d="M 8.660156 10.304688 C 8.507812 10.300781 8.363281 10.363281 8.253906 10.46875 C 8.148438 10.574219 8.089844 10.722656 8.089844 10.871094 L 8.089844 13.023438 C 8.089844 13.027344 8.089844 13.027344 8.089844 13.03125 C 8.089844 13.035156 8.085938 13.042969 8.085938 13.050781 C 8.085938 13.0625 8.085938 13.078125 8.085938 13.09375 C 8.082031 13.113281 8.085938 13.128906 8.085938 13.144531 C 8.085938 13.152344 8.085938 13.164062 8.085938 13.171875 C 8.089844 13.179688 8.089844 13.191406 8.089844 13.199219 L 8.089844 15.347656 C 8.089844 15.382812 8.09375 15.414062 8.097656 15.445312 C 8.101562 15.464844 8.105469 15.480469 8.109375 15.5 C 8.113281 15.515625 8.121094 15.535156 8.125 15.550781 C 8.125 15.550781 8.125 15.554688 8.125 15.554688 C 8.132812 15.570312 8.140625 15.585938 8.148438 15.601562 C 8.148438 15.601562 8.148438 15.605469 8.148438 15.605469 C 8.15625 15.621094 8.164062 15.636719 8.175781 15.652344 C 8.1875 15.667969 8.195312 15.683594 8.207031 15.699219 C 8.21875 15.714844 8.230469 15.726562 8.242188 15.742188 C 8.253906 15.753906 8.269531 15.765625 8.28125 15.777344 C 8.28125 15.777344 8.28125 15.78125 8.285156 15.78125 C 8.296875 15.792969 8.3125 15.804688 8.328125 15.8125 C 8.34375 15.824219 8.359375 15.835938 8.375 15.84375 C 8.375 15.84375 8.375 15.84375 8.375 15.847656 C 8.386719 15.851562 8.398438 15.855469 8.410156 15.863281 C 8.417969 15.867188 8.425781 15.867188 8.429688 15.871094 C 8.445312 15.878906 8.460938 15.882812 8.476562 15.890625 C 8.507812 15.898438 8.539062 15.90625 8.574219 15.910156 C 8.582031 15.914062 8.59375 15.914062 8.601562 15.914062 C 8.605469 15.914062 8.605469 15.914062 8.609375 15.914062 C 8.625 15.914062 8.636719 15.917969 8.652344 15.917969 C 8.664062 15.917969 8.679688 15.914062 8.691406 15.914062 C 8.695312 15.914062 8.695312 15.914062 8.699219 15.914062 C 8.710938 15.914062 8.71875 15.914062 8.726562 15.910156 C 8.761719 15.90625 8.792969 15.898438 8.824219 15.890625 C 8.839844 15.882812 8.859375 15.878906 8.875 15.871094 C 8.875 15.871094 8.878906 15.867188 8.878906 15.867188 C 8.894531 15.863281 8.910156 15.851562 8.925781 15.84375 C 8.960938 15.824219 8.988281 15.804688 9.015625 15.78125 C 9.019531 15.78125 9.019531 15.777344 9.019531 15.777344 C 9.035156 15.765625 9.046875 15.753906 9.058594 15.742188 C 9.070312 15.726562 9.082031 15.714844 9.09375 15.699219 C 9.105469 15.683594 9.117188 15.667969 9.125 15.652344 C 9.136719 15.636719 9.144531 15.621094 9.152344 15.605469 C 9.152344 15.605469 9.152344 15.601562 9.152344 15.601562 C 9.160156 15.585938 9.167969 15.570312 9.175781 15.554688 C 9.175781 15.554688 9.175781 15.550781 9.175781 15.550781 C 9.179688 15.535156 9.1875 15.515625 9.191406 15.5 C 9.195312 15.480469 9.199219 15.464844 9.203125 15.445312 C 9.207031 15.414062 9.210938 15.382812 9.210938 15.347656 L 9.210938 13.671875 L 10.328125 13.671875 L 10.328125 15.347656 C 10.328125 15.382812 10.332031 15.414062 10.335938 15.445312 C 10.339844 15.464844 10.34375 15.480469 10.347656 15.5 C 10.351562 15.515625 10.359375 15.535156 10.363281 15.550781 C 10.363281 15.550781 10.363281 15.554688 10.363281 15.554688 C 10.371094 15.570312 10.378906 15.585938 10.386719 15.601562 C 10.386719 15.601562 10.386719 15.605469 10.386719 15.605469 C 10.394531 15.621094 10.40625 15.636719 10.414062 15.652344 C 10.425781 15.667969 10.433594 15.683594 10.445312 15.699219 C 10.457031 15.714844 10.46875 15.726562 10.480469 15.742188 C 10.492188 15.753906 10.507812 15.765625 10.519531 15.777344 C 10.519531 15.777344 10.519531 15.78125 10.523438 15.78125 C 10.539062 15.792969 10.550781 15.804688 10.566406 15.8125 C 10.582031 15.824219 10.597656 15.835938 10.613281 15.84375 C 10.613281 15.84375 10.613281 15.84375 10.617188 15.847656 C 10.625 15.851562 10.636719 15.855469 10.648438 15.863281 C 10.652344 15.863281 10.660156 15.867188 10.664062 15.871094 C 10.664062 15.871094 10.667969 15.871094 10.667969 15.871094 C 10.683594 15.878906 10.699219 15.882812 10.714844 15.890625 C 10.746094 15.898438 10.78125 15.90625 10.8125 15.910156 C 10.820312 15.914062 10.832031 15.914062 10.839844 15.914062 C 10.84375 15.914062 10.84375 15.914062 10.847656 15.914062 C 10.863281 15.914062 10.875 15.917969 10.890625 15.917969 C 10.902344 15.917969 10.917969 15.914062 10.929688 15.914062 C 10.933594 15.914062 10.933594 15.914062 10.9375 15.914062 C 10.949219 15.914062 10.957031 15.914062 10.964844 15.910156 C 11 15.90625 11.03125 15.898438 11.0625 15.890625 C 11.078125 15.882812 11.097656 15.878906 11.113281 15.871094 C 11.113281 15.871094 11.117188 15.867188 11.117188 15.867188 C 11.132812 15.863281 11.148438 15.851562 11.164062 15.84375 C 11.164062 15.84375 11.164062 15.84375 11.167969 15.84375 C 11.199219 15.824219 11.226562 15.804688 11.253906 15.78125 C 11.257812 15.78125 11.257812 15.777344 11.257812 15.777344 C 11.273438 15.765625 11.285156 15.753906 11.296875 15.742188 C 11.308594 15.726562 11.320312 15.714844 11.332031 15.699219 C 11.34375 15.683594 11.355469 15.667969 11.363281 15.652344 C 11.375 15.636719 11.382812 15.621094 11.390625 15.605469 C 11.390625 15.601562 11.390625 15.601562 11.390625 15.601562 C 11.398438 15.585938 11.40625 15.570312 11.414062 15.554688 C 11.414062 15.550781 11.414062 15.550781 11.414062 15.550781 C 11.417969 15.535156 11.425781 15.515625 11.429688 15.5 C 11.433594 15.480469 11.4375 15.464844 11.441406 15.445312 C 11.445312 15.414062 11.449219 15.382812 11.449219 15.347656 L 11.449219 13.199219 C 11.449219 13.191406 11.453125 13.179688 11.453125 13.171875 C 11.453125 13.164062 11.453125 13.152344 11.453125 13.144531 C 11.457031 13.136719 11.457031 13.125 11.457031 13.113281 C 11.457031 13.101562 11.457031 13.09375 11.453125 13.082031 C 11.453125 13.082031 11.453125 13.082031 11.453125 13.078125 C 11.453125 13.078125 11.453125 13.074219 11.453125 13.074219 C 11.453125 13.058594 11.453125 13.042969 11.449219 13.027344 C 11.449219 13.027344 11.449219 13.023438 11.449219 13.023438 L 11.449219 10.871094 C 11.449219 10.722656 11.390625 10.574219 11.285156 10.46875 C 11.175781 10.363281 11.03125 10.300781 10.878906 10.304688 C 10.738281 10.308594 10.605469 10.363281 10.503906 10.460938 C 10.488281 10.472656 10.476562 10.484375 10.464844 10.5 C 10.453125 10.511719 10.445312 10.523438 10.4375 10.535156 C 10.429688 10.542969 10.425781 10.550781 10.417969 10.558594 C 10.414062 10.5625 10.414062 10.566406 10.410156 10.570312 C 10.335938 10.683594 10.308594 10.824219 10.328125 10.960938 L 10.328125 12.550781 L 9.210938 12.550781 L 9.210938 10.960938 C 9.230469 10.824219 9.203125 10.683594 9.128906 10.570312 C 9.128906 10.570312 9.125 10.570312 9.125 10.566406 C 9.121094 10.558594 9.117188 10.550781 9.109375 10.542969 C 9.105469 10.539062 9.105469 10.539062 9.101562 10.535156 C 9.09375 10.523438 9.085938 10.511719 9.074219 10.5 C 9.0625 10.484375 9.050781 10.472656 9.035156 10.460938 C 8.933594 10.363281 8.800781 10.308594 8.660156 10.304688 Z M 13.679688 11.441406 C 12.75 11.441406 12 12.191406 12 13.117188 C 12 14.046875 12.75 14.796875 13.679688 14.796875 C 13.820312 14.796875 13.957031 14.777344 14.09375 14.742188 C 14.082031 14.789062 14.074219 14.84375 14.058594 14.886719 C 13.980469 15.117188 13.878906 15.253906 13.777344 15.320312 C 13.679688 15.390625 13.550781 15.4375 13.234375 15.371094 C 12.933594 15.304688 12.636719 15.5 12.570312 15.800781 C 12.507812 16.101562 12.699219 16.402344 13.003906 16.464844 C 13.527344 16.574219 14.027344 16.5 14.402344 16.253906 C 14.773438 16.003906 14.988281 15.628906 15.117188 15.253906 C 15.375 14.507812 15.359375 13.679688 15.359375 13.117188 C 15.359375 13.097656 15.355469 13.074219 15.355469 13.054688 C 15.320312 12.152344 14.578125 11.441406 13.679688 11.441406 Z M 13.679688 12.558594 C 13.988281 12.558594 14.238281 12.808594 14.238281 13.117188 C 14.238281 13.429688 13.988281 13.679688 13.679688 13.679688 C 13.371094 13.679688 13.121094 13.429688 13.121094 13.117188 C 13.121094 12.808594 13.371094 12.558594 13.679688 12.558594 Z M 13.679688 12.558594 "/>
</g>
</svg>
