<?xml version="1.0" encoding="UTF-8"?>
<svg xmlns="http://www.w3.org/2000/svg" xmlns:xlink="http://www.w3.org/1999/xlink" width="24pt" height="24pt" viewBox="0 0 24 24" version="1.1">
<g id="surface1">
<path style=" stroke:none;fill-rule:evenodd;fill:rgb(14.509804%,55.294118%,79.607843%);fill-opacity:1;" d="M 5.605469 1.421875 L 18.394531 1.421875 C 20.703125 1.421875 22.578125 3.296875 22.578125 5.605469 L 22.578125 18.394531 C 22.578125 20.703125 20.703125 22.578125 18.394531 22.578125 L 5.605469 22.578125 C 3.296875 22.578125 1.421875 20.703125 1.421875 18.394531 L 1.421875 5.605469 C 1.421875 3.296875 3.296875 1.421875 5.605469 1.421875 Z M 5.605469 1.421875 "/>
<path style=" stroke:none;fill-rule:nonzero;fill:rgb(31.372549%,74.509804%,93.333333%);fill-opacity:1;" d="M 13.277344 4.347656 L 11.035156 7.515625 C 10.378906 7.742188 9.765625 8.078125 9.21875 8.507812 C 6.984375 7.976562 4.613281 9.757812 4.613281 9.757812 L 6.914062 14.484375 C 7.441406 17.46875 10.046875 19.648438 13.101562 19.652344 C 16.574219 19.652344 19.386719 16.855469 19.386719 13.40625 C 19.382812 11.441406 18.449219 9.589844 16.867188 8.414062 C 16.484375 5.804688 13.277344 4.347656 13.277344 4.347656 Z M 13.277344 4.347656 "/>
<path style=" stroke:none;fill-rule:nonzero;fill:rgb(100%,100%,100%);fill-opacity:1;" d="M 6.269531 10.152344 C 6.082031 10.152344 5.882812 10.175781 5.667969 10.21875 C 5.667969 10.21875 6.992188 10.367188 7.648438 11.261719 C 7.371094 12.429688 7.011719 13.320312 7.011719 13.320312 L 8.304688 11.054688 C 8.304688 11.054688 7.59375 10.144531 6.269531 10.152344 Z M 6.269531 10.152344 "/>
<path style=" stroke:none;fill-rule:nonzero;fill:rgb(100%,100%,100%);fill-opacity:1;" d="M 13.054688 5.402344 L 12 7.515625 L 12.644531 7.308594 C 12.644531 7.308594 12.96875 6.429688 13.054688 5.402344 Z M 13.054688 5.402344 "/>
<path style=" stroke:none;fill-rule:nonzero;fill:rgb(100%,100%,100%);fill-opacity:1;" d="M 10.253906 13.71875 C 9.910156 14.082031 9.796875 14.613281 9.96875 15.085938 C 10.21875 15.773438 10.976562 16.128906 11.660156 15.878906 C 12.34375 15.628906 12.699219 14.867188 12.449219 14.179688 C 12.277344 13.707031 11.851562 13.375 11.351562 13.320312 L 11.347656 13.410156 L 11.285156 14.839844 L 10.316406 13.785156 Z M 10.253906 13.71875 "/>
<path style=" stroke:none;fill-rule:nonzero;fill:rgb(100%,100%,100%);fill-opacity:1;" d="M 14.476562 11.609375 C 14.128906 11.972656 14.019531 12.503906 14.191406 12.976562 C 14.4375 13.664062 15.195312 14.015625 15.882812 13.765625 C 16.566406 13.515625 16.917969 12.757812 16.667969 12.070312 C 16.496094 11.597656 16.074219 11.261719 15.574219 11.207031 L 15.570312 11.296875 L 15.503906 12.730469 L 14.535156 11.675781 Z M 14.476562 11.609375 "/>
<path style=" stroke:none;fill-rule:nonzero;fill:rgb(100%,100%,100%);fill-opacity:1;" d="M 16.375 15.429688 C 16.363281 15.429688 16.347656 15.429688 16.335938 15.429688 C 16.238281 15.441406 16.144531 15.492188 16.078125 15.574219 C 15.921875 15.765625 15.605469 15.808594 15.269531 15.757812 C 14.96875 15.710938 14.738281 15.617188 14.6875 15.59375 C 14.632812 15.5625 14.570312 15.542969 14.507812 15.542969 C 14.398438 15.535156 14.292969 15.582031 14.214844 15.667969 C 14.136719 15.753906 14.097656 15.871094 14.105469 15.988281 C 14.089844 16.089844 14.042969 16.304688 13.9375 16.574219 C 13.800781 16.914062 13.597656 17.1875 13.367188 17.234375 C 13.160156 17.277344 13.023438 17.496094 13.0625 17.726562 C 13.101562 17.953125 13.300781 18.101562 13.507812 18.0625 C 14.121094 17.9375 14.453125 17.367188 14.636719 16.914062 C 14.695312 16.765625 14.738281 16.628906 14.773438 16.5 C 14.890625 16.535156 15.019531 16.566406 15.164062 16.589844 C 15.613281 16.65625 16.226562 16.644531 16.648438 16.132812 C 16.75 16.011719 16.777344 15.835938 16.71875 15.683594 C 16.660156 15.535156 16.523438 15.433594 16.375 15.429688 Z M 16.375 15.429688 "/>
</g>
</svg>
