<?xml version="1.0" encoding="UTF-8"?>
<svg xmlns="http://www.w3.org/2000/svg" xmlns:xlink="http://www.w3.org/1999/xlink" width="24pt" height="24pt" viewBox="0 0 24 24" version="1.1">
<g id="surface1">
<path style=" stroke:none;fill-rule:evenodd;fill:rgb(38.039216%,51.764706%,65.098039%);fill-opacity:1;" d="M 5.605469 1.421875 L 18.394531 1.421875 C 20.703125 1.421875 22.578125 3.296875 22.578125 5.605469 L 22.578125 18.394531 C 22.578125 20.703125 20.703125 22.578125 18.394531 22.578125 L 5.605469 22.578125 C 3.296875 22.578125 1.421875 20.703125 1.421875 18.394531 L 1.421875 5.605469 C 1.421875 3.296875 3.296875 1.421875 5.605469 1.421875 Z M 5.605469 1.421875 "/>
<path style=" stroke:none;fill-rule:evenodd;fill:rgb(100%,100%,100%);fill-opacity:1;" d="M 11.824219 16.832031 L 12.808594 16.832031 C 12.808594 16.832031 13.105469 16.800781 13.257812 16.628906 C 13.398438 16.472656 13.394531 16.179688 13.394531 16.179688 C 13.394531 16.179688 13.375 14.8125 13.988281 14.609375 C 14.59375 14.410156 15.371094 15.933594 16.195312 16.519531 C 16.820312 16.960938 17.292969 16.867188 17.292969 16.867188 L 19.496094 16.832031 C 19.496094 16.832031 20.648438 16.761719 20.101562 15.820312 C 20.058594 15.746094 19.785156 15.128906 18.464844 13.859375 C 17.082031 12.53125 17.265625 12.746094 18.933594 10.449219 C 19.945312 9.046875 20.351562 8.195312 20.222656 7.828125 C 20.101562 7.480469 19.359375 7.570312 19.359375 7.570312 L 16.875 7.585938 C 16.875 7.585938 16.691406 7.5625 16.554688 7.644531 C 16.421875 7.730469 16.335938 7.921875 16.335938 7.921875 C 16.335938 7.921875 15.945312 9.003906 15.421875 9.925781 C 14.316406 11.867188 13.875 11.972656 13.695312 11.851562 C 13.273438 11.570312 13.378906 10.722656 13.378906 10.117188 C 13.378906 8.234375 13.65625 7.449219 12.84375 7.246094 C 12.570312 7.179688 12.375 7.132812 11.683594 7.128906 C 10.796875 7.117188 10.050781 7.128906 9.625 7.34375 C 9.34375 7.488281 9.125 7.808594 9.257812 7.824219 C 9.421875 7.847656 9.792969 7.929688 9.988281 8.207031 C 10.246094 8.566406 10.234375 9.371094 10.234375 9.371094 C 10.234375 9.371094 10.382812 11.585938 9.894531 11.863281 C 9.558594 12.050781 9.101562 11.664062 8.117188 9.902344 C 7.613281 9 7.230469 8 7.230469 8 C 7.230469 8 7.15625 7.816406 7.027344 7.714844 C 6.867188 7.59375 6.644531 7.554688 6.644531 7.554688 L 4.289062 7.570312 C 4.289062 7.570312 3.933594 7.582031 3.804688 7.742188 C 3.6875 7.882812 3.792969 8.175781 3.792969 8.175781 C 3.792969 8.175781 5.640625 12.648438 7.730469 14.902344 C 9.648438 16.96875 11.824219 16.835938 11.824219 16.835938 "/>
</g>
</svg>
