<?xml version="1.0" encoding="UTF-8"?>
<svg xmlns="http://www.w3.org/2000/svg" xmlns:xlink="http://www.w3.org/1999/xlink" width="24pt" height="24pt" viewBox="0 0 24 24" version="1.1">
<defs>
<clipPath id="clip1">
  <rect width="24" height="24"/>
</clipPath>
<g id="surface6" clip-path="url(#clip1)">
<path style=" stroke:none;fill-rule:nonzero;fill:rgb(98.039216%,90.196078%,58.431373%);fill-opacity:1;" d="M 5.570312 4.5 C 4.976562 4.5 4.5 4.976562 4.5 5.570312 L 4.5 10.394531 C 4.5 10.988281 4.976562 11.464844 5.570312 11.464844 C 6.164062 11.464844 6.644531 10.988281 6.644531 10.394531 L 6.644531 8.148438 L 8.25 9.757812 L 8.25 11.464844 L 10.394531 11.464844 L 10.394531 10.929688 C 10.394531 10.632812 10.632812 10.394531 10.929688 10.394531 L 11.464844 10.394531 L 11.464844 8.25 L 9.757812 8.25 L 8.148438 6.644531 L 10.394531 6.644531 C 10.988281 6.644531 11.464844 6.164062 11.464844 5.570312 C 11.464844 4.976562 10.988281 4.5 10.394531 4.5 Z M 13.605469 4.5 C 13.011719 4.5 12.535156 4.976562 12.535156 5.570312 C 12.535156 6.164062 13.011719 6.644531 13.605469 6.644531 L 15.851562 6.644531 L 14.242188 8.25 L 12.535156 8.25 L 12.535156 10.394531 L 13.070312 10.394531 C 13.367188 10.394531 13.605469 10.632812 13.605469 10.929688 L 13.605469 11.464844 L 15.75 11.464844 L 15.75 9.757812 L 17.355469 8.148438 L 17.355469 10.394531 C 17.355469 10.988281 17.835938 11.464844 18.429688 11.464844 C 19.023438 11.464844 19.5 10.988281 19.5 10.394531 L 19.5 5.570312 C 19.5 4.976562 19.023438 4.5 18.429688 4.5 Z M 8.25 12.535156 L 8.25 14.679688 C 8.25 15.273438 8.726562 15.75 9.320312 15.75 L 11.464844 15.75 L 11.464844 13.605469 L 10.929688 13.605469 C 10.632812 13.605469 10.394531 13.367188 10.394531 13.070312 L 10.394531 12.535156 Z M 13.605469 12.535156 L 13.605469 13.070312 C 13.605469 13.367188 13.367188 13.605469 13.070312 13.605469 L 12.535156 13.605469 L 12.535156 15.75 L 14.242188 15.75 L 15.851562 17.355469 L 13.605469 17.355469 C 13.011719 17.355469 12.535156 17.835938 12.535156 18.429688 C 12.535156 19.023438 13.011719 19.5 13.605469 19.5 L 18.429688 19.5 C 19.023438 19.5 19.5 19.023438 19.5 18.429688 L 19.5 13.609375 C 19.5 13.015625 19.023438 12.535156 18.429688 12.535156 C 17.835938 12.535156 17.355469 13.015625 17.355469 13.609375 L 17.355469 15.851562 L 15.75 14.246094 L 15.75 12.535156 Z M 13.605469 12.535156 "/>
</g>
</defs>
<g id="surface1">
<path style=" stroke:none;fill-rule:evenodd;fill:rgb(30.588235%,56.862745%,85.098039%);fill-opacity:1;" d="M 5.605469 1.421875 L 18.394531 1.421875 C 20.703125 1.421875 22.578125 3.296875 22.578125 5.605469 L 22.578125 18.394531 C 22.578125 20.703125 20.703125 22.578125 18.394531 22.578125 L 5.605469 22.578125 C 3.296875 22.578125 1.421875 20.703125 1.421875 18.394531 L 1.421875 5.605469 C 1.421875 3.296875 3.296875 1.421875 5.605469 1.421875 Z M 5.605469 1.421875 "/>
<use xlink:href="#surface6"/>
</g>
</svg>
