<?xml version="1.0" encoding="UTF-8"?>
<svg xmlns="http://www.w3.org/2000/svg" xmlns:xlink="http://www.w3.org/1999/xlink" width="24pt" height="24pt" viewBox="0 0 24 24" version="1.1">
<defs>
<clipPath id="clip1">
  <rect width="24" height="24"/>
</clipPath>
<g id="surface6" clip-path="url(#clip1)">
<path style=" stroke:none;fill-rule:nonzero;fill:rgb(84.705882%,84.705882%,84.705882%);fill-opacity:1;" d="M 12 8.207031 C 10.035156 8.207031 8.363281 9.371094 7.640625 11.023438 C 5.8125 11.285156 4.410156 12.796875 4.410156 14.644531 C 4.410156 16.675781 6.109375 18.324219 8.207031 18.324219 L 16.269531 18.324219 C 18.101562 18.324219 19.589844 16.882812 19.589844 15.105469 C 19.589844 13.453125 18.308594 12.097656 16.652344 11.914062 C 16.222656 9.804688 14.300781 8.207031 12 8.207031 Z M 12 8.207031 "/>
</g>
</defs>
<g id="surface1">
<path style=" stroke:none;fill-rule:evenodd;fill:rgb(40%,40%,40%);fill-opacity:1;" d="M 5.605469 1.421875 L 18.394531 1.421875 C 20.703125 1.421875 22.578125 3.296875 22.578125 5.605469 L 22.578125 18.394531 C 22.578125 20.703125 20.703125 22.578125 18.394531 22.578125 L 5.605469 22.578125 C 3.296875 22.578125 1.421875 20.703125 1.421875 18.394531 L 1.421875 5.605469 C 1.421875 3.296875 3.296875 1.421875 5.605469 1.421875 Z M 5.605469 1.421875 "/>
<path style=" stroke:none;fill-rule:nonzero;fill:rgb(99.607843%,75.294118%,2.352941%);fill-opacity:1;" d="M 9.46875 5.675781 L 7.988281 7.15625 L 5.894531 7.15625 L 5.894531 9.253906 L 4.410156 10.734375 L 5.894531 12.214844 L 5.894531 14.3125 L 7.988281 14.3125 L 9.46875 15.792969 L 10.953125 14.3125 L 13.046875 14.3125 L 13.046875 12.214844 L 14.53125 10.734375 L 13.046875 9.253906 L 13.046875 7.15625 L 10.953125 7.15625 Z M 9.46875 5.675781 "/>
<path style=" stroke:none;fill-rule:nonzero;fill:rgb(99.607843%,80.392157%,21.960784%);fill-opacity:1;" d="M 7.535156 6.058594 L 6.734375 7.996094 L 4.796875 8.796875 L 5.597656 10.734375 L 4.796875 12.671875 L 6.734375 13.472656 L 7.535156 15.410156 L 9.472656 14.605469 L 11.40625 15.410156 L 12.210938 13.472656 L 14.144531 12.671875 L 13.34375 10.734375 L 14.144531 8.796875 L 12.210938 7.996094 L 11.40625 6.058594 L 9.472656 6.863281 Z M 7.535156 6.058594 "/>
<path style=" stroke:none;fill-rule:nonzero;fill:rgb(99.607843%,85.098039%,41.568627%);fill-opacity:1;" d="M 13.644531 10.738281 C 13.644531 8.433594 11.777344 6.5625 9.472656 6.5625 C 7.167969 6.5625 5.296875 8.433594 5.296875 10.738281 C 5.296875 13.042969 7.167969 14.910156 9.472656 14.910156 C 11.777344 14.910156 13.644531 13.042969 13.644531 10.738281 Z M 13.644531 10.738281 "/>
<use xlink:href="#surface6"/>
</g>
</svg>
