<?xml version="1.0" encoding="UTF-8"?>
<svg xmlns="http://www.w3.org/2000/svg" xmlns:xlink="http://www.w3.org/1999/xlink" width="24pt" height="24pt" viewBox="0 0 24 24" version="1.1">
<g id="surface1">
<path style=" stroke:none;fill-rule:evenodd;fill:rgb(60.392157%,79.215686%,23.529412%);fill-opacity:1;" d="M 5.605469 1.421875 L 18.394531 1.421875 C 20.703125 1.421875 22.578125 3.296875 22.578125 5.605469 L 22.578125 18.394531 C 22.578125 20.703125 20.703125 22.578125 18.394531 22.578125 L 5.605469 22.578125 C 3.296875 22.578125 1.421875 20.703125 1.421875 18.394531 L 1.421875 5.605469 C 1.421875 3.296875 3.296875 1.421875 5.605469 1.421875 Z M 5.605469 1.421875 "/>
<path style="fill:none;stroke-width:3;stroke-linecap:round;stroke-linejoin:round;stroke:rgb(100%,100%,100%);stroke-opacity:1;stroke-miterlimit:4;" d="M 12.499841 22.5 L 22.499841 9.5 " transform="matrix(0.75,0,0,0.75,-0.749881,0)"/>
<path style="fill:none;stroke-width:3;stroke-linecap:round;stroke-linejoin:round;stroke:rgb(100%,100%,100%);stroke-opacity:1;stroke-miterlimit:4;" d="M 11.499841 9.5 L 16.697758 16 " transform="matrix(0.75,0,0,0.75,-0.749881,0)"/>
<path style=" stroke:none;fill-rule:nonzero;fill:rgb(30.980392%,30.980392%,30.980392%);fill-opacity:1;" d="M 21.15625 16.5 C 21.15625 18.984375 19.144531 21 16.65625 21 C 14.171875 21 12.15625 18.984375 12.15625 16.5 C 12.15625 14.015625 14.171875 12 16.65625 12 C 19.144531 12 21.15625 14.015625 21.15625 16.5 Z M 21.15625 16.5 "/>
<path style=" stroke:none;fill-rule:nonzero;fill:rgb(100%,100%,100%);fill-opacity:1;" d="M 15.53125 14.25 C 14.289062 14.25 13.28125 15.257812 13.28125 16.5 C 13.28125 17.742188 14.289062 18.75 15.53125 18.75 C 16.558594 18.75 17.453125 18.054688 17.710938 17.0625 L 18.90625 17.0625 L 18.90625 18.1875 L 19.46875 18.1875 L 19.46875 17.0625 L 20.03125 17.0625 L 20.03125 15.9375 L 17.707031 15.9375 C 17.453125 14.945312 16.558594 14.25 15.53125 14.25 Z M 15.53125 15.375 C 16.152344 15.375 16.65625 15.878906 16.65625 16.5 C 16.65625 17.121094 16.152344 17.625 15.53125 17.625 C 14.910156 17.625 14.40625 17.121094 14.40625 16.5 C 14.40625 15.878906 14.910156 15.375 15.53125 15.375 Z M 15.53125 15.375 "/>
</g>
</svg>
