<?xml version="1.0" encoding="UTF-8"?>
<svg xmlns="http://www.w3.org/2000/svg" xmlns:xlink="http://www.w3.org/1999/xlink" width="24pt" height="24pt" viewBox="0 0 24 24" version="1.1">
<g id="surface1">
<path style=" stroke:none;fill-rule:evenodd;fill:rgb(60.392157%,79.215686%,23.529412%);fill-opacity:1;" d="M 5.605469 1.421875 L 18.394531 1.421875 C 20.703125 1.421875 22.578125 3.296875 22.578125 5.605469 L 22.578125 18.394531 C 22.578125 20.703125 20.703125 22.578125 18.394531 22.578125 L 5.605469 22.578125 C 3.296875 22.578125 1.421875 20.703125 1.421875 18.394531 L 1.421875 5.605469 C 1.421875 3.296875 3.296875 1.421875 5.605469 1.421875 Z M 5.605469 1.421875 "/>
<path style="fill:none;stroke-width:3;stroke-linecap:round;stroke-linejoin:round;stroke:rgb(100%,100%,100%);stroke-opacity:1;stroke-miterlimit:4;" d="M 12.499841 22.5 L 22.499841 9.5 " transform="matrix(0.75,0,0,0.75,-0.749881,0)"/>
<path style="fill:none;stroke-width:3;stroke-linecap:round;stroke-linejoin:round;stroke:rgb(100%,100%,100%);stroke-opacity:1;stroke-miterlimit:4;" d="M 11.499841 9.5 L 16.697758 16 " transform="matrix(0.75,0,0,0.75,-0.749881,0)"/>
<path style=" stroke:none;fill-rule:nonzero;fill:rgb(100%,54.901961%,6.27451%);fill-opacity:1;" d="M 21.078125 16.5 C 21.078125 18.984375 19.0625 21 16.578125 21 C 14.09375 21 12.078125 18.984375 12.078125 16.5 C 12.078125 14.015625 14.09375 12 16.578125 12 C 19.0625 12 21.078125 14.015625 21.078125 16.5 Z M 21.078125 16.5 "/>
<path style="fill:none;stroke-width:2.666667;stroke-linecap:round;stroke-linejoin:round;stroke:rgb(100%,100%,100%);stroke-opacity:1;stroke-miterlimit:4;" d="M 20.998538 27 L 20.998538 20 L 26.998538 20 L 26.998538 24 L 20.998538 24 " transform="matrix(0.5625,0,0,0.5625,3.078947,3.5625)"/>
</g>
</svg>
