<?xml version="1.0" encoding="UTF-8"?>
<svg xmlns="http://www.w3.org/2000/svg" xmlns:xlink="http://www.w3.org/1999/xlink" width="48pt" height="48pt" viewBox="0 0 48 48" version="1.1">
<g id="surface1">
<path style=" stroke:none;fill-rule:evenodd;fill:rgb(14.117647%,54.117647%,99.215686%);fill-opacity:1;" d="M 11.210938 2.847656 L 36.789062 2.847656 C 41.410156 2.847656 45.152344 6.589844 45.152344 11.210938 L 45.152344 36.789062 C 45.152344 41.410156 41.410156 45.152344 36.789062 45.152344 L 11.210938 45.152344 C 6.589844 45.152344 2.847656 41.410156 2.847656 36.789062 L 2.847656 11.210938 C 2.847656 6.589844 6.589844 2.847656 11.210938 2.847656 Z M 11.210938 2.847656 "/>
<path style=" stroke:none;fill-rule:nonzero;fill:rgb(100%,100%,100%);fill-opacity:1;" d="M 38.289062 24 C 38.289062 31.890625 31.890625 38.289062 24 38.289062 C 16.109375 38.289062 9.710938 31.890625 9.710938 24 C 9.710938 16.109375 16.109375 9.710938 24 9.710938 C 31.890625 9.710938 38.289062 16.109375 38.289062 24 Z M 38.289062 24 "/>
<path style=" stroke:none;fill-rule:nonzero;fill:rgb(80%,80%,80%);fill-opacity:1;" d="M 30.78125 29.476562 C 26.0625 31.875 21.203125 34.128906 16.042969 35.328125 C 14.382812 35.320312 15.203125 33.09375 15.472656 32.085938 C 16.761719 27.804688 18.761719 23.792969 20.660156 19.773438 C 21.414062 18.503906 21.949219 16.753906 23.46875 16.265625 C 24.941406 16.097656 25.910156 17.5625 26.675781 18.632812 C 29.796875 23.546875 32.746094 28.59375 35.335938 33.828125 C 35.988281 35.191406 36.632812 36.5625 37.265625 37.9375 C 35.378906 30.015625 32.835938 22.160156 28.738281 15.125 C 27.820312 13.738281 26.984375 12.230469 25.746094 11.113281 C 24.535156 10.160156 23.050781 11.1875 22.15625 12.109375 C 19.351562 15 17.644531 18.773438 15.972656 22.414062 C 14.019531 26.726562 12.738281 31.320312 11.796875 35.960938 C 11.46875 37.527344 13.03125 38.660156 14.421875 38.175781 C 18.273438 37.351562 21.890625 35.625 25.296875 33.644531 C 27.261719 32.460938 29.148438 31.113281 30.78125 29.480469 Z M 30.78125 29.476562 "/>
</g>
</svg>
