<?xml version="1.0" encoding="UTF-8"?>
<svg xmlns="http://www.w3.org/2000/svg" xmlns:xlink="http://www.w3.org/1999/xlink" width="48pt" height="48pt" viewBox="0 0 48 48" version="1.1">
<defs>
<clipPath id="clip1">
  <rect width="48" height="48"/>
</clipPath>
<g id="surface6" clip-path="url(#clip1)">
<path style=" stroke:none;fill-rule:nonzero;fill:rgb(80%,36.862745%,33.333333%);fill-opacity:1;" d="M 33.964844 40.855469 C 29.824219 40.855469 26.464844 37.5 26.464844 33.355469 C 26.464844 29.214844 29.824219 25.855469 33.964844 25.855469 C 38.109375 25.855469 41.464844 29.214844 41.464844 33.355469 C 41.464844 37.5 38.109375 40.855469 33.964844 40.855469 Z M 33.964844 40.855469 "/>
</g>
</defs>
<g id="surface1">
<path style=" stroke:none;fill-rule:evenodd;fill:rgb(64.313725%,77.647059%,22.352941%);fill-opacity:1;" d="M 11.210938 2.847656 L 36.789062 2.847656 C 41.410156 2.847656 45.152344 6.589844 45.152344 11.210938 L 45.152344 36.789062 C 45.152344 41.410156 41.410156 45.152344 36.789062 45.152344 L 11.210938 45.152344 C 6.589844 45.152344 2.847656 41.410156 2.847656 36.789062 L 2.847656 11.210938 C 2.847656 6.589844 6.589844 2.847656 11.210938 2.847656 Z M 11.210938 2.847656 "/>
<path style=" stroke:none;fill-rule:nonzero;fill:rgb(100%,100%,100%);fill-opacity:1;" d="M 14.316406 20.324219 C 13.453125 20.324219 12.75 21.117188 12.75 22.097656 L 12.75 29.042969 C 12.75 30.023438 13.453125 30.824219 14.316406 30.824219 C 15.179688 30.824219 15.75 30.023438 15.75 29.042969 L 15.75 22.097656 C 15.75 21.117188 15.179688 20.320312 14.316406 20.320312 "/>
<path style=" stroke:none;fill-rule:nonzero;fill:rgb(100%,100%,100%);fill-opacity:1;" d="M 17.25 20.324219 L 17.25 33.074219 C 17.25 33.425781 17.644531 33.824219 18 33.824219 L 20.25 33.824219 L 20.25 36.636719 C 20.25 37.570312 20.84375 38.324219 21.75 38.324219 C 22.648438 38.324219 23.28125 37.566406 23.25 36.636719 L 23.25 33.824219 L 24.75 33.824219 L 24.75 36.636719 C 24.75 37.570312 25.34375 38.324219 26.25 38.324219 C 27.148438 38.324219 27.75 37.554688 27.75 36.636719 L 27.75 33.824219 L 30 33.824219 C 30.355469 33.824219 30.75 33.425781 30.75 33.074219 L 30.75 20.324219 Z M 17.25 20.324219 "/>
<path style=" stroke:none;fill-rule:nonzero;fill:rgb(100%,100%,100%);fill-opacity:1;" d="M 33.816406 20.324219 C 32.953125 20.324219 32.25 21.117188 32.25 22.097656 L 32.25 29.042969 C 32.25 30.023438 32.953125 30.824219 33.816406 30.824219 C 34.679688 30.824219 35.25 30.023438 35.25 29.042969 L 35.25 22.097656 C 35.25 21.117188 34.679688 20.320312 33.816406 20.320312 "/>
<path style=" stroke:none;fill-rule:nonzero;fill:rgb(100%,100%,100%);fill-opacity:1;" d="M 20.046875 9.675781 L 18.75 10.425781 L 20.546875 13.539062 C 17.261719 15.125 17.25 18.824219 17.25 18.824219 L 30.75 18.824219 C 30.75 18.824219 30.734375 15.125 27.453125 13.539062 L 29.25 10.425781 L 27.953125 9.675781 L 26.011719 13.039062 C 25.414062 12.90625 24.757812 12.824219 24.003906 12.824219 C 23.246094 12.824219 22.585938 12.90625 21.988281 13.039062 Z M 21.003906 15.824219 C 21.417969 15.824219 21.75 16.15625 21.75 16.570312 C 21.75 16.984375 21.414062 17.324219 21.003906 17.324219 C 20.585938 17.324219 20.25 16.988281 20.25 16.570312 C 20.25 16.15625 20.585938 15.824219 21.003906 15.824219 Z M 27.003906 15.824219 C 27.417969 15.824219 27.75 16.15625 27.75 16.570312 C 27.75 16.984375 27.414062 17.324219 27.003906 17.324219 C 26.585938 17.324219 26.25 16.988281 26.25 16.570312 C 26.25 16.15625 26.585938 15.824219 27.003906 15.824219 Z M 27.003906 15.824219 "/>
<use xlink:href="#surface6"/>
<path style=" stroke:none;fill-rule:nonzero;fill:rgb(100%,100%,100%);fill-opacity:1;" d="M 33.027344 35.230469 L 35.839844 38.980469 L 38.652344 35.230469 C 38.652344 35.234375 38.132812 35.230469 37.714844 35.230469 L 37.714844 33.355469 L 33.964844 33.355469 L 33.964844 35.230469 Z M 33.027344 35.230469 "/>
<path style=" stroke:none;fill-rule:nonzero;fill:rgb(100%,100%,100%);fill-opacity:1;" d="M 29.277344 31.480469 L 32.089844 27.730469 L 34.902344 31.480469 C 34.902344 31.476562 34.382812 31.480469 33.964844 31.480469 L 33.964844 33.355469 L 30.214844 33.355469 L 30.214844 31.480469 Z M 29.277344 31.480469 "/>
</g>
</svg>
