<?xml version="1.0" encoding="UTF-8"?>
<svg xmlns="http://www.w3.org/2000/svg" xmlns:xlink="http://www.w3.org/1999/xlink" width="48pt" height="48pt" viewBox="0 0 48 48" version="1.1">
<g id="surface1">
<path style=" stroke:none;fill-rule:evenodd;fill:rgb(28.235294%,79.215686%,76.078431%);fill-opacity:1;" d="M 11.210938 2.847656 L 36.789062 2.847656 C 41.410156 2.847656 45.152344 6.589844 45.152344 11.210938 L 45.152344 36.789062 C 45.152344 41.410156 41.410156 45.152344 36.789062 45.152344 L 11.210938 45.152344 C 6.589844 45.152344 2.847656 41.410156 2.847656 36.789062 L 2.847656 11.210938 C 2.847656 6.589844 6.589844 2.847656 11.210938 2.847656 Z M 11.210938 2.847656 "/>
<path style=" stroke:none;fill-rule:nonzero;fill:rgb(100%,100%,100%);fill-opacity:1;" d="M 23.09375 8.25 C 21.71875 8.25 20.523438 9.183594 20.1875 10.515625 C 18.6875 11.339844 17.429688 12.765625 16.476562 14.476562 C 15.824219 15.652344 15.296875 17.003906 14.902344 18.464844 C 13.59375 19.226562 12.425781 20.082031 11.457031 21.019531 C 9.214844 23.1875 7.878906 25.925781 8.601562 28.632812 C 9.328125 31.335938 11.855469 33.042969 14.882812 33.800781 C 15.238281 33.886719 15.605469 33.960938 15.976562 34.027344 C 16.136719 34.371094 16.300781 34.703125 16.476562 35.023438 C 17.996094 37.75 20.292969 39.75 23.09375 39.75 C 25.894531 39.75 28.195312 37.75 29.710938 35.023438 C 30.363281 33.847656 30.890625 32.496094 31.285156 31.035156 C 32.59375 30.273438 33.761719 29.417969 34.730469 28.480469 C 35.445312 27.789062 36.054688 27.035156 36.546875 26.246094 C 36.5625 26.25 36.578125 26.25 36.59375 26.25 C 38.25 26.25 39.59375 24.90625 39.59375 23.25 C 39.59375 21.90625 38.695312 20.726562 37.398438 20.363281 C 36.507812 17.957031 34.132812 16.410156 31.308594 15.699219 C 30.953125 15.609375 30.585938 15.539062 30.210938 15.472656 C 30.050781 15.128906 29.886719 14.796875 29.710938 14.476562 C 28.761719 12.765625 27.5 11.34375 26 10.519531 C 25.667969 9.1875 24.46875 8.25 23.09375 8.25 Z M 21.105469 13.492188 C 21.652344 13.976562 22.359375 14.25 23.09375 14.25 C 23.820312 14.246094 24.523438 13.984375 25.066406 13.503906 C 25.609375 13.90625 26.148438 14.457031 26.648438 15.210938 C 24.773438 15.242188 22.789062 15.515625 20.765625 16.058594 C 20.070312 16.242188 19.402344 16.460938 18.75 16.691406 C 18.871094 16.441406 18.972656 16.160156 19.101562 15.929688 C 19.71875 14.820312 20.402344 14.015625 21.105469 13.492188 Z M 26.429688 18.214844 C 27.003906 18.199219 27.535156 18.234375 28.070312 18.265625 C 28.695312 20.132812 29.09375 22.347656 29.09375 24.75 C 29.09375 26.261719 28.917969 27.6875 28.652344 29.015625 C 27.4375 29.617188 26.105469 30.15625 24.644531 30.546875 C 22.324219 31.167969 20.082031 31.355469 18.117188 31.234375 C 17.492188 29.367188 17.09375 27.152344 17.09375 24.75 C 17.09375 23.238281 17.269531 21.816406 17.535156 20.484375 C 18.75 19.882812 20.082031 19.347656 21.539062 18.957031 C 23.230469 18.503906 24.890625 18.265625 26.429688 18.21875 Z M 31.386719 18.847656 C 33 19.390625 33.996094 20.210938 34.457031 21.144531 C 33.90625 21.707031 33.59375 22.460938 33.59375 23.25 C 33.59375 23.761719 33.726562 24.269531 33.976562 24.714844 C 33.640625 25.242188 33.207031 25.78125 32.644531 26.328125 C 32.457031 26.507812 32.210938 26.679688 32 26.859375 C 32.054688 26.167969 32.09375 25.46875 32.09375 24.75 C 32.09375 22.65625 31.84375 20.667969 31.386719 18.847656 Z M 23.09375 20.25 C 20.609375 20.25 18.59375 22.265625 18.59375 24.75 C 18.59375 27.234375 20.609375 29.25 23.09375 29.25 C 25.578125 29.25 27.59375 27.234375 27.59375 24.75 C 27.59375 22.265625 25.578125 20.25 23.09375 20.25 Z M 14.1875 22.640625 C 14.132812 23.332031 14.09375 24.03125 14.09375 24.75 C 14.09375 26.84375 14.34375 28.832031 14.800781 30.648438 C 12.902344 30.011719 11.808594 28.996094 11.503906 27.855469 C 11.15625 26.558594 11.765625 24.890625 13.542969 23.171875 C 13.730469 22.992188 13.976562 22.820312 14.1875 22.640625 Z M 27.433594 32.808594 C 27.316406 33.058594 27.214844 33.339844 27.085938 33.570312 C 25.886719 35.726562 24.433594 36.75 23.09375 36.75 C 21.910156 36.75 20.644531 35.953125 19.539062 34.289062 C 21.414062 34.257812 23.398438 33.984375 25.421875 33.441406 C 26.117188 33.257812 26.78125 33.039062 27.433594 32.808594 Z M 27.433594 32.808594 "/>
<path style=" stroke:none;fill-rule:nonzero;fill:rgb(29.803922%,29.803922%,29.803922%);fill-opacity:1;" d="M 23.09375 8.25 C 21.4375 8.25 20.09375 9.59375 20.09375 11.25 C 20.09375 12.90625 21.4375 14.25 23.09375 14.25 C 24.75 14.25 26.09375 12.90625 26.09375 11.25 C 26.09375 9.59375 24.75 8.25 23.09375 8.25 Z M 23.09375 20.25 C 20.609375 20.25 18.59375 22.265625 18.59375 24.75 C 18.59375 27.234375 20.609375 29.25 23.09375 29.25 C 25.578125 29.25 27.59375 27.234375 27.59375 24.75 C 27.59375 22.265625 25.578125 20.25 23.09375 20.25 Z M 36.59375 20.25 C 34.9375 20.25 33.59375 21.59375 33.59375 23.25 C 33.59375 24.90625 34.9375 26.25 36.59375 26.25 C 38.25 26.25 39.59375 24.90625 39.59375 23.25 C 39.59375 21.59375 38.25 20.25 36.59375 20.25 Z M 36.59375 20.25 "/>
</g>
</svg>
