<?xml version="1.0" encoding="UTF-8"?>
<svg xmlns="http://www.w3.org/2000/svg" xmlns:xlink="http://www.w3.org/1999/xlink" width="48pt" height="48pt" viewBox="0 0 48 48" version="1.1">
<g id="surface1">
<path style=" stroke:none;fill-rule:evenodd;fill:rgb(9.803922%,59.215686%,61.568627%);fill-opacity:1;" d="M 11.210938 2.847656 L 36.789062 2.847656 C 41.410156 2.847656 45.152344 6.589844 45.152344 11.210938 L 45.152344 36.789062 C 45.152344 41.410156 41.410156 45.152344 36.789062 45.152344 L 11.210938 45.152344 C 6.589844 45.152344 2.847656 41.410156 2.847656 36.789062 L 2.847656 11.210938 C 2.847656 6.589844 6.589844 2.847656 11.210938 2.847656 Z M 11.210938 2.847656 "/>
<path style=" stroke:none;fill-rule:nonzero;fill:rgb(47.45098%,100%,53.333333%);fill-opacity:1;" d="M 16.304688 16.5 C 15.351562 16.5 14.40625 16.691406 13.523438 17.0625 C 12.640625 17.433594 11.835938 17.984375 11.15625 18.675781 C 10.476562 19.371094 9.929688 20.199219 9.558594 21.109375 C 9.1875 22.023438 9 23.007812 9 23.996094 C 9 24.988281 9.1875 25.972656 9.558594 26.882812 C 9.929688 27.792969 10.476562 28.621094 11.15625 29.3125 C 11.835938 30.007812 12.640625 30.554688 13.523438 30.929688 C 14.386719 31.292969 15.308594 31.480469 16.238281 31.488281 C 16.261719 31.488281 16.28125 31.492188 16.304688 31.492188 C 18.5625 31.597656 20.382812 30.703125 21.71875 29.398438 C 22.628906 28.507812 23.347656 27.457031 24 26.386719 C 24.652344 27.457031 25.371094 28.507812 26.28125 29.398438 C 27.617188 30.703125 29.433594 31.597656 31.695312 31.492188 C 31.71875 31.492188 31.738281 31.488281 31.761719 31.488281 C 32.691406 31.480469 33.613281 31.292969 34.476562 30.929688 C 35.359375 30.554688 36.164062 30.007812 36.84375 29.3125 L 36.847656 29.304688 C 37.527344 28.613281 38.070312 27.792969 38.441406 26.882812 C 38.8125 25.972656 39 24.988281 39 23.996094 C 39 23.007812 38.8125 22.023438 38.441406 21.109375 L 38.433594 21.097656 C 38.0625 20.191406 37.519531 19.367188 36.84375 18.675781 C 36.164062 17.984375 35.359375 17.433594 34.476562 17.0625 C 33.597656 16.691406 32.648438 16.5 31.695312 16.5 C 29.316406 16.5 27.433594 17.476562 26.046875 18.84375 C 25.242188 19.628906 24.589844 20.527344 24 21.449219 C 23.410156 20.527344 22.757812 19.628906 21.957031 18.84375 C 20.566406 17.476562 18.6875 16.5 16.304688 16.5 Z M 16.574219 19.5 C 18.269531 19.5 19.347656 20.070312 20.339844 21.019531 C 21.125 21.769531 21.816406 22.789062 22.5 23.902344 C 21.71875 25.203125 20.964844 26.394531 20.117188 27.199219 C 19.183594 28.085938 18.21875 28.578125 16.636719 28.492188 L 16.574219 28.492188 C 15.972656 28.492188 15.363281 28.371094 14.808594 28.144531 C 14.261719 27.917969 13.757812 27.582031 13.339844 27.171875 L 13.324219 27.15625 C 12.902344 26.742188 12.5625 26.238281 12.339844 25.699219 C 12.113281 25.160156 12 24.574219 12 23.996094 C 12 23.414062 12.113281 22.828125 12.339844 22.289062 C 12.5625 21.75 12.902344 21.25 13.324219 20.832031 L 13.339844 20.816406 C 13.757812 20.40625 14.261719 20.074219 14.808594 19.847656 C 15.363281 19.621094 15.972656 19.5 16.574219 19.5 Z M 31.421875 19.5 C 32.027344 19.5 32.636719 19.621094 33.191406 19.847656 C 33.738281 20.074219 34.242188 20.40625 34.65625 20.816406 L 34.675781 20.832031 C 35.09375 21.25 35.433594 21.75 35.660156 22.289062 C 35.882812 22.824219 36 23.414062 36 23.992188 C 36 24.574219 35.886719 25.160156 35.660156 25.699219 C 35.433594 26.238281 35.097656 26.738281 34.675781 27.15625 L 34.660156 27.171875 C 34.242188 27.582031 33.738281 27.917969 33.191406 28.140625 C 32.636719 28.371094 32.027344 28.488281 31.425781 28.488281 L 31.363281 28.488281 C 29.78125 28.574219 28.816406 28.085938 27.882812 27.199219 C 27.035156 26.394531 26.28125 25.203125 25.5 23.902344 C 26.183594 22.789062 26.871094 21.765625 27.660156 21.015625 C 28.652344 20.070312 29.730469 19.5 31.421875 19.5 Z M 30 21 L 30 22.5 L 28.5 22.5 L 28.5 25.5 L 30 25.5 L 30 27 L 33 27 L 33 25.5 L 34.5 25.5 L 34.5 22.5 L 33 22.5 L 33 21 Z M 13.5 22.5 L 13.5 25.5 L 19.5 25.5 L 19.5 22.5 Z M 13.5 22.5 "/>
</g>
</svg>
