<?xml version="1.0" encoding="UTF-8"?>
<svg xmlns="http://www.w3.org/2000/svg" xmlns:xlink="http://www.w3.org/1999/xlink" width="48pt" height="48pt" viewBox="0 0 48 48" version="1.1">
<g id="surface1">
<path style=" stroke:none;fill-rule:evenodd;fill:rgb(89.019608%,67.45098%,20%);fill-opacity:1;" d="M 11.210938 2.847656 L 36.789062 2.847656 C 41.410156 2.847656 45.152344 6.589844 45.152344 11.210938 L 45.152344 36.789062 C 45.152344 41.410156 41.410156 45.152344 36.789062 45.152344 L 11.210938 45.152344 C 6.589844 45.152344 2.847656 41.410156 2.847656 36.789062 L 2.847656 11.210938 C 2.847656 6.589844 6.589844 2.847656 11.210938 2.847656 Z M 11.210938 2.847656 "/>
<path style=" stroke:none;fill-rule:nonzero;fill:rgb(21.960784%,21.960784%,21.960784%);fill-opacity:1;" d="M 24.386719 9.019531 C 24.242188 9.449219 24.105469 9.828125 23.949219 10.351562 C 23.421875 12.085938 22.921875 14.214844 22.929688 15.425781 C 22.933594 16.578125 23.433594 18.625 23.957031 20.289062 C 24.089844 20.714844 24.160156 20.882812 24.273438 21.214844 C 24.425781 20.902344 24.496094 20.734375 24.695312 20.351562 C 25.542969 18.734375 26.601562 16.863281 27.785156 15.667969 C 29.007812 14.433594 30.933594 13.316406 32.605469 12.421875 C 32.816406 12.308594 32.957031 12.246094 33.15625 12.144531 C 30.640625 10.199219 27.566406 9.101562 24.386719 9.019531 Z M 22.089844 9.140625 C 18.933594 9.542969 15.988281 10.9375 13.675781 13.125 C 13.878906 13.527344 14.046875 13.882812 14.304688 14.359375 C 15.15625 15.953125 16.304688 17.8125 17.183594 18.699219 C 18.058594 19.578125 19.980469 20.796875 21.636719 21.707031 C 21.890625 21.847656 22.066406 21.929688 22.292969 22.050781 C 22.164062 21.667969 22.070312 21.4375 21.910156 20.929688 C 21.363281 19.1875 20.792969 17.117188 20.785156 15.433594 C 20.777344 13.695312 21.347656 11.542969 21.898438 9.726562 C 21.96875 9.496094 22.019531 9.355469 22.089844 9.140625 Z M 34.871094 13.675781 C 34.464844 13.878906 34.101562 14.050781 33.617188 14.3125 C 32.015625 15.167969 30.15625 16.320312 29.308594 17.179688 C 28.496094 17.996094 27.402344 19.796875 26.59375 21.34375 C 26.386719 21.738281 26.320312 21.90625 26.164062 22.21875 C 26.484375 22.113281 26.699219 22.027344 27.070312 21.910156 C 28.8125 21.363281 30.882812 20.792969 32.566406 20.785156 C 34.304688 20.777344 36.457031 21.347656 38.273438 21.898438 C 38.503906 21.96875 38.644531 22.019531 38.859375 22.089844 C 38.457031 18.933594 37.058594 15.984375 34.871094 13.675781 Z M 12.144531 14.84375 C 10.199219 17.359375 9.105469 20.433594 9.019531 23.613281 C 9.441406 23.753906 9.8125 23.882812 10.328125 24.039062 C 12.058594 24.5625 14.183594 25.066406 15.433594 25.070312 C 16.671875 25.078125 18.894531 24.574219 20.707031 24.046875 C 20.902344 23.992188 21.023438 23.949219 21.203125 23.894531 C 20.992188 23.78125 20.835938 23.710938 20.609375 23.582031 C 18.882812 22.636719 16.902344 21.457031 15.664062 20.207031 C 14.429688 18.964844 13.304688 17.039062 12.414062 15.375 C 12.304688 15.167969 12.246094 15.039062 12.144531 14.84375 Z M 32.574219 22.929688 C 31.421875 22.933594 29.375 23.433594 27.710938 23.957031 C 27.320312 24.078125 27.109375 24.160156 26.789062 24.269531 C 27.089844 24.417969 27.300781 24.511719 27.648438 24.695312 C 29.265625 25.542969 31.136719 26.601562 32.332031 27.785156 C 33.566406 29.007812 34.683594 30.933594 35.578125 32.605469 C 35.691406 32.816406 35.753906 32.957031 35.855469 33.15625 C 37.800781 30.640625 38.898438 27.566406 38.980469 24.386719 C 38.550781 24.242188 38.171875 24.105469 37.648438 23.949219 C 35.914062 23.421875 33.785156 22.921875 32.574219 22.929688 Z M 21.945312 25.90625 C 21.71875 25.976562 21.558594 26.03125 21.308594 26.105469 C 19.417969 26.652344 17.183594 27.222656 15.425781 27.214844 C 13.675781 27.207031 11.515625 26.636719 9.707031 26.09375 C 9.484375 26.023438 9.351562 25.972656 9.140625 25.90625 C 9.542969 29.0625 10.9375 32.011719 13.125 34.324219 C 13.527344 34.121094 13.882812 33.953125 14.359375 33.695312 C 15.953125 32.84375 17.8125 31.695312 18.699219 30.816406 C 19.578125 29.941406 20.796875 28.019531 21.707031 26.363281 C 21.804688 26.1875 21.859375 26.066406 21.945312 25.90625 Z M 25.96875 26.253906 C 26.015625 26.414062 26.054688 26.519531 26.105469 26.691406 C 26.652344 28.582031 27.222656 30.816406 27.214844 32.574219 C 27.207031 34.324219 26.636719 36.484375 26.09375 38.292969 C 26.023438 38.515625 25.972656 38.648438 25.90625 38.859375 C 29.066406 38.457031 32.011719 37.0625 34.324219 34.871094 C 34.121094 34.464844 33.949219 34.101562 33.6875 33.617188 C 32.832031 32.015625 31.679688 30.15625 30.820312 29.308594 C 30.003906 28.496094 28.199219 27.402344 26.65625 26.59375 C 26.371094 26.445312 26.214844 26.378906 25.96875 26.253906 Z M 23.894531 26.796875 C 23.785156 27.003906 23.710938 27.164062 23.582031 27.390625 C 22.636719 29.117188 21.457031 31.097656 20.207031 32.335938 C 18.964844 33.570312 17.039062 34.695312 15.375 35.585938 C 15.167969 35.695312 15.039062 35.753906 14.84375 35.855469 C 17.359375 37.800781 20.433594 38.894531 23.613281 38.980469 C 23.753906 38.558594 23.882812 38.1875 24.039062 37.671875 C 24.5625 35.941406 25.066406 33.816406 25.070312 32.566406 C 25.078125 31.328125 24.574219 29.105469 24.046875 27.292969 C 23.992188 27.097656 23.945312 26.972656 23.894531 26.796875 Z M 23.894531 26.796875 "/>
<path style=" stroke:none;fill-rule:nonzero;fill:rgb(80%,80%,80%);fill-opacity:1;" d="M 30 24 C 30 27.3125 27.3125 30 24 30 C 20.6875 30 18 27.3125 18 24 C 18 20.6875 20.6875 18 24 18 C 27.3125 18 30 20.6875 30 24 Z M 30 24 "/>
</g>
</svg>
