<?xml version="1.0" encoding="UTF-8"?>
<svg xmlns="http://www.w3.org/2000/svg" xmlns:xlink="http://www.w3.org/1999/xlink" width="48pt" height="48pt" viewBox="0 0 48 48" version="1.1">
<g id="surface1">
<path style=" stroke:none;fill-rule:evenodd;fill:rgb(20.784314%,72.54902%,96.078431%);fill-opacity:1;" d="M 11.210938 2.847656 L 36.789062 2.847656 C 41.410156 2.847656 45.152344 6.589844 45.152344 11.210938 L 45.152344 36.789062 C 45.152344 41.410156 41.410156 45.152344 36.789062 45.152344 L 11.210938 45.152344 C 6.589844 45.152344 2.847656 41.410156 2.847656 36.789062 L 2.847656 11.210938 C 2.847656 6.589844 6.589844 2.847656 11.210938 2.847656 Z M 11.210938 2.847656 "/>
<path style=" stroke:none;fill-rule:nonzero;fill:rgb(100%,100%,100%);fill-opacity:1;" d="M 38.363281 15.230469 C 37.308594 15.691406 36.171875 16.003906 34.980469 16.144531 C 36.195312 15.425781 37.128906 14.289062 37.570312 12.933594 C 36.433594 13.597656 35.171875 14.082031 33.828125 14.339844 C 32.753906 13.210938 31.222656 12.507812 29.527344 12.507812 C 26.269531 12.507812 23.632812 15.105469 23.632812 18.308594 C 23.632812 18.765625 23.683594 19.207031 23.785156 19.632812 C 18.886719 19.390625 14.542969 17.082031 11.636719 13.570312 C 11.128906 14.425781 10.835938 15.425781 10.835938 16.488281 C 10.835938 18.5 11.878906 20.277344 13.460938 21.316406 C 12.492188 21.285156 11.585938 21.023438 10.789062 20.589844 C 10.789062 20.613281 10.789062 20.640625 10.789062 20.664062 C 10.789062 23.476562 12.820312 25.820312 15.515625 26.351562 C 15.023438 26.484375 14.503906 26.558594 13.964844 26.558594 C 13.585938 26.558594 13.214844 26.519531 12.855469 26.453125 C 13.605469 28.757812 15.78125 30.433594 18.363281 30.480469 C 16.34375 32.039062 13.804688 32.964844 11.042969 32.964844 C 10.566406 32.964844 10.097656 32.9375 9.636719 32.882812 C 12.242188 34.53125 15.34375 35.492188 18.671875 35.492188 C 29.511719 35.492188 35.441406 26.652344 35.441406 18.984375 C 35.441406 18.730469 35.433594 18.480469 35.421875 18.234375 C 36.574219 17.414062 37.574219 16.394531 38.363281 15.230469 Z M 38.363281 15.230469 "/>
</g>
</svg>
