<?xml version="1.0" encoding="UTF-8"?>
<svg xmlns="http://www.w3.org/2000/svg" xmlns:xlink="http://www.w3.org/1999/xlink" width="48pt" height="48pt" viewBox="0 0 48 48" version="1.1">
<g id="surface1">
<path style=" stroke:none;fill-rule:evenodd;fill:rgb(83.137255%,29.019608%,29.019608%);fill-opacity:1;" d="M 11.210938 2.847656 L 36.789062 2.847656 C 41.410156 2.847656 45.152344 6.589844 45.152344 11.210938 L 45.152344 36.789062 C 45.152344 41.410156 41.410156 45.152344 36.789062 45.152344 L 11.210938 45.152344 C 6.589844 45.152344 2.847656 41.410156 2.847656 36.789062 L 2.847656 11.210938 C 2.847656 6.589844 6.589844 2.847656 11.210938 2.847656 Z M 11.210938 2.847656 "/>
<path style=" stroke:none;fill-rule:nonzero;fill:rgb(100%,100%,100%);fill-opacity:1;" d="M 24 9 C 19.238281 9.007812 14.761719 11.273438 11.9375 15.113281 L 16.5625 23.117188 C 16.570312 23.042969 16.578125 22.972656 16.589844 22.90625 C 16.625 22.65625 16.671875 22.410156 16.734375 22.167969 C 16.796875 21.925781 16.867188 21.6875 16.953125 21.453125 C 17.027344 21.25 17.109375 21.050781 17.199219 20.855469 C 17.21875 20.8125 17.242188 20.765625 17.261719 20.722656 C 17.34375 20.550781 17.433594 20.386719 17.53125 20.222656 C 17.5625 20.171875 17.589844 20.121094 17.621094 20.070312 C 17.730469 19.894531 17.847656 19.726562 17.96875 19.5625 C 17.992188 19.527344 18.015625 19.492188 18.039062 19.460938 C 18.15625 19.304688 18.28125 19.15625 18.410156 19.015625 C 18.449219 18.964844 18.492188 18.917969 18.535156 18.875 C 18.644531 18.757812 18.761719 18.644531 18.878906 18.535156 C 18.949219 18.464844 19.023438 18.398438 19.097656 18.332031 C 19.195312 18.246094 19.296875 18.167969 19.402344 18.089844 C 19.5 18.011719 19.597656 17.933594 19.695312 17.863281 C 19.800781 17.792969 19.90625 17.722656 20.011719 17.65625 C 20.089844 17.605469 20.171875 17.554688 20.25 17.503906 C 20.28125 17.488281 20.308594 17.472656 20.339844 17.457031 C 20.398438 17.425781 20.457031 17.394531 20.515625 17.363281 C 20.640625 17.300781 20.765625 17.238281 20.890625 17.183594 C 21.011719 17.125 21.136719 17.074219 21.261719 17.023438 C 21.363281 16.984375 21.46875 16.945312 21.570312 16.910156 C 21.703125 16.867188 21.832031 16.824219 21.96875 16.789062 C 22.082031 16.753906 22.199219 16.726562 22.320312 16.699219 C 22.441406 16.671875 22.5625 16.644531 22.6875 16.625 C 22.808594 16.601562 22.925781 16.582031 23.046875 16.566406 C 23.179688 16.550781 23.308594 16.539062 23.441406 16.53125 C 23.554688 16.519531 23.667969 16.515625 23.785156 16.511719 C 23.855469 16.507812 23.929688 16.503906 24 16.5 L 36.96875 16.5 C 34.292969 11.867188 29.351562 9.007812 24 9 Z M 11.019531 16.511719 C 9.699219 18.789062 9.003906 21.371094 9 24 C 9 32.285156 15.714844 39 24 39 C 26.066406 38.992188 28.109375 38.5625 30 37.726562 L 30 28.496094 C 29.972656 28.53125 29.945312 28.570312 29.914062 28.605469 C 29.851562 28.683594 29.789062 28.761719 29.722656 28.835938 C 29.628906 28.949219 29.53125 29.058594 29.433594 29.167969 C 29.355469 29.246094 29.277344 29.320312 29.199219 29.394531 C 29.097656 29.492188 28.992188 29.589844 28.882812 29.6875 C 28.800781 29.753906 28.714844 29.824219 28.628906 29.886719 C 28.523438 29.972656 28.414062 30.058594 28.304688 30.136719 C 28.199219 30.207031 28.09375 30.277344 27.988281 30.34375 C 27.910156 30.394531 27.832031 30.445312 27.75 30.496094 C 27.71875 30.511719 27.691406 30.527344 27.660156 30.542969 C 27.601562 30.574219 27.542969 30.605469 27.484375 30.636719 C 27.359375 30.699219 27.234375 30.761719 27.109375 30.816406 C 26.988281 30.875 26.863281 30.925781 26.738281 30.976562 C 26.636719 31.015625 26.53125 31.054688 26.429688 31.089844 C 26.296875 31.132812 26.167969 31.175781 26.035156 31.210938 C 25.917969 31.246094 25.800781 31.273438 25.683594 31.300781 C 25.558594 31.328125 25.4375 31.355469 25.3125 31.375 C 25.191406 31.398438 25.074219 31.417969 24.953125 31.433594 C 24.820312 31.449219 24.691406 31.460938 24.558594 31.46875 C 24.445312 31.480469 24.332031 31.484375 24.21875 31.488281 C 24.144531 31.492188 24.074219 31.496094 24 31.5 C 23.910156 31.5 23.816406 31.496094 23.726562 31.492188 C 23.683594 31.488281 23.644531 31.488281 23.601562 31.484375 C 23.4375 31.476562 23.273438 31.460938 23.109375 31.4375 C 23.019531 31.429688 22.929688 31.417969 22.839844 31.40625 C 22.683594 31.378906 22.53125 31.347656 22.378906 31.3125 C 22.285156 31.292969 22.195312 31.273438 22.101562 31.25 C 21.953125 31.210938 21.808594 31.167969 21.664062 31.117188 C 21.566406 31.089844 21.476562 31.058594 21.382812 31.023438 C 21.257812 30.972656 21.132812 30.921875 21.011719 30.867188 C 20.894531 30.820312 20.785156 30.769531 20.671875 30.714844 C 20.574219 30.664062 20.472656 30.609375 20.375 30.554688 C 20.257812 30.488281 20.140625 30.421875 20.023438 30.351562 C 19.925781 30.289062 19.832031 30.226562 19.742188 30.160156 C 19.625 30.082031 19.507812 30 19.394531 29.914062 C 19.316406 29.851562 19.238281 29.785156 19.164062 29.722656 C 19.050781 29.628906 18.941406 29.53125 18.832031 29.429688 C 18.757812 29.355469 18.679688 29.277344 18.605469 29.199219 C 18.507812 29.097656 18.410156 28.992188 18.3125 28.882812 C 18.246094 28.800781 18.175781 28.714844 18.113281 28.628906 C 18.027344 28.523438 17.941406 28.414062 17.863281 28.304688 C 17.792969 28.199219 17.722656 28.09375 17.65625 27.988281 C 17.605469 27.910156 17.554688 27.828125 17.507812 27.75 L 17.417969 27.59375 Z M 28.496094 18 C 28.53125 18.027344 28.570312 18.054688 28.605469 18.085938 C 28.683594 18.148438 28.761719 18.210938 28.835938 18.277344 C 28.949219 18.371094 29.058594 18.46875 29.167969 18.570312 C 29.246094 18.644531 29.320312 18.722656 29.394531 18.800781 C 29.492188 18.902344 29.589844 19.007812 29.6875 19.117188 C 29.753906 19.199219 29.824219 19.285156 29.886719 19.371094 C 29.972656 19.476562 30.058594 19.585938 30.136719 19.695312 C 30.207031 19.800781 30.277344 19.90625 30.34375 20.011719 C 30.394531 20.089844 30.445312 20.171875 30.496094 20.25 C 30.511719 20.28125 30.527344 20.3125 30.542969 20.339844 C 30.574219 20.398438 30.605469 20.457031 30.636719 20.515625 C 30.699219 20.640625 30.761719 20.765625 30.816406 20.890625 C 30.871094 21.011719 30.925781 21.136719 30.976562 21.261719 C 31.015625 21.363281 31.054688 21.46875 31.089844 21.570312 C 31.132812 21.703125 31.175781 21.835938 31.210938 21.96875 C 31.246094 22.082031 31.273438 22.199219 31.300781 22.320312 C 31.328125 22.441406 31.355469 22.5625 31.375 22.6875 C 31.398438 22.808594 31.417969 22.925781 31.433594 23.046875 C 31.441406 23.117188 31.453125 23.183594 31.460938 23.25 C 31.464844 23.3125 31.46875 23.378906 31.46875 23.441406 C 31.480469 23.554688 31.484375 23.667969 31.488281 23.785156 C 31.492188 23.855469 31.496094 23.925781 31.5 24 L 31.5 36.964844 C 36.132812 34.289062 38.992188 29.351562 39 24 C 38.992188 21.933594 38.5625 19.890625 37.726562 18 Z M 28.496094 18 "/>
</g>
</svg>
