<?xml version="1.0" encoding="UTF-8"?>
<svg xmlns="http://www.w3.org/2000/svg" xmlns:xlink="http://www.w3.org/1999/xlink" width="48pt" height="48pt" viewBox="0 0 48 48" version="1.1">
<g id="surface1">
<path style=" stroke:none;fill-rule:evenodd;fill:rgb(76.078431%,20.784314%,16.470588%);fill-opacity:1;" d="M 11.210938 2.847656 L 36.789062 2.847656 C 41.410156 2.847656 45.152344 6.589844 45.152344 11.210938 L 45.152344 36.789062 C 45.152344 41.410156 41.410156 45.152344 36.789062 45.152344 L 11.210938 45.152344 C 6.589844 45.152344 2.847656 41.410156 2.847656 36.789062 L 2.847656 11.210938 C 2.847656 6.589844 6.589844 2.847656 11.210938 2.847656 Z M 11.210938 2.847656 "/>
<path style=" stroke:none;fill-rule:nonzero;fill:rgb(97.647059%,97.647059%,97.647059%);fill-opacity:1;" d="M 13.976562 13.765625 C 12.289062 13.917969 11.667969 14.003906 10.75 14.785156 C 9.332031 16.03125 9 18.472656 9 22.214844 L 9 25.773438 C 9 30.039062 9.566406 32.210938 10.515625 33 C 11.597656 33.925781 12.3125 34 13.027344 34.109375 C 13.308594 34.148438 15.289062 34.5 24.070312 34.5 C 29.546875 34.5 34.25 34.238281 34.738281 34.183594 C 35.519531 34.082031 36.632812 33.941406 37.496094 33 C 38.75 31.578125 39 29.21875 39 25.796875 L 39 21.652344 C 39 19.4375 38.878906 16.3125 37.496094 15 C 36.445312 14.113281 36.0625 13.867188 33.894531 13.757812 C 33.28125 13.730469 27.941406 13.5 24.203125 13.5 C 20.695312 13.5 15.523438 13.714844 13.972656 13.765625 Z M 21 19.5 L 28.5 24 L 21 28.5 "/>
<path style=" stroke:none;fill-rule:nonzero;fill:rgb(1.176471%,66.27451%,95.686275%);fill-opacity:1;" d="M 42.28125 34.371094 C 42.28125 38.515625 38.921875 41.871094 34.78125 41.871094 C 30.636719 41.871094 27.28125 38.515625 27.28125 34.371094 C 27.28125 30.230469 30.636719 26.871094 34.78125 26.871094 C 38.921875 26.871094 42.28125 30.230469 42.28125 34.371094 Z M 42.28125 34.371094 "/>
<path style=" stroke:none;fill-rule:nonzero;fill:rgb(100%,100%,100%);fill-opacity:1;" d="M 36.28125 29.871094 L 39.28125 32.871094 L 38.28125 32.871094 L 35.78125 35.371094 C 37.28125 36.871094 35.28125 37.871094 35.28125 37.871094 L 33.78125 36.371094 L 31.28125 38.871094 L 30.28125 38.871094 L 30.28125 37.871094 L 32.78125 35.371094 L 31.28125 33.871094 C 31.28125 33.871094 32.28125 31.871094 33.78125 33.371094 L 36.28125 30.871094 Z M 36.28125 29.871094 "/>
</g>
</svg>
