<?xml version="1.0" encoding="UTF-8"?>
<svg xmlns="http://www.w3.org/2000/svg" xmlns:xlink="http://www.w3.org/1999/xlink" width="48pt" height="48pt" viewBox="0 0 48 48" version="1.1">
<defs>
<radialGradient id="radial0" gradientUnits="userSpaceOnUse" cx="24.391607" cy="16.559441" fx="24.391607" fy="16.559441" r="14.101694" gradientTransform="matrix(2.333109,0,0,2.333109,-32.908605,-14.635305)">
<stop offset="0" style="stop-color:rgb(33.72549%,34.117647%,16.862745%);stop-opacity:1;"/>
<stop offset="1" style="stop-color:rgb(10.196078%,10.980392%,5.490196%);stop-opacity:1;"/>
</radialGradient>
</defs>
<g id="surface1">
<path style=" stroke:none;fill-rule:evenodd;fill:rgb(33.72549%,34.117647%,16.862745%);fill-opacity:1;" d="M 11.210938 2.847656 L 36.789062 2.847656 C 41.40625 2.847656 45.152344 6.589844 45.152344 11.210938 L 45.152344 36.789062 C 45.152344 41.40625 41.40625 45.152344 36.789062 45.152344 L 11.210938 45.152344 C 6.589844 45.152344 2.847656 41.40625 2.847656 36.789062 L 2.847656 11.210938 C 2.847656 6.589844 6.589844 2.847656 11.210938 2.847656 Z M 11.210938 2.847656 "/>
<path style=" stroke:none;fill-rule:evenodd;fill:rgb(13.333333%,14.509804%,7.843137%);fill-opacity:1;" d="M 26.898438 45.152344 C 25.710938 44.640625 24.199219 44.195312 23.222656 43.636719 C 20.988281 42.363281 19.273438 40.984375 17.921875 39.546875 C 16.570312 38.105469 15.585938 36.605469 14.816406 35.09375 C 14.046875 33.578125 13.488281 32.046875 12.996094 30.546875 C 12.503906 29.042969 12.074219 27.574219 11.5625 26.175781 C 11.046875 24.78125 10.445312 23.460938 9.605469 22.257812 C 8.769531 21.054688 7.691406 19.96875 6.230469 19.050781 C 5.363281 18.507812 4.019531 18.160156 2.847656 17.738281 L 2.847656 36.789062 C 2.847656 41.421875 6.578125 45.152344 11.210938 45.152344 Z M 26.898438 45.152344 "/>
<path style=" stroke:none;fill-rule:evenodd;fill:url(#radial0);" d="M 19.3125 2.847656 L 11.210938 2.847656 C 6.578125 2.847656 2.847656 6.578125 2.847656 11.210938 L 2.847656 17.738281 C 4.019531 18.160156 5.363281 18.507812 6.230469 19.050781 C 7.691406 19.96875 8.769531 21.054688 9.605469 22.257812 C 10.445312 23.460938 11.046875 24.78125 11.5625 26.175781 C 12.074219 27.574219 12.503906 29.042969 12.996094 30.546875 C 13.488281 32.046875 14.046875 33.578125 14.816406 35.09375 C 15.585938 36.605469 16.570312 38.105469 17.921875 39.546875 C 19.273438 40.984375 20.988281 42.363281 23.222656 43.636719 C 24.199219 44.195312 25.710938 44.640625 26.898438 45.152344 L 36.789062 45.152344 C 41.421875 45.152344 45.152344 41.421875 45.152344 36.789062 L 45.152344 31.011719 C 44.167969 30.628906 42.960938 30.335938 42.203125 29.863281 C 40.738281 28.945312 39.664062 27.863281 38.824219 26.660156 C 37.984375 25.457031 37.386719 24.136719 36.871094 22.742188 C 36.355469 21.34375 35.925781 19.875 35.433594 18.371094 C 34.941406 16.871094 34.386719 15.339844 33.617188 13.824219 C 32.84375 12.3125 31.859375 10.8125 30.507812 9.371094 C 29.15625 7.933594 27.441406 6.554688 25.207031 5.28125 C 23.640625 4.386719 21.441406 3.625 19.3125 2.847656 Z M 19.3125 2.847656 "/>
<path style=" stroke:none;fill-rule:evenodd;fill:rgb(33.72549%,34.117647%,16.862745%);fill-opacity:1;" d="M 19.3125 2.847656 C 21.441406 3.625 23.640625 4.386719 25.207031 5.28125 C 27.441406 6.554688 29.15625 7.933594 30.507812 9.371094 C 31.859375 10.8125 32.84375 12.3125 33.617188 13.824219 C 34.386719 15.339844 34.941406 16.871094 35.433594 18.371094 C 35.925781 19.875 36.355469 21.34375 36.871094 22.742188 C 37.386719 24.136719 37.984375 25.457031 38.824219 26.660156 C 39.664062 27.863281 40.738281 28.945312 42.203125 29.863281 C 42.960938 30.335938 44.167969 30.628906 45.152344 31.011719 L 45.152344 11.210938 C 45.152344 6.578125 41.421875 2.847656 36.789062 2.847656 Z M 19.3125 2.847656 "/>
<path style=" stroke:none;fill-rule:nonzero;fill:rgb(100%,100%,100%);fill-opacity:1;" d="M 22.921875 37.261719 C 23.539062 36.957031 23.617188 36.796875 23.644531 35.796875 L 23.667969 34.960938 L 21.597656 34.960938 L 21.621094 35.574219 L 21.640625 36.191406 L 17.445312 36.191406 L 17.445312 32.640625 L 21.640625 32.640625 L 21.621094 33.230469 L 21.597656 33.820312 L 22.0625 33.777344 C 22.65625 33.722656 23.339844 33.394531 23.574219 33.050781 C 23.707031 32.855469 23.730469 32.753906 23.695312 32.511719 C 23.636719 32.058594 23.433594 31.785156 22.988281 31.566406 L 22.597656 31.375 L 16.660156 31.375 L 16.300781 31.539062 C 15.824219 31.753906 15.484375 32.132812 15.429688 32.515625 C 15.40625 32.675781 15.394531 33.640625 15.40625 34.652344 C 15.433594 36.726562 15.441406 36.765625 15.960938 37.125 C 16.453125 37.464844 16.636719 37.484375 19.695312 37.46875 L 22.53125 37.453125 Z M 31.667969 37.414062 C 32.0625 37.3125 32.476562 37.019531 32.617188 36.734375 C 32.710938 36.546875 32.738281 36.320312 32.738281 35.660156 C 32.738281 34.664062 32.664062 34.433594 32.265625 34.171875 C 31.765625 33.839844 31.414062 33.800781 28.863281 33.800781 L 26.523438 33.800781 L 26.523438 32.640625 L 29.632812 32.640625 C 32.707031 32.640625 32.738281 32.636719 32.738281 32.5 C 32.738281 32.289062 32.570312 31.9375 32.386719 31.777344 C 32.296875 31.699219 32.070312 31.574219 31.882812 31.503906 C 31.570312 31.386719 31.316406 31.375 28.574219 31.375 L 25.601562 31.375 L 25.226562 31.5625 C 24.789062 31.777344 24.507812 32.152344 24.4375 32.617188 C 24.363281 33.113281 24.4375 34.082031 24.570312 34.332031 C 24.71875 34.617188 25.207031 34.929688 25.648438 35.023438 C 25.847656 35.066406 26.9375 35.097656 28.335938 35.097656 L 30.691406 35.097656 L 30.691406 36.191406 L 27.542969 36.191406 C 24.699219 36.191406 24.398438 36.199219 24.433594 36.296875 C 24.457031 36.355469 24.476562 36.449219 24.476562 36.5 C 24.476562 36.78125 25.148438 37.285156 25.6875 37.414062 C 26.066406 37.5 31.316406 37.503906 31.667969 37.414062 Z M 31.667969 37.414062 "/>
<path style=" stroke:none;fill-rule:nonzero;fill:rgb(100%,100%,100%);fill-opacity:1;" d="M 24.273438 11.808594 C 18.132812 11.808594 13.140625 16.800781 13.140625 22.941406 C 13.140625 26.011719 14.386719 28.796875 16.40625 30.8125 L 18.226562 30.8125 C 15.867188 29 14.339844 26.152344 14.339844 22.941406 C 14.339844 17.449219 18.78125 13.011719 24.273438 13.011719 C 29.765625 13.011719 34.203125 17.449219 34.203125 22.941406 C 34.203125 26.152344 32.675781 29 30.316406 30.8125 L 32.136719 30.8125 C 34.15625 28.796875 35.40625 26.011719 35.40625 22.941406 C 35.40625 16.800781 30.414062 11.808594 24.273438 11.808594 Z M 24.273438 11.808594 "/>
<path style=" stroke:none;fill-rule:nonzero;fill:rgb(100%,100%,100%);fill-opacity:1;" d="M 27.390625 30.148438 C 27.59375 29.960938 27.546875 29.601562 27.257812 29.195312 C 27.007812 28.839844 27.003906 28.835938 26.824219 27.453125 C 26.652344 26.132812 26.632812 26.050781 26.382812 25.574219 C 26.210938 25.25 26.03125 25.011719 25.867188 24.886719 C 25.558594 24.660156 25.402344 24.253906 25.53125 24.011719 C 25.605469 23.875 25.578125 23.820312 25.257812 23.414062 C 25.0625 23.164062 24.867188 22.925781 24.824219 22.878906 C 24.777344 22.832031 24.644531 22.660156 24.53125 22.5 C 24.378906 22.289062 24.285156 22.214844 24.203125 22.238281 C 24.113281 22.265625 24.085938 22.222656 24.0625 22.023438 C 24.046875 21.886719 24.007812 21.722656 23.980469 21.660156 C 23.941406 21.566406 23.964844 21.542969 24.101562 21.542969 C 24.332031 21.542969 24.40625 21.375 24.40625 20.855469 L 24.40625 20.421875 L 24.917969 20.421875 C 25.199219 20.421875 25.53125 20.390625 25.65625 20.355469 C 25.953125 20.273438 26.242188 19.992188 26.390625 19.644531 C 26.519531 19.351562 26.644531 19.296875 26.785156 19.46875 C 26.835938 19.53125 26.949219 19.5625 27.074219 19.550781 C 27.257812 19.53125 27.28125 19.503906 27.300781 19.28125 C 27.308594 19.148438 27.339844 19.035156 27.367188 19.035156 C 27.390625 19.035156 27.546875 19.355469 27.710938 19.746094 C 27.996094 20.421875 28.019531 20.453125 28.195312 20.441406 C 28.300781 20.433594 28.398438 20.410156 28.417969 20.390625 C 28.441406 20.371094 28.34375 20.050781 28.203125 19.679688 C 28.0625 19.304688 27.9375 18.96875 27.925781 18.929688 C 27.910156 18.890625 28.03125 18.804688 28.1875 18.738281 C 28.410156 18.648438 28.492188 18.574219 28.539062 18.414062 L 28.597656 18.210938 L 29.359375 18.167969 C 29.777344 18.148438 30.125 18.125 30.132812 18.121094 C 30.144531 18.113281 30.148438 18.066406 30.148438 18.015625 C 30.148438 17.957031 30.070312 17.914062 29.9375 17.902344 C 29.722656 17.878906 29.722656 17.875 29.703125 17.507812 C 29.699219 17.375 29.472656 17.382812 29.359375 17.324219 C 29.359375 17.503906 29.34375 17.515625 29.09375 17.515625 C 28.902344 17.515625 28.828125 17.488281 28.828125 17.417969 C 28.828125 17.308594 28.722656 17.28125 28.6875 17.382812 C 28.675781 17.417969 28.523438 17.46875 28.351562 17.492188 L 28.039062 17.535156 L 28.039062 17.335938 C 28.039062 17.226562 27.996094 17.117188 27.945312 17.101562 C 27.84375 17.058594 27.707031 17.171875 27.707031 17.300781 C 27.707031 17.363281 27.546875 17.382812 27.046875 17.382812 L 26.386719 17.382812 L 26.386719 17.1875 C 26.386719 17.003906 26.367188 16.988281 26.15625 16.988281 C 26.003906 16.988281 25.925781 17.019531 25.925781 17.082031 C 25.925781 17.191406 25.78125 17.253906 25.527344 17.253906 C 25.402344 17.253906 25.3125 17.300781 25.265625 17.382812 C 25.171875 17.558594 24.765625 17.578125 24.832031 17.40625 C 25.234375 16.359375 24.660156 15.371094 23.664062 15.394531 C 23.023438 15.410156 22.625 15.957031 22.625 16.832031 C 22.625 17.296875 22.621094 17.304688 22.414062 17.390625 C 21.714844 17.679688 21.214844 18.785156 21.242188 19.988281 C 21.25 20.367188 21.210938 20.765625 21.136719 21.082031 C 21.058594 21.414062 21.015625 21.902344 21.007812 22.566406 C 20.992188 23.472656 20.972656 23.628906 20.761719 24.382812 C 20.570312 25.070312 20.4375 25.667969 20.273438 26.597656 C 20.261719 26.671875 20.085938 26.847656 19.882812 26.988281 C 19.488281 27.261719 19.21875 27.566406 19.007812 27.980469 L 18.875 28.246094 L 19.117188 28.871094 C 19.414062 29.652344 19.410156 29.644531 19.699219 29.722656 C 19.875 29.773438 19.992188 29.765625 20.15625 29.695312 L 20.378906 29.605469 L 20.378906 28.609375 L 20.644531 28.609375 C 21.21875 28.609375 21.660156 27.949219 22.230469 26.21875 C 22.742188 24.667969 22.898438 24.25 22.960938 24.25 C 22.992188 24.25 23.019531 24.28125 23.019531 24.316406 C 23.019531 24.355469 23.140625 24.574219 23.285156 24.804688 C 23.589844 25.285156 24.097656 25.789062 24.621094 26.121094 C 24.945312 26.332031 24.988281 26.386719 25.027344 26.640625 C 25.050781 26.796875 25.191406 27.28125 25.339844 27.714844 C 25.484375 28.152344 25.644531 28.738281 25.695312 29.023438 C 25.8125 29.683594 25.949219 29.871094 26.46875 30.082031 C 26.953125 30.28125 27.222656 30.300781 27.390625 30.148438 Z M 24.761719 18.886719 C 24.789062 18.730469 24.855469 18.570312 24.917969 18.523438 C 25.140625 18.355469 26.058594 18.472656 26.058594 18.671875 C 26.058594 18.765625 25.855469 18.835938 25.582031 18.835938 C 25.472656 18.835938 25.355469 18.898438 25.277344 19.003906 C 25.1875 19.117188 25.082031 19.167969 24.933594 19.167969 L 24.71875 19.167969 Z M 24.761719 18.886719 "/>
</g>
</svg>
