<?xml version="1.0" encoding="UTF-8"?>
<svg xmlns="http://www.w3.org/2000/svg" xmlns:xlink="http://www.w3.org/1999/xlink" width="48pt" height="48pt" viewBox="0 0 48 48" version="1.1">
<defs>
<radialGradient id="radial0" gradientUnits="userSpaceOnUse" cx="24.391607" cy="16.559441" fx="24.391607" fy="16.559441" r="14.101694" gradientTransform="matrix(2.333109,0,0,2.333109,-32.908603,-14.635305)">
<stop offset="0" style="stop-color:rgb(33.72549%,34.117647%,16.862745%);stop-opacity:1;"/>
<stop offset="1" style="stop-color:rgb(10.196078%,10.980392%,5.490196%);stop-opacity:1;"/>
</radialGradient>
</defs>
<g id="surface1">
<path style=" stroke:none;fill-rule:evenodd;fill:rgb(33.72549%,34.117647%,16.862745%);fill-opacity:1;" d="M 11.210938 2.847656 L 36.789062 2.847656 C 41.40625 2.847656 45.152344 6.589844 45.152344 11.210938 L 45.152344 36.789062 C 45.152344 41.40625 41.40625 45.152344 36.789062 45.152344 L 11.210938 45.152344 C 6.589844 45.152344 2.847656 41.40625 2.847656 36.789062 L 2.847656 11.210938 C 2.847656 6.589844 6.589844 2.847656 11.210938 2.847656 Z M 11.210938 2.847656 "/>
<path style=" stroke:none;fill-rule:evenodd;fill:rgb(13.333333%,14.509804%,7.843137%);fill-opacity:1;" d="M 26.898438 45.152344 C 25.710938 44.640625 24.199219 44.195312 23.222656 43.636719 C 20.988281 42.363281 19.273438 40.984375 17.921875 39.546875 C 16.570312 38.105469 15.585938 36.605469 14.816406 35.09375 C 14.046875 33.578125 13.488281 32.046875 12.996094 30.546875 C 12.503906 29.042969 12.074219 27.574219 11.5625 26.175781 C 11.046875 24.78125 10.445312 23.460938 9.605469 22.257812 C 8.769531 21.054688 7.691406 19.96875 6.230469 19.050781 C 5.363281 18.507812 4.019531 18.160156 2.847656 17.738281 L 2.847656 36.789062 C 2.847656 41.421875 6.578125 45.152344 11.210938 45.152344 Z M 26.898438 45.152344 "/>
<path style=" stroke:none;fill-rule:evenodd;fill:url(#radial0);" d="M 19.3125 2.847656 L 11.210938 2.847656 C 6.578125 2.847656 2.847656 6.578125 2.847656 11.210938 L 2.847656 17.738281 C 4.019531 18.160156 5.363281 18.507812 6.230469 19.050781 C 7.691406 19.96875 8.769531 21.054688 9.605469 22.257812 C 10.445312 23.460938 11.046875 24.78125 11.5625 26.175781 C 12.074219 27.574219 12.503906 29.042969 12.996094 30.546875 C 13.488281 32.046875 14.046875 33.578125 14.816406 35.09375 C 15.585938 36.605469 16.570312 38.105469 17.921875 39.546875 C 19.273438 40.984375 20.988281 42.363281 23.222656 43.636719 C 24.199219 44.195312 25.710938 44.640625 26.898438 45.152344 L 36.789062 45.152344 C 41.421875 45.152344 45.152344 41.421875 45.152344 36.789062 L 45.152344 31.011719 C 44.167969 30.628906 42.960938 30.335938 42.203125 29.863281 C 40.738281 28.945312 39.664062 27.863281 38.824219 26.660156 C 37.984375 25.457031 37.386719 24.136719 36.871094 22.742188 C 36.355469 21.34375 35.925781 19.875 35.433594 18.371094 C 34.941406 16.871094 34.386719 15.339844 33.617188 13.824219 C 32.84375 12.3125 31.859375 10.8125 30.507812 9.371094 C 29.15625 7.933594 27.441406 6.554688 25.207031 5.28125 C 23.640625 4.386719 21.441406 3.625 19.3125 2.847656 Z M 19.3125 2.847656 "/>
<path style=" stroke:none;fill-rule:evenodd;fill:rgb(33.72549%,34.117647%,16.862745%);fill-opacity:1;" d="M 19.3125 2.847656 C 21.441406 3.625 23.640625 4.386719 25.207031 5.28125 C 27.441406 6.554688 29.15625 7.933594 30.507812 9.371094 C 31.859375 10.8125 32.84375 12.3125 33.617188 13.824219 C 34.386719 15.339844 34.941406 16.871094 35.433594 18.371094 C 35.925781 19.875 36.355469 21.34375 36.871094 22.742188 C 37.386719 24.136719 37.984375 25.457031 38.824219 26.660156 C 39.664062 27.863281 40.738281 28.945312 42.203125 29.863281 C 42.960938 30.335938 44.167969 30.628906 45.152344 31.011719 L 45.152344 11.210938 C 45.152344 6.578125 41.421875 2.847656 36.789062 2.847656 Z M 19.3125 2.847656 "/>
<path style=" stroke:none;fill-rule:nonzero;fill:rgb(100%,100%,100%);fill-opacity:1;" d="M 18.457031 36.6875 C 18.972656 36.4375 19.039062 36.300781 19.0625 35.46875 L 19.082031 34.773438 L 17.359375 34.773438 L 17.375 35.285156 L 17.394531 35.796875 L 13.898438 35.796875 L 13.898438 32.839844 L 17.394531 32.839844 L 17.355469 33.824219 L 17.746094 33.789062 C 18.238281 33.742188 18.808594 33.46875 19.003906 33.179688 C 19.113281 33.019531 19.132812 32.9375 19.105469 32.734375 C 19.054688 32.355469 18.882812 32.128906 18.515625 31.949219 L 18.191406 31.789062 L 13.242188 31.789062 L 12.945312 31.921875 C 12.550781 32.101562 12.265625 32.417969 12.21875 32.734375 C 12.199219 32.871094 12.191406 33.671875 12.203125 34.515625 C 12.222656 36.242188 12.230469 36.273438 12.660156 36.574219 C 13.070312 36.859375 13.226562 36.871094 15.773438 36.859375 L 18.132812 36.847656 Z M 25.742188 36.816406 C 26.070312 36.734375 26.414062 36.484375 26.535156 36.25 C 26.613281 36.09375 26.632812 35.90625 26.632812 35.355469 C 26.632812 34.527344 26.570312 34.335938 26.238281 34.117188 C 25.824219 33.839844 25.53125 33.808594 23.40625 33.808594 L 21.460938 33.804688 L 21.460938 32.839844 L 24.046875 32.839844 C 26.609375 32.839844 26.632812 32.839844 26.632812 32.722656 C 26.632812 32.546875 26.492188 32.257812 26.339844 32.121094 C 26.265625 32.054688 26.078125 31.953125 25.921875 31.894531 C 25.660156 31.796875 25.449219 31.789062 23.164062 31.789062 L 20.691406 31.789062 L 20.378906 31.941406 C 20.015625 32.121094 19.777344 32.4375 19.71875 32.820312 C 19.660156 33.234375 19.722656 34.039062 19.832031 34.25 C 19.957031 34.488281 20.363281 34.746094 20.726562 34.828125 C 20.894531 34.863281 21.800781 34.886719 22.96875 34.886719 L 24.925781 34.886719 L 24.925781 35.796875 L 22.304688 35.796875 C 19.9375 35.796875 19.6875 35.804688 19.71875 35.886719 C 19.738281 35.9375 19.753906 36.011719 19.753906 36.054688 C 19.753906 36.289062 20.3125 36.710938 20.761719 36.816406 C 21.078125 36.890625 25.449219 36.890625 25.742188 36.816406 Z M 25.742188 36.816406 "/>
<path style=" stroke:none;fill-rule:nonzero;fill:rgb(100%,100%,100%);fill-opacity:1;" d="M 34.945312 36.816406 C 35.273438 36.734375 35.621094 36.484375 35.738281 36.25 C 35.816406 36.09375 35.839844 35.90625 35.839844 35.355469 C 35.839844 34.527344 35.777344 34.335938 35.445312 34.117188 C 35.03125 33.839844 34.734375 33.808594 32.613281 33.808594 L 30.664062 33.804688 L 30.664062 32.839844 L 33.25 32.839844 C 35.8125 32.839844 35.839844 32.839844 35.839844 32.722656 C 35.839844 32.546875 35.699219 32.257812 35.546875 32.121094 C 35.472656 32.054688 35.285156 31.953125 35.128906 31.894531 C 34.867188 31.796875 34.652344 31.789062 32.371094 31.789062 L 29.898438 31.789062 L 29.585938 31.941406 C 29.21875 32.121094 28.984375 32.4375 28.925781 32.820312 C 28.863281 33.234375 28.925781 34.039062 29.035156 34.25 C 29.160156 34.488281 29.566406 34.746094 29.933594 34.828125 C 30.101562 34.863281 31.007812 34.886719 32.175781 34.886719 L 34.132812 34.886719 L 34.132812 35.796875 L 31.511719 35.796875 C 29.144531 35.796875 28.894531 35.804688 28.925781 35.886719 C 28.945312 35.9375 28.960938 36.011719 28.960938 36.054688 C 28.960938 36.289062 29.519531 36.710938 29.96875 36.816406 C 30.28125 36.890625 34.65625 36.890625 34.945312 36.816406 Z M 34.945312 36.816406 "/>
<path style=" stroke:none;fill-rule:nonzero;fill:rgb(100%,100%,100%);fill-opacity:1;" d="M 24.339844 12.191406 C 18.199219 12.191406 13.207031 17.183594 13.207031 23.324219 C 13.207031 26.394531 14.457031 29.179688 16.476562 31.195312 L 18.296875 31.195312 C 15.9375 29.382812 14.410156 26.539062 14.410156 23.324219 C 14.410156 17.832031 18.847656 13.394531 24.339844 13.394531 C 29.832031 13.394531 34.273438 17.832031 34.273438 23.324219 C 34.273438 26.539062 32.746094 29.382812 30.386719 31.195312 L 32.207031 31.195312 C 34.222656 29.179688 35.472656 26.394531 35.472656 23.324219 C 35.472656 17.183594 30.480469 12.191406 24.339844 12.191406 Z M 24.339844 12.191406 "/>
<path style=" stroke:none;fill-rule:nonzero;fill:rgb(100%,100%,100%);fill-opacity:1;" d="M 27.457031 30.53125 C 27.664062 30.34375 27.613281 29.988281 27.328125 29.578125 C 27.074219 29.222656 27.074219 29.21875 26.894531 27.839844 C 26.722656 26.515625 26.703125 26.433594 26.453125 25.957031 C 26.28125 25.632812 26.101562 25.394531 25.9375 25.269531 C 25.625 25.042969 25.472656 24.636719 25.601562 24.394531 C 25.675781 24.261719 25.648438 24.203125 25.328125 23.796875 C 25.132812 23.546875 24.9375 23.308594 24.890625 23.261719 C 24.847656 23.214844 24.714844 23.042969 24.597656 22.882812 C 24.449219 22.671875 24.351562 22.597656 24.273438 22.621094 C 24.183594 22.648438 24.15625 22.605469 24.128906 22.40625 C 24.113281 22.269531 24.078125 22.105469 24.050781 22.042969 C 24.007812 21.949219 24.03125 21.925781 24.167969 21.925781 C 24.402344 21.925781 24.476562 21.757812 24.476562 21.238281 L 24.476562 20.804688 L 24.988281 20.804688 C 25.269531 20.804688 25.601562 20.773438 25.726562 20.738281 C 26.023438 20.65625 26.308594 20.375 26.460938 20.027344 C 26.589844 19.734375 26.714844 19.679688 26.855469 19.851562 C 26.90625 19.914062 27.019531 19.945312 27.144531 19.933594 C 27.328125 19.914062 27.351562 19.886719 27.367188 19.664062 C 27.378906 19.53125 27.410156 19.417969 27.4375 19.417969 C 27.460938 19.417969 27.617188 19.738281 27.78125 20.128906 C 28.066406 20.804688 28.085938 20.835938 28.265625 20.824219 C 28.367188 20.816406 28.46875 20.792969 28.488281 20.773438 C 28.507812 20.753906 28.410156 20.433594 28.273438 20.0625 C 28.132812 19.691406 28.007812 19.351562 27.992188 19.3125 C 27.980469 19.273438 28.097656 19.1875 28.257812 19.125 C 28.480469 19.03125 28.5625 18.957031 28.609375 18.796875 L 28.667969 18.59375 L 29.425781 18.550781 C 29.84375 18.53125 30.195312 18.507812 30.203125 18.503906 C 30.210938 18.496094 30.21875 18.449219 30.21875 18.398438 C 30.21875 18.339844 30.136719 18.296875 30.003906 18.285156 C 29.792969 18.261719 29.789062 18.257812 29.769531 17.890625 C 29.769531 17.757812 29.542969 17.765625 29.425781 17.707031 C 29.425781 17.886719 29.410156 17.898438 29.164062 17.898438 C 28.972656 17.898438 28.898438 17.871094 28.898438 17.800781 C 28.898438 17.691406 28.789062 17.664062 28.757812 17.765625 C 28.742188 17.800781 28.59375 17.851562 28.421875 17.875 L 28.105469 17.917969 L 28.105469 17.71875 C 28.105469 17.609375 28.066406 17.503906 28.015625 17.484375 C 27.910156 17.441406 27.777344 17.554688 27.777344 17.683594 C 27.777344 17.746094 27.613281 17.769531 27.117188 17.769531 L 26.457031 17.769531 L 26.457031 17.570312 C 26.457031 17.386719 26.4375 17.371094 26.226562 17.371094 C 26.070312 17.371094 25.996094 17.402344 25.996094 17.464844 C 25.996094 17.574219 25.851562 17.636719 25.59375 17.636719 C 25.472656 17.636719 25.378906 17.683594 25.335938 17.769531 C 25.242188 17.941406 24.835938 17.960938 24.898438 17.789062 C 25.300781 16.742188 24.726562 15.753906 23.730469 15.777344 C 23.09375 15.792969 22.695312 16.339844 22.695312 17.214844 C 22.695312 17.683594 22.691406 17.6875 22.484375 17.773438 C 21.785156 18.0625 21.285156 19.171875 21.308594 20.371094 C 21.316406 20.75 21.28125 21.148438 21.207031 21.464844 C 21.128906 21.796875 21.085938 22.285156 21.078125 22.949219 C 21.0625 23.855469 21.042969 24.011719 20.832031 24.765625 C 20.636719 25.457031 20.507812 26.050781 20.34375 26.980469 C 20.332031 27.054688 20.15625 27.230469 19.953125 27.371094 C 19.558594 27.644531 19.289062 27.949219 19.078125 28.363281 L 18.945312 28.628906 L 19.183594 29.253906 C 19.484375 30.035156 19.480469 30.027344 19.765625 30.105469 C 19.945312 30.15625 20.0625 30.148438 20.226562 30.082031 L 20.449219 29.988281 L 20.449219 28.992188 L 20.714844 28.992188 C 21.289062 28.992188 21.726562 28.332031 22.296875 26.601562 C 22.8125 25.050781 22.964844 24.632812 23.03125 24.632812 C 23.0625 24.632812 23.089844 24.664062 23.089844 24.699219 C 23.089844 24.738281 23.207031 24.957031 23.351562 25.1875 C 23.660156 25.667969 24.167969 26.171875 24.6875 26.503906 C 25.015625 26.714844 25.058594 26.769531 25.097656 27.023438 C 25.121094 27.179688 25.261719 27.664062 25.40625 28.097656 C 25.554688 28.535156 25.714844 29.121094 25.765625 29.40625 C 25.882812 30.066406 26.019531 30.253906 26.539062 30.464844 C 27.023438 30.664062 27.289062 30.683594 27.457031 30.53125 Z M 24.832031 19.269531 C 24.855469 19.113281 24.925781 18.953125 24.984375 18.90625 C 25.210938 18.738281 26.125 18.855469 26.125 19.054688 C 26.125 19.148438 25.925781 19.21875 25.652344 19.21875 C 25.542969 19.21875 25.425781 19.28125 25.347656 19.386719 C 25.253906 19.5 25.152344 19.550781 25.003906 19.550781 L 24.789062 19.550781 Z M 24.832031 19.269531 "/>
</g>
</svg>
