<?xml version="1.0" encoding="UTF-8"?>
<svg xmlns="http://www.w3.org/2000/svg" xmlns:xlink="http://www.w3.org/1999/xlink" width="48pt" height="48pt" viewBox="0 0 48 48" version="1.1">
<g id="surface1">
<path style=" stroke:none;fill-rule:evenodd;fill:rgb(60%,60%,60%);fill-opacity:1;" d="M 11.210938 2.847656 L 36.789062 2.847656 C 41.410156 2.847656 45.152344 6.589844 45.152344 11.210938 L 45.152344 36.789062 C 45.152344 41.410156 41.410156 45.152344 36.789062 45.152344 L 11.210938 45.152344 C 6.589844 45.152344 2.847656 41.410156 2.847656 36.789062 L 2.847656 11.210938 C 2.847656 6.589844 6.589844 2.847656 11.210938 2.847656 Z M 11.210938 2.847656 "/>
<path style=" stroke:none;fill-rule:nonzero;fill:rgb(90.196078%,90.196078%,90.196078%);fill-opacity:1;" d="M 12.207031 18.660156 L 11.96875 18.660156 C 10.0625 18.660156 8.523438 20.199219 8.523438 22.109375 L 8.523438 32.972656 C 8.523438 34.882812 10.0625 36.417969 11.96875 36.417969 L 36.03125 36.417969 C 37.9375 36.417969 39.476562 34.882812 39.476562 32.972656 L 39.476562 22.109375 C 39.476562 20.199219 37.9375 18.660156 36.03125 18.660156 L 35.792969 18.660156 L 35.792969 27.007812 C 35.792969 27.761719 35.488281 28.441406 34.996094 28.933594 C 34.507812 29.425781 33.828125 29.726562 33.074219 29.726562 L 14.925781 29.726562 C 14.171875 29.726562 13.492188 29.425781 13.003906 28.933594 C 12.511719 28.441406 12.207031 27.761719 12.207031 27.007812 Z M 12.207031 18.660156 "/>
<path style=" stroke:none;fill-rule:nonzero;fill:rgb(35.686275%,35.686275%,35.686275%);fill-opacity:1;" d="M 12.207031 18.660156 L 12.207031 27.007812 C 12.207031 27.761719 12.511719 28.441406 13.003906 28.933594 C 13.492188 29.425781 14.171875 29.726562 14.925781 29.726562 L 33.074219 29.726562 C 33.828125 29.726562 34.507812 29.425781 34.996094 28.933594 C 35.488281 28.441406 35.792969 27.761719 35.792969 27.007812 L 35.792969 18.660156 Z M 12.207031 18.660156 "/>
<path style=" stroke:none;fill-rule:nonzero;fill:rgb(32.156863%,32.156863%,32.156863%);fill-opacity:1;" d="M 13.628906 32.519531 L 34.371094 32.519531 L 34.371094 36.417969 L 13.628906 36.417969 Z M 13.628906 32.519531 "/>
<path style=" stroke:none;fill-rule:nonzero;fill:rgb(80%,80%,80%);fill-opacity:1;" d="M 14.949219 33.953125 L 33.050781 33.953125 L 33.050781 39.324219 L 14.949219 39.324219 Z M 14.949219 33.953125 "/>
<path style=" stroke:none;fill-rule:nonzero;fill:rgb(80%,80%,80%);fill-opacity:1;" d="M 16.300781 33.953125 L 31.699219 33.953125 L 31.699219 38.042969 L 16.300781 38.042969 Z M 16.300781 33.953125 "/>
<path style=" stroke:none;fill-rule:nonzero;fill:rgb(100%,100%,100%);fill-opacity:1;" d="M 37.773438 32.851562 C 37.773438 33.402344 37.328125 33.847656 36.777344 33.847656 C 36.226562 33.847656 35.78125 33.402344 35.78125 32.851562 C 35.78125 32.300781 36.226562 31.855469 36.777344 31.855469 C 37.328125 31.855469 37.773438 32.300781 37.773438 32.851562 Z M 37.773438 32.851562 "/>
<path style=" stroke:none;fill-rule:nonzero;fill:rgb(80%,80%,80%);fill-opacity:1;" d="M 14.785156 8.675781 L 32.882812 8.675781 L 32.882812 20.847656 L 14.785156 20.847656 Z M 14.785156 8.675781 "/>
<path style=" stroke:none;fill-rule:nonzero;fill:rgb(80%,80%,80%);fill-opacity:1;" d="M 16.136719 9.875 L 31.53125 9.875 L 31.53125 20.847656 L 16.136719 20.847656 Z M 16.136719 9.875 "/>
</g>
</svg>
