<?xml version="1.0" encoding="UTF-8"?>
<svg xmlns="http://www.w3.org/2000/svg" xmlns:xlink="http://www.w3.org/1999/xlink" width="48pt" height="48pt" viewBox="0 0 48 48" version="1.1">
<g id="surface1">
<path style=" stroke:none;fill-rule:evenodd;fill:rgb(85.098039%,34.901961%,31.764706%);fill-opacity:1;" d="M 11.210938 2.847656 L 36.789062 2.847656 C 41.410156 2.847656 45.152344 6.589844 45.152344 11.210938 L 45.152344 36.789062 C 45.152344 41.410156 41.410156 45.152344 36.789062 45.152344 L 11.210938 45.152344 C 6.589844 45.152344 2.847656 41.410156 2.847656 36.789062 L 2.847656 11.210938 C 2.847656 6.589844 6.589844 2.847656 11.210938 2.847656 Z M 11.210938 2.847656 "/>
<path style=" stroke:none;fill-rule:nonzero;fill:rgb(100%,100%,100%);fill-opacity:1;" d="M 9.1875 11.65625 L 9.1875 16.59375 L 15.234375 16.59375 C 15.789062 16.59375 16.59375 17.269531 16.59375 17.828125 L 16.59375 30.171875 C 16.59375 30.730469 15.789062 31.4375 15.234375 31.40625 L 9.1875 31.40625 L 9.1875 36.34375 L 19.769531 36.34375 C 20.746094 36.34375 21.53125 35.554688 21.53125 34.578125 L 21.53125 13.421875 C 21.53125 12.445312 20.746094 11.65625 19.769531 11.65625 Z M 9.1875 11.65625 "/>
<path style=" stroke:none;fill-rule:nonzero;fill:rgb(100%,100%,100%);fill-opacity:1;" d="M 38.8125 11.65625 L 38.8125 16.59375 L 32.765625 16.59375 C 32.210938 16.59375 31.40625 17.269531 31.40625 17.828125 L 31.40625 30.171875 C 31.40625 30.730469 32.210938 31.4375 32.765625 31.40625 L 38.8125 31.40625 L 38.8125 36.34375 L 28.230469 36.34375 C 27.253906 36.34375 26.46875 35.554688 26.46875 34.578125 L 26.46875 13.421875 C 26.46875 12.445312 27.253906 11.65625 28.230469 11.65625 Z M 38.8125 11.65625 "/>
</g>
</svg>
