<?xml version="1.0" encoding="UTF-8"?>
<svg xmlns="http://www.w3.org/2000/svg" xmlns:xlink="http://www.w3.org/1999/xlink" width="48pt" height="48pt" viewBox="0 0 48 48" version="1.1">
<g id="surface1">
<path style=" stroke:none;fill-rule:evenodd;fill:rgb(23.137255%,50.196078%,68.235294%);fill-opacity:1;" d="M 11.210938 2.847656 L 36.789062 2.847656 C 41.410156 2.847656 45.152344 6.589844 45.152344 11.210938 L 45.152344 36.789062 C 45.152344 41.410156 41.410156 45.152344 36.789062 45.152344 L 11.210938 45.152344 C 6.589844 45.152344 2.847656 41.410156 2.847656 36.789062 L 2.847656 11.210938 C 2.847656 6.589844 6.589844 2.847656 11.210938 2.847656 Z M 11.210938 2.847656 "/>
<path style=" stroke:none;fill-rule:nonzero;fill:rgb(78.823529%,81.568627%,100%);fill-opacity:1;" d="M 11.449219 11.25 C 10.507812 11.25 9.75 12.070312 9.75 13.089844 L 9.75 19.910156 C 9.75 20.929688 10.507812 21.75 11.449219 21.75 L 18.507812 21.75 L 22.597656 29.25 L 21.523438 29.25 C 20.820312 29.25 20.25 29.835938 20.25 30.566406 L 20.25 35.433594 C 20.25 36.164062 20.820312 36.75 21.523438 36.75 L 27.976562 36.75 C 28.679688 36.75 29.25 36.164062 29.25 35.433594 L 29.25 30.566406 C 29.25 30.226562 29.117188 29.925781 28.917969 29.691406 L 31.496094 26.25 L 36.765625 26.25 C 37.589844 26.25 38.25 25.546875 38.25 24.675781 L 38.25 18.824219 C 38.25 17.953125 37.589844 17.25 36.765625 17.25 L 29.234375 17.25 C 28.503906 17.25 27.929688 17.816406 27.800781 18.550781 L 21.75 17.039062 L 21.75 13.089844 C 21.75 12.070312 20.992188 11.25 20.050781 11.25 Z M 21.75 18.582031 L 27.75 20.082031 L 27.75 24.675781 C 27.75 25.546875 28.410156 26.25 29.234375 26.25 L 29.621094 26.25 L 27.371094 29.25 L 24.308594 29.25 L 20.207031 21.730469 C 21.074219 21.644531 21.75 20.871094 21.75 19.910156 Z M 21.75 18.582031 "/>
</g>
</svg>
