<?xml version="1.0" encoding="UTF-8"?>
<svg xmlns="http://www.w3.org/2000/svg" xmlns:xlink="http://www.w3.org/1999/xlink" width="48pt" height="48pt" viewBox="0 0 48 48" version="1.1">
<g id="surface1">
<path style=" stroke:none;fill-rule:evenodd;fill:rgb(30.196078%,30.196078%,30.196078%);fill-opacity:1;" d="M 11.210938 2.847656 L 36.789062 2.847656 C 41.410156 2.847656 45.152344 6.589844 45.152344 11.210938 L 45.152344 36.789062 C 45.152344 41.410156 41.410156 45.152344 36.789062 45.152344 L 11.210938 45.152344 C 6.589844 45.152344 2.847656 41.410156 2.847656 36.789062 L 2.847656 11.210938 C 2.847656 6.589844 6.589844 2.847656 11.210938 2.847656 Z M 11.210938 2.847656 "/>
<path style=" stroke:none;fill-rule:nonzero;fill:rgb(32.54902%,32.54902%,32.54902%);fill-opacity:1;" d="M 25.074219 10.582031 C 25.074219 11.175781 24.59375 11.65625 24 11.65625 C 23.40625 11.65625 22.925781 11.175781 22.925781 10.582031 C 22.925781 9.988281 23.40625 9.507812 24 9.507812 C 24.59375 9.507812 25.074219 9.988281 25.074219 10.582031 Z M 25.074219 10.582031 "/>
<path style=" stroke:none;fill-rule:nonzero;fill:rgb(99.607843%,67.843137%,0%);fill-opacity:1;" d="M 23.984375 10.582031 C 23.902344 10.582031 23.824219 10.597656 23.742188 10.605469 C 23.644531 10.613281 23.542969 10.617188 23.449219 10.636719 C 23.421875 10.640625 23.398438 10.652344 23.375 10.65625 C 20.84375 11.203125 19.558594 14.925781 19.710938 18.472656 C 19.710938 18.574219 19.695312 18.6875 19.695312 18.789062 L 9.277344 25.464844 C 9.085938 25.5625 8.984375 25.730469 8.972656 25.96875 L 8.972656 29.347656 C 8.972656 29.539062 9.058594 29.699219 9.222656 29.820312 C 9.398438 29.9375 9.585938 29.96875 9.789062 29.914062 L 19.480469 26.890625 L 20.984375 33.964844 L 17.132812 35.683594 C 17.003906 35.804688 16.9375 35.945312 16.9375 36.105469 L 17.230469 38.492188 L 24 37.417969 L 30.769531 38.492188 L 31.0625 36.105469 C 31.0625 35.945312 30.996094 35.804688 30.867188 35.683594 L 26.988281 33.964844 L 28.519531 26.894531 L 38.210938 29.914062 C 38.414062 29.96875 38.605469 29.9375 38.777344 29.824219 C 38.945312 29.699219 39.027344 29.542969 39.027344 29.347656 L 39.027344 25.96875 C 39.015625 25.730469 38.917969 25.5625 38.722656 25.464844 L 28.304688 18.789062 C 28.304688 18.6875 28.296875 18.574219 28.292969 18.472656 C 28.445312 14.925781 27.15625 11.203125 24.625 10.660156 C 24.601562 10.652344 24.578125 10.640625 24.550781 10.636719 C 24.457031 10.617188 24.355469 10.617188 24.257812 10.605469 C 24.175781 10.601562 24.097656 10.582031 24.015625 10.582031 C 24.011719 10.582031 24.003906 10.585938 24 10.585938 C 23.996094 10.585938 23.988281 10.582031 23.984375 10.582031 Z M 23.984375 10.582031 "/>
<path style=" stroke:none;fill-rule:nonzero;fill:rgb(99.607843%,33.72549%,0%);fill-opacity:1;" d="M 16.488281 20.84375 L 14.339844 22.222656 L 14.339844 28.496094 L 16.488281 27.828125 Z M 31.511719 20.84375 L 31.511719 27.824219 L 33.660156 28.496094 L 33.660156 22.222656 Z M 13.265625 22.910156 L 11.121094 24.285156 L 11.121094 29.5 L 13.265625 28.832031 Z M 34.734375 22.910156 L 34.734375 28.832031 L 36.878906 29.5 L 36.878906 24.285156 Z M 34.734375 22.910156 "/>
<path style=" stroke:none;fill-rule:nonzero;fill:rgb(16.078431%,16.078431%,16.078431%);fill-opacity:1;" d="M 19.304688 10.582031 L 28.695312 10.582031 C 29.066406 10.582031 29.367188 10.824219 29.367188 11.121094 C 29.367188 11.414062 29.066406 11.65625 28.695312 11.65625 L 19.304688 11.65625 C 18.933594 11.65625 18.632812 11.414062 18.632812 11.121094 C 18.632812 10.824219 18.933594 10.582031 19.304688 10.582031 Z M 19.304688 10.582031 "/>
<path style=" stroke:none;fill-rule:nonzero;fill:rgb(16.078431%,16.078431%,16.078431%);fill-opacity:1;" d="M 28.292969 22.746094 C 28.292969 25.515625 26.371094 27.757812 24 27.757812 C 21.628906 27.757812 19.707031 25.515625 19.707031 22.746094 C 19.707031 19.980469 21.628906 19.167969 24 19.167969 C 26.371094 19.167969 28.292969 19.980469 28.292969 22.746094 Z M 28.292969 22.746094 "/>
</g>
</svg>
