<?xml version="1.0" encoding="UTF-8"?>
<svg xmlns="http://www.w3.org/2000/svg" xmlns:xlink="http://www.w3.org/1999/xlink" width="48pt" height="48pt" viewBox="0 0 48 48" version="1.1">
<g id="surface1">
<path style=" stroke:none;fill-rule:evenodd;fill:rgb(9.019608%,52.156863%,15.686275%);fill-opacity:1;" d="M 11.210938 2.847656 L 36.789062 2.847656 C 41.410156 2.847656 45.152344 6.589844 45.152344 11.210938 L 45.152344 36.789062 C 45.152344 41.410156 41.410156 45.152344 36.789062 45.152344 L 11.210938 45.152344 C 6.589844 45.152344 2.847656 41.410156 2.847656 36.789062 L 2.847656 11.210938 C 2.847656 6.589844 6.589844 2.847656 11.210938 2.847656 Z M 11.210938 2.847656 "/>
<path style=" stroke:none;fill-rule:nonzero;fill:rgb(100%,100%,100%);fill-opacity:1;" d="M 24 10.523438 C 27.359375 10.523438 30.082031 13.382812 30.082031 16.90625 C 30.082031 20.433594 27.359375 23.292969 24 23.292969 C 20.640625 23.292969 17.917969 20.433594 17.917969 16.90625 C 17.917969 13.382812 20.640625 10.523438 24 10.523438 Z M 24 10.523438 "/>
<path style=" stroke:none;fill-rule:nonzero;fill:rgb(100%,100%,100%);fill-opacity:1;" d="M 24 26.839844 C 36.164062 26.832031 36.164062 35.351562 36.164062 35.351562 L 36.164062 37.476562 L 11.835938 37.476562 L 11.835938 35.351562 C 11.835938 35.351562 11.835938 26.84375 24 26.835938 Z M 24 26.839844 "/>
<path style=" stroke:none;fill-rule:nonzero;fill:rgb(0%,32.941176%,0%);fill-opacity:1;" d="M 39.382812 24.601562 C 39.382812 21.757812 37.074219 19.449219 34.230469 19.449219 C 31.386719 19.449219 29.082031 21.757812 29.082031 24.601562 C 29.082031 26.699219 30.355469 28.585938 32.300781 29.371094 L 32.300781 32.328125 L 30.367188 32.328125 L 30.367188 35.546875 L 32.300781 35.546875 L 32.300781 37.476562 L 36.164062 37.476562 L 36.164062 29.375 C 38.105469 28.585938 39.378906 26.699219 39.382812 24.601562 Z M 36.164062 24.601562 C 36.164062 25.667969 35.296875 26.53125 34.230469 26.53125 C 33.164062 26.53125 32.300781 25.667969 32.300781 24.601562 C 32.300781 23.535156 33.164062 22.671875 34.230469 22.671875 C 35.296875 22.671875 36.164062 23.535156 36.164062 24.601562 Z M 36.164062 24.601562 "/>
</g>
</svg>
