<?xml version="1.0" encoding="UTF-8"?>
<svg xmlns="http://www.w3.org/2000/svg" xmlns:xlink="http://www.w3.org/1999/xlink" width="48pt" height="48pt" viewBox="0 0 48 48" version="1.1">
<defs>
<clipPath id="clip1">
  <rect width="48" height="48"/>
</clipPath>
<g id="surface6" clip-path="url(#clip1)">
<path style=" stroke:none;fill-rule:nonzero;fill:rgb(100%,100%,100%);fill-opacity:1;" d="M 21.070312 9.6875 C 20.765625 9.71875 20.5 9.96875 20.441406 10.269531 L 19.839844 13.335938 C 18.753906 13.757812 17.738281 14.339844 16.84375 15.054688 L 13.867188 14.050781 C 13.558594 13.941406 13.183594 14.082031 13.019531 14.363281 L 10.15625 19.324219 C 9.996094 19.613281 10.066406 20.007812 10.316406 20.222656 L 12.683594 22.300781 C 12.601562 22.859375 12.550781 23.421875 12.550781 24 C 12.550781 24.582031 12.601562 25.144531 12.683594 25.699219 L 10.316406 27.78125 C 10.066406 27.996094 9.996094 28.390625 10.15625 28.675781 L 13.019531 33.640625 C 13.183594 33.921875 13.558594 34.058594 13.867188 33.949219 L 16.84375 32.945312 C 17.738281 33.660156 18.753906 34.246094 19.839844 34.667969 L 20.445312 37.734375 C 20.507812 38.054688 20.8125 38.308594 21.136719 38.3125 L 26.863281 38.3125 C 27.1875 38.308594 27.496094 38.054688 27.554688 37.734375 L 28.160156 34.667969 C 29.242188 34.246094 30.261719 33.660156 31.15625 32.945312 L 34.128906 33.949219 C 34.4375 34.058594 34.8125 33.921875 34.980469 33.640625 L 37.84375 28.675781 C 38.003906 28.390625 37.9375 27.996094 37.6875 27.78125 L 35.316406 25.699219 C 35.398438 25.144531 35.453125 24.582031 35.453125 24 C 35.453125 23.421875 35.398438 22.859375 35.316406 22.300781 L 37.6875 20.222656 C 37.9375 20.007812 38.003906 19.613281 37.84375 19.324219 L 34.980469 14.363281 C 34.8125 14.082031 34.4375 13.941406 34.128906 14.050781 L 31.15625 15.054688 C 30.261719 14.339844 29.242188 13.753906 28.160156 13.332031 L 27.554688 10.269531 C 27.496094 9.949219 27.1875 9.691406 26.863281 9.6875 L 21.136719 9.6875 C 21.113281 9.6875 21.09375 9.6875 21.070312 9.6875 Z M 24 17.867188 C 27.386719 17.867188 30.132812 20.613281 30.132812 24 C 30.132812 27.390625 27.386719 30.132812 24 30.132812 C 20.613281 30.132812 17.867188 27.390625 17.867188 24 C 17.867188 20.613281 20.613281 17.867188 24 17.867188 Z M 24 17.867188 "/>
</g>
</defs>
<g id="surface1">
<path style=" stroke:none;fill-rule:evenodd;fill:rgb(68.235294%,33.72549%,72.156863%);fill-opacity:1;" d="M 11.210938 2.847656 L 36.789062 2.847656 C 41.410156 2.847656 45.152344 6.589844 45.152344 11.210938 L 45.152344 36.789062 C 45.152344 41.410156 41.410156 45.152344 36.789062 45.152344 L 11.210938 45.152344 C 6.589844 45.152344 2.847656 41.410156 2.847656 36.789062 L 2.847656 11.210938 C 2.847656 6.589844 6.589844 2.847656 11.210938 2.847656 Z M 11.210938 2.847656 "/>
<use xlink:href="#surface6"/>
</g>
</svg>
