<?xml version="1.0" encoding="UTF-8"?>
<svg xmlns="http://www.w3.org/2000/svg" xmlns:xlink="http://www.w3.org/1999/xlink" width="48pt" height="48pt" viewBox="0 0 48 48" version="1.1">
<g id="surface1">
<path style=" stroke:none;fill-rule:evenodd;fill:rgb(76.078431%,20.784314%,16.470588%);fill-opacity:1;" d="M 5.292969 42.707031 L 24 24 L 5.292969 5.292969 C 3.78125 6.800781 2.847656 8.890625 2.847656 11.207031 L 2.847656 36.792969 C 2.847656 39.105469 3.78125 41.195312 5.292969 42.707031 Z M 5.292969 42.707031 "/>
<path style=" stroke:none;fill-rule:evenodd;fill:rgb(64.313725%,32.54902%,56.470588%);fill-opacity:1;" d="M 42.707031 42.707031 L 24 24 L 5.292969 42.707031 C 6.800781 44.21875 8.890625 45.152344 11.207031 45.152344 L 36.792969 45.152344 C 39.109375 45.152344 41.199219 44.21875 42.707031 42.707031 Z M 42.707031 42.707031 "/>
<path style=" stroke:none;fill-rule:evenodd;fill:rgb(42.745098%,72.156863%,19.607843%);fill-opacity:1;" d="M 42.707031 5.292969 L 24 24 L 42.707031 42.707031 C 44.21875 41.199219 45.152344 39.109375 45.152344 36.792969 L 45.152344 11.207031 C 45.152344 8.890625 44.21875 6.800781 42.707031 5.292969 Z M 42.707031 5.292969 "/>
<path style=" stroke:none;fill-rule:evenodd;fill:rgb(28.627451%,52.941176%,84.313725%);fill-opacity:1;" d="M 5.292969 5.292969 L 24 24 L 42.707031 5.292969 C 41.195312 3.78125 39.105469 2.847656 36.792969 2.847656 L 11.207031 2.847656 C 8.890625 2.847656 6.800781 3.78125 5.292969 5.292969 Z M 5.292969 5.292969 "/>
<path style=" stroke:none;fill-rule:nonzero;fill:rgb(100%,100%,100%);fill-opacity:1;" d="M 15.140625 30.863281 L 6.160156 30.863281 L 6.160156 28.894531 L 9.308594 25.496094 C 9.707031 25.070312 10.066406 24.675781 10.390625 24.316406 C 10.714844 23.957031 10.992188 23.605469 11.222656 23.261719 C 11.457031 22.921875 11.636719 22.574219 11.761719 22.21875 C 11.890625 21.863281 11.957031 21.484375 11.957031 21.074219 C 11.957031 20.625 11.820312 20.273438 11.542969 20.023438 C 11.273438 19.773438 10.910156 19.648438 10.453125 19.648438 C 9.972656 19.648438 9.507812 19.765625 9.0625 20.003906 C 8.617188 20.242188 8.148438 20.582031 7.660156 21.019531 L 6.125 19.195312 C 6.398438 18.945312 6.683594 18.707031 6.984375 18.480469 C 7.285156 18.25 7.613281 18.046875 7.972656 17.867188 C 8.332031 17.691406 8.730469 17.550781 9.164062 17.445312 C 9.597656 17.335938 10.082031 17.28125 10.617188 17.28125 C 11.261719 17.28125 11.832031 17.371094 12.339844 17.546875 C 12.851562 17.726562 13.289062 17.976562 13.648438 18.308594 C 14.007812 18.632812 14.285156 19.023438 14.472656 19.488281 C 14.667969 19.953125 14.765625 20.472656 14.765625 21.054688 C 14.765625 21.578125 14.675781 22.082031 14.492188 22.566406 C 14.308594 23.042969 14.058594 23.511719 13.742188 23.976562 C 13.421875 24.433594 13.054688 24.890625 12.632812 25.347656 C 12.21875 25.800781 11.773438 26.261719 11.296875 26.730469 L 9.683594 28.351562 L 9.683594 28.480469 L 15.140625 28.480469 Z M 15.140625 30.863281 "/>
<path style=" stroke:none;fill-rule:nonzero;fill:rgb(100%,100%,100%);fill-opacity:1;" d="M 19.625 12.992188 C 19.625 12.351562 19.65625 11.714844 19.722656 11.078125 C 19.796875 10.445312 19.921875 9.835938 20.101562 9.257812 C 20.28125 8.671875 20.527344 8.128906 20.832031 7.628906 C 21.144531 7.128906 21.535156 6.695312 22.003906 6.328125 C 22.480469 5.957031 23.046875 5.667969 23.707031 5.457031 C 24.371094 5.246094 25.148438 5.136719 26.03125 5.136719 C 26.160156 5.136719 26.300781 5.140625 26.453125 5.148438 C 26.605469 5.152344 26.757812 5.164062 26.910156 5.175781 C 27.070312 5.179688 27.222656 5.191406 27.371094 5.210938 C 27.515625 5.230469 27.648438 5.25 27.761719 5.277344 L 27.761719 7.535156 C 27.53125 7.480469 27.285156 7.4375 27.019531 7.410156 C 26.765625 7.371094 26.503906 7.355469 26.242188 7.355469 C 25.417969 7.355469 24.742188 7.457031 24.210938 7.664062 C 23.679688 7.867188 23.257812 8.148438 22.945312 8.515625 C 22.636719 8.882812 22.414062 9.320312 22.277344 9.835938 C 22.152344 10.347656 22.070312 10.914062 22.039062 11.539062 L 22.152344 11.539062 C 22.273438 11.316406 22.417969 11.113281 22.589844 10.925781 C 22.765625 10.730469 22.972656 10.5625 23.203125 10.429688 C 23.433594 10.289062 23.695312 10.179688 23.980469 10.101562 C 24.273438 10.019531 24.601562 9.980469 24.960938 9.980469 C 25.542969 9.980469 26.0625 10.074219 26.527344 10.265625 C 26.992188 10.453125 27.382812 10.730469 27.699219 11.089844 C 28.023438 11.449219 28.269531 11.890625 28.441406 12.417969 C 28.609375 12.941406 28.695312 13.542969 28.695312 14.21875 C 28.695312 14.945312 28.59375 15.597656 28.386719 16.171875 C 28.183594 16.742188 27.894531 17.230469 27.515625 17.636719 C 27.136719 18.03125 26.679688 18.335938 26.140625 18.550781 C 25.605469 18.757812 25.003906 18.859375 24.332031 18.859375 C 23.671875 18.859375 23.054688 18.746094 22.480469 18.511719 C 21.90625 18.273438 21.40625 17.914062 20.980469 17.433594 C 20.558594 16.953125 20.226562 16.34375 19.980469 15.609375 C 19.742188 14.871094 19.625 14 19.625 12.992188 Z M 24.273438 16.601562 C 24.523438 16.601562 24.75 16.554688 24.953125 16.464844 C 25.160156 16.367188 25.335938 16.222656 25.484375 16.03125 C 25.636719 15.835938 25.75 15.59375 25.832031 15.300781 C 25.917969 15.007812 25.960938 14.660156 25.960938 14.257812 C 25.960938 13.605469 25.820312 13.089844 25.546875 12.71875 C 25.277344 12.339844 24.867188 12.152344 24.3125 12.152344 C 24.03125 12.152344 23.773438 12.207031 23.542969 12.316406 C 23.308594 12.425781 23.113281 12.570312 22.945312 12.746094 C 22.78125 12.921875 22.652344 13.121094 22.5625 13.339844 C 22.476562 13.5625 22.433594 13.785156 22.433594 14.007812 C 22.433594 14.320312 22.472656 14.632812 22.542969 14.945312 C 22.625 15.25 22.738281 15.527344 22.890625 15.777344 C 23.050781 16.019531 23.242188 16.21875 23.46875 16.371094 C 23.699219 16.523438 23.96875 16.601562 24.273438 16.601562 Z M 24.273438 16.601562 "/>
<path style=" stroke:none;fill-rule:nonzero;fill:rgb(100%,100%,100%);fill-opacity:1;" d="M 37.8125 22.128906 C 38.386719 22.128906 38.917969 22.214844 39.414062 22.394531 C 39.90625 22.570312 40.339844 22.828125 40.703125 23.171875 C 41.070312 23.511719 41.355469 23.941406 41.566406 24.453125 C 41.773438 24.960938 41.875 25.542969 41.875 26.203125 C 41.875 26.929688 41.761719 27.582031 41.539062 28.160156 C 41.3125 28.734375 40.980469 29.222656 40.539062 29.625 C 40.101562 30.023438 39.554688 30.328125 38.902344 30.542969 C 38.253906 30.753906 37.507812 30.863281 36.667969 30.863281 C 36.332031 30.863281 36 30.847656 35.667969 30.816406 C 35.339844 30.785156 35.023438 30.738281 34.71875 30.679688 C 34.417969 30.625 34.132812 30.550781 33.855469 30.457031 C 33.589844 30.367188 33.34375 30.261719 33.125 30.140625 L 33.125 27.695312 C 33.335938 27.816406 33.585938 27.933594 33.867188 28.042969 C 34.148438 28.144531 34.4375 28.238281 34.734375 28.316406 C 35.039062 28.390625 35.347656 28.453125 35.652344 28.5 C 35.957031 28.542969 36.246094 28.5625 36.519531 28.5625 C 37.339844 28.5625 37.960938 28.398438 38.386719 28.0625 C 38.816406 27.71875 39.03125 27.179688 39.03125 26.441406 C 39.03125 25.78125 38.820312 25.28125 38.398438 24.9375 C 37.984375 24.589844 37.339844 24.417969 36.464844 24.417969 C 36.308594 24.417969 36.136719 24.425781 35.953125 24.445312 C 35.777344 24.460938 35.597656 24.488281 35.421875 24.519531 C 35.25 24.546875 35.085938 24.582031 34.929688 24.617188 C 34.769531 24.648438 34.632812 24.683594 34.515625 24.71875 L 33.390625 24.113281 L 33.894531 17.292969 L 40.960938 17.292969 L 40.960938 19.691406 L 36.347656 19.691406 L 36.128906 22.320312 C 36.324219 22.277344 36.546875 22.234375 36.804688 22.191406 C 37.066406 22.148438 37.402344 22.128906 37.8125 22.128906 Z M 37.8125 22.128906 "/>
<path style=" stroke:none;fill-rule:nonzero;fill:rgb(100%,100%,100%);fill-opacity:1;" d="M 21.015625 42.863281 L 25.777344 31.875 L 19.625 31.875 L 19.625 29.496094 L 28.851562 29.496094 L 28.851562 31.269531 L 23.972656 42.863281 Z M 21.015625 42.863281 "/>
</g>
</svg>
