<?xml version="1.0" encoding="UTF-8"?>
<svg xmlns="http://www.w3.org/2000/svg" xmlns:xlink="http://www.w3.org/1999/xlink" width="48pt" height="48pt" viewBox="0 0 48 48" version="1.1">
<g id="surface1">
<path style=" stroke:none;fill-rule:evenodd;fill:rgb(37.647059%,63.921569%,0%);fill-opacity:1;" d="M 11.210938 2.847656 L 36.789062 2.847656 C 41.410156 2.847656 45.152344 6.589844 45.152344 11.210938 L 45.152344 36.789062 C 45.152344 41.410156 41.410156 45.152344 36.789062 45.152344 L 11.210938 45.152344 C 6.589844 45.152344 2.847656 41.410156 2.847656 36.789062 L 2.847656 11.210938 C 2.847656 6.589844 6.589844 2.847656 11.210938 2.847656 Z M 11.210938 2.847656 "/>
<path style=" stroke:none;fill-rule:nonzero;fill:rgb(100%,100%,100%);fill-opacity:1;" d="M 24 9.4375 C 15.910156 9.4375 9.4375 15.910156 9.4375 24 C 9.4375 32.089844 15.910156 38.5625 24 38.5625 C 25.292969 38.5625 26.425781 37.429688 26.425781 36.136719 C 26.425781 35.488281 26.265625 35.003906 25.78125 34.519531 C 25.457031 34.03125 25.132812 33.546875 25.132812 32.898438 C 25.132812 31.605469 26.265625 30.472656 27.558594 30.472656 L 30.472656 30.472656 C 35.003906 30.472656 38.5625 26.914062 38.5625 22.382812 C 38.5625 15.261719 32.089844 9.4375 24 9.4375 Z M 24 9.4375 "/>
<path style=" stroke:none;fill-rule:nonzero;fill:rgb(99.215686%,55.686275%,3.137255%);fill-opacity:1;" d="M 13.917969 24 C 12.722656 24 11.675781 22.953125 11.675781 21.757812 C 11.675781 20.5625 12.722656 19.519531 13.917969 19.519531 C 15.113281 19.519531 16.15625 20.5625 16.15625 21.757812 C 16.15625 22.953125 15.113281 24 13.917969 24 Z M 13.917969 24 "/>
<path style=" stroke:none;fill-rule:nonzero;fill:rgb(24.705882%,56.470588%,86.27451%);fill-opacity:1;" d="M 19.519531 17.277344 C 18.324219 17.277344 17.277344 16.234375 17.277344 15.039062 C 17.277344 13.84375 18.324219 12.796875 19.519531 12.796875 C 20.714844 12.796875 21.757812 13.84375 21.757812 15.039062 C 21.757812 16.234375 20.714844 17.277344 19.519531 17.277344 Z M 19.519531 17.277344 "/>
<path style=" stroke:none;fill-rule:nonzero;fill:rgb(33.72549%,66.27451%,7.45098%);fill-opacity:1;" d="M 27.359375 17.277344 C 26.164062 17.277344 25.121094 16.234375 25.121094 15.039062 C 25.121094 13.84375 26.164062 12.796875 27.359375 12.796875 C 28.554688 12.796875 29.601562 13.84375 29.601562 15.039062 C 29.601562 16.234375 28.554688 17.277344 27.359375 17.277344 Z M 27.359375 17.277344 "/>
<path style=" stroke:none;fill-rule:nonzero;fill:rgb(95.294118%,35.686275%,35.686275%);fill-opacity:1;" d="M 32.960938 24 C 31.765625 24 30.722656 22.953125 30.722656 21.757812 C 30.722656 20.566406 31.765625 19.519531 32.960938 19.519531 C 34.15625 19.519531 35.203125 20.566406 35.203125 21.757812 C 35.203125 22.953125 34.15625 24 32.960938 24 Z M 32.960938 24 "/>
</g>
</svg>
