<?xml version="1.0" encoding="UTF-8"?>
<svg xmlns="http://www.w3.org/2000/svg" xmlns:xlink="http://www.w3.org/1999/xlink" width="48pt" height="48pt" viewBox="0 0 48 48" version="1.1">
<defs>
<g>
<symbol overflow="visible" id="glyph0-0">
<path style="stroke:none;" d="M 2 0 L 2 -10 L 10 -10 L 10 0 Z M 2.25 -0.25 L 9.75 -0.25 L 9.75 -9.75 L 2.25 -9.75 Z M 2.25 -0.25 "/>
</symbol>
<symbol overflow="visible" id="glyph0-1">
<path style="stroke:none;" d="M 7.28125 -12.65625 L 7.28125 -10.125 L 5.328125 -10.125 L 5.328125 0 L 2.046875 0 L 2.046875 -10.125 L 0.09375 -10.125 L 0.09375 -12.65625 Z M 7.28125 -12.65625 "/>
</symbol>
<symbol overflow="visible" id="glyph0-2">
<path style="stroke:none;" d="M 7.71875 -5 L 3.625 -5 L 3.625 -2.765625 C 3.625 -2.296875 3.65625 -1.992188 3.71875 -1.859375 C 3.789062 -1.722656 3.925781 -1.65625 4.125 -1.65625 C 4.363281 -1.65625 4.519531 -1.742188 4.59375 -1.921875 C 4.675781 -2.097656 4.71875 -2.445312 4.71875 -2.96875 L 4.71875 -4.328125 L 7.71875 -4.328125 L 7.71875 -3.5625 C 7.71875 -2.925781 7.675781 -2.4375 7.59375 -2.09375 C 7.507812 -1.75 7.316406 -1.378906 7.015625 -0.984375 C 6.722656 -0.597656 6.347656 -0.304688 5.890625 -0.109375 C 5.441406 0.0859375 4.875 0.1875 4.1875 0.1875 C 3.519531 0.1875 2.929688 0.09375 2.421875 -0.09375 C 1.910156 -0.289062 1.507812 -0.554688 1.21875 -0.890625 C 0.9375 -1.234375 0.738281 -1.601562 0.625 -2 C 0.519531 -2.40625 0.46875 -2.992188 0.46875 -3.765625 L 0.46875 -6.796875 C 0.46875 -7.703125 0.585938 -8.414062 0.828125 -8.9375 C 1.078125 -9.457031 1.476562 -9.859375 2.03125 -10.140625 C 2.59375 -10.421875 3.238281 -10.5625 3.96875 -10.5625 C 4.851562 -10.5625 5.582031 -10.390625 6.15625 -10.046875 C 6.726562 -9.710938 7.128906 -9.269531 7.359375 -8.71875 C 7.597656 -8.164062 7.71875 -7.382812 7.71875 -6.375 Z M 4.546875 -6.6875 L 4.546875 -7.453125 C 4.546875 -7.984375 4.515625 -8.328125 4.453125 -8.484375 C 4.398438 -8.640625 4.285156 -8.71875 4.109375 -8.71875 C 3.890625 -8.71875 3.753906 -8.648438 3.703125 -8.515625 C 3.648438 -8.390625 3.625 -8.035156 3.625 -7.453125 L 3.625 -6.6875 Z M 4.546875 -6.6875 "/>
</symbol>
<symbol overflow="visible" id="glyph0-3">
<path style="stroke:none;" d="M 7.015625 -7.0625 L 4.21875 -7.0625 L 4.21875 -7.625 C 4.21875 -8.101562 4.1875 -8.40625 4.125 -8.53125 C 4.070312 -8.65625 3.9375 -8.71875 3.71875 -8.71875 C 3.539062 -8.71875 3.40625 -8.660156 3.3125 -8.546875 C 3.226562 -8.429688 3.1875 -8.253906 3.1875 -8.015625 C 3.1875 -7.703125 3.207031 -7.46875 3.25 -7.3125 C 3.300781 -7.164062 3.4375 -7.003906 3.65625 -6.828125 C 3.875 -6.648438 4.328125 -6.394531 5.015625 -6.0625 C 5.929688 -5.613281 6.535156 -5.191406 6.828125 -4.796875 C 7.109375 -4.398438 7.25 -3.820312 7.25 -3.0625 C 7.25 -2.21875 7.140625 -1.582031 6.921875 -1.15625 C 6.703125 -0.726562 6.335938 -0.394531 5.828125 -0.15625 C 5.316406 0.0703125 4.695312 0.1875 3.96875 0.1875 C 3.164062 0.1875 2.476562 0.0625 1.90625 -0.1875 C 1.34375 -0.4375 0.953125 -0.773438 0.734375 -1.203125 C 0.523438 -1.628906 0.421875 -2.273438 0.421875 -3.140625 L 0.421875 -3.640625 L 3.21875 -3.640625 L 3.21875 -2.984375 C 3.21875 -2.429688 3.25 -2.070312 3.3125 -1.90625 C 3.382812 -1.738281 3.523438 -1.65625 3.734375 -1.65625 C 3.960938 -1.65625 4.117188 -1.707031 4.203125 -1.8125 C 4.296875 -1.925781 4.34375 -2.164062 4.34375 -2.53125 C 4.34375 -3.019531 4.285156 -3.328125 4.171875 -3.453125 C 4.046875 -3.578125 3.429688 -3.945312 2.328125 -4.5625 C 1.398438 -5.082031 0.832031 -5.554688 0.625 -5.984375 C 0.425781 -6.410156 0.328125 -6.914062 0.328125 -7.5 C 0.328125 -8.320312 0.4375 -8.929688 0.65625 -9.328125 C 0.875 -9.722656 1.242188 -10.023438 1.765625 -10.234375 C 2.296875 -10.453125 2.90625 -10.5625 3.59375 -10.5625 C 4.28125 -10.5625 4.863281 -10.472656 5.34375 -10.296875 C 5.832031 -10.117188 6.203125 -9.882812 6.453125 -9.59375 C 6.710938 -9.3125 6.867188 -9.046875 6.921875 -8.796875 C 6.984375 -8.554688 7.015625 -8.175781 7.015625 -7.65625 Z M 7.015625 -7.0625 "/>
</symbol>
<symbol overflow="visible" id="glyph0-4">
<path style="stroke:none;" d="M 3.890625 -11.75 L 3.890625 -10.125 L 4.75 -10.125 L 4.75 -8.484375 L 3.890625 -8.484375 L 3.890625 -2.9375 C 3.890625 -2.25 3.925781 -1.863281 4 -1.78125 C 4.070312 -1.707031 4.363281 -1.671875 4.875 -1.671875 L 4.875 0 L 3.609375 0 C 2.890625 0 2.375 -0.03125 2.0625 -0.09375 C 1.757812 -0.15625 1.488281 -0.289062 1.25 -0.5 C 1.019531 -0.71875 0.875 -0.96875 0.8125 -1.25 C 0.757812 -1.53125 0.734375 -2.1875 0.734375 -3.21875 L 0.734375 -8.484375 L 0.046875 -8.484375 L 0.046875 -10.125 L 0.734375 -10.125 L 0.734375 -11.75 Z M 3.890625 -11.75 "/>
</symbol>
<symbol overflow="visible" id="glyph0-5">
<path style="stroke:none;" d="M 8.203125 -8 L 4.921875 -8 L 4.921875 -9.140625 C 4.921875 -9.867188 4.890625 -10.320312 4.828125 -10.5 C 4.765625 -10.6875 4.613281 -10.78125 4.375 -10.78125 C 4.175781 -10.78125 4.039062 -10.703125 3.96875 -10.546875 C 3.894531 -10.390625 3.859375 -9.988281 3.859375 -9.34375 L 3.859375 -3.265625 C 3.859375 -2.703125 3.894531 -2.328125 3.96875 -2.140625 C 4.039062 -1.960938 4.1875 -1.875 4.40625 -1.875 C 4.644531 -1.875 4.804688 -1.972656 4.890625 -2.171875 C 4.972656 -2.378906 5.015625 -2.78125 5.015625 -3.375 L 5.015625 -4.875 L 4.359375 -4.875 L 4.359375 -6.796875 L 8.203125 -6.796875 L 8.203125 0 L 6.140625 0 L 5.828125 -0.90625 C 5.609375 -0.519531 5.328125 -0.226562 4.984375 -0.03125 C 4.640625 0.164062 4.238281 0.265625 3.78125 0.265625 C 3.226562 0.265625 2.707031 0.128906 2.21875 -0.140625 C 1.738281 -0.410156 1.375 -0.742188 1.125 -1.140625 C 0.875 -1.535156 0.71875 -1.945312 0.65625 -2.375 C 0.59375 -2.8125 0.5625 -3.46875 0.5625 -4.34375 L 0.5625 -8.09375 C 0.5625 -9.300781 0.625 -10.175781 0.75 -10.71875 C 0.882812 -11.269531 1.257812 -11.773438 1.875 -12.234375 C 2.5 -12.691406 3.300781 -12.921875 4.28125 -12.921875 C 5.238281 -12.921875 6.035156 -12.722656 6.671875 -12.328125 C 7.304688 -11.929688 7.71875 -11.457031 7.90625 -10.90625 C 8.101562 -10.363281 8.203125 -9.578125 8.203125 -8.546875 Z M 8.203125 -8 "/>
</symbol>
<symbol overflow="visible" id="glyph0-6">
<path style="stroke:none;" d="M 3.78125 -10.375 L 3.71875 -9.453125 C 4 -9.828125 4.304688 -10.101562 4.640625 -10.28125 C 4.984375 -10.46875 5.359375 -10.5625 5.765625 -10.5625 C 6.253906 -10.5625 6.675781 -10.425781 7.03125 -10.15625 C 7.382812 -9.894531 7.601562 -9.59375 7.6875 -9.25 C 7.78125 -8.90625 7.828125 -8.320312 7.828125 -7.5 L 7.828125 -3.140625 C 7.828125 -2.191406 7.769531 -1.519531 7.65625 -1.125 C 7.550781 -0.726562 7.320312 -0.410156 6.96875 -0.171875 C 6.625 0.0664062 6.207031 0.1875 5.71875 0.1875 C 5.332031 0.1875 4.972656 0.0976562 4.640625 -0.078125 C 4.304688 -0.265625 4 -0.539062 3.71875 -0.90625 L 3.71875 1.484375 L 0.5625 1.484375 L 0.5625 -10.375 Z M 4.671875 -7.359375 C 4.671875 -7.992188 4.644531 -8.378906 4.59375 -8.515625 C 4.550781 -8.648438 4.425781 -8.71875 4.21875 -8.71875 C 4.007812 -8.71875 3.875 -8.640625 3.8125 -8.484375 C 3.75 -8.328125 3.71875 -7.953125 3.71875 -7.359375 L 3.71875 -3.0625 C 3.71875 -2.4375 3.75 -2.046875 3.8125 -1.890625 C 3.875 -1.734375 4.007812 -1.65625 4.21875 -1.65625 C 4.425781 -1.65625 4.550781 -1.722656 4.59375 -1.859375 C 4.644531 -2.003906 4.671875 -2.351562 4.671875 -2.90625 Z M 4.671875 -7.359375 "/>
</symbol>
<symbol overflow="visible" id="glyph0-7">
<path style="stroke:none;" d="M 7.796875 -10.375 L 7.796875 0 L 4.578125 0 L 4.640625 -0.859375 C 4.421875 -0.515625 4.148438 -0.253906 3.828125 -0.078125 C 3.503906 0.0976562 3.132812 0.1875 2.71875 0.1875 C 2.25 0.1875 1.859375 0.101562 1.546875 -0.0625 C 1.234375 -0.226562 1 -0.445312 0.84375 -0.71875 C 0.695312 -1 0.601562 -1.289062 0.5625 -1.59375 C 0.53125 -1.894531 0.515625 -2.488281 0.515625 -3.375 L 0.515625 -10.375 L 3.671875 -10.375 L 3.671875 -3.3125 C 3.671875 -2.507812 3.695312 -2.03125 3.75 -1.875 C 3.800781 -1.726562 3.9375 -1.65625 4.15625 -1.65625 C 4.382812 -1.65625 4.519531 -1.734375 4.5625 -1.890625 C 4.613281 -2.046875 4.640625 -2.546875 4.640625 -3.390625 L 4.640625 -10.375 Z M 7.796875 -10.375 "/>
</symbol>
</g>
</defs>
<g id="surface1">
<path style=" stroke:none;fill-rule:evenodd;fill:rgb(30.196078%,30.196078%,30.196078%);fill-opacity:1;" d="M 11.210938 2.847656 L 36.789062 2.847656 C 41.410156 2.847656 45.152344 6.589844 45.152344 11.210938 L 45.152344 36.789062 C 45.152344 41.410156 41.410156 45.152344 36.789062 45.152344 L 11.210938 45.152344 C 6.589844 45.152344 2.847656 41.410156 2.847656 36.789062 L 2.847656 11.210938 C 2.847656 6.589844 6.589844 2.847656 11.210938 2.847656 Z M 11.210938 2.847656 "/>
<g style="fill:rgb(100%,100%,100%);fill-opacity:1;">
  <use xlink:href="#glyph0-1" x="43.589355" y="38.293945"/>
  <use xlink:href="#glyph0-2" x="35.235352" y="38.293945"/>
  <use xlink:href="#glyph0-3" x="78.234375" y="38.293945"/>
  <use xlink:href="#glyph0-4" x="85.92627" y="38.293945"/>
</g>
<g style="fill:rgb(100%,24.705882%,25.882353%);fill-opacity:1;">
  <use xlink:href="#glyph0-5" x="7.582031" y="21.602539"/>
  <use xlink:href="#glyph0-6" x="16.59082" y="21.602539"/>
  <use xlink:href="#glyph0-7" x="25.072266" y="21.602539"/>
</g>
</g>
</svg>
