<?xml version="1.0" encoding="UTF-8"?>
<svg xmlns="http://www.w3.org/2000/svg" xmlns:xlink="http://www.w3.org/1999/xlink" width="48pt" height="48pt" viewBox="0 0 48 48" version="1.1">
<g id="surface1">
<path style=" stroke:none;fill-rule:evenodd;fill:rgb(47.45098%,87.058824%,49.019608%);fill-opacity:1;" d="M 11.210938 2.847656 L 36.789062 2.847656 C 41.410156 2.847656 45.152344 6.589844 45.152344 11.210938 L 45.152344 36.789062 C 45.152344 41.410156 41.410156 45.152344 36.789062 45.152344 L 11.210938 45.152344 C 6.589844 45.152344 2.847656 41.410156 2.847656 36.789062 L 2.847656 11.210938 C 2.847656 6.589844 6.589844 2.847656 11.210938 2.847656 Z M 11.210938 2.847656 "/>
<path style=" stroke:none;fill-rule:nonzero;fill:rgb(24.705882%,56.862745%,25.882353%);fill-opacity:1;" d="M 38.621094 24 C 38.621094 32.074219 32.074219 38.621094 24 38.621094 C 15.925781 38.621094 9.378906 32.074219 9.378906 24 C 9.378906 15.925781 15.925781 9.378906 24 9.378906 C 32.074219 9.378906 38.621094 15.925781 38.621094 24 Z M 38.621094 24 "/>
<path style=" stroke:none;fill-rule:nonzero;fill:rgb(47.45098%,87.058824%,49.019608%);fill-opacity:1;" d="M 36.535156 24 C 36.535156 30.921875 30.921875 36.535156 24 36.535156 C 17.078125 36.535156 11.464844 30.921875 11.464844 24 C 11.464844 17.078125 17.078125 11.464844 24 11.464844 C 30.921875 11.464844 36.535156 17.078125 36.535156 24 Z M 36.535156 24 "/>
<path style=" stroke:none;fill-rule:nonzero;fill:rgb(24.705882%,56.862745%,25.882353%);fill-opacity:1;" d="M 31.3125 25.359375 C 31.3125 27.660156 30.738281 29.40625 29.585938 30.589844 C 28.433594 31.765625 26.710938 32.355469 24.414062 32.355469 C 22.800781 32.355469 21.40625 32 20.234375 31.292969 C 19.066406 30.578125 18.183594 29.585938 17.585938 28.320312 C 16.988281 27.046875 16.691406 25.566406 16.691406 23.882812 C 16.691406 22.289062 17.003906 20.867188 17.632812 19.625 C 18.261719 18.378906 19.164062 17.40625 20.34375 16.707031 C 21.527344 16 22.894531 15.644531 24.449219 15.644531 C 26.160156 15.644531 27.5625 16.082031 28.65625 16.953125 C 29.753906 17.824219 30.644531 19.390625 31.070312 20.867188 L 28.179688 20.867188 C 27.902344 20.179688 27.308594 19.222656 26.660156 18.773438 C 26.007812 18.328125 25.257812 18.105469 24.40625 18.105469 C 23.03125 18.105469 21.847656 18.652344 20.863281 19.746094 C 19.875 20.835938 19.382812 22.210938 19.382812 23.871094 C 19.382812 24.988281 19.578125 26.003906 19.976562 26.910156 C 20.378906 27.8125 20.960938 28.535156 21.726562 29.078125 C 22.496094 29.625 23.382812 29.894531 24.382812 29.894531 C 25.167969 29.894531 25.863281 29.800781 26.46875 29.605469 C 27.082031 29.402344 27.582031 29.082031 27.972656 28.644531 C 28.367188 28.195312 28.574219 27.765625 28.597656 27.132812 L 25.042969 27.132812 L 25.042969 25.042969 L 31.3125 25.042969 "/>
</g>
</svg>
