<?xml version="1.0" encoding="UTF-8"?>
<svg xmlns="http://www.w3.org/2000/svg" xmlns:xlink="http://www.w3.org/1999/xlink" width="48pt" height="48pt" viewBox="0 0 48 48" version="1.1">
<g id="surface1">
<path style=" stroke:none;fill-rule:evenodd;fill:rgb(100%,74.117647%,0%);fill-opacity:1;" d="M 11.210938 2.847656 L 36.789062 2.847656 C 41.410156 2.847656 45.152344 6.589844 45.152344 11.210938 L 45.152344 36.789062 C 45.152344 41.410156 41.410156 45.152344 36.789062 45.152344 L 11.210938 45.152344 C 6.589844 45.152344 2.847656 41.410156 2.847656 36.789062 L 2.847656 11.210938 C 2.847656 6.589844 6.589844 2.847656 11.210938 2.847656 Z M 11.210938 2.847656 "/>
<path style=" stroke:none;fill-rule:nonzero;fill:rgb(20%,20%,20%);fill-opacity:1;" d="M 39.136719 24 C 39.136719 32.359375 32.359375 39.136719 24 39.136719 C 15.640625 39.136719 8.863281 32.359375 8.863281 24 C 8.863281 15.640625 15.640625 8.863281 24 8.863281 C 32.359375 8.863281 39.136719 15.640625 39.136719 24 Z M 39.136719 24 "/>
<path style=" stroke:none;fill-rule:nonzero;fill:rgb(100%,100%,100%);fill-opacity:1;" d="M 37.628906 24 C 37.628906 31.527344 31.527344 37.628906 24 37.628906 C 16.472656 37.628906 10.371094 31.527344 10.371094 24 C 10.371094 16.472656 16.472656 10.371094 24 10.371094 C 31.527344 10.371094 37.628906 16.472656 37.628906 24 Z M 37.628906 24 "/>
<path style=" stroke:none;fill-rule:nonzero;fill:rgb(100%,42.745098%,0%);fill-opacity:1;" d="M 18.097656 13.867188 L 18.792969 16.789062 L 21.25 16.742188 L 22.550781 18.644531 L 16.9375 34.132812 L 21.898438 32.601562 L 25.097656 22.726562 L 30.246094 30.746094 L 34.1875 27.453125 L 32.472656 24.949219 L 31.082031 26.0625 L 23.105469 13.914062 Z M 18.097656 13.867188 "/>
</g>
</svg>
