<?xml version="1.0" encoding="UTF-8"?>
<svg xmlns="http://www.w3.org/2000/svg" xmlns:xlink="http://www.w3.org/1999/xlink" width="48pt" height="48pt" viewBox="0 0 48 48" version="1.1">
<g id="surface1">
<path style=" stroke:none;fill-rule:evenodd;fill:rgb(14.117647%,54.117647%,99.215686%);fill-opacity:1;" d="M 11.210938 2.847656 L 36.789062 2.847656 C 41.410156 2.847656 45.152344 6.589844 45.152344 11.210938 L 45.152344 36.789062 C 45.152344 41.410156 41.410156 45.152344 36.789062 45.152344 L 11.210938 45.152344 C 6.589844 45.152344 2.847656 41.410156 2.847656 36.789062 L 2.847656 11.210938 C 2.847656 6.589844 6.589844 2.847656 11.210938 2.847656 Z M 11.210938 2.847656 "/>
<path style=" stroke:none;fill-rule:nonzero;fill:rgb(100%,100%,100%);fill-opacity:1;" d="M 23.996094 16.390625 L 13.414062 25.707031 L 13.410156 25.710938 C 13.203125 25.917969 13.070312 26.203125 13.070312 26.519531 L 13.070312 36.078125 C 13.070312 36.707031 13.578125 37.210938 14.207031 37.210938 L 17.035156 37.210938 L 17.035156 26.765625 C 17.230469 26.761719 17.910156 26.761719 18.238281 26.777344 L 22.828125 26.777344 C 23.160156 26.777344 23.460938 26.910156 23.679688 27.125 C 23.894531 27.34375 24.03125 27.644531 24.03125 27.976562 L 24.03125 37.210938 L 33.792969 37.210938 C 34.421875 37.210938 34.925781 36.707031 34.925781 36.078125 L 34.925781 26.519531 C 34.925781 26.175781 34.769531 25.878906 34.53125 25.671875 L 34.550781 25.671875 Z M 27.050781 26.761719 L 29.808594 26.761719 C 30.4375 26.761719 30.941406 27.269531 30.941406 27.898438 L 30.941406 30.65625 C 30.941406 31.285156 30.4375 31.789062 29.808594 31.789062 L 27.050781 31.789062 C 26.421875 31.789062 25.914062 31.285156 25.914062 30.65625 L 25.914062 27.898438 C 25.914062 27.269531 26.421875 26.761719 27.050781 26.761719 Z M 27.050781 26.761719 "/>
<path style=" stroke:none;fill-rule:nonzero;fill:rgb(100%,100%,100%);fill-opacity:1;" d="M 23.964844 10.78125 C 23.941406 10.785156 23.921875 10.796875 23.898438 10.800781 C 23.839844 10.808594 23.785156 10.820312 23.734375 10.84375 C 23.71875 10.847656 23.707031 10.855469 23.695312 10.863281 C 23.648438 10.890625 23.59375 10.910156 23.550781 10.945312 L 9.28125 23.496094 C 9.007812 23.738281 8.980469 24.15625 9.222656 24.433594 L 10.246094 25.601562 C 10.492188 25.875 10.910156 25.902344 11.1875 25.660156 L 24 14.394531 L 36.8125 25.660156 C 37.089844 25.902344 37.507812 25.875 37.75 25.601562 L 38.777344 24.433594 C 39.019531 24.15625 38.992188 23.738281 38.71875 23.496094 L 33.390625 18.8125 L 33.390625 15.261719 C 33.390625 14.632812 32.886719 14.128906 32.257812 14.128906 L 31.507812 14.128906 C 30.878906 14.128906 30.375 14.632812 30.375 15.261719 L 30.375 16.160156 L 24.445312 10.945312 C 24.402344 10.910156 24.355469 10.890625 24.308594 10.867188 C 24.292969 10.859375 24.28125 10.851562 24.265625 10.84375 C 24.210938 10.820312 24.160156 10.808594 24.101562 10.800781 C 24.066406 10.792969 24.035156 10.789062 24 10.785156 C 23.988281 10.789062 23.976562 10.78125 23.964844 10.78125 Z M 23.964844 10.78125 "/>
<path style=" stroke:none;fill-rule:nonzero;fill:rgb(100%,100%,100%);fill-opacity:0.619608;" d="M 17.035156 26.765625 L 21.722656 28.316406 L 21.722656 35.839844 L 17.035156 37.21875 Z M 17.035156 26.765625 "/>
<path style=" stroke:none;fill-rule:nonzero;fill:rgb(100%,100%,100%);fill-opacity:1;" d="M 21.074219 32.417969 C 21.074219 32.660156 20.875 32.859375 20.628906 32.859375 C 20.386719 32.859375 20.1875 32.660156 20.1875 32.417969 C 20.1875 32.171875 20.386719 31.972656 20.628906 31.972656 C 20.875 31.972656 21.074219 32.171875 21.074219 32.417969 Z M 21.074219 32.417969 "/>
</g>
</svg>
