<?xml version="1.0" encoding="UTF-8"?>
<svg xmlns="http://www.w3.org/2000/svg" xmlns:xlink="http://www.w3.org/1999/xlink" width="48pt" height="48pt" viewBox="0 0 48 48" version="1.1">
<g id="surface1">
<path style=" stroke:none;fill-rule:evenodd;fill:rgb(80%,94.117647%,74.509804%);fill-opacity:1;" d="M 11.210938 2.847656 L 36.789062 2.847656 C 41.410156 2.847656 45.152344 6.589844 45.152344 11.210938 L 45.152344 36.789062 C 45.152344 41.410156 41.410156 45.152344 36.789062 45.152344 L 11.210938 45.152344 C 6.589844 45.152344 2.847656 41.410156 2.847656 36.789062 L 2.847656 11.210938 C 2.847656 6.589844 6.589844 2.847656 11.210938 2.847656 Z M 11.210938 2.847656 "/>
<path style=" stroke:none;fill-rule:nonzero;fill:rgb(29.411765%,68.235294%,30.980392%);fill-opacity:1;" d="M 18.742188 8.816406 C 17.773438 8.816406 16.992188 9.597656 16.992188 10.566406 L 16.992188 26.921875 C 16.992188 27.890625 17.773438 28.671875 18.742188 28.671875 L 35.097656 28.671875 C 36.066406 28.671875 36.847656 27.890625 36.847656 26.921875 L 36.847656 12.320312 L 40.355469 8.816406 Z M 18.742188 8.816406 "/>
<path style=" stroke:none;fill-rule:nonzero;fill:rgb(54.117647%,76.078431%,28.627451%);fill-opacity:1;" d="M 7.644531 19.328125 L 11.152344 22.832031 L 11.152344 37.433594 C 11.152344 38.402344 11.933594 39.183594 12.902344 39.183594 L 29.257812 39.183594 C 30.226562 39.183594 31.007812 38.402344 31.007812 37.433594 L 31.007812 21.078125 C 31.007812 20.109375 30.226562 19.328125 29.257812 19.328125 Z M 7.644531 19.328125 "/>
<path style=" stroke:none;fill-rule:evenodd;fill:rgb(100%,100%,100%);fill-opacity:1;" d="M 19.546875 23.519531 L 18.914062 26.90625 L 15.40625 26.90625 L 15.40625 28.035156 L 18.707031 28.035156 L 18.070312 31.421875 L 15.402344 31.421875 L 15.402344 32.550781 L 17.863281 32.550781 L 17.230469 35.9375 L 18.421875 35.9375 L 19.054688 32.550781 L 22.039062 32.550781 L 21.40625 35.9375 L 22.601562 35.9375 L 23.234375 32.550781 L 27.339844 32.550781 L 27.339844 31.421875 L 23.441406 31.421875 L 24.078125 28.035156 L 27.339844 28.035156 L 27.339844 26.90625 L 24.285156 26.90625 L 24.917969 23.519531 L 23.726562 23.519531 L 23.09375 26.90625 L 20.109375 26.90625 L 20.742188 23.519531 Z M 19.898438 28.035156 L 22.882812 28.035156 L 22.25 31.421875 L 19.265625 31.421875 Z M 19.898438 28.035156 "/>
</g>
</svg>
