<?xml version="1.0" encoding="UTF-8"?>
<svg xmlns="http://www.w3.org/2000/svg" xmlns:xlink="http://www.w3.org/1999/xlink" width="48pt" height="48pt" viewBox="0 0 48 48" version="1.1">
<g id="surface1">
<path style=" stroke:none;fill-rule:evenodd;fill:rgb(33.333333%,39.215686%,56.078431%);fill-opacity:1;" d="M 11.210938 2.847656 L 36.789062 2.847656 C 41.410156 2.847656 45.152344 6.589844 45.152344 11.210938 L 45.152344 36.789062 C 45.152344 41.410156 41.410156 45.152344 36.789062 45.152344 L 11.210938 45.152344 C 6.589844 45.152344 2.847656 41.410156 2.847656 36.789062 L 2.847656 11.210938 C 2.847656 6.589844 6.589844 2.847656 11.210938 2.847656 Z M 11.210938 2.847656 "/>
<path style=" stroke:none;fill-rule:evenodd;fill:rgb(100%,100%,100%);fill-opacity:1;" d="M 10.839844 10.5 C 16.671875 17.144531 17.441406 24 17.136719 28.5 C 16.867188 32.445312 14.4375 33.921875 13.972656 34.105469 C 13.007812 34.496094 10.738281 35.074219 7.5 33 C 7.5 35.421875 9.582031 37.5 13.203125 37.5 C 16.828125 37.5 19.792969 34.589844 20.394531 31.316406 C 22.484375 14.402344 18.507812 12.027344 18.507812 12.027344 C 18.507812 12.027344 14.867188 10.5 10.839844 10.5 Z M 22.5 10.5 C 23.558594 14.988281 31.5 16.753906 31.5 18.886719 C 31.5 21.023438 25.414062 21.390625 25.5 24.847656 C 25.589844 29.628906 33.265625 35.953125 40.5 37.5 C 37.324219 33.820312 29.292969 25.804688 31.941406 23.742188 C 41.472656 17.269531 32.734375 11.972656 22.5 10.5 Z M 22.5 10.5 "/>
</g>
</svg>
