<?xml version="1.0" encoding="UTF-8"?>
<svg xmlns="http://www.w3.org/2000/svg" xmlns:xlink="http://www.w3.org/1999/xlink" width="48pt" height="48pt" viewBox="0 0 48 48" version="1.1">
<g id="surface1">
<path style=" stroke:none;fill-rule:evenodd;fill:rgb(56.862745%,23.137255%,23.137255%);fill-opacity:1;" d="M 11.210938 2.847656 L 36.789062 2.847656 C 41.410156 2.847656 45.152344 6.589844 45.152344 11.210938 L 45.152344 36.789062 C 45.152344 41.410156 41.410156 45.152344 36.789062 45.152344 L 11.210938 45.152344 C 6.589844 45.152344 2.847656 41.410156 2.847656 36.789062 L 2.847656 11.210938 C 2.847656 6.589844 6.589844 2.847656 11.210938 2.847656 Z M 11.210938 2.847656 "/>
<path style=" stroke:none;fill-rule:nonzero;fill:rgb(99.607843%,75.294118%,2.352941%);fill-opacity:1;" d="M 24 7.230469 L 19.085938 12.140625 L 12.140625 12.140625 L 12.140625 19.085938 L 7.230469 24 L 12.140625 28.910156 L 12.140625 35.859375 L 19.085938 35.859375 L 24 40.769531 L 28.910156 35.859375 L 35.859375 35.859375 L 35.859375 28.914062 L 40.769531 24 L 35.859375 19.089844 L 35.859375 12.140625 L 28.914062 12.140625 Z M 24 7.230469 "/>
<path style=" stroke:none;fill-rule:nonzero;fill:rgb(99.607843%,80.392157%,21.960784%);fill-opacity:1;" d="M 17.582031 8.503906 L 14.921875 14.921875 L 8.503906 17.582031 L 11.160156 24 L 8.503906 30.417969 L 14.921875 33.078125 L 17.582031 39.496094 L 24 36.835938 L 30.417969 39.496094 L 33.074219 33.078125 L 39.492188 30.417969 L 36.835938 24 L 39.492188 17.582031 L 33.074219 14.921875 L 30.414062 8.503906 L 23.996094 11.160156 Z M 17.582031 8.503906 "/>
<path style=" stroke:none;fill-rule:nonzero;fill:rgb(99.607843%,85.098039%,41.568627%);fill-opacity:1;" d="M 36.898438 24 C 36.898438 16.875 31.125 11.097656 24 11.097656 C 16.875 11.097656 11.097656 16.875 11.097656 24 C 11.097656 31.125 16.875 36.898438 24 36.898438 C 31.125 36.898438 36.898438 31.125 36.898438 24 Z M 36.898438 24 "/>
<path style=" stroke:none;fill-rule:nonzero;fill:rgb(24.705882%,24.705882%,24.705882%);fill-opacity:1;" d="M 20.128906 20.128906 C 20.128906 21.554688 18.972656 22.710938 17.550781 22.710938 C 16.125 22.710938 14.96875 21.554688 14.96875 20.128906 C 14.96875 18.703125 16.125 17.550781 17.550781 17.550781 C 18.972656 17.550781 20.128906 18.703125 20.128906 20.128906 Z M 20.128906 20.128906 "/>
<path style=" stroke:none;fill-rule:nonzero;fill:rgb(24.705882%,24.705882%,24.705882%);fill-opacity:1;" d="M 33.03125 20.128906 C 33.03125 21.554688 31.875 22.710938 30.449219 22.710938 C 29.023438 22.710938 27.871094 21.554688 27.871094 20.128906 C 27.871094 18.703125 29.023438 17.550781 30.449219 17.550781 C 31.875 17.550781 33.03125 18.703125 33.03125 20.128906 Z M 33.03125 20.128906 "/>
<path style=" stroke:none;fill-rule:nonzero;fill:rgb(56.862745%,23.137255%,23.137255%);fill-opacity:1;" d="M 17.128906 27.871094 C 18.546875 30.816406 21.164062 33.027344 24 33.03125 C 26.832031 33.023438 29.449219 30.8125 30.867188 27.871094 L 24 27.871094 C 21.417969 27.871094 17.128906 27.871094 17.128906 27.871094 Z M 17.128906 27.871094 "/>
</g>
</svg>
