<?xml version="1.0" encoding="UTF-8"?>
<svg xmlns="http://www.w3.org/2000/svg" xmlns:xlink="http://www.w3.org/1999/xlink" width="48pt" height="48pt" viewBox="0 0 48 48" version="1.1">
<g id="surface1">
<path style=" stroke:none;fill-rule:evenodd;fill:rgb(90.196078%,90.196078%,90.196078%);fill-opacity:1;" d="M 11.210938 2.847656 L 36.789062 2.847656 C 41.410156 2.847656 45.152344 6.589844 45.152344 11.210938 L 45.152344 36.789062 C 45.152344 41.410156 41.410156 45.152344 36.789062 45.152344 L 11.210938 45.152344 C 6.589844 45.152344 2.847656 41.410156 2.847656 36.789062 L 2.847656 11.210938 C 2.847656 6.589844 6.589844 2.847656 11.210938 2.847656 Z M 11.210938 2.847656 "/>
<path style=" stroke:none;fill-rule:nonzero;fill:rgb(51.764706%,0%,100%);fill-opacity:1;" d="M 12.902344 28.222656 C 12.335938 28.101562 11.828125 27.835938 11.421875 27.445312 C 11.015625 27.054688 10.738281 26.570312 10.617188 26.054688 L 10.554688 25.765625 L 10.5625 18.886719 L 10.570312 12.011719 L 10.675781 11.710938 C 10.867188 11.160156 11.171875 10.726562 11.601562 10.378906 C 12.09375 9.984375 12.644531 9.769531 13.304688 9.710938 C 13.546875 9.6875 15.464844 9.679688 19.042969 9.6875 C 24.886719 9.703125 24.503906 9.691406 25.015625 9.867188 C 25.960938 10.195312 26.660156 10.945312 26.914062 11.90625 C 26.984375 12.164062 26.984375 12.1875 26.992188 15.222656 L 27.003906 18.277344 L 24 18.277344 L 24 12.558594 L 13.527344 12.558594 L 13.527344 25.4375 L 19.496094 25.4375 L 19.496094 28.285156 L 16.332031 28.28125 C 13.402344 28.277344 13.148438 28.273438 12.902344 28.222656 Z M 12.902344 28.222656 "/>
<path style=" stroke:none;fill-rule:nonzero;fill:rgb(0%,70.588235%,44.313725%);fill-opacity:1;" d="M 23.695312 38.285156 C 22.433594 38.164062 21.390625 37.285156 21.085938 36.078125 L 21.015625 35.800781 L 21.015625 29.003906 C 21.015625 22.652344 21.019531 22.1875 21.070312 21.992188 C 21.214844 21.421875 21.460938 20.980469 21.84375 20.597656 C 22.214844 20.226562 22.605469 19.996094 23.179688 19.820312 L 23.453125 19.730469 L 29.121094 19.722656 C 34.582031 19.714844 34.796875 19.71875 35.074219 19.773438 C 35.710938 19.90625 36.246094 20.203125 36.679688 20.664062 C 36.953125 20.953125 37.082031 21.152344 37.242188 21.519531 C 37.457031 22.023438 37.445312 21.519531 37.445312 29.015625 C 37.445312 34.824219 37.4375 35.8125 37.398438 36 C 37.132812 37.257812 36.066406 38.167969 34.710938 38.289062 C 34.292969 38.324219 24.078125 38.324219 23.695312 38.285156 Z M 34.472656 29.003906 L 34.472656 22.5625 L 24 22.5625 L 24 35.441406 L 34.472656 35.441406 Z M 34.472656 29.003906 "/>
<path style=" stroke:none;fill-rule:nonzero;fill:rgb(0%,70.588235%,44.313725%);fill-opacity:1;" d="M 14.511719 36.972656 C 13.167969 35.683594 12.0625 34.632812 12.050781 34.632812 C 12.035156 34.628906 12.027344 35.460938 12.027344 36.476562 L 12.027344 38.320312 L 9.054688 38.320312 L 9.054688 29.722656 L 18.027344 29.722656 L 18.011719 32.582031 L 16.097656 32.597656 L 14.179688 32.613281 L 16.613281 34.941406 C 17.949219 36.21875 19.046875 37.277344 19.054688 37.289062 C 19.0625 37.308594 17.15625 39.152344 17.015625 39.261719 C 16.953125 39.308594 16.867188 39.230469 14.511719 36.972656 Z M 14.511719 36.972656 "/>
<path style=" stroke:none;fill-rule:nonzero;fill:rgb(51.764706%,0%,100%);fill-opacity:1;" d="M 33.488281 11.027344 C 34.832031 12.316406 35.9375 13.367188 35.949219 13.367188 C 35.964844 13.371094 35.972656 12.539062 35.972656 11.523438 L 35.972656 9.679688 L 38.945312 9.679688 L 38.945312 18.277344 L 29.972656 18.277344 L 29.988281 15.417969 L 31.902344 15.402344 L 33.820312 15.386719 L 31.386719 13.058594 C 30.050781 11.78125 28.953125 10.722656 28.945312 10.710938 C 28.9375 10.691406 30.84375 8.847656 30.984375 8.738281 C 31.046875 8.691406 31.132812 8.769531 33.488281 11.027344 Z M 33.488281 11.027344 "/>
</g>
</svg>
