<?xml version="1.0" encoding="UTF-8"?>
<svg xmlns="http://www.w3.org/2000/svg" xmlns:xlink="http://www.w3.org/1999/xlink" width="48pt" height="48pt" viewBox="0 0 48 48" version="1.1">
<g id="surface1">
<path style=" stroke:none;fill-rule:evenodd;fill:rgb(46.666667%,40.392157%,75.294118%);fill-opacity:1;" d="M 11.210938 2.847656 L 36.789062 2.847656 C 41.410156 2.847656 45.152344 6.589844 45.152344 11.210938 L 45.152344 36.789062 C 45.152344 41.410156 41.410156 45.152344 36.789062 45.152344 L 11.210938 45.152344 C 6.589844 45.152344 2.847656 41.410156 2.847656 36.789062 L 2.847656 11.210938 C 2.847656 6.589844 6.589844 2.847656 11.210938 2.847656 Z M 11.210938 2.847656 "/>
<path style=" stroke:none;fill-rule:nonzero;fill:rgb(49.803922%,100%,100%);fill-opacity:1;" d="M 13.5 9 L 13.5 39 L 18 39 L 18 21.621094 L 26.125 13.5 L 28.5 13.5 L 28.5 21.265625 C 26.703125 21.898438 25.503906 23.59375 25.5 25.5 C 25.5 27.984375 27.515625 30 30 30 C 32.484375 30 34.5 27.984375 34.5 25.5 C 34.5 23.59375 33.296875 21.894531 31.5 21.261719 L 31.5 13.5 L 34.5 13.5 L 34.5 9 Z M 18 13.5 L 21.875 13.5 L 18 17.375 Z M 30 24 C 30.828125 24 31.5 24.671875 31.5 25.5 C 31.5 26.328125 30.828125 27 30 27 C 29.171875 27 28.5 26.328125 28.5 25.5 C 28.5 24.671875 29.171875 24 30 24 Z M 30 24 "/>
</g>
</svg>
