<?xml version="1.0" encoding="UTF-8"?>
<svg xmlns="http://www.w3.org/2000/svg" xmlns:xlink="http://www.w3.org/1999/xlink" width="48pt" height="48pt" viewBox="0 0 48 48" version="1.1">
<g id="surface1">
<path style=" stroke:none;fill-rule:evenodd;fill:rgb(54.117647%,10.980392%,7.45098%);fill-opacity:1;" d="M 2.847656 16.695312 L 2.847656 36.789062 C 2.847656 41.421875 6.578125 45.152344 11.210938 45.152344 L 36.792969 45.152344 C 41.425781 45.152344 45.152344 41.421875 45.152344 36.789062 L 45.152344 11.210938 C 45.152344 10.730469 44.960938 10.316406 44.882812 9.859375 C 42.21875 9.710938 39.476562 9.546875 36.636719 8.898438 C 34.84375 8.488281 33.058594 7.953125 31.332031 7.261719 C 29.601562 6.574219 27.929688 5.726562 26.367188 4.699219 C 27.425781 6.257812 28.226562 7.820312 28.824219 9.359375 C 29.417969 10.902344 29.804688 12.421875 30.027344 13.894531 C 30.253906 15.363281 30.320312 16.792969 30.269531 18.144531 C 30.21875 19.5 30.058594 20.78125 29.832031 21.964844 C 29.371094 24.332031 28.648438 26.3125 28.039062 27.699219 C 27.433594 29.085938 26.9375 29.882812 26.9375 29.882812 C 26.9375 29.882812 25.308594 28.265625 23.480469 25.570312 C 22.566406 24.222656 21.605469 22.601562 20.773438 20.78125 C 19.941406 18.957031 19.242188 16.933594 18.847656 14.773438 C 18.226562 11.332031 18.191406 8.636719 18.457031 6.53125 C 17.8125 7.550781 16.925781 8.621094 15.707031 9.703125 C 14.492188 10.785156 12.949219 11.875 10.992188 12.921875 C 7.824219 14.617188 5.207031 15.761719 2.847656 16.695312 Z M 2.847656 16.695312 "/>
<path style=" stroke:none;fill-rule:evenodd;fill:rgb(31.372549%,70.196078%,26.666667%);fill-opacity:1;" d="M 2.847656 16.695312 C 5.207031 15.761719 7.824219 14.617188 10.992188 12.921875 C 12.949219 11.875 14.492188 10.785156 15.707031 9.703125 C 16.925781 8.621094 17.8125 7.550781 18.457031 6.53125 C 18.191406 8.636719 18.226562 11.332031 18.847656 14.773438 C 19.242188 16.933594 19.941406 18.957031 20.773438 20.78125 C 21.605469 22.601562 22.566406 24.222656 23.480469 25.570312 C 25.308594 28.265625 26.9375 29.882812 26.9375 29.882812 C 26.9375 29.882812 27.433594 29.085938 28.039062 27.699219 C 28.648438 26.3125 29.371094 24.332031 29.832031 21.964844 C 30.058594 20.78125 30.21875 19.5 30.269531 18.144531 C 30.320312 16.792969 30.253906 15.363281 30.027344 13.894531 C 29.804688 12.421875 29.417969 10.902344 28.824219 9.359375 C 28.226562 7.820312 27.425781 6.257812 26.367188 4.699219 C 27.929688 5.726562 29.601562 6.574219 31.332031 7.261719 C 33.058594 7.953125 34.84375 8.488281 36.636719 8.898438 C 39.476562 9.546875 42.21875 9.710938 44.882812 9.859375 C 44.21875 5.898438 40.945312 2.847656 36.792969 2.847656 L 11.210938 2.847656 C 6.578125 2.847656 2.847656 6.574219 2.847656 11.210938 Z M 2.847656 16.695312 "/>
</g>
</svg>
