<?xml version="1.0" encoding="UTF-8"?>
<svg xmlns="http://www.w3.org/2000/svg" xmlns:xlink="http://www.w3.org/1999/xlink" width="48pt" height="48pt" viewBox="0 0 48 48" version="1.1">
<defs>
<clipPath id="clip1">
  <rect width="48" height="48"/>
</clipPath>
<g id="surface6" clip-path="url(#clip1)">
<path style=" stroke:none;fill-rule:nonzero;fill:rgb(100%,100%,100%);fill-opacity:1;" d="M 20.488281 7.769531 C 20.242188 7.988281 20.179688 8.3125 20.179688 8.691406 C 20.179688 9.398438 20.425781 10.265625 20.550781 10.59375 C 20.550781 10.59375 20.734375 14.390625 20.796875 14.828125 C 20.242188 14.878906 19.257812 14.933594 18.886719 15.042969 L 18.394531 15.042969 C 17.351562 15.097656 16.367188 15.152344 15.933594 15.53125 L 15.75 15.695312 L 15.933594 15.910156 C 16.242188 16.238281 16.367188 17.160156 16.488281 18.136719 C 16.796875 20.144531 17.164062 22.640625 19.011719 23.621094 L 19.378906 23.78125 L 19.378906 23.402344 C 19.378906 23.402344 19.441406 23.238281 19.441406 23.023438 C 19.441406 22.859375 19.378906 22.589844 19.320312 22.207031 C 19.8125 22.261719 20.859375 22.371094 21.226562 22.371094 C 21.289062 22.804688 22.886719 40.5 22.886719 40.5 L 23.503906 40.5 C 23.503906 40.5 24.179688 23.023438 24.179688 22.480469 C 24.609375 22.480469 26.519531 22.535156 27.074219 22.589844 C 26.949219 22.914062 26.457031 24.273438 26.457031 24.273438 L 27.320312 23.566406 C 27.566406 23.402344 32.917969 19.117188 32.179688 16.292969 C 31.933594 15.371094 31.074219 14.71875 29.65625 14.394531 L 29.535156 14.394531 C 28.734375 14.394531 26.273438 14.449219 24.425781 14.554688 C 24.488281 13.144531 24.488281 12.386719 24.488281 12.003906 L 24.488281 11.515625 C 24.488281 11.246094 24.796875 10.867188 25.042969 10.59375 C 25.289062 10.269531 25.59375 9.996094 25.59375 9.671875 C 25.59375 9.5625 25.535156 9.453125 25.472656 9.34375 C 25.101562 8.855469 22.394531 7.609375 21.226562 7.5 C 20.859375 7.554688 20.613281 7.609375 20.488281 7.769531 Z M 20.550781 16.671875 L 20.859375 16.671875 C 20.859375 17.160156 21.042969 20.578125 21.105469 21.066406 C 20.613281 21.015625 19.441406 20.90625 19.074219 20.90625 C 18.886719 20.199219 18.828125 19.441406 18.765625 18.679688 C 18.703125 18.027344 18.640625 17.378906 18.519531 16.78125 C 19.074219 16.78125 20.550781 16.671875 20.550781 16.671875 Z M 24.304688 18.355469 C 24.304688 18.355469 24.363281 17.050781 24.363281 16.617188 C 25.164062 16.726562 26.210938 16.78125 27.195312 16.78125 L 28.304688 16.78125 C 28.304688 16.996094 28.242188 17.269531 28.242188 17.269531 C 28.117188 18.464844 27.933594 19.875 27.378906 21.285156 C 27.011719 21.285156 24.734375 21.175781 24.242188 21.121094 C 24.242188 20.742188 24.304688 18.355469 24.304688 18.355469 Z M 24.304688 18.355469 "/>
</g>
</defs>
<g id="surface1">
<path style=" stroke:none;fill-rule:evenodd;fill:rgb(76.078431%,20.784314%,16.470588%);fill-opacity:1;" d="M 11.210938 2.847656 L 36.789062 2.847656 C 41.410156 2.847656 45.152344 6.589844 45.152344 11.210938 L 45.152344 36.789062 C 45.152344 41.410156 41.410156 45.152344 36.789062 45.152344 L 11.210938 45.152344 C 6.589844 45.152344 2.847656 41.410156 2.847656 36.789062 L 2.847656 11.210938 C 2.847656 6.589844 6.589844 2.847656 11.210938 2.847656 Z M 11.210938 2.847656 "/>
<use xlink:href="#surface6"/>
</g>
</svg>
