<?xml version="1.0" encoding="UTF-8"?>
<svg xmlns="http://www.w3.org/2000/svg" xmlns:xlink="http://www.w3.org/1999/xlink" width="48pt" height="48pt" viewBox="0 0 48 48" version="1.1">
<g id="surface1">
<path style=" stroke:none;fill-rule:evenodd;fill:rgb(80%,80%,80%);fill-opacity:1;" d="M 11.210938 2.847656 L 36.789062 2.847656 C 41.410156 2.847656 45.152344 6.589844 45.152344 11.210938 L 45.152344 36.789062 C 45.152344 41.410156 41.410156 45.152344 36.789062 45.152344 L 11.210938 45.152344 C 6.589844 45.152344 2.847656 41.410156 2.847656 36.789062 L 2.847656 11.210938 C 2.847656 6.589844 6.589844 2.847656 11.210938 2.847656 Z M 11.210938 2.847656 "/>
<path style=" stroke:none;fill-rule:nonzero;fill:rgb(97.647059%,97.647059%,97.647059%);fill-opacity:1;" d="M 24 8.09375 C 15.1875 8.09375 8.09375 15.1875 8.09375 24 C 8.09375 32.8125 15.1875 39.90625 24 39.90625 C 32.8125 39.90625 39.90625 32.8125 39.90625 24 C 39.90625 15.1875 32.8125 8.09375 24 8.09375 Z M 24 8.09375 "/>
<path style=" stroke:none;fill-rule:nonzero;fill:rgb(9.019608%,58.431373%,4.313725%);fill-opacity:1;" d="M 24 12.640625 C 17.707031 12.640625 12.640625 17.707031 12.640625 24 C 12.640625 30.292969 17.707031 35.359375 24 35.359375 C 30.292969 35.359375 35.359375 30.292969 35.359375 24 C 35.359375 17.707031 30.292969 12.640625 24 12.640625 Z M 24 12.640625 "/>
<path style=" stroke:none;fill-rule:nonzero;fill:rgb(100%,100%,13.333333%);fill-opacity:1;" d="M 24 16.046875 C 19.59375 16.046875 16.046875 19.59375 16.046875 24 C 16.046875 28.40625 19.59375 31.953125 24 31.953125 C 28.40625 31.953125 31.953125 28.40625 31.953125 24 C 31.953125 19.59375 28.40625 16.046875 24 16.046875 Z M 24 16.046875 "/>
<path style=" stroke:none;fill-rule:nonzero;fill:rgb(81.960784%,39.607843%,100%);fill-opacity:1;" d="M 24 19.457031 C 21.480469 19.457031 19.457031 21.480469 19.457031 24 C 19.457031 26.519531 21.480469 28.542969 24 28.542969 C 26.519531 28.542969 28.542969 26.519531 28.542969 24 C 28.542969 21.480469 26.519531 19.457031 24 19.457031 Z M 24 19.457031 "/>
</g>
</svg>
