<?xml version="1.0" encoding="UTF-8"?>
<svg xmlns="http://www.w3.org/2000/svg" xmlns:xlink="http://www.w3.org/1999/xlink" width="48pt" height="48pt" viewBox="0 0 48 48" version="1.1">
<defs>
<g>
<symbol overflow="visible" id="glyph0-0">
<path style="stroke:none;" d="M 0.453125 1.59375 L 0.453125 -6.34375 L 4.953125 -6.34375 L 4.953125 1.59375 Z M 0.953125 1.09375 L 4.453125 1.09375 L 4.453125 -5.84375 L 0.953125 -5.84375 Z M 0.953125 1.09375 "/>
</symbol>
<symbol overflow="visible" id="glyph0-1">
<path style="stroke:none;" d="M 4.8125 -6.34375 L 4.8125 -5.484375 C 4.476562 -5.640625 4.160156 -5.753906 3.859375 -5.828125 C 3.566406 -5.910156 3.28125 -5.953125 3 -5.953125 C 2.507812 -5.953125 2.132812 -5.859375 1.875 -5.671875 C 1.613281 -5.484375 1.484375 -5.21875 1.484375 -4.875 C 1.484375 -4.582031 1.570312 -4.363281 1.75 -4.21875 C 1.925781 -4.070312 2.253906 -3.953125 2.734375 -3.859375 L 3.28125 -3.75 C 3.9375 -3.625 4.421875 -3.398438 4.734375 -3.078125 C 5.054688 -2.765625 5.21875 -2.34375 5.21875 -1.8125 C 5.21875 -1.175781 5.003906 -0.691406 4.578125 -0.359375 C 4.148438 -0.0351562 3.523438 0.125 2.703125 0.125 C 2.390625 0.125 2.054688 0.0859375 1.703125 0.015625 C 1.359375 -0.046875 1 -0.148438 0.625 -0.296875 L 0.625 -1.203125 C 0.976562 -1.003906 1.328125 -0.851562 1.671875 -0.75 C 2.023438 -0.644531 2.367188 -0.59375 2.703125 -0.59375 C 3.203125 -0.59375 3.585938 -0.691406 3.859375 -0.890625 C 4.140625 -1.085938 4.28125 -1.375 4.28125 -1.75 C 4.28125 -2.070312 4.179688 -2.320312 3.984375 -2.5 C 3.785156 -2.675781 3.460938 -2.8125 3.015625 -2.90625 L 2.46875 -3.015625 C 1.8125 -3.148438 1.332031 -3.359375 1.03125 -3.640625 C 0.738281 -3.921875 0.59375 -4.3125 0.59375 -4.8125 C 0.59375 -5.382812 0.796875 -5.835938 1.203125 -6.171875 C 1.609375 -6.515625 2.171875 -6.6875 2.890625 -6.6875 C 3.203125 -6.6875 3.515625 -6.65625 3.828125 -6.59375 C 4.148438 -6.539062 4.476562 -6.457031 4.8125 -6.34375 Z M 4.8125 -6.34375 "/>
</symbol>
<symbol overflow="visible" id="glyph0-2">
<path style="stroke:none;" d="M 0.78125 -6.5625 L 1.671875 -6.5625 L 1.671875 -2.578125 C 1.671875 -1.867188 1.796875 -1.359375 2.046875 -1.046875 C 2.304688 -0.742188 2.722656 -0.59375 3.296875 -0.59375 C 3.867188 -0.59375 4.28125 -0.742188 4.53125 -1.046875 C 4.78125 -1.359375 4.90625 -1.867188 4.90625 -2.578125 L 4.90625 -6.5625 L 5.8125 -6.5625 L 5.8125 -2.46875 C 5.8125 -1.613281 5.597656 -0.96875 5.171875 -0.53125 C 4.742188 -0.09375 4.117188 0.125 3.296875 0.125 C 2.460938 0.125 1.832031 -0.09375 1.40625 -0.53125 C 0.988281 -0.96875 0.78125 -1.613281 0.78125 -2.46875 Z M 0.78125 -6.5625 "/>
</symbol>
<symbol overflow="visible" id="glyph0-3">
<path style="stroke:none;" d="M 1.765625 -5.828125 L 1.765625 -0.734375 L 2.84375 -0.734375 C 3.75 -0.734375 4.410156 -0.9375 4.828125 -1.34375 C 5.253906 -1.75 5.46875 -2.394531 5.46875 -3.28125 C 5.46875 -4.164062 5.253906 -4.8125 4.828125 -5.21875 C 4.410156 -5.625 3.75 -5.828125 2.84375 -5.828125 Z M 0.890625 -6.5625 L 2.703125 -6.5625 C 3.972656 -6.5625 4.90625 -6.296875 5.5 -5.765625 C 6.101562 -5.234375 6.40625 -4.40625 6.40625 -3.28125 C 6.40625 -2.15625 6.101562 -1.328125 5.5 -0.796875 C 4.90625 -0.265625 3.972656 0 2.703125 0 L 0.890625 0 Z M 0.890625 -6.5625 "/>
</symbol>
<symbol overflow="visible" id="glyph0-4">
<path style="stroke:none;" d="M 3.546875 -5.953125 C 2.898438 -5.953125 2.382812 -5.710938 2 -5.234375 C 1.625 -4.753906 1.4375 -4.101562 1.4375 -3.28125 C 1.4375 -2.445312 1.625 -1.789062 2 -1.3125 C 2.382812 -0.832031 2.898438 -0.59375 3.546875 -0.59375 C 4.191406 -0.59375 4.703125 -0.832031 5.078125 -1.3125 C 5.453125 -1.789062 5.640625 -2.445312 5.640625 -3.28125 C 5.640625 -4.101562 5.453125 -4.753906 5.078125 -5.234375 C 4.703125 -5.710938 4.191406 -5.953125 3.546875 -5.953125 Z M 3.546875 -6.6875 C 4.460938 -6.6875 5.195312 -6.375 5.75 -5.75 C 6.300781 -5.132812 6.578125 -4.3125 6.578125 -3.28125 C 6.578125 -2.238281 6.300781 -1.410156 5.75 -0.796875 C 5.195312 -0.179688 4.460938 0.125 3.546875 0.125 C 2.617188 0.125 1.878906 -0.179688 1.328125 -0.796875 C 0.773438 -1.410156 0.5 -2.238281 0.5 -3.28125 C 0.5 -4.3125 0.773438 -5.132812 1.328125 -5.75 C 1.878906 -6.375 2.617188 -6.6875 3.546875 -6.6875 Z M 3.546875 -6.6875 "/>
</symbol>
<symbol overflow="visible" id="glyph0-5">
<path style="stroke:none;" d="M 0.890625 -6.5625 L 1.765625 -6.5625 L 1.765625 -3.78125 L 4.71875 -6.5625 L 5.859375 -6.5625 L 2.609375 -3.5 L 6.09375 0 L 4.921875 0 L 1.765625 -3.15625 L 1.765625 0 L 0.890625 0 Z M 0.890625 -6.5625 "/>
</symbol>
</g>
</defs>
<g id="surface1">
<path style=" stroke:none;fill-rule:evenodd;fill:rgb(27.843137%,67.843137%,36.470588%);fill-opacity:1;" d="M 11.210938 2.847656 L 36.789062 2.847656 C 41.410156 2.847656 45.152344 6.589844 45.152344 11.210938 L 45.152344 36.789062 C 45.152344 41.410156 41.410156 45.152344 36.789062 45.152344 L 11.210938 45.152344 C 6.589844 45.152344 2.847656 41.410156 2.847656 36.789062 L 2.847656 11.210938 C 2.847656 6.589844 6.589844 2.847656 11.210938 2.847656 Z M 11.210938 2.847656 "/>
<path style=" stroke:none;fill-rule:evenodd;fill:rgb(100%,100%,100%);fill-opacity:1;" d="M 8.144531 6.703125 L 16.117188 6.703125 C 16.917969 6.703125 17.566406 7.355469 17.566406 8.15625 L 17.566406 16.125 C 17.566406 16.929688 16.917969 17.578125 16.117188 17.578125 L 8.144531 17.578125 C 7.34375 17.578125 6.695312 16.929688 6.695312 16.125 L 6.695312 8.15625 C 6.695312 7.355469 7.34375 6.703125 8.144531 6.703125 Z M 8.144531 6.703125 "/>
<path style=" stroke:none;fill-rule:evenodd;fill:rgb(100%,100%,100%);fill-opacity:1;" d="M 20.03125 6.703125 L 28.003906 6.703125 C 28.804688 6.703125 29.453125 7.355469 29.453125 8.15625 L 29.453125 16.125 C 29.453125 16.929688 28.804688 17.578125 28.003906 17.578125 L 20.03125 17.578125 C 19.230469 17.578125 18.582031 16.929688 18.582031 16.125 L 18.582031 8.15625 C 18.582031 7.355469 19.230469 6.703125 20.03125 6.703125 Z M 20.03125 6.703125 "/>
<path style=" stroke:none;fill-rule:evenodd;fill:rgb(100%,100%,100%);fill-opacity:1;" d="M 31.882812 6.703125 L 39.855469 6.703125 C 40.65625 6.703125 41.304688 7.355469 41.304688 8.15625 L 41.304688 16.125 C 41.304688 16.929688 40.65625 17.578125 39.855469 17.578125 L 31.882812 17.578125 C 31.082031 17.578125 30.433594 16.929688 30.433594 16.125 L 30.433594 8.15625 C 30.433594 7.355469 31.082031 6.703125 31.882812 6.703125 Z M 31.882812 6.703125 "/>
<path style=" stroke:none;fill-rule:evenodd;fill:rgb(100%,100%,100%);fill-opacity:1;" d="M 8.144531 18.601562 L 16.117188 18.601562 C 16.917969 18.601562 17.566406 19.25 17.566406 20.054688 L 17.566406 28.023438 C 17.566406 28.824219 16.917969 29.476562 16.117188 29.476562 L 8.144531 29.476562 C 7.34375 29.476562 6.695312 28.824219 6.695312 28.023438 L 6.695312 20.054688 C 6.695312 19.25 7.34375 18.601562 8.144531 18.601562 Z M 8.144531 18.601562 "/>
<path style=" stroke:none;fill-rule:evenodd;fill:rgb(100%,100%,100%);fill-opacity:1;" d="M 20.03125 18.601562 L 28.003906 18.601562 C 28.804688 18.601562 29.453125 19.25 29.453125 20.054688 L 29.453125 28.023438 C 29.453125 28.824219 28.804688 29.476562 28.003906 29.476562 L 20.03125 29.476562 C 19.230469 29.476562 18.582031 28.824219 18.582031 28.023438 L 18.582031 20.054688 C 18.582031 19.25 19.230469 18.601562 20.03125 18.601562 Z M 20.03125 18.601562 "/>
<path style=" stroke:none;fill-rule:evenodd;fill:rgb(100%,100%,100%);fill-opacity:1;" d="M 31.882812 18.601562 L 39.855469 18.601562 C 40.65625 18.601562 41.304688 19.25 41.304688 20.054688 L 41.304688 28.023438 C 41.304688 28.824219 40.65625 29.476562 39.855469 29.476562 L 31.882812 29.476562 C 31.082031 29.476562 30.433594 28.824219 30.433594 28.023438 L 30.433594 20.054688 C 30.433594 19.25 31.082031 18.601562 31.882812 18.601562 Z M 31.882812 18.601562 "/>
<path style=" stroke:none;fill-rule:evenodd;fill:rgb(100%,100%,100%);fill-opacity:1;" d="M 8.144531 30.421875 L 16.117188 30.421875 C 16.917969 30.421875 17.566406 31.070312 17.566406 31.875 L 17.566406 39.84375 C 17.566406 40.644531 16.917969 41.296875 16.117188 41.296875 L 8.144531 41.296875 C 7.34375 41.296875 6.695312 40.644531 6.695312 39.84375 L 6.695312 31.875 C 6.695312 31.070312 7.34375 30.421875 8.144531 30.421875 Z M 8.144531 30.421875 "/>
<path style=" stroke:none;fill-rule:evenodd;fill:rgb(100%,100%,100%);fill-opacity:1;" d="M 20.03125 30.421875 L 28.003906 30.421875 C 28.804688 30.421875 29.453125 31.070312 29.453125 31.875 L 29.453125 39.84375 C 29.453125 40.644531 28.804688 41.296875 28.003906 41.296875 L 20.03125 41.296875 C 19.230469 41.296875 18.582031 40.644531 18.582031 39.84375 L 18.582031 31.875 C 18.582031 31.070312 19.230469 30.421875 20.03125 30.421875 Z M 20.03125 30.421875 "/>
<path style=" stroke:none;fill-rule:evenodd;fill:rgb(100%,100%,100%);fill-opacity:1;" d="M 31.882812 30.421875 L 39.855469 30.421875 C 40.65625 30.421875 41.304688 31.070312 41.304688 31.875 L 41.304688 39.84375 C 41.304688 40.644531 40.65625 41.296875 39.855469 41.296875 L 31.882812 41.296875 C 31.082031 41.296875 30.433594 40.644531 30.433594 39.84375 L 30.433594 31.875 C 30.433594 31.070312 31.082031 30.421875 31.882812 30.421875 Z M 31.882812 30.421875 "/>
<g style="fill:rgb(0%,35.686275%,0%);fill-opacity:1;">
  <use xlink:href="#glyph0-1" x="9.21875" y="15.425293"/>
</g>
<g style="fill:rgb(0%,35.686275%,0%);fill-opacity:1;">
  <use xlink:href="#glyph0-2" x="20.714844" y="15.366699"/>
</g>
<g style="fill:rgb(0%,35.686275%,0%);fill-opacity:1;">
  <use xlink:href="#glyph0-3" x="20.367188" y="27.327637"/>
</g>
<g style="fill:rgb(0%,35.686275%,0%);fill-opacity:1;">
  <use xlink:href="#glyph0-4" x="32.316406" y="27.32373"/>
</g>
<g style="fill:rgb(0%,35.686275%,0%);fill-opacity:1;">
  <use xlink:href="#glyph0-5" x="8.632812" y="39.147949"/>
</g>
<g style="fill:rgb(0%,35.686275%,0%);fill-opacity:1;">
  <use xlink:href="#glyph0-2" x="20.714844" y="39.085449"/>
</g>
</g>
</svg>
