<?xml version="1.0" encoding="UTF-8"?>
<svg xmlns="http://www.w3.org/2000/svg" xmlns:xlink="http://www.w3.org/1999/xlink" width="48pt" height="48pt" viewBox="0 0 48 48" version="1.1">
<g id="surface1">
<path style=" stroke:none;fill-rule:evenodd;fill:rgb(46.27451%,61.960784%,86.27451%);fill-opacity:1;" d="M 11.210938 2.847656 L 36.789062 2.847656 C 41.410156 2.847656 45.152344 6.589844 45.152344 11.210938 L 45.152344 36.789062 C 45.152344 41.410156 41.410156 45.152344 36.789062 45.152344 L 11.210938 45.152344 C 6.589844 45.152344 2.847656 41.410156 2.847656 36.789062 L 2.847656 11.210938 C 2.847656 6.589844 6.589844 2.847656 11.210938 2.847656 Z M 11.210938 2.847656 "/>
<path style=" stroke:none;fill-rule:nonzero;fill:rgb(19.215686%,19.215686%,19.215686%);fill-opacity:1;" d="M 25.023438 11.25 C 24.859375 11.25 24.890625 11.878906 25.058594 12.023438 C 25.25 12.183594 25.53125 12.746094 25.613281 13.136719 L 25.679688 13.441406 L 25.152344 13.550781 C 23.902344 13.816406 23.660156 14.679688 24.46875 15.984375 C 24.75 16.441406 24.75 16.457031 24.695312 17.449219 C 24.65625 18.195312 24.675781 18.570312 24.78125 18.929688 C 24.941406 19.484375 25.394531 19.992188 25.867188 20.152344 C 26.386719 20.332031 27.804688 20.246094 28.328125 20.007812 C 28.90625 19.742188 29.65625 18.960938 29.863281 18.402344 C 30.109375 17.746094 30.015625 16.84375 29.625 16.050781 C 29.246094 15.292969 28.261719 14.257812 27.578125 13.902344 C 27.21875 13.71875 27.046875 13.558594 26.925781 13.292969 C 26.753906 12.910156 25.203125 11.25 25.023438 11.25 Z M 16.058594 14.25 C 16.039062 14.246094 16.019531 14.253906 16 14.273438 C 15.8125 14.460938 15.660156 15.449219 15.679688 16.367188 C 15.695312 17.238281 15.671875 17.417969 15.5 17.710938 C 14.925781 18.675781 14.832031 20.441406 15.296875 21.445312 C 15.707031 22.332031 16.386719 22.875 17.425781 23.132812 C 18.148438 23.3125 18.640625 23.289062 19.320312 23.039062 C 21.199219 22.351562 21.523438 21.011719 20.175781 19.503906 C 19.628906 18.890625 19.375 18.390625 19.375 17.9375 C 19.375 17.386719 19.175781 16.847656 18.835938 16.484375 C 18.527344 16.160156 18.511719 16.15625 17.925781 16.207031 C 17.597656 16.234375 17.210938 16.289062 17.066406 16.324219 C 16.828125 16.382812 16.792969 16.351562 16.621094 15.96875 C 16.515625 15.738281 16.429688 15.351562 16.429688 15.109375 C 16.425781 14.730469 16.210938 14.261719 16.058594 14.25 Z M 35.121094 15.753906 C 34.882812 15.707031 34.8125 16.253906 35 16.652344 C 35.085938 16.835938 35.144531 17.148438 35.128906 17.34375 L 35.101562 17.699219 L 34.597656 17.710938 C 34.207031 17.71875 34.015625 17.78125 33.742188 17.988281 C 33.421875 18.230469 32.933594 19.058594 32.933594 19.359375 C 32.929688 19.425781 32.632812 20.074219 32.269531 20.800781 C 31.90625 21.527344 31.578125 22.265625 31.539062 22.441406 C 31.335938 23.382812 31.90625 24.089844 33.269531 24.582031 C 33.84375 24.789062 34.445312 24.804688 35.101562 24.628906 C 36.160156 24.347656 36.84375 23.8125 37.257812 22.9375 C 37.472656 22.476562 37.503906 22.289062 37.5 21.449219 C 37.492188 20.359375 37.289062 19.675781 36.730469 18.890625 C 36.558594 18.644531 36.34375 18.167969 36.261719 17.832031 C 36.085938 17.144531 35.347656 15.796875 35.121094 15.753906 Z M 10.621094 23.253906 C 10.59375 23.246094 10.578125 23.25 10.5625 23.265625 C 10.367188 23.476562 10.664062 25.515625 10.960938 26.003906 C 11.03125 26.125 11.132812 26.53125 11.191406 26.910156 C 11.445312 28.621094 12.636719 30.21875 13.996094 30.664062 C 14.457031 30.816406 15.460938 30.761719 16.113281 30.546875 C 16.648438 30.371094 16.828125 30.25 17.234375 29.792969 C 18.074219 28.847656 18.230469 27.914062 17.664062 27.15625 C 17.515625 26.953125 17.058594 26.582031 16.652344 26.324219 C 16.242188 26.066406 15.535156 25.589844 15.074219 25.269531 C 13.730469 24.324219 13.589844 24.234375 13.222656 24.125 C 12.75 23.984375 12.273438 24.136719 11.882812 24.542969 L 11.574219 24.859375 L 11.382812 24.519531 C 11.277344 24.335938 11.191406 24.085938 11.191406 23.972656 C 11.191406 23.769531 10.789062 23.292969 10.621094 23.253906 Z M 27.753906 24.75 C 27.164062 24.753906 26.484375 24.847656 25.699219 25.035156 C 23.476562 25.574219 22.429688 26.210938 21.953125 27.3125 C 21.746094 27.789062 21.726562 27.957031 21.785156 28.867188 C 21.839844 29.796875 21.828125 29.933594 21.609375 30.394531 C 21.386719 30.867188 21.132812 31.132812 19.960938 32.117188 C 19.585938 32.429688 19.554688 32.503906 19.511719 33.078125 C 19.472656 33.613281 19.511719 33.789062 19.78125 34.363281 C 20.355469 35.585938 21.394531 36.40625 22.695312 36.660156 C 23.3125 36.78125 23.71875 36.78125 24.777344 36.664062 C 28.886719 36.203125 33.609375 34.722656 34.960938 33.46875 C 35.664062 32.8125 35.945312 32.207031 35.992188 31.25 C 36.082031 29.414062 35.257812 28.316406 33.785156 28.308594 C 32.632812 28.304688 31.472656 27.632812 30.996094 26.699219 C 30.644531 26.003906 29.929688 25.3125 29.261719 25.019531 C 28.84375 24.835938 28.34375 24.746094 27.753906 24.75 Z M 27.753906 24.75 "/>
</g>
</svg>
