<?xml version="1.0" encoding="UTF-8"?>
<svg xmlns="http://www.w3.org/2000/svg" xmlns:xlink="http://www.w3.org/1999/xlink" width="48pt" height="48pt" viewBox="0 0 48 48" version="1.1">
<defs>
<clipPath id="clip1">
  <rect width="48" height="48"/>
</clipPath>
<g id="surface6" clip-path="url(#clip1)">
<path style=" stroke:none;fill-rule:nonzero;fill:rgb(97.647059%,97.647059%,97.647059%);fill-opacity:1;" d="M 24 13.867188 C 20.066406 13.867188 16.714844 16.203125 15.273438 19.507812 C 11.609375 20.035156 8.800781 23.066406 8.800781 26.761719 C 8.800781 30.832031 12.203125 34.132812 16.398438 34.132812 L 32.550781 34.132812 C 36.222656 34.132812 39.199219 31.246094 39.199219 27.683594 C 39.199219 24.375 36.632812 21.664062 33.320312 21.292969 C 32.457031 17.070312 28.609375 13.867188 24 13.867188 Z M 24 13.867188 "/>
</g>
</defs>
<g id="surface1">
<path style=" stroke:none;fill-rule:evenodd;fill:rgb(80%,80%,80%);fill-opacity:1;" d="M 11.210938 2.847656 L 36.789062 2.847656 C 41.410156 2.847656 45.152344 6.589844 45.152344 11.210938 L 45.152344 36.789062 C 45.152344 41.410156 41.410156 45.152344 36.789062 45.152344 L 11.210938 45.152344 C 6.589844 45.152344 2.847656 41.410156 2.847656 36.789062 L 2.847656 11.210938 C 2.847656 6.589844 6.589844 2.847656 11.210938 2.847656 Z M 11.210938 2.847656 "/>
<use xlink:href="#surface6"/>
<path style=" stroke:none;fill-rule:nonzero;fill:rgb(40%,40%,40%);fill-opacity:1;" d="M 24 16.90625 C 20.082031 16.90625 16.90625 20.082031 16.90625 24 C 16.90625 27.917969 20.082031 31.09375 24 31.09375 C 27.917969 31.09375 31.09375 27.917969 31.09375 24 C 31.09375 20.082031 27.917969 16.90625 24 16.90625 Z M 24 18.933594 C 26.796875 18.933594 29.066406 21.203125 29.066406 24 C 29.066406 26.796875 26.796875 29.066406 24 29.066406 C 21.203125 29.066406 18.933594 26.796875 18.933594 24 C 18.933594 21.203125 21.203125 18.933594 24 18.933594 Z M 24 18.933594 "/>
<path style=" stroke:none;fill-rule:nonzero;fill:rgb(40%,40%,40%);fill-opacity:1;" d="M 27.039062 24 C 27.039062 25.679688 25.679688 27.039062 24 27.039062 C 22.320312 27.039062 20.960938 25.679688 20.960938 24 C 20.960938 22.320312 22.320312 20.960938 24 20.960938 C 25.679688 20.960938 27.039062 22.320312 27.039062 24 Z M 27.039062 24 "/>
</g>
</svg>
