<?xml version="1.0" encoding="UTF-8"?>
<svg xmlns="http://www.w3.org/2000/svg" xmlns:xlink="http://www.w3.org/1999/xlink" width="48pt" height="48pt" viewBox="0 0 48 48" version="1.1">
<g id="surface1">
<path style=" stroke:none;fill-rule:evenodd;fill:rgb(72.941176%,59.215686%,40%);fill-opacity:1;" d="M 11.210938 2.847656 L 36.789062 2.847656 C 41.410156 2.847656 45.152344 6.589844 45.152344 11.210938 L 45.152344 36.789062 C 45.152344 41.410156 41.410156 45.152344 36.789062 45.152344 L 11.210938 45.152344 C 6.589844 45.152344 2.847656 41.410156 2.847656 36.789062 L 2.847656 11.210938 C 2.847656 6.589844 6.589844 2.847656 11.210938 2.847656 Z M 11.210938 2.847656 "/>
<path style=" stroke:none;fill-rule:nonzero;fill:rgb(36.470588%,29.411765%,20%);fill-opacity:1;" d="M 24.882812 16.464844 L 21 30.953125 L 23.171875 31.535156 L 27.054688 17.046875 Z M 27.75 16.535156 L 27.75 19.535156 L 31.5 23.285156 L 27.75 27.035156 L 27.75 30.035156 L 35.25 23.285156 Z M 20.25 18.035156 L 12.75 24.785156 L 20.25 31.535156 L 20.25 28.535156 L 16.5 24.785156 L 20.25 21.035156 Z M 20.25 18.035156 "/>
</g>
</svg>
