<?xml version="1.0" encoding="UTF-8"?>
<svg xmlns="http://www.w3.org/2000/svg" xmlns:xlink="http://www.w3.org/1999/xlink" width="48pt" height="48pt" viewBox="0 0 48 48" version="1.1">
<g id="surface1">
<path style=" stroke:none;fill-rule:evenodd;fill:rgb(55.686275%,55.686275%,55.686275%);fill-opacity:1;" d="M 11.210938 2.847656 L 36.789062 2.847656 C 41.410156 2.847656 45.152344 6.589844 45.152344 11.210938 L 45.152344 36.789062 C 45.152344 41.410156 41.410156 45.152344 36.789062 45.152344 L 11.210938 45.152344 C 6.589844 45.152344 2.847656 41.410156 2.847656 36.789062 L 2.847656 11.210938 C 2.847656 6.589844 6.589844 2.847656 11.210938 2.847656 Z M 11.210938 2.847656 "/>
<path style=" stroke:none;fill-rule:evenodd;fill:rgb(55.686275%,55.686275%,55.686275%);fill-opacity:1;" d="M 44.511719 39.960938 C 44.914062 38.980469 45.152344 37.917969 45.152344 36.792969 L 45.152344 11.207031 C 45.152344 6.574219 41.425781 2.847656 36.792969 2.847656 L 33.347656 2.847656 C 33.550781 2.957031 33.824219 2.960938 33.980469 3.140625 C 34.328125 3.535156 34.566406 4.074219 34.726562 4.644531 Z M 44.511719 39.960938 "/>
<path style=" stroke:none;fill-rule:evenodd;fill:rgb(55.686275%,55.686275%,55.686275%);fill-opacity:1;" d="M 14.652344 2.847656 L 11.207031 2.847656 C 6.574219 2.847656 2.847656 6.574219 2.847656 11.207031 L 2.847656 36.792969 C 2.847656 37.917969 3.085938 38.980469 3.488281 39.960938 L 13.273438 4.644531 C 13.433594 4.074219 13.671875 3.535156 14.019531 3.140625 C 14.175781 2.960938 14.449219 2.957031 14.652344 2.847656 Z M 14.652344 2.847656 "/>
<path style=" stroke:none;fill-rule:evenodd;fill:rgb(23.529412%,69.803922%,83.137255%);fill-opacity:1;" d="M 19.601562 2.847656 L 14.652344 2.847656 C 14.449219 2.957031 14.175781 2.960938 14.019531 3.140625 C 13.671875 3.535156 13.433594 4.074219 13.273438 4.644531 L 3.488281 39.960938 C 4.730469 43.007812 7.703125 45.152344 11.207031 45.152344 L 36.792969 45.152344 C 40.296875 45.152344 43.269531 43.007812 44.511719 39.960938 L 34.726562 4.644531 C 34.566406 4.074219 34.328125 3.535156 33.980469 3.140625 C 33.824219 2.960938 33.550781 2.957031 33.347656 2.847656 L 28.398438 2.847656 L 24 10.175781 Z M 19.601562 2.847656 "/>
<path style=" stroke:none;fill-rule:evenodd;fill:rgb(100%,100%,100%);fill-opacity:1;" d="M 19.601562 2.847656 L 24 10.175781 L 28.398438 2.847656 Z M 19.601562 2.847656 "/>
<path style=" stroke:none;fill-rule:nonzero;fill:rgb(100%,100%,100%);fill-opacity:1;" d="M 30.144531 36.289062 C 30.144531 39.679688 27.390625 42.429688 24 42.429688 C 20.605469 42.429688 17.855469 39.679688 17.855469 36.289062 C 17.855469 32.894531 20.605469 30.144531 24 30.144531 C 27.390625 30.144531 30.144531 32.894531 30.144531 36.289062 Z M 30.144531 36.289062 "/>
<path style=" stroke:none;fill-rule:nonzero;fill:rgb(99.607843%,74.509804%,26.27451%);fill-opacity:1;" d="M 38.871094 10.242188 L 39.023438 10.328125 C 40.082031 10.941406 40.382812 12.410156 39.691406 13.605469 L 26.066406 37.203125 C 25.375 38.398438 23.957031 38.875 22.894531 38.261719 L 22.742188 38.175781 C 21.683594 37.5625 21.386719 36.097656 22.078125 34.898438 L 35.699219 11.304688 C 36.390625 10.105469 37.8125 9.628906 38.871094 10.242188 Z M 38.871094 10.242188 "/>
</g>
</svg>
