<?xml version="1.0" encoding="UTF-8"?>
<svg xmlns="http://www.w3.org/2000/svg" xmlns:xlink="http://www.w3.org/1999/xlink" width="48pt" height="48pt" viewBox="0 0 48 48" version="1.1">
<g id="surface1">
<path style=" stroke:none;fill-rule:evenodd;fill:rgb(0.784314%,52.54902%,30.980392%);fill-opacity:1;" d="M 11.210938 2.847656 L 36.789062 2.847656 C 41.410156 2.847656 45.152344 6.589844 45.152344 11.210938 L 45.152344 36.789062 C 45.152344 41.410156 41.410156 45.152344 36.789062 45.152344 L 11.210938 45.152344 C 6.589844 45.152344 2.847656 41.410156 2.847656 36.789062 L 2.847656 11.210938 C 2.847656 6.589844 6.589844 2.847656 11.210938 2.847656 Z M 11.210938 2.847656 "/>
<path style=" stroke:none;fill-rule:nonzero;fill:rgb(100%,100%,100%);fill-opacity:1;" d="M 23.929688 20.796875 C 23.433594 20.808594 22.972656 20.878906 22.429688 21.183594 L 10.222656 28.003906 C 9.675781 28.304688 9.109375 28.878906 9.046875 29.742188 C 8.984375 30.601562 9.621094 31.414062 10.214844 31.746094 L 22.433594 38.574219 C 23.03125 38.90625 23.574219 38.96875 24.070312 38.957031 C 24.566406 38.945312 25.027344 38.871094 25.570312 38.570312 L 37.777344 31.75 C 38.320312 31.445312 38.890625 30.875 38.953125 30.011719 C 39.015625 29.152344 38.378906 28.335938 37.785156 28.003906 L 25.566406 21.179688 C 24.972656 20.847656 24.425781 20.785156 23.929688 20.796875 Z M 23.929688 20.796875 "/>
<path style=" stroke:none;fill-rule:nonzero;fill:rgb(62.745098%,44.705882%,18.039216%);fill-opacity:1;" d="M 17.589844 22.929688 L 21.863281 22.929688 L 21.863281 28.808594 L 19.726562 30.410156 L 17.589844 28.808594 Z M 17.589844 22.929688 "/>
<path style=" stroke:none;fill-rule:nonzero;fill:rgb(45.490196%,72.941176%,18.431373%);fill-opacity:1;" d="M 19.769531 9.042969 C 19.421875 9.035156 19.078125 9.117188 18.777344 9.285156 L 13.195312 12.382812 C 12.609375 12.707031 12.246094 13.308594 12.246094 13.960938 L 12.246094 20.152344 C 12.246094 20.800781 12.609375 21.402344 13.195312 21.730469 L 18.777344 24.824219 C 19.363281 25.148438 20.085938 25.148438 20.675781 24.824219 L 26.257812 21.730469 C 26.84375 21.402344 27.207031 20.800781 27.207031 20.152344 L 27.207031 13.960938 C 27.207031 13.308594 26.84375 12.707031 26.257812 12.382812 L 20.675781 9.285156 C 20.398438 9.132812 20.089844 9.050781 19.769531 9.042969 Z M 19.769531 9.042969 "/>
</g>
</svg>
