<?xml version="1.0" encoding="UTF-8"?>
<svg xmlns="http://www.w3.org/2000/svg" xmlns:xlink="http://www.w3.org/1999/xlink" width="48pt" height="48pt" viewBox="0 0 48 48" version="1.1">
<g id="surface1">
<path style=" stroke:none;fill-rule:evenodd;fill:rgb(19.607843%,61.176471%,19.607843%);fill-opacity:1;" d="M 11.210938 2.847656 L 36.789062 2.847656 C 41.410156 2.847656 45.152344 6.589844 45.152344 11.210938 L 45.152344 36.789062 C 45.152344 41.410156 41.410156 45.152344 36.789062 45.152344 L 11.210938 45.152344 C 6.589844 45.152344 2.847656 41.410156 2.847656 36.789062 L 2.847656 11.210938 C 2.847656 6.589844 6.589844 2.847656 11.210938 2.847656 Z M 11.210938 2.847656 "/>
<path style=" stroke:none;fill-rule:nonzero;fill:rgb(14.901961%,14.901961%,14.901961%);fill-opacity:1;" d="M 32.683594 17.390625 L 27.074219 18.277344 C 26.792969 17.566406 26.539062 17.074219 26.304688 16.800781 C 26.085938 16.519531 25.714844 16.238281 25.191406 15.957031 L 25.191406 20.3125 C 28.246094 21.128906 30.285156 21.988281 31.3125 22.890625 C 32.667969 24.109375 33.347656 25.652344 33.347656 27.519531 C 33.347656 28.617188 33.101562 29.621094 32.609375 30.535156 C 32.125 31.449219 31.503906 32.214844 30.738281 32.828125 C 29.984375 33.441406 29.179688 33.886719 28.328125 34.167969 C 27.472656 34.441406 26.425781 34.601562 25.191406 34.652344 L 25.191406 37.5 L 22.988281 37.5 L 22.988281 34.652344 C 21.511719 34.519531 20.3125 34.285156 19.386719 33.941406 C 18.472656 33.589844 17.679688 33.109375 17.003906 32.496094 C 16.339844 31.882812 15.828125 31.222656 15.46875 30.519531 C 15.105469 29.804688 14.835938 29.503906 14.652344 28.5 L 20.742188 27 C 20.925781 27.996094 21.164062 28.949219 21.46875 29.390625 C 21.777344 29.832031 22.285156 30.222656 22.988281 30.566406 L 22.988281 25.242188 C 20.960938 24.679688 19.519531 24.195312 18.664062 23.78125 C 17.820312 23.371094 17.085938 22.710938 16.460938 21.804688 C 15.839844 20.890625 15.527344 19.78125 15.527344 18.476562 C 15.527344 16.6875 16.152344 15.195312 17.398438 13.996094 C 18.652344 12.792969 20.519531 12.125 22.988281 11.992188 L 22.988281 10.5 L 25.191406 10.5 L 25.191406 11.992188 C 27.441406 12.132812 29.160156 12.664062 30.347656 13.589844 C 31.542969 14.515625 32.320312 15.78125 32.683594 17.390625 Z M 22.988281 15.882812 C 22.347656 16.09375 21.898438 16.355469 21.648438 16.664062 C 21.398438 16.976562 21.269531 17.34375 21.269531 17.765625 C 21.269531 18.207031 21.398438 18.59375 21.648438 18.925781 C 21.910156 19.25 22.355469 19.519531 22.988281 19.742188 Z M 25.191406 30.714844 C 26.046875 30.523438 26.667969 30.214844 27.058594 29.78125 C 27.460938 29.339844 27.664062 28.847656 27.664062 28.304688 C 27.664062 27.832031 27.492188 27.398438 27.152344 27.007812 C 26.820312 26.605469 26.164062 26.234375 25.191406 25.890625 Z M 25.191406 30.714844 "/>
</g>
</svg>
