<?xml version="1.0" encoding="UTF-8"?>
<svg xmlns="http://www.w3.org/2000/svg" xmlns:xlink="http://www.w3.org/1999/xlink" width="48pt" height="48pt" viewBox="0 0 48 48" version="1.1">
<g id="surface1">
<path style=" stroke:none;fill-rule:evenodd;fill:rgb(92.54902%,92.54902%,92.54902%);fill-opacity:1;" d="M 11.210938 2.847656 L 36.789062 2.847656 C 41.410156 2.847656 45.152344 6.589844 45.152344 11.210938 L 45.152344 36.789062 C 45.152344 41.410156 41.410156 45.152344 36.789062 45.152344 L 11.210938 45.152344 C 6.589844 45.152344 2.847656 41.410156 2.847656 36.789062 L 2.847656 11.210938 C 2.847656 6.589844 6.589844 2.847656 11.210938 2.847656 Z M 11.210938 2.847656 "/>
<path style=" stroke:none;fill-rule:nonzero;fill:rgb(30.980392%,30.980392%,30.980392%);fill-opacity:1;" d="M 20.375 25.8125 L 27.625 25.8125 L 31.25 40.308594 L 16.75 40.308594 Z M 20.375 25.8125 "/>
<path style=" stroke:none;fill-rule:nonzero;fill:rgb(61.176471%,61.176471%,61.176471%);fill-opacity:1;" d="M 30.308594 15.84375 L 27.183594 20.578125 L 25.914062 18.382812 L 24.648438 16.183594 L 27.476562 16.015625 Z M 30.308594 15.84375 "/>
<path style=" stroke:none;fill-rule:nonzero;fill:rgb(40.784314%,40.784314%,40.784314%);fill-opacity:1;" d="M 33.023438 27.875 C 27.449219 31.089844 20.324219 29.183594 17.105469 23.609375 C 13.886719 18.035156 15.796875 10.90625 21.371094 7.691406 Z M 33.023438 27.875 "/>
<path style=" stroke:none;fill-rule:nonzero;fill:rgb(80%,80%,80%);fill-opacity:1;" d="M 31.550781 17.113281 C 30.683594 17.613281 29.574219 17.316406 29.074219 16.449219 C 28.574219 15.582031 28.871094 14.472656 29.738281 13.972656 C 30.605469 13.472656 31.714844 13.769531 32.214844 14.636719 C 32.714844 15.503906 32.417969 16.613281 31.550781 17.113281 Z M 31.550781 17.113281 "/>
<path style=" stroke:none;fill-rule:nonzero;fill:rgb(30.980392%,30.980392%,30.980392%);fill-opacity:1;" d="M 11.917969 36.683594 L 36.082031 36.683594 L 36.082031 40.308594 L 11.917969 40.308594 Z M 11.917969 36.683594 "/>
</g>
</svg>
