<?xml version="1.0" encoding="UTF-8"?>
<svg xmlns="http://www.w3.org/2000/svg" xmlns:xlink="http://www.w3.org/1999/xlink" width="48pt" height="48pt" viewBox="0 0 48 48" version="1.1">
<defs>
<clipPath id="clip1">
  <rect width="48" height="48"/>
</clipPath>
<g id="surface6" clip-path="url(#clip1)">
<path style=" stroke:none;fill-rule:nonzero;fill:rgb(99.607843%,59.215686%,0%);fill-opacity:1;" d="M 39 24 C 39 15.714844 32.285156 9 24 9 C 15.714844 9 9 15.714844 9 24 C 9 32.285156 15.714844 39 24 39 C 32.285156 39 39 32.285156 39 24 Z M 39 24 "/>
</g>
<clipPath id="clip2">
  <rect width="48" height="48"/>
</clipPath>
<g id="surface9" clip-path="url(#clip2)">
<path style=" stroke:none;fill-rule:nonzero;fill:rgb(100%,100%,100%);fill-opacity:1;" d="M 21.140625 17.65625 L 21.140625 25.5625 C 20.683594 25.296875 20.167969 25.15625 19.640625 25.15625 C 17.984375 25.15625 16.640625 26.5 16.640625 28.15625 C 16.640625 29.8125 17.984375 31.15625 19.640625 31.15625 C 21.296875 31.15625 22.640625 29.8125 22.640625 28.15625 L 22.640625 20.65625 L 28.640625 20.65625 L 28.640625 25.5625 C 28.183594 25.296875 27.667969 25.15625 27.140625 25.15625 C 25.484375 25.15625 24.140625 26.5 24.140625 28.15625 C 24.140625 29.8125 25.484375 31.15625 27.140625 31.15625 C 28.796875 31.15625 30.140625 29.8125 30.140625 28.15625 L 30.140625 17.65625 Z M 21.140625 17.65625 "/>
</g>
</defs>
<g id="surface1">
<path style=" stroke:none;fill-rule:evenodd;fill:rgb(100%,34.117647%,13.333333%);fill-opacity:1;" d="M 11.210938 2.847656 L 36.789062 2.847656 C 41.410156 2.847656 45.152344 6.589844 45.152344 11.210938 L 45.152344 36.789062 C 45.152344 41.410156 41.410156 45.152344 36.789062 45.152344 L 11.210938 45.152344 C 6.589844 45.152344 2.847656 41.410156 2.847656 36.789062 L 2.847656 11.210938 C 2.847656 6.589844 6.589844 2.847656 11.210938 2.847656 Z M 11.210938 2.847656 "/>
<use xlink:href="#surface6"/>
<use xlink:href="#surface9"/>
</g>
</svg>
