<?xml version="1.0" encoding="UTF-8"?>
<svg xmlns="http://www.w3.org/2000/svg" xmlns:xlink="http://www.w3.org/1999/xlink" width="48pt" height="48pt" viewBox="0 0 48 48" version="1.1">
<defs>
<clipPath id="clip1">
  <rect width="48" height="48"/>
</clipPath>
<g id="surface6" clip-path="url(#clip1)">
<path style=" stroke:none;fill-rule:nonzero;fill:rgb(93.72549%,22.745098%,22.745098%);fill-opacity:1;" d="M 25.855469 2.847656 L 25.855469 23.847656 L 28.855469 20.847656 L 31.855469 23.847656 L 31.855469 2.847656 Z M 25.855469 2.847656 "/>
</g>
</defs>
<g id="surface1">
<path style=" stroke:none;fill-rule:evenodd;fill:rgb(54.117647%,48.235294%,37.254902%);fill-opacity:1;" d="M 16.269531 45.152344 L 36.789062 45.152344 C 41.425781 45.152344 45.152344 41.425781 45.152344 36.792969 L 45.152344 11.210938 C 45.152344 6.578125 41.425781 2.847656 36.789062 2.847656 L 16.269531 2.847656 Z M 16.269531 45.152344 "/>
<path style=" stroke:none;fill-rule:evenodd;fill:rgb(43.137255%,38.431373%,29.803922%);fill-opacity:1;" d="M 16.269531 45.152344 L 16.269531 2.847656 L 11.207031 2.847656 C 6.574219 2.847656 2.847656 6.578125 2.847656 11.210938 L 2.847656 36.792969 C 2.847656 41.425781 6.574219 45.152344 11.207031 45.152344 Z M 16.269531 45.152344 "/>
<use xlink:href="#surface6"/>
</g>
</svg>
