<?xml version="1.0" encoding="UTF-8"?>
<svg xmlns="http://www.w3.org/2000/svg" xmlns:xlink="http://www.w3.org/1999/xlink" width="48pt" height="48pt" viewBox="0 0 48 48" version="1.1">
<g id="surface1">
<path style=" stroke:none;fill-rule:evenodd;fill:rgb(0.784314%,52.54902%,76.078431%);fill-opacity:1;" d="M 11.210938 2.847656 L 36.789062 2.847656 C 41.410156 2.847656 45.152344 6.589844 45.152344 11.210938 L 45.152344 36.789062 C 45.152344 41.410156 41.410156 45.152344 36.789062 45.152344 L 11.210938 45.152344 C 6.589844 45.152344 2.847656 41.410156 2.847656 36.789062 L 2.847656 11.210938 C 2.847656 6.589844 6.589844 2.847656 11.210938 2.847656 Z M 11.210938 2.847656 "/>
<path style=" stroke:none;fill-rule:nonzero;fill:rgb(100%,100%,100%);fill-opacity:1;" d="M 24 18 C 20.6875 18 18 20.6875 18 24 C 18 27.3125 20.6875 30 24 30 C 27.3125 30 30 27.3125 30 24 C 30 20.6875 27.3125 18 24 18 Z M 30 24 C 30 26.484375 32.015625 28.5 34.5 28.5 C 36.984375 28.5 39 26.484375 39 24 C 39 21.515625 36.984375 19.5 34.5 19.5 C 32.015625 19.5 30 21.515625 30 24 Z M 18 24 C 18 21.515625 15.984375 19.5 13.5 19.5 C 11.015625 19.5 9 21.515625 9 24 C 9 26.484375 11.015625 28.5 13.5 28.5 C 15.984375 28.5 18 26.484375 18 24 Z M 24 21 C 25.65625 21 27 22.34375 27 24 C 27 25.65625 25.65625 27 24 27 C 22.34375 27 21 25.65625 21 24 C 21 22.34375 22.34375 21 24 21 Z M 13.5 22.5 C 14.328125 22.5 15 23.171875 15 24 C 15 24.828125 14.328125 25.5 13.5 25.5 C 12.671875 25.5 12 24.828125 12 24 C 12 23.171875 12.671875 22.5 13.5 22.5 Z M 34.5 22.5 C 35.328125 22.5 36 23.171875 36 24 C 36 24.828125 35.328125 25.5 34.5 25.5 C 33.671875 25.5 33 24.828125 33 24 C 33 23.171875 33.671875 22.5 34.5 22.5 Z M 34.5 22.5 "/>
</g>
</svg>
