<?xml version="1.0" encoding="UTF-8"?>
<svg xmlns="http://www.w3.org/2000/svg" xmlns:xlink="http://www.w3.org/1999/xlink" width="48pt" height="48pt" viewBox="0 0 48 48" version="1.1">
<g id="surface1">
<path style=" stroke:none;fill-rule:evenodd;fill:rgb(29.803922%,63.921569%,25.490196%);fill-opacity:1;" d="M 11.210938 2.847656 L 36.789062 2.847656 C 41.410156 2.847656 45.152344 6.589844 45.152344 11.210938 L 45.152344 36.789062 C 45.152344 41.410156 41.410156 45.152344 36.789062 45.152344 L 11.210938 45.152344 C 6.589844 45.152344 2.847656 41.410156 2.847656 36.789062 L 2.847656 11.210938 C 2.847656 6.589844 6.589844 2.847656 11.210938 2.847656 Z M 11.210938 2.847656 "/>
<path style=" stroke:none;fill-rule:nonzero;fill:rgb(14.901961%,14.901961%,14.901961%);fill-opacity:1;" d="M 12.066406 22.539062 C 12.066406 22.539062 15.585938 18.308594 21.003906 17.867188 L 21.003906 16.332031 C 15.003906 16.84375 9 22.21875 9 22.21875 C 9 22.21875 12.75 31.214844 21.003906 32.039062 L 21.003906 30.40625 C 14.949219 29.597656 12.066406 22.539062 12.066406 22.539062 Z M 21.003906 27.160156 L 21.003906 28.652344 C 16.425781 27.789062 14.347656 22.757812 14.347656 22.757812 C 14.347656 22.757812 17.351562 20.183594 21.003906 19.765625 L 21.003906 21.40625 C 21 21.40625 21 21.40625 20.996094 21.40625 C 19.082031 21.164062 16.777344 23.054688 16.777344 23.054688 C 16.777344 23.054688 18.421875 26.242188 21.003906 27.160156 M 21.003906 13.5 L 21.003906 16.332031 C 21.179688 16.320312 20.546875 16.304688 20.722656 16.300781 C 27.542969 16.058594 31.988281 22.21875 31.988281 22.21875 C 31.988281 22.21875 26.882812 28.78125 21.566406 28.78125 C 21.078125 28.78125 21.433594 28.734375 21.003906 28.652344 L 21.003906 30.40625 C 21.371094 30.453125 20.941406 30.484375 21.335938 30.484375 C 26.285156 30.484375 29.863281 27.8125 33.328125 24.648438 C 33.902344 25.132812 36.253906 26.316406 36.738281 26.835938 C 33.441406 29.753906 25.765625 32.105469 21.414062 32.105469 C 20.992188 32.105469 21.398438 32.078125 21.003906 32.039062 L 21.003906 34.5 L 39 34.5 L 39 13.5 Z M 21.003906 19.765625 L 21.003906 17.867188 C 21.179688 17.859375 20.542969 17.847656 20.722656 17.839844 C 25.628906 17.675781 28.84375 22.296875 28.84375 22.296875 C 28.84375 22.296875 25.371094 27.402344 21.644531 27.402344 C 21.109375 27.402344 21.4375 27.3125 21.003906 27.160156 L 21.003906 21.40625 C 22.914062 21.652344 22.851562 22.542969 24 24.566406 L 26.1875 22.289062 C 26.1875 22.289062 24.324219 19.703125 21.183594 19.703125 C 20.839844 19.703125 21.324219 19.730469 21.003906 19.765625 "/>
</g>
</svg>
