<?xml version="1.0" encoding="UTF-8"?>
<svg xmlns="http://www.w3.org/2000/svg" xmlns:xlink="http://www.w3.org/1999/xlink" width="48pt" height="48pt" viewBox="0 0 48 48" version="1.1">
<g id="surface1">
<path style=" stroke:none;fill-rule:evenodd;fill:rgb(100%,100%,100%);fill-opacity:1;" d="M 11.210938 2.847656 L 36.789062 2.847656 C 41.410156 2.847656 45.152344 6.589844 45.152344 11.210938 L 45.152344 36.789062 C 45.152344 41.410156 41.410156 45.152344 36.789062 45.152344 L 11.210938 45.152344 C 6.589844 45.152344 2.847656 41.410156 2.847656 36.789062 L 2.847656 11.210938 C 2.847656 6.589844 6.589844 2.847656 11.210938 2.847656 Z M 11.210938 2.847656 "/>
<path style=" stroke:none;fill-rule:nonzero;fill:rgb(90.588235%,29.803922%,23.529412%);fill-opacity:1;" d="M 24 7.472656 C 14.84375 7.472656 7.472656 14.84375 7.472656 24 C 7.472656 33.15625 14.84375 40.527344 24 40.527344 C 33.15625 40.527344 40.527344 33.15625 40.527344 24 C 40.527344 14.84375 33.15625 7.472656 24 7.472656 Z M 24 14.558594 C 27.910156 14.558594 31.082031 18.785156 31.082031 24 C 31.082031 29.214844 27.910156 33.441406 24 33.441406 C 20.089844 33.441406 16.917969 29.214844 16.917969 24 C 16.917969 18.785156 20.089844 14.558594 24 14.558594 Z M 24 14.558594 "/>
</g>
</svg>
