<?xml version="1.0" encoding="UTF-8"?>
<svg xmlns="http://www.w3.org/2000/svg" xmlns:xlink="http://www.w3.org/1999/xlink" width="48pt" height="48pt" viewBox="0 0 48 48" version="1.1">
<g id="surface1">
<path style=" stroke:none;fill-rule:evenodd;fill:rgb(91.372549%,44.705882%,27.843137%);fill-opacity:1;" d="M 11.210938 2.847656 L 36.789062 2.847656 C 41.410156 2.847656 45.152344 6.589844 45.152344 11.210938 L 45.152344 36.789062 C 45.152344 41.410156 41.410156 45.152344 36.789062 45.152344 L 11.210938 45.152344 C 6.589844 45.152344 2.847656 41.410156 2.847656 36.789062 L 2.847656 11.210938 C 2.847656 6.589844 6.589844 2.847656 11.210938 2.847656 Z M 11.210938 2.847656 "/>
<path style=" stroke:none;fill-rule:nonzero;fill:rgb(70.196078%,70.196078%,70.196078%);fill-opacity:1;" d="M 39 24 C 39 32.285156 32.285156 39 24 39 C 15.714844 39 9 32.285156 9 24 C 9 15.714844 15.714844 9 24 9 C 32.285156 9 39 15.714844 39 24 Z M 39 24 "/>
<path style=" stroke:none;fill-rule:nonzero;fill:rgb(40%,40%,40%);fill-opacity:1;" d="M 34.980469 13.800781 L 31.5 17.035156 L 24 24 L 31.5 30.964844 L 34.976562 34.191406 C 37.554688 31.425781 38.992188 27.785156 39 24 C 38.996094 20.214844 37.558594 16.574219 34.980469 13.800781 Z M 34.980469 13.800781 "/>
<path style="fill:none;stroke-width:1;stroke-linecap:round;stroke-linejoin:round;stroke:rgb(95.294118%,95.294118%,95.294118%);stroke-opacity:1;stroke-miterlimit:4;" d="M -24.336898 10.736842 C -24.336898 10.736842 -23.292627 11.380071 -23.336898 12.736842 C -23.381169 14.093613 -24.336898 14.736842 -24.336898 14.736842 " transform="matrix(1.5,0,0,1.5,70.263159,4.894737)"/>
</g>
</svg>
