<?xml version="1.0" encoding="UTF-8"?>
<svg xmlns="http://www.w3.org/2000/svg" xmlns:xlink="http://www.w3.org/1999/xlink" width="48pt" height="48pt" viewBox="0 0 48 48" version="1.1">
<g id="surface1">
<path style=" stroke:none;fill-rule:evenodd;fill:rgb(60%,60%,60%);fill-opacity:1;" d="M 28.707031 2.847656 L 11.207031 2.847656 C 6.574219 2.847656 2.847656 6.574219 2.847656 11.207031 L 2.847656 36.789062 C 2.847656 41.425781 6.574219 45.152344 11.207031 45.152344 L 36.789062 45.152344 C 41.425781 45.152344 45.152344 41.425781 45.152344 36.789062 L 45.152344 11.207031 C 45.152344 6.574219 41.425781 2.847656 36.789062 2.847656 L 31.53125 2.847656 C 30.855469 3.570312 30.085938 4.300781 29.546875 5.007812 C 28.582031 6.261719 27.816406 7.496094 27.191406 8.71875 C 25.949219 11.164062 25.289062 13.5625 24.789062 16 L 22.734375 15.582031 C 23.25 13.042969 23.992188 10.4375 25.347656 7.777344 C 26.023438 6.445312 26.855469 5.101562 27.890625 3.742188 C 28.117188 3.445312 28.464844 3.144531 28.707031 2.847656 Z M 28.707031 2.847656 "/>
<path style=" stroke:none;fill-rule:evenodd;fill:rgb(40%,40%,40%);fill-opacity:1;" d="M 28.707031 2.847656 C 28.464844 3.144531 28.117188 3.445312 27.890625 3.742188 C 26.855469 5.101562 26.023438 6.445312 25.347656 7.777344 C 23.992188 10.4375 23.25 13.042969 22.734375 15.582031 L 24.789062 16 C 25.289062 13.5625 25.949219 11.164062 27.191406 8.71875 C 27.816406 7.496094 28.582031 6.261719 29.546875 5.007812 C 30.085938 4.300781 30.855469 3.570312 31.53125 2.847656 Z M 28.707031 2.847656 "/>
<path style=" stroke:none;fill-rule:evenodd;fill:rgb(60%,60%,60%);fill-opacity:1;" d="M 39.457031 44.617188 L 36.960938 41.480469 C 34.3125 38.15625 34.207031 38.039062 33.867188 38.097656 C 32.6875 38.300781 31.558594 38.300781 30.824219 38.101562 C 29.914062 37.855469 28.882812 37.214844 28.273438 36.511719 C 27.785156 35.949219 27.195312 34.816406 27.082031 34.21875 L 27.011719 33.835938 L 20.878906 33.835938 L 20.621094 34.625 C 20.226562 35.839844 19.546875 36.773438 18.636719 37.390625 C 17.730469 38.007812 16.597656 38.308594 15.296875 38.253906 L 14.21875 38.207031 L 11.257812 41.628906 C 9.703125 43.429688 9.039062 44.207031 8.539062 44.617188 C 9.386719 44.902344 10.261719 45.152344 11.207031 45.152344 L 36.789062 45.152344 C 37.738281 45.152344 38.609375 44.902344 39.457031 44.617188 Z M 39.457031 44.617188 "/>
<path style=" stroke:none;fill-rule:evenodd;fill:rgb(20%,20%,20%);fill-opacity:1;" d="M 45.152344 33.292969 C 45.128906 33.199219 45.109375 33.105469 45.085938 33.019531 C 44.925781 32.347656 44.242188 29.429688 43.5625 26.539062 C 42.582031 22.367188 42.238281 21.09375 41.890625 20.351562 C 41.480469 19.472656 40.953125 18.675781 40.3125 17.960938 C 39.671875 17.242188 38.914062 16.605469 38.054688 16.058594 C 36.332031 14.96875 34.179688 14.222656 31.640625 13.847656 C 30.140625 13.628906 17.535156 13.632812 16.292969 13.851562 C 14.335938 14.199219 12.8125 14.621094 11.523438 15.207031 C 10.234375 15.792969 9.179688 16.546875 8.171875 17.546875 C 7.15625 18.558594 6.925781 18.867188 6.449219 19.824219 C 5.875 20.992188 5.824219 21.175781 3.753906 29.632812 C 3.46875 30.792969 3.167969 32.03125 2.847656 33.332031 L 2.847656 36.789062 C 2.847656 40.476562 5.242188 43.496094 8.539062 44.617188 C 9.039062 44.207031 9.703125 43.429688 11.257812 41.628906 L 14.21875 38.207031 L 15.296875 38.253906 C 16.597656 38.308594 17.730469 38.007812 18.636719 37.390625 C 19.546875 36.773438 20.226562 35.839844 20.621094 34.625 L 20.878906 33.835938 L 27.011719 33.835938 L 27.082031 34.21875 C 27.195312 34.816406 27.785156 35.949219 28.273438 36.511719 C 28.882812 37.214844 29.914062 37.855469 30.828125 38.101562 C 31.558594 38.300781 32.6875 38.300781 33.867188 38.097656 C 34.207031 38.039062 34.3125 38.15625 36.960938 41.480469 L 39.457031 44.617188 C 42.753906 43.496094 45.152344 40.476562 45.152344 36.792969 Z M 33.832031 18.226562 C 34.40625 18.613281 34.59375 19.246094 34.335938 19.921875 C 34.167969 20.363281 33.839844 20.667969 33.453125 20.800781 C 33.066406 20.933594 32.625 20.894531 32.21875 20.648438 C 31.789062 20.386719 31.546875 19.980469 31.503906 19.554688 C 31.464844 19.125 31.628906 18.679688 32 18.335938 C 32.523438 17.855469 33.222656 17.816406 33.832031 18.226562 Z M 13.503906 18.660156 L 16.539062 18.660156 L 16.539062 21.570312 L 18.027344 21.605469 L 19.515625 21.636719 L 19.546875 23.125 L 19.582031 24.617188 L 16.539062 24.617188 L 16.539062 27.652344 L 13.503906 27.652344 L 13.503906 24.617188 L 10.582031 24.617188 L 10.582031 21.578125 L 13.503906 21.578125 Z M 22.492188 29.050781 L 25.527344 29.050781 L 25.527344 30.683594 L 22.492188 30.683594 Z M 16.164062 30.640625 C 16.84375 30.757812 17.46875 31.183594 17.804688 31.878906 C 18.039062 32.363281 18.089844 32.847656 18 33.292969 C 17.910156 33.738281 17.683594 34.140625 17.371094 34.453125 C 17.054688 34.765625 16.652344 34.988281 16.210938 35.074219 C 15.765625 35.160156 15.28125 35.109375 14.804688 34.871094 C 14.109375 34.527344 13.6875 33.902344 13.574219 33.222656 C 13.460938 32.542969 13.65625 31.816406 14.203125 31.269531 C 14.75 30.722656 15.484375 30.527344 16.164062 30.640625 Z M 16.164062 30.640625 "/>
<path style=" stroke:none;fill-rule:evenodd;fill:rgb(90.196078%,90.196078%,90.196078%);fill-opacity:1;" d="M 31.703125 30.671875 C 31.078125 30.820312 30.523438 31.238281 30.214844 31.878906 C 29.933594 32.460938 29.914062 33.078125 30.109375 33.617188 C 30.304688 34.160156 30.71875 34.625 31.308594 34.90625 C 31.988281 35.230469 32.730469 35.15625 33.328125 34.800781 C 33.925781 34.449219 34.378906 33.816406 34.484375 33.03125 C 34.5625 32.449219 34.109375 31.40625 33.628906 31.074219 C 33.023438 30.644531 32.328125 30.527344 31.703125 30.675781 Z M 31.703125 30.671875 "/>
<path style=" stroke:none;fill-rule:evenodd;fill:rgb(90.196078%,90.196078%,90.196078%);fill-opacity:1;" d="M 31.703125 30.671875 C 32.328125 30.527344 33.023438 30.644531 33.628906 31.070312 C 34.109375 31.40625 34.5625 32.449219 34.484375 33.03125 C 34.378906 33.816406 33.925781 34.449219 33.328125 34.800781 C 32.730469 35.15625 31.988281 35.230469 31.308594 34.90625 C 30.71875 34.625 30.304688 34.160156 30.109375 33.617188 C 29.914062 33.078125 29.933594 32.460938 30.214844 31.878906 C 30.523438 31.238281 31.078125 30.820312 31.703125 30.671875 Z M 31.703125 30.671875 "/>
<path style=" stroke:none;fill-rule:evenodd;fill:rgb(90.196078%,90.196078%,90.196078%);fill-opacity:1;" d="M 16.164062 30.640625 C 15.484375 30.527344 14.75 30.722656 14.203125 31.269531 C 13.65625 31.816406 13.460938 32.542969 13.574219 33.222656 C 13.6875 33.902344 14.109375 34.527344 14.804688 34.871094 C 15.28125 35.109375 15.765625 35.160156 16.210938 35.074219 C 16.652344 34.988281 17.054688 34.765625 17.371094 34.453125 C 17.683594 34.140625 17.910156 33.738281 18 33.292969 C 18.089844 32.847656 18.039062 32.363281 17.804688 31.878906 C 17.46875 31.183594 16.84375 30.757812 16.164062 30.640625 Z M 16.164062 30.640625 "/>
<path style=" stroke:none;fill-rule:evenodd;fill:rgb(90.196078%,90.196078%,90.196078%);fill-opacity:1;" d="M 22.492188 29.050781 L 22.492188 30.683594 L 25.527344 30.683594 L 25.527344 29.050781 Z M 22.492188 29.050781 "/>
<path style=" stroke:none;fill-rule:evenodd;fill:rgb(90.196078%,90.196078%,90.196078%);fill-opacity:1;" d="M 32.734375 23.949219 C 32.121094 24.03125 31.707031 24.453125 31.5625 24.960938 C 31.417969 25.46875 31.542969 26.058594 32.015625 26.472656 C 32.425781 26.832031 32.949219 26.921875 33.40625 26.792969 C 33.863281 26.667969 34.257812 26.324219 34.398438 25.808594 C 34.546875 25.265625 34.417969 24.761719 34.105469 24.414062 C 33.796875 24.066406 33.304688 23.875 32.734375 23.949219 Z M 32.734375 23.949219 "/>
<path style=" stroke:none;fill-rule:evenodd;fill:rgb(90.196078%,90.196078%,90.196078%);fill-opacity:1;" d="M 32.734375 23.949219 C 33.304688 23.875 33.796875 24.066406 34.105469 24.414062 C 34.417969 24.761719 34.546875 25.265625 34.398438 25.8125 C 34.257812 26.324219 33.863281 26.667969 33.40625 26.796875 C 32.949219 26.921875 32.425781 26.832031 32.015625 26.472656 C 31.542969 26.058594 31.417969 25.46875 31.5625 24.960938 C 31.707031 24.453125 32.121094 24.03125 32.734375 23.949219 Z M 32.734375 23.949219 "/>
<path style=" stroke:none;fill-rule:evenodd;fill:rgb(90.196078%,90.196078%,90.196078%);fill-opacity:1;" d="M 30.636719 21.09375 C 30.023438 20.78125 29.46875 20.882812 28.949219 21.402344 C 28.617188 21.738281 28.5625 21.867188 28.5625 22.367188 C 28.5625 23.035156 28.855469 23.496094 29.429688 23.75 C 29.917969 23.960938 30.046875 23.953125 30.617188 23.675781 C 31.179688 23.402344 31.460938 22.902344 31.464844 22.394531 C 31.46875 21.886719 31.191406 21.378906 30.636719 21.09375 Z M 30.636719 21.09375 "/>
<path style=" stroke:none;fill-rule:evenodd;fill:rgb(90.196078%,90.196078%,90.196078%);fill-opacity:1;" d="M 30.636719 21.09375 C 31.191406 21.378906 31.46875 21.886719 31.464844 22.394531 C 31.460938 22.902344 31.179688 23.402344 30.617188 23.675781 C 30.046875 23.953125 29.917969 23.960938 29.429688 23.75 C 28.855469 23.496094 28.5625 23.035156 28.5625 22.367188 C 28.5625 21.867188 28.617188 21.738281 28.949219 21.402344 C 29.46875 20.882812 30.023438 20.78125 30.636719 21.09375 Z M 30.636719 21.09375 "/>
<path style=" stroke:none;fill-rule:evenodd;fill:rgb(90.196078%,90.196078%,90.196078%);fill-opacity:1;" d="M 36.542969 21.035156 C 35.957031 20.792969 35.386719 20.921875 34.90625 21.402344 C 34.570312 21.738281 34.519531 21.867188 34.519531 22.367188 C 34.519531 23.035156 34.808594 23.496094 35.382812 23.75 C 35.851562 23.953125 36.074219 23.949219 36.566406 23.746094 C 37.140625 23.503906 37.421875 22.949219 37.417969 22.390625 C 37.414062 21.835938 37.121094 21.277344 36.542969 21.035156 Z M 36.542969 21.035156 "/>
<path style=" stroke:none;fill-rule:evenodd;fill:rgb(100%,79.215686%,34.509804%);fill-opacity:1;" d="M 36.542969 21.035156 C 37.121094 21.277344 37.414062 21.835938 37.417969 22.390625 C 37.421875 22.949219 37.140625 23.503906 36.566406 23.746094 C 36.074219 23.949219 35.851562 23.953125 35.382812 23.75 C 34.808594 23.496094 34.519531 23.035156 34.519531 22.367188 C 34.519531 21.867188 34.570312 21.738281 34.90625 21.402344 C 35.386719 20.921875 35.957031 20.792969 36.542969 21.035156 Z M 36.542969 21.035156 "/>
<path style=" stroke:none;fill-rule:evenodd;fill:rgb(90.196078%,90.196078%,90.196078%);fill-opacity:1;" d="M 13.503906 18.660156 L 13.503906 21.578125 L 10.582031 21.578125 L 10.582031 24.617188 L 13.503906 24.617188 L 13.503906 27.648438 L 16.539062 27.648438 L 16.539062 24.617188 L 19.582031 24.617188 L 19.546875 23.125 L 19.515625 21.636719 L 18.027344 21.605469 L 16.539062 21.570312 L 16.539062 18.660156 Z M 13.503906 18.660156 "/>
<path style=" stroke:none;fill-rule:evenodd;fill:rgb(93.333333%,32.54902%,32.54902%);fill-opacity:1;" d="M 33.832031 18.226562 C 33.222656 17.816406 32.523438 17.855469 32 18.335938 C 31.628906 18.679688 31.464844 19.125 31.503906 19.554688 C 31.546875 19.980469 31.789062 20.386719 32.21875 20.648438 C 32.625 20.894531 33.066406 20.933594 33.453125 20.800781 C 33.839844 20.667969 34.167969 20.363281 34.335938 19.921875 C 34.59375 19.246094 34.40625 18.613281 33.832031 18.226562 Z M 33.832031 18.226562 "/>
</g>
</svg>
