<?xml version="1.0" encoding="UTF-8"?>
<svg xmlns="http://www.w3.org/2000/svg" xmlns:xlink="http://www.w3.org/1999/xlink" width="48pt" height="48pt" viewBox="0 0 48 48" version="1.1">
<defs>
<g>
<symbol overflow="visible" id="glyph0-0">
<path style="stroke:none;" d="M 0.296875 1.59375 L 0.296875 -6.34375 L 3.296875 -6.34375 L 3.296875 1.59375 Z M 0.640625 1.09375 L 2.96875 1.09375 L 2.96875 -5.84375 L 0.640625 -5.84375 Z M 0.640625 1.09375 "/>
</symbol>
<symbol overflow="visible" id="glyph0-1">
<path style="stroke:none;" d="M 2.046875 -5.6875 L 1.25 -2.421875 L 2.859375 -2.421875 Z M 1.71875 -6.5625 L 2.390625 -6.5625 L 4.0625 0 L 3.4375 0 L 3.046875 -1.6875 L 1.0625 -1.6875 L 0.671875 0 L 0.046875 0 Z M 1.71875 -6.5625 "/>
</symbol>
<symbol overflow="visible" id="glyph1-0">
<path style="stroke:none;" d="M 0.296875 1.59375 L 0.296875 -6.34375 L 3.296875 -6.34375 L 3.296875 1.59375 Z M 0.640625 1.09375 L 2.96875 1.09375 L 2.96875 -5.84375 L 0.640625 -5.84375 Z M 0.640625 1.09375 "/>
</symbol>
<symbol overflow="visible" id="glyph1-1">
<path style="stroke:none;" d="M 2.265625 -5.78125 L 0.78125 -2.28125 L 2.265625 -2.28125 Z M 2.109375 -6.5625 L 2.859375 -6.5625 L 2.859375 -2.28125 L 3.484375 -2.28125 L 3.484375 -1.546875 L 2.859375 -1.546875 L 2.859375 0 L 2.265625 0 L 2.265625 -1.546875 L 0.296875 -1.546875 L 0.296875 -2.40625 Z M 2.109375 -6.5625 "/>
</symbol>
</g>
</defs>
<g id="surface1">
<path style=" stroke:none;fill-rule:evenodd;fill:rgb(11.764706%,51.764706%,21.960784%);fill-opacity:1;" d="M 11.210938 2.847656 L 36.789062 2.847656 C 41.410156 2.847656 45.152344 6.589844 45.152344 11.210938 L 45.152344 36.789062 C 45.152344 41.410156 41.410156 45.152344 36.789062 45.152344 L 11.210938 45.152344 C 6.589844 45.152344 2.847656 41.410156 2.847656 36.789062 L 2.847656 11.210938 C 2.847656 6.589844 6.589844 2.847656 11.210938 2.847656 Z M 11.210938 2.847656 "/>
<path style=" stroke:none;fill-rule:evenodd;fill:rgb(100%,100%,100%);fill-opacity:1;" d="M 27.726562 8.375 L 37.910156 8.375 C 39.359375 8.375 40.53125 9.550781 40.53125 11 L 40.53125 26.730469 C 40.53125 28.179688 39.359375 29.355469 37.910156 29.355469 L 27.726562 29.355469 C 26.277344 29.355469 25.101562 28.179688 25.101562 26.730469 L 25.101562 11 C 25.101562 9.550781 26.277344 8.375 27.726562 8.375 Z M 27.726562 8.375 "/>
<path style=" stroke:none;fill-rule:nonzero;fill:rgb(11.764706%,51.764706%,21.960784%);fill-opacity:1;" d="M 26.132812 19.242188 C 26.132812 17.457031 26.1875 16.804688 26.332031 16.742188 C 26.484375 16.683594 26.476562 16.625 26.300781 16.5 C 26.097656 16.359375 26.105469 16.300781 26.339844 16.039062 C 26.488281 15.871094 26.609375 15.527344 26.605469 15.269531 C 26.601562 14.828125 26.589844 14.820312 26.367188 15.113281 C 26.15625 15.394531 26.132812 15.320312 26.132812 14.269531 C 26.132812 13.257812 26.183594 13.070312 26.523438 12.726562 C 27.078125 12.171875 28.066406 12.171875 28.367188 12.730469 C 28.550781 13.078125 28.539062 13.167969 28.28125 13.457031 C 27.875 13.90625 27.328125 13.808594 27.328125 13.289062 C 27.328125 13.070312 27.417969 12.890625 27.527344 12.890625 C 27.640625 12.890625 27.722656 12.964844 27.710938 13.050781 C 27.703125 13.140625 27.632812 13.191406 27.554688 13.171875 C 27.472656 13.148438 27.410156 13.207031 27.410156 13.300781 C 27.410156 13.394531 27.535156 13.449219 27.6875 13.417969 C 27.84375 13.390625 27.96875 13.222656 27.96875 13.050781 C 27.96875 12.605469 27.324219 12.535156 27.101562 12.949219 C 26.894531 13.339844 27.023438 13.722656 27.449219 13.949219 C 27.871094 14.175781 28.585938 13.664062 28.65625 13.085938 C 28.734375 12.421875 28.15625 11.957031 27.378906 12.0625 C 27.03125 12.109375 26.609375 12.273438 26.441406 12.425781 C 26.140625 12.695312 26.023438 12.582031 26.257812 12.246094 C 26.472656 11.929688 27.351562 11.675781 27.824219 11.789062 C 28.367188 11.917969 28.84375 12.296875 28.84375 12.597656 C 28.84375 12.714844 28.914062 12.8125 29 12.8125 C 29.082031 12.8125 29.117188 12.90625 29.074219 13.023438 C 29.027344 13.136719 29.058594 13.40625 29.140625 13.621094 L 29.289062 14.007812 L 29.402344 13.578125 C 29.476562 13.289062 29.429688 13.027344 29.257812 12.785156 C 28.949219 12.34375 28.925781 12.070312 29.21875 12.3125 C 29.335938 12.410156 29.476562 12.445312 29.535156 12.386719 C 29.589844 12.332031 29.511719 12.195312 29.359375 12.082031 C 29.207031 11.972656 29.136719 11.828125 29.199219 11.765625 C 29.375 11.589844 29.800781 12.015625 29.800781 12.367188 C 29.800781 12.546875 29.886719 12.648438 30 12.609375 C 30.109375 12.570312 30.1875 12.3125 30.175781 12.039062 C 30.15625 11.589844 30.191406 11.546875 30.523438 11.632812 C 30.972656 11.746094 31.59375 11.570312 31.46875 11.367188 C 31.417969 11.285156 31.238281 11.21875 31.066406 11.21875 C 30.609375 11.21875 30.699219 11.011719 31.269531 10.738281 C 31.929688 10.429688 32.089844 10.011719 31.496094 10.160156 C 31.253906 10.222656 31.078125 10.199219 31.078125 10.109375 C 31.078125 9.765625 31.828125 9.5 32.808594 9.5 C 33.605469 9.496094 33.886719 9.5625 34.136719 9.8125 C 34.519531 10.195312 34.417969 10.355469 33.949219 10.101562 C 33.636719 9.933594 33.609375 9.953125 33.65625 10.289062 C 33.691406 10.550781 33.871094 10.710938 34.257812 10.835938 L 34.808594 11.015625 L 34.335938 11.261719 C 33.933594 11.476562 33.90625 11.527344 34.152344 11.621094 C 34.308594 11.683594 34.636719 11.695312 34.878906 11.644531 C 35.292969 11.5625 35.320312 11.589844 35.257812 12.003906 C 35.160156 12.675781 35.464844 12.726562 35.835938 12.101562 C 36.148438 11.570312 36.148438 11.546875 35.859375 11.457031 C 35.128906 11.222656 34.140625 9.464844 34.746094 9.464844 C 34.832031 9.464844 34.902344 9.632812 34.902344 9.839844 C 34.902344 10.625 36.128906 11.527344 36.933594 11.332031 C 37.253906 11.257812 37.070312 11.15625 36.328125 10.996094 C 35.5625 10.832031 34.953125 10.058594 35.234375 9.609375 C 35.347656 9.425781 35.421875 9.453125 35.625 9.742188 C 35.941406 10.191406 36.488281 10.203125 36.949219 9.773438 C 37.230469 9.511719 37.445312 9.460938 38.011719 9.523438 C 38.839844 9.613281 39.097656 9.738281 38.949219 9.976562 C 38.886719 10.078125 38.914062 10.105469 39.015625 10.042969 C 39.253906 9.894531 39.527344 10.441406 39.527344 11.066406 L 39.527344 11.570312 L 39.222656 11.195312 C 39.054688 10.988281 38.863281 10.871094 38.800781 10.933594 C 38.738281 11 38.765625 11.148438 38.867188 11.269531 C 39.199219 11.671875 38.855469 11.6875 38.335938 11.289062 C 37.722656 10.820312 37.5625 10.796875 37.6875 11.195312 C 37.765625 11.445312 37.671875 11.511719 37.125 11.601562 C 36.460938 11.707031 36.019531 12 36.019531 12.332031 C 36.019531 12.429688 36.105469 12.460938 36.207031 12.398438 C 36.335938 12.316406 36.355469 12.375 36.273438 12.585938 C 36.210938 12.753906 36.113281 13.101562 36.0625 13.355469 C 35.988281 13.726562 36.019531 13.804688 36.207031 13.730469 C 36.339844 13.679688 36.523438 13.773438 36.628906 13.945312 C 36.734375 14.109375 36.9375 14.246094 37.078125 14.246094 C 37.265625 14.246094 37.222656 14.15625 36.917969 13.917969 C 36.617188 13.679688 36.5 13.441406 36.503906 13.078125 C 36.511719 12.390625 36.835938 12.011719 37.558594 11.851562 C 38.386719 11.664062 39.527344 12.144531 39.527344 12.679688 L 39.527344 13.042969 L 39.289062 12.699219 C 38.789062 11.988281 37.3125 11.863281 36.972656 12.5 C 36.464844 13.453125 37.511719 14.488281 38.292969 13.804688 C 38.816406 13.34375 38.535156 12.652344 37.820312 12.652344 C 37.535156 12.652344 37.453125 12.742188 37.453125 13.050781 C 37.453125 13.34375 37.539062 13.449219 37.773438 13.449219 C 37.949219 13.449219 38.09375 13.371094 38.09375 13.273438 C 38.09375 13.175781 37.984375 13.136719 37.851562 13.1875 C 37.578125 13.292969 37.527344 13.042969 37.789062 12.882812 C 37.886719 12.824219 38.082031 12.894531 38.226562 13.042969 C 38.472656 13.292969 38.464844 13.332031 38.117188 13.617188 C 37.691406 13.964844 37.226562 13.828125 37.058594 13.300781 C 36.761719 12.359375 38.226562 11.945312 38.976562 12.753906 C 39.191406 12.988281 39.375 13.257812 39.382812 13.355469 C 39.519531 15.160156 39.425781 15.8125 39.128906 15.085938 C 39.03125 14.84375 38.996094 14.859375 38.863281 15.203125 C 38.734375 15.539062 38.777344 15.652344 39.121094 15.925781 C 39.582031 16.296875 39.636719 16.480469 39.289062 16.480469 C 39.15625 16.480469 39.050781 16.519531 39.050781 16.570312 C 39.050781 16.621094 39.15625 16.769531 39.289062 16.902344 C 39.480469 17.089844 39.527344 17.605469 39.527344 19.40625 L 39.527344 21.671875 L 32.832031 21.667969 L 26.132812 21.660156 Z M 29.449219 21.0625 C 29.46875 20.867188 29.515625 20.5625 29.550781 20.386719 C 29.585938 20.210938 29.621094 20.035156 29.628906 19.996094 C 29.636719 19.957031 29.742188 20.066406 29.867188 20.234375 C 29.992188 20.402344 30.050781 20.613281 30.003906 20.703125 C 29.953125 20.792969 30.007812 20.777344 30.121094 20.671875 C 30.292969 20.515625 30.292969 20.433594 30.125 20.234375 C 29.945312 20.019531 29.988281 20 30.460938 20.078125 C 30.980469 20.164062 30.984375 20.160156 30.621094 19.941406 C 30.152344 19.664062 29.589844 19.761719 29.210938 20.191406 C 29.054688 20.371094 29.015625 20.46875 29.125 20.402344 C 29.246094 20.332031 29.324219 20.378906 29.324219 20.523438 C 29.324219 20.652344 29.246094 20.78125 29.15625 20.8125 C 28.980469 20.871094 29.117188 21.421875 29.304688 21.421875 C 29.363281 21.421875 29.429688 21.261719 29.449219 21.0625 Z M 33.46875 21.183594 C 33.578125 21.050781 33.597656 20.945312 33.507812 20.945312 C 33.421875 20.945312 33.257812 21.050781 33.148438 21.183594 C 33.039062 21.316406 33.023438 21.421875 33.109375 21.421875 C 33.199219 21.421875 33.359375 21.316406 33.46875 21.183594 Z M 34.824219 21.261719 C 34.769531 21.175781 34.808594 21.101562 34.90625 21.101562 C 35.007812 21.101562 35.058594 21.015625 35.015625 20.902344 C 34.976562 20.792969 34.863281 20.722656 34.765625 20.746094 C 34.664062 20.765625 34.585938 20.6875 34.585938 20.566406 C 34.585938 20.417969 34.433594 20.367188 34.105469 20.402344 C 33.84375 20.433594 33.628906 20.390625 33.628906 20.304688 C 33.628906 20.21875 33.699219 20.148438 33.785156 20.148438 C 33.972656 20.148438 33.953125 18.894531 33.761719 18.777344 C 33.691406 18.730469 33.675781 18.804688 33.726562 18.941406 C 33.777344 19.078125 33.75 19.191406 33.664062 19.191406 C 33.398438 19.191406 33.066406 18.679688 33.121094 18.351562 C 33.15625 18.160156 33.109375 18.078125 33.003906 18.144531 C 32.679688 18.34375 32.828125 18.859375 33.308594 19.214844 C 33.855469 19.621094 33.972656 19.976562 33.433594 19.597656 C 32.949219 19.257812 32.671875 19.292969 33.082031 19.636719 C 33.265625 19.792969 33.464844 20.109375 33.523438 20.347656 C 33.585938 20.585938 33.6875 20.773438 33.75 20.765625 C 34.144531 20.703125 34.417969 20.824219 34.503906 21.101562 C 34.5625 21.277344 34.675781 21.421875 34.765625 21.421875 C 34.851562 21.421875 34.878906 21.351562 34.824219 21.261719 Z M 36.464844 20.84375 C 36.527344 20.234375 36.039062 19.773438 35.359375 19.792969 C 34.730469 19.8125 34.34375 20.136719 34.910156 20.171875 C 35.125 20.183594 35.464844 20.183594 35.660156 20.164062 C 35.980469 20.136719 36.019531 20.207031 36.019531 20.792969 C 36.019531 21.5625 36.390625 21.605469 36.464844 20.84375 Z M 30.917969 20.933594 C 30.917969 20.839844 30.984375 20.808594 31.066406 20.855469 C 31.148438 20.90625 31.257812 20.878906 31.308594 20.792969 C 31.363281 20.707031 31.527344 20.683594 31.679688 20.742188 C 31.914062 20.828125 31.921875 20.804688 31.75 20.589844 C 31.539062 20.332031 31.019531 20.367188 30.636719 20.667969 C 30.367188 20.878906 30.386719 21.101562 30.679688 21.101562 C 30.808594 21.101562 30.917969 21.027344 30.917969 20.933594 Z M 33.125 20.605469 C 33.277344 20.363281 33.285156 20.21875 33.164062 20.097656 C 33.039062 19.972656 32.992188 20.023438 32.992188 20.273438 C 32.992188 20.46875 32.925781 20.625 32.851562 20.625 C 32.632812 20.625 32.339844 20.210938 32.46875 20.082031 C 32.53125 20.019531 32.457031 20.019531 32.308594 20.074219 C 31.953125 20.210938 31.960938 20.273438 32.390625 20.632812 C 32.847656 21.011719 32.871094 21.011719 33.125 20.605469 Z M 35.542969 20.640625 C 35.542969 20.5625 35.421875 20.453125 35.28125 20.398438 C 35.0625 20.316406 35.050781 20.339844 35.21875 20.542969 C 35.449219 20.816406 35.542969 20.847656 35.542969 20.640625 Z M 28.910156 19.796875 C 29.09375 19.644531 29.476562 19.472656 29.765625 19.414062 C 30.457031 19.277344 30.21875 18.984375 29.199219 18.707031 C 28.121094 18.414062 27.574219 18.109375 27.410156 17.707031 C 27.308594 17.449219 27.269531 17.429688 27.261719 17.625 C 27.253906 17.769531 27.363281 18.003906 27.5 18.140625 C 27.730469 18.371094 27.683594 18.460938 27.371094 18.410156 C 27.304688 18.402344 27.25 18.472656 27.25 18.570312 C 27.25 18.679688 27.421875 18.714844 27.675781 18.667969 C 27.929688 18.617188 28.195312 18.675781 28.328125 18.808594 C 28.515625 19 28.5 19.023438 28.199219 18.992188 C 27.835938 18.949219 27.414062 19.40625 27.625 19.617188 C 27.691406 19.683594 27.796875 19.664062 27.855469 19.570312 C 27.917969 19.480469 28.191406 19.273438 28.464844 19.117188 C 28.941406 18.839844 28.980469 18.835938 29.34375 19.105469 C 29.625 19.316406 29.644531 19.363281 29.421875 19.285156 C 28.957031 19.128906 28.363281 19.597656 28.378906 20.109375 C 28.386719 20.359375 28.429688 20.445312 28.484375 20.3125 C 28.535156 20.183594 28.726562 19.953125 28.910156 19.796875 Z M 32.441406 19.667969 C 32.566406 19.667969 32.671875 19.597656 32.671875 19.515625 C 32.671875 19.304688 32.160156 19.496094 31.914062 19.800781 C 31.75 20.007812 31.714844 20.007812 31.714844 19.820312 C 31.710938 19.691406 31.9375 19.402344 32.21875 19.171875 C 32.609375 18.851562 32.691406 18.6875 32.59375 18.457031 C 32.46875 18.164062 32.460938 18.164062 32.390625 18.472656 C 32.351562 18.648438 32.109375 18.988281 31.851562 19.226562 C 31.449219 19.601562 31.40625 19.710938 31.5625 20 L 31.742188 20.335938 L 31.976562 20.003906 C 32.105469 19.820312 32.316406 19.667969 32.441406 19.667969 Z M 37.136719 19.96875 C 37.136719 19.882812 36.90625 19.597656 36.621094 19.339844 C 35.972656 18.75 36.363281 18.703125 37.199219 19.269531 C 37.523438 19.488281 37.820312 19.667969 37.859375 19.667969 C 38.03125 19.667969 37.914062 19.210938 37.695312 19.03125 C 37.339844 18.734375 37.402344 18.585938 37.851562 18.671875 C 38.085938 18.71875 38.253906 18.675781 38.253906 18.570312 C 38.253906 18.472656 38.132812 18.394531 37.988281 18.394531 C 37.742188 18.394531 37.742188 18.371094 37.988281 18.101562 C 38.132812 17.941406 38.246094 17.707031 38.238281 17.582031 C 38.230469 17.394531 38.210938 17.394531 38.136719 17.589844 C 37.976562 17.996094 37.402344 18.375 36.558594 18.625 C 36.105469 18.757812 35.570312 19.011719 35.359375 19.183594 L 34.984375 19.5 L 35.503906 19.355469 C 35.792969 19.273438 35.988281 19.273438 35.941406 19.347656 C 35.894531 19.425781 36.019531 19.507812 36.214844 19.539062 C 36.414062 19.566406 36.648438 19.746094 36.730469 19.9375 C 36.878906 20.273438 37.136719 20.292969 37.136719 19.96875 Z M 35.164062 18.945312 C 35.351562 18.742188 35.816406 18.492188 36.199219 18.390625 C 37.371094 18.074219 37.589844 17.945312 37.859375 17.425781 C 38.324219 16.527344 37.796875 15.710938 36.894531 15.9375 C 36.390625 16.0625 36.140625 16.507812 36.273438 17.035156 C 36.40625 17.566406 37.097656 17.761719 37.394531 17.359375 C 37.636719 17.027344 37.425781 16.480469 37.058594 16.480469 C 36.742188 16.480469 36.589844 16.792969 36.800781 17.003906 C 36.929688 17.132812 36.976562 17.109375 36.976562 16.910156 C 36.976562 16.761719 37.046875 16.640625 37.136719 16.640625 C 37.335938 16.640625 37.347656 17.226562 37.152344 17.347656 C 36.710938 17.617188 36.179688 16.785156 36.523438 16.367188 C 36.789062 16.046875 37.507812 16.117188 37.738281 16.484375 C 37.90625 16.753906 37.898438 16.902344 37.6875 17.347656 C 37.421875 17.910156 36.835938 18.195312 36.625 17.867188 C 36.53125 17.730469 36.464844 17.722656 36.378906 17.851562 C 36.3125 17.949219 35.972656 18.179688 35.621094 18.359375 C 35.199219 18.578125 34.859375 18.921875 34.617188 19.378906 C 34.386719 19.8125 34.359375 19.929688 34.539062 19.691406 C 34.695312 19.484375 34.976562 19.148438 35.164062 18.945312 Z M 30.679688 19.097656 C 30.4375 18.777344 30.003906 18.421875 29.714844 18.300781 C 29.429688 18.179688 29.15625 17.992188 29.109375 17.878906 C 29.046875 17.722656 28.992188 17.726562 28.867188 17.90625 C 28.730469 18.101562 28.644531 18.105469 28.3125 17.929688 C 27.703125 17.601562 27.46875 17.046875 27.734375 16.550781 C 27.90625 16.230469 28.050781 16.15625 28.4375 16.191406 C 28.855469 16.234375 28.929688 16.3125 28.972656 16.738281 C 29.03125 17.34375 28.574219 17.621094 28.253906 17.175781 C 28.140625 17.027344 28 16.953125 27.9375 17.011719 C 27.714844 17.238281 28.328125 17.640625 28.738281 17.535156 C 29.367188 17.378906 29.414062 16.304688 28.808594 15.984375 C 28.054688 15.578125 27.300781 16.253906 27.476562 17.179688 C 27.574219 17.707031 28.226562 18.234375 28.777344 18.234375 C 29.3125 18.234375 30.367188 18.863281 30.65625 19.355469 C 30.816406 19.628906 30.988281 19.8125 31.035156 19.761719 C 31.082031 19.714844 30.921875 19.417969 30.679688 19.097656 Z M 31.554688 18.230469 C 31.554688 18.160156 31.304688 17.957031 31.003906 17.777344 C 30.316406 17.375 30.121094 16.757812 30.535156 16.300781 C 30.75 16.0625 30.953125 16 31.28125 16.066406 C 31.554688 16.121094 31.691406 16.09375 31.632812 16 C 31.417969 15.648438 30.121094 16.011719 30.121094 16.425781 C 30.121094 16.726562 29.847656 16.691406 29.65625 16.359375 C 29.503906 16.105469 29.492188 16.105469 29.488281 16.402344 C 29.484375 16.578125 29.660156 16.855469 29.882812 17.023438 C 30.101562 17.1875 30.277344 17.4375 30.277344 17.578125 C 30.277344 17.738281 30.230469 17.769531 30.15625 17.664062 C 30.039062 17.492188 29.480469 17.230469 29.480469 17.347656 C 29.480469 17.585938 29.699219 17.898438 29.816406 17.824219 C 29.894531 17.777344 29.960938 17.816406 29.960938 17.910156 C 29.960938 18.027344 30.054688 18.035156 30.238281 17.9375 C 30.414062 17.847656 30.667969 17.855469 30.917969 17.957031 L 31.316406 18.125 L 30.835938 18.226562 L 30.359375 18.328125 L 30.796875 18.441406 C 31.039062 18.507812 31.234375 18.632812 31.234375 18.722656 C 31.234375 18.816406 31.171875 18.851562 31.089844 18.800781 C 31.011719 18.75 30.988281 18.863281 31.035156 19.046875 C 31.113281 19.351562 31.144531 19.332031 31.339844 18.871094 C 31.457031 18.585938 31.554688 18.300781 31.554688 18.230469 Z M 34.472656 19.03125 C 34.515625 18.855469 34.496094 18.746094 34.425781 18.789062 C 34.355469 18.832031 34.25 18.746094 34.195312 18.59375 C 34.054688 18.238281 34.535156 17.886719 35.082031 17.941406 C 35.5 17.984375 36.019531 17.691406 36.019531 17.410156 C 36.019531 17.332031 35.871094 17.34375 35.691406 17.441406 C 35.511719 17.539062 35.277344 17.585938 35.175781 17.546875 C 34.898438 17.449219 34.144531 17.867188 33.953125 18.21875 C 33.835938 18.441406 33.855469 18.570312 34.03125 18.714844 C 34.160156 18.820312 34.265625 19.007812 34.265625 19.128906 C 34.265625 19.449219 34.375 19.398438 34.472656 19.03125 Z M 31.972656 17.988281 C 31.925781 17.859375 31.816406 17.753906 31.734375 17.753906 C 31.652344 17.753906 31.667969 17.929688 31.769531 18.148438 C 31.957031 18.550781 32.136719 18.410156 31.972656 17.988281 Z M 34.265625 17.558594 C 35.128906 16.980469 35.074219 16.328125 34.164062 16.324219 C 33.800781 16.320312 33.539062 16.722656 33.796875 16.882812 C 33.882812 16.9375 33.933594 16.886719 33.910156 16.769531 C 33.882812 16.640625 34.019531 16.558594 34.261719 16.558594 C 34.90625 16.558594 34.832031 17.015625 34.113281 17.492188 C 33.664062 17.789062 33.472656 18.027344 33.484375 18.277344 L 33.5 18.632812 L 33.605469 18.28125 C 33.660156 18.089844 33.957031 17.765625 34.265625 17.558594 Z M 34.824219 18.394531 C 35.105469 18.269531 35.09375 18.253906 34.703125 18.246094 C 34.464844 18.238281 34.265625 18.304688 34.265625 18.394531 C 34.265625 18.578125 34.386719 18.578125 34.824219 18.394531 Z M 33.195312 17.566406 C 33.214844 17.59375 33.367188 17.5625 33.535156 17.5 C 33.816406 17.390625 33.8125 17.375 33.46875 17.246094 C 33.238281 17.160156 33.03125 17.171875 32.933594 17.269531 C 32.824219 17.378906 32.679688 17.347656 32.480469 17.171875 C 32.15625 16.875 32.082031 17.089844 32.390625 17.433594 C 32.511719 17.566406 32.417969 17.546875 32.152344 17.382812 C 31.910156 17.230469 31.714844 17.175781 31.714844 17.257812 C 31.714844 17.339844 31.949219 17.546875 32.234375 17.71875 C 32.707031 18.007812 32.769531 18.011719 32.957031 17.773438 C 33.070312 17.632812 33.179688 17.539062 33.195312 17.566406 Z M 31.074219 17.304688 C 30.558594 16.890625 30.746094 16.402344 31.355469 16.554688 C 31.6875 16.636719 31.75 16.617188 31.613281 16.476562 C 31.320312 16.179688 30.683594 16.351562 30.628906 16.742188 C 30.582031 17.066406 31.199219 17.847656 31.367188 17.675781 C 31.40625 17.636719 31.273438 17.46875 31.074219 17.304688 Z M 35.820312 16.816406 C 35.929688 16.683594 36.019531 16.464844 36.015625 16.328125 C 36.015625 16.152344 35.921875 16.199219 35.699219 16.480469 C 35.457031 16.792969 35.386719 16.820312 35.386719 16.609375 C 35.378906 16.070312 33.988281 15.546875 33.722656 15.976562 C 33.675781 16.054688 33.816406 16.082031 34.03125 16.039062 C 34.25 15.996094 34.605469 16.082031 34.839844 16.238281 C 35.1875 16.460938 35.238281 16.589844 35.160156 16.992188 C 35.070312 17.433594 35.089844 17.457031 35.34375 17.265625 C 35.496094 17.148438 35.710938 16.945312 35.820312 16.816406 Z M 28.765625 16.789062 C 28.765625 16.492188 28.222656 16.394531 27.992188 16.648438 C 27.847656 16.800781 27.875 16.820312 28.101562 16.742188 C 28.488281 16.605469 28.789062 16.789062 28.503906 16.988281 C 28.328125 17.113281 28.332031 17.128906 28.527344 17.074219 C 28.65625 17.039062 28.765625 16.910156 28.765625 16.789062 Z M 31.628906 16.96875 C 31.679688 16.886719 31.578125 16.828125 31.398438 16.84375 C 31.222656 16.855469 31.078125 16.921875 31.078125 16.992188 C 31.078125 17.167969 31.515625 17.148438 31.628906 16.96875 Z M 33.21875 16.714844 C 33.574219 16.445312 33.433594 16.402344 32.988281 16.640625 C 32.789062 16.746094 32.65625 16.746094 32.589844 16.636719 C 32.535156 16.546875 32.546875 16.492188 32.621094 16.515625 C 32.835938 16.582031 33.789062 15.652344 33.78125 15.375 C 33.777344 15.214844 33.570312 15.351562 33.210938 15.761719 C 32.890625 16.121094 32.613281 16.320312 32.570312 16.214844 C 32.414062 15.832031 31.714844 15.128906 31.714844 15.355469 C 31.714844 15.480469 31.90625 15.785156 32.144531 16.03125 C 32.527344 16.433594 32.539062 16.480469 32.261719 16.484375 C 31.996094 16.488281 32.007812 16.523438 32.351562 16.71875 C 32.84375 17 32.839844 17 33.21875 16.714844 Z M 30.886719 15.585938 C 31.253906 15.511719 31.394531 15.394531 31.394531 15.164062 C 31.394531 14.785156 30.234375 13.664062 30.140625 13.949219 C 30.105469 14.054688 30.214844 14.257812 30.386719 14.398438 C 30.691406 14.640625 30.988281 15.363281 30.789062 15.363281 C 30.734375 15.363281 30.539062 15.171875 30.351562 14.941406 C 30.082031 14.601562 29.933594 14.539062 29.589844 14.625 C 29.109375 14.746094 28.996094 15.308594 29.417969 15.472656 C 29.667969 15.566406 30.03125 15.214844 29.851562 15.050781 C 29.800781 15.003906 29.726562 15.054688 29.6875 15.164062 C 29.585938 15.441406 29.324219 15.414062 29.324219 15.125 C 29.324219 14.976562 29.472656 14.886719 29.722656 14.886719 C 30.039062 14.886719 30.121094 14.964844 30.121094 15.273438 C 30.121094 15.488281 30.046875 15.707031 29.960938 15.761719 C 29.871094 15.816406 29.800781 15.9375 29.800781 16.035156 C 29.800781 16.132812 29.929688 16.09375 30.089844 15.949219 C 30.25 15.804688 30.609375 15.640625 30.886719 15.585938 Z M 35.386719 15.527344 C 35.132812 15.0625 35.335938 14.835938 35.898438 14.949219 C 36.3125 15.03125 36.351562 15.011719 36.179688 14.804688 C 36.070312 14.671875 35.855469 14.566406 35.707031 14.566406 C 35.359375 14.566406 34.839844 15.128906 34.976562 15.351562 C 35.035156 15.445312 35.042969 15.523438 35 15.523438 C 34.953125 15.523438 34.839844 15.382812 34.75 15.210938 C 34.613281 14.957031 34.660156 14.828125 35.015625 14.5 C 35.550781 14.003906 35.410156 13.800781 34.796875 14.191406 C 34.230469 14.550781 34.113281 14.71875 34.109375 15.144531 C 34.105469 15.410156 34.230469 15.511719 34.671875 15.59375 C 34.984375 15.652344 35.285156 15.816406 35.339844 15.960938 C 35.398438 16.117188 35.464844 16.148438 35.5 16.042969 C 35.535156 15.941406 35.480469 15.710938 35.386719 15.527344 Z M 33.628906 14.734375 C 34.328125 13.816406 34.347656 12.644531 33.664062 12.65625 C 33.40625 12.660156 33.40625 12.671875 33.667969 12.824219 C 33.820312 12.914062 33.945312 13.132812 33.945312 13.308594 C 33.945312 13.484375 33.882812 13.585938 33.800781 13.539062 C 33.71875 13.488281 33.605469 13.660156 33.550781 13.917969 C 33.492188 14.179688 33.300781 14.578125 33.121094 14.808594 L 32.792969 15.222656 L 32.414062 14.867188 C 32.203125 14.671875 32.035156 14.386719 32.035156 14.230469 C 32.035156 13.804688 31.855469 13.441406 31.699219 13.539062 C 31.484375 13.671875 31.527344 13.0625 31.746094 12.84375 C 31.890625 12.703125 31.890625 12.652344 31.753906 12.652344 C 31.648438 12.652344 31.488281 12.800781 31.390625 12.980469 C 31.148438 13.4375 31.460938 14.3125 32.179688 15.171875 C 32.816406 15.9375 32.679688 15.976562 33.628906 14.734375 Z M 36.238281 15.433594 C 36.292969 15.292969 36.269531 15.230469 36.175781 15.285156 C 36.089844 15.339844 36.019531 15.449219 36.019531 15.53125 C 36.019531 15.761719 36.132812 15.710938 36.238281 15.433594 Z M 35.796875 15.085938 C 35.636719 14.925781 35.5 15.167969 35.632812 15.382812 C 35.734375 15.546875 35.773438 15.546875 35.828125 15.386719 C 35.863281 15.273438 35.851562 15.140625 35.796875 15.085938 Z M 33.246094 13.605469 C 33.34375 13.074219 33.335938 13.066406 33.089844 13.371094 C 32.84375 13.675781 32.832031 13.660156 32.871094 13.019531 C 32.894531 12.636719 32.84375 12.363281 32.75 12.382812 C 32.664062 12.398438 32.613281 12.699219 32.636719 13.050781 C 32.675781 13.628906 32.65625 13.660156 32.453125 13.402344 C 32.148438 13.015625 31.960938 13.328125 32.207031 13.804688 C 32.566406 14.5 32.703125 14.605469 32.933594 14.371094 C 33.046875 14.257812 33.1875 13.914062 33.246094 13.605469 Z M 28.851562 13.914062 C 29.109375 13.4375 28.976562 13.410156 28.574219 13.859375 C 28.335938 14.132812 28.296875 14.246094 28.453125 14.246094 C 28.574219 14.246094 28.753906 14.097656 28.851562 13.914062 Z M 26.667969 11.332031 C 26.785156 10.875 26.644531 10.773438 26.324219 11.089844 C 26.175781 11.238281 26.132812 11.1875 26.132812 10.859375 C 26.132812 9.800781 27.851562 9.003906 28.507812 9.761719 C 28.882812 10.191406 29.441406 10.195312 29.894531 9.769531 C 30.34375 9.347656 30.488281 9.570312 30.179688 10.207031 C 29.953125 10.671875 29.261719 11.09375 28.445312 11.269531 C 28.21875 11.320312 28.253906 11.34375 28.570312 11.359375 C 29.371094 11.390625 30.054688 10.984375 30.378906 10.28125 C 30.542969 9.925781 30.730469 9.628906 30.796875 9.628906 C 30.972656 9.621094 30.933594 9.792969 30.628906 10.417969 C 30.246094 11.199219 29.289062 11.703125 28.402344 11.585938 C 27.828125 11.507812 27.734375 11.445312 27.816406 11.195312 C 27.949219 10.777344 27.679688 10.828125 27.078125 11.332031 L 26.558594 11.769531 Z M 28.964844 9.820312 C 28.511719 9.71875 28.644531 9.515625 29.164062 9.515625 C 29.425781 9.515625 29.640625 9.570312 29.640625 9.632812 C 29.640625 9.796875 29.292969 9.894531 28.964844 9.820312 Z M 36.058594 9.828125 C 35.695312 9.695312 35.855469 9.515625 36.339844 9.515625 C 36.601562 9.515625 36.816406 9.539062 36.816406 9.5625 C 36.816406 9.6875 36.234375 9.890625 36.058594 9.828125 Z M 36.058594 9.828125 "/>
<path style=" stroke:none;fill-rule:evenodd;fill:rgb(100%,100%,100%);fill-opacity:1;" d="M 10.089844 8.375 L 20.273438 8.375 C 21.722656 8.375 22.898438 9.550781 22.898438 11 L 22.898438 26.730469 C 22.898438 28.179688 21.722656 29.355469 20.273438 29.355469 L 10.089844 29.355469 C 8.640625 29.355469 7.46875 28.179688 7.46875 26.730469 L 7.46875 11 C 7.46875 9.550781 8.640625 8.375 10.089844 8.375 Z M 10.089844 8.375 "/>
<path style=" stroke:none;fill-rule:nonzero;fill:rgb(81.960784%,0%,0%);fill-opacity:1;" d="M 13.179688 25.542969 C 10.742188 23.046875 10.207031 22.226562 10.207031 20.996094 C 10.207031 19.675781 10.875 18.800781 12.140625 18.460938 C 12.78125 18.292969 12.980469 18.304688 13.609375 18.542969 C 14.011719 18.695312 14.5625 19.078125 14.839844 19.390625 L 15.339844 19.960938 L 15.921875 19.328125 C 17.285156 17.839844 19.414062 18.105469 20.269531 19.871094 C 20.59375 20.542969 20.609375 20.6875 20.441406 21.488281 C 20.191406 22.675781 19.421875 23.78125 17.859375 25.195312 C 17.140625 25.84375 16.292969 26.695312 15.972656 27.089844 L 15.386719 27.808594 Z M 13.179688 25.542969 "/>
<path style=" stroke:none;fill-rule:nonzero;fill:rgb(81.960784%,0%,0%);fill-opacity:1;" d="M 18.351562 13.097656 C 17.476562 12.199219 17.28125 11.902344 17.28125 11.460938 C 17.28125 10.984375 17.523438 10.667969 17.980469 10.546875 C 18.207031 10.488281 18.28125 10.492188 18.507812 10.578125 C 18.652344 10.632812 18.851562 10.769531 18.949219 10.882812 L 19.128906 11.089844 L 19.339844 10.859375 C 19.832031 10.324219 20.597656 10.417969 20.90625 11.054688 C 21.023438 11.296875 21.027344 11.347656 20.964844 11.636719 C 20.878906 12.066406 20.601562 12.464844 20.039062 12.972656 C 19.777344 13.207031 19.472656 13.511719 19.359375 13.65625 L 19.148438 13.914062 Z M 18.351562 13.097656 "/>
<g style="fill:rgb(0%,0%,0%);fill-opacity:1;">
  <use xlink:href="#glyph0-1" x="9.640625" y="17.056991"/>
</g>
<path style=" stroke:none;fill-rule:nonzero;fill:rgb(81.960784%,0%,0%);fill-opacity:1;" d="M 30.8125 35.8125 C 28.375 33.316406 27.839844 32.496094 27.839844 31.265625 C 27.839844 29.945312 28.507812 29.070312 29.777344 28.730469 C 30.414062 28.5625 30.617188 28.570312 31.242188 28.8125 C 31.644531 28.964844 32.195312 29.347656 32.472656 29.660156 L 32.972656 30.230469 L 33.554688 29.59375 C 34.917969 28.109375 37.046875 28.375 37.902344 30.136719 C 38.226562 30.8125 38.242188 30.953125 38.074219 31.757812 C 37.824219 32.945312 37.054688 34.050781 35.492188 35.464844 C 34.777344 36.113281 33.925781 36.964844 33.605469 37.359375 L 33.023438 38.078125 Z M 30.8125 35.8125 "/>
<path style=" stroke:none;fill-rule:evenodd;fill:rgb(100%,100%,100%);fill-opacity:1;" d="M 27.726562 18.644531 L 37.910156 18.644531 C 39.359375 18.644531 40.53125 19.820312 40.53125 21.269531 L 40.53125 37 C 40.53125 38.449219 39.359375 39.625 37.910156 39.625 L 27.726562 39.625 C 26.277344 39.625 25.101562 38.449219 25.101562 37 L 25.101562 21.269531 C 25.101562 19.820312 26.277344 18.644531 27.726562 18.644531 Z M 27.726562 18.644531 "/>
<path style=" stroke:none;fill-rule:nonzero;fill:rgb(0%,0%,0%);fill-opacity:1;" d="M 30.488281 37.515625 C 31.484375 37.164062 32.535156 35.957031 32.785156 34.875 C 32.90625 34.34375 32.816406 34.339844 32.003906 34.839844 C 31.261719 35.296875 29.949219 35.378906 29.242188 35.011719 C 28.367188 34.554688 28.015625 34.003906 28.015625 33.082031 C 28.015625 31.9375 28.527344 31.230469 30.621094 29.488281 C 31.523438 28.738281 32.421875 27.921875 32.617188 27.671875 L 32.976562 27.222656 L 33.40625 27.734375 C 33.644531 28.015625 34.464844 28.769531 35.234375 29.410156 C 36.984375 30.867188 37.425781 31.339844 37.734375 32.082031 C 38.460938 33.824219 37.40625 35.234375 35.378906 35.234375 C 34.722656 35.234375 34.378906 35.140625 33.929688 34.835938 C 33.609375 34.617188 33.3125 34.4375 33.269531 34.4375 C 33.035156 34.4375 33.261719 35.445312 33.617188 35.96875 C 34.058594 36.621094 34.359375 36.886719 35.171875 37.347656 C 35.65625 37.621094 35.613281 37.625 32.957031 37.613281 C 31.46875 37.605469 30.355469 37.5625 30.488281 37.515625 Z M 30.488281 37.515625 "/>
<path style=" stroke:none;fill-rule:nonzero;fill:rgb(0%,0%,0%);fill-opacity:1;" d="M 35.542969 24.730469 C 35.964844 24.578125 36.40625 24.066406 36.515625 23.609375 C 36.566406 23.386719 36.527344 23.382812 36.183594 23.597656 C 35.871094 23.789062 35.3125 23.824219 35.015625 23.667969 C 34.644531 23.476562 34.496094 23.242188 34.496094 22.851562 C 34.496094 22.367188 34.710938 22.066406 35.597656 21.328125 C 35.980469 21.011719 36.359375 20.667969 36.445312 20.5625 L 36.597656 20.371094 L 36.777344 20.585938 C 36.878906 20.707031 37.226562 21.027344 37.550781 21.296875 C 38.292969 21.914062 38.480469 22.113281 38.609375 22.429688 C 38.917969 23.164062 38.472656 23.761719 37.613281 23.761719 C 37.335938 23.761719 37.1875 23.722656 37 23.59375 C 36.863281 23.5 36.738281 23.425781 36.71875 23.425781 C 36.621094 23.425781 36.71875 23.851562 36.867188 24.074219 C 37.054688 24.347656 37.179688 24.460938 37.527344 24.65625 C 37.730469 24.773438 37.710938 24.777344 36.585938 24.769531 C 35.957031 24.765625 35.484375 24.75 35.542969 24.730469 Z M 35.542969 24.730469 "/>
<g style="fill:rgb(0%,0%,0%);fill-opacity:1;">
  <use xlink:href="#glyph1-1" x="26.9375" y="27.283258"/>
</g>
</g>
</svg>
