<?xml version="1.0" encoding="UTF-8"?>
<svg xmlns="http://www.w3.org/2000/svg" xmlns:xlink="http://www.w3.org/1999/xlink" width="48pt" height="48pt" viewBox="0 0 48 48" version="1.1">
<g id="surface1">
<path style=" stroke:none;fill-rule:evenodd;fill:rgb(92.54902%,92.54902%,92.54902%);fill-opacity:1;" d="M 11.210938 2.847656 C 6.574219 2.847656 2.847656 6.574219 2.847656 11.207031 L 2.847656 32.261719 C 3.628906 32.738281 4.636719 33.210938 5.910156 33.609375 C 7.261719 34.035156 8.859375 34.382812 10.632812 34.59375 C 12.402344 34.804688 14.347656 34.875 16.390625 34.746094 C 18.4375 34.617188 20.578125 34.285156 22.753906 33.683594 C 24.929688 33.085938 27.136719 32.222656 29.300781 31.03125 C 31.464844 29.839844 33.582031 28.316406 35.59375 26.398438 C 37.601562 24.484375 39.496094 22.175781 41.207031 19.410156 C 42.6875 17.019531 43.949219 14.113281 45.109375 10.996094 C 44.992188 6.46875 41.347656 2.847656 36.792969 2.847656 Z M 11.210938 2.847656 "/>
<path style=" stroke:none;fill-rule:nonzero;fill:rgb(77.647059%,77.647059%,77.647059%);fill-opacity:1;" d="M 9.550781 13.695312 L 25.511719 13.695312 C 25.90625 13.695312 26.226562 14.085938 26.226562 14.5625 L 26.226562 27.160156 C 26.226562 27.640625 25.90625 28.027344 25.511719 28.027344 L 9.550781 28.027344 C 9.15625 28.027344 8.835938 27.640625 8.835938 27.160156 L 8.835938 14.5625 C 8.835938 14.085938 9.15625 13.695312 9.550781 13.695312 Z M 9.550781 13.695312 "/>
<path style=" stroke:none;fill-rule:nonzero;fill:rgb(77.647059%,77.647059%,77.647059%);fill-opacity:1;" d="M 28.230469 13.695312 L 28.230469 14.503906 L 40.425781 14.503906 L 40.425781 13.695312 Z M 28.230469 13.695312 "/>
<path style=" stroke:none;fill-rule:nonzero;fill:rgb(77.647059%,77.647059%,77.647059%);fill-opacity:1;" d="M 28.230469 17.007812 L 28.230469 17.816406 L 40.425781 17.816406 L 40.425781 17.007812 Z M 28.230469 17.007812 "/>
<path style=" stroke:none;fill-rule:nonzero;fill:rgb(77.647059%,77.647059%,77.647059%);fill-opacity:1;" d="M 28.230469 20.324219 L 28.230469 21.128906 L 40.425781 21.128906 L 40.425781 20.324219 Z M 28.230469 20.324219 "/>
<path style=" stroke:none;fill-rule:nonzero;fill:rgb(77.647059%,77.647059%,77.647059%);fill-opacity:1;" d="M 28.230469 26.949219 L 28.230469 27.757812 L 40.425781 27.757812 L 40.425781 26.949219 Z M 28.230469 26.949219 "/>
<path style=" stroke:none;fill-rule:nonzero;fill:rgb(77.647059%,77.647059%,77.647059%);fill-opacity:1;" d="M 28.230469 23.640625 L 28.230469 24.445312 L 40.425781 24.445312 L 40.425781 23.640625 Z M 28.230469 23.640625 "/>
<path style=" stroke:none;fill-rule:evenodd;fill:rgb(92.54902%,92.54902%,92.54902%);fill-opacity:1;" d="M 12.386719 45.152344 C 12.0625 44.011719 11.84375 42.847656 11.261719 41.769531 C 10.335938 40.046875 9.109375 38.398438 7.648438 36.804688 C 6.246094 35.273438 4.613281 33.800781 2.847656 32.355469 L 2.847656 36.789062 C 2.847656 41.425781 6.574219 45.152344 11.210938 45.152344 Z M 12.386719 45.152344 "/>
<path style=" stroke:none;fill-rule:evenodd;fill:rgb(74.117647%,4.705882%,11.764706%);fill-opacity:1;" d="M 45.109375 10.996094 C 43.949219 14.113281 42.6875 17.019531 41.207031 19.410156 C 39.496094 22.175781 37.601562 24.484375 35.59375 26.398438 C 33.582031 28.316406 31.464844 29.839844 29.300781 31.03125 C 27.136719 32.222656 24.929688 33.085938 22.753906 33.683594 C 20.578125 34.285156 18.4375 34.617188 16.390625 34.746094 C 14.347656 34.875 12.402344 34.804688 10.632812 34.59375 C 8.859375 34.382812 7.261719 34.035156 5.910156 33.609375 C 4.636719 33.210938 3.628906 32.738281 2.847656 32.261719 L 2.847656 32.355469 C 4.613281 33.800781 6.246094 35.273438 7.648438 36.804688 C 9.109375 38.398438 10.335938 40.046875 11.261719 41.769531 C 11.84375 42.847656 12.0625 44.011719 12.386719 45.152344 L 36.792969 45.152344 C 41.425781 45.152344 45.152344 41.425781 45.152344 36.789062 L 45.152344 11.207031 C 45.152344 11.132812 45.109375 11.074219 45.109375 10.996094 Z M 45.109375 10.996094 "/>
<path style=" stroke:none;fill-rule:nonzero;fill:rgb(100%,100%,100%);fill-opacity:1;" d="M 22.914062 34.886719 L 22.914062 43.003906 L 24.515625 43.003906 L 24.515625 39.984375 L 25.476562 39.984375 C 26.351562 39.984375 27.058594 39.78125 27.554688 39.339844 C 28.054688 38.894531 28.300781 38.230469 28.300781 37.429688 C 28.300781 36.636719 28.054688 35.976562 27.554688 35.535156 C 27.058594 35.089844 26.351562 34.886719 25.476562 34.886719 Z M 24.515625 36.324219 L 25.476562 36.324219 C 25.894531 36.324219 26.167969 36.425781 26.355469 36.609375 C 26.546875 36.789062 26.644531 37.039062 26.644531 37.429688 C 26.644531 37.824219 26.546875 38.078125 26.355469 38.257812 C 26.167969 38.441406 25.894531 38.546875 25.476562 38.546875 L 24.515625 38.546875 Z M 24.515625 36.324219 "/>
<path style=" stroke:none;fill-rule:nonzero;fill:rgb(100%,100%,100%);fill-opacity:1;" d="M 29.054688 34.886719 L 29.054688 43.003906 L 31.417969 43.003906 C 32.890625 43.003906 34.019531 42.691406 34.773438 42.015625 C 35.527344 41.335938 35.890625 40.285156 35.890625 38.9375 C 35.890625 37.597656 35.53125 36.546875 34.78125 35.875 C 34.027344 35.195312 32.898438 34.886719 31.417969 34.886719 Z M 30.65625 36.324219 L 31.570312 36.324219 C 32.550781 36.324219 33.210938 36.550781 33.605469 36.945312 L 33.609375 36.945312 C 34.011719 37.335938 34.234375 37.980469 34.234375 38.9375 C 34.234375 39.902344 34.011719 40.550781 33.609375 40.945312 L 33.605469 40.945312 C 33.210938 41.339844 32.550781 41.5625 31.570312 41.5625 L 30.65625 41.5625 Z M 30.65625 36.324219 "/>
<path style=" stroke:none;fill-rule:nonzero;fill:rgb(100%,100%,100%);fill-opacity:1;" d="M 36.886719 34.886719 L 36.886719 43.003906 L 38.488281 43.003906 L 38.488281 39.414062 L 41.429688 39.414062 L 41.429688 37.957031 L 38.488281 37.957031 L 38.488281 36.347656 L 41.75 36.347656 L 41.75 34.886719 Z M 36.886719 34.886719 "/>
</g>
</svg>
