<?xml version="1.0" encoding="UTF-8"?>
<svg xmlns="http://www.w3.org/2000/svg" xmlns:xlink="http://www.w3.org/1999/xlink" width="48pt" height="48pt" viewBox="0 0 48 48" version="1.1">
<defs>
<clipPath id="clip1">
  <rect width="48" height="48"/>
</clipPath>
<g id="surface6" clip-path="url(#clip1)">
<path style=" stroke:none;fill-rule:nonzero;fill:rgb(100%,100%,100%);fill-opacity:1;" d="M 31.234375 20.710938 L 29.921875 20.710938 L 29.921875 18.078125 L 31.238281 18.078125 L 31.238281 14.128906 L 35.179688 14.128906 L 35.179688 18.078125 L 37.8125 18.078125 L 37.820312 20.710938 L 35.1875 20.710938 L 35.179688 27.136719 C 35.179688 27.8125 35.316406 28.605469 37.15625 28.605469 L 37.816406 28.605469 L 37.816406 32.550781 C 37.816406 32.550781 33.605469 32.558594 33.605469 32.550781 C 31.941406 32.554688 31.234375 30.976562 31.238281 30.160156 C 31.238281 28.257812 31.238281 20.710938 31.234375 20.710938 Z M 31.234375 20.710938 "/>
</g>
<clipPath id="clip2">
  <rect width="48" height="48"/>
</clipPath>
<g id="surface9" clip-path="url(#clip2)">
<path style=" stroke:none;fill-rule:nonzero;fill:rgb(100%,100%,100%);fill-opacity:1;" d="M 13.980469 10.183594 C 12.082031 10.183594 10.179688 12.027344 10.179688 13.867188 L 10.179688 28.867188 C 10.179688 30.710938 12.082031 32.550781 13.980469 32.550781 L 17.867188 32.550781 C 17.929688 32.5625 18.015625 32.519531 18.078125 32.625 L 18.078125 35.949219 C 18.078125 36.871094 19.226562 37.8125 19.976562 37.8125 C 19.976562 37.824219 24.660156 37.8125 24.660156 37.8125 L 24.652344 33.871094 L 23.777344 33.871094 C 21.878906 33.871094 22.035156 33.269531 22.035156 32.59375 C 22.035156 32.554688 22.023438 32.589844 22.015625 32.558594 C 22.019531 32.554688 22.027344 32.554688 22.035156 32.550781 L 23.488281 32.550781 C 25.386719 32.550781 27.289062 30.710938 27.289062 28.867188 L 27.289062 13.867188 C 27.289062 12.027344 25.386719 10.183594 23.488281 10.183594 Z M 16.890625 14.128906 L 20.578125 14.128906 C 22.109375 14.128906 23.339844 15.339844 23.339844 16.84375 L 23.339844 25.890625 C 23.339844 27.394531 22.109375 28.605469 20.578125 28.605469 L 16.890625 28.605469 C 15.359375 28.605469 14.128906 27.394531 14.128906 25.890625 L 14.128906 16.84375 C 14.128906 15.339844 15.359375 14.128906 16.890625 14.128906 Z M 16.890625 14.128906 "/>
</g>
</defs>
<g id="surface1">
<path style=" stroke:none;fill-rule:evenodd;fill:rgb(49.411765%,76.078431%,25.882353%);fill-opacity:1;" d="M 11.210938 2.847656 L 36.789062 2.847656 C 41.410156 2.847656 45.152344 6.589844 45.152344 11.210938 L 45.152344 36.789062 C 45.152344 41.410156 41.410156 45.152344 36.789062 45.152344 L 11.210938 45.152344 C 6.589844 45.152344 2.847656 41.410156 2.847656 36.789062 L 2.847656 11.210938 C 2.847656 6.589844 6.589844 2.847656 11.210938 2.847656 Z M 11.210938 2.847656 "/>
<use xlink:href="#surface6"/>
<use xlink:href="#surface9"/>
</g>
</svg>
