<?xml version="1.0" encoding="UTF-8"?>
<svg xmlns="http://www.w3.org/2000/svg" xmlns:xlink="http://www.w3.org/1999/xlink" width="48pt" height="48pt" viewBox="0 0 48 48" version="1.1">
<g id="surface1">
<path style=" stroke:none;fill-rule:evenodd;fill:rgb(94.901961%,94.901961%,94.901961%);fill-opacity:1;" d="M 2.785156 36.808594 L 2.785156 11.230469 C 2.785156 6.613281 6.53125 2.867188 11.148438 2.867188 L 36.726562 2.867188 C 41.347656 2.867188 45.089844 6.613281 45.089844 11.230469 L 45.089844 36.808594 C 45.089844 41.429688 41.347656 45.171875 36.726562 45.171875 L 11.148438 45.171875 C 6.53125 45.171875 2.785156 41.429688 2.785156 36.808594 Z M 2.785156 36.808594 "/>
<path style=" stroke:none;fill-rule:evenodd;fill:rgb(99.607843%,80.392157%,21.960784%);fill-opacity:1;" d="M 21.796875 2.867188 L 20.179688 3.472656 L 15.160156 5.359375 L 17.039062 10.375 L 22.058594 8.496094 L 27.074219 6.613281 L 32.09375 4.730469 L 36.914062 2.921875 C 36.824219 2.917969 36.746094 2.867188 36.65625 2.867188 Z M 21.796875 2.867188 "/>
<path style=" stroke:none;fill-rule:evenodd;fill:rgb(55.686275%,73.72549%,82.745098%);fill-opacity:1;" d="M 20.367188 18.800781 L 25.441406 20.515625 L 30.519531 22.234375 L 35.597656 23.949219 L 37.3125 18.871094 L 32.238281 17.15625 L 33.953125 12.078125 L 28.875 10.359375 L 27.160156 15.4375 L 22.085938 13.722656 Z M 20.367188 18.800781 "/>
<path style=" stroke:none;fill-rule:evenodd;fill:rgb(80.784314%,30.588235%,30.980392%);fill-opacity:1;" d="M 5.917969 9.75 L 9.210938 13.976562 L 12.503906 18.207031 L 16.730469 14.917969 L 13.441406 10.6875 L 10.148438 6.457031 Z M 5.917969 9.75 "/>
<path style=" stroke:none;fill-rule:evenodd;fill:rgb(80.784314%,30.588235%,30.980392%);fill-opacity:1;" d="M 18.65625 45.300781 L 18.65625 40.046875 L 7.941406 40.046875 L 7.941406 44.566406 C 8.941406 44.996094 10.003906 45.300781 11.167969 45.300781 Z M 18.65625 45.300781 "/>
<path style=" stroke:none;fill-rule:evenodd;fill:rgb(18.823529%,64.313725%,27.45098%);fill-opacity:1;" d="M 24.015625 45.300781 L 24.015625 34.6875 L 13.300781 34.6875 L 13.300781 40.046875 L 18.65625 40.046875 L 18.65625 45.300781 Z M 24.015625 45.300781 "/>
<path style=" stroke:none;fill-rule:evenodd;fill:rgb(100%,70.588235%,14.901961%);fill-opacity:1;" d="M 29.375 45.300781 L 29.375 29.328125 L 24.015625 29.328125 L 24.015625 45.300781 Z M 29.375 45.300781 "/>
<path style=" stroke:none;fill-rule:evenodd;fill:rgb(80.784314%,13.333333%,30.980392%);fill-opacity:1;" d="M 40.089844 44.589844 L 40.089844 34.6875 L 29.375 34.6875 L 29.375 45.300781 L 36.75 45.300781 C 37.941406 45.300781 39.066406 45.035156 40.089844 44.589844 Z M 40.089844 44.589844 "/>
<path style=" stroke:none;fill-rule:evenodd;fill:rgb(99.607843%,80.392157%,21.960784%);fill-opacity:1;" d="M 45.109375 34.6875 L 40.09375 34.6875 L 40.09375 44.585938 C 43.046875 43.296875 45.109375 40.375 45.109375 36.9375 Z M 45.109375 34.6875 "/>
<path style=" stroke:none;fill-rule:evenodd;fill:rgb(30.196078%,30.196078%,30.196078%);fill-opacity:1;" d="M 40.09375 34.6875 L 40.089844 34.6875 L 40.089844 44.589844 C 40.089844 44.589844 40.09375 44.585938 40.09375 44.585938 Z M 40.09375 34.6875 "/>
<path style=" stroke:none;fill-rule:evenodd;fill:rgb(3.137255%,56.470588%,83.529412%);fill-opacity:1;" d="M 45.109375 23.964844 L 40.09375 23.964844 L 40.09375 29.328125 L 29.375 29.328125 L 29.375 34.6875 L 45.109375 34.6875 Z M 45.109375 23.964844 "/>
<path style=" stroke:none;fill-rule:evenodd;fill:rgb(18.823529%,64.313725%,93.333333%);fill-opacity:1;" d="M 7.941406 44.566406 L 7.941406 40.046875 L 3.433594 40.046875 C 4.257812 42.109375 5.90625 43.699219 7.941406 44.566406 Z M 7.941406 44.566406 "/>
<path style=" stroke:none;fill-rule:evenodd;fill:rgb(80.784314%,30.588235%,30.980392%);fill-opacity:1;" d="M 3.433594 40.046875 L 13.300781 40.046875 L 13.300781 34.6875 L 7.941406 34.6875 L 7.941406 29.328125 L 2.804688 29.328125 L 2.804688 36.9375 C 2.804688 38.042969 3.046875 39.082031 3.433594 40.046875 Z M 3.433594 40.046875 "/>
</g>
</svg>
