<?xml version="1.0" encoding="UTF-8"?>
<svg xmlns="http://www.w3.org/2000/svg" xmlns:xlink="http://www.w3.org/1999/xlink" width="48pt" height="48pt" viewBox="0 0 48 48" version="1.1">
<g id="surface1">
<path style=" stroke:none;fill-rule:evenodd;fill:rgb(100%,67.45098%,16.078431%);fill-opacity:1;" d="M 45.152344 24.007812 L 23.988281 24.007812 L 42.695312 42.71875 C 44.214844 41.207031 45.152344 39.109375 45.152344 36.789062 Z M 45.152344 24.007812 "/>
<path style=" stroke:none;fill-rule:evenodd;fill:rgb(45.098039%,100%,26.666667%);fill-opacity:1;" d="M 23.988281 24.007812 L 23.988281 45.152344 L 36.789062 45.152344 C 39.097656 45.152344 41.183594 44.222656 42.695312 42.71875 Z M 23.988281 24.007812 "/>
<path style=" stroke:none;fill-rule:evenodd;fill:rgb(80%,80%,80%);fill-opacity:1;" d="M 24.007812 24.007812 L 23.988281 23.988281 L 23.988281 24.007812 Z M 24.007812 24.007812 "/>
<path style=" stroke:none;fill-rule:evenodd;fill:rgb(50.196078%,100%,89.803922%);fill-opacity:1;" d="M 23.988281 23.988281 L 5.28125 42.695312 C 6.792969 44.214844 8.886719 45.152344 11.210938 45.152344 L 23.988281 45.152344 Z M 23.988281 23.988281 "/>
<path style=" stroke:none;fill-rule:evenodd;fill:rgb(32.54902%,74.117647%,100%);fill-opacity:1;" d="M 23.96875 24.007812 L 2.847656 24.007812 L 2.847656 36.789062 C 2.847656 39.097656 3.777344 41.183594 5.28125 42.695312 Z M 23.96875 24.007812 "/>
<path style=" stroke:none;fill-rule:evenodd;fill:rgb(34.901961%,39.215686%,100%);fill-opacity:1;" d="M 23.96875 24.007812 L 23.988281 23.988281 L 5.292969 5.292969 C 5.292969 5.292969 5.292969 5.289062 5.289062 5.292969 C 3.78125 6.800781 2.847656 8.890625 2.847656 11.210938 L 2.847656 24.007812 Z M 23.96875 24.007812 "/>
<path style=" stroke:none;fill-rule:evenodd;fill:rgb(100%,44.705882%,12.941176%);fill-opacity:1;" d="M 42.707031 5.289062 L 24 24 L 24.007812 24.007812 L 45.152344 24.007812 L 45.152344 11.207031 C 45.152344 8.890625 44.222656 6.800781 42.710938 5.289062 C 42.707031 5.289062 42.707031 5.292969 42.707031 5.289062 Z M 42.707031 5.289062 "/>
<path style=" stroke:none;fill-rule:evenodd;fill:rgb(100%,21.176471%,21.176471%);fill-opacity:1;" d="M 23.988281 2.847656 L 23.988281 23.988281 L 24 24 L 42.707031 5.289062 C 41.195312 3.78125 39.105469 2.847656 36.789062 2.847656 Z M 23.988281 2.847656 "/>
<path style=" stroke:none;fill-rule:evenodd;fill:rgb(90.196078%,27.843137%,100%);fill-opacity:1;" d="M 23.988281 23.988281 L 23.988281 2.847656 L 11.210938 2.847656 C 8.894531 2.847656 6.804688 3.78125 5.292969 5.289062 Z M 23.988281 23.988281 "/>
<path style=" stroke:none;fill-rule:nonzero;fill:rgb(100%,100%,100%);fill-opacity:1;" d="M 33.53125 24 C 33.53125 29.265625 29.265625 33.53125 24 33.53125 C 18.734375 33.53125 14.464844 29.265625 14.464844 24 C 14.464844 18.734375 18.734375 14.464844 24 14.464844 C 29.265625 14.464844 33.53125 18.734375 33.53125 24 Z M 33.53125 24 "/>
</g>
</svg>
