<?xml version="1.0" encoding="UTF-8"?>
<svg xmlns="http://www.w3.org/2000/svg" xmlns:xlink="http://www.w3.org/1999/xlink" width="48pt" height="48pt" viewBox="0 0 48 48" version="1.1">
<defs>
<filter id="alpha" filterUnits="objectBoundingBox" x="0%" y="0%" width="100%" height="100%">
  <feColorMatrix type="matrix" in="SourceGraphic" values="0 0 0 0 1 0 0 0 0 1 0 0 0 0 1 0 0 0 1 0"/>
</filter>
<mask id="mask0">
  <g filter="url(#alpha)">
<rect x="0" y="0" width="48" height="48" style="fill:rgb(0%,0%,0%);fill-opacity:0.988235;stroke:none;"/>
  </g>
</mask>
<clipPath id="clip1">
  <rect width="48" height="48"/>
</clipPath>
<g id="surface6" clip-path="url(#clip1)">
<path style="fill:none;stroke-width:0.109435;stroke-linecap:round;stroke-linejoin:bevel;stroke:rgb(100%,100%,100%);stroke-opacity:0.552941;stroke-miterlimit:4;" d="M 16.214066 7.206612 C 20.870441 7.310087 24.714233 10.940843 25.3503 15.442005 " transform="matrix(1.283523,0,0,1.283523,3.41935,3.570464)"/>
</g>
</defs>
<g id="surface1">
<path style=" stroke:none;fill-rule:evenodd;fill:rgb(0%,49.411765%,100%);fill-opacity:1;" d="M 11.210938 2.847656 L 36.789062 2.847656 C 41.410156 2.847656 45.152344 6.589844 45.152344 11.210938 L 45.152344 36.789062 C 45.152344 41.410156 41.410156 45.152344 36.789062 45.152344 L 11.210938 45.152344 C 6.589844 45.152344 2.847656 41.410156 2.847656 36.789062 L 2.847656 11.210938 C 2.847656 6.589844 6.589844 2.847656 11.210938 2.847656 Z M 11.210938 2.847656 "/>
<path style=" stroke:none;fill-rule:nonzero;fill:rgb(32.156863%,65.882353%,91.764706%);fill-opacity:1;" d="M 23.382812 37.011719 C 20.730469 36.898438 18.222656 35.917969 16.148438 34.191406 C 15.804688 33.90625 15.175781 33.289062 14.859375 32.925781 C 13.578125 31.476562 12.664062 29.730469 12.199219 27.863281 C 11.878906 26.574219 11.777344 25.28125 11.882812 23.9375 C 11.910156 23.605469 11.960938 23.171875 11.980469 23.15625 C 11.984375 23.148438 12.050781 23.160156 12.128906 23.179688 C 12.203125 23.199219 12.359375 23.214844 12.480469 23.214844 L 12.695312 23.214844 L 12.914062 23.433594 L 13.128906 23.652344 L 13.554688 23.652344 L 13.5625 24.449219 L 13.566406 25.246094 L 13.574219 24.449219 L 13.578125 23.652344 L 14.007812 23.867188 C 14.429688 24.078125 14.445312 24.089844 14.644531 24.292969 L 14.851562 24.5 L 15.734375 24.5 L 16.132812 24.9375 L 17.023438 24.9375 L 17.023438 25.363281 L 16.796875 25.589844 L 16.570312 25.820312 L 16.359375 26.457031 L 16.148438 27.089844 L 16.367188 27.535156 L 16.589844 27.980469 L 17.007812 28.398438 L 17.421875 28.816406 L 18.308594 28.816406 L 18.308594 29.691406 L 18.746094 30.5625 L 19.179688 31.433594 L 19.179688 32.308594 L 19.390625 32.726562 C 19.5625 33.074219 19.636719 33.253906 19.816406 33.789062 L 20.03125 34.429688 L 20.253906 34.652344 L 20.476562 34.878906 L 21.347656 34.878906 L 21.128906 34.65625 C 20.910156 34.433594 20.902344 34.421875 20.695312 34.007812 L 20.484375 33.582031 L 20.695312 32.9375 L 20.910156 32.289062 L 21.34375 32.074219 L 21.773438 31.859375 L 21.773438 30.5625 L 22.648438 30.125 L 22.648438 29.253906 L 23.507812 28.824219 L 23.722656 28.171875 L 23.9375 27.523438 L 23.507812 26.65625 L 23.058594 26.429688 C 22.621094 26.210938 22.609375 26.199219 22.40625 25.996094 L 22.199219 25.789062 L 21.773438 25.789062 L 21.558594 25.355469 L 21.34375 24.925781 L 20.914062 24.714844 L 20.488281 24.5 L 19.605469 24.5 L 19.183594 24.921875 L 18.96875 24.492188 L 18.757812 24.066406 L 17.882812 24.066406 L 17.449219 24.5 L 16.585938 24.5 L 16.585938 24.054688 L 16.148438 23.617188 L 16.148438 23.191406 L 15.722656 23.191406 L 15.519531 23.398438 C 15.40625 23.511719 15.308594 23.605469 15.300781 23.605469 C 15.292969 23.605469 15.195312 23.421875 15.082031 23.191406 L 14.878906 22.78125 L 15.09375 22.5625 L 15.3125 22.34375 L 16.5625 22.34375 L 17.003906 22.5625 L 17.441406 22.785156 L 17.886719 22.34375 L 18.328125 21.898438 L 18.75 20.195312 L 19.1875 19.753906 L 19.628906 19.3125 L 20.902344 19.3125 L 20.902344 18.886719 C 20.902344 18.65625 20.90625 18.464844 20.910156 18.464844 C 20.910156 18.464844 21.203125 18.5625 21.558594 18.679688 L 22.207031 18.894531 L 22.636719 18.460938 L 23.070312 18.027344 L 22.648438 18.027344 L 22.417969 17.574219 C 22.195312 17.132812 22.1875 17.117188 21.988281 16.917969 L 21.78125 16.714844 L 21.34375 16.933594 L 20.902344 17.15625 L 19.167969 17.15625 L 18.953125 17.582031 L 18.742188 18.011719 L 18.320312 17.589844 L 17.894531 17.589844 L 17.894531 16.730469 L 18.53125 16.519531 L 19.167969 16.304688 L 19.375 16.511719 C 19.488281 16.625 19.597656 16.71875 19.617188 16.71875 C 19.636719 16.71875 19.929688 16.625 20.269531 16.511719 L 20.890625 16.304688 L 21.332031 16.304688 C 21.574219 16.304688 21.773438 16.300781 21.773438 16.292969 C 21.773438 16.289062 21.679688 16.09375 21.566406 15.863281 C 21.363281 15.453125 21.351562 15.441406 21.136719 15.222656 L 20.914062 14.996094 L 20.039062 14.996094 L 19.828125 15.210938 C 19.621094 15.417969 19.609375 15.425781 19.179688 15.640625 L 18.746094 15.855469 L 18.519531 15.636719 C 18.304688 15.421875 18.28125 15.40625 17.894531 15.210938 L 17.492188 15.007812 L 17.273438 14.996094 L 17.058594 14.984375 L 17.261719 14.847656 C 18.945312 13.734375 20.855469 13.070312 22.921875 12.882812 C 23.332031 12.84375 24.457031 12.84375 24.875 12.882812 C 27.003906 13.070312 28.929688 13.738281 30.613281 14.863281 L 30.832031 15.007812 L 30.835938 15.652344 L 30.84375 16.292969 L 31.054688 16.507812 C 31.261719 16.71875 31.277344 16.726562 31.703125 16.941406 L 32.136719 17.160156 L 31.921875 17.375 L 31.703125 17.589844 L 30.832031 17.589844 L 30.40625 18.015625 L 30.40625 18.863281 L 30.195312 18.652344 L 29.980469 18.441406 L 29.109375 18.441406 L 28.890625 18.878906 L 28.675781 19.3125 L 28.890625 19.75 L 29.109375 20.1875 L 29.984375 20.1875 L 30.1875 19.976562 C 30.390625 19.773438 30.40625 19.765625 30.84375 19.542969 C 31.28125 19.324219 31.296875 19.3125 31.496094 19.109375 L 31.703125 18.898438 L 31.914062 19.320312 L 32.125 19.738281 L 32.128906 19.957031 L 32.128906 20.171875 L 32.351562 20.394531 L 32.570312 20.617188 L 33.007812 20.398438 L 33.445312 20.183594 L 32.585938 19.324219 L 32.800781 19.113281 L 33.011719 18.902344 L 33.441406 19.332031 L 33.875 19.761719 L 33.875 20.1875 L 34.296875 20.1875 L 34.515625 20.402344 L 34.734375 20.621094 L 35.222656 20.621094 L 35.273438 20.753906 C 35.363281 20.992188 35.457031 21.269531 35.539062 21.550781 C 35.582031 21.703125 35.625 21.84375 35.632812 21.867188 C 35.644531 21.90625 35.613281 21.90625 35.195312 21.90625 L 34.746094 21.90625 L 34.308594 21.691406 L 33.875 21.472656 L 33.429688 21.691406 C 33 21.90625 32.984375 21.917969 32.777344 22.121094 L 32.566406 22.332031 L 32.152344 22.125 C 31.746094 21.921875 31.734375 21.917969 31.515625 21.695312 L 31.292969 21.472656 L 29.96875 21.472656 L 29.535156 21.6875 L 29.097656 21.90625 L 28.234375 21.90625 L 28.023438 22.121094 L 27.8125 22.332031 L 27.8125 23.640625 L 27.59375 23.859375 L 27.375 24.074219 L 27.375 25.363281 L 27.59375 26.015625 L 27.8125 26.671875 L 28.238281 26.882812 L 28.664062 27.097656 L 29.558594 27.097656 L 29.992188 26.878906 L 30.429688 26.660156 L 31.257812 26.660156 L 31.691406 26.878906 L 32.128906 27.097656 L 32.128906 27.945312 L 32.347656 28.386719 L 32.570312 28.824219 L 31.703125 29.691406 L 32.132812 30.550781 L 32.566406 31.410156 L 32.566406 32.273438 L 32.832031 32.542969 L 33.101562 32.8125 L 33.042969 32.875 C 32.503906 33.472656 32.140625 33.824219 31.664062 34.222656 C 29.816406 35.757812 27.582031 36.703125 25.195312 36.957031 C 24.890625 36.988281 23.976562 37.039062 23.839844 37.03125 C 23.808594 37.03125 23.601562 37.019531 23.382812 37.011719 Z M 13.59375 25.691406 C 13.585938 25.671875 13.582031 25.679688 13.582031 25.703125 C 13.578125 25.730469 13.585938 25.742188 13.59375 25.734375 C 13.601562 25.726562 13.601562 25.707031 13.59375 25.691406 Z M 21.566406 20.402344 L 21.785156 20.183594 L 21.554688 19.960938 L 21.328125 19.738281 L 21.542969 19.960938 L 21.761719 20.1875 L 21.339844 20.609375 L 21.113281 20.390625 L 20.890625 20.175781 L 21.109375 20.398438 C 21.226562 20.519531 21.332031 20.621094 21.339844 20.621094 C 21.34375 20.621094 21.449219 20.523438 21.566406 20.402344 Z M 22.4375 19.972656 L 22.648438 19.757812 L 22.640625 19.53125 L 22.632812 19.300781 L 22.625 19.761719 L 22.417969 19.96875 L 22.210938 20.171875 L 21.992188 19.957031 L 21.773438 19.738281 L 21.765625 19.300781 L 21.757812 19.519531 L 21.75 19.734375 L 21.972656 19.960938 C 22.097656 20.085938 22.203125 20.1875 22.210938 20.1875 C 22.21875 20.1875 22.320312 20.089844 22.4375 19.972656 Z M 28.476562 17.808594 L 28.695312 17.589844 L 28.464844 17.367188 L 28.238281 17.144531 L 28.453125 17.367188 L 28.671875 17.589844 L 28.460938 17.804688 L 28.25 18.015625 L 28.042969 17.808594 L 27.835938 17.605469 L 27.832031 17.375 L 27.824219 17.144531 L 27.816406 17.371094 L 27.808594 17.601562 L 28.023438 17.8125 C 28.140625 17.929688 28.242188 18.027344 28.25 18.027344 C 28.253906 18.027344 28.359375 17.929688 28.476562 17.808594 Z M 29.589844 17.890625 C 29.609375 17.851562 29.621094 17.820312 29.617188 17.820312 C 29.609375 17.820312 29.589844 17.851562 29.570312 17.890625 C 29.550781 17.929688 29.539062 17.957031 29.542969 17.957031 C 29.550781 17.957031 29.570312 17.929688 29.589844 17.890625 Z M 29.730469 17.636719 C 29.75 17.597656 29.757812 17.570312 29.753906 17.570312 C 29.746094 17.570312 29.726562 17.597656 29.707031 17.636719 C 29.6875 17.675781 29.675781 17.707031 29.683594 17.707031 C 29.6875 17.707031 29.710938 17.675781 29.730469 17.636719 Z M 28.914062 17.375 L 28.695312 17.15625 L 29.113281 16.738281 L 29.53125 16.945312 C 29.757812 17.0625 29.953125 17.15625 29.964844 17.152344 C 29.972656 17.152344 29.785156 17.054688 29.546875 16.933594 L 29.113281 16.714844 L 28.894531 16.933594 L 28.675781 17.15625 L 28.890625 17.375 C 29.011719 17.492188 29.113281 17.589844 29.121094 17.589844 C 29.125 17.589844 29.035156 17.492188 28.914062 17.375 Z M 29.855469 17.40625 C 29.882812 17.355469 29.898438 17.316406 29.890625 17.316406 C 29.882812 17.316406 29.859375 17.355469 29.832031 17.40625 C 29.808594 17.457031 29.789062 17.5 29.796875 17.5 C 29.804688 17.5 29.828125 17.457031 29.855469 17.40625 Z M 29.964844 17.1875 C 29.957031 17.183594 29.945312 17.195312 29.9375 17.21875 C 29.925781 17.25 29.925781 17.253906 29.949219 17.230469 C 29.964844 17.214844 29.972656 17.195312 29.964844 17.1875 Z M 29.964844 17.1875 "/>
<path style="fill:none;stroke-width:1.069;stroke-linecap:butt;stroke-linejoin:miter;stroke:rgb(100%,100%,100%);stroke-opacity:1;stroke-miterlimit:4.5;" d="M 25.408124 6.04404 C 25.021615 9.33698 25.170741 12.529488 25.356387 15.691563 C 25.386821 15.977641 25.402038 16.285022 25.402038 16.595447 C 25.402038 21.796588 21.183909 26.011673 15.985812 26.011673 C 10.784671 26.011673 6.569586 21.796588 6.569586 16.595447 C 6.569586 11.39735 10.784671 7.182265 16.067983 7.170092 C 19.333533 7.057486 22.629516 6.917491 25.408124 6.04404 Z M 25.408124 6.04404 " transform="matrix(1.283523,0,0,1.283523,3.41935,3.570464)"/>
<path style="fill:none;stroke-width:0.10965;stroke-linecap:butt;stroke-linejoin:miter;stroke:rgb(100%,100%,100%);stroke-opacity:0.74902;stroke-miterlimit:4;" d="M 6.621324 15.256359 C 9.673837 6.582719 23.70383 8.098323 25.335083 15.703736 " transform="matrix(1.283523,0,0,1.283523,3.41935,3.570464)"/>
<path style="fill:none;stroke-width:1.069;stroke-linecap:butt;stroke-linejoin:miter;stroke:rgb(100%,100%,100%);stroke-opacity:0.988235;stroke-miterlimit:4.5;" d="M 9.348195 23.321323 C 12.677655 24.365203 21.010437 17.417161 23.429926 10.849541 C 25.265085 5.858394 25.109873 6.713584 25.408124 6.04404 " transform="matrix(1.283523,0,0,1.283523,3.41935,3.570464)"/>
<path style="fill:none;stroke-width:0.10965;stroke-linecap:butt;stroke-linejoin:miter;stroke:rgb(100%,100%,100%);stroke-opacity:0.647059;stroke-dasharray:0.657899,0.657899;stroke-miterlimit:4;" d="M 8.943425 22.91351 C 8.772995 19.614483 12.023328 15.712866 15.787992 12.699918 C 22.806032 7.081834 25.940716 6.177949 25.408124 6.04404 " transform="matrix(1.283523,0,0,1.283523,3.41935,3.570464)"/>
<path style="fill:none;stroke-width:0.10965;stroke-linecap:butt;stroke-linejoin:miter;stroke:rgb(100%,100%,100%);stroke-opacity:0.647059;stroke-dasharray:0.657899,0.657899;stroke-miterlimit:4;" d="M 15.355832 26.01776 C 26.735039 24.894752 26.214621 10.855628 18.931806 7.736161 " transform="matrix(1.283523,0,0,1.283523,3.41935,3.570464)"/>
<path style="fill:none;stroke-width:0.10965;stroke-linecap:butt;stroke-linejoin:miter;stroke:rgb(100%,100%,100%);stroke-opacity:0.647059;stroke-dasharray:0.657899,0.657899;stroke-miterlimit:4;" d="M 10.102954 9.221331 C 13.931529 9.014381 25.11596 18.044098 22.46213 23.379147 " transform="matrix(1.283523,0,0,1.283523,3.41935,3.570464)"/>
<path style="fill:none;stroke-width:0.10965;stroke-linecap:butt;stroke-linejoin:miter;stroke:rgb(100%,100%,100%);stroke-opacity:0.619608;stroke-miterlimit:4;" d="M 9.001249 10.234778 C 7.735202 15.606348 19.449181 25.756029 22.46213 23.379147 " transform="matrix(1.283523,0,0,1.283523,3.41935,3.570464)"/>
<path style="fill:none;stroke-width:0.10965;stroke-linecap:butt;stroke-linejoin:miter;stroke:rgb(100%,100%,100%);stroke-opacity:0.647059;stroke-dasharray:0.657899,0.657899;stroke-miterlimit:4;" d="M 6.691322 18.053228 C 9.25385 25.080398 23.46036 26.477311 25.35943 16.945436 " transform="matrix(1.283523,0,0,1.283523,3.41935,3.570464)"/>
<use xlink:href="#surface6" mask="url(#mask0)"/>
<path style=" stroke:none;fill-rule:nonzero;fill:rgb(100%,100%,100%);fill-opacity:1;" d="M 15.417969 33.503906 C 29.605469 30.425781 31.757812 20.25 36.03125 11.328125 C 35.929688 19.867188 36.988281 30.222656 33.101562 32.8125 C 25.195312 39.492188 20.109375 37.132812 15.417969 33.503906 Z M 15.417969 33.503906 "/>
<path style=" stroke:none;fill-rule:nonzero;fill:rgb(100%,100%,100%);fill-opacity:1;" d="M 15.417969 33.503906 C 30.609375 31.707031 32.046875 19.972656 36.03125 11.328125 C 29.082031 13.585938 21.320312 11.585938 17.492188 15.007812 C 9.164062 21.324219 11.914062 30.425781 15.417969 33.503906 Z M 15.417969 33.503906 "/>
<path style=" stroke:none;fill-rule:nonzero;fill:rgb(60%,60%,60%);fill-opacity:1;" d="M 20.4375 27.675781 L 28.136719 27.675781 L 28.136719 33.734375 L 20.4375 33.734375 Z M 20.4375 27.675781 "/>
<path style=" stroke:none;fill-rule:nonzero;fill:rgb(30.196078%,30.196078%,30.196078%);fill-opacity:1;" d="M 20.273438 16.230469 L 28.300781 16.230469 C 29.257812 16.230469 30.03125 17.003906 30.03125 17.957031 L 30.03125 27.175781 C 30.03125 28.128906 29.257812 28.902344 28.300781 28.902344 L 20.273438 28.902344 C 19.316406 28.902344 18.542969 28.128906 18.542969 27.175781 L 18.542969 17.957031 C 18.542969 17.003906 19.316406 16.230469 20.273438 16.230469 Z M 20.273438 16.230469 "/>
<path style=" stroke:none;fill-rule:nonzero;fill:rgb(30.196078%,30.196078%,30.196078%);fill-opacity:1;" d="M 21.65625 31.46875 L 23.707031 31.46875 L 23.707031 32.636719 L 21.65625 32.636719 Z M 21.65625 31.46875 "/>
<path style=" stroke:none;fill-rule:nonzero;fill:rgb(30.196078%,30.196078%,30.196078%);fill-opacity:1;" d="M 24.867188 31.46875 L 26.917969 31.46875 L 26.917969 32.636719 L 24.867188 32.636719 Z M 24.867188 31.46875 "/>
</g>
</svg>
