<?xml version="1.0" encoding="UTF-8"?>
<svg xmlns="http://www.w3.org/2000/svg" xmlns:xlink="http://www.w3.org/1999/xlink" width="48pt" height="48pt" viewBox="0 0 48 48" version="1.1">
<defs>
<clipPath id="clip1">
  <rect width="48" height="48"/>
</clipPath>
<g id="surface6" clip-path="url(#clip1)">
<path style=" stroke:none;fill-rule:nonzero;fill:rgb(100%,100%,100%);fill-opacity:1;" d="M 6 24.550781 C 6 15.453125 10.703125 10.765625 13.457031 10.765625 C 16.207031 10.765625 16.660156 12.125 16.660156 14.355469 C 16.660156 18.691406 11.554688 16.910156 11.554688 25.042969 C 11.554688 27.734375 12.738281 31.066406 15.808594 31.066406 C 18.273438 31.066406 19.179688 28.128906 20.429688 22.871094 C 22.5 14.964844 24.601562 9 31.683594 9 C 38.5625 9 42 14.789062 42 23.882812 C 42 32.980469 36.671875 38.769531 33.921875 38.769531 C 31.167969 38.769531 30.464844 37.671875 30.464844 35.4375 C 30.464844 31.105469 36.246094 31.726562 36.246094 23.59375 C 36.246094 20.902344 35.066406 16.933594 31.992188 16.933594 C 29.53125 16.933594 28.660156 17.105469 27.148438 22.871094 C 26.324219 29.027344 24.367188 39 16.886719 39 C 10.003906 39 6 33.644531 6 24.550781 Z M 6 24.550781 "/>
</g>
</defs>
<g id="surface1">
<path style=" stroke:none;fill-rule:evenodd;fill:rgb(90.588235%,29.803922%,23.529412%);fill-opacity:1;" d="M 11.210938 2.847656 L 36.789062 2.847656 C 41.410156 2.847656 45.152344 6.589844 45.152344 11.210938 L 45.152344 36.789062 C 45.152344 41.410156 41.410156 45.152344 36.789062 45.152344 L 11.210938 45.152344 C 6.589844 45.152344 2.847656 41.410156 2.847656 36.789062 L 2.847656 11.210938 C 2.847656 6.589844 6.589844 2.847656 11.210938 2.847656 Z M 11.210938 2.847656 "/>
<use xlink:href="#surface6"/>
</g>
</svg>
