<?xml version="1.0" encoding="UTF-8"?>
<svg xmlns="http://www.w3.org/2000/svg" xmlns:xlink="http://www.w3.org/1999/xlink" width="48pt" height="48pt" viewBox="0 0 48 48" version="1.1">
<defs>
<clipPath id="clip1">
  <rect width="48" height="48"/>
</clipPath>
<g id="surface6" clip-path="url(#clip1)">
<path style=" stroke:none;fill-rule:nonzero;fill:rgb(100%,66.27451%,17.254902%);fill-opacity:1;" d="M 17.25 15.75 L 17.25 17.25 L 21.75 17.25 L 21.75 18.75 L 15.75 18.75 L 15.75 23.25 L 14.25 23.25 L 14.25 18.75 L 12.75 18.75 L 12.75 29.25 L 14.25 29.25 L 14.25 24.75 L 15.75 24.75 L 15.75 29.25 L 18.75 32.25 L 28.5 32.25 L 30 30.75 L 32.25 30.75 L 32.25 32.25 L 33.75 32.25 L 35.25 30.75 L 35.25 21.75 L 33.75 20.25 L 32.25 20.25 L 32.25 21.75 L 30.9375 21.75 L 27.9375 18.75 L 23.25 18.75 L 23.25 17.25 L 27.75 17.25 L 27.75 15.75 Z M 17.25 20.25 L 27 20.25 L 30 23.25 L 33.75 23.25 L 33.75 29.25 L 29.25 29.25 L 27.75 30.75 L 19.6875 30.75 L 17.25 28.199219 Z M 17.25 20.25 "/>
</g>
<clipPath id="clip2">
  <rect width="48" height="48"/>
</clipPath>
<g id="surface9" clip-path="url(#clip2)">
<path style=" stroke:none;fill-rule:evenodd;fill:rgb(24.705882%,57.254902%,90.588235%);fill-opacity:1;" d="M 43.027344 34.0625 C 43.027344 39.03125 38.996094 43.0625 34.027344 43.0625 C 29.054688 43.0625 25.027344 39.03125 25.027344 34.0625 C 25.027344 29.09375 29.054688 25.0625 34.027344 25.0625 C 38.996094 25.0625 43.027344 29.09375 43.027344 34.0625 Z M 43.027344 34.0625 "/>
</g>
<clipPath id="clip3">
  <rect width="48" height="48"/>
</clipPath>
<g id="surface12" clip-path="url(#clip3)">
<path style=" stroke:none;fill-rule:nonzero;fill:rgb(100%,100%,100%);fill-opacity:1;" d="M 32.902344 29.5625 L 32.800781 30.746094 C 32.425781 30.886719 32.078125 31.089844 31.769531 31.34375 L 30.691406 30.839844 L 29.566406 32.785156 L 30.542969 33.464844 C 30.507812 33.664062 30.492188 33.863281 30.492188 34.0625 C 30.492188 34.261719 30.507812 34.464844 30.542969 34.660156 L 29.566406 35.339844 L 30.691406 37.285156 L 31.765625 36.78125 C 32.074219 37.035156 32.425781 37.238281 32.800781 37.375 L 32.902344 38.5625 L 35.152344 38.5625 L 35.25 37.378906 C 35.625 37.238281 35.976562 37.035156 36.285156 36.78125 L 37.359375 37.285156 L 38.484375 35.339844 L 37.507812 34.660156 C 37.542969 34.460938 37.5625 34.261719 37.5625 34.0625 C 37.5625 33.863281 37.542969 33.660156 37.511719 33.464844 L 38.484375 32.785156 L 37.359375 30.839844 L 36.285156 31.34375 C 35.976562 31.089844 35.625 30.886719 35.25 30.75 L 35.152344 29.5625 Z M 34.027344 32.777344 C 34.734375 32.777344 35.3125 33.351562 35.3125 34.0625 C 35.3125 34.773438 34.734375 35.347656 34.027344 35.347656 C 33.316406 35.347656 32.738281 34.773438 32.738281 34.0625 C 32.738281 33.351562 33.316406 32.777344 34.027344 32.777344 Z M 34.027344 32.777344 "/>
</g>
</defs>
<g id="surface1">
<path style=" stroke:none;fill-rule:evenodd;fill:rgb(30.980392%,30.980392%,30.980392%);fill-opacity:1;" d="M 11.210938 2.847656 L 36.789062 2.847656 C 41.410156 2.847656 45.152344 6.589844 45.152344 11.210938 L 45.152344 36.789062 C 45.152344 41.410156 41.410156 45.152344 36.789062 45.152344 L 11.210938 45.152344 C 6.589844 45.152344 2.847656 41.410156 2.847656 36.789062 L 2.847656 11.210938 C 2.847656 6.589844 6.589844 2.847656 11.210938 2.847656 Z M 11.210938 2.847656 "/>
<use xlink:href="#surface6"/>
<use xlink:href="#surface9"/>
<use xlink:href="#surface12"/>
</g>
</svg>
