<?xml version="1.0" encoding="UTF-8"?>
<svg xmlns="http://www.w3.org/2000/svg" xmlns:xlink="http://www.w3.org/1999/xlink" width="48pt" height="48pt" viewBox="0 0 48 48" version="1.1">
<g id="surface1">
<path style=" stroke:none;fill-rule:evenodd;fill:rgb(32.941176%,50.588235%,77.254902%);fill-opacity:1;" d="M 11.210938 2.847656 L 36.789062 2.847656 C 41.410156 2.847656 45.152344 6.589844 45.152344 11.210938 L 45.152344 36.789062 C 45.152344 41.410156 41.410156 45.152344 36.789062 45.152344 L 11.210938 45.152344 C 6.589844 45.152344 2.847656 41.410156 2.847656 36.789062 L 2.847656 11.210938 C 2.847656 6.589844 6.589844 2.847656 11.210938 2.847656 Z M 11.210938 2.847656 "/>
<path style=" stroke:none;fill-rule:nonzero;fill:rgb(63.137255%,74.117647%,90.980392%);fill-opacity:1;" d="M 20.273438 10.34375 C 16.738281 10.34375 13.730469 12.488281 12.433594 15.527344 C 9.140625 16.011719 6.617188 18.796875 6.617188 22.195312 C 6.617188 25.933594 9.675781 28.964844 13.445312 28.964844 L 27.957031 28.964844 C 31.257812 28.964844 33.933594 26.3125 33.933594 23.039062 C 33.933594 20 31.628906 17.507812 28.652344 17.167969 C 27.875 13.285156 24.417969 10.34375 20.273438 10.34375 Z M 20.273438 10.34375 "/>
<path style=" stroke:none;fill-rule:nonzero;fill:rgb(92.54902%,92.54902%,92.54902%);fill-opacity:1;" d="M 27.726562 19.035156 C 24.1875 19.035156 21.179688 21.179688 19.882812 24.21875 C 16.589844 24.703125 14.066406 27.488281 14.066406 30.886719 C 14.066406 34.625 17.125 37.65625 20.894531 37.65625 L 35.40625 37.65625 C 38.707031 37.65625 41.382812 35.003906 41.382812 31.730469 C 41.382812 28.691406 39.078125 26.199219 36.101562 25.859375 C 35.324219 21.976562 31.867188 19.035156 27.726562 19.035156 Z M 27.726562 19.035156 "/>
</g>
</svg>
