<?xml version="1.0" encoding="UTF-8"?>
<svg xmlns="http://www.w3.org/2000/svg" xmlns:xlink="http://www.w3.org/1999/xlink" width="48pt" height="48pt" viewBox="0 0 48 48" version="1.1">
<defs>
<linearGradient id="linear0" gradientUnits="userSpaceOnUse" x1="19.721769" y1="16.052879" x2="18.953857" y2="18.15217" gradientTransform="matrix(1.184248,0,0,1.184248,-2.329611,11.624483)">
<stop offset="0" style="stop-color:rgb(82.745098%,88.627451%,100%);stop-opacity:1;"/>
<stop offset="1" style="stop-color:rgb(82.745098%,88.627451%,100%);stop-opacity:0;"/>
</linearGradient>
<linearGradient id="linear1" gradientUnits="userSpaceOnUse" x1="19.721769" y1="16.052879" x2="18.953857" y2="18.15217" gradientTransform="matrix(-1.184248,0,0,-1.184248,35.646434,49.623586)">
<stop offset="0" style="stop-color:rgb(82.745098%,88.627451%,100%);stop-opacity:1;"/>
<stop offset="1" style="stop-color:rgb(82.745098%,88.627451%,100%);stop-opacity:0;"/>
</linearGradient>
</defs>
<g id="surface1">
<path style=" stroke:none;fill-rule:evenodd;fill:rgb(42.352941%,57.254902%,94.509804%);fill-opacity:1;" d="M 11.210938 2.847656 L 36.789062 2.847656 C 41.410156 2.847656 45.152344 6.589844 45.152344 11.210938 L 45.152344 36.789062 C 45.152344 41.410156 41.410156 45.152344 36.789062 45.152344 L 11.210938 45.152344 C 6.589844 45.152344 2.847656 41.410156 2.847656 36.789062 L 2.847656 11.210938 C 2.847656 6.589844 6.589844 2.847656 11.210938 2.847656 Z M 11.210938 2.847656 "/>
<path style=" stroke:none;fill-rule:nonzero;fill:rgb(100%,100%,100%);fill-opacity:1;" d="M 19.742188 17.183594 L 19.460938 31.007812 L 28.070312 38.703125 L 33.828125 35.101562 L 33.632812 20.457031 Z M 19.742188 17.183594 "/>
<path style=" stroke:none;fill-rule:nonzero;fill:rgb(65.490196%,80.784314%,100%);fill-opacity:1;" d="M 28.542969 24.675781 C 28.542969 24.675781 28.519531 35.433594 28.621094 35.457031 C 28.726562 35.484375 33.332031 32.921875 33.332031 32.921875 L 33.4375 21.484375 Z M 28.542969 24.675781 "/>
<path style=" stroke:none;fill-rule:nonzero;fill:rgb(51.764706%,62.745098%,99.607843%);fill-opacity:1;" d="M 19.363281 16.359375 L 19.363281 31.484375 L 27.707031 38.863281 L 28.238281 38.949219 L 28.238281 24.226562 Z M 19.875 17.496094 L 27.726562 24.453125 L 27.726562 38.214844 L 19.875 31.253906 Z M 19.875 17.496094 "/>
<path style=" stroke:none;fill-rule:nonzero;fill:rgb(51.764706%,62.745098%,99.607843%);fill-opacity:1;" d="M 27.707031 24.183594 L 27.707031 24.503906 L 27.820312 38.703125 L 28.238281 38.949219 L 34.242188 35.347656 L 34.242188 20.265625 Z M 28.257812 24.492188 L 33.695312 21.234375 L 33.695312 35.039062 L 28.257812 38.300781 Z M 28.257812 24.492188 "/>
<path style=" stroke:none;fill-rule:nonzero;fill:rgb(96.862745%,69.411765%,12.156863%);fill-opacity:1;" d="M 25.5625 13.210938 L 25.5625 22.183594 L 27.707031 24.183594 L 34.046875 20.707031 Z M 25.5625 13.210938 "/>
<path style=" stroke:none;fill-rule:nonzero;fill:rgb(100%,81.568627%,30.196078%);fill-opacity:1;" d="M 19.675781 16.800781 L 25.5625 13.210938 L 25.5625 22.183594 Z M 19.675781 16.800781 "/>
<path style=" stroke:none;fill-rule:nonzero;fill:rgb(69.019608%,83.529412%,100%);fill-opacity:1;" d="M 20.1875 17.574219 L 20.039062 28.785156 L 27.367188 35.410156 L 27.367188 23.976562 Z M 20.1875 17.574219 "/>
<path style=" stroke:none;fill-rule:nonzero;fill:rgb(51.764706%,62.745098%,99.607843%);fill-opacity:1;" d="M 25.640625 12.972656 L 19.441406 16.804688 L 19.425781 17.148438 L 27.949219 24.703125 L 34.46875 20.796875 Z M 25.574219 13.703125 L 33.472656 20.703125 L 28.019531 23.972656 L 20.121094 16.972656 Z M 25.574219 13.703125 "/>
<path style=" stroke:none;fill-rule:nonzero;fill:rgb(100%,90.196078%,57.254902%);fill-opacity:1;" d="M 25.5625 13.210938 L 34.046875 20.707031 L 37.496094 16.855469 L 29.113281 9.453125 Z M 25.5625 13.210938 "/>
<path style=" stroke:none;fill-rule:nonzero;fill:rgb(51.764706%,62.745098%,99.607843%);fill-opacity:1;" d="M 29.199219 9.050781 L 25.183594 13.359375 L 25.410156 13.558594 L 33.988281 21.164062 L 38.003906 16.855469 Z M 29.238281 9.875 L 37.15625 16.894531 L 33.949219 20.335938 L 26.03125 13.316406 Z M 29.238281 9.875 "/>
<path style=" stroke:none;fill-rule:nonzero;fill:rgb(100%,90.196078%,57.254902%);fill-opacity:1;" d="M 17.679688 13.582031 L 23.507812 10.082031 L 25.5625 13.210938 L 19.675781 16.800781 Z M 17.679688 13.582031 "/>
<path style=" stroke:none;fill-rule:nonzero;fill:rgb(51.764706%,62.745098%,99.607843%);fill-opacity:1;" d="M 23.664062 9.558594 L 17.167969 13.453125 L 17.324219 13.707031 L 19.519531 17.332031 L 26.015625 13.441406 Z M 23.464844 10.371094 L 25.199219 13.234375 L 19.722656 16.523438 L 17.984375 13.65625 Z M 23.464844 10.371094 "/>
<path style=" stroke:none;fill-rule:nonzero;fill:rgb(100%,90.196078%,57.254902%);fill-opacity:1;" d="M 32.792969 21.554688 L 34.046875 20.707031 L 38.210938 21.898438 L 32.542969 25.507812 L 28.257812 24.492188 Z M 32.792969 21.554688 "/>
<path style=" stroke:none;fill-rule:nonzero;fill:rgb(51.764706%,62.745098%,99.607843%);fill-opacity:1;" d="M 33.921875 20.433594 L 27.707031 24.183594 L 27.960938 24.640625 L 32.542969 25.796875 L 32.648438 25.734375 L 39.246094 21.777344 Z M 34.015625 21.066406 L 37.722656 22.003906 L 32.453125 25.160156 L 28.746094 24.226562 Z M 34.015625 21.066406 "/>
<path style=" stroke:none;fill-rule:nonzero;fill:rgb(53.333333%,72.941176%,100%);fill-opacity:1;" d="M 20.585938 22.316406 L 26.445312 27.601562 L 26.601562 35.03125 C 26.601562 35.03125 20.007812 29.746094 20.21875 29.640625 C 20.425781 29.539062 20.585938 22.316406 20.585938 22.316406 Z M 20.585938 22.316406 "/>
<path style=" stroke:none;fill-rule:nonzero;fill:rgb(100%,100%,100%);fill-opacity:1;" d="M 24.410156 30.574219 C 24.410156 34.875 20.921875 38.363281 16.617188 38.363281 C 12.316406 38.363281 8.828125 34.875 8.828125 30.574219 C 8.828125 26.269531 12.316406 22.78125 16.617188 22.78125 C 20.921875 22.78125 24.410156 26.269531 24.410156 30.574219 Z M 24.410156 30.574219 "/>
<path style=" stroke:none;fill-rule:nonzero;fill:url(#linear0);" d="M 24.449219 30.625 C 24.449219 32.027344 24.070312 33.40625 23.351562 34.609375 L 16.660156 30.625 Z M 24.449219 30.625 "/>
<path style=" stroke:none;fill-rule:nonzero;fill:rgb(82.745098%,88.627451%,100%);fill-opacity:1;" d="M 15.207031 22.96875 C 17.511719 22.53125 19.890625 23.15625 21.683594 24.667969 L 16.660156 30.625 Z M 15.207031 22.96875 "/>
<path style=" stroke:none;fill-rule:nonzero;fill:rgb(76.470588%,83.921569%,100%);fill-opacity:1;" d="M 15.207031 22.96875 C 16.480469 22.726562 17.789062 22.808594 19.023438 23.199219 L 16.660156 30.625 Z M 15.207031 22.96875 "/>
<path style=" stroke:none;fill-rule:nonzero;fill:rgb(82.745098%,88.627451%,100%);fill-opacity:1;" d="M 17.828125 38.328125 C 15.507812 38.679688 13.152344 37.96875 11.417969 36.390625 L 16.660156 30.625 Z M 17.828125 38.328125 "/>
<path style=" stroke:none;fill-rule:nonzero;fill:rgb(76.470588%,83.921569%,100%);fill-opacity:1;" d="M 17.828125 38.328125 C 16.546875 38.523438 15.238281 38.394531 14.023438 37.957031 L 16.660156 30.625 Z M 17.828125 38.328125 "/>
<path style=" stroke:none;fill-rule:nonzero;fill:url(#linear1);" d="M 8.867188 30.625 C 8.867188 29.222656 9.246094 27.84375 9.964844 26.636719 L 16.660156 30.625 Z M 8.867188 30.625 "/>
<path style=" stroke:none;fill-rule:nonzero;fill:rgb(51.764706%,62.745098%,99.607843%);fill-opacity:1;" d="M 16.769531 22.644531 C 12.34375 22.644531 8.753906 26.234375 8.753906 30.65625 C 8.753906 35.082031 12.34375 38.675781 16.769531 38.675781 C 21.195312 38.675781 24.785156 35.082031 24.785156 30.65625 C 24.785156 26.234375 21.195312 22.644531 16.769531 22.644531 Z M 16.769531 23.089844 C 20.953125 23.089844 24.335938 26.476562 24.335938 30.65625 C 24.335938 34.839844 20.953125 38.226562 16.769531 38.226562 C 12.585938 38.226562 9.203125 34.839844 9.203125 30.65625 C 9.203125 26.476562 12.585938 23.089844 16.769531 23.089844 Z M 16.769531 23.089844 "/>
<path style=" stroke:none;fill-rule:nonzero;fill:rgb(51.764706%,62.745098%,99.607843%);fill-opacity:0.572549;" d="M 19.113281 30.574219 C 19.113281 31.949219 17.996094 33.066406 16.617188 33.066406 C 15.242188 33.066406 14.125 31.949219 14.125 30.574219 C 14.125 29.195312 15.242188 28.078125 16.617188 28.078125 C 17.996094 28.078125 19.113281 29.195312 19.113281 30.574219 Z M 19.113281 30.574219 "/>
<path style=" stroke:none;fill-rule:nonzero;fill:rgb(100%,100%,99.607843%);fill-opacity:1;" d="M 18.019531 30.574219 C 18.019531 31.347656 17.390625 31.972656 16.617188 31.972656 C 15.84375 31.972656 15.214844 31.347656 15.214844 30.574219 C 15.214844 29.796875 15.84375 29.171875 16.617188 29.171875 C 17.390625 29.171875 18.019531 29.796875 18.019531 30.574219 Z M 18.019531 30.574219 "/>
<path style=" stroke:none;fill-rule:nonzero;fill:rgb(53.333333%,72.941176%,100%);fill-opacity:1;" d="M 29.417969 32.417969 L 29.429688 35.398438 L 32.675781 33.933594 L 32.714844 30.78125 Z M 29.417969 32.417969 "/>
<path style=" stroke:none;fill-rule:nonzero;fill:rgb(53.333333%,72.941176%,100%);fill-opacity:1;" d="M 29.402344 31.4375 L 29.402344 32.140625 L 32.714844 30.53125 L 32.714844 29.828125 Z M 29.402344 31.4375 "/>
<path style=" stroke:none;fill-rule:nonzero;fill:rgb(53.333333%,72.941176%,100%);fill-opacity:1;" d="M 29.410156 30.382812 L 29.410156 31.085938 L 32.722656 29.476562 L 32.722656 28.773438 Z M 29.410156 30.382812 "/>
</g>
</svg>
