<?xml version="1.0" encoding="UTF-8"?>
<svg xmlns="http://www.w3.org/2000/svg" xmlns:xlink="http://www.w3.org/1999/xlink" width="48pt" height="48pt" viewBox="0 0 48 48" version="1.1">
<g id="surface1">
<path style=" stroke:none;fill-rule:evenodd;fill:rgb(77.647059%,9.019608%,12.156863%);fill-opacity:1;" d="M 11.210938 2.847656 L 36.789062 2.847656 C 41.410156 2.847656 45.152344 6.589844 45.152344 11.210938 L 45.152344 36.789062 C 45.152344 41.410156 41.410156 45.152344 36.789062 45.152344 L 11.210938 45.152344 C 6.589844 45.152344 2.847656 41.410156 2.847656 36.789062 L 2.847656 11.210938 C 2.847656 6.589844 6.589844 2.847656 11.210938 2.847656 Z M 11.210938 2.847656 "/>
<path style=" stroke:none;fill-rule:nonzero;fill:rgb(94.901961%,94.901961%,94.901961%);fill-opacity:1;" d="M 22.347656 10.792969 L 25.707031 10.792969 L 25.707031 36.003906 L 22.347656 36.003906 Z M 22.347656 10.792969 "/>
<path style=" stroke:none;fill-rule:nonzero;fill:rgb(94.901961%,94.901961%,94.901961%);fill-opacity:1;" d="M 19.707031 10.792969 C 19.839844 27.421875 13.859375 30.59375 8.511719 32.285156 L 8.511719 36.046875 C 22.339844 33.40625 21.492188 22.136719 21.453125 10.839844 Z M 19.707031 10.792969 "/>
<path style=" stroke:none;fill-rule:nonzero;fill:rgb(94.901961%,94.901961%,94.901961%);fill-opacity:1;" d="M 28.292969 10.792969 C 28.160156 27.421875 34.140625 30.59375 39.488281 32.285156 L 39.488281 36.046875 C 25.660156 33.40625 26.507812 22.136719 26.546875 10.839844 Z M 28.292969 10.792969 "/>
</g>
</svg>
