<?xml version="1.0" encoding="UTF-8"?>
<svg xmlns="http://www.w3.org/2000/svg" xmlns:xlink="http://www.w3.org/1999/xlink" width="48pt" height="48pt" viewBox="0 0 48 48" version="1.1">
<defs>
<filter id="alpha" filterUnits="objectBoundingBox" x="0%" y="0%" width="100%" height="100%">
  <feColorMatrix type="matrix" in="SourceGraphic" values="0 0 0 0 1 0 0 0 0 1 0 0 0 0 1 0 0 0 1 0"/>
</filter>
<mask id="mask0">
  <g filter="url(#alpha)">
<rect x="0" y="0" width="48" height="48" style="fill:rgb(0%,0%,0%);fill-opacity:0.2;stroke:none;"/>
  </g>
</mask>
<clipPath id="clip1">
  <rect width="48" height="48"/>
</clipPath>
<g id="surface6" clip-path="url(#clip1)">
<path style=" stroke:none;fill-rule:nonzero;fill:rgb(0%,0%,0%);fill-opacity:1;" d="M 28.59375 21.859375 C 29.902344 21.882812 31.808594 21.855469 31.976562 21.855469 C 32.511719 21.476562 32.886719 20.007812 31.941406 18.558594 C 30.90625 16.9375 29.238281 17.636719 28.5625 18.859375 C 27.984375 20.230469 28.378906 21.140625 28.59375 21.851562 "/>
</g>
<mask id="mask1">
  <g filter="url(#alpha)">
<rect x="0" y="0" width="48" height="48" style="fill:rgb(0%,0%,0%);fill-opacity:0.2;stroke:none;"/>
  </g>
</mask>
<clipPath id="clip2">
  <rect width="48" height="48"/>
</clipPath>
<g id="surface9" clip-path="url(#clip2)">
<path style=" stroke:none;fill-rule:nonzero;fill:rgb(0%,0%,0%);fill-opacity:1;" d="M 14.425781 22.261719 L 14.425781 22.300781 C 14.410156 22.351562 14.410156 22.40625 14.425781 22.457031 C 14.445312 22.519531 14.484375 22.570312 14.527344 22.621094 C 14.683594 22.796875 14.925781 22.902344 15.171875 22.929688 C 15.425781 22.953125 16.214844 22.902344 16.4375 22.792969 C 16.628906 22.699219 16.800781 22.570312 16.992188 22.472656 C 17.183594 22.386719 17.386719 22.339844 17.601562 22.324219 C 17.914062 22.3125 18.222656 22.382812 18.539062 22.351562 C 18.691406 22.339844 18.84375 22.300781 18.972656 22.21875 C 19.035156 22.175781 19.089844 22.125 19.128906 22.070312 C 19.175781 22.007812 19.199219 21.945312 19.207031 21.871094 C 19.214844 21.785156 19.1875 21.703125 19.148438 21.625 C 19.109375 21.546875 19.046875 21.480469 18.980469 21.421875 C 18.84375 21.304688 18.675781 21.21875 18.519531 21.121094 C 18.433594 21.070312 18.347656 21.011719 18.242188 20.984375 C 18.121094 20.953125 17.984375 20.972656 17.855469 20.960938 C 17.71875 20.945312 17.59375 20.894531 17.464844 20.863281 C 17.199219 20.792969 16.917969 20.789062 16.644531 20.832031 C 16.375 20.875 16.117188 20.976562 15.882812 21.109375 C 15.660156 21.234375 14.921875 21.402344 14.820312 21.617188 C 14.800781 21.660156 14.789062 21.703125 14.765625 21.746094 C 14.6875 21.933594 14.570312 22.109375 14.425781 22.261719 "/>
</g>
</defs>
<g id="surface1">
<path style=" stroke:none;fill-rule:evenodd;fill:rgb(62.352941%,21.960784%,18.823529%);fill-opacity:1;" d="M 11.210938 2.847656 L 36.789062 2.847656 C 41.410156 2.847656 45.152344 6.589844 45.152344 11.210938 L 45.152344 36.789062 C 45.152344 41.410156 41.410156 45.152344 36.789062 45.152344 L 11.210938 45.152344 C 6.589844 45.152344 2.847656 41.410156 2.847656 36.789062 L 2.847656 11.210938 C 2.847656 6.589844 6.589844 2.847656 11.210938 2.847656 Z M 11.210938 2.847656 "/>
<path style=" stroke:none;fill-rule:nonzero;fill:rgb(90.980392%,26.27451%,26.27451%);fill-opacity:1;" d="M 24 9.089844 C 19.546875 9.210938 14.5625 9.898438 10.71875 10.882812 C 9.671875 11.152344 9.277344 11.304688 9.089844 11.59375 L 9.089844 37.496094 C 9.089844 38.429688 14.679688 38.894531 15.582031 38.910156 C 16.542969 38.894531 20.804688 38.429688 20.804688 37.496094 L 20.804688 34.648438 L 27.195312 34.648438 L 27.195312 37.496094 C 27.195312 38.429688 31.457031 38.894531 32.417969 38.910156 C 33.320312 38.894531 38.910156 38.429688 38.910156 37.496094 L 38.910156 11.59375 C 38.722656 11.304688 38.328125 11.152344 37.28125 10.882812 C 33.4375 9.898438 28.453125 9.210938 24 9.089844 Z M 24 9.089844 "/>
<path style=" stroke:none;fill-rule:nonzero;fill:rgb(18.431373%,18.431373%,18.431373%);fill-opacity:1;" d="M 15.507812 21.335938 C 16.800781 21.207031 16.792969 21.195312 19.09375 21.003906 C 19.34375 20.277344 19.566406 19.84375 18.660156 18.492188 C 17.664062 16.984375 16.058594 17.632812 15.40625 18.769531 C 14.851562 20.046875 15 20.851562 15.507812 21.335938 M 15.507812 21.335938 "/>
<path style=" stroke:none;fill-rule:nonzero;fill:rgb(100%,100%,100%);fill-opacity:1;" d="M 17.609375 19.101562 C 17.609375 19.390625 17.371094 19.632812 17.078125 19.632812 C 16.78125 19.632812 16.542969 19.390625 16.542969 19.101562 C 16.542969 18.808594 16.78125 18.566406 17.078125 18.566406 C 17.371094 18.566406 17.609375 18.808594 17.609375 19.101562 M 17.609375 19.101562 "/>
<use xlink:href="#surface6" mask="url(#mask0)"/>
<path style=" stroke:none;fill-rule:nonzero;fill:rgb(18.431373%,18.431373%,18.431373%);fill-opacity:1;" d="M 28.59375 20.796875 C 29.902344 20.820312 31.808594 20.789062 31.976562 20.789062 C 32.511719 20.414062 32.886719 18.941406 31.941406 17.492188 C 30.90625 15.871094 29.238281 16.570312 28.5625 17.792969 C 27.984375 19.164062 28.378906 20.074219 28.59375 20.785156 "/>
<path style=" stroke:none;fill-rule:nonzero;fill:rgb(100%,100%,100%);fill-opacity:1;" d="M 30.390625 18.140625 C 30.390625 18.4375 30.152344 18.675781 29.855469 18.675781 C 29.5625 18.675781 29.324219 18.4375 29.324219 18.140625 C 29.324219 17.851562 29.5625 17.609375 29.855469 17.609375 C 30.152344 17.609375 30.390625 17.851562 30.390625 18.140625 M 30.390625 18.140625 "/>
<path style=" stroke:none;fill-rule:nonzero;fill:rgb(18.431373%,18.431373%,18.431373%);fill-opacity:1;" d="M 15.480469 23.277344 C 21.140625 22.917969 26.8125 22.734375 32.519531 23.277344 C 31.582031 29.144531 28.136719 29.207031 24.710938 29.300781 C 20.855469 29.554688 16.160156 27.785156 15.480469 23.277344 M 15.480469 23.277344 "/>
<path style=" stroke:none;fill-rule:nonzero;fill:rgb(100%,100%,100%);fill-opacity:1;" d="M 16.542969 25.171875 C 16.613281 25.5 16.429688 25.839844 16.738281 26.046875 C 18.65625 27.324219 22.257812 28.210938 24.699219 28.257812 C 27.929688 28.277344 30.480469 27.6875 31.347656 26.574219 C 31.535156 26.332031 31.417969 25.507812 31.433594 25.144531 L 29.613281 25.101562 L 31.433594 24.9375 L 31.433594 24.066406 L 22.941406 24.066406 L 22.929688 25.066406 L 20.8125 25.066406 L 20.796875 24 L 16.546875 24 L 16.550781 25.027344 L 17.949219 25.070312 "/>
<use xlink:href="#surface9" mask="url(#mask1)"/>
<path style=" stroke:none;fill-rule:nonzero;fill:rgb(80.392157%,36.470588%,50.980392%);fill-opacity:1;" d="M 14.425781 21.195312 L 14.425781 21.238281 C 14.410156 21.289062 14.410156 21.34375 14.425781 21.394531 C 14.445312 21.457031 14.484375 21.507812 14.527344 21.558594 C 14.683594 21.730469 14.925781 21.839844 15.171875 21.863281 C 15.425781 21.890625 16.214844 21.835938 16.4375 21.726562 C 16.628906 21.632812 16.800781 21.503906 16.992188 21.410156 C 17.183594 21.320312 17.386719 21.273438 17.601562 21.261719 C 17.914062 21.246094 18.222656 21.320312 18.539062 21.289062 C 18.691406 21.277344 18.84375 21.234375 18.972656 21.152344 C 19.035156 21.113281 19.089844 21.0625 19.128906 21.007812 C 19.175781 20.941406 19.199219 20.878906 19.207031 20.804688 C 19.214844 20.71875 19.1875 20.636719 19.148438 20.558594 C 19.109375 20.484375 19.046875 20.414062 18.980469 20.355469 C 18.84375 20.238281 18.675781 20.152344 18.519531 20.058594 C 18.433594 20.003906 18.347656 19.945312 18.242188 19.917969 C 18.121094 19.886719 17.984375 19.910156 17.855469 19.894531 C 17.71875 19.882812 17.59375 19.832031 17.464844 19.800781 C 17.199219 19.730469 16.917969 19.722656 16.644531 19.769531 C 16.375 19.8125 16.117188 19.914062 15.882812 20.046875 C 15.660156 20.171875 14.921875 20.335938 14.820312 20.550781 C 14.800781 20.59375 14.789062 20.640625 14.765625 20.679688 C 14.6875 20.871094 14.570312 21.042969 14.425781 21.195312 "/>
<path style=" stroke:none;fill-rule:nonzero;fill:rgb(90.196078%,90.196078%,90.196078%);fill-opacity:1;" d="M 17.390625 11.082031 L 18.640625 10.230469 C 18.863281 10.078125 19.175781 10.164062 19.320312 10.394531 L 20.003906 11.757812 L 22.160156 14.960938 C 22.3125 15.183594 21.84375 15.652344 21.613281 15.800781 L 20.578125 16.46875 C 20.351562 16.617188 20.042969 16.539062 19.898438 16.308594 L 18.601562 13.871094 L 17.058594 11.738281 C 16.898438 11.519531 17.167969 11.234375 17.390625 11.082031 Z M 17.390625 11.082031 "/>
<path style=" stroke:none;fill-rule:nonzero;fill:rgb(93.72549%,93.72549%,93.72549%);fill-opacity:1;" d="M 21.863281 10.507812 L 22.832031 11.652344 C 23.007812 11.859375 22.945312 12.171875 22.726562 12.328125 L 21.390625 13.113281 L 18.3125 15.480469 C 18.09375 15.644531 17.582031 15.230469 17.410156 15.019531 L 16.644531 14.066406 C 16.472656 13.855469 16.53125 13.546875 16.75 13.386719 L 19.125 11.917969 L 21.164062 10.238281 C 21.375 10.0625 21.6875 10.300781 21.863281 10.507812 Z M 21.863281 10.507812 "/>
</g>
</svg>
