<?xml version="1.0" encoding="UTF-8"?>
<svg xmlns="http://www.w3.org/2000/svg" xmlns:xlink="http://www.w3.org/1999/xlink" width="48pt" height="48pt" viewBox="0 0 48 48" version="1.1">
<g id="surface1">
<path style=" stroke:none;fill-rule:evenodd;fill:rgb(48.627451%,62.352941%,100%);fill-opacity:1;" d="M 11.210938 2.847656 L 36.789062 2.847656 C 41.410156 2.847656 45.152344 6.589844 45.152344 11.210938 L 45.152344 36.789062 C 45.152344 41.410156 41.410156 45.152344 36.789062 45.152344 L 11.210938 45.152344 C 6.589844 45.152344 2.847656 41.410156 2.847656 36.789062 L 2.847656 11.210938 C 2.847656 6.589844 6.589844 2.847656 11.210938 2.847656 Z M 11.210938 2.847656 "/>
<path style=" stroke:none;fill-rule:nonzero;fill:rgb(100%,100%,100%);fill-opacity:1;" d="M 22.066406 14.5 C 25.113281 14.5 27.585938 16.96875 27.585938 20.015625 C 27.585938 23.0625 25.113281 25.535156 22.066406 25.535156 C 19.019531 25.535156 16.550781 23.0625 16.550781 20.015625 C 16.550781 16.96875 19.019531 14.5 22.066406 14.5 Z M 22.066406 14.5 "/>
<path style=" stroke:none;fill-rule:nonzero;fill:rgb(100%,100%,100%);fill-opacity:1;" d="M 22.066406 28.601562 C 33.101562 28.59375 33.101562 35.957031 33.101562 35.957031 L 33.101562 37.792969 L 11.035156 37.792969 L 11.035156 35.957031 C 11.035156 35.957031 11.035156 28.605469 22.066406 28.597656 Z M 22.066406 28.601562 "/>
<path style=" stroke:none;fill-rule:nonzero;fill:rgb(100%,100%,100%);fill-opacity:1;" d="M 33 19.585938 C 34.65625 19.585938 36 20.925781 36 22.585938 C 36 24.242188 34.65625 25.585938 33 25.585938 C 31.34375 25.585938 30 24.242188 30 22.585938 C 30 20.929688 31.34375 19.585938 33 19.585938 Z M 33 19.585938 "/>
<path style=" stroke:none;fill-rule:nonzero;fill:rgb(100%,100%,100%);fill-opacity:1;" d="M 33 27.085938 C 39 27.082031 39 31.886719 39 31.886719 L 39 33.085938 L 27 33.085938 L 27 31.886719 C 27 31.886719 27 27.089844 33 27.085938 Z M 33 27.085938 "/>
</g>
</svg>
