<?xml version="1.0" encoding="UTF-8"?>
<svg xmlns="http://www.w3.org/2000/svg" xmlns:xlink="http://www.w3.org/1999/xlink" width="48pt" height="48pt" viewBox="0 0 48 48" version="1.1">
<defs>
<linearGradient id="linear0" gradientUnits="userSpaceOnUse" x1="-16.665062" y1="23.507727" x2="-13.157189" y2="32.913597" gradientTransform="matrix(1.100088,0,0,1.100088,53.37937,4.390412)">
<stop offset="0" style="stop-color:rgb(52.54902%,58.431373%,61.176471%);stop-opacity:1;"/>
<stop offset="1" style="stop-color:rgb(52.54902%,58.431373%,61.176471%);stop-opacity:0;"/>
</linearGradient>
<linearGradient id="linear1" gradientUnits="userSpaceOnUse" x1="-36.955921" y1="28.922037" x2="-39.662048" y2="34.202526" gradientTransform="matrix(1.100088,0,0,1.100088,53.37937,4.390412)">
<stop offset="0" style="stop-color:rgb(52.54902%,58.431373%,61.176471%);stop-opacity:1;"/>
<stop offset="1" style="stop-color:rgb(52.54902%,58.431373%,61.176471%);stop-opacity:0;"/>
</linearGradient>
<linearGradient id="linear2" gradientUnits="userSpaceOnUse" x1="-43.812916" y1="27.299231" x2="-37.59342" y2="27.299231" gradientTransform="matrix(1.100088,0,0,1.100088,53.37937,4.390412)">
<stop offset="0" style="stop-color:rgb(52.54902%,58.431373%,61.176471%);stop-opacity:1;"/>
<stop offset="1" style="stop-color:rgb(52.54902%,58.431373%,61.176471%);stop-opacity:0;"/>
</linearGradient>
<linearGradient id="linear3" gradientUnits="userSpaceOnUse" x1="10.486315" y1="20.666985" x2="19.018635" y2="20.666985" gradientTransform="matrix(1.5,0,0,1.5,0,0)">
<stop offset="0" style="stop-color:rgb(33.72549%,36.078431%,40%);stop-opacity:1;"/>
<stop offset="1" style="stop-color:rgb(33.72549%,36.078431%,40%);stop-opacity:0;"/>
</linearGradient>
<linearGradient id="linear4" gradientUnits="userSpaceOnUse" x1="7.78524" y1="21.071885" x2="10.896681" y2="21.071885" gradientTransform="matrix(1.5,0,0,1.5,0,0)">
<stop offset="0" style="stop-color:rgb(33.72549%,36.078431%,40%);stop-opacity:1;"/>
<stop offset="1" style="stop-color:rgb(33.72549%,36.078431%,40%);stop-opacity:0;"/>
</linearGradient>
<linearGradient id="linear5" gradientUnits="userSpaceOnUse" x1="-31.80279" y1="2.655921" x2="-29.783688" y2="9.256532" gradientTransform="matrix(1.100088,0,0,1.100088,53.37937,4.390412)">
<stop offset="0" style="stop-color:rgb(49.411765%,54.901961%,57.647059%);stop-opacity:1;"/>
<stop offset="1" style="stop-color:rgb(49.411765%,54.901961%,57.647059%);stop-opacity:0;"/>
</linearGradient>
<linearGradient id="linear6" gradientUnits="userSpaceOnUse" x1="-26.96739" y1="25.485662" x2="-24.467997" y2="35.304073" gradientTransform="matrix(1.100088,0,0,1.100088,53.37937,4.390412)">
<stop offset="0" style="stop-color:rgb(52.54902%,58.431373%,61.176471%);stop-opacity:1;"/>
<stop offset="1" style="stop-color:rgb(52.54902%,58.431373%,61.176471%);stop-opacity:0;"/>
</linearGradient>
<linearGradient id="linear7" gradientUnits="userSpaceOnUse" x1="-29.591215" y1="10.198193" x2="-28.316233" y2="17.782572" gradientTransform="matrix(1.100088,0,0,1.100088,53.37937,4.390412)">
<stop offset="0" style="stop-color:rgb(99.607843%,57.254902%,7.058824%);stop-opacity:1;"/>
<stop offset="1" style="stop-color:rgb(99.607843%,57.254902%,7.058824%);stop-opacity:0;"/>
</linearGradient>
</defs>
<g id="surface1">
<path style=" stroke:none;fill-rule:evenodd;fill:rgb(15.686275%,15.686275%,21.960784%);fill-opacity:1;" d="M 11.210938 2.847656 L 36.789062 2.847656 C 41.410156 2.847656 45.152344 6.589844 45.152344 11.210938 L 45.152344 36.789062 C 45.152344 41.410156 41.410156 45.152344 36.789062 45.152344 L 11.210938 45.152344 C 6.589844 45.152344 2.847656 41.410156 2.847656 36.789062 L 2.847656 11.210938 C 2.847656 6.589844 6.589844 2.847656 11.210938 2.847656 Z M 11.210938 2.847656 "/>
<path style=" stroke:none;fill-rule:evenodd;fill:rgb(20%,20%,24.705882%);fill-opacity:1;" d="M 44.179688 37.730469 C 44.128906 36.832031 44.074219 36.34375 43.980469 36.015625 C 43.664062 34.914062 43.222656 33.875 42.710938 32.992188 C 42.199219 32.109375 41.621094 31.382812 41.023438 30.902344 C 39.488281 29.671875 37.636719 28.707031 34.949219 27.742188 C 34.402344 27.546875 33.929688 27.296875 32.824219 26.617188 C 31.660156 25.902344 31.117188 25.621094 29.773438 25.023438 C 28.875 24.625 27.375 24.027344 26.4375 23.699219 C 25.503906 23.367188 24.679688 23.058594 24.605469 23.011719 C 24.417969 22.894531 24.257812 22.535156 24.171875 22.054688 C 24.082031 21.53125 24.179688 20.679688 24.523438 18.925781 C 24.917969 16.933594 24.917969 16.59375 24.546875 14.582031 C 23.921875 11.207031 23.546875 10.144531 22.554688 8.9375 C 22.425781 8.785156 22.117188 8.5 21.867188 8.308594 C 21.121094 7.738281 20.175781 7.324219 19.179688 7.09375 C 18.183594 6.863281 17.140625 6.816406 16.195312 6.992188 C 14.585938 7.292969 13.058594 8.140625 11.875 9.28125 C 10.691406 10.421875 9.847656 11.855469 9.609375 13.332031 C 9.460938 14.238281 9.546875 14.960938 10.058594 17.132812 C 10.3125 18.210938 10.550781 19.175781 10.589844 19.277344 C 10.703125 19.574219 11.003906 19.964844 11.628906 20.625 L 12.21875 21.246094 L 13.113281 23.21875 C 13.605469 24.304688 13.992188 25.238281 13.972656 25.292969 C 13.949219 25.34375 13.542969 25.722656 13.0625 26.132812 C 12.085938 26.972656 11.71875 27.324219 11.148438 27.953125 C 10.765625 28.375 10.742188 28.386719 10.296875 28.46875 C 9.402344 28.632812 8.234375 29.367188 7.15625 30.453125 C 5.890625 31.726562 5.148438 33.144531 4.867188 34.816406 C 4.75 35.515625 4.75 35.542969 4.90625 38.957031 C 4.785156 42.101562 8.207031 43.636719 10.46875 43.671875 L 37.914062 43.671875 C 39.1875 43.898438 43.09375 41.65625 44.179688 37.730469 Z M 44.179688 37.730469 "/>
<path style=" stroke:none;fill-rule:nonzero;fill:url(#linear0);" d="M 30.703125 31.199219 C 30.726562 31.261719 30.730469 31.230469 30.757812 31.34375 C 30.96875 32.140625 31.21875 32.53125 32.164062 33.527344 C 33.199219 34.621094 33.695312 35.402344 33.957031 36.359375 C 34.246094 37.421875 34.796875 38.167969 35.824219 38.890625 C 36.449219 39.332031 37.351562 39.804688 37.980469 40.019531 C 38.71875 40.273438 39.925781 40.828125 40.464844 41.160156 C 41.238281 41.636719 41.601562 41.820312 42.121094 41.988281 C 42.734375 42.1875 42.988281 42.160156 43.421875 41.839844 C 43.792969 41.5625 43.964844 41.347656 44.03125 41.074219 L 44.078125 40.871094 C 44.078125 40.871094 44.078125 40.871094 44.027344 37.675781 C 43.957031 36.421875 43.945312 36.34375 43.691406 35.582031 C 43.386719 34.664062 42.558594 32.902344 42.460938 32.960938 C 42.425781 32.984375 42.40625 32.964844 42.425781 32.917969 C 42.445312 32.871094 42.414062 32.769531 42.355469 32.699219 C 42.296875 32.628906 42.269531 32.617188 42.292969 32.671875 C 42.316406 32.722656 42.289062 32.710938 42.234375 32.640625 C 42.175781 32.570312 42.128906 32.472656 42.128906 32.425781 C 42.128906 32.28125 41.925781 32.015625 41.851562 32.058594 C 41.8125 32.085938 41.804688 32.070312 41.832031 32.027344 C 41.898438 31.914062 41.117188 31.128906 40.492188 30.675781 C 39.75 30.140625 38.691406 29.515625 37.851562 29.109375 C 37.050781 28.726562 35.390625 28.050781 35.140625 28.007812 C 35.050781 27.992188 34.785156 27.902344 34.554688 27.808594 C 33.929688 27.554688 33.570312 27.597656 33.371094 27.945312 C 33.28125 28.109375 33.253906 28.117188 32.65625 28.121094 C 32.097656 28.125 32 28.144531 31.71875 28.3125 C 30.910156 28.785156 30.695312 29.15625 30.628906 30.179688 L 30.597656 30.644531 Z M 30.703125 31.199219 "/>
<path style=" stroke:none;fill-rule:nonzero;fill:url(#linear1);" d="M 14.746094 42.871094 C 14.503906 41.34375 14.558594 39.800781 14.71875 38.960938 C 14.777344 38.671875 14.71875 38.480469 14.71875 38.425781 C 14.71875 38.171875 14.492188 37.824219 13.984375 37.3125 C 13.441406 36.761719 13.246094 36.476562 12.347656 34.871094 C 12.003906 34.253906 11.472656 33.683594 10.980469 33.402344 C 10.558594 33.160156 9.765625 32.96875 9.449219 33.027344 C 9.1875 33.078125 8.871094 33.414062 8.632812 33.886719 C 8.550781 34.054688 8.421875 34.25 8.355469 34.320312 C 8.285156 34.390625 8.074219 34.761719 7.890625 35.144531 L 7.550781 35.839844 L 7.5625 36.886719 C 7.570312 37.730469 7.601562 38.039062 7.714844 38.457031 C 7.792969 38.746094 7.878906 39.179688 7.910156 39.425781 C 8.703125 43.953125 12.226562 43.335938 14.832031 43.386719 Z M 14.746094 42.871094 "/>
<path style=" stroke:none;fill-rule:nonzero;fill:url(#linear2);" d="M 7.613281 39.558594 L 7.808594 39.269531 L 7.6875 38.796875 C 7.433594 37.777344 7.363281 36.449219 7.539062 35.90625 C 7.773438 35.175781 8.816406 33.566406 9.21875 33.3125 C 9.386719 33.207031 9.496094 33.191406 9.851562 33.21875 C 10.308594 33.257812 10.890625 33.433594 11.195312 33.621094 C 11.300781 33.6875 11.523438 33.871094 11.695312 34.039062 L 12.011719 34.335938 L 11.972656 33.984375 C 11.949219 33.789062 11.867188 33.375 11.792969 33.066406 C 11.683594 32.632812 11.648438 32.300781 11.648438 31.589844 C 11.644531 30.761719 11.660156 30.617188 11.832031 30.054688 L 12.023438 29.433594 L 11.914062 28.75 C 11.855469 28.371094 11.804688 27.988281 11.804688 27.898438 C 11.800781 27.75 11.765625 27.777344 11.429688 28.140625 C 11.066406 28.53125 11.042969 28.546875 10.546875 28.644531 C 9.617188 28.832031 8.6875 29.398438 7.632812 30.414062 C 6.597656 31.410156 5.941406 32.394531 5.535156 33.550781 C 5.421875 33.875 5.316406 34.316406 5.300781 34.53125 C 5.285156 34.746094 5.246094 35.308594 5.210938 35.773438 C 5.171875 36.285156 5.171875 36.960938 5.207031 37.472656 C 5.238281 37.941406 5.28125 38.90625 5.308594 39.617188 C 5.574219 40.894531 7.035156 40.878906 7.613281 39.558594 Z M 7.613281 39.558594 "/>
<path style=" stroke:none;fill-rule:nonzero;fill:url(#linear3);" d="M 16.933594 37.679688 C 17.445312 37.445312 18.039062 37.03125 18.539062 36.554688 C 19.007812 36.109375 21.839844 33.648438 22.214844 33.363281 C 22.351562 33.257812 22.46875 33.101562 22.492188 32.992188 C 22.550781 32.734375 22.945312 31.933594 23.195312 31.5625 C 23.308594 31.398438 23.980469 30.675781 24.6875 29.957031 C 26.492188 28.128906 26.585938 28.003906 26.902344 27.015625 C 27.109375 26.367188 27.511719 25.558594 27.777344 25.246094 C 27.902344 25.101562 28.125 24.929688 28.269531 24.863281 C 28.683594 24.675781 28.699219 24.691406 27.554688 24.28125 C 26.984375 24.078125 26.910156 24.066406 26.738281 24.144531 C 26.214844 24.382812 25.765625 24.84375 25.691406 25.214844 C 25.671875 25.308594 25.539062 25.792969 25.394531 26.296875 C 25.058594 27.46875 24.769531 28.058594 24.332031 28.46875 C 23.792969 28.980469 22 29.949219 20.597656 30.488281 C 19.28125 30.996094 17.648438 31.714844 17.515625 31.84375 C 17.441406 31.921875 17.359375 32.0625 17.335938 32.160156 C 17.300781 32.320312 17.320312 32.351562 17.519531 32.433594 C 17.652344 32.488281 17.824219 32.644531 17.929688 32.808594 C 18.09375 33.050781 18.113281 33.144531 18.113281 33.589844 C 18.113281 34.046875 18.09375 34.125 17.917969 34.378906 C 17.808594 34.53125 17.585938 34.753906 17.425781 34.875 C 17.265625 34.992188 17.101562 35.113281 17.0625 35.144531 C 17.023438 35.175781 16.929688 35.222656 16.851562 35.246094 C 16.773438 35.273438 16.710938 35.328125 16.710938 35.375 C 16.710938 35.542969 16.375 36.140625 16.183594 36.308594 C 16.050781 36.425781 16.007812 36.503906 16.054688 36.550781 C 16.171875 36.667969 16.125 36.835938 15.898438 37.136719 C 15.722656 37.363281 15.695312 37.4375 15.765625 37.464844 C 15.882812 37.511719 15.886719 37.710938 15.777344 37.828125 C 15.628906 37.984375 16.515625 37.871094 16.933594 37.679688 Z M 16.933594 37.679688 "/>
<path style=" stroke:none;fill-rule:nonzero;fill:url(#linear4);" d="M 14.578125 37.269531 C 14.636719 37.25 14.648438 37.144531 14.613281 36.898438 C 14.5625 36.523438 14.578125 36.460938 14.722656 36.460938 C 14.796875 36.460938 14.804688 36.433594 14.75 36.332031 C 14.636719 36.117188 14.667969 35.871094 14.808594 35.871094 C 14.929688 35.871094 14.929688 35.859375 14.828125 35.601562 C 14.730469 35.351562 14.730469 35.328125 14.835938 35.25 C 14.9375 35.175781 14.929688 35.152344 14.75 34.960938 C 14.523438 34.714844 14.421875 34.402344 14.421875 33.925781 C 14.421875 33.53125 14.523438 33.25 14.773438 32.953125 C 15.046875 32.628906 15.617188 32.28125 15.953125 32.234375 C 16.230469 32.199219 16.25 32.179688 16.25 32.007812 C 16.25 31.902344 16.285156 31.761719 16.328125 31.695312 C 16.449219 31.5 15.894531 30.679688 15.09375 29.871094 C 14.574219 29.34375 14.371094 29.085938 14.195312 28.726562 C 13.640625 27.589844 13.640625 26.808594 14.195312 25.964844 C 14.703125 25.191406 14.382812 25.246094 13.617188 26.0625 C 13.449219 26.242188 13.292969 26.386719 13.273438 26.378906 C 13.195312 26.34375 12.3125 27.160156 12.132812 27.433594 C 11.921875 27.746094 11.882812 28.109375 12 28.550781 C 12.144531 29.078125 12.125 29.417969 11.898438 30.316406 C 11.777344 30.800781 11.679688 31.308594 11.679688 31.4375 C 11.675781 31.851562 11.882812 33.214844 11.984375 33.453125 C 12.035156 33.578125 12.179688 33.972656 12.300781 34.324219 C 12.664062 35.382812 13.550781 36.90625 14.148438 37.496094 L 14.453125 37.800781 L 14.476562 37.550781 C 14.484375 37.414062 14.53125 37.289062 14.578125 37.269531 Z M 14.578125 37.269531 "/>
<path style=" stroke:none;fill-rule:nonzero;fill:rgb(13.72549%,15.294118%,16.078431%);fill-opacity:1;" d="M 19.089844 30.84375 C 20.972656 30.082031 22 29.621094 22.8125 29.164062 C 23.175781 28.960938 23.605469 28.722656 23.765625 28.636719 C 23.925781 28.550781 24.125 28.417969 24.207031 28.339844 C 24.460938 28.105469 24.917969 27.0625 25.203125 26.070312 C 25.355469 25.546875 25.5 25.105469 25.527344 25.089844 C 25.554688 25.070312 25.628906 24.960938 25.6875 24.84375 C 25.832031 24.566406 26.089844 24.332031 26.441406 24.167969 C 26.792969 24.003906 26.808594 24.015625 25.769531 23.65625 C 24.6875 23.28125 24.378906 23.105469 24.230469 22.765625 C 24.164062 22.613281 24.085938 22.394531 24.0625 22.277344 C 24.027344 22.117188 24 22.085938 23.953125 22.15625 C 23.910156 22.21875 23.898438 22.1875 23.921875 22.050781 C 23.980469 21.707031 24.027344 21.066406 23.988281 21.152344 C 23.96875 21.195312 23.921875 21.214844 23.882812 21.191406 C 23.835938 21.160156 23.824219 21.1875 23.851562 21.257812 C 23.878906 21.320312 23.871094 21.355469 23.839844 21.335938 C 23.804688 21.3125 23.640625 21.535156 23.472656 21.824219 C 23.300781 22.113281 23.152344 22.335938 23.136719 22.324219 C 23.121094 22.308594 23.308594 21.976562 23.550781 21.585938 L 23.988281 20.875 L 24.007812 20.160156 C 24.027344 19.375 24.089844 19.144531 24.101562 19.800781 C 24.109375 20.03125 24.125 20.144531 24.140625 20.054688 C 24.15625 19.964844 24.238281 19.554688 24.324219 19.140625 C 24.589844 17.84375 24.6875 17.179688 24.691406 16.664062 C 24.691406 16.238281 24.359375 14.074219 24.246094 13.78125 C 24.226562 13.726562 24.15625 13.976562 24.09375 14.335938 C 24.03125 14.695312 23.90625 15.167969 23.816406 15.382812 C 23.402344 16.359375 23.105469 17.550781 22.988281 18.734375 C 22.949219 19.105469 22.898438 20.355469 22.878906 21.515625 C 22.847656 23.078125 22.816406 23.652344 22.75 23.753906 C 22.703125 23.832031 22.523438 23.964844 22.351562 24.050781 C 22.058594 24.195312 21.960938 24.207031 21.054688 24.203125 C 19.945312 24.195312 19.800781 24.15625 19.769531 23.832031 C 19.75 23.628906 19.71875 23.605469 18.964844 23.277344 C 18.53125 23.089844 18.152344 22.933594 18.117188 22.933594 C 17.988281 22.929688 18.777344 23.664062 19.128906 23.875 C 19.757812 24.257812 20.300781 24.394531 21.15625 24.398438 C 21.875 24.402344 21.925781 24.394531 22.34375 24.1875 C 22.585938 24.070312 22.84375 23.894531 22.917969 23.800781 C 22.988281 23.707031 23.066406 23.644531 23.085938 23.664062 C 23.15625 23.734375 22.507812 24.234375 22.210938 24.335938 C 21.214844 24.679688 19.582031 24.433594 18.835938 23.820312 C 18.679688 23.691406 18.234375 23.46875 17.785156 23.292969 C 15.519531 22.402344 13.636719 20.914062 12.835938 19.378906 C 12.636719 19 12.625 18.9375 12.625 18.292969 C 12.625 17.648438 12.636719 17.582031 12.832031 17.214844 C 13.09375 16.714844 13.234375 16.585938 13.820312 16.320312 L 14.296875 16.101562 L 13.925781 15.808594 C 13.488281 15.460938 12.800781 14.730469 12.511719 14.3125 C 12.167969 13.800781 11.945312 13.402344 11.988281 13.363281 C 12.007812 13.34375 12.113281 13.480469 12.21875 13.667969 C 12.535156 14.222656 13.207031 15.046875 13.738281 15.527344 C 14.011719 15.769531 14.265625 15.984375 14.304688 15.996094 C 14.34375 16.011719 14.113281 15.726562 13.789062 15.367188 C 13.464844 15.003906 13.046875 14.507812 12.859375 14.261719 C 12.246094 13.453125 11.621094 11.976562 11.605469 11.300781 C 11.605469 11.171875 11.578125 11.011719 11.546875 10.9375 C 11.503906 10.835938 11.488281 10.863281 11.488281 11.070312 C 11.480469 11.628906 11.636719 12.382812 11.910156 13.089844 C 11.945312 13.179688 11.9375 13.203125 11.882812 13.167969 C 11.835938 13.136719 11.65625 13.269531 11.425781 13.5 C 11.101562 13.824219 11.023438 13.957031 10.875 14.402344 C 10.734375 14.824219 10.707031 14.871094 10.738281 14.636719 C 10.800781 14.164062 11 13.789062 11.402344 13.398438 L 11.777344 13.03125 L 11.625 12.507812 C 11.542969 12.21875 11.457031 11.804688 11.4375 11.585938 C 11.394531 11.160156 11.460938 10.429688 11.535156 10.472656 C 11.558594 10.488281 11.582031 10.382812 11.589844 10.234375 L 11.601562 9.96875 L 11.425781 10.191406 C 11.046875 10.675781 10.554688 11.484375 10.371094 11.933594 C 10.007812 12.796875 9.945312 13.140625 9.953125 14.175781 C 9.957031 15.035156 9.980469 15.207031 10.191406 16.035156 C 10.320312 16.539062 10.46875 17.070312 10.527344 17.214844 C 10.582031 17.355469 10.628906 17.550781 10.628906 17.640625 C 10.636719 18.003906 10.914062 19.125 11.058594 19.375 C 11.421875 20.003906 12.789062 21.226562 13.808594 21.832031 C 13.949219 21.917969 14.238281 22.097656 14.453125 22.234375 C 14.671875 22.367188 15.113281 22.628906 15.433594 22.8125 C 16.242188 23.261719 16.660156 23.546875 17.210938 24.019531 C 17.683594 24.425781 18.429688 24.902344 18.734375 24.992188 C 18.820312 25.019531 18.929688 25.078125 18.976562 25.125 C 19.105469 25.25 19.9375 25.425781 20.601562 25.464844 C 21.472656 25.511719 22.003906 25.339844 22.714844 24.773438 C 23.105469 24.460938 23.21875 24.242188 23.382812 23.519531 C 23.546875 22.804688 23.675781 22.574219 23.605469 23.128906 C 23.519531 23.796875 23.359375 24.3125 23.152344 24.582031 C 22.496094 25.4375 21.183594 25.800781 19.8125 25.511719 C 19.5625 25.457031 19.300781 25.414062 19.238281 25.414062 C 19.066406 25.414062 17.980469 24.863281 17.769531 24.671875 C 16.863281 23.847656 15.074219 22.625 15.074219 22.835938 C 15.074219 22.847656 15.199219 23.191406 15.347656 23.597656 C 15.679688 24.5 16.039062 25.292969 16.53125 26.203125 C 17.683594 28.339844 17.753906 29.015625 16.929688 30.035156 C 16.808594 30.183594 16.734375 30.324219 16.769531 30.347656 C 16.800781 30.367188 16.882812 30.523438 16.945312 30.691406 C 17.007812 30.863281 17.066406 31.015625 17.078125 31.027344 C 17.085938 31.039062 17.25 30.921875 17.441406 30.757812 C 18.039062 30.253906 19.433594 29.402344 19.660156 29.402344 C 19.796875 29.402344 21.082031 28.734375 21.554688 28.421875 C 21.78125 28.269531 22.269531 27.839844 22.636719 27.472656 C 23.234375 26.871094 23.335938 26.730469 23.628906 26.125 C 23.949219 25.457031 24.15625 24.707031 24.261719 23.832031 C 24.285156 23.625 24.332031 23.472656 24.363281 23.492188 C 24.398438 23.511719 24.410156 23.550781 24.398438 23.574219 C 24.382812 23.597656 24.351562 23.867188 24.328125 24.171875 C 24.304688 24.480469 24.246094 24.890625 24.195312 25.089844 C 24.148438 25.285156 24.089844 25.550781 24.070312 25.675781 C 23.984375 26.171875 23.601562 26.828125 22.988281 27.523438 C 22.585938 27.984375 21.003906 29.007812 19.804688 29.589844 C 18.972656 29.992188 18.339844 30.378906 17.773438 30.828125 C 17.457031 31.082031 17.4375 31.113281 17.507812 31.265625 C 17.546875 31.355469 17.59375 31.429688 17.613281 31.429688 C 17.632812 31.429688 18.296875 31.164062 19.09375 30.84375 Z M 19.089844 30.84375 "/>
<path style=" stroke:none;fill-rule:nonzero;fill:rgb(13.72549%,15.294118%,16.078431%);fill-opacity:1;" d="M 16.667969 31.136719 C 16.773438 31.054688 16.777344 31.015625 16.710938 30.8125 C 16.667969 30.6875 16.441406 30.324219 16.207031 30.007812 C 15.605469 29.203125 15.464844 28.820312 15.269531 27.480469 C 15.21875 27.144531 15.117188 26.859375 14.867188 26.382812 C 14.679688 26.027344 14.511719 25.761719 14.488281 25.789062 C 14.464844 25.816406 14.367188 26.019531 14.269531 26.242188 C 13.765625 27.394531 14.113281 28.550781 15.320312 29.742188 C 15.671875 30.085938 16.074219 30.5625 16.21875 30.796875 C 16.363281 31.035156 16.496094 31.226562 16.511719 31.226562 C 16.53125 31.226562 16.601562 31.1875 16.667969 31.136719 Z M 16.667969 31.136719 "/>
<path style=" stroke:none;fill-rule:nonzero;fill:rgb(13.72549%,15.294118%,16.078431%);fill-opacity:1;" d="M 16.859375 29.929688 C 17.113281 29.625 17.320312 29.144531 17.347656 28.777344 C 17.390625 28.28125 17.234375 27.839844 16.535156 26.472656 C 15.871094 25.171875 15.445312 24.222656 15.125 23.324219 C 15.015625 23.019531 14.882812 22.71875 14.828125 22.65625 C 14.777344 22.597656 14.535156 22.429688 14.292969 22.285156 C 14.050781 22.140625 13.578125 21.8125 13.242188 21.5625 C 12.910156 21.308594 12.625 21.109375 12.613281 21.121094 C 12.585938 21.148438 14.382812 25.117188 14.511719 25.3125 C 14.5625 25.394531 14.789062 25.808594 15.011719 26.238281 C 15.351562 26.898438 15.425781 27.105469 15.503906 27.605469 C 15.613281 28.324219 15.855469 29.050781 16.113281 29.433594 C 16.429688 29.90625 16.601562 30.121094 16.648438 30.121094 C 16.675781 30.121094 16.769531 30.035156 16.859375 29.929688 Z M 16.859375 29.929688 "/>
<path style=" stroke:none;fill-rule:nonzero;fill:rgb(13.72549%,15.294118%,16.078431%);fill-opacity:1;" d="M 20.304688 23.589844 C 20.304688 23.039062 20.183594 22.296875 20.015625 21.832031 C 19.957031 21.671875 19.933594 21.515625 19.953125 21.476562 C 19.976562 21.4375 19.964844 21.425781 19.929688 21.449219 C 19.890625 21.472656 19.84375 21.449219 19.820312 21.390625 C 19.796875 21.328125 19.808594 21.308594 19.855469 21.335938 C 20.078125 21.476562 19.484375 20.328125 18.972656 19.636719 C 18.453125 18.9375 17.488281 18.003906 16.761719 17.496094 C 15.039062 16.300781 14.140625 15.488281 13.800781 14.832031 C 13.71875 14.667969 13.417969 14.296875 13.132812 14.011719 C 12.851562 13.722656 12.523438 13.371094 12.402344 13.226562 L 12.183594 12.964844 L 12.398438 13.359375 C 12.515625 13.574219 12.769531 13.964844 12.96875 14.230469 C 13.300781 14.679688 14.25 15.789062 14.378906 15.882812 C 14.414062 15.90625 14.417969 15.953125 14.398438 15.992188 C 14.375 16.03125 14.390625 16.082031 14.429688 16.109375 C 14.484375 16.140625 14.488281 16.125 14.453125 16.0625 C 14.421875 16.011719 14.554688 16.117188 14.753906 16.292969 C 14.949219 16.46875 15.21875 16.683594 15.351562 16.773438 C 15.488281 16.863281 15.597656 16.949219 15.597656 16.964844 C 15.597656 17.011719 15.148438 16.726562 14.765625 16.441406 L 14.425781 16.1875 L 14.234375 16.324219 C 13.78125 16.648438 13.113281 17.515625 13.113281 17.785156 C 13.113281 17.832031 13.261719 17.984375 13.441406 18.121094 C 13.621094 18.261719 13.789062 18.40625 13.816406 18.445312 C 13.875 18.539062 13.527344 18.3125 13.222656 18.058594 C 12.992188 17.863281 12.984375 17.847656 13.058594 17.632812 C 13.175781 17.292969 13.421875 16.933594 13.757812 16.609375 L 14.058594 16.316406 L 13.660156 16.515625 C 13.332031 16.679688 13.214844 16.785156 13.027344 17.085938 C 12.585938 17.796875 12.542969 18.589844 12.90625 19.3125 C 13.300781 20.09375 14.308594 21.191406 15.246094 21.859375 C 15.867188 22.304688 16.386719 22.601562 16.480469 22.5625 C 16.523438 22.546875 16.644531 22.605469 16.742188 22.699219 C 16.839844 22.789062 16.949219 22.847656 16.980469 22.828125 C 17.011719 22.808594 17.035156 22.828125 17.035156 22.867188 C 17.035156 22.90625 17.0625 22.925781 17.089844 22.90625 C 17.121094 22.886719 17.351562 22.96875 17.601562 23.089844 C 17.855469 23.210938 18.128906 23.328125 18.214844 23.355469 L 18.371094 23.40625 L 18.191406 23.195312 C 18.09375 23.082031 18.035156 22.953125 18.058594 22.910156 C 18.082031 22.867188 18.078125 22.855469 18.046875 22.882812 C 17.988281 22.9375 17.753906 22.753906 17.753906 22.648438 C 17.753906 22.613281 17.804688 22.628906 17.867188 22.683594 C 17.980469 22.777344 19.332031 23.390625 19.632812 23.484375 C 19.769531 23.523438 19.777344 23.511719 19.742188 23.3125 C 19.722656 23.191406 19.691406 23.058594 19.679688 23.015625 C 19.667969 22.972656 19.332031 22.773438 18.933594 22.574219 C 18.535156 22.375 18.210938 22.199219 18.210938 22.183594 C 18.210938 22.167969 18.507812 22.289062 18.867188 22.453125 C 19.226562 22.621094 19.539062 22.738281 19.5625 22.710938 C 19.589844 22.6875 19.550781 22.53125 19.480469 22.359375 L 19.355469 22.050781 L 18.09375 21.40625 C 16.714844 20.710938 16.765625 20.710938 17.039062 21.34375 C 17.140625 21.582031 17.222656 21.652344 17.667969 21.878906 C 17.949219 22.023438 18.15625 22.140625 18.128906 22.144531 C 18.101562 22.144531 17.898438 22.058594 17.679688 21.945312 C 17.460938 21.835938 17.273438 21.757812 17.261719 21.769531 C 17.25 21.78125 17.355469 21.960938 17.496094 22.171875 C 17.640625 22.382812 17.738281 22.578125 17.71875 22.609375 C 17.699219 22.640625 17.714844 22.726562 17.753906 22.800781 C 17.792969 22.871094 17.800781 22.929688 17.773438 22.929688 C 17.703125 22.925781 17.132812 21.9375 17.140625 21.839844 C 17.148438 21.796875 17.128906 21.765625 17.101562 21.773438 C 17.070312 21.78125 16.851562 21.527344 16.609375 21.210938 C 16.109375 20.546875 15.527344 19.945312 15.140625 19.691406 C 14.996094 19.59375 14.890625 19.5 14.90625 19.484375 C 14.960938 19.433594 15.695312 20.035156 16.042969 20.414062 C 16.226562 20.613281 16.527344 20.984375 16.714844 21.234375 C 16.902344 21.484375 17.0625 21.691406 17.074219 21.691406 C 17.085938 21.691406 17.03125 21.578125 16.953125 21.445312 C 16.871094 21.308594 16.804688 21.125 16.796875 21.035156 C 16.792969 20.945312 16.773438 20.753906 16.75 20.613281 C 16.726562 20.460938 16.730469 20.417969 16.757812 20.515625 C 16.796875 20.644531 17.035156 20.792969 17.964844 21.265625 C 18.597656 21.585938 19.140625 21.828125 19.167969 21.800781 C 19.195312 21.773438 19.09375 21.570312 18.941406 21.347656 C 18.730469 21.03125 18.714844 20.992188 18.871094 21.167969 C 19.136719 21.46875 19.6875 22.613281 19.773438 23.050781 C 19.8125 23.238281 19.847656 23.523438 19.847656 23.683594 C 19.847656 23.980469 19.945312 24.101562 20.1875 24.105469 C 20.289062 24.109375 20.304688 24.039062 20.304688 23.589844 Z M 20.304688 23.589844 "/>
<path style=" stroke:none;fill-rule:nonzero;fill:rgb(99.607843%,98.039216%,7.058824%);fill-opacity:1;" d="M 22.230469 23.953125 C 22.714844 23.746094 22.722656 23.726562 22.722656 22.808594 C 22.726562 21.6875 22.835938 19.375 22.921875 18.617188 C 23.035156 17.640625 23.222656 16.84375 23.640625 15.601562 C 24.09375 14.253906 24.15625 13.859375 24 13.261719 C 23.941406 13.03125 23.882812 12.832031 23.867188 12.816406 C 23.855469 12.804688 23.78125 12.824219 23.707031 12.863281 C 23.5625 12.941406 23.316406 13.382812 23.179688 13.816406 C 23.132812 13.957031 23 14.222656 22.886719 14.402344 C 22.28125 15.347656 21.230469 15.796875 19.78125 15.722656 C 18.875 15.675781 17.859375 15.453125 15.648438 14.816406 C 14.644531 14.527344 13.808594 14.308594 13.789062 14.324219 C 13.730469 14.386719 14.003906 14.917969 14.308594 15.324219 C 14.652344 15.792969 15.378906 16.414062 16.480469 17.1875 C 17.875 18.164062 19.203125 19.613281 19.800781 20.8125 C 20.136719 21.480469 20.433594 22.832031 20.433594 23.675781 C 20.433594 23.867188 20.457031 24.042969 20.484375 24.070312 C 20.574219 24.164062 21.953125 24.070312 22.230469 23.953125 Z M 22.230469 23.953125 "/>
<path style=" stroke:none;fill-rule:nonzero;fill:url(#linear5);" d="M 20.828125 15.609375 C 21.335938 15.527344 22.082031 15.183594 22.386719 14.886719 C 22.824219 14.464844 23.109375 13.847656 23.367188 12.769531 C 23.425781 12.507812 23.425781 12.507812 23.433594 12.722656 L 23.441406 12.9375 L 23.632812 12.796875 C 23.738281 12.71875 23.863281 12.667969 23.914062 12.6875 C 23.988281 12.71875 23.992188 12.664062 23.925781 12.355469 C 23.460938 10.089844 22.515625 8.6875 20.90625 7.875 C 20.402344 7.621094 19.441406 7.3125 19.148438 7.3125 C 19.007812 7.3125 18.859375 7.277344 18.820312 7.238281 C 18.773438 7.195312 18.386719 7.152344 17.875 7.132812 C 16.867188 7.09375 16.203125 7.195312 15.285156 7.519531 C 14.335938 7.855469 12.917969 8.632812 12.917969 8.820312 C 12.917969 8.859375 12.886719 8.871094 12.851562 8.847656 C 12.816406 8.824219 12.535156 9.050781 12.230469 9.351562 L 11.675781 9.898438 L 11.675781 10.6875 C 11.675781 11.570312 11.789062 12.058594 12.125 12.636719 C 12.382812 13.082031 13.511719 14.273438 13.574219 14.171875 C 13.640625 14.066406 13.9375 14.125 14.875 14.433594 C 15.289062 14.570312 15.792969 14.730469 15.988281 14.789062 L 16.347656 14.890625 L 16.117188 14.679688 C 15.988281 14.5625 15.40625 14.074219 14.824219 13.59375 C 13.730469 12.695312 12.894531 11.832031 12.65625 11.359375 C 12.46875 10.992188 12.261719 10.164062 12.269531 9.800781 C 12.277344 9.546875 12.289062 9.582031 12.359375 10.027344 C 12.46875 10.726562 12.628906 11.195312 12.902344 11.613281 C 13.132812 11.960938 14.117188 12.917969 14.855469 13.507812 C 15.554688 14.066406 16.375 14.761719 16.414062 14.828125 C 16.4375 14.863281 16.796875 14.996094 17.21875 15.128906 C 18.347656 15.476562 18.273438 15.464844 18.082031 15.246094 C 17.941406 15.082031 17.949219 15.085938 18.152344 15.269531 C 18.351562 15.453125 18.464844 15.496094 18.96875 15.574219 C 19.6875 15.6875 20.273438 15.695312 20.828125 15.609375 Z M 20.828125 15.609375 "/>
<path style=" stroke:none;fill-rule:nonzero;fill:url(#linear6);" d="M 30.582031 30.871094 L 30.574219 30.164062 C 30.566406 29.53125 30.582031 29.421875 30.730469 29.105469 C 30.914062 28.71875 31.175781 28.472656 31.699219 28.1875 C 32 28.023438 32.097656 28.003906 32.621094 28.003906 C 33.167969 28.007812 33.21875 27.996094 33.335938 27.847656 C 33.40625 27.757812 33.558594 27.644531 33.679688 27.597656 C 33.800781 27.546875 33.898438 27.492188 33.898438 27.476562 C 33.898438 27.398438 32.851562 26.832031 32.566406 26.757812 C 30.257812 25.957031 28.679688 28.949219 28.816406 29.523438 C 28.351562 30.4375 28.085938 30.828125 27.664062 31.214844 C 27.410156 31.453125 27.226562 31.582031 26.480469 32.054688 L 26.285156 32.179688 L 26.742188 32.21875 C 27.0625 32.242188 26.875 32.257812 26.121094 32.265625 C 24.523438 32.285156 23.878906 32.460938 22.816406 33.160156 C 22.28125 33.511719 21.773438 33.9375 19.191406 36.199219 C 17.492188 37.683594 16.960938 38 16.023438 38.070312 C 15.769531 38.089844 15.492188 38.132812 15.402344 38.167969 C 14.742188 38.425781 14.539062 40.339844 14.910156 42.8125 C 14.957031 43.132812 15.015625 43.414062 15.035156 43.433594 C 15.15625 43.554688 19.203125 43.558594 20.4375 43.75 C 22.511719 44.066406 24.679688 44.105469 26.394531 43.585938 C 28.015625 43.09375 28.550781 43.417969 30.097656 42.304688 C 31.871094 41.03125 33.335938 39.847656 34.515625 38.742188 L 34.902344 38.375 L 34.703125 38.121094 C 34.363281 37.691406 34.042969 37.046875 33.867188 36.429688 C 33.773438 36.105469 33.625 35.695312 33.539062 35.515625 C 33.300781 35.003906 32.761719 34.277344 32.398438 33.972656 C 32.21875 33.820312 32.085938 33.671875 32.105469 33.644531 C 32.121094 33.613281 31.949219 33.402344 31.722656 33.171875 C 31.011719 32.367188 30.976562 32.15625 30.582031 30.871094 Z M 30.582031 30.871094 "/>
<path style=" stroke:none;fill-rule:nonzero;fill:url(#linear7);" d="M 19.277344 16.042969 L 21.71875 15.667969 C 21.710938 15.875 21.605469 15.917969 21.925781 16.398438 C 22.097656 16.652344 22.125 16.671875 22.398438 16.964844 C 22.839844 17.433594 21.695312 21.492188 22.578125 23.539062 L 21.0625 24.019531 C 20.882812 22.546875 20.835938 21.121094 19.558594 19.277344 C 19.3125 18.550781 18.894531 17.773438 19.382812 17.261719 C 19.648438 16.871094 19.691406 16.46875 19.277344 16.042969 Z M 19.277344 16.042969 "/>
</g>
</svg>
