<?xml version="1.0" encoding="UTF-8"?>
<svg xmlns="http://www.w3.org/2000/svg" xmlns:xlink="http://www.w3.org/1999/xlink" width="48pt" height="48pt" viewBox="0 0 48 48" version="1.1">
<g id="surface1">
<path style=" stroke:none;fill-rule:evenodd;fill:rgb(31.764706%,50.588235%,25.098039%);fill-opacity:1;" d="M 11.210938 2.847656 L 36.789062 2.847656 C 41.410156 2.847656 45.152344 6.589844 45.152344 11.210938 L 45.152344 36.789062 C 45.152344 41.410156 41.410156 45.152344 36.789062 45.152344 L 11.210938 45.152344 C 6.589844 45.152344 2.847656 41.410156 2.847656 36.789062 L 2.847656 11.210938 C 2.847656 6.589844 6.589844 2.847656 11.210938 2.847656 Z M 11.210938 2.847656 "/>
<path style=" stroke:none;fill-rule:nonzero;fill:rgb(38.431373%,61.176471%,30.196078%);fill-opacity:1;" d="M 19.585938 8.550781 L 28.414062 8.550781 L 28.414062 11.863281 L 19.585938 11.863281 Z M 19.585938 8.550781 "/>
<path style=" stroke:none;fill-rule:nonzero;fill:rgb(63.529412%,83.137255%,44.313725%);fill-opacity:1;" d="M 13.480469 10.757812 L 34.519531 10.757812 C 35.414062 10.757812 36.136719 11.515625 36.136719 12.445312 L 36.136719 37.761719 C 36.136719 38.691406 35.414062 39.449219 34.519531 39.449219 L 13.480469 39.449219 C 12.585938 39.449219 11.863281 38.691406 11.863281 37.761719 L 11.863281 12.445312 C 11.863281 11.515625 12.585938 10.757812 13.480469 10.757812 Z M 13.480469 10.757812 "/>
<path style=" stroke:none;fill-rule:nonzero;fill:rgb(54.117647%,72.941176%,32.156863%);fill-opacity:1;" d="M 11.25 9.65625 L 36.75 9.65625 C 37.632812 9.65625 38.34375 10.398438 38.34375 11.3125 L 38.34375 14.621094 C 38.34375 15.535156 37.632812 16.277344 36.75 16.277344 L 11.25 16.277344 C 10.367188 16.277344 9.65625 15.535156 9.65625 14.621094 L 9.65625 11.3125 C 9.65625 10.398438 10.367188 9.65625 11.25 9.65625 Z M 11.25 9.65625 "/>
<path style=" stroke:none;fill-rule:nonzero;fill:rgb(54.117647%,72.941176%,32.156863%);fill-opacity:1;" d="M 22.898438 20.691406 L 25.101562 20.691406 C 25.710938 20.691406 26.207031 21.035156 26.207031 21.460938 L 26.207031 35.363281 C 26.207031 35.792969 25.710938 36.136719 25.101562 36.136719 L 22.898438 36.136719 C 22.289062 36.136719 21.792969 35.792969 21.792969 35.363281 L 21.792969 21.460938 C 21.792969 21.035156 22.289062 20.691406 22.898438 20.691406 Z M 22.898438 20.691406 "/>
<path style=" stroke:none;fill-rule:nonzero;fill:rgb(54.117647%,72.941176%,32.156863%);fill-opacity:1;" d="M 16.277344 20.691406 L 18.484375 20.691406 C 19.09375 20.691406 19.585938 21.035156 19.585938 21.460938 L 19.585938 35.363281 C 19.585938 35.792969 19.09375 36.136719 18.484375 36.136719 L 16.277344 36.136719 C 15.667969 36.136719 15.171875 35.792969 15.171875 35.363281 L 15.171875 21.460938 C 15.171875 21.035156 15.667969 20.691406 16.277344 20.691406 Z M 16.277344 20.691406 "/>
<path style=" stroke:none;fill-rule:nonzero;fill:rgb(54.117647%,72.941176%,32.156863%);fill-opacity:1;" d="M 29.515625 20.691406 L 31.722656 20.691406 C 32.332031 20.691406 32.828125 21.035156 32.828125 21.460938 L 32.828125 35.363281 C 32.828125 35.792969 32.332031 36.136719 31.722656 36.136719 L 29.515625 36.136719 C 28.90625 36.136719 28.414062 35.792969 28.414062 35.363281 L 28.414062 21.460938 C 28.414062 21.035156 28.90625 20.691406 29.515625 20.691406 Z M 29.515625 20.691406 "/>
<path style=" stroke:none;fill-rule:nonzero;fill:rgb(54.117647%,72.941176%,32.156863%);fill-opacity:1;" d="M 19.585938 8.550781 L 28.414062 8.550781 L 28.414062 9.65625 L 19.585938 9.65625 Z M 19.585938 8.550781 "/>
</g>
</svg>
