<?xml version="1.0" encoding="UTF-8"?>
<svg xmlns="http://www.w3.org/2000/svg" xmlns:xlink="http://www.w3.org/1999/xlink" width="48pt" height="48pt" viewBox="0 0 48 48" version="1.1">
<g id="surface1">
<path style=" stroke:none;fill-rule:evenodd;fill:rgb(80%,80%,80%);fill-opacity:1;" d="M 11.210938 2.847656 L 36.789062 2.847656 C 41.410156 2.847656 45.152344 6.589844 45.152344 11.210938 L 45.152344 36.789062 C 45.152344 41.410156 41.410156 45.152344 36.789062 45.152344 L 11.210938 45.152344 C 6.589844 45.152344 2.847656 41.410156 2.847656 36.789062 L 2.847656 11.210938 C 2.847656 6.589844 6.589844 2.847656 11.210938 2.847656 Z M 11.210938 2.847656 "/>
<path style=" stroke:none;fill-rule:nonzero;fill:rgb(30.196078%,30.196078%,30.196078%);fill-opacity:1;" d="M 36 9 L 12 9 L 11.25 21 L 13.5 21 C 13.800781 18.921875 14.121094 16.894531 14.59375 15.566406 C 15.707031 12.53125 16.582031 12.070312 19.5 12.070312 C 20.917969 12.070312 21.75 12.527344 21.75 13.5625 L 21.75 34.128906 C 21.75 35.875 21.75 36 18.503906 36 L 17.25 36 L 17.25 39 L 30.75 39 L 30.75 36 L 29.496094 36 C 26.0625 36 26.25 35.875 26.25 34.128906 L 26.25 13.5625 C 26.25 12.527344 27.082031 12.070312 28.5 12.070312 C 31.117188 12.070312 32.078125 12.367188 33.148438 14.859375 C 33.796875 16.394531 34.15625 18.632812 34.5 21 L 36.75 21 Z M 36 9 "/>
</g>
</svg>
