<?xml version="1.0" encoding="UTF-8"?>
<svg xmlns="http://www.w3.org/2000/svg" xmlns:xlink="http://www.w3.org/1999/xlink" width="48pt" height="48pt" viewBox="0 0 48 48" version="1.1">
<g id="surface1">
<path style=" stroke:none;fill-rule:evenodd;fill:rgb(90.196078%,90.196078%,90.196078%);fill-opacity:1;" d="M 11.210938 2.847656 L 36.789062 2.847656 C 41.410156 2.847656 45.152344 6.589844 45.152344 11.210938 L 45.152344 36.789062 C 45.152344 41.410156 41.410156 45.152344 36.789062 45.152344 L 11.210938 45.152344 C 6.589844 45.152344 2.847656 41.410156 2.847656 36.789062 L 2.847656 11.210938 C 2.847656 6.589844 6.589844 2.847656 11.210938 2.847656 Z M 11.210938 2.847656 "/>
<path style=" stroke:none;fill-rule:nonzero;fill:rgb(59.607843%,60%,61.960784%);fill-opacity:1;" d="M 26.140625 39.363281 C 27.496094 39.210938 28.394531 39.023438 29.503906 38.660156 C 32.3125 37.75 34.511719 36.144531 35.996094 33.921875 C 36.972656 32.457031 37.550781 30.914062 37.855469 28.941406 C 37.9375 28.425781 38.03125 25.765625 37.96875 25.765625 C 37.949219 25.765625 37.910156 25.863281 37.878906 25.984375 C 37.769531 26.382812 37.316406 27.472656 36.96875 28.152344 C 36.34375 29.382812 35.683594 30.285156 34.75 31.183594 C 34.121094 31.792969 33.75 32.082031 33.0625 32.507812 C 30.992188 33.792969 28.261719 34.394531 25.238281 34.230469 C 23.199219 34.117188 21.667969 33.734375 20.246094 32.984375 C 19.980469 32.847656 19.757812 32.730469 19.746094 32.730469 C 19.703125 32.730469 19.933594 33.488281 20.113281 33.945312 C 20.816406 35.734375 22.289062 37.527344 23.921875 38.589844 C 24.398438 38.902344 25.34375 39.433594 25.417969 39.4375 C 25.449219 39.4375 25.773438 39.40625 26.140625 39.363281 Z M 26.140625 39.363281 "/>
<path style=" stroke:none;fill-rule:nonzero;fill:rgb(11.372549%,59.215686%,84.705882%);fill-opacity:1;" d="M 23.894531 39.453125 C 23.890625 39.433594 23.679688 39.277344 23.425781 39.109375 C 22.636719 38.589844 21.609375 37.625 20.941406 36.777344 C 19.84375 35.378906 19.199219 33.945312 18.875 32.191406 C 18.761719 31.574219 18.761719 31.550781 18.761719 25.058594 L 18.761719 18.542969 L 17.035156 18.542969 L 17.023438 21.753906 L 17.007812 24.964844 L 15.253906 24.964844 L 15.253906 21.148438 L 14.390625 21.132812 L 13.527344 21.121094 L 13.515625 21.984375 L 13.5 22.851562 L 11.773438 22.851562 L 11.757812 18.078125 L 11.746094 13.304688 L 11.152344 13.289062 C 10.828125 13.277344 10.4375 13.285156 10.289062 13.304688 L 10.011719 13.339844 L 10.03125 20.882812 C 10.050781 29.074219 10.03125 28.53125 10.332031 29.972656 C 10.789062 32.148438 11.984375 34.289062 13.605469 35.820312 C 14.039062 36.230469 15.21875 37.167969 15.300781 37.167969 C 15.316406 37.167969 15.425781 37.238281 15.550781 37.320312 C 15.675781 37.40625 16.019531 37.601562 16.316406 37.757812 C 17.984375 38.632812 20.003906 39.199219 22.089844 39.386719 C 22.445312 39.417969 22.816406 39.449219 22.917969 39.457031 C 23.292969 39.492188 23.898438 39.492188 23.894531 39.453125 Z M 15.226562 18.515625 L 15.226562 17.664062 L 13.527344 17.664062 L 13.527344 19.367188 L 15.226562 19.367188 Z M 16.984375 15.9375 L 16.984375 15.085938 L 15.28125 15.085938 L 15.28125 16.789062 L 16.984375 16.789062 Z M 18.742188 14.558594 C 18.746094 14.519531 18.75 14.132812 18.75 13.691406 L 18.753906 12.894531 L 17.035156 12.863281 L 17.035156 14.621094 L 17.886719 14.621094 C 18.53125 14.621094 18.738281 14.605469 18.742188 14.558594 Z M 15.226562 12.894531 L 15.226562 12.042969 L 13.527344 12.042969 L 13.527344 13.742188 L 15.226562 13.742188 Z M 16.984375 11.136719 L 16.984375 10.285156 L 15.28125 10.285156 L 15.28125 11.988281 L 16.984375 11.988281 Z M 11.707031 9.382812 L 11.722656 8.53125 L 10.015625 8.53125 L 10.015625 9.378906 C 10.015625 10.378906 9.902344 10.277344 10.972656 10.25 L 11.695312 10.230469 Z M 11.707031 9.382812 "/>
<path style=" stroke:none;fill-rule:nonzero;fill:rgb(1.960784%,1.960784%,2.745098%);fill-opacity:1;" d="M 30.140625 33.007812 C 31.203125 32.722656 32.253906 32.226562 33.160156 31.589844 C 34.734375 30.484375 35.960938 28.859375 36.816406 26.757812 C 37.042969 26.199219 37.269531 25.519531 37.757812 23.914062 L 37.984375 23.167969 L 37.984375 8.515625 L 37.117188 8.554688 C 33.898438 8.6875 31.855469 9.28125 30.636719 10.4375 C 30.128906 10.917969 29.789062 11.453125 29.574219 12.09375 C 29.277344 12.992188 29.300781 12.285156 29.261719 22.4375 C 29.226562 32.199219 29.238281 31.777344 29.027344 33.078125 L 28.992188 33.292969 L 29.320312 33.21875 C 29.503906 33.175781 29.871094 33.082031 30.140625 33.007812 Z M 30.140625 33.007812 "/>
</g>
</svg>
