<?xml version="1.0" encoding="UTF-8"?>
<svg xmlns="http://www.w3.org/2000/svg" xmlns:xlink="http://www.w3.org/1999/xlink" width="48pt" height="48pt" viewBox="0 0 48 48" version="1.1">
<defs>
<clipPath id="clip1">
  <rect width="48" height="48"/>
</clipPath>
<g id="surface6" clip-path="url(#clip1)">
<path style=" stroke:none;fill-rule:evenodd;fill:rgb(100%,99.607843%,89.411765%);fill-opacity:1;" d="M 33.03125 11.929688 C 36.328125 11.929688 38.996094 14.601562 38.996094 17.894531 C 38.996094 21.1875 36.328125 23.859375 33.03125 23.859375 C 29.738281 23.859375 27.070312 21.1875 27.070312 17.894531 C 27.070312 14.601562 29.738281 11.929688 33.03125 11.929688 Z M 33.03125 11.929688 "/>
</g>
<clipPath id="clip2">
  <rect width="48" height="48"/>
</clipPath>
<g id="surface9" clip-path="url(#clip2)">
<path style=" stroke:none;fill-rule:evenodd;fill:rgb(48.235294%,74.509804%,30.196078%);fill-opacity:1;" d="M 41.371094 34.210938 C 41.371094 38.355469 38.015625 41.710938 33.871094 41.710938 C 29.730469 41.710938 26.371094 38.355469 26.371094 34.210938 C 26.371094 30.070312 29.730469 26.710938 33.871094 26.710938 C 38.015625 26.710938 41.371094 30.070312 41.371094 34.210938 Z M 41.371094 34.210938 "/>
</g>
</defs>
<g id="surface1">
<path style=" stroke:none;fill-rule:nonzero;fill:rgb(100%,74.901961%,27.843137%);fill-opacity:1;" d="M 45.152344 32.785156 C 43.589844 32.277344 42.289062 31.792969 41.78125 31.753906 C 40.746094 31.671875 39.386719 32 38.15625 32.359375 C 36.925781 32.71875 35.820312 33.113281 35.289062 33.152344 C 34.761719 33.191406 32.9375 33.152344 31.796875 33.046875 C 30.65625 32.941406 29.671875 32.808594 29.246094 32.769531 C 28.824219 32.730469 27.621094 32.585938 26.929688 32.492188 C 26.238281 32.394531 25.625 32.308594 25.105469 32.261719 C 24.589844 32.210938 22.296875 32.042969 20.628906 31.941406 C 18.964844 31.839844 17.402344 31.753906 16.773438 31.753906 C 16.148438 31.746094 14.140625 31.808594 12.929688 31.882812 C 11.714844 31.957031 10.671875 32.027344 10.09375 32.007812 C 9.519531 31.988281 7.671875 31.671875 6.433594 31.441406 C 5.195312 31.207031 3.992188 31.035156 2.96875 31.242188 C 2.945312 31.25 2.878906 31.304688 2.847656 31.3125 L 2.847656 35.285156 L 45.152344 35.285156 Z M 45.152344 32.785156 "/>
<path style=" stroke:none;fill-rule:nonzero;fill:rgb(100%,82.745098%,41.568627%);fill-opacity:1;" d="M 11.210938 2.949219 C 10.054688 2.949219 8.953125 3.179688 7.949219 3.601562 C 6.949219 4.023438 6.046875 4.636719 5.289062 5.390625 C 4.535156 6.148438 3.925781 7.046875 3.503906 8.050781 C 3.082031 9.050781 2.847656 10.152344 2.847656 11.308594 L 2.847656 31.3125 C 2.878906 31.304688 2.945312 31.25 2.96875 31.242188 C 3.992188 31.035156 5.195312 31.207031 6.433594 31.441406 C 7.671875 31.671875 9.519531 31.988281 10.09375 32.007812 C 10.671875 32.027344 11.714844 31.957031 12.929688 31.882812 C 14.140625 31.808594 16.148438 31.746094 16.773438 31.753906 C 17.402344 31.753906 18.964844 31.839844 20.628906 31.941406 C 22.296875 32.042969 24.589844 32.210938 25.105469 32.261719 C 25.625 32.308594 26.238281 32.394531 26.929688 32.492188 C 27.621094 32.585938 28.824219 32.730469 29.246094 32.769531 C 29.671875 32.808594 30.65625 32.941406 31.796875 33.046875 C 32.9375 33.152344 34.761719 33.191406 35.289062 33.152344 C 35.820312 33.113281 36.925781 32.71875 38.15625 32.359375 C 39.386719 32 40.746094 31.671875 41.78125 31.753906 C 42.289062 31.792969 43.589844 32.277344 45.152344 32.785156 L 45.152344 11.308594 C 45.152344 10.152344 44.921875 9.050781 44.5 8.050781 C 44.078125 7.046875 43.464844 6.148438 42.707031 5.390625 C 41.953125 4.636719 41.054688 4.023438 40.050781 3.601562 C 39.050781 3.179688 37.949219 2.949219 36.789062 2.949219 Z M 11.210938 2.949219 "/>
<use xlink:href="#surface6"/>
<path style=" stroke:none;fill-rule:nonzero;fill:rgb(82.352941%,53.72549%,18.039216%);fill-opacity:1;" d="M 2.847656 35.285156 L 2.847656 36.6875 C 2.847656 37.84375 3.082031 38.945312 3.503906 39.949219 C 3.925781 40.949219 4.535156 41.851562 5.292969 42.609375 C 6.046875 43.363281 6.949219 43.972656 7.949219 44.394531 C 8.953125 44.816406 10.054688 45.050781 11.210938 45.050781 L 36.792969 45.050781 C 37.949219 45.050781 39.050781 44.816406 40.050781 44.394531 C 41.054688 43.972656 41.953125 43.363281 42.707031 42.609375 C 43.464844 41.851562 44.078125 40.949219 44.5 39.949219 C 44.921875 38.945312 45.152344 37.84375 45.152344 36.6875 L 45.152344 35.285156 Z M 2.847656 35.285156 "/>
<use xlink:href="#surface9"/>
<path style=" stroke:none;fill-rule:nonzero;fill:rgb(100%,100%,100%);fill-opacity:1;" d="M 32.816406 31.710938 L 34.929688 31.710938 C 35.171875 31.710938 35.371094 31.914062 35.371094 32.164062 L 35.371094 38.261719 C 35.371094 38.511719 35.171875 38.710938 34.929688 38.710938 L 32.816406 38.710938 C 32.570312 38.710938 32.371094 38.511719 32.371094 38.261719 L 32.371094 32.164062 C 32.371094 31.914062 32.570312 31.710938 32.816406 31.710938 Z M 32.816406 31.710938 "/>
<path style=" stroke:none;fill-rule:nonzero;fill:rgb(100%,100%,100%);fill-opacity:1;" d="M 33.871094 29.710938 L 37.371094 34.710938 L 30.371094 34.710938 Z M 33.871094 29.710938 "/>
</g>
</svg>
