<?xml version="1.0" encoding="UTF-8"?>
<svg xmlns="http://www.w3.org/2000/svg" xmlns:xlink="http://www.w3.org/1999/xlink" width="48pt" height="48pt" viewBox="0 0 48 48" version="1.1">
<g id="surface1">
<path style=" stroke:none;fill-rule:evenodd;fill:rgb(55.686275%,55.686275%,55.686275%);fill-opacity:1;" d="M 45.152344 18.710938 L 2.847656 18.710938 L 2.847656 36.789062 C 2.847656 41.421875 6.578125 45.152344 11.210938 45.152344 L 36.789062 45.152344 C 41.421875 45.152344 45.152344 41.421875 45.152344 36.789062 Z M 45.152344 18.710938 "/>
<path style=" stroke:none;fill-rule:evenodd;fill:rgb(100%,80.392157%,32.941176%);fill-opacity:1;" d="M 45.152344 13.507812 L 2.847656 13.507812 L 2.847656 18.710938 L 45.152344 18.710938 Z M 45.152344 13.507812 "/>
<path style=" stroke:none;fill-rule:evenodd;fill:rgb(53.72549%,87.843137%,34.509804%);fill-opacity:1;" d="M 44.582031 8.367188 L 3.417969 8.367188 C 3.09375 9.261719 2.847656 10.199219 2.847656 11.210938 L 2.847656 13.507812 L 45.152344 13.507812 L 45.152344 11.210938 C 45.152344 10.199219 44.90625 9.261719 44.582031 8.367188 Z M 44.582031 8.367188 "/>
<path style=" stroke:none;fill-rule:evenodd;fill:rgb(34.509804%,58.431373%,86.27451%);fill-opacity:1;" d="M 11.210938 2.847656 C 7.585938 2.847656 4.585938 5.15625 3.417969 8.367188 L 44.582031 8.367188 C 43.414062 5.15625 40.414062 2.847656 36.789062 2.847656 Z M 11.210938 2.847656 "/>
<path style=" stroke:none;fill-rule:nonzero;fill:rgb(92.54902%,92.54902%,92.54902%);fill-opacity:1;" d="M 18 28.078125 L 30 28.078125 C 30.828125 28.078125 31.5 28.75 31.5 29.578125 L 31.5 31.078125 C 31.5 31.90625 30.828125 32.578125 30 32.578125 L 18 32.578125 C 17.171875 32.578125 16.5 31.90625 16.5 31.078125 L 16.5 29.578125 C 16.5 28.75 17.171875 28.078125 18 28.078125 Z M 18 28.078125 "/>
</g>
</svg>
