<?xml version="1.0" encoding="UTF-8"?>
<svg xmlns="http://www.w3.org/2000/svg" xmlns:xlink="http://www.w3.org/1999/xlink" width="48pt" height="48pt" viewBox="0 0 48 48" version="1.1">
<g id="surface1">
<path style=" stroke:none;fill-rule:evenodd;fill:rgb(92.54902%,92.54902%,92.54902%);fill-opacity:1;" d="M 25.425781 2.847656 L 25.425781 18.574219 C 25.425781 18.988281 25.757812 19.324219 26.175781 19.324219 L 45.152344 19.324219 L 45.152344 11.210938 C 45.152344 6.578125 41.425781 2.847656 36.792969 2.847656 Z M 25.425781 2.847656 "/>
<path style=" stroke:none;fill-rule:evenodd;fill:rgb(29.019608%,70.196078%,89.411765%);fill-opacity:1;" d="M 36.792969 45.152344 C 41.425781 45.152344 45.152344 41.425781 45.152344 36.792969 L 45.152344 19.324219 L 26.175781 19.324219 C 25.757812 19.324219 25.425781 18.988281 25.425781 18.574219 L 25.425781 2.847656 L 11.210938 2.847656 C 6.574219 2.847656 2.847656 6.578125 2.847656 11.210938 L 2.847656 36.792969 C 2.847656 41.425781 6.574219 45.152344 11.210938 45.152344 Z M 36.792969 45.152344 "/>
</g>
</svg>
