<?xml version="1.0" encoding="UTF-8"?>
<svg xmlns="http://www.w3.org/2000/svg" xmlns:xlink="http://www.w3.org/1999/xlink" width="48pt" height="48pt" viewBox="0 0 48 48" version="1.1">
<g id="surface1">
<path style=" stroke:none;fill-rule:evenodd;fill:rgb(80%,80%,80%);fill-opacity:1;" d="M 11.210938 2.847656 L 36.789062 2.847656 C 41.410156 2.847656 45.152344 6.589844 45.152344 11.210938 L 45.152344 36.789062 C 45.152344 41.410156 41.410156 45.152344 36.789062 45.152344 L 11.210938 45.152344 C 6.589844 45.152344 2.847656 41.410156 2.847656 36.789062 L 2.847656 11.210938 C 2.847656 6.589844 6.589844 2.847656 11.210938 2.847656 Z M 11.210938 2.847656 "/>
<path style=" stroke:none;fill-rule:nonzero;fill:rgb(100%,100%,100%);fill-opacity:1;" d="M 24 7.9375 C 21.832031 7.9375 19.792969 8.964844 18.492188 10.703125 C 16.347656 10.390625 14.175781 11.109375 12.640625 12.640625 C 11.109375 14.175781 10.390625 16.34375 10.703125 18.492188 C 8.964844 19.789062 7.9375 21.832031 7.9375 24 C 7.9375 26.167969 8.964844 28.210938 10.703125 29.507812 C 10.390625 31.65625 11.109375 33.824219 12.640625 35.359375 C 14.175781 36.890625 16.34375 37.609375 18.492188 37.296875 C 19.789062 39.035156 21.832031 40.0625 24 40.0625 C 26.167969 40.0625 28.207031 39.035156 29.507812 37.296875 C 31.652344 37.609375 33.824219 36.890625 35.359375 35.359375 C 36.890625 33.824219 37.609375 31.65625 37.296875 29.507812 C 39.035156 28.210938 40.0625 26.167969 40.0625 24 C 40.0625 21.832031 39.035156 19.789062 37.296875 18.492188 C 37.609375 16.34375 36.890625 14.175781 35.359375 12.640625 C 33.824219 11.109375 31.65625 10.390625 29.507812 10.703125 C 28.210938 8.964844 26.167969 7.9375 24 7.9375 Z M 24 7.9375 "/>
<path style=" stroke:none;fill-rule:nonzero;fill:rgb(81.568627%,61.960784%,45.098039%);fill-opacity:1;" d="M 19.96875 20.53125 C 18.59375 19.160156 16.371094 19.160156 15 20.53125 L 10.03125 25.5 C 8.660156 26.871094 8.660156 29.097656 10.03125 30.46875 C 11.402344 31.839844 13.628906 31.839844 15 30.46875 L 19.96875 25.5 C 21.339844 24.128906 21.339844 21.902344 19.96875 20.53125 Z M 19.96875 20.53125 "/>
<path style=" stroke:none;fill-rule:nonzero;fill:rgb(81.568627%,61.960784%,45.098039%);fill-opacity:1;" d="M 33.007812 24 C 33.007812 28.96875 28.976562 33 24.007812 33 C 19.039062 33 15.007812 28.96875 15.007812 24 C 15.007812 19.03125 19.039062 15 24.007812 15 C 28.976562 15 33.007812 19.03125 33.007812 24 Z M 33.007812 24 "/>
<path style=" stroke:none;fill-rule:nonzero;fill:rgb(81.568627%,61.960784%,45.098039%);fill-opacity:1;" d="M 28.03125 20.53125 C 29.40625 19.160156 31.628906 19.160156 33 20.53125 L 37.96875 25.5 C 39.339844 26.871094 39.339844 29.097656 37.96875 30.46875 C 36.597656 31.839844 34.371094 31.839844 33 30.46875 L 28.03125 25.5 C 26.660156 24.128906 26.660156 21.902344 28.03125 20.53125 Z M 28.03125 20.53125 "/>
<path style=" stroke:none;fill-rule:nonzero;fill:rgb(30.196078%,30.196078%,30.196078%);fill-opacity:1;" d="M 22.507812 21.75 C 22.507812 22.992188 21.5 24 20.257812 24 C 19.015625 24 18.007812 22.992188 18.007812 21.75 C 18.007812 20.507812 19.015625 19.5 20.257812 19.5 C 21.5 19.5 22.507812 20.507812 22.507812 21.75 Z M 22.507812 21.75 "/>
<path style=" stroke:none;fill-rule:nonzero;fill:rgb(30.196078%,30.196078%,30.196078%);fill-opacity:1;" d="M 30.007812 21.75 C 30.007812 22.992188 29 24 27.757812 24 C 26.515625 24 25.507812 22.992188 25.507812 21.75 C 25.507812 20.507812 26.515625 19.5 27.757812 19.5 C 29 19.5 30.007812 20.507812 30.007812 21.75 Z M 30.007812 21.75 "/>
</g>
</svg>
