<?xml version="1.0" encoding="UTF-8"?>
<svg xmlns="http://www.w3.org/2000/svg" xmlns:xlink="http://www.w3.org/1999/xlink" width="48pt" height="48pt" viewBox="0 0 48 48" version="1.1">
<g id="surface1">
<path style=" stroke:none;fill-rule:evenodd;fill:rgb(60.392157%,79.215686%,23.529412%);fill-opacity:1;" d="M 11.210938 2.847656 L 36.789062 2.847656 C 41.410156 2.847656 45.152344 6.589844 45.152344 11.210938 L 45.152344 36.789062 C 45.152344 41.410156 41.410156 45.152344 36.789062 45.152344 L 11.210938 45.152344 C 6.589844 45.152344 2.847656 41.410156 2.847656 36.789062 L 2.847656 11.210938 C 2.847656 6.589844 6.589844 2.847656 11.210938 2.847656 Z M 11.210938 2.847656 "/>
<path style="fill:none;stroke-width:3;stroke-linecap:round;stroke-linejoin:round;stroke:rgb(100%,100%,100%);stroke-opacity:1;stroke-miterlimit:4;" d="M 12.499841 22.5 L 22.499841 9.5 " transform="matrix(1.5,0,0,1.5,-1.499762,0)"/>
<path style="fill:none;stroke-width:3;stroke-linecap:round;stroke-linejoin:round;stroke:rgb(100%,100%,100%);stroke-opacity:1;stroke-miterlimit:4;" d="M 11.499841 9.5 L 16.700362 16 " transform="matrix(1.5,0,0,1.5,-1.499762,0)"/>
<path style=" stroke:none;fill-rule:nonzero;fill:rgb(85.098039%,22.352941%,63.137255%);fill-opacity:1;" d="M 42.15625 33 C 42.15625 37.96875 38.128906 42 33.15625 42 C 28.1875 42 24.15625 37.96875 24.15625 33 C 24.15625 28.03125 28.1875 24 33.15625 24 C 38.128906 24 42.15625 28.03125 42.15625 33 Z M 42.15625 33 "/>
<path style=" stroke:none;fill-rule:nonzero;fill:rgb(100%,100%,100%);fill-opacity:1;" d="M 31.992188 28.5 L 31.894531 29.683594 C 31.519531 29.824219 31.167969 30.027344 30.859375 30.28125 L 29.78125 29.777344 L 28.65625 31.722656 L 29.636719 32.402344 C 29.601562 32.601562 29.582031 32.800781 29.582031 33 C 29.582031 33.199219 29.597656 33.402344 29.632812 33.597656 L 28.65625 34.277344 L 29.78125 36.222656 L 30.859375 35.71875 C 31.167969 35.972656 31.515625 36.175781 31.894531 36.3125 L 31.992188 37.5 L 34.242188 37.5 L 34.34375 36.316406 C 34.71875 36.175781 35.066406 35.972656 35.375 35.71875 L 36.453125 36.222656 L 37.578125 34.277344 L 36.597656 33.597656 C 36.632812 33.398438 36.652344 33.199219 36.652344 33 C 36.652344 32.800781 36.636719 32.597656 36.601562 32.402344 L 37.578125 31.722656 L 36.453125 29.777344 L 35.378906 30.28125 C 35.070312 30.027344 34.71875 29.824219 34.339844 29.6875 L 34.242188 28.5 Z M 33.117188 31.714844 C 33.828125 31.714844 34.402344 32.289062 34.402344 33 C 34.402344 33.710938 33.828125 34.285156 33.117188 34.285156 C 32.40625 34.285156 31.832031 33.710938 31.832031 33 C 31.832031 32.289062 32.40625 31.714844 33.117188 31.714844 Z M 33.117188 31.714844 "/>
</g>
</svg>
