<?xml version="1.0" encoding="UTF-8"?>
<svg xmlns="http://www.w3.org/2000/svg" xmlns:xlink="http://www.w3.org/1999/xlink" width="12pt" height="12pt" viewBox="0 0 12 12" version="1.1">
<g id="surface1">
<path style=" stroke:none;fill-rule:evenodd;fill:rgb(6.666667%,67.058824%,40%);fill-opacity:1;" d="M 2.835938 0.71875 L 9.308594 0.71875 C 10.472656 0.71875 11.421875 1.667969 11.421875 2.835938 L 11.421875 9.308594 C 11.421875 10.472656 10.472656 11.421875 9.308594 11.421875 L 2.835938 11.421875 C 1.667969 11.421875 0.71875 10.472656 0.71875 9.308594 L 0.71875 2.835938 C 0.71875 1.667969 1.667969 0.71875 2.835938 0.71875 Z M 2.835938 0.71875 "/>
<path style=" stroke:none;fill-rule:nonzero;fill:rgb(100%,100%,100%);fill-opacity:1;" d="M 4.398438 2.722656 C 3.472656 2.722656 2.722656 3.472656 2.722656 4.398438 C 2.722656 4.851562 2.910156 5.285156 3.238281 5.601562 C 3.214844 5.648438 3.203125 5.707031 3.203125 5.765625 L 3.203125 6.789062 C 3.070312 6.789062 2.964844 6.894531 2.964844 7.027344 C 2.964844 7.160156 3.070312 7.269531 3.203125 7.269531 L 3.203125 8.386719 C 3.203125 8.589844 3.339844 8.75 3.511719 8.75 L 4.59375 8.75 L 4.195312 9.164062 C 4.144531 9.21875 4.144531 9.28125 4.195312 9.335938 C 4.246094 9.386719 4.339844 9.417969 4.4375 9.417969 L 6.988281 9.417969 C 7.066406 9.417969 7.132812 9.398438 7.1875 9.367188 C 7.242188 9.335938 7.269531 9.292969 7.269531 9.242188 C 7.265625 9.214844 7.25 9.191406 7.230469 9.164062 L 6.832031 8.75 L 7.914062 8.75 C 8.085938 8.75 8.222656 8.589844 8.222656 8.386719 L 8.222656 7.574219 L 8.5 7.757812 L 9.164062 8.199219 C 9.21875 8.234375 9.28125 8.234375 9.335938 8.199219 C 9.386719 8.164062 9.417969 8.101562 9.417969 8.03125 L 9.417969 6.265625 C 9.417969 6.214844 9.398438 6.164062 9.367188 6.128906 C 9.335938 6.089844 9.292969 6.070312 9.242188 6.070312 C 9.214844 6.070312 9.191406 6.082031 9.164062 6.097656 L 8.5 6.539062 L 8.222656 6.71875 L 8.222656 5.765625 C 8.222656 5.707031 8.210938 5.648438 8.1875 5.601562 C 8.515625 5.289062 8.703125 4.851562 8.703125 4.398438 C 8.703125 3.472656 7.953125 2.722656 7.027344 2.722656 C 6.515625 2.722656 6.03125 2.960938 5.714844 3.363281 C 5.394531 2.960938 4.910156 2.722656 4.398438 2.722656 Z M 4.398438 2.722656 "/>
<path style=" stroke:none;fill-rule:nonzero;fill:rgb(6.666667%,67.058824%,40%);fill-opacity:1;" d="M 4.277344 3.441406 C 3.816406 3.441406 3.441406 3.816406 3.441406 4.277344 C 3.441406 4.738281 3.816406 5.113281 4.277344 5.113281 C 4.738281 5.113281 5.113281 4.738281 5.113281 4.277344 C 5.113281 3.816406 4.738281 3.441406 4.277344 3.441406 Z M 7.148438 3.441406 C 6.6875 3.441406 6.3125 3.816406 6.3125 4.277344 C 6.3125 4.738281 6.6875 5.113281 7.148438 5.113281 C 7.609375 5.113281 7.984375 4.738281 7.984375 4.277344 C 7.984375 3.816406 7.609375 3.441406 7.148438 3.441406 Z M 4.277344 3.679688 C 4.609375 3.679688 4.875 3.945312 4.875 4.277344 C 4.875 4.609375 4.609375 4.875 4.277344 4.875 C 3.945312 4.875 3.679688 4.609375 3.679688 4.277344 C 3.679688 3.945312 3.945312 3.679688 4.277344 3.679688 Z M 7.148438 3.679688 C 7.480469 3.679688 7.746094 3.945312 7.746094 4.277344 C 7.746094 4.609375 7.480469 4.875 7.148438 4.875 C 6.816406 4.875 6.546875 4.609375 6.546875 4.277344 C 6.546875 3.945312 6.816406 3.679688 7.148438 3.679688 Z M 7.148438 3.679688 "/>
</g>
</svg>
