<?xml version="1.0" encoding="UTF-8"?>
<svg xmlns="http://www.w3.org/2000/svg" xmlns:xlink="http://www.w3.org/1999/xlink" width="12pt" height="12pt" viewBox="0 0 12 12" version="1.1">
<g id="surface1">
<path style=" stroke:none;fill-rule:evenodd;fill:rgb(27.058824%,70.588235%,28.627451%);fill-opacity:1;" d="M 2.835938 0.71875 L 9.308594 0.71875 C 10.472656 0.71875 11.421875 1.667969 11.421875 2.835938 L 11.421875 9.308594 C 11.421875 10.472656 10.472656 11.421875 9.308594 11.421875 L 2.835938 11.421875 C 1.667969 11.421875 0.71875 10.472656 0.71875 9.308594 L 0.71875 2.835938 C 0.71875 1.667969 1.667969 0.71875 2.835938 0.71875 Z M 2.835938 0.71875 "/>
<path style=" stroke:none;fill-rule:nonzero;fill:rgb(22.352941%,22.352941%,22.352941%);fill-opacity:1;" d="M 7.96875 7.96875 C 7.96875 9.019531 7.121094 9.867188 6.070312 9.867188 C 5.023438 9.867188 4.175781 9.019531 4.175781 7.96875 C 4.175781 6.917969 5.023438 6.070312 6.070312 6.070312 C 7.121094 6.070312 7.96875 6.917969 7.96875 7.96875 Z M 7.96875 7.96875 "/>
<path style=" stroke:none;fill-rule:nonzero;fill:rgb(22.352941%,22.352941%,22.352941%);fill-opacity:1;" d="M 9.488281 5.691406 C 9.488281 7.578125 7.957031 9.105469 6.070312 9.105469 C 4.183594 9.105469 2.65625 7.578125 2.65625 5.691406 C 2.65625 3.804688 4.183594 2.277344 6.070312 2.277344 C 7.957031 2.277344 9.488281 3.804688 9.488281 5.691406 Z M 9.488281 5.691406 "/>
<path style=" stroke:none;fill-rule:nonzero;fill:rgb(87.45098%,34.117647%,30.196078%);fill-opacity:1;" d="M 3.453125 5.730469 C 4.046875 5.609375 4.691406 5.777344 5.152344 6.234375 C 5.609375 6.695312 5.777344 7.335938 5.652344 7.929688 C 5.058594 8.050781 4.417969 7.886719 3.957031 7.425781 C 3.5 6.96875 3.332031 6.324219 3.453125 5.730469 Z M 3.453125 5.730469 "/>
<path style=" stroke:none;fill-rule:nonzero;fill:rgb(87.45098%,34.117647%,30.196078%);fill-opacity:1;" d="M 8.6875 5.730469 C 8.09375 5.609375 7.453125 5.777344 6.992188 6.234375 C 6.53125 6.695312 6.367188 7.335938 6.488281 7.929688 C 7.085938 8.050781 7.726562 7.886719 8.1875 7.425781 C 8.644531 6.96875 8.8125 6.324219 8.6875 5.730469 Z M 8.6875 5.730469 "/>
</g>
</svg>
