<?xml version="1.0" encoding="UTF-8"?>
<svg xmlns="http://www.w3.org/2000/svg" xmlns:xlink="http://www.w3.org/1999/xlink" width="12pt" height="12pt" viewBox="0 0 12 12" version="1.1">
<g id="surface1">
<path style=" stroke:none;fill-rule:evenodd;fill:rgb(24.705882%,34.901961%,47.45098%);fill-opacity:1;" d="M 2.835938 0.71875 L 9.308594 0.71875 C 10.472656 0.71875 11.421875 1.667969 11.421875 2.835938 L 11.421875 9.308594 C 11.421875 10.472656 10.472656 11.421875 9.308594 11.421875 L 2.835938 11.421875 C 1.667969 11.421875 0.71875 10.472656 0.71875 9.308594 L 0.71875 2.835938 C 0.71875 1.667969 1.667969 0.71875 2.835938 0.71875 Z M 2.835938 0.71875 "/>
<path style=" stroke:none;fill-rule:evenodd;fill:rgb(100%,100%,100%);fill-opacity:1;" d="M 6.507812 5.644531 C 6.507812 5.960938 6.515625 6.226562 6.359375 6.511719 C 6.234375 6.742188 6.039062 6.882812 5.820312 6.882812 C 5.519531 6.882812 5.347656 6.644531 5.347656 6.292969 C 5.347656 5.59375 5.941406 5.464844 6.507812 5.464844 L 6.507812 5.644531 M 7.292969 7.636719 C 7.242188 7.683594 7.167969 7.691406 7.109375 7.65625 C 6.851562 7.429688 6.804688 7.328125 6.660156 7.113281 C 6.234375 7.570312 5.929688 7.707031 5.375 7.707031 C 4.714844 7.707031 4.203125 7.28125 4.203125 6.429688 C 4.203125 5.769531 4.546875 5.316406 5.035156 5.09375 C 5.460938 4.898438 6.050781 4.867188 6.503906 4.8125 L 6.503906 4.707031 C 6.503906 4.511719 6.519531 4.28125 6.410156 4.117188 C 6.3125 3.964844 6.132812 3.902344 5.972656 3.902344 C 5.675781 3.902344 5.410156 4.0625 5.34375 4.390625 C 5.328125 4.46875 5.277344 4.539062 5.210938 4.542969 L 4.449219 4.457031 C 4.386719 4.441406 4.316406 4.390625 4.332031 4.285156 C 4.507812 3.324219 5.335938 3.035156 6.078125 3.035156 C 6.460938 3.035156 6.957031 3.140625 7.257812 3.441406 C 7.640625 3.8125 7.601562 4.3125 7.601562 4.847656 L 7.601562 6.121094 C 7.601562 6.507812 7.753906 6.675781 7.894531 6.878906 C 7.945312 6.953125 7.957031 7.042969 7.894531 7.097656 C 7.734375 7.238281 7.453125 7.496094 7.296875 7.640625 L 7.292969 7.636719 "/>
<path style=" stroke:none;fill-rule:evenodd;fill:rgb(100%,60%,0%);fill-opacity:1;" d="M 8.660156 7.703125 C 8.449219 7.707031 8.199219 7.757812 8.007812 7.894531 C 7.949219 7.933594 7.960938 7.992188 8.023438 7.984375 C 8.238281 7.957031 8.714844 7.902344 8.800781 8.011719 C 8.886719 8.121094 8.707031 8.582031 8.625 8.789062 C 8.601562 8.851562 8.652344 8.875 8.707031 8.828125 C 9.066406 8.523438 9.15625 7.882812 9.085938 7.789062 C 9.046875 7.746094 8.871094 7.699219 8.660156 7.703125 Z M 3.082031 7.828125 C 3.035156 7.835938 3.015625 7.886719 3.0625 7.933594 C 3.855469 8.667969 4.902344 9.105469 6.066406 9.105469 C 6.894531 9.105469 7.855469 8.839844 8.523438 8.335938 C 8.632812 8.25 8.539062 8.128906 8.425781 8.175781 C 7.679688 8.5 6.871094 8.65625 6.136719 8.65625 C 5.042969 8.65625 3.984375 8.351562 3.128906 7.839844 C 3.109375 7.828125 3.09375 7.828125 3.082031 7.828125 Z M 3.082031 7.828125 "/>
</g>
</svg>
