<?xml version="1.0" encoding="UTF-8"?>
<svg xmlns="http://www.w3.org/2000/svg" xmlns:xlink="http://www.w3.org/1999/xlink" width="12pt" height="12pt" viewBox="0 0 12 12" version="1.1">
<g id="surface1">
<path style=" stroke:none;fill-rule:evenodd;fill:rgb(30.980392%,30.980392%,30.980392%);fill-opacity:1;" d="M 2.800781 0.710938 L 9.199219 0.710938 C 10.351562 0.710938 11.289062 1.648438 11.289062 2.800781 L 11.289062 9.199219 C 11.289062 10.351562 10.351562 11.289062 9.199219 11.289062 L 2.800781 11.289062 C 1.648438 11.289062 0.710938 10.351562 0.710938 9.199219 L 0.710938 2.800781 C 0.710938 1.648438 1.648438 0.710938 2.800781 0.710938 Z M 2.800781 0.710938 "/>
<path style=" stroke:none;fill-rule:nonzero;fill:rgb(24.705882%,69.803922%,67.058824%);fill-opacity:1;" d="M 3.929688 3.8125 C 3.28125 4.382812 2.871094 5.222656 2.871094 6.160156 C 2.871094 7.425781 3.617188 8.511719 4.695312 9.003906 L 4.695312 9.03125 L 4.746094 9.03125 C 4.898438 9.09375 5.054688 9.144531 5.21875 9.1875 L 5.21875 9.71875 C 3.542969 9.351562 2.351562 7.871094 2.347656 6.160156 C 2.347656 5.804688 2.398438 5.453125 2.5 5.117188 L 1.960938 5.117188 C 1.871094 5.457031 1.828125 5.808594 1.824219 6.160156 C 1.828125 8.363281 3.539062 10.1875 5.738281 10.324219 L 5.738281 8.480469 C 5.828125 8.496094 5.917969 8.503906 6.003906 8.507812 C 6.097656 8.503906 6.179688 8.492188 6.261719 8.480469 L 6.261719 10.320312 C 8.457031 10.183594 10.171875 8.363281 10.175781 6.160156 C 10.171875 5.808594 10.125 5.457031 10.035156 5.117188 L 9.496094 5.117188 C 9.597656 5.453125 9.652344 5.804688 9.652344 6.160156 C 9.648438 7.875 8.457031 9.355469 6.78125 9.722656 L 6.78125 9.1875 C 6.945312 9.144531 7.101562 9.09375 7.253906 9.03125 L 7.304688 9.03125 L 7.304688 9.003906 C 8.382812 8.511719 9.128906 7.425781 9.128906 6.160156 C 9.128906 5.222656 8.71875 4.382812 8.070312 3.8125 L 7.136719 3.8125 C 8.007812 4.234375 8.609375 5.121094 8.609375 6.160156 C 8.609375 7.128906 8.085938 7.96875 7.304688 8.417969 L 7.304688 8.082031 C 7.484375 7.90625 7.496094 7.644531 7.308594 7.445312 L 7.207031 7.335938 L 7.242188 7.132812 C 7.292969 6.828125 7.417969 6.601562 7.605469 6.472656 C 7.6875 6.417969 7.773438 6.351562 7.792969 6.328125 C 7.835938 6.273438 7.839844 6.007812 7.796875 5.855469 C 7.679688 5.4375 7.0625 4.546875 6.609375 4.136719 C 6.351562 3.90625 6.148438 3.800781 5.957031 3.8125 C 5.839844 3.820312 5.722656 3.871094 5.601562 3.960938 C 5.4375 4.078125 5.015625 4.519531 4.816406 4.78125 C 4.394531 5.339844 4.171875 5.789062 4.171875 6.101562 C 4.171875 6.3125 4.191406 6.34375 4.371094 6.464844 C 4.570312 6.59375 4.6875 6.789062 4.746094 7.09375 L 4.792969 7.335938 L 4.71875 7.40625 C 4.59375 7.515625 4.542969 7.640625 4.558594 7.792969 C 4.566406 7.898438 4.621094 8.003906 4.695312 8.082031 L 4.695312 8.417969 C 3.914062 7.96875 3.390625 7.128906 3.390625 6.160156 C 3.390625 5.121094 3.992188 4.234375 4.863281 3.8125 Z M 5.21875 7.464844 C 5.363281 7.464844 5.476562 7.582031 5.476562 7.726562 C 5.476562 7.867188 5.363281 7.984375 5.21875 7.984375 C 5.074219 7.984375 4.957031 7.867188 4.957031 7.726562 C 4.957031 7.582031 5.074219 7.464844 5.21875 7.464844 Z M 6.78125 7.464844 C 6.925781 7.464844 7.042969 7.582031 7.042969 7.726562 C 7.042969 7.867188 6.925781 7.984375 6.78125 7.984375 C 6.636719 7.984375 6.523438 7.867188 6.523438 7.726562 C 6.523438 7.582031 6.636719 7.464844 6.78125 7.464844 Z M 6.78125 7.464844 "/>
</g>
</svg>
