<?xml version="1.0" encoding="UTF-8"?>
<svg xmlns="http://www.w3.org/2000/svg" xmlns:xlink="http://www.w3.org/1999/xlink" width="12pt" height="12pt" viewBox="0 0 12 12" version="1.1">
<g id="surface1">
<path style=" stroke:none;fill-rule:nonzero;fill:rgb(12.54902%,52.54902%,90.588235%);fill-opacity:1;" d="M 11.382812 2.644531 C 11.363281 2.425781 11.339844 2.203125 11.253906 2.011719 C 11.148438 1.757812 10.996094 1.527344 10.804688 1.339844 C 10.609375 1.148438 10.386719 0.992188 10.132812 0.882812 C 9.9375 0.804688 9.71875 0.777344 9.5 0.757812 L 6.070312 0.757812 L 6.070312 6.070312 L 11.382812 6.070312 Z M 11.382812 2.644531 "/>
<path style=" stroke:none;fill-rule:nonzero;fill:rgb(7.843137%,86.666667%,69.411765%);fill-opacity:1;" d="M 2.640625 0.757812 C 2.425781 0.777344 2.203125 0.804688 2.011719 0.882812 C 1.757812 0.992188 1.527344 1.148438 1.339844 1.339844 C 1.148438 1.527344 0.992188 1.757812 0.882812 2.011719 C 0.804688 2.203125 0.777344 2.425781 0.757812 2.640625 L 0.757812 6.070312 L 6.070312 6.070312 L 6.070312 0.757812 Z M 2.640625 0.757812 "/>
<path style=" stroke:none;fill-rule:nonzero;fill:rgb(7.843137%,86.666667%,69.411765%);fill-opacity:1;" d="M 9.5 11.382812 C 9.71875 11.363281 9.9375 11.339844 10.132812 11.257812 C 10.386719 11.148438 10.613281 10.996094 10.804688 10.804688 C 10.996094 10.613281 11.148438 10.386719 11.257812 10.132812 C 11.339844 9.9375 11.363281 9.71875 11.382812 9.5 L 11.382812 6.070312 L 6.070312 6.070312 L 6.070312 11.382812 Z M 9.5 11.382812 "/>
<path style=" stroke:none;fill-rule:nonzero;fill:rgb(12.54902%,52.54902%,90.588235%);fill-opacity:1;" d="M 0.757812 9.496094 C 0.777344 9.71875 0.804688 9.9375 0.886719 10.132812 C 0.992188 10.386719 1.148438 10.613281 1.339844 10.804688 C 1.53125 10.996094 1.757812 11.148438 2.011719 11.257812 C 2.203125 11.339844 2.425781 11.363281 2.640625 11.382812 L 6.070312 11.382812 L 6.070312 6.070312 L 0.757812 6.070312 Z M 0.757812 9.496094 "/>
<path style=" stroke:none;fill-rule:evenodd;fill:rgb(24.705882%,24.705882%,24.705882%);fill-opacity:1;" d="M 3.613281 2.007812 L 8.53125 2.007812 C 9.417969 2.007812 10.136719 2.726562 10.136719 3.613281 L 10.136719 8.53125 C 10.136719 9.417969 9.417969 10.136719 8.53125 10.136719 L 3.613281 10.136719 C 2.726562 10.136719 2.007812 9.417969 2.007812 8.53125 L 2.007812 3.613281 C 2.007812 2.726562 2.726562 2.007812 3.613281 2.007812 Z M 3.613281 2.007812 "/>
<path style="fill:none;stroke-width:2;stroke-linecap:round;stroke-linejoin:bevel;stroke:rgb(100%,100%,100%);stroke-opacity:1;stroke-miterlimit:4;" d="M 21.004933 15.996582 C 21.004933 15.996582 21.004933 17.001047 18.996003 17.001047 C 16.998754 17.001047 16.998754 15.003797 16.998754 12.994867 C 16.998754 10.997618 16.998754 9.000368 18.996003 9.000368 C 21.004933 9.000368 21.004933 10.004833 21.004933 10.004833 " transform="matrix(0.334444,0,0,0.334444,1.057051,0.720347)"/>
<path style="fill:none;stroke-width:2;stroke-linecap:round;stroke-linejoin:bevel;stroke:rgb(100%,100%,100%);stroke-opacity:1;stroke-miterlimit:4;" d="M 8.998075 13.999332 L 13.004254 13.999332 M 8.998075 17.001047 L 8.998075 10.997618 M 13.004254 17.001047 L 13.004254 10.997618 M 8.998075 10.997618 C 8.998075 10.997618 8.998075 9.000368 10.995325 9.000368 C 13.004254 9.000368 13.004254 10.997618 13.004254 10.997618 " transform="matrix(0.334444,0,0,0.334444,1.057051,0.720347)"/>
<path style="fill:none;stroke-width:2;stroke-linecap:round;stroke-linejoin:miter;stroke:rgb(100%,100%,100%);stroke-opacity:1;stroke-miterlimit:4;" d="M 8.998075 23.004475 L 16.998754 23.004475 " transform="matrix(0.334444,0,0,0.334444,1.057051,0.720347)"/>
</g>
</svg>
