<?xml version="1.0" encoding="UTF-8"?>
<svg xmlns="http://www.w3.org/2000/svg" xmlns:xlink="http://www.w3.org/1999/xlink" width="12pt" height="12pt" viewBox="0 0 12 12" version="1.1">
<g id="surface1">
<path style=" stroke:none;fill-rule:evenodd;fill:rgb(23.137255%,41.960784%,23.137255%);fill-opacity:1;" d="M 7.773438 0.734375 L 2.765625 0.734375 C 1.640625 0.734375 0.734375 1.636719 0.734375 2.765625 L 0.734375 8.976562 C 0.734375 10.097656 1.640625 11.003906 2.765625 11.003906 L 8.976562 11.003906 C 10.101562 11.003906 11.003906 10.097656 11.003906 8.976562 L 11.003906 3.964844 Z M 7.773438 0.734375 "/>
<path style=" stroke:none;fill-rule:evenodd;fill:rgb(41.960784%,68.627451%,41.960784%);fill-opacity:1;" d="M 11.003906 3.964844 L 7.773438 0.734375 L 7.773438 1.9375 C 7.773438 3.0625 8.675781 3.964844 9.804688 3.964844 Z M 11.003906 3.964844 "/>
<path style=" stroke:none;fill-rule:nonzero;fill:rgb(41.960784%,68.627451%,41.960784%);fill-opacity:1;" d="M 3.667969 4.148438 L 3.667969 8.550781 L 8.070312 8.550781 L 8.070312 4.148438 Z M 4.035156 4.515625 L 7.703125 4.515625 L 7.703125 5.25 L 4.035156 5.25 Z M 4.035156 5.617188 L 4.769531 5.617188 L 4.769531 6.71875 L 4.035156 6.71875 Z M 5.136719 5.617188 L 6.601562 5.617188 L 6.601562 6.71875 L 5.136719 6.71875 Z M 6.96875 5.617188 L 7.703125 5.617188 L 7.703125 6.71875 L 6.96875 6.71875 Z M 4.035156 7.085938 L 4.769531 7.085938 L 4.769531 8.183594 L 4.035156 8.183594 Z M 5.136719 7.085938 L 6.601562 7.085938 L 6.601562 8.183594 L 5.136719 8.183594 Z M 6.96875 7.085938 L 7.703125 7.085938 L 7.703125 8.183594 L 6.96875 8.183594 Z M 6.96875 7.085938 "/>
</g>
</svg>
