<?xml version="1.0" encoding="UTF-8"?>
<svg xmlns="http://www.w3.org/2000/svg" xmlns:xlink="http://www.w3.org/1999/xlink" width="12pt" height="12pt" viewBox="0 0 12 12" version="1.1">
<g id="surface1">
<path style=" stroke:none;fill-rule:evenodd;fill:rgb(91.372549%,11.764706%,38.823529%);fill-opacity:1;" d="M 2.835938 0.71875 L 9.308594 0.71875 C 10.472656 0.71875 11.421875 1.667969 11.421875 2.835938 L 11.421875 9.308594 C 11.421875 10.472656 10.472656 11.421875 9.308594 11.421875 L 2.835938 11.421875 C 1.667969 11.421875 0.71875 10.472656 0.71875 9.308594 L 0.71875 2.835938 C 0.71875 1.667969 1.667969 0.71875 2.835938 0.71875 Z M 2.835938 0.71875 "/>
<path style=" stroke:none;fill-rule:nonzero;fill:rgb(100%,54.509804%,100%);fill-opacity:1;" d="M 5.621094 4.957031 L 6.882812 6.21875 C 7.066406 6.402344 7.359375 6.402344 7.542969 6.21875 C 7.726562 6.035156 7.730469 5.738281 7.542969 5.558594 L 6.28125 4.292969 C 5.375 3.386719 3.914062 3.375 2.992188 4.246094 C 2.984375 4.253906 2.972656 4.261719 2.964844 4.269531 C 2.964844 4.273438 2.957031 4.277344 2.953125 4.28125 C 2.953125 4.285156 2.945312 4.289062 2.945312 4.292969 C 2.933594 4.300781 2.925781 4.308594 2.921875 4.316406 C 2.046875 5.242188 2.0625 6.703125 2.964844 7.605469 L 4.230469 8.871094 C 4.414062 9.054688 4.710938 9.054688 4.890625 8.871094 C 5.074219 8.6875 5.074219 8.394531 4.890625 8.207031 L 3.628906 6.945312 C 3.078125 6.394531 3.070312 5.5 3.617188 4.945312 C 4.175781 4.398438 5.066406 4.402344 5.621094 4.957031 Z M 5.621094 4.957031 "/>
<path style=" stroke:none;fill-rule:nonzero;fill:rgb(100%,54.509804%,100%);fill-opacity:1;" d="M 7.25 3.273438 C 7.066406 3.453125 7.066406 3.75 7.25 3.933594 L 8.515625 5.199219 C 9.066406 5.746094 9.070312 6.644531 8.527344 7.199219 C 7.96875 7.742188 7.074219 7.738281 6.523438 7.1875 L 5.257812 5.921875 C 5.078125 5.742188 4.78125 5.742188 4.597656 5.921875 C 4.414062 6.109375 4.414062 6.402344 4.597656 6.585938 L 5.863281 7.851562 C 6.765625 8.753906 8.226562 8.769531 9.152344 7.894531 C 9.160156 7.886719 9.167969 7.882812 9.175781 7.875 C 9.179688 7.867188 9.183594 7.867188 9.1875 7.863281 C 9.191406 7.855469 9.195312 7.855469 9.199219 7.851562 C 9.207031 7.84375 9.214844 7.835938 9.222656 7.828125 C 10.09375 6.902344 10.082031 5.441406 9.175781 4.535156 L 7.914062 3.273438 C 7.730469 3.089844 7.433594 3.089844 7.25 3.273438 Z M 7.25 3.273438 "/>
</g>
</svg>
