<?xml version="1.0" encoding="UTF-8"?>
<svg xmlns="http://www.w3.org/2000/svg" xmlns:xlink="http://www.w3.org/1999/xlink" width="12pt" height="12pt" viewBox="0 0 12 12" version="1.1">
<defs>
<filter id="alpha" filterUnits="objectBoundingBox" x="0%" y="0%" width="100%" height="100%">
  <feColorMatrix type="matrix" in="SourceGraphic" values="0 0 0 0 1 0 0 0 0 1 0 0 0 0 1 0 0 0 1 0"/>
</filter>
<mask id="mask0">
  <g filter="url(#alpha)">
<rect x="0" y="0" width="12" height="12" style="fill:rgb(0%,0%,0%);fill-opacity:0.501961;stroke:none;"/>
  </g>
</mask>
<clipPath id="clip1">
  <rect width="12" height="12"/>
</clipPath>
<g id="surface6" clip-path="url(#clip1)">
<path style=" stroke:none;fill-rule:nonzero;fill:rgb(100%,100%,100%);fill-opacity:1;" d="M 2.753906 1.875 C 2.683594 1.875 2.625 1.933594 2.625 2.003906 L 2.625 3.292969 C 2.625 3.363281 2.683594 3.421875 2.753906 3.421875 L 3.535156 3.421875 C 3.605469 3.421875 3.664062 3.363281 3.664062 3.292969 L 3.664062 2.003906 C 3.664062 1.933594 3.605469 1.875 3.535156 1.875 Z M 2.882812 2.132812 L 3.402344 2.132812 L 3.402344 3.164062 L 2.882812 3.164062 Z M 2.882812 2.132812 "/>
<path style=" stroke:none;fill-rule:evenodd;fill:rgb(100%,100%,100%);fill-opacity:1;" d="M 4.570312 1.875 C 4.5 1.875 4.441406 1.933594 4.441406 2.003906 L 4.441406 3.292969 C 4.441406 3.335938 4.464844 3.382812 4.507812 3.40625 C 4.546875 3.425781 4.597656 3.425781 4.636719 3.40625 C 4.679688 3.382812 4.703125 3.335938 4.703125 3.292969 L 4.703125 2.003906 C 4.703125 1.972656 4.6875 1.9375 4.664062 1.914062 C 4.640625 1.886719 4.605469 1.875 4.570312 1.875 Z M 4.570312 1.875 "/>
<path style=" stroke:none;fill-rule:evenodd;fill:rgb(100%,100%,100%);fill-opacity:1;" d="M 5.609375 1.875 C 5.535156 1.875 5.480469 1.933594 5.480469 2.003906 L 5.480469 3.292969 C 5.480469 3.335938 5.503906 3.382812 5.546875 3.40625 C 5.585938 3.425781 5.636719 3.425781 5.675781 3.40625 C 5.714844 3.382812 5.742188 3.335938 5.742188 3.292969 L 5.742188 2.003906 C 5.742188 1.972656 5.726562 1.9375 5.703125 1.914062 C 5.675781 1.886719 5.644531 1.875 5.609375 1.875 Z M 5.609375 1.875 "/>
<path style=" stroke:none;fill-rule:nonzero;fill:rgb(100%,100%,100%);fill-opacity:1;" d="M 6.648438 1.875 C 6.578125 1.875 6.519531 1.933594 6.519531 2.003906 L 6.519531 3.292969 C 6.519531 3.363281 6.578125 3.421875 6.648438 3.421875 L 7.429688 3.421875 C 7.5 3.421875 7.558594 3.363281 7.558594 3.292969 L 7.558594 2.003906 C 7.558594 1.933594 7.5 1.875 7.429688 1.875 Z M 6.777344 2.132812 L 7.296875 2.132812 L 7.296875 3.164062 L 6.777344 3.164062 Z M 6.777344 2.132812 "/>
<path style=" stroke:none;fill-rule:nonzero;fill:rgb(100%,100%,100%);fill-opacity:1;" d="M 8.464844 1.875 C 8.394531 1.875 8.335938 1.933594 8.335938 2.003906 L 8.335938 3.292969 C 8.335938 3.363281 8.394531 3.421875 8.464844 3.421875 L 9.246094 3.421875 C 9.316406 3.421875 9.375 3.363281 9.375 3.292969 L 9.375 2.003906 C 9.375 1.933594 9.316406 1.875 9.246094 1.875 Z M 8.597656 2.132812 L 9.117188 2.132812 L 9.117188 3.164062 L 8.597656 3.164062 Z M 8.597656 2.132812 "/>
<path style=" stroke:none;fill-rule:nonzero;fill:rgb(100%,100%,100%);fill-opacity:1;" d="M 9.246094 4.195312 C 9.316406 4.195312 9.375 4.253906 9.375 4.324219 L 9.375 5.613281 C 9.375 5.683594 9.316406 5.742188 9.246094 5.742188 L 8.464844 5.742188 C 8.394531 5.742188 8.335938 5.683594 8.335938 5.613281 L 8.335938 4.324219 C 8.335938 4.253906 8.394531 4.195312 8.464844 4.195312 Z M 9.117188 4.453125 L 8.597656 4.453125 L 8.597656 5.484375 L 9.117188 5.484375 Z M 9.117188 4.453125 "/>
<path style=" stroke:none;fill-rule:evenodd;fill:rgb(100%,100%,100%);fill-opacity:1;" d="M 7.429688 4.195312 C 7.5 4.195312 7.558594 4.253906 7.558594 4.324219 L 7.558594 5.613281 C 7.558594 5.65625 7.535156 5.703125 7.492188 5.726562 C 7.453125 5.746094 7.402344 5.746094 7.363281 5.726562 C 7.320312 5.703125 7.296875 5.65625 7.296875 5.613281 L 7.296875 4.324219 C 7.296875 4.292969 7.3125 4.257812 7.335938 4.234375 C 7.359375 4.207031 7.394531 4.195312 7.429688 4.195312 Z M 7.429688 4.195312 "/>
<path style=" stroke:none;fill-rule:evenodd;fill:rgb(100%,100%,100%);fill-opacity:1;" d="M 6.390625 4.195312 C 6.464844 4.195312 6.519531 4.253906 6.519531 4.324219 L 6.519531 5.613281 C 6.519531 5.65625 6.496094 5.703125 6.453125 5.726562 C 6.414062 5.746094 6.363281 5.746094 6.324219 5.726562 C 6.285156 5.703125 6.257812 5.65625 6.257812 5.613281 L 6.257812 4.324219 C 6.257812 4.292969 6.273438 4.257812 6.296875 4.234375 C 6.324219 4.207031 6.355469 4.195312 6.390625 4.195312 Z M 6.390625 4.195312 "/>
<path style=" stroke:none;fill-rule:nonzero;fill:rgb(100%,100%,100%);fill-opacity:1;" d="M 5.351562 4.195312 C 5.421875 4.195312 5.480469 4.253906 5.480469 4.324219 L 5.480469 5.613281 C 5.480469 5.683594 5.421875 5.742188 5.351562 5.742188 L 4.570312 5.742188 C 4.5 5.742188 4.441406 5.683594 4.441406 5.613281 L 4.441406 4.324219 C 4.441406 4.253906 4.5 4.195312 4.570312 4.195312 Z M 5.222656 4.453125 L 4.703125 4.453125 L 4.703125 5.484375 L 5.222656 5.484375 Z M 5.222656 4.453125 "/>
<path style=" stroke:none;fill-rule:evenodd;fill:rgb(100%,100%,100%);fill-opacity:1;" d="M 3.277344 4.195312 C 3.347656 4.195312 3.40625 4.253906 3.402344 4.324219 L 3.402344 5.613281 C 3.40625 5.65625 3.378906 5.703125 3.339844 5.726562 C 3.300781 5.746094 3.25 5.746094 3.207031 5.726562 C 3.167969 5.703125 3.144531 5.65625 3.144531 5.613281 L 3.144531 4.324219 C 3.144531 4.292969 3.15625 4.257812 3.183594 4.234375 C 3.207031 4.207031 3.242188 4.195312 3.277344 4.195312 Z M 3.277344 4.195312 "/>
<path style=" stroke:none;fill-rule:nonzero;fill:rgb(100%,100%,100%);fill-opacity:1;" d="M 9.246094 6.257812 C 9.316406 6.257812 9.375 6.316406 9.375 6.386719 L 9.375 7.675781 C 9.375 7.746094 9.316406 7.804688 9.246094 7.804688 L 8.464844 7.804688 C 8.394531 7.804688 8.335938 7.746094 8.335938 7.675781 L 8.335938 6.386719 C 8.335938 6.316406 8.394531 6.257812 8.464844 6.257812 Z M 9.117188 6.515625 L 8.597656 6.515625 L 8.597656 7.546875 L 9.117188 7.546875 Z M 9.117188 6.515625 "/>
<path style=" stroke:none;fill-rule:evenodd;fill:rgb(100%,100%,100%);fill-opacity:1;" d="M 7.429688 6.257812 C 7.5 6.257812 7.558594 6.316406 7.558594 6.386719 L 7.558594 7.675781 C 7.558594 7.71875 7.535156 7.765625 7.492188 7.789062 C 7.453125 7.808594 7.402344 7.808594 7.363281 7.789062 C 7.320312 7.765625 7.296875 7.71875 7.296875 7.675781 L 7.296875 6.386719 C 7.296875 6.355469 7.3125 6.320312 7.335938 6.296875 C 7.359375 6.269531 7.394531 6.257812 7.429688 6.257812 Z M 7.429688 6.257812 "/>
<path style=" stroke:none;fill-rule:evenodd;fill:rgb(100%,100%,100%);fill-opacity:1;" d="M 6.390625 6.257812 C 6.464844 6.257812 6.519531 6.316406 6.519531 6.386719 L 6.519531 7.675781 C 6.519531 7.71875 6.496094 7.765625 6.453125 7.789062 C 6.414062 7.808594 6.363281 7.808594 6.324219 7.789062 C 6.285156 7.765625 6.257812 7.71875 6.257812 7.675781 L 6.257812 6.386719 C 6.257812 6.355469 6.273438 6.320312 6.296875 6.296875 C 6.324219 6.269531 6.355469 6.257812 6.390625 6.257812 Z M 6.390625 6.257812 "/>
<path style=" stroke:none;fill-rule:nonzero;fill:rgb(100%,100%,100%);fill-opacity:1;" d="M 5.351562 6.257812 C 5.421875 6.257812 5.480469 6.316406 5.480469 6.386719 L 5.480469 7.675781 C 5.480469 7.746094 5.421875 7.804688 5.351562 7.804688 L 4.570312 7.804688 C 4.5 7.804688 4.441406 7.746094 4.441406 7.675781 L 4.441406 6.386719 C 4.441406 6.316406 4.5 6.257812 4.570312 6.257812 Z M 5.222656 6.515625 L 4.703125 6.515625 L 4.703125 7.546875 L 5.222656 7.546875 Z M 5.222656 6.515625 "/>
<path style=" stroke:none;fill-rule:nonzero;fill:rgb(100%,100%,100%);fill-opacity:1;" d="M 3.535156 6.257812 C 3.605469 6.257812 3.664062 6.316406 3.664062 6.386719 L 3.664062 7.675781 C 3.664062 7.746094 3.605469 7.804688 3.535156 7.804688 L 2.753906 7.804688 C 2.683594 7.804688 2.625 7.746094 2.625 7.675781 L 2.625 6.386719 C 2.625 6.316406 2.683594 6.257812 2.753906 6.257812 Z M 3.402344 6.515625 L 2.882812 6.515625 L 2.882812 7.546875 L 3.402344 7.546875 Z M 3.402344 6.515625 "/>
<path style=" stroke:none;fill-rule:nonzero;fill:rgb(100%,100%,100%);fill-opacity:1;" d="M 2.753906 8.578125 C 2.683594 8.578125 2.625 8.636719 2.625 8.707031 L 2.625 9.996094 C 2.625 10.066406 2.683594 10.125 2.753906 10.125 L 3.535156 10.125 C 3.605469 10.125 3.664062 10.066406 3.664062 9.996094 L 3.664062 8.707031 C 3.664062 8.636719 3.605469 8.578125 3.535156 8.578125 Z M 2.882812 8.835938 L 3.402344 8.835938 L 3.402344 9.867188 L 2.882812 9.867188 Z M 2.882812 8.835938 "/>
<path style=" stroke:none;fill-rule:evenodd;fill:rgb(100%,100%,100%);fill-opacity:1;" d="M 4.570312 8.578125 C 4.5 8.578125 4.441406 8.636719 4.441406 8.707031 L 4.441406 9.996094 C 4.441406 10.039062 4.464844 10.085938 4.507812 10.109375 C 4.546875 10.128906 4.597656 10.128906 4.636719 10.109375 C 4.679688 10.085938 4.703125 10.039062 4.703125 9.996094 L 4.703125 8.707031 C 4.703125 8.675781 4.6875 8.640625 4.664062 8.617188 C 4.640625 8.589844 4.605469 8.578125 4.570312 8.578125 Z M 4.570312 8.578125 "/>
<path style=" stroke:none;fill-rule:evenodd;fill:rgb(100%,100%,100%);fill-opacity:1;" d="M 5.609375 8.578125 C 5.535156 8.578125 5.480469 8.636719 5.480469 8.707031 L 5.480469 9.996094 C 5.480469 10.039062 5.503906 10.085938 5.546875 10.109375 C 5.585938 10.128906 5.636719 10.128906 5.675781 10.109375 C 5.714844 10.085938 5.742188 10.039062 5.742188 9.996094 L 5.742188 8.707031 C 5.742188 8.675781 5.726562 8.640625 5.703125 8.617188 C 5.675781 8.589844 5.644531 8.578125 5.609375 8.578125 Z M 5.609375 8.578125 "/>
<path style=" stroke:none;fill-rule:nonzero;fill:rgb(100%,100%,100%);fill-opacity:1;" d="M 6.648438 8.578125 C 6.578125 8.578125 6.519531 8.636719 6.519531 8.707031 L 6.519531 9.996094 C 6.519531 10.066406 6.578125 10.125 6.648438 10.125 L 7.429688 10.125 C 7.5 10.125 7.558594 10.066406 7.558594 9.996094 L 7.558594 8.707031 C 7.558594 8.636719 7.5 8.578125 7.429688 8.578125 Z M 6.777344 8.835938 L 7.296875 8.835938 L 7.296875 9.867188 L 6.777344 9.867188 Z M 6.777344 8.835938 "/>
<path style=" stroke:none;fill-rule:evenodd;fill:rgb(100%,100%,100%);fill-opacity:1;" d="M 8.722656 8.578125 C 8.652344 8.578125 8.59375 8.636719 8.597656 8.707031 L 8.597656 9.996094 C 8.59375 10.039062 8.621094 10.085938 8.660156 10.109375 C 8.699219 10.128906 8.75 10.128906 8.792969 10.109375 C 8.832031 10.085938 8.855469 10.039062 8.855469 9.996094 L 8.855469 8.707031 C 8.855469 8.675781 8.84375 8.640625 8.816406 8.617188 C 8.792969 8.589844 8.757812 8.578125 8.722656 8.578125 Z M 8.722656 8.578125 "/>
</g>
</defs>
<g id="surface1">
<path style=" stroke:none;fill-rule:evenodd;fill:rgb(30.980392%,30.980392%,30.980392%);fill-opacity:1;" d="M 2.800781 0.710938 L 9.199219 0.710938 C 10.351562 0.710938 11.289062 1.648438 11.289062 2.800781 L 11.289062 9.199219 C 11.289062 10.351562 10.351562 11.289062 9.199219 11.289062 L 2.800781 11.289062 C 1.648438 11.289062 0.710938 10.351562 0.710938 9.199219 L 0.710938 2.800781 C 0.710938 1.648438 1.648438 0.710938 2.800781 0.710938 Z M 2.800781 0.710938 "/>
<use xlink:href="#surface6" mask="url(#mask0)"/>
<path style=" stroke:none;fill-rule:evenodd;fill:rgb(100%,100%,100%);fill-opacity:1;" d="M 8.800781 8.078125 L 7.882812 8.996094 Z M 8.800781 8.078125 "/>
<path style=" stroke:none;fill-rule:evenodd;fill:rgb(99.215686%,62.745098%,0.784314%);fill-opacity:1;" d="M 7.503906 2.851562 L 3.953125 6.382812 L 4.960938 6.414062 L 4.941406 7.347656 L 5.917969 7.390625 L 5.941406 8.292969 L 9.320312 4.914062 L 9.320312 4.800781 C 9.320312 3.761719 8.519531 2.9375 7.503906 2.851562 Z M 7.503906 2.851562 "/>
<path style=" stroke:none;fill-rule:evenodd;fill:rgb(99.215686%,62.745098%,0.784314%);fill-opacity:1;" d="M 3.953125 6.382812 L 4.960938 6.414062 L 4.941406 7.347656 L 5.917969 7.390625 L 5.941406 8.289062 L 7.484375 6.75 C 7.1875 5.835938 6.519531 5.089844 5.644531 4.703125 Z M 3.953125 6.382812 "/>
<path style=" stroke:none;fill-rule:evenodd;fill:rgb(100%,100%,100%);fill-opacity:1;" d="M 3.078125 9.226562 L 5.941406 8.292969 L 5.941406 8.289062 L 5.917969 7.390625 L 4.941406 7.347656 L 4.960938 6.414062 L 3.953125 6.382812 Z M 3.078125 9.226562 "/>
<path style=" stroke:none;fill-rule:nonzero;fill:rgb(0%,0%,0%);fill-opacity:1;" d="M 3.078125 9.226562 L 4.152344 8.875 L 3.40625 8.152344 Z M 3.078125 9.226562 "/>
</g>
</svg>
