<?xml version="1.0" encoding="UTF-8"?>
<svg xmlns="http://www.w3.org/2000/svg" xmlns:xlink="http://www.w3.org/1999/xlink" width="12pt" height="12pt" viewBox="0 0 12 12" version="1.1">
<g id="surface1">
<path style=" stroke:none;fill-rule:evenodd;fill:rgb(80%,80%,80%);fill-opacity:1;" d="M 11.421875 3.265625 L 11.421875 2.835938 C 11.421875 1.664062 10.480469 0.71875 9.308594 0.71875 L 5.019531 0.71875 C 5.011719 1.109375 4.953125 1.5 4.976562 1.878906 C 5.652344 1.78125 6.324219 1.761719 6.976562 1.800781 C 7.632812 1.84375 8.277344 1.957031 8.898438 2.125 C 9.515625 2.292969 10.121094 2.523438 10.691406 2.808594 C 10.949219 2.933594 11.175781 3.113281 11.421875 3.265625 Z M 11.421875 3.265625 "/>
<path style=" stroke:none;fill-rule:evenodd;fill:rgb(80%,80%,80%);fill-opacity:1;" d="M 11.421875 7.082031 L 11.421875 3.929688 C 11.351562 3.886719 11.289062 3.824219 11.214844 3.78125 C 10.71875 3.476562 10.195312 3.21875 9.644531 3.011719 C 9.097656 2.800781 8.53125 2.640625 7.945312 2.535156 C 7.359375 2.425781 6.753906 2.367188 6.140625 2.371094 C 5.777344 2.371094 5.40625 2.394531 5.035156 2.4375 C 5.121094 2.9375 5.246094 3.441406 5.421875 3.9375 C 5.59375 4.433594 5.820312 4.921875 6.097656 5.394531 C 6.726562 5.410156 7.335938 5.480469 7.925781 5.601562 C 8.511719 5.722656 9.082031 5.894531 9.625 6.109375 C 10.167969 6.328125 10.6875 6.59375 11.175781 6.898438 C 11.265625 6.953125 11.335938 7.027344 11.421875 7.082031 Z M 11.421875 7.082031 "/>
<path style=" stroke:none;fill-rule:evenodd;fill:rgb(80%,80%,80%);fill-opacity:1;" d="M 5.640625 11.421875 L 9.308594 11.421875 C 10.480469 11.421875 11.421875 10.480469 11.421875 9.308594 L 11.421875 7.859375 C 11.3125 7.777344 11.226562 7.6875 11.113281 7.609375 C 10.667969 7.304688 10.191406 7.03125 9.691406 6.792969 C 9.390625 7.503906 9.007812 8.167969 8.570312 8.773438 C 8.125 9.382812 7.621094 9.9375 7.0625 10.425781 C 6.625 10.808594 6.136719 11.117188 5.640625 11.421875 Z M 5.640625 11.421875 "/>
<path style=" stroke:none;fill-rule:evenodd;fill:rgb(80%,80%,80%);fill-opacity:1;" d="M 0.886719 10.132812 C 1.210938 10.894531 1.957031 11.421875 2.835938 11.421875 L 4.476562 11.421875 C 4.496094 11.414062 4.515625 11.410156 4.527344 11.40625 C 5.207031 11.082031 5.84375 10.679688 6.425781 10.199219 C 7.011719 9.722656 7.542969 9.171875 8.007812 8.554688 C 8.472656 7.933594 8.871094 7.253906 9.183594 6.515625 C 8.707031 6.34375 8.203125 6.207031 7.683594 6.109375 C 7.164062 6.011719 6.632812 5.953125 6.097656 5.953125 C 5.769531 6.5 5.394531 7.003906 4.980469 7.460938 C 4.566406 7.917969 4.113281 8.332031 3.628906 8.695312 C 3.144531 9.0625 2.632812 9.382812 2.09375 9.652344 C 1.703125 9.847656 1.296875 9.988281 0.886719 10.132812 Z M 0.886719 10.132812 "/>
<path style=" stroke:none;fill-rule:evenodd;fill:rgb(80%,80%,80%);fill-opacity:1;" d="M 1.085938 1.714844 C 0.875 2.046875 0.71875 2.414062 0.71875 2.835938 L 0.71875 9.308594 C 0.71875 9.398438 0.761719 9.480469 0.773438 9.570312 C 1.0625 9.46875 1.363281 9.382812 1.640625 9.25 C 2.136719 9.015625 2.617188 8.734375 3.070312 8.414062 C 2.691406 7.890625 2.367188 7.339844 2.09375 6.777344 C 1.820312 6.214844 1.597656 5.632812 1.433594 5.042969 C 1.265625 4.453125 1.15625 3.851562 1.097656 3.246094 C 1.046875 2.738281 1.058594 2.226562 1.085938 1.714844 Z M 1.085938 1.714844 "/>
<path style=" stroke:none;fill-rule:evenodd;fill:rgb(80%,80%,80%);fill-opacity:1;" d="M 4.378906 0.71875 L 2.835938 0.71875 C 2.417969 0.71875 2.054688 0.871094 1.726562 1.078125 C 1.660156 1.617188 1.617188 2.164062 1.644531 2.710938 C 1.671875 3.332031 1.761719 3.953125 1.910156 4.566406 C 2.0625 5.179688 2.273438 5.777344 2.554688 6.359375 C 2.828125 6.9375 3.167969 7.496094 3.574219 8.023438 C 3.96875 7.714844 4.332031 7.351562 4.667969 6.953125 C 5.003906 6.558594 5.316406 6.125 5.59375 5.675781 C 5.320312 5.199219 5.09375 4.707031 4.914062 4.203125 C 4.730469 3.703125 4.597656 3.1875 4.503906 2.671875 C 4.410156 2.15625 4.363281 1.636719 4.355469 1.121094 C 4.351562 0.984375 4.378906 0.855469 4.378906 0.71875 Z M 4.378906 0.71875 "/>
<path style=" stroke:none;fill-rule:evenodd;fill:rgb(40%,40%,40%);fill-opacity:1;" d="M 4.378906 0.71875 C 4.378906 0.855469 4.351562 0.984375 4.355469 1.121094 C 4.363281 1.636719 4.410156 2.15625 4.503906 2.671875 C 4.597656 3.1875 4.730469 3.703125 4.914062 4.203125 C 5.09375 4.707031 5.320312 5.199219 5.59375 5.675781 C 5.316406 6.125 5.003906 6.558594 4.667969 6.953125 C 4.332031 7.351562 3.96875 7.714844 3.574219 8.023438 C 3.167969 7.496094 2.828125 6.9375 2.554688 6.359375 C 2.273438 5.777344 2.0625 5.179688 1.910156 4.566406 C 1.761719 3.953125 1.671875 3.332031 1.644531 2.710938 C 1.617188 2.164062 1.660156 1.617188 1.726562 1.078125 C 1.464844 1.242188 1.253906 1.453125 1.085938 1.714844 C 1.058594 2.226562 1.046875 2.738281 1.097656 3.246094 C 1.15625 3.851562 1.265625 4.453125 1.433594 5.042969 C 1.597656 5.632812 1.820312 6.214844 2.09375 6.777344 C 2.367188 7.339844 2.691406 7.890625 3.070312 8.414062 C 2.617188 8.734375 2.136719 9.015625 1.640625 9.25 C 1.363281 9.382812 1.0625 9.46875 0.773438 9.570312 C 0.796875 9.761719 0.816406 9.960938 0.886719 10.132812 C 1.296875 9.988281 1.703125 9.847656 2.09375 9.652344 C 2.632812 9.382812 3.144531 9.0625 3.628906 8.695312 C 4.113281 8.332031 4.566406 7.917969 4.980469 7.460938 C 5.394531 7.003906 5.769531 6.5 6.097656 5.953125 C 6.632812 5.953125 7.164062 6.011719 7.683594 6.109375 C 8.203125 6.207031 8.707031 6.34375 9.183594 6.515625 C 8.871094 7.253906 8.472656 7.933594 8.007812 8.554688 C 7.542969 9.171875 7.011719 9.722656 6.425781 10.199219 C 5.84375 10.679688 5.207031 11.082031 4.527344 11.40625 C 4.515625 11.410156 4.496094 11.414062 4.476562 11.421875 L 5.640625 11.421875 C 6.136719 11.117188 6.625 10.808594 7.0625 10.425781 C 7.621094 9.9375 8.125 9.382812 8.570312 8.773438 C 9.007812 8.167969 9.390625 7.503906 9.691406 6.792969 C 10.191406 7.03125 10.667969 7.304688 11.113281 7.609375 C 11.226562 7.6875 11.3125 7.777344 11.421875 7.859375 L 11.421875 7.082031 C 11.335938 7.027344 11.265625 6.953125 11.175781 6.898438 C 10.6875 6.59375 10.167969 6.328125 9.625 6.109375 C 9.082031 5.894531 8.511719 5.722656 7.925781 5.601562 C 7.335938 5.480469 6.726562 5.410156 6.097656 5.394531 C 5.820312 4.921875 5.59375 4.433594 5.421875 3.9375 C 5.246094 3.441406 5.121094 2.9375 5.035156 2.4375 C 5.40625 2.394531 5.777344 2.371094 6.140625 2.371094 C 6.753906 2.367188 7.359375 2.425781 7.945312 2.535156 C 8.53125 2.640625 9.097656 2.800781 9.644531 3.011719 C 10.195312 3.21875 10.71875 3.476562 11.214844 3.78125 C 11.289062 3.824219 11.351562 3.886719 11.421875 3.929688 L 11.421875 3.265625 C 11.175781 3.113281 10.949219 2.933594 10.691406 2.808594 C 10.121094 2.523438 9.515625 2.292969 8.898438 2.125 C 8.277344 1.957031 7.632812 1.84375 6.976562 1.800781 C 6.324219 1.761719 5.652344 1.78125 4.976562 1.878906 C 4.953125 1.5 5.011719 1.109375 5.019531 0.71875 Z M 4.378906 0.71875 "/>
</g>
</svg>
