<?xml version="1.0" encoding="UTF-8"?>
<svg xmlns="http://www.w3.org/2000/svg" xmlns:xlink="http://www.w3.org/1999/xlink" width="12pt" height="12pt" viewBox="0 0 12 12" version="1.1">
<g id="surface1">
<path style=" stroke:none;fill-rule:evenodd;fill:rgb(78.039216%,29.019608%,70.588235%);fill-opacity:1;" d="M 2.835938 0.71875 L 9.308594 0.71875 C 10.472656 0.71875 11.421875 1.667969 11.421875 2.835938 L 11.421875 9.308594 C 11.421875 10.472656 10.472656 11.421875 9.308594 11.421875 L 2.835938 11.421875 C 1.667969 11.421875 0.71875 10.472656 0.71875 9.308594 L 0.71875 2.835938 C 0.71875 1.667969 1.667969 0.71875 2.835938 0.71875 Z M 2.835938 0.71875 "/>
<path style=" stroke:none;fill-rule:evenodd;fill:rgb(78.039216%,29.019608%,70.588235%);fill-opacity:1;" d="M 3.445312 11.421875 L 9.304688 11.421875 C 10.480469 11.421875 11.421875 10.480469 11.421875 9.304688 L 11.421875 2.835938 C 11.421875 1.664062 10.480469 0.71875 9.304688 0.71875 L 3.445312 0.71875 Z M 3.445312 11.421875 "/>
<path style=" stroke:none;fill-rule:evenodd;fill:rgb(62.352941%,23.137255%,56.470588%);fill-opacity:1;" d="M 3.445312 11.421875 L 3.445312 0.71875 L 2.835938 0.71875 C 1.664062 0.71875 0.71875 1.664062 0.71875 2.835938 L 0.71875 9.304688 C 0.71875 10.480469 1.664062 11.421875 2.835938 11.421875 Z M 3.445312 11.421875 "/>
<path style=" stroke:none;fill-rule:nonzero;fill:rgb(59.215686%,91.372549%,39.215686%);fill-opacity:1;" d="M 7.539062 0.71875 L 7.539062 6.03125 L 8.296875 5.273438 L 9.058594 6.03125 L 9.058594 0.71875 Z M 7.539062 0.71875 "/>
</g>
</svg>
