<?xml version="1.0" encoding="UTF-8"?>
<svg xmlns="http://www.w3.org/2000/svg" xmlns:xlink="http://www.w3.org/1999/xlink" width="12pt" height="12pt" viewBox="0 0 12 12" version="1.1">
<defs>
<linearGradient id="linear0" gradientUnits="userSpaceOnUse" x1="67.894455" y1="108.691" x2="67.854446" y2="113.1134" gradientTransform="matrix(0.997578,0,0,1.029369,-60.77404,-110.581736)">
<stop offset="0" style="stop-color:rgb(97.647059%,97.647059%,97.647059%);stop-opacity:1;"/>
<stop offset="1" style="stop-color:rgb(60%,60%,60%);stop-opacity:1;"/>
</linearGradient>
</defs>
<g id="surface1">
<path style=" stroke:none;fill-rule:evenodd;fill:rgb(76.078431%,20.784314%,16.470588%);fill-opacity:1;" d="M 2.835938 0.71875 L 9.308594 0.71875 C 10.472656 0.71875 11.421875 1.667969 11.421875 2.835938 L 11.421875 9.308594 C 11.421875 10.472656 10.472656 11.421875 9.308594 11.421875 L 2.835938 11.421875 C 1.667969 11.421875 0.71875 10.472656 0.71875 9.308594 L 0.71875 2.835938 C 0.71875 1.667969 1.667969 0.71875 2.835938 0.71875 Z M 2.835938 0.71875 "/>
<path style=" stroke:none;fill-rule:nonzero;fill:rgb(100%,100%,100%);fill-opacity:1;" d="M 6.070312 1.894531 L 7.40625 4.734375 L 10.25 5.070312 L 8.246094 7.242188 L 8.746094 10.25 L 6.070312 8.746094 L 3.398438 10.25 L 3.898438 7.242188 L 1.894531 5.070312 L 4.734375 4.734375 Z M 6.070312 1.894531 "/>
<path style=" stroke:none;fill-rule:nonzero;fill:url(#linear0);" d="M 2.765625 0.00390625 C -0.375 -0.132812 -0.785156 3.792969 1.238281 3.789062 C 1.496094 3.789062 1.847656 3.707031 2.367188 3.203125 C 5.121094 -0.792969 7.945312 4.558594 9.019531 3.550781 C 9.664062 2.828125 10.34375 3.394531 10.707031 3.59375 C 11.5 3.839844 12.09375 3.609375 12.144531 2.367188 C 12.210938 1.109375 11.425781 -0.0390625 9.894531 0.0078125 C 7.652344 0.0625 4.964844 -0.0117188 2.765625 0.00390625 Z M 2.765625 0.00390625 "/>
</g>
</svg>
