<?xml version="1.0" encoding="UTF-8"?>
<svg xmlns="http://www.w3.org/2000/svg" xmlns:xlink="http://www.w3.org/1999/xlink" width="12pt" height="12pt" viewBox="0 0 12 12" version="1.1">
<g id="surface1">
<path style=" stroke:none;fill-rule:evenodd;fill:rgb(0%,77.254902%,52.54902%);fill-opacity:1;" d="M 2.835938 0.71875 L 9.308594 0.71875 C 10.472656 0.71875 11.421875 1.667969 11.421875 2.835938 L 11.421875 9.308594 C 11.421875 10.472656 10.472656 11.421875 9.308594 11.421875 L 2.835938 11.421875 C 1.667969 11.421875 0.71875 10.472656 0.71875 9.308594 L 0.71875 2.835938 C 0.71875 1.667969 1.667969 0.71875 2.835938 0.71875 Z M 2.835938 0.71875 "/>
<path style=" stroke:none;fill-rule:nonzero;fill:rgb(100%,100%,100%);fill-opacity:1;" d="M 8.917969 3.226562 L 3.226562 5.046875 L 5.332031 5.921875 L 6.070312 6.070312 L 6.230469 6.832031 L 7.09375 8.917969 Z M 5.097656 6.644531 C 5.097656 6.636719 5.03125 6.640625 4.976562 6.65625 C 4.757812 6.714844 4.445312 6.945312 4.277344 7.171875 C 4.085938 7.429688 3.984375 7.734375 3.984375 8.042969 C 3.984375 8.128906 3.988281 8.140625 4.015625 8.152344 C 4.042969 8.167969 4.285156 8.148438 4.386719 8.128906 C 4.671875 8.070312 4.914062 7.941406 5.132812 7.722656 C 5.269531 7.582031 5.347656 7.472656 5.425781 7.308594 C 5.480469 7.199219 5.515625 7.066406 5.496094 7.046875 C 5.492188 7.046875 5.464844 7.0625 5.433594 7.085938 C 5.199219 7.238281 5.011719 7.347656 4.742188 7.398438 C 4.8125 7.136719 4.886719 6.9375 5.023438 6.75 C 5.0625 6.695312 5.097656 6.648438 5.097656 6.644531 Z M 5.097656 6.644531 "/>
<path style=" stroke:none;fill-rule:nonzero;fill:rgb(76.862745%,94.509804%,89.019608%);fill-opacity:1;" d="M 3.226562 5.046875 L 5.332031 5.921875 L 6.070312 6.070312 L 8.917969 3.226562 Z M 3.226562 5.046875 "/>
</g>
</svg>
