<?xml version="1.0" encoding="UTF-8"?>
<svg xmlns="http://www.w3.org/2000/svg" xmlns:xlink="http://www.w3.org/1999/xlink" width="12pt" height="12pt" viewBox="0 0 12 12" version="1.1">
<defs>
<clipPath id="clip1">
  <rect width="12" height="12"/>
</clipPath>
<g id="surface6" clip-path="url(#clip1)">
<path style=" stroke:none;fill-rule:nonzero;fill:rgb(100%,100%,100%);fill-opacity:1;" d="M 7.496094 8.730469 L 6.746094 8.699219 L 6.777344 7.949219 L 7.527344 7.980469 Z M 8.386719 5.855469 L 8.039062 6.1875 C 7.757812 6.449219 7.578125 6.667969 7.554688 7.230469 L 6.804688 7.199219 L 6.8125 7.011719 C 6.832031 6.601562 7.015625 6.230469 7.296875 5.96875 L 7.777344 5.515625 C 7.921875 5.386719 8.011719 5.203125 8.019531 4.996094 C 8.039062 4.585938 7.714844 4.234375 7.300781 4.21875 C 6.890625 4.199219 6.539062 4.523438 6.523438 4.9375 L 5.773438 4.90625 C 5.804688 4.078125 6.503906 3.433594 7.332031 3.46875 C 8.160156 3.5 8.804688 4.199219 8.769531 5.027344 C 8.757812 5.355469 8.609375 5.652344 8.386719 5.855469 Z M 8.386719 5.855469 "/>
</g>
</defs>
<g id="surface1">
<path style=" stroke:none;fill-rule:evenodd;fill:rgb(0%,58.431373%,80%);fill-opacity:1;" d="M 3.40625 11.289062 L 9.195312 11.289062 C 10.355469 11.289062 11.289062 10.355469 11.289062 9.195312 L 11.289062 2.800781 C 11.289062 1.644531 10.355469 0.710938 9.195312 0.710938 L 3.40625 0.710938 Z M 3.40625 11.289062 "/>
<path style=" stroke:none;fill-rule:evenodd;fill:rgb(0%,46.666667%,63.921569%);fill-opacity:1;" d="M 3.40625 11.289062 L 3.40625 0.710938 L 2.800781 0.710938 C 1.644531 0.710938 0.710938 1.644531 0.710938 2.800781 L 0.710938 9.195312 C 0.710938 10.355469 1.644531 11.289062 2.800781 11.289062 Z M 3.40625 11.289062 "/>
<use xlink:href="#surface6"/>
</g>
</svg>
