<?xml version="1.0" encoding="UTF-8"?>
<svg xmlns="http://www.w3.org/2000/svg" xmlns:xlink="http://www.w3.org/1999/xlink" width="12pt" height="12pt" viewBox="0 0 12 12" version="1.1">
<g id="surface1">
<path style=" stroke:none;fill-rule:evenodd;fill:rgb(30.980392%,30.980392%,30.980392%);fill-opacity:1;" d="M 2.800781 0.710938 L 9.199219 0.710938 C 10.351562 0.710938 11.289062 1.648438 11.289062 2.800781 L 11.289062 9.199219 C 11.289062 10.351562 10.351562 11.289062 9.199219 11.289062 L 2.800781 11.289062 C 1.648438 11.289062 0.710938 10.351562 0.710938 9.199219 L 0.710938 2.800781 C 0.710938 1.648438 1.648438 0.710938 2.800781 0.710938 Z M 2.800781 0.710938 "/>
<path style=" stroke:none;fill-rule:nonzero;fill:rgb(80%,80%,80%);fill-opacity:1;" d="M 4.207031 2.625 C 4.125 2.625 4.035156 2.625 3.941406 2.625 C 3.457031 2.617188 2.976562 2.632812 2.492188 2.625 C 2.160156 2.625 2.234375 3.035156 2.332031 3.207031 C 3.402344 5.113281 4.667969 7.246094 5.84375 9.257812 C 6.070312 9.589844 6.308594 9.136719 6.4375 8.945312 C 6.757812 8.453125 7.019531 7.941406 7.292969 7.425781 C 7.40625 7.082031 7.085938 6.816406 6.972656 6.523438 C 6.277344 5.289062 5.546875 4.078125 4.835938 2.855469 C 4.667969 2.652344 4.460938 2.625 4.207031 2.625 Z M 7.703125 2.625 C 7.34375 2.625 7.570312 3.03125 7.570312 3.03125 C 7.570312 3.03125 8.109375 4.054688 8.421875 4.613281 C 8.730469 5.171875 8.898438 4.691406 8.976562 4.535156 C 9.257812 3.980469 9.5 3.398438 9.695312 3.011719 C 9.894531 2.628906 9.484375 2.625 9.484375 2.625 Z M 7.703125 2.625 "/>
</g>
</svg>
