<?xml version="1.0" encoding="UTF-8"?>
<svg xmlns="http://www.w3.org/2000/svg" xmlns:xlink="http://www.w3.org/1999/xlink" width="12pt" height="12pt" viewBox="0 0 12 12" version="1.1">
<g id="surface1">
<path style=" stroke:none;fill-rule:evenodd;fill:rgb(76.078431%,20.784314%,16.470588%);fill-opacity:1;" d="M 2.800781 0.710938 L 9.199219 0.710938 C 10.351562 0.710938 11.289062 1.648438 11.289062 2.800781 L 11.289062 9.199219 C 11.289062 10.351562 10.351562 11.289062 9.199219 11.289062 L 2.800781 11.289062 C 1.648438 11.289062 0.710938 10.351562 0.710938 9.199219 L 0.710938 2.800781 C 0.710938 1.648438 1.648438 0.710938 2.800781 0.710938 Z M 2.800781 0.710938 "/>
<path style=" stroke:none;fill-rule:nonzero;fill:rgb(100%,100%,100%);fill-opacity:1;" d="M 6.21875 7.109375 C 8.160156 6.003906 8.121094 6.027344 8.121094 6.003906 C 8.121094 5.984375 4.71875 4.03125 4.703125 4.042969 C 4.691406 4.050781 4.691406 7.941406 4.699219 7.953125 C 4.707031 7.957031 4.71875 7.957031 4.726562 7.953125 C 4.738281 7.949219 5.410156 7.570312 6.21875 7.109375 Z M 6.21875 7.109375 "/>
</g>
</svg>
