<?xml version="1.0" encoding="UTF-8"?>
<svg xmlns="http://www.w3.org/2000/svg" xmlns:xlink="http://www.w3.org/1999/xlink" width="12pt" height="12pt" viewBox="0 0 12 12" version="1.1">
<defs>
<filter id="alpha" filterUnits="objectBoundingBox" x="0%" y="0%" width="100%" height="100%">
  <feColorMatrix type="matrix" in="SourceGraphic" values="0 0 0 0 1 0 0 0 0 1 0 0 0 0 1 0 0 0 1 0"/>
</filter>
<mask id="mask0">
  <g filter="url(#alpha)">
<rect x="0" y="0" width="12" height="12" style="fill:rgb(0%,0%,0%);fill-opacity:0.701961;stroke:none;"/>
  </g>
</mask>
<radialGradient id="radial0" gradientUnits="userSpaceOnUse" cx="15.5" cy="11.491" fx="15.5" fy="11.491" r="6.5" gradientTransform="matrix(0.264362,0,0,0.304677,1.770213,1.306972)">
<stop offset="0" style="stop-color:rgb(0%,0%,0%);stop-opacity:1;"/>
<stop offset="1" style="stop-color:rgb(0%,0%,0%);stop-opacity:0;"/>
</radialGradient>
<clipPath id="clip1">
  <rect width="12" height="12"/>
</clipPath>
<g id="surface6" clip-path="url(#clip1)">
<path style=" stroke:none;fill-rule:nonzero;fill:url(#radial0);" d="M 5.339844 2.828125 C 5.265625 2.828125 5.207031 2.886719 5.207031 2.960938 C 5.207031 3.03125 5.265625 3.09375 5.339844 3.09375 C 5.410156 3.09375 5.472656 3.03125 5.472656 2.960938 C 5.472656 2.886719 5.410156 2.828125 5.339844 2.828125 Z M 5.867188 2.828125 C 5.792969 2.828125 5.734375 2.886719 5.734375 2.960938 C 5.734375 3.03125 5.792969 3.09375 5.867188 3.09375 C 5.941406 3.09375 6 3.03125 6 2.960938 C 6 2.886719 5.941406 2.828125 5.867188 2.828125 Z M 6.398438 2.828125 C 6.324219 2.828125 6.265625 2.886719 6.265625 2.960938 C 6.265625 3.03125 6.324219 3.09375 6.398438 3.09375 C 6.46875 3.09375 6.527344 3.03125 6.527344 2.960938 C 6.527344 2.886719 6.46875 2.828125 6.398438 2.828125 Z M 6.925781 2.828125 C 6.851562 2.828125 6.792969 2.886719 6.792969 2.960938 C 6.792969 3.03125 6.851562 3.09375 6.925781 3.09375 C 7 3.09375 7.058594 3.03125 7.058594 2.960938 C 7.058594 2.886719 7 2.828125 6.925781 2.828125 Z M 4.925781 2.890625 C 4.851562 2.941406 4.78125 2.996094 4.71875 3.054688 C 4.742188 3.078125 4.777344 3.09375 4.808594 3.09375 C 4.882812 3.09375 4.941406 3.03125 4.941406 2.960938 C 4.941406 2.9375 4.9375 2.914062 4.925781 2.890625 Z M 4.808594 3.355469 C 4.738281 3.355469 4.679688 3.414062 4.679688 3.488281 C 4.679688 3.5625 4.738281 3.621094 4.808594 3.621094 C 4.882812 3.621094 4.941406 3.5625 4.941406 3.488281 C 4.941406 3.414062 4.882812 3.355469 4.808594 3.355469 Z M 5.339844 3.355469 C 5.265625 3.355469 5.207031 3.414062 5.207031 3.488281 C 5.207031 3.5625 5.265625 3.621094 5.339844 3.621094 C 5.410156 3.621094 5.472656 3.5625 5.472656 3.488281 C 5.472656 3.414062 5.410156 3.355469 5.339844 3.355469 Z M 5.867188 3.355469 C 5.792969 3.355469 5.734375 3.414062 5.734375 3.488281 C 5.734375 3.5625 5.792969 3.621094 5.867188 3.621094 C 5.941406 3.621094 6 3.5625 6 3.488281 C 6 3.414062 5.941406 3.355469 5.867188 3.355469 Z M 6.398438 3.355469 C 6.324219 3.355469 6.265625 3.414062 6.265625 3.488281 C 6.265625 3.5625 6.324219 3.621094 6.398438 3.621094 C 6.46875 3.621094 6.527344 3.5625 6.527344 3.488281 C 6.527344 3.414062 6.46875 3.355469 6.398438 3.355469 Z M 6.925781 3.355469 C 6.851562 3.355469 6.792969 3.414062 6.792969 3.488281 C 6.792969 3.5625 6.851562 3.621094 6.925781 3.621094 C 7 3.621094 7.058594 3.5625 7.058594 3.488281 C 7.058594 3.414062 7 3.355469 6.925781 3.355469 Z M 7.453125 3.355469 C 7.382812 3.355469 7.320312 3.414062 7.320312 3.488281 C 7.320312 3.5625 7.382812 3.621094 7.453125 3.621094 C 7.527344 3.621094 7.585938 3.5625 7.585938 3.488281 C 7.585938 3.414062 7.527344 3.355469 7.453125 3.355469 Z M 4.402344 3.4375 C 4.367188 3.496094 4.332031 3.554688 4.304688 3.617188 C 4.367188 3.609375 4.414062 3.554688 4.414062 3.488281 C 4.414062 3.46875 4.410156 3.453125 4.402344 3.4375 Z M 4.28125 3.886719 C 4.253906 3.886719 4.226562 3.894531 4.203125 3.910156 C 4.1875 3.96875 4.175781 4.027344 4.167969 4.085938 C 4.191406 4.125 4.234375 4.148438 4.28125 4.148438 C 4.355469 4.148438 4.414062 4.089844 4.414062 4.015625 C 4.414062 3.945312 4.355469 3.886719 4.28125 3.886719 Z M 4.808594 3.886719 C 4.738281 3.886719 4.679688 3.945312 4.679688 4.015625 C 4.679688 4.089844 4.738281 4.148438 4.808594 4.148438 C 4.882812 4.148438 4.941406 4.089844 4.941406 4.015625 C 4.941406 3.945312 4.882812 3.886719 4.808594 3.886719 Z M 5.339844 3.886719 C 5.265625 3.886719 5.207031 3.945312 5.207031 4.015625 C 5.207031 4.089844 5.265625 4.148438 5.339844 4.148438 C 5.410156 4.148438 5.472656 4.089844 5.472656 4.015625 C 5.472656 3.945312 5.410156 3.886719 5.339844 3.886719 Z M 5.867188 3.886719 C 5.792969 3.886719 5.734375 3.945312 5.734375 4.015625 C 5.734375 4.089844 5.792969 4.148438 5.867188 4.148438 C 5.941406 4.148438 6 4.089844 6 4.015625 C 6 3.945312 5.941406 3.886719 5.867188 3.886719 Z M 6.398438 3.886719 C 6.324219 3.886719 6.265625 3.945312 6.265625 4.015625 C 6.265625 4.089844 6.324219 4.148438 6.398438 4.148438 C 6.46875 4.148438 6.527344 4.089844 6.527344 4.015625 C 6.527344 3.945312 6.46875 3.886719 6.398438 3.886719 Z M 6.925781 3.886719 C 6.851562 3.886719 6.792969 3.945312 6.792969 4.015625 C 6.792969 4.089844 6.851562 4.148438 6.925781 4.148438 C 7 4.148438 7.058594 4.089844 7.058594 4.015625 C 7.058594 3.945312 7 3.886719 6.925781 3.886719 Z M 7.453125 3.886719 C 7.382812 3.886719 7.320312 3.945312 7.320312 4.015625 C 7.320312 4.089844 7.382812 4.148438 7.453125 4.148438 C 7.527344 4.148438 7.585938 4.089844 7.585938 4.015625 C 7.585938 3.945312 7.527344 3.886719 7.453125 3.886719 Z M 4.28125 4.414062 C 4.207031 4.414062 4.148438 4.472656 4.148438 4.546875 C 4.148438 4.617188 4.207031 4.679688 4.28125 4.679688 C 4.355469 4.679688 4.414062 4.617188 4.414062 4.546875 C 4.414062 4.472656 4.355469 4.414062 4.28125 4.414062 Z M 4.808594 4.414062 C 4.738281 4.414062 4.679688 4.472656 4.679688 4.546875 C 4.679688 4.617188 4.738281 4.679688 4.808594 4.679688 C 4.882812 4.679688 4.941406 4.617188 4.941406 4.546875 C 4.941406 4.472656 4.882812 4.414062 4.808594 4.414062 Z M 5.339844 4.414062 C 5.265625 4.414062 5.207031 4.472656 5.207031 4.546875 C 5.207031 4.617188 5.265625 4.679688 5.339844 4.679688 C 5.410156 4.679688 5.472656 4.617188 5.472656 4.546875 C 5.472656 4.472656 5.410156 4.414062 5.339844 4.414062 Z M 5.867188 4.414062 C 5.792969 4.414062 5.734375 4.472656 5.734375 4.546875 C 5.734375 4.617188 5.792969 4.679688 5.867188 4.679688 C 5.941406 4.679688 6 4.617188 6 4.546875 C 6 4.472656 5.941406 4.414062 5.867188 4.414062 Z M 6.398438 4.414062 C 6.324219 4.414062 6.265625 4.472656 6.265625 4.546875 C 6.265625 4.617188 6.324219 4.679688 6.398438 4.679688 C 6.46875 4.679688 6.527344 4.617188 6.527344 4.546875 C 6.527344 4.472656 6.46875 4.414062 6.398438 4.414062 Z M 6.925781 4.414062 C 6.851562 4.414062 6.792969 4.472656 6.792969 4.546875 C 6.792969 4.617188 6.851562 4.679688 6.925781 4.679688 C 7 4.679688 7.058594 4.617188 7.058594 4.546875 C 7.058594 4.472656 7 4.414062 6.925781 4.414062 Z M 7.453125 4.414062 C 7.382812 4.414062 7.320312 4.472656 7.320312 4.546875 C 7.320312 4.617188 7.382812 4.679688 7.453125 4.679688 C 7.527344 4.679688 7.585938 4.617188 7.585938 4.546875 C 7.585938 4.472656 7.527344 4.414062 7.453125 4.414062 Z M 4.28125 4.941406 C 4.214844 4.941406 4.160156 4.992188 4.152344 5.058594 C 4.152344 5.074219 4.152344 5.089844 4.152344 5.105469 C 4.167969 5.164062 4.222656 5.207031 4.28125 5.207031 C 4.355469 5.207031 4.414062 5.148438 4.414062 5.074219 C 4.414062 5 4.355469 4.941406 4.28125 4.941406 Z M 4.808594 4.941406 C 4.738281 4.941406 4.679688 5 4.679688 5.074219 C 4.679688 5.148438 4.738281 5.207031 4.808594 5.207031 C 4.882812 5.207031 4.941406 5.148438 4.941406 5.074219 C 4.941406 5 4.882812 4.941406 4.808594 4.941406 Z M 5.339844 4.941406 C 5.265625 4.941406 5.207031 5 5.207031 5.074219 C 5.207031 5.148438 5.265625 5.207031 5.339844 5.207031 C 5.410156 5.207031 5.472656 5.148438 5.472656 5.074219 C 5.472656 5 5.410156 4.941406 5.339844 4.941406 Z M 5.867188 4.941406 C 5.792969 4.941406 5.734375 5 5.734375 5.074219 C 5.734375 5.148438 5.792969 5.207031 5.867188 5.207031 C 5.941406 5.207031 6 5.148438 6 5.074219 C 6 5 5.941406 4.941406 5.867188 4.941406 Z M 6.398438 4.941406 C 6.324219 4.941406 6.265625 5 6.265625 5.074219 C 6.265625 5.148438 6.324219 5.207031 6.398438 5.207031 C 6.46875 5.207031 6.527344 5.148438 6.527344 5.074219 C 6.527344 5 6.46875 4.941406 6.398438 4.941406 Z M 6.925781 4.941406 C 6.851562 4.941406 6.792969 5 6.792969 5.074219 C 6.792969 5.148438 6.851562 5.207031 6.925781 5.207031 C 7 5.207031 7.058594 5.148438 7.058594 5.074219 C 7.058594 5 7 4.941406 6.925781 4.941406 Z M 7.453125 4.941406 C 7.382812 4.941406 7.320312 5 7.320312 5.074219 C 7.320312 5.148438 7.382812 5.207031 7.453125 5.207031 C 7.527344 5.207031 7.585938 5.148438 7.585938 5.074219 C 7.585938 5 7.527344 4.941406 7.453125 4.941406 Z M 4.28125 5.472656 C 4.257812 5.472656 4.234375 5.476562 4.214844 5.488281 C 4.238281 5.574219 4.265625 5.65625 4.300781 5.734375 C 4.367188 5.722656 4.414062 5.667969 4.414062 5.601562 C 4.414062 5.53125 4.355469 5.472656 4.28125 5.472656 Z M 4.808594 5.472656 C 4.738281 5.472656 4.679688 5.53125 4.679688 5.601562 C 4.679688 5.675781 4.738281 5.734375 4.808594 5.734375 C 4.882812 5.734375 4.941406 5.675781 4.941406 5.601562 C 4.941406 5.53125 4.882812 5.472656 4.808594 5.472656 Z M 5.339844 5.472656 C 5.265625 5.472656 5.207031 5.53125 5.207031 5.601562 C 5.207031 5.675781 5.265625 5.734375 5.339844 5.734375 C 5.410156 5.734375 5.472656 5.675781 5.472656 5.601562 C 5.472656 5.53125 5.410156 5.472656 5.339844 5.472656 Z M 5.867188 5.472656 C 5.792969 5.472656 5.734375 5.53125 5.734375 5.601562 C 5.734375 5.675781 5.792969 5.734375 5.867188 5.734375 C 5.941406 5.734375 6 5.675781 6 5.601562 C 6 5.53125 5.941406 5.472656 5.867188 5.472656 Z M 6.398438 5.472656 C 6.324219 5.472656 6.265625 5.53125 6.265625 5.601562 C 6.265625 5.675781 6.324219 5.734375 6.398438 5.734375 C 6.46875 5.734375 6.527344 5.675781 6.527344 5.601562 C 6.527344 5.53125 6.46875 5.472656 6.398438 5.472656 Z M 6.925781 5.472656 C 6.851562 5.472656 6.792969 5.53125 6.792969 5.601562 C 6.792969 5.675781 6.851562 5.734375 6.925781 5.734375 C 7 5.734375 7.058594 5.675781 7.058594 5.601562 C 7.058594 5.53125 7 5.472656 6.925781 5.472656 Z M 7.453125 5.472656 C 7.382812 5.472656 7.320312 5.53125 7.320312 5.601562 C 7.320312 5.675781 7.382812 5.734375 7.453125 5.734375 C 7.527344 5.734375 7.585938 5.675781 7.585938 5.601562 C 7.585938 5.53125 7.527344 5.472656 7.453125 5.472656 Z M 4.808594 6 C 4.738281 6 4.679688 6.058594 4.679688 6.132812 C 4.679688 6.207031 4.738281 6.265625 4.808594 6.265625 C 4.882812 6.265625 4.941406 6.207031 4.941406 6.132812 C 4.941406 6.058594 4.882812 6 4.808594 6 Z M 5.339844 6 C 5.265625 6 5.207031 6.058594 5.207031 6.132812 C 5.207031 6.207031 5.265625 6.265625 5.339844 6.265625 C 5.410156 6.265625 5.472656 6.207031 5.472656 6.132812 C 5.472656 6.058594 5.410156 6 5.339844 6 Z M 5.867188 6 C 5.792969 6 5.734375 6.058594 5.734375 6.132812 C 5.734375 6.207031 5.792969 6.265625 5.867188 6.265625 C 5.941406 6.265625 6 6.207031 6 6.132812 C 6 6.058594 5.941406 6 5.867188 6 Z M 6.398438 6 C 6.324219 6 6.265625 6.058594 6.265625 6.132812 C 6.265625 6.207031 6.324219 6.265625 6.398438 6.265625 C 6.46875 6.265625 6.527344 6.207031 6.527344 6.132812 C 6.527344 6.058594 6.46875 6 6.398438 6 Z M 6.925781 6 C 6.851562 6 6.792969 6.058594 6.792969 6.132812 C 6.792969 6.207031 6.851562 6.265625 6.925781 6.265625 C 7 6.265625 7.058594 6.207031 7.058594 6.132812 C 7.058594 6.058594 7 6 6.925781 6 Z M 7.453125 6 C 7.382812 6 7.320312 6.058594 7.320312 6.132812 C 7.320312 6.167969 7.335938 6.199219 7.359375 6.226562 C 7.421875 6.160156 7.480469 6.09375 7.53125 6.023438 C 7.507812 6.007812 7.480469 6 7.453125 6 Z M 5.339844 6.527344 C 5.28125 6.527344 5.226562 6.566406 5.210938 6.625 C 5.292969 6.660156 5.375 6.691406 5.457031 6.714844 C 5.46875 6.699219 5.472656 6.679688 5.472656 6.660156 C 5.472656 6.589844 5.410156 6.527344 5.339844 6.527344 Z M 5.867188 6.527344 C 5.792969 6.527344 5.734375 6.589844 5.734375 6.660156 C 5.734375 6.714844 5.769531 6.765625 5.820312 6.785156 C 5.847656 6.785156 5.875 6.785156 5.902344 6.789062 C 5.960938 6.773438 6 6.71875 6 6.660156 C 6 6.589844 5.941406 6.527344 5.867188 6.527344 Z M 6.398438 6.527344 C 6.324219 6.527344 6.265625 6.589844 6.265625 6.660156 C 6.265625 6.703125 6.285156 6.742188 6.316406 6.765625 C 6.382812 6.753906 6.449219 6.742188 6.511719 6.722656 C 6.523438 6.703125 6.527344 6.683594 6.527344 6.660156 C 6.527344 6.589844 6.46875 6.527344 6.398438 6.527344 Z M 6.925781 6.527344 C 6.867188 6.527344 6.816406 6.566406 6.800781 6.621094 C 6.855469 6.59375 6.910156 6.566406 6.964844 6.535156 C 6.953125 6.53125 6.9375 6.527344 6.925781 6.527344 Z M 6.925781 6.527344 "/>
</g>
</defs>
<g id="surface1">
<path style=" stroke:none;fill-rule:evenodd;fill:rgb(30.196078%,30.196078%,30.196078%);fill-opacity:1;" d="M 2.800781 0.710938 L 9.199219 0.710938 C 10.351562 0.710938 11.289062 1.648438 11.289062 2.800781 L 11.289062 9.199219 C 11.289062 10.351562 10.351562 11.289062 9.199219 11.289062 L 2.800781 11.289062 C 1.648438 11.289062 0.710938 10.351562 0.710938 9.199219 L 0.710938 2.800781 C 0.710938 1.648438 1.648438 0.710938 2.800781 0.710938 Z M 2.800781 0.710938 "/>
<path style=" stroke:none;fill-rule:nonzero;fill:rgb(84.705882%,27.45098%,84.705882%);fill-opacity:1;" d="M 3.355469 5.207031 L 3.355469 5.648438 C 3.355469 6.792969 4.394531 7.730469 5.734375 7.839844 L 5.734375 8.90625 L 3.886719 8.90625 L 3.886719 9.4375 L 8.113281 9.4375 L 8.113281 8.90625 L 6.265625 8.90625 L 6.265625 7.839844 C 7.605469 7.730469 8.644531 6.792969 8.644531 5.648438 L 8.644531 5.207031 L 8.113281 5.207031 L 8.113281 5.558594 C 8.113281 6.535156 7.171875 7.320312 6 7.320312 C 4.828125 7.320312 3.886719 6.535156 3.886719 5.558594 L 3.886719 5.207031 Z M 3.355469 5.207031 "/>
<path style=" stroke:none;fill-rule:nonzero;fill:rgb(56.470588%,56.470588%,56.470588%);fill-opacity:1;" d="M 7.851562 5.03125 L 7.851562 4.324219 C 7.851562 3.351562 7.023438 2.5625 6 2.5625 C 4.976562 2.5625 4.148438 3.351562 4.148438 4.324219 L 4.148438 5.03125 C 4.148438 6.003906 4.976562 6.792969 6 6.792969 C 7.023438 6.792969 7.851562 6.003906 7.851562 5.03125 Z M 7.851562 5.03125 "/>
<use xlink:href="#surface6" mask="url(#mask0)"/>
</g>
</svg>
