<?xml version="1.0" encoding="UTF-8"?>
<svg xmlns="http://www.w3.org/2000/svg" xmlns:xlink="http://www.w3.org/1999/xlink" width="12pt" height="12pt" viewBox="0 0 12 12" version="1.1">
<g id="surface1">
<path style=" stroke:none;fill-rule:evenodd;fill:rgb(78.039216%,29.019608%,70.588235%);fill-opacity:1;" d="M 2.800781 0.710938 L 9.199219 0.710938 C 10.351562 0.710938 11.289062 1.648438 11.289062 2.804688 L 11.289062 9.199219 C 11.289062 10.351562 10.351562 11.289062 9.199219 11.289062 L 2.800781 11.289062 C 1.648438 11.289062 0.710938 10.351562 0.710938 9.199219 L 0.710938 2.804688 C 0.710938 1.648438 1.648438 0.710938 2.800781 0.710938 Z M 2.800781 0.710938 "/>
<path style=" stroke:none;fill-rule:evenodd;fill:rgb(50.196078%,50.196078%,50.196078%);fill-opacity:1;" d="M 3.40625 11.289062 L 9.195312 11.289062 C 10.355469 11.289062 11.289062 10.355469 11.289062 9.199219 L 11.289062 2.804688 C 11.289062 1.644531 10.355469 0.710938 9.195312 0.710938 L 3.40625 0.710938 Z M 3.40625 11.289062 "/>
<path style=" stroke:none;fill-rule:evenodd;fill:rgb(30.196078%,30.196078%,30.196078%);fill-opacity:1;" d="M 3.40625 11.289062 L 3.40625 0.710938 L 2.800781 0.710938 C 1.644531 0.710938 0.710938 1.644531 0.710938 2.804688 L 0.710938 9.199219 C 0.710938 10.355469 1.644531 11.289062 2.800781 11.289062 Z M 3.40625 11.289062 "/>
<path style=" stroke:none;fill-rule:nonzero;fill:rgb(39.607843%,84.313725%,49.019608%);fill-opacity:1;" d="M 5.046875 7.40625 L 5.046875 8.46875 L 6.109375 8.46875 L 8.792969 5.785156 L 7.730469 4.726562 Z M 9.730469 4.851562 C 9.84375 4.738281 9.84375 4.5625 9.730469 4.449219 L 9.066406 3.785156 C 8.953125 3.671875 8.777344 3.671875 8.664062 3.785156 L 8.109375 4.34375 L 9.171875 5.40625 Z M 9.730469 4.851562 "/>
</g>
</svg>
