<?xml version="1.0" encoding="UTF-8"?>
<svg xmlns="http://www.w3.org/2000/svg" xmlns:xlink="http://www.w3.org/1999/xlink" width="12pt" height="12pt" viewBox="0 0 12 12" version="1.1">
<defs>
<radialGradient id="radial0" gradientUnits="userSpaceOnUse" cx="24.391607" cy="16.559441" fx="24.391607" fy="16.559441" r="14.101694" gradientTransform="matrix(0.583277,0,0,0.583277,-8.227151,-3.658826)">
<stop offset="0" style="stop-color:rgb(33.72549%,34.117647%,16.862745%);stop-opacity:1;"/>
<stop offset="1" style="stop-color:rgb(10.196078%,10.980392%,5.490196%);stop-opacity:1;"/>
</radialGradient>
</defs>
<g id="surface1">
<path style=" stroke:none;fill-rule:evenodd;fill:rgb(33.72549%,34.117647%,16.862745%);fill-opacity:1;" d="M 2.800781 0.710938 L 9.199219 0.710938 C 10.351562 0.710938 11.289062 1.648438 11.289062 2.800781 L 11.289062 9.199219 C 11.289062 10.351562 10.351562 11.289062 9.199219 11.289062 L 2.800781 11.289062 C 1.648438 11.289062 0.710938 10.351562 0.710938 9.199219 L 0.710938 2.800781 C 0.710938 1.648438 1.648438 0.710938 2.800781 0.710938 Z M 2.800781 0.710938 "/>
<path style=" stroke:none;fill-rule:evenodd;fill:rgb(13.333333%,14.509804%,7.843137%);fill-opacity:1;" d="M 6.722656 11.289062 C 6.425781 11.160156 6.050781 11.050781 5.804688 10.910156 C 5.246094 10.589844 4.816406 10.246094 4.480469 9.886719 C 4.144531 9.527344 3.898438 9.152344 3.703125 8.773438 C 3.511719 8.394531 3.371094 8.011719 3.25 7.636719 C 3.125 7.261719 3.019531 6.894531 2.890625 6.542969 C 2.761719 6.195312 2.613281 5.863281 2.402344 5.5625 C 2.191406 5.265625 1.921875 4.992188 1.558594 4.761719 C 1.339844 4.628906 1.003906 4.539062 0.710938 4.433594 L 0.710938 9.195312 C 0.710938 10.355469 1.644531 11.289062 2.800781 11.289062 Z M 6.722656 11.289062 "/>
<path style=" stroke:none;fill-rule:evenodd;fill:url(#radial0);" d="M 4.828125 0.710938 L 2.800781 0.710938 C 1.644531 0.710938 0.710938 1.644531 0.710938 2.800781 L 0.710938 4.433594 C 1.003906 4.539062 1.339844 4.628906 1.558594 4.761719 C 1.921875 4.992188 2.191406 5.265625 2.402344 5.5625 C 2.613281 5.863281 2.761719 6.195312 2.890625 6.542969 C 3.019531 6.894531 3.125 7.261719 3.25 7.636719 C 3.371094 8.011719 3.511719 8.394531 3.703125 8.773438 C 3.898438 9.152344 4.144531 9.527344 4.480469 9.886719 C 4.816406 10.246094 5.246094 10.589844 5.804688 10.910156 C 6.050781 11.050781 6.425781 11.160156 6.722656 11.289062 L 9.195312 11.289062 C 10.355469 11.289062 11.289062 10.355469 11.289062 9.195312 L 11.289062 7.753906 C 11.042969 7.65625 10.738281 7.585938 10.550781 7.464844 C 10.183594 7.234375 9.914062 6.964844 9.707031 6.664062 C 9.496094 6.363281 9.347656 6.035156 9.21875 5.683594 C 9.089844 5.335938 8.980469 4.96875 8.859375 4.59375 C 8.734375 4.21875 8.597656 3.835938 8.402344 3.457031 C 8.210938 3.078125 7.964844 2.703125 7.625 2.34375 C 7.289062 1.984375 6.859375 1.636719 6.300781 1.320312 C 5.910156 1.097656 5.359375 0.90625 4.828125 0.710938 Z M 4.828125 0.710938 "/>
<path style=" stroke:none;fill-rule:evenodd;fill:rgb(33.72549%,34.117647%,16.862745%);fill-opacity:1;" d="M 4.828125 0.710938 C 5.359375 0.90625 5.910156 1.097656 6.300781 1.320312 C 6.859375 1.636719 7.289062 1.984375 7.625 2.34375 C 7.964844 2.703125 8.210938 3.078125 8.402344 3.457031 C 8.597656 3.835938 8.734375 4.21875 8.859375 4.59375 C 8.980469 4.96875 9.089844 5.335938 9.21875 5.683594 C 9.347656 6.035156 9.496094 6.363281 9.707031 6.664062 C 9.914062 6.964844 10.183594 7.234375 10.550781 7.464844 C 10.738281 7.585938 11.042969 7.65625 11.289062 7.753906 L 11.289062 2.800781 C 11.289062 1.644531 10.355469 0.710938 9.195312 0.710938 Z M 4.828125 0.710938 "/>
<path style=" stroke:none;fill-rule:nonzero;fill:rgb(100%,100%,100%);fill-opacity:1;" d="M 4.613281 9.171875 C 4.742188 9.109375 4.761719 9.074219 4.765625 8.867188 L 4.769531 8.691406 L 4.339844 8.691406 L 4.347656 8.949219 L 3.472656 8.949219 L 3.472656 8.210938 L 4.347656 8.210938 L 4.34375 8.332031 L 4.339844 8.457031 L 4.4375 8.445312 C 4.558594 8.4375 4.703125 8.367188 4.75 8.296875 C 4.777344 8.253906 4.78125 8.234375 4.777344 8.183594 C 4.761719 8.089844 4.722656 8.03125 4.628906 7.988281 L 4.546875 7.945312 L 3.3125 7.945312 L 3.238281 7.980469 C 3.136719 8.027344 3.066406 8.105469 3.054688 8.183594 C 3.050781 8.21875 3.046875 8.417969 3.050781 8.628906 C 3.054688 9.0625 3.058594 9.070312 3.164062 9.144531 C 3.269531 9.214844 3.304688 9.21875 3.945312 9.214844 L 4.535156 9.210938 Z M 6.433594 9.203125 C 6.515625 9.183594 6.605469 9.121094 6.632812 9.0625 C 6.652344 9.023438 6.65625 8.976562 6.65625 8.839844 C 6.660156 8.632812 6.644531 8.582031 6.558594 8.527344 C 6.457031 8.460938 6.382812 8.453125 5.851562 8.453125 L 5.363281 8.453125 L 5.363281 8.210938 L 6.011719 8.210938 C 6.652344 8.210938 6.660156 8.210938 6.660156 8.179688 C 6.660156 8.136719 6.621094 8.0625 6.585938 8.03125 C 6.566406 8.015625 6.519531 7.988281 6.480469 7.972656 C 6.414062 7.949219 6.363281 7.945312 5.792969 7.945312 L 5.171875 7.945312 L 5.09375 7.984375 C 5.003906 8.03125 4.945312 8.109375 4.929688 8.207031 C 4.914062 8.308594 4.929688 8.511719 4.957031 8.5625 C 4.988281 8.621094 5.089844 8.6875 5.183594 8.707031 C 5.222656 8.714844 5.449219 8.722656 5.742188 8.722656 L 6.230469 8.722656 L 6.230469 8.949219 L 5.578125 8.949219 C 4.984375 8.949219 4.921875 8.953125 4.929688 8.972656 C 4.933594 8.984375 4.9375 9.003906 4.9375 9.015625 C 4.9375 9.070312 5.078125 9.175781 5.191406 9.203125 C 5.269531 9.222656 6.363281 9.222656 6.433594 9.203125 Z M 6.433594 9.203125 "/>
<path style=" stroke:none;fill-rule:nonzero;fill:rgb(100%,100%,100%);fill-opacity:1;" d="M 8.738281 9.203125 C 8.820312 9.183594 8.90625 9.121094 8.933594 9.0625 C 8.953125 9.023438 8.960938 8.976562 8.960938 8.839844 C 8.960938 8.632812 8.945312 8.582031 8.859375 8.527344 C 8.757812 8.460938 8.683594 8.453125 8.152344 8.453125 L 7.667969 8.453125 L 7.667969 8.210938 L 8.3125 8.210938 C 8.953125 8.210938 8.960938 8.210938 8.960938 8.179688 C 8.960938 8.136719 8.925781 8.0625 8.886719 8.03125 C 8.867188 8.015625 8.820312 7.988281 8.78125 7.972656 C 8.714844 7.949219 8.664062 7.945312 8.09375 7.945312 L 7.472656 7.945312 L 7.394531 7.984375 C 7.304688 8.03125 7.246094 8.109375 7.230469 8.207031 C 7.214844 8.308594 7.230469 8.511719 7.257812 8.5625 C 7.289062 8.621094 7.390625 8.6875 7.484375 8.707031 C 7.527344 8.714844 7.75 8.722656 8.042969 8.722656 L 8.53125 8.722656 L 8.53125 8.949219 L 7.878906 8.949219 C 7.285156 8.949219 7.222656 8.953125 7.230469 8.972656 C 7.234375 8.984375 7.238281 9.003906 7.238281 9.015625 C 7.238281 9.070312 7.378906 9.175781 7.492188 9.203125 C 7.570312 9.222656 8.664062 9.222656 8.738281 9.203125 Z M 8.738281 9.203125 "/>
<path style=" stroke:none;fill-rule:nonzero;fill:rgb(100%,100%,100%);fill-opacity:1;" d="M 6.085938 3.046875 C 4.550781 3.046875 3.300781 4.296875 3.300781 5.832031 C 3.300781 6.597656 3.613281 7.296875 4.117188 7.800781 L 4.574219 7.800781 C 3.984375 7.34375 3.601562 6.632812 3.601562 5.832031 C 3.601562 4.457031 4.710938 3.347656 6.085938 3.347656 C 7.457031 3.347656 8.566406 4.457031 8.566406 5.832031 C 8.566406 6.632812 8.1875 7.34375 7.597656 7.800781 L 8.050781 7.800781 C 8.554688 7.296875 8.867188 6.597656 8.867188 5.832031 C 8.867188 4.296875 7.621094 3.046875 6.085938 3.046875 Z M 6.085938 3.046875 "/>
<path style=" stroke:none;fill-rule:nonzero;fill:rgb(100%,100%,100%);fill-opacity:1;" d="M 6.863281 7.632812 C 6.914062 7.585938 6.902344 7.496094 6.832031 7.394531 C 6.769531 7.304688 6.769531 7.304688 6.722656 6.960938 C 6.679688 6.628906 6.675781 6.609375 6.613281 6.488281 C 6.570312 6.40625 6.527344 6.347656 6.484375 6.316406 C 6.40625 6.261719 6.367188 6.160156 6.402344 6.097656 C 6.417969 6.066406 6.410156 6.050781 6.332031 5.949219 C 6.28125 5.886719 6.234375 5.828125 6.222656 5.816406 C 6.210938 5.804688 6.179688 5.761719 6.148438 5.71875 C 6.113281 5.667969 6.089844 5.648438 6.070312 5.65625 C 6.046875 5.664062 6.039062 5.652344 6.03125 5.601562 C 6.027344 5.566406 6.019531 5.527344 6.011719 5.511719 C 6.003906 5.488281 6.007812 5.480469 6.042969 5.480469 C 6.101562 5.480469 6.117188 5.4375 6.117188 5.308594 L 6.117188 5.199219 L 6.246094 5.199219 C 6.316406 5.199219 6.402344 5.195312 6.429688 5.183594 C 6.503906 5.164062 6.578125 5.09375 6.617188 5.007812 C 6.648438 4.933594 6.679688 4.917969 6.714844 4.960938 C 6.726562 4.976562 6.753906 4.984375 6.785156 4.984375 C 6.832031 4.980469 6.835938 4.972656 6.84375 4.917969 C 6.84375 4.882812 6.851562 4.855469 6.859375 4.855469 C 6.867188 4.855469 6.902344 4.933594 6.945312 5.03125 C 7.015625 5.199219 7.023438 5.210938 7.066406 5.207031 C 7.09375 5.203125 7.117188 5.199219 7.121094 5.195312 C 7.128906 5.1875 7.101562 5.109375 7.066406 5.015625 C 7.03125 4.921875 7 4.839844 7 4.828125 C 6.996094 4.820312 7.023438 4.796875 7.066406 4.78125 C 7.121094 4.757812 7.140625 4.738281 7.152344 4.699219 L 7.167969 4.648438 L 7.355469 4.636719 C 7.460938 4.632812 7.546875 4.625 7.550781 4.625 C 7.554688 4.625 7.554688 4.613281 7.554688 4.601562 C 7.554688 4.585938 7.535156 4.574219 7.5 4.570312 C 7.449219 4.566406 7.449219 4.5625 7.441406 4.472656 C 7.441406 4.441406 7.386719 4.441406 7.355469 4.425781 C 7.355469 4.472656 7.351562 4.476562 7.289062 4.476562 C 7.242188 4.476562 7.226562 4.46875 7.226562 4.449219 C 7.226562 4.421875 7.199219 4.417969 7.1875 4.441406 C 7.1875 4.449219 7.148438 4.460938 7.105469 4.46875 L 7.027344 4.480469 L 7.027344 4.429688 C 7.027344 4.402344 7.015625 4.375 7.003906 4.371094 C 6.976562 4.359375 6.945312 4.390625 6.945312 4.421875 C 6.945312 4.4375 6.902344 4.441406 6.777344 4.441406 L 6.613281 4.441406 L 6.613281 4.390625 C 6.613281 4.347656 6.609375 4.34375 6.554688 4.34375 C 6.519531 4.34375 6.5 4.351562 6.5 4.367188 C 6.5 4.394531 6.464844 4.410156 6.398438 4.410156 C 6.367188 4.410156 6.34375 4.421875 6.332031 4.441406 C 6.308594 4.484375 6.207031 4.492188 6.226562 4.449219 C 6.324219 4.1875 6.183594 3.9375 5.933594 3.945312 C 5.773438 3.949219 5.675781 4.085938 5.671875 4.304688 C 5.671875 4.421875 5.671875 4.421875 5.621094 4.441406 C 5.445312 4.515625 5.320312 4.792969 5.328125 5.09375 C 5.328125 5.1875 5.320312 5.289062 5.300781 5.367188 C 5.28125 5.449219 5.273438 5.570312 5.269531 5.738281 C 5.265625 5.964844 5.261719 6.003906 5.207031 6.191406 C 5.160156 6.363281 5.125 6.511719 5.085938 6.746094 C 5.082031 6.765625 5.039062 6.808594 4.988281 6.84375 C 4.890625 6.910156 4.824219 6.988281 4.769531 7.089844 L 4.734375 7.15625 L 4.796875 7.3125 C 4.871094 7.507812 4.871094 7.507812 4.941406 7.527344 C 4.984375 7.539062 5.015625 7.539062 5.058594 7.519531 L 5.113281 7.496094 L 5.113281 7.246094 L 5.179688 7.246094 C 5.324219 7.246094 5.433594 7.082031 5.574219 6.648438 C 5.703125 6.261719 5.742188 6.160156 5.757812 6.160156 C 5.765625 6.160156 5.773438 6.164062 5.773438 6.175781 C 5.773438 6.183594 5.800781 6.238281 5.839844 6.296875 C 5.914062 6.417969 6.042969 6.542969 6.171875 6.625 C 6.253906 6.679688 6.265625 6.691406 6.273438 6.753906 C 6.28125 6.792969 6.316406 6.914062 6.351562 7.023438 C 6.386719 7.132812 6.429688 7.28125 6.441406 7.351562 C 6.472656 7.515625 6.503906 7.5625 6.632812 7.617188 C 6.753906 7.664062 6.824219 7.671875 6.863281 7.632812 Z M 6.207031 4.816406 C 6.214844 4.777344 6.230469 4.738281 6.246094 4.726562 C 6.304688 4.683594 6.53125 4.714844 6.53125 4.761719 C 6.53125 4.785156 6.480469 4.804688 6.414062 4.804688 C 6.386719 4.804688 6.355469 4.820312 6.335938 4.847656 C 6.3125 4.875 6.289062 4.886719 6.25 4.886719 L 6.199219 4.886719 Z M 6.207031 4.816406 "/>
</g>
</svg>
