<?xml version="1.0" encoding="UTF-8"?>
<svg xmlns="http://www.w3.org/2000/svg" xmlns:xlink="http://www.w3.org/1999/xlink" width="12pt" height="12pt" viewBox="0 0 12 12" version="1.1">
<g id="surface1">
<path style=" stroke:none;fill-rule:evenodd;fill:rgb(80%,80%,80%);fill-opacity:1;" d="M 2.804688 0.710938 C 1.644531 0.710938 0.710938 1.644531 0.710938 2.804688 L 0.710938 9.199219 C 0.710938 10.1875 1.40625 10.972656 2.324219 11.191406 L 2.324219 6.949219 C 2.324219 6.390625 2.414062 5.863281 2.589844 5.378906 C 2.761719 4.894531 3.015625 4.460938 3.335938 4.097656 C 3.660156 3.730469 4.050781 3.4375 4.503906 3.230469 C 4.953125 3.027344 5.464844 2.914062 6.019531 2.914062 C 6.578125 2.914062 7.085938 3.027344 7.539062 3.230469 C 7.988281 3.4375 8.382812 3.730469 8.707031 4.097656 C 9.027344 4.460938 9.28125 4.894531 9.453125 5.378906 C 9.628906 5.863281 9.71875 6.390625 9.71875 6.949219 L 9.71875 11.183594 C 10.617188 10.949219 11.289062 10.171875 11.289062 9.199219 L 11.289062 2.804688 C 11.289062 1.644531 10.355469 0.710938 9.199219 0.710938 Z M 2.804688 0.710938 "/>
<path style=" stroke:none;fill-rule:nonzero;fill:rgb(42.745098%,29.803922%,25.490196%);fill-opacity:1;" d="M 5.347656 4.765625 C 5.347656 5.597656 4.671875 6.277344 3.835938 6.277344 C 3 6.277344 2.324219 5.597656 2.324219 4.765625 C 2.324219 3.929688 3 3.25 3.835938 3.25 C 4.671875 3.25 5.347656 3.929688 5.347656 4.765625 Z M 5.347656 4.765625 "/>
<path style=" stroke:none;fill-rule:nonzero;fill:rgb(42.745098%,29.803922%,25.490196%);fill-opacity:1;" d="M 9.71875 4.765625 C 9.71875 5.597656 9.042969 6.277344 8.207031 6.277344 C 7.371094 6.277344 6.695312 5.597656 6.695312 4.765625 C 6.695312 3.929688 7.371094 3.25 8.207031 3.25 C 9.042969 3.25 9.71875 3.929688 9.71875 4.765625 Z M 9.71875 4.765625 "/>
<path style=" stroke:none;fill-rule:evenodd;fill:rgb(63.137255%,53.333333%,49.803922%);fill-opacity:1;" d="M 9.71875 11.183594 L 9.71875 6.949219 C 9.71875 6.390625 9.628906 5.863281 9.453125 5.378906 C 9.28125 4.894531 9.027344 4.460938 8.707031 4.097656 C 8.382812 3.730469 7.988281 3.4375 7.539062 3.230469 C 7.085938 3.027344 6.578125 2.914062 6.019531 2.914062 C 5.464844 2.914062 4.953125 3.027344 4.503906 3.230469 C 4.050781 3.4375 3.660156 3.730469 3.335938 4.097656 C 3.015625 4.460938 2.761719 4.894531 2.589844 5.378906 C 2.414062 5.863281 2.324219 6.390625 2.324219 6.949219 L 2.324219 11.191406 C 2.480469 11.230469 2.632812 11.289062 2.804688 11.289062 L 9.199219 11.289062 C 9.382812 11.289062 9.546875 11.226562 9.71875 11.183594 Z M 9.71875 11.183594 "/>
<path style=" stroke:none;fill-rule:nonzero;fill:rgb(100%,100%,100%);fill-opacity:1;" d="M 5.011719 7.957031 L 6.023438 7.957031 L 6.023438 9.300781 L 5.011719 9.300781 Z M 5.011719 7.957031 "/>
<path style=" stroke:none;fill-rule:nonzero;fill:rgb(94.901961%,94.901961%,94.901961%);fill-opacity:1;" d="M 6.023438 7.789062 L 7.03125 7.789062 L 7.03125 9.300781 L 6.023438 9.300781 Z M 6.023438 7.789062 "/>
<path style=" stroke:none;fill-rule:nonzero;fill:rgb(42.745098%,29.803922%,25.490196%);fill-opacity:1;" d="M 5.046875 6.898438 C 4.582031 6.882812 4.339844 7.660156 4.339844 8.125 C 4.339844 8.589844 4.71875 8.964844 5.179688 8.964844 C 5.609375 8.964844 6.015625 8.59375 6.015625 8.59375 L 6.027344 8.59375 C 6.027344 8.59375 6.433594 8.964844 6.863281 8.964844 C 7.324219 8.964844 7.703125 8.589844 7.703125 8.125 C 7.703125 7.660156 7.472656 6.972656 7.011719 6.957031 Z M 5.046875 6.898438 "/>
<path style=" stroke:none;fill-rule:nonzero;fill:rgb(24.313725%,15.294118%,13.72549%);fill-opacity:1;" d="M 6.988281 6.863281 C 7.085938 7.300781 6.4375 7.789062 6.023438 7.789062 C 5.605469 7.789062 4.933594 7.304688 5.035156 6.863281 C 5.109375 6.527344 5.605469 6.550781 6.023438 6.550781 C 6.4375 6.550781 6.914062 6.535156 6.988281 6.863281 Z M 6.988281 6.863281 "/>
<path style=" stroke:none;fill-rule:nonzero;fill:rgb(99.607843%,99.607843%,99.607843%);fill-opacity:1;" d="M 5.015625 5.761719 C 5.015625 6.226562 4.636719 6.601562 4.171875 6.601562 C 3.710938 6.601562 3.332031 6.226562 3.332031 5.761719 C 3.332031 5.296875 3.710938 4.921875 4.171875 4.921875 C 4.636719 4.921875 5.015625 5.296875 5.015625 5.761719 Z M 5.015625 5.761719 "/>
<path style=" stroke:none;fill-rule:nonzero;fill:rgb(20%,20%,20%);fill-opacity:1;" d="M 3.667969 5.59375 C 3.667969 5.777344 3.820312 5.929688 4.003906 5.929688 C 4.191406 5.929688 4.339844 5.777344 4.339844 5.59375 C 4.339844 5.40625 4.191406 5.257812 4.003906 5.257812 C 3.820312 5.257812 3.667969 5.40625 3.667969 5.59375 Z M 3.667969 5.59375 "/>
<path style=" stroke:none;fill-rule:nonzero;fill:rgb(99.607843%,99.607843%,99.607843%);fill-opacity:1;" d="M 8.710938 5.761719 C 8.710938 6.226562 8.335938 6.601562 7.871094 6.601562 C 7.40625 6.601562 7.03125 6.226562 7.03125 5.761719 C 7.03125 5.296875 7.40625 4.921875 7.871094 4.921875 C 8.335938 4.921875 8.710938 5.296875 8.710938 5.761719 Z M 8.710938 5.761719 "/>
<path style=" stroke:none;fill-rule:nonzero;fill:rgb(20%,20%,20%);fill-opacity:1;" d="M 7.367188 5.59375 C 7.367188 5.777344 7.515625 5.929688 7.703125 5.929688 C 7.890625 5.929688 8.039062 5.777344 8.039062 5.59375 C 8.039062 5.40625 7.890625 5.257812 7.703125 5.257812 C 7.515625 5.257812 7.367188 5.40625 7.367188 5.59375 Z M 7.367188 5.59375 "/>
</g>
</svg>
