<?xml version="1.0" encoding="UTF-8"?>
<svg xmlns="http://www.w3.org/2000/svg" xmlns:xlink="http://www.w3.org/1999/xlink" width="12pt" height="12pt" viewBox="0 0 12 12" version="1.1">
<g id="surface1">
<path style=" stroke:none;fill-rule:evenodd;fill:rgb(97.647059%,32.941176%,56.078431%);fill-opacity:1;" d="M 2.800781 0.710938 L 9.199219 0.710938 C 10.351562 0.710938 11.289062 1.648438 11.289062 2.800781 L 11.289062 9.199219 C 11.289062 10.351562 10.351562 11.289062 9.199219 11.289062 L 2.800781 11.289062 C 1.648438 11.289062 0.710938 10.351562 0.710938 9.199219 L 0.710938 2.800781 C 0.710938 1.648438 1.648438 0.710938 2.800781 0.710938 Z M 2.800781 0.710938 "/>
<path style=" stroke:none;fill-rule:nonzero;fill:rgb(100%,100%,100%);fill-opacity:1;" d="M 3.027344 4.777344 C 3.066406 4.652344 3.074219 4.578125 3.089844 4.507812 C 2.980469 4.648438 3.039062 4.679688 3.027344 4.777344 M 3.226562 3.917969 C 3.25 4.101562 3.089844 4.175781 3.261719 4.050781 C 3.355469 3.839844 3.226562 3.992188 3.226562 3.917969 M 6.230469 2.289062 C 6.316406 2.257812 6.441406 2.273438 6.53125 2.253906 C 6.414062 2.261719 6.296875 2.269531 6.179688 2.285156 L 6.230469 2.289062 M 8.980469 5.757812 L 8.960938 5.804688 C 8.925781 6.050781 8.851562 6.296875 8.742188 6.523438 C 8.863281 6.285156 8.945312 6.023438 8.980469 5.757812 M 5.5 6.527344 C 5.457031 6.476562 5.433594 6.417969 5.402344 6.359375 C 5.429688 6.464844 5.488281 6.554688 5.539062 6.644531 L 5.5 6.527344 M 5.304688 6.535156 L 5.285156 6.625 C 5.371094 6.742188 5.4375 6.867188 5.542969 6.957031 C 5.464844 6.804688 5.410156 6.742188 5.304688 6.535156 M 6.339844 2.390625 L 6.292969 2.402344 L 6.335938 2.398438 L 6.339844 2.390625 M 6.207031 2.351562 C 6.273438 2.363281 6.351562 2.375 6.339844 2.390625 C 6.414062 2.375 6.429688 2.359375 6.207031 2.351562 M 7.613281 5.523438 C 7.628906 5.292969 7.570312 5.363281 7.550781 5.453125 C 7.574219 5.464844 7.59375 5.617188 7.613281 5.523438 M 7.363281 6.1875 C 7.441406 6.082031 7.496094 5.964844 7.515625 5.84375 C 7.496094 5.929688 7.453125 6.003906 7.410156 6.082031 C 7.171875 6.234375 7.386719 5.992188 7.410156 5.902344 C 7.15625 6.226562 7.375 6.097656 7.363281 6.1875 M 6.6875 6.359375 C 6.558594 6.359375 6.710938 6.425781 6.875 6.453125 C 6.921875 6.414062 6.960938 6.378906 7 6.34375 C 6.894531 6.367188 6.792969 6.367188 6.6875 6.359375 M 3.027344 4.777344 C 3.066406 4.652344 3.074219 4.578125 3.089844 4.507812 C 2.980469 4.648438 3.039062 4.679688 3.027344 4.777344 M 3.230469 3.917969 C 3.25 4.101562 3.089844 4.175781 3.261719 4.050781 C 3.355469 3.839844 3.226562 3.992188 3.230469 3.917969 M 6.230469 2.289062 C 6.316406 2.257812 6.441406 2.273438 6.53125 2.253906 C 6.414062 2.261719 6.296875 2.269531 6.179688 2.285156 L 6.230469 2.289062 M 8.980469 5.757812 L 8.960938 5.804688 C 8.925781 6.050781 8.851562 6.296875 8.742188 6.523438 C 8.863281 6.285156 8.945312 6.023438 8.980469 5.757812 M 5.5 6.527344 C 5.457031 6.480469 5.433594 6.417969 5.402344 6.359375 C 5.429688 6.464844 5.488281 6.554688 5.539062 6.644531 L 5.5 6.527344 M 5.304688 6.535156 L 5.289062 6.625 C 5.371094 6.742188 5.4375 6.867188 5.542969 6.957031 C 5.464844 6.804688 5.410156 6.742188 5.304688 6.535156 M 6.339844 2.390625 L 6.292969 2.402344 L 6.335938 2.394531 L 6.339844 2.390625 M 8.226562 5.621094 C 8.234375 5.8125 8.171875 5.910156 8.117188 6.074219 L 8.015625 6.128906 C 7.933594 6.292969 8.023438 6.234375 7.964844 6.363281 C 7.839844 6.484375 7.578125 6.734375 7.496094 6.757812 C 7.433594 6.757812 7.535156 6.683594 7.550781 6.65625 C 7.378906 6.777344 7.410156 6.835938 7.148438 6.914062 L 7.140625 6.894531 C 6.496094 7.210938 5.601562 6.585938 5.613281 5.730469 C 5.605469 5.785156 5.59375 5.769531 5.578125 5.792969 C 5.542969 5.351562 5.773438 4.910156 6.160156 4.730469 C 6.535156 4.539062 6.976562 4.617188 7.246094 4.878906 C 7.097656 4.675781 6.804688 4.460938 6.453125 4.480469 C 6.109375 4.488281 5.789062 4.714844 5.683594 4.960938 C 5.507812 5.074219 5.488281 5.402344 5.410156 5.464844 C 5.308594 6.25 5.605469 6.589844 6.105469 6.988281 C 6.183594 7.046875 6.128906 7.054688 6.140625 7.097656 C 5.972656 7.015625 5.820312 6.890625 5.695312 6.742188 C 5.761719 6.84375 5.832031 6.941406 5.925781 7.019531 C 5.769531 6.964844 5.558594 6.625 5.496094 6.609375 C 5.769531 7.113281 6.597656 7.496094 7.03125 7.304688 C 6.828125 7.3125 6.574219 7.308594 6.347656 7.222656 C 6.253906 7.171875 6.125 7.066406 6.148438 7.046875 C 6.742188 7.277344 7.351562 7.222656 7.863281 6.796875 C 7.992188 6.691406 8.136719 6.511719 8.175781 6.507812 C 8.117188 6.605469 8.1875 6.554688 8.140625 6.640625 C 8.269531 6.421875 8.085938 6.550781 8.273438 6.265625 L 8.34375 6.363281 C 8.320312 6.183594 8.5625 5.964844 8.535156 5.679688 C 8.59375 5.589844 8.597656 5.773438 8.539062 5.972656 C 8.621094 5.75 8.5625 5.714844 8.582031 5.53125 C 8.605469 5.59375 8.632812 5.65625 8.648438 5.722656 C 8.597656 5.507812 8.703125 5.359375 8.730469 5.234375 C 8.703125 5.222656 8.648438 5.332031 8.636719 5.074219 C 8.636719 4.964844 8.664062 5.019531 8.675781 4.992188 C 8.65625 4.976562 8.601562 4.894531 8.566406 4.730469 C 8.589844 4.691406 8.632812 4.828125 8.664062 4.835938 C 8.644531 4.707031 8.605469 4.609375 8.605469 4.507812 C 8.507812 4.300781 8.570312 4.535156 8.492188 4.417969 C 8.390625 4.085938 8.578125 4.339844 8.589844 4.191406 C 8.746094 4.425781 8.835938 4.785156 8.875 4.9375 C 8.84375 4.753906 8.792969 4.578125 8.734375 4.40625 C 8.78125 4.425781 8.65625 4.027344 8.792969 4.292969 C 8.648438 3.730469 8.167969 3.207031 7.726562 2.964844 C 7.78125 3.015625 7.847656 3.078125 7.824219 3.089844 C 7.605469 2.953125 7.644531 2.941406 7.613281 2.886719 C 7.433594 2.808594 7.421875 2.890625 7.300781 2.886719 C 6.964844 2.699219 6.902344 2.71875 6.589844 2.601562 L 6.605469 2.671875 C 6.382812 2.59375 6.34375 2.699219 6.101562 2.671875 C 6.089844 2.660156 6.179688 2.628906 6.257812 2.617188 C 6.039062 2.648438 6.050781 2.574219 5.839844 2.625 C 5.890625 2.585938 5.945312 2.5625 6 2.53125 C 5.824219 2.539062 5.582031 2.636719 5.65625 2.550781 C 5.371094 2.683594 4.859375 2.871094 4.574219 3.148438 L 4.5625 3.085938 C 4.433594 3.25 3.992188 3.574219 3.957031 3.789062 L 3.921875 3.796875 C 3.855469 3.917969 3.808594 4.050781 3.753906 4.175781 C 3.667969 4.335938 3.625 4.238281 3.636719 4.261719 C 3.460938 4.632812 3.375 4.941406 3.300781 5.199219 C 3.351562 5.28125 3.300781 5.699219 3.320312 6.035156 C 3.234375 7.691406 4.4375 9.300781 5.757812 9.671875 C 5.949219 9.742188 6.238281 9.742188 6.480469 9.746094 C 6.191406 9.664062 6.15625 9.703125 5.875 9.601562 C 5.671875 9.5 5.628906 9.386719 5.484375 9.257812 L 5.539062 9.363281 C 5.257812 9.257812 5.378906 9.234375 5.148438 9.160156 L 5.207031 9.078125 C 5.117188 9.070312 4.96875 8.917969 4.925781 8.832031 L 4.828125 8.835938 C 4.707031 8.683594 4.644531 8.570312 4.648438 8.484375 L 4.617188 8.546875 C 4.578125 8.480469 4.175781 7.96875 4.382812 8.089844 C 4.34375 8.050781 4.292969 8.027344 4.238281 7.921875 L 4.28125 7.871094 C 4.179688 7.734375 4.09375 7.5625 4.101562 7.503906 C 4.15625 7.582031 4.191406 7.59375 4.230469 7.605469 C 3.972656 6.949219 3.960938 7.570312 3.765625 6.9375 L 3.808594 6.933594 C 3.777344 6.886719 3.757812 6.832031 3.730469 6.78125 L 3.75 6.59375 C 3.566406 6.375 3.699219 5.65625 3.726562 5.261719 C 3.742188 5.101562 3.878906 4.929688 3.980469 4.664062 L 3.917969 4.652344 C 4.039062 4.4375 4.601562 3.78125 4.859375 3.816406 C 4.988281 3.652344 4.835938 3.816406 4.8125 3.773438 C 5.089844 3.476562 5.175781 3.5625 5.363281 3.507812 C 5.566406 3.386719 5.191406 3.558594 5.285156 3.460938 C 5.632812 3.371094 5.53125 3.25 5.988281 3.203125 C 6.035156 3.234375 5.875 3.246094 5.835938 3.285156 C 6.125 3.136719 6.757812 3.171875 7.164062 3.367188 C 7.640625 3.597656 8.171875 4.277344 8.195312 4.921875 L 8.21875 4.925781 C 8.207031 5.183594 8.253906 5.476562 8.167969 5.746094 L 8.226562 5.617188 M 6.207031 2.351562 C 6.273438 2.363281 6.351562 2.375 6.339844 2.390625 C 6.414062 2.375 6.433594 2.359375 6.207031 2.351562 M 7.617188 5.523438 C 7.632812 5.289062 7.570312 5.363281 7.550781 5.453125 C 7.574219 5.464844 7.59375 5.617188 7.617188 5.523438 M 7.367188 6.1875 C 7.441406 6.082031 7.496094 5.964844 7.515625 5.84375 C 7.5 5.929688 7.453125 6.003906 7.410156 6.082031 C 7.171875 6.234375 7.386719 5.992188 7.410156 5.898438 C 7.15625 6.226562 7.375 6.09375 7.367188 6.1875 M 6.6875 6.359375 C 6.558594 6.359375 6.710938 6.425781 6.875 6.453125 C 6.921875 6.414062 6.960938 6.378906 7 6.34375 C 6.898438 6.367188 6.792969 6.367188 6.6875 6.359375 "/>
</g>
</svg>
