<?xml version="1.0" encoding="UTF-8"?>
<svg xmlns="http://www.w3.org/2000/svg" xmlns:xlink="http://www.w3.org/1999/xlink" width="12pt" height="12pt" viewBox="0 0 12 12" version="1.1">
<defs>
<clipPath id="clip1">
  <rect width="12" height="12"/>
</clipPath>
<g id="surface6" clip-path="url(#clip1)">
<path style=" stroke:none;fill-rule:nonzero;fill:rgb(99.607843%,59.215686%,0%);fill-opacity:1;" d="M 9.75 6 C 9.75 3.929688 8.070312 2.25 6 2.25 C 3.929688 2.25 2.25 3.929688 2.25 6 C 2.25 8.070312 3.929688 9.75 6 9.75 C 8.070312 9.75 9.75 8.070312 9.75 6 Z M 9.75 6 "/>
</g>
<clipPath id="clip2">
  <rect width="12" height="12"/>
</clipPath>
<g id="surface9" clip-path="url(#clip2)">
<path style=" stroke:none;fill-rule:nonzero;fill:rgb(100%,100%,100%);fill-opacity:1;" d="M 5.285156 4.414062 L 5.285156 6.390625 C 5.171875 6.324219 5.042969 6.289062 4.910156 6.289062 C 4.496094 6.289062 4.160156 6.625 4.160156 7.039062 C 4.160156 7.453125 4.496094 7.789062 4.910156 7.789062 C 5.324219 7.789062 5.660156 7.453125 5.660156 7.039062 L 5.660156 5.164062 L 7.160156 5.164062 L 7.160156 6.390625 C 7.046875 6.324219 6.917969 6.289062 6.785156 6.289062 C 6.371094 6.289062 6.035156 6.625 6.035156 7.039062 C 6.035156 7.453125 6.371094 7.789062 6.785156 7.789062 C 7.199219 7.789062 7.535156 7.453125 7.535156 7.039062 L 7.535156 4.414062 Z M 5.285156 4.414062 "/>
</g>
</defs>
<g id="surface1">
<path style=" stroke:none;fill-rule:evenodd;fill:rgb(100%,34.117647%,13.333333%);fill-opacity:1;" d="M 2.800781 0.710938 L 9.199219 0.710938 C 10.351562 0.710938 11.289062 1.648438 11.289062 2.800781 L 11.289062 9.199219 C 11.289062 10.351562 10.351562 11.289062 9.199219 11.289062 L 2.800781 11.289062 C 1.648438 11.289062 0.710938 10.351562 0.710938 9.199219 L 0.710938 2.800781 C 0.710938 1.648438 1.648438 0.710938 2.800781 0.710938 Z M 2.800781 0.710938 "/>
<use xlink:href="#surface6"/>
<use xlink:href="#surface9"/>
</g>
</svg>
