<?xml version="1.0" encoding="UTF-8"?>
<svg xmlns="http://www.w3.org/2000/svg" xmlns:xlink="http://www.w3.org/1999/xlink" width="12pt" height="12pt" viewBox="0 0 12 12" version="1.1">
<g id="surface1">
<path style=" stroke:none;fill-rule:evenodd;fill:rgb(29.411765%,29.411765%,29.411765%);fill-opacity:1;" d="M 11.289062 7.46875 L 7.46875 11.289062 L 9.199219 11.289062 C 10.355469 11.289062 11.289062 10.355469 11.289062 9.199219 Z M 11.289062 7.46875 "/>
<path style=" stroke:none;fill-rule:evenodd;fill:rgb(100%,63.529412%,20.392157%);fill-opacity:1;" d="M 2.804688 0.710938 C 1.644531 0.710938 0.710938 1.644531 0.710938 2.804688 L 0.710938 9.199219 C 0.710938 10.355469 1.644531 11.289062 2.804688 11.289062 L 7.46875 11.289062 L 11.289062 7.46875 L 11.289062 2.804688 C 11.289062 1.644531 10.355469 0.710938 9.199219 0.710938 Z M 2.804688 0.710938 "/>
<path style=" stroke:none;fill-rule:nonzero;fill:rgb(29.411765%,29.411765%,29.411765%);fill-opacity:1;" d="M 4.292969 4.113281 C 3.550781 4.113281 2.875 4.554688 2.578125 5.238281 L 4.292969 5.238281 L 4.292969 6.738281 L 2.578125 6.738281 C 2.875 7.417969 3.550781 7.859375 4.292969 7.863281 C 5.039062 7.859375 5.710938 7.417969 6.007812 6.738281 L 9.542969 6.738281 L 9.542969 5.238281 L 6.011719 5.238281 C 5.710938 4.554688 5.039062 4.113281 4.292969 4.113281 Z M 4.292969 4.113281 "/>
</g>
</svg>
