<?xml version="1.0" encoding="UTF-8"?>
<svg xmlns="http://www.w3.org/2000/svg" xmlns:xlink="http://www.w3.org/1999/xlink" width="12pt" height="12pt" viewBox="0 0 12 12" version="1.1">
<g id="surface1">
<path style=" stroke:none;fill-rule:evenodd;fill:rgb(36.078431%,48.627451%,85.490196%);fill-opacity:1;" d="M 7.945312 0.75 L 2.824219 0.75 C 1.675781 0.75 0.75 1.675781 0.75 2.824219 L 0.75 9.175781 C 0.75 10.324219 1.675781 11.25 2.824219 11.25 L 9.175781 11.25 C 10.324219 11.25 11.25 10.324219 11.25 9.175781 L 11.25 4.054688 Z M 7.945312 0.75 "/>
<path style=" stroke:none;fill-rule:evenodd;fill:rgb(36.078431%,48.627451%,85.490196%);fill-opacity:1;" d="M 5.730469 11.25 L 7.945312 11.25 L 11.25 7.945312 L 11.25 2.824219 C 11.25 1.675781 10.324219 0.75 9.175781 0.75 L 5.730469 0.75 Z M 5.730469 11.25 "/>
<path style=" stroke:none;fill-rule:evenodd;fill:rgb(0%,16.862745%,57.647059%);fill-opacity:1;" d="M 2.824219 0.75 C 1.675781 0.75 0.75 1.675781 0.75 2.824219 L 0.75 9.175781 C 0.75 10.324219 1.675781 11.25 2.824219 11.25 L 5.730469 11.25 L 5.730469 8.628906 L 7.207031 8.628906 L 7.207031 10.296875 L 10.394531 7.109375 L 8.832031 5.546875 C 7.976562 4.6875 7.257812 3.984375 7.238281 3.984375 C 7.222656 3.984375 7.207031 4.347656 7.207031 4.789062 L 7.207031 5.589844 L 5.730469 5.589844 L 5.730469 0.75 Z M 2.824219 0.75 "/>
</g>
</svg>
