<?xml version="1.0" encoding="UTF-8"?>
<svg xmlns="http://www.w3.org/2000/svg" xmlns:xlink="http://www.w3.org/1999/xlink" width="12pt" height="12pt" viewBox="0 0 12 12" version="1.1">
<g id="surface1">
<path style=" stroke:none;fill-rule:evenodd;fill:rgb(41.176471%,77.254902%,38.039216%);fill-opacity:1;" d="M 2.800781 0.710938 L 9.199219 0.710938 C 10.351562 0.710938 11.289062 1.648438 11.289062 2.800781 L 11.289062 9.199219 C 11.289062 10.351562 10.351562 11.289062 9.199219 11.289062 L 2.800781 11.289062 C 1.648438 11.289062 0.710938 10.351562 0.710938 9.199219 L 0.710938 2.800781 C 0.710938 1.648438 1.648438 0.710938 2.800781 0.710938 Z M 2.800781 0.710938 "/>
<path style=" stroke:none;fill-rule:nonzero;fill:rgb(30.980392%,30.980392%,30.980392%);fill-opacity:1;" d="M 8.9375 2.550781 L 4.941406 3.472656 C 4.375 3.546875 4.398438 4.121094 4.398438 4.121094 L 4.398438 6.582031 C 4.269531 6.542969 4.132812 6.527344 3.996094 6.523438 C 3.1875 6.523438 2.527344 7.183594 2.527344 7.992188 C 2.527344 8.804688 3.1875 9.460938 3.996094 9.460938 C 4.757812 9.460938 5.390625 8.882812 5.460938 8.125 L 5.464844 8.125 L 5.464844 4.429688 L 8.402344 3.734375 L 8.402344 5.78125 C 8.273438 5.742188 8.136719 5.722656 8.003906 5.722656 C 7.191406 5.722656 6.535156 6.382812 6.535156 7.191406 C 6.535156 8.003906 7.191406 8.660156 8.003906 8.660156 C 8.761719 8.660156 9.394531 8.082031 9.464844 7.324219 L 9.472656 7.324219 L 9.472656 3.054688 C 9.472656 3.054688 9.476562 2.4375 8.9375 2.550781 Z M 8.9375 2.550781 "/>
<path style=" stroke:none;fill-rule:nonzero;fill:rgb(100%,100%,100%);fill-opacity:1;" d="M 10.53125 8.535156 C 10.53125 9.570312 9.691406 10.410156 8.65625 10.410156 C 7.621094 10.410156 6.78125 9.570312 6.78125 8.535156 C 6.78125 7.5 7.621094 6.660156 8.65625 6.660156 C 9.691406 6.660156 10.53125 7.5 10.53125 8.535156 Z M 10.53125 8.535156 "/>
<path style=" stroke:none;fill-rule:nonzero;fill:rgb(41.176471%,77.254902%,38.039216%);fill-opacity:1;" d="M 8.65625 8.066406 L 8.890625 8.066406 L 8.890625 9.472656 L 8.65625 9.472656 Z M 8.65625 8.066406 "/>
<path style=" stroke:none;fill-rule:nonzero;fill:rgb(41.176471%,77.254902%,38.039216%);fill-opacity:1;" d="M 9.125 7.597656 L 9.359375 7.597656 L 9.359375 9.472656 L 9.125 9.472656 Z M 9.125 7.597656 "/>
<path style=" stroke:none;fill-rule:nonzero;fill:rgb(41.176471%,77.254902%,38.039216%);fill-opacity:1;" d="M 8.1875 8.535156 L 8.421875 8.535156 L 8.421875 9.472656 L 8.1875 9.472656 Z M 8.1875 8.535156 "/>
<path style=" stroke:none;fill-rule:nonzero;fill:rgb(41.176471%,77.254902%,38.039216%);fill-opacity:1;" d="M 7.71875 9.003906 L 7.953125 9.003906 L 7.953125 9.472656 L 7.71875 9.472656 Z M 7.71875 9.003906 "/>
</g>
</svg>
