<?xml version="1.0" encoding="UTF-8"?>
<svg xmlns="http://www.w3.org/2000/svg" xmlns:xlink="http://www.w3.org/1999/xlink" width="12pt" height="12pt" viewBox="0 0 12 12" version="1.1">
<g id="surface1">
<path style=" stroke:none;fill-rule:evenodd;fill:rgb(21.568627%,62.745098%,94.901961%);fill-opacity:1;" d="M 2.800781 0.710938 L 9.199219 0.710938 C 10.351562 0.710938 11.289062 1.648438 11.289062 2.800781 L 11.289062 9.199219 C 11.289062 10.351562 10.351562 11.289062 9.199219 11.289062 L 2.800781 11.289062 C 1.648438 11.289062 0.710938 10.351562 0.710938 9.199219 L 0.710938 2.800781 C 0.710938 1.648438 1.648438 0.710938 2.800781 0.710938 Z M 2.800781 0.710938 "/>
<path style=" stroke:none;fill-rule:nonzero;fill:rgb(100%,100%,100%);fill-opacity:1;" d="M 1.875 2.625 L 1.875 9.375 L 2.25 9.375 L 2.25 2.625 Z M 9.75 2.625 L 9.75 9.375 L 10.125 9.375 L 10.125 2.625 Z M 2.625 3.375 L 2.625 8.625 L 3 8.625 L 3 3.375 Z M 3.375 3.375 L 3.375 8.625 L 8.625 8.625 L 8.625 3.375 Z M 9 3.375 L 9 8.625 L 9.375 8.625 L 9.375 3.375 Z M 3.75 3.75 L 8.25 3.75 L 8.25 8.25 L 3.75 8.25 Z M 3.75 3.75 "/>
</g>
</svg>
