<?xml version="1.0" encoding="UTF-8"?>
<svg xmlns="http://www.w3.org/2000/svg" xmlns:xlink="http://www.w3.org/1999/xlink" width="12pt" height="12pt" viewBox="0 0 12 12" version="1.1">
<defs>
<clipPath id="clip1">
  <rect width="12" height="12"/>
</clipPath>
<g id="surface6" clip-path="url(#clip1)">
<path style=" stroke:none;fill-rule:nonzero;fill:rgb(100%,100%,100%);fill-opacity:1;" d="M 3.992188 2.625 L 2.625 8.695312 L 3.738281 8.695312 L 4.382812 5.976562 L 7.417969 5.976562 L 4.574219 8.523438 L 5.316406 9.375 L 5.695312 9.179688 C 6.414062 8.8125 6.714844 9.027344 7.257812 9.175781 C 7.789062 9.324219 8.285156 9.480469 9.320312 8.886719 L 9.113281 7.835938 C 7.988281 8.636719 7.628906 7.921875 6.828125 7.894531 L 9.125 5.949219 L 9.375 4.910156 L 4.558594 4.910156 L 4.871094 3.664062 L 8.027344 3.664062 L 8.242188 2.625 Z M 3.992188 2.625 "/>
</g>
</defs>
<g id="surface1">
<path style=" stroke:none;fill-rule:evenodd;fill:rgb(85.098039%,34.901961%,31.764706%);fill-opacity:1;" d="M 2.800781 0.710938 L 9.199219 0.710938 C 10.351562 0.710938 11.289062 1.648438 11.289062 2.800781 L 11.289062 9.199219 C 11.289062 10.351562 10.351562 11.289062 9.199219 11.289062 L 2.800781 11.289062 C 1.648438 11.289062 0.710938 10.351562 0.710938 9.199219 L 0.710938 2.800781 C 0.710938 1.648438 1.648438 0.710938 2.800781 0.710938 Z M 2.800781 0.710938 "/>
<use xlink:href="#surface6"/>
</g>
</svg>
