<?xml version="1.0" encoding="UTF-8"?>
<svg xmlns="http://www.w3.org/2000/svg" xmlns:xlink="http://www.w3.org/1999/xlink" width="12pt" height="12pt" viewBox="0 0 12 12" version="1.1">
<g id="surface1">
<path style=" stroke:none;fill-rule:evenodd;fill:rgb(56.862745%,86.666667%,28.235294%);fill-opacity:1;" d="M 2.800781 0.710938 L 9.199219 0.710938 C 10.351562 0.710938 11.289062 1.648438 11.289062 2.800781 L 11.289062 9.199219 C 11.289062 10.351562 10.351562 11.289062 9.199219 11.289062 L 2.800781 11.289062 C 1.648438 11.289062 0.710938 10.351562 0.710938 9.199219 L 0.710938 2.800781 C 0.710938 1.648438 1.648438 0.710938 2.800781 0.710938 Z M 2.800781 0.710938 "/>
<path style=" stroke:none;fill-rule:nonzero;fill:rgb(100%,100%,100%);fill-opacity:1;" d="M 5.625 2.5 L 6.375 2.5 C 7.210938 2.5 7.882812 3.15625 7.882812 3.972656 L 7.882812 8.027344 C 7.882812 8.84375 7.210938 9.5 6.375 9.5 L 5.625 9.5 C 4.789062 9.5 4.117188 8.84375 4.117188 8.027344 L 4.117188 3.972656 C 4.117188 3.15625 4.789062 2.5 5.625 2.5 Z M 5.625 2.5 "/>
<path style=" stroke:none;fill-rule:nonzero;fill:rgb(100%,100%,100%);fill-opacity:1;" d="M 3.167969 2.226562 C 2.945312 2.230469 2.765625 2.414062 2.769531 2.636719 L 2.769531 4.519531 C 2.769531 4.742188 2.949219 4.921875 3.171875 4.921875 L 5.058594 4.921875 C 5.203125 4.925781 5.339844 4.847656 5.414062 4.722656 C 5.484375 4.597656 5.484375 4.441406 5.414062 4.316406 C 5.339844 4.191406 5.203125 4.113281 5.058594 4.117188 L 3.578125 4.117188 L 3.578125 2.636719 C 3.578125 2.527344 3.535156 2.421875 3.457031 2.34375 C 3.382812 2.265625 3.277344 2.222656 3.167969 2.226562 Z M 3.167969 2.226562 "/>
<path style=" stroke:none;fill-rule:nonzero;fill:rgb(100%,100%,100%);fill-opacity:1;" d="M 2.367188 3.039062 C 2.21875 3.035156 2.085938 3.113281 2.011719 3.238281 C 1.9375 3.363281 1.9375 3.519531 2.011719 3.644531 C 2.085938 3.773438 2.21875 3.847656 2.367188 3.847656 L 2.90625 3.847656 C 3.050781 3.847656 3.183594 3.773438 3.257812 3.644531 C 3.332031 3.519531 3.332031 3.363281 3.257812 3.238281 C 3.183594 3.113281 3.050781 3.035156 2.90625 3.039062 Z M 2.367188 3.039062 "/>
<path style=" stroke:none;fill-rule:nonzero;fill:rgb(100%,100%,100%);fill-opacity:1;" d="M 3.171875 7.078125 C 2.949219 7.078125 2.769531 7.257812 2.769531 7.480469 L 2.769531 9.363281 C 2.769531 9.511719 2.84375 9.644531 2.96875 9.71875 C 3.097656 9.792969 3.25 9.792969 3.378906 9.71875 C 3.503906 9.644531 3.578125 9.511719 3.578125 9.363281 L 3.578125 7.882812 L 5.058594 7.882812 C 5.203125 7.886719 5.339844 7.808594 5.414062 7.683594 C 5.484375 7.558594 5.484375 7.402344 5.414062 7.277344 C 5.339844 7.152344 5.203125 7.074219 5.058594 7.078125 Z M 3.171875 7.078125 "/>
<path style=" stroke:none;fill-rule:nonzero;fill:rgb(100%,100%,100%);fill-opacity:1;" d="M 2.367188 8.152344 C 2.21875 8.152344 2.085938 8.226562 2.011719 8.351562 C 1.9375 8.480469 1.9375 8.636719 2.011719 8.761719 C 2.085938 8.886719 2.21875 8.960938 2.367188 8.960938 L 2.90625 8.960938 C 3.050781 8.960938 3.183594 8.886719 3.257812 8.761719 C 3.332031 8.636719 3.332031 8.480469 3.257812 8.351562 C 3.183594 8.226562 3.050781 8.152344 2.90625 8.152344 Z M 2.367188 8.152344 "/>
<path style=" stroke:none;fill-rule:nonzero;fill:rgb(100%,100%,100%);fill-opacity:1;" d="M 8.820312 2.226562 C 8.597656 2.230469 8.417969 2.414062 8.421875 2.636719 L 8.421875 4.117188 L 6.941406 4.117188 C 6.796875 4.113281 6.660156 4.191406 6.585938 4.316406 C 6.515625 4.441406 6.515625 4.597656 6.585938 4.722656 C 6.660156 4.847656 6.796875 4.925781 6.941406 4.921875 L 8.828125 4.921875 C 9.050781 4.921875 9.230469 4.742188 9.230469 4.519531 L 9.230469 2.636719 C 9.230469 2.527344 9.1875 2.421875 9.113281 2.34375 C 9.035156 2.265625 8.929688 2.222656 8.820312 2.226562 Z M 8.820312 2.226562 "/>
<path style=" stroke:none;fill-rule:nonzero;fill:rgb(100%,100%,100%);fill-opacity:1;" d="M 9.09375 3.039062 C 8.949219 3.035156 8.816406 3.113281 8.742188 3.238281 C 8.667969 3.363281 8.667969 3.519531 8.742188 3.644531 C 8.816406 3.773438 8.949219 3.847656 9.09375 3.847656 L 9.632812 3.847656 C 9.78125 3.847656 9.914062 3.773438 9.988281 3.644531 C 10.0625 3.519531 10.0625 3.363281 9.988281 3.238281 C 9.914062 3.113281 9.78125 3.035156 9.632812 3.039062 Z M 9.09375 3.039062 "/>
<path style=" stroke:none;fill-rule:nonzero;fill:rgb(100%,100%,100%);fill-opacity:1;" d="M 6.941406 7.078125 C 6.796875 7.074219 6.660156 7.152344 6.585938 7.277344 C 6.515625 7.402344 6.515625 7.558594 6.585938 7.683594 C 6.660156 7.808594 6.796875 7.886719 6.941406 7.882812 L 8.421875 7.882812 L 8.421875 9.363281 C 8.421875 9.511719 8.496094 9.644531 8.621094 9.71875 C 8.75 9.792969 8.902344 9.792969 9.03125 9.71875 C 9.15625 9.644531 9.230469 9.511719 9.230469 9.363281 L 9.230469 7.480469 C 9.230469 7.257812 9.050781 7.078125 8.828125 7.078125 Z M 6.941406 7.078125 "/>
<path style=" stroke:none;fill-rule:nonzero;fill:rgb(100%,100%,100%);fill-opacity:1;" d="M 9.09375 8.152344 C 8.949219 8.152344 8.816406 8.226562 8.742188 8.351562 C 8.667969 8.480469 8.667969 8.636719 8.742188 8.761719 C 8.816406 8.886719 8.949219 8.960938 9.09375 8.960938 L 9.632812 8.960938 C 9.78125 8.960938 9.914062 8.886719 9.988281 8.761719 C 10.0625 8.636719 10.0625 8.480469 9.988281 8.351562 C 9.914062 8.226562 9.78125 8.152344 9.632812 8.152344 Z M 9.09375 8.152344 "/>
<path style=" stroke:none;fill-rule:nonzero;fill:rgb(60.392157%,28.235294%,86.666667%);fill-opacity:1;" d="M 5.460938 3.039062 C 5.460938 3.484375 5.101562 3.847656 4.652344 3.847656 C 4.207031 3.847656 3.847656 3.484375 3.847656 3.039062 C 3.847656 2.59375 4.207031 2.230469 4.652344 2.230469 C 5.101562 2.230469 5.460938 2.59375 5.460938 3.039062 Z M 5.460938 3.039062 "/>
<path style=" stroke:none;fill-rule:nonzero;fill:rgb(100%,100%,100%);fill-opacity:1;" d="M 5.191406 3.039062 C 5.191406 3.335938 4.953125 3.578125 4.652344 3.578125 C 4.355469 3.578125 4.117188 3.335938 4.117188 3.039062 C 4.117188 2.742188 4.355469 2.5 4.652344 2.5 C 4.953125 2.5 5.191406 2.742188 5.191406 3.039062 Z M 5.191406 3.039062 "/>
<path style=" stroke:none;fill-rule:nonzero;fill:rgb(60.392157%,28.235294%,86.666667%);fill-opacity:1;" d="M 8.152344 3.039062 C 8.152344 3.484375 7.792969 3.847656 7.347656 3.847656 C 6.898438 3.847656 6.539062 3.484375 6.539062 3.039062 C 6.539062 2.59375 6.898438 2.230469 7.347656 2.230469 C 7.792969 2.230469 8.152344 2.59375 8.152344 3.039062 Z M 8.152344 3.039062 "/>
<path style=" stroke:none;fill-rule:nonzero;fill:rgb(100%,100%,100%);fill-opacity:1;" d="M 7.882812 3.039062 C 7.882812 3.335938 7.644531 3.578125 7.347656 3.578125 C 7.046875 3.578125 6.808594 3.335938 6.808594 3.039062 C 6.808594 2.742188 7.046875 2.5 7.347656 2.5 C 7.644531 2.5 7.882812 2.742188 7.882812 3.039062 Z M 7.882812 3.039062 "/>
</g>
</svg>
