<?xml version="1.0" encoding="UTF-8"?>
<svg xmlns="http://www.w3.org/2000/svg" xmlns:xlink="http://www.w3.org/1999/xlink" width="12pt" height="12pt" viewBox="0 0 12 12" version="1.1">
<g id="surface1">
<path style=" stroke:none;fill-rule:evenodd;fill:rgb(20%,59.607843%,76.470588%);fill-opacity:1;" d="M 2.800781 0.710938 L 9.199219 0.710938 C 10.351562 0.710938 11.289062 1.648438 11.289062 2.800781 L 11.289062 9.199219 C 11.289062 10.351562 10.351562 11.289062 9.199219 11.289062 L 2.800781 11.289062 C 1.648438 11.289062 0.710938 10.351562 0.710938 9.199219 L 0.710938 2.800781 C 0.710938 1.648438 1.648438 0.710938 2.800781 0.710938 Z M 2.800781 0.710938 "/>
<path style=" stroke:none;fill-rule:evenodd;fill:rgb(64.705882%,80%,87.45098%);fill-opacity:1;" d="M 7.707031 2.714844 C 6.996094 2.917969 6.550781 4.152344 6.625 4.121094 L 6.636719 4.40625 C 6.746094 4.414062 6.847656 4.425781 6.925781 4.453125 C 7.199219 4.546875 7.546875 4.378906 7.773438 4.234375 C 7.777344 4.175781 7.78125 4.121094 7.78125 4.070312 C 7.902344 3.964844 8.035156 3.835938 8.074219 3.730469 C 8.144531 3.523438 8.210938 3.113281 8.09375 2.949219 C 8.035156 2.867188 7.949219 3.214844 7.949219 3.242188 C 7.945312 3.292969 7.820312 3.1875 7.78125 3.222656 C 7.707031 3.285156 7.777344 3.425781 7.75 3.421875 C 7.710938 3.417969 7.699219 3.351562 7.660156 3.355469 C 7.5625 3.4375 7.507812 3.539062 7.464844 3.636719 C 7.4375 3.628906 7.410156 3.621094 7.386719 3.609375 C 7.347656 3.59375 7.351562 3.496094 7.363281 3.457031 C 7.382812 3.410156 7.464844 3.441406 7.488281 3.398438 C 7.515625 3.347656 7.464844 3.261719 7.5 3.21875 C 7.523438 3.191406 7.558594 3.226562 7.582031 3.203125 C 7.644531 3.121094 7.75 2.703125 7.707031 2.714844 Z M 7.707031 2.714844 "/>
<path style=" stroke:none;fill-rule:evenodd;fill:rgb(100%,100%,100%);fill-opacity:1;" d="M 8.785156 3.59375 C 8.714844 3.839844 8.625 4.003906 8.519531 4.105469 C 8.535156 4.042969 8.535156 3.972656 8.515625 3.898438 L 8.210938 4.226562 C 8.230469 4.171875 8.242188 4.109375 8.230469 4.042969 L 7.9375 4.292969 C 7.984375 4.230469 8.007812 4.15625 8.003906 4.0625 C 8.007812 4.070312 7.371094 4.605469 6.925781 4.453125 C 6.554688 4.328125 5.675781 4.417969 5.289062 4.890625 C 4.105469 5.007812 3.097656 6.09375 3.191406 6.929688 C 3.285156 7.796875 4.136719 8.328125 4.339844 8.382812 C 4.386719 8.398438 4.433594 8.402344 4.476562 8.40625 C 4.527344 8.746094 4.746094 9.113281 5.019531 9.257812 C 5.257812 9.386719 5.882812 9.011719 5.882812 9.011719 C 5.472656 8.769531 5.210938 8.53125 5.019531 8.289062 C 5.324219 8.269531 5.761719 8.378906 6.167969 8.464844 C 6.222656 8.460938 6.164062 7.890625 5.644531 7.730469 C 5.378906 7.652344 4.871094 7.605469 4.617188 7.855469 C 4.527344 7.636719 4.449219 7.265625 4.636719 7.019531 C 4.832031 6.765625 5.464844 6.578125 5.75 6.550781 C 5.773438 6.5625 5.800781 6.578125 5.828125 6.589844 C 6.765625 6.890625 9.105469 5.101562 8.785156 3.59375 Z M 8.785156 3.59375 "/>
<path style="fill-rule:evenodd;fill:rgb(20%,59.607843%,76.470588%);fill-opacity:1;stroke-width:0.123;stroke-linecap:butt;stroke-linejoin:miter;stroke:rgb(0%,0%,0%);stroke-opacity:1;stroke-miterlimit:4;" d="M -43.660132 17.048194 C -43.680966 17.079444 -44.097632 16.839861 -44.253882 16.787778 C -44.420549 16.725278 -44.660132 17.162778 -44.555966 17.319028 C -44.399716 17.527361 -43.920549 17.579444 -43.941382 17.600278 Z M -43.660132 17.048194 " transform="matrix(0.375,0,0,0.375,22.446768,0.360833)"/>
<path style=" stroke:none;fill-rule:evenodd;fill:rgb(64.705882%,80%,87.45098%);fill-opacity:1;" d="M 6.179688 6 C 6.109375 6 6.023438 6.023438 5.9375 6.074219 C 5.804688 6.148438 5.601562 6.675781 5.535156 6.851562 C 5.261719 7.09375 5.238281 7.648438 5.390625 7.921875 C 5.984375 8.996094 7.613281 9.632812 8.070312 9.082031 C 7.972656 8.933594 7.800781 8.910156 7.582031 8.753906 C 7.535156 8.765625 7.492188 8.78125 7.460938 8.816406 L 7.34375 8.613281 C 7.296875 8.621094 7.257812 8.550781 7.210938 8.632812 C 7.128906 8.570312 7.132812 8.546875 7.148438 8.496094 C 7.164062 8.457031 7.179688 8.429688 7.199219 8.402344 C 7.328125 8.445312 7.464844 8.492188 7.554688 8.527344 C 7.609375 8.550781 7.566406 8.378906 7.621094 8.375 C 7.699219 8.367188 7.714844 8.566406 7.792969 8.570312 C 7.859375 8.578125 7.886719 8.375 7.945312 8.410156 C 8.03125 8.457031 8.367188 8.746094 8.34375 8.601562 C 8.292969 8.28125 7.898438 7.925781 7.660156 7.789062 C 7.539062 7.71875 7.308594 7.6875 7.121094 7.671875 C 6.914062 7.375 6.570312 7.023438 6.296875 6.871094 C 6.285156 6.863281 6.269531 6.855469 6.253906 6.851562 C 6.332031 6.632812 6.457031 6.289062 6.359375 6.085938 C 6.335938 6.03125 6.265625 6 6.179688 6 Z M 6.179688 6 "/>
<path style=" stroke:none;fill-rule:evenodd;fill:rgb(20%,59.607843%,76.470588%);fill-opacity:1;" d="M 6.9375 4.945312 C 6.9375 5.136719 6.78125 5.296875 6.585938 5.296875 C 6.390625 5.296875 6.234375 5.136719 6.234375 4.945312 C 6.234375 4.75 6.390625 4.59375 6.585938 4.59375 C 6.78125 4.59375 6.9375 4.75 6.9375 4.945312 Z M 6.9375 4.945312 "/>
</g>
</svg>
