<?xml version="1.0" encoding="UTF-8"?>
<svg xmlns="http://www.w3.org/2000/svg" xmlns:xlink="http://www.w3.org/1999/xlink" width="12pt" height="12pt" viewBox="0 0 12 12" version="1.1">
<defs>
<filter id="alpha" filterUnits="objectBoundingBox" x="0%" y="0%" width="100%" height="100%">
  <feColorMatrix type="matrix" in="SourceGraphic" values="0 0 0 0 1 0 0 0 0 1 0 0 0 0 1 0 0 0 1 0"/>
</filter>
<mask id="mask0">
  <g filter="url(#alpha)">
<rect x="0" y="0" width="12" height="12" style="fill:rgb(0%,0%,0%);fill-opacity:0.0509804;stroke:none;"/>
  </g>
</mask>
<clipPath id="clip1">
  <rect width="12" height="12"/>
</clipPath>
<g id="surface6" clip-path="url(#clip1)">
<path style=" stroke:none;fill-rule:nonzero;fill:rgb(0%,0%,0%);fill-opacity:1;" d="M 3.308594 4.746094 C 3.195312 4.839844 3.101562 4.917969 3.066406 4.957031 L 2.539062 5.5 L 2.539062 5.3125 L 3.308594 5.3125 Z M 3.308594 4.746094 "/>
</g>
<mask id="mask1">
  <g filter="url(#alpha)">
<rect x="0" y="0" width="12" height="12" style="fill:rgb(0%,0%,0%);fill-opacity:0.0509804;stroke:none;"/>
  </g>
</mask>
<clipPath id="clip2">
  <rect width="12" height="12"/>
</clipPath>
<g id="surface9" clip-path="url(#clip2)">
<path style=" stroke:none;fill-rule:nonzero;fill:rgb(0%,0%,0%);fill-opacity:1;" d="M 8.691406 4.722656 L 8.691406 5.3125 L 9.460938 5.3125 L 9.460938 5.445312 L 8.898438 4.902344 C 8.863281 4.871094 8.785156 4.800781 8.691406 4.722656 Z M 8.691406 4.722656 "/>
</g>
</defs>
<g id="surface1">
<path style=" stroke:none;fill-rule:evenodd;fill:rgb(58.431373%,41.568627%,25.882353%);fill-opacity:1;" d="M 2.800781 0.710938 L 9.199219 0.710938 C 10.351562 0.710938 11.289062 1.648438 11.289062 2.800781 L 11.289062 9.199219 C 11.289062 10.351562 10.351562 11.289062 9.199219 11.289062 L 2.800781 11.289062 C 1.648438 11.289062 0.710938 10.351562 0.710938 9.199219 L 0.710938 2.800781 C 0.710938 1.648438 1.648438 0.710938 2.800781 0.710938 Z M 2.800781 0.710938 "/>
<path style=" stroke:none;fill-rule:nonzero;fill:rgb(80%,80%,80%);fill-opacity:1;" d="M 9.300781 9.585938 L 9.300781 5.328125 L 8.761719 4.785156 C 8.628906 4.652344 7.8125 3.929688 7.632812 3.894531 L 6.050781 2.714844 L 4.261719 3.949219 C 4.109375 4.054688 3.332031 4.703125 3.203125 4.839844 L 2.699219 5.382812 L 2.699219 9.585938 C 2.699219 9.777344 2.847656 9.929688 3.03125 9.929688 L 8.96875 9.929688 C 9.152344 9.929688 9.300781 9.777344 9.300781 9.585938 Z M 9.300781 9.585938 "/>
<path style=" stroke:none;fill-rule:nonzero;fill:rgb(50.196078%,50.196078%,50.196078%);fill-opacity:1;" d="M 2.699219 5.25 L 9.300781 5.25 L 9.300781 5.527344 L 2.699219 5.527344 Z M 2.699219 5.25 "/>
<path style=" stroke:none;fill-rule:nonzero;fill:rgb(30.980392%,30.980392%,30.980392%);fill-opacity:1;" d="M 3.171875 2.773438 L 3.878906 2.773438 C 3.988281 2.773438 4.074219 2.867188 4.074219 2.984375 L 4.074219 4.488281 C 4.074219 4.605469 3.988281 4.699219 3.878906 4.699219 L 3.171875 4.699219 C 3.0625 4.699219 2.976562 4.605469 2.976562 4.488281 L 2.976562 2.984375 C 2.976562 2.867188 3.0625 2.773438 3.171875 2.773438 Z M 3.171875 2.773438 "/>
<path style=" stroke:none;fill-rule:nonzero;fill:rgb(58.431373%,41.568627%,25.882353%);fill-opacity:1;" d="M 3.539062 6.351562 L 4.886719 6.351562 C 5.046875 6.351562 5.175781 6.480469 5.175781 6.636719 L 5.175781 9.097656 C 5.175781 9.253906 5.046875 9.378906 4.886719 9.378906 L 3.539062 9.378906 C 3.378906 9.378906 3.25 9.253906 3.25 9.097656 L 3.25 6.636719 C 3.25 6.480469 3.378906 6.351562 3.539062 6.351562 Z M 3.539062 6.351562 "/>
<path style=" stroke:none;fill-rule:nonzero;fill:rgb(58.431373%,41.568627%,25.882353%);fill-opacity:1;" d="M 6.789062 6.351562 C 6.507812 6.351562 6.273438 6.585938 6.273438 6.867188 L 6.273438 8.3125 C 6.273438 8.597656 6.507812 8.832031 6.789062 8.832031 L 8.234375 8.832031 C 8.515625 8.832031 8.75 8.597656 8.75 8.3125 L 8.75 6.867188 C 8.75 6.585938 8.515625 6.351562 8.234375 6.351562 Z M 6.789062 6.351562 "/>
<path style=" stroke:none;fill-rule:nonzero;fill:rgb(76.078431%,93.333333%,100%);fill-opacity:1;" d="M 6.910156 6.902344 C 6.859375 6.902344 6.824219 6.9375 6.824219 6.988281 L 6.824219 8.195312 C 6.824219 8.246094 6.859375 8.28125 6.910156 8.28125 L 8.113281 8.28125 C 8.164062 8.28125 8.199219 8.246094 8.199219 8.195312 L 8.199219 6.988281 C 8.199219 6.9375 8.164062 6.902344 8.113281 6.902344 Z M 6.910156 6.902344 "/>
<path style=" stroke:none;fill-rule:nonzero;fill:rgb(100%,100%,100%);fill-opacity:1;" d="M 4.898438 7.730469 C 4.898438 7.578125 4.777344 7.453125 4.625 7.453125 C 4.472656 7.453125 4.351562 7.578125 4.351562 7.730469 C 4.351562 7.882812 4.472656 8.003906 4.625 8.003906 C 4.777344 8.003906 4.898438 7.882812 4.898438 7.730469 Z M 4.898438 7.730469 "/>
<use xlink:href="#surface6" mask="url(#mask0)"/>
<path style=" stroke:none;fill-rule:nonzero;fill:rgb(50.196078%,50.196078%,50.196078%);fill-opacity:1;" d="M 4.074219 4.078125 C 3.882812 4.207031 3.519531 4.476562 3.25 4.6875 L 3.25 5.25 L 4.074219 5.25 Z M 4.074219 4.078125 "/>
<path style=" stroke:none;fill-rule:nonzero;fill:rgb(80%,80%,80%);fill-opacity:1;" d="M 4.898438 3.5625 L 4.179688 4.003906 C 4.164062 4.015625 4.109375 4.054688 4.074219 4.078125 L 4.074219 5.25 L 4.898438 5.25 Z M 4.898438 3.5625 "/>
<path style=" stroke:none;fill-rule:nonzero;fill:rgb(50.196078%,50.196078%,50.196078%);fill-opacity:1;" d="M 5.726562 3.058594 L 4.898438 3.5625 L 4.898438 5.25 L 5.726562 5.25 Z M 5.726562 3.058594 "/>
<path style=" stroke:none;fill-rule:nonzero;fill:rgb(80%,80%,80%);fill-opacity:1;" d="M 6.195312 2.769531 L 5.726562 3.058594 L 5.726562 5.25 L 6.550781 5.25 L 6.550781 3.003906 Z M 6.195312 2.769531 "/>
<path style=" stroke:none;fill-rule:nonzero;fill:rgb(50.196078%,50.196078%,50.196078%);fill-opacity:1;" d="M 6.550781 3.003906 L 6.550781 5.25 L 7.375 5.25 L 7.375 3.550781 Z M 6.550781 3.003906 "/>
<path style=" stroke:none;fill-rule:nonzero;fill:rgb(80%,80%,80%);fill-opacity:1;" d="M 7.375 3.550781 L 7.375 5.25 L 8.199219 5.25 L 8.199219 4.0625 C 8.101562 4 8.019531 3.957031 7.976562 3.949219 Z M 7.375 3.550781 "/>
<path style=" stroke:none;fill-rule:nonzero;fill:rgb(50.196078%,50.196078%,50.196078%);fill-opacity:1;" d="M 8.199219 4.0625 L 8.199219 5.25 L 9.023438 5.25 L 9.023438 4.660156 C 8.792969 4.476562 8.441406 4.210938 8.199219 4.0625 Z M 8.199219 4.0625 "/>
<use xlink:href="#surface9" mask="url(#mask1)"/>
<path style="fill:none;stroke-width:3;stroke-linecap:round;stroke-linejoin:round;stroke:rgb(36.470588%,36.470588%,36.470588%);stroke-opacity:1;stroke-miterlimit:4;" d="M 16 7.03125 L 6.833333 14.375 " transform="matrix(0.375,0,0,0.375,0,0)"/>
<path style="fill:none;stroke-width:3;stroke-linecap:round;stroke-linejoin:round;stroke:rgb(36.470588%,36.470588%,36.470588%);stroke-opacity:1;stroke-miterlimit:4;" d="M 16 7.03125 L 25.166667 14.375 " transform="matrix(0.375,0,0,0.375,0,0)"/>
</g>
</svg>
