<?xml version="1.0" encoding="UTF-8"?>
<svg xmlns="http://www.w3.org/2000/svg" xmlns:xlink="http://www.w3.org/1999/xlink" width="12pt" height="12pt" viewBox="0 0 12 12" version="1.1">
<g id="surface1">
<path style=" stroke:none;fill-rule:evenodd;fill:rgb(35.686275%,73.72549%,25.490196%);fill-opacity:1;" d="M 2.800781 0.710938 L 9.199219 0.710938 C 10.351562 0.710938 11.289062 1.648438 11.289062 2.800781 L 11.289062 9.199219 C 11.289062 10.351562 10.351562 11.289062 9.199219 11.289062 L 2.800781 11.289062 C 1.648438 11.289062 0.710938 10.351562 0.710938 9.199219 L 0.710938 2.800781 C 0.710938 1.648438 1.648438 0.710938 2.800781 0.710938 Z M 2.800781 0.710938 "/>
<path style=" stroke:none;fill-rule:nonzero;fill:rgb(33.72549%,33.72549%,33.72549%);fill-opacity:1;" d="M 6.492188 7.277344 L 8.78125 9.570312 C 9.3125 10.125 10.128906 9.304688 9.578125 8.777344 L 7.25 6.449219 C 6.363281 6.746094 6.738281 6.746094 6.492188 7.277344 Z M 6.492188 7.277344 "/>
<path style=" stroke:none;fill-rule:nonzero;fill:rgb(100%,100%,100%);fill-opacity:1;" d="M 5.238281 2.246094 C 3.582031 2.246094 2.238281 3.585938 2.238281 5.246094 C 2.238281 6.902344 3.582031 8.246094 5.238281 8.246094 C 6.894531 8.246094 8.238281 6.902344 8.238281 5.246094 C 8.238281 3.585938 6.894531 2.246094 5.238281 2.246094 Z M 5.238281 3.371094 C 6.273438 3.371094 7.113281 4.210938 7.113281 5.246094 C 7.113281 6.28125 6.273438 7.121094 5.238281 7.121094 C 4.203125 7.121094 3.363281 6.28125 3.363281 5.246094 C 3.363281 4.210938 4.203125 3.371094 5.238281 3.371094 Z M 5.238281 3.371094 "/>
</g>
</svg>
