<?xml version="1.0" encoding="UTF-8"?>
<svg xmlns="http://www.w3.org/2000/svg" xmlns:xlink="http://www.w3.org/1999/xlink" width="12pt" height="12pt" viewBox="0 0 12 12" version="1.1">
<g id="surface1">
<path style=" stroke:none;fill-rule:evenodd;fill:rgb(94.509804%,34.901961%,56.470588%);fill-opacity:1;" d="M 2.800781 0.710938 L 9.199219 0.710938 C 10.351562 0.710938 11.289062 1.648438 11.289062 2.800781 L 11.289062 9.199219 C 11.289062 10.351562 10.351562 11.289062 9.199219 11.289062 L 2.800781 11.289062 C 1.648438 11.289062 0.710938 10.351562 0.710938 9.199219 L 0.710938 2.800781 C 0.710938 1.648438 1.648438 0.710938 2.800781 0.710938 Z M 2.800781 0.710938 "/>
<path style=" stroke:none;fill-rule:nonzero;fill:rgb(100%,100%,100%);fill-opacity:1;" d="M 8.0625 3.375 C 6.613281 3.375 5.4375 4.550781 5.4375 6 C 5.4375 7.449219 6.613281 8.625 8.0625 8.625 C 9.511719 8.625 10.6875 7.449219 10.6875 6 C 10.6875 4.550781 9.511719 3.375 8.0625 3.375 Z M 3.1875 4.125 C 2.152344 4.125 1.3125 4.964844 1.3125 6 C 1.3125 7.035156 2.152344 7.875 3.1875 7.875 C 4.222656 7.875 5.0625 7.035156 5.0625 6 C 5.0625 4.964844 4.222656 4.125 3.1875 4.125 Z M 8.0625 4.125 C 9.097656 4.125 9.9375 4.964844 9.9375 6 C 9.9375 7.035156 9.097656 7.875 8.0625 7.875 C 7.027344 7.875 6.1875 7.035156 6.1875 6 C 6.1875 4.964844 7.027344 4.125 8.0625 4.125 Z M 3.1875 4.875 C 3.808594 4.875 4.3125 5.378906 4.3125 6 C 4.3125 6.621094 3.808594 7.125 3.1875 7.125 C 2.566406 7.125 2.0625 6.621094 2.0625 6 C 2.0625 5.378906 2.566406 4.875 3.1875 4.875 Z M 3.1875 4.875 "/>
</g>
</svg>
