<?xml version="1.0" encoding="UTF-8"?>
<svg xmlns="http://www.w3.org/2000/svg" xmlns:xlink="http://www.w3.org/1999/xlink" width="12pt" height="12pt" viewBox="0 0 12 12" version="1.1">
<g id="surface1">
<path style=" stroke:none;fill-rule:evenodd;fill:rgb(49.411765%,6.27451%,5.490196%);fill-opacity:1;" d="M 2.800781 0.710938 L 9.199219 0.710938 C 10.351562 0.710938 11.289062 1.648438 11.289062 2.800781 L 11.289062 9.199219 C 11.289062 10.351562 10.351562 11.289062 9.199219 11.289062 L 2.800781 11.289062 C 1.648438 11.289062 0.710938 10.351562 0.710938 9.199219 L 0.710938 2.800781 C 0.710938 1.648438 1.648438 0.710938 2.800781 0.710938 Z M 2.800781 0.710938 "/>
<path style=" stroke:none;fill-rule:nonzero;fill:rgb(76.078431%,20.784314%,16.470588%);fill-opacity:1;" d="M 4.054688 2.667969 L 7.945312 2.667969 L 8.222656 3.222656 L 8.222656 9.054688 L 7.945312 9.332031 L 4.054688 9.332031 L 3.777344 9.054688 L 3.777344 3.222656 Z M 4.054688 2.667969 "/>
<path style=" stroke:none;fill-rule:nonzero;fill:rgb(100%,100%,100%);fill-opacity:1;" d="M 4.054688 2.390625 L 7.945312 2.390625 L 7.945312 2.667969 L 4.054688 2.667969 Z M 4.054688 2.390625 "/>
<path style=" stroke:none;fill-rule:nonzero;fill:rgb(100%,100%,100%);fill-opacity:1;" d="M 3.777344 3.222656 L 8.222656 3.222656 L 8.222656 3.5 L 3.777344 3.5 Z M 3.777344 3.222656 "/>
<path style=" stroke:none;fill-rule:nonzero;fill:rgb(100%,100%,100%);fill-opacity:1;" d="M 3.777344 8.777344 L 8.222656 8.777344 L 8.222656 9.054688 L 3.777344 9.054688 Z M 3.777344 8.777344 "/>
<path style=" stroke:none;fill-rule:nonzero;fill:rgb(100%,100%,100%);fill-opacity:1;" d="M 4.054688 9.332031 L 7.945312 9.332031 L 7.945312 9.609375 L 4.054688 9.609375 Z M 4.054688 9.332031 "/>
<path style="fill:none;stroke-width:1.191641;stroke-linecap:butt;stroke-linejoin:miter;stroke:rgb(100%,100%,100%);stroke-opacity:1;stroke-miterlimit:4;" d="M -34.097236 4.343883 L -26.45087 12.399875 " transform="matrix(0.314692,0,0,0.314692,14.777002,2.000202)"/>
<path style="fill:none;stroke-width:1.191641;stroke-linecap:butt;stroke-linejoin:miter;stroke:rgb(100%,100%,100%);stroke-opacity:1;stroke-miterlimit:4;" d="M -30.100272 8.316021 L -30.100272 15.354153 " transform="matrix(0.314692,0,0,0.314692,14.777002,2.000202)"/>
<path style=" stroke:none;fill-rule:nonzero;fill:rgb(100%,100%,100%);fill-opacity:1;" d="M 7.390625 6.140625 C 7.390625 6.523438 7.078125 6.832031 6.695312 6.832031 C 6.3125 6.832031 6 6.523438 6 6.140625 C 6 5.753906 6.3125 5.445312 6.695312 5.445312 C 7.078125 5.445312 7.390625 5.753906 7.390625 6.140625 Z M 7.390625 6.140625 "/>
<path style=" stroke:none;fill-rule:nonzero;fill:rgb(100%,100%,100%);fill-opacity:1;" d="M 6 7.25 C 6 7.632812 5.6875 7.945312 5.304688 7.945312 C 4.921875 7.945312 4.609375 7.632812 4.609375 7.25 C 4.609375 6.867188 4.921875 6.554688 5.304688 6.554688 C 5.6875 6.554688 6 6.867188 6 7.25 Z M 6 7.25 "/>
<path style=" stroke:none;fill-rule:nonzero;fill:rgb(100%,100%,100%);fill-opacity:1;" d="M 6 4.75 C 6 5.132812 5.6875 5.445312 5.304688 5.445312 C 4.921875 5.445312 4.609375 5.132812 4.609375 4.75 C 4.609375 4.367188 4.921875 4.054688 5.304688 4.054688 C 5.6875 4.054688 6 4.367188 6 4.75 Z M 6 4.75 "/>
</g>
</svg>
