<?xml version="1.0" encoding="UTF-8"?>
<svg xmlns="http://www.w3.org/2000/svg" xmlns:xlink="http://www.w3.org/1999/xlink" width="12pt" height="12pt" viewBox="0 0 12 12" version="1.1">
<g id="surface1">
<path style=" stroke:none;fill-rule:evenodd;fill:rgb(17.647059%,55.294118%,48.235294%);fill-opacity:1;" d="M 0.710938 9.199219 C 0.710938 10.355469 1.644531 11.289062 2.800781 11.289062 L 9.199219 11.289062 C 10.355469 11.289062 11.289062 10.355469 11.289062 9.199219 L 11.289062 2.921875 L 7.722656 6.488281 L 7.699219 5.535156 L 6.667969 5.492188 L 6.691406 4.507812 L 5.625 4.472656 L 9.371094 0.746094 C 9.3125 0.742188 9.257812 0.710938 9.199219 0.710938 L 2.800781 0.710938 C 1.644531 0.710938 0.710938 1.644531 0.710938 2.800781 Z M 0.710938 9.199219 "/>
<path style=" stroke:none;fill-rule:nonzero;fill:rgb(80%,80%,80%);fill-opacity:1;" d="M 4.253906 2.578125 L 7.746094 2.578125 C 8.714844 2.578125 9.503906 3.367188 9.503906 4.335938 L 9.503906 7.664062 C 9.503906 8.632812 8.714844 9.421875 7.746094 9.421875 L 4.253906 9.421875 C 3.285156 9.421875 2.496094 8.632812 2.496094 7.664062 L 2.496094 4.335938 C 2.496094 3.367188 3.285156 2.578125 4.253906 2.578125 Z M 4.253906 2.578125 "/>
<path style=" stroke:none;fill-rule:nonzero;fill:rgb(60%,60%,60%);fill-opacity:1;" d="M 4.113281 7.5 L 7.886719 7.5 C 8.105469 7.5 8.285156 7.675781 8.285156 7.898438 C 8.285156 8.121094 8.105469 8.296875 7.886719 8.296875 L 4.113281 8.296875 C 3.894531 8.296875 3.714844 8.121094 3.714844 7.898438 C 3.714844 7.675781 3.894531 7.5 4.113281 7.5 Z M 4.113281 7.5 "/>
<path style=" stroke:none;fill-rule:evenodd;fill:rgb(99.215686%,62.745098%,0.784314%);fill-opacity:1;" d="M 9.371094 0.746094 L 5.625 4.472656 L 6.691406 4.507812 L 6.667969 5.492188 L 7.699219 5.535156 L 7.722656 6.488281 L 11.289062 2.921875 L 11.289062 2.800781 C 11.289062 1.707031 10.441406 0.839844 9.371094 0.746094 Z M 9.371094 0.746094 "/>
<path style=" stroke:none;fill-rule:evenodd;fill:rgb(100%,100%,100%);fill-opacity:1;" d="M 9.351562 4.859375 L 7.722656 6.488281 Z M 9.351562 4.859375 "/>
<path style=" stroke:none;fill-rule:nonzero;fill:rgb(60%,60%,60%);fill-opacity:1;" d="M 4.625 3.800781 L 5.429688 3.800781 C 5.929688 3.800781 6.339844 4.210938 6.339844 4.710938 L 6.339844 5.679688 C 6.339844 6.183594 5.929688 6.589844 5.429688 6.589844 L 4.625 6.589844 C 4.121094 6.589844 3.714844 6.183594 3.714844 5.679688 L 3.714844 4.710938 C 3.714844 4.210938 4.121094 3.800781 4.625 3.800781 Z M 4.625 3.800781 "/>
<path style=" stroke:none;fill-rule:evenodd;fill:rgb(99.215686%,62.745098%,0.784314%);fill-opacity:1;" d="M 5.625 4.472656 L 6.691406 4.507812 L 6.667969 5.492188 L 7.695312 5.535156 L 7.722656 6.488281 L 9.351562 4.859375 C 9.039062 3.898438 8.332031 3.109375 7.410156 2.699219 Z M 5.625 4.472656 "/>
<path style=" stroke:none;fill-rule:evenodd;fill:rgb(100%,100%,100%);fill-opacity:1;" d="M 4.703125 7.472656 L 7.722656 6.488281 L 7.695312 5.535156 L 6.667969 5.492188 L 6.691406 4.507812 L 5.625 4.472656 Z M 4.703125 7.472656 "/>
<path style=" stroke:none;fill-rule:nonzero;fill:rgb(0%,0%,0%);fill-opacity:1;" d="M 4.703125 7.472656 L 5.835938 7.105469 L 5.046875 6.34375 Z M 4.703125 7.472656 "/>
</g>
</svg>
