<?xml version="1.0" encoding="UTF-8"?>
<svg xmlns="http://www.w3.org/2000/svg" xmlns:xlink="http://www.w3.org/1999/xlink" width="12pt" height="12pt" viewBox="0 0 12 12" version="1.1">
<g id="surface1">
<path style=" stroke:none;fill-rule:evenodd;fill:rgb(9.019608%,52.156863%,15.686275%);fill-opacity:1;" d="M 2.800781 0.710938 L 9.199219 0.710938 C 10.351562 0.710938 11.289062 1.648438 11.289062 2.800781 L 11.289062 9.199219 C 11.289062 10.351562 10.351562 11.289062 9.199219 11.289062 L 2.800781 11.289062 C 1.648438 11.289062 0.710938 10.351562 0.710938 9.199219 L 0.710938 2.800781 C 0.710938 1.648438 1.648438 0.710938 2.800781 0.710938 Z M 2.800781 0.710938 "/>
<path style=" stroke:none;fill-rule:nonzero;fill:rgb(100%,100%,100%);fill-opacity:1;" d="M 6 2.628906 C 6.839844 2.628906 7.519531 3.34375 7.519531 4.226562 C 7.519531 5.109375 6.839844 5.824219 6 5.824219 C 5.160156 5.824219 4.480469 5.109375 4.480469 4.226562 C 4.480469 3.34375 5.160156 2.628906 6 2.628906 Z M 6 2.628906 "/>
<path style=" stroke:none;fill-rule:nonzero;fill:rgb(100%,100%,100%);fill-opacity:1;" d="M 6 6.710938 C 9.039062 6.707031 9.039062 8.835938 9.039062 8.835938 L 9.039062 9.371094 L 2.960938 9.371094 L 2.960938 8.835938 C 2.960938 8.835938 2.960938 6.710938 6 6.710938 Z M 6 6.710938 "/>
<path style=" stroke:none;fill-rule:nonzero;fill:rgb(0%,32.941176%,0%);fill-opacity:1;" d="M 9.84375 6.148438 C 9.84375 5.4375 9.269531 4.863281 8.558594 4.863281 C 7.847656 4.863281 7.269531 5.4375 7.269531 6.148438 C 7.269531 6.675781 7.589844 7.144531 8.074219 7.34375 L 8.074219 8.082031 L 7.59375 8.082031 L 7.59375 8.886719 L 8.074219 8.886719 L 8.074219 9.371094 L 9.039062 9.371094 L 9.039062 7.34375 C 9.527344 7.148438 9.84375 6.675781 9.84375 6.148438 Z M 9.039062 6.148438 C 9.039062 6.417969 8.824219 6.632812 8.558594 6.632812 C 8.292969 6.632812 8.074219 6.417969 8.074219 6.148438 C 8.074219 5.882812 8.292969 5.667969 8.558594 5.667969 C 8.824219 5.667969 9.039062 5.882812 9.039062 6.148438 Z M 9.039062 6.148438 "/>
</g>
</svg>
