<?xml version="1.0" encoding="UTF-8"?>
<svg xmlns="http://www.w3.org/2000/svg" xmlns:xlink="http://www.w3.org/1999/xlink" width="12pt" height="12pt" viewBox="0 0 12 12" version="1.1">
<g id="surface1">
<path style=" stroke:none;fill-rule:evenodd;fill:rgb(60%,60%,60%);fill-opacity:1;" d="M 2.800781 0.710938 L 9.199219 0.710938 C 10.351562 0.710938 11.289062 1.648438 11.289062 2.800781 L 11.289062 9.199219 C 11.289062 10.351562 10.351562 11.289062 9.199219 11.289062 L 2.800781 11.289062 C 1.648438 11.289062 0.710938 10.351562 0.710938 9.199219 L 0.710938 2.800781 C 0.710938 1.648438 1.648438 0.710938 2.800781 0.710938 Z M 2.800781 0.710938 "/>
<path style=" stroke:none;fill-rule:nonzero;fill:rgb(80%,80%,80%);fill-opacity:1;" d="M 6 2.128906 C 4.191406 2.128906 3.992188 3.746094 3.992188 5.570312 L 4.851562 5.570312 C 4.832031 3.746094 5.242188 2.988281 6 2.988281 C 6.757812 2.988281 7.167969 3.746094 7.148438 5.570312 L 8.007812 5.570312 C 8.007812 3.746094 7.808594 2.128906 6 2.128906 Z M 6 2.128906 "/>
<path style=" stroke:none;fill-rule:nonzero;fill:rgb(100%,100%,100%);fill-opacity:1;" d="M 8.867188 7.003906 C 8.867188 5.417969 7.585938 4.136719 6 4.136719 C 4.414062 4.136719 3.132812 5.417969 3.132812 7.003906 C 3.132812 8.589844 4.414062 9.871094 6 9.871094 C 7.585938 9.871094 8.867188 8.589844 8.867188 7.003906 Z M 8.867188 7.003906 "/>
<path style=" stroke:none;fill-rule:nonzero;fill:rgb(30.980392%,30.980392%,30.980392%);fill-opacity:1;" d="M 8.007812 7.003906 C 8.007812 5.894531 7.109375 4.996094 6 4.996094 C 4.890625 4.996094 3.992188 5.894531 3.992188 7.003906 C 3.992188 8.113281 4.890625 9.011719 6 9.011719 C 7.109375 9.011719 8.007812 8.113281 8.007812 7.003906 Z M 8.007812 7.003906 "/>
<path style=" stroke:none;fill-rule:nonzero;fill:rgb(100%,34.901961%,41.176471%);fill-opacity:1;" d="M 7.117188 5.886719 L 6.660156 6.039062 L 6.242188 6.179688 C 5.941406 6.089844 5.613281 6.171875 5.390625 6.394531 C 5.054688 6.730469 5.054688 7.277344 5.390625 7.613281 C 5.726562 7.949219 6.273438 7.949219 6.609375 7.613281 C 6.832031 7.390625 6.914062 7.0625 6.824219 6.761719 L 6.964844 6.34375 Z M 7.117188 5.886719 "/>
</g>
</svg>
