<?xml version="1.0" encoding="UTF-8"?>
<svg xmlns="http://www.w3.org/2000/svg" xmlns:xlink="http://www.w3.org/1999/xlink" width="12pt" height="12pt" viewBox="0 0 12 12" version="1.1">
<defs>
<clipPath id="clip1">
  <rect width="12" height="12"/>
</clipPath>
<g id="surface6" clip-path="url(#clip1)">
<path style=" stroke:none;fill-rule:evenodd;fill:rgb(100%,100%,100%);fill-opacity:1;" d="M 8.476562 2.242188 C 9.300781 2.242188 9.96875 2.910156 9.96875 3.734375 C 9.96875 4.558594 9.300781 5.222656 8.476562 5.222656 C 7.652344 5.222656 6.984375 4.558594 6.984375 3.734375 C 6.984375 2.910156 7.652344 2.242188 8.476562 2.242188 Z M 8.476562 2.242188 "/>
</g>
</defs>
<g id="surface1">
<path style=" stroke:none;fill-rule:evenodd;fill:rgb(85.490196%,97.254902%,100%);fill-opacity:1;" d="M 2.800781 0.710938 L 9.199219 0.710938 C 10.351562 0.710938 11.289062 1.648438 11.289062 2.800781 L 11.289062 9.199219 C 11.289062 10.351562 10.351562 11.289062 9.199219 11.289062 L 2.800781 11.289062 C 1.648438 11.289062 0.710938 10.351562 0.710938 9.199219 L 0.710938 2.800781 C 0.710938 1.648438 1.648438 0.710938 2.800781 0.710938 Z M 2.800781 0.710938 "/>
<use xlink:href="#surface6"/>
<path style=" stroke:none;fill-rule:nonzero;fill:rgb(59.607843%,37.647059%,1.960784%);fill-opacity:1;" d="M 5.554688 7.59375 L 5.898438 7.59375 L 5.898438 8.113281 L 5.554688 8.113281 Z M 5.554688 7.59375 "/>
<path style=" stroke:none;fill-rule:nonzero;fill:rgb(45.490196%,63.137255%,5.098039%);fill-opacity:1;" d="M 6.472656 7.792969 L 5.015625 7.792969 L 5.746094 6.53125 Z M 6.472656 7.792969 "/>
<path style=" stroke:none;fill-rule:nonzero;fill:rgb(59.607843%,76.470588%,1.960784%);fill-opacity:1;" d="M 6.359375 7.351562 L 5.105469 7.351562 L 5.730469 6.265625 Z M 6.359375 7.351562 "/>
<path style=" stroke:none;fill-rule:nonzero;fill:rgb(67.843137%,85.882353%,11.764706%);fill-opacity:1;" d="M 6.246094 6.851562 L 5.25 6.851562 L 5.746094 5.992188 Z M 6.246094 6.851562 "/>
<path style=" stroke:none;fill-rule:evenodd;fill:rgb(59.215686%,77.647059%,2.745098%);fill-opacity:1;" d="M 7.242188 7.710938 C 5.398438 7.878906 4.835938 8.492188 2.675781 8.378906 C 2.234375 8.339844 1.023438 8.003906 0.710938 7.890625 L 0.710938 9.199219 C 0.710938 9.433594 0.75 9.660156 0.820312 9.871094 C 1.171875 9.683594 1.546875 9.527344 1.894531 9.441406 C 2.285156 9.34375 2.675781 9.304688 3.066406 9.300781 C 3.851562 9.289062 4.644531 9.425781 5.480469 9.542969 C 5.898438 9.601562 6.328125 9.652344 6.773438 9.683594 C 7.21875 9.710938 7.675781 9.71875 8.15625 9.675781 C 8.632812 9.636719 9.132812 9.550781 9.652344 9.402344 C 10.171875 9.253906 10.71875 9.214844 11.289062 8.914062 C 9.613281 7.988281 8.351562 7.609375 7.242188 7.710938 Z M 7.242188 7.710938 "/>
<path style=" stroke:none;fill-rule:nonzero;fill:rgb(59.607843%,37.647059%,1.960784%);fill-opacity:1;" d="M 2.773438 7.925781 L 3.648438 7.925781 L 3.648438 9.234375 L 2.773438 9.234375 Z M 2.773438 7.925781 "/>
<path style=" stroke:none;fill-rule:nonzero;fill:rgb(45.490196%,63.137255%,5.098039%);fill-opacity:1;" d="M 5.101562 8.429688 L 1.40625 8.429688 L 3.253906 5.230469 Z M 5.101562 8.429688 "/>
<path style=" stroke:none;fill-rule:nonzero;fill:rgb(59.607843%,76.470588%,1.960784%);fill-opacity:1;" d="M 4.808594 7.308594 L 1.632812 7.308594 L 3.222656 4.5625 Z M 4.808594 7.308594 "/>
<path style=" stroke:none;fill-rule:nonzero;fill:rgb(67.843137%,85.882353%,11.764706%);fill-opacity:1;" d="M 4.523438 6.046875 L 2 6.046875 L 3.261719 3.863281 Z M 4.523438 6.046875 "/>
<path style=" stroke:none;fill-rule:evenodd;fill:rgb(45.490196%,63.137255%,5.098039%);fill-opacity:1;" d="M 11.289062 8.914062 L 0.710938 8.914062 L 0.710938 9.21875 C 0.710938 10.375 1.644531 11.308594 2.804688 11.308594 L 9.199219 11.308594 C 10.355469 11.308594 11.289062 10.375 11.289062 9.21875 Z M 11.289062 8.914062 "/>
<path style=" stroke:none;fill-rule:nonzero;fill:rgb(67.843137%,85.882353%,11.764706%);fill-opacity:1;" d="M 2.511719 9.414062 L 3.132812 9.414062 C 3.328125 9.414062 3.484375 9.570312 3.484375 9.765625 L 3.484375 10.386719 C 3.484375 10.582031 3.328125 10.738281 3.132812 10.738281 L 2.511719 10.738281 C 2.316406 10.738281 2.160156 10.582031 2.160156 10.386719 L 2.160156 9.765625 C 2.160156 9.570312 2.316406 9.414062 2.511719 9.414062 Z M 2.511719 9.414062 "/>
<path style=" stroke:none;fill-rule:nonzero;fill:rgb(67.843137%,85.882353%,11.764706%);fill-opacity:1;" d="M 4.097656 9.414062 L 4.722656 9.414062 C 4.917969 9.414062 5.074219 9.570312 5.074219 9.765625 L 5.074219 10.386719 C 5.074219 10.582031 4.917969 10.738281 4.722656 10.738281 L 4.097656 10.738281 C 3.90625 10.738281 3.746094 10.582031 3.746094 10.386719 L 3.746094 9.765625 C 3.746094 9.570312 3.90625 9.414062 4.097656 9.414062 Z M 4.097656 9.414062 "/>
<path style=" stroke:none;fill-rule:nonzero;fill:rgb(67.843137%,85.882353%,11.764706%);fill-opacity:1;" d="M 5.6875 9.414062 L 6.3125 9.414062 C 6.503906 9.414062 6.664062 9.570312 6.664062 9.765625 L 6.664062 10.386719 C 6.664062 10.582031 6.503906 10.738281 6.3125 10.738281 L 5.6875 10.738281 C 5.496094 10.738281 5.335938 10.582031 5.335938 10.386719 L 5.335938 9.765625 C 5.335938 9.570312 5.496094 9.414062 5.6875 9.414062 Z M 5.6875 9.414062 "/>
<path style=" stroke:none;fill-rule:nonzero;fill:rgb(67.843137%,85.882353%,11.764706%);fill-opacity:1;" d="M 7.277344 9.414062 L 7.902344 9.414062 C 8.09375 9.414062 8.253906 9.570312 8.253906 9.765625 L 8.253906 10.386719 C 8.253906 10.582031 8.09375 10.738281 7.902344 10.738281 L 7.277344 10.738281 C 7.082031 10.738281 6.925781 10.582031 6.925781 10.386719 L 6.925781 9.765625 C 6.925781 9.570312 7.082031 9.414062 7.277344 9.414062 Z M 7.277344 9.414062 "/>
<path style=" stroke:none;fill-rule:nonzero;fill:rgb(67.843137%,85.882353%,11.764706%);fill-opacity:1;" d="M 8.867188 9.414062 L 9.488281 9.414062 C 9.683594 9.414062 9.839844 9.570312 9.839844 9.765625 L 9.839844 10.386719 C 9.839844 10.582031 9.683594 10.738281 9.488281 10.738281 L 8.867188 10.738281 C 8.671875 10.738281 8.515625 10.582031 8.515625 10.386719 L 8.515625 9.765625 C 8.515625 9.570312 8.671875 9.414062 8.867188 9.414062 Z M 8.867188 9.414062 "/>
</g>
</svg>
