<?xml version="1.0" encoding="UTF-8"?>
<svg xmlns="http://www.w3.org/2000/svg" xmlns:xlink="http://www.w3.org/1999/xlink" width="12pt" height="12pt" viewBox="0 0 12 12" version="1.1">
<defs>
<clipPath id="clip1">
  <rect width="12" height="12"/>
</clipPath>
<g id="surface6" clip-path="url(#clip1)">
<path style=" stroke:none;fill-rule:nonzero;fill:rgb(100%,100%,100%);fill-opacity:1;" d="M 6.007812 2.625 C 6.71875 2.625 7.4375 2.847656 8 3.285156 C 8.394531 3.742188 7.640625 4.230469 7.300781 3.785156 C 6.28125 3.167969 4.839844 3.382812 4.070312 4.308594 C 3.664062 4.765625 3.433594 5.378906 3.433594 5.992188 L 4.109375 5.992188 C 3.75 6.535156 3.390625 7.074219 3.03125 7.613281 C 2.667969 7.074219 2.308594 6.535156 1.949219 5.996094 L 2.625 5.996094 C 2.601562 4.527344 3.65625 3.132812 5.074219 2.75 C 5.378906 2.667969 5.691406 2.621094 6.007812 2.625 Z M 8.96875 4.378906 C 9.332031 4.921875 9.691406 5.460938 10.050781 6 L 9.375 6 C 9.394531 7.484375 8.3125 8.894531 6.871094 9.257812 C 5.898438 9.527344 4.800781 9.328125 4 8.707031 C 3.59375 8.246094 4.355469 7.761719 4.699219 8.210938 C 5.6875 8.8125 7.074219 8.621094 7.855469 7.761719 C 8.308594 7.296875 8.570312 6.652344 8.566406 6 L 7.890625 6 C 8.25 5.460938 8.609375 4.921875 8.96875 4.378906 Z M 8.96875 4.378906 "/>
</g>
</defs>
<g id="surface1">
<path style=" stroke:none;fill-rule:evenodd;fill:rgb(100%,54.117647%,0%);fill-opacity:1;" d="M 2.800781 0.710938 L 9.199219 0.710938 C 10.351562 0.710938 11.289062 1.648438 11.289062 2.800781 L 11.289062 9.199219 C 11.289062 10.351562 10.351562 11.289062 9.199219 11.289062 L 2.800781 11.289062 C 1.648438 11.289062 0.710938 10.351562 0.710938 9.199219 L 0.710938 2.800781 C 0.710938 1.648438 1.648438 0.710938 2.800781 0.710938 Z M 2.800781 0.710938 "/>
<use xlink:href="#surface6"/>
</g>
</svg>
