<?xml version="1.0" encoding="UTF-8"?>
<svg xmlns="http://www.w3.org/2000/svg" xmlns:xlink="http://www.w3.org/1999/xlink" width="12pt" height="12pt" viewBox="0 0 12 12" version="1.1">
<g id="surface1">
<path style=" stroke:none;fill-rule:evenodd;fill:rgb(47.45098%,87.058824%,49.019608%);fill-opacity:1;" d="M 2.800781 0.710938 L 9.199219 0.710938 C 10.351562 0.710938 11.289062 1.648438 11.289062 2.800781 L 11.289062 9.199219 C 11.289062 10.351562 10.351562 11.289062 9.199219 11.289062 L 2.800781 11.289062 C 1.648438 11.289062 0.710938 10.351562 0.710938 9.199219 L 0.710938 2.800781 C 0.710938 1.648438 1.648438 0.710938 2.800781 0.710938 Z M 2.800781 0.710938 "/>
<path style=" stroke:none;fill-rule:nonzero;fill:rgb(24.705882%,56.862745%,25.882353%);fill-opacity:1;" d="M 9.65625 6 C 9.65625 8.019531 8.019531 9.65625 6 9.65625 C 3.980469 9.65625 2.34375 8.019531 2.34375 6 C 2.34375 3.980469 3.980469 2.34375 6 2.34375 C 8.019531 2.34375 9.65625 3.980469 9.65625 6 Z M 9.65625 6 "/>
<path style=" stroke:none;fill-rule:nonzero;fill:rgb(47.45098%,87.058824%,49.019608%);fill-opacity:1;" d="M 9.132812 6 C 9.132812 7.730469 7.730469 9.132812 6 9.132812 C 4.269531 9.132812 2.867188 7.730469 2.867188 6 C 2.867188 4.269531 4.269531 2.867188 6 2.867188 C 7.730469 2.867188 9.132812 4.269531 9.132812 6 Z M 9.132812 6 "/>
<path style=" stroke:none;fill-rule:nonzero;fill:rgb(24.705882%,56.862745%,25.882353%);fill-opacity:1;" d="M 7.828125 6.339844 C 7.828125 6.914062 7.683594 7.351562 7.394531 7.648438 C 7.109375 7.941406 6.675781 8.089844 6.105469 8.089844 C 5.699219 8.089844 5.351562 8 5.058594 7.824219 C 4.765625 7.644531 4.546875 7.398438 4.398438 7.082031 C 4.246094 6.761719 4.171875 6.390625 4.171875 5.96875 C 4.171875 5.570312 4.25 5.21875 4.40625 4.90625 C 4.566406 4.59375 4.792969 4.351562 5.085938 4.175781 C 5.382812 4 5.722656 3.910156 6.113281 3.910156 C 6.539062 3.910156 6.890625 4.019531 7.164062 4.238281 C 7.4375 4.457031 7.660156 4.847656 7.769531 5.214844 L 7.042969 5.214844 C 6.976562 5.046875 6.828125 4.804688 6.664062 4.695312 C 6.503906 4.582031 6.316406 4.527344 6.101562 4.527344 C 5.757812 4.527344 5.460938 4.664062 5.214844 4.9375 C 4.96875 5.207031 4.84375 5.550781 4.84375 5.96875 C 4.84375 6.246094 4.894531 6.5 4.992188 6.726562 C 5.09375 6.953125 5.242188 7.132812 5.429688 7.269531 C 5.625 7.40625 5.84375 7.472656 6.09375 7.472656 C 6.292969 7.472656 6.464844 7.449219 6.617188 7.402344 C 6.769531 7.351562 6.894531 7.269531 6.992188 7.160156 C 7.089844 7.050781 7.144531 6.941406 7.148438 6.785156 L 6.261719 6.785156 L 6.261719 6.261719 L 7.828125 6.261719 "/>
</g>
</svg>
