<?xml version="1.0" encoding="UTF-8"?>
<svg xmlns="http://www.w3.org/2000/svg" xmlns:xlink="http://www.w3.org/1999/xlink" width="12pt" height="12pt" viewBox="0 0 12 12" version="1.1">
<g id="surface1">
<path style=" stroke:none;fill-rule:evenodd;fill:rgb(55.686275%,55.686275%,55.686275%);fill-opacity:1;" d="M 2.800781 0.710938 L 9.199219 0.710938 C 10.351562 0.710938 11.289062 1.648438 11.289062 2.800781 L 11.289062 9.199219 C 11.289062 10.351562 10.351562 11.289062 9.199219 11.289062 L 2.800781 11.289062 C 1.648438 11.289062 0.710938 10.351562 0.710938 9.199219 L 0.710938 2.800781 C 0.710938 1.648438 1.648438 0.710938 2.800781 0.710938 Z M 2.800781 0.710938 "/>
<path style=" stroke:none;fill-rule:evenodd;fill:rgb(40%,40%,40%);fill-opacity:1;" d="M 2.882812 1.949219 L 9.117188 1.949219 L 9.117188 5.6875 L 2.882812 5.6875 Z M 2.882812 1.949219 "/>
<path style=" stroke:none;fill-rule:nonzero;fill:rgb(40%,40%,40%);fill-opacity:1;" d="M 7.871094 8.183594 C 7.871094 9.214844 7.03125 10.050781 6 10.050781 C 4.96875 10.050781 4.128906 9.214844 4.128906 8.183594 C 4.128906 7.148438 4.96875 6.3125 6 6.3125 C 7.03125 6.3125 7.871094 7.148438 7.871094 8.183594 Z M 7.871094 8.183594 "/>
<path style=" stroke:none;fill-rule:nonzero;fill:rgb(90.196078%,90.196078%,90.196078%);fill-opacity:1;" d="M 6.933594 8.183594 C 6.933594 8.699219 6.515625 9.117188 6 9.117188 C 5.484375 9.117188 5.066406 8.699219 5.066406 8.183594 C 5.066406 7.664062 5.484375 7.246094 6 7.246094 C 6.515625 7.246094 6.933594 7.664062 6.933594 8.183594 Z M 6.933594 8.183594 "/>
</g>
</svg>
