<?xml version="1.0" encoding="UTF-8"?>
<svg xmlns="http://www.w3.org/2000/svg" xmlns:xlink="http://www.w3.org/1999/xlink" width="12pt" height="12pt" viewBox="0 0 12 12" version="1.1">
<g id="surface1">
<path style=" stroke:none;fill-rule:evenodd;fill:rgb(45.490196%,81.960784%,34.901961%);fill-opacity:1;" d="M 2.800781 0.710938 L 9.199219 0.710938 C 10.351562 0.710938 11.289062 1.648438 11.289062 2.800781 L 11.289062 9.199219 C 11.289062 10.351562 10.351562 11.289062 9.199219 11.289062 L 2.800781 11.289062 C 1.648438 11.289062 0.710938 10.351562 0.710938 9.199219 L 0.710938 2.800781 C 0.710938 1.648438 1.648438 0.710938 2.800781 0.710938 Z M 2.800781 0.710938 "/>
<path style=" stroke:none;fill-rule:nonzero;fill:rgb(100%,100%,100%);fill-opacity:1;" d="M 3.011719 2.269531 L 3.011719 2.644531 L 2.824219 2.644531 C 2.511719 2.644531 2.261719 2.894531 2.261719 3.207031 C 2.261719 3.519531 2.511719 3.769531 2.824219 3.769531 L 3.011719 3.769531 L 3.011719 4.144531 L 2.296875 4.144531 C 2.375 4.363281 2.578125 4.519531 2.824219 4.519531 L 3.011719 4.519531 L 3.011719 4.894531 L 3.386719 4.894531 L 3.386719 4.519531 L 3.574219 4.519531 C 3.886719 4.519531 4.136719 4.269531 4.136719 3.957031 C 4.136719 3.644531 3.886719 3.394531 3.574219 3.394531 L 3.386719 3.394531 L 3.386719 3.019531 L 4.101562 3.019531 C 4.027344 2.800781 3.820312 2.644531 3.574219 2.644531 L 3.386719 2.644531 L 3.386719 2.269531 Z M 2.824219 3.019531 L 3.011719 3.019531 L 3.011719 3.394531 L 2.824219 3.394531 C 2.722656 3.394531 2.636719 3.308594 2.636719 3.207031 C 2.636719 3.101562 2.722656 3.019531 2.824219 3.019531 Z M 3.386719 3.769531 L 3.574219 3.769531 C 3.679688 3.769531 3.761719 3.851562 3.761719 3.957031 C 3.761719 4.058594 3.679688 4.148438 3.574219 4.144531 L 3.386719 4.144531 Z M 4.886719 4.519531 L 4.886719 4.894531 L 7.136719 4.894531 L 7.136719 4.519531 Z M 4.886719 4.519531 "/>
<path style=" stroke:none;fill-rule:nonzero;fill:rgb(52.156863%,38.039216%,77.254902%);fill-opacity:1;" d="M 10.398438 8.308594 C 10.398438 9.550781 9.390625 10.558594 8.148438 10.558594 C 6.90625 10.558594 5.898438 9.550781 5.898438 8.308594 C 5.898438 7.066406 6.90625 6.058594 8.148438 6.058594 C 9.390625 6.058594 10.398438 7.066406 10.398438 8.308594 Z M 10.398438 8.308594 "/>
<path style=" stroke:none;fill-rule:nonzero;fill:rgb(100%,100%,100%);fill-opacity:1;" d="M 7.867188 7.183594 L 7.84375 7.480469 C 7.75 7.511719 7.660156 7.5625 7.582031 7.628906 L 7.316406 7.5 L 7.035156 7.988281 L 7.277344 8.15625 C 7.269531 8.207031 7.265625 8.257812 7.265625 8.308594 C 7.265625 8.355469 7.269531 8.40625 7.277344 8.457031 L 7.035156 8.625 L 7.316406 9.113281 L 7.582031 8.988281 C 7.660156 9.050781 7.75 9.101562 7.84375 9.136719 L 7.867188 9.433594 L 8.429688 9.433594 L 8.453125 9.136719 C 8.546875 9.101562 8.636719 9.050781 8.710938 8.988281 L 8.980469 9.113281 L 9.261719 8.625 L 9.019531 8.457031 C 9.027344 8.40625 9.03125 8.355469 9.03125 8.308594 C 9.03125 8.257812 9.027344 8.207031 9.019531 8.15625 L 9.261719 7.988281 L 8.980469 7.5 L 8.714844 7.628906 C 8.636719 7.5625 8.546875 7.511719 8.453125 7.480469 L 8.429688 7.183594 Z M 8.148438 7.984375 C 8.324219 7.984375 8.46875 8.128906 8.46875 8.308594 C 8.46875 8.484375 8.324219 8.628906 8.148438 8.628906 C 7.972656 8.628906 7.828125 8.484375 7.828125 8.308594 C 7.828125 8.128906 7.972656 7.984375 8.148438 7.984375 Z M 8.148438 7.984375 "/>
</g>
</svg>
