<?xml version="1.0" encoding="UTF-8"?>
<svg xmlns="http://www.w3.org/2000/svg" xmlns:xlink="http://www.w3.org/1999/xlink" width="12pt" height="12pt" viewBox="0 0 12 12" version="1.1">
<g id="surface1">
<path style=" stroke:none;fill-rule:evenodd;fill:rgb(46.666667%,40.392157%,75.294118%);fill-opacity:1;" d="M 2.800781 0.710938 L 9.199219 0.710938 C 10.351562 0.710938 11.289062 1.648438 11.289062 2.800781 L 11.289062 9.199219 C 11.289062 10.351562 10.351562 11.289062 9.199219 11.289062 L 2.800781 11.289062 C 1.648438 11.289062 0.710938 10.351562 0.710938 9.199219 L 0.710938 2.800781 C 0.710938 1.648438 1.648438 0.710938 2.800781 0.710938 Z M 2.800781 0.710938 "/>
<path style=" stroke:none;fill-rule:evenodd;fill:rgb(56.862745%,50.980392%,84.313725%);fill-opacity:1;" d="M 8.222656 11.289062 L 8.222656 5.65625 C 8.222656 5.367188 8.164062 5.09375 8.058594 4.84375 C 7.953125 4.589844 7.800781 4.367188 7.613281 4.175781 C 7.425781 3.988281 7.199219 3.835938 6.949219 3.730469 C 6.699219 3.625 6.421875 3.566406 6.132812 3.566406 L 1.25 3.566406 C 1.058594 3.566406 0.886719 3.625 0.710938 3.675781 L 0.710938 9.195312 C 0.710938 10.355469 1.644531 11.289062 2.800781 11.289062 Z M 8.222656 11.289062 "/>
<path style=" stroke:none;fill-rule:evenodd;fill:rgb(65.490196%,60.784314%,87.45098%);fill-opacity:1;" d="M 8.222656 8.9375 L 8.222656 11.289062 L 9.195312 11.289062 C 10.355469 11.289062 11.289062 10.355469 11.289062 9.195312 L 11.289062 8.9375 Z M 8.222656 8.9375 "/>
<path style=" stroke:none;fill-rule:evenodd;fill:rgb(65.490196%,60.784314%,87.45098%);fill-opacity:1;" d="M 3.3125 0.710938 L 2.800781 0.710938 C 1.644531 0.710938 0.710938 1.644531 0.710938 2.800781 L 0.710938 3.675781 C 0.886719 3.625 1.058594 3.566406 1.25 3.566406 L 3.3125 3.566406 Z M 3.3125 0.710938 "/>
<path style=" stroke:none;fill-rule:evenodd;fill:rgb(46.666667%,40.392157%,75.294118%);fill-opacity:1;" d="M 3.3125 0.710938 L 3.3125 3.566406 L 6.132812 3.566406 C 6.421875 3.566406 6.699219 3.625 6.949219 3.730469 C 7.199219 3.835938 7.425781 3.988281 7.613281 4.175781 C 7.800781 4.367188 7.953125 4.589844 8.058594 4.84375 C 8.164062 5.09375 8.222656 5.367188 8.222656 5.65625 L 8.222656 8.9375 L 11.289062 8.9375 L 11.289062 2.800781 C 11.289062 1.644531 10.355469 0.710938 9.195312 0.710938 Z M 3.3125 0.710938 "/>
<path style=" stroke:none;fill-rule:nonzero;fill:rgb(100%,100%,100%);fill-opacity:1;" d="M 4.289062 4.878906 C 2.835938 4.878906 1.664062 6.054688 1.664062 7.503906 C 1.664062 8.953125 2.835938 10.128906 4.289062 10.128906 C 5.738281 10.128906 6.914062 8.953125 6.914062 7.503906 C 6.914062 6.054688 5.738281 4.878906 4.289062 4.878906 Z M 4.023438 5.382812 C 4.054688 5.378906 4.09375 5.382812 4.125 5.382812 C 4.128906 5.394531 4.101562 5.449219 4.066406 5.523438 C 3.84375 6.011719 3.832031 6.578125 4.039062 6.882812 C 4.078125 6.9375 4.109375 6.992188 4.109375 6.996094 C 4.109375 7.003906 4.070312 7.011719 4.023438 7.011719 C 3.917969 7.011719 3.816406 6.945312 3.609375 6.785156 C 3.519531 6.710938 3.398438 6.648438 3.351562 6.640625 C 3.28125 6.625 3.261719 6.632812 3.167969 6.726562 C 3.078125 6.8125 3.050781 6.859375 3.050781 6.941406 C 3.050781 7.242188 3.414062 7.484375 4.082031 7.625 C 4.992188 7.820312 5.214844 7.992188 5.238281 8.46875 C 5.269531 9.070312 4.953125 9.519531 4.253906 9.871094 C 4.167969 9.914062 4.117188 9.929688 4.082031 9.941406 C 4.066406 9.941406 4.054688 9.945312 4.039062 9.941406 C 4.035156 9.921875 4.023438 9.878906 4.023438 9.800781 C 4.023438 9.480469 3.898438 9.152344 3.710938 8.96875 C 3.660156 8.921875 3.515625 8.816406 3.394531 8.742188 C 3.273438 8.667969 3.152344 8.578125 3.125 8.542969 C 3.078125 8.480469 3.074219 8.441406 3.109375 8.328125 C 3.171875 8.117188 3.25 8 3.394531 7.871094 C 3.472656 7.800781 3.550781 7.742188 3.566406 7.742188 C 3.582031 7.738281 3.46875 7.703125 3.296875 7.667969 C 3.121094 7.632812 2.867188 7.558594 2.738281 7.511719 C 2.496094 7.425781 2.175781 7.242188 2.050781 7.113281 L 2.035156 7.097656 C 2.214844 6.394531 2.710938 5.816406 3.367188 5.539062 C 3.503906 5.480469 3.644531 5.441406 3.796875 5.410156 C 3.871094 5.394531 3.945312 5.390625 4.023438 5.382812 Z M 6.167969 6.453125 C 6.222656 6.488281 6.425781 6.925781 6.484375 7.140625 C 6.558594 7.417969 6.550781 7.894531 6.484375 8.167969 C 6.457031 8.273438 6.421875 8.371094 6.414062 8.382812 C 6.402344 8.398438 6.359375 8.328125 6.3125 8.242188 C 6.265625 8.15625 6.109375 7.976562 5.984375 7.839844 C 5.613281 7.453125 5.558594 7.25 5.710938 6.941406 C 5.789062 6.785156 6.128906 6.429688 6.167969 6.453125 Z M 6.167969 6.453125 "/>
<path style=" stroke:none;fill-rule:evenodd;fill:rgb(30.980392%,30.980392%,30.980392%);fill-opacity:1;" d="M 10.84375 8.242188 C 10.84375 9.484375 9.835938 10.492188 8.59375 10.492188 C 7.351562 10.492188 6.34375 9.484375 6.34375 8.242188 C 6.34375 7 7.351562 5.992188 8.59375 5.992188 C 9.835938 5.992188 10.84375 7 10.84375 8.242188 Z M 10.84375 8.242188 "/>
<path style=" stroke:none;fill-rule:nonzero;fill:rgb(100%,100%,100%);fill-opacity:1;" d="M 8.875 7.117188 L 8.875 8.242188 L 9.296875 8.242188 L 8.59375 9.085938 L 7.890625 8.242188 L 8.3125 8.242188 L 8.3125 7.117188 Z M 8.875 7.117188 "/>
</g>
</svg>
