<?xml version="1.0" encoding="UTF-8"?>
<svg xmlns="http://www.w3.org/2000/svg" xmlns:xlink="http://www.w3.org/1999/xlink" width="12pt" height="12pt" viewBox="0 0 12 12" version="1.1">
<defs>
<g>
<symbol overflow="visible" id="glyph0-0">
<path style="stroke:none;" d="M 0.09375 0.359375 L 0.09375 -1.40625 L 1.09375 -1.40625 L 1.09375 0.359375 Z M 0.21875 0.25 L 0.984375 0.25 L 0.984375 -1.296875 L 0.21875 -1.296875 Z M 0.21875 0.25 "/>
</symbol>
<symbol overflow="visible" id="glyph0-1">
<path style="stroke:none;" d="M 0.1875 -1.453125 L 0.5625 -1.453125 L 0.5625 0 L 0.1875 0 Z M 0.1875 -1.453125 "/>
</symbol>
<symbol overflow="visible" id="glyph0-2">
<path style="stroke:none;" d="M 0.109375 -0.71875 L 0.71875 -0.71875 L 0.71875 -0.4375 L 0.109375 -0.4375 Z M 0.109375 -0.71875 "/>
</symbol>
<symbol overflow="visible" id="glyph0-3">
<path style="stroke:none;" d="M 0.1875 -1.453125 L 0.609375 -1.453125 L 1.140625 -0.453125 L 1.140625 -1.453125 L 1.484375 -1.453125 L 1.484375 0 L 1.078125 0 L 0.546875 -1 L 0.546875 0 L 0.1875 0 Z M 0.1875 -1.453125 "/>
</symbol>
<symbol overflow="visible" id="glyph0-4">
<path style="stroke:none;" d="M 1.265625 -0.546875 L 1.265625 -0.453125 L 0.4375 -0.453125 C 0.445312 -0.367188 0.476562 -0.304688 0.53125 -0.265625 C 0.582031 -0.222656 0.65625 -0.203125 0.75 -0.203125 C 0.820312 -0.203125 0.894531 -0.210938 0.96875 -0.234375 C 1.050781 -0.253906 1.128906 -0.289062 1.203125 -0.34375 L 1.203125 -0.0625 C 1.117188 -0.03125 1.035156 -0.0078125 0.953125 0 C 0.878906 0.0195312 0.800781 0.03125 0.71875 0.03125 C 0.519531 0.03125 0.363281 -0.0195312 0.25 -0.125 C 0.144531 -0.226562 0.09375 -0.367188 0.09375 -0.546875 C 0.09375 -0.722656 0.144531 -0.863281 0.25 -0.96875 C 0.351562 -1.070312 0.5 -1.125 0.6875 -1.125 C 0.863281 -1.125 1.003906 -1.070312 1.109375 -0.96875 C 1.210938 -0.863281 1.265625 -0.722656 1.265625 -0.546875 Z M 0.90625 -0.671875 C 0.90625 -0.734375 0.882812 -0.785156 0.84375 -0.828125 C 0.800781 -0.867188 0.75 -0.890625 0.6875 -0.890625 C 0.625 -0.890625 0.570312 -0.867188 0.53125 -0.828125 C 0.488281 -0.796875 0.460938 -0.742188 0.453125 -0.671875 Z M 0.90625 -0.671875 "/>
</symbol>
<symbol overflow="visible" id="glyph0-5">
<path style="stroke:none;" d="M 0.4375 -0.5625 L 0.046875 -1.09375 L 0.421875 -1.09375 L 0.640625 -0.765625 L 0.875 -1.09375 L 1.234375 -1.09375 L 0.84375 -0.5625 L 1.265625 0 L 0.890625 0 L 0.640625 -0.34375 L 0.40625 0 L 0.03125 0 Z M 0.4375 -0.5625 "/>
</symbol>
</g>
</defs>
<g id="surface1">
<path style=" stroke:none;fill-rule:evenodd;fill:rgb(34.901961%,55.294118%,40.784314%);fill-opacity:1;" d="M 2.800781 0.710938 L 9.199219 0.710938 C 10.351562 0.710938 11.289062 1.648438 11.289062 2.800781 L 11.289062 9.199219 C 11.289062 10.351562 10.351562 11.289062 9.199219 11.289062 L 2.800781 11.289062 C 1.648438 11.289062 0.710938 10.351562 0.710938 9.199219 L 0.710938 2.800781 C 0.710938 1.648438 1.648438 0.710938 2.800781 0.710938 Z M 2.800781 0.710938 "/>
<path style="fill-rule:nonzero;fill:rgb(64.705882%,65.490196%,64.313725%);fill-opacity:1;stroke-width:0.6;stroke-linecap:round;stroke-linejoin:miter;stroke:rgb(72.54902%,72.941176%,72.156863%);stroke-opacity:1;stroke-miterlimit:4;" d="M 8.666667 5.625 L 23.333333 5.625 C 25.010417 5.625 26.375 6.989583 26.375 8.666667 L 26.375 23.333333 C 26.375 25.010417 25.010417 26.375 23.333333 26.375 L 8.666667 26.375 C 6.989583 26.375 5.625 25.010417 5.625 23.333333 L 5.625 8.666667 C 5.625 6.989583 6.989583 5.625 8.666667 5.625 Z M 8.666667 5.625 " transform="matrix(0.375,0,0,0.375,0,0)"/>
<g style="fill:rgb(20%,20%,20%);fill-opacity:1;">
  <use xlink:href="#glyph0-1" x="2.878906" y="6.739502"/>
  <use xlink:href="#glyph0-2" x="3.646484" y="6.739502"/>
  <use xlink:href="#glyph0-3" x="4.503052" y="6.739502"/>
  <use xlink:href="#glyph0-4" x="6.230103" y="6.739502"/>
  <use xlink:href="#glyph0-5" x="7.629761" y="6.739502"/>
</g>
<path style="fill-rule:nonzero;fill:rgb(64.705882%,65.490196%,64.313725%);fill-opacity:1;stroke-width:0.6;stroke-linecap:round;stroke-linejoin:miter;stroke:rgb(72.54902%,72.941176%,72.156863%);stroke-opacity:1;stroke-miterlimit:4;" d="M 10.760417 26.333333 L 5.625 21.208333 L 5.625 23.302083 C 5.625 24.979167 6.979167 26.333333 8.666667 26.333333 Z M 10.760417 26.333333 " transform="matrix(0.375,0,0,0.375,0,0)"/>
</g>
</svg>
