<?xml version="1.0" encoding="UTF-8"?>
<svg xmlns="http://www.w3.org/2000/svg" xmlns:xlink="http://www.w3.org/1999/xlink" width="12pt" height="12pt" viewBox="0 0 12 12" version="1.1">
<g id="surface1">
<path style=" stroke:none;fill-rule:evenodd;fill:rgb(40%,40%,40%);fill-opacity:1;" d="M 2.800781 0.710938 L 9.199219 0.710938 C 10.351562 0.710938 11.289062 1.648438 11.289062 2.800781 L 11.289062 9.199219 C 11.289062 10.351562 10.351562 11.289062 9.199219 11.289062 L 2.800781 11.289062 C 1.648438 11.289062 0.710938 10.351562 0.710938 9.199219 L 0.710938 2.800781 C 0.710938 1.648438 1.648438 0.710938 2.800781 0.710938 Z M 2.800781 0.710938 "/>
<path style="fill:none;stroke-width:1.129536;stroke-linecap:round;stroke-linejoin:round;stroke:rgb(100%,50.196078%,100%);stroke-opacity:1;stroke-miterlimit:4;" d="M 4.998788 9.004947 C 4.998788 9.004947 12.834945 9.605013 14.99989 12.005277 C 16.670662 13.840773 13.387948 17.111722 14.99989 18.994282 C 17.141302 21.523973 25.000992 22.994723 25.000992 22.994723 " transform="matrix(0.331995,0,0,0.331995,0.688085,0.190093)"/>
<path style=" stroke:none;fill-rule:nonzero;fill:rgb(100%,100%,100%);fill-opacity:1;" d="M 2.679688 3.179688 C 2.679688 3.363281 2.53125 3.511719 2.347656 3.511719 C 2.164062 3.511719 2.015625 3.363281 2.015625 3.179688 C 2.015625 2.996094 2.164062 2.847656 2.347656 2.847656 C 2.53125 2.847656 2.679688 2.996094 2.679688 3.179688 Z M 2.679688 3.179688 "/>
<path style=" stroke:none;fill-rule:nonzero;fill:rgb(100%,100%,100%);fill-opacity:1;" d="M 9.984375 7.824219 C 9.984375 8.558594 9.390625 9.152344 8.65625 9.152344 C 7.921875 9.152344 7.328125 8.558594 7.328125 7.824219 C 7.328125 7.09375 7.921875 6.496094 8.65625 6.496094 C 9.390625 6.496094 9.984375 7.09375 9.984375 7.824219 Z M 9.984375 7.824219 "/>
<path style=" stroke:none;fill-rule:nonzero;fill:rgb(100%,100%,100%);fill-opacity:1;" d="M 6.664062 6.496094 C 6.664062 7.046875 6.21875 7.492188 5.667969 7.492188 C 5.117188 7.492188 4.671875 7.046875 4.671875 6.496094 C 4.671875 5.949219 5.117188 5.503906 5.667969 5.503906 C 6.21875 5.503906 6.664062 5.949219 6.664062 6.496094 Z M 6.664062 6.496094 "/>
<path style=" stroke:none;fill-rule:nonzero;fill:rgb(100%,100%,100%);fill-opacity:1;" d="M 6.332031 4.175781 C 6.332031 4.539062 6.035156 4.839844 5.667969 4.839844 C 5.300781 4.839844 5.003906 4.539062 5.003906 4.175781 C 5.003906 3.808594 5.300781 3.511719 5.667969 3.511719 C 6.035156 3.511719 6.332031 3.808594 6.332031 4.175781 Z M 6.332031 4.175781 "/>
</g>
</svg>
