<?xml version="1.0" encoding="UTF-8"?>
<svg xmlns="http://www.w3.org/2000/svg" xmlns:xlink="http://www.w3.org/1999/xlink" width="12pt" height="12pt" viewBox="0 0 12 12" version="1.1">
<defs>
<clipPath id="clip1">
  <rect width="12" height="12"/>
</clipPath>
<g id="surface6" clip-path="url(#clip1)">
<path style=" stroke:none;fill-rule:nonzero;fill:rgb(94.901961%,94.901961%,94.901961%);fill-opacity:1;" d="M 5.191406 2.042969 C 5.105469 2.050781 5.03125 2.121094 5.015625 2.203125 L 4.851562 3.050781 C 4.550781 3.167969 4.269531 3.328125 4.023438 3.527344 L 3.199219 3.25 C 3.113281 3.21875 3.011719 3.257812 2.964844 3.335938 L 2.171875 4.707031 C 2.128906 4.785156 2.148438 4.894531 2.214844 4.957031 L 2.871094 5.53125 C 2.847656 5.683594 2.835938 5.839844 2.835938 6 C 2.835938 6.160156 2.847656 6.316406 2.871094 6.46875 L 2.214844 7.042969 C 2.148438 7.105469 2.128906 7.214844 2.171875 7.292969 L 2.964844 8.664062 C 3.011719 8.742188 3.113281 8.78125 3.199219 8.75 L 4.023438 8.472656 C 4.269531 8.671875 4.550781 8.832031 4.851562 8.949219 L 5.015625 9.796875 C 5.035156 9.882812 5.117188 9.957031 5.207031 9.957031 L 6.789062 9.957031 C 6.882812 9.957031 6.964844 9.882812 6.984375 9.796875 L 7.148438 8.949219 C 7.449219 8.832031 7.730469 8.671875 7.976562 8.472656 L 8.800781 8.75 C 8.886719 8.78125 8.988281 8.742188 9.035156 8.664062 L 9.828125 7.292969 C 9.871094 7.214844 9.851562 7.105469 9.785156 7.042969 L 9.128906 6.46875 C 9.152344 6.316406 9.164062 6.160156 9.164062 6 C 9.164062 5.839844 9.152344 5.683594 9.128906 5.53125 L 9.785156 4.957031 C 9.851562 4.894531 9.871094 4.785156 9.828125 4.707031 L 9.035156 3.335938 C 8.988281 3.257812 8.886719 3.21875 8.800781 3.25 L 7.976562 3.527344 C 7.730469 3.328125 7.449219 3.167969 7.148438 3.050781 L 6.984375 2.203125 C 6.964844 2.117188 6.882812 2.042969 6.789062 2.042969 L 5.207031 2.042969 C 5.203125 2.042969 5.195312 2.042969 5.191406 2.042969 Z M 5.191406 2.042969 "/>
</g>
<clipPath id="clip2">
  <rect width="12" height="12"/>
</clipPath>
<g id="surface9" clip-path="url(#clip2)">
<path style=" stroke:none;fill-rule:nonzero;fill:rgb(43.137255%,66.666667%,21.176471%);fill-opacity:1;" d="M 5.535156 4.164062 L 5.535156 5.433594 L 6.667969 4.164062 L 7.796875 4.304688 L 6.101562 6.140625 L 7.796875 7.835938 L 6.667969 7.976562 L 5.535156 6.847656 L 5.535156 7.835938 L 4.6875 7.976562 L 4.6875 4.304688 Z M 5.535156 4.164062 "/>
</g>
</defs>
<g id="surface1">
<path style=" stroke:none;fill-rule:evenodd;fill:rgb(43.137255%,66.666667%,21.176471%);fill-opacity:1;" d="M 2.800781 0.710938 L 9.199219 0.710938 C 10.351562 0.710938 11.289062 1.648438 11.289062 2.800781 L 11.289062 9.199219 C 11.289062 10.351562 10.351562 11.289062 9.199219 11.289062 L 2.800781 11.289062 C 1.648438 11.289062 0.710938 10.351562 0.710938 9.199219 L 0.710938 2.800781 C 0.710938 1.648438 1.648438 0.710938 2.800781 0.710938 Z M 2.800781 0.710938 "/>
<use xlink:href="#surface6"/>
<use xlink:href="#surface9"/>
</g>
</svg>
