<?xml version="1.0" encoding="UTF-8"?>
<svg xmlns="http://www.w3.org/2000/svg" xmlns:xlink="http://www.w3.org/1999/xlink" width="12pt" height="12pt" viewBox="0 0 12 12" version="1.1">
<g id="surface1">
<path style=" stroke:none;fill-rule:evenodd;fill:rgb(34.117647%,54.901961%,100%);fill-opacity:1;" d="M 2.800781 0.710938 L 9.199219 0.710938 C 10.351562 0.710938 11.289062 1.648438 11.289062 2.800781 L 11.289062 9.199219 C 11.289062 10.351562 10.351562 11.289062 9.199219 11.289062 L 2.800781 11.289062 C 1.648438 11.289062 0.710938 10.351562 0.710938 9.199219 L 0.710938 2.800781 C 0.710938 1.648438 1.648438 0.710938 2.800781 0.710938 Z M 2.800781 0.710938 "/>
<path style=" stroke:none;fill-rule:nonzero;fill:rgb(100%,100%,43.921569%);fill-opacity:1;" d="M 6.703125 3 C 5.480469 3 4.382812 3.742188 3.925781 4.875 L 3.328125 4.875 L 2.953125 5.625 L 3.730469 5.625 C 3.714844 5.75 3.707031 5.875 3.703125 6 L 3.328125 6.75 L 3.804688 6.75 C 4.144531 8.074219 5.335938 8.996094 6.703125 9 C 7.613281 9 8.476562 8.585938 9.046875 7.875 L 7.945312 7.875 C 7.578125 8.121094 7.144531 8.25 6.703125 8.25 C 5.75 8.25 4.902344 7.648438 4.585938 6.75 L 7.078125 6.75 L 7.453125 6 L 4.453125 6 C 4.453125 5.875 4.464844 5.75 4.488281 5.625 L 7.453125 5.625 L 7.828125 4.875 L 4.757812 4.875 C 5.160156 4.179688 5.902344 3.75 6.703125 3.75 C 7.144531 3.75 7.578125 3.882812 7.945312 4.125 L 9.042969 4.125 C 8.472656 3.414062 7.613281 3 6.703125 3 Z M 6.703125 3 "/>
</g>
</svg>
