<?xml version="1.0" encoding="UTF-8"?>
<svg xmlns="http://www.w3.org/2000/svg" xmlns:xlink="http://www.w3.org/1999/xlink" width="12pt" height="12pt" viewBox="0 0 12 12" version="1.1">
<g id="surface1">
<path style=" stroke:none;fill-rule:evenodd;fill:rgb(41.176471%,76.078431%,46.27451%);fill-opacity:1;" d="M 2.800781 0.710938 L 9.199219 0.710938 C 10.351562 0.710938 11.289062 1.648438 11.289062 2.800781 L 11.289062 9.199219 C 11.289062 10.351562 10.351562 11.289062 9.199219 11.289062 L 2.800781 11.289062 C 1.648438 11.289062 0.710938 10.351562 0.710938 9.199219 L 0.710938 2.800781 C 0.710938 1.648438 1.648438 0.710938 2.800781 0.710938 Z M 2.800781 0.710938 "/>
<path style=" stroke:none;fill-rule:nonzero;fill:rgb(100%,100%,100%);fill-opacity:1;" d="M 6 3.21875 C 5.027344 3.21875 4.195312 3.539062 3.851562 3.988281 C 3.824219 4.027344 3.796875 4.066406 3.773438 4.105469 C 3.753906 4.144531 3.738281 4.183594 3.722656 4.222656 C 3.71875 4.234375 3.714844 4.246094 3.710938 4.257812 C 3.703125 4.285156 3.695312 4.3125 3.691406 4.339844 C 3.683594 4.378906 3.679688 4.414062 3.679688 4.453125 C 3.679688 4.496094 3.683594 4.535156 3.691406 4.574219 C 3.699219 4.613281 3.710938 4.652344 3.722656 4.691406 C 3.738281 4.730469 3.757812 4.769531 3.777344 4.804688 C 3.796875 4.84375 3.824219 4.882812 3.851562 4.917969 C 4.207031 5.386719 5.054688 5.691406 6 5.691406 C 6.945312 5.691406 7.792969 5.386719 8.148438 4.917969 C 8.171875 4.886719 8.195312 4.855469 8.210938 4.820312 C 8.214844 4.816406 8.21875 4.808594 8.222656 4.800781 C 8.238281 4.777344 8.25 4.75 8.261719 4.71875 C 8.265625 4.707031 8.273438 4.695312 8.277344 4.683594 C 8.285156 4.660156 8.292969 4.636719 8.296875 4.613281 C 8.300781 4.59375 8.308594 4.578125 8.308594 4.558594 C 8.316406 4.523438 8.320312 4.488281 8.320312 4.453125 C 8.320312 4.414062 8.316406 4.371094 8.308594 4.332031 C 8.285156 4.210938 8.230469 4.097656 8.148438 3.988281 C 7.804688 3.535156 6.972656 3.214844 6 3.214844 Z M 3.851562 5.535156 C 3.738281 5.683594 3.679688 5.839844 3.679688 6 C 3.679688 6.683594 4.71875 7.238281 6 7.238281 C 7.28125 7.238281 8.320312 6.683594 8.320312 6 C 8.320312 5.839844 8.261719 5.683594 8.148438 5.535156 C 7.792969 6.003906 6.945312 6.308594 6 6.308594 C 5.054688 6.308594 4.207031 6.003906 3.851562 5.535156 Z M 3.851562 7.082031 C 3.738281 7.230469 3.679688 7.386719 3.679688 7.546875 C 3.679688 8.230469 4.71875 8.785156 6 8.785156 C 7.28125 8.785156 8.320312 8.230469 8.320312 7.546875 C 8.320312 7.386719 8.261719 7.230469 8.148438 7.082031 C 7.792969 7.550781 6.945312 7.855469 6 7.855469 C 5.054688 7.855469 4.207031 7.550781 3.851562 7.082031 Z M 3.851562 7.082031 "/>
</g>
</svg>
