<?xml version="1.0" encoding="UTF-8"?>
<svg xmlns="http://www.w3.org/2000/svg" xmlns:xlink="http://www.w3.org/1999/xlink" width="12pt" height="12pt" viewBox="0 0 12 12" version="1.1">
<g id="surface1">
<path style=" stroke:none;fill-rule:evenodd;fill:rgb(17.647059%,58.823529%,81.568627%);fill-opacity:1;" d="M 2.800781 0.710938 L 9.199219 0.710938 C 10.351562 0.710938 11.289062 1.648438 11.289062 2.800781 L 11.289062 9.199219 C 11.289062 10.351562 10.351562 11.289062 9.199219 11.289062 L 2.800781 11.289062 C 1.648438 11.289062 0.710938 10.351562 0.710938 9.199219 L 0.710938 2.800781 C 0.710938 1.648438 1.648438 0.710938 2.800781 0.710938 Z M 2.800781 0.710938 "/>
<path style=" stroke:none;fill-rule:nonzero;fill:rgb(95.686275%,87.058824%,72.54902%);fill-opacity:1;" d="M 6 4.917969 C 3.824219 4.917969 2.0625 6.679688 2.0625 8.855469 C 2.066406 9.742188 2.367188 10.601562 2.917969 11.292969 L 9.082031 11.292969 C 9.632812 10.601562 9.933594 9.742188 9.9375 8.855469 C 9.9375 6.679688 8.175781 4.917969 6 4.917969 Z M 6 4.917969 "/>
<path style=" stroke:none;fill-rule:nonzero;fill:rgb(100%,55.686275%,28.627451%);fill-opacity:1;" d="M 6 4.917969 C 4.601562 4.917969 3.371094 5.648438 2.675781 6.75 C 2.574219 6.882812 2.484375 7.023438 2.417969 7.171875 C 2.316406 7.40625 2.238281 7.648438 2.179688 7.90625 C 2.144531 8.0625 2.109375 8.21875 2.089844 8.382812 C 2.089844 8.398438 2.09375 8.398438 2.101562 8.398438 C 2.09375 8.460938 2.082031 8.519531 2.078125 8.585938 C 2.058594 8.792969 2.058594 8.878906 2.070312 8.878906 L 4.3125 6.230469 L 3.917969 8.445312 C 3.921875 8.445312 3.996094 8.417969 4.082031 8.375 C 4.621094 8.128906 5.105469 8.019531 5.695312 7.949219 C 5.898438 7.925781 6.609375 7.921875 6.820312 7.945312 C 7.25 7.988281 7.644531 8.085938 8.128906 8.222656 C 8.34375 8.28125 8.449219 8.292969 8.625 8.289062 C 8.800781 8.28125 8.902344 8.257812 9.035156 8.195312 C 9.359375 8.039062 9.527344 7.53125 9.480469 7.167969 C 9.476562 7.132812 9.464844 7.101562 9.460938 7.066406 C 9.472656 7.03125 9.460938 6.972656 9.40625 6.878906 C 9.351562 6.734375 9.273438 6.589844 9.152344 6.429688 C 8.339844 5.539062 7.28125 4.902344 6 4.917969 Z M 6 4.917969 "/>
<path style=" stroke:none;fill-rule:nonzero;fill:rgb(14.509804%,14.509804%,14.117647%);fill-opacity:1;" d="M 5.0625 9.230469 C 5.0625 9.542969 4.8125 9.792969 4.5 9.792969 C 4.1875 9.792969 3.9375 9.542969 3.9375 9.230469 C 3.9375 8.921875 4.1875 8.667969 4.5 8.667969 C 4.8125 8.667969 5.0625 8.921875 5.0625 9.230469 Z M 5.0625 9.230469 "/>
<path style=" stroke:none;fill-rule:nonzero;fill:rgb(14.509804%,14.509804%,14.117647%);fill-opacity:1;" d="M 8.4375 9.230469 C 8.4375 9.542969 8.1875 9.792969 7.875 9.792969 C 7.5625 9.792969 7.3125 9.542969 7.3125 9.230469 C 7.3125 8.921875 7.5625 8.667969 7.875 8.667969 C 8.1875 8.667969 8.4375 8.921875 8.4375 9.230469 Z M 8.4375 9.230469 "/>
<path style=" stroke:none;fill-rule:nonzero;fill:rgb(100%,55.686275%,28.627451%);fill-opacity:1;" d="M 5.1875 2.667969 C 5.171875 2.667969 5.058594 2.859375 4.953125 3.070312 C 4.792969 3.378906 4.71875 3.617188 4.691406 3.890625 C 4.6875 3.957031 4.6875 4.023438 4.691406 4.089844 C 4.6875 4.121094 4.6875 4.148438 4.6875 4.179688 C 4.6875 4.792969 5.191406 5.292969 5.8125 5.292969 C 6.433594 5.292969 6.9375 4.792969 6.9375 4.179688 C 6.9375 4.152344 6.9375 4.121094 6.933594 4.09375 C 6.933594 4.066406 6.9375 4.039062 6.9375 4.011719 C 6.917969 3.628906 6.695312 3.367188 6.359375 3.195312 C 6.179688 3.105469 5.90625 3.0625 5.730469 3.0625 C 5.507812 3.058594 5.339844 2.871094 5.230469 2.714844 C 5.210938 2.6875 5.195312 2.667969 5.1875 2.667969 Z M 5.1875 2.667969 "/>
</g>
</svg>
