<?xml version="1.0" encoding="UTF-8"?>
<svg xmlns="http://www.w3.org/2000/svg" xmlns:xlink="http://www.w3.org/1999/xlink" width="12pt" height="12pt" viewBox="0 0 12 12" version="1.1">
<g id="surface1">
<path style=" stroke:none;fill-rule:evenodd;fill:rgb(85.098039%,59.215686%,30.588235%);fill-opacity:1;" d="M 2.800781 0.710938 L 9.199219 0.710938 C 10.351562 0.710938 11.289062 1.648438 11.289062 2.800781 L 11.289062 9.199219 C 11.289062 10.351562 10.351562 11.289062 9.199219 11.289062 L 2.800781 11.289062 C 1.648438 11.289062 0.710938 10.351562 0.710938 9.199219 L 0.710938 2.800781 C 0.710938 1.648438 1.648438 0.710938 2.800781 0.710938 Z M 2.800781 0.710938 "/>
<path style=" stroke:none;fill-rule:nonzero;fill:rgb(30.196078%,30.196078%,30.196078%);fill-opacity:1;" d="M 4.875 2.25 C 3.425781 2.25 2.25 3.425781 2.25 4.875 C 2.25 6.179688 3.210938 7.285156 4.5 7.472656 L 4.5 9.75 L 9.75 9.75 L 9.75 4.5 L 7.46875 4.5 C 7.285156 3.210938 6.179688 2.25 4.875 2.25 Z M 4.875 2.625 C 5.972656 2.625 6.910156 3.417969 7.09375 4.5 L 4.5 4.5 L 4.5 7.089844 C 3.417969 6.910156 2.625 5.972656 2.625 4.875 C 2.625 3.632812 3.632812 2.625 4.875 2.625 Z M 4.875 4.875 L 7.125 4.875 C 7.125 6.117188 6.117188 7.125 4.875 7.125 Z M 7.5 4.875 L 9.375 4.875 L 9.375 9.375 L 4.875 9.375 L 4.875 7.5 C 6.324219 7.5 7.5 6.324219 7.5 4.875 Z M 7.5 4.875 "/>
</g>
</svg>
