<?xml version="1.0" encoding="UTF-8"?>
<svg xmlns="http://www.w3.org/2000/svg" xmlns:xlink="http://www.w3.org/1999/xlink" width="12pt" height="12pt" viewBox="0 0 12 12" version="1.1">
<g id="surface1">
<path style=" stroke:none;fill-rule:evenodd;fill:rgb(49.019608%,38.823529%,15.686275%);fill-opacity:1;" d="M 2.800781 0.710938 L 9.199219 0.710938 C 10.351562 0.710938 11.289062 1.648438 11.289062 2.800781 L 11.289062 9.199219 C 11.289062 10.351562 10.351562 11.289062 9.199219 11.289062 L 2.800781 11.289062 C 1.648438 11.289062 0.710938 10.351562 0.710938 9.199219 L 0.710938 2.800781 C 0.710938 1.648438 1.648438 0.710938 2.800781 0.710938 Z M 2.800781 0.710938 "/>
<path style=" stroke:none;fill-rule:nonzero;fill:rgb(67.843137%,50.588235%,32.156863%);fill-opacity:1;" d="M 5.625 0.75 L 5.625 5.625 L 0.75 5.625 L 0.75 6.375 L 5.625 6.375 L 5.625 11.25 L 6.375 11.25 L 6.375 6.375 L 11.25 6.375 L 11.25 5.625 L 6.375 5.625 L 6.375 0.75 Z M 5.625 0.75 "/>
<path style=" stroke:none;fill-rule:nonzero;fill:rgb(100%,100%,100%);fill-opacity:1;" d="M 10.035156 8.636719 C 10.035156 9.363281 9.449219 9.949219 8.722656 9.949219 C 8 9.949219 7.410156 9.363281 7.410156 8.636719 C 7.410156 7.914062 8 7.324219 8.722656 7.324219 C 9.449219 7.324219 10.035156 7.914062 10.035156 8.636719 Z M 10.035156 8.636719 "/>
</g>
</svg>
