<?xml version="1.0" encoding="UTF-8"?>
<svg xmlns="http://www.w3.org/2000/svg" xmlns:xlink="http://www.w3.org/1999/xlink" width="12pt" height="12pt" viewBox="0 0 12 12" version="1.1">
<defs>
<clipPath id="clip1">
  <rect width="12" height="12"/>
</clipPath>
<g id="surface6" clip-path="url(#clip1)">
<path style=" stroke:none;fill-rule:nonzero;fill:rgb(95.294118%,25.882353%,20.784314%);fill-opacity:1;" d="M 3.617188 1.78125 C 2.660156 1.78125 1.886719 2.542969 1.886719 3.480469 C 1.886719 3.539062 1.894531 3.59375 1.898438 3.648438 C 1.902344 3.707031 1.910156 3.765625 1.921875 3.820312 C 2.117188 5.011719 2.925781 5.859375 3.617188 6.539062 C 4.308594 5.859375 5.113281 5.011719 5.3125 3.820312 C 5.320312 3.765625 5.328125 3.707031 5.335938 3.648438 C 5.339844 3.59375 5.34375 3.539062 5.34375 3.480469 C 5.34375 2.542969 4.570312 1.78125 3.617188 1.78125 Z M 3.617188 1.78125 "/>
</g>
<clipPath id="clip2">
  <rect width="12" height="12"/>
</clipPath>
<g id="surface9" clip-path="url(#clip2)">
<path style=" stroke:none;fill-rule:nonzero;fill:rgb(100%,100%,100%);fill-opacity:1;" d="M 3.617188 2.648438 C 3.972656 2.648438 4.265625 2.9375 4.265625 3.296875 C 4.265625 3.652344 3.972656 3.945312 3.617188 3.945312 C 3.257812 3.945312 2.96875 3.652344 2.96875 3.296875 C 2.96875 2.9375 3.257812 2.648438 3.617188 2.648438 Z M 3.617188 2.648438 "/>
</g>
</defs>
<g id="surface1">
<path style=" stroke:none;fill-rule:evenodd;fill:rgb(91.372549%,89.803922%,86.27451%);fill-opacity:1;" d="M 2.800781 0.710938 L 9.199219 0.710938 C 10.351562 0.710938 11.289062 1.648438 11.289062 2.800781 L 11.289062 9.199219 C 11.289062 10.351562 10.351562 11.289062 9.199219 11.289062 L 2.800781 11.289062 C 1.648438 11.289062 0.710938 10.351562 0.710938 9.199219 L 0.710938 2.800781 C 0.710938 1.648438 1.648438 0.710938 2.800781 0.710938 Z M 2.800781 0.710938 "/>
<path style=" stroke:none;fill-rule:evenodd;fill:rgb(12.54902%,58.431373%,94.901961%);fill-opacity:1;" d="M 10.308594 10.925781 L 6.15625 6.773438 L 1.886719 11.054688 C 2.164062 11.195312 2.46875 11.289062 2.800781 11.289062 L 9.199219 11.289062 C 9.617188 11.289062 9.984375 11.132812 10.308594 10.925781 Z M 10.308594 10.925781 "/>
<path style=" stroke:none;fill-rule:evenodd;fill:rgb(100%,89.803922%,0%);fill-opacity:1;" d="M 11.144531 9.90625 L 7.085938 5.84375 L 6.15625 6.773438 L 10.308594 10.925781 C 10.691406 10.679688 10.988281 10.335938 11.144531 9.90625 Z M 11.144531 9.90625 "/>
<path style=" stroke:none;fill-rule:evenodd;fill:rgb(0%,63.921569%,10.980392%);fill-opacity:1;" d="M 11.046875 1.871094 L 7.085938 5.84375 L 11.144531 9.90625 C 11.226562 9.683594 11.289062 9.449219 11.289062 9.199219 L 11.289062 2.800781 C 11.289062 2.460938 11.1875 2.152344 11.046875 1.871094 Z M 11.046875 1.871094 "/>
<path style=" stroke:none;fill-rule:evenodd;fill:rgb(100%,100%,100%);fill-opacity:1;" d="M 10.136719 0.957031 L 0.953125 10.132812 C 1.160156 10.535156 1.480469 10.855469 1.886719 11.054688 L 11.046875 1.871094 C 10.84375 1.476562 10.53125 1.160156 10.136719 0.957031 Z M 10.136719 0.957031 "/>
<path style=" stroke:none;fill-rule:evenodd;fill:rgb(91.372549%,89.803922%,86.27451%);fill-opacity:1;" d="M 2.800781 0.710938 C 1.644531 0.710938 0.710938 1.644531 0.710938 2.800781 L 0.710938 9.199219 C 0.710938 9.539062 0.8125 9.847656 0.953125 10.132812 L 10.136719 0.957031 C 9.851562 0.8125 9.539062 0.710938 9.199219 0.710938 Z M 2.800781 0.710938 "/>
<use xlink:href="#surface6"/>
<use xlink:href="#surface9"/>
</g>
</svg>
