<?xml version="1.0" encoding="UTF-8"?>
<svg xmlns="http://www.w3.org/2000/svg" xmlns:xlink="http://www.w3.org/1999/xlink" width="12pt" height="12pt" viewBox="0 0 12 12" version="1.1">
<defs>
<g>
<symbol overflow="visible" id="glyph0-0">
<path style="stroke:none;" d="M 0.296875 1.0625 L 0.296875 -4.234375 L 3.296875 -4.234375 L 3.296875 1.0625 Z M 0.640625 0.734375 L 2.96875 0.734375 L 2.96875 -3.890625 L 0.640625 -3.890625 Z M 0.640625 0.734375 "/>
</symbol>
<symbol overflow="visible" id="glyph0-1">
<path style="stroke:none;" d="M 1.15625 -0.5 L 3.21875 -0.5 L 3.21875 0 L 0.4375 0 L 0.4375 -0.5 C 0.664062 -0.726562 0.972656 -1.035156 1.359375 -1.421875 C 1.742188 -1.816406 1.988281 -2.070312 2.09375 -2.1875 C 2.28125 -2.40625 2.410156 -2.585938 2.484375 -2.734375 C 2.554688 -2.878906 2.59375 -3.023438 2.59375 -3.171875 C 2.59375 -3.398438 2.507812 -3.585938 2.34375 -3.734375 C 2.1875 -3.878906 1.976562 -3.953125 1.71875 -3.953125 C 1.53125 -3.953125 1.332031 -3.921875 1.125 -3.859375 C 0.925781 -3.796875 0.707031 -3.695312 0.46875 -3.5625 L 0.46875 -4.15625 C 0.707031 -4.257812 0.929688 -4.332031 1.140625 -4.375 C 1.347656 -4.425781 1.535156 -4.453125 1.703125 -4.453125 C 2.160156 -4.453125 2.519531 -4.335938 2.78125 -4.109375 C 3.050781 -3.890625 3.1875 -3.585938 3.1875 -3.203125 C 3.1875 -3.023438 3.148438 -2.851562 3.078125 -2.6875 C 3.015625 -2.53125 2.894531 -2.34375 2.71875 -2.125 C 2.675781 -2.070312 2.519531 -1.910156 2.25 -1.640625 C 1.988281 -1.367188 1.625 -0.988281 1.15625 -0.5 Z M 1.15625 -0.5 "/>
</symbol>
<symbol overflow="visible" id="glyph0-2">
<path style="stroke:none;" d="M 2.4375 -2.359375 C 2.71875 -2.296875 2.9375 -2.164062 3.09375 -1.96875 C 3.257812 -1.78125 3.34375 -1.546875 3.34375 -1.265625 C 3.34375 -0.835938 3.191406 -0.503906 2.890625 -0.265625 C 2.597656 -0.0351562 2.175781 0.078125 1.625 0.078125 C 1.4375 0.078125 1.242188 0.0546875 1.046875 0.015625 C 0.859375 -0.015625 0.660156 -0.0625 0.453125 -0.125 L 0.453125 -0.703125 C 0.617188 -0.609375 0.800781 -0.535156 1 -0.484375 C 1.195312 -0.429688 1.398438 -0.40625 1.609375 -0.40625 C 1.984375 -0.40625 2.265625 -0.476562 2.453125 -0.625 C 2.648438 -0.78125 2.75 -0.992188 2.75 -1.265625 C 2.75 -1.523438 2.65625 -1.726562 2.46875 -1.875 C 2.289062 -2.019531 2.039062 -2.09375 1.71875 -2.09375 L 1.21875 -2.09375 L 1.21875 -2.578125 L 1.75 -2.578125 C 2.039062 -2.578125 2.257812 -2.632812 2.40625 -2.75 C 2.5625 -2.875 2.640625 -3.046875 2.640625 -3.265625 C 2.640625 -3.484375 2.5625 -3.648438 2.40625 -3.765625 C 2.25 -3.890625 2.019531 -3.953125 1.71875 -3.953125 C 1.5625 -3.953125 1.390625 -3.929688 1.203125 -3.890625 C 1.015625 -3.859375 0.8125 -3.804688 0.59375 -3.734375 L 0.59375 -4.265625 C 0.8125 -4.328125 1.019531 -4.375 1.21875 -4.40625 C 1.414062 -4.4375 1.601562 -4.453125 1.78125 -4.453125 C 2.226562 -4.453125 2.582031 -4.347656 2.84375 -4.140625 C 3.101562 -3.941406 3.234375 -3.664062 3.234375 -3.3125 C 3.234375 -3.070312 3.160156 -2.867188 3.015625 -2.703125 C 2.878906 -2.535156 2.6875 -2.421875 2.4375 -2.359375 Z M 2.4375 -2.359375 "/>
</symbol>
</g>
</defs>
<g id="surface1">
<path style=" stroke:none;fill-rule:evenodd;fill:rgb(0%,72.156863%,16.470588%);fill-opacity:1;" d="M 2.800781 0.710938 L 9.199219 0.710938 C 10.351562 0.710938 11.289062 1.648438 11.289062 2.800781 L 11.289062 9.199219 C 11.289062 10.351562 10.351562 11.289062 9.199219 11.289062 L 2.800781 11.289062 C 1.648438 11.289062 0.710938 10.351562 0.710938 9.199219 L 0.710938 2.800781 C 0.710938 1.648438 1.648438 0.710938 2.800781 0.710938 Z M 2.800781 0.710938 "/>
<g style="fill:rgb(100%,100%,100%);fill-opacity:1;">
  <use xlink:href="#glyph0-1" x="2.292969" y="8.131348"/>
  <use xlink:href="#glyph0-2" x="6.019165" y="8.131348"/>
</g>
</g>
</svg>
