<?xml version="1.0" encoding="UTF-8"?>
<svg xmlns="http://www.w3.org/2000/svg" xmlns:xlink="http://www.w3.org/1999/xlink" width="12pt" height="12pt" viewBox="0 0 12 12" version="1.1">
<g id="surface1">
<path style=" stroke:none;fill-rule:evenodd;fill:rgb(94.901961%,94.901961%,94.901961%);fill-opacity:1;" d="M 2.800781 0.710938 L 9.199219 0.710938 C 10.351562 0.710938 11.289062 1.648438 11.289062 2.800781 L 11.289062 9.199219 C 11.289062 10.351562 10.351562 11.289062 9.199219 11.289062 L 2.800781 11.289062 C 1.648438 11.289062 0.710938 10.351562 0.710938 9.199219 L 0.710938 2.800781 C 0.710938 1.648438 1.648438 0.710938 2.800781 0.710938 Z M 2.800781 0.710938 "/>
<path style=" stroke:none;fill-rule:nonzero;fill:rgb(10.196078%,10.196078%,10.196078%);fill-opacity:0.929412;" d="M 6 1.722656 C 3.640625 1.722656 1.722656 3.640625 1.722656 6 C 1.722656 8.359375 3.640625 10.277344 6 10.277344 C 8.359375 10.277344 10.277344 8.359375 10.277344 6 C 10.277344 3.640625 8.359375 1.722656 6 1.722656 Z M 6 1.988281 C 8.214844 1.988281 10.007812 3.785156 10.007812 6 C 10.007812 8.214844 8.214844 10.011719 6 10.011719 C 3.785156 10.011719 1.992188 8.214844 1.992188 6 C 1.992188 3.785156 3.785156 1.988281 6 1.988281 Z M 6 1.988281 "/>
<path style=" stroke:none;fill-rule:evenodd;fill:rgb(56.470588%,36.078431%,68.235294%);fill-opacity:1;" d="M 2.394531 6.996094 L 5.695312 3.953125 L 4.300781 2.652344 C 2.910156 3.511719 1.84375 4.921875 2.394531 6.996094 Z M 2.394531 6.996094 "/>
<path style=" stroke:none;fill-rule:evenodd;fill:rgb(100%,15.294118%,17.254902%);fill-opacity:1;" d="M 4.703125 2.476562 L 7.554688 5.074219 L 7.539062 2.539062 C 6.550781 2.164062 5.605469 2.128906 4.703125 2.476562 Z M 4.703125 2.476562 "/>
<path style=" stroke:none;fill-rule:evenodd;fill:rgb(100%,56.078431%,0%);fill-opacity:1;" d="M 7.957031 2.796875 L 7.988281 7.238281 L 9.527344 7.238281 C 10.273438 4.824219 9.011719 3.5 7.957031 2.796875 Z M 7.957031 2.796875 "/>
<path style=" stroke:none;fill-rule:evenodd;fill:rgb(0.392157%,41.960784%,84.705882%);fill-opacity:1;" d="M 4.046875 6.019531 L 4.046875 9.242188 C 3.464844 8.796875 2.886719 8.351562 2.507812 7.429688 Z M 4.046875 6.019531 "/>
<path style=" stroke:none;fill-rule:evenodd;fill:rgb(0%,74.901961%,0%);fill-opacity:1;" d="M 9.367188 7.636719 L 4.464844 7.671875 L 4.480469 9.449219 C 7.183594 10.441406 8.789062 8.890625 9.367188 7.636719 Z M 9.367188 7.636719 "/>
</g>
</svg>
