<?xml version="1.0" encoding="UTF-8"?>
<svg xmlns="http://www.w3.org/2000/svg" xmlns:xlink="http://www.w3.org/1999/xlink" width="12pt" height="12pt" viewBox="0 0 12 12" version="1.1">
<defs>
<clipPath id="clip1">
  <rect width="12" height="12"/>
</clipPath>
<g id="surface6" clip-path="url(#clip1)">
<path style=" stroke:none;fill-rule:nonzero;fill:rgb(70.196078%,70.196078%,70.196078%);fill-opacity:1;" d="M 5.257812 2.226562 C 5.179688 2.234375 5.113281 2.300781 5.097656 2.378906 L 4.945312 3.1875 C 4.671875 3.296875 4.410156 3.453125 4.183594 3.640625 L 3.429688 3.375 C 3.351562 3.347656 3.257812 3.382812 3.214844 3.457031 L 2.488281 4.765625 C 2.449219 4.84375 2.464844 4.945312 2.527344 5.003906 L 3.128906 5.550781 C 3.109375 5.699219 3.097656 5.847656 3.097656 6 C 3.097656 6.152344 3.109375 6.300781 3.128906 6.449219 L 2.527344 6.996094 C 2.464844 7.054688 2.449219 7.15625 2.488281 7.234375 L 3.214844 8.542969 C 3.257812 8.617188 3.351562 8.652344 3.429688 8.625 L 4.183594 8.359375 C 4.410156 8.546875 4.671875 8.703125 4.945312 8.8125 L 5.097656 9.621094 C 5.113281 9.707031 5.191406 9.773438 5.273438 9.777344 L 6.726562 9.777344 C 6.808594 9.773438 6.886719 9.707031 6.902344 9.621094 L 7.054688 8.8125 C 7.328125 8.703125 7.589844 8.546875 7.816406 8.359375 L 8.570312 8.625 C 8.648438 8.652344 8.742188 8.617188 8.785156 8.542969 L 9.511719 7.234375 C 9.550781 7.15625 9.535156 7.054688 9.472656 6.996094 L 8.871094 6.449219 C 8.890625 6.300781 8.902344 6.152344 8.902344 6 C 8.902344 5.847656 8.890625 5.699219 8.871094 5.550781 L 9.472656 5.003906 C 9.535156 4.945312 9.550781 4.84375 9.511719 4.765625 L 8.785156 3.457031 C 8.742188 3.382812 8.648438 3.347656 8.570312 3.375 L 7.816406 3.640625 C 7.589844 3.453125 7.328125 3.296875 7.054688 3.1875 L 6.902344 2.378906 C 6.886719 2.292969 6.808594 2.226562 6.726562 2.222656 L 5.273438 2.222656 C 5.269531 2.222656 5.261719 2.222656 5.257812 2.222656 Z M 5.257812 2.226562 "/>
</g>
</defs>
<g id="surface1">
<path style=" stroke:none;fill-rule:evenodd;fill:rgb(30.980392%,30.980392%,30.980392%);fill-opacity:1;" d="M 2.800781 0.710938 L 9.199219 0.710938 C 10.351562 0.710938 11.289062 1.648438 11.289062 2.800781 L 11.289062 9.199219 C 11.289062 10.351562 10.351562 11.289062 9.199219 11.289062 L 2.800781 11.289062 C 1.648438 11.289062 0.710938 10.351562 0.710938 9.199219 L 0.710938 2.800781 C 0.710938 1.648438 1.648438 0.710938 2.800781 0.710938 Z M 2.800781 0.710938 "/>
<use xlink:href="#surface6"/>
</g>
</svg>
