<?xml version="1.0" encoding="UTF-8"?>
<svg xmlns="http://www.w3.org/2000/svg" xmlns:xlink="http://www.w3.org/1999/xlink" width="12pt" height="12pt" viewBox="0 0 12 12" version="1.1">
<g id="surface1">
<path style=" stroke:none;fill-rule:evenodd;fill:rgb(55.686275%,55.686275%,55.686275%);fill-opacity:1;" d="M 2.800781 0.710938 L 9.199219 0.710938 C 10.351562 0.710938 11.289062 1.648438 11.289062 2.800781 L 11.289062 9.199219 C 11.289062 10.351562 10.351562 11.289062 9.199219 11.289062 L 2.800781 11.289062 C 1.648438 11.289062 0.710938 10.351562 0.710938 9.199219 L 0.710938 2.800781 C 0.710938 1.648438 1.648438 0.710938 2.800781 0.710938 Z M 2.800781 0.710938 "/>
<path style=" stroke:none;fill-rule:nonzero;fill:rgb(100%,18.431373%,18.431373%);fill-opacity:1;" d="M 0.75 5.8125 L 2.25 5.8125 L 2.25 6.1875 L 0.75 6.1875 Z M 0.75 5.8125 "/>
<path style=" stroke:none;fill-rule:nonzero;fill:rgb(100%,18.431373%,18.431373%);fill-opacity:1;" d="M 3 5.8125 L 4.5 5.8125 L 4.5 6.1875 L 3 6.1875 Z M 3 5.8125 "/>
<path style=" stroke:none;fill-rule:nonzero;fill:rgb(100%,18.431373%,18.431373%);fill-opacity:1;" d="M 5.25 5.8125 L 6.75 5.8125 L 6.75 6.1875 L 5.25 6.1875 Z M 5.25 5.8125 "/>
<path style=" stroke:none;fill-rule:nonzero;fill:rgb(100%,18.431373%,18.431373%);fill-opacity:1;" d="M 7.5 5.8125 L 9 5.8125 L 9 6.1875 L 7.5 6.1875 Z M 7.5 5.8125 "/>
<path style=" stroke:none;fill-rule:nonzero;fill:rgb(100%,18.431373%,18.431373%);fill-opacity:1;" d="M 9.75 5.8125 L 11.25 5.8125 L 11.25 6.1875 L 9.75 6.1875 Z M 9.75 5.8125 "/>
<path style="fill:none;stroke-width:1;stroke-linecap:round;stroke-linejoin:round;stroke:rgb(18.039216%,18.039216%,18.039216%);stroke-opacity:1;stroke-miterlimit:4;" d="M 6 21.791667 C 6 21.791667 13.208333 25.791667 16 23.791667 C 21.40625 19.916667 10.697917 9.90625 17 7.791667 C 21.166667 6.395833 26 15.791667 26 15.791667 " transform="matrix(0.375,0,0,0.375,0,0)"/>
</g>
</svg>
