<?xml version="1.0" encoding="UTF-8"?>
<svg xmlns="http://www.w3.org/2000/svg" xmlns:xlink="http://www.w3.org/1999/xlink" width="12pt" height="12pt" viewBox="0 0 12 12" version="1.1">
<defs>
<clipPath id="clip1">
  <rect width="12" height="12"/>
</clipPath>
<g id="surface6" clip-path="url(#clip1)">
<path style="fill-rule:nonzero;fill:rgb(100%,100%,100%);fill-opacity:1;stroke-width:0.3;stroke-linecap:butt;stroke-linejoin:miter;stroke:rgb(100%,100%,100%);stroke-opacity:1;stroke-miterlimit:4;" d="M 12.291667 13.1875 L 24.489583 13.1875 L 24.489583 14.364583 L 13.239583 14.364583 L 11.010417 25.020833 L 10.645833 26.677083 L 9.90625 25.166667 L 7.5625 20.479167 L 8.59375 19.96875 L 10.166667 23.15625 L 12.177083 13.666667 Z M 15.114583 15.53125 L 16.28125 15.53125 L 18.625 19.270833 L 20.96875 15.53125 L 22.145833 15.53125 L 19.208333 20.229167 L 22.145833 24.916667 L 20.96875 24.916667 L 18.625 21.177083 L 16.28125 24.916667 L 15.114583 24.916667 L 18.041667 20.229167 Z M 15.114583 15.53125 " transform="matrix(0.375,0,0,0.375,0,0)"/>
</g>
</defs>
<g id="surface1">
<path style=" stroke:none;fill-rule:evenodd;fill:rgb(70.196078%,70.196078%,70.196078%);fill-opacity:1;" d="M 11.289062 4.582031 L 11.289062 2.800781 C 11.289062 1.644531 10.355469 0.710938 9.199219 0.710938 L 7.417969 0.710938 Z M 11.289062 4.582031 "/>
<path style=" stroke:none;fill-rule:evenodd;fill:rgb(70.196078%,70.196078%,70.196078%);fill-opacity:1;" d="M 6.792969 0.710938 L 2.804688 0.710938 C 1.644531 0.710938 0.710938 1.644531 0.710938 2.800781 L 0.710938 9.195312 C 0.710938 10.355469 1.644531 11.289062 2.804688 11.289062 L 9.199219 11.289062 C 10.355469 11.289062 11.289062 10.355469 11.289062 9.195312 L 11.289062 5.207031 Z M 6.792969 0.710938 "/>
<path style=" stroke:none;fill-rule:evenodd;fill:rgb(100%,100%,100%);fill-opacity:1;" d="M 6.792969 0.710938 L 11.289062 5.207031 L 11.289062 4.582031 L 7.417969 0.710938 Z M 6.792969 0.710938 "/>
<use xlink:href="#surface6"/>
</g>
</svg>
