<?xml version="1.0" encoding="UTF-8"?>
<svg xmlns="http://www.w3.org/2000/svg" xmlns:xlink="http://www.w3.org/1999/xlink" width="12pt" height="12pt" viewBox="0 0 12 12" version="1.1">
<g id="surface1">
<path style=" stroke:none;fill-rule:evenodd;fill:rgb(89.411765%,37.254902%,3.921569%);fill-opacity:1;" d="M 2.800781 0.710938 L 9.199219 0.710938 C 10.351562 0.710938 11.289062 1.648438 11.289062 2.800781 L 11.289062 9.199219 C 11.289062 10.351562 10.351562 11.289062 9.199219 11.289062 L 2.800781 11.289062 C 1.648438 11.289062 0.710938 10.351562 0.710938 9.199219 L 0.710938 2.800781 C 0.710938 1.648438 1.648438 0.710938 2.800781 0.710938 Z M 2.800781 0.710938 "/>
<path style=" stroke:none;fill-rule:evenodd;fill:rgb(58.039216%,76.470588%,89.411765%);fill-opacity:1;" d="M 11.242188 2.570312 C 11.121094 1.527344 10.273438 0.710938 9.199219 0.710938 L 4.246094 0.710938 C 3.972656 0.933594 3.703125 1.167969 3.476562 1.4375 C 3.191406 1.773438 2.941406 2.140625 2.742188 2.53125 C 2.542969 2.921875 2.390625 3.332031 2.300781 3.753906 C 2.207031 4.171875 2.171875 4.605469 2.210938 5.035156 C 2.242188 5.4375 2.355469 5.847656 2.527344 6.234375 C 2.703125 6.621094 2.9375 6.984375 3.222656 7.289062 C 3.507812 7.589844 3.839844 7.832031 4.203125 7.988281 C 4.566406 8.144531 4.964844 8.210938 5.390625 8.164062 C 5.636719 8.140625 5.867188 8.070312 6.066406 7.96875 C 6.269531 7.863281 6.441406 7.726562 6.582031 7.558594 C 6.71875 7.390625 6.820312 7.191406 6.882812 6.96875 C 6.941406 6.746094 6.957031 6.5 6.921875 6.234375 C 6.921875 6.230469 6.921875 6.226562 6.921875 6.222656 C 6.894531 6.152344 6.84375 6.101562 6.777344 6.058594 C 6.699219 6.011719 6.59375 5.984375 6.484375 5.96875 C 6.4375 5.964844 6.394531 5.960938 6.347656 5.960938 L 6.289062 6.164062 C 6.226562 6.402344 6.03125 6.644531 5.742188 6.800781 C 5.597656 6.878906 5.425781 6.933594 5.242188 6.941406 C 5.054688 6.953125 4.859375 6.921875 4.660156 6.828125 L 4.648438 6.820312 C 4.40625 6.679688 4.183594 6.460938 4 6.195312 C 3.816406 5.925781 3.671875 5.601562 3.585938 5.257812 C 3.5 4.914062 3.476562 4.542969 3.542969 4.175781 C 3.605469 3.808594 3.757812 3.441406 4.023438 3.113281 C 4.273438 2.800781 4.539062 2.535156 4.816406 2.308594 C 5.09375 2.085938 5.382812 1.902344 5.683594 1.757812 C 5.980469 1.613281 6.289062 1.507812 6.597656 1.4375 C 6.90625 1.367188 7.222656 1.332031 7.535156 1.328125 C 8.164062 1.316406 8.792969 1.429688 9.394531 1.628906 C 9.996094 1.828125 10.574219 2.117188 11.097656 2.46875 C 11.148438 2.5 11.195312 2.539062 11.242188 2.570312 Z M 11.242188 2.570312 "/>
<path style=" stroke:none;fill-rule:evenodd;fill:rgb(58.039216%,76.470588%,89.411765%);fill-opacity:1;" d="M 0.761719 9.441406 C 0.886719 10.476562 1.730469 11.289062 2.800781 11.289062 L 7.761719 11.289062 C 8.03125 11.066406 8.296875 10.832031 8.527344 10.5625 C 8.8125 10.226562 9.058594 9.859375 9.257812 9.472656 C 9.457031 9.082031 9.609375 8.671875 9.699219 8.253906 C 9.792969 7.835938 9.828125 7.402344 9.789062 6.976562 C 9.753906 6.574219 9.644531 6.160156 9.472656 5.773438 C 9.296875 5.386719 9.0625 5.023438 8.777344 4.722656 C 8.492188 4.417969 8.160156 4.175781 7.796875 4.015625 C 7.433594 3.859375 7.035156 3.789062 6.609375 3.835938 C 6.359375 3.863281 6.132812 3.929688 5.929688 4.035156 C 5.730469 4.136719 5.554688 4.273438 5.417969 4.4375 C 5.285156 4.601562 5.183594 4.789062 5.121094 5.003906 C 5.0625 5.214844 5.042969 5.453125 5.078125 5.71875 C 5.128906 5.886719 5.292969 5.980469 5.515625 6.019531 C 5.558594 6.027344 5.609375 6.035156 5.652344 6.039062 L 5.710938 5.84375 C 5.773438 5.605469 5.96875 5.367188 6.257812 5.210938 C 6.402344 5.132812 6.574219 5.078125 6.757812 5.066406 C 6.945312 5.058594 7.144531 5.089844 7.34375 5.179688 L 7.351562 5.179688 C 7.59375 5.320312 7.816406 5.539062 8 5.8125 C 8.183594 6.082031 8.328125 6.40625 8.414062 6.75 C 8.5 7.097656 8.523438 7.46875 8.457031 7.835938 C 8.394531 8.203125 8.242188 8.566406 7.976562 8.898438 C 7.726562 9.210938 7.460938 9.476562 7.183594 9.699219 C 6.90625 9.925781 6.617188 10.105469 6.316406 10.25 C 6.019531 10.394531 5.710938 10.5 5.402344 10.570312 C 5.09375 10.644531 4.777344 10.679688 4.464844 10.683594 C 3.835938 10.691406 3.207031 10.582031 2.605469 10.382812 C 2.003906 10.183594 1.425781 9.890625 0.902344 9.542969 C 0.855469 9.507812 0.808594 9.472656 0.761719 9.441406 Z M 0.761719 9.441406 "/>
<path style=" stroke:none;fill-rule:evenodd;fill:rgb(89.411765%,37.254902%,3.921569%);fill-opacity:1;" d="M 0.761719 9.441406 C 0.808594 9.472656 0.855469 9.507812 0.902344 9.542969 C 1.425781 9.890625 2.003906 10.183594 2.605469 10.382812 C 3.207031 10.582031 3.835938 10.691406 4.464844 10.683594 C 4.777344 10.679688 5.09375 10.644531 5.402344 10.570312 C 5.710938 10.5 6.019531 10.394531 6.316406 10.25 C 6.617188 10.105469 6.90625 9.925781 7.183594 9.699219 C 7.460938 9.476562 7.726562 9.210938 7.976562 8.898438 C 8.242188 8.566406 8.394531 8.203125 8.457031 7.835938 C 8.523438 7.46875 8.5 7.097656 8.414062 6.75 C 8.328125 6.40625 8.183594 6.082031 8 5.8125 C 7.816406 5.539062 7.59375 5.320312 7.351562 5.179688 L 7.34375 5.179688 C 7.144531 5.089844 6.945312 5.058594 6.757812 5.066406 C 6.574219 5.078125 6.402344 5.132812 6.257812 5.210938 C 5.96875 5.367188 5.773438 5.605469 5.710938 5.84375 L 5.652344 6.039062 C 5.609375 6.035156 5.558594 6.027344 5.515625 6.019531 C 5.292969 5.980469 5.128906 5.886719 5.078125 5.71875 C 5.042969 5.453125 5.0625 5.214844 5.121094 5.003906 C 5.183594 4.789062 5.285156 4.601562 5.417969 4.4375 C 5.554688 4.273438 5.730469 4.136719 5.929688 4.035156 C 6.132812 3.929688 6.359375 3.863281 6.609375 3.835938 C 7.035156 3.789062 7.433594 3.859375 7.796875 4.015625 C 8.160156 4.175781 8.492188 4.417969 8.777344 4.722656 C 9.0625 5.023438 9.296875 5.386719 9.472656 5.773438 C 9.644531 6.160156 9.753906 6.574219 9.789062 6.976562 C 9.828125 7.402344 9.792969 7.835938 9.699219 8.253906 C 9.609375 8.671875 9.457031 9.082031 9.257812 9.472656 C 9.058594 9.859375 8.8125 10.226562 8.527344 10.5625 C 8.296875 10.832031 8.03125 11.066406 7.761719 11.289062 L 9.199219 11.289062 C 10.355469 11.289062 11.289062 10.355469 11.289062 9.199219 L 11.289062 2.800781 C 11.289062 2.71875 11.25 2.652344 11.242188 2.570312 C 11.195312 2.539062 11.148438 2.5 11.097656 2.46875 C 10.574219 2.117188 9.996094 1.828125 9.394531 1.628906 C 8.792969 1.429688 8.164062 1.316406 7.535156 1.328125 C 7.222656 1.332031 6.90625 1.367188 6.597656 1.4375 C 6.289062 1.507812 5.980469 1.613281 5.683594 1.757812 C 5.382812 1.902344 5.09375 2.085938 4.816406 2.308594 C 4.539062 2.535156 4.273438 2.800781 4.023438 3.113281 C 3.757812 3.441406 3.605469 3.808594 3.542969 4.175781 C 3.476562 4.542969 3.5 4.914062 3.585938 5.257812 C 3.671875 5.601562 3.816406 5.925781 4 6.195312 C 4.183594 6.460938 4.40625 6.679688 4.648438 6.820312 L 4.660156 6.828125 C 4.859375 6.921875 5.054688 6.953125 5.242188 6.941406 C 5.425781 6.933594 5.597656 6.878906 5.742188 6.800781 C 6.03125 6.644531 6.226562 6.402344 6.289062 6.164062 L 6.347656 5.960938 C 6.394531 5.960938 6.4375 5.964844 6.484375 5.96875 C 6.59375 5.984375 6.699219 6.011719 6.777344 6.058594 C 6.84375 6.101562 6.894531 6.152344 6.921875 6.222656 C 6.921875 6.226562 6.921875 6.230469 6.921875 6.234375 C 6.957031 6.5 6.941406 6.746094 6.882812 6.96875 C 6.820312 7.191406 6.71875 7.390625 6.582031 7.558594 C 6.441406 7.726562 6.269531 7.863281 6.066406 7.96875 C 5.867188 8.070312 5.636719 8.140625 5.390625 8.164062 C 4.964844 8.210938 4.566406 8.144531 4.203125 7.988281 C 3.839844 7.832031 3.507812 7.589844 3.222656 7.289062 C 2.9375 6.984375 2.703125 6.621094 2.527344 6.234375 C 2.355469 5.847656 2.242188 5.4375 2.210938 5.035156 C 2.171875 4.605469 2.207031 4.171875 2.300781 3.753906 C 2.390625 3.332031 2.542969 2.921875 2.742188 2.53125 C 2.941406 2.140625 3.191406 1.773438 3.476562 1.4375 C 3.703125 1.167969 3.972656 0.933594 4.246094 0.710938 L 2.800781 0.710938 C 1.644531 0.710938 0.710938 1.644531 0.710938 2.800781 L 0.710938 9.199219 C 0.710938 9.285156 0.75 9.355469 0.761719 9.441406 Z M 0.761719 9.441406 "/>
</g>
</svg>
