<?xml version="1.0" encoding="UTF-8"?>
<svg xmlns="http://www.w3.org/2000/svg" xmlns:xlink="http://www.w3.org/1999/xlink" width="12pt" height="12pt" viewBox="0 0 12 12" version="1.1">
<g id="surface1">
<path style=" stroke:none;fill-rule:evenodd;fill:rgb(55.686275%,55.686275%,55.686275%);fill-opacity:1;" d="M 2.800781 0.710938 L 9.199219 0.710938 C 10.351562 0.710938 11.289062 1.648438 11.289062 2.800781 L 11.289062 9.199219 C 11.289062 10.351562 10.351562 11.289062 9.199219 11.289062 L 2.800781 11.289062 C 1.648438 11.289062 0.710938 10.351562 0.710938 9.199219 L 0.710938 2.800781 C 0.710938 1.648438 1.648438 0.710938 2.800781 0.710938 Z M 2.800781 0.710938 "/>
<path style=" stroke:none;fill-rule:evenodd;fill:rgb(55.686275%,55.686275%,55.686275%);fill-opacity:1;" d="M 11.128906 9.992188 C 11.226562 9.746094 11.289062 9.480469 11.289062 9.199219 L 11.289062 2.800781 C 11.289062 1.644531 10.355469 0.710938 9.199219 0.710938 L 8.335938 0.710938 C 8.386719 0.738281 8.457031 0.742188 8.496094 0.785156 C 8.582031 0.882812 8.640625 1.019531 8.679688 1.160156 Z M 11.128906 9.992188 "/>
<path style=" stroke:none;fill-rule:evenodd;fill:rgb(55.686275%,55.686275%,55.686275%);fill-opacity:1;" d="M 3.664062 0.710938 L 2.800781 0.710938 C 1.644531 0.710938 0.710938 1.644531 0.710938 2.800781 L 0.710938 9.199219 C 0.710938 9.480469 0.773438 9.746094 0.871094 9.992188 L 3.320312 1.160156 C 3.359375 1.019531 3.417969 0.882812 3.503906 0.785156 C 3.542969 0.742188 3.613281 0.738281 3.664062 0.710938 Z M 3.664062 0.710938 "/>
<path style=" stroke:none;fill-rule:evenodd;fill:rgb(23.529412%,69.803922%,83.137255%);fill-opacity:1;" d="M 4.902344 0.710938 L 3.664062 0.710938 C 3.613281 0.738281 3.542969 0.742188 3.503906 0.785156 C 3.417969 0.882812 3.359375 1.019531 3.320312 1.160156 L 0.871094 9.992188 C 1.183594 10.753906 1.925781 11.289062 2.800781 11.289062 L 9.199219 11.289062 C 10.074219 11.289062 10.816406 10.753906 11.128906 9.992188 L 8.679688 1.160156 C 8.640625 1.019531 8.582031 0.882812 8.496094 0.785156 C 8.457031 0.742188 8.386719 0.738281 8.335938 0.710938 L 7.097656 0.710938 L 6 2.542969 Z M 4.902344 0.710938 "/>
<path style=" stroke:none;fill-rule:evenodd;fill:rgb(100%,100%,100%);fill-opacity:1;" d="M 4.902344 0.710938 L 6 2.542969 L 7.097656 0.710938 Z M 4.902344 0.710938 "/>
<path style=" stroke:none;fill-rule:nonzero;fill:rgb(100%,100%,100%);fill-opacity:1;" d="M 7.535156 9.070312 C 7.535156 9.921875 6.847656 10.609375 6 10.609375 C 5.152344 10.609375 4.464844 9.921875 4.464844 9.070312 C 4.464844 8.222656 5.152344 7.535156 6 7.535156 C 6.847656 7.535156 7.535156 8.222656 7.535156 9.070312 Z M 7.535156 9.070312 "/>
<path style=" stroke:none;fill-rule:nonzero;fill:rgb(99.607843%,74.509804%,26.27451%);fill-opacity:1;" d="M 9.71875 2.558594 L 9.753906 2.582031 C 10.019531 2.734375 10.09375 3.101562 9.921875 3.402344 L 6.515625 9.300781 C 6.34375 9.601562 5.988281 9.71875 5.722656 9.566406 L 5.6875 9.542969 C 5.421875 9.390625 5.347656 9.023438 5.519531 8.722656 L 8.925781 2.824219 C 9.097656 2.527344 9.453125 2.40625 9.71875 2.558594 Z M 9.71875 2.558594 "/>
</g>
</svg>
