<?xml version="1.0" encoding="UTF-8"?>
<svg xmlns="http://www.w3.org/2000/svg" xmlns:xlink="http://www.w3.org/1999/xlink" width="12pt" height="12pt" viewBox="0 0 12 12" version="1.1">
<g id="surface1">
<path style=" stroke:none;fill-rule:evenodd;fill:rgb(55.686275%,55.686275%,55.686275%);fill-opacity:1;" d="M 2.800781 0.710938 L 9.199219 0.710938 C 10.351562 0.710938 11.289062 1.648438 11.289062 2.800781 L 11.289062 9.199219 C 11.289062 10.351562 10.351562 11.289062 9.199219 11.289062 L 2.800781 11.289062 C 1.648438 11.289062 0.710938 10.351562 0.710938 9.199219 L 0.710938 2.800781 C 0.710938 1.648438 1.648438 0.710938 2.800781 0.710938 Z M 2.800781 0.710938 "/>
<path style=" stroke:none;fill-rule:nonzero;fill:rgb(80%,80%,80%);fill-opacity:1;" d="M 8.996094 9.433594 L 8.996094 4.09375 L 3.003906 4.09375 L 3.003906 9.433594 C 3.003906 9.644531 3.167969 9.816406 3.378906 9.816406 L 8.621094 9.816406 C 8.832031 9.816406 8.996094 9.644531 8.996094 9.433594 Z M 8.996094 9.433594 "/>
<path style=" stroke:none;fill-rule:nonzero;fill:rgb(72.156863%,72.156863%,72.156863%);fill-opacity:1;" d="M 4.363281 3.003906 L 7.636719 3.003906 L 8.996094 4.09375 L 3.003906 4.09375 Z M 4.363281 3.003906 "/>
<path style=" stroke:none;fill-rule:nonzero;fill:rgb(63.921569%,63.921569%,63.921569%);fill-opacity:1;" d="M 4.363281 2.183594 L 7.636719 2.183594 L 7.636719 3.003906 L 4.363281 3.003906 Z M 4.363281 2.183594 "/>
<path style=" stroke:none;fill-rule:nonzero;fill:rgb(63.921569%,63.921569%,63.921569%);fill-opacity:1;" d="M 7.636719 3.003906 L 8.996094 4.09375 L 6.546875 4.09375 Z M 7.636719 3.003906 "/>
<path style=" stroke:none;fill-rule:nonzero;fill:rgb(72.156863%,72.156863%,72.156863%);fill-opacity:1;" d="M 6.546875 4.09375 L 6.546875 9.816406 L 8.648438 9.816406 C 8.839844 9.816406 8.996094 9.644531 8.996094 9.433594 L 8.996094 4.09375 Z M 6.546875 4.09375 "/>
<path style=" stroke:none;fill-rule:nonzero;fill:rgb(22.745098%,52.54902%,77.254902%);fill-opacity:1;" d="M 3.816406 5.453125 C 3.8125 5.453125 3.808594 5.453125 3.804688 5.453125 C 3.796875 5.453125 3.789062 5.453125 3.78125 5.453125 C 3.777344 5.453125 3.773438 5.457031 3.769531 5.457031 C 3.765625 5.457031 3.761719 5.457031 3.757812 5.460938 C 3.753906 5.460938 3.746094 5.460938 3.742188 5.464844 C 3.738281 5.464844 3.738281 5.464844 3.734375 5.464844 C 3.726562 5.46875 3.722656 5.46875 3.714844 5.472656 C 3.714844 5.472656 3.710938 5.476562 3.710938 5.476562 C 3.703125 5.480469 3.695312 5.480469 3.691406 5.484375 C 3.6875 5.484375 3.6875 5.488281 3.6875 5.488281 C 3.589844 5.542969 3.539062 5.648438 3.550781 5.753906 L 3.550781 7.902344 C 3.546875 8.003906 3.601562 8.09375 3.683594 8.144531 C 3.769531 8.191406 3.875 8.191406 3.960938 8.144531 C 4.042969 8.09375 4.097656 8.003906 4.09375 7.902344 L 4.09375 6.546875 L 4.417969 6.980469 C 4.472656 7.050781 4.550781 7.089844 4.636719 7.089844 C 4.722656 7.089844 4.804688 7.050781 4.855469 6.980469 L 5.183594 6.546875 L 5.183594 7.902344 C 5.179688 8.003906 5.234375 8.09375 5.316406 8.144531 C 5.402344 8.191406 5.507812 8.191406 5.59375 8.144531 C 5.675781 8.09375 5.730469 8.003906 5.726562 7.902344 L 5.726562 5.757812 C 5.738281 5.664062 5.699219 5.570312 5.628906 5.511719 C 5.621094 5.507812 5.613281 5.5 5.605469 5.496094 C 5.597656 5.492188 5.589844 5.488281 5.582031 5.484375 C 5.574219 5.480469 5.566406 5.476562 5.558594 5.472656 C 5.554688 5.46875 5.550781 5.46875 5.546875 5.464844 C 5.542969 5.464844 5.542969 5.464844 5.542969 5.464844 C 5.535156 5.464844 5.527344 5.460938 5.519531 5.460938 C 5.519531 5.460938 5.519531 5.457031 5.519531 5.457031 C 5.519531 5.457031 5.515625 5.457031 5.515625 5.457031 C 5.507812 5.457031 5.5 5.457031 5.492188 5.453125 C 5.492188 5.453125 5.492188 5.453125 5.488281 5.453125 C 5.480469 5.453125 5.472656 5.453125 5.464844 5.453125 C 5.363281 5.449219 5.269531 5.5 5.21875 5.585938 L 4.636719 6.363281 L 4.058594 5.585938 C 4.007812 5.503906 3.917969 5.449219 3.816406 5.453125 Z M 3.816406 5.453125 "/>
<path style=" stroke:none;fill-rule:nonzero;fill:rgb(22.745098%,52.54902%,77.254902%);fill-opacity:1;" d="M 7.902344 5.453125 C 7.890625 5.453125 7.878906 5.453125 7.863281 5.453125 L 7.363281 5.453125 C 7.265625 5.453125 7.171875 5.503906 7.125 5.589844 C 7.074219 5.675781 7.074219 5.78125 7.125 5.863281 C 7.171875 5.949219 7.265625 6 7.363281 6 L 7.636719 6 L 7.636719 7.90625 C 7.632812 8.003906 7.683594 8.097656 7.769531 8.148438 C 7.855469 8.195312 7.960938 8.195312 8.046875 8.148438 C 8.128906 8.097656 8.179688 8.003906 8.179688 7.90625 L 8.179688 6 L 8.453125 6 C 8.550781 6 8.640625 5.949219 8.691406 5.863281 C 8.742188 5.78125 8.742188 5.675781 8.691406 5.589844 C 8.640625 5.503906 8.550781 5.453125 8.453125 5.453125 L 7.953125 5.453125 C 7.9375 5.453125 7.921875 5.449219 7.902344 5.453125 Z M 7.902344 5.453125 "/>
</g>
</svg>
