<?xml version="1.0" encoding="UTF-8"?>
<svg xmlns="http://www.w3.org/2000/svg" xmlns:xlink="http://www.w3.org/1999/xlink" width="12pt" height="12pt" viewBox="0 0 12 12" version="1.1">
<g id="surface1">
<path style=" stroke:none;fill-rule:evenodd;fill:rgb(19.607843%,61.176471%,19.607843%);fill-opacity:1;" d="M 2.800781 0.710938 L 9.199219 0.710938 C 10.351562 0.710938 11.289062 1.648438 11.289062 2.800781 L 11.289062 9.199219 C 11.289062 10.351562 10.351562 11.289062 9.199219 11.289062 L 2.800781 11.289062 C 1.648438 11.289062 0.710938 10.351562 0.710938 9.199219 L 0.710938 2.800781 C 0.710938 1.648438 1.648438 0.710938 2.800781 0.710938 Z M 2.800781 0.710938 "/>
<path style=" stroke:none;fill-rule:nonzero;fill:rgb(14.901961%,14.901961%,14.901961%);fill-opacity:1;" d="M 8.171875 4.347656 L 6.769531 4.570312 C 6.699219 4.390625 6.632812 4.269531 6.578125 4.199219 C 6.519531 4.128906 6.429688 4.058594 6.296875 3.988281 L 6.296875 5.078125 C 7.0625 5.28125 7.570312 5.496094 7.828125 5.722656 C 8.167969 6.027344 8.335938 6.414062 8.335938 6.878906 C 8.335938 7.152344 8.273438 7.40625 8.152344 7.632812 C 8.03125 7.863281 7.875 8.054688 7.683594 8.207031 C 7.496094 8.359375 7.296875 8.472656 7.082031 8.542969 C 6.867188 8.609375 6.605469 8.648438 6.296875 8.664062 L 6.296875 9.375 L 5.746094 9.375 L 5.746094 8.664062 C 5.378906 8.628906 5.078125 8.570312 4.847656 8.484375 C 4.617188 8.398438 4.417969 8.277344 4.25 8.125 C 4.085938 7.96875 3.957031 7.804688 3.867188 7.628906 C 3.777344 7.453125 3.707031 7.375 3.664062 7.125 L 5.1875 6.75 C 5.230469 7 5.292969 7.238281 5.367188 7.347656 C 5.445312 7.457031 5.570312 7.554688 5.746094 7.640625 L 5.746094 6.3125 C 5.238281 6.171875 4.878906 6.046875 4.664062 5.945312 C 4.453125 5.84375 4.269531 5.679688 4.117188 5.453125 C 3.960938 5.222656 3.882812 4.945312 3.882812 4.617188 C 3.882812 4.171875 4.039062 3.796875 4.347656 3.5 C 4.664062 3.199219 5.128906 3.03125 5.746094 3 L 5.746094 2.625 L 6.296875 2.625 L 6.296875 3 C 6.859375 3.035156 7.289062 3.167969 7.585938 3.398438 C 7.886719 3.628906 8.082031 3.945312 8.171875 4.347656 Z M 5.746094 3.96875 C 5.585938 4.023438 5.476562 4.089844 5.410156 4.167969 C 5.347656 4.246094 5.316406 4.335938 5.316406 4.441406 C 5.316406 4.550781 5.347656 4.648438 5.410156 4.730469 C 5.476562 4.8125 5.589844 4.878906 5.746094 4.933594 Z M 6.296875 7.679688 C 6.511719 7.632812 6.667969 7.554688 6.765625 7.445312 C 6.867188 7.335938 6.914062 7.210938 6.914062 7.074219 C 6.914062 6.957031 6.875 6.851562 6.789062 6.75 C 6.703125 6.652344 6.542969 6.558594 6.296875 6.472656 Z M 6.296875 7.679688 "/>
</g>
</svg>
