<?xml version="1.0" encoding="UTF-8"?>
<svg xmlns="http://www.w3.org/2000/svg" xmlns:xlink="http://www.w3.org/1999/xlink" width="12pt" height="12pt" viewBox="0 0 12 12" version="1.1">
<g id="surface1">
<path style=" stroke:none;fill-rule:nonzero;fill:rgb(12.941176%,84.313725%,53.72549%);fill-opacity:1;" d="M 11.25 2.613281 C 11.230469 2.394531 11.207031 2.179688 11.125 1.988281 C 11.019531 1.738281 10.867188 1.511719 10.675781 1.324219 C 10.488281 1.132812 10.261719 0.980469 10.011719 0.875 C 9.820312 0.792969 9.605469 0.769531 9.386719 0.75 L 6 0.75 L 6 6 L 11.25 6 Z M 11.25 2.613281 "/>
<path style=" stroke:none;fill-rule:nonzero;fill:rgb(96.862745%,78.039216%,23.529412%);fill-opacity:1;" d="M 2.613281 0.75 C 2.394531 0.769531 2.179688 0.792969 1.988281 0.875 C 1.738281 0.980469 1.511719 1.132812 1.324219 1.324219 C 1.132812 1.511719 0.980469 1.738281 0.875 1.988281 C 0.792969 2.179688 0.769531 2.394531 0.75 2.613281 L 0.75 6 L 6 6 L 6 0.75 Z M 2.613281 0.75 "/>
<path style=" stroke:none;fill-rule:nonzero;fill:rgb(12.54902%,52.54902%,90.588235%);fill-opacity:1;" d="M 9.386719 11.25 C 9.605469 11.230469 9.820312 11.207031 10.011719 11.125 C 10.261719 11.019531 10.488281 10.867188 10.675781 10.675781 C 10.867188 10.488281 11.019531 10.261719 11.125 10.011719 C 11.207031 9.820312 11.230469 9.605469 11.25 9.386719 L 11.25 6 L 6 6 L 6 11.25 Z M 9.386719 11.25 "/>
<path style=" stroke:none;fill-rule:nonzero;fill:rgb(12.941176%,84.313725%,53.72549%);fill-opacity:1;" d="M 0.75 9.386719 C 0.769531 9.605469 0.796875 9.820312 0.875 10.011719 C 0.980469 10.261719 1.132812 10.488281 1.324219 10.675781 C 1.511719 10.867188 1.738281 11.019531 1.988281 11.125 C 2.179688 11.207031 2.394531 11.230469 2.613281 11.25 L 6 11.25 L 6 6 L 0.75 6 Z M 0.75 9.386719 "/>
<path style=" stroke:none;fill-rule:evenodd;fill:rgb(24.705882%,24.705882%,24.705882%);fill-opacity:1;" d="M 3.570312 1.984375 L 8.429688 1.984375 C 9.304688 1.984375 10.015625 2.695312 10.015625 3.570312 L 10.015625 8.429688 C 10.015625 9.304688 9.304688 10.015625 8.429688 10.015625 L 3.570312 10.015625 C 2.695312 10.015625 1.984375 9.304688 1.984375 8.429688 L 1.984375 3.570312 C 1.984375 2.695312 2.695312 1.984375 3.570312 1.984375 Z M 3.570312 1.984375 "/>
<path style="fill:none;stroke-width:1;stroke-linecap:round;stroke-linejoin:miter;stroke:rgb(100%,100%,100%);stroke-opacity:1;stroke-miterlimit:4;" d="M 12.925239 -15.602135 L 20.932875 -15.602135 " transform="matrix(0.300494,0,0,0.300494,-0.43865,12.793824)"/>
<path style="fill:none;stroke-width:1;stroke-linecap:round;stroke-linejoin:round;stroke:rgb(100%,100%,100%);stroke-opacity:1;stroke-miterlimit:4;" d="M 17.930011 -21.607861 L 17.930011 -29.602497 M 12.925239 -29.602497 L 15.421126 -25.611679 L 17.930011 -29.602497 M 12.925239 -21.607861 L 12.925239 -29.602497 " transform="matrix(0.300494,0,0,0.300494,-0.43865,12.793824)"/>
<path style="fill:none;stroke-width:1;stroke-linecap:round;stroke-linejoin:bevel;stroke:rgb(100%,100%,100%);stroke-opacity:1;stroke-miterlimit:4;" d="M 19.93192 -25.572681 C 19.93192 -25.572681 23.935738 -25.117702 23.935738 -27.57459 C 23.935738 -30.044477 19.93192 -29.576498 19.93192 -29.576498 M 19.93192 -21.581863 L 19.93192 -29.576498 " transform="matrix(0.300494,0,0,0.300494,-0.43865,12.793824)"/>
<path style="fill:none;stroke-width:1;stroke-linecap:round;stroke-linejoin:round;stroke:rgb(100%,100%,100%);stroke-opacity:1;stroke-miterlimit:4;" d="M 25.924647 -22.595816 C 25.924647 -22.595816 26.431624 -21.594862 27.926556 -21.607861 C 29.421488 -21.607861 29.928465 -22.595816 29.928465 -23.596771 C 29.928465 -27.821578 25.924647 -23.38878 25.937646 -27.587589 C 25.924647 -28.601543 26.405625 -29.602497 27.926556 -29.602497 C 29.447486 -29.602497 29.928465 -28.601543 29.928465 -28.601543 " transform="matrix(0.300494,0,0,0.300494,-0.43865,12.793824)"/>
</g>
</svg>
