<?xml version="1.0" encoding="UTF-8"?>
<svg xmlns="http://www.w3.org/2000/svg" xmlns:xlink="http://www.w3.org/1999/xlink" width="12pt" height="12pt" viewBox="0 0 12 12" version="1.1">
<defs>
<radialGradient id="radial0" gradientUnits="userSpaceOnUse" cx="-27.763472" cy="19.76371" fx="-27.763472" fy="19.76371" r="14.101694" gradientTransform="matrix(1.442015,-0.0172562,0.0115671,0.966607,43.992739,-12.354633)">
<stop offset="0" style="stop-color:rgb(100%,46.666667%,18.823529%);stop-opacity:1;"/>
<stop offset="1" style="stop-color:rgb(55.686275%,50.196078%,79.607843%);stop-opacity:0;"/>
</radialGradient>
<filter id="alpha" filterUnits="objectBoundingBox" x="0%" y="0%" width="100%" height="100%">
  <feColorMatrix type="matrix" in="SourceGraphic" values="0 0 0 0 1 0 0 0 0 1 0 0 0 0 1 0 0 0 1 0"/>
</filter>
<mask id="mask0">
  <g filter="url(#alpha)">
<rect x="0" y="0" width="12" height="12" style="fill:rgb(0%,0%,0%);fill-opacity:0.976471;stroke:none;"/>
  </g>
</mask>
<clipPath id="clip1">
  <rect width="12" height="12"/>
</clipPath>
<g id="surface6" clip-path="url(#clip1)">
<path style=" stroke:none;fill-rule:evenodd;fill:rgb(100%,100%,100%);fill-opacity:1;" d="M 4.972656 11.050781 C 5.003906 11.027344 5.03125 11 5.0625 10.976562 C 5.136719 10.902344 5.207031 10.828125 5.273438 10.746094 C 5.339844 10.667969 5.40625 10.582031 5.464844 10.496094 C 5.523438 10.410156 5.578125 10.324219 5.625 10.230469 C 5.675781 10.140625 5.722656 10.046875 5.761719 9.949219 C 5.804688 9.855469 5.839844 9.753906 5.871094 9.65625 C 5.902344 9.554688 5.925781 9.457031 5.945312 9.351562 C 5.96875 9.25 5.984375 9.148438 5.992188 9.042969 C 6.003906 8.941406 6.007812 8.835938 6.007812 8.730469 C 6.007812 8.65625 6.007812 8.585938 6 8.511719 C 5.996094 8.40625 5.980469 8.304688 5.964844 8.199219 C 5.945312 8.097656 5.921875 7.996094 5.894531 7.894531 C 5.867188 7.792969 5.835938 7.695312 5.796875 7.597656 C 5.757812 7.5 5.714844 7.40625 5.667969 7.3125 C 5.621094 7.21875 5.570312 7.128906 5.515625 7.042969 C 5.457031 6.953125 5.398438 6.871094 5.332031 6.789062 C 5.265625 6.707031 5.199219 6.628906 5.125 6.554688 C 5.054688 6.480469 4.976562 6.40625 4.898438 6.339844 C 4.816406 6.273438 4.734375 6.210938 4.648438 6.152344 C 4.5625 6.089844 4.472656 6.039062 4.382812 5.988281 C 4.289062 5.9375 4.195312 5.890625 4.101562 5.851562 C 4.003906 5.8125 3.90625 5.773438 3.808594 5.746094 C 3.707031 5.714844 3.605469 5.6875 3.503906 5.667969 C 3.402344 5.644531 3.296875 5.628906 3.195312 5.621094 C 3.089844 5.609375 2.988281 5.605469 2.882812 5.605469 C 2.808594 5.605469 2.734375 5.605469 2.660156 5.613281 C 2.558594 5.621094 2.453125 5.632812 2.351562 5.652344 C 2.25 5.667969 2.144531 5.691406 2.046875 5.71875 C 1.945312 5.746094 1.847656 5.78125 1.75 5.816406 C 1.652344 5.855469 1.558594 5.898438 1.464844 5.945312 C 1.371094 5.992188 1.28125 6.042969 1.191406 6.101562 C 1.105469 6.15625 1.019531 6.21875 0.9375 6.28125 C 0.859375 6.34375 0.785156 6.410156 0.714844 6.476562 L 0.714844 8.960938 C 0.714844 10.117188 1.648438 11.050781 2.804688 11.050781 Z M 4.972656 11.050781 "/>
</g>
</defs>
<g id="surface1">
<path style=" stroke:none;fill-rule:evenodd;fill:rgb(65.490196%,49.019608%,65.882353%);fill-opacity:1;" d="M 2.800781 0.710938 L 9.199219 0.710938 C 10.351562 0.710938 11.289062 1.648438 11.289062 2.800781 L 11.289062 9.199219 C 11.289062 10.351562 10.351562 11.289062 9.199219 11.289062 L 2.800781 11.289062 C 1.648438 11.289062 0.710938 10.351562 0.710938 9.199219 L 0.710938 2.800781 C 0.710938 1.648438 1.648438 0.710938 2.800781 0.710938 Z M 2.800781 0.710938 "/>
<path style=" stroke:none;fill-rule:evenodd;fill:rgb(65.490196%,49.019608%,65.882353%);fill-opacity:1;" d="M 2.804688 0.710938 C 1.644531 0.710938 0.710938 1.644531 0.710938 2.800781 L 0.710938 6.820312 C 1.089844 6.742188 1.519531 6.632812 1.828125 6.59375 C 2.398438 6.527344 2.867188 6.523438 3.277344 6.5625 C 3.6875 6.601562 4.039062 6.6875 4.367188 6.796875 C 4.695312 6.90625 5.003906 7.042969 5.332031 7.1875 C 5.660156 7.328125 6.007812 7.480469 6.414062 7.617188 C 6.816406 7.757812 7.28125 7.882812 7.84375 7.980469 C 8.410156 8.078125 9.070312 8.144531 9.871094 8.160156 C 10.265625 8.171875 10.816406 8.125 11.289062 8.105469 L 11.289062 2.800781 C 11.289062 1.644531 10.355469 0.710938 9.199219 0.710938 Z M 2.804688 0.710938 "/>
<path style=" stroke:none;fill-rule:evenodd;fill:url(#radial0);" d="M 2.800781 0.710938 L 9.199219 0.710938 C 10.351562 0.710938 11.289062 1.648438 11.289062 2.800781 L 11.289062 9.199219 C 11.289062 10.351562 10.351562 11.289062 9.199219 11.289062 L 2.800781 11.289062 C 1.648438 11.289062 0.710938 10.351562 0.710938 9.199219 L 0.710938 2.800781 C 0.710938 1.648438 1.648438 0.710938 2.800781 0.710938 Z M 2.800781 0.710938 "/>
<use xlink:href="#surface6" mask="url(#mask0)"/>
<path style=" stroke:none;fill-rule:nonzero;fill:rgb(59.607843%,37.647059%,1.960784%);fill-opacity:1;" d="M 6.167969 7.429688 L 6.511719 7.429688 L 6.511719 7.945312 L 6.167969 7.945312 Z M 6.167969 7.429688 "/>
<path style=" stroke:none;fill-rule:nonzero;fill:rgb(45.490196%,63.137255%,5.098039%);fill-opacity:1;" d="M 7.085938 7.628906 L 5.628906 7.628906 L 6.359375 6.367188 Z M 7.085938 7.628906 "/>
<path style=" stroke:none;fill-rule:nonzero;fill:rgb(59.607843%,76.470588%,1.960784%);fill-opacity:1;" d="M 6.972656 7.1875 L 5.71875 7.1875 L 6.34375 6.101562 Z M 6.972656 7.1875 "/>
<path style=" stroke:none;fill-rule:nonzero;fill:rgb(67.843137%,85.882353%,11.764706%);fill-opacity:1;" d="M 6.859375 6.6875 L 5.863281 6.6875 L 6.359375 5.824219 Z M 6.859375 6.6875 "/>
<path style=" stroke:none;fill-rule:evenodd;fill:rgb(59.215686%,77.647059%,2.745098%);fill-opacity:1;" d="M 7.242188 7.710938 C 5.398438 7.878906 3.992188 8.886719 1.828125 8.777344 C 1.386719 8.738281 1.023438 8.652344 0.710938 8.535156 L 0.710938 9.199219 C 0.710938 9.433594 0.773438 9.652344 0.84375 9.863281 C 1.199219 9.675781 1.546875 9.527344 1.894531 9.441406 C 2.285156 9.34375 2.675781 9.304688 3.066406 9.300781 C 3.851562 9.289062 4.644531 9.425781 5.480469 9.542969 C 5.898438 9.601562 6.328125 9.652344 6.773438 9.683594 C 7.21875 9.710938 7.675781 9.71875 8.15625 9.675781 C 8.632812 9.636719 9.132812 9.550781 9.652344 9.402344 C 10.171875 9.253906 10.71875 9.039062 11.289062 8.738281 C 9.613281 7.8125 8.351562 7.609375 7.242188 7.710938 Z M 7.242188 7.710938 "/>
<path style=" stroke:none;fill-rule:nonzero;fill:rgb(59.607843%,37.647059%,1.960784%);fill-opacity:1;" d="M 8.382812 8.328125 L 9.257812 8.328125 L 9.257812 9.636719 L 8.382812 9.636719 Z M 8.382812 8.328125 "/>
<path style=" stroke:none;fill-rule:nonzero;fill:rgb(45.490196%,63.137255%,5.098039%);fill-opacity:1;" d="M 10.710938 8.832031 L 7.015625 8.832031 L 8.863281 5.632812 Z M 10.710938 8.832031 "/>
<path style=" stroke:none;fill-rule:nonzero;fill:rgb(59.607843%,76.470588%,1.960784%);fill-opacity:1;" d="M 10.417969 7.710938 L 7.242188 7.710938 L 8.832031 4.960938 Z M 10.417969 7.710938 "/>
<path style=" stroke:none;fill-rule:nonzero;fill:rgb(67.843137%,85.882353%,11.764706%);fill-opacity:1;" d="M 10.132812 6.449219 L 7.609375 6.449219 L 8.871094 4.261719 Z M 10.132812 6.449219 "/>
<path style=" stroke:none;fill-rule:evenodd;fill:rgb(45.490196%,63.137255%,5.098039%);fill-opacity:1;" d="M 11.289062 8.738281 C 10.71875 9.039062 10.171875 9.253906 9.652344 9.402344 C 9.132812 9.550781 8.632812 9.636719 8.15625 9.675781 C 7.675781 9.71875 7.21875 9.710938 6.773438 9.683594 C 6.328125 9.652344 5.898438 9.601562 5.480469 9.542969 C 4.644531 9.425781 3.851562 9.289062 3.066406 9.300781 C 2.675781 9.304688 2.285156 9.34375 1.894531 9.441406 C 1.546875 9.527344 1.199219 9.675781 0.84375 9.863281 C 1.125 10.6875 1.878906 11.289062 2.800781 11.289062 L 9.195312 11.289062 C 10.355469 11.289062 11.289062 10.355469 11.289062 9.199219 Z M 11.289062 8.738281 "/>
</g>
</svg>
