<?xml version="1.0" encoding="UTF-8"?>
<svg xmlns="http://www.w3.org/2000/svg" xmlns:xlink="http://www.w3.org/1999/xlink" width="12pt" height="12pt" viewBox="0 0 12 12" version="1.1">
<g id="surface1">
<path style=" stroke:none;fill-rule:evenodd;fill:rgb(60%,60%,60%);fill-opacity:1;" d="M 10.773438 10.535156 C 10.660156 10.5625 10.523438 10.597656 10.523438 10.597656 L 1.464844 10.597656 C 1.425781 10.597656 1.320312 10.5625 1.234375 10.546875 C 1.617188 10.992188 2.167969 11.289062 2.800781 11.289062 L 9.199219 11.289062 C 9.839844 11.289062 10.390625 10.984375 10.773438 10.535156 Z M 10.773438 10.535156 "/>
<path style=" stroke:none;fill-rule:evenodd;fill:rgb(30.588235%,30.588235%,30.588235%);fill-opacity:1;" d="M 11.277344 9.253906 L 11.277344 5.238281 C 11.277344 5.066406 11.195312 4.914062 11.066406 4.816406 L 5.996094 1.089844 C 5.996094 1.089844 0.921875 4.820312 0.953125 4.796875 C 0.941406 4.804688 0.929688 4.8125 0.921875 4.820312 L 0.914062 4.824219 C 0.792969 4.921875 0.710938 5.070312 0.710938 5.238281 L 0.710938 9.199219 C 0.710938 9.71875 0.921875 10.179688 1.234375 10.546875 C 1.320312 10.5625 1.425781 10.597656 1.464844 10.597656 L 10.523438 10.597656 C 10.523438 10.597656 10.660156 10.5625 10.773438 10.535156 C 11.070312 10.183594 11.261719 9.75 11.277344 9.253906 Z M 11.277344 9.253906 "/>
<path style=" stroke:none;fill-rule:evenodd;fill:rgb(60%,60%,60%);fill-opacity:1;" d="M 2.800781 0.710938 C 1.644531 0.710938 0.710938 1.644531 0.710938 2.804688 L 0.710938 5.238281 C 0.710938 5.070312 0.792969 4.921875 0.914062 4.824219 L 0.921875 4.820312 C 0.929688 4.8125 0.941406 4.804688 0.953125 4.796875 C 0.921875 4.820312 5.996094 1.089844 5.996094 1.089844 L 11.066406 4.816406 C 11.195312 4.914062 11.277344 5.066406 11.277344 5.238281 L 11.277344 9.253906 C 11.277344 9.234375 11.289062 9.21875 11.289062 9.199219 L 11.289062 2.804688 C 11.289062 1.644531 10.355469 0.710938 9.199219 0.710938 Z M 2.800781 0.710938 "/>
<path style=" stroke:none;fill-rule:nonzero;fill:rgb(92.156863%,92.156863%,92.156863%);fill-opacity:1;" d="M 2.410156 2.21875 L 9.578125 2.21875 C 9.890625 2.21875 10.144531 2.472656 10.144531 2.785156 L 10.144531 8.445312 C 10.144531 8.757812 9.890625 9.011719 9.578125 9.011719 L 2.410156 9.011719 C 2.097656 9.011719 1.84375 8.757812 1.84375 8.445312 L 1.84375 2.785156 C 1.84375 2.472656 2.097656 2.21875 2.410156 2.21875 Z M 2.410156 2.21875 "/>
<path style=" stroke:none;fill-rule:nonzero;fill:rgb(51.764706%,51.764706%,51.764706%);fill-opacity:1;" d="M 5.996094 3.351562 C 4.953125 3.351562 4.109375 4.195312 4.109375 5.238281 C 4.109375 6.28125 4.953125 7.125 5.996094 7.125 L 7.316406 7.125 C 7.417969 7.125 7.503906 7.042969 7.503906 6.9375 C 7.503906 6.832031 7.417969 6.746094 7.316406 6.746094 L 5.996094 6.746094 C 5.160156 6.746094 4.484375 6.070312 4.484375 5.238281 C 4.484375 4.40625 5.160156 3.730469 5.996094 3.730469 C 6.828125 3.730469 7.503906 4.40625 7.503906 5.238281 L 7.503906 5.804688 C 7.503906 5.910156 7.417969 5.992188 7.316406 5.992188 C 7.210938 5.992188 7.125 5.910156 7.125 5.804688 L 7.125 5.238281 C 7.125 4.613281 6.621094 4.105469 5.996094 4.105469 C 5.371094 4.105469 4.863281 4.613281 4.863281 5.238281 C 4.863281 5.863281 5.371094 6.371094 5.996094 6.371094 C 6.296875 6.371094 6.585938 6.25 6.796875 6.035156 C 6.886719 6.234375 7.082031 6.371094 7.316406 6.371094 C 7.628906 6.371094 7.882812 6.117188 7.882812 5.804688 L 7.882812 5.238281 C 7.882812 4.195312 7.035156 3.351562 5.996094 3.351562 Z M 5.996094 4.484375 C 6.410156 4.484375 6.75 4.820312 6.75 5.238281 C 6.75 5.65625 6.410156 5.992188 5.996094 5.992188 C 5.578125 5.992188 5.238281 5.65625 5.238281 5.238281 C 5.238281 4.820312 5.578125 4.484375 5.996094 4.484375 Z M 5.996094 4.484375 "/>
<path style=" stroke:none;fill-rule:evenodd;fill:rgb(41.568627%,41.568627%,41.568627%);fill-opacity:1;" d="M 11.277344 9.253906 L 11.277344 5.238281 L 2.597656 11.246094 C 2.667969 11.253906 2.730469 11.289062 2.800781 11.289062 L 9.199219 11.289062 C 10.335938 11.289062 11.246094 10.386719 11.277344 9.253906 Z M 11.277344 9.253906 "/>
<path style=" stroke:none;fill-rule:evenodd;fill:rgb(30.980392%,30.980392%,30.980392%);fill-opacity:1;" d="M 5.996094 8.894531 L 0.710938 5.238281 L 0.710938 9.199219 C 0.710938 10.285156 1.542969 11.140625 2.597656 11.246094 Z M 5.996094 8.894531 "/>
</g>
</svg>
