<?xml version="1.0" encoding="UTF-8"?>
<svg xmlns="http://www.w3.org/2000/svg" xmlns:xlink="http://www.w3.org/1999/xlink" width="12pt" height="12pt" viewBox="0 0 12 12" version="1.1">
<defs>
<linearGradient id="linear0" gradientUnits="userSpaceOnUse" x1="18.033899" y1="-8.271187" x2="17.634579" y2="6.68057" gradientTransform="matrix(0.375,0,0,0.375,-0.559322,4.29661)">
<stop offset="0" style="stop-color:rgb(100%,62.745098%,0.392157%);stop-opacity:1;"/>
<stop offset="1" style="stop-color:rgb(100%,49.803922%,0.392157%);stop-opacity:0;"/>
</linearGradient>
<linearGradient id="linear1" gradientUnits="userSpaceOnUse" x1="14.169707" y1="35.254238" x2="14.447506" y2="26.193838" gradientTransform="matrix(0.375,0,0,0.375,-0.143977,-2.024408)">
<stop offset="0" style="stop-color:rgb(97.254902%,69.803922%,28.627451%);stop-opacity:1;"/>
<stop offset="1" style="stop-color:rgb(97.254902%,69.803922%,28.627451%);stop-opacity:0;"/>
</linearGradient>
</defs>
<g id="surface1">
<path style=" stroke:none;fill-rule:evenodd;fill:rgb(26.666667%,22.352941%,9.803922%);fill-opacity:1;" d="M 2.800781 0.710938 L 9.199219 0.710938 C 10.351562 0.710938 11.289062 1.648438 11.289062 2.800781 L 11.289062 9.199219 C 11.289062 10.351562 10.351562 11.289062 9.199219 11.289062 L 2.800781 11.289062 C 1.648438 11.289062 0.710938 10.351562 0.710938 9.199219 L 0.710938 2.800781 C 0.710938 1.648438 1.648438 0.710938 2.800781 0.710938 Z M 2.800781 0.710938 "/>
<path style=" stroke:none;fill-rule:evenodd;fill:rgb(100%,85.882353%,37.647059%);fill-opacity:1;" d="M 2.800781 0.710938 L 9.199219 0.710938 C 10.351562 0.710938 11.289062 1.648438 11.289062 2.800781 L 11.289062 9.199219 C 11.289062 10.351562 10.351562 11.289062 9.199219 11.289062 L 2.800781 11.289062 C 1.648438 11.289062 0.710938 10.351562 0.710938 9.199219 L 0.710938 2.800781 C 0.710938 1.648438 1.648438 0.710938 2.800781 0.710938 Z M 2.800781 0.710938 "/>
<path style=" stroke:none;fill-rule:evenodd;fill:url(#linear0);" d="M 2.800781 0.710938 L 9.199219 0.710938 C 10.351562 0.710938 11.289062 1.648438 11.289062 2.800781 L 11.289062 9.199219 C 11.289062 10.351562 10.351562 11.289062 9.199219 11.289062 L 2.800781 11.289062 C 1.648438 11.289062 0.710938 10.351562 0.710938 9.199219 L 0.710938 2.800781 C 0.710938 1.648438 1.648438 0.710938 2.800781 0.710938 Z M 2.800781 0.710938 "/>
<path style=" stroke:none;fill-rule:nonzero;fill:rgb(44.313725%,38.823529%,0%);fill-opacity:1;" d="M 6.507812 3.203125 C 5.769531 3.203125 5.175781 3.785156 5.175781 4.503906 C 5.175781 4.832031 5.300781 5.144531 5.527344 5.386719 C 5.402344 5.574219 5.335938 5.800781 5.335938 6.035156 C 5.335938 6.652344 5.804688 7.15625 6.378906 7.15625 C 6.667969 7.15625 6.945312 7.027344 7.140625 6.800781 C 7.214844 6.84375 7.292969 6.867188 7.378906 6.867188 C 7.628906 6.867188 7.84375 6.652344 7.882812 6.363281 C 8.046875 6.433594 8.222656 6.472656 8.402344 6.472656 C 9.101562 6.472656 9.667969 5.90625 9.671875 5.207031 C 9.671875 4.507812 9.101562 3.9375 8.402344 3.9375 C 8.179688 3.9375 7.964844 4 7.773438 4.109375 C 7.597656 3.570312 7.085938 3.203125 6.507812 3.203125 Z M 6.507812 3.203125 "/>
<path style=" stroke:none;fill-rule:nonzero;fill:rgb(30.196078%,22.745098%,0.784314%);fill-opacity:1;" d="M 7.996094 7.433594 C 7.984375 7.394531 7.917969 7.171875 7.917969 7.171875 C 7.742188 6.828125 7.5 6.585938 7.238281 6.367188 C 6.289062 6.511719 6.203125 6.753906 6.054688 6.800781 L 5.972656 6.769531 C 6.203125 6.507812 6.542969 6.449219 6.84375 6.3125 L 6.269531 6.097656 L 6.289062 6.011719 L 7.113281 6.277344 C 7.082031 6.148438 6.921875 6.019531 6.777344 5.890625 L 6.855469 5.816406 C 6.980469 5.941406 7.113281 6.089844 7.230469 6.179688 C 7.445312 6.460938 7.65625 6.554688 7.871094 6.738281 L 7.882812 6.363281 C 7.453125 5.945312 7.082031 5.769531 6.746094 5.738281 L 6.714844 5.652344 C 7.007812 5.726562 7.253906 5.722656 7.679688 6.011719 C 7.558594 5.851562 7.453125 5.65625 7.378906 5.398438 L 7.464844 5.382812 C 7.5625 5.773438 7.71875 5.90625 7.847656 6.105469 C 7.851562 5.46875 7.964844 5.109375 8.089844 4.78125 L 8.1875 4.871094 C 7.769531 5.789062 8.097656 6.742188 8.347656 7.246094 Z M 7.996094 7.433594 "/>
<path style=" stroke:none;fill-rule:evenodd;fill:rgb(100%,98.431373%,62.745098%);fill-opacity:1;" d="M 7.925781 11.28125 L 9.289062 8.484375 L 6.785156 8.039062 L 4.253906 7.648438 L 4.28125 7.558594 L 3.105469 7.550781 L 5.15625 8.027344 L 3.1875 8.230469 L 3.046875 8.636719 L 4.636719 9.03125 L 1.101562 9.871094 L 1.785156 10.753906 C 1.828125 10.757812 2.59375 11.273438 2.640625 11.273438 Z M 7.925781 11.28125 "/>
<path style=" stroke:none;fill-rule:evenodd;fill:url(#linear1);" d="M 7.925781 11.28125 L 9.289062 8.484375 L 6.785156 8.039062 L 4.253906 7.648438 L 4.28125 7.558594 L 3.105469 7.550781 L 5.15625 8.027344 L 3.1875 8.230469 L 3.046875 8.636719 L 4.636719 9.03125 L 1.101562 9.871094 L 1.785156 10.753906 C 1.828125 10.757812 2.585938 11.28125 2.628906 11.28125 C 3.953125 11.296875 6.160156 11.28125 7.925781 11.28125 Z M 7.925781 11.28125 "/>
<path style=" stroke:none;fill-rule:nonzero;fill:rgb(99.607843%,69.803922%,0.784314%);fill-opacity:1;" d="M 3.207031 7.640625 L 7.964844 7.722656 L 7.953125 7.347656 L 6.617188 7.285156 L 6.417969 7.113281 L 6.21875 7.277344 L 5.878906 7.21875 L 5.480469 7.441406 L 4.714844 7.144531 L 4.550781 7.226562 L 4.4375 7.320312 L 4.023438 7.34375 Z M 3.207031 7.640625 "/>
<path style=" stroke:none;fill-rule:evenodd;fill:rgb(86.27451%,72.941176%,26.666667%);fill-opacity:1;" d="M 3.398438 8.558594 L 3.789062 8.683594 C 3.789062 8.683594 3.558594 8.5 3.546875 8.4375 C 3.535156 8.378906 3.550781 8.300781 3.644531 8.234375 C 3.835938 8.101562 5.460938 8.15625 5.449219 8.09375 C 5.433594 8.035156 3.195312 7.582031 2.667969 7.398438 C 2.574219 7.324219 1.992188 7.226562 1.597656 7.183594 C 1.40625 7.113281 0.9375 6.960938 0.707031 6.972656 L 0.707031 8.335938 C 1.164062 8.332031 1.582031 8.320312 2.246094 8.347656 C 2.628906 8.394531 3.011719 8.492188 3.398438 8.558594 Z M 3.398438 8.558594 "/>
<path style=" stroke:none;fill-rule:evenodd;fill:rgb(76.078431%,64.705882%,14.509804%);fill-opacity:1;" d="M 1.101562 9.871094 C 2.460938 9.550781 3.425781 9.386719 4.824219 9.085938 C 4.785156 9.003906 4.699219 8.875 4.355469 8.804688 C 3.625 8.570312 2.976562 8.449219 2.246094 8.347656 C 1.621094 8.316406 1.140625 8.332031 0.707031 8.335938 C 0.714844 8.777344 0.679688 9.332031 0.75 9.582031 Z M 1.101562 9.871094 "/>
<path style=" stroke:none;fill-rule:evenodd;fill:rgb(24.705882%,20%,1.176471%);fill-opacity:1;" d="M 2.671875 11.285156 L 2.839844 11.109375 C 2.933594 11.03125 2.96875 10.957031 2.964844 10.882812 C 2.964844 10.8125 2.925781 10.742188 2.878906 10.671875 C 2.210938 10.277344 1.554688 9.945312 0.914062 9.652344 C 0.851562 9.625 0.8125 9.609375 0.75 9.582031 C 0.917969 10.519531 1.683594 11.253906 2.671875 11.285156 Z M 2.671875 11.285156 "/>
<path style=" stroke:none;fill-rule:nonzero;fill:rgb(86.27451%,72.941176%,26.666667%);fill-opacity:1;" d="M 6.078125 8.046875 C 6.695312 8.242188 7.335938 8.363281 8.035156 8.292969 L 8.65625 7.546875 C 7.324219 7.519531 6.539062 7.714844 6.078125 8.046875 Z M 6.078125 8.046875 "/>
<path style=" stroke:none;fill-rule:evenodd;fill:rgb(26.666667%,22.352941%,9.803922%);fill-opacity:1;" d="M 11.289062 7.070312 L 11.140625 7.132812 C 10.992188 7.042969 10.855469 7.101562 10.660156 7.125 C 10.515625 7.046875 10.027344 6.929688 9.667969 6.863281 C 9.429688 6.691406 9.097656 6.699219 8.785156 6.679688 C 8.492188 6.820312 7.988281 7.054688 7.910156 7.191406 L 7.550781 7.546875 C 7.457031 7.726562 7.460938 7.777344 7.570312 7.96875 C 7.476562 8.035156 7.324219 8.160156 7.210938 8.292969 C 7.09375 8.429688 7.007812 8.574219 7.039062 8.6875 L 7.203125 8.835938 C 6.792969 9.175781 6.59375 9.472656 6.328125 9.941406 C 6.328125 9.941406 6.253906 10.015625 6.292969 10.105469 C 6.3125 10.164062 6.476562 10.304688 6.523438 10.371094 C 6.59375 10.464844 6.550781 10.476562 6.589844 10.539062 L 7.117188 11.285156 L 9.195312 11.285156 C 10.355469 11.285156 11.289062 10.355469 11.289062 9.195312 Z M 11.289062 7.070312 "/>
<path style=" stroke:none;fill-rule:evenodd;fill:rgb(17.254902%,10.980392%,5.098039%);fill-opacity:1;" d="M 9.820312 11.179688 C 9.234375 10.894531 8.0625 10.164062 8.148438 10.214844 C 8.242188 10.273438 8.578125 11.25 8.578125 11.25 C 8.578125 11.25 7.574219 10.121094 7.359375 9.917969 C 7.144531 9.714844 7.300781 9.765625 6.972656 9.71875 C 6.804688 9.699219 6.753906 9.742188 6.722656 9.816406 C 6.695312 9.890625 6.6875 9.988281 6.617188 10.074219 C 6.542969 10.160156 6.542969 10.160156 6.496094 10.144531 C 6.488281 10.144531 6.445312 10.144531 6.4375 10.140625 C 6.484375 10.207031 6.59375 10.3125 6.632812 10.367188 C 6.703125 10.460938 6.660156 10.472656 6.699219 10.535156 L 7.191406 11.234375 L 7.238281 11.28125 L 9.304688 11.28125 C 9.488281 11.28125 9.652344 11.222656 9.820312 11.179688 Z M 9.820312 11.179688 "/>
<path style=" stroke:none;fill-rule:evenodd;fill:rgb(17.254902%,10.980392%,5.098039%);fill-opacity:1;" d="M 7.160156 8.84375 L 7.179688 8.871094 C 7.179688 8.871094 7.414062 8.652344 7.609375 8.574219 C 7.800781 8.5 8.058594 8.589844 8.058594 8.589844 C 8.058594 8.589844 8.09375 8.53125 8.515625 8.558594 C 8.9375 8.585938 10.003906 8.957031 10.003906 8.957031 C 10.003906 8.957031 9.449219 8.496094 8.972656 8.277344 C 8.734375 8.171875 8.515625 8.140625 8.355469 8.136719 C 8.195312 8.128906 8.09375 8.152344 8.09375 8.152344 L 7.136719 8.425781 C 7.101562 8.496094 7.03125 8.570312 7.046875 8.628906 L 7.210938 8.777344 C 7.1875 8.796875 7.183594 8.824219 7.160156 8.84375 Z M 7.160156 8.84375 "/>
<path style=" stroke:none;fill-rule:nonzero;fill:rgb(26.666667%,22.352941%,9.803922%);fill-opacity:1;" d="M 4.960938 11.195312 C 5.109375 11.238281 5.257812 11.285156 5.421875 11.285156 L 8.519531 11.285156 L 6.691406 10.410156 C 6.332031 10.441406 5.96875 10.386719 5.609375 10.527344 C 5.234375 10.695312 5.144531 10.824219 4.957031 10.964844 C 4.894531 11.070312 4.921875 11.132812 4.960938 11.195312 Z M 4.960938 11.195312 "/>
<path style=" stroke:none;fill-rule:evenodd;fill:rgb(31.764706%,29.411765%,0.392157%);fill-opacity:1;" d="M 7.160156 0.710938 C 7.152344 0.71875 7.148438 0.722656 7.140625 0.730469 C 7.105469 0.769531 7.066406 0.808594 7.035156 0.851562 C 7 0.894531 6.96875 0.9375 6.9375 0.984375 C 6.917969 1.015625 6.898438 1.050781 6.878906 1.082031 C 6.855469 1.128906 6.832031 1.179688 6.808594 1.230469 C 6.789062 1.28125 6.769531 1.332031 6.753906 1.382812 C 6.738281 1.433594 6.726562 1.488281 6.714844 1.542969 C 6.703125 1.59375 6.699219 1.648438 6.691406 1.703125 C 6.6875 1.757812 6.683594 1.8125 6.6875 1.867188 C 6.6875 1.921875 6.691406 1.976562 6.695312 2.03125 C 6.703125 2.085938 6.710938 2.140625 6.722656 2.191406 C 6.726562 2.214844 6.734375 2.238281 6.738281 2.261719 C 6.699219 2.285156 6.660156 2.308594 6.621094 2.332031 C 6.582031 2.359375 6.546875 2.386719 6.507812 2.414062 C 6.472656 2.445312 6.4375 2.476562 6.40625 2.507812 C 6.371094 2.539062 6.339844 2.574219 6.3125 2.609375 C 6.28125 2.644531 6.253906 2.683594 6.226562 2.722656 C 6.199219 2.761719 6.175781 2.800781 6.152344 2.839844 C 6.148438 2.847656 6.144531 2.851562 6.140625 2.859375 C 6.121094 2.898438 6.097656 2.941406 6.082031 2.984375 C 6.0625 3.027344 6.046875 3.070312 6.03125 3.117188 C 6.015625 3.160156 6.003906 3.207031 5.996094 3.25 C 5.984375 3.296875 5.976562 3.34375 5.972656 3.386719 C 5.964844 3.433594 5.960938 3.480469 5.960938 3.527344 C 5.957031 3.570312 5.960938 3.617188 5.964844 3.664062 C 5.964844 3.710938 5.972656 3.753906 5.976562 3.800781 C 5.984375 3.84375 5.996094 3.890625 6.007812 3.933594 C 6.019531 3.976562 6.035156 4.019531 6.050781 4.0625 C 6.066406 4.101562 6.082031 4.144531 6.101562 4.183594 C 6.125 4.222656 6.144531 4.261719 6.167969 4.300781 C 6.191406 4.335938 6.21875 4.371094 6.246094 4.40625 C 6.273438 4.441406 6.304688 4.472656 6.332031 4.503906 C 6.363281 4.535156 6.398438 4.5625 6.429688 4.59375 C 6.464844 4.621094 6.5 4.644531 6.535156 4.667969 C 6.5625 4.683594 6.589844 4.699219 6.613281 4.714844 C 6.652344 4.734375 6.691406 4.753906 6.734375 4.769531 C 6.773438 4.789062 6.816406 4.800781 6.855469 4.816406 C 6.898438 4.828125 6.941406 4.835938 6.984375 4.84375 C 7.027344 4.851562 7.070312 4.859375 7.113281 4.859375 C 7.160156 4.863281 7.203125 4.863281 7.246094 4.863281 C 7.292969 4.859375 7.335938 4.855469 7.378906 4.851562 C 7.425781 4.84375 7.46875 4.835938 7.511719 4.824219 C 7.554688 4.816406 7.597656 4.800781 7.640625 4.789062 C 7.648438 4.785156 7.65625 4.78125 7.664062 4.777344 C 7.675781 4.796875 7.6875 4.816406 7.699219 4.835938 C 7.710938 4.851562 7.726562 4.867188 7.742188 4.886719 C 7.757812 4.902344 7.769531 4.917969 7.789062 4.929688 C 7.804688 4.945312 7.820312 4.957031 7.839844 4.96875 C 7.851562 4.980469 7.867188 4.988281 7.882812 4.996094 C 7.902344 5.007812 7.921875 5.015625 7.941406 5.023438 C 7.960938 5.03125 7.980469 5.039062 8.003906 5.042969 C 8.023438 5.050781 8.042969 5.054688 8.066406 5.058594 C 8.085938 5.0625 8.109375 5.0625 8.132812 5.0625 C 8.152344 5.066406 8.175781 5.0625 8.195312 5.0625 C 8.21875 5.0625 8.242188 5.058594 8.265625 5.054688 C 8.285156 5.050781 8.308594 5.042969 8.332031 5.039062 C 8.351562 5.03125 8.375 5.023438 8.394531 5.015625 C 8.417969 5.007812 8.441406 4.996094 8.460938 4.984375 C 8.480469 4.976562 8.503906 4.964844 8.523438 4.949219 C 8.542969 4.9375 8.5625 4.921875 8.582031 4.910156 C 8.601562 4.894531 8.621094 4.875 8.636719 4.859375 C 8.65625 4.84375 8.671875 4.824219 8.6875 4.808594 C 8.707031 4.789062 8.722656 4.769531 8.738281 4.75 C 8.738281 4.746094 8.742188 4.742188 8.742188 4.742188 C 8.773438 4.785156 8.808594 4.824219 8.84375 4.863281 C 8.878906 4.902344 8.917969 4.9375 8.957031 4.972656 C 8.996094 5.007812 9.039062 5.042969 9.082031 5.074219 C 9.125 5.101562 9.167969 5.132812 9.214844 5.15625 C 9.222656 5.164062 9.234375 5.167969 9.246094 5.175781 C 9.292969 5.199219 9.339844 5.222656 9.386719 5.246094 C 9.4375 5.265625 9.488281 5.28125 9.539062 5.296875 C 9.585938 5.3125 9.640625 5.328125 9.691406 5.335938 C 9.742188 5.347656 9.792969 5.355469 9.847656 5.359375 C 9.898438 5.367188 9.953125 5.367188 10.003906 5.367188 C 10.058594 5.367188 10.109375 5.367188 10.164062 5.359375 C 10.214844 5.355469 10.269531 5.347656 10.320312 5.335938 C 10.371094 5.328125 10.421875 5.3125 10.472656 5.296875 C 10.523438 5.28125 10.574219 5.265625 10.621094 5.242188 C 10.671875 5.222656 10.71875 5.199219 10.765625 5.175781 C 10.8125 5.148438 10.855469 5.121094 10.898438 5.089844 C 10.945312 5.0625 10.984375 5.03125 11.027344 4.996094 C 11.066406 4.960938 11.105469 4.925781 11.140625 4.886719 C 11.179688 4.847656 11.214844 4.808594 11.246094 4.769531 C 11.261719 4.75 11.273438 4.730469 11.289062 4.710938 L 11.289062 2.804688 C 11.289062 1.644531 10.355469 0.710938 9.199219 0.710938 Z M 7.160156 0.710938 "/>
<path style=" stroke:none;fill-rule:nonzero;fill:rgb(30.196078%,22.745098%,0.784314%);fill-opacity:1;" d="M 9.21875 7.152344 C 8.917969 7.625 9.09375 6.589844 9.09375 6.589844 C 9.222656 6.199219 8.710938 5.042969 8.679688 4.945312 C 7.816406 4.671875 8.269531 4.710938 8.125 4.6875 L 8.070312 4.625 C 8.304688 4.65625 8.515625 4.78125 8.742188 4.742188 C 8.769531 4.621094 8.6875 4.445312 8.617188 4.273438 L 8.710938 4.246094 C 8.765625 4.402344 8.820312 4.582031 8.878906 4.710938 C 9.222656 5.476562 9.160156 5.269531 9.265625 5.515625 C 9.230469 4.820312 9.34375 4.414062 9.65625 3.890625 L 10.09375 3.851562 C 9.285156 4.433594 9.449219 6.558594 9.59375 7.136719 Z M 9.21875 7.152344 "/>
</g>
</svg>
