<?xml version="1.0" encoding="UTF-8"?>
<svg xmlns="http://www.w3.org/2000/svg" xmlns:xlink="http://www.w3.org/1999/xlink" width="12pt" height="12pt" viewBox="0 0 12 12" version="1.1">
<g id="surface1">
<path style=" stroke:none;fill-rule:evenodd;fill:rgb(49.019608%,90.196078%,24.313725%);fill-opacity:1;" d="M 11.257812 2.644531 C 11.253906 2.824219 11.25 3 11.238281 3.175781 C 11.214844 3.46875 11.171875 3.761719 11.117188 4.054688 C 11.066406 4.34375 10.996094 4.628906 10.914062 4.914062 C 10.832031 5.199219 10.734375 5.476562 10.621094 5.75 C 10.511719 6.023438 10.386719 6.292969 10.25 6.554688 C 10.113281 6.8125 9.960938 7.070312 9.800781 7.316406 C 9.636719 7.5625 9.460938 7.796875 9.273438 8.027344 C 9.089844 8.257812 8.890625 8.476562 8.679688 8.683594 C 8.550781 8.8125 8.417969 8.9375 8.28125 9.058594 C 8.0625 9.253906 7.828125 9.4375 7.589844 9.609375 C 7.351562 9.78125 7.101562 9.941406 6.847656 10.089844 C 6.589844 10.238281 6.328125 10.371094 6.058594 10.492188 C 5.789062 10.613281 5.515625 10.722656 5.234375 10.8125 C 4.953125 10.90625 4.671875 10.988281 4.382812 11.050781 C 4.09375 11.117188 3.804688 11.167969 3.511719 11.203125 C 3.234375 11.238281 2.957031 11.257812 2.679688 11.265625 C 2.722656 11.265625 2.761719 11.289062 2.804688 11.289062 L 9.199219 11.289062 C 10.355469 11.289062 11.289062 10.355469 11.289062 9.199219 L 11.289062 2.804688 C 11.289062 2.746094 11.261719 2.699219 11.257812 2.644531 Z M 11.257812 2.644531 "/>
<path style=" stroke:none;fill-rule:evenodd;fill:rgb(35.294118%,73.333333%,24.313725%);fill-opacity:1;" d="M 9.320312 0.734375 C 9.042969 0.742188 8.765625 0.761719 8.488281 0.796875 C 8.195312 0.832031 7.90625 0.882812 7.617188 0.949219 C 7.328125 1.011719 7.046875 1.09375 6.765625 1.1875 C 6.484375 1.28125 6.210938 1.386719 5.941406 1.507812 C 5.671875 1.628906 5.410156 1.761719 5.152344 1.910156 C 4.898438 2.058594 4.648438 2.21875 4.410156 2.390625 C 4.171875 2.5625 3.941406 2.746094 3.71875 2.941406 C 3.582031 3.0625 3.449219 3.1875 3.320312 3.316406 C 3.109375 3.523438 2.914062 3.746094 2.726562 3.972656 C 2.539062 4.203125 2.363281 4.441406 2.199219 4.6875 C 2.039062 4.933594 1.886719 5.1875 1.75 5.449219 C 1.613281 5.707031 1.488281 5.976562 1.378906 6.25 C 1.265625 6.523438 1.167969 6.804688 1.085938 7.085938 C 1.003906 7.371094 0.933594 7.65625 0.882812 7.949219 C 0.828125 8.238281 0.789062 8.53125 0.761719 8.824219 C 0.75 9.003906 0.746094 9.179688 0.742188 9.355469 C 0.824219 10.394531 1.640625 11.203125 2.679688 11.265625 C 2.957031 11.257812 3.234375 11.238281 3.511719 11.203125 C 3.804688 11.167969 4.09375 11.117188 4.382812 11.050781 C 4.671875 10.988281 4.953125 10.90625 5.234375 10.8125 C 5.515625 10.722656 5.789062 10.613281 6.058594 10.492188 C 6.328125 10.371094 6.589844 10.238281 6.847656 10.089844 C 7.101562 9.941406 7.351562 9.78125 7.589844 9.609375 C 7.828125 9.4375 8.0625 9.253906 8.28125 9.058594 C 8.417969 8.9375 8.550781 8.8125 8.679688 8.683594 C 8.890625 8.476562 9.089844 8.257812 9.273438 8.027344 C 9.460938 7.796875 9.636719 7.5625 9.800781 7.316406 C 9.960938 7.070312 10.113281 6.8125 10.25 6.554688 C 10.386719 6.292969 10.511719 6.023438 10.621094 5.75 C 10.734375 5.476562 10.832031 5.199219 10.914062 4.914062 C 10.996094 4.628906 11.066406 4.34375 11.117188 4.054688 C 11.171875 3.761719 11.214844 3.46875 11.238281 3.175781 C 11.25 3 11.253906 2.824219 11.257812 2.644531 C 11.175781 1.609375 10.363281 0.796875 9.320312 0.734375 Z M 9.320312 0.734375 "/>
<path style=" stroke:none;fill-rule:evenodd;fill:rgb(49.019608%,90.196078%,24.313725%);fill-opacity:1;" d="M 2.804688 0.710938 C 1.644531 0.710938 0.710938 1.644531 0.710938 2.804688 L 0.710938 9.199219 C 0.710938 9.253906 0.738281 9.300781 0.746094 9.355469 C 0.746094 9.179688 0.75 9.003906 0.761719 8.824219 C 0.789062 8.53125 0.828125 8.238281 0.882812 7.949219 C 0.933594 7.65625 1.003906 7.371094 1.085938 7.085938 C 1.167969 6.804688 1.265625 6.523438 1.378906 6.25 C 1.488281 5.976562 1.613281 5.707031 1.75 5.449219 C 1.886719 5.1875 2.039062 4.933594 2.199219 4.6875 C 2.363281 4.441406 2.539062 4.203125 2.726562 3.972656 C 2.914062 3.746094 3.109375 3.523438 3.320312 3.316406 C 3.449219 3.1875 3.582031 3.0625 3.71875 2.941406 C 3.941406 2.746094 4.171875 2.5625 4.410156 2.390625 C 4.648438 2.21875 4.898438 2.058594 5.152344 1.910156 C 5.410156 1.761719 5.671875 1.628906 5.941406 1.507812 C 6.210938 1.386719 6.484375 1.28125 6.765625 1.1875 C 7.046875 1.09375 7.328125 1.011719 7.617188 0.949219 C 7.90625 0.882812 8.195312 0.832031 8.488281 0.796875 C 8.765625 0.761719 9.042969 0.742188 9.320312 0.734375 C 9.277344 0.734375 9.242188 0.710938 9.199219 0.710938 Z M 2.804688 0.710938 "/>
<path style=" stroke:none;fill-rule:nonzero;fill:rgb(24.705882%,51.372549%,17.254902%);fill-opacity:1;" d="M 8.257812 6 C 8.257812 7.246094 7.246094 8.257812 6 8.257812 C 4.753906 8.257812 3.742188 7.246094 3.742188 6 C 3.742188 4.753906 4.753906 3.742188 6 3.742188 C 7.246094 3.742188 8.257812 4.753906 8.257812 6 Z M 8.257812 6 "/>
<path style=" stroke:none;fill-rule:nonzero;fill:rgb(100%,76.078431%,4.705882%);fill-opacity:1;" d="M 7.503906 6 C 7.503906 6.832031 6.832031 7.507812 6 7.507812 C 5.167969 7.507812 4.496094 6.832031 4.496094 6 C 4.496094 5.167969 5.167969 4.496094 6 4.496094 C 6.832031 4.496094 7.503906 5.167969 7.503906 6 Z M 7.503906 6 "/>
<path style=" stroke:none;fill-rule:nonzero;fill:rgb(24.705882%,51.372549%,17.254902%);fill-opacity:1;" d="M 10.140625 2.988281 C 10.140625 3.613281 9.636719 4.117188 9.011719 4.117188 C 8.386719 4.117188 7.882812 3.613281 7.882812 2.988281 C 7.882812 2.367188 8.386719 1.859375 9.011719 1.859375 C 9.636719 1.859375 10.140625 2.367188 10.140625 2.988281 Z M 10.140625 2.988281 "/>
<path style=" stroke:none;fill-rule:nonzero;fill:rgb(100%,76.078431%,4.705882%);fill-opacity:1;" d="M 9.765625 2.988281 C 9.765625 3.40625 9.425781 3.742188 9.011719 3.742188 C 8.59375 3.742188 8.257812 3.40625 8.257812 2.988281 C 8.257812 2.574219 8.59375 2.234375 9.011719 2.234375 C 9.425781 2.234375 9.765625 2.574219 9.765625 2.988281 Z M 9.765625 2.988281 "/>
<path style=" stroke:none;fill-rule:nonzero;fill:rgb(24.705882%,51.372549%,17.254902%);fill-opacity:1;" d="M 4.117188 9.011719 C 4.117188 9.636719 3.613281 10.140625 2.988281 10.140625 C 2.363281 10.140625 1.859375 9.636719 1.859375 9.011719 C 1.859375 8.386719 2.363281 7.882812 2.988281 7.882812 C 3.613281 7.882812 4.117188 8.386719 4.117188 9.011719 Z M 4.117188 9.011719 "/>
<path style=" stroke:none;fill-rule:nonzero;fill:rgb(100%,76.078431%,4.705882%);fill-opacity:1;" d="M 3.742188 9.011719 C 3.742188 9.425781 3.40625 9.765625 2.988281 9.765625 C 2.574219 9.765625 2.234375 9.425781 2.234375 9.011719 C 2.234375 8.597656 2.574219 8.257812 2.988281 8.257812 C 3.40625 8.257812 3.742188 8.597656 3.742188 9.011719 Z M 3.742188 9.011719 "/>
</g>
</svg>
