<?xml version="1.0" encoding="UTF-8"?>
<svg xmlns="http://www.w3.org/2000/svg" xmlns:xlink="http://www.w3.org/1999/xlink" width="12pt" height="12pt" viewBox="0 0 12 12" version="1.1">
<defs>
<clipPath id="clip1">
  <rect width="12" height="12"/>
</clipPath>
<g id="surface6" clip-path="url(#clip1)">
<path style=" stroke:none;fill-rule:evenodd;fill:rgb(100%,98.823529%,63.921569%);fill-opacity:1;" d="M 8.257812 2.984375 C 9.082031 2.984375 9.75 3.648438 9.75 4.472656 C 9.75 5.296875 9.082031 5.964844 8.257812 5.964844 C 7.433594 5.964844 6.765625 5.296875 6.765625 4.472656 C 6.765625 3.648438 7.433594 2.984375 8.257812 2.984375 Z M 8.257812 2.984375 "/>
</g>
</defs>
<g id="surface1">
<path style=" stroke:none;fill-rule:nonzero;fill:rgb(0%,0%,0%);fill-opacity:1;" d="M 11.289062 8.195312 C 10.898438 8.070312 10.570312 7.949219 10.445312 7.9375 C 10.1875 7.917969 9.847656 8 9.539062 8.089844 C 9.230469 8.179688 8.953125 8.277344 8.824219 8.289062 C 8.691406 8.296875 8.234375 8.289062 7.949219 8.261719 C 7.664062 8.234375 7.417969 8.203125 7.3125 8.191406 C 7.207031 8.183594 6.90625 8.148438 6.730469 8.121094 C 6.558594 8.097656 6.40625 8.078125 6.277344 8.066406 C 6.148438 8.054688 5.574219 8.011719 5.15625 7.984375 C 4.742188 7.960938 4.351562 7.9375 4.195312 7.9375 C 4.039062 7.9375 3.535156 7.953125 3.230469 7.96875 C 2.929688 7.988281 2.667969 8.007812 2.523438 8.003906 C 2.378906 7.996094 1.917969 7.917969 1.609375 7.859375 C 1.300781 7.800781 0.996094 7.757812 0.742188 7.8125 C 0.734375 7.8125 0.71875 7.828125 0.710938 7.828125 L 0.710938 8.820312 L 11.289062 8.820312 Z M 11.289062 8.195312 "/>
<path style=" stroke:none;fill-rule:nonzero;fill:rgb(54.901961%,57.647059%,86.666667%);fill-opacity:1;" d="M 2.804688 0.738281 C 2.511719 0.738281 2.238281 0.796875 1.988281 0.902344 C 1.738281 1.007812 1.511719 1.160156 1.324219 1.347656 C 1.132812 1.535156 0.980469 1.761719 0.875 2.011719 C 0.769531 2.261719 0.710938 2.539062 0.710938 2.828125 L 0.710938 7.828125 C 0.71875 7.828125 0.734375 7.8125 0.742188 7.8125 C 0.996094 7.757812 1.300781 7.800781 1.609375 7.859375 C 1.917969 7.917969 2.378906 7.996094 2.523438 8.003906 C 2.667969 8.007812 2.929688 7.988281 3.230469 7.96875 C 3.535156 7.953125 4.039062 7.9375 4.195312 7.9375 C 4.351562 7.9375 4.742188 7.960938 5.15625 7.984375 C 5.574219 8.011719 6.148438 8.054688 6.277344 8.066406 C 6.40625 8.078125 6.558594 8.097656 6.730469 8.121094 C 6.90625 8.148438 7.207031 8.183594 7.3125 8.191406 C 7.417969 8.203125 7.664062 8.234375 7.949219 8.261719 C 8.234375 8.289062 8.691406 8.296875 8.824219 8.289062 C 8.953125 8.277344 9.230469 8.179688 9.539062 8.089844 C 9.847656 8 10.1875 7.917969 10.445312 7.9375 C 10.570312 7.949219 10.898438 8.070312 11.289062 8.195312 L 11.289062 2.828125 C 11.289062 2.539062 11.230469 2.261719 11.125 2.011719 C 11.019531 1.761719 10.867188 1.535156 10.675781 1.347656 C 10.488281 1.160156 10.261719 1.007812 10.011719 0.902344 C 9.761719 0.796875 9.488281 0.738281 9.199219 0.738281 Z M 2.804688 0.738281 "/>
<use xlink:href="#surface6"/>
<path style=" stroke:none;fill-rule:nonzero;fill:rgb(31.764706%,51.764706%,69.019608%);fill-opacity:1;" d="M 0.710938 8.820312 L 0.710938 9.171875 C 0.710938 9.460938 0.769531 9.738281 0.875 9.988281 C 0.980469 10.238281 1.132812 10.464844 1.324219 10.652344 C 1.511719 10.839844 1.738281 10.992188 1.988281 11.097656 C 2.238281 11.203125 2.511719 11.261719 2.804688 11.261719 L 9.199219 11.261719 C 9.488281 11.261719 9.761719 11.203125 10.011719 11.097656 C 10.261719 10.992188 10.488281 10.839844 10.675781 10.652344 C 10.867188 10.464844 11.019531 10.238281 11.125 9.988281 C 11.230469 9.738281 11.289062 9.460938 11.289062 9.171875 L 11.289062 8.820312 Z M 0.710938 8.820312 "/>
</g>
</svg>
