<?xml version="1.0" encoding="UTF-8"?>
<svg xmlns="http://www.w3.org/2000/svg" xmlns:xlink="http://www.w3.org/1999/xlink" width="12pt" height="12pt" viewBox="0 0 12 12" version="1.1">
<g id="surface1">
<path style=" stroke:none;fill-rule:evenodd;fill:rgb(92.156863%,63.529412%,16.078431%);fill-opacity:1;" d="M 2.800781 0.710938 L 9.199219 0.710938 C 10.351562 0.710938 11.289062 1.648438 11.289062 2.800781 L 11.289062 9.199219 C 11.289062 10.351562 10.351562 11.289062 9.199219 11.289062 L 2.800781 11.289062 C 1.648438 11.289062 0.710938 10.351562 0.710938 9.199219 L 0.710938 2.800781 C 0.710938 1.648438 1.648438 0.710938 2.800781 0.710938 Z M 2.800781 0.710938 "/>
<path style=" stroke:none;fill-rule:nonzero;fill:rgb(100%,100%,100%);fill-opacity:1;" d="M 6.566406 3.375 C 5.429688 3.375 4.492188 4.300781 4.492188 5.4375 C 4.492188 5.867188 4.636719 6.265625 4.867188 6.597656 L 3.484375 7.980469 C 3.335938 8.125 3.332031 8.363281 3.480469 8.511719 C 3.625 8.660156 3.863281 8.664062 4.011719 8.519531 L 5.394531 7.136719 C 5.726562 7.363281 6.132812 7.5 6.566406 7.5 C 7.703125 7.5 8.628906 6.570312 8.628906 5.4375 C 8.628906 4.300781 7.703125 3.375 6.566406 3.375 Z M 6.566406 4.125 C 7.296875 4.125 7.878906 4.707031 7.878906 5.4375 C 7.878906 6.167969 7.296875 6.75 6.566406 6.75 C 5.835938 6.75 5.253906 6.167969 5.253906 5.4375 C 5.253906 4.707031 5.835938 4.125 6.566406 4.125 Z M 6.566406 4.125 "/>
</g>
</svg>
