<?xml version="1.0" encoding="UTF-8"?>
<svg xmlns="http://www.w3.org/2000/svg" xmlns:xlink="http://www.w3.org/1999/xlink" width="12pt" height="12pt" viewBox="0 0 12 12" version="1.1">
<g id="surface1">
<path style=" stroke:none;fill-rule:evenodd;fill:rgb(75.686275%,17.647059%,14.509804%);fill-opacity:1;" d="M 2.800781 0.710938 L 9.199219 0.710938 C 10.351562 0.710938 11.289062 1.648438 11.289062 2.800781 L 11.289062 9.199219 C 11.289062 10.351562 10.351562 11.289062 9.199219 11.289062 L 2.800781 11.289062 C 1.648438 11.289062 0.710938 10.351562 0.710938 9.199219 L 0.710938 2.800781 C 0.710938 1.648438 1.648438 0.710938 2.800781 0.710938 Z M 2.800781 0.710938 "/>
<path style=" stroke:none;fill-rule:nonzero;fill:rgb(75.686275%,17.647059%,14.509804%);fill-opacity:1;" d="M 10.539062 6 C 10.539062 3.492188 8.507812 1.460938 6 1.460938 C 3.492188 1.460938 1.460938 3.492188 1.460938 6 C 1.460938 8.507812 3.492188 10.539062 6 10.539062 C 8.507812 10.539062 10.539062 8.507812 10.539062 6 Z M 10.539062 6 "/>
<path style=" stroke:none;fill-rule:nonzero;fill:rgb(100%,100%,100%);fill-opacity:1;" d="M 6 1.460938 C 5.664062 1.460938 5.339844 1.5 5.027344 1.566406 L 5.027344 3.652344 L 3.554688 2.175781 C 3 2.53125 2.53125 3 2.175781 3.554688 L 3.652344 5.027344 L 1.566406 5.027344 C 1.5 5.339844 1.460938 5.664062 1.460938 6 C 1.460938 6.335938 1.5 6.660156 1.566406 6.972656 L 3.652344 6.972656 L 2.175781 8.445312 C 2.53125 9 3 9.46875 3.554688 9.824219 L 5.027344 8.347656 L 5.027344 10.433594 C 5.339844 10.5 5.664062 10.539062 6 10.539062 C 6.335938 10.539062 6.660156 10.5 6.972656 10.433594 L 6.972656 8.347656 L 8.445312 9.824219 C 9 9.46875 9.46875 9 9.824219 8.445312 L 8.347656 6.972656 L 10.433594 6.972656 C 10.5 6.660156 10.539062 6.335938 10.539062 6 C 10.539062 5.664062 10.5 5.339844 10.433594 5.027344 L 8.347656 5.027344 L 9.824219 3.554688 C 9.46875 3 9 2.53125 8.445312 2.175781 L 6.972656 3.652344 L 6.972656 1.566406 C 6.660156 1.5 6.335938 1.460938 6 1.460938 Z M 6 1.460938 "/>
<path style=" stroke:none;fill-rule:nonzero;fill:rgb(100%,79.607843%,1.960784%);fill-opacity:1;" d="M 9.890625 6 C 9.890625 3.851562 8.148438 2.109375 6 2.109375 C 3.851562 2.109375 2.109375 3.851562 2.109375 6 C 2.109375 8.148438 3.851562 9.890625 6 9.890625 C 8.148438 9.890625 9.890625 8.148438 9.890625 6 Z M 9.890625 6 "/>
<path style=" stroke:none;fill-rule:nonzero;fill:rgb(75.686275%,17.647059%,14.509804%);fill-opacity:1;" d="M 9.242188 6 C 9.242188 4.210938 7.789062 2.757812 6 2.757812 C 4.210938 2.757812 2.757812 4.210938 2.757812 6 C 2.757812 7.789062 4.210938 9.242188 6 9.242188 C 7.789062 9.242188 9.242188 7.789062 9.242188 6 Z M 9.242188 6 "/>
<path style=" stroke:none;fill-rule:nonzero;fill:rgb(100%,98.823529%,96.862745%);fill-opacity:1;" d="M 4.378906 4.378906 L 5.027344 4.378906 L 5.027344 7.621094 L 4.378906 7.621094 Z M 4.378906 4.378906 "/>
<path style=" stroke:none;fill-rule:nonzero;fill:rgb(100%,98.823529%,96.862745%);fill-opacity:1;" d="M 5.675781 4.378906 L 5.675781 5.027344 L 3.730469 5.027344 L 3.730469 4.378906 Z M 5.675781 4.378906 "/>
<path style=" stroke:none;fill-rule:nonzero;fill:rgb(100%,98.823529%,96.862745%);fill-opacity:1;" d="M 6 4.378906 L 6.648438 4.378906 L 6.648438 7.621094 L 6 7.621094 Z M 6 4.378906 "/>
<path style=" stroke:none;fill-rule:nonzero;fill:rgb(100%,98.823529%,96.862745%);fill-opacity:1;" d="M 7.945312 5.675781 L 7.945312 6.324219 L 6 6.324219 L 6 5.675781 Z M 7.945312 5.675781 "/>
<path style=" stroke:none;fill-rule:nonzero;fill:rgb(100%,98.823529%,96.862745%);fill-opacity:1;" d="M 7.296875 4.378906 L 7.945312 4.378906 L 7.945312 7.621094 L 7.296875 7.621094 Z M 7.296875 4.378906 "/>
</g>
</svg>
