<?xml version="1.0" encoding="UTF-8"?>
<svg xmlns="http://www.w3.org/2000/svg" xmlns:xlink="http://www.w3.org/1999/xlink" width="12pt" height="12pt" viewBox="0 0 12 12" version="1.1">
<defs>
<clipPath id="clip1">
  <rect width="12" height="12"/>
</clipPath>
<g id="surface6" clip-path="url(#clip1)">
<path style=" stroke:none;fill-rule:nonzero;fill:rgb(49.411765%,49.411765%,49.411765%);fill-opacity:1;" d="M 4.289062 8.570312 C 3.875 8.570312 3.589844 8.617188 3.429688 8.707031 C 3.273438 8.800781 3.191406 8.957031 3.191406 9.179688 C 3.191406 9.355469 3.25 9.496094 3.371094 9.601562 C 3.492188 9.703125 3.652344 9.753906 3.859375 9.753906 C 4.140625 9.753906 4.367188 9.65625 4.539062 9.460938 C 4.710938 9.265625 4.796875 9.007812 4.796875 8.683594 L 4.796875 8.570312 L 4.289062 8.570312 M 5.308594 8.367188 L 5.308594 10.089844 L 4.796875 10.089844 L 4.796875 9.632812 C 4.679688 9.816406 4.535156 9.953125 4.359375 10.039062 C 4.1875 10.125 3.976562 10.167969 3.722656 10.167969 C 3.40625 10.167969 3.152344 10.082031 2.960938 9.910156 C 2.777344 9.734375 2.683594 9.503906 2.683594 9.210938 C 2.683594 8.871094 2.800781 8.613281 3.03125 8.441406 C 3.265625 8.269531 3.617188 8.183594 4.082031 8.183594 L 4.796875 8.183594 L 4.796875 8.132812 C 4.796875 7.90625 4.71875 7.730469 4.5625 7.605469 C 4.410156 7.480469 4.195312 7.417969 3.914062 7.417969 C 3.738281 7.417969 3.5625 7.4375 3.394531 7.476562 C 3.226562 7.519531 3.066406 7.582031 2.910156 7.664062 L 2.910156 7.207031 C 3.097656 7.136719 3.277344 7.082031 3.453125 7.050781 C 3.628906 7.011719 3.800781 6.996094 3.96875 6.996094 C 4.417969 6.996094 4.753906 7.109375 4.972656 7.335938 C 5.195312 7.5625 5.308594 7.90625 5.308594 8.367188 M 3.585938 5.667969 L 4.371094 6.679688 L 3.945312 6.679688 L 3.039062 5.671875 L 3.585938 5.671875 "/>
</g>
</defs>
<g id="surface1">
<path style=" stroke:none;fill-rule:evenodd;fill:rgb(60%,60%,60%);fill-opacity:1;" d="M 7.195312 6.863281 L 7.195312 11.289062 L 9.195312 11.289062 C 10.355469 11.289062 11.289062 10.355469 11.289062 9.195312 L 11.289062 6.863281 Z M 7.195312 6.863281 "/>
<path style=" stroke:none;fill-rule:evenodd;fill:rgb(60%,60%,60%);fill-opacity:1;" d="M 5.035156 0.710938 L 2.800781 0.710938 C 1.644531 0.710938 0.710938 1.644531 0.710938 2.800781 L 0.710938 4.777344 L 5.035156 4.777344 Z M 5.035156 0.710938 "/>
<path style=" stroke:none;fill-rule:evenodd;fill:rgb(76.078431%,76.078431%,76.078431%);fill-opacity:1;" d="M 5.035156 0.710938 L 5.035156 4.777344 L 7.195312 4.777344 L 7.195312 6.863281 L 11.289062 6.863281 L 11.289062 2.800781 C 11.289062 1.644531 10.355469 0.710938 9.195312 0.710938 Z M 5.035156 0.710938 "/>
<path style=" stroke:none;fill-rule:nonzero;fill:rgb(61.568627%,61.568627%,61.568627%);fill-opacity:1;" d="M 9.542969 4.132812 L 9.542969 4.371094 L 7.296875 4.371094 C 7.316406 4.707031 7.417969 4.964844 7.597656 5.144531 C 7.78125 5.316406 8.035156 5.40625 8.359375 5.40625 C 8.546875 5.40625 8.726562 5.382812 8.902344 5.335938 C 9.082031 5.289062 9.257812 5.222656 9.429688 5.128906 L 9.429688 5.589844 C 9.253906 5.664062 9.074219 5.722656 8.890625 5.761719 C 8.707031 5.800781 8.519531 5.820312 8.328125 5.820312 C 7.855469 5.820312 7.480469 5.683594 7.199219 5.40625 C 6.925781 5.128906 6.785156 4.753906 6.785156 4.285156 C 6.785156 3.796875 6.917969 3.410156 7.179688 3.125 C 7.441406 2.839844 7.796875 2.695312 8.246094 2.695312 C 8.644531 2.695312 8.960938 2.824219 9.191406 3.082031 C 9.425781 3.339844 9.542969 3.691406 9.542969 4.132812 M 9.054688 3.988281 C 9.050781 3.722656 8.976562 3.507812 8.828125 3.347656 C 8.683594 3.191406 8.492188 3.109375 8.25 3.109375 C 7.976562 3.109375 7.757812 3.1875 7.59375 3.339844 C 7.429688 3.496094 7.335938 3.710938 7.3125 3.992188 L 9.054688 3.988281 M 8.464844 1.621094 L 9.003906 1.621094 L 9.003906 2.15625 L 8.464844 2.15625 L 8.464844 1.621094 M 7.425781 1.621094 L 7.964844 1.621094 L 7.964844 2.15625 L 7.425781 2.15625 L 7.425781 1.621094 "/>
<path style=" stroke:none;fill-rule:evenodd;fill:rgb(82.745098%,82.745098%,82.745098%);fill-opacity:1;" d="M 7.195312 11.289062 L 7.195312 4.777344 L 0.710938 4.777344 L 0.710938 9.195312 C 0.710938 10.355469 1.644531 11.289062 2.800781 11.289062 Z M 7.195312 11.289062 "/>
<use xlink:href="#surface6"/>
</g>
</svg>
