<?xml version="1.0" encoding="UTF-8"?>
<svg xmlns="http://www.w3.org/2000/svg" xmlns:xlink="http://www.w3.org/1999/xlink" width="12pt" height="12pt" viewBox="0 0 12 12" version="1.1">
<g id="surface1">
<path style=" stroke:none;fill-rule:evenodd;fill:rgb(16.078431%,50.196078%,61.176471%);fill-opacity:1;" d="M 11.226562 9.507812 L 0.773438 9.507812 C 0.929688 10.511719 1.753906 11.289062 2.804688 11.289062 L 9.199219 11.289062 C 10.246094 11.289062 11.070312 10.511719 11.226562 9.507812 Z M 11.226562 9.507812 "/>
<path style=" stroke:none;fill-rule:evenodd;fill:rgb(29.019608%,70.196078%,89.411765%);fill-opacity:1;" d="M 2.804688 0.710938 C 1.644531 0.710938 0.710938 1.644531 0.710938 2.804688 L 0.710938 9.199219 C 0.710938 9.308594 0.757812 9.402344 0.773438 9.507812 L 11.226562 9.507812 C 11.242188 9.402344 11.289062 9.308594 11.289062 9.199219 L 11.289062 2.804688 C 11.289062 1.644531 10.355469 0.710938 9.199219 0.710938 Z M 2.804688 0.710938 "/>
<path style=" stroke:none;fill-rule:nonzero;fill:rgb(100%,100%,100%);fill-opacity:1;" d="M 5.0625 6.003906 L 5.0625 8.003906 C 5.0625 8.140625 5.1875 8.253906 5.34375 8.253906 L 9.28125 8.253906 C 9.4375 8.253906 9.5625 8.140625 9.5625 8.003906 L 9.5625 6.003906 Z M 5.0625 6.003906 "/>
<path style=" stroke:none;fill-rule:nonzero;fill:rgb(30.980392%,30.980392%,30.980392%);fill-opacity:1;" d="M 5.34375 5.253906 L 9.28125 5.253906 C 9.4375 5.253906 9.5625 5.363281 9.5625 5.503906 L 9.5625 6.003906 L 5.0625 6.003906 L 5.0625 5.503906 C 5.0625 5.363281 5.1875 5.253906 5.34375 5.253906 Z M 5.34375 5.253906 "/>
<path style=" stroke:none;fill-rule:nonzero;fill:rgb(100%,100%,100%);fill-opacity:1;" d="M 2.578125 2.628906 L 3.421875 2.628906 C 3.5 2.628906 3.5625 2.691406 3.5625 2.769531 L 3.5625 3.613281 C 3.5625 3.691406 3.5 3.753906 3.421875 3.753906 L 2.578125 3.753906 C 2.5 3.753906 2.4375 3.691406 2.4375 3.613281 L 2.4375 2.769531 C 2.4375 2.691406 2.5 2.628906 2.578125 2.628906 Z M 2.578125 2.628906 "/>
<path style=" stroke:none;fill-rule:nonzero;fill:rgb(100%,100%,100%);fill-opacity:1;" d="M 2.578125 4.128906 L 3.421875 4.128906 C 3.5 4.128906 3.5625 4.191406 3.5625 4.269531 L 3.5625 5.113281 C 3.5625 5.191406 3.5 5.253906 3.421875 5.253906 L 2.578125 5.253906 C 2.5 5.253906 2.4375 5.191406 2.4375 5.113281 L 2.4375 4.269531 C 2.4375 4.191406 2.5 4.128906 2.578125 4.128906 Z M 2.578125 4.128906 "/>
<path style=" stroke:none;fill-rule:nonzero;fill:rgb(100%,100%,100%);fill-opacity:1;" d="M 2.578125 5.628906 L 3.421875 5.628906 C 3.5 5.628906 3.5625 5.691406 3.5625 5.769531 L 3.5625 6.613281 C 3.5625 6.691406 3.5 6.753906 3.421875 6.753906 L 2.578125 6.753906 C 2.5 6.753906 2.4375 6.691406 2.4375 6.613281 L 2.4375 5.769531 C 2.4375 5.691406 2.5 5.628906 2.578125 5.628906 Z M 2.578125 5.628906 "/>
<path style=" stroke:none;fill-rule:nonzero;fill:rgb(100%,100%,100%);fill-opacity:1;" d="M 2.578125 7.128906 L 3.421875 7.128906 C 3.5 7.128906 3.5625 7.191406 3.5625 7.269531 L 3.5625 8.113281 C 3.5625 8.191406 3.5 8.253906 3.421875 8.253906 L 2.578125 8.253906 C 2.5 8.253906 2.4375 8.191406 2.4375 8.113281 L 2.4375 7.269531 C 2.4375 7.191406 2.5 7.128906 2.578125 7.128906 Z M 2.578125 7.128906 "/>
</g>
</svg>
