<?xml version="1.0" encoding="UTF-8"?>
<svg xmlns="http://www.w3.org/2000/svg" xmlns:xlink="http://www.w3.org/1999/xlink" width="12pt" height="12pt" viewBox="0 0 12 12" version="1.1">
<g id="surface1">
<path style=" stroke:none;fill-rule:evenodd;fill:rgb(37.254902%,48.627451%,54.117647%);fill-opacity:1;" d="M 2.800781 0.710938 L 9.199219 0.710938 C 10.351562 0.710938 11.289062 1.648438 11.289062 2.800781 L 11.289062 9.199219 C 11.289062 10.351562 10.351562 11.289062 9.199219 11.289062 L 2.800781 11.289062 C 1.648438 11.289062 0.710938 10.351562 0.710938 9.199219 L 0.710938 2.800781 C 0.710938 1.648438 1.648438 0.710938 2.800781 0.710938 Z M 2.800781 0.710938 "/>
<path style=" stroke:none;fill-rule:nonzero;fill:rgb(100%,100%,100%);fill-opacity:1;" d="M 5.265625 2.421875 C 5.191406 2.429688 5.125 2.492188 5.109375 2.566406 L 4.960938 3.332031 C 4.6875 3.4375 4.433594 3.585938 4.210938 3.765625 L 3.46875 3.511719 C 3.390625 3.484375 3.296875 3.519531 3.253906 3.589844 L 2.539062 4.832031 C 2.5 4.902344 2.515625 5 2.578125 5.054688 L 3.171875 5.574219 C 3.148438 5.714844 3.136719 5.855469 3.136719 6 C 3.136719 6.144531 3.148438 6.285156 3.171875 6.425781 L 2.578125 6.945312 C 2.515625 7 2.5 7.097656 2.539062 7.167969 L 3.253906 8.410156 C 3.296875 8.480469 3.390625 8.515625 3.46875 8.488281 L 4.210938 8.238281 C 4.433594 8.414062 4.6875 8.5625 4.960938 8.667969 L 5.109375 9.433594 C 5.125 9.511719 5.203125 9.578125 5.285156 9.578125 L 6.714844 9.578125 C 6.796875 9.578125 6.875 9.511719 6.890625 9.433594 L 7.039062 8.667969 C 7.3125 8.5625 7.566406 8.414062 7.789062 8.238281 L 8.53125 8.488281 C 8.609375 8.515625 8.703125 8.480469 8.746094 8.410156 L 9.460938 7.167969 C 9.5 7.097656 9.484375 7 9.421875 6.945312 L 8.828125 6.425781 C 8.851562 6.285156 8.863281 6.144531 8.863281 6 C 8.863281 5.855469 8.851562 5.714844 8.828125 5.574219 L 9.421875 5.054688 C 9.484375 5 9.5 4.902344 9.460938 4.832031 L 8.746094 3.589844 C 8.703125 3.519531 8.609375 3.484375 8.53125 3.511719 L 7.789062 3.765625 C 7.566406 3.585938 7.3125 3.4375 7.039062 3.332031 L 6.890625 2.566406 C 6.875 2.488281 6.796875 2.421875 6.714844 2.421875 L 5.285156 2.421875 C 5.277344 2.421875 5.273438 2.421875 5.269531 2.421875 Z M 5.265625 2.421875 "/>
<path style=" stroke:none;fill-rule:nonzero;fill:rgb(37.254902%,48.627451%,54.117647%);fill-opacity:1;" d="M 6 4.464844 C 6.847656 4.464844 7.535156 5.152344 7.535156 6 C 7.535156 6.847656 6.847656 7.535156 6 7.535156 C 5.152344 7.535156 4.464844 6.847656 4.464844 6 C 4.464844 5.152344 5.152344 4.464844 6 4.464844 Z M 6 4.464844 "/>
</g>
</svg>
