<?xml version="1.0" encoding="UTF-8"?>
<svg xmlns="http://www.w3.org/2000/svg" xmlns:xlink="http://www.w3.org/1999/xlink" width="12pt" height="12pt" viewBox="0 0 12 12" version="1.1">
<g id="surface1">
<path style=" stroke:none;fill-rule:evenodd;fill:rgb(76.078431%,20.784314%,16.470588%);fill-opacity:1;" d="M 2.800781 0.710938 L 9.199219 0.710938 C 10.351562 0.710938 11.289062 1.648438 11.289062 2.800781 L 11.289062 9.199219 C 11.289062 10.351562 10.351562 11.289062 9.199219 11.289062 L 2.800781 11.289062 C 1.648438 11.289062 0.710938 10.351562 0.710938 9.199219 L 0.710938 2.800781 C 0.710938 1.648438 1.648438 0.710938 2.800781 0.710938 Z M 2.800781 0.710938 "/>
<path style=" stroke:none;fill-rule:nonzero;fill:rgb(99.607843%,96.862745%,75.294118%);fill-opacity:1;" d="M 2.085938 2.085938 L 2.085938 4.695312 L 4.695312 4.695312 L 4.695312 2.085938 Z M 5.347656 2.085938 L 5.347656 3.390625 L 6 3.390625 L 6 2.738281 L 6.652344 2.738281 L 6.652344 2.085938 Z M 6 3.390625 L 6 4.695312 L 6.652344 4.695312 L 6.652344 3.390625 Z M 6 4.695312 L 5.347656 4.695312 L 5.347656 5.347656 L 6 5.347656 Z M 6 5.347656 L 6 6 L 6.652344 6 L 6.652344 5.347656 Z M 6.652344 6 L 6.652344 6.652344 L 7.957031 6.652344 L 7.957031 5.347656 L 7.304688 5.347656 L 7.304688 6 Z M 7.957031 6.652344 L 7.957031 7.304688 L 8.609375 7.304688 L 8.609375 7.957031 L 9.261719 7.957031 L 9.261719 6.652344 Z M 9.261719 6.652344 L 9.914062 6.652344 L 9.914062 5.347656 L 8.609375 5.347656 L 8.609375 6 L 9.261719 6 Z M 7.957031 7.304688 L 7.304688 7.304688 L 7.304688 7.957031 L 7.957031 7.957031 Z M 7.304688 7.957031 L 6.652344 7.957031 L 6.652344 8.609375 L 7.304688 8.609375 Z M 7.304688 8.609375 L 7.304688 9.261719 L 7.957031 9.261719 L 7.957031 8.609375 Z M 7.957031 9.261719 L 7.957031 9.914062 L 8.609375 9.914062 L 8.609375 9.261719 Z M 8.609375 9.261719 L 9.914062 9.261719 L 9.914062 8.609375 L 8.609375 8.609375 Z M 6.652344 8.609375 L 5.347656 8.609375 L 5.347656 9.261719 L 6 9.261719 L 6 9.914062 L 6.652344 9.914062 Z M 6.652344 7.957031 L 6.652344 6.652344 L 5.347656 6.652344 L 5.347656 7.304688 L 6 7.304688 L 6 7.957031 Z M 5.347656 6.652344 L 5.347656 5.347656 L 4.695312 5.347656 L 4.695312 6 L 4.042969 6 L 4.042969 6.652344 Z M 4.042969 6 L 4.042969 5.347656 L 2.085938 5.347656 L 2.085938 6.652344 L 3.390625 6.652344 L 3.390625 6 Z M 7.304688 2.085938 L 7.304688 4.695312 L 9.914062 4.695312 L 9.914062 2.085938 Z M 2.738281 2.738281 L 4.042969 2.738281 L 4.042969 4.042969 L 2.738281 4.042969 Z M 7.957031 2.738281 L 9.261719 2.738281 L 9.261719 4.042969 L 7.957031 4.042969 Z M 3.066406 3.066406 L 3.066406 3.71875 L 3.71875 3.71875 L 3.71875 3.066406 Z M 8.28125 3.066406 L 8.28125 3.71875 L 8.933594 3.71875 L 8.933594 3.066406 Z M 2.085938 7.304688 L 2.085938 9.914062 L 4.695312 9.914062 L 4.695312 7.304688 Z M 2.738281 7.957031 L 4.042969 7.957031 L 4.042969 9.261719 L 2.738281 9.261719 Z M 3.066406 8.28125 L 3.066406 8.933594 L 3.71875 8.933594 L 3.71875 8.28125 Z M 3.066406 8.28125 "/>
</g>
</svg>
