<?xml version="1.0" encoding="UTF-8"?>
<svg xmlns="http://www.w3.org/2000/svg" xmlns:xlink="http://www.w3.org/1999/xlink" width="12pt" height="12pt" viewBox="0 0 12 12" version="1.1">
<defs>
<clipPath id="clip1">
  <rect width="12" height="12"/>
</clipPath>
<g id="surface6" clip-path="url(#clip1)">
<path style=" stroke:none;fill-rule:nonzero;fill:rgb(33.333333%,80%,59.607843%);fill-opacity:1;" d="M 10.683594 8.308594 C 10.683594 9.550781 9.675781 10.558594 8.433594 10.558594 C 7.191406 10.558594 6.183594 9.550781 6.183594 8.308594 C 6.183594 7.066406 7.191406 6.058594 8.433594 6.058594 C 9.675781 6.058594 10.683594 7.066406 10.683594 8.308594 Z M 10.683594 8.308594 "/>
</g>
<clipPath id="clip2">
  <rect width="12" height="12"/>
</clipPath>
<g id="surface9" clip-path="url(#clip2)">
<path style=" stroke:none;fill-rule:nonzero;fill:rgb(100%,100%,100%);fill-opacity:1;" d="M 8.148438 7.183594 L 8.125 7.480469 C 8.03125 7.515625 7.941406 7.5625 7.863281 7.628906 L 7.59375 7.5 L 7.308594 7.988281 L 7.554688 8.160156 C 7.546875 8.207031 7.542969 8.257812 7.542969 8.308594 C 7.542969 8.359375 7.546875 8.40625 7.554688 8.457031 L 7.308594 8.625 L 7.59375 9.113281 L 7.863281 8.988281 C 7.941406 9.050781 8.03125 9.101562 8.125 9.136719 L 8.148438 9.433594 L 8.71875 9.433594 L 8.742188 9.136719 C 8.835938 9.101562 8.925781 9.050781 9.003906 8.988281 L 9.273438 9.113281 L 9.558594 8.625 L 9.3125 8.457031 C 9.320312 8.40625 9.324219 8.359375 9.324219 8.308594 C 9.324219 8.257812 9.320312 8.207031 9.3125 8.15625 L 9.558594 7.988281 L 9.273438 7.5 L 9.003906 7.628906 C 8.925781 7.5625 8.835938 7.515625 8.742188 7.480469 L 8.71875 7.183594 Z M 8.433594 7.984375 C 8.613281 7.984375 8.757812 8.128906 8.757812 8.308594 C 8.757812 8.484375 8.613281 8.628906 8.433594 8.628906 C 8.253906 8.628906 8.109375 8.484375 8.109375 8.308594 C 8.109375 8.128906 8.253906 7.984375 8.433594 7.984375 Z M 8.433594 7.984375 "/>
</g>
</defs>
<g id="surface1">
<path style=" stroke:none;fill-rule:evenodd;fill:rgb(76.862745%,76.862745%,76.862745%);fill-opacity:1;" d="M 2.800781 0.710938 L 9.199219 0.710938 C 10.351562 0.710938 11.289062 1.648438 11.289062 2.800781 L 11.289062 9.199219 C 11.289062 10.351562 10.351562 11.289062 9.199219 11.289062 L 2.800781 11.289062 C 1.648438 11.289062 0.710938 10.351562 0.710938 9.199219 L 0.710938 2.800781 C 0.710938 1.648438 1.648438 0.710938 2.800781 0.710938 Z M 2.800781 0.710938 "/>
<path style=" stroke:none;fill-rule:nonzero;fill:rgb(24.705882%,24.705882%,24.705882%);fill-opacity:1;" d="M 9.375 6 C 9.375 7.863281 7.863281 9.375 6 9.375 C 4.136719 9.375 2.625 7.863281 2.625 6 C 2.625 4.136719 4.136719 2.625 6 2.625 C 7.863281 2.625 9.375 4.136719 9.375 6 Z M 9.375 6 "/>
<path style=" stroke:none;fill-rule:nonzero;fill:rgb(72.941176%,9.019608%,30.588235%);fill-opacity:1;" d="M 8.625 6 C 8.625 4.550781 7.449219 3.375 6 3.375 C 4.550781 3.375 3.375 4.550781 3.375 6 C 3.375 7.449219 4.550781 8.625 6 8.625 C 7.449219 8.625 8.625 7.449219 8.625 6 Z M 8.625 6 "/>
<path style=" stroke:none;fill-rule:nonzero;fill:rgb(83.921569%,45.490196%,58.431373%);fill-opacity:1;" d="M 7.5 6 C 7.5 6.828125 6.828125 7.5 6 7.5 C 5.171875 7.5 4.5 6.828125 4.5 6 C 4.5 5.171875 5.171875 4.5 6 4.5 C 6.828125 4.5 7.5 5.171875 7.5 6 Z M 7.5 6 "/>
<use xlink:href="#surface6"/>
<use xlink:href="#surface9"/>
</g>
</svg>
