<?xml version="1.0" encoding="UTF-8"?>
<svg xmlns="http://www.w3.org/2000/svg" xmlns:xlink="http://www.w3.org/1999/xlink" width="12pt" height="12pt" viewBox="0 0 12 12" version="1.1">
<g id="surface1">
<path style=" stroke:none;fill-rule:evenodd;fill:rgb(0%,49.411765%,100%);fill-opacity:1;" d="M 2.800781 0.710938 L 9.199219 0.710938 C 10.351562 0.710938 11.289062 1.648438 11.289062 2.800781 L 11.289062 9.199219 C 11.289062 10.351562 10.351562 11.289062 9.199219 11.289062 L 2.800781 11.289062 C 1.648438 11.289062 0.710938 10.351562 0.710938 9.199219 L 0.710938 2.800781 C 0.710938 1.648438 1.648438 0.710938 2.800781 0.710938 Z M 2.800781 0.710938 "/>
<path style=" stroke:none;fill-rule:nonzero;fill:rgb(100%,100%,100%);fill-opacity:1;" d="M 5.890625 10.191406 C 5.835938 10.152344 5.761719 10.097656 5.726562 10.074219 L 5.660156 10.027344 L 5.660156 9.472656 C 5.660156 9.167969 5.65625 8.917969 5.648438 8.914062 C 5.636719 8.90625 5.640625 8.902344 5.292969 9.113281 L 5.046875 9.261719 L 4.902344 9.167969 L 4.761719 9.074219 L 4.761719 8.664062 L 4.90625 8.582031 C 4.988281 8.535156 5.113281 8.464844 5.1875 8.421875 C 5.363281 8.320312 5.382812 8.308594 5.535156 8.222656 L 5.660156 8.152344 L 5.660156 7.785156 C 5.660156 7.527344 5.65625 7.417969 5.644531 7.417969 C 5.636719 7.417969 5.558594 7.460938 5.472656 7.515625 C 5.382812 7.570312 5.289062 7.628906 5.257812 7.644531 C 5.226562 7.664062 5.148438 7.710938 5.082031 7.753906 L 4.957031 7.824219 L 4.953125 7.457031 C 4.953125 7.25 4.945312 7.078125 4.9375 7.074219 C 4.929688 7.066406 4.90625 7.070312 4.878906 7.085938 C 4.855469 7.101562 4.699219 7.183594 4.53125 7.269531 L 4.226562 7.421875 L 4.222656 7.960938 L 4.222656 8.5 L 4.085938 8.597656 C 4.007812 8.652344 3.945312 8.699219 3.9375 8.699219 C 3.933594 8.699219 3.875 8.660156 3.8125 8.609375 L 3.695312 8.515625 L 3.695312 8.164062 C 3.695312 7.949219 3.691406 7.8125 3.683594 7.8125 C 3.675781 7.8125 3.613281 7.847656 3.542969 7.886719 C 3.472656 7.925781 3.308594 8.019531 3.179688 8.09375 C 2.863281 8.269531 2.839844 8.28125 2.769531 8.320312 L 2.710938 8.355469 L 2.640625 8.332031 C 2.601562 8.316406 2.503906 8.277344 2.421875 8.246094 L 2.269531 8.183594 L 2.265625 7.964844 L 2.265625 7.746094 L 2.300781 7.722656 C 2.324219 7.707031 2.375 7.675781 2.414062 7.652344 C 2.457031 7.628906 2.558594 7.574219 2.640625 7.527344 C 2.722656 7.480469 2.8125 7.425781 2.84375 7.410156 C 2.890625 7.382812 3.101562 7.265625 3.210938 7.199219 C 3.234375 7.1875 3.253906 7.171875 3.253906 7.164062 C 3.257812 7.15625 3.140625 7.097656 2.996094 7.03125 C 2.855469 6.960938 2.710938 6.894531 2.679688 6.878906 L 2.625 6.847656 L 2.625 6.433594 L 2.808594 6.332031 C 2.914062 6.273438 3 6.234375 3.011719 6.238281 C 3.03125 6.246094 3.273438 6.390625 3.660156 6.621094 C 3.75 6.675781 3.851562 6.730469 3.882812 6.75 L 3.9375 6.78125 L 4.246094 6.597656 C 4.414062 6.496094 4.554688 6.410156 4.554688 6.40625 C 4.554688 6.398438 4.308594 6.25 4.039062 6.097656 C 3.972656 6.058594 3.914062 6.019531 3.914062 6.015625 C 3.914062 6.011719 3.957031 5.980469 4.011719 5.949219 C 4.066406 5.914062 4.164062 5.855469 4.226562 5.816406 C 4.292969 5.777344 4.382812 5.71875 4.429688 5.691406 C 4.480469 5.660156 4.519531 5.628906 4.523438 5.625 C 4.527344 5.609375 4.480469 5.578125 4.171875 5.40625 C 4.0625 5.34375 3.957031 5.285156 3.941406 5.273438 C 3.90625 5.25 3.890625 5.253906 3.695312 5.371094 C 3.664062 5.394531 3.578125 5.441406 3.503906 5.484375 C 3.433594 5.527344 3.289062 5.609375 3.1875 5.671875 C 3.082031 5.730469 2.988281 5.78125 2.980469 5.78125 C 2.96875 5.78125 2.886719 5.746094 2.789062 5.699219 L 2.617188 5.617188 L 2.625 5.21875 L 2.6875 5.179688 C 2.722656 5.160156 2.777344 5.128906 2.8125 5.109375 C 3.148438 4.921875 3.246094 4.863281 3.242188 4.851562 C 3.242188 4.84375 3.183594 4.808594 3.117188 4.773438 C 3.050781 4.738281 2.949219 4.6875 2.898438 4.65625 C 2.847656 4.628906 2.753906 4.578125 2.695312 4.546875 C 2.632812 4.515625 2.515625 4.449219 2.429688 4.402344 L 2.269531 4.316406 L 2.269531 3.867188 L 2.480469 3.773438 L 2.6875 3.679688 L 2.757812 3.71875 C 2.796875 3.738281 2.96875 3.832031 3.136719 3.925781 C 3.546875 4.152344 3.664062 4.214844 3.679688 4.214844 C 3.691406 4.214844 3.695312 4.109375 3.695312 3.867188 L 3.695312 3.523438 L 3.734375 3.488281 C 3.753906 3.46875 3.8125 3.421875 3.863281 3.382812 L 3.957031 3.3125 L 4.007812 3.34375 C 4.035156 3.359375 4.113281 3.40625 4.179688 3.449219 L 4.300781 3.523438 L 4.289062 4.070312 L 4.28125 4.617188 L 4.332031 4.644531 C 4.410156 4.6875 4.652344 4.828125 4.800781 4.914062 C 4.871094 4.953125 4.933594 4.984375 4.941406 4.980469 C 4.945312 4.980469 4.949219 4.808594 4.949219 4.601562 C 4.949219 4.25 4.953125 4.226562 4.972656 4.234375 C 4.988281 4.238281 5.113281 4.304688 5.257812 4.382812 C 5.5625 4.550781 5.625 4.582031 5.644531 4.582031 C 5.65625 4.582031 5.660156 4.460938 5.660156 4.214844 L 5.660156 3.847656 L 5.53125 3.777344 C 5.464844 3.738281 5.386719 3.695312 5.367188 3.683594 C 5.34375 3.667969 5.261719 3.621094 5.183594 3.574219 C 5.101562 3.53125 4.976562 3.457031 4.898438 3.414062 L 4.757812 3.335938 L 4.757812 2.925781 L 4.902344 2.832031 L 5.046875 2.742188 L 5.289062 2.886719 C 5.640625 3.097656 5.636719 3.09375 5.648438 3.085938 C 5.652344 3.085938 5.660156 2.832031 5.660156 2.527344 L 5.660156 1.972656 L 5.726562 1.925781 C 5.761719 1.902344 5.835938 1.847656 5.894531 1.808594 L 6 1.734375 L 6.171875 1.851562 L 6.339844 1.972656 L 6.339844 2.527344 C 6.339844 2.832031 6.347656 3.085938 6.351562 3.089844 C 6.359375 3.09375 6.398438 3.078125 6.4375 3.058594 C 6.476562 3.035156 6.585938 2.980469 6.675781 2.933594 C 6.765625 2.886719 6.882812 2.824219 6.9375 2.792969 L 7.035156 2.738281 L 7.410156 2.941406 L 7.414062 3.128906 L 7.417969 3.3125 L 6.339844 3.851562 L 6.339844 4.214844 C 6.339844 4.476562 6.34375 4.582031 6.355469 4.582031 C 6.363281 4.582031 6.453125 4.535156 6.558594 4.476562 C 6.660156 4.421875 6.777344 4.355469 6.816406 4.332031 C 6.859375 4.308594 6.925781 4.269531 6.96875 4.246094 L 7.042969 4.203125 L 7.046875 4.582031 C 7.046875 4.789062 7.054688 4.964844 7.054688 4.976562 C 7.0625 4.988281 7.167969 4.941406 7.417969 4.8125 L 7.773438 4.628906 L 7.773438 3.46875 L 7.898438 3.390625 L 8.027344 3.316406 L 8.164062 3.390625 L 8.304688 3.464844 L 8.304688 3.832031 C 8.304688 4.089844 8.308594 4.199219 8.320312 4.199219 C 8.332031 4.199219 8.660156 4.03125 8.691406 4.011719 C 8.699219 4.003906 8.765625 3.96875 8.835938 3.929688 C 8.90625 3.894531 9.019531 3.835938 9.089844 3.796875 C 9.15625 3.761719 9.238281 3.71875 9.277344 3.699219 L 9.339844 3.660156 L 9.414062 3.703125 C 9.453125 3.722656 9.539062 3.773438 9.609375 3.816406 L 9.734375 3.890625 L 9.734375 4.09375 L 9.730469 4.300781 L 9.632812 4.355469 C 9.582031 4.382812 9.519531 4.417969 9.496094 4.433594 C 9.472656 4.445312 9.386719 4.492188 9.304688 4.542969 C 9.222656 4.589844 9.125 4.644531 9.089844 4.664062 C 9.050781 4.6875 8.964844 4.738281 8.894531 4.777344 C 8.824219 4.8125 8.769531 4.851562 8.769531 4.855469 C 8.769531 4.859375 8.84375 4.90625 8.941406 4.957031 C 9.035156 5.007812 9.152344 5.074219 9.203125 5.105469 C 9.25 5.132812 9.3125 5.164062 9.335938 5.175781 L 9.382812 5.195312 L 9.382812 5.601562 L 9.242188 5.671875 C 9.164062 5.710938 9.089844 5.75 9.078125 5.761719 C 9.058594 5.773438 9.046875 5.769531 9.015625 5.753906 C 8.996094 5.738281 8.925781 5.699219 8.863281 5.664062 C 8.800781 5.625 8.65625 5.542969 8.542969 5.476562 C 8.09375 5.210938 8.105469 5.21875 8.070312 5.238281 C 8.039062 5.253906 7.796875 5.410156 7.570312 5.5625 C 7.441406 5.648438 7.425781 5.621094 7.691406 5.789062 C 8.019531 5.996094 8.074219 6.03125 8.0625 6.042969 C 8.058594 6.046875 7.949219 6.113281 7.820312 6.183594 C 7.480469 6.378906 7.429688 6.410156 7.441406 6.421875 C 7.445312 6.429688 7.597656 6.507812 7.777344 6.601562 L 8.097656 6.765625 L 8.257812 6.679688 C 8.347656 6.628906 8.507812 6.542969 8.617188 6.480469 C 8.726562 6.421875 8.867188 6.34375 8.933594 6.308594 L 9.054688 6.246094 L 9.21875 6.347656 L 9.382812 6.453125 L 9.382812 6.832031 L 9.324219 6.863281 C 9.292969 6.882812 9.164062 6.953125 9.035156 7.023438 C 8.910156 7.09375 8.8125 7.160156 8.8125 7.164062 C 8.816406 7.179688 9.070312 7.339844 9.414062 7.542969 C 9.503906 7.597656 9.613281 7.664062 9.65625 7.695312 L 9.734375 7.746094 L 9.734375 8.164062 L 9.628906 8.210938 C 9.570312 8.234375 9.476562 8.273438 9.414062 8.300781 C 9.355469 8.328125 9.296875 8.347656 9.285156 8.347656 C 9.269531 8.351562 8.515625 7.945312 8.367188 7.851562 C 8.34375 7.839844 8.320312 7.828125 8.3125 7.828125 C 8.308594 7.828125 8.304688 7.984375 8.304688 8.179688 L 8.304688 8.53125 L 8.179688 8.625 C 8.039062 8.730469 8.058594 8.730469 7.886719 8.613281 L 7.773438 8.535156 L 7.769531 7.992188 L 7.765625 7.453125 L 7.730469 7.4375 C 7.710938 7.425781 7.601562 7.367188 7.484375 7.304688 C 7.109375 7.101562 7.066406 7.078125 7.058594 7.085938 C 7.054688 7.089844 7.050781 7.253906 7.050781 7.449219 L 7.050781 7.804688 L 7.015625 7.78125 C 7 7.769531 6.953125 7.742188 6.910156 7.71875 C 6.871094 7.699219 6.8125 7.667969 6.785156 7.648438 C 6.546875 7.515625 6.367188 7.417969 6.355469 7.417969 C 6.34375 7.417969 6.339844 7.523438 6.339844 7.785156 L 6.339844 8.152344 L 6.46875 8.222656 C 6.617188 8.308594 6.632812 8.316406 6.808594 8.417969 C 6.882812 8.460938 7 8.53125 7.074219 8.570312 C 7.148438 8.613281 7.214844 8.652344 7.222656 8.660156 C 7.238281 8.671875 7.242188 8.730469 7.238281 8.894531 L 7.234375 9.113281 L 6.953125 9.261719 L 6.65625 9.082031 C 6.496094 8.984375 6.359375 8.910156 6.351562 8.914062 C 6.34375 8.917969 6.339844 9.167969 6.339844 9.472656 L 6.339844 10.027344 L 6.277344 10.074219 C 6.046875 10.234375 6 10.265625 5.996094 10.265625 C 5.996094 10.265625 5.945312 10.230469 5.890625 10.191406 Z M 6.421875 6.402344 C 6.457031 6.335938 6.515625 6.222656 6.554688 6.148438 L 6.625 6.019531 L 6.511719 5.800781 C 6.449219 5.683594 6.382812 5.558594 6.367188 5.527344 L 6.335938 5.46875 L 6.039062 5.464844 C 5.878906 5.464844 5.734375 5.464844 5.722656 5.464844 C 5.710938 5.46875 5.6875 5.496094 5.667969 5.527344 C 5.648438 5.558594 5.582031 5.675781 5.519531 5.789062 C 5.453125 5.902344 5.402344 6.003906 5.402344 6.015625 C 5.402344 6.027344 5.550781 6.277344 5.6875 6.480469 L 5.71875 6.53125 L 6.039062 6.527344 L 6.355469 6.523438 Z M 6.421875 6.402344 "/>
</g>
</svg>
