<?xml version="1.0" encoding="UTF-8"?>
<svg xmlns="http://www.w3.org/2000/svg" xmlns:xlink="http://www.w3.org/1999/xlink" width="12pt" height="12pt" viewBox="0 0 12 12" version="1.1">
<g id="surface1">
<path style=" stroke:none;fill-rule:evenodd;fill:rgb(100%,28.235294%,28.235294%);fill-opacity:1;" d="M 2.800781 0.710938 L 9.199219 0.710938 C 10.351562 0.710938 11.289062 1.648438 11.289062 2.800781 L 11.289062 9.199219 C 11.289062 10.351562 10.351562 11.289062 9.199219 11.289062 L 2.800781 11.289062 C 1.648438 11.289062 0.710938 10.351562 0.710938 9.199219 L 0.710938 2.800781 C 0.710938 1.648438 1.648438 0.710938 2.800781 0.710938 Z M 2.800781 0.710938 "/>
<path style=" stroke:none;fill-rule:nonzero;fill:rgb(100%,100%,100%);fill-opacity:1;" d="M 3.628906 0.707031 C 3.652344 0.785156 3.6875 0.921875 3.6875 0.921875 L 3.753906 1.117188 L 3.75 1.117188 L 3.753906 1.132812 C 3.769531 1.183594 3.785156 1.234375 3.792969 1.289062 C 3.804688 1.339844 3.8125 1.398438 3.820312 1.449219 C 3.824219 1.503906 3.824219 1.558594 3.824219 1.613281 C 3.824219 1.667969 3.820312 1.71875 3.8125 1.773438 C 3.808594 1.824219 3.796875 1.878906 3.785156 1.929688 C 3.773438 1.980469 3.757812 2.03125 3.742188 2.082031 C 3.722656 2.128906 3.703125 2.175781 3.683594 2.222656 C 3.660156 2.269531 3.632812 2.3125 3.605469 2.351562 L 3.609375 2.351562 C 3.578125 2.394531 3.550781 2.4375 3.527344 2.484375 C 3.5 2.527344 3.480469 2.574219 3.460938 2.625 C 3.441406 2.671875 3.421875 2.71875 3.40625 2.769531 C 3.394531 2.820312 3.382812 2.871094 3.375 2.921875 C 3.363281 2.972656 3.359375 3.027344 3.355469 3.082031 C 3.351562 3.132812 3.351562 3.183594 3.355469 3.238281 C 3.359375 3.292969 3.367188 3.347656 3.378906 3.402344 C 3.390625 3.453125 3.402344 3.507812 3.417969 3.558594 C 3.433594 3.605469 3.449219 3.648438 3.46875 3.6875 C 3.484375 3.730469 3.503906 3.769531 3.527344 3.808594 C 3.570312 3.886719 3.621094 3.960938 3.675781 4.023438 C 3.734375 4.089844 3.796875 4.152344 3.863281 4.203125 C 3.929688 4.257812 4 4.304688 4.078125 4.339844 C 4.152344 4.378906 4.234375 4.410156 4.316406 4.433594 C 4.394531 4.460938 4.480469 4.476562 4.566406 4.484375 C 4.652344 4.492188 4.738281 4.488281 4.824219 4.480469 C 4.867188 4.476562 4.910156 4.46875 4.957031 4.457031 C 5 4.449219 5.042969 4.433594 5.085938 4.421875 C 5.128906 4.40625 5.171875 4.390625 5.214844 4.375 C 5.253906 4.355469 5.292969 4.332031 5.332031 4.3125 C 5.40625 4.265625 5.480469 4.214844 5.542969 4.160156 C 5.609375 4.101562 5.667969 4.039062 5.71875 3.96875 C 5.773438 3.902344 5.816406 3.828125 5.855469 3.753906 C 5.894531 3.675781 5.925781 3.597656 5.949219 3.511719 C 5.972656 3.429688 5.988281 3.34375 5.996094 3.257812 C 6.003906 3.167969 6 3.082031 5.992188 2.992188 C 5.988281 2.949219 5.980469 2.902344 5.96875 2.859375 C 5.960938 2.816406 5.949219 2.769531 5.933594 2.726562 C 5.917969 2.671875 5.894531 2.621094 5.875 2.570312 C 5.851562 2.523438 5.824219 2.476562 5.796875 2.429688 C 5.769531 2.386719 5.738281 2.339844 5.707031 2.300781 C 5.675781 2.257812 5.640625 2.21875 5.601562 2.183594 C 5.566406 2.148438 5.527344 2.113281 5.484375 2.082031 C 5.445312 2.050781 5.402344 2.019531 5.359375 1.992188 C 5.3125 1.964844 5.269531 1.941406 5.222656 1.921875 C 5.175781 1.898438 5.125 1.882812 5.078125 1.863281 L 5.085938 1.863281 C 5.039062 1.84375 4.992188 1.828125 4.949219 1.804688 C 4.902344 1.78125 4.859375 1.753906 4.816406 1.726562 C 4.773438 1.695312 4.730469 1.664062 4.691406 1.628906 C 4.652344 1.59375 4.613281 1.558594 4.578125 1.519531 C 4.539062 1.480469 4.507812 1.441406 4.476562 1.398438 C 4.441406 1.355469 4.414062 1.308594 4.386719 1.261719 C 4.359375 1.214844 4.332031 1.167969 4.308594 1.117188 C 4.292969 1.082031 4.277344 1.042969 4.265625 1.003906 L 4.265625 1 L 4.183594 0.75 C 4.183594 0.75 4.171875 0.714844 4.171875 0.707031 Z M 7.394531 3.355469 C 7.34375 3.351562 7.289062 3.355469 7.234375 3.359375 C 7.179688 3.363281 7.128906 3.371094 7.074219 3.378906 C 7.019531 3.390625 6.96875 3.40625 6.914062 3.421875 C 6.871094 3.4375 6.828125 3.453125 6.785156 3.472656 C 6.746094 3.492188 6.707031 3.511719 6.667969 3.53125 C 6.589844 3.578125 6.519531 3.628906 6.453125 3.683594 C 6.386719 3.742188 6.328125 3.804688 6.277344 3.871094 C 6.222656 3.9375 6.175781 4.011719 6.140625 4.085938 C 6.101562 4.164062 6.070312 4.242188 6.046875 4.324219 C 6.023438 4.40625 6.011719 4.492188 6.003906 4.578125 C 5.996094 4.664062 6 4.75 6.011719 4.835938 C 6.015625 4.878906 6.023438 4.921875 6.03125 4.96875 C 6.042969 5.011719 6.054688 5.054688 6.070312 5.097656 C 6.085938 5.140625 6.101562 5.183594 6.121094 5.222656 C 6.136719 5.265625 6.160156 5.304688 6.183594 5.34375 C 6.226562 5.417969 6.277344 5.488281 6.335938 5.550781 C 6.394531 5.617188 6.457031 5.675781 6.527344 5.726562 C 6.597656 5.777344 6.667969 5.824219 6.746094 5.859375 C 6.824219 5.898438 6.902344 5.929688 6.984375 5.953125 C 7.070312 5.972656 7.15625 5.988281 7.242188 5.996094 C 7.328125 6.003906 7.417969 6 7.507812 5.992188 C 7.550781 5.984375 7.59375 5.976562 7.636719 5.96875 C 7.683594 5.957031 7.726562 5.945312 7.769531 5.929688 C 7.824219 5.914062 7.875 5.890625 7.925781 5.867188 C 7.972656 5.84375 8.019531 5.820312 8.066406 5.792969 C 8.109375 5.761719 8.152344 5.734375 8.195312 5.699219 C 8.234375 5.667969 8.273438 5.632812 8.308594 5.59375 C 8.347656 5.554688 8.378906 5.515625 8.410156 5.476562 C 8.441406 5.433594 8.46875 5.390625 8.496094 5.347656 C 8.523438 5.304688 8.546875 5.257812 8.570312 5.210938 C 8.589844 5.164062 8.605469 5.117188 8.621094 5.066406 L 8.625 5.074219 C 8.640625 5.027344 8.660156 4.980469 8.683594 4.9375 C 8.707031 4.890625 8.734375 4.84375 8.761719 4.800781 C 8.789062 4.757812 8.820312 4.71875 8.855469 4.679688 C 8.890625 4.636719 8.925781 4.597656 8.964844 4.5625 C 9.003906 4.527344 9.042969 4.492188 9.085938 4.457031 C 9.128906 4.425781 9.171875 4.394531 9.21875 4.367188 C 9.265625 4.339844 9.3125 4.316406 9.363281 4.292969 C 9.398438 4.273438 9.4375 4.257812 9.476562 4.246094 C 9.703125 4.203125 9.914062 4.199219 10.15625 4.199219 L 10.15625 3.671875 C 9.914062 3.675781 9.660156 3.675781 9.359375 3.734375 L 9.355469 3.730469 L 9.34375 3.734375 C 9.292969 3.753906 9.238281 3.765625 9.1875 3.777344 C 9.132812 3.789062 9.078125 3.796875 9.027344 3.804688 C 8.972656 3.808594 8.917969 3.8125 8.863281 3.8125 C 8.8125 3.8125 8.757812 3.804688 8.703125 3.800781 C 8.652344 3.792969 8.597656 3.789062 8.546875 3.777344 C 8.496094 3.765625 8.445312 3.75 8.394531 3.730469 C 8.347656 3.714844 8.300781 3.695312 8.253906 3.671875 C 8.207031 3.652344 8.164062 3.625 8.121094 3.597656 L 8.125 3.601562 C 8.082031 3.574219 8.035156 3.546875 7.992188 3.519531 C 7.945312 3.496094 7.898438 3.476562 7.851562 3.457031 C 7.804688 3.4375 7.753906 3.417969 7.703125 3.402344 C 7.652344 3.390625 7.601562 3.378906 7.550781 3.371094 C 7.5 3.363281 7.449219 3.355469 7.394531 3.355469 Z M 3.492188 4.867188 C 3.449219 4.867188 3.402344 4.871094 3.359375 4.875 C 3.316406 4.882812 3.269531 4.890625 3.226562 4.898438 C 3.183594 4.910156 3.136719 4.921875 3.09375 4.9375 C 3.042969 4.953125 2.992188 4.972656 2.941406 4.996094 C 2.890625 5.019531 2.84375 5.046875 2.800781 5.074219 C 2.753906 5.101562 2.710938 5.132812 2.671875 5.167969 C 2.628906 5.199219 2.589844 5.234375 2.554688 5.273438 C 2.519531 5.3125 2.484375 5.347656 2.453125 5.390625 C 2.421875 5.429688 2.394531 5.472656 2.367188 5.519531 C 2.339844 5.5625 2.320312 5.609375 2.296875 5.65625 C 2.277344 5.703125 2.257812 5.75 2.242188 5.796875 L 2.238281 5.792969 C 2.222656 5.839844 2.203125 5.882812 2.179688 5.929688 C 2.160156 5.976562 2.132812 6.019531 2.105469 6.0625 C 2.039062 6.148438 1.945312 6.191406 1.84375 6.21875 L 1.84375 7.054688 L 2 7.054688 C 2.054688 7.058594 2.109375 7.058594 2.160156 7.066406 C 2.214844 7.070312 2.265625 7.078125 2.316406 7.089844 C 2.371094 7.101562 2.421875 7.117188 2.46875 7.132812 C 2.519531 7.152344 2.566406 7.171875 2.613281 7.195312 C 2.65625 7.214844 2.703125 7.242188 2.742188 7.269531 L 2.742188 7.261719 C 2.785156 7.292969 2.828125 7.320312 2.875 7.34375 C 2.917969 7.371094 2.964844 7.390625 3.015625 7.410156 C 3.0625 7.429688 3.109375 7.449219 3.160156 7.460938 C 3.210938 7.476562 3.261719 7.484375 3.3125 7.492188 C 3.363281 7.5 3.417969 7.507812 3.472656 7.511719 C 3.523438 7.511719 3.578125 7.511719 3.628906 7.507812 C 3.683594 7.503906 3.738281 7.496094 3.789062 7.484375 C 3.84375 7.476562 3.898438 7.460938 3.949219 7.445312 C 3.992188 7.429688 4.039062 7.414062 4.078125 7.394531 C 4.121094 7.375 4.160156 7.355469 4.199219 7.332031 C 4.277344 7.289062 4.347656 7.238281 4.414062 7.179688 C 4.476562 7.125 4.535156 7.0625 4.589844 6.992188 C 4.640625 6.925781 4.6875 6.855469 4.726562 6.777344 C 4.765625 6.703125 4.792969 6.621094 4.816406 6.539062 C 4.839844 6.457031 4.855469 6.375 4.863281 6.289062 C 4.867188 6.203125 4.867188 6.117188 4.855469 6.03125 C 4.851562 5.984375 4.84375 5.941406 4.832031 5.898438 C 4.824219 5.855469 4.808594 5.8125 4.796875 5.765625 C 4.78125 5.722656 4.765625 5.683594 4.746094 5.640625 C 4.726562 5.601562 4.703125 5.5625 4.683594 5.523438 C 4.636719 5.449219 4.585938 5.378906 4.527344 5.3125 C 4.46875 5.25 4.40625 5.191406 4.339844 5.140625 C 4.269531 5.085938 4.195312 5.042969 4.121094 5.003906 C 4.042969 4.96875 3.960938 4.9375 3.878906 4.914062 C 3.796875 4.890625 3.710938 4.878906 3.621094 4.871094 C 3.578125 4.867188 3.535156 4.867188 3.492188 4.867188 Z M 6.171875 6.011719 C 6.128906 6.011719 6.085938 6.015625 6.042969 6.019531 C 6 6.023438 5.953125 6.03125 5.910156 6.039062 C 5.867188 6.050781 5.824219 6.0625 5.78125 6.078125 C 5.738281 6.09375 5.695312 6.109375 5.652344 6.125 C 5.613281 6.144531 5.574219 6.164062 5.535156 6.1875 C 5.460938 6.230469 5.386719 6.28125 5.324219 6.339844 C 5.257812 6.398438 5.199219 6.460938 5.148438 6.527344 C 5.09375 6.597656 5.050781 6.667969 5.011719 6.746094 C 4.972656 6.824219 4.941406 6.902344 4.917969 6.988281 C 4.894531 7.070312 4.878906 7.15625 4.871094 7.242188 C 4.863281 7.328125 4.863281 7.417969 4.875 7.507812 C 4.878906 7.550781 4.886719 7.59375 4.894531 7.640625 C 4.90625 7.683594 4.917969 7.730469 4.933594 7.773438 C 4.949219 7.828125 4.96875 7.878906 4.992188 7.925781 C 5.015625 7.976562 5.039062 8.023438 5.066406 8.070312 C 5.097656 8.113281 5.125 8.15625 5.160156 8.199219 C 5.191406 8.238281 5.226562 8.28125 5.265625 8.316406 C 5.300781 8.351562 5.339844 8.386719 5.382812 8.417969 C 5.421875 8.449219 5.464844 8.476562 5.507812 8.503906 C 5.550781 8.53125 5.597656 8.554688 5.644531 8.578125 C 5.691406 8.597656 5.738281 8.617188 5.789062 8.636719 L 5.78125 8.636719 C 5.828125 8.652344 5.871094 8.671875 5.917969 8.695312 C 5.964844 8.71875 6.007812 8.746094 6.050781 8.773438 C 6.09375 8.804688 6.136719 8.835938 6.175781 8.871094 C 6.214844 8.902344 6.253906 8.941406 6.289062 8.980469 C 6.324219 9.019531 6.359375 9.058594 6.394531 9.101562 C 6.425781 9.144531 6.453125 9.191406 6.480469 9.238281 C 6.507812 9.285156 6.535156 9.332031 6.558594 9.378906 C 6.574219 9.417969 6.585938 9.457031 6.601562 9.496094 L 6.597656 9.496094 L 6.683594 9.75 C 6.683594 9.75 6.914062 10.449219 6.941406 11.292969 L 7.464844 11.292969 C 7.4375 10.347656 7.179688 9.578125 7.179688 9.578125 L 7.113281 9.382812 L 7.117188 9.382812 L 7.113281 9.367188 C 7.09375 9.316406 7.082031 9.261719 7.070312 9.210938 C 7.0625 9.15625 7.050781 9.105469 7.046875 9.050781 C 7.042969 8.996094 7.042969 8.941406 7.042969 8.886719 C 7.042969 8.832031 7.046875 8.78125 7.054688 8.726562 C 7.058594 8.671875 7.070312 8.621094 7.082031 8.570312 C 7.09375 8.519531 7.109375 8.464844 7.125 8.417969 C 7.144531 8.367188 7.160156 8.320312 7.183594 8.277344 C 7.207031 8.230469 7.234375 8.1875 7.261719 8.144531 L 7.257812 8.148438 C 7.285156 8.105469 7.3125 8.0625 7.339844 8.015625 C 7.363281 7.96875 7.386719 7.925781 7.40625 7.875 C 7.425781 7.828125 7.445312 7.777344 7.457031 7.730469 C 7.472656 7.679688 7.484375 7.628906 7.492188 7.578125 C 7.5 7.523438 7.507812 7.472656 7.507812 7.417969 C 7.511719 7.367188 7.511719 7.3125 7.507812 7.261719 C 7.507812 7.207031 7.496094 7.152344 7.488281 7.097656 C 7.476562 7.046875 7.464844 6.992188 7.449219 6.9375 C 7.433594 6.894531 7.417969 6.851562 7.398438 6.8125 C 7.382812 6.769531 7.359375 6.726562 7.339844 6.691406 C 7.296875 6.613281 7.246094 6.539062 7.1875 6.472656 C 7.132812 6.410156 7.070312 6.347656 7.003906 6.296875 C 6.9375 6.242188 6.863281 6.195312 6.789062 6.15625 C 6.714844 6.117188 6.632812 6.085938 6.554688 6.0625 C 6.472656 6.039062 6.386719 6.023438 6.300781 6.015625 C 6.257812 6.011719 6.214844 6.011719 6.171875 6.011719 Z M 6.171875 6.011719 "/>
</g>
</svg>
