<?xml version="1.0" encoding="UTF-8"?>
<svg xmlns="http://www.w3.org/2000/svg" xmlns:xlink="http://www.w3.org/1999/xlink" width="12pt" height="12pt" viewBox="0 0 12 12" version="1.1">
<defs>
<linearGradient id="linear0" gradientUnits="userSpaceOnUse" x1="-45.121761" y1="-6.136109" x2="-37.529903" y2="-3.40798" gradientTransform="matrix(0.375,0,0,0.375,22.255319,6.727158)">
<stop offset="0" style="stop-color:rgb(100%,100%,100%);stop-opacity:1;"/>
<stop offset="1" style="stop-color:rgb(80%,80%,80%);stop-opacity:1;"/>
</linearGradient>
</defs>
<g id="surface1">
<path style=" stroke:none;fill-rule:evenodd;fill:rgb(21.568627%,62.745098%,94.901961%);fill-opacity:1;" d="M 2.800781 0.714844 L 9.199219 0.714844 C 10.351562 0.714844 11.289062 1.652344 11.289062 2.804688 L 11.289062 9.203125 C 11.289062 10.355469 10.351562 11.292969 9.199219 11.292969 L 2.800781 11.292969 C 1.648438 11.292969 0.710938 10.355469 0.710938 9.203125 L 0.710938 2.804688 C 0.710938 1.652344 1.648438 0.714844 2.800781 0.714844 Z M 2.800781 0.714844 "/>
<path style=" stroke:none;fill-rule:evenodd;fill:url(#linear0);" d="M 5.925781 0.707031 C 5.722656 1.109375 5.476562 1.511719 5.289062 1.914062 C 4.734375 3.113281 4.265625 4.3125 3.910156 5.503906 C 3.535156 6.78125 3.195312 8.105469 2.867188 9.386719 C 3.402344 9.433594 3.070312 9.386719 3.484375 9.390625 C 3.765625 8.9375 4.109375 8.515625 4.488281 8.136719 C 4.867188 7.753906 5.285156 7.40625 5.722656 7.097656 C 6.160156 6.789062 6.613281 6.519531 7.070312 6.289062 C 7.523438 6.054688 7.976562 5.863281 8.410156 5.714844 C 8.417969 5.058594 8.390625 4.355469 8.425781 3.671875 C 8.441406 3.332031 8.472656 2.992188 8.535156 2.671875 C 8.597656 2.347656 8.6875 2.039062 8.816406 1.75 C 8.957031 1.441406 9.164062 1.074219 9.355469 0.71875 C 9.332031 0.71875 9.316406 0.707031 9.296875 0.707031 Z M 5.925781 0.707031 "/>
<path style="fill:none;stroke-width:0.4;stroke-linecap:round;stroke-linejoin:miter;stroke:rgb(38.823529%,49.803922%,45.882353%);stroke-opacity:0.403922;stroke-miterlimit:4;" d="M -50.410017 6.977578 C -49.30585 1.998411 -47.326684 -3.512006 -45.503767 -7.720339 " transform="matrix(0.375,0,0,0.375,22.255319,6.727158)"/>
<path style=" stroke:none;fill-rule:nonzero;fill:rgb(75.294118%,79.607843%,78.039216%);fill-opacity:1;" d="M 4.84375 5.328125 C 4.902344 5.121094 4.847656 4.921875 4.714844 4.882812 C 4.585938 4.84375 4.429688 4.980469 4.371094 5.1875 C 4.308594 5.394531 4.367188 5.59375 4.496094 5.632812 C 4.625 5.671875 4.78125 5.535156 4.84375 5.328125 Z M 4.84375 5.328125 "/>
</g>
</svg>
