<?xml version="1.0" encoding="UTF-8"?>
<svg xmlns="http://www.w3.org/2000/svg" xmlns:xlink="http://www.w3.org/1999/xlink" width="12pt" height="12pt" viewBox="0 0 12 12" version="1.1">
<g id="surface1">
<path style=" stroke:none;fill-rule:evenodd;fill:rgb(95.686275%,40.784314%,40.784314%);fill-opacity:1;" d="M 2.800781 0.710938 L 9.199219 0.710938 C 10.351562 0.710938 11.289062 1.648438 11.289062 2.800781 L 11.289062 9.199219 C 11.289062 10.351562 10.351562 11.289062 9.199219 11.289062 L 2.800781 11.289062 C 1.648438 11.289062 0.710938 10.351562 0.710938 9.199219 L 0.710938 2.800781 C 0.710938 1.648438 1.648438 0.710938 2.800781 0.710938 Z M 2.800781 0.710938 "/>
<path style=" stroke:none;fill-rule:nonzero;fill:rgb(100%,100%,100%);fill-opacity:1;" d="M 5.960938 1.722656 L 2.457031 2.980469 C 2.40625 2.996094 2.375 3.042969 2.375 3.09375 C 2.375 4.363281 2.707031 5.832031 3.285156 7.121094 C 3.753906 8.167969 4.59375 9.5625 5.945312 10.269531 C 5.960938 10.277344 5.980469 10.28125 6 10.28125 C 6.019531 10.28125 6.039062 10.277344 6.054688 10.269531 C 7.40625 9.5625 8.246094 8.167969 8.714844 7.121094 C 9.292969 5.832031 9.625 4.363281 9.625 3.09375 C 9.625 3.042969 9.59375 2.996094 9.542969 2.980469 L 6.039062 1.722656 C 6.015625 1.714844 5.984375 1.714844 5.960938 1.722656 Z M 5.976562 3.699219 C 5.992188 3.691406 6.007812 3.691406 6.023438 3.699219 L 7.933594 4.375 C 7.960938 4.382812 7.976562 4.40625 7.976562 4.433594 C 7.976562 5.117188 7.796875 5.910156 7.480469 6.601562 C 7.226562 7.167969 6.765625 7.917969 6.03125 8.296875 C 6.019531 8.304688 6.011719 8.304688 6 8.304688 C 5.988281 8.304688 5.980469 8.304688 5.96875 8.296875 C 5.234375 7.917969 4.773438 7.167969 4.519531 6.601562 C 4.203125 5.910156 4.023438 5.117188 4.023438 4.433594 C 4.023438 4.40625 4.039062 4.382812 4.066406 4.375 Z M 5.976562 3.699219 "/>
</g>
</svg>
