<?xml version="1.0" encoding="UTF-8"?>
<svg xmlns="http://www.w3.org/2000/svg" xmlns:xlink="http://www.w3.org/1999/xlink" width="12pt" height="12pt" viewBox="0 0 12 12" version="1.1">
<g id="surface1">
<path style=" stroke:none;fill-rule:evenodd;fill:rgb(31.764706%,50.588235%,25.098039%);fill-opacity:1;" d="M 2.800781 0.710938 L 9.199219 0.710938 C 10.351562 0.710938 11.289062 1.648438 11.289062 2.800781 L 11.289062 9.199219 C 11.289062 10.351562 10.351562 11.289062 9.199219 11.289062 L 2.800781 11.289062 C 1.648438 11.289062 0.710938 10.351562 0.710938 9.199219 L 0.710938 2.800781 C 0.710938 1.648438 1.648438 0.710938 2.800781 0.710938 Z M 2.800781 0.710938 "/>
<path style=" stroke:none;fill-rule:nonzero;fill:rgb(38.431373%,61.176471%,30.196078%);fill-opacity:1;" d="M 4.898438 2.136719 L 7.101562 2.136719 L 7.101562 2.964844 L 4.898438 2.964844 Z M 4.898438 2.136719 "/>
<path style=" stroke:none;fill-rule:nonzero;fill:rgb(63.529412%,83.137255%,44.313725%);fill-opacity:1;" d="M 3.371094 2.691406 L 8.628906 2.691406 C 8.851562 2.691406 9.035156 2.878906 9.035156 3.113281 L 9.035156 9.441406 C 9.035156 9.671875 8.851562 9.863281 8.628906 9.863281 L 3.371094 9.863281 C 3.148438 9.863281 2.964844 9.671875 2.964844 9.441406 L 2.964844 3.113281 C 2.964844 2.878906 3.148438 2.691406 3.371094 2.691406 Z M 3.371094 2.691406 "/>
<path style=" stroke:none;fill-rule:nonzero;fill:rgb(54.117647%,72.941176%,32.156863%);fill-opacity:1;" d="M 2.8125 2.414062 L 9.1875 2.414062 C 9.40625 2.414062 9.585938 2.597656 9.585938 2.828125 L 9.585938 3.65625 C 9.585938 3.882812 9.40625 4.070312 9.1875 4.070312 L 2.8125 4.070312 C 2.59375 4.070312 2.414062 3.882812 2.414062 3.65625 L 2.414062 2.828125 C 2.414062 2.597656 2.59375 2.414062 2.8125 2.414062 Z M 2.8125 2.414062 "/>
<path style=" stroke:none;fill-rule:nonzero;fill:rgb(54.117647%,72.941176%,32.156863%);fill-opacity:1;" d="M 5.722656 5.171875 L 6.277344 5.171875 C 6.429688 5.171875 6.550781 5.257812 6.550781 5.367188 L 6.550781 8.839844 C 6.550781 8.949219 6.429688 9.035156 6.277344 9.035156 L 5.722656 9.035156 C 5.570312 9.035156 5.449219 8.949219 5.449219 8.839844 L 5.449219 5.367188 C 5.449219 5.257812 5.570312 5.171875 5.722656 5.171875 Z M 5.722656 5.171875 "/>
<path style=" stroke:none;fill-rule:nonzero;fill:rgb(54.117647%,72.941176%,32.156863%);fill-opacity:1;" d="M 4.070312 5.171875 L 4.621094 5.171875 C 4.773438 5.171875 4.898438 5.257812 4.898438 5.367188 L 4.898438 8.839844 C 4.898438 8.949219 4.773438 9.035156 4.621094 9.035156 L 4.070312 9.035156 C 3.917969 9.035156 3.792969 8.949219 3.792969 8.839844 L 3.792969 5.367188 C 3.792969 5.257812 3.917969 5.171875 4.070312 5.171875 Z M 4.070312 5.171875 "/>
<path style=" stroke:none;fill-rule:nonzero;fill:rgb(54.117647%,72.941176%,32.156863%);fill-opacity:1;" d="M 7.378906 5.171875 L 7.929688 5.171875 C 8.082031 5.171875 8.207031 5.257812 8.207031 5.367188 L 8.207031 8.839844 C 8.207031 8.949219 8.082031 9.035156 7.929688 9.035156 L 7.378906 9.035156 C 7.226562 9.035156 7.101562 8.949219 7.101562 8.839844 L 7.101562 5.367188 C 7.101562 5.257812 7.226562 5.171875 7.378906 5.171875 Z M 7.378906 5.171875 "/>
<path style=" stroke:none;fill-rule:nonzero;fill:rgb(54.117647%,72.941176%,32.156863%);fill-opacity:1;" d="M 4.898438 2.136719 L 7.101562 2.136719 L 7.101562 2.414062 L 4.898438 2.414062 Z M 4.898438 2.136719 "/>
</g>
</svg>
