<?xml version="1.0" encoding="UTF-8"?>
<svg xmlns="http://www.w3.org/2000/svg" xmlns:xlink="http://www.w3.org/1999/xlink" width="12pt" height="12pt" viewBox="0 0 12 12" version="1.1">
<g id="surface1">
<path style=" stroke:none;fill-rule:evenodd;fill:rgb(90.196078%,90.196078%,90.196078%);fill-opacity:1;" d="M 2.800781 0.710938 L 9.199219 0.710938 C 10.351562 0.710938 11.289062 1.648438 11.289062 2.800781 L 11.289062 9.199219 C 11.289062 10.351562 10.351562 11.289062 9.199219 11.289062 L 2.800781 11.289062 C 1.648438 11.289062 0.710938 10.351562 0.710938 9.199219 L 0.710938 2.800781 C 0.710938 1.648438 1.648438 0.710938 2.800781 0.710938 Z M 2.800781 0.710938 "/>
<path style=" stroke:none;fill-rule:nonzero;fill:rgb(59.607843%,60%,61.960784%);fill-opacity:1;" d="M 6.535156 9.839844 C 6.875 9.800781 7.097656 9.753906 7.375 9.664062 C 8.078125 9.4375 8.628906 9.035156 9 8.480469 C 9.242188 8.113281 9.386719 7.726562 9.464844 7.234375 C 9.484375 7.105469 9.507812 6.441406 9.492188 6.441406 C 9.488281 6.441406 9.476562 6.464844 9.46875 6.496094 C 9.441406 6.597656 9.328125 6.867188 9.242188 7.039062 C 9.085938 7.347656 8.921875 7.570312 8.6875 7.796875 C 8.53125 7.949219 8.4375 8.019531 8.265625 8.128906 C 7.746094 8.449219 7.066406 8.597656 6.308594 8.558594 C 5.800781 8.53125 5.417969 8.433594 5.0625 8.246094 C 4.996094 8.210938 4.9375 8.183594 4.9375 8.183594 C 4.925781 8.183594 4.984375 8.371094 5.027344 8.484375 C 5.203125 8.933594 5.570312 9.382812 5.980469 9.648438 C 6.097656 9.726562 6.335938 9.859375 6.355469 9.859375 C 6.363281 9.859375 6.441406 9.851562 6.535156 9.839844 Z M 6.535156 9.839844 "/>
<path style=" stroke:none;fill-rule:nonzero;fill:rgb(11.372549%,59.215686%,84.705882%);fill-opacity:1;" d="M 5.972656 9.863281 C 5.972656 9.859375 5.921875 9.820312 5.855469 9.777344 C 5.660156 9.648438 5.402344 9.40625 5.234375 9.195312 C 4.960938 8.84375 4.800781 8.488281 4.71875 8.046875 C 4.691406 7.894531 4.691406 7.886719 4.691406 6.265625 L 4.691406 4.636719 L 4.257812 4.636719 L 4.253906 5.4375 L 4.253906 6.242188 L 3.8125 6.242188 L 3.8125 5.289062 L 3.382812 5.28125 L 3.375 5.710938 L 2.941406 5.710938 L 2.941406 4.519531 L 2.9375 3.328125 L 2.789062 3.320312 C 2.707031 3.320312 2.609375 3.320312 2.570312 3.328125 L 2.503906 3.335938 L 2.507812 5.21875 C 2.511719 7.269531 2.507812 7.132812 2.582031 7.492188 C 2.695312 8.035156 2.996094 8.574219 3.402344 8.957031 C 3.511719 9.058594 3.804688 9.292969 3.824219 9.292969 C 3.828125 9.292969 3.855469 9.308594 3.886719 9.332031 C 3.917969 9.351562 4.003906 9.398438 4.078125 9.4375 C 4.496094 9.65625 5 9.800781 5.523438 9.847656 C 5.613281 9.855469 5.703125 9.863281 5.730469 9.863281 C 5.824219 9.875 5.972656 9.871094 5.972656 9.863281 Z M 3.808594 4.628906 L 3.808594 4.417969 L 3.382812 4.417969 L 3.382812 4.84375 L 3.808594 4.84375 Z M 4.246094 3.984375 L 4.246094 3.769531 L 3.820312 3.769531 L 3.820312 4.195312 L 4.246094 4.195312 Z M 4.683594 3.640625 C 4.6875 3.628906 4.6875 3.53125 4.6875 3.421875 L 4.6875 3.222656 L 4.257812 3.214844 L 4.257812 3.65625 L 4.472656 3.65625 C 4.632812 3.65625 4.683594 3.652344 4.683594 3.640625 Z M 3.808594 3.222656 L 3.808594 3.011719 L 3.382812 3.011719 L 3.382812 3.4375 L 3.808594 3.4375 Z M 4.246094 2.785156 L 4.246094 2.570312 L 3.820312 2.570312 L 3.820312 2.996094 L 4.246094 2.996094 Z M 2.925781 2.34375 L 2.929688 2.132812 L 2.503906 2.132812 L 2.503906 2.34375 C 2.503906 2.59375 2.476562 2.570312 2.742188 2.5625 L 2.921875 2.558594 Z M 2.925781 2.34375 "/>
<path style=" stroke:none;fill-rule:nonzero;fill:rgb(1.960784%,1.960784%,2.745098%);fill-opacity:1;" d="M 7.535156 8.253906 C 7.800781 8.179688 8.0625 8.058594 8.289062 7.898438 C 8.683594 7.621094 8.992188 7.214844 9.203125 6.691406 C 9.261719 6.550781 9.316406 6.378906 9.4375 5.976562 L 9.496094 5.792969 L 9.496094 2.128906 L 9.28125 2.136719 C 8.476562 2.171875 7.964844 2.320312 7.660156 2.609375 C 7.53125 2.730469 7.445312 2.863281 7.394531 3.023438 C 7.320312 3.25 7.324219 3.070312 7.316406 5.609375 C 7.308594 8.050781 7.308594 7.945312 7.257812 8.269531 L 7.25 8.324219 L 7.332031 8.304688 C 7.375 8.292969 7.46875 8.269531 7.535156 8.253906 Z M 7.535156 8.253906 "/>
</g>
</svg>
