<?xml version="1.0" encoding="UTF-8"?>
<svg xmlns="http://www.w3.org/2000/svg" xmlns:xlink="http://www.w3.org/1999/xlink" width="12pt" height="12pt" viewBox="0 0 12 12" version="1.1">
<g id="surface1">
<path style=" stroke:none;fill-rule:evenodd;fill:rgb(49.019608%,32.156863%,61.568627%);fill-opacity:1;" d="M 2.800781 0.710938 L 9.199219 0.710938 C 10.351562 0.710938 11.289062 1.648438 11.289062 2.800781 L 11.289062 9.199219 C 11.289062 10.351562 10.351562 11.289062 9.199219 11.289062 L 2.800781 11.289062 C 1.648438 11.289062 0.710938 10.351562 0.710938 9.199219 L 0.710938 2.800781 C 0.710938 1.648438 1.648438 0.710938 2.800781 0.710938 Z M 2.800781 0.710938 "/>
<path style=" stroke:none;fill-rule:nonzero;fill:rgb(100%,100%,100%);fill-opacity:1;" d="M 6.515625 3 C 6.382812 3 6.273438 3.105469 6.273438 3.234375 C 6.273438 3.359375 6.382812 3.46875 6.515625 3.46875 C 7.085938 3.472656 7.558594 3.65625 7.9375 4.011719 C 8.3125 4.367188 8.507812 4.855469 8.511719 5.496094 C 8.515625 5.621094 8.625 5.726562 8.757812 5.726562 C 8.890625 5.726562 9 5.617188 9 5.492188 C 8.996094 5.117188 8.9375 4.773438 8.816406 4.472656 C 8.699219 4.167969 8.515625 3.898438 8.277344 3.675781 C 7.808594 3.234375 7.207031 3.003906 6.515625 3 Z M 4.054688 3.550781 C 3.960938 3.535156 3.863281 3.554688 3.761719 3.601562 L 3.753906 3.601562 L 3.742188 3.609375 C 3.558594 3.710938 3.386719 3.855469 3.222656 4.03125 L 3.210938 4.042969 L 3.210938 4.058594 C 3.097656 4.199219 3.023438 4.339844 3.003906 4.480469 C 3 4.503906 3 4.527344 3 4.550781 C 3 4.613281 3.007812 4.679688 3.03125 4.742188 L 3.035156 4.761719 L 3.046875 4.769531 C 3.109375 4.988281 3.253906 5.332031 3.574219 5.910156 C 3.789062 6.296875 4.003906 6.617188 4.21875 6.890625 C 4.332031 7.03125 4.460938 7.179688 4.613281 7.328125 C 4.613281 7.332031 4.621094 7.335938 4.625 7.34375 C 4.628906 7.347656 4.632812 7.351562 4.640625 7.359375 L 4.65625 7.375 C 4.660156 7.378906 4.664062 7.382812 4.664062 7.382812 L 4.671875 7.390625 C 4.820312 7.539062 4.96875 7.667969 5.113281 7.78125 C 5.382812 7.996094 5.703125 8.214844 6.089844 8.425781 C 6.671875 8.746094 7.015625 8.894531 7.234375 8.957031 L 7.242188 8.964844 L 7.257812 8.96875 C 7.320312 8.992188 7.382812 9 7.449219 9 C 7.472656 9 7.496094 9 7.519531 8.996094 C 7.667969 8.976562 7.816406 8.90625 7.964844 8.78125 L 7.96875 8.78125 C 7.96875 8.777344 7.96875 8.777344 7.96875 8.777344 C 7.96875 8.777344 7.972656 8.773438 7.972656 8.773438 C 8.148438 8.613281 8.289062 8.441406 8.394531 8.257812 L 8.398438 8.246094 L 8.398438 8.234375 C 8.496094 8.03125 8.457031 7.824219 8.300781 7.691406 C 8.296875 7.691406 8.222656 7.625 8.128906 7.550781 C 8.03125 7.472656 7.917969 7.378906 7.839844 7.324219 C 7.695312 7.214844 7.46875 7.074219 7.339844 7.003906 C 7.09375 6.867188 6.835938 6.945312 6.722656 7.09375 L 6.523438 7.34375 C 6.445312 7.441406 6.285156 7.433594 6.28125 7.433594 C 4.933594 7.085938 4.570312 5.730469 4.566406 5.722656 C 4.566406 5.71875 4.558594 5.558594 4.660156 5.476562 L 4.90625 5.277344 C 5.054688 5.164062 5.136719 4.90625 4.996094 4.660156 C 4.925781 4.53125 4.785156 4.304688 4.679688 4.160156 C 4.621094 4.082031 4.527344 3.96875 4.449219 3.871094 C 4.410156 3.824219 4.375 3.78125 4.351562 3.75 C 4.335938 3.734375 4.328125 3.722656 4.320312 3.710938 C 4.316406 3.707031 4.3125 3.703125 4.308594 3.703125 C 4.308594 3.699219 4.308594 3.699219 4.308594 3.699219 C 4.238281 3.617188 4.152344 3.566406 4.054688 3.550781 Z M 6.53125 4.089844 C 6.398438 4.082031 6.28125 4.179688 6.273438 4.304688 C 6.265625 4.429688 6.363281 4.542969 6.496094 4.550781 C 6.816406 4.574219 7.03125 4.667969 7.195312 4.839844 C 7.363281 5.015625 7.4375 5.21875 7.429688 5.492188 C 7.429688 5.617188 7.535156 5.726562 7.664062 5.726562 L 7.667969 5.726562 C 7.796875 5.726562 7.90625 5.625 7.910156 5.5 C 7.917969 5.125 7.792969 4.789062 7.546875 4.53125 C 7.300781 4.269531 6.949219 4.121094 6.527344 4.089844 Z M 6.53125 4.089844 "/>
</g>
</svg>
