<?xml version="1.0" encoding="UTF-8"?>
<svg xmlns="http://www.w3.org/2000/svg" xmlns:xlink="http://www.w3.org/1999/xlink" width="12pt" height="12pt" viewBox="0 0 12 12" version="1.1">
<g id="surface1">
<path style=" stroke:none;fill-rule:evenodd;fill:rgb(21.568627%,19.607843%,46.666667%);fill-opacity:1;" d="M 2.800781 0.710938 L 9.199219 0.710938 C 10.351562 0.710938 11.289062 1.648438 11.289062 2.800781 L 11.289062 9.199219 C 11.289062 10.351562 10.351562 11.289062 9.199219 11.289062 L 2.800781 11.289062 C 1.648438 11.289062 0.710938 10.351562 0.710938 9.199219 L 0.710938 2.800781 C 0.710938 1.648438 1.648438 0.710938 2.800781 0.710938 Z M 2.800781 0.710938 "/>
<path style=" stroke:none;fill-rule:evenodd;fill:rgb(100%,100%,100%);fill-opacity:1;" d="M 7.644531 2.707031 L 5.03125 5.320312 L 3.367188 4.023438 L 2.707031 4.355469 L 2.707031 7.644531 L 3.367188 7.976562 L 5.03125 6.679688 L 7.644531 9.292969 L 9.292969 8.632812 L 9.292969 3.367188 Z M 7.644531 4.644531 L 7.644531 7.355469 L 5.90625 6 Z M 3.367188 5.011719 L 4.355469 6 L 3.367188 6.988281 Z M 3.367188 5.011719 "/>
</g>
</svg>
