<?xml version="1.0" encoding="UTF-8"?>
<svg xmlns="http://www.w3.org/2000/svg" xmlns:xlink="http://www.w3.org/1999/xlink" width="12pt" height="12pt" viewBox="0 0 12 12" version="1.1">
<g id="surface1">
<path style=" stroke:none;fill-rule:evenodd;fill:rgb(30.588235%,56.862745%,85.098039%);fill-opacity:1;" d="M 2.800781 0.710938 L 9.199219 0.710938 C 10.351562 0.710938 11.289062 1.648438 11.289062 2.800781 L 11.289062 9.199219 C 11.289062 10.351562 10.351562 11.289062 9.199219 11.289062 L 2.800781 11.289062 C 1.648438 11.289062 0.710938 10.351562 0.710938 9.199219 L 0.710938 2.800781 C 0.710938 1.648438 1.648438 0.710938 2.800781 0.710938 Z M 2.800781 0.710938 "/>
<path style=" stroke:none;fill-rule:nonzero;fill:rgb(100%,67.843137%,32.54902%);fill-opacity:1;" d="M 7.6875 9.75 C 8 9.75 8.25 9.5 8.25 9.1875 L 8.25 4.3125 C 8.25 4 8 3.75 7.6875 3.75 L 2.8125 3.75 C 2.5 3.75 2.25 4 2.25 4.3125 L 2.25 9.1875 C 2.25 9.5 2.5 9.75 2.8125 9.75 Z M 6.75 8.25 L 3.75 8.25 L 3.75 5.25 L 6.75 5.25 Z M 6.75 8.25 "/>
<path style=" stroke:none;fill-rule:nonzero;fill:rgb(63.921569%,79.215686%,96.470588%);fill-opacity:1;" d="M 9.1875 8.25 C 9.5 8.25 9.75 8 9.75 7.6875 L 9.75 2.8125 C 9.75 2.5 9.5 2.25 9.1875 2.25 L 4.3125 2.25 C 4 2.25 3.75 2.5 3.75 2.8125 L 3.75 3.75 L 8.25 3.75 L 8.25 6.75 L 5.25 6.75 L 5.25 5.25 L 3.75 5.25 L 3.75 7.6875 C 3.75 8 4 8.25 4.3125 8.25 Z M 9.1875 8.25 "/>
</g>
</svg>
