<?xml version="1.0" encoding="UTF-8"?>
<svg xmlns="http://www.w3.org/2000/svg" xmlns:xlink="http://www.w3.org/1999/xlink" width="12pt" height="12pt" viewBox="0 0 12 12" version="1.1">
<g id="surface1">
<path style=" stroke:none;fill-rule:evenodd;fill:rgb(30.980392%,30.980392%,30.980392%);fill-opacity:1;" d="M 2.800781 0.710938 L 9.199219 0.710938 C 10.351562 0.710938 11.289062 1.648438 11.289062 2.800781 L 11.289062 9.199219 C 11.289062 10.351562 10.351562 11.289062 9.199219 11.289062 L 2.800781 11.289062 C 1.648438 11.289062 0.710938 10.351562 0.710938 9.199219 L 0.710938 2.800781 C 0.710938 1.648438 1.648438 0.710938 2.800781 0.710938 Z M 2.800781 0.710938 "/>
<path style=" stroke:none;fill-rule:nonzero;fill:rgb(100%,82.745098%,55.294118%);fill-opacity:1;" d="M 8.132812 2.328125 L 8.480469 2.53125 C 8.515625 2.550781 8.527344 2.59375 8.507812 2.628906 L 7.761719 3.917969 C 7.742188 3.953125 7.699219 3.964844 7.664062 3.945312 L 7.316406 3.746094 C 7.28125 3.726562 7.269531 3.683594 7.289062 3.648438 L 8.035156 2.355469 C 8.054688 2.324219 8.097656 2.308594 8.132812 2.328125 Z M 8.132812 2.328125 "/>
<path style=" stroke:none;fill-rule:nonzero;fill:rgb(100%,100%,100%);fill-opacity:1;" d="M 7.277344 2.742188 C 7.191406 2.691406 7.082031 2.722656 7.03125 2.808594 L 6.785156 3.238281 C 5.371094 2.886719 3.898438 3.515625 3.167969 4.773438 C 2.265625 6.339844 2.800781 8.339844 4.367188 9.242188 C 5.929688 10.144531 7.929688 9.609375 8.832031 8.042969 C 9.558594 6.785156 9.363281 5.195312 8.355469 4.144531 L 8.605469 3.71875 C 8.652344 3.632812 8.625 3.519531 8.539062 3.46875 Z M 7.277344 2.742188 "/>
<path style=" stroke:none;fill-rule:nonzero;fill:rgb(30.980392%,30.980392%,30.980392%);fill-opacity:1;" d="M 5.589844 3.957031 C 5.539062 3.957031 5.496094 3.960938 5.457031 3.960938 C 5.097656 3.996094 4.625 4.316406 4.226562 4.804688 C 3.839844 5.277344 3.730469 5.652344 3.894531 5.929688 C 4.078125 6.242188 4.292969 6.417969 4.59375 6.507812 C 4.851562 6.585938 4.925781 6.632812 5.144531 6.84375 C 5.5 7.1875 5.621094 7.226562 6.367188 7.226562 C 6.679688 7.226562 7.058594 7.214844 7.207031 7.199219 C 7.425781 7.175781 7.519531 7.148438 7.699219 7.046875 C 8.179688 6.785156 8.257812 6.605469 8.117188 6.09375 C 8.074219 5.929688 8 5.59375 7.957031 5.335938 C 7.914062 5.082031 7.859375 4.835938 7.835938 4.789062 C 7.726562 4.574219 7.386719 4.367188 6.796875 4.164062 C 6.472656 4.050781 5.925781 3.960938 5.589844 3.957031 Z M 5.378906 5.046875 C 5.664062 5.058594 5.730469 5.308594 5.726562 5.523438 C 5.726562 5.828125 5.683594 5.945312 5.527344 6.0625 C 5.410156 6.148438 5.125 6.164062 5.039062 6.089844 C 4.949219 6.015625 4.910156 5.871094 4.910156 5.625 C 4.910156 5.253906 5.078125 5.046875 5.378906 5.046875 Z M 6.832031 5.046875 C 6.902344 5.046875 6.976562 5.070312 7.066406 5.113281 C 7.160156 5.160156 7.265625 5.238281 7.300781 5.28125 C 7.382812 5.390625 7.382812 5.636719 7.300781 5.90625 C 7.179688 6.316406 6.929688 6.480469 6.59375 6.382812 C 6.460938 6.34375 6.308594 6.160156 6.28125 6.007812 C 6.234375 5.765625 6.433594 5.246094 6.621094 5.121094 C 6.695312 5.074219 6.761719 5.050781 6.832031 5.046875 Z M 4.441406 6.683594 C 4.328125 6.683594 4.203125 6.71875 4.085938 6.796875 C 3.945312 6.890625 3.664062 7.222656 3.589844 7.386719 C 3.449219 7.691406 3.683594 8.167969 4.035156 8.289062 C 4.15625 8.328125 4.160156 8.328125 4.269531 8.273438 C 4.402344 8.210938 4.46875 8.125 4.699219 7.710938 C 4.851562 7.429688 4.894531 7.324219 4.90625 7.179688 C 4.917969 7.019531 4.910156 6.988281 4.820312 6.871094 C 4.722656 6.746094 4.589844 6.683594 4.441406 6.683594 Z M 5.574219 7.5 C 5.308594 7.5 5.121094 7.667969 5 8.007812 C 4.894531 8.300781 4.882812 8.554688 4.96875 8.640625 C 5.121094 8.792969 5.6875 8.917969 5.859375 8.835938 C 5.933594 8.800781 5.957031 8.75 5.988281 8.542969 C 6.023438 8.34375 5.976562 7.902344 5.90625 7.730469 C 5.84375 7.578125 5.730469 7.5 5.574219 7.5 Z M 6.816406 7.5 C 6.792969 7.5 6.765625 7.5 6.730469 7.503906 C 6.535156 7.519531 6.429688 7.585938 6.335938 7.753906 C 6.273438 7.867188 6.265625 7.90625 6.277344 8.132812 C 6.296875 8.417969 6.339844 8.5625 6.414062 8.582031 C 6.496094 8.605469 6.867188 8.570312 7.027344 8.527344 C 7.226562 8.472656 7.363281 8.363281 7.363281 8.261719 C 7.363281 8.148438 7.078125 7.625 6.976562 7.550781 C 6.925781 7.515625 6.886719 7.5 6.816406 7.5 Z M 6.816406 7.5 "/>
</g>
</svg>
