<?xml version="1.0" encoding="UTF-8"?>
<svg xmlns="http://www.w3.org/2000/svg" xmlns:xlink="http://www.w3.org/1999/xlink" width="12pt" height="12pt" viewBox="0 0 12 12" version="1.1">
<g id="surface1">
<path style=" stroke:none;fill-rule:evenodd;fill:rgb(2.352941%,48.235294%,100%);fill-opacity:1;" d="M 2.800781 0.710938 L 9.199219 0.710938 C 10.351562 0.710938 11.289062 1.648438 11.289062 2.800781 L 11.289062 9.199219 C 11.289062 10.351562 10.351562 11.289062 9.199219 11.289062 L 2.800781 11.289062 C 1.648438 11.289062 0.710938 10.351562 0.710938 9.199219 L 0.710938 2.800781 C 0.710938 1.648438 1.648438 0.710938 2.800781 0.710938 Z M 2.800781 0.710938 "/>
<path style=" stroke:none;fill-rule:nonzero;fill:rgb(30.980392%,30.980392%,30.980392%);fill-opacity:1;" d="M 8.867188 3.554688 L 6.03125 2.539062 C 6.011719 2.53125 5.988281 2.53125 5.96875 2.539062 L 3.132812 3.554688 C 3.09375 3.566406 3.066406 3.605469 3.066406 3.648438 C 3.066406 4.675781 3.335938 5.863281 3.800781 6.90625 C 4.179688 7.753906 4.863281 8.882812 5.957031 9.457031 C 5.96875 9.464844 5.984375 9.464844 6 9.464844 C 6.015625 9.464844 6.03125 9.464844 6.042969 9.457031 C 7.136719 8.882812 7.820312 7.753906 8.199219 6.90625 C 8.664062 5.863281 8.933594 4.675781 8.933594 3.648438 C 8.933594 3.605469 8.90625 3.566406 8.867188 3.554688 Z M 8.867188 3.554688 "/>
<path style=" stroke:none;fill-rule:nonzero;fill:rgb(2.352941%,48.235294%,100%);fill-opacity:1;" d="M 7.566406 4.683594 L 6.015625 4.136719 C 6.007812 4.132812 5.992188 4.132812 5.980469 4.136719 L 4.433594 4.683594 C 4.414062 4.691406 4.398438 4.710938 4.398438 4.734375 C 4.398438 5.285156 4.546875 5.925781 4.800781 6.488281 C 5.007812 6.945312 5.378906 7.550781 5.976562 7.859375 C 5.984375 7.863281 5.992188 7.867188 6 7.867188 C 6.007812 7.867188 6.015625 7.863281 6.023438 7.859375 C 6.621094 7.550781 6.992188 6.945312 7.199219 6.488281 C 7.453125 5.925781 7.601562 5.285156 7.601562 4.734375 C 7.601562 4.710938 7.585938 4.691406 7.566406 4.683594 Z M 7.566406 4.683594 "/>
<path style=" stroke:none;fill-rule:nonzero;fill:rgb(100%,100%,100%);fill-opacity:1;" d="M 4.507812 4.242188 L 5.121094 3.890625 L 7.953125 8.789062 L 8.089844 9.734375 L 7.339844 9.144531 Z M 4.507812 4.242188 "/>
<path style=" stroke:none;fill-rule:nonzero;fill:rgb(24.705882%,24.705882%,24.705882%);fill-opacity:1;" d="M 4.066406 2.269531 C 4.042969 2.269531 4.023438 2.277344 4 2.289062 L 3.6875 2.472656 C 3.601562 2.519531 3.574219 2.625 3.621094 2.707031 L 4.15625 3.628906 L 3.691406 3.898438 C 3.609375 3.945312 3.582031 4.050781 3.628906 4.132812 L 3.8125 4.449219 C 3.859375 4.53125 3.964844 4.558594 4.046875 4.511719 L 5.585938 3.621094 C 5.667969 3.574219 5.695312 3.46875 5.648438 3.386719 L 5.46875 3.070312 C 5.417969 2.988281 5.316406 2.960938 5.234375 3.007812 L 4.769531 3.277344 L 4.234375 2.351562 C 4.199219 2.289062 4.132812 2.257812 4.066406 2.269531 Z M 4.066406 2.269531 "/>
<path style=" stroke:none;fill-rule:nonzero;fill:rgb(100%,100%,100%);fill-opacity:1;" d="M 7.5 4.242188 L 6.886719 3.890625 L 4.054688 8.789062 L 3.917969 9.734375 L 4.667969 9.144531 Z M 7.5 4.242188 "/>
<path style=" stroke:none;fill-rule:nonzero;fill:rgb(24.705882%,24.705882%,24.705882%);fill-opacity:1;" d="M 7.941406 2.269531 C 7.964844 2.269531 7.988281 2.277344 8.007812 2.289062 L 8.324219 2.472656 C 8.40625 2.519531 8.433594 2.625 8.386719 2.707031 L 7.851562 3.628906 L 8.316406 3.898438 C 8.398438 3.945312 8.425781 4.050781 8.378906 4.132812 L 8.195312 4.449219 C 8.148438 4.53125 8.042969 4.558594 7.960938 4.511719 L 6.421875 3.621094 C 6.339844 3.574219 6.3125 3.46875 6.359375 3.386719 L 6.539062 3.070312 C 6.589844 2.988281 6.691406 2.960938 6.777344 3.007812 L 7.238281 3.277344 L 7.773438 2.351562 C 7.808594 2.289062 7.875 2.257812 7.941406 2.269531 Z M 7.941406 2.269531 "/>
</g>
</svg>
