<?xml version="1.0" encoding="UTF-8"?>
<svg xmlns="http://www.w3.org/2000/svg" xmlns:xlink="http://www.w3.org/1999/xlink" width="12pt" height="12pt" viewBox="0 0 12 12" version="1.1">
<defs>
<filter id="alpha" filterUnits="objectBoundingBox" x="0%" y="0%" width="100%" height="100%">
  <feColorMatrix type="matrix" in="SourceGraphic" values="0 0 0 0 1 0 0 0 0 1 0 0 0 0 1 0 0 0 1 0"/>
</filter>
<mask id="mask0">
  <g filter="url(#alpha)">
<rect x="0" y="0" width="12" height="12" style="fill:rgb(0%,0%,0%);fill-opacity:0.721569;stroke:none;"/>
  </g>
</mask>
<clipPath id="clip1">
  <rect width="12" height="12"/>
</clipPath>
<g id="surface6" clip-path="url(#clip1)">
<path style=" stroke:none;fill-rule:nonzero;fill:rgb(100%,100%,100%);fill-opacity:1;" d="M 6.03125 9.894531 C 6.03125 10.207031 5.777344 10.457031 5.46875 10.457031 C 5.15625 10.457031 4.90625 10.207031 4.90625 9.894531 C 4.90625 9.585938 5.15625 9.332031 5.46875 9.332031 C 5.777344 9.332031 6.03125 9.585938 6.03125 9.894531 Z M 6.03125 9.894531 "/>
</g>
<mask id="mask1">
  <g filter="url(#alpha)">
<rect x="0" y="0" width="12" height="12" style="fill:rgb(0%,0%,0%);fill-opacity:0.721569;stroke:none;"/>
  </g>
</mask>
<clipPath id="clip2">
  <rect width="12" height="12"/>
</clipPath>
<g id="surface9" clip-path="url(#clip2)">
<path style=" stroke:none;fill-rule:nonzero;fill:rgb(100%,100%,100%);fill-opacity:1;" d="M 7.90625 9.894531 C 7.90625 10.207031 7.652344 10.457031 7.34375 10.457031 C 7.03125 10.457031 6.78125 10.207031 6.78125 9.894531 C 6.78125 9.585938 7.03125 9.332031 7.34375 9.332031 C 7.652344 9.332031 7.90625 9.585938 7.90625 9.894531 Z M 7.90625 9.894531 "/>
</g>
<mask id="mask2">
  <g filter="url(#alpha)">
<rect x="0" y="0" width="12" height="12" style="fill:rgb(0%,0%,0%);fill-opacity:0.721569;stroke:none;"/>
  </g>
</mask>
<clipPath id="clip3">
  <rect width="12" height="12"/>
</clipPath>
<g id="surface12" clip-path="url(#clip3)">
<path style=" stroke:none;fill-rule:nonzero;fill:rgb(100%,100%,100%);fill-opacity:1;" d="M 9.78125 9.894531 C 9.78125 10.207031 9.527344 10.457031 9.21875 10.457031 C 8.90625 10.457031 8.65625 10.207031 8.65625 9.894531 C 8.65625 9.585938 8.90625 9.332031 9.21875 9.332031 C 9.527344 9.332031 9.78125 9.585938 9.78125 9.894531 Z M 9.78125 9.894531 "/>
</g>
</defs>
<g id="surface1">
<path style=" stroke:none;fill-rule:evenodd;fill:rgb(14.509804%,22.352941%,31.764706%);fill-opacity:1;" d="M 11.289062 8.6875 L 0.710938 8.6875 L 0.710938 9.199219 C 0.710938 10.355469 1.644531 11.289062 2.804688 11.289062 L 9.199219 11.289062 C 10.355469 11.289062 11.289062 10.355469 11.289062 9.199219 Z M 11.289062 8.6875 "/>
<path style=" stroke:none;fill-rule:evenodd;fill:rgb(29.019608%,70.196078%,89.411765%);fill-opacity:1;" d="M 2.804688 0.710938 C 1.644531 0.710938 0.710938 1.644531 0.710938 2.800781 L 0.710938 8.6875 L 11.289062 8.6875 L 11.289062 2.800781 C 11.289062 1.644531 10.355469 0.710938 9.199219 0.710938 Z M 2.804688 0.710938 "/>
<use xlink:href="#surface6" mask="url(#mask0)"/>
<use xlink:href="#surface9" mask="url(#mask1)"/>
<use xlink:href="#surface12" mask="url(#mask2)"/>
</g>
</svg>
