<?xml version="1.0" encoding="UTF-8"?>
<svg xmlns="http://www.w3.org/2000/svg" xmlns:xlink="http://www.w3.org/1999/xlink" width="12pt" height="12pt" viewBox="0 0 12 12" version="1.1">
<g id="surface1">
<path style=" stroke:none;fill-rule:evenodd;fill:rgb(98.039216%,74.117647%,49.803922%);fill-opacity:1;" d="M 2.800781 0.710938 L 9.199219 0.710938 C 10.351562 0.710938 11.289062 1.648438 11.289062 2.800781 L 11.289062 9.199219 C 11.289062 10.351562 10.351562 11.289062 9.199219 11.289062 L 2.800781 11.289062 C 1.648438 11.289062 0.710938 10.351562 0.710938 9.199219 L 0.710938 2.800781 C 0.710938 1.648438 1.648438 0.710938 2.800781 0.710938 Z M 2.800781 0.710938 "/>
<path style=" stroke:none;fill-rule:nonzero;fill:rgb(100%,100%,100%);fill-opacity:1;" d="M 4.511719 2.949219 C 4.324219 2.949219 4.171875 3.105469 4.171875 3.296875 L 4.171875 6.773438 L 3.121094 5.699219 C 2.984375 5.5625 2.769531 5.5625 2.636719 5.699219 L 2.394531 5.945312 C 2.261719 6.082031 2.261719 6.300781 2.394531 6.4375 L 4.230469 8.308594 C 4.449219 9.25 5.273438 9.914062 6.21875 9.914062 C 7.347656 9.914062 8.265625 8.980469 8.265625 7.824219 L 8.265625 3.296875 C 8.265625 3.105469 8.113281 2.949219 7.925781 2.949219 L 7.582031 2.949219 C 7.394531 2.949219 7.242188 3.105469 7.242188 3.296875 L 7.242188 5.261719 C 7.242188 5.136719 7.089844 5.039062 6.902344 5.039062 L 6.558594 5.039062 C 6.371094 5.039062 6.21875 5.136719 6.21875 5.261719 C 6.21875 5.136719 6.066406 5.039062 5.878906 5.039062 L 5.535156 5.039062 C 5.347656 5.039062 5.195312 5.136719 5.195312 5.261719 L 5.195312 3.296875 C 5.195312 3.105469 5.042969 2.949219 4.855469 2.949219 Z M 4.511719 2.949219 "/>
<path style=" stroke:none;fill-rule:nonzero;fill:rgb(98.039216%,80.784314%,63.529412%);fill-opacity:1;" d="M 4.699219 3.0625 C 4.511719 3.0625 4.34375 3.183594 4.34375 3.472656 C 4.34375 3.757812 4.496094 3.992188 4.683594 3.992188 C 4.871094 3.992188 5.023438 3.757812 5.023438 3.472656 C 5.023438 3.183594 4.886719 3.0625 4.699219 3.0625 Z M 7.753906 3.0625 C 7.566406 3.0625 7.414062 3.183594 7.414062 3.472656 C 7.414062 3.757812 7.566406 3.992188 7.753906 3.992188 C 7.941406 3.992188 8.09375 3.757812 8.09375 3.472656 C 8.09375 3.183594 7.941406 3.0625 7.753906 3.0625 Z M 2.765625 5.789062 C 2.71875 5.792969 2.667969 5.816406 2.605469 5.855469 C 2.445312 5.949219 2.269531 6.089844 2.410156 6.339844 C 2.554688 6.589844 2.800781 6.714844 2.960938 6.617188 C 3.125 6.523438 3.144531 6.242188 3.003906 5.992188 C 2.914062 5.835938 2.847656 5.78125 2.765625 5.789062 Z M 2.765625 5.789062 "/>
<path style=" stroke:none;fill-rule:nonzero;fill:rgb(90.980392%,64.705882%,37.647059%);fill-opacity:1;" d="M 4.511719 2.949219 C 4.324219 2.949219 4.171875 3.105469 4.171875 3.296875 L 4.171875 6.773438 L 3.121094 5.699219 C 2.984375 5.5625 2.769531 5.5625 2.636719 5.699219 L 2.394531 5.945312 C 2.261719 6.082031 2.261719 6.300781 2.394531 6.4375 L 4.230469 8.308594 C 4.449219 9.25 5.273438 9.914062 6.21875 9.914062 C 7.347656 9.914062 8.265625 8.980469 8.265625 7.824219 L 8.265625 3.296875 C 8.265625 3.105469 8.113281 2.949219 7.925781 2.949219 L 7.582031 2.949219 C 7.394531 2.949219 7.242188 3.105469 7.242188 3.296875 L 7.242188 5.261719 C 7.242188 5.136719 7.089844 5.039062 6.902344 5.039062 L 6.558594 5.039062 C 6.371094 5.039062 6.21875 5.136719 6.21875 5.261719 C 6.21875 5.136719 6.066406 5.039062 5.878906 5.039062 L 5.535156 5.039062 C 5.347656 5.039062 5.195312 5.136719 5.195312 5.261719 L 5.195312 3.296875 C 5.195312 3.105469 5.042969 2.949219 4.855469 2.949219 Z M 4.511719 3.210938 L 4.855469 3.210938 C 4.90625 3.210938 4.941406 3.246094 4.941406 3.296875 L 4.941406 6.378906 C 4.945312 6.683594 5.371094 6.714844 5.445312 6.417969 C 5.460938 6.410156 5.492188 5.300781 5.535156 5.300781 L 5.878906 5.300781 C 5.921875 5.300781 5.953125 6.234375 5.96875 6.242188 C 6.035156 6.507812 6.402344 6.507812 6.46875 6.242188 C 6.484375 6.234375 6.515625 5.300781 6.558594 5.300781 L 6.902344 5.300781 C 6.945312 5.300781 6.980469 6.460938 6.996094 6.46875 C 7.066406 6.765625 7.492188 6.734375 7.5 6.429688 L 7.5 3.296875 C 7.5 3.246094 7.53125 3.210938 7.582031 3.210938 L 7.925781 3.210938 C 7.976562 3.210938 8.011719 3.246094 8.011719 3.296875 L 8.011719 7.824219 C 8.011719 8.835938 7.210938 9.652344 6.21875 9.652344 C 5.390625 9.652344 4.671875 9.070312 4.480469 8.246094 C 4.46875 8.199219 4.445312 8.15625 4.410156 8.125 L 2.578125 6.25 C 2.539062 6.214844 2.539062 6.164062 2.578125 6.128906 L 2.816406 5.882812 C 2.855469 5.84375 2.902344 5.84375 2.9375 5.882812 L 3.992188 6.957031 C 4.152344 7.121094 4.429688 7.003906 4.429688 6.773438 L 4.429688 3.296875 C 4.429688 3.246094 4.460938 3.210938 4.511719 3.210938 Z M 4.511719 3.210938 "/>
</g>
</svg>
