<?xml version="1.0" encoding="UTF-8"?>
<svg xmlns="http://www.w3.org/2000/svg" xmlns:xlink="http://www.w3.org/1999/xlink" width="12pt" height="12pt" viewBox="0 0 12 12" version="1.1">
<g id="surface1">
<path style=" stroke:none;fill-rule:evenodd;fill:rgb(60.392157%,79.215686%,23.529412%);fill-opacity:1;" d="M 2.800781 0.710938 L 9.199219 0.710938 C 10.351562 0.710938 11.289062 1.648438 11.289062 2.800781 L 11.289062 9.199219 C 11.289062 10.351562 10.351562 11.289062 9.199219 11.289062 L 2.800781 11.289062 C 1.648438 11.289062 0.710938 10.351562 0.710938 9.199219 L 0.710938 2.800781 C 0.710938 1.648438 1.648438 0.710938 2.800781 0.710938 Z M 2.800781 0.710938 "/>
<path style="fill:none;stroke-width:3;stroke-linecap:round;stroke-linejoin:round;stroke:rgb(100%,100%,100%);stroke-opacity:1;stroke-miterlimit:4;" d="M 12.499841 22.5 L 22.499841 9.5 " transform="matrix(0.375,0,0,0.375,-0.37494,0)"/>
<path style="fill:none;stroke-width:3;stroke-linecap:round;stroke-linejoin:round;stroke:rgb(100%,100%,100%);stroke-opacity:1;stroke-miterlimit:4;" d="M 11.499841 9.5 L 16.697758 16 " transform="matrix(0.375,0,0,0.375,-0.37494,0)"/>
<path style=" stroke:none;fill-rule:nonzero;fill:rgb(85.098039%,22.352941%,63.137255%);fill-opacity:1;" d="M 10.539062 8.25 C 10.539062 9.492188 9.53125 10.5 8.289062 10.5 C 7.046875 10.5 6.039062 9.492188 6.039062 8.25 C 6.039062 7.007812 7.046875 6 8.289062 6 C 9.53125 6 10.539062 7.007812 10.539062 8.25 Z M 10.539062 8.25 "/>
<path style=" stroke:none;fill-rule:nonzero;fill:rgb(100%,100%,100%);fill-opacity:1;" d="M 8 7.125 L 7.972656 7.421875 C 7.878906 7.457031 7.792969 7.507812 7.714844 7.570312 L 7.445312 7.445312 L 7.164062 7.929688 L 7.410156 8.101562 C 7.398438 8.148438 7.394531 8.199219 7.394531 8.25 C 7.394531 8.300781 7.398438 8.351562 7.410156 8.398438 L 7.164062 8.570312 L 7.445312 9.054688 L 7.714844 8.929688 C 7.792969 8.992188 7.878906 9.042969 7.972656 9.078125 L 8 9.375 L 8.5625 9.375 L 8.585938 9.078125 C 8.679688 9.042969 8.765625 8.992188 8.84375 8.929688 L 9.113281 9.054688 L 9.394531 8.570312 L 9.148438 8.398438 C 9.160156 8.351562 9.164062 8.300781 9.164062 8.25 C 9.164062 8.199219 9.160156 8.148438 9.152344 8.101562 L 9.394531 7.929688 L 9.113281 7.445312 L 8.84375 7.570312 C 8.765625 7.507812 8.679688 7.457031 8.585938 7.421875 L 8.5625 7.125 Z M 8.28125 7.929688 C 8.457031 7.929688 8.601562 8.074219 8.601562 8.25 C 8.601562 8.425781 8.457031 8.570312 8.28125 8.570312 C 8.101562 8.570312 7.957031 8.425781 7.957031 8.25 C 7.957031 8.074219 8.101562 7.929688 8.28125 7.929688 Z M 8.28125 7.929688 "/>
</g>
</svg>
