<?xml version="1.0" encoding="UTF-8"?>
<svg xmlns="http://www.w3.org/2000/svg" xmlns:xlink="http://www.w3.org/1999/xlink" width="12pt" height="12pt" viewBox="0 0 12 12" version="1.1">
<g id="surface1">
<path style=" stroke:none;fill-rule:evenodd;fill:rgb(85.098039%,16.078431%,16.078431%);fill-opacity:1;" d="M 2.800781 0.710938 L 9.199219 0.710938 C 10.351562 0.710938 11.289062 1.648438 11.289062 2.800781 L 11.289062 9.199219 C 11.289062 10.351562 10.351562 11.289062 9.199219 11.289062 L 2.800781 11.289062 C 1.648438 11.289062 0.710938 10.351562 0.710938 9.199219 L 0.710938 2.800781 C 0.710938 1.648438 1.648438 0.710938 2.800781 0.710938 Z M 2.800781 0.710938 "/>
<path style="fill:none;stroke-width:2;stroke-linecap:round;stroke-linejoin:round;stroke:rgb(100%,53.72549%,36.862745%);stroke-opacity:1;stroke-miterlimit:4;" d="M 6.010395 12.903075 L 13.718729 12.903075 L 6.718729 21.996825 L 14.416645 21.996825 " transform="matrix(0.375,0,0,0.375,0.00000796672,-0.00271552)"/>
<path style="fill:none;stroke-width:2;stroke-linecap:round;stroke-linejoin:round;stroke:rgb(100%,53.72549%,36.862745%);stroke-opacity:1;stroke-miterlimit:4;" d="M 16.999979 21.996825 L 16.999979 9.996825 L 21.499979 16.996825 L 25.999979 9.996825 L 25.999979 21.986408 " transform="matrix(0.375,0,0,0.375,0.00000796672,-0.00271552)"/>
</g>
</svg>
