<?xml version="1.0" encoding="UTF-8"?>
<svg xmlns="http://www.w3.org/2000/svg" xmlns:xlink="http://www.w3.org/1999/xlink" width="48pt" height="48pt" viewBox="0 0 48 48" version="1.1">
<g id="surface1">
<path style=" stroke:none;fill-rule:evenodd;fill:rgb(76.078431%,20.784314%,16.470588%);fill-opacity:1;" d="M 11.210938 2.847656 L 36.789062 2.847656 C 41.410156 2.847656 45.152344 6.589844 45.152344 11.210938 L 45.152344 36.789062 C 45.152344 41.410156 41.410156 45.152344 36.789062 45.152344 L 11.210938 45.152344 C 6.589844 45.152344 2.847656 41.410156 2.847656 36.789062 L 2.847656 11.210938 C 2.847656 6.589844 6.589844 2.847656 11.210938 2.847656 Z M 11.210938 2.847656 "/>
<path style=" stroke:none;fill-rule:nonzero;fill:rgb(40.392157%,54.509804%,100%);fill-opacity:1;" d="M 11.769531 21.179688 L 36.230469 21.179688 C 37.269531 21.179688 38.109375 22.019531 38.109375 23.058594 L 38.109375 24.941406 C 38.109375 25.980469 37.269531 26.820312 36.230469 26.820312 L 11.769531 26.820312 C 10.730469 26.820312 9.890625 25.980469 9.890625 24.941406 L 9.890625 23.058594 C 9.890625 22.019531 10.730469 21.179688 11.769531 21.179688 Z M 11.769531 21.179688 "/>
<path style=" stroke:none;fill-rule:nonzero;fill:rgb(100%,100%,100%);fill-opacity:1;" d="M 20.238281 34.347656 L 20.238281 13.652344 C 20.238281 12.09375 18.972656 10.832031 17.414062 10.832031 L 16.472656 10.832031 C 14.914062 10.832031 13.652344 12.09375 13.652344 13.652344 L 13.652344 34.347656 C 13.652344 35.90625 14.914062 37.167969 16.472656 37.167969 L 17.414062 37.167969 C 18.972656 37.167969 20.238281 35.90625 20.238281 34.347656 Z M 20.238281 34.347656 "/>
<path style=" stroke:none;fill-rule:nonzero;fill:rgb(100%,100%,100%);fill-opacity:1;" d="M 34.347656 34.347656 L 34.347656 13.652344 C 34.347656 12.09375 33.085938 10.832031 31.527344 10.832031 L 30.585938 10.832031 C 29.027344 10.832031 27.761719 12.09375 27.761719 13.652344 L 27.761719 34.347656 C 27.761719 35.90625 29.027344 37.167969 30.585938 37.167969 L 31.527344 37.167969 C 33.085938 37.167969 34.347656 35.90625 34.347656 34.347656 Z M 34.347656 34.347656 "/>
<path style=" stroke:none;fill-rule:nonzero;fill:rgb(100%,100%,100%);fill-opacity:1;" d="M 13.652344 31.996094 L 13.652344 16.003906 C 13.652344 15.226562 13.019531 14.59375 12.242188 14.59375 C 11.460938 14.59375 10.832031 15.226562 10.832031 16.003906 L 10.832031 31.996094 C 10.832031 32.773438 11.460938 33.40625 12.242188 33.40625 C 13.019531 33.40625 13.652344 32.773438 13.652344 31.996094 Z M 13.652344 31.996094 "/>
<path style=" stroke:none;fill-rule:nonzero;fill:rgb(100%,100%,100%);fill-opacity:1;" d="M 37.167969 31.996094 L 37.167969 16.003906 C 37.167969 15.226562 36.539062 14.59375 35.757812 14.59375 C 34.980469 14.59375 34.347656 15.226562 34.347656 16.003906 L 34.347656 31.996094 C 34.347656 32.773438 34.980469 33.40625 35.757812 33.40625 C 36.539062 33.40625 37.167969 32.773438 37.167969 31.996094 Z M 37.167969 31.996094 "/>
</g>
</svg>
