<?xml version="1.0" encoding="UTF-8"?>
<svg xmlns="http://www.w3.org/2000/svg" xmlns:xlink="http://www.w3.org/1999/xlink" width="48pt" height="48pt" viewBox="0 0 48 48" version="1.1">
<g id="surface1">
<path style=" stroke:none;fill-rule:evenodd;fill:rgb(80%,80%,80%);fill-opacity:1;" d="M 11.210938 2.847656 L 36.789062 2.847656 C 41.410156 2.847656 45.152344 6.589844 45.152344 11.210938 L 45.152344 36.789062 C 45.152344 41.410156 41.410156 45.152344 36.789062 45.152344 L 11.210938 45.152344 C 6.589844 45.152344 2.847656 41.410156 2.847656 36.789062 L 2.847656 11.210938 C 2.847656 6.589844 6.589844 2.847656 11.210938 2.847656 Z M 11.210938 2.847656 "/>
<path style=" stroke:none;fill-rule:nonzero;fill:rgb(11.764706%,61.176471%,87.843137%);fill-opacity:1;" d="M 21.269531 10.8125 C 20.222656 11.074219 19.425781 11.894531 19.214844 12.921875 L 18.023438 18.746094 L 12.421875 21.09375 C 11.445312 21.503906 10.789062 22.417969 10.734375 23.457031 C 10.675781 24.492188 11.230469 25.46875 12.160156 25.976562 L 17.476562 28.878906 L 18.035156 34.792969 C 18.132812 35.828125 18.824219 36.714844 19.820312 37.089844 C 20.816406 37.460938 21.941406 37.25 22.726562 36.546875 L 27.207031 32.519531 L 33.152344 33.828125 C 34.191406 34.054688 35.273438 33.6875 35.945312 32.882812 C 36.617188 32.074219 36.757812 30.964844 36.3125 30.023438 L 33.761719 24.632812 L 36.878906 19.527344 C 37.421875 18.636719 37.398438 17.519531 36.820312 16.648438 C 36.238281 15.777344 35.199219 15.304688 34.144531 15.425781 L 28.085938 16.121094 L 24.066406 11.65625 C 23.371094 10.886719 22.289062 10.558594 21.269531 10.8125 Z M 21.269531 10.8125 "/>
</g>
</svg>
