<?xml version="1.0" encoding="UTF-8"?>
<svg xmlns="http://www.w3.org/2000/svg" xmlns:xlink="http://www.w3.org/1999/xlink" width="48pt" height="48pt" viewBox="0 0 48 48" version="1.1">
<defs>
<clipPath id="clip1">
  <rect width="48" height="48"/>
</clipPath>
<g id="surface6" clip-path="url(#clip1)">
<path style=" stroke:none;fill-rule:nonzero;fill:rgb(72.941176%,72.941176%,72.941176%);fill-opacity:1;" d="M 15.257812 20.238281 C 14.425781 20.238281 13.757812 20.910156 13.757812 21.738281 L 13.757812 33.738281 C 13.757812 34.570312 14.425781 35.238281 15.257812 35.238281 L 28.757812 35.238281 C 29.585938 35.238281 30.257812 34.570312 30.257812 33.738281 L 30.257812 21.738281 C 30.257812 20.910156 29.585938 20.238281 28.757812 20.238281 Z M 30.257812 27.738281 L 36.257812 32.238281 L 36.257812 23.238281 Z M 30.257812 27.738281 "/>
</g>
</defs>
<g id="surface1">
<path style=" stroke:none;fill-rule:evenodd;fill:rgb(30.980392%,30.980392%,30.980392%);fill-opacity:1;" d="M 11.210938 2.847656 L 36.789062 2.847656 C 41.410156 2.847656 45.152344 6.589844 45.152344 11.210938 L 45.152344 36.789062 C 45.152344 41.410156 41.410156 45.152344 36.789062 45.152344 L 11.210938 45.152344 C 6.589844 45.152344 2.847656 41.410156 2.847656 36.789062 L 2.847656 11.210938 C 2.847656 6.589844 6.589844 2.847656 11.210938 2.847656 Z M 11.210938 2.847656 "/>
<path style=" stroke:none;fill-rule:evenodd;fill:rgb(30.980392%,30.980392%,30.980392%);fill-opacity:1;" d="M 2.847656 12.039062 L 2.847656 36.789062 C 2.847656 41.425781 6.574219 45.152344 11.207031 45.152344 L 36.789062 45.152344 C 41.421875 45.152344 45.152344 41.425781 45.152344 36.789062 L 45.152344 12.039062 Z M 2.847656 12.039062 "/>
<path style=" stroke:none;fill-rule:evenodd;fill:rgb(24.705882%,24.705882%,24.705882%);fill-opacity:1;" d="M 44.546875 8.21875 L 40.726562 12.039062 L 45.152344 12.039062 L 45.152344 11.210938 C 45.152344 10.148438 44.90625 9.152344 44.546875 8.21875 Z M 44.546875 8.21875 "/>
<path style=" stroke:none;fill-rule:evenodd;fill:rgb(39.607843%,39.607843%,39.607843%);fill-opacity:1;" d="M 44.09375 7.355469 L 39.167969 7.355469 L 34.480469 12.039062 L 40.726562 12.039062 L 44.546875 8.21875 C 44.429688 7.90625 44.25 7.644531 44.09375 7.355469 Z M 44.09375 7.355469 "/>
<path style=" stroke:none;fill-rule:evenodd;fill:rgb(39.607843%,39.607843%,39.607843%);fill-opacity:1;" d="M 29.796875 12.039062 L 34.480469 7.355469 L 28.234375 7.355469 L 23.550781 12.039062 Z M 29.796875 12.039062 "/>
<path style=" stroke:none;fill-rule:evenodd;fill:rgb(24.705882%,24.705882%,24.705882%);fill-opacity:1;" d="M 29.976562 2.847656 L 34.480469 7.355469 L 29.796875 12.039062 L 34.480469 12.039062 L 39.167969 7.355469 L 34.660156 2.847656 Z M 29.976562 2.847656 "/>
<path style=" stroke:none;fill-rule:evenodd;fill:rgb(24.705882%,24.705882%,24.705882%);fill-opacity:1;" d="M 23.550781 7.355469 L 18.867188 12.039062 L 23.550781 12.039062 L 28.234375 7.355469 L 23.730469 2.847656 L 19.046875 2.847656 Z M 23.550781 7.355469 "/>
<path style=" stroke:none;fill-rule:evenodd;fill:rgb(39.607843%,39.607843%,39.607843%);fill-opacity:1;" d="M 17.300781 7.355469 L 12.617188 12.039062 L 18.867188 12.039062 L 23.550781 7.355469 Z M 17.300781 7.355469 "/>
<path style=" stroke:none;fill-rule:evenodd;fill:rgb(24.705882%,24.705882%,24.705882%);fill-opacity:1;" d="M 7.503906 3.804688 L 11.054688 7.355469 L 11.054688 12.039062 L 12.617188 12.039062 L 17.300781 7.355469 L 12.796875 2.847656 L 11.207031 2.847656 C 9.859375 2.847656 8.632812 3.238281 7.503906 3.804688 Z M 7.503906 3.804688 "/>
<path style=" stroke:none;fill-rule:evenodd;fill:rgb(39.607843%,39.607843%,39.607843%);fill-opacity:1;" d="M 2.847656 12.039062 L 11.054688 12.039062 L 11.054688 7.355469 L 7.503906 3.804688 C 4.769531 5.175781 2.847656 7.929688 2.847656 11.210938 Z M 2.847656 12.039062 "/>
<path style=" stroke:none;fill-rule:evenodd;fill:rgb(39.607843%,39.607843%,39.607843%);fill-opacity:1;" d="M 12.796875 2.847656 L 17.300781 7.355469 L 23.550781 7.355469 L 19.046875 2.847656 Z M 12.796875 2.847656 "/>
<path style=" stroke:none;fill-rule:evenodd;fill:rgb(39.607843%,39.607843%,39.607843%);fill-opacity:1;" d="M 23.730469 2.847656 L 28.234375 7.355469 L 34.480469 7.355469 L 29.976562 2.847656 Z M 23.730469 2.847656 "/>
<path style=" stroke:none;fill-rule:evenodd;fill:rgb(39.607843%,39.607843%,39.607843%);fill-opacity:1;" d="M 34.660156 2.847656 L 39.167969 7.355469 L 44.09375 7.355469 C 42.695312 4.707031 40.003906 2.847656 36.789062 2.847656 Z M 34.660156 2.847656 "/>
<use xlink:href="#surface6"/>
</g>
</svg>
