<?xml version="1.0" encoding="UTF-8"?>
<svg xmlns="http://www.w3.org/2000/svg" xmlns:xlink="http://www.w3.org/1999/xlink" width="48pt" height="48pt" viewBox="0 0 48 48" version="1.1">
<g id="surface1">
<path style=" stroke:none;fill-rule:evenodd;fill:rgb(30.980392%,30.980392%,30.980392%);fill-opacity:1;" d="M 11.210938 2.847656 L 36.789062 2.847656 C 41.410156 2.847656 45.152344 6.589844 45.152344 11.210938 L 45.152344 36.789062 C 45.152344 41.410156 41.410156 45.152344 36.789062 45.152344 L 11.210938 45.152344 C 6.589844 45.152344 2.847656 41.410156 2.847656 36.789062 L 2.847656 11.210938 C 2.847656 6.589844 6.589844 2.847656 11.210938 2.847656 Z M 11.210938 2.847656 "/>
<path style=" stroke:none;fill-rule:nonzero;fill:rgb(69.019608%,69.019608%,69.019608%);fill-opacity:1;" d="M 10.140625 6.671875 L 10.140625 24.691406 L 17.761719 20.1875 L 25.386719 15.683594 L 17.761719 11.179688 Z M 26.773438 16.375 L 26.773438 30.238281 L 37.859375 23.308594 L 32.316406 19.839844 Z M 14.296875 24.691406 L 14.296875 41.328125 L 21.226562 37.167969 L 28.160156 33.007812 L 21.226562 28.851562 Z M 14.296875 24.691406 "/>
</g>
</svg>
