<?xml version="1.0" encoding="UTF-8"?>
<svg xmlns="http://www.w3.org/2000/svg" xmlns:xlink="http://www.w3.org/1999/xlink" width="48pt" height="48pt" viewBox="0 0 48 48" version="1.1">
<g id="surface1">
<path style=" stroke:none;fill-rule:evenodd;fill:rgb(76.078431%,20.784314%,16.470588%);fill-opacity:1;" d="M 11.210938 2.847656 L 36.789062 2.847656 C 41.410156 2.847656 45.152344 6.589844 45.152344 11.210938 L 45.152344 36.789062 C 45.152344 41.410156 41.410156 45.152344 36.789062 45.152344 L 11.210938 45.152344 C 6.589844 45.152344 2.847656 41.410156 2.847656 36.789062 L 2.847656 11.210938 C 2.847656 6.589844 6.589844 2.847656 11.210938 2.847656 Z M 11.210938 2.847656 "/>
<path style=" stroke:none;fill-rule:evenodd;fill:rgb(100%,100%,100%);fill-opacity:1;" d="M 29.75 9.722656 C 29.398438 9.742188 29.054688 9.847656 28.75 10.023438 L 11.007812 19.957031 L 2.847656 16.117188 L 2.847656 21.09375 L 10.140625 24.523438 C 10.796875 24.832031 11.5625 24.804688 12.195312 24.449219 L 30.945312 13.949219 C 31.835938 13.46875 32.296875 12.453125 32.070312 11.46875 C 31.84375 10.480469 30.988281 9.769531 29.976562 9.722656 C 29.902344 9.71875 29.828125 9.71875 29.753906 9.722656 Z M 29.75 17.222656 C 29.398438 17.242188 29.054688 17.347656 28.75 17.523438 L 11.007812 27.457031 L 2.847656 23.617188 L 2.847656 28.59375 L 10.140625 32.023438 C 10.796875 32.332031 11.5625 32.304688 12.195312 31.949219 L 30.945312 21.449219 C 31.835938 20.96875 32.296875 19.953125 32.070312 18.96875 C 31.84375 17.980469 30.988281 17.269531 29.976562 17.222656 C 29.902344 17.21875 29.828125 17.21875 29.753906 17.222656 Z M 29.75 24.722656 C 29.398438 24.742188 29.054688 24.847656 28.75 25.023438 L 11.007812 34.957031 L 2.847656 31.117188 L 2.847656 36.09375 L 10.140625 39.523438 C 10.796875 39.832031 11.5625 39.804688 12.195312 39.449219 L 30.945312 28.949219 C 31.835938 28.46875 32.296875 27.453125 32.070312 26.46875 C 31.84375 25.480469 30.988281 24.765625 29.976562 24.722656 C 29.902344 24.71875 29.828125 24.71875 29.753906 24.722656 Z M 29.75 24.722656 "/>
</g>
</svg>
