<?xml version="1.0" encoding="UTF-8"?>
<svg xmlns="http://www.w3.org/2000/svg" xmlns:xlink="http://www.w3.org/1999/xlink" width="48pt" height="48pt" viewBox="0 0 48 48" version="1.1">
<defs>
<clipPath id="clip1">
  <rect width="48" height="48"/>
</clipPath>
<g id="surface6" clip-path="url(#clip1)">
<path style=" stroke:none;fill-rule:nonzero;fill:rgb(88.235294%,38.431373%,38.431373%);fill-opacity:1;" d="M 39.902344 29.117188 C 39.902344 34.085938 35.875 38.117188 30.902344 38.117188 C 25.933594 38.117188 21.902344 34.085938 21.902344 29.117188 C 21.902344 24.144531 25.933594 20.117188 30.902344 20.117188 C 35.875 20.117188 39.902344 24.144531 39.902344 29.117188 Z M 39.902344 29.117188 "/>
</g>
<clipPath id="clip2">
  <rect width="48" height="48"/>
</clipPath>
<g id="surface9" clip-path="url(#clip2)">
<path style=" stroke:none;fill-rule:nonzero;fill:rgb(100%,100%,100%);fill-opacity:1;" d="M 30.902344 24.617188 C 28.417969 24.617188 26.402344 26.632812 26.402344 29.117188 C 26.402344 31.601562 28.417969 33.617188 30.902344 33.617188 C 32.945312 33.617188 34.671875 32.265625 35.222656 30.402344 L 33.835938 30.402344 C 33.339844 31.535156 32.21875 32.332031 30.902344 32.332031 C 29.128906 32.332031 27.6875 30.890625 27.6875 29.117188 C 27.6875 27.339844 29.128906 25.902344 30.902344 25.902344 C 31.792969 25.902344 32.585938 26.273438 33.164062 26.855469 L 31.546875 28.472656 L 35.402344 28.472656 L 35.402344 24.617188 L 34.082031 25.9375 C 33.269531 25.125 32.144531 24.617188 30.902344 24.617188 Z M 30.902344 24.617188 "/>
</g>
</defs>
<g id="surface1">
<path style=" stroke:none;fill-rule:evenodd;fill:rgb(30.980392%,30.980392%,30.980392%);fill-opacity:1;" d="M 11.210938 2.847656 L 36.789062 2.847656 C 41.410156 2.847656 45.152344 6.589844 45.152344 11.210938 L 45.152344 36.789062 C 45.152344 41.410156 41.410156 45.152344 36.789062 45.152344 L 11.210938 45.152344 C 6.589844 45.152344 2.847656 41.410156 2.847656 36.789062 L 2.847656 11.210938 C 2.847656 6.589844 6.589844 2.847656 11.210938 2.847656 Z M 11.210938 2.847656 "/>
<path style=" stroke:none;fill-rule:nonzero;fill:rgb(88.235294%,38.431373%,38.431373%);fill-opacity:1;" d="M 14.101562 19.570312 C 10.640625 20.144531 8.101562 23.136719 8.097656 26.644531 C 8.097656 30.613281 11.3125 33.832031 15.28125 33.832031 C 17.523438 33.828125 19.640625 32.777344 20.996094 30.992188 C 19.777344 30.671875 18.636719 30.113281 17.632812 29.351562 C 16.980469 29.921875 16.148438 30.234375 15.28125 30.238281 C 13.296875 30.238281 11.6875 28.628906 11.6875 26.644531 C 11.6875 25.167969 12.597656 23.835938 13.976562 23.300781 C 13.890625 22.785156 13.847656 22.261719 13.84375 21.738281 C 13.847656 21.007812 13.933594 20.28125 14.101562 19.570312 Z M 14.101562 19.570312 "/>
<path style=" stroke:none;fill-rule:nonzero;fill:rgb(41.176471%,85.882353%,24.313725%);fill-opacity:1;" d="M 21.269531 9.882812 C 17.300781 9.882812 14.085938 13.101562 14.085938 17.066406 C 14.085938 17.867188 14.222656 18.65625 14.488281 19.410156 C 15.402344 18.496094 16.488281 17.773438 17.6875 17.289062 C 17.683594 17.214844 17.679688 17.140625 17.675781 17.066406 C 17.675781 15.082031 19.285156 13.476562 21.269531 13.476562 C 23.253906 13.476562 24.859375 15.082031 24.859375 17.066406 C 24.859375 17.140625 24.855469 17.21875 24.847656 17.292969 C 26.046875 17.773438 27.136719 18.496094 28.050781 19.410156 C 28.3125 18.65625 28.449219 17.863281 28.453125 17.066406 C 28.453125 13.101562 25.234375 9.882812 21.269531 9.882812 Z M 21.269531 9.882812 "/>
<path style=" stroke:none;fill-rule:nonzero;fill:rgb(64.705882%,91.372549%,54.901961%);fill-opacity:1;" d="M 23.664062 17.066406 C 23.664062 18.390625 22.589844 19.460938 21.269531 19.460938 C 19.945312 19.460938 18.875 18.390625 18.875 17.066406 C 18.875 15.746094 19.945312 14.671875 21.269531 14.671875 C 22.589844 14.671875 23.664062 15.746094 23.664062 17.066406 Z M 23.664062 17.066406 "/>
<path style=" stroke:none;fill-rule:nonzero;fill:rgb(92.156863%,58.431373%,58.431373%);fill-opacity:1;" d="M 17.675781 26.644531 C 17.675781 27.96875 16.605469 29.042969 15.28125 29.042969 C 13.957031 29.042969 12.886719 27.96875 12.886719 26.644531 C 12.886719 25.324219 13.957031 24.25 15.28125 24.25 C 16.605469 24.25 17.675781 25.324219 17.675781 26.644531 Z M 17.675781 26.644531 "/>
<path style=" stroke:none;fill-rule:nonzero;fill:rgb(100%,100%,100%);fill-opacity:1;" d="M 35.636719 26.644531 C 35.636719 29.292969 33.492188 31.4375 30.847656 31.4375 C 28.203125 31.4375 26.058594 29.292969 26.058594 26.644531 C 26.058594 24 28.203125 21.855469 30.847656 21.855469 C 33.492188 21.855469 35.636719 24 35.636719 26.644531 Z M 35.636719 26.644531 "/>
<path style=" stroke:none;fill-rule:nonzero;fill:rgb(100%,100%,100%);fill-opacity:1;" d="M 28.453125 27.84375 L 33.242188 27.84375 L 33.242188 32.632812 L 28.453125 32.632812 Z M 28.453125 27.84375 "/>
<path style=" stroke:none;fill-rule:nonzero;fill:rgb(100%,100%,100%);fill-opacity:1;" d="M 28.453125 33.832031 L 33.242188 33.832031 L 33.242188 35.027344 L 28.453125 35.027344 Z M 28.453125 33.832031 "/>
<use xlink:href="#surface6"/>
<use xlink:href="#surface9"/>
</g>
</svg>
