<?xml version="1.0" encoding="UTF-8"?>
<svg xmlns="http://www.w3.org/2000/svg" xmlns:xlink="http://www.w3.org/1999/xlink" width="48pt" height="48pt" viewBox="0 0 48 48" version="1.1">
<defs>
<clipPath id="clip1">
  <rect width="48" height="48"/>
</clipPath>
<g id="surface6" clip-path="url(#clip1)">
<path style=" stroke:none;fill-rule:nonzero;fill:rgb(100%,100%,100%);fill-opacity:1;" d="M 27.296875 32.101562 L 27.296875 34.777344 L 29.972656 34.777344 L 36.722656 28.027344 L 34.050781 25.351562 Z M 39.085938 25.667969 C 39.367188 25.386719 39.367188 24.941406 39.085938 24.660156 L 37.414062 22.988281 C 37.132812 22.707031 36.6875 22.707031 36.40625 22.988281 L 35.007812 24.394531 L 37.679688 27.066406 Z M 39.085938 25.667969 "/>
</g>
</defs>
<g id="surface1">
<path style=" stroke:none;fill-rule:evenodd;fill:rgb(64.705882%,34.901961%,83.921569%);fill-opacity:1;" d="M 11.210938 2.847656 L 36.789062 2.847656 C 41.410156 2.847656 45.152344 6.589844 45.152344 11.210938 L 45.152344 36.789062 C 45.152344 41.410156 41.410156 45.152344 36.789062 45.152344 L 11.210938 45.152344 C 6.589844 45.152344 2.847656 41.410156 2.847656 36.789062 L 2.847656 11.210938 C 2.847656 6.589844 6.589844 2.847656 11.210938 2.847656 Z M 11.210938 2.847656 "/>
<path style=" stroke:none;fill-rule:nonzero;fill:rgb(97.647059%,97.647059%,97.647059%);fill-opacity:1;" d="M 17.113281 13.183594 C 13.796875 13.183594 11.105469 15.875 11.105469 19.191406 C 11.105469 22.511719 13.796875 25.203125 17.113281 25.203125 C 20.433594 25.203125 23.121094 22.511719 23.121094 19.191406 C 23.121094 15.875 20.433594 13.183594 17.113281 13.183594 Z M 8.703125 34.816406 L 25.527344 34.816406 C 25.527344 28.808594 21.925781 27.605469 17.117188 27.605469 C 12.308594 27.605469 8.703125 28.808594 8.703125 34.816406 Z M 8.703125 34.816406 "/>
<use xlink:href="#surface6"/>
</g>
</svg>
