<?xml version="1.0" encoding="UTF-8"?>
<svg xmlns="http://www.w3.org/2000/svg" xmlns:xlink="http://www.w3.org/1999/xlink" width="48pt" height="48pt" viewBox="0 0 48 48" version="1.1">
<g id="surface1">
<path style=" stroke:none;fill-rule:evenodd;fill:rgb(98.431373%,40%,31.764706%);fill-opacity:1;" d="M 11.210938 2.847656 L 36.789062 2.847656 C 41.410156 2.847656 45.152344 6.589844 45.152344 11.210938 L 45.152344 36.789062 C 45.152344 41.410156 41.410156 45.152344 36.789062 45.152344 L 11.210938 45.152344 C 6.589844 45.152344 2.847656 41.410156 2.847656 36.789062 L 2.847656 11.210938 C 2.847656 6.589844 6.589844 2.847656 11.210938 2.847656 Z M 11.210938 2.847656 "/>
<path style=" stroke:none;fill-rule:evenodd;fill:rgb(100%,100%,100%);fill-opacity:1;" d="M 21.589844 15.023438 C 21.589844 15.023438 21.207031 15.023438 21.042969 15.042969 C 17.269531 15.023438 15.160156 19.144531 13.300781 21.453125 C 12.480469 22.472656 11.824219 23.289062 11.824219 23.289062 C 10.402344 24.757812 8.453125 26.285156 6.847656 27.203125 C 6.917969 27.738281 7.011719 28.273438 7.128906 28.804688 C 7.730469 28.535156 8.4375 28.273438 8.726562 28.042969 C 10.3125 26.773438 13.082031 24.703125 13.363281 24.703125 C 13.644531 24.703125 14.128906 24.585938 14.332031 25.289062 C 14.535156 25.988281 14.066406 26.824219 14.066406 26.824219 C 14.066406 26.824219 13.453125 27.871094 13.476562 28.449219 C 13.765625 30.523438 15.4375 32.597656 17.132812 32.882812 C 18.355469 33.050781 20.164062 32.941406 20.164062 32.941406 L 20.203125 32.632812 C 20.164062 32.167969 19.207031 31.96875 19.207031 31.96875 C 19.199219 31.972656 17.992188 32.199219 17.460938 31.957031 C 16.570312 31.550781 15.527344 29.945312 15.527344 29.738281 C 15.527344 29.535156 15.824219 28.621094 15.824219 28.621094 C 15.824219 28.621094 16.808594 28.753906 17.136719 28.753906 C 17.464844 28.753906 18.304688 28.796875 18.304688 28.796875 L 18.9375 29.773438 C 19.136719 30.15625 19.382812 29.964844 19.710938 30.050781 L 21.121094 30.066406 L 22.09375 30.046875 L 22.09375 29.550781 C 22.09375 30.046875 22.09375 29.082031 21.460938 29.066406 C 20.917969 29.039062 20.203125 28.972656 20.144531 28.773438 C 20.042969 28.449219 20.183594 27.609375 20.183594 27.609375 C 20.183594 27.609375 20.886719 27.269531 22.371094 27.5625 C 23.851562 27.855469 25.539062 29.082031 25.539062 29.082031 C 25.117188 29.867188 24.726562 30.035156 24.652344 30.835938 C 24.574219 31.5625 24.574219 31.5625 25.054688 31.5625 L 27.332031 31.5625 C 27.332031 31.5625 27.332031 30.597656 26.675781 30.648438 C 26.21875 30.632812 25.964844 30.605469 25.964844 30.566406 C 25.964844 30.382812 26.839844 29.617188 26.839844 29.617188 L 27.457031 29.167969 C 27.457031 29.167969 28.324219 29.75 29.4375 30.035156 C 30.546875 30.316406 31.9375 30.179688 31.9375 30.179688 C 32.371094 30.441406 32.457031 30.660156 32.671875 31.027344 C 32.84375 31.703125 32.84375 31.5625 33.21875 31.578125 C 34.039062 31.597656 34.734375 31.5625 35.535156 31.503906 C 35.535156 31.503906 35.601562 30.597656 34.265625 30.597656 C 34.265625 30.597656 33.777344 30.289062 33.6875 29.832031 C 33.601562 29.371094 33.652344 28.171875 33.652344 28.171875 L 34.3125 28.113281 L 35.183594 28.855469 L 35.722656 28.90625 L 36.472656 30.117188 C 36.472656 30.117188 37.96875 30.226562 38.472656 30.035156 C 38.972656 29.847656 39.882812 29.339844 40.40625 28.769531 C 40.933594 28.203125 41.28125 26.859375 41.105469 26.101562 C 40.925781 25.34375 39.945312 24.4375 39.945312 24.4375 C 37.871094 22.46875 34.636719 19.175781 32.628906 19.160156 C 32.308594 19.160156 31.511719 19.910156 31.050781 19.578125 C 28.179688 17.597656 25.035156 15.167969 21.589844 15.027344 Z M 35.601562 23.289062 C 36.359375 23.289062 36.976562 23.90625 36.976562 24.667969 C 36.976562 25.429688 36.359375 26.046875 35.601562 26.046875 C 34.839844 26.046875 34.222656 25.429688 34.222656 24.667969 C 34.222656 23.90625 34.839844 23.289062 35.601562 23.289062 Z M 35.601562 23.289062 "/>
</g>
</svg>
