<?xml version="1.0" encoding="UTF-8"?>
<svg xmlns="http://www.w3.org/2000/svg" xmlns:xlink="http://www.w3.org/1999/xlink" width="48pt" height="48pt" viewBox="0 0 48 48" version="1.1">
<defs>
<radialGradient id="radial0" gradientUnits="userSpaceOnUse" cx="15.959587" cy="15.968227" fx="15.959587" fy="15.968227" r="5.990716" gradientTransform="matrix(1.4113,0,0,1.41426,1.476237,1.416782)">
<stop offset="0" style="stop-color:rgb(60%,93.72549%,100%);stop-opacity:1;"/>
<stop offset="1" style="stop-color:rgb(30.196078%,52.54902%,79.607843%);stop-opacity:0;"/>
</radialGradient>
</defs>
<g id="surface1">
<path style=" stroke:none;fill-rule:evenodd;fill:rgb(30.196078%,40%,50.980392%);fill-opacity:1;" d="M 11.300781 3 L 36.699219 3 C 41.28125 3 45 6.71875 45 11.300781 L 45 36.699219 C 45 41.28125 41.28125 45 36.699219 45 L 11.300781 45 C 6.71875 45 3 41.28125 3 36.699219 L 3 11.300781 C 3 6.71875 6.71875 3 11.300781 3 Z M 11.300781 3 "/>
<path style=" stroke:none;fill-rule:nonzero;fill:rgb(16.862745%,17.647059%,17.254902%);fill-opacity:1;" d="M 24 7.902344 C 15.082031 7.902344 7.902344 15.082031 7.902344 24 C 7.902344 32.917969 15.082031 40.097656 24 40.097656 C 32.917969 40.097656 40.097656 32.917969 40.097656 24 C 40.097656 15.082031 32.917969 7.902344 24 7.902344 Z M 24 7.902344 "/>
<path style=" stroke:none;fill-rule:nonzero;fill:rgb(10.588235%,11.372549%,10.980392%);fill-opacity:1;" d="M 24 10.792969 C 16.683594 10.792969 10.792969 16.683594 10.792969 24 C 10.792969 31.316406 16.683594 37.207031 24 37.207031 C 31.316406 37.207031 37.207031 31.316406 37.207031 24 C 37.207031 16.683594 31.316406 10.792969 24 10.792969 Z M 24 10.792969 "/>
<path style=" stroke:none;fill-rule:nonzero;fill:rgb(35.294118%,36.470588%,40%);fill-opacity:1;" d="M 24 34.910156 C 17.976562 34.910156 13.089844 30.023438 13.089844 24 C 13.089844 17.980469 17.976562 13.089844 24 13.089844 C 30.019531 13.089844 34.910156 17.980469 34.910156 24 C 34.910156 30.023438 30.019531 34.910156 24 34.910156 Z M 24 34.453125 C 29.773438 34.453125 34.453125 29.777344 34.453125 24 C 34.453125 18.226562 29.773438 13.546875 24 13.546875 C 18.222656 13.546875 13.546875 18.226562 13.546875 24 C 13.546875 29.777344 18.222656 34.453125 24 34.453125 Z M 24 34.453125 "/>
<path style=" stroke:none;fill-rule:nonzero;fill:rgb(0.392157%,2.745098%,16.078431%);fill-opacity:1;" d="M 32.984375 24 C 32.984375 28.960938 28.960938 32.984375 24 32.984375 C 19.039062 32.984375 15.015625 28.960938 15.015625 24 C 15.015625 19.039062 19.039062 15.015625 24 15.015625 C 28.960938 15.015625 32.984375 19.039062 32.984375 24 Z M 32.984375 24 "/>
<path style=" stroke:none;fill-rule:nonzero;fill:url(#radial0);" d="M 23.210938 32.792969 C 22.101562 32.691406 20.285156 32.152344 20.183594 31.886719 C 20.09375 31.648438 19.996094 30.125 19.992188 28.882812 C 19.992188 27.507812 20.050781 26.710938 20.230469 25.769531 C 20.316406 25.324219 20.359375 25.261719 20.570312 25.261719 C 20.75 25.261719 20.800781 25.3125 21.058594 25.746094 C 21.5625 26.601562 22.582031 27.75 23.515625 28.527344 C 24.546875 29.378906 25.589844 30.046875 27.152344 30.851562 C 27.699219 31.128906 28.164062 31.394531 28.191406 31.4375 C 28.21875 31.480469 28.222656 31.574219 28.203125 31.648438 C 28.175781 31.757812 28.09375 31.820312 27.722656 31.992188 C 26.34375 32.648438 24.75 32.929688 23.210938 32.792969 Z M 19.039062 31.304688 C 17.285156 30.128906 15.953125 28.214844 15.421875 26.101562 C 15.308594 25.65625 15.191406 24.828125 15.226562 24.722656 C 15.257812 24.621094 15.652344 24.316406 16.464844 23.769531 C 17.839844 22.835938 19.359375 22.050781 20.671875 21.59375 C 20.964844 21.488281 21.140625 21.519531 21.214844 21.6875 C 21.265625 21.796875 21.230469 21.890625 20.910156 22.527344 C 20.253906 23.839844 19.878906 25.179688 19.691406 26.902344 C 19.597656 27.75 19.585938 29.75 19.667969 30.652344 C 19.714844 31.171875 19.710938 31.269531 19.644531 31.367188 C 19.539062 31.53125 19.351562 31.511719 19.039062 31.304688 Z M 28.175781 30.929688 C 26.542969 30.179688 25.140625 29.339844 24.019531 28.441406 C 23.40625 27.949219 23.316406 27.859375 23.316406 27.726562 C 23.316406 27.476562 23.449219 27.429688 24.28125 27.394531 C 26.566406 27.289062 29.003906 26.363281 31.691406 24.570312 C 32.28125 24.175781 32.4375 24.09375 32.566406 24.105469 C 32.800781 24.128906 32.839844 24.265625 32.785156 24.847656 C 32.644531 26.296875 32.128906 27.707031 31.277344 28.984375 C 30.707031 29.839844 29.246094 31.246094 28.933594 31.238281 C 28.878906 31.234375 28.535156 31.097656 28.175781 30.929688 Z M 26.820312 26.351562 C 26.703125 26.203125 26.691406 26.242188 27.125 25.382812 C 28.085938 23.488281 28.511719 20.972656 28.359375 18.117188 C 28.285156 16.671875 28.285156 16.664062 28.394531 16.582031 C 28.539062 16.476562 28.667969 16.5 28.953125 16.691406 C 30.703125 17.863281 32.019531 19.738281 32.550781 21.816406 C 32.679688 22.328125 32.804688 23.15625 32.765625 23.273438 C 32.734375 23.375 32.335938 23.679688 31.527344 24.230469 C 30.164062 25.148438 28.753906 25.886719 27.441406 26.359375 C 27.035156 26.507812 26.941406 26.507812 26.820312 26.351562 Z M 15.25 23.828125 C 15.132812 23.6875 15.203125 22.832031 15.402344 21.980469 C 15.75 20.488281 16.519531 19.0625 17.566406 17.972656 C 18.121094 17.394531 18.796875 16.820312 18.980469 16.773438 C 19.15625 16.730469 20.632812 17.410156 21.738281 18.046875 C 22.710938 18.605469 24.007812 19.523438 24.542969 20.027344 C 24.703125 20.179688 24.714844 20.351562 24.574219 20.476562 C 24.492188 20.554688 24.359375 20.574219 23.734375 20.605469 C 21.433594 20.710938 18.851562 21.699219 16.207031 23.484375 C 15.574219 23.910156 15.375 23.980469 15.25 23.828125 Z M 27.195312 22.648438 C 27.152344 22.601562 27.039062 22.425781 26.941406 22.253906 C 26.609375 21.679688 26.070312 21.011719 25.382812 20.324219 C 24.085938 19.019531 22.796875 18.128906 20.546875 16.992188 C 20.164062 16.796875 19.824219 16.601562 19.800781 16.558594 C 19.773438 16.515625 19.769531 16.421875 19.789062 16.347656 C 19.816406 16.238281 19.898438 16.175781 20.269531 16.003906 C 21.945312 15.207031 23.90625 14.972656 25.75 15.347656 C 26.644531 15.53125 27.753906 15.945312 27.804688 16.117188 C 27.925781 16.515625 28.046875 18.632812 28.011719 19.699219 C 27.964844 20.96875 27.773438 22.503906 27.632812 22.667969 C 27.554688 22.761719 27.28125 22.75 27.191406 22.648438 Z M 27.195312 22.648438 "/>
<path style=" stroke:none;fill-rule:nonzero;fill:rgb(35.294118%,36.470588%,40%);fill-opacity:1;" d="M 24 34.109375 C 18.417969 34.109375 13.890625 29.582031 13.890625 24 C 13.890625 18.421875 18.417969 13.890625 24 13.890625 C 29.578125 13.890625 34.109375 18.421875 34.109375 24 C 34.109375 29.582031 29.578125 34.109375 24 34.109375 Z M 24 33.6875 C 29.351562 33.6875 33.6875 29.351562 33.6875 24 C 33.6875 18.648438 29.351562 14.3125 24 14.3125 C 18.648438 14.3125 14.3125 18.648438 14.3125 24 C 14.3125 29.351562 18.648438 33.6875 24 33.6875 Z M 24 33.6875 "/>
<path style=" stroke:none;fill-rule:nonzero;fill:rgb(35.294118%,36.470588%,40%);fill-opacity:1;" d="M 24 33.375 C 18.824219 33.375 14.625 29.175781 14.625 24 C 14.625 18.824219 18.824219 14.625 24 14.625 C 29.175781 14.625 33.375 18.824219 33.375 24 C 33.375 29.175781 29.175781 33.375 24 33.375 Z M 24 32.984375 C 28.964844 32.984375 32.984375 28.964844 32.984375 24 C 32.984375 19.035156 28.964844 15.015625 24 15.015625 C 19.035156 15.015625 15.015625 19.035156 15.015625 24 C 15.015625 28.964844 19.035156 32.984375 24 32.984375 Z M 24 32.984375 "/>
<path style=" stroke:none;fill-rule:nonzero;fill:rgb(35.294118%,36.470588%,40%);fill-opacity:1;" d="M 24 35.753906 C 17.507812 35.753906 12.246094 30.492188 12.246094 24 C 12.246094 17.511719 17.507812 12.246094 24 12.246094 C 30.488281 12.246094 35.753906 17.511719 35.753906 24 C 35.753906 30.492188 30.488281 35.753906 24 35.753906 Z M 24 35.265625 C 30.222656 35.265625 35.265625 30.226562 35.265625 24 C 35.265625 17.777344 30.222656 12.734375 24 12.734375 C 17.773438 12.734375 12.734375 17.777344 12.734375 24 C 12.734375 30.226562 17.773438 35.265625 24 35.265625 Z M 24 35.265625 "/>
</g>
</svg>
