<?xml version="1.0" encoding="UTF-8"?>
<svg xmlns="http://www.w3.org/2000/svg" xmlns:xlink="http://www.w3.org/1999/xlink" width="48pt" height="48pt" viewBox="0 0 48 48" version="1.1">
<defs>
<clipPath id="clip1">
  <rect width="48" height="48"/>
</clipPath>
<g id="surface6" clip-path="url(#clip1)">
<path style=" stroke:none;fill-rule:nonzero;fill:rgb(60%,60%,60%);fill-opacity:1;" d="M 24.890625 10.414062 L 24.890625 9.15625 L 39.957031 9.15625 L 39.957031 10.414062 Z M 24.890625 10.414062 "/>
</g>
<clipPath id="clip2">
  <rect width="48" height="48"/>
</clipPath>
<g id="surface9" clip-path="url(#clip2)">
<path style=" stroke:none;fill-rule:nonzero;fill:rgb(60%,60%,60%);fill-opacity:1;" d="M 24.890625 14.179688 L 24.890625 12.921875 L 39.957031 12.921875 L 39.957031 14.179688 Z M 24.890625 14.179688 "/>
</g>
<clipPath id="clip3">
  <rect width="48" height="48"/>
</clipPath>
<g id="surface12" clip-path="url(#clip3)">
<path style=" stroke:none;fill-rule:nonzero;fill:rgb(60%,60%,60%);fill-opacity:1;" d="M 24.890625 17.945312 L 24.890625 16.691406 L 39.957031 16.691406 L 39.957031 17.945312 Z M 24.890625 17.945312 "/>
</g>
<clipPath id="clip4">
  <rect width="48" height="48"/>
</clipPath>
<g id="surface15" clip-path="url(#clip4)">
<path style=" stroke:none;fill-rule:nonzero;fill:rgb(60%,60%,60%);fill-opacity:1;" d="M 24.890625 21.710938 L 24.890625 20.457031 L 34.9375 20.457031 L 34.9375 21.710938 Z M 24.890625 21.710938 "/>
</g>
<clipPath id="clip5">
  <rect width="48" height="48"/>
</clipPath>
<g id="surface18" clip-path="url(#clip5)">
<path style=" stroke:none;fill-rule:nonzero;fill:rgb(40%,40%,40%);fill-opacity:1;" d="M 8.230469 26.550781 L 8.230469 25.242188 L 23.9375 25.242188 L 23.9375 26.550781 Z M 8.230469 26.550781 "/>
</g>
<clipPath id="clip6">
  <rect width="48" height="48"/>
</clipPath>
<g id="surface21" clip-path="url(#clip6)">
<path style=" stroke:none;fill-rule:nonzero;fill:rgb(40%,40%,40%);fill-opacity:1;" d="M 8.230469 30.476562 L 8.230469 29.167969 L 23.9375 29.167969 L 23.9375 30.476562 Z M 8.230469 30.476562 "/>
</g>
<clipPath id="clip7">
  <rect width="48" height="48"/>
</clipPath>
<g id="surface24" clip-path="url(#clip7)">
<path style=" stroke:none;fill-rule:nonzero;fill:rgb(40%,40%,40%);fill-opacity:1;" d="M 8.230469 34.40625 L 8.230469 33.09375 L 23.9375 33.09375 L 23.9375 34.40625 Z M 8.230469 34.40625 "/>
</g>
<clipPath id="clip8">
  <rect width="48" height="48"/>
</clipPath>
<g id="surface27" clip-path="url(#clip8)">
<path style=" stroke:none;fill-rule:nonzero;fill:rgb(40%,40%,40%);fill-opacity:1;" d="M 8.230469 38.332031 L 8.230469 37.023438 L 18.703125 37.023438 L 18.703125 38.332031 Z M 8.230469 38.332031 "/>
</g>
</defs>
<g id="surface1">
<path style=" stroke:none;fill-rule:evenodd;fill:rgb(60%,60%,60%);fill-opacity:1;" d="M 28.777344 27.457031 L 28.777344 45.152344 L 36.789062 45.152344 C 41.421875 45.152344 45.152344 41.421875 45.152344 36.789062 L 45.152344 27.457031 Z M 28.777344 27.457031 "/>
<path style=" stroke:none;fill-rule:evenodd;fill:rgb(60%,60%,60%);fill-opacity:1;" d="M 20.136719 2.847656 L 11.207031 2.847656 C 6.574219 2.847656 2.847656 6.574219 2.847656 11.207031 L 2.847656 19.117188 L 20.136719 19.117188 Z M 20.136719 2.847656 "/>
<path style=" stroke:none;fill-rule:evenodd;fill:rgb(76.078431%,76.078431%,76.078431%);fill-opacity:1;" d="M 20.136719 2.847656 L 20.136719 19.117188 L 28.777344 19.117188 L 28.777344 27.457031 L 45.152344 27.457031 L 45.152344 11.207031 C 45.152344 6.574219 41.421875 2.847656 36.789062 2.847656 Z M 20.136719 2.847656 "/>
<use xlink:href="#surface6"/>
<use xlink:href="#surface9"/>
<use xlink:href="#surface12"/>
<use xlink:href="#surface15"/>
<path style=" stroke:none;fill-rule:evenodd;fill:rgb(82.745098%,82.745098%,82.745098%);fill-opacity:1;" d="M 28.777344 45.152344 L 28.777344 19.117188 L 2.847656 19.117188 L 2.847656 36.789062 C 2.847656 41.421875 6.574219 45.152344 11.207031 45.152344 Z M 28.777344 45.152344 "/>
<use xlink:href="#surface18"/>
<use xlink:href="#surface21"/>
<use xlink:href="#surface24"/>
<use xlink:href="#surface27"/>
</g>
</svg>
