<?xml version="1.0" encoding="UTF-8"?>
<svg xmlns="http://www.w3.org/2000/svg" xmlns:xlink="http://www.w3.org/1999/xlink" width="48pt" height="48pt" viewBox="0 0 48 48" version="1.1">
<g id="surface1">
<path style=" stroke:none;fill-rule:evenodd;fill:rgb(36.078431%,48.627451%,85.490196%);fill-opacity:1;" d="M 31.78125 3 L 11.304688 3 C 6.703125 3 3 6.703125 3 11.300781 L 3 36.695312 C 3 41.296875 6.703125 45 11.304688 45 L 36.699219 45 C 41.296875 45 45 41.296875 45 36.695312 L 45 16.21875 Z M 31.78125 3 "/>
<path style=" stroke:none;fill-rule:evenodd;fill:rgb(36.078431%,48.627451%,85.490196%);fill-opacity:1;" d="M 22.925781 45 L 31.78125 45 L 45 31.78125 L 45 11.300781 C 45 6.703125 41.300781 3 36.699219 3 L 22.925781 3 Z M 22.925781 45 "/>
<path style=" stroke:none;fill-rule:evenodd;fill:rgb(0%,16.862745%,57.647059%);fill-opacity:1;" d="M 11.300781 3 C 6.703125 3 3 6.703125 3 11.300781 L 3 36.699219 C 3 41.300781 6.703125 45 11.300781 45 L 22.925781 45 L 22.925781 34.507812 L 28.824219 34.507812 L 28.824219 41.1875 L 41.578125 28.433594 L 35.335938 22.191406 C 31.898438 18.753906 29.027344 15.941406 28.957031 15.941406 C 28.886719 15.941406 28.824219 17.386719 28.824219 19.152344 L 28.824219 22.363281 L 22.925781 22.363281 L 22.925781 3 Z M 11.300781 3 "/>
</g>
</svg>
