<?xml version="1.0" encoding="UTF-8"?>
<svg xmlns="http://www.w3.org/2000/svg" xmlns:xlink="http://www.w3.org/1999/xlink" width="48pt" height="48pt" viewBox="0 0 48 48" version="1.1">
<g id="surface1">
<path style=" stroke:none;fill-rule:evenodd;fill:rgb(76.078431%,20.784314%,16.470588%);fill-opacity:1;" d="M 2.847656 24.789062 L 2.847656 36.789062 C 2.847656 41.421875 6.578125 45.152344 11.210938 45.152344 L 36.792969 45.152344 C 41.425781 45.152344 45.152344 41.421875 45.152344 36.789062 L 45.152344 24.789062 Z M 2.847656 24.789062 "/>
<path style=" stroke:none;fill-rule:evenodd;fill:rgb(43.529412%,73.333333%,20.392157%);fill-opacity:1;" d="M 2.847656 24.789062 L 45.152344 24.789062 L 45.152344 11.210938 C 45.152344 6.574219 41.425781 2.847656 36.792969 2.847656 L 11.210938 2.847656 C 6.578125 2.847656 2.847656 6.574219 2.847656 11.210938 Z M 2.847656 24.789062 "/>
<path style=" stroke:none;fill-rule:nonzero;fill:rgb(100%,100%,100%);fill-opacity:1;" d="M 24 5.488281 L 27 10.738281 L 33 11.558594 L 28.5 15.988281 L 29.5625 21.988281 L 24 18.988281 L 18.4375 21.988281 L 19.5 15.988281 L 15 11.558594 L 21 10.738281 Z M 24 5.488281 "/>
<path style=" stroke:none;fill-rule:nonzero;fill:rgb(0%,0%,0%);fill-opacity:1;" d="M 21.527344 27.789062 L 23.175781 34.386719 L 16.578125 32.738281 L 16.578125 37.683594 L 23.175781 36.035156 L 21.527344 42.632812 L 26.472656 42.632812 L 24.824219 36.035156 L 31.421875 37.683594 L 31.421875 32.738281 L 24.824219 34.386719 L 26.472656 27.789062 Z M 21.527344 27.789062 "/>
</g>
</svg>
