<?xml version="1.0" encoding="UTF-8"?>
<svg xmlns="http://www.w3.org/2000/svg" xmlns:xlink="http://www.w3.org/1999/xlink" width="48pt" height="48pt" viewBox="0 0 48 48" version="1.1">
<g id="surface1">
<path style=" stroke:none;fill-rule:evenodd;fill:rgb(99.607843%,78.039216%,52.54902%);fill-opacity:1;" d="M 11.210938 2.847656 L 36.789062 2.847656 C 41.410156 2.847656 45.152344 6.589844 45.152344 11.210938 L 45.152344 36.789062 C 45.152344 41.410156 41.410156 45.152344 36.789062 45.152344 L 11.210938 45.152344 C 6.589844 45.152344 2.847656 41.410156 2.847656 36.789062 L 2.847656 11.210938 C 2.847656 6.589844 6.589844 2.847656 11.210938 2.847656 Z M 11.210938 2.847656 "/>
<path style=" stroke:none;fill-rule:nonzero;fill:rgb(100%,100%,100%);fill-opacity:1;" d="M 33.003906 26.878906 C 33.828125 32.648438 29.703125 40.625 28.339844 40.222656 C 27.875 40.769531 19.320312 35.523438 18.324219 29.855469 C 18.234375 29.324219 15.859375 25.621094 16.945312 26.777344 C 18.492188 28.421875 15.347656 23.527344 16.046875 22.019531 C 17.082031 19.796875 22.820312 19.472656 25.503906 19.472656 C 27.957031 19.472656 30.832031 18.355469 32.0625 19.757812 C 33.097656 20.933594 32.644531 24.378906 33.003906 26.878906 Z M 33.003906 26.878906 "/>
<path style=" stroke:none;fill-rule:nonzero;fill:rgb(30.980392%,30.980392%,30.980392%);fill-opacity:1;" d="M 25.742188 35.460938 C 25.742188 35.300781 26.089844 35.097656 27.179688 34.636719 C 27.679688 34.425781 27.851562 34.402344 27.964844 34.542969 C 28.046875 34.640625 28.085938 34.757812 28.054688 34.796875 C 27.996094 34.863281 25.933594 35.617188 25.800781 35.617188 C 25.769531 35.617188 25.742188 35.546875 25.742188 35.460938 Z M 25.742188 35.460938 "/>
<path style=" stroke:none;fill-rule:nonzero;fill:rgb(30.980392%,30.980392%,30.980392%);fill-opacity:1;" d="M 26.28125 33.511719 C 25.691406 33.257812 25.527344 32.878906 26.085938 33.0625 C 26.984375 33.351562 27.015625 33.304688 26.945312 31.671875 C 26.90625 30.65625 26.949219 30.183594 27.078125 30.285156 C 27.183594 30.371094 27.304688 31.1875 27.34375 32.097656 C 27.421875 33.917969 27.375 33.980469 26.28125 33.511719 Z M 26.28125 33.511719 "/>
<path style=" stroke:none;fill-rule:nonzero;fill:rgb(30.980392%,30.980392%,30.980392%);fill-opacity:1;" d="M 13.902344 27.878906 C 13.351562 27.5 12.898438 27.164062 12.898438 27.125 C 12.898438 27.089844 13.1875 26.824219 13.535156 26.539062 C 14.144531 26.042969 14.226562 25.605469 14.222656 25.261719 C 14.222656 25.074219 11.972656 21.972656 10.570312 20.214844 C 10.027344 19.539062 9.542969 18.875 9.496094 18.742188 C 9.445312 18.59375 9.511719 18.371094 9.675781 18.15625 C 10.230469 17.433594 11.171875 16.277344 11.6875 15.289062 C 12.203125 14.304688 12.820312 13.496094 12.925781 13.667969 C 13.078125 13.914062 13.234375 13.761719 14.453125 12.128906 C 15.679688 10.484375 16.683594 8.953125 16.929688 8.953125 C 17.207031 8.953125 17.09375 9.226562 16.566406 9.828125 C 15.625 10.832031 15.332031 12.222656 15.328125 13.128906 C 15.246094 14.84375 16.640625 16.078125 18.15625 16.773438 C 20.097656 17.230469 21.90625 17.027344 22.25 15.40625 C 22.53125 14.054688 21.578125 13.230469 20.472656 12.898438 C 20.203125 13.019531 19.421875 13.847656 19.171875 14.632812 C 19.085938 14.910156 18.835938 14.808594 18.835938 14.496094 C 18.835938 13.851562 19.566406 12.207031 19.953125 11.503906 C 20.492188 10.515625 21.085938 10.46875 21.570312 10.566406 C 21.84375 10.621094 22.046875 10.453125 22.292969 10.257812 L 22.640625 9.984375 C 23.839844 10.867188 25.183594 11.515625 26.464844 12.261719 C 27.902344 13.28125 29.285156 13.859375 29.300781 14.003906 C 29.308594 14.089844 29.300781 14.097656 29.285156 14.722656 C 29.257812 15.808594 29.269531 15.863281 29.535156 15.863281 C 30.074219 15.863281 30.617188 15.5625 31.335938 14.691406 C 32.59375 13.171875 32.757812 13.160156 32.757812 11.882812 C 32.847656 10.90625 31.5625 8.816406 30.753906 9.601562 C 30.417969 9.9375 30.023438 11.128906 30.144531 11.449219 C 30.230469 11.664062 30.746094 11.8125 31.03125 11.703125 C 31.332031 11.585938 31.28125 11.824219 30.945312 12.132812 C 30.5 12.535156 30.015625 12.605469 29.660156 12.316406 C 29.21875 11.960938 29.101562 10.542969 29.4375 9.632812 C 29.753906 8.769531 30.886719 7.851562 31.125 7.757812 C 31.390625 7.65625 31.691406 7.871094 32.761719 9.277344 C 34.488281 11.871094 36.367188 14.195312 38.050781 16.675781 C 38.261719 16.980469 38.464844 17.429688 38.503906 17.671875 C 38.570312 18.074219 38.488281 18.210938 37.570312 19.265625 C 36.054688 21 35.03125 22.410156 35.03125 22.765625 C 35.03125 23.148438 35.816406 23.460938 36.503906 23.566406 C 37.003906 23.640625 37.332031 23.8125 37.332031 23.996094 C 36.515625 25.109375 33.285156 29.667969 32.898438 29.355469 C 32.859375 29.296875 32.796875 28.5625 32.757812 27.726562 C 32.460938 25.46875 32.351562 24.25 32.089844 22.046875 C 32.007812 21.617188 31.996094 21.609375 31.472656 21.683594 C 30.183594 21.863281 28.597656 21.960938 27.332031 22.171875 C 26.308594 22.34375 25.414062 23.058594 24.996094 22.832031 C 24.570312 22.605469 22.320312 22.199219 20.988281 22.03125 C 17.046875 21.539062 17.695312 21.621094 17.695312 22.105469 L 18.558594 29.09375 C 18.558594 29.09375 18.96875 30.96875 18.625 30.96875 C 16.746094 30.253906 15.367188 28.886719 13.902344 27.878906 Z M 13.902344 27.878906 "/>
<path style=" stroke:none;fill-rule:nonzero;fill:rgb(30.980392%,30.980392%,30.980392%);fill-opacity:1;" d="M 24.582031 29.808594 C 24.582031 30.449219 24.0625 30.96875 23.417969 30.96875 C 22.777344 30.96875 22.257812 30.449219 22.257812 29.808594 C 22.257812 29.167969 22.777344 28.648438 23.417969 28.648438 C 24.0625 28.648438 24.582031 29.167969 24.582031 29.808594 Z M 24.582031 29.808594 "/>
<path style=" stroke:none;fill-rule:nonzero;fill:rgb(30.980392%,30.980392%,30.980392%);fill-opacity:1;" d="M 20.253906 27.484375 C 20.171875 27.484375 20.117188 27.496094 20.097656 27.503906 C 20.035156 27.546875 19.972656 27.785156 19.960938 28.039062 L 19.933594 28.496094 L 21.535156 28.574219 C 22.4375 28.652344 23.441406 28.671875 24.289062 28.613281 C 24.585938 28.613281 24.621094 28.589844 24.550781 28.4375 C 24.359375 28.03125 24.058594 27.796875 23.695312 27.777344 C 23.5 27.765625 22.636719 27.683594 21.777344 27.59375 C 21.039062 27.515625 20.503906 27.480469 20.253906 27.484375 Z M 20.253906 27.484375 "/>
<path style=" stroke:none;fill-rule:nonzero;fill:rgb(30.980392%,30.980392%,30.980392%);fill-opacity:1;" d="M 27.183594 26.324219 C 27.070312 26.324219 27 26.335938 26.984375 26.347656 C 26.921875 26.40625 26.890625 26.679688 26.910156 26.960938 C 26.945312 27.425781 26.980469 27.46875 27.265625 27.449219 C 28.0625 27.492188 28.867188 27.484375 29.679688 27.484375 C 30.316406 27.457031 31.101562 27.054688 31.550781 26.835938 C 31.550781 26.769531 31.492188 26.71875 31.417969 26.71875 C 31.34375 26.71875 30.339844 26.609375 29.1875 26.480469 C 28.265625 26.375 27.523438 26.320312 27.183594 26.324219 Z M 27.183594 26.324219 "/>
<path style=" stroke:none;fill-rule:nonzero;fill:rgb(30.980392%,30.980392%,30.980392%);fill-opacity:1;" d="M 29.226562 28.648438 C 29.226562 29.289062 28.707031 29.808594 28.066406 29.808594 C 27.425781 29.808594 26.902344 29.289062 26.902344 28.648438 C 26.902344 28.003906 27.425781 27.484375 28.066406 27.484375 C 28.707031 27.484375 29.226562 28.003906 29.226562 28.648438 Z M 29.226562 28.648438 "/>
</g>
</svg>
