<?xml version="1.0" encoding="UTF-8"?>
<svg xmlns="http://www.w3.org/2000/svg" xmlns:xlink="http://www.w3.org/1999/xlink" width="48pt" height="48pt" viewBox="0 0 48 48" version="1.1">
<defs>
<clipPath id="clip1">
  <rect width="48" height="48"/>
</clipPath>
<g id="surface6" clip-path="url(#clip1)">
<path style=" stroke:none;fill-rule:nonzero;fill:rgb(100%,100%,100%);fill-opacity:1;" d="M 30 12 C 27.515625 12 25.5 14.015625 25.5 16.5 C 25.5 16.847656 25.566406 17.160156 25.640625 17.484375 L 20.8125 20.484375 C 20.042969 19.867188 19.0625 19.5 18 19.5 C 15.515625 19.5 13.5 21.515625 13.5 24 C 13.5 26.484375 15.515625 28.5 18 28.5 C 19.0625 28.5 20.042969 28.132812 20.8125 27.515625 L 25.640625 30.515625 C 25.566406 30.839844 25.5 31.152344 25.5 31.5 C 25.5 33.984375 27.515625 36 30 36 C 32.484375 36 34.5 33.984375 34.5 31.5 C 34.5 29.015625 32.484375 27 30 27 C 28.9375 27 27.957031 27.367188 27.1875 27.984375 L 22.359375 24.984375 C 22.433594 24.660156 22.5 24.347656 22.5 24 C 22.5 23.652344 22.433594 23.339844 22.359375 23.015625 L 27.1875 20.015625 C 27.957031 20.632812 28.9375 21 30 21 C 32.484375 21 34.5 18.984375 34.5 16.5 C 34.5 14.015625 32.484375 12 30 12 Z M 30 12 "/>
</g>
</defs>
<g id="surface1">
<path style=" stroke:none;fill-rule:evenodd;fill:rgb(83.529412%,18.823529%,40.784314%);fill-opacity:1;" d="M 11.210938 2.847656 L 36.789062 2.847656 C 41.410156 2.847656 45.152344 6.589844 45.152344 11.210938 L 45.152344 36.789062 C 45.152344 41.410156 41.410156 45.152344 36.789062 45.152344 L 11.210938 45.152344 C 6.589844 45.152344 2.847656 41.410156 2.847656 36.789062 L 2.847656 11.210938 C 2.847656 6.589844 6.589844 2.847656 11.210938 2.847656 Z M 11.210938 2.847656 "/>
<use xlink:href="#surface6"/>
</g>
</svg>
