<?xml version="1.0" encoding="UTF-8"?>
<svg xmlns="http://www.w3.org/2000/svg" xmlns:xlink="http://www.w3.org/1999/xlink" width="48pt" height="48pt" viewBox="0 0 48 48" version="1.1">
<g id="surface1">
<path style=" stroke:none;fill-rule:evenodd;fill:rgb(37.254902%,72.54902%,63.137255%);fill-opacity:1;" d="M 11.210938 2.847656 L 36.789062 2.847656 C 41.410156 2.847656 45.152344 6.589844 45.152344 11.210938 L 45.152344 36.789062 C 45.152344 41.410156 41.410156 45.152344 36.789062 45.152344 L 11.210938 45.152344 C 6.589844 45.152344 2.847656 41.410156 2.847656 36.789062 L 2.847656 11.210938 C 2.847656 6.589844 6.589844 2.847656 11.210938 2.847656 Z M 11.210938 2.847656 "/>
<path style=" stroke:none;fill-rule:nonzero;fill:rgb(100%,100%,100%);fill-opacity:1;" d="M 16.683594 14.25 C 16.242188 14.242188 15.8125 14.402344 15.496094 14.699219 C 15.179688 14.996094 15 15.40625 15 15.832031 L 15 32.167969 C 15 32.734375 15.3125 33.253906 15.820312 33.539062 C 16.332031 33.820312 16.957031 33.820312 17.464844 33.539062 L 24.820312 29.453125 L 32.179688 25.367188 C 32.6875 25.085938 33 24.566406 33 24 C 33 23.433594 32.6875 22.914062 32.179688 22.632812 L 24.820312 18.546875 L 17.464844 14.464844 C 17.226562 14.332031 16.957031 14.257812 16.683594 14.25 Z M 16.683594 14.25 "/>
</g>
</svg>
