<?xml version="1.0" encoding="UTF-8"?>
<svg xmlns="http://www.w3.org/2000/svg" xmlns:xlink="http://www.w3.org/1999/xlink" width="48pt" height="48pt" viewBox="0 0 48 48" version="1.1">
<defs>
<filter id="alpha" filterUnits="objectBoundingBox" x="0%" y="0%" width="100%" height="100%">
  <feColorMatrix type="matrix" in="SourceGraphic" values="0 0 0 0 1 0 0 0 0 1 0 0 0 0 1 0 0 0 1 0"/>
</filter>
<mask id="mask0">
  <g filter="url(#alpha)">
<rect x="0" y="0" width="48" height="48" style="fill:rgb(0%,0%,0%);fill-opacity:0.101961;stroke:none;"/>
  </g>
</mask>
<clipPath id="clip1">
  <rect width="48" height="48"/>
</clipPath>
<g id="surface6" clip-path="url(#clip1)">
<path style=" stroke:none;fill-rule:nonzero;fill:rgb(100%,100%,100%);fill-opacity:1;" d="M 32.050781 15.949219 L 32.050781 17.289062 L 35.070312 17.289062 C 37.859375 17.289062 40.101562 20.433594 40.101562 24.335938 L 40.101562 22.992188 C 40.101562 19.089844 37.859375 15.949219 35.070312 15.949219 Z M 32.050781 19.972656 C 32.050781 22.203125 30.257812 24 28.027344 24 L 19.972656 24 C 19.972656 24 15.949219 24 15.949219 28.027344 L 15.949219 29.367188 C 15.949219 25.34375 19.972656 25.34375 19.972656 25.34375 L 28.027344 25.34375 C 30.257812 25.34375 32.050781 23.546875 32.050781 21.316406 Z M 32.050781 19.972656 "/>
</g>
<clipPath id="clip2">
  <rect width="48" height="48"/>
</clipPath>
<g id="surface9" clip-path="url(#clip2)">
<path style=" stroke:none;fill-rule:evenodd;fill:rgb(80%,36.862745%,33.333333%);fill-opacity:1;" d="M 41.433594 34.316406 C 41.433594 38.457031 38.074219 41.816406 33.933594 41.816406 C 29.789062 41.816406 26.433594 38.457031 26.433594 34.316406 C 26.433594 30.171875 29.789062 26.816406 33.933594 26.816406 C 38.074219 26.816406 41.433594 30.171875 41.433594 34.316406 Z M 41.433594 34.316406 "/>
</g>
<clipPath id="clip3">
  <rect width="48" height="48"/>
</clipPath>
<g id="surface12" clip-path="url(#clip3)">
<path style=" stroke:none;fill-rule:nonzero;fill:rgb(100%,100%,100%);fill-opacity:1;" d="M 32.996094 30.566406 L 32.914062 31.554688 C 32.597656 31.667969 32.308594 31.839844 32.050781 32.050781 L 31.152344 31.628906 L 30.214844 33.253906 L 31.03125 33.820312 C 31.003906 33.984375 30.988281 34.148438 30.988281 34.316406 C 30.988281 34.484375 31 34.648438 31.03125 34.816406 L 30.214844 35.378906 L 31.152344 37.003906 L 32.050781 36.582031 C 32.308594 36.792969 32.597656 36.960938 32.914062 37.074219 L 32.996094 38.066406 L 34.871094 38.066406 L 34.953125 37.078125 C 35.265625 36.960938 35.558594 36.792969 35.8125 36.578125 L 36.710938 37.003906 L 37.648438 35.378906 L 36.835938 34.8125 C 36.863281 34.648438 36.878906 34.484375 36.878906 34.316406 C 36.878906 34.148438 36.863281 33.980469 36.835938 33.816406 L 37.648438 33.253906 L 36.710938 31.628906 L 35.816406 32.050781 C 35.558594 31.835938 35.265625 31.671875 34.953125 31.554688 L 34.871094 30.566406 Z M 33.933594 33.246094 C 34.523438 33.246094 35.003906 33.722656 35.003906 34.316406 C 35.003906 34.90625 34.523438 35.386719 33.933594 35.386719 C 33.339844 35.386719 32.863281 34.90625 32.863281 34.316406 C 32.863281 33.722656 33.339844 33.246094 33.933594 33.246094 Z M 33.933594 33.246094 "/>
</g>
</defs>
<g id="surface1">
<path style=" stroke:none;fill-rule:evenodd;fill:rgb(100%,78.431373%,32.156863%);fill-opacity:1;" d="M 11.210938 2.847656 L 36.789062 2.847656 C 41.410156 2.847656 45.152344 6.589844 45.152344 11.210938 L 45.152344 36.789062 C 45.152344 41.410156 41.410156 45.152344 36.789062 45.152344 L 11.210938 45.152344 C 6.589844 45.152344 2.847656 41.410156 2.847656 36.789062 L 2.847656 11.210938 C 2.847656 6.589844 6.589844 2.847656 11.210938 2.847656 Z M 11.210938 2.847656 "/>
<path style=" stroke:none;fill-rule:nonzero;fill:rgb(100%,100%,100%);fill-opacity:1;" d="M 32.050781 15.949219 L 32.050781 19.972656 C 32.050781 22.203125 30.257812 24 28.027344 24 L 19.972656 24 C 19.972656 24 15.949219 24 15.949219 28.027344 L 15.949219 35.070312 C 15.949219 37.859375 19.089844 40.101562 22.992188 40.101562 L 25.007812 40.101562 C 28.910156 40.101562 32.050781 37.859375 32.050781 35.070312 L 32.050781 32.050781 L 35.070312 32.050781 C 37.859375 32.050781 40.101562 28.910156 40.101562 25.007812 L 40.101562 22.992188 C 40.101562 19.089844 37.859375 15.949219 35.070312 15.949219 Z M 28.027344 34.734375 C 28.765625 34.734375 29.367188 35.335938 29.367188 36.078125 C 29.367188 36.820312 28.765625 37.417969 28.027344 37.417969 C 27.285156 37.417969 26.683594 36.820312 26.683594 36.078125 C 26.683594 35.335938 27.285156 34.734375 28.027344 34.734375 Z M 28.027344 34.734375 "/>
<path style=" stroke:none;fill-rule:nonzero;fill:rgb(27.843137%,58.431373%,81.960784%);fill-opacity:1;" d="M 22.992188 7.898438 C 19.089844 7.898438 15.949219 10.140625 15.949219 12.929688 L 15.949219 15.949219 L 12.929688 15.949219 C 10.140625 15.949219 7.898438 19.089844 7.898438 22.992188 L 7.898438 25.007812 C 7.898438 28.910156 10.140625 32.050781 12.929688 32.050781 L 15.949219 32.050781 L 15.949219 28.027344 C 15.949219 25.796875 17.742188 24 19.972656 24 L 28.027344 24 C 28.027344 24 32.050781 24 32.050781 19.972656 L 32.050781 12.929688 C 32.050781 10.140625 28.910156 7.898438 25.007812 7.898438 Z M 22.992188 7.898438 "/>
<path style=" stroke:none;fill-rule:nonzero;fill:rgb(100%,100%,100%);fill-opacity:1;" d="M 19.972656 10.582031 C 20.714844 10.582031 21.316406 11.179688 21.316406 11.921875 C 21.316406 12.664062 20.714844 13.265625 19.972656 13.265625 C 19.234375 13.265625 18.632812 12.664062 18.632812 11.921875 C 18.632812 11.179688 19.234375 10.582031 19.972656 10.582031 Z M 19.972656 10.582031 "/>
<use xlink:href="#surface6" mask="url(#mask0)"/>
<use xlink:href="#surface9"/>
<use xlink:href="#surface12"/>
</g>
</svg>
