<?xml version="1.0" encoding="UTF-8"?>
<svg xmlns="http://www.w3.org/2000/svg" xmlns:xlink="http://www.w3.org/1999/xlink" width="48pt" height="48pt" viewBox="0 0 48 48" version="1.1">
<g id="surface1">
<path style=" stroke:none;fill-rule:evenodd;fill:rgb(100%,72.941176%,22.352941%);fill-opacity:1;" d="M 11.210938 2.847656 L 36.789062 2.847656 C 41.410156 2.847656 45.152344 6.589844 45.152344 11.210938 L 45.152344 36.789062 C 45.152344 41.410156 41.410156 45.152344 36.789062 45.152344 L 11.210938 45.152344 C 6.589844 45.152344 2.847656 41.410156 2.847656 36.789062 L 2.847656 11.210938 C 2.847656 6.589844 6.589844 2.847656 11.210938 2.847656 Z M 11.210938 2.847656 "/>
<path style=" stroke:none;fill-rule:nonzero;fill:rgb(100%,100%,100%);fill-opacity:1;" d="M 21.433594 36.457031 C 19.484375 35.238281 17.886719 34.195312 17.886719 34.140625 C 17.882812 33.957031 24.929688 29.625 25.082031 29.71875 C 25.160156 29.769531 25.226562 30.273438 25.226562 30.835938 L 25.226562 31.863281 L 25.8125 31.769531 C 26.859375 31.597656 28.589844 30.621094 29.558594 29.652344 C 32.472656 26.738281 32.753906 22.296875 30.226562 19.09375 C 29.898438 18.675781 29.664062 18.261719 29.710938 18.167969 C 29.898438 17.765625 32.59375 15.554688 32.800781 15.632812 C 32.921875 15.679688 33.339844 16.125 33.730469 16.621094 C 36.910156 20.675781 36.988281 26.988281 33.910156 31.179688 C 33.117188 32.257812 31.363281 33.875 30.304688 34.507812 C 29.210938 35.160156 27.5625 35.777344 26.191406 36.046875 L 25.226562 36.234375 L 25.226562 37.378906 C 25.226562 38.007812 25.171875 38.554688 25.105469 38.597656 C 25.035156 38.636719 23.386719 37.675781 21.433594 36.457031 Z M 14.527344 31.78125 C 13.613281 30.714844 12.9375 29.488281 12.398438 27.910156 C 11.976562 26.660156 11.886719 26.148438 11.828125 24.550781 C 11.746094 22.367188 11.996094 20.878906 12.71875 19.175781 C 14.277344 15.515625 17.769531 12.710938 21.671875 11.988281 L 22.726562 11.792969 L 22.726562 10.648438 C 22.726562 10.019531 22.789062 9.46875 22.863281 9.421875 C 22.933594 9.375 24.078125 10.023438 25.398438 10.859375 C 26.722656 11.699219 28.3125 12.695312 28.9375 13.078125 C 29.558594 13.460938 30.070312 13.820312 30.070312 13.878906 C 30.070312 14.054688 23.007812 18.386719 22.863281 18.296875 C 22.789062 18.253906 22.726562 17.761719 22.726562 17.207031 C 22.726562 16.339844 22.6875 16.203125 22.445312 16.203125 C 21.925781 16.203125 20.632812 16.714844 19.777344 17.253906 C 15.707031 19.835938 14.789062 25.234375 17.777344 28.996094 C 18.078125 29.375 18.289062 29.761719 18.246094 29.855469 C 18.125 30.113281 15.429688 32.445312 15.253906 32.445312 C 15.167969 32.445312 14.84375 32.148438 14.527344 31.78125 Z M 14.527344 31.78125 "/>
</g>
</svg>
