<?xml version="1.0" encoding="UTF-8"?>
<svg xmlns="http://www.w3.org/2000/svg" xmlns:xlink="http://www.w3.org/1999/xlink" width="48pt" height="48pt" viewBox="0 0 48 48" version="1.1">
<g id="surface1">
<path style=" stroke:none;fill-rule:evenodd;fill:rgb(1.568627%,17.254902%,21.960784%);fill-opacity:1;" d="M 11.210938 2.847656 L 36.789062 2.847656 C 41.410156 2.847656 45.152344 6.589844 45.152344 11.210938 L 45.152344 36.789062 C 45.152344 41.410156 41.410156 45.152344 36.789062 45.152344 L 11.210938 45.152344 C 6.589844 45.152344 2.847656 41.410156 2.847656 36.789062 L 2.847656 11.210938 C 2.847656 6.589844 6.589844 2.847656 11.210938 2.847656 Z M 11.210938 2.847656 "/>
<path style=" stroke:none;fill-rule:evenodd;fill:rgb(1.568627%,17.254902%,21.960784%);fill-opacity:1;" d="M 11.207031 2.847656 C 6.574219 2.847656 2.847656 6.578125 2.847656 11.210938 L 2.847656 19.226562 C 3.15625 18.246094 3.480469 17.300781 3.867188 16.640625 C 4.449219 15.527344 5.265625 14.578125 6.207031 13.808594 C 7.144531 13.039062 8.214844 12.449219 9.308594 12.066406 C 10.40625 11.683594 11.527344 11.507812 12.570312 11.550781 C 13.617188 11.597656 14.585938 11.867188 15.375 12.382812 C 16.3125 11.300781 17.355469 10.574219 18.449219 10.035156 C 19.542969 9.496094 20.691406 9.140625 21.84375 8.804688 C 20.65625 10.269531 19.816406 11.679688 19.308594 13.042969 C 18.800781 14.40625 18.625 15.722656 18.773438 16.984375 C 18.921875 18.246094 19.390625 19.457031 20.164062 20.617188 C 20.941406 21.773438 22.023438 22.878906 23.40625 23.933594 C 21.617188 23.605469 18.421875 23.488281 15.648438 23.632812 C 15.273438 24.496094 15.046875 25.375 14.953125 26.25 C 14.859375 27.125 14.90625 28 15.0625 28.851562 C 15.375 30.558594 16.148438 32.183594 17.226562 33.585938 C 18.304688 34.988281 19.691406 36.164062 21.234375 36.976562 C 22.777344 37.792969 24.476562 38.242188 26.175781 38.183594 C 27.601562 38.117188 28.800781 37.851562 29.820312 37.421875 C 30.835938 36.996094 31.675781 36.402344 32.378906 35.671875 C 33.082031 34.941406 33.648438 34.078125 34.128906 33.105469 C 34.605469 32.132812 34.992188 31.058594 35.339844 29.90625 C 36.027344 27.601562 36.535156 25 37.234375 22.339844 C 37.929688 19.675781 38.816406 16.953125 40.25 14.414062 C 41.566406 15.410156 42.632812 16.492188 43.496094 17.652344 C 44.207031 18.609375 44.699219 19.644531 45.152344 20.691406 L 45.152344 11.210938 C 45.152344 6.578125 41.421875 2.847656 36.789062 2.847656 Z M 11.207031 2.847656 "/>
<path style=" stroke:none;fill-rule:nonzero;fill:rgb(100%,77.647059%,2.745098%);fill-opacity:1;" d="M 19.667969 33.535156 C 33.769531 42.308594 46.875 17.347656 31.328125 5.339844 C 48.84375 7.617188 40.425781 26.457031 42.300781 38.726562 C 35.742188 38.433594 27.078125 44.660156 21.207031 41.34375 C 19.761719 40.527344 20.320312 34.824219 19.667969 33.535156 Z M 19.667969 33.535156 "/>
<path style=" stroke:none;fill-rule:nonzero;fill:rgb(81.960784%,29.411765%,0.392157%);fill-opacity:1;" d="M 17.046875 22.550781 C 15.617188 25.339844 16.269531 25.792969 16.71875 26.324219 C 18.238281 27.671875 20.71875 26.917969 25.214844 24.402344 C 25.429688 26.125 24 28.097656 20.277344 29.964844 C 19.054688 30.578125 18.453125 31.523438 19.667969 33.535156 L 25.328125 40.347656 L 17.433594 39.675781 L 10.921875 23.097656 Z M 17.046875 22.550781 "/>
<path style=" stroke:none;fill-rule:nonzero;fill:rgb(96.862745%,56.078431%,1.568627%);fill-opacity:1;" d="M 30.660156 10.648438 C 37.519531 15.085938 35.882812 21.5 37.917969 27.058594 L 39.371094 16.816406 C 36.613281 12.453125 36.179688 11.371094 30.660156 10.648438 Z M 30.660156 10.648438 "/>
<path style=" stroke:none;fill-rule:nonzero;fill:rgb(96.862745%,56.078431%,1.568627%);fill-opacity:1;" d="M 34.875 21.308594 C 35.519531 27.242188 34.804688 31.320312 35.9375 31.550781 L 37.972656 26 C 37.460938 25.539062 36.265625 22.785156 34.875 21.308594 Z M 34.875 21.308594 "/>
<path style=" stroke:none;fill-rule:nonzero;fill:rgb(86.27451%,29.019608%,1.568627%);fill-opacity:1;" d="M 7.726562 7.707031 C 5.398438 10.761719 4.664062 13.730469 5.277344 16.46875 L 9.738281 13.191406 C 8.710938 12.121094 7.914062 10.558594 7.726562 7.707031 Z M 7.726562 7.707031 "/>
<path style=" stroke:none;fill-rule:nonzero;fill:rgb(100%,100%,100%);fill-opacity:1;" d="M 17.476562 17.929688 C 20.367188 17.925781 23.378906 18.46875 25.921875 16.863281 C 24.601562 18.8125 23.105469 20.183594 20.316406 21.402344 Z M 17.476562 17.929688 "/>
<path style=" stroke:none;fill-rule:nonzero;fill:rgb(94.901961%,34.901961%,0%);fill-opacity:1;" d="M 17.789062 13.707031 C 19.199219 14.585938 19.382812 15.8125 25.800781 15.285156 C 26.273438 15.78125 26.277344 16.3125 25.921875 16.863281 C 23.722656 18.324219 20.339844 18.421875 17.691406 17.84375 Z M 17.789062 13.707031 "/>
<path style=" stroke:none;fill-rule:nonzero;fill:rgb(39.607843%,39.215686%,39.607843%);fill-opacity:1;" d="M 25.800781 15.285156 C 26.285156 16.191406 25.808594 16.628906 25.507812 17.078125 C 27.183594 17.300781 27.460938 14.828125 25.800781 15.285156 Z M 25.800781 15.285156 "/>
<path style=" stroke:none;fill-rule:evenodd;fill:rgb(93.72549%,35.294118%,0%);fill-opacity:1;" d="M 45.152344 20.691406 C 44.699219 19.644531 44.207031 18.609375 43.492188 17.652344 C 42.632812 16.492188 41.566406 15.410156 40.246094 14.414062 C 38.816406 16.953125 37.929688 19.675781 37.234375 22.339844 C 36.535156 25 36.027344 27.601562 35.335938 29.90625 C 34.992188 31.058594 34.605469 32.132812 34.128906 33.105469 C 33.648438 34.078125 33.082031 34.941406 32.378906 35.671875 C 31.675781 36.402344 30.835938 36.996094 29.816406 37.421875 C 28.800781 37.851562 27.601562 38.117188 26.175781 38.183594 C 24.476562 38.242188 22.777344 37.792969 21.234375 36.976562 C 19.691406 36.164062 18.304688 34.988281 17.226562 33.585938 C 16.148438 32.183594 15.375 30.558594 15.0625 28.851562 C 14.90625 28 14.859375 27.125 14.953125 26.25 C 15.046875 25.375 15.273438 24.496094 15.648438 23.632812 C 18.421875 23.488281 21.617188 23.605469 23.40625 23.933594 C 22.023438 22.878906 20.941406 21.773438 20.164062 20.617188 C 19.390625 19.457031 18.921875 18.246094 18.773438 16.984375 C 18.625 15.722656 18.800781 14.40625 19.308594 13.042969 C 19.816406 11.679688 20.65625 10.269531 21.84375 8.804688 C 20.691406 9.140625 19.542969 9.496094 18.449219 10.035156 C 17.355469 10.574219 16.3125 11.300781 15.375 12.382812 C 14.585938 11.867188 13.617188 11.597656 12.570312 11.550781 C 11.527344 11.507812 10.40625 11.683594 9.308594 12.066406 C 8.214844 12.449219 7.144531 13.039062 6.203125 13.808594 C 5.265625 14.578125 4.449219 15.527344 3.867188 16.640625 C 3.480469 17.300781 3.15625 18.246094 2.847656 19.226562 L 2.847656 36.789062 C 2.847656 41.425781 6.574219 45.152344 11.207031 45.152344 L 36.789062 45.152344 C 41.421875 45.152344 45.152344 41.425781 45.152344 36.789062 Z M 45.152344 20.691406 "/>
</g>
</svg>
