<?xml version="1.0" encoding="UTF-8"?>
<svg xmlns="http://www.w3.org/2000/svg" xmlns:xlink="http://www.w3.org/1999/xlink" width="48pt" height="48pt" viewBox="0 0 48 48" version="1.1">
<g id="surface1">
<path style=" stroke:none;fill-rule:evenodd;fill:rgb(88.627451%,70.196078%,13.333333%);fill-opacity:1;" d="M 2.847656 18.300781 C 2.855469 18.320312 2.859375 18.34375 2.867188 18.367188 C 3.449219 19.738281 4.15625 21.042969 4.980469 22.261719 C 5.804688 23.484375 6.742188 24.617188 7.78125 25.65625 C 8.820312 26.691406 9.953125 27.632812 11.175781 28.457031 C 12.394531 29.28125 13.699219 29.988281 15.070312 30.566406 C 16.441406 31.148438 17.882812 31.597656 19.378906 31.902344 C 20.871094 32.210938 22.414062 32.371094 24 32.371094 C 25.585938 32.371094 27.128906 32.210938 28.621094 31.902344 C 30.117188 31.597656 31.558594 31.148438 32.929688 30.566406 C 34.300781 29.988281 35.605469 29.28125 36.824219 28.457031 C 38.046875 27.632812 39.179688 26.691406 40.21875 25.65625 C 41.257812 24.617188 42.195312 23.484375 43.019531 22.261719 C 43.84375 21.042969 44.550781 19.738281 45.132812 18.367188 C 45.140625 18.34375 45.144531 18.320312 45.152344 18.300781 L 45.152344 11.207031 C 45.152344 6.574219 41.425781 2.847656 36.792969 2.847656 L 11.207031 2.847656 C 6.574219 2.847656 2.847656 6.574219 2.847656 11.207031 Z M 2.847656 18.300781 "/>
<path style=" stroke:none;fill-rule:evenodd;fill:rgb(88.627451%,70.196078%,13.333333%);fill-opacity:1;" d="M 2.847656 21.449219 L 2.847656 36.792969 C 2.847656 41.425781 6.574219 45.152344 11.207031 45.152344 L 36.792969 45.152344 C 41.425781 45.152344 45.152344 41.425781 45.152344 36.792969 L 45.152344 21.449219 C 44.84375 21.992188 44.605469 22.578125 44.257812 23.09375 C 43.378906 24.394531 42.378906 25.605469 41.273438 26.710938 C 40.167969 27.816406 38.957031 28.816406 37.660156 29.695312 C 36.359375 30.574219 34.96875 31.328125 33.507812 31.949219 C 32.046875 32.566406 30.511719 33.046875 28.921875 33.371094 C 27.332031 33.699219 25.6875 33.871094 24 33.871094 C 22.3125 33.871094 20.667969 33.699219 19.078125 33.371094 C 17.488281 33.046875 15.953125 32.566406 14.492188 31.949219 C 13.03125 31.328125 11.640625 30.574219 10.339844 29.695312 C 9.042969 28.816406 7.832031 27.816406 6.726562 26.710938 C 5.621094 25.605469 4.621094 24.394531 3.742188 23.09375 C 3.394531 22.578125 3.15625 21.992188 2.847656 21.449219 Z M 2.847656 21.449219 "/>
<path style=" stroke:none;fill-rule:evenodd;fill:rgb(88.627451%,70.196078%,13.333333%);fill-opacity:1;" d="M 24 2.847656 L 11.207031 2.847656 C 6.574219 2.847656 2.847656 6.574219 2.847656 11.210938 L 2.847656 36.789062 C 2.847656 41.421875 6.574219 45.152344 11.207031 45.152344 L 24 45.152344 Z M 24 2.847656 "/>
<path style=" stroke:none;fill-rule:evenodd;fill:rgb(94.901961%,80.392157%,13.333333%);fill-opacity:1;" d="M 24 2.847656 L 24 45.152344 L 36.789062 45.152344 C 41.421875 45.152344 45.152344 41.421875 45.152344 36.789062 L 45.152344 11.210938 C 45.152344 6.574219 41.421875 2.847656 36.789062 2.847656 Z M 24 2.847656 "/>
<path style=" stroke:none;fill-rule:nonzero;fill:rgb(100%,100%,100%);fill-opacity:1;" d="M 20.222656 41.609375 C 20.222656 42.414062 20.875 43.0625 21.675781 43.0625 C 22.476562 43.0625 23.128906 42.414062 23.128906 41.609375 C 23.128906 41.351562 23.046875 41.113281 22.929688 40.902344 L 24 39.757812 L 25.070312 40.902344 C 24.953125 41.113281 24.871094 41.351562 24.871094 41.609375 C 24.871094 42.410156 25.523438 43.0625 26.324219 43.0625 C 27.128906 43.0625 27.777344 42.410156 27.777344 41.609375 C 27.777344 40.808594 27.128906 40.15625 26.324219 40.15625 C 26.191406 40.15625 26.066406 40.179688 25.945312 40.210938 L 24.746094 38.976562 L 27.195312 36.378906 L 27.195312 35.507812 L 26.617188 35.507812 L 22.058594 40.210938 C 21.933594 40.179688 21.808594 40.15625 21.675781 40.15625 C 20.871094 40.15625 20.222656 40.808594 20.222656 41.609375 Z M 21.09375 41.609375 C 21.09375 41.289062 21.355469 41.03125 21.675781 41.03125 C 21.996094 41.03125 22.257812 41.289062 22.257812 41.609375 C 22.257812 41.933594 21.996094 42.191406 21.675781 42.191406 C 21.355469 42.191406 21.09375 41.933594 21.09375 41.609375 Z M 20.804688 36.378906 L 22.964844 38.667969 L 23.710938 37.90625 L 21.386719 35.507812 L 20.804688 35.507812 Z M 25.742188 41.609375 C 25.742188 41.289062 26.003906 41.03125 26.324219 41.03125 C 26.644531 41.03125 26.90625 41.289062 26.90625 41.609375 C 26.90625 41.933594 26.644531 42.191406 26.324219 42.191406 C 26.003906 42.191406 25.742188 41.933594 25.742188 41.609375 Z M 25.742188 41.609375 "/>
<path style=" stroke:none;fill-rule:nonzero;fill:rgb(100%,100%,100%);fill-opacity:1;" d="M 29.914062 12.402344 L 21.210938 14.410156 C 19.984375 14.5625 20.03125 15.820312 20.03125 15.820312 L 20.03125 21.175781 C 19.746094 21.09375 19.453125 21.050781 19.160156 21.050781 C 17.394531 21.050781 15.964844 22.480469 15.964844 24.246094 C 15.964844 26.011719 17.394531 27.445312 19.160156 27.445312 C 20.8125 27.441406 22.191406 26.183594 22.339844 24.539062 L 22.355469 24.539062 L 22.355469 16.492188 L 28.75 14.972656 L 28.75 19.433594 C 28.464844 19.351562 28.171875 19.308594 27.878906 19.308594 C 26.113281 19.308594 24.679688 20.738281 24.679688 22.503906 C 24.679688 24.269531 26.113281 25.699219 27.878906 25.699219 C 29.53125 25.699219 30.910156 24.441406 31.058594 22.792969 L 31.074219 22.792969 L 31.074219 13.496094 C 31.074219 13.496094 31.089844 12.15625 29.914062 12.402344 Z M 29.914062 12.402344 "/>
<path style=" stroke:none;fill-rule:evenodd;fill:rgb(100%,100%,100%);fill-opacity:1;" d="M 2.847656 21.449219 C 3.15625 21.992188 3.394531 22.578125 3.742188 23.09375 C 4.621094 24.394531 5.621094 25.605469 6.726562 26.710938 C 7.832031 27.816406 9.042969 28.816406 10.339844 29.695312 C 11.640625 30.574219 13.03125 31.328125 14.492188 31.949219 C 15.953125 32.566406 17.488281 33.046875 19.078125 33.371094 C 20.667969 33.699219 22.3125 33.871094 24 33.871094 C 25.6875 33.871094 27.332031 33.699219 28.921875 33.371094 C 30.511719 33.046875 32.046875 32.566406 33.507812 31.949219 C 34.96875 31.328125 36.359375 30.574219 37.660156 29.695312 C 38.957031 28.816406 40.167969 27.816406 41.273438 26.710938 C 42.378906 25.605469 43.378906 24.394531 44.257812 23.09375 C 44.605469 22.578125 44.84375 21.992188 45.152344 21.449219 L 45.152344 18.300781 C 45.144531 18.320312 45.140625 18.34375 45.132812 18.367188 C 44.550781 19.738281 43.84375 21.042969 43.019531 22.261719 C 42.195312 23.484375 41.257812 24.617188 40.21875 25.65625 C 39.179688 26.691406 38.046875 27.632812 36.824219 28.457031 C 35.605469 29.28125 34.300781 29.988281 32.929688 30.566406 C 31.558594 31.148438 30.117188 31.597656 28.621094 31.902344 C 27.128906 32.210938 25.585938 32.371094 24 32.371094 C 22.414062 32.371094 20.871094 32.210938 19.378906 31.902344 C 17.882812 31.597656 16.441406 31.148438 15.070312 30.566406 C 13.699219 29.988281 12.394531 29.28125 11.175781 28.457031 C 9.953125 27.632812 8.820312 26.691406 7.78125 25.65625 C 6.742188 24.617188 5.804688 23.484375 4.980469 22.261719 C 4.15625 21.042969 3.449219 19.738281 2.867188 18.367188 C 2.859375 18.34375 2.855469 18.320312 2.847656 18.300781 Z M 2.847656 21.449219 "/>
</g>
</svg>
