<?xml version="1.0" encoding="UTF-8"?>
<svg xmlns="http://www.w3.org/2000/svg" xmlns:xlink="http://www.w3.org/1999/xlink" width="48pt" height="48pt" viewBox="0 0 48 48" version="1.1">
<defs>
<clipPath id="clip1">
  <rect width="48" height="48"/>
</clipPath>
<g id="surface6" clip-path="url(#clip1)">
<path style=" stroke:none;fill-rule:evenodd;fill:rgb(100%,55.686275%,18.823529%);fill-opacity:1;" d="M 33.90625 8.96875 C 37.199219 8.96875 39.871094 11.640625 39.871094 14.933594 C 39.871094 18.226562 37.199219 20.898438 33.90625 20.898438 C 30.613281 20.898438 27.941406 18.226562 27.941406 14.933594 C 27.941406 11.640625 30.613281 8.96875 33.90625 8.96875 Z M 33.90625 8.96875 "/>
</g>
</defs>
<g id="surface1">
<path style=" stroke:none;fill-rule:evenodd;fill:rgb(100%,80.784314%,48.235294%);fill-opacity:1;" d="M 11.210938 2.847656 L 36.789062 2.847656 C 41.410156 2.847656 45.152344 6.589844 45.152344 11.210938 L 45.152344 36.789062 C 45.152344 41.40625 41.410156 45.152344 36.789062 45.152344 L 11.210938 45.152344 C 6.59375 45.152344 2.847656 41.40625 2.847656 36.789062 L 2.847656 11.210938 C 2.847656 6.589844 6.59375 2.847656 11.210938 2.847656 Z M 11.210938 2.847656 "/>
<path style=" stroke:none;fill-rule:evenodd;fill:rgb(100%,80.784314%,48.235294%);fill-opacity:1;" d="M 11.210938 2.847656 C 6.578125 2.847656 2.847656 6.574219 2.847656 11.207031 L 2.847656 27.277344 C 4.351562 26.96875 6.070312 26.523438 7.316406 26.375 C 9.59375 26.105469 11.472656 26.085938 13.113281 26.246094 C 14.75 26.40625 16.148438 26.742188 17.464844 27.183594 C 18.78125 27.625 20.015625 28.167969 21.328125 28.742188 C 22.636719 29.316406 24.027344 29.914062 25.648438 30.472656 C 27.269531 31.027344 29.128906 31.535156 31.382812 31.925781 C 33.632812 32.3125 36.28125 32.578125 39.480469 32.648438 C 41.070312 32.683594 43.269531 32.492188 45.15625 32.421875 L 45.15625 11.207031 C 45.15625 6.574219 41.421875 2.847656 36.789062 2.847656 Z M 11.210938 2.847656 "/>
<use xlink:href="#surface6"/>
<path style=" stroke:none;fill-rule:evenodd;fill:rgb(52.54902%,62.352941%,79.607843%);fill-opacity:1;" d="M 28.976562 30.839844 C 21.601562 31.511719 15.964844 35.550781 7.320312 35.109375 C 5.550781 34.949219 4.09375 34.609375 2.84375 34.140625 L 2.84375 36.792969 C 2.84375 37.738281 3.09375 38.609375 3.382812 39.453125 C 4.789062 38.707031 6.1875 38.105469 7.574219 37.765625 C 9.136719 37.378906 10.695312 37.21875 12.265625 37.199219 C 15.398438 37.164062 18.574219 37.703125 21.921875 38.167969 C 23.597656 38.402344 25.3125 38.617188 27.089844 38.734375 C 28.871094 38.851562 30.707031 38.867188 32.621094 38.707031 C 34.535156 38.546875 36.523438 38.210938 38.609375 37.613281 C 40.691406 37.011719 42.867188 36.15625 45.152344 34.957031 C 38.449219 31.246094 33.402344 30.433594 28.976562 30.839844 Z M 28.976562 30.839844 "/>
<path style=" stroke:none;fill-rule:evenodd;fill:rgb(21.960784%,38.431373%,76.470588%);fill-opacity:1;" d="M 45.152344 34.957031 C 42.867188 36.15625 40.691406 37.011719 38.609375 37.613281 C 36.523438 38.210938 34.535156 38.546875 32.621094 38.707031 C 30.707031 38.867188 28.871094 38.851562 27.089844 38.734375 C 25.3125 38.617188 23.597656 38.402344 21.921875 38.167969 C 18.574219 37.703125 15.398438 37.164062 12.265625 37.199219 C 10.695312 37.21875 9.136719 37.378906 7.574219 37.765625 C 6.1875 38.105469 4.789062 38.707031 3.382812 39.453125 C 4.5 42.753906 7.523438 45.152344 11.210938 45.152344 L 36.789062 45.152344 C 41.421875 45.152344 45.152344 41.425781 45.152344 36.792969 Z M 45.152344 34.957031 "/>
</g>
</svg>
