<?xml version="1.0" encoding="UTF-8"?>
<svg xmlns="http://www.w3.org/2000/svg" xmlns:xlink="http://www.w3.org/1999/xlink" width="48pt" height="48pt" viewBox="0 0 48 48" version="1.1">
<g id="surface1">
<path style=" stroke:none;fill-rule:evenodd;fill:rgb(80%,80%,80%);fill-opacity:1;" d="M 11.210938 2.847656 L 36.789062 2.847656 C 41.410156 2.847656 45.152344 6.589844 45.152344 11.210938 L 45.152344 36.789062 C 45.152344 41.410156 41.410156 45.152344 36.789062 45.152344 L 11.210938 45.152344 C 6.589844 45.152344 2.847656 41.410156 2.847656 36.789062 L 2.847656 11.210938 C 2.847656 6.589844 6.589844 2.847656 11.210938 2.847656 Z M 11.210938 2.847656 "/>
<path style=" stroke:none;fill-rule:nonzero;fill:rgb(83.529412%,29.411765%,23.921569%);fill-opacity:1;" d="M 11.429688 13.234375 C 10.558594 13.234375 9.84375 13.855469 9.679688 14.65625 C 9.648438 14.894531 9.644531 15.074219 9.644531 15.074219 L 9.644531 32.972656 C 9.644531 33.960938 10.4375 34.777344 11.433594 34.765625 L 13.746094 34.765625 L 13.746094 15.074219 C 13.746094 14.957031 13.734375 14.847656 13.710938 14.75 C 13.59375 14.238281 12.984375 13.660156 12.367188 13.234375 Z M 11.429688 13.234375 "/>
<path style=" stroke:none;fill-rule:nonzero;fill:rgb(83.529412%,29.411765%,23.921569%);fill-opacity:1;" d="M 35.949219 13.234375 C 35.089844 13.476562 34.234375 14.21875 34.253906 15.027344 L 34.253906 34.765625 L 36.523438 34.765625 C 37.558594 34.765625 38.355469 33.96875 38.355469 33 L 38.355469 15.011719 C 38.355469 14.019531 37.535156 13.234375 36.558594 13.234375 Z M 35.949219 13.234375 "/>
<path style=" stroke:none;fill-rule:evenodd;fill:rgb(83.529412%,29.411765%,23.921569%);fill-opacity:1;" d="M 36.351562 13.234375 C 35.890625 13.226562 35.4375 13.359375 35.074219 13.644531 L 23.996094 21.949219 L 12.921875 13.644531 C 10.847656 12.0625 8.410156 15.457031 10.464844 16.925781 L 22.769531 26.152344 C 23.496094 26.699219 24.5 26.699219 25.226562 26.152344 L 36.910156 17.390625 L 37.53125 16.925781 C 39.054688 15.835938 38.324219 13.257812 36.351562 13.234375 Z M 36.351562 13.234375 "/>
</g>
</svg>
