<?xml version="1.0" encoding="UTF-8"?>
<svg xmlns="http://www.w3.org/2000/svg" xmlns:xlink="http://www.w3.org/1999/xlink" width="48pt" height="48pt" viewBox="0 0 48 48" version="1.1">
<g id="surface1">
<path style=" stroke:none;fill-rule:evenodd;fill:rgb(30.980392%,30.980392%,30.980392%);fill-opacity:1;" d="M 11.210938 2.847656 L 36.789062 2.847656 C 41.410156 2.847656 45.152344 6.589844 45.152344 11.210938 L 45.152344 36.789062 C 45.152344 41.410156 41.410156 45.152344 36.789062 45.152344 L 11.210938 45.152344 C 6.589844 45.152344 2.847656 41.410156 2.847656 36.789062 L 2.847656 11.210938 C 2.847656 6.589844 6.589844 2.847656 11.210938 2.847656 Z M 11.210938 2.847656 "/>
<path style=" stroke:none;fill-rule:nonzero;fill:rgb(70.588235%,70.588235%,70.588235%);fill-opacity:1;" d="M 10.53125 13.5 L 10.605469 14.117188 C 10.742188 15.273438 10.882812 15.648438 11.273438 15.847656 C 11.472656 15.953125 11.675781 16.171875 11.71875 16.34375 C 11.800781 16.671875 12.015625 16.761719 12.015625 16.460938 C 12.015625 16.363281 11.792969 15.847656 11.519531 15.320312 C 11.246094 14.796875 11.023438 14.308594 11.019531 14.242188 C 11.019531 14.171875 10.910156 13.980469 10.777344 13.808594 Z M 37.46875 13.5 L 37.222656 13.808594 C 37.089844 13.976562 36.980469 14.171875 36.976562 14.242188 C 36.976562 14.308594 36.753906 14.792969 36.480469 15.320312 C 36.207031 15.847656 35.984375 16.363281 35.984375 16.460938 C 35.984375 16.761719 36.195312 16.671875 36.28125 16.34375 C 36.324219 16.171875 36.523438 15.953125 36.726562 15.847656 C 37.113281 15.648438 37.257812 15.273438 37.394531 14.117188 Z M 9.265625 14.179688 C 9.191406 14.179688 9.175781 14.269531 9.226562 14.394531 C 9.4375 14.894531 9.445312 15.167969 9.242188 15.167969 C 9.128906 15.167969 9.039062 15.207031 9.039062 15.261719 C 9.039062 15.457031 9.445312 15.925781 9.703125 16.03125 C 10.011719 16.152344 10.28125 16.183594 10.28125 16.089844 C 10.28125 16.054688 10.226562 15.929688 10.15625 15.8125 C 10.089844 15.691406 9.980469 15.363281 9.90625 15.078125 C 9.777344 14.558594 9.507812 14.179688 9.265625 14.179688 Z M 38.730469 14.179688 C 38.492188 14.179688 38.21875 14.558594 38.089844 15.078125 C 38.019531 15.363281 37.90625 15.695312 37.839844 15.8125 C 37.773438 15.929688 37.71875 16.054688 37.71875 16.089844 C 37.71875 16.183594 37.988281 16.152344 38.296875 16.03125 C 38.554688 15.925781 38.957031 15.457031 38.957031 15.261719 C 38.957031 15.207031 38.867188 15.167969 38.757812 15.167969 C 38.554688 15.167969 38.558594 14.894531 38.769531 14.394531 C 38.820312 14.269531 38.804688 14.179688 38.730469 14.179688 Z M 23.957031 14.488281 C 24 14.59375 23.960938 14.671875 23.863281 14.671875 C 23.453125 14.671875 23.292969 16.15625 23.605469 17.078125 C 23.6875 17.324219 23.683594 17.324219 23.535156 17.078125 C 23.285156 16.667969 22.890625 16.273438 22.726562 16.273438 C 22.640625 16.273438 22.535156 16.441406 22.488281 16.644531 C 22.445312 16.851562 22.355469 17.019531 22.289062 17.019531 C 22.222656 17.019531 22.199219 16.960938 22.242188 16.894531 C 22.28125 16.828125 22.265625 16.679688 22.203125 16.566406 C 22.097656 16.382812 22.074219 16.386719 21.945312 16.625 C 21.835938 16.832031 21.84375 16.984375 21.992188 17.335938 C 22.226562 17.902344 22.226562 18.003906 21.984375 18.003906 C 21.722656 18.003906 21.828125 18.300781 22.105469 18.355469 C 22.351562 18.402344 22.796875 18.046875 22.796875 17.808594 C 22.796875 17.71875 22.859375 17.609375 22.933594 17.566406 C 23.128906 17.445312 23.34375 17.703125 23.21875 17.902344 C 23.160156 17.992188 23.113281 18.101562 23.109375 18.148438 C 23.109375 18.191406 22.953125 18.351562 22.761719 18.5 C 22.320312 18.847656 22.332031 19.402344 22.785156 19.464844 C 22.953125 19.488281 23.042969 19.457031 23 19.382812 C 22.957031 19.3125 23.046875 19.316406 23.21875 19.398438 C 23.378906 19.472656 23.566406 19.691406 23.640625 19.878906 C 23.765625 19.875 23.882812 19.859375 24 19.832031 C 24.113281 19.859375 24.230469 19.875 24.359375 19.878906 C 24.429688 19.691406 24.621094 19.472656 24.78125 19.398438 C 24.953125 19.316406 25.042969 19.3125 24.996094 19.382812 C 24.953125 19.457031 25.046875 19.488281 25.214844 19.464844 C 25.667969 19.402344 25.679688 18.847656 25.234375 18.5 C 25.042969 18.351562 24.886719 18.191406 24.886719 18.148438 C 24.886719 18.101562 24.835938 17.992188 24.777344 17.902344 C 24.652344 17.703125 24.867188 17.445312 25.0625 17.566406 C 25.136719 17.609375 25.199219 17.71875 25.199219 17.808594 C 25.199219 18.046875 25.644531 18.402344 25.890625 18.355469 C 26.167969 18.300781 26.273438 18.003906 26.015625 18.003906 C 25.769531 18.003906 25.769531 17.902344 26.007812 17.335938 C 26.152344 16.984375 26.164062 16.832031 26.054688 16.625 C 25.925781 16.386719 25.898438 16.382812 25.796875 16.566406 C 25.730469 16.679688 25.714844 16.828125 25.757812 16.894531 C 25.796875 16.960938 25.777344 17.019531 25.707031 17.019531 C 25.640625 17.019531 25.554688 16.851562 25.507812 16.644531 C 25.464844 16.441406 25.355469 16.273438 25.269531 16.273438 C 25.105469 16.273438 24.710938 16.667969 24.460938 17.078125 C 24.3125 17.324219 24.308594 17.324219 24.390625 17.078125 C 24.703125 16.15625 24.542969 14.671875 24.132812 14.671875 C 24.035156 14.671875 23.996094 14.59375 24.039062 14.488281 C 24.023438 14.503906 24.011719 14.515625 24 14.53125 C 23.984375 14.515625 23.972656 14.503906 23.957031 14.488281 Z M 7.636719 14.832031 C 7.40625 14.914062 7.484375 16.460938 7.742188 16.851562 C 7.933594 17.144531 7.933594 17.167969 7.753906 17.101562 C 7.507812 17.003906 7.5 17.171875 7.730469 17.609375 C 7.992188 18.117188 8.523438 18.554688 9.382812 18.980469 C 9.808594 19.195312 10.15625 19.382812 10.15625 19.410156 C 10.15625 19.542969 8.976562 19.203125 8.707031 18.992188 C 8.210938 18.605469 7.988281 18.667969 8.3125 19.105469 C 8.460938 19.304688 8.546875 19.550781 8.511719 19.648438 C 8.433594 19.851562 8.765625 20.195312 9.414062 20.582031 C 9.957031 20.90625 10.074219 20.910156 9.972656 20.597656 C 9.867188 20.269531 9.929688 20.285156 10.289062 20.664062 C 10.535156 20.925781 10.542969 20.964844 10.347656 20.890625 C 10.175781 20.824219 10.144531 20.839844 10.21875 20.960938 C 10.316406 21.121094 10.105469 21.101562 9.371094 20.886719 C 9.179688 20.828125 9.15625 20.863281 9.230469 21.105469 C 9.433594 21.753906 9.765625 22.039062 10.578125 22.273438 C 11.019531 22.398438 11.351562 22.546875 11.316406 22.601562 C 11.242188 22.722656 10.402344 22.585938 10.1875 22.414062 C 9.964844 22.238281 9.984375 22.691406 10.214844 23.019531 C 10.421875 23.3125 11.257812 23.738281 12.261719 24.058594 L 12.945312 24.277344 L 12.324219 24.21875 C 11.984375 24.1875 11.558594 24.140625 11.378906 24.113281 C 11.101562 24.070312 11.058594 24.101562 11.113281 24.304688 C 11.207031 24.65625 11.835938 25.144531 12.296875 25.214844 C 12.519531 25.246094 12.976562 25.320312 13.316406 25.378906 L 13.9375 25.488281 L 13.382812 25.644531 C 13.074219 25.730469 12.613281 25.773438 12.351562 25.738281 C 11.886719 25.675781 11.878906 25.683594 12.050781 25.941406 C 12.304688 26.320312 12.902344 26.644531 13.59375 26.773438 L 14.183594 26.882812 L 13.46875 26.832031 C 13.078125 26.804688 12.757812 26.828125 12.757812 26.882812 C 12.757812 26.933594 12.90625 27.125 13.085938 27.304688 C 13.433594 27.652344 13.574219 27.675781 14.929688 27.644531 L 15.796875 27.625 L 15.050781 27.949219 C 14.148438 28.339844 14 28.464844 14.246094 28.617188 C 14.398438 28.710938 14.351562 28.8125 13.980469 29.199219 C 13.734375 29.457031 13.320312 29.945312 13.066406 30.28125 C 11.910156 31.820312 11.296875 32.320312 10.5625 32.320312 C 9.921875 32.320312 9.859375 32.523438 10.464844 32.636719 C 11.070312 32.75 11.898438 32.605469 12.566406 32.269531 C 13.375 31.859375 13.324219 32.070312 12.449219 32.757812 C 12.207031 32.945312 12.210938 32.949219 12.511719 32.871094 C 12.683594 32.828125 13.085938 32.632812 13.410156 32.4375 C 14.03125 32.0625 14.128906 32.046875 13.796875 32.378906 C 13.519531 32.65625 13.683594 32.761719 14.089844 32.566406 C 14.277344 32.476562 14.527344 32.414062 14.644531 32.429688 C 14.761719 32.441406 15.117188 32.214844 15.4375 31.921875 C 15.765625 31.625 15.960938 31.507812 15.886719 31.652344 C 15.808594 31.792969 15.660156 31.976562 15.554688 32.066406 C 15.445312 32.152344 15.363281 32.273438 15.363281 32.332031 C 15.363281 32.574219 15.660156 32.410156 16.285156 31.820312 C 16.675781 31.453125 16.984375 31.25 17.03125 31.324219 C 17.074219 31.398438 17.046875 31.457031 16.964844 31.457031 C 16.886719 31.457031 16.855469 31.539062 16.894531 31.640625 C 16.9375 31.753906 16.894531 31.824219 16.78125 31.824219 C 16.683594 31.824219 16.601562 31.878906 16.601562 31.941406 C 16.601562 32.191406 17.359375 31.785156 17.539062 31.445312 C 17.78125 30.980469 17.855469 30.988281 17.757812 31.476562 C 17.699219 31.753906 17.71875 31.839844 17.820312 31.777344 C 17.898438 31.726562 17.964844 31.605469 17.964844 31.503906 C 17.964844 31.398438 18.054688 31.335938 18.179688 31.355469 C 18.324219 31.382812 18.5 31.195312 18.734375 30.773438 C 19.003906 30.289062 19.074219 30.222656 19.078125 30.453125 C 19.082031 30.683594 19.132812 30.730469 19.328125 30.679688 C 19.527344 30.628906 19.496094 30.710938 19.152344 31.128906 C 18.707031 31.671875 18.457031 32.320312 18.695312 32.320312 C 18.773438 32.320312 18.832031 32.269531 18.832031 32.207031 C 18.832031 32.148438 19.015625 32.035156 19.238281 31.960938 L 19.636719 31.824219 L 19.230469 32.144531 C 18.675781 32.585938 18.089844 33.628906 18.097656 34.167969 L 18.097656 34.171875 C 18.105469 34.558594 18.121094 34.578125 18.253906 34.367188 C 18.664062 33.714844 19.191406 33.273438 20.082031 32.832031 L 21.0625 32.347656 L 21.0625 32.703125 C 21.0625 32.898438 21.121094 33.058594 21.1875 33.058594 C 21.257812 33.058594 21.3125 32.949219 21.3125 32.808594 C 21.3125 32.671875 21.421875 32.34375 21.558594 32.082031 C 21.859375 31.492188 23.527344 30.175781 24 30.109375 C 24.453125 30.144531 26.136719 31.488281 26.441406 32.082031 C 26.574219 32.34375 26.6875 32.671875 26.6875 32.808594 C 26.6875 32.949219 26.742188 33.0625 26.808594 33.0625 C 26.878906 33.0625 26.933594 32.898438 26.933594 32.703125 L 26.933594 32.347656 L 27.917969 32.832031 C 28.808594 33.273438 29.335938 33.714844 29.746094 34.367188 C 29.878906 34.578125 29.894531 34.558594 29.898438 34.171875 L 29.898438 34.167969 C 29.90625 33.628906 29.320312 32.585938 28.765625 32.148438 L 28.359375 31.824219 L 28.761719 31.960938 C 28.984375 32.035156 29.164062 32.148438 29.164062 32.207031 C 29.164062 32.269531 29.226562 32.320312 29.300781 32.320312 C 29.542969 32.320312 29.292969 31.671875 28.847656 31.128906 C 28.503906 30.710938 28.472656 30.628906 28.671875 30.679688 C 28.867188 30.730469 28.917969 30.683594 28.921875 30.453125 C 28.921875 30.222656 28.996094 30.289062 29.265625 30.777344 C 29.496094 31.199219 29.675781 31.382812 29.820312 31.355469 C 29.941406 31.335938 30.035156 31.398438 30.035156 31.503906 C 30.035156 31.605469 30.097656 31.726562 30.175781 31.777344 C 30.28125 31.839844 30.296875 31.753906 30.242188 31.476562 C 30.144531 30.988281 30.21875 30.980469 30.460938 31.445312 C 30.636719 31.785156 31.398438 32.191406 31.398438 31.941406 C 31.398438 31.878906 31.316406 31.824219 31.214844 31.824219 C 31.105469 31.824219 31.0625 31.753906 31.105469 31.640625 C 31.144531 31.539062 31.113281 31.457031 31.03125 31.457031 C 30.953125 31.457031 30.921875 31.398438 30.96875 31.324219 C 31.015625 31.25 31.320312 31.453125 31.710938 31.820312 C 32.339844 32.410156 32.636719 32.578125 32.636719 32.335938 C 32.636719 32.277344 32.550781 32.152344 32.445312 32.066406 C 32.339844 31.976562 32.1875 31.792969 32.113281 31.652344 C 32.035156 31.507812 32.230469 31.628906 32.558594 31.925781 C 32.878906 32.21875 33.234375 32.441406 33.351562 32.429688 C 33.46875 32.414062 33.71875 32.476562 33.90625 32.566406 C 34.316406 32.761719 34.480469 32.65625 34.199219 32.378906 C 33.871094 32.046875 33.96875 32.0625 34.585938 32.4375 C 34.910156 32.632812 35.316406 32.828125 35.488281 32.871094 C 35.789062 32.949219 35.789062 32.945312 35.550781 32.757812 C 34.671875 32.070312 34.621094 31.859375 35.433594 32.269531 C 36.101562 32.605469 36.925781 32.75 37.53125 32.636719 C 38.136719 32.523438 38.074219 32.320312 37.4375 32.320312 C 36.699219 32.320312 36.089844 31.824219 34.933594 30.285156 C 34.675781 29.945312 34.265625 29.457031 34.015625 29.199219 C 33.648438 28.8125 33.601562 28.710938 33.75 28.617188 C 34 28.464844 33.847656 28.339844 32.945312 27.949219 L 32.203125 27.625 L 33.070312 27.644531 C 34.425781 27.679688 34.5625 27.652344 34.914062 27.304688 C 35.09375 27.125 35.238281 26.933594 35.238281 26.882812 C 35.238281 26.828125 34.917969 26.804688 34.527344 26.832031 L 33.8125 26.882812 L 34.40625 26.773438 C 35.09375 26.644531 35.695312 26.320312 35.945312 25.941406 C 36.117188 25.683594 36.113281 25.679688 35.648438 25.738281 C 35.386719 25.773438 34.921875 25.730469 34.617188 25.644531 L 34.0625 25.488281 L 34.683594 25.378906 C 35.023438 25.320312 35.480469 25.246094 35.703125 25.210938 C 36.164062 25.140625 36.792969 24.65625 36.886719 24.300781 C 36.941406 24.097656 36.898438 24.070312 36.621094 24.113281 C 36.441406 24.140625 36.015625 24.1875 35.675781 24.21875 L 35.054688 24.277344 L 35.738281 24.058594 C 36.742188 23.738281 37.578125 23.3125 37.785156 23.019531 C 38.015625 22.691406 38.035156 22.238281 37.8125 22.414062 C 37.597656 22.582031 36.757812 22.722656 36.683594 22.597656 C 36.648438 22.542969 36.980469 22.394531 37.421875 22.269531 C 38.234375 22.039062 38.566406 21.753906 38.769531 21.109375 C 38.84375 20.863281 38.820312 20.828125 38.628906 20.882812 C 37.894531 21.101562 37.683594 21.121094 37.78125 20.960938 C 37.855469 20.839844 37.824219 20.820312 37.652344 20.886719 C 37.457031 20.960938 37.464844 20.921875 37.710938 20.660156 C 38.070312 20.28125 38.132812 20.269531 38.027344 20.59375 C 37.925781 20.90625 38.042969 20.902344 38.585938 20.578125 C 39.234375 20.191406 39.566406 19.851562 39.488281 19.648438 C 39.453125 19.546875 39.539062 19.300781 39.6875 19.101562 C 40.011719 18.667969 39.789062 18.605469 39.292969 18.992188 C 39.023438 19.203125 37.84375 19.539062 37.84375 19.40625 C 37.84375 19.382812 38.191406 19.191406 38.617188 18.980469 C 39.476562 18.554688 40.007812 18.113281 40.269531 17.609375 C 40.5 17.171875 40.492188 17.007812 40.246094 17.101562 C 40.066406 17.167969 40.066406 17.140625 40.257812 16.851562 C 40.515625 16.460938 40.59375 14.910156 40.363281 14.832031 C 40.285156 14.804688 40.183594 14.890625 40.140625 15.027344 C 40.097656 15.160156 39.828125 15.503906 39.542969 15.789062 C 39.253906 16.074219 39.113281 16.273438 39.226562 16.238281 C 39.558594 16.125 39.601562 16.300781 39.3125 16.605469 C 39 16.9375 38.734375 16.976562 38.632812 16.707031 C 38.539062 16.46875 38.46875 16.472656 37.449219 16.777344 L 36.59375 17.027344 L 36.199219 17.839844 C 35.871094 18.527344 35.675781 18.753906 34.9375 19.296875 C 34.457031 19.652344 33.957031 20.0625 33.832031 20.203125 C 33.53125 20.539062 33.644531 21.023438 34.078125 21.25 C 34.394531 21.414062 34.375 21.425781 33.253906 21.828125 C 31.65625 22.402344 31.085938 22.351562 31.179688 21.644531 C 31.210938 21.402344 31.472656 21.234375 32.234375 20.957031 C 32.734375 20.777344 32.757812 20.59375 32.273438 20.59375 C 31.679688 20.59375 31.722656 20.382812 32.390625 20.050781 C 33.730469 19.378906 35.355469 17.976562 35.675781 17.210938 C 35.828125 16.851562 35.796875 16.144531 35.628906 16.15625 C 35.585938 16.15625 35.417969 16.441406 35.257812 16.78125 C 34.804688 17.742188 33.089844 18.945312 31.523438 19.40625 C 30.582031 19.679688 29.617188 20.257812 29.203125 20.796875 C 28.542969 21.65625 28.113281 22.050781 27.742188 22.132812 L 27.371094 22.21875 L 27.792969 21.929688 C 28.359375 21.550781 28.441406 21.296875 27.96875 21.40625 L 27.617188 21.484375 L 27.925781 21.265625 C 28.40625 20.929688 28.917969 20.4375 28.917969 20.308594 C 28.917969 20.246094 28.808594 20.222656 28.671875 20.257812 C 28.472656 20.3125 28.503906 20.226562 28.847656 19.808594 C 29.292969 19.265625 29.542969 18.621094 29.304688 18.621094 C 29.226562 18.621094 29.164062 18.671875 29.164062 18.730469 C 29.164062 18.792969 28.984375 18.90625 28.761719 18.980469 L 28.359375 19.113281 L 28.769531 18.792969 C 29.324219 18.351562 29.910156 17.308594 29.902344 16.769531 C 29.894531 16.386719 29.878906 16.363281 29.746094 16.570312 C 29.335938 17.226562 28.808594 17.664062 27.917969 18.105469 L 26.9375 18.59375 L 26.9375 18.238281 C 26.9375 18.039062 26.878906 17.878906 26.8125 17.878906 C 26.742188 17.878906 26.6875 17.992188 26.6875 18.128906 C 26.6875 18.640625 26.175781 19.371094 25.378906 19.992188 C 24.457031 20.714844 24.257812 21.023438 24.128906 21.960938 L 24 22.144531 L 23.871094 21.960938 C 23.742188 21.027344 23.546875 20.714844 22.625 19.992188 C 21.828125 19.371094 21.3125 18.640625 21.3125 18.132812 C 21.3125 17.996094 21.257812 17.878906 21.1875 17.878906 C 21.121094 17.878906 21.066406 18.042969 21.066406 18.238281 L 21.066406 18.597656 L 20.082031 18.109375 C 19.191406 17.667969 18.664062 17.226562 18.253906 16.574219 C 18.121094 16.363281 18.105469 16.386719 18.101562 16.769531 C 18.09375 17.308594 18.679688 18.355469 19.234375 18.792969 L 19.640625 19.117188 L 19.238281 18.980469 C 19.015625 18.90625 18.835938 18.792969 18.835938 18.730469 C 18.835938 18.671875 18.773438 18.621094 18.699219 18.621094 C 18.457031 18.621094 18.707031 19.265625 19.152344 19.808594 C 19.496094 20.226562 19.53125 20.3125 19.328125 20.257812 C 19.195312 20.222656 19.085938 20.25 19.085938 20.3125 C 19.085938 20.4375 19.59375 20.929688 20.074219 21.265625 L 20.382812 21.484375 L 20.03125 21.40625 C 19.558594 21.296875 19.644531 21.550781 20.207031 21.929688 L 20.632812 22.21875 L 20.257812 22.132812 C 19.890625 22.050781 19.457031 21.65625 18.800781 20.796875 C 18.386719 20.261719 17.417969 19.679688 16.480469 19.40625 C 14.910156 18.945312 13.195312 17.742188 12.742188 16.78125 C 12.582031 16.441406 12.417969 16.160156 12.375 16.15625 C 12.207031 16.148438 12.171875 16.851562 12.324219 17.210938 C 12.644531 17.976562 14.269531 19.378906 15.609375 20.050781 C 16.277344 20.382812 16.324219 20.59375 15.726562 20.59375 C 15.246094 20.59375 15.265625 20.777344 15.769531 20.960938 C 16.527344 21.234375 16.792969 21.40625 16.824219 21.648438 C 16.914062 22.355469 16.34375 22.402344 14.746094 21.828125 C 13.628906 21.429688 13.609375 21.414062 13.921875 21.25 C 14.355469 21.023438 14.472656 20.539062 14.171875 20.203125 C 14.042969 20.0625 13.542969 19.65625 13.0625 19.300781 C 12.324219 18.753906 12.128906 18.527344 11.800781 17.839844 L 11.410156 17.03125 L 10.554688 16.777344 C 9.53125 16.472656 9.460938 16.46875 9.371094 16.707031 C 9.265625 16.976562 9.003906 16.933594 8.691406 16.605469 C 8.402344 16.300781 8.441406 16.125 8.777344 16.238281 C 8.890625 16.277344 8.746094 16.074219 8.460938 15.789062 C 8.171875 15.503906 7.902344 15.160156 7.859375 15.027344 C 7.816406 14.890625 7.71875 14.804688 7.640625 14.832031 Z M 10.066406 17.585938 C 10.132812 17.574219 10.28125 17.609375 10.5 17.699219 C 10.726562 17.796875 11 18.046875 11.121094 18.273438 C 11.238281 18.492188 11.511719 18.859375 11.726562 19.082031 C 11.941406 19.304688 12.078125 19.484375 12.035156 19.480469 C 11.839844 19.46875 11.179688 19.054688 10.839844 18.734375 C 10.636719 18.542969 10.328125 18.332031 10.15625 18.265625 C 9.941406 18.179688 9.914062 18.136719 10.0625 18.132812 C 10.316406 18.125 10.34375 17.992188 10.136719 17.785156 C 10.019531 17.667969 10 17.601562 10.066406 17.585938 Z M 37.933594 17.585938 C 38 17.601562 37.980469 17.667969 37.863281 17.785156 C 37.65625 17.992188 37.683594 18.125 37.9375 18.136719 C 38.085938 18.140625 38.058594 18.183594 37.84375 18.265625 C 37.671875 18.335938 37.363281 18.542969 37.160156 18.734375 C 36.820312 19.054688 36.160156 19.46875 35.964844 19.480469 C 35.921875 19.484375 36.058594 19.304688 36.273438 19.082031 C 36.488281 18.859375 36.761719 18.492188 36.878906 18.273438 C 36.996094 18.046875 37.269531 17.796875 37.496094 17.699219 C 37.71875 17.609375 37.867188 17.574219 37.933594 17.585938 Z M 23.789062 17.699219 C 23.859375 17.65625 23.882812 17.703125 23.839844 17.8125 C 23.757812 18.027344 23.667969 18.066406 23.667969 17.890625 C 23.667969 17.824219 23.722656 17.738281 23.789062 17.699219 Z M 24.144531 17.699219 C 24.152344 17.675781 24.175781 17.675781 24.210938 17.699219 C 24.277344 17.738281 24.332031 17.824219 24.332031 17.890625 C 24.332031 18.066406 24.242188 18.027344 24.160156 17.8125 C 24.140625 17.757812 24.132812 17.71875 24.144531 17.699219 Z M 24.144531 17.699219 "/>
</g>
</svg>
