<?xml version="1.0" encoding="UTF-8"?>
<svg xmlns="http://www.w3.org/2000/svg" xmlns:xlink="http://www.w3.org/1999/xlink" width="48pt" height="48pt" viewBox="0 0 48 48" version="1.1">
<g id="surface1">
<path style=" stroke:none;fill-rule:evenodd;fill:rgb(11.764706%,52.941176%,89.411765%);fill-opacity:1;" d="M 11.210938 2.847656 L 36.789062 2.847656 C 41.410156 2.847656 45.152344 6.589844 45.152344 11.210938 L 45.152344 36.789062 C 45.152344 41.410156 41.410156 45.152344 36.789062 45.152344 L 11.210938 45.152344 C 6.589844 45.152344 2.847656 41.410156 2.847656 36.789062 L 2.847656 11.210938 C 2.847656 6.589844 6.589844 2.847656 11.210938 2.847656 Z M 11.210938 2.847656 "/>
<path style="fill:none;stroke-width:2;stroke-linecap:square;stroke-linejoin:miter;stroke:rgb(100%,100%,100%);stroke-opacity:1;stroke-miterlimit:4;" d="M 13 18 C 13 13.580729 16.580729 10 21 10 " transform="matrix(1.5,0,0,1.5,0.75,-0.75)"/>
<path style="fill:none;stroke-width:2;stroke-linecap:square;stroke-linejoin:miter;stroke:rgb(100%,100%,100%);stroke-opacity:1;stroke-miterlimit:4;" d="M 17 18 C 17 15.791667 18.791667 14 21 14 " transform="matrix(1.5,0,0,1.5,0.75,-0.75)"/>
<path style="fill:none;stroke-width:2;stroke-linecap:square;stroke-linejoin:miter;stroke:rgb(100%,100%,100%);stroke-opacity:1;stroke-miterlimit:4;" d="M 9 18 C 9 11.372396 14.372396 6 21 6 " transform="matrix(1.5,0,0,1.5,0.75,-0.75)"/>
<path style=" stroke:none;fill-rule:nonzero;fill:rgb(100%,100%,100%);fill-opacity:1;" d="M 30.75 32.25 L 35.25 32.25 L 35.25 41.25 L 30.75 41.25 Z M 30.75 32.25 "/>
<path style=" stroke:none;fill-rule:nonzero;fill:rgb(100%,100%,100%);fill-opacity:1;" d="M 35.25 27 C 35.25 28.242188 34.242188 29.25 33 29.25 C 31.757812 29.25 30.75 28.242188 30.75 27 C 30.75 25.757812 31.757812 24.75 33 24.75 C 34.242188 24.75 35.25 25.757812 35.25 27 Z M 35.25 27 "/>
</g>
</svg>
