<?xml version="1.0" encoding="UTF-8"?>
<svg xmlns="http://www.w3.org/2000/svg" xmlns:xlink="http://www.w3.org/1999/xlink" width="48pt" height="48pt" viewBox="0 0 48 48" version="1.1">
<g id="surface1">
<path style=" stroke:none;fill-rule:evenodd;fill:rgb(87.058824%,65.490196%,11.764706%);fill-opacity:1;" d="M 11.210938 2.847656 L 36.789062 2.847656 C 41.410156 2.847656 45.152344 6.589844 45.152344 11.210938 L 45.152344 36.789062 C 45.152344 41.410156 41.410156 45.152344 36.789062 45.152344 L 11.210938 45.152344 C 6.589844 45.152344 2.847656 41.410156 2.847656 36.789062 L 2.847656 11.210938 C 2.847656 6.589844 6.589844 2.847656 11.210938 2.847656 Z M 11.210938 2.847656 "/>
<path style=" stroke:none;fill-rule:nonzero;fill:rgb(100%,100%,100%);fill-opacity:1;" d="M 27.574219 39.078125 C 27.574219 39.066406 27.75 38.601562 27.964844 38.035156 L 28.355469 37.015625 L 28.289062 36.878906 C 28.253906 36.804688 27.898438 36.148438 27.496094 35.425781 C 26.691406 33.96875 25.140625 31.15625 23.941406 28.96875 C 23.511719 28.191406 23.148438 27.527344 23.136719 27.496094 C 23.121094 27.457031 23.175781 27.40625 23.304688 27.335938 C 23.539062 27.207031 23.632812 27.105469 23.632812 26.980469 C 23.632812 26.925781 23.492188 26.628906 23.320312 26.324219 L 23.011719 25.761719 L 23.238281 25.453125 C 24.664062 23.511719 24.890625 20.867188 23.816406 18.695312 C 22.820312 16.679688 20.929688 15.347656 18.664062 15.066406 C 17.523438 14.925781 16.09375 15.160156 15.109375 15.660156 L 14.867188 15.78125 L 15 16.085938 C 15.261719 16.6875 15.5 16.992188 16.042969 17.40625 C 16.3125 17.609375 16.328125 17.617188 16.457031 17.578125 C 16.53125 17.554688 16.765625 17.535156 16.976562 17.535156 C 17.644531 17.535156 18.203125 17.777344 18.675781 18.277344 C 19.390625 19.035156 19.515625 20.15625 18.988281 21.066406 C 18.714844 21.53125 18.09375 21.992188 17.539062 22.136719 C 17.191406 22.226562 16.53125 22.195312 16.195312 22.078125 C 15.710938 21.90625 15.210938 21.5 14.980469 21.089844 C 14.871094 20.894531 14.847656 20.878906 14.566406 20.78125 C 13.675781 20.46875 12.890625 19.769531 12.308594 18.769531 L 12.132812 18.46875 L 11.988281 18.773438 C 11.515625 19.757812 11.277344 21.074219 11.375 22.128906 C 11.648438 25.050781 13.652344 27.347656 16.492188 28 C 17.03125 28.125 17.542969 28.171875 18.15625 28.152344 L 18.730469 28.132812 L 19.046875 28.703125 C 19.21875 29.019531 19.390625 29.285156 19.421875 29.300781 C 19.539062 29.34375 19.675781 29.320312 19.863281 29.226562 C 19.96875 29.171875 20.070312 29.128906 20.089844 29.128906 C 20.125 29.128906 20.203125 29.269531 21 30.71875 C 21.296875 31.261719 21.558594 31.714844 21.582031 31.730469 C 21.601562 31.746094 21.851562 31.769531 22.136719 31.785156 C 22.417969 31.796875 22.675781 31.832031 22.707031 31.855469 C 22.738281 31.878906 22.851562 32.066406 22.957031 32.269531 L 23.15625 32.636719 L 22.839844 33.054688 L 22.523438 33.476562 L 22.703125 33.8125 L 22.882812 34.144531 L 23.085938 34.171875 C 23.199219 34.183594 23.464844 34.207031 23.671875 34.222656 L 24.046875 34.25 L 24.265625 34.636719 C 24.386719 34.851562 24.472656 35.046875 24.460938 35.082031 C 24.445312 35.113281 24.304688 35.308594 24.148438 35.515625 L 23.855469 35.890625 L 23.980469 36.132812 L 24.105469 36.371094 L 24.667969 36.472656 C 24.976562 36.53125 25.253906 36.589844 25.277344 36.601562 C 25.3125 36.621094 25.246094 36.761719 25.054688 37.074219 C 24.90625 37.316406 24.785156 37.53125 24.785156 37.550781 C 24.785156 37.570312 24.917969 37.824219 25.078125 38.117188 L 25.371094 38.648438 L 26.386719 38.851562 C 26.945312 38.960938 27.441406 39.0625 27.488281 39.074219 C 27.535156 39.085938 27.574219 39.085938 27.574219 39.078125 Z M 36.640625 32.761719 L 36.632812 31.703125 L 34.804688 29.726562 C 33.800781 28.636719 32.257812 26.964844 31.371094 26.007812 C 28.972656 23.410156 28.523438 22.925781 28.511719 22.890625 C 28.503906 22.871094 28.570312 22.789062 28.660156 22.710938 C 28.976562 22.425781 29 22.253906 28.765625 21.992188 C 28.675781 21.894531 28.5 21.699219 28.378906 21.5625 L 28.152344 21.308594 L 28.675781 19.902344 C 28.960938 19.125 29.285156 18.25 29.394531 17.949219 C 29.574219 17.464844 29.59375 17.382812 29.578125 17.175781 C 29.550781 16.789062 29.464844 16.675781 28.746094 16.058594 C 26.359375 14 24.667969 12.566406 24.53125 12.496094 C 24.316406 12.378906 23.859375 12.375 23.640625 12.496094 C 23.511719 12.566406 22.019531 13.90625 21.457031 14.460938 L 21.289062 14.628906 L 21.652344 14.832031 C 23.269531 15.742188 24.464844 17.109375 25.128906 18.8125 C 25.457031 19.660156 25.597656 20.378906 25.625 21.359375 C 25.664062 22.734375 25.410156 23.886719 24.816406 25.074219 L 24.625 25.457031 L 24.8125 25.648438 C 24.984375 25.824219 25.011719 25.839844 25.144531 25.820312 C 25.246094 25.808594 25.355469 25.746094 25.507812 25.617188 L 25.726562 25.433594 L 25.886719 25.609375 C 26.066406 25.816406 28.007812 27.921875 28.410156 28.347656 L 28.679688 28.636719 L 29.042969 28.300781 C 29.242188 28.117188 29.441406 27.964844 29.480469 27.964844 C 29.5625 27.964844 30.132812 28.542969 30.183594 28.675781 C 30.210938 28.746094 30.15625 28.8125 29.835938 29.121094 L 29.460938 29.480469 L 29.59375 29.625 C 29.667969 29.703125 29.839844 29.890625 29.976562 30.039062 C 30.113281 30.1875 30.328125 30.417969 30.453125 30.554688 L 30.683594 30.796875 L 31.027344 30.464844 C 31.261719 30.242188 31.40625 30.136719 31.46875 30.136719 C 31.574219 30.136719 32.183594 30.761719 32.183594 30.871094 C 32.183594 30.933594 31.835938 31.300781 31.550781 31.539062 L 31.4375 31.636719 L 31.742188 31.953125 L 32.050781 32.269531 L 32.398438 31.941406 C 32.726562 31.632812 32.839844 31.566406 32.945312 31.636719 C 33.074219 31.726562 33.542969 32.292969 33.542969 32.359375 C 33.542969 32.414062 33.417969 32.558594 33.183594 32.773438 L 32.828125 33.109375 L 32.9375 33.238281 C 32.996094 33.3125 33.125 33.453125 33.21875 33.554688 L 33.386719 33.738281 L 34.695312 33.777344 C 35.414062 33.796875 36.148438 33.816406 36.324219 33.816406 L 36.644531 33.816406 Z M 18.058594 20.710938 C 18.265625 20.359375 18.359375 19.863281 18.285156 19.480469 L 18.253906 19.304688 L 17.90625 19.28125 C 16.761719 19.199219 15.804688 18.765625 15.015625 17.96875 C 14.203125 17.144531 13.773438 16.09375 13.769531 14.910156 C 13.765625 13.789062 14.125 12.820312 14.855469 12 C 15.480469 11.289062 16.191406 10.855469 17.132812 10.613281 C 17.472656 10.527344 17.597656 10.515625 18.140625 10.515625 C 19.128906 10.519531 19.847656 10.734375 20.644531 11.269531 C 20.964844 11.484375 21.589844 12.109375 21.796875 12.429688 C 21.890625 12.566406 21.976562 12.679688 21.996094 12.679688 C 22.042969 12.679688 23.136719 11.691406 23.148438 11.636719 C 23.164062 11.574219 22.757812 11.050781 22.425781 10.710938 C 20.597656 8.835938 17.738281 8.378906 15.410156 9.585938 C 14.261719 10.179688 13.285156 11.191406 12.75 12.332031 C 11.621094 14.753906 12.195312 17.585938 14.175781 19.355469 C 15.128906 20.207031 16.378906 20.746094 17.660156 20.855469 L 17.957031 20.882812 Z M 18.058594 20.710938 "/>
</g>
</svg>
