<?xml version="1.0" encoding="UTF-8"?>
<svg xmlns="http://www.w3.org/2000/svg" xmlns:xlink="http://www.w3.org/1999/xlink" width="48pt" height="48pt" viewBox="0 0 48 48" version="1.1">
<defs>
<clipPath id="clip1">
  <rect width="48" height="48"/>
</clipPath>
<g id="surface6" clip-path="url(#clip1)">
<path style=" stroke:none;fill-rule:evenodd;fill:rgb(100%,100%,100%);fill-opacity:1;" d="M 33.90625 8.96875 C 37.199219 8.96875 39.871094 11.640625 39.871094 14.933594 C 39.871094 18.226562 37.199219 20.898438 33.90625 20.898438 C 30.613281 20.898438 27.941406 18.226562 27.941406 14.933594 C 27.941406 11.640625 30.613281 8.96875 33.90625 8.96875 Z M 33.90625 8.96875 "/>
</g>
</defs>
<g id="surface1">
<path style=" stroke:none;fill-rule:evenodd;fill:rgb(59.607843%,76.470588%,1.960784%);fill-opacity:1;" d="M 11.210938 2.847656 L 36.789062 2.847656 C 41.410156 2.847656 45.152344 6.589844 45.152344 11.210938 L 45.152344 36.789062 C 45.152344 41.410156 41.410156 45.152344 36.789062 45.152344 L 11.210938 45.152344 C 6.589844 45.152344 2.847656 41.410156 2.847656 36.789062 L 2.847656 11.210938 C 2.847656 6.589844 6.589844 2.847656 11.210938 2.847656 Z M 11.210938 2.847656 "/>
<path style=" stroke:none;fill-rule:evenodd;fill:rgb(59.607843%,76.470588%,1.960784%);fill-opacity:1;" d="M 13.113281 26.246094 C 11.472656 26.085938 9.59375 26.105469 7.3125 26.375 C 6.070312 26.523438 4.351562 26.96875 2.847656 27.277344 L 2.847656 34.140625 C 4.09375 34.609375 5.550781 34.949219 7.320312 35.109375 C 11.222656 35.464844 16.210938 35.199219 21.457031 34.855469 C 26.707031 34.511719 32.214844 34.089844 37.15625 34.136719 C 39.628906 34.160156 41.957031 34.300781 44.042969 34.628906 C 44.46875 34.695312 44.75 34.875 45.152344 34.957031 L 45.152344 32.421875 C 43.269531 32.492188 41.070312 32.683594 39.480469 32.648438 C 36.28125 32.578125 33.632812 32.3125 31.382812 31.925781 C 29.128906 31.535156 27.269531 31.027344 25.648438 30.472656 C 24.023438 29.917969 22.636719 29.316406 21.328125 28.742188 C 20.015625 28.171875 18.78125 27.625 17.464844 27.183594 C 16.148438 26.742188 14.75 26.40625 13.113281 26.246094 Z M 13.113281 26.246094 "/>
<path style=" stroke:none;fill-rule:evenodd;fill:rgb(24.313725%,36.470588%,61.960784%);fill-opacity:1;" d="M 11.210938 2.847656 C 6.578125 2.847656 2.847656 6.574219 2.847656 11.210938 L 2.847656 27.277344 C 4.351562 26.96875 6.070312 26.523438 7.3125 26.375 C 9.59375 26.105469 11.472656 26.085938 13.113281 26.246094 C 14.75 26.40625 16.148438 26.742188 17.464844 27.183594 C 18.78125 27.625 20.015625 28.171875 21.328125 28.742188 C 22.636719 29.316406 24.023438 29.917969 25.648438 30.472656 C 27.269531 31.027344 29.128906 31.535156 31.382812 31.925781 C 33.632812 32.3125 36.28125 32.578125 39.480469 32.648438 C 41.070312 32.683594 43.269531 32.492188 45.152344 32.421875 L 45.152344 11.210938 C 45.152344 6.574219 41.421875 2.847656 36.789062 2.847656 Z M 11.210938 2.847656 "/>
<use xlink:href="#surface6"/>
<path style=" stroke:none;fill-rule:evenodd;fill:rgb(67.843137%,85.882353%,11.764706%);fill-opacity:1;" d="M 45.152344 34.957031 C 27.277344 25.054688 21.152344 35.816406 7.320312 35.109375 C 5.550781 34.949219 4.09375 34.609375 2.847656 34.140625 L 2.847656 36.792969 C 2.847656 41.425781 6.578125 45.152344 11.210938 45.152344 L 36.789062 45.152344 C 41.421875 45.152344 45.152344 41.425781 45.152344 36.792969 Z M 45.152344 34.957031 "/>
</g>
</svg>
