<?xml version="1.0" encoding="UTF-8"?>
<svg xmlns="http://www.w3.org/2000/svg" xmlns:xlink="http://www.w3.org/1999/xlink" width="48pt" height="48pt" viewBox="0 0 48 48" version="1.1">
<g id="surface1">
<path style=" stroke:none;fill-rule:evenodd;fill:rgb(90.196078%,90.196078%,90.196078%);fill-opacity:1;" d="M 11.210938 2.847656 L 36.789062 2.847656 C 41.410156 2.847656 45.152344 6.589844 45.152344 11.210938 L 45.152344 36.789062 C 45.152344 41.410156 41.410156 45.152344 36.789062 45.152344 L 11.210938 45.152344 C 6.589844 45.152344 2.847656 41.410156 2.847656 36.789062 L 2.847656 11.210938 C 2.847656 6.589844 6.589844 2.847656 11.210938 2.847656 Z M 11.210938 2.847656 "/>
<path style=" stroke:none;fill-rule:nonzero;fill:rgb(19.607843%,40%,96.862745%);fill-opacity:1;" d="M 15.597656 38.800781 C 13.957031 38.554688 12.675781 37.914062 11.539062 36.773438 C 10.585938 35.820312 9.925781 34.65625 9.648438 33.441406 C 9.375 32.261719 9.378906 31.339844 9.652344 30.144531 C 9.898438 29.085938 10.449219 28.046875 11.230469 27.164062 C 11.601562 26.75 15.765625 22.589844 15.832031 22.566406 C 15.863281 22.554688 15.878906 22.734375 15.882812 23.035156 C 15.882812 23.886719 16.050781 24.804688 16.382812 25.816406 L 16.550781 26.328125 L 14.992188 27.890625 C 13.4375 29.445312 13.269531 29.636719 13.015625 30.128906 C 12.753906 30.632812 12.628906 31.191406 12.632812 31.851562 C 12.636719 34.066406 14.691406 35.90625 16.890625 35.664062 C 17.554688 35.59375 18.105469 35.390625 18.652344 35.015625 C 19.046875 34.746094 25.671875 28.097656 25.921875 27.71875 C 26.867188 26.289062 26.691406 24.332031 25.507812 23.070312 C 25.273438 22.820312 24.734375 22.371094 24.667969 22.371094 C 24.535156 22.371094 24.726562 22.148438 25.75 21.128906 L 26.875 20.003906 L 27.15625 20.246094 C 27.484375 20.535156 28.167969 21.246094 28.28125 21.425781 C 28.324219 21.492188 28.386719 21.574219 28.421875 21.609375 C 28.511719 21.707031 28.945312 22.457031 29.078125 22.746094 C 29.488281 23.660156 29.699219 24.640625 29.699219 25.660156 C 29.699219 27.21875 29.253906 28.558594 28.296875 29.867188 C 28.183594 30.023438 26.480469 31.757812 24.511719 33.726562 C 21.941406 36.292969 20.828125 37.375 20.554688 37.566406 C 19.109375 38.585938 17.246094 39.046875 15.597656 38.800781 Z M 15.597656 38.800781 "/>
<path style=" stroke:none;fill-rule:nonzero;fill:rgb(16.078431%,65.490196%,20.392157%);fill-opacity:1;" d="M 32.402344 9.199219 C 34.042969 9.445312 35.324219 10.085938 36.460938 11.226562 C 37.414062 12.179688 38.074219 13.34375 38.351562 14.558594 C 38.625 15.738281 38.621094 16.660156 38.347656 17.855469 C 38.101562 18.914062 37.550781 19.953125 36.769531 20.835938 C 36.398438 21.25 32.234375 25.410156 32.167969 25.433594 C 32.136719 25.445312 32.121094 25.265625 32.117188 24.964844 C 32.117188 24.113281 31.949219 23.195312 31.617188 22.183594 L 31.449219 21.671875 L 33.007812 20.109375 C 34.5625 18.554688 34.730469 18.363281 34.984375 17.871094 C 35.246094 17.367188 35.371094 16.808594 35.367188 16.148438 C 35.363281 13.933594 33.308594 12.09375 31.109375 12.335938 C 30.445312 12.40625 29.894531 12.609375 29.347656 12.984375 C 28.953125 13.253906 22.328125 19.902344 22.078125 20.28125 C 21.132812 21.710938 21.308594 23.667969 22.492188 24.929688 C 22.726562 25.179688 23.265625 25.628906 23.332031 25.628906 C 23.464844 25.628906 23.273438 25.851562 22.25 26.871094 L 21.125 27.996094 L 20.84375 27.753906 C 20.515625 27.464844 19.832031 26.753906 19.71875 26.574219 C 19.675781 26.507812 19.613281 26.425781 19.578125 26.390625 C 19.488281 26.292969 19.054688 25.542969 18.921875 25.253906 C 18.511719 24.339844 18.300781 23.359375 18.300781 22.339844 C 18.300781 20.78125 18.746094 19.441406 19.703125 18.132812 C 19.816406 17.976562 21.519531 16.242188 23.488281 14.273438 C 26.058594 11.707031 27.171875 10.625 27.445312 10.433594 C 28.890625 9.414062 30.753906 8.953125 32.402344 9.199219 Z M 32.402344 9.199219 "/>
</g>
</svg>
