<?xml version="1.0" encoding="UTF-8"?>
<svg xmlns="http://www.w3.org/2000/svg" xmlns:xlink="http://www.w3.org/1999/xlink" width="48pt" height="48pt" viewBox="0 0 48 48" version="1.1">
<g id="surface1">
<path style=" stroke:none;fill-rule:evenodd;fill:rgb(82.352941%,63.921569%,36.078431%);fill-opacity:1;" d="M 11.210938 2.847656 L 36.789062 2.847656 C 41.410156 2.847656 45.152344 6.589844 45.152344 11.210938 L 45.152344 36.789062 C 45.152344 41.410156 41.410156 45.152344 36.789062 45.152344 L 11.210938 45.152344 C 6.589844 45.152344 2.847656 41.410156 2.847656 36.789062 L 2.847656 11.210938 C 2.847656 6.589844 6.589844 2.847656 11.210938 2.847656 Z M 11.210938 2.847656 "/>
<path style=" stroke:none;fill-rule:nonzero;fill:rgb(100%,100%,100%);fill-opacity:1;" d="M 34.894531 7.125 C 33.632812 7.125 32.425781 7.457031 31.269531 8.121094 C 30.136719 8.761719 29.066406 9.695312 28.058594 10.921875 C 27.074219 12.125 26.183594 13.609375 25.378906 15.375 C 24.570312 17.113281 23.882812 19.082031 23.300781 21.28125 C 22.898438 22.84375 22.496094 24.160156 22.09375 25.234375 C 21.691406 26.308594 21.277344 27.203125 20.847656 27.917969 C 19.917969 27.558594 18.996094 26.480469 18.089844 26.25 C 17.210938 25.996094 16.304688 25.867188 15.371094 25.867188 C 14.640625 25.867188 13.976562 25.984375 13.371094 26.214844 C 12.792969 26.445312 12.289062 26.722656 11.863281 27.058594 C 11.433594 27.390625 11.09375 27.746094 10.84375 28.128906 C 10.617188 28.515625 10.5 29.664062 10.5 29.996094 C 10.5 30.53125 10.753906 30.980469 11.257812 31.335938 C 11.757812 31.695312 12.515625 31.875 13.523438 31.875 C 16.191406 31.875 18.445312 31.171875 20.28125 29.765625 C 21.441406 30.277344 22.621094 30.761719 23.832031 31.21875 C 25.0625 31.65625 26.421875 31.875 27.910156 31.875 C 29.59375 31.875 30.941406 31.515625 31.949219 30.800781 C 32.957031 30.058594 33.53125 29.113281 34.136719 27.730469 C 34.160156 27.578125 34.128906 27.472656 34.027344 27.421875 C 33.953125 27.347656 33.863281 27.347656 33.761719 27.421875 C 33.332031 28.292969 33.019531 28.84375 32.363281 29.304688 C 31.710938 29.765625 30.75 29.996094 29.492188 29.996094 C 27.984375 29.996094 26.601562 29.828125 25.339844 29.496094 C 24.109375 29.136719 22.921875 28.738281 21.789062 28.304688 C 23.351562 26.4375 24.574219 23.789062 25.457031 20.363281 C 25.984375 18.214844 26.5 16.425781 27.003906 14.992188 C 27.507812 13.558594 28.046875 12.425781 28.625 11.578125 C 29.203125 10.710938 29.835938 10.21875 30.515625 9.886719 C 31.21875 9.527344 32.050781 9.351562 33.003906 9.351562 C 33.710938 9.351562 34.289062 9.480469 34.738281 9.738281 C 35.21875 9.96875 35.570312 10.273438 35.796875 10.65625 C 36.023438 11.039062 36.152344 11.351562 36.179688 11.8125 C 36.203125 12.273438 36.140625 13.179688 35.988281 13.640625 C 35.964844 13.769531 36 13.859375 36.097656 13.910156 C 36.226562 13.960938 36.339844 13.949219 36.441406 13.871094 C 36.695312 13.4375 36.929688 12.4375 37.15625 11.769531 C 37.382812 11.078125 37.5 10.472656 37.5 9.960938 C 37.5 9.167969 37.257812 8.507812 36.777344 7.96875 C 36.300781 7.40625 35.671875 7.125 34.894531 7.125 Z M 13.710938 27.136719 C 14.792969 27.136719 15.8125 27.285156 16.769531 27.59375 C 17.726562 27.898438 18.671875 29.050781 19.601562 29.460938 C 19.023438 30.023438 18.367188 30.402344 17.636719 30.609375 C 16.933594 30.785156 16.128906 30.878906 15.222656 30.878906 C 14.191406 30.878906 13.382812 30.710938 12.804688 30.378906 C 12.25 30.046875 11.972656 28.835938 11.972656 28.324219 C 11.972656 27.53125 12.554688 27.136719 13.710938 27.136719 Z M 17.25 33.375 C 16.007812 33.375 15 34.378906 15 35.625 C 15 36.867188 16.007812 37.875 17.25 37.875 C 18.492188 37.875 19.5 36.867188 19.5 35.625 C 19.5 34.378906 18.492188 33.375 17.25 33.375 Z M 29.25 33.375 C 28.007812 33.375 27 34.378906 27 35.625 C 27 36.867188 28.007812 37.875 29.25 37.875 C 30.492188 37.875 31.5 36.867188 31.5 35.625 C 31.5 34.378906 30.492188 33.375 29.25 33.375 Z M 23.25 36.375 C 22.007812 36.375 21 37.382812 21 38.625 C 21 39.867188 22.007812 40.875 23.25 40.875 C 24.492188 40.875 25.5 39.867188 25.5 38.625 C 25.5 37.382812 24.492188 36.375 23.25 36.375 Z M 23.25 36.375 "/>
</g>
</svg>
