<?xml version="1.0" encoding="UTF-8"?>
<svg xmlns="http://www.w3.org/2000/svg" xmlns:xlink="http://www.w3.org/1999/xlink" width="48pt" height="48pt" viewBox="0 0 48 48" version="1.1">
<g id="surface1">
<path style=" stroke:none;fill-rule:evenodd;fill:rgb(89.411765%,59.607843%,8.235294%);fill-opacity:1;" d="M 45.152344 19.503906 C 44.84375 19.347656 44.578125 19.121094 44.207031 19.121094 L 3.792969 19.121094 C 3.421875 19.121094 3.15625 19.347656 2.847656 19.503906 L 2.847656 36.789062 C 2.847656 41.421875 6.574219 45.152344 11.207031 45.152344 L 36.789062 45.152344 C 41.425781 45.152344 45.152344 41.421875 45.152344 36.789062 Z M 45.152344 19.503906 "/>
<path style=" stroke:none;fill-rule:evenodd;fill:rgb(94.901961%,71.764706%,25.098039%);fill-opacity:1;" d="M 41.402344 19.121094 C 41.460938 18.929688 41.640625 18.792969 41.640625 18.585938 L 41.640625 16.445312 C 41.640625 15.855469 41.382812 15.320312 40.96875 14.933594 C 40.554688 14.546875 39.984375 14.308594 39.347656 14.308594 L 27.894531 14.308594 C 27.257812 14.3125 26.6875 14.546875 26.273438 14.933594 C 25.859375 15.320312 25.601562 15.855469 25.601562 16.445312 L 25.601562 18.585938 C 25.601562 18.792969 25.78125 18.929688 25.839844 19.121094 Z M 41.402344 19.121094 "/>
<path style=" stroke:none;fill-rule:evenodd;fill:rgb(94.901961%,71.764706%,25.098039%);fill-opacity:1;" d="M 22.160156 19.121094 C 22.21875 18.929688 22.398438 18.792969 22.398438 18.585938 L 22.398438 16.445312 C 22.398438 15.855469 22.140625 15.320312 21.726562 14.933594 C 21.3125 14.546875 20.738281 14.308594 20.101562 14.308594 L 8.652344 14.308594 C 8.015625 14.308594 7.445312 14.546875 7.03125 14.933594 C 6.617188 15.320312 6.359375 15.855469 6.359375 16.445312 L 6.359375 18.585938 C 6.359375 18.792969 6.539062 18.929688 6.597656 19.121094 Z M 22.160156 19.121094 "/>
<path style=" stroke:none;fill-rule:evenodd;fill:rgb(55.686275%,55.686275%,55.686275%);fill-opacity:1;" d="M 11.207031 2.847656 C 6.574219 2.847656 2.847656 6.578125 2.847656 11.210938 L 2.847656 19.503906 C 3.15625 19.347656 3.421875 19.121094 3.792969 19.121094 L 6.597656 19.121094 C 6.539062 18.929688 6.359375 18.792969 6.359375 18.585938 L 6.359375 16.445312 C 6.359375 15.855469 6.617188 15.320312 7.03125 14.933594 C 7.445312 14.546875 8.015625 14.308594 8.652344 14.308594 L 20.101562 14.308594 C 20.738281 14.308594 21.3125 14.546875 21.726562 14.933594 C 22.140625 15.320312 22.398438 15.855469 22.398438 16.445312 L 22.398438 18.585938 C 22.398438 18.792969 22.21875 18.929688 22.160156 19.121094 L 25.839844 19.121094 C 25.78125 18.929688 25.601562 18.792969 25.601562 18.585938 L 25.601562 16.445312 C 25.601562 15.855469 25.859375 15.320312 26.273438 14.933594 C 26.6875 14.546875 27.257812 14.3125 27.894531 14.308594 L 39.347656 14.308594 C 39.984375 14.308594 40.554688 14.546875 40.96875 14.933594 C 41.382812 15.320312 41.640625 15.855469 41.640625 16.445312 L 41.640625 18.585938 C 41.640625 18.792969 41.460938 18.929688 41.402344 19.121094 L 44.207031 19.121094 C 44.578125 19.121094 44.84375 19.347656 45.152344 19.503906 L 45.152344 11.210938 C 45.152344 6.578125 41.425781 2.847656 36.792969 2.847656 Z M 11.207031 2.847656 "/>
</g>
</svg>
