<?xml version="1.0" encoding="UTF-8"?>
<svg xmlns="http://www.w3.org/2000/svg" xmlns:xlink="http://www.w3.org/1999/xlink" width="48pt" height="48pt" viewBox="0 0 48 48" version="1.1">
<g id="surface1">
<path style=" stroke:none;fill-rule:evenodd;fill:rgb(100%,100%,100%);fill-opacity:1;" d="M 11.210938 2.847656 L 36.789062 2.847656 C 41.410156 2.847656 45.152344 6.589844 45.152344 11.210938 L 45.152344 36.789062 C 45.152344 41.410156 41.410156 45.152344 36.789062 45.152344 L 11.210938 45.152344 C 6.589844 45.152344 2.847656 41.410156 2.847656 36.789062 L 2.847656 11.210938 C 2.847656 6.589844 6.589844 2.847656 11.210938 2.847656 Z M 11.210938 2.847656 "/>
<path style=" stroke:none;fill-rule:evenodd;fill:rgb(30.980392%,30.980392%,30.980392%);fill-opacity:1;" d="M 42.707031 5.292969 L 5.292969 42.707031 C 6.800781 44.21875 8.890625 45.152344 11.207031 45.152344 L 36.792969 45.152344 C 41.425781 45.152344 45.152344 41.425781 45.152344 36.792969 L 45.152344 11.207031 C 45.152344 8.894531 44.21875 6.804688 42.707031 5.292969 Z M 42.707031 5.292969 "/>
<path style=" stroke:none;fill-rule:evenodd;fill:rgb(44.705882%,44.705882%,44.705882%);fill-opacity:1;" d="M 42.707031 5.292969 C 41.199219 3.78125 39.109375 2.847656 36.792969 2.847656 L 11.207031 2.847656 C 6.574219 2.847656 2.847656 6.574219 2.847656 11.207031 L 2.847656 36.792969 C 2.847656 39.109375 3.78125 41.199219 5.292969 42.707031 L 42.707031 5.292969 C 42.707031 5.292969 42.710938 5.292969 42.707031 5.292969 Z M 42.707031 5.292969 "/>
<path style=" stroke:none;fill-rule:nonzero;fill:rgb(94.901961%,94.901961%,94.901961%);fill-opacity:1;" d="M 12.347656 35.65625 L 22.542969 22.542969 L 23.925781 23.921875 L 25.457031 25.457031 Z M 12.347656 35.65625 "/>
<path style=" stroke:none;fill-rule:nonzero;fill:rgb(95.294118%,25.882353%,20.784314%);fill-opacity:1;" d="M 35.65625 12.34375 L 22.542969 22.542969 L 25.457031 25.457031 Z M 35.65625 12.34375 "/>
</g>
</svg>
