<?xml version="1.0" encoding="UTF-8"?>
<svg xmlns="http://www.w3.org/2000/svg" xmlns:xlink="http://www.w3.org/1999/xlink" width="48pt" height="48pt" viewBox="0 0 48 48" version="1.1">
<g id="surface1">
<path style=" stroke:none;fill-rule:evenodd;fill:rgb(76.078431%,24.705882%,17.254902%);fill-opacity:1;" d="M 11.300781 3 L 36.699219 3 C 41.28125 3 45 6.71875 45 11.300781 L 45 36.699219 C 45 41.28125 41.28125 45 36.699219 45 L 11.300781 45 C 6.71875 45 3 41.28125 3 36.699219 L 3 11.300781 C 3 6.71875 6.71875 3 11.300781 3 Z M 11.300781 3 "/>
<path style=" stroke:none;fill-rule:nonzero;fill:rgb(60.784314%,12.54902%,5.098039%);fill-opacity:1;" d="M 24 7.710938 C 32.992188 7.710938 40.289062 15.007812 40.289062 24 C 40.289062 32.992188 32.992188 40.289062 24 40.289062 C 15.007812 40.289062 7.710938 32.992188 7.710938 24 C 7.710938 15.007812 15.007812 7.710938 24 7.710938 Z M 24 7.710938 "/>
<path style=" stroke:none;fill-rule:nonzero;fill:rgb(89.803922%,45.490196%,32.156863%);fill-opacity:1;" d="M 24 7.710938 C 21.945312 7.710938 19.992188 8.105469 18.183594 8.792969 C 18.054688 8.914062 17.882812 9.007812 17.75 8.992188 C 17.726562 8.992188 17.707031 8.984375 17.691406 8.972656 C 16.800781 9.34375 15.953125 9.804688 15.152344 10.324219 C 15.253906 10.488281 15.285156 10.679688 15.074219 10.773438 C 15.039062 10.789062 14.582031 10.828125 14.429688 10.828125 C 12.148438 12.484375 10.324219 14.707031 9.152344 17.308594 C 9.167969 17.308594 9.183594 17.296875 9.207031 17.296875 C 9.382812 17.292969 9.640625 17.34375 9.808594 17.382812 C 9.964844 17.410156 10.09375 17.515625 10.230469 17.527344 C 10.617188 17.558594 10.710938 17.257812 11.019531 17.089844 C 11.347656 17.132812 11.5625 17.035156 11.859375 17.066406 C 12.058594 17.089844 12.203125 17.304688 12.359375 17.3125 C 12.488281 17.328125 12.609375 17.195312 12.730469 17.210938 C 12.855469 17.230469 13.066406 17.5 13.089844 17.648438 C 13.113281 17.835938 12.949219 18.007812 13.007812 18.214844 C 13.203125 18.414062 13.558594 18.457031 13.839844 18.570312 C 14.023438 18.421875 13.863281 18.140625 13.839844 17.917969 C 13.839844 17.824219 13.855469 17.738281 13.839844 17.648438 C 13.824219 17.5 13.757812 17.367188 13.757812 17.234375 C 13.757812 16.640625 14.238281 16.363281 14.636719 16.128906 C 14.804688 16.027344 14.941406 15.84375 15.089844 15.773438 C 15.300781 15.664062 15.460938 15.636719 15.636719 15.539062 C 15.953125 15.363281 16.222656 15.21875 16.472656 15.019531 C 16.585938 14.75 16.480469 14.386719 16.492188 14.125 C 16.605469 14.050781 16.703125 14.152344 16.828125 14.144531 C 17.019531 14.101562 17.035156 13.832031 17.144531 13.726562 C 17.207031 13.664062 17.375 13.621094 17.453125 13.558594 C 17.644531 13.410156 17.707031 13.1875 17.871094 13.121094 C 17.933594 13.097656 18.070312 13.105469 18.160156 13.078125 C 18.285156 13.046875 18.460938 12.898438 18.664062 12.832031 C 18.796875 12.785156 19.097656 12.773438 19.144531 12.726562 C 19.207031 12.660156 19.144531 12.484375 19.164062 12.390625 C 19.269531 11.921875 19.976562 11.820312 20.402344 11.660156 C 20.691406 11.546875 20.996094 11.347656 21.316406 11.410156 C 21.253906 11.628906 20.953125 11.554688 21.007812 11.828125 C 21.074219 12.203125 21.578125 11.71875 21.714844 11.660156 C 21.96875 11.554688 22.40625 11.484375 22.738281 11.367188 C 23.03125 11.257812 23.558594 11.097656 23.28125 10.761719 C 23.054688 10.746094 22.941406 11.03125 22.738281 11.117188 C 22.597656 11.140625 22.628906 11 22.511719 10.988281 C 22.398438 10.972656 22.335938 11.09375 22.214844 11.070312 C 22.101562 11.054688 21.941406 10.875 21.921875 10.742188 C 21.878906 10.390625 22.214844 10.25 22.359375 9.984375 C 22.269531 9.671875 21.832031 9.925781 21.570312 9.800781 C 21.589844 9.613281 21.785156 9.484375 22.003906 9.449219 C 22.183594 9.417969 22.589844 9.433594 22.695312 9.527344 C 22.757812 9.582031 22.703125 9.710938 22.800781 9.800781 C 22.910156 9.898438 23.039062 9.886719 23.179688 9.863281 C 23.222656 9.625 22.867188 9.6875 22.910156 9.527344 C 23.1875 9.34375 23.648438 9.496094 23.996094 9.441406 C 24.191406 9.414062 24.398438 9.273438 24.578125 9.175781 C 24.746094 9.082031 24.960938 8.914062 25.136719 9.070312 C 25.1875 9.242188 24.984375 9.296875 24.890625 9.382812 C 24.570312 9.664062 24.242188 9.992188 23.996094 10.324219 C 24.144531 10.472656 24.425781 10.394531 24.683594 10.425781 C 24.78125 10.441406 24.90625 10.472656 25.011719 10.488281 C 25.136719 10.507812 25.273438 10.503906 25.371094 10.527344 C 25.546875 10.574219 25.59375 10.761719 25.761719 10.761719 C 26.054688 10.761719 26.054688 10.453125 25.894531 10.261719 C 25.945312 10.058594 26.023438 9.960938 25.953125 9.820312 C 25.824219 9.5625 25.355469 9.804688 25.328125 9.484375 C 25.3125 9.277344 25.503906 9.289062 25.578125 9.132812 C 25.546875 8.730469 25.90625 8.699219 25.871094 8.339844 C 25.851562 8.1875 25.726562 8.1875 25.617188 8.046875 C 25.566406 7.976562 25.539062 7.84375 25.480469 7.785156 C 24.992188 7.742188 24.496094 7.710938 24 7.710938 Z M 15.597656 11 C 15.695312 11.015625 15.808594 11.117188 15.929688 11.125 C 16.042969 11.128906 16.132812 11.066406 16.203125 11.082031 C 16.378906 11.128906 16.449219 11.394531 16.285156 11.523438 C 16.148438 11.539062 16.09375 11.464844 15.996094 11.480469 C 15.710938 11.527344 15.601562 12.085938 15.390625 12.066406 C 15.1875 12.050781 15.078125 11.5625 15.28125 11.417969 C 15.296875 11.289062 15.195312 11.269531 15.199219 11.144531 C 15.253906 11.066406 15.429688 10.984375 15.597656 11 Z M 14.65625 11.0625 C 14.710938 11.066406 14.757812 11.082031 14.78125 11.101562 C 14.753906 11.324219 14.578125 11.316406 14.40625 11.417969 C 14.109375 11.59375 13.9375 11.867188 13.84375 12.25 C 13.816406 12.363281 13.523438 12.660156 13.382812 12.628906 C 13.050781 12.5625 13.472656 11.953125 13.550781 11.859375 C 13.632812 11.753906 13.746094 11.660156 13.84375 11.542969 C 13.9375 11.429688 14 11.273438 14.09375 11.210938 C 14.195312 11.140625 14.480469 11.054688 14.65625 11.0625 Z M 17.128906 11.816406 C 17.230469 11.816406 17.328125 11.832031 17.371094 11.878906 C 17.304688 12.152344 16.707031 12.082031 16.492188 11.980469 C 16.507812 11.878906 16.667969 11.847656 16.808594 11.832031 C 16.898438 11.832031 17.019531 11.8125 17.128906 11.816406 Z M 15.777344 12.324219 C 15.84375 12.324219 15.917969 12.339844 15.988281 12.359375 C 15.796875 12.519531 15.589844 12.609375 15.261719 12.710938 C 15.105469 12.761719 14.832031 12.824219 14.800781 12.648438 C 14.769531 12.433594 15.035156 12.484375 15.179688 12.464844 C 15.363281 12.4375 15.5625 12.328125 15.777344 12.324219 Z M 36.515625 13.558594 C 36.492188 13.621094 36.472656 13.679688 36.476562 13.734375 C 36.488281 13.839844 36.597656 13.933594 36.621094 14.070312 C 36.636719 14.144531 36.589844 14.300781 36.621094 14.367188 C 36.726562 14.558594 36.988281 14.417969 37.175781 14.429688 C 36.964844 14.132812 36.746094 13.839844 36.515625 13.558594 Z M 37.585938 14.996094 C 37.554688 15.140625 37.457031 15.328125 37.378906 15.445312 C 37.195312 15.726562 36.949219 15.742188 36.683594 15.886719 C 36.46875 16.011719 36.375 16.21875 36.246094 16.429688 C 36.109375 16.664062 36.023438 16.800781 36.078125 17.136719 C 35.894531 17.511719 35.609375 17.738281 35.226562 17.914062 C 35.109375 17.964844 34.953125 17.980469 34.847656 18.058594 C 34.765625 18.121094 34.71875 18.28125 34.601562 18.410156 C 34.449219 18.574219 34.300781 18.644531 34.222656 18.765625 C 34.160156 18.863281 34.140625 19.054688 34.074219 19.1875 C 33.984375 19.363281 33.800781 19.449219 33.679688 19.625 C 33.628906 19.707031 33.59375 19.875 33.53125 19.980469 C 33.402344 20.21875 33.171875 20.394531 33.199219 20.609375 C 33.21875 20.808594 33.453125 20.84375 33.46875 21.027344 C 33.472656 21.125 33.402344 21.1875 33.40625 21.296875 C 33.410156 21.457031 33.519531 21.570312 33.53125 21.695312 C 33.5625 22.003906 33.425781 22.128906 33.371094 22.339844 C 33.339844 22.4375 33.355469 22.550781 33.324219 22.628906 C 33.273438 22.789062 33.058594 22.929688 33.054688 23.109375 C 33.054688 23.238281 33.1875 23.347656 33.199219 23.53125 C 33.199219 23.652344 33.136719 23.789062 33.15625 23.90625 C 33.203125 24.132812 33.609375 24.398438 33.785156 24.574219 C 34.023438 24.8125 34.332031 24.992188 34.429688 25.242188 C 34.519531 25.453125 34.519531 25.726562 34.683594 25.886719 C 34.800781 26.007812 35.003906 26.078125 35.164062 26.203125 C 35.308594 26.316406 35.464844 26.414062 35.621094 26.535156 C 35.878906 26.734375 36.261719 27.128906 36.664062 27.097656 C 36.875 27.082031 37.09375 26.910156 37.332031 26.871094 C 37.578125 26.824219 37.898438 26.804688 38.148438 26.828125 C 38.339844 26.847656 38.535156 26.964844 38.734375 26.953125 C 38.945312 26.9375 39.183594 26.78125 39.421875 26.679688 C 39.613281 26.597656 39.847656 26.503906 40.109375 26.4375 C 40.222656 25.644531 40.289062 24.828125 40.289062 24 C 40.289062 20.664062 39.292969 17.570312 37.585938 14.996094 Z M 10.644531 20.46875 C 10.296875 20.488281 10.070312 20.503906 9.871094 20.59375 C 9.421875 20.800781 9.511719 21.410156 9.0625 21.554688 C 8.898438 21.605469 8.6875 21.605469 8.519531 21.640625 C 8.367188 21.667969 8.1875 21.75 8.03125 21.746094 C 7.988281 21.746094 7.933594 21.714844 7.875 21.695312 C 7.835938 21.984375 7.804688 22.273438 7.777344 22.5625 C 8.207031 22.644531 8.429688 23.214844 8.8125 23.398438 C 8.914062 23.453125 9.050781 23.457031 9.183594 23.488281 C 9.292969 23.507812 9.375 23.554688 9.480469 23.589844 C 9.695312 23.664062 9.96875 23.660156 10.148438 23.734375 C 10.410156 23.855469 10.605469 24.355469 10.835938 24.484375 C 10.851562 24.625 10.808594 24.808594 10.855469 24.90625 C 10.964844 25.050781 11.117188 25.019531 11.292969 25.117188 C 11.507812 25.230469 11.574219 25.527344 11.777344 25.617188 C 11.847656 25.648438 12.019531 25.644531 12.132812 25.675781 C 12.40625 25.761719 12.5 26.082031 12.738281 26.011719 C 12.890625 25.964844 12.875 25.804688 12.902344 25.660156 C 13.007812 25.546875 13.121094 25.371094 13.28125 25.363281 C 13.539062 25.355469 13.558594 25.632812 13.65625 25.886719 C 13.710938 26.027344 13.847656 26.152344 13.886719 26.300781 C 13.953125 26.566406 13.917969 27.339844 13.863281 27.496094 C 13.796875 27.6875 13.539062 27.765625 13.382812 27.976562 C 13.304688 28.074219 13.269531 28.21875 13.214844 28.292969 C 13.109375 28.417969 12.960938 28.445312 12.882812 28.5625 C 12.839844 28.628906 12.800781 28.769531 12.757812 28.851562 C 12.628906 29.121094 12.464844 29.304688 12.566406 29.625 C 12.613281 29.753906 12.820312 29.84375 12.820312 30 C 12.820312 30.179688 12.433594 30.34375 12.402344 30.542969 C 12.378906 30.691406 12.519531 30.957031 12.566406 31.152344 C 12.601562 31.296875 12.875 31.382812 12.964844 31.484375 C 13.109375 31.648438 13.226562 31.878906 13.363281 32.085938 C 13.625 32.496094 13.832031 32.992188 14.09375 33.386719 C 14.226562 33.59375 14.417969 33.777344 14.511719 33.992188 C 14.558594 34.097656 14.550781 34.230469 14.59375 34.328125 C 14.742188 34.664062 15.398438 35.015625 15.742188 35.179688 C 15.902344 35.257812 16.078125 35.285156 16.222656 35.367188 C 16.445312 35.492188 16.882812 35.820312 16.992188 36.011719 C 17.097656 36.1875 17.160156 36.613281 17.207031 36.890625 C 17.265625 37.257812 17.207031 37.539062 17.226562 37.9375 C 17.242188 38.152344 17.308594 38.367188 17.308594 38.582031 C 17.308594 38.65625 17.273438 38.710938 17.265625 38.789062 C 17.265625 38.804688 17.273438 38.816406 17.273438 38.832031 C 19.320312 39.757812 21.59375 40.289062 24 40.289062 C 24.433594 40.289062 24.863281 40.261719 25.289062 40.230469 C 25.308594 40.203125 25.324219 40.164062 25.351562 40.132812 C 25.449219 40.011719 25.535156 39.894531 25.597656 39.78125 C 25.660156 39.398438 25.449219 39.136719 25.535156 38.800781 C 25.632812 38.425781 26.15625 38.195312 26.519531 38.03125 C 26.640625 37.96875 26.773438 37.875 26.871094 37.839844 C 27.125 37.75 27.4375 37.796875 27.667969 37.714844 C 28.058594 37.574219 28.101562 37.148438 28.292969 36.792969 C 28.386719 36.628906 28.503906 36.457031 28.519531 36.339844 C 28.535156 36.230469 28.484375 36.125 28.5 36.003906 C 28.519531 35.871094 28.632812 35.765625 28.664062 35.625 C 28.710938 35.445312 28.730469 35.179688 28.730469 34.976562 C 28.730469 34.8125 28.652344 34.667969 28.648438 34.519531 C 28.621094 33.980469 28.84375 33.917969 29.042969 33.625 C 29.144531 33.480469 29.179688 33.308594 29.253906 33.203125 C 29.589844 32.703125 30.175781 32.460938 30.128906 31.699219 C 30.117188 31.453125 29.957031 30.882812 29.777344 30.804688 C 29.667969 30.757812 29.425781 30.800781 29.273438 30.742188 C 28.777344 30.558594 28.488281 29.945312 27.976562 29.90625 C 27.867188 29.890625 27.769531 29.953125 27.644531 29.945312 C 27.445312 29.9375 27.140625 29.808594 26.910156 29.78125 C 26.773438 29.765625 26.582031 29.824219 26.496094 29.78125 C 26.363281 29.71875 26.351562 29.476562 26.246094 29.402344 C 26.160156 29.347656 25.996094 29.328125 25.871094 29.28125 C 25.664062 29.203125 25.5 29.109375 25.265625 29.09375 C 25.1875 29.089844 25.101562 29.125 25.011719 29.113281 C 24.882812 29.09375 24.78125 28.9375 24.65625 28.859375 C 24.507812 28.769531 24.367188 28.726562 24.304688 28.59375 C 24.441406 28.140625 24.0625 28.019531 23.96875 27.757812 C 23.925781 27.636719 23.949219 27.492188 23.90625 27.382812 C 23.855469 27.226562 23.699219 27.132812 23.53125 27.003906 C 23.230469 26.773438 22.960938 26.554688 22.527344 26.503906 C 22.339844 26.476562 22.148438 26.558594 21.921875 26.542969 C 21.679688 26.527344 21.375 26.316406 21.191406 26.109375 C 21.015625 25.90625 20.929688 25.722656 20.773438 25.628906 C 20.628906 25.535156 20.4375 25.535156 20.332031 25.441406 C 20.292969 25.402344 20.296875 25.328125 20.25 25.230469 C 20.179688 25.082031 20.054688 24.992188 20.148438 24.8125 C 19.980469 24.730469 19.976562 24.972656 19.789062 24.941406 C 19.628906 24.707031 19.496094 24.601562 19.125 24.667969 C 18.957031 24.699219 18.859375 24.910156 18.664062 24.914062 C 18.503906 24.929688 18.378906 24.738281 18.167969 24.707031 C 18 24.6875 17.820312 24.75 17.707031 24.730469 C 17.527344 24.691406 17.472656 24.546875 17.308594 24.441406 C 17.191406 24.363281 16.957031 24.226562 16.890625 24.226562 C 16.683594 24.242188 16.53125 24.675781 16.242188 24.523438 C 16.105469 24.339844 16.472656 24.25 16.304688 24.082031 C 16.175781 23.953125 16.074219 24.140625 15.96875 24.210938 C 15.855469 24.289062 15.746094 24.367188 15.617188 24.417969 C 15.332031 24.523438 15.152344 24.464844 14.929688 24.585938 C 14.71875 24.691406 14.710938 24.867188 14.59375 25.085938 C 14.496094 25.261719 14.277344 25.515625 14.132812 25.527344 C 13.957031 25.539062 13.792969 25.28125 13.632812 25.214844 C 13.15625 25.007812 12.921875 25.394531 12.523438 25.402344 C 12.15625 25.417969 11.628906 24.808594 11.652344 24.460938 C 11.652344 24.25 11.769531 23.925781 11.796875 23.667969 C 11.816406 23.457031 11.960938 23.332031 11.960938 23.140625 C 11.964844 22.886719 11.625 22.695312 11.460938 22.664062 C 11.070312 22.59375 10.527344 22.820312 10.085938 22.644531 C 9.996094 22.5 10.183594 22.402344 10.230469 22.269531 C 10.261719 22.183594 10.246094 22.082031 10.269531 22 C 10.324219 21.863281 10.460938 21.761719 10.523438 21.621094 C 10.570312 21.511719 10.582031 21.359375 10.628906 21.222656 C 10.679688 21.074219 10.78125 20.976562 10.792969 20.867188 C 10.808594 20.726562 10.757812 20.566406 10.648438 20.472656 Z M 16.226562 24.890625 C 16.367188 24.90625 16.386719 25.195312 16.242188 25.21875 C 16.089844 25.246094 16.003906 24.976562 16.160156 24.90625 C 16.179688 24.890625 16.207031 24.890625 16.226562 24.894531 Z M 16.226562 24.890625 "/>
</g>
</svg>
