<?xml version="1.0" encoding="UTF-8"?>
<svg xmlns="http://www.w3.org/2000/svg" xmlns:xlink="http://www.w3.org/1999/xlink" width="48pt" height="48pt" viewBox="0 0 48 48" version="1.1">
<g id="surface1">
<path style=" stroke:none;fill-rule:evenodd;fill:rgb(100%,60%,34.901961%);fill-opacity:1;" d="M 11.210938 2.847656 L 36.789062 2.847656 C 41.410156 2.847656 45.152344 6.589844 45.152344 11.210938 L 45.152344 36.789062 C 45.152344 41.410156 41.410156 45.152344 36.789062 45.152344 L 11.210938 45.152344 C 6.589844 45.152344 2.847656 41.410156 2.847656 36.789062 L 2.847656 11.210938 C 2.847656 6.589844 6.589844 2.847656 11.210938 2.847656 Z M 11.210938 2.847656 "/>
<path style=" stroke:none;fill-rule:nonzero;fill:rgb(30.196078%,30.196078%,30.196078%);fill-opacity:1;" d="M 30.03125 10.558594 C 29.539062 10.941406 28.09375 13.617188 26.644531 16.8125 C 26.058594 18.113281 25.230469 19.8125 24.8125 20.597656 C 23.566406 22.914062 20.53125 27.132812 19.121094 28.476562 L 17.8125 29.742188 L 18.789062 30.785156 C 19.390625 31.425781 20.183594 32.757812 20.839844 34.25 C 22.089844 37.089844 22.304688 37.5 22.542969 37.5 C 22.65625 37.5 23.296875 37.148438 24.007812 36.703125 C 25.601562 35.695312 27.089844 34.34375 29.113281 32.039062 C 32.269531 28.445312 34.640625 27.683594 37.5625 29.335938 C 38.351562 29.78125 39 30.0625 39 29.957031 C 39 29.847656 38.597656 28.765625 38.117188 27.550781 C 37.632812 26.332031 36.316406 22.890625 35.199219 19.90625 C 34.402344 18.597656 31.796875 9.644531 30.03125 10.566406 M 23.734375 17.914062 C 23.722656 17.914062 23.703125 17.914062 23.683594 17.921875 C 21.011719 19.09375 20.046875 19.625 19.257812 20.367188 C 18.742188 20.863281 18.316406 21.390625 18.316406 21.546875 C 18.316406 22.027344 20.421875 23.304688 20.769531 23.035156 C 20.9375 22.90625 21.59375 21.964844 22.230469 20.941406 C 23.351562 19.113281 23.933594 17.941406 23.734375 17.914062 M 16.253906 23.082031 C 15.800781 23.082031 9.339844 25.519531 9.035156 25.8125 C 8.945312 25.894531 9.039062 26.050781 9.246094 26.164062 C 9.453125 26.28125 10.632812 27.070312 11.886719 27.917969 C 13.136719 28.769531 14.222656 29.457031 14.300781 29.460938 C 14.375 29.460938 14.949219 29.164062 15.5625 28.792969 C 16.851562 28.019531 19.335938 25.625 19.324219 25.164062 C 19.316406 24.757812 16.835938 23.078125 16.25 23.078125 M 16.253906 23.082031 "/>
</g>
</svg>
