<?xml version="1.0" encoding="UTF-8"?>
<svg xmlns="http://www.w3.org/2000/svg" xmlns:xlink="http://www.w3.org/1999/xlink" width="48pt" height="48pt" viewBox="0 0 48 48" version="1.1">
<g id="surface1">
<path style=" stroke:none;fill-rule:evenodd;fill:rgb(58.823529%,38.039216%,16.078431%);fill-opacity:1;" d="M 11.210938 2.847656 L 36.789062 2.847656 C 41.410156 2.847656 45.152344 6.589844 45.152344 11.210938 L 45.152344 36.789062 C 45.152344 41.410156 41.410156 45.152344 36.789062 45.152344 L 11.210938 45.152344 C 6.589844 45.152344 2.847656 41.410156 2.847656 36.789062 L 2.847656 11.210938 C 2.847656 6.589844 6.589844 2.847656 11.210938 2.847656 Z M 11.210938 2.847656 "/>
<path style=" stroke:none;fill-rule:nonzero;fill:rgb(97.254902%,73.333333%,53.333333%);fill-opacity:1;" d="M 13.105469 16 C 8.988281 16 5.652344 19.339844 5.652344 23.453125 C 5.652344 27.570312 8.988281 30.910156 13.105469 30.910156 C 17.222656 30.910156 20.558594 27.570312 20.558594 23.453125 C 20.558594 19.339844 17.222656 16 13.105469 16 Z M 13.105469 16 "/>
<path style=" stroke:none;fill-rule:nonzero;fill:rgb(70.196078%,45.098039%,24.705882%);fill-opacity:1;" d="M 13.105469 19.441406 C 10.890625 19.441406 9.09375 21.238281 9.09375 23.453125 C 9.09375 25.671875 10.890625 27.46875 13.105469 27.46875 C 15.324219 27.46875 17.121094 25.671875 17.121094 23.453125 C 17.121094 21.238281 15.324219 19.441406 13.105469 19.441406 Z M 13.105469 19.441406 "/>
<path style=" stroke:none;fill-rule:nonzero;fill:rgb(97.254902%,73.333333%,53.333333%);fill-opacity:1;" d="M 34.894531 16 C 30.777344 16 27.441406 19.339844 27.441406 23.453125 C 27.441406 27.570312 30.777344 30.910156 34.894531 30.910156 C 39.011719 30.910156 42.347656 27.570312 42.347656 23.453125 C 42.347656 19.339844 39.011719 16 34.894531 16 Z M 34.894531 16 "/>
<path style=" stroke:none;fill-rule:nonzero;fill:rgb(70.196078%,45.098039%,24.705882%);fill-opacity:1;" d="M 34.894531 19.441406 C 32.675781 19.441406 30.878906 21.238281 30.878906 23.453125 C 30.878906 25.671875 32.675781 27.46875 34.894531 27.46875 C 37.109375 27.46875 38.90625 25.671875 38.90625 23.453125 C 38.90625 21.238281 37.109375 19.441406 34.894531 19.441406 Z M 34.894531 19.441406 "/>
<path style=" stroke:none;fill-rule:nonzero;fill:rgb(96.078431%,61.568627%,33.72549%);fill-opacity:1;" d="M 24 12.5625 C 24.324219 12.5625 24.644531 12.574219 24.96875 12.601562 C 24.644531 12.574219 24.324219 12.5625 24 12.5625 Z M 24 12.5625 C 19.367188 12.566406 15.109375 15.113281 12.910156 19.191406 C 15.109375 15.113281 19.367188 12.566406 24 12.5625 Z M 25.574219 12.675781 C 25.792969 12.699219 26.015625 12.730469 26.234375 12.765625 C 26.015625 12.730469 25.792969 12.699219 25.574219 12.675781 Z M 26.746094 12.878906 C 26.988281 12.929688 27.234375 12.988281 27.472656 13.054688 C 27.234375 12.988281 26.988281 12.929688 26.746094 12.878906 Z M 27.917969 13.203125 C 28.171875 13.28125 28.421875 13.367188 28.667969 13.464844 C 28.421875 13.367188 28.171875 13.28125 27.917969 13.203125 Z M 29.035156 13.625 C 29.304688 13.742188 29.574219 13.867188 29.835938 14 C 29.574219 13.867188 29.304688 13.742188 29.035156 13.625 Z M 30.070312 14.132812 C 30.359375 14.289062 30.644531 14.457031 30.921875 14.636719 C 30.644531 14.457031 30.359375 14.289062 30.070312 14.132812 Z M 31.136719 14.792969 C 31.414062 14.980469 31.683594 15.179688 31.949219 15.386719 C 31.683594 15.179688 31.414062 14.980469 31.136719 14.792969 Z M 32.09375 15.515625 C 32.367188 15.742188 32.632812 15.984375 32.886719 16.234375 C 32.632812 15.984375 32.367188 15.742188 32.09375 15.515625 Z M 33 16.355469 C 33.257812 16.617188 33.507812 16.890625 33.742188 17.171875 C 33.507812 16.890625 33.257812 16.617188 33 16.355469 Z M 17.691406 17.011719 C 15.835938 17.011719 14.074219 17.828125 12.878906 19.246094 C 12.878906 19.246094 12.875 19.246094 12.875 19.246094 C 11.902344 21.070312 11.390625 23.105469 11.386719 25.175781 C 11.386719 32.140625 17.035156 37.789062 24 37.789062 C 30.964844 37.789062 36.613281 32.140625 36.613281 25.175781 C 36.609375 23.121094 36.105469 21.097656 35.144531 19.28125 C 33.945312 17.84375 32.175781 17.015625 30.308594 17.011719 C 26.824219 17.011719 24 19.835938 24 23.320312 C 24.003906 23.445312 24.007812 23.566406 24.019531 23.691406 L 23.988281 23.691406 C 23.996094 23.566406 24 23.445312 24 23.320312 C 24 19.835938 21.175781 17.011719 17.691406 17.011719 Z M 35.144531 19.28125 C 34.949219 18.914062 34.738281 18.558594 34.511719 18.214844 C 34.738281 18.558594 34.949219 18.914062 35.144531 19.28125 Z M 33.804688 17.257812 C 34.050781 17.558594 34.28125 17.871094 34.5 18.195312 C 34.28125 17.871094 34.050781 17.558594 33.804688 17.257812 Z M 33.804688 17.257812 "/>
<path style=" stroke:none;fill-rule:nonzero;fill:rgb(70.196078%,45.098039%,24.705882%);fill-opacity:1;" d="M 24 12.5625 C 19.34375 12.566406 15.066406 15.136719 12.875 19.246094 C 14.074219 17.832031 15.835938 17.011719 17.691406 17.011719 C 21.175781 17.011719 24 19.835938 24 23.320312 C 24 19.835938 26.824219 17.011719 30.308594 17.011719 C 32.175781 17.015625 33.949219 17.847656 35.144531 19.28125 C 32.960938 15.152344 28.671875 12.5625 24 12.5625 Z M 24 23.320312 C 24 23.445312 23.996094 23.566406 23.988281 23.691406 L 24.019531 23.691406 C 24.007812 23.566406 24.003906 23.445312 24 23.320312 Z M 24 23.320312 "/>
<path style=" stroke:none;fill-rule:nonzero;fill:rgb(24.705882%,24.705882%,24.705882%);fill-opacity:1;" d="M 21.707031 25.175781 C 21.707031 26.441406 20.679688 27.46875 19.414062 27.46875 C 18.148438 27.46875 17.121094 26.441406 17.121094 25.175781 C 17.121094 23.910156 18.148438 22.882812 19.414062 22.882812 C 20.679688 22.882812 21.707031 23.910156 21.707031 25.175781 Z M 21.707031 25.175781 "/>
<path style=" stroke:none;fill-rule:nonzero;fill:rgb(24.705882%,24.705882%,24.705882%);fill-opacity:1;" d="M 30.878906 25.175781 C 30.878906 26.441406 29.851562 27.46875 28.585938 27.46875 C 27.320312 27.46875 26.292969 26.441406 26.292969 25.175781 C 26.292969 23.910156 27.320312 22.882812 28.585938 22.882812 C 29.851562 22.882812 30.878906 23.910156 30.878906 25.175781 Z M 30.878906 25.175781 "/>
<path style=" stroke:none;fill-rule:nonzero;fill:rgb(24.705882%,24.705882%,24.705882%);fill-opacity:1;" d="M 18.277344 30.898438 C 17.792969 30.886719 17.351562 31.1875 17.179688 31.640625 C 17.011719 32.097656 17.144531 32.613281 17.519531 32.925781 C 17.519531 32.925781 20.367188 35.496094 24 35.496094 C 27.628906 35.496094 30.480469 32.925781 30.480469 32.925781 C 30.796875 32.660156 30.949219 32.246094 30.871094 31.839844 C 30.796875 31.433594 30.511719 31.097656 30.121094 30.960938 C 29.730469 30.828125 29.296875 30.910156 28.988281 31.183594 C 28.988281 31.183594 26.484375 33.203125 24 33.203125 C 21.515625 33.203125 19.015625 31.183594 19.015625 31.183594 C 18.8125 31.003906 18.550781 30.902344 18.277344 30.898438 Z M 18.277344 30.898438 "/>
</g>
</svg>
