<?xml version="1.0" encoding="UTF-8"?>
<svg xmlns="http://www.w3.org/2000/svg" xmlns:xlink="http://www.w3.org/1999/xlink" width="48pt" height="48pt" viewBox="0 0 48 48" version="1.1">
<defs>
<filter id="alpha" filterUnits="objectBoundingBox" x="0%" y="0%" width="100%" height="100%">
  <feColorMatrix type="matrix" in="SourceGraphic" values="0 0 0 0 1 0 0 0 0 1 0 0 0 0 1 0 0 0 1 0"/>
</filter>
<mask id="mask0">
  <g filter="url(#alpha)">
<rect x="0" y="0" width="48" height="48" style="fill:rgb(0%,0%,0%);fill-opacity:0.2;stroke:none;"/>
  </g>
</mask>
<clipPath id="clip1">
  <rect width="48" height="48"/>
</clipPath>
<g id="surface6" clip-path="url(#clip1)">
<path style=" stroke:none;fill-rule:nonzero;fill:rgb(0%,0%,0%);fill-opacity:1;" d="M 21.976562 30.496094 C 21.125 30.210938 20.027344 29.433594 19.175781 28.515625 C 18.699219 28 18.652344 27.878906 18.886719 27.765625 C 19.058594 27.683594 19.589844 27.945312 20.285156 28.457031 C 21.546875 29.386719 22.738281 29.941406 23.535156 29.972656 C 23.828125 29.984375 24.257812 30.0625 24.484375 30.144531 C 24.878906 30.289062 24.863281 30.3125 24.234375 30.539062 C 23.414062 30.832031 22.957031 30.824219 21.976562 30.496094 Z M 21.976562 30.496094 "/>
</g>
</defs>
<g id="surface1">
<path style=" stroke:none;fill-rule:evenodd;fill:rgb(30.588235%,38.431373%,45.882353%);fill-opacity:1;" d="M 11.210938 2.847656 L 36.789062 2.847656 C 41.410156 2.847656 45.152344 6.589844 45.152344 11.210938 L 45.152344 36.789062 C 45.152344 41.410156 41.410156 45.152344 36.789062 45.152344 L 11.210938 45.152344 C 6.589844 45.152344 2.847656 41.410156 2.847656 36.789062 L 2.847656 11.210938 C 2.847656 6.589844 6.589844 2.847656 11.210938 2.847656 Z M 11.210938 2.847656 "/>
<path style=" stroke:none;fill-rule:nonzero;fill:rgb(82.352941%,58.039216%,23.137255%);fill-opacity:1;" d="M 23.730469 36.40625 C 24.488281 36.210938 25.929688 35.804688 26.546875 35.507812 C 27.800781 34.902344 29.25 34.160156 29.25 33.75 C 28.453125 32.371094 27.4375 30.734375 26.25 30 C 27.132812 29.429688 27.929688 28.921875 27.75 27.898438 C 27.75 27.898438 27.453125 27.664062 28.09375 27.171875 C 30.71875 24.539062 34.597656 21.324219 36 18.199219 C 36 17.390625 35.542969 17.21875 34.332031 17.25 C 33.746094 17.265625 31.789062 17.230469 29.984375 17.25 C 26.722656 17.289062 25.507812 17.25 25.507812 17.25 C 25.507812 17.25 22.097656 17.1875 21.058594 18.007812 C 18.429688 20.085938 17.25 19.957031 15.046875 20.691406 C 13 21.375 12.898438 20.398438 12.898438 25.277344 C 12.457031 28.035156 13.253906 30.789062 11.375 33.238281 C 11.144531 33.542969 11.199219 33.679688 11.804688 34.332031 C 12.996094 35.621094 15.058594 36.121094 17.351562 36.566406 C 18.902344 36.867188 22.273438 36.785156 23.730469 36.40625 Z M 23.730469 36.40625 "/>
<path style=" stroke:none;fill-rule:nonzero;fill:rgb(100%,83.529412%,28.235294%);fill-opacity:1;" d="M 16.5 11.25 C 12.75 11.25 9.75 14.679688 9.75 18.449219 C 9.75 20.070312 10.320312 22.160156 11.261719 23.328125 C 11.472656 23.863281 11.253906 24.304688 11.25 24.421875 C 11.230469 24.824219 12.109375 25 14.457031 24.238281 C 17.171875 23.363281 18.324219 22.585938 21.152344 20.316406 C 22.210938 19.46875 23.203125 18.367188 24.382812 17.824219 C 25.410156 17.355469 26.25 17.273438 26.25 17.175781 C 26.25 16.125 24.898438 15.921875 24.148438 15.824219 L 23.308594 15.824219 C 22.277344 13.363281 20.25 11.25 16.5 11.25 Z M 16.5 11.25 "/>
<path style=" stroke:none;fill-rule:nonzero;fill:rgb(93.72549%,76.078431%,52.54902%);fill-opacity:1;" d="M 38.25 18 C 38.25 19.242188 37.242188 20.25 36 20.25 C 34.757812 20.25 33.75 19.242188 33.75 18 C 33.75 16.757812 34.757812 15.75 36 15.75 C 37.242188 15.75 38.25 16.757812 38.25 18 Z M 38.25 18 "/>
<use xlink:href="#surface6" mask="url(#mask0)"/>
</g>
</svg>
