<?xml version="1.0" encoding="UTF-8"?>
<svg xmlns="http://www.w3.org/2000/svg" xmlns:xlink="http://www.w3.org/1999/xlink" width="48pt" height="48pt" viewBox="0 0 48 48" version="1.1">
<g id="surface1">
<path style=" stroke:none;fill-rule:evenodd;fill:rgb(30.980392%,30.980392%,30.980392%);fill-opacity:1;" d="M 11.210938 2.847656 L 36.789062 2.847656 C 41.410156 2.847656 45.152344 6.589844 45.152344 11.210938 L 45.152344 36.789062 C 45.152344 41.410156 41.410156 45.152344 36.789062 45.152344 L 11.210938 45.152344 C 6.589844 45.152344 2.847656 41.410156 2.847656 36.789062 L 2.847656 11.210938 C 2.847656 6.589844 6.589844 2.847656 11.210938 2.847656 Z M 11.210938 2.847656 "/>
<path style=" stroke:none;fill-rule:nonzero;fill:rgb(71.764706%,71.764706%,71.764706%);fill-opacity:1;" d="M 19.675781 9 C 19.589844 9.003906 19.5 9.03125 19.410156 9.09375 C 19.324219 9.15625 19.253906 9.269531 19.234375 9.367188 C 19.199219 9.5625 19.242188 9.652344 19.324219 9.824219 C 19.695312 10.511719 20.0625 11.050781 20.207031 11.464844 C 20.453125 12.03125 20.449219 12.5625 20.382812 12.921875 L 19.941406 15.109375 C 17.714844 15.644531 15.5625 16.183594 13.414062 16.933594 C 12.992188 17.074219 12.675781 17.210938 12.355469 17.390625 C 12.324219 17.386719 12.296875 17.386719 12.265625 17.390625 C 12.152344 17.460938 12.148438 17.5625 12.089844 17.664062 C 12.058594 17.714844 12.007812 17.773438 12 17.847656 C 11.992188 17.917969 12.027344 18.035156 12.089844 18.121094 C 12.277344 18.386719 12.53125 18.496094 12.882812 18.667969 C 13.238281 18.835938 13.644531 19.007812 13.941406 19.121094 C 15.4375 19.6875 17.363281 20.144531 18.882812 20.308594 C 18.472656 22.214844 18.078125 24.101562 17.472656 25.960938 C 17.324219 26.414062 17.132812 26.882812 16.941406 27.328125 C 16.386719 28.601562 15.683594 29.765625 15 30.882812 C 14.28125 31.929688 13.671875 32.945312 12.882812 33.890625 C 12.734375 34.054688 12.5 34.191406 12.355469 34.347656 C 12.28125 34.425781 12.230469 34.550781 12.175781 34.621094 C 12.152344 34.65625 12.113281 34.671875 12.089844 34.710938 C 12.066406 34.753906 12.082031 34.777344 12.089844 34.894531 C 12.085938 34.925781 12.085938 34.957031 12.089844 34.988281 C 12.113281 35.023438 12.140625 35.054688 12.175781 35.078125 C 12.199219 35.113281 12.230469 35.144531 12.265625 35.167969 C 12.296875 35.171875 12.324219 35.171875 12.355469 35.167969 C 12.511719 35.195312 12.640625 35.125 12.796875 35.078125 C 12.949219 35.027344 13.054688 34.984375 13.234375 34.894531 C 13.601562 34.71875 14.074219 34.515625 14.472656 34.257812 C 15.042969 33.882812 15.464844 33.503906 15.792969 33.253906 C 16.375 32.816406 17.683594 31.554688 18.351562 30.703125 C 19.121094 29.796875 19.941406 28.828125 20.558594 27.601562 C 20.570312 27.578125 20.546875 27.535156 20.558594 27.511719 C 20.601562 27.433594 20.84375 26.953125 20.910156 26.78125 C 21.042969 26.4375 21.132812 26.097656 21.175781 25.960938 L 23.117188 19.851562 L 29.910156 18.210938 C 29.742188 19.683594 29.550781 21.109375 29.378906 22.585938 C 29.25 23.804688 29.160156 24.292969 29.027344 25.59375 C 29.023438 25.632812 29.03125 25.644531 29.027344 25.6875 C 28.953125 26.085938 28.734375 27.214844 28.675781 27.511719 C 28.222656 29.773438 27.738281 31.828125 26.734375 33.617188 C 26.492188 33.96875 26.214844 34.335938 25.941406 34.621094 C 25.660156 34.480469 25.269531 34.289062 24.703125 34.257812 C 24.695312 34.253906 24.644531 34.257812 24.617188 34.257812 C 24.585938 34.253906 24.558594 34.253906 24.527344 34.257812 C 24.527344 34.257812 24.441406 34.347656 24.441406 34.347656 C 24.402344 34.371094 24.375 34.402344 24.351562 34.4375 C 24.3125 34.644531 24.382812 34.804688 24.441406 34.988281 C 24.496094 35.167969 24.546875 35.367188 24.617188 35.535156 C 25.125 36.726562 25.726562 37.753906 26.292969 38.816406 C 26.316406 38.851562 26.34375 38.882812 26.378906 38.90625 C 26.402344 38.945312 26.433594 38.976562 26.46875 39 C 26.496094 39.003906 26.527344 39.003906 26.558594 39 C 26.585938 39.003906 26.617188 39.003906 26.644531 39 C 26.679688 38.976562 26.710938 38.945312 26.734375 38.90625 C 27.582031 38.078125 28.574219 36.738281 29.292969 35.625 C 30.699219 33.441406 31.890625 31.003906 32.730469 28.238281 C 32.859375 27.808594 32.960938 27.375 33.085938 26.871094 L 35.730469 16.386719 C 35.84375 15.921875 35.972656 15.410156 35.996094 15.019531 C 36 14.988281 36 14.957031 35.996094 14.929688 C 35.941406 14.792969 35.820312 14.722656 35.730469 14.65625 C 35.640625 14.585938 35.582031 14.53125 35.46875 14.472656 C 35.242188 14.351562 34.941406 14.207031 34.675781 14.105469 C 33.40625 13.660156 32.027344 13.265625 30.527344 12.917969 C 30.367188 12.847656 30.261719 12.816406 30.085938 12.828125 C 29.917969 12.835938 29.660156 12.882812 29.46875 12.917969 C 29.085938 12.992188 28.691406 13.128906 28.410156 13.191406 L 24.882812 14.011719 C 25.03125 13.527344 25.277344 12.8125 25.058594 11.914062 C 24.757812 10.898438 23.980469 10.300781 23.117188 10 C 22.382812 9.742188 21.667969 9.515625 20.914062 9.273438 C 20.789062 9.230469 20.238281 9.03125 19.675781 9 Z M 19.675781 9 "/>
</g>
</svg>
