<?xml version="1.0" encoding="UTF-8"?>
<svg xmlns="http://www.w3.org/2000/svg" xmlns:xlink="http://www.w3.org/1999/xlink" width="48pt" height="48pt" viewBox="0 0 48 48" version="1.1">
<g id="surface1">
<path style=" stroke:none;fill-rule:evenodd;fill:rgb(99.215686%,73.333333%,15.686275%);fill-opacity:1;" d="M 11.210938 2.847656 L 36.789062 2.847656 C 41.410156 2.847656 45.152344 6.589844 45.152344 11.210938 L 45.152344 36.789062 C 45.152344 41.410156 41.410156 45.152344 36.789062 45.152344 L 11.210938 45.152344 C 6.589844 45.152344 2.847656 41.410156 2.847656 36.789062 L 2.847656 11.210938 C 2.847656 6.589844 6.589844 2.847656 11.210938 2.847656 Z M 11.210938 2.847656 "/>
<path style=" stroke:none;fill-rule:nonzero;fill:rgb(100%,100%,100%);fill-opacity:1;" d="M 36.523438 26.277344 C 36.523438 33.195312 30.917969 38.800781 24 38.800781 C 17.082031 38.800781 11.476562 33.195312 11.476562 26.277344 C 11.476562 19.359375 17.082031 13.753906 24 13.753906 C 30.917969 13.753906 36.523438 19.359375 36.523438 26.277344 Z M 36.523438 26.277344 "/>
<path style=" stroke:none;fill-rule:nonzero;fill:rgb(30.980392%,30.980392%,30.980392%);fill-opacity:1;" d="M 24 9.199219 C 20.460938 9.199219 17.234375 10.277344 14.851562 12.082031 C 12.472656 13.890625 11.476562 16.476562 11.476562 19.351562 L 11.476562 20.585938 C 9.113281 21.75 6.921875 24.621094 6.921875 28.207031 C 6.921875 32.796875 10.296875 36.523438 13.753906 36.523438 L 13.753906 19.351562 C 13.753906 17.199219 14.203125 15.441406 16.171875 13.953125 C 18.136719 12.457031 20.910156 11.476562 24 11.476562 C 27.089844 11.476562 29.863281 12.460938 31.828125 13.953125 C 33.796875 15.441406 34.246094 17.199219 34.246094 19.351562 L 34.246094 36.523438 C 37.703125 36.523438 41.078125 32.796875 41.078125 28.203125 C 41.078125 24.617188 38.886719 21.75 36.523438 20.585938 L 36.523438 19.351562 C 36.523438 16.476562 35.527344 13.890625 33.148438 12.082031 C 30.765625 10.277344 27.539062 9.199219 24 9.199219 Z M 18.308594 20.585938 C 17.050781 20.585938 16.03125 21.605469 16.03125 22.863281 C 16.03125 24.117188 17.050781 25.136719 18.308594 25.136719 C 19.566406 25.136719 20.585938 24.117188 20.585938 22.863281 C 20.585938 21.605469 19.566406 20.585938 18.308594 20.585938 Z M 29.691406 20.585938 C 28.433594 20.585938 27.414062 21.605469 27.414062 22.863281 C 27.414062 24.117188 28.433594 25.136719 29.691406 25.136719 C 30.949219 25.136719 31.96875 24.117188 31.96875 22.863281 C 31.96875 21.605469 30.949219 20.585938 29.691406 20.585938 Z M 28.554688 30.832031 L 19.445312 30.851562 C 19.445312 33.367188 21.484375 35.386719 24 35.386719 C 26.515625 35.386719 28.554688 33.347656 28.554688 30.832031 Z M 28.554688 30.832031 "/>
</g>
</svg>
