<?xml version="1.0" encoding="UTF-8"?>
<svg xmlns="http://www.w3.org/2000/svg" xmlns:xlink="http://www.w3.org/1999/xlink" width="48pt" height="48pt" viewBox="0 0 48 48" version="1.1">
<g id="surface1">
<path style=" stroke:none;fill-rule:evenodd;fill:rgb(37.254902%,48.627451%,54.117647%);fill-opacity:1;" d="M 11.210938 2.847656 L 36.789062 2.847656 C 41.410156 2.847656 45.152344 6.589844 45.152344 11.210938 L 45.152344 36.789062 C 45.152344 41.410156 41.410156 45.152344 36.789062 45.152344 L 11.210938 45.152344 C 6.589844 45.152344 2.847656 41.410156 2.847656 36.789062 L 2.847656 11.210938 C 2.847656 6.589844 6.589844 2.847656 11.210938 2.847656 Z M 11.210938 2.847656 "/>
<path style=" stroke:none;fill-rule:nonzero;fill:rgb(92.156863%,92.156863%,92.156863%);fill-opacity:1;" d="M 10.195312 15.933594 C 9.9375 15.933594 9.730469 16.140625 9.730469 16.398438 L 9.730469 19.191406 C 9.730469 19.449219 9.9375 19.65625 10.195312 19.65625 L 12.988281 19.65625 C 13.246094 19.65625 13.453125 19.449219 13.453125 19.191406 L 13.453125 16.398438 C 13.453125 16.140625 13.246094 15.933594 12.988281 15.933594 Z M 16.398438 15.933594 C 16.140625 15.933594 15.933594 16.140625 15.933594 16.398438 L 15.933594 19.191406 C 15.933594 19.449219 16.140625 19.65625 16.398438 19.65625 L 19.191406 19.65625 C 19.449219 19.65625 19.65625 19.449219 19.65625 19.191406 L 19.65625 16.398438 C 19.65625 16.140625 19.449219 15.933594 19.191406 15.933594 Z M 22.605469 15.933594 C 22.347656 15.933594 22.140625 16.140625 22.140625 16.398438 L 22.140625 19.191406 C 22.140625 19.449219 22.347656 19.65625 22.605469 19.65625 L 25.394531 19.65625 C 25.652344 19.65625 25.859375 19.449219 25.859375 19.191406 L 25.859375 16.398438 C 25.859375 16.140625 25.652344 15.933594 25.394531 15.933594 Z M 28.808594 15.933594 C 28.550781 15.933594 28.34375 16.140625 28.34375 16.398438 L 28.34375 19.191406 C 28.34375 19.449219 28.550781 19.65625 28.808594 19.65625 L 31.601562 19.65625 C 31.859375 19.65625 32.066406 19.449219 32.066406 19.191406 L 32.066406 16.398438 C 32.066406 16.140625 31.859375 15.933594 31.601562 15.933594 Z M 35.011719 15.933594 C 34.753906 15.933594 34.546875 16.140625 34.546875 16.398438 L 34.546875 19.191406 C 34.546875 19.449219 34.753906 19.65625 35.011719 19.65625 L 37.804688 19.65625 C 38.0625 19.65625 38.269531 19.449219 38.269531 19.191406 L 38.269531 16.398438 C 38.269531 16.140625 38.0625 15.933594 37.804688 15.933594 Z M 10.195312 22.140625 C 9.9375 22.140625 9.730469 22.347656 9.730469 22.605469 L 9.730469 25.394531 C 9.730469 25.652344 9.9375 25.859375 10.195312 25.859375 L 12.988281 25.859375 C 13.246094 25.859375 13.453125 25.652344 13.453125 25.394531 L 13.453125 22.605469 C 13.453125 22.347656 13.246094 22.140625 12.988281 22.140625 Z M 16.398438 22.140625 C 16.140625 22.140625 15.933594 22.347656 15.933594 22.605469 L 15.933594 25.394531 C 15.933594 25.652344 16.140625 25.859375 16.398438 25.859375 L 19.191406 25.859375 C 19.449219 25.859375 19.65625 25.652344 19.65625 25.394531 L 19.65625 22.605469 C 19.65625 22.347656 19.449219 22.140625 19.191406 22.140625 Z M 22.605469 22.140625 C 22.347656 22.140625 22.140625 22.347656 22.140625 22.605469 L 22.140625 25.394531 C 22.140625 25.652344 22.347656 25.859375 22.605469 25.859375 L 25.394531 25.859375 C 25.652344 25.859375 25.859375 25.652344 25.859375 25.394531 L 25.859375 22.605469 C 25.859375 22.347656 25.652344 22.140625 25.394531 22.140625 Z M 28.808594 22.140625 C 28.550781 22.140625 28.34375 22.347656 28.34375 22.605469 L 28.34375 25.394531 C 28.34375 25.652344 28.550781 25.859375 28.808594 25.859375 L 31.601562 25.859375 C 31.859375 25.859375 32.066406 25.652344 32.066406 25.394531 L 32.066406 22.605469 C 32.066406 22.347656 31.859375 22.140625 31.601562 22.140625 Z M 35.011719 22.140625 C 34.753906 22.140625 34.546875 22.347656 34.546875 22.605469 L 34.546875 25.394531 C 34.546875 25.652344 34.753906 25.859375 35.011719 25.859375 L 37.804688 25.859375 C 38.0625 25.859375 38.269531 25.652344 38.269531 25.394531 L 38.269531 22.605469 C 38.269531 22.347656 38.0625 22.140625 37.804688 22.140625 Z M 16.398438 28.34375 C 16.140625 28.34375 15.933594 28.550781 15.933594 28.808594 L 15.933594 31.601562 C 15.933594 31.859375 16.140625 32.066406 16.398438 32.066406 L 31.601562 32.066406 C 31.859375 32.066406 32.066406 31.859375 32.066406 31.601562 L 32.066406 28.808594 C 32.066406 28.550781 31.859375 28.34375 31.601562 28.34375 Z M 16.398438 28.34375 "/>
</g>
</svg>
