<?xml version="1.0" encoding="UTF-8"?>
<svg xmlns="http://www.w3.org/2000/svg" xmlns:xlink="http://www.w3.org/1999/xlink" width="48pt" height="48pt" viewBox="0 0 48 48" version="1.1">
<g id="surface1">
<path style=" stroke:none;fill-rule:evenodd;fill:rgb(47.843137%,82.745098%,32.941176%);fill-opacity:1;" d="M 11.210938 2.847656 L 36.789062 2.847656 C 41.410156 2.847656 45.152344 6.589844 45.152344 11.210938 L 45.152344 36.789062 C 45.152344 41.410156 41.410156 45.152344 36.789062 45.152344 L 11.210938 45.152344 C 6.589844 45.152344 2.847656 41.410156 2.847656 36.789062 L 2.847656 11.210938 C 2.847656 6.589844 6.589844 2.847656 11.210938 2.847656 Z M 11.210938 2.847656 "/>
<path style=" stroke:none;fill-rule:nonzero;fill:rgb(100%,100%,100%);fill-opacity:1;" d="M 23.335938 7.335938 C 21.542969 7.335938 20.097656 8.777344 20.097656 10.574219 L 20.097656 13.808594 L 12.542969 13.808594 C 11.347656 13.808594 10.386719 14.773438 10.386719 15.96875 L 10.386719 22.445312 L 13.625 22.445312 C 15.417969 22.445312 16.859375 23.886719 16.859375 25.679688 C 16.859375 27.476562 15.417969 28.917969 13.625 28.917969 L 10.386719 28.917969 L 10.386719 36.472656 C 10.386719 37.667969 11.347656 38.632812 12.542969 38.632812 L 20.097656 38.632812 L 20.097656 36.472656 C 20.097656 34.679688 21.542969 33.234375 23.335938 33.234375 C 25.128906 33.234375 26.574219 34.679688 26.574219 36.472656 L 26.574219 38.632812 L 33.046875 38.632812 C 34.246094 38.632812 35.207031 37.667969 35.207031 36.472656 L 35.207031 28.917969 L 38.445312 28.917969 C 40.238281 28.917969 41.683594 27.476562 41.683594 25.679688 C 41.683594 23.886719 40.238281 22.445312 38.445312 22.445312 L 35.207031 22.445312 L 35.207031 15.96875 C 35.207031 14.773438 34.246094 13.808594 33.046875 13.808594 L 26.574219 13.808594 L 26.574219 10.574219 C 26.574219 8.777344 25.128906 7.335938 23.335938 7.335938 Z M 23.335938 7.335938 "/>
</g>
</svg>
