<?xml version="1.0" encoding="UTF-8"?>
<svg xmlns="http://www.w3.org/2000/svg" xmlns:xlink="http://www.w3.org/1999/xlink" width="48pt" height="48pt" viewBox="0 0 48 48" version="1.1">
<defs>
<clipPath id="clip1">
  <rect width="48" height="48"/>
</clipPath>
<g id="surface6" clip-path="url(#clip1)">
<path style=" stroke:none;fill-rule:nonzero;fill:rgb(32.941176%,69.803922%,24.705882%);fill-opacity:1;" d="M 25.734375 15.945312 C 22.25 15.945312 19.371094 18.792969 19.371094 22.273438 C 19.371094 23.59375 19.820312 24.8125 20.523438 25.832031 L 16.28125 30.074219 C 15.828125 30.519531 15.820312 31.25 16.265625 31.707031 C 16.710938 32.164062 17.441406 32.171875 17.898438 31.726562 L 22.140625 27.484375 C 23.160156 28.1875 24.410156 28.597656 25.734375 28.597656 C 29.21875 28.597656 32.0625 25.753906 32.0625 22.273438 C 32.0625 18.792969 29.21875 15.945312 25.734375 15.945312 Z M 25.734375 18.246094 C 27.976562 18.246094 29.761719 20.035156 29.761719 22.273438 C 29.761719 24.511719 27.976562 26.296875 25.734375 26.296875 C 23.496094 26.296875 21.710938 24.511719 21.710938 22.273438 C 21.710938 20.035156 23.496094 18.246094 25.734375 18.246094 Z M 25.734375 18.246094 "/>
</g>
</defs>
<g id="surface1">
<path style=" stroke:none;fill-rule:evenodd;fill:rgb(32.941176%,69.803922%,24.705882%);fill-opacity:1;" d="M 11.210938 2.847656 L 36.789062 2.847656 C 41.410156 2.847656 45.152344 6.589844 45.152344 11.210938 L 45.152344 36.789062 C 45.152344 41.410156 41.410156 45.152344 36.789062 45.152344 L 11.210938 45.152344 C 6.589844 45.152344 2.847656 41.410156 2.847656 36.789062 L 2.847656 11.210938 C 2.847656 6.589844 6.589844 2.847656 11.210938 2.847656 Z M 11.210938 2.847656 "/>
<path style=" stroke:none;fill-rule:nonzero;fill:rgb(30.980392%,30.980392%,30.980392%);fill-opacity:1;" d="M 24 11.347656 C 15.078125 11.347656 7.894531 19.253906 7.894531 24 C 7.894531 28.746094 15.078125 36.652344 24 36.652344 C 32.921875 36.652344 40.105469 28.746094 40.105469 24 C 40.105469 19.253906 32.921875 11.347656 24 11.347656 Z M 24 11.347656 "/>
<use xlink:href="#surface6"/>
</g>
</svg>
