<?xml version="1.0" encoding="UTF-8"?>
<svg xmlns="http://www.w3.org/2000/svg" xmlns:xlink="http://www.w3.org/1999/xlink" width="48pt" height="48pt" viewBox="0 0 48 48" version="1.1">
<g id="surface1">
<path style=" stroke:none;fill-rule:evenodd;fill:rgb(92.156863%,63.529412%,16.078431%);fill-opacity:1;" d="M 11.210938 2.847656 L 36.789062 2.847656 C 41.410156 2.847656 45.152344 6.589844 45.152344 11.210938 L 45.152344 36.789062 C 45.152344 41.410156 41.410156 45.152344 36.789062 45.152344 L 11.210938 45.152344 C 6.589844 45.152344 2.847656 41.410156 2.847656 36.789062 L 2.847656 11.210938 C 2.847656 6.589844 6.589844 2.847656 11.210938 2.847656 Z M 11.210938 2.847656 "/>
<path style=" stroke:none;fill-rule:nonzero;fill:rgb(100%,100%,100%);fill-opacity:1;" d="M 26.265625 13.496094 C 21.722656 13.496094 17.96875 17.210938 17.96875 21.746094 C 17.96875 23.472656 18.550781 25.058594 19.46875 26.386719 L 13.9375 31.917969 C 13.34375 32.503906 13.335938 33.453125 13.914062 34.050781 C 14.496094 34.644531 15.449219 34.65625 16.046875 34.074219 L 21.578125 28.542969 C 22.90625 29.460938 24.535156 29.996094 26.265625 29.996094 C 30.808594 29.996094 34.515625 26.285156 34.515625 21.746094 C 34.515625 17.210938 30.808594 13.496094 26.265625 13.496094 Z M 26.265625 16.496094 C 29.183594 16.496094 31.515625 18.828125 31.515625 21.746094 C 31.515625 24.664062 29.183594 26.996094 26.265625 26.996094 C 23.34375 26.996094 21.015625 24.664062 21.015625 21.746094 C 21.015625 18.828125 23.34375 16.496094 26.265625 16.496094 Z M 26.265625 16.496094 "/>
</g>
</svg>
