<?xml version="1.0" encoding="UTF-8"?>
<svg xmlns="http://www.w3.org/2000/svg" xmlns:xlink="http://www.w3.org/1999/xlink" width="48pt" height="48pt" viewBox="0 0 48 48" version="1.1">
<g id="surface1">
<path style=" stroke:none;fill-rule:evenodd;fill:rgb(29.019608%,49.019608%,72.156863%);fill-opacity:1;" d="M 11.210938 2.847656 L 36.789062 2.847656 C 41.410156 2.847656 45.152344 6.589844 45.152344 11.210938 L 45.152344 36.789062 C 45.152344 41.410156 41.410156 45.152344 36.789062 45.152344 L 11.210938 45.152344 C 6.589844 45.152344 2.847656 41.410156 2.847656 36.789062 L 2.847656 11.210938 C 2.847656 6.589844 6.589844 2.847656 11.210938 2.847656 Z M 11.210938 2.847656 "/>
<path style=" stroke:none;fill-rule:nonzero;fill:rgb(47.843137%,79.607843%,69.803922%);fill-opacity:1;" d="M 17.457031 15 C 17.203125 14.996094 16.960938 15.097656 16.78125 15.285156 C 16.601562 15.472656 16.5 15.730469 16.5 16 L 16.5 32 C 16.5 32.355469 16.675781 32.6875 16.964844 32.863281 C 17.253906 33.042969 17.613281 33.046875 17.902344 32.867188 L 31.027344 24.867188 C 31.320312 24.691406 31.5 24.359375 31.5 24 C 31.5 23.640625 31.320312 23.308594 31.027344 23.132812 L 17.902344 15.132812 C 17.765625 15.046875 17.613281 15.003906 17.457031 15 Z M 17.457031 15 "/>
</g>
</svg>
