<?xml version="1.0" encoding="UTF-8"?>
<svg xmlns="http://www.w3.org/2000/svg" xmlns:xlink="http://www.w3.org/1999/xlink" width="48pt" height="48pt" viewBox="0 0 48 48" version="1.1">
<g id="surface1">
<path style=" stroke:none;fill-rule:evenodd;fill:rgb(98.823529%,78.039216%,20%);fill-opacity:1;" d="M 11.210938 2.847656 L 36.789062 2.847656 C 41.410156 2.847656 45.152344 6.589844 45.152344 11.210938 L 45.152344 36.789062 C 45.152344 41.410156 41.410156 45.152344 36.789062 45.152344 L 11.210938 45.152344 C 6.589844 45.152344 2.847656 41.410156 2.847656 36.789062 L 2.847656 11.210938 C 2.847656 6.589844 6.589844 2.847656 11.210938 2.847656 Z M 11.210938 2.847656 "/>
<path style=" stroke:none;fill-rule:nonzero;fill:rgb(100%,100%,100%);fill-opacity:1;" d="M 26.441406 33.109375 C 32.277344 30.988281 37.085938 29.226562 37.121094 29.1875 C 37.207031 29.109375 36.683594 27.695312 36.363281 27.148438 C 35.839844 26.257812 35.339844 25.855469 34.332031 25.511719 C 33.355469 25.179688 32.609375 24.632812 32.078125 23.863281 C 31.796875 23.453125 31.09375 21.832031 30.265625 19.675781 C 29.21875 16.945312 28.472656 15.742188 27.175781 14.671875 C 25.75 13.5 24.433594 13.039062 22.273438 12.945312 L 20.976562 12.890625 L 20.671875 12.273438 C 20.308594 11.527344 20.214844 11.414062 19.796875 11.199219 C 18.683594 10.632812 17.25 11.617188 17.429688 12.824219 C 17.460938 13.03125 17.542969 13.339844 17.617188 13.511719 C 17.804688 13.960938 17.714844 14.164062 17.109375 14.648438 C 14.910156 16.410156 13.898438 18.609375 14.046875 21.304688 C 14.117188 22.59375 14.1875 22.882812 15.21875 25.972656 C 16.242188 29.046875 16.296875 29.269531 16.25 30.316406 C 16.214844 31.175781 16.136719 31.390625 15.378906 32.769531 C 15.113281 33.257812 15.097656 33.328125 15.097656 34.195312 C 15.097656 35.035156 15.125 35.179688 15.429688 36.035156 C 15.613281 36.546875 15.78125 36.964844 15.796875 36.964844 C 15.816406 36.964844 20.605469 35.230469 26.441406 33.109375 Z M 27.546875 36.570312 C 28.480469 36.316406 29.433594 35.5 29.917969 34.542969 C 30.203125 33.988281 30.375 33.421875 30.261719 33.421875 C 30.144531 33.421875 23.925781 35.683594 23.84375 35.753906 C 23.753906 35.835938 24.507812 36.316406 25 36.492188 C 25.816406 36.777344 26.695312 36.808594 27.546875 36.570312 Z M 27.546875 36.570312 "/>
</g>
</svg>
