<?xml version="1.0" encoding="UTF-8"?>
<svg xmlns="http://www.w3.org/2000/svg" xmlns:xlink="http://www.w3.org/1999/xlink" width="48pt" height="48pt" viewBox="0 0 48 48" version="1.1">
<g id="surface1">
<path style=" stroke:none;fill-rule:evenodd;fill:rgb(99.607843%,80.392157%,21.960784%);fill-opacity:1;" d="M 11.210938 2.847656 L 36.789062 2.847656 C 41.410156 2.847656 45.152344 6.589844 45.152344 11.210938 L 45.152344 36.789062 C 45.152344 41.410156 41.410156 45.152344 36.789062 45.152344 L 11.210938 45.152344 C 6.589844 45.152344 2.847656 41.410156 2.847656 36.789062 L 2.847656 11.210938 C 2.847656 6.589844 6.589844 2.847656 11.210938 2.847656 Z M 11.210938 2.847656 "/>
<path style=" stroke:none;fill-rule:nonzero;fill:rgb(24.705882%,24.705882%,24.705882%);fill-opacity:1;" d="M 19.5 16.5 C 19.5 18.15625 18.15625 19.5 16.5 19.5 C 14.84375 19.5 13.5 18.15625 13.5 16.5 C 13.5 14.84375 14.84375 13.5 16.5 13.5 C 18.15625 13.5 19.5 14.84375 19.5 16.5 Z M 19.5 16.5 "/>
<path style=" stroke:none;fill-rule:nonzero;fill:rgb(24.705882%,24.705882%,24.705882%);fill-opacity:1;" d="M 34.5 16.5 C 34.5 18.15625 33.15625 19.5 31.5 19.5 C 29.84375 19.5 28.5 18.15625 28.5 16.5 C 28.5 14.84375 29.84375 13.5 31.5 13.5 C 33.15625 13.5 34.5 14.84375 34.5 16.5 Z M 34.5 16.5 "/>
<path style=" stroke:none;fill-rule:nonzero;fill:rgb(24.705882%,24.705882%,24.705882%);fill-opacity:1;" d="M 16.011719 28.960938 C 17.660156 32.386719 20.703125 34.496094 24 34.5 C 27.292969 34.492188 30.335938 32.382812 31.984375 28.960938 L 30.863281 28.960938 C 29.113281 31.304688 26.621094 32.644531 24 32.652344 C 21.378906 32.648438 18.882812 31.304688 17.136719 28.960938 Z M 16.011719 28.960938 "/>
</g>
</svg>
