<?xml version="1.0" encoding="UTF-8"?>
<svg xmlns="http://www.w3.org/2000/svg" xmlns:xlink="http://www.w3.org/1999/xlink" width="48pt" height="48pt" viewBox="0 0 48 48" version="1.1">
<defs>
<clipPath id="clip1">
  <rect width="48" height="48"/>
</clipPath>
<g id="surface6" clip-path="url(#clip1)">
<path style=" stroke:none;fill-rule:nonzero;fill:rgb(100%,100%,100%);fill-opacity:1;" d="M 24 12.316406 C 19.464844 12.316406 15.597656 15.007812 13.9375 18.820312 C 9.710938 19.429688 6.472656 22.921875 6.472656 27.1875 C 6.472656 31.878906 10.398438 35.683594 15.238281 35.683594 L 33.859375 35.683594 C 38.09375 35.683594 41.527344 32.355469 41.527344 28.25 C 41.527344 24.433594 38.566406 21.304688 34.75 20.878906 C 33.753906 16.007812 29.316406 12.316406 24 12.316406 Z M 24 12.316406 "/>
</g>
</defs>
<g id="surface1">
<path style=" stroke:none;fill-rule:evenodd;fill:rgb(92.54902%,38.431373%,58.431373%);fill-opacity:1;" d="M 11.210938 2.847656 L 36.789062 2.847656 C 41.410156 2.847656 45.152344 6.589844 45.152344 11.210938 L 45.152344 36.789062 C 45.152344 41.410156 41.410156 45.152344 36.789062 45.152344 L 11.210938 45.152344 C 6.589844 45.152344 2.847656 41.410156 2.847656 36.789062 L 2.847656 11.210938 C 2.847656 6.589844 6.589844 2.847656 11.210938 2.847656 Z M 11.210938 2.847656 "/>
<use xlink:href="#surface6"/>
<path style=" stroke:none;fill-rule:nonzero;fill:rgb(92.54902%,38.431373%,58.431373%);fill-opacity:1;" d="M 28.671875 18.15625 L 21.664062 19.328125 L 21.664062 25.484375 C 21.308594 25.277344 20.90625 25.167969 20.496094 25.167969 C 19.203125 25.167969 18.15625 26.214844 18.15625 27.503906 C 18.15625 28.796875 19.203125 29.839844 20.496094 29.839844 C 21.785156 29.839844 22.832031 28.796875 22.832031 27.503906 L 22.832031 21.46875 L 27.503906 20.6875 L 27.503906 24.3125 C 27.148438 24.109375 26.746094 24 26.335938 24 C 25.046875 24 24 25.046875 24 26.335938 C 24 27.625 25.046875 28.671875 26.335938 28.671875 C 27.628906 28.671875 28.671875 27.625 28.671875 26.335938 Z M 28.671875 18.15625 "/>
</g>
</svg>
