<?xml version="1.0" encoding="UTF-8"?>
<svg xmlns="http://www.w3.org/2000/svg" xmlns:xlink="http://www.w3.org/1999/xlink" width="48pt" height="48pt" viewBox="0 0 48 48" version="1.1">
<g id="surface1">
<path style=" stroke:none;fill-rule:evenodd;fill:rgb(100%,100%,100%);fill-opacity:1;" d="M 2.847656 35.132812 C 5.179688 32.542969 7.53125 30.25 9.90625 28.382812 C 12.460938 26.378906 15.042969 24.769531 17.652344 23.515625 C 20.265625 22.261719 22.914062 21.363281 25.59375 20.777344 C 28.273438 20.191406 30.988281 19.921875 33.742188 19.921875 C 35.257812 19.921875 37.164062 20.601562 38.699219 20.75 C 36.246094 19.667969 31.808594 17.1875 26.691406 14.980469 C 24.132812 13.875 21.40625 12.835938 18.667969 12.078125 C 15.929688 11.316406 13.1875 10.828125 10.597656 10.828125 C 9.152344 10.828125 7.769531 10.875 6.40625 11.105469 C 5.214844 11.308594 4.039062 11.738281 2.847656 12.3125 Z M 2.847656 35.132812 "/>
<path style=" stroke:none;fill-rule:evenodd;fill:rgb(49.411765%,81.960784%,95.294118%);fill-opacity:1;" d="M 20.515625 25.707031 C 19.253906 25.796875 18.042969 26.074219 16.867188 26.5 C 15.695312 26.925781 14.566406 27.496094 13.472656 28.171875 C 11.285156 29.527344 9.242188 31.300781 7.292969 33.148438 C 9.628906 32.222656 11.824219 31.640625 13.894531 31.4375 C 15.964844 31.234375 17.910156 31.410156 19.738281 31.988281 C 20.371094 32.191406 22.265625 33.035156 23.941406 33.871094 C 26.070312 34.925781 27.660156 35.636719 29.085938 36.132812 C 30.511719 36.625 31.777344 36.902344 33.257812 37.089844 C 35.023438 37.269531 36.757812 37.136719 38.480469 36.84375 C 40.207031 36.550781 41.921875 36.089844 43.660156 35.625 L 39.667969 34.210938 C 37.804688 33.414062 35.546875 32.207031 32.324219 30.34375 C 30.140625 29.164062 28.246094 27.933594 26.367188 27.03125 C 25.425781 26.582031 24.492188 26.214844 23.527344 25.976562 C 22.566406 25.742188 21.570312 25.636719 20.515625 25.707031 Z M 20.515625 25.707031 "/>
<path style=" stroke:none;fill-rule:evenodd;fill:rgb(0.784314%,52.54902%,76.078431%);fill-opacity:1;" d="M 11.207031 2.847656 C 6.574219 2.847656 2.847656 6.578125 2.847656 11.210938 L 2.847656 12.3125 C 4.039062 11.738281 5.214844 11.308594 6.40625 11.105469 C 7.769531 10.875 9.152344 10.828125 10.597656 10.828125 C 13.1875 10.828125 15.929688 11.316406 18.667969 12.078125 C 21.40625 12.835938 24.132812 13.875 26.691406 14.980469 C 31.808594 17.1875 36.246094 19.667969 38.699219 20.75 C 37.164062 20.601562 35.257812 19.921875 33.742188 19.921875 C 30.988281 19.921875 28.273438 20.191406 25.59375 20.777344 C 22.914062 21.363281 20.265625 22.261719 17.652344 23.515625 C 15.042969 24.769531 12.460938 26.378906 9.90625 28.382812 C 7.53125 30.25 5.179688 32.542969 2.847656 35.132812 L 2.847656 36.789062 C 2.847656 41.425781 6.574219 45.152344 11.207031 45.152344 L 36.789062 45.152344 C 41.421875 45.152344 45.152344 41.425781 45.152344 36.789062 L 45.152344 11.210938 C 45.152344 6.578125 41.421875 2.847656 36.789062 2.847656 Z M 20.515625 25.707031 C 21.570312 25.636719 22.566406 25.742188 23.527344 25.976562 C 24.492188 26.214844 25.425781 26.582031 26.367188 27.03125 C 28.246094 27.933594 30.140625 29.164062 32.324219 30.34375 C 35.546875 32.207031 37.804688 33.414062 39.667969 34.210938 L 43.660156 35.625 C 41.921875 36.089844 40.207031 36.550781 38.480469 36.84375 C 36.757812 37.136719 35.023438 37.269531 33.257812 37.089844 C 31.777344 36.902344 30.511719 36.625 29.085938 36.132812 C 27.660156 35.636719 26.070312 34.925781 23.941406 33.871094 C 22.265625 33.035156 20.371094 32.191406 19.738281 31.988281 C 17.910156 31.410156 15.964844 31.234375 13.894531 31.4375 C 11.824219 31.640625 9.628906 32.222656 7.292969 33.148438 C 9.242188 31.300781 11.285156 29.527344 13.472656 28.171875 C 14.566406 27.496094 15.695312 26.925781 16.867188 26.5 C 18.042969 26.074219 19.253906 25.796875 20.515625 25.707031 Z M 20.515625 25.707031 "/>
</g>
</svg>
