<?xml version="1.0" encoding="UTF-8"?>
<svg xmlns="http://www.w3.org/2000/svg" xmlns:xlink="http://www.w3.org/1999/xlink" width="48pt" height="48pt" viewBox="0 0 48 48" version="1.1">
<g id="surface1">
<path style=" stroke:none;fill-rule:evenodd;fill:rgb(12.54902%,58.431373%,94.901961%);fill-opacity:1;" d="M 11.210938 2.847656 L 36.789062 2.847656 C 41.410156 2.847656 45.152344 6.589844 45.152344 11.210938 L 45.152344 36.789062 C 45.152344 41.410156 41.410156 45.152344 36.789062 45.152344 L 11.210938 45.152344 C 6.589844 45.152344 2.847656 41.410156 2.847656 36.789062 L 2.847656 11.210938 C 2.847656 6.589844 6.589844 2.847656 11.210938 2.847656 Z M 11.210938 2.847656 "/>
<path style=" stroke:none;fill-rule:nonzero;fill:rgb(100%,100%,100%);fill-opacity:1;" d="M 14.863281 39.601562 C 10.449219 38.132812 9.039062 34.105469 12.242188 32.113281 C 13.316406 31.445312 15.578125 31.453125 17.039062 32.125 C 17.632812 32.402344 18.207031 32.535156 18.316406 32.425781 C 18.578125 32.15625 19.066406 29.457031 20.230469 21.878906 C 21.234375 15.34375 21.390625 13.101562 20.933594 11.761719 C 20.730469 11.164062 20.738281 10.882812 20.960938 10.605469 C 21.710938 9.6875 28.28125 8.246094 31.71875 8.25 C 34.546875 8.253906 36.085938 9.058594 37.085938 11.058594 C 38.789062 14.460938 35.070312 20.3125 28.699219 24.253906 L 28.027344 24.667969 L 28.546875 25.71875 C 29.558594 27.765625 31.625 30.78125 32.867188 32.027344 C 33.558594 32.722656 34.125 33.417969 34.125 33.574219 C 34.125 33.742188 33.660156 33.855469 32.945312 33.855469 C 30.632812 33.855469 28.246094 32.125 25.054688 28.140625 C 24.5625 27.527344 24.105469 27.085938 24.035156 27.15625 C 23.964844 27.226562 23.578125 29.011719 23.167969 31.128906 C 22.226562 36.011719 21.398438 37.855469 19.652344 38.941406 C 18.738281 39.511719 18.132812 39.691406 16.972656 39.738281 C 16.148438 39.773438 15.199219 39.710938 14.863281 39.601562 Z M 27.90625 19.550781 C 29.785156 18.191406 31.394531 16.605469 32.394531 15.121094 C 33.035156 14.171875 33.289062 13.972656 33.714844 14.089844 C 34.082031 14.1875 34.019531 14.097656 33.515625 13.792969 C 32.261719 13.042969 26.796875 13.421875 26.113281 14.3125 C 25.851562 14.652344 24.863281 20.976562 25.027344 21.25 C 25.160156 21.46875 25.683594 21.160156 27.90625 19.550781 Z M 27.90625 19.550781 "/>
</g>
</svg>
