<?xml version="1.0" encoding="UTF-8"?>
<svg xmlns="http://www.w3.org/2000/svg" xmlns:xlink="http://www.w3.org/1999/xlink" width="48pt" height="48pt" viewBox="0 0 48 48" version="1.1">
<g id="surface1">
<path style=" stroke:none;fill-rule:evenodd;fill:rgb(75.686275%,15.294118%,17.647059%);fill-opacity:1;" d="M 11.210938 2.847656 L 36.789062 2.847656 C 41.410156 2.847656 45.152344 6.589844 45.152344 11.210938 L 45.152344 36.789062 C 45.152344 41.410156 41.410156 45.152344 36.789062 45.152344 L 11.210938 45.152344 C 6.589844 45.152344 2.847656 41.410156 2.847656 36.789062 L 2.847656 11.210938 C 2.847656 6.589844 6.589844 2.847656 11.210938 2.847656 Z M 11.210938 2.847656 "/>
<path style=" stroke:none;fill-rule:nonzero;fill:rgb(100%,100%,100%);fill-opacity:1;" d="M 9.621094 10.578125 C 10.753906 12.164062 11.570312 15.210938 12.011719 18.714844 C 10.457031 20.28125 9.625 22.121094 9.621094 24 C 9.625 25.929688 10.503906 27.816406 12.144531 29.410156 C 11.773438 32.863281 10.960938 35.855469 9.621094 37.421875 C 13.519531 37.421875 17.019531 35.746094 19.472656 33.089844 C 20.933594 33.417969 22.460938 33.582031 24 33.585938 C 31.941406 33.585938 38.378906 29.292969 38.378906 24 C 38.378906 18.707031 31.941406 14.414062 24 14.414062 C 22.460938 14.417969 20.933594 14.585938 19.476562 14.914062 C 17.023438 12.257812 13.523438 10.578125 9.621094 10.578125 Z M 9.621094 10.578125 "/>
<path style=" stroke:none;fill-rule:nonzero;fill:rgb(75.686275%,15.294118%,17.647059%);fill-opacity:1;" d="M 24 16.332031 C 20.375 16.332031 17.121094 17.332031 14.894531 18.816406 C 12.667969 20.300781 11.539062 22.128906 11.539062 24 C 11.542969 25.347656 12.136719 26.726562 13.480469 28.03125 C 13.902344 28.441406 14.113281 29.027344 14.050781 29.613281 C 13.84375 31.53125 13.535156 33.324219 13.023438 34.925781 C 14.96875 34.316406 16.710938 33.257812 18.066406 31.789062 C 18.527344 31.289062 19.226562 31.070312 19.890625 31.21875 C 21.210938 31.515625 22.601562 31.667969 24.003906 31.667969 C 27.628906 31.667969 30.878906 30.667969 33.105469 29.183594 C 35.332031 27.699219 36.460938 25.871094 36.460938 24 C 36.460938 22.128906 35.332031 20.300781 33.105469 18.816406 C 30.878906 17.332031 27.625 16.332031 24 16.332031 Z M 24 16.332031 "/>
<path style=" stroke:none;fill-rule:nonzero;fill:rgb(100%,100%,100%);fill-opacity:1;" d="M 18.25 22.082031 C 17.1875 22.082031 16.332031 22.941406 16.332031 24 C 16.332031 25.058594 17.1875 25.917969 18.25 25.917969 C 19.308594 25.917969 20.164062 25.058594 20.164062 24 C 20.164062 22.941406 19.308594 22.082031 18.25 22.082031 Z M 24 22.082031 C 22.941406 22.082031 22.082031 22.941406 22.082031 24 C 22.082031 25.058594 22.941406 25.917969 24 25.917969 C 25.058594 25.917969 25.917969 25.058594 25.917969 24 C 25.917969 22.941406 25.058594 22.082031 24 22.082031 Z M 29.75 22.082031 C 28.691406 22.082031 27.835938 22.941406 27.835938 24 C 27.835938 25.058594 28.691406 25.917969 29.75 25.917969 C 30.8125 25.917969 31.667969 25.058594 31.667969 24 C 31.667969 22.941406 30.8125 22.082031 29.75 22.082031 Z M 29.75 22.082031 "/>
</g>
</svg>
