<?xml version="1.0" encoding="UTF-8"?>
<svg xmlns="http://www.w3.org/2000/svg" xmlns:xlink="http://www.w3.org/1999/xlink" width="48pt" height="48pt" viewBox="0 0 48 48" version="1.1">
<g id="surface1">
<path style=" stroke:none;fill-rule:evenodd;fill:rgb(21.568627%,62.745098%,94.901961%);fill-opacity:1;" d="M 11.210938 2.847656 L 36.789062 2.847656 C 41.410156 2.847656 45.152344 6.589844 45.152344 11.210938 L 45.152344 36.789062 C 45.152344 41.410156 41.410156 45.152344 36.789062 45.152344 L 11.210938 45.152344 C 6.589844 45.152344 2.847656 41.410156 2.847656 36.789062 L 2.847656 11.210938 C 2.847656 6.589844 6.589844 2.847656 11.210938 2.847656 Z M 11.210938 2.847656 "/>
<path style=" stroke:none;fill-rule:evenodd;fill:rgb(100%,100%,100%);fill-opacity:1;" d="M 23.765625 9.75 C 22.992188 9.75 22.363281 10.375 22.363281 11.152344 C 22.363281 11.527344 22.519531 11.890625 22.789062 12.15625 L 21.09375 15.832031 C 21.050781 15.824219 21.007812 15.824219 20.964844 15.824219 C 20.542969 15.824219 20.144531 16.015625 19.878906 16.339844 L 15.914062 14.925781 C 15.902344 14.574219 15.757812 14.242188 15.507812 13.992188 C 14.960938 13.445312 14.074219 13.445312 13.527344 13.992188 C 12.980469 14.539062 12.980469 15.425781 13.527344 15.972656 C 13.773438 16.222656 14.109375 16.367188 14.460938 16.382812 L 15.875 20.34375 C 15.546875 20.609375 15.355469 21.007812 15.355469 21.429688 L 14.421875 21.429688 L 13.371094 21.554688 L 9.75 21.992188 L 9.75 26.476562 L 13.367188 26.910156 C 13.621094 27.886719 14.007812 28.824219 14.523438 29.691406 L 12.269531 32.558594 L 15.441406 35.730469 L 18.308594 33.476562 C 19.175781 33.988281 20.113281 34.378906 21.089844 34.628906 L 21.523438 38.25 L 26.007812 38.25 L 26.445312 34.628906 C 27.417969 34.378906 28.355469 33.992188 29.222656 33.476562 L 32.09375 35.730469 L 35.261719 32.558594 L 33.011719 29.6875 L 32.355469 28.859375 L 31.640625 28.140625 C 31.980469 27.875 32.175781 27.46875 32.175781 27.035156 C 32.175781 26.992188 32.171875 26.949219 32.167969 26.90625 L 35.84375 25.210938 C 36.105469 25.480469 36.46875 25.632812 36.847656 25.632812 C 37.621094 25.632812 38.25 25.007812 38.25 24.234375 C 38.25 23.457031 37.621094 22.832031 36.847656 22.832031 C 36.46875 22.832031 36.109375 22.984375 35.84375 23.257812 L 32.167969 21.5625 C 32.171875 21.515625 32.175781 21.472656 32.175781 21.429688 C 32.175781 21.007812 31.988281 20.609375 31.660156 20.34375 L 33.074219 16.382812 C 33.425781 16.367188 33.757812 16.222656 34.007812 15.972656 C 34.554688 15.425781 34.554688 14.539062 34.007812 13.992188 C 33.460938 13.445312 32.570312 13.445312 32.023438 13.992188 C 31.777344 14.242188 31.628906 14.574219 31.617188 14.925781 L 27.65625 16.339844 C 27.390625 16.011719 26.992188 15.824219 26.570312 15.824219 C 26.527344 15.824219 26.484375 15.824219 26.441406 15.832031 L 24.746094 12.15625 C 25.015625 11.890625 25.167969 11.527344 25.167969 11.152344 C 25.167969 10.375 24.539062 9.75 23.765625 9.75 Z M 23.894531 12.546875 L 25.589844 16.222656 C 25.4375 16.371094 25.320312 16.554688 25.25 16.757812 L 22.28125 16.757812 C 22.210938 16.554688 22.09375 16.371094 21.941406 16.222656 L 23.636719 12.546875 C 23.679688 12.550781 23.722656 12.550781 23.765625 12.550781 C 23.808594 12.550781 23.851562 12.550781 23.894531 12.546875 Z M 15.640625 15.820312 L 19.5625 17.222656 C 19.5625 17.433594 19.609375 17.640625 19.699219 17.828125 L 17.359375 20.167969 C 17.171875 20.074219 16.964844 20.027344 16.757812 20.027344 C 16.757812 20.027344 16.753906 20.027344 16.753906 20.027344 L 15.351562 16.105469 C 15.40625 16.066406 15.460938 16.023438 15.507812 15.972656 C 15.554688 15.925781 15.597656 15.875 15.640625 15.820312 Z M 31.894531 15.820312 C 31.933594 15.875 31.976562 15.925781 32.023438 15.972656 C 32.074219 16.023438 32.125 16.066406 32.179688 16.109375 L 30.777344 20.027344 C 30.777344 20.027344 30.777344 20.027344 30.773438 20.027344 C 30.566406 20.027344 30.359375 20.074219 30.171875 20.167969 L 27.832031 17.828125 C 27.921875 17.640625 27.972656 17.433594 27.972656 17.222656 Z M 22.28125 17.691406 L 25.25 17.691406 C 25.445312 18.25 25.976562 18.625 26.570312 18.625 C 26.777344 18.625 26.984375 18.578125 27.171875 18.488281 L 29.511719 20.828125 C 29.421875 21.015625 29.375 21.222656 29.375 21.429688 C 29.375 22.023438 29.746094 22.554688 30.308594 22.75 L 30.308594 25.714844 C 29.75 25.914062 29.375 26.441406 29.375 27.035156 C 29.375 27.367188 29.492188 27.683594 29.703125 27.9375 C 28.425781 29.988281 26.183594 31.238281 23.765625 31.242188 C 19.894531 31.242188 16.757812 28.101562 16.757812 24.234375 C 16.761719 23.757812 16.808594 23.285156 16.90625 22.820312 C 17.617188 22.746094 18.160156 22.144531 18.160156 21.429688 C 18.160156 21.21875 18.113281 21.015625 18.023438 20.824219 L 20.359375 18.488281 C 20.546875 18.578125 20.753906 18.625 20.964844 18.625 C 21.558594 18.625 22.085938 18.25 22.285156 17.691406 Z M 31.777344 22.40625 L 35.453125 24.101562 C 35.449219 24.144531 35.449219 24.1875 35.445312 24.234375 C 35.449219 24.277344 35.449219 24.320312 35.453125 24.363281 L 31.777344 26.058594 C 31.628906 25.90625 31.445312 25.789062 31.242188 25.714844 L 31.242188 22.75 C 31.445312 22.675781 31.628906 22.558594 31.777344 22.40625 Z M 31.777344 22.40625 "/>
</g>
</svg>
