<?xml version="1.0" encoding="UTF-8"?>
<svg xmlns="http://www.w3.org/2000/svg" xmlns:xlink="http://www.w3.org/1999/xlink" width="48pt" height="48pt" viewBox="0 0 48 48" version="1.1">
<g id="surface1">
<path style=" stroke:none;fill-rule:evenodd;fill:rgb(0%,49.411765%,100%);fill-opacity:1;" d="M 11.210938 2.847656 L 36.789062 2.847656 C 41.410156 2.847656 45.152344 6.589844 45.152344 11.210938 L 45.152344 36.789062 C 45.152344 41.410156 41.410156 45.152344 36.789062 45.152344 L 11.210938 45.152344 C 6.589844 45.152344 2.847656 41.410156 2.847656 36.789062 L 2.847656 11.210938 C 2.847656 6.589844 6.589844 2.847656 11.210938 2.847656 Z M 11.210938 2.847656 "/>
<path style=" stroke:none;fill-rule:nonzero;fill:rgb(60%,60%,60%);fill-opacity:1;" d="M 18.289062 29.179688 L 30.285156 29.179688 L 30.285156 38.617188 L 18.289062 38.617188 Z M 18.289062 29.179688 "/>
<path style=" stroke:none;fill-rule:nonzero;fill:rgb(30.196078%,30.196078%,30.196078%);fill-opacity:1;" d="M 18.035156 11.347656 L 30.542969 11.347656 C 32.027344 11.347656 33.234375 12.554688 33.234375 14.039062 L 33.234375 28.398438 C 33.234375 29.882812 32.027344 31.089844 30.542969 31.089844 L 18.035156 31.089844 C 16.546875 31.089844 15.339844 29.882812 15.339844 28.398438 L 15.339844 14.039062 C 15.339844 12.554688 16.546875 11.347656 18.035156 11.347656 Z M 18.035156 11.347656 "/>
<path style=" stroke:none;fill-rule:nonzero;fill:rgb(30.196078%,30.196078%,30.196078%);fill-opacity:1;" d="M 20.1875 35.082031 L 23.382812 35.082031 L 23.382812 36.902344 L 20.1875 36.902344 Z M 20.1875 35.082031 "/>
<path style=" stroke:none;fill-rule:nonzero;fill:rgb(30.196078%,30.196078%,30.196078%);fill-opacity:1;" d="M 25.191406 35.082031 L 28.386719 35.082031 L 28.386719 36.902344 L 25.191406 36.902344 Z M 25.191406 35.082031 "/>
</g>
</svg>
