<?xml version="1.0" encoding="UTF-8"?>
<svg xmlns="http://www.w3.org/2000/svg" xmlns:xlink="http://www.w3.org/1999/xlink" width="48pt" height="48pt" viewBox="0 0 48 48" version="1.1">
<g id="surface1">
<path style=" stroke:none;fill-rule:evenodd;fill:rgb(96.862745%,59.215686%,20.784314%);fill-opacity:1;" d="M 11.210938 2.847656 L 36.789062 2.847656 C 41.410156 2.847656 45.152344 6.589844 45.152344 11.210938 L 45.152344 36.789062 C 45.152344 41.410156 41.410156 45.152344 36.789062 45.152344 L 11.210938 45.152344 C 6.589844 45.152344 2.847656 41.410156 2.847656 36.789062 L 2.847656 11.210938 C 2.847656 6.589844 6.589844 2.847656 11.210938 2.847656 Z M 11.210938 2.847656 "/>
<path style=" stroke:none;fill-rule:nonzero;fill:rgb(24.705882%,24.705882%,24.705882%);fill-opacity:1;" d="M 24.027344 12.011719 C 22.859375 12 21.699219 12.164062 20.570312 12.460938 C 15.328125 13.8125 11.921875 18.773438 12 23.988281 L 9 23.988281 L 13.5 30.011719 L 18 23.988281 L 15 23.988281 C 14.988281 21.804688 15.34375 19.628906 16.855469 18 C 19.5 15.011719 24.742188 13.789062 28.523438 15.984375 C 29.78125 17.566406 32.570312 15.832031 31.105469 14.210938 C 29.023438 12.652344 26.65625 12.015625 24.027344 12.011719 Z M 34.5 17.988281 L 30 24.011719 L 33 24.011719 C 33.011719 26.195312 32.65625 28.371094 31.140625 30 C 28.296875 33.289062 23.257812 34.210938 19.476562 32.015625 C 18.21875 30.433594 15.429688 32.167969 16.894531 33.785156 C 18.976562 35.34375 21.34375 35.984375 23.972656 35.988281 L 23.976562 35.988281 C 25.144531 36 26.300781 35.835938 27.429688 35.539062 C 32.671875 34.1875 36.078125 29.226562 36 24.011719 L 39 24.011719 Z M 34.5 17.988281 "/>
</g>
</svg>
