<?xml version="1.0" encoding="UTF-8"?>
<svg xmlns="http://www.w3.org/2000/svg" xmlns:xlink="http://www.w3.org/1999/xlink" width="48pt" height="48pt" viewBox="0 0 48 48" version="1.1">
<g id="surface1">
<path style=" stroke:none;fill-rule:evenodd;fill:rgb(99.215686%,76.470588%,23.137255%);fill-opacity:1;" d="M 11.210938 2.847656 L 36.789062 2.847656 C 41.410156 2.847656 45.152344 6.589844 45.152344 11.210938 L 45.152344 36.789062 C 45.152344 41.410156 41.410156 45.152344 36.789062 45.152344 L 11.210938 45.152344 C 6.589844 45.152344 2.847656 41.410156 2.847656 36.789062 L 2.847656 11.210938 C 2.847656 6.589844 6.589844 2.847656 11.210938 2.847656 Z M 11.210938 2.847656 "/>
<path style=" stroke:none;fill-rule:nonzero;fill:rgb(91.372549%,59.607843%,3.921569%);fill-opacity:1;" d="M 36.324219 35.945312 C 36.320312 38.128906 35.78125 38.855469 28.917969 38.855469 C 26.96875 38.855469 24.59375 39.027344 23.34375 38.242188 C 22.160156 37.503906 22.585938 36.417969 22.585938 35.3125 C 22.585938 33.035156 24.816406 31.4375 28.609375 31.4375 C 32.402344 31.4375 36.324219 33.667969 36.324219 35.945312 Z M 36.324219 35.945312 "/>
<path style=" stroke:none;fill-rule:nonzero;fill:rgb(100%,100%,100%);fill-opacity:1;" d="M 24 9.128906 C 16.371094 9.128906 10.191406 15.3125 10.191406 22.9375 C 10.191406 30.566406 16.371094 36.746094 24 36.746094 C 31.628906 36.746094 37.808594 30.566406 37.808594 22.9375 C 37.808594 15.3125 31.628906 9.128906 24 9.128906 Z M 24 9.128906 "/>
<path style=" stroke:none;fill-rule:nonzero;fill:rgb(91.372549%,59.607843%,3.921569%);fill-opacity:1;" d="M 25.0625 35.945312 C 25.058594 38.128906 24.519531 38.855469 17.65625 38.855469 C 15.707031 38.855469 13.332031 39.027344 12.082031 38.242188 C 10.902344 37.503906 11.328125 36.417969 11.328125 35.3125 C 11.328125 33.035156 13.558594 31.4375 17.351562 31.4375 C 21.144531 31.4375 25.066406 33.667969 25.0625 35.945312 Z M 25.0625 35.945312 "/>
<path style=" stroke:none;fill-rule:nonzero;fill:rgb(25.490196%,25.490196%,25.490196%);fill-opacity:1;" d="M 24 20.8125 C 24 19.054688 23.046875 17.625 21.875 17.625 C 20.703125 17.625 19.75 19.054688 19.75 20.8125 C 19.75 22.574219 20.703125 24 21.875 24 C 23.046875 24 24 22.574219 24 20.8125 Z M 24 20.8125 "/>
<path style=" stroke:none;fill-rule:nonzero;fill:rgb(25.490196%,25.490196%,25.490196%);fill-opacity:1;" d="M 30.375 20.8125 C 30.375 19.054688 29.421875 17.625 28.25 17.625 C 27.074219 17.625 26.125 19.054688 26.125 20.8125 C 26.125 22.574219 27.074219 24 28.25 24 C 29.421875 24 30.375 22.574219 30.375 20.8125 Z M 30.375 20.8125 "/>
</g>
</svg>
