<?xml version="1.0" encoding="UTF-8"?>
<svg xmlns="http://www.w3.org/2000/svg" xmlns:xlink="http://www.w3.org/1999/xlink" width="48pt" height="48pt" viewBox="0 0 48 48" version="1.1">
<g id="surface1">
<path style=" stroke:none;fill-rule:evenodd;fill:rgb(50.980392%,51.372549%,84.313725%);fill-opacity:1;" d="M 11.210938 2.847656 L 36.789062 2.847656 C 41.410156 2.847656 45.152344 6.589844 45.152344 11.210938 L 45.152344 36.789062 C 45.152344 41.410156 41.410156 45.152344 36.789062 45.152344 L 11.210938 45.152344 C 6.589844 45.152344 2.847656 41.410156 2.847656 36.789062 L 2.847656 11.210938 C 2.847656 6.589844 6.589844 2.847656 11.210938 2.847656 Z M 11.210938 2.847656 "/>
<path style=" stroke:none;fill-rule:nonzero;fill:rgb(100%,100%,100%);fill-opacity:1;" d="M 4.5 12.75 L 4.5 17.25 L 7.5 17.25 L 7.5 30.75 L 13.5 30.75 L 13.5 17.25 L 16.5 17.25 L 16.5 12.75 Z M 4.5 12.75 "/>
<path style=" stroke:none;fill-rule:nonzero;fill:rgb(100%,100%,100%);fill-opacity:1;" d="M 36 12.75 L 31.5 12.75 L 35.082031 21.667969 L 31.5 30.75 L 36 30.75 L 37.5 26.25 L 39 30.75 L 43.5 30.75 L 39.917969 21.667969 L 43.5 12.75 L 39 12.75 L 37.5 17.25 Z M 36 12.75 "/>
<path style=" stroke:none;fill-rule:nonzero;fill:rgb(100%,100%,100%);fill-opacity:1;" d="M 18 17.25 L 18 35.25 L 30 35.25 L 30 30.75 L 22.5 30.75 L 22.5 27.75 L 30 27.75 L 30 24.75 L 22.5 24.75 L 22.5 21.75 L 30 21.75 L 30 17.25 Z M 18 17.25 "/>
</g>
</svg>
