<?xml version="1.0" encoding="UTF-8"?>
<svg xmlns="http://www.w3.org/2000/svg" xmlns:xlink="http://www.w3.org/1999/xlink" width="48pt" height="48pt" viewBox="0 0 48 48" version="1.1">
<g id="surface1">
<path style=" stroke:none;fill-rule:evenodd;fill:rgb(55.686275%,55.686275%,55.686275%);fill-opacity:1;" d="M 11.210938 2.847656 L 36.789062 2.847656 C 41.410156 2.847656 45.152344 6.589844 45.152344 11.210938 L 45.152344 36.789062 C 45.152344 41.410156 41.410156 45.152344 36.789062 45.152344 L 11.210938 45.152344 C 6.589844 45.152344 2.847656 41.410156 2.847656 36.789062 L 2.847656 11.210938 C 2.847656 6.589844 6.589844 2.847656 11.210938 2.847656 Z M 11.210938 2.847656 "/>
<path style=" stroke:none;fill-rule:nonzero;fill:rgb(30.980392%,30.980392%,30.980392%);fill-opacity:1;" d="M 10.738281 26.105469 C 10.691406 22.613281 11.289062 19.292969 12.511719 16.242188 C 14.042969 12.378906 16.277344 8.433594 20.230469 7.371094 C 21.140625 7.136719 23.882812 7.03125 24.054688 7.207031 C 24.101562 7.25 23.769531 7.6875 23.316406 8.179688 C 22.351562 9.242188 20.972656 10.667969 20.625 12.015625 C 20.308594 13.253906 20.3125 13.605469 20.660156 13.832031 C 21.417969 14.328125 27.695312 14.683594 28.480469 14.25 C 28.636719 14.164062 29.15625 13.871094 29.636719 13.390625 C 30.738281 12.292969 32.710938 11.082031 34.167969 10.855469 C 35.214844 10.695312 37.179688 10.828125 37.261719 11.078125 C 37.289062 11.15625 36.941406 11.480469 36.492188 11.800781 C 35.59375 12.445312 34.550781 13.320312 34.253906 13.945312 C 34.074219 14.324219 34.082031 14.441406 34.375 15.558594 C 34.832031 17.320312 35.011719 19.765625 34.824219 21.921875 C 34.625 24.269531 33.96875 28.648438 33.457031 31.0625 C 32.167969 37.15625 29.808594 40.078125 26.382812 40.796875 C 25.554688 40.972656 23.269531 40.816406 23.269531 40.816406 C 15.074219 40.363281 10.894531 33.34375 10.738281 26.105469 Z M 10.738281 26.105469 "/>
<path style=" stroke:none;fill-rule:nonzero;fill:rgb(100%,100%,100%);fill-opacity:1;" d="M 22.792969 31.835938 C 22.792969 32.835938 21.984375 33.644531 20.984375 33.644531 C 19.988281 33.644531 19.175781 32.835938 19.175781 31.835938 C 19.175781 30.839844 19.988281 30.027344 20.984375 30.027344 C 21.984375 30.027344 22.792969 30.839844 22.792969 31.835938 Z M 22.792969 31.835938 "/>
<path style=" stroke:none;fill-rule:nonzero;fill:rgb(100%,100%,100%);fill-opacity:1;" d="M 32.441406 33.042969 C 32.441406 34.042969 31.632812 34.851562 30.632812 34.851562 C 29.632812 34.851562 28.824219 34.042969 28.824219 33.042969 C 28.824219 32.042969 29.632812 31.234375 30.632812 31.234375 C 31.632812 31.234375 32.441406 32.042969 32.441406 33.042969 Z M 32.441406 33.042969 "/>
</g>
</svg>
