<?xml version="1.0" encoding="UTF-8"?>
<svg xmlns="http://www.w3.org/2000/svg" xmlns:xlink="http://www.w3.org/1999/xlink" width="48pt" height="48pt" viewBox="0 0 48 48" version="1.1">
<g id="surface1">
<path style=" stroke:none;fill-rule:evenodd;fill:rgb(90.588235%,29.803922%,23.529412%);fill-opacity:1;" d="M 11.210938 2.847656 L 36.789062 2.847656 C 41.410156 2.847656 45.152344 6.589844 45.152344 11.210938 L 45.152344 36.789062 C 45.152344 41.410156 41.410156 45.152344 36.789062 45.152344 L 11.210938 45.152344 C 6.589844 45.152344 2.847656 41.410156 2.847656 36.789062 L 2.847656 11.210938 C 2.847656 6.589844 6.589844 2.847656 11.210938 2.847656 Z M 11.210938 2.847656 "/>
<path style=" stroke:none;fill-rule:nonzero;fill:rgb(100%,100%,100%);fill-opacity:1;" d="M 24 9 C 32.285156 9 39 15.714844 39 24 C 39 28.027344 37.378906 31.886719 34.5 34.707031 L 34.5 17.125 C 34.5 15.945312 33.429688 15 32.101562 15 L 30.898438 15 C 29.570312 15 28.5 15.945312 28.5 17.125 L 28.5 21.8125 L 23.03125 18.742188 L 16.597656 15.136719 C 16.445312 15.050781 16.269531 15.003906 16.089844 15 C 15.804688 14.992188 15.527344 15.101562 15.320312 15.292969 C 15.117188 15.488281 15 15.753906 15 16.035156 L 15 30.464844 C 15 30.832031 15.203125 31.175781 15.53125 31.359375 C 15.863281 31.546875 16.269531 31.546875 16.597656 31.363281 L 23.03125 27.753906 L 28.5 24.6875 L 28.5 38.289062 C 27.042969 38.753906 25.527344 38.992188 24 39 C 15.714844 39 9 32.285156 9 24 C 9 15.714844 15.714844 9 24 9 Z M 24 9 "/>
</g>
</svg>
