<?xml version="1.0" encoding="UTF-8"?>
<svg xmlns="http://www.w3.org/2000/svg" xmlns:xlink="http://www.w3.org/1999/xlink" width="48pt" height="48pt" viewBox="0 0 48 48" version="1.1">
<g id="surface1">
<path style=" stroke:none;fill-rule:evenodd;fill:rgb(39.607843%,77.254902%,47.843137%);fill-opacity:1;" d="M 11.210938 2.847656 L 36.789062 2.847656 C 41.410156 2.847656 45.152344 6.589844 45.152344 11.210938 L 45.152344 36.789062 C 45.152344 41.410156 41.410156 45.152344 36.789062 45.152344 L 11.210938 45.152344 C 6.589844 45.152344 2.847656 41.410156 2.847656 36.789062 L 2.847656 11.210938 C 2.847656 6.589844 6.589844 2.847656 11.210938 2.847656 Z M 11.210938 2.847656 "/>
<path style=" stroke:none;fill-rule:nonzero;fill:rgb(17.647059%,35.294118%,21.568627%);fill-opacity:1;" d="M 24 8.332031 C 21.519531 8.332031 19.523438 10.328125 19.523438 12.808594 L 19.523438 18.035156 L 17.539062 16.050781 C 16.199219 14.710938 14.035156 14.710938 12.695312 16.050781 C 11.351562 17.394531 11.351562 19.554688 12.695312 20.898438 L 19.152344 27.355469 L 12.695312 33.816406 C 11.351562 35.15625 11.351562 37.320312 12.695312 38.664062 C 14.035156 40.003906 16.199219 40.003906 17.539062 38.664062 L 21.675781 34.527344 C 22.355469 34.941406 23.144531 35.191406 24 35.191406 C 24.855469 35.191406 25.644531 34.941406 26.324219 34.527344 L 30.460938 38.664062 C 31.800781 40.003906 33.964844 40.003906 35.304688 38.664062 C 36.648438 37.320312 36.648438 35.15625 35.304688 33.816406 L 28.847656 27.355469 L 35.304688 20.898438 C 36.648438 19.554688 36.648438 17.394531 35.304688 16.050781 C 33.964844 14.710938 31.800781 14.710938 30.460938 16.050781 L 28.476562 18.035156 L 28.476562 12.808594 C 28.476562 10.328125 26.480469 8.332031 24 8.332031 Z M 24 8.332031 "/>
<path style=" stroke:none;fill-rule:nonzero;fill:rgb(42.745098%,45.490196%,50.588235%);fill-opacity:1;" d="M 35.191406 26.796875 C 35.191406 20.308594 30.179688 15.046875 24 15.046875 C 17.820312 15.046875 12.808594 20.308594 12.808594 26.796875 C 12.808594 33.289062 17.820312 38.546875 24 38.546875 C 30.179688 38.546875 35.191406 33.289062 35.191406 26.796875 Z M 35.191406 26.796875 "/>
<path style=" stroke:none;fill-rule:nonzero;fill:rgb(76.862745%,76.862745%,76.862745%);fill-opacity:1;" d="M 17.316406 20.609375 C 17.015625 20.605469 16.722656 20.722656 16.511719 20.9375 C 16.296875 21.152344 16.179688 21.445312 16.183594 21.746094 L 16.179688 21.746094 L 16.179688 26.046875 C 16.179688 26.050781 16.179688 26.054688 16.179688 26.058594 C 16.175781 26.070312 16.175781 26.085938 16.175781 26.097656 C 16.171875 26.128906 16.167969 26.160156 16.167969 26.191406 C 16.167969 26.222656 16.167969 26.257812 16.171875 26.289062 C 16.171875 26.308594 16.171875 26.324219 16.175781 26.34375 C 16.175781 26.363281 16.179688 26.378906 16.179688 26.398438 L 16.179688 30.699219 C 16.179688 30.761719 16.1875 30.828125 16.195312 30.890625 C 16.203125 30.925781 16.210938 30.960938 16.21875 31 C 16.230469 31.035156 16.242188 31.070312 16.253906 31.105469 C 16.253906 31.105469 16.253906 31.105469 16.253906 31.109375 C 16.265625 31.140625 16.28125 31.171875 16.292969 31.203125 C 16.296875 31.207031 16.296875 31.207031 16.296875 31.210938 C 16.3125 31.242188 16.332031 31.273438 16.351562 31.304688 C 16.371094 31.335938 16.390625 31.367188 16.414062 31.394531 C 16.4375 31.425781 16.460938 31.453125 16.488281 31.480469 C 16.511719 31.507812 16.535156 31.53125 16.5625 31.554688 C 16.5625 31.558594 16.566406 31.558594 16.566406 31.558594 C 16.570312 31.5625 16.570312 31.5625 16.570312 31.5625 C 16.597656 31.585938 16.625 31.609375 16.65625 31.628906 C 16.683594 31.648438 16.714844 31.667969 16.746094 31.6875 C 16.75 31.6875 16.75 31.691406 16.753906 31.691406 C 16.777344 31.703125 16.796875 31.714844 16.820312 31.722656 C 16.835938 31.730469 16.847656 31.738281 16.863281 31.742188 C 16.894531 31.757812 16.921875 31.769531 16.953125 31.777344 C 17.015625 31.800781 17.082031 31.8125 17.148438 31.824219 C 17.164062 31.824219 17.183594 31.828125 17.203125 31.828125 C 17.207031 31.828125 17.214844 31.828125 17.21875 31.828125 C 17.246094 31.832031 17.273438 31.832031 17.300781 31.832031 C 17.328125 31.832031 17.355469 31.832031 17.382812 31.828125 C 17.386719 31.828125 17.390625 31.828125 17.394531 31.828125 C 17.398438 31.828125 17.398438 31.828125 17.402344 31.828125 C 17.417969 31.828125 17.4375 31.824219 17.457031 31.824219 C 17.519531 31.8125 17.585938 31.800781 17.648438 31.777344 C 17.683594 31.765625 17.714844 31.753906 17.75 31.738281 C 17.753906 31.738281 17.753906 31.738281 17.757812 31.738281 C 17.789062 31.722656 17.820312 31.707031 17.847656 31.6875 C 17.847656 31.6875 17.851562 31.6875 17.851562 31.6875 C 17.851562 31.6875 17.855469 31.6875 17.855469 31.6875 C 17.917969 31.652344 17.976562 31.609375 18.03125 31.5625 C 18.035156 31.558594 18.039062 31.558594 18.042969 31.554688 C 18.066406 31.53125 18.09375 31.507812 18.117188 31.480469 C 18.140625 31.453125 18.164062 31.425781 18.1875 31.394531 C 18.210938 31.367188 18.230469 31.335938 18.25 31.304688 C 18.269531 31.273438 18.289062 31.242188 18.304688 31.210938 C 18.304688 31.207031 18.308594 31.207031 18.308594 31.203125 C 18.324219 31.171875 18.335938 31.140625 18.347656 31.109375 C 18.347656 31.105469 18.347656 31.105469 18.347656 31.101562 C 18.363281 31.070312 18.375 31.035156 18.382812 31 C 18.390625 30.960938 18.398438 30.925781 18.40625 30.890625 C 18.417969 30.828125 18.421875 30.761719 18.421875 30.699219 L 18.421875 27.339844 L 20.65625 27.339844 L 20.65625 30.699219 C 20.65625 30.761719 20.664062 30.828125 20.671875 30.890625 C 20.679688 30.925781 20.6875 30.960938 20.695312 31 C 20.707031 31.035156 20.71875 31.070312 20.730469 31.101562 C 20.730469 31.105469 20.730469 31.105469 20.730469 31.109375 C 20.742188 31.140625 20.757812 31.171875 20.773438 31.203125 C 20.773438 31.207031 20.773438 31.207031 20.773438 31.210938 C 20.789062 31.242188 20.808594 31.273438 20.828125 31.304688 C 20.847656 31.335938 20.867188 31.367188 20.890625 31.394531 C 20.914062 31.425781 20.9375 31.453125 20.964844 31.480469 C 20.988281 31.507812 21.011719 31.53125 21.039062 31.554688 C 21.039062 31.558594 21.042969 31.558594 21.042969 31.558594 C 21.046875 31.5625 21.046875 31.5625 21.046875 31.5625 C 21.074219 31.585938 21.101562 31.609375 21.132812 31.628906 C 21.160156 31.648438 21.191406 31.667969 21.222656 31.6875 C 21.226562 31.6875 21.226562 31.6875 21.226562 31.6875 C 21.230469 31.691406 21.230469 31.691406 21.230469 31.691406 C 21.253906 31.703125 21.277344 31.714844 21.296875 31.722656 C 21.308594 31.730469 21.316406 31.734375 21.328125 31.738281 C 21.332031 31.742188 21.335938 31.742188 21.339844 31.742188 C 21.371094 31.757812 21.402344 31.769531 21.433594 31.777344 C 21.496094 31.800781 21.558594 31.8125 21.625 31.824219 C 21.640625 31.824219 21.660156 31.828125 21.679688 31.828125 C 21.683594 31.828125 21.691406 31.828125 21.695312 31.828125 C 21.722656 31.832031 21.75 31.832031 21.777344 31.832031 C 21.804688 31.832031 21.832031 31.832031 21.859375 31.828125 C 21.863281 31.828125 21.867188 31.828125 21.875 31.828125 C 21.875 31.828125 21.875 31.828125 21.878906 31.828125 C 21.894531 31.828125 21.914062 31.824219 21.933594 31.824219 C 21.996094 31.8125 22.0625 31.800781 22.125 31.777344 C 22.160156 31.765625 22.191406 31.753906 22.226562 31.738281 C 22.230469 31.738281 22.230469 31.738281 22.234375 31.738281 C 22.265625 31.722656 22.296875 31.707031 22.324219 31.6875 C 22.328125 31.6875 22.328125 31.6875 22.328125 31.6875 C 22.328125 31.6875 22.332031 31.6875 22.332031 31.6875 C 22.394531 31.652344 22.453125 31.609375 22.507812 31.5625 C 22.511719 31.5625 22.511719 31.5625 22.511719 31.558594 C 22.511719 31.558594 22.515625 31.558594 22.519531 31.554688 C 22.542969 31.53125 22.570312 31.507812 22.59375 31.480469 C 22.617188 31.453125 22.640625 31.425781 22.664062 31.394531 C 22.6875 31.367188 22.707031 31.335938 22.726562 31.304688 C 22.746094 31.273438 22.765625 31.242188 22.78125 31.210938 C 22.78125 31.210938 22.78125 31.210938 22.78125 31.207031 C 22.78125 31.207031 22.785156 31.207031 22.785156 31.203125 C 22.800781 31.171875 22.8125 31.140625 22.824219 31.109375 C 22.824219 31.105469 22.824219 31.105469 22.824219 31.105469 C 22.824219 31.105469 22.824219 31.105469 22.824219 31.101562 C 22.839844 31.070312 22.851562 31.035156 22.859375 31 C 22.867188 30.960938 22.875 30.925781 22.882812 30.890625 C 22.894531 30.828125 22.898438 30.761719 22.898438 30.699219 L 22.898438 26.398438 C 22.902344 26.378906 22.902344 26.363281 22.90625 26.34375 C 22.90625 26.324219 22.90625 26.308594 22.910156 26.289062 C 22.910156 26.269531 22.910156 26.25 22.910156 26.230469 C 22.910156 26.207031 22.910156 26.183594 22.910156 26.164062 C 22.910156 26.160156 22.910156 26.160156 22.910156 26.160156 C 22.910156 26.15625 22.910156 26.152344 22.910156 26.148438 C 22.90625 26.117188 22.902344 26.085938 22.898438 26.054688 C 22.898438 26.054688 22.898438 26.050781 22.898438 26.046875 L 22.898438 21.746094 L 22.894531 21.746094 C 22.902344 21.441406 22.78125 21.152344 22.570312 20.9375 C 22.355469 20.722656 22.0625 20.605469 21.761719 20.609375 C 21.480469 20.613281 21.210938 20.726562 21.007812 20.917969 C 20.980469 20.945312 20.953125 20.972656 20.929688 21 C 20.910156 21.023438 20.890625 21.046875 20.875 21.070312 C 20.859375 21.085938 20.847656 21.101562 20.835938 21.121094 C 20.832031 21.128906 20.828125 21.132812 20.824219 21.140625 C 20.675781 21.371094 20.613281 21.648438 20.65625 21.917969 L 20.65625 25.101562 L 18.421875 25.101562 L 18.421875 21.917969 C 18.460938 21.648438 18.402344 21.371094 18.253906 21.140625 C 18.253906 21.140625 18.253906 21.136719 18.253906 21.136719 C 18.242188 21.121094 18.230469 21.105469 18.21875 21.085938 C 18.214844 21.082031 18.210938 21.074219 18.203125 21.070312 C 18.1875 21.046875 18.167969 21.023438 18.148438 21 C 18.125 20.972656 18.097656 20.945312 18.070312 20.917969 C 17.867188 20.726562 17.597656 20.613281 17.316406 20.609375 Z M 27.359375 22.878906 C 25.503906 22.878906 24 24.382812 24 26.238281 C 24 28.09375 25.503906 29.59375 27.359375 29.59375 C 27.636719 29.59375 27.917969 29.558594 28.1875 29.484375 C 28.164062 29.578125 28.148438 29.691406 28.117188 29.773438 C 27.957031 30.234375 27.753906 30.511719 27.554688 30.644531 C 27.355469 30.777344 27.097656 30.871094 26.46875 30.738281 C 25.863281 30.609375 25.269531 30.996094 25.140625 31.601562 C 25.015625 32.207031 25.402344 32.800781 26.007812 32.929688 C 27.058594 33.152344 28.058594 33.003906 28.800781 32.503906 C 29.546875 32.003906 29.976562 31.253906 30.234375 30.507812 C 30.753906 29.015625 30.714844 27.355469 30.714844 26.238281 C 30.714844 26.195312 30.714844 26.152344 30.707031 26.109375 C 30.640625 24.308594 29.160156 22.882812 27.359375 22.878906 Z M 27.359375 25.117188 C 27.976562 25.117188 28.476562 25.621094 28.476562 26.238281 C 28.476562 26.855469 27.976562 27.355469 27.359375 27.355469 C 26.738281 27.355469 26.238281 26.855469 26.238281 26.238281 C 26.238281 25.621094 26.738281 25.117188 27.359375 25.117188 Z M 27.359375 25.117188 "/>
</g>
</svg>
