<?xml version="1.0" encoding="UTF-8"?>
<svg xmlns="http://www.w3.org/2000/svg" xmlns:xlink="http://www.w3.org/1999/xlink" width="48pt" height="48pt" viewBox="0 0 48 48" version="1.1">
<defs>
<clipPath id="clip1">
  <rect width="48" height="48"/>
</clipPath>
<g id="surface6" clip-path="url(#clip1)">
<path style=" stroke:none;fill-rule:nonzero;fill:rgb(30.196078%,30.196078%,30.196078%);fill-opacity:1;" d="M 23.046875 18 L 22.914062 19.582031 C 22.410156 19.765625 21.945312 20.035156 21.535156 20.378906 L 20.097656 19.699219 L 18.597656 22.300781 L 19.902344 23.203125 C 19.855469 23.46875 19.832031 23.734375 19.832031 24 C 19.832031 24.269531 19.855469 24.535156 19.898438 24.796875 L 18.597656 25.699219 L 20.097656 28.300781 L 21.53125 27.625 C 21.945312 27.964844 22.410156 28.234375 22.914062 28.417969 L 23.042969 30 L 26.042969 30 L 26.175781 28.417969 C 26.679688 28.234375 27.144531 27.964844 27.554688 27.621094 L 28.992188 28.300781 L 30.492188 25.699219 L 29.1875 24.796875 C 29.234375 24.53125 29.257812 24.265625 29.257812 24 C 29.257812 23.730469 29.234375 23.464844 29.191406 23.203125 L 30.492188 22.300781 L 28.992188 19.699219 L 27.558594 20.375 C 27.144531 20.035156 26.679688 19.765625 26.175781 19.582031 L 26.046875 18 Z M 24.546875 22.285156 C 25.492188 22.285156 26.257812 23.054688 26.257812 24 C 26.257812 24.945312 25.492188 25.714844 24.546875 25.714844 C 23.597656 25.714844 22.832031 24.945312 22.832031 24 C 22.832031 23.054688 23.597656 22.285156 24.542969 22.285156 Z M 24.546875 22.285156 "/>
</g>
</defs>
<g id="surface1">
<path style=" stroke:none;fill-rule:evenodd;fill:rgb(49.411765%,77.647059%,22.352941%);fill-opacity:1;" d="M 11.210938 2.847656 L 36.789062 2.847656 C 41.410156 2.847656 45.152344 6.589844 45.152344 11.210938 L 45.152344 36.789062 C 45.152344 41.410156 41.410156 45.152344 36.789062 45.152344 L 11.210938 45.152344 C 6.589844 45.152344 2.847656 41.410156 2.847656 36.789062 L 2.847656 11.210938 C 2.847656 6.589844 6.589844 2.847656 11.210938 2.847656 Z M 11.210938 2.847656 "/>
<path style=" stroke:none;fill-rule:nonzero;fill:rgb(30.196078%,30.196078%,30.196078%);fill-opacity:1;" d="M 36.441406 22.5 C 36.050781 19.4375 34.492188 16.644531 32.097656 14.703125 C 31.609375 14.882812 31.09375 15 30.546875 15 C 28.65625 15 27.035156 13.808594 26.371094 12.148438 C 25.765625 12.050781 25.15625 12.003906 24.546875 12 C 22.945312 12 21.363281 12.320312 19.890625 12.941406 L 22.171875 16.894531 C 22.9375 16.636719 23.738281 16.503906 24.542969 16.5 C 28.105469 16.503906 31.171875 19.011719 31.886719 22.5 Z M 36.4375 25.5 L 31.894531 25.5 C 31.179688 28.992188 28.109375 31.5 24.546875 31.5 C 23.738281 31.496094 22.9375 31.363281 22.171875 31.105469 L 19.894531 35.050781 C 21.367188 35.671875 22.949219 35.996094 24.542969 36 C 25.160156 35.996094 25.769531 35.941406 26.375 35.84375 C 27.042969 34.1875 28.660156 33 30.542969 33 C 31.09375 33 31.613281 33.117188 32.101562 33.300781 C 34.496094 31.351562 36.046875 28.558594 36.4375 25.5 Z M 33.546875 10.5 C 33.546875 8.84375 32.203125 7.5 30.546875 7.5 C 28.886719 7.5 27.546875 8.84375 27.546875 10.5 C 27.546875 12.15625 28.886719 13.5 30.546875 13.5 C 32.203125 13.5 33.546875 12.15625 33.546875 10.5 Z M 33.546875 37.5 C 33.546875 35.84375 32.203125 34.5 30.546875 34.5 C 28.886719 34.5 27.546875 35.84375 27.546875 37.5 C 27.546875 39.15625 28.886719 40.5 30.546875 40.5 C 32.203125 40.5 33.546875 39.15625 33.546875 37.5 Z M 19.578125 18.394531 L 17.300781 14.453125 C 15.132812 16.097656 13.589844 18.433594 12.921875 21.070312 C 13.613281 21.863281 14.046875 22.878906 14.046875 24 C 14.046875 25.117188 13.613281 26.136719 12.925781 26.925781 C 13.589844 29.566406 15.128906 31.90625 17.296875 33.554688 L 19.578125 29.609375 C 17.96875 28.1875 17.046875 26.144531 17.046875 24 C 17.050781 21.855469 17.972656 19.816406 19.578125 18.394531 Z M 12.546875 24 C 12.546875 22.34375 11.203125 21 9.546875 21 C 7.886719 21 6.546875 22.34375 6.546875 24 C 6.546875 25.65625 7.886719 27 9.546875 27 C 11.203125 27 12.546875 25.65625 12.546875 24 Z M 12.546875 24 "/>
<use xlink:href="#surface6"/>
</g>
</svg>
