<?xml version="1.0" encoding="UTF-8"?>
<svg xmlns="http://www.w3.org/2000/svg" xmlns:xlink="http://www.w3.org/1999/xlink" width="48pt" height="48pt" viewBox="0 0 48 48" version="1.1">
<g id="surface1">
<path style=" stroke:none;fill-rule:evenodd;fill:rgb(16.078431%,86.27451%,27.843137%);fill-opacity:1;" d="M 11.210938 2.847656 L 36.789062 2.847656 C 41.410156 2.847656 45.152344 6.589844 45.152344 11.210938 L 45.152344 36.789062 C 45.152344 41.410156 41.410156 45.152344 36.789062 45.152344 L 11.210938 45.152344 C 6.589844 45.152344 2.847656 41.410156 2.847656 36.789062 L 2.847656 11.210938 C 2.847656 6.589844 6.589844 2.847656 11.210938 2.847656 Z M 11.210938 2.847656 "/>
<path style=" stroke:none;fill-rule:nonzero;fill:rgb(0%,0%,0%);fill-opacity:0.666667;" d="M 21.480469 36.316406 C 19.621094 35.148438 18.097656 34.152344 18.09375 34.101562 C 18.089844 34.007812 24.847656 29.753906 25.003906 29.753906 C 25.054688 29.753906 25.097656 30.253906 25.097656 30.863281 L 25.097656 31.96875 L 25.652344 31.867188 C 27.402344 31.539062 29.238281 30.355469 30.417969 28.792969 C 32.566406 25.957031 32.582031 22.078125 30.460938 19.242188 C 30.078125 18.730469 29.785156 18.273438 29.808594 18.222656 C 29.828125 18.171875 30.476562 17.554688 31.25 16.851562 L 32.648438 15.574219 L 33.402344 16.398438 C 34.433594 17.527344 35.472656 19.707031 35.847656 21.53125 C 36.226562 23.367188 36.226562 24.625 35.847656 26.46875 C 34.898438 31.074219 31.09375 34.90625 26.578125 35.8125 L 25.175781 36.09375 L 25.128906 37.285156 C 25.105469 37.9375 25.035156 38.46875 24.972656 38.460938 C 24.914062 38.449219 23.339844 37.488281 21.480469 36.316406 Z M 14.464844 31.445312 C 12.917969 29.472656 11.867188 26.464844 11.867188 23.992188 C 11.867188 20.417969 13.792969 16.539062 16.640625 14.382812 C 18.265625 13.15625 20.640625 12.15625 22.371094 11.976562 L 22.839844 11.925781 L 22.886719 10.710938 C 22.910156 10.039062 22.988281 9.515625 23.054688 9.542969 C 23.394531 9.679688 29.921875 13.808594 29.921875 13.886719 C 29.925781 13.980469 23.152344 18.234375 23 18.234375 C 22.957031 18.234375 22.917969 17.742188 22.917969 17.144531 C 22.917969 15.867188 22.917969 15.867188 21.359375 16.417969 C 20.054688 16.878906 19.152344 17.457031 18.222656 18.429688 C 15.46875 21.300781 15.210938 25.644531 17.605469 28.816406 C 17.957031 29.285156 18.242188 29.707031 18.234375 29.75 C 18.21875 29.855469 15.480469 32.3125 15.328125 32.359375 C 15.261719 32.375 14.875 31.964844 14.464844 31.445312 Z M 14.464844 31.445312 "/>
</g>
</svg>
