<?xml version="1.0" encoding="UTF-8"?>
<svg xmlns="http://www.w3.org/2000/svg" xmlns:xlink="http://www.w3.org/1999/xlink" width="48pt" height="48pt" viewBox="0 0 48 48" version="1.1">
<g id="surface1">
<path style=" stroke:none;fill-rule:evenodd;fill:rgb(80%,80%,80%);fill-opacity:1;" d="M 11.210938 2.847656 L 36.789062 2.847656 C 41.410156 2.847656 45.152344 6.589844 45.152344 11.210938 L 45.152344 36.789062 C 45.152344 41.410156 41.410156 45.152344 36.789062 45.152344 L 11.210938 45.152344 C 6.589844 45.152344 2.847656 41.410156 2.847656 36.789062 L 2.847656 11.210938 C 2.847656 6.589844 6.589844 2.847656 11.210938 2.847656 Z M 11.210938 2.847656 "/>
<path style=" stroke:none;fill-rule:nonzero;fill:rgb(93.72549%,22.352941%,22.352941%);fill-opacity:1;" d="M 13.5 13.5 C 11.839844 13.5 10.5 14.839844 10.5 16.5 L 24 24 L 37.5 16.5 C 37.5 14.839844 36.160156 13.5 34.5 13.5 Z M 13.5 15 L 34.5 15 C 35.066406 15 35.453125 15.335938 35.710938 15.777344 L 24 22.28125 L 12.289062 15.777344 C 12.542969 15.335938 12.933594 15 13.5 15 Z M 10.5 18 L 10.5 31.5 C 10.5 33.160156 11.839844 34.5 13.5 34.5 L 34.5 34.5 C 36.160156 34.5 37.5 33.160156 37.5 31.5 L 37.5 18 L 24 25.5 Z M 12 20.550781 L 23.269531 26.8125 C 23.722656 27.066406 24.277344 27.066406 24.730469 26.8125 L 36 20.550781 L 36 31.5 C 36 32.355469 35.355469 33 34.5 33 L 13.5 33 C 12.640625 33 12 32.355469 12 31.5 Z M 12 20.550781 "/>
</g>
</svg>
