<?xml version="1.0" encoding="UTF-8"?>
<svg xmlns="http://www.w3.org/2000/svg" xmlns:xlink="http://www.w3.org/1999/xlink" width="48pt" height="48pt" viewBox="0 0 48 48" version="1.1">
<g id="surface1">
<path style=" stroke:none;fill-rule:evenodd;fill:rgb(25.882353%,41.176471%,69.019608%);fill-opacity:1;" d="M 18.558594 15.972656 C 17.335938 15.890625 16.933594 15.984375 16.933594 16.347656 C 16.933594 16.492188 16.835938 16.796875 16.714844 17.023438 C 16.511719 17.417969 16.515625 17.441406 16.824219 17.488281 C 17.15625 17.539062 17.339844 17.613281 17.425781 17.835938 C 17.511719 18.058594 17.507812 18.4375 17.457031 19.097656 C 17.402344 19.777344 17.328125 21.113281 17.289062 22.066406 C 17.25 23.019531 17.183594 24.097656 17.140625 24.453125 C 17.097656 24.8125 17 26.242188 16.925781 27.636719 C 16.855469 29.027344 16.75 30.441406 16.699219 30.777344 C 16.605469 31.382812 16.613281 31.394531 17.023438 31.394531 C 17.253906 31.394531 17.65625 31.457031 17.917969 31.53125 C 18.308594 31.644531 18.441406 31.621094 18.640625 31.410156 C 18.917969 31.117188 18.839844 31.226562 20.925781 28.214844 C 21.78125 26.980469 22.742188 25.597656 23.066406 25.144531 C 23.394531 24.691406 23.980469 23.863281 24.367188 23.304688 C 24.757812 22.742188 25.125 22.28125 25.183594 22.28125 C 25.242188 22.28125 25.277344 24.546875 25.269531 27.308594 L 25.25 32.335938 L 25.972656 32.417969 C 26.371094 32.46875 26.800781 32.515625 26.933594 32.527344 C 27.085938 32.542969 27.574219 31.957031 28.304688 30.878906 C 28.933594 29.957031 29.59375 28.996094 29.78125 28.742188 C 30.167969 28.214844 32.234375 25.246094 33.769531 23.015625 C 36.628906 18.855469 36.429688 19.101562 36.976562 19.101562 C 37.257812 19.101562 37.503906 19.019531 37.53125 18.921875 C 37.558594 18.820312 37.664062 18.457031 37.769531 18.113281 C 37.917969 17.621094 37.921875 17.464844 37.78125 17.378906 C 37.582031 17.257812 32.84375 16.914062 32.6875 17.011719 C 32.578125 17.078125 32.121094 18.410156 32.121094 18.660156 C 32.121094 18.746094 32.429688 18.8125 32.839844 18.8125 C 33.238281 18.8125 33.566406 18.855469 33.566406 18.910156 C 33.566406 18.964844 33.328125 19.375 33.039062 19.816406 C 32.753906 20.257812 31.777344 21.757812 30.875 23.152344 C 29.972656 24.542969 29.164062 25.765625 29.078125 25.863281 C 28.800781 26.191406 28.609375 26.066406 28.699219 25.617188 C 28.746094 25.382812 28.820312 24.519531 28.867188 23.703125 C 28.914062 22.882812 28.976562 21.855469 29.003906 21.417969 C 29.230469 17.894531 29.257812 16.824219 29.121094 16.742188 C 29.039062 16.691406 28.417969 16.605469 27.738281 16.554688 L 26.503906 16.460938 L 25.433594 18.105469 C 24.847656 19.011719 23.558594 21.035156 22.566406 22.601562 C 21.578125 24.171875 20.675781 25.457031 20.566406 25.460938 C 20.402344 25.464844 20.382812 25.21875 20.453125 24.128906 C 20.503906 23.394531 20.578125 21.914062 20.625 20.839844 C 20.6875 19.324219 20.707031 18.605469 20.828125 18.261719 C 20.953125 17.914062 21.179688 17.941406 21.667969 17.914062 L 22.488281 17.875 L 22.75 17.152344 C 22.890625 16.753906 23.007812 16.386719 23.007812 16.339844 C 23.007812 16.289062 22.242188 16.203125 21.308594 16.148438 C 20.371094 16.09375 19.136719 16.011719 18.558594 15.972656 Z M 18.558594 15.972656 "/>
<path style=" stroke:none;fill-rule:evenodd;fill:rgb(25.882353%,41.176471%,69.019608%);fill-opacity:1;" d="M 37.515625 45.007812 C 36.546875 44.886719 35.828125 44.796875 32.625 44.417969 C 27.246094 43.777344 26.507812 43.6875 25.320312 43.539062 C 22.5625 43.203125 18.773438 42.761719 17.222656 42.601562 C 16.785156 42.554688 16.035156 42.464844 15.558594 42.394531 C 15.082031 42.328125 14.648438 42.316406 14.59375 42.367188 C 14.542969 42.417969 14.429688 42.949219 14.347656 43.542969 C 14.265625 44.140625 14.152344 44.839844 14.101562 45.101562 C 14.089844 45.148438 14.144531 45.113281 14.136719 45.152344 L 36.792969 45.152344 C 37.046875 45.152344 37.261719 45.027344 37.515625 45.007812 Z M 37.515625 45.007812 "/>
<path style=" stroke:none;fill-rule:evenodd;fill:rgb(25.882353%,41.176471%,69.019608%);fill-opacity:1;" d="M 44.820312 38.449219 C 44.480469 38.410156 44.191406 38.375 43.832031 38.335938 C 43 38.25 41.828125 38.117188 41.230469 38.046875 C 40.636719 37.976562 39.464844 37.847656 38.628906 37.761719 C 37.792969 37.679688 36.230469 37.511719 35.15625 37.390625 C 34.082031 37.273438 32.292969 37.082031 31.179688 36.964844 C 27.90625 36.617188 27.730469 36.597656 27.203125 36.527344 C 26.921875 36.492188 26.304688 36.425781 25.828125 36.378906 C 25.351562 36.335938 24.40625 36.238281 23.730469 36.164062 C 23.054688 36.089844 21.851562 35.964844 21.054688 35.882812 C 20.261719 35.800781 19.285156 35.699219 18.886719 35.65625 C 16.519531 35.398438 15.757812 35.367188 15.644531 35.511719 C 15.578125 35.59375 15.484375 36.019531 15.4375 36.457031 C 15.390625 36.894531 15.296875 37.554688 15.226562 37.921875 L 15.105469 38.589844 L 15.910156 38.683594 C 16.355469 38.734375 17.398438 38.871094 18.234375 38.992188 C 19.070312 39.109375 20.304688 39.273438 20.980469 39.355469 C 21.660156 39.433594 22.734375 39.566406 23.371094 39.644531 C 24.007812 39.722656 25.078125 39.84375 25.753906 39.917969 C 26.429688 39.996094 28.320312 40.222656 29.949219 40.429688 C 31.582031 40.636719 33.988281 40.933594 35.300781 41.089844 C 39.632812 41.617188 40.136719 41.679688 41.160156 41.8125 C 41.613281 41.871094 42.441406 41.96875 43.15625 42.046875 C 44.003906 41.023438 44.542969 39.800781 44.820312 38.449219 Z M 44.820312 38.449219 "/>
<path style=" stroke:none;fill-rule:evenodd;fill:rgb(25.882353%,41.176471%,69.019608%);fill-opacity:1;" d="M 45.152344 31.589844 C 45.007812 31.574219 44.867188 31.554688 44.699219 31.539062 C 38.375 30.910156 38.46875 30.910156 38.335938 31.394531 C 38.285156 31.59375 38.199219 32.285156 38.144531 32.929688 L 38.042969 34.101562 L 39.097656 34.199219 C 39.675781 34.25 40.375 34.320312 40.652344 34.351562 C 40.929688 34.386719 41.839844 34.484375 42.675781 34.574219 C 43.511719 34.667969 44.554688 34.792969 44.992188 34.859375 C 45.035156 34.867188 45.101562 34.863281 45.152344 34.871094 Z M 45.152344 31.589844 "/>
<path style=" stroke:none;fill-rule:evenodd;fill:rgb(25.882353%,41.176471%,69.019608%);fill-opacity:1;" d="M 45.152344 24.699219 C 44.765625 24.667969 44.386719 24.632812 43.980469 24.597656 C 41.152344 24.34375 39.289062 24.210938 39.191406 24.257812 C 39.074219 24.3125 38.707031 27.1875 38.808594 27.285156 C 38.855469 27.332031 39.535156 27.429688 40.316406 27.503906 C 41.097656 27.578125 42.453125 27.707031 43.328125 27.789062 C 43.878906 27.84375 44.535156 27.902344 45.152344 27.957031 Z M 45.152344 24.699219 "/>
<path style=" stroke:none;fill-rule:evenodd;fill:rgb(25.882353%,41.176471%,69.019608%);fill-opacity:1;" d="M 45.152344 17.820312 C 44.328125 17.769531 43.46875 17.714844 42.71875 17.664062 C 41.433594 17.582031 40.328125 17.507812 40.261719 17.496094 C 39.886719 17.433594 39.800781 17.585938 39.71875 18.484375 C 39.667969 19.023438 39.59375 19.699219 39.550781 19.984375 C 39.503906 20.3125 39.492188 20.480469 39.726562 20.578125 C 39.960938 20.675781 40.445312 20.710938 41.402344 20.765625 C 42.222656 20.8125 43.371094 20.914062 43.953125 20.988281 C 44.296875 21.03125 44.734375 21.050781 45.152344 21.074219 Z M 45.152344 17.820312 "/>
<path style=" stroke:none;fill-rule:evenodd;fill:rgb(94.901961%,96.862745%,98.039216%);fill-opacity:1;" d="M 45.152344 12.3125 L 13.402344 10.222656 L 7.566406 44.242188 C 8.679688 44.789062 9.886719 45.152344 11.210938 45.152344 L 14.136719 45.152344 C 14.144531 45.113281 14.089844 45.148438 14.101562 45.097656 C 14.152344 44.839844 14.265625 44.140625 14.347656 43.542969 C 14.429688 42.949219 14.542969 42.417969 14.59375 42.367188 C 14.648438 42.316406 15.082031 42.328125 15.558594 42.394531 C 16.035156 42.464844 16.785156 42.554688 17.222656 42.601562 C 18.773438 42.761719 22.5625 43.203125 25.320312 43.539062 C 26.507812 43.6875 27.246094 43.777344 32.625 44.417969 C 35.828125 44.796875 36.546875 44.886719 37.515625 45.003906 C 39.808594 44.800781 41.777344 43.71875 43.15625 42.046875 C 42.441406 41.96875 41.613281 41.871094 41.160156 41.8125 C 40.136719 41.679688 39.632812 41.617188 35.300781 41.089844 C 33.988281 40.933594 31.582031 40.636719 29.949219 40.429688 C 28.320312 40.222656 26.429688 39.996094 25.753906 39.917969 C 25.078125 39.84375 24.007812 39.722656 23.371094 39.644531 C 22.734375 39.566406 21.660156 39.433594 20.980469 39.355469 C 20.304688 39.273438 19.070312 39.109375 18.234375 38.992188 C 17.398438 38.871094 16.355469 38.734375 15.910156 38.683594 L 15.105469 38.589844 L 15.226562 37.921875 C 15.296875 37.554688 15.390625 36.894531 15.4375 36.457031 C 15.484375 36.019531 15.578125 35.59375 15.644531 35.511719 C 15.757812 35.367188 16.519531 35.398438 18.886719 35.65625 C 19.285156 35.699219 20.261719 35.800781 21.054688 35.882812 C 21.851562 35.964844 23.054688 36.089844 23.730469 36.164062 C 24.40625 36.238281 25.351562 36.335938 25.828125 36.378906 C 26.304688 36.425781 26.921875 36.492188 27.203125 36.527344 C 27.730469 36.597656 27.90625 36.617188 31.179688 36.964844 C 32.292969 37.082031 34.082031 37.273438 35.15625 37.390625 C 36.230469 37.511719 37.792969 37.679688 38.628906 37.765625 C 39.464844 37.847656 40.636719 37.976562 41.230469 38.046875 C 41.828125 38.117188 43 38.25 43.832031 38.339844 C 44.191406 38.375 44.480469 38.410156 44.820312 38.449219 C 44.9375 37.894531 45.152344 37.378906 45.152344 36.792969 L 45.152344 34.871094 C 45.101562 34.863281 45.035156 34.867188 44.992188 34.859375 C 44.554688 34.792969 43.511719 34.667969 42.675781 34.574219 C 41.839844 34.484375 40.929688 34.386719 40.652344 34.351562 C 40.375 34.320312 39.675781 34.25 39.097656 34.199219 L 38.042969 34.101562 L 38.144531 32.929688 C 38.199219 32.285156 38.285156 31.59375 38.335938 31.394531 C 38.46875 30.910156 38.375 30.910156 44.699219 31.539062 C 44.867188 31.554688 45.007812 31.574219 45.152344 31.589844 L 45.152344 27.957031 C 44.535156 27.902344 43.878906 27.84375 43.328125 27.789062 C 42.453125 27.707031 41.097656 27.578125 40.316406 27.503906 C 39.535156 27.429688 38.855469 27.332031 38.808594 27.285156 C 38.707031 27.1875 39.074219 24.3125 39.191406 24.257812 C 39.289062 24.210938 41.152344 24.34375 43.980469 24.597656 C 44.386719 24.632812 44.765625 24.667969 45.152344 24.699219 L 45.152344 21.074219 C 44.734375 21.050781 44.296875 21.03125 43.953125 20.988281 C 43.371094 20.914062 42.222656 20.8125 41.402344 20.765625 C 40.445312 20.710938 39.960938 20.675781 39.726562 20.578125 C 39.492188 20.480469 39.503906 20.3125 39.550781 19.984375 C 39.59375 19.699219 39.667969 19.023438 39.71875 18.484375 C 39.800781 17.585938 39.886719 17.433594 40.261719 17.496094 C 40.328125 17.507812 41.433594 17.582031 42.71875 17.664062 C 43.46875 17.714844 44.328125 17.769531 45.152344 17.820312 Z M 18.558594 15.972656 C 19.136719 16.011719 20.371094 16.09375 21.308594 16.148438 C 22.242188 16.203125 23.007812 16.289062 23.007812 16.339844 C 23.007812 16.386719 22.890625 16.753906 22.75 17.148438 L 22.488281 17.875 L 21.667969 17.914062 C 21.179688 17.941406 20.953125 17.914062 20.828125 18.261719 C 20.707031 18.605469 20.6875 19.324219 20.625 20.839844 C 20.578125 21.914062 20.503906 23.394531 20.453125 24.128906 C 20.382812 25.21875 20.402344 25.464844 20.566406 25.457031 C 20.675781 25.457031 21.578125 24.171875 22.566406 22.601562 C 23.558594 21.035156 24.847656 19.011719 25.433594 18.105469 L 26.503906 16.457031 L 27.738281 16.550781 C 28.417969 16.605469 29.039062 16.691406 29.121094 16.738281 C 29.257812 16.824219 29.230469 17.894531 29.003906 21.414062 C 28.976562 21.851562 28.914062 22.882812 28.867188 23.699219 C 28.820312 24.519531 28.746094 25.382812 28.699219 25.617188 C 28.609375 26.066406 28.800781 26.191406 29.078125 25.863281 C 29.164062 25.765625 29.972656 24.542969 30.875 23.148438 C 31.777344 21.757812 32.753906 20.257812 33.039062 19.816406 C 33.328125 19.375 33.566406 18.964844 33.566406 18.910156 C 33.566406 18.855469 33.238281 18.8125 32.839844 18.8125 C 32.429688 18.8125 32.121094 18.746094 32.121094 18.660156 C 32.121094 18.410156 32.578125 17.078125 32.6875 17.011719 C 32.84375 16.914062 37.582031 17.257812 37.78125 17.378906 C 37.921875 17.464844 37.917969 17.621094 37.769531 18.113281 C 37.664062 18.457031 37.558594 18.820312 37.53125 18.917969 C 37.503906 19.019531 37.257812 19.101562 36.980469 19.101562 C 36.429688 19.101562 36.628906 18.855469 33.769531 23.015625 C 32.234375 25.246094 30.167969 28.214844 29.78125 28.742188 C 29.59375 28.996094 28.933594 29.957031 28.308594 30.878906 C 27.574219 31.957031 27.085938 32.542969 26.933594 32.527344 C 26.800781 32.515625 26.371094 32.46875 25.972656 32.417969 L 25.25 32.335938 L 25.269531 27.308594 C 25.277344 24.546875 25.242188 22.28125 25.183594 22.28125 C 25.125 22.28125 24.757812 22.742188 24.367188 23.304688 C 23.980469 23.863281 23.394531 24.691406 23.066406 25.144531 C 22.742188 25.597656 21.78125 26.980469 20.925781 28.210938 C 18.839844 31.226562 18.917969 31.117188 18.640625 31.410156 C 18.441406 31.621094 18.308594 31.644531 17.917969 31.53125 C 17.65625 31.457031 17.253906 31.394531 17.023438 31.394531 C 16.613281 31.394531 16.605469 31.382812 16.699219 30.777344 C 16.75 30.441406 16.855469 29.027344 16.925781 27.636719 C 17 26.242188 17.097656 24.8125 17.140625 24.453125 C 17.183594 24.097656 17.25 23.019531 17.289062 22.066406 C 17.328125 21.113281 17.402344 19.777344 17.457031 19.097656 C 17.507812 18.4375 17.511719 18.058594 17.425781 17.835938 C 17.339844 17.613281 17.15625 17.539062 16.824219 17.488281 C 16.515625 17.441406 16.511719 17.417969 16.714844 17.023438 C 16.835938 16.796875 16.933594 16.492188 16.933594 16.347656 C 16.933594 15.984375 17.335938 15.890625 18.558594 15.972656 Z M 18.558594 15.972656 "/>
<path style=" stroke:none;fill-rule:evenodd;fill:rgb(25.882353%,41.176471%,69.019608%);fill-opacity:1;" d="M 11.210938 2.847656 C 6.578125 2.847656 2.847656 6.578125 2.847656 11.210938 L 2.847656 36.789062 C 2.847656 40.101562 4.792969 42.886719 7.566406 44.242188 L 13.402344 10.222656 L 45.152344 12.3125 L 45.152344 11.210938 C 45.152344 6.578125 41.425781 2.847656 36.789062 2.847656 Z M 11.210938 2.847656 "/>
</g>
</svg>
