<?xml version="1.0" encoding="UTF-8"?>
<svg xmlns="http://www.w3.org/2000/svg" xmlns:xlink="http://www.w3.org/1999/xlink" width="48pt" height="48pt" viewBox="0 0 48 48" version="1.1">
<g id="surface1">
<path style=" stroke:none;fill-rule:evenodd;fill:rgb(90.196078%,90.196078%,90.196078%);fill-opacity:1;" d="M 11.210938 2.847656 L 36.789062 2.847656 C 41.410156 2.847656 45.152344 6.589844 45.152344 11.210938 L 45.152344 36.789062 C 45.152344 41.410156 41.410156 45.152344 36.789062 45.152344 L 11.210938 45.152344 C 6.589844 45.152344 2.847656 41.410156 2.847656 36.789062 L 2.847656 11.210938 C 2.847656 6.589844 6.589844 2.847656 11.210938 2.847656 Z M 11.210938 2.847656 "/>
<path style=" stroke:none;fill-rule:nonzero;fill:rgb(90.980392%,25.882353%,15.686275%);fill-opacity:1;" d="M 11.1875 3 L 11.1875 45 L 24 37.695312 L 36.8125 45 L 36.8125 3 Z M 24 16.453125 L 26.25 21.703125 L 31.5 22.453125 L 27.75 26.203125 L 28.5 31.453125 L 24 29.203125 L 19.5 31.453125 L 20.25 26.203125 L 16.5 22.453125 L 21.75 21.703125 Z M 24 16.453125 "/>
</g>
</svg>
