<?xml version="1.0" encoding="UTF-8"?>
<svg xmlns="http://www.w3.org/2000/svg" xmlns:xlink="http://www.w3.org/1999/xlink" width="48pt" height="48pt" viewBox="0 0 48 48" version="1.1">
<defs>
<filter id="alpha" filterUnits="objectBoundingBox" x="0%" y="0%" width="100%" height="100%">
  <feColorMatrix type="matrix" in="SourceGraphic" values="0 0 0 0 1 0 0 0 0 1 0 0 0 0 1 0 0 0 1 0"/>
</filter>
<mask id="mask0">
  <g filter="url(#alpha)">
<rect x="0" y="0" width="48" height="48" style="fill:rgb(0%,0%,0%);fill-opacity:0.2;stroke:none;"/>
  </g>
</mask>
<clipPath id="clip1">
  <rect width="48" height="48"/>
</clipPath>
<g id="surface6" clip-path="url(#clip1)">
<path style=" stroke:none;fill-rule:nonzero;fill:rgb(100%,100%,100%);fill-opacity:1;" d="M 8.753906 36.582031 L 22.074219 36.582031 C 22.773438 36.582031 23.339844 37.191406 23.339844 37.941406 L 23.339844 40.507812 C 23.339844 41.257812 22.773438 41.867188 22.074219 41.867188 L 8.753906 41.867188 C 8.054688 41.867188 7.488281 41.257812 7.488281 40.507812 L 7.488281 37.941406 C 7.488281 37.191406 8.054688 36.582031 8.753906 36.582031 Z M 8.753906 36.582031 "/>
</g>
<mask id="mask1">
  <g filter="url(#alpha)">
<rect x="0" y="0" width="48" height="48" style="fill:rgb(0%,0%,0%);fill-opacity:0.2;stroke:none;"/>
  </g>
</mask>
<clipPath id="clip2">
  <rect width="48" height="48"/>
</clipPath>
<g id="surface9" clip-path="url(#clip2)">
<path style=" stroke:none;fill-rule:nonzero;fill:rgb(100%,100%,100%);fill-opacity:1;" d="M 25.925781 36.582031 L 39.246094 36.582031 C 39.945312 36.582031 40.511719 37.191406 40.511719 37.941406 L 40.511719 40.507812 C 40.511719 41.257812 39.945312 41.867188 39.246094 41.867188 L 25.925781 41.867188 C 25.226562 41.867188 24.660156 41.257812 24.660156 40.507812 L 24.660156 37.941406 C 24.660156 37.191406 25.226562 36.582031 25.925781 36.582031 Z M 25.925781 36.582031 "/>
</g>
</defs>
<g id="surface1">
<path style=" stroke:none;fill-rule:evenodd;fill:rgb(14.509804%,22.352941%,31.764706%);fill-opacity:1;" d="M 45.152344 34.746094 L 2.847656 34.746094 L 2.847656 36.789062 C 2.847656 41.421875 6.578125 45.152344 11.210938 45.152344 L 36.792969 45.152344 C 41.425781 45.152344 45.152344 41.421875 45.152344 36.789062 Z M 45.152344 34.746094 "/>
<path style=" stroke:none;fill-rule:evenodd;fill:rgb(29.019608%,70.196078%,89.411765%);fill-opacity:1;" d="M 11.210938 2.847656 C 6.578125 2.847656 2.847656 6.578125 2.847656 11.210938 L 2.847656 34.746094 L 45.152344 34.746094 L 45.152344 11.210938 C 45.152344 6.578125 41.425781 2.847656 36.792969 2.847656 Z M 11.210938 2.847656 "/>
<use xlink:href="#surface6" mask="url(#mask0)"/>
<use xlink:href="#surface9" mask="url(#mask1)"/>
<path style=" stroke:none;fill-rule:nonzero;fill:rgb(100%,100%,100%);fill-opacity:1;" d="M 8.808594 37.902344 L 11.453125 37.902344 L 11.453125 40.542969 L 8.808594 40.542969 Z M 8.808594 37.902344 "/>
<path style=" stroke:none;fill-rule:nonzero;fill:rgb(100%,100%,100%);fill-opacity:1;" d="M 25.980469 37.902344 L 28.625 37.902344 L 28.625 40.542969 L 25.980469 40.542969 Z M 25.980469 37.902344 "/>
</g>
</svg>
