<?xml version="1.0" encoding="UTF-8"?>
<svg xmlns="http://www.w3.org/2000/svg" xmlns:xlink="http://www.w3.org/1999/xlink" width="48pt" height="48pt" viewBox="0 0 48 48" version="1.1">
<g id="surface1">
<path style=" stroke:none;fill-rule:evenodd;fill:rgb(100%,78.823529%,20%);fill-opacity:1;" d="M 4.8125 -7.726562 L 43.1875 -7.726562 C 50.109375 -7.726562 55.726562 -2.109375 55.726562 4.8125 L 55.726562 43.1875 C 55.726562 50.109375 50.109375 55.726562 43.1875 55.726562 L 4.8125 55.726562 C -2.109375 55.726562 -7.726562 50.109375 -7.726562 43.1875 L -7.726562 4.8125 C -7.726562 -2.109375 -2.109375 -7.726562 4.8125 -7.726562 Z M 4.8125 -7.726562 "/>
<path style=" stroke:none;fill-rule:nonzero;fill:rgb(97.647059%,97.647059%,97.647059%);fill-opacity:1;" d="M 18.082031 44.046875 C 18.011719 43.933594 18.625 42.941406 19.449219 41.847656 C 21.550781 39.042969 22.695312 37.289062 21.757812 36.203125 C 21.375 35.757812 20.851562 35.25 17.71875 35.25 C 10.941406 35.25 8.160156 33.9375 6.058594 31.660156 C 3.167969 28.53125 2.207031 22.15625 3.691406 16.84375 C 5.433594 10.613281 12.101562 6 22.019531 4.167969 C 28.480469 3.324219 36.207031 3.375 41.035156 8.03125 C 45.308594 12.296875 46.257812 20.183594 43.246094 26.453125 C 41.277344 30.554688 37.6875 34.097656 33.214844 35.289062 C 31.648438 35.703125 31.449219 35.851562 29.054688 38.367188 C 26.492188 41.054688 23.050781 42.703125 20.660156 43.726562 C 19.375 44.277344 18.308594 44.410156 18.082031 44.046875 Z M 18.082031 44.046875 "/>
</g>
</svg>
