<?xml version="1.0" encoding="UTF-8"?>
<svg xmlns="http://www.w3.org/2000/svg" xmlns:xlink="http://www.w3.org/1999/xlink" width="48pt" height="48pt" viewBox="0 0 48 48" version="1.1">
<g id="surface1">
<path style=" stroke:none;fill-rule:evenodd;fill:rgb(37.647059%,37.647059%,37.647059%);fill-opacity:1;" d="M 11.210938 2.847656 L 36.789062 2.847656 C 41.410156 2.847656 45.152344 6.589844 45.152344 11.210938 L 45.152344 36.789062 C 45.152344 41.410156 41.410156 45.152344 36.789062 45.152344 L 11.210938 45.152344 C 6.589844 45.152344 2.847656 41.410156 2.847656 36.789062 L 2.847656 11.210938 C 2.847656 6.589844 6.589844 2.847656 11.210938 2.847656 Z M 11.210938 2.847656 "/>
<path style=" stroke:none;fill-rule:nonzero;fill:rgb(30.980392%,30.980392%,30.980392%);fill-opacity:1;" d="M 23.015625 14.632812 C 16.109375 14.632812 17.714844 20.71875 14.183594 22.617188 C 10.597656 24.652344 12.570312 26.472656 13.152344 28.4375 C 14.132812 31.714844 16.875 29.398438 24.984375 27.453125 C 33.097656 25.503906 34.839844 25.796875 33.863281 22.519531 C 33.273438 20.578125 35.203125 18.777344 31.011719 18.605469 C 27.605469 18.789062 27.945312 14.632812 23.015625 14.632812 Z M 23.015625 14.632812 "/>
<path style=" stroke:none;fill-rule:nonzero;fill:rgb(18.039216%,44.705882%,87.058824%);fill-opacity:1;" d="M 38.6875 21.953125 C 37.707031 18.675781 30.335938 17.597656 22.226562 19.546875 C 14.113281 21.492188 8.335938 25.730469 9.3125 29.007812 C 10.292969 32.285156 17.664062 33.363281 25.773438 31.414062 C 33.886719 29.464844 39.664062 25.230469 38.6875 21.953125 Z M 38.6875 21.953125 "/>
<path style=" stroke:none;fill-rule:nonzero;fill:rgb(100%,100%,100%);fill-opacity:1;" d="M 31.855469 28.273438 C 31.488281 26.597656 28.113281 25.972656 24.316406 26.878906 C 20.523438 27.785156 17.746094 29.882812 18.117188 31.558594 C 18.484375 33.234375 21.859375 33.859375 25.65625 32.953125 C 29.449219 32.046875 32.226562 29.953125 31.855469 28.273438 Z M 31.855469 28.273438 "/>
</g>
</svg>
