<?xml version="1.0" encoding="UTF-8"?>
<svg xmlns="http://www.w3.org/2000/svg" xmlns:xlink="http://www.w3.org/1999/xlink" width="48pt" height="48pt" viewBox="0 0 48 48" version="1.1">
<defs>
<clipPath id="clip1">
  <rect width="48" height="48"/>
</clipPath>
<g id="surface6" clip-path="url(#clip1)">
<path style=" stroke:none;fill-rule:nonzero;fill:rgb(100%,100%,100%);fill-opacity:1;" d="M 24.027344 10.78125 C 26.65625 10.785156 29.320312 11.652344 31.40625 13.371094 C 32.871094 15.152344 30.078125 17.066406 28.824219 15.324219 C 25.039062 12.902344 19.703125 13.753906 16.859375 17.375 C 15.34375 19.171875 14.492188 21.570312 14.5 23.976562 L 17 23.976562 C 15.667969 26.089844 14.332031 28.207031 13 30.320312 L 9 23.976562 L 11.5 23.976562 C 11.421875 18.230469 15.328125 12.765625 20.574219 11.277344 C 21.699219 10.949219 22.855469 10.765625 24.023438 10.78125 Z M 35 17.65625 C 36.332031 19.769531 37.667969 21.886719 39 24.003906 L 36.5 24.003906 C 36.570312 29.816406 32.5625 35.34375 27.226562 36.753906 C 23.625 37.820312 19.554688 37.042969 16.59375 34.609375 C 15.085938 32.792969 17.914062 30.902344 19.179688 32.65625 C 22.847656 35.011719 27.980469 34.265625 30.871094 30.902344 C 32.546875 29.078125 33.511719 26.546875 33.5 24.003906 L 31 24.003906 Z M 35 17.65625 "/>
</g>
</defs>
<g id="surface1">
<path style=" stroke:none;fill-rule:evenodd;fill:rgb(36.470588%,70.588235%,24.313725%);fill-opacity:1;" d="M 11.210938 2.847656 L 36.789062 2.847656 C 41.410156 2.847656 45.152344 6.589844 45.152344 11.210938 L 45.152344 36.789062 C 45.152344 41.410156 41.410156 45.152344 36.789062 45.152344 L 11.210938 45.152344 C 6.589844 45.152344 2.847656 41.410156 2.847656 36.789062 L 2.847656 11.210938 C 2.847656 6.589844 6.589844 2.847656 11.210938 2.847656 Z M 11.210938 2.847656 "/>
<use xlink:href="#surface6"/>
</g>
</svg>
